{
    "goal": {
        "global_pose": {
            "orientation": {
                "w": 0.005598929693374612,
                "x": 0.007748599140229565,
                "y": 0.7110244013736278,
                "z": -0.7031023480610252
            },
            "position": {
                "x": 0.1141497679147869,
                "y": -0.7141253447532654,
                "z": 0.3711530566215515
            }
        },
        "name": "move_to_auspresseinheit_B"
    },
    "id": "RRTstar_move_to_auspresseinheit_B_67",
    "joint_names": [
        "shoulder_pan_joint",
        "shoulder_lift_joint",
        "elbow_joint",
        "wrist_1_joint",
        "wrist_2_joint",
        "wrist_3_joint"
    ],
    "metrics": {
        "cart_traj_len": 0.5644425151685434,
        "distance_elbow_joint": 0.06380771372933691,
        "distance_shoulder_lift_joint": 0.29336310975998336,
        "distance_shoulder_pan_joint": 0.5782615460805482,
        "distance_wrist_1_joint": 0.3303032989638217,
        "distance_wrist_2_joint": 0.9851463819663298,
        "distance_wrist_3_joint": 0.0008794944805936566,
        "smoothness": 5.075305255429287e-16,
        "time": 5.005401828,
        "traj_len": 1.5005870667777375,
        "weighted_distance": 1.8891718330718232
    },
    "planner": "RRTstar",
    "start": {
        "state": {
            "elbow_joint": 2.0193083361928714,
            "shoulder_lift_joint": -1.1220246554650708,
            "shoulder_pan_joint": -1.0952077554168747,
            "wrist_1_joint": -0.8559753972642168,
            "wrist_2_joint": 0.4759566250798843,
            "wrist_3_joint": -3.1240929996934557
        }
    },
    "waypoints": [
        {
            "positions": [
                -1.0952077554168747,
                -1.1220246554650708,
                2.0193083361928714,
                -0.8559753972642168,
                0.4759566250798843,
                -3.1240929996934557
            ]
        },
        {
            "positions": [
                -1.1915846797636327,
                -1.1709185070917347,
                2.008673717237982,
                -0.8009248474369132,
                0.6401476887409392,
                -3.1239464172800235
            ]
        },
        {
            "positions": [
                -1.2879616041103907,
                -1.2198123587183987,
                1.9980390982830925,
                -0.7458742976096095,
                0.8043387524019943,
                -3.123799834866591
            ]
        },
        {
            "positions": [
                -1.3843385284571488,
                -1.2687062103450626,
                1.987404479328203,
                -0.6908237477823059,
                0.9685298160630491,
                -3.123653252453159
            ]
        },
        {
            "positions": [
                -1.4807154528039068,
                -1.3176000619717263,
                1.9767698603733135,
                -0.6357731979550023,
                1.1327208797241042,
                -3.1235066700397267
            ]
        },
        {
            "positions": [
                -1.5770923771506649,
                -1.3664939135983902,
                1.9661352414184239,
                -0.5807226481276987,
                1.296911943385159,
                -3.123360087626294
            ]
        },
        {
            "positions": [
                -1.673469301497423,
                -1.4153877652250542,
                1.9555006224635345,
                -0.5256720983003951,
                1.461103007046214,
                -3.123213505212862
            ]
        }
    ]
}