{
    "goal": {
        "global_pose": {
            "orientation": {
                "w": 0.7031023480610252,
                "x": -0.7110244013736278,
                "y": 0.0077485991402295624,
                "z": 0.005598929693374583
            },
            "position": {
                "x": -0.8841497679147869,
                "y": 0.44412534475326537,
                "z": 0.3711530566215515
            }
        },
        "name": "move_to_auspresseinheit_D"
    },
    "id": "RRTstar_move_to_auspresseinheit_D_22",
    "joint_names": [
        "shoulder_pan_joint",
        "shoulder_lift_joint",
        "elbow_joint",
        "wrist_1_joint",
        "wrist_2_joint",
        "wrist_3_joint"
    ],
    "metrics": {
        "cart_traj_len": 0.3432691457846324,
        "distance_elbow_joint": 0.6356932582499544,
        "distance_shoulder_lift_joint": 0.11951686845661325,
        "distance_shoulder_pan_joint": 0.13396764505769482,
        "distance_wrist_1_joint": 0.5216156769075222,
        "distance_wrist_2_joint": 1.4411871521164024,
        "distance_wrist_3_joint": 0.000853897964528727,
        "smoothness": 3.947459674368863e-16,
        "time": 5.000102275000001,
        "traj_len": 1.6890335990597451,
        "weighted_distance": 2.1948451252208425
    },
    "planner": "RRTstar",
    "start": {
        "state": {
            "elbow_joint": -1.8275523626775212,
            "shoulder_lift_joint": -2.126789852344167,
            "shoulder_pan_joint": -0.03513704404078235,
            "wrist_1_joint": -2.347782403156801,
            "wrist_2_joint": -1.6058999987535132,
            "wrist_3_joint": -3.0880379163319196
        }
    },
    "waypoints": [
        {
            "positions": [
                -0.03513704404078235,
                -2.126789852344167,
                -1.8275523626775212,
                -2.347782403156801,
                -1.6058999987535132,
                -3.0880379163319196
            ]
        },
        {
            "positions": [
                -0.0518829996729942,
                -2.1417294609012436,
                -1.7480907053962769,
                -2.412984362770241,
                -1.425751604738963,
                -3.0881446535774857
            ]
        },
        {
            "positions": [
                -0.06862895530520605,
                -2.15666906945832,
                -1.6686290481150325,
                -2.4781863223836815,
                -1.2456032107244126,
                -3.088251390823052
            ]
        },
        {
            "positions": [
                -0.0853749109374179,
                -2.1716086780153967,
                -1.5891673908337882,
                -2.543388281997122,
                -1.0654548167098623,
                -3.088358128068618
            ]
        },
        {
            "positions": [
                -0.10212086656962976,
                -2.1865482865724735,
                -1.509705733552544,
                -2.608590241610562,
                -0.885306422695312,
                -3.088464865314184
            ]
        },
        {
            "positions": [
                -0.11886682220184161,
                -2.2014878951295502,
                -1.4302440762712996,
                -2.673792201224002,
                -0.7051580286807617,
                -3.08857160255975
            ]
        },
        {
            "positions": [
                -0.13561277783405346,
                -2.216427503686627,
                -1.3507824189900555,
                -2.7389941608374424,
                -0.5250096346662114,
                -3.088678339805316
            ]
        },
        {
            "positions": [
                -0.15235873346626533,
                -2.2313671122437033,
                -1.2713207617088111,
                -2.8041961204508827,
                -0.3448612406516611,
                -3.0887850770508822
            ]
        },
        {
            "positions": [
                -0.16910468909847717,
                -2.24630672080078,
                -1.1918591044275668,
                -2.869398080064323,
                -0.16471284663711072,
                -3.0888918142964483
            ]
        }
    ]
}