{
    "goal": {
        "global_pose": {
            "orientation": {
                "w": 0.7031023480610252,
                "x": -0.7110244013736278,
                "y": 0.0077485991402295624,
                "z": 0.005598929693374583
            },
            "position": {
                "x": -0.8841497679147869,
                "y": 0.44412534475326537,
                "z": 0.3711530566215515
            }
        },
        "name": "move_to_auspresseinheit_D"
    },
    "id": "RRTstar_move_to_auspresseinheit_D_91",
    "joint_names": [
        "shoulder_pan_joint",
        "shoulder_lift_joint",
        "elbow_joint",
        "wrist_1_joint",
        "wrist_2_joint",
        "wrist_3_joint"
    ],
    "metrics": {
        "cart_traj_len": 0.34356915481434325,
        "distance_elbow_joint": 0.6385014240040412,
        "distance_shoulder_lift_joint": 0.1209092322197689,
        "distance_shoulder_pan_joint": 0.13436131424115397,
        "distance_wrist_1_joint": 0.5348599565109904,
        "distance_wrist_2_joint": 1.4304375007407044,
        "distance_wrist_3_joint": 0.003591655108302838,
        "smoothness": 7.894919182364742e-16,
        "time": 5.001677846,
        "traj_len": 1.691940035233212,
        "weighted_distance": 2.1988955978611773
    },
    "planner": "RRTstar",
    "start": {
        "state": {
            "elbow_joint": -1.8275523626775212,
            "shoulder_lift_joint": -2.126789852344167,
            "shoulder_pan_joint": -0.03513704404078235,
            "wrist_1_joint": -2.347782403156801,
            "wrist_2_joint": -1.6058999987535132,
            "wrist_3_joint": -3.0880379163319196
        }
    },
    "waypoints": [
        {
            "positions": [
                -0.03513704404078235,
                -2.126789852344167,
                -1.8275523626775212,
                -2.347782403156801,
                -1.6058999987535132,
                -3.0880379163319196
            ]
        },
        {
            "positions": [
                -0.0519322083209266,
                -2.141903506371638,
                -1.7477396846770161,
                -2.414639897720675,
                -1.427095311160925,
                -3.0884868732204573
            ]
        },
        {
            "positions": [
                -0.06872737260107084,
                -2.157017160399109,
                -1.6679270066765108,
                -2.4814973922845485,
                -1.248290623568337,
                -3.088935830108995
            ]
        },
        {
            "positions": [
                -0.08552253688121508,
                -2.17213081442658,
                -1.5881143286760058,
                -2.548354886848422,
                -1.0694859359757491,
                -3.0893847869975333
            ]
        },
        {
            "positions": [
                -0.10231770116135933,
                -2.1872444684540513,
                -1.5083016506755005,
                -2.615212381412296,
                -0.890681248383161,
                -3.089833743886071
            ]
        },
        {
            "positions": [
                -0.11911286544150357,
                -2.2023581224815225,
                -1.4284889726749954,
                -2.68206987597617,
                -0.7118765607905729,
                -3.0902827007746088
            ]
        },
        {
            "positions": [
                -0.13590802972164784,
                -2.2174717765089937,
                -1.3486762946744904,
                -2.7489273705400437,
                -0.5330718731979849,
                -3.090731657663147
            ]
        },
        {
            "positions": [
                -0.15270319400179208,
                -2.2325854305364645,
                -1.2688636166739853,
                -2.8157848651039172,
                -0.35426718560539694,
                -3.0911806145516847
            ]
        },
        {
            "positions": [
                -0.16949835828193632,
                -2.2476990845639357,
                -1.18905093867348,
                -2.8826423596677913,
                -0.17546249801280883,
                -3.0916295714402224
            ]
        }
    ]
}