{
    "goal": {
        "global_pose": {
            "orientation": {
                "w": 0.5084816217422485,
                "x": -0.49083608388900757,
                "y": 0.5182115435600281,
                "z": -0.4816462993621826
            },
            "position": {
                "x": 0.5540239810943604,
                "y": 0.030875300988554955,
                "z": 0.16403168439865112
            }
        },
        "name": "move_to_storage_A"
    },
    "id": "RRTstar_move_to_storage_A_27",
    "joint_names": [
        "shoulder_pan_joint",
        "shoulder_lift_joint",
        "elbow_joint",
        "wrist_1_joint",
        "wrist_2_joint",
        "wrist_3_joint"
    ],
    "metrics": {
        "cart_traj_len": 0.3531101197977691,
        "distance_elbow_joint": 0.4480146592577141,
        "distance_shoulder_lift_joint": 0.23612150920247332,
        "distance_shoulder_pan_joint": 0.4611501345847085,
        "distance_wrist_1_joint": 0.23350422544330607,
        "distance_wrist_2_joint": 1.101931416119445,
        "distance_wrist_3_joint": 0.09612189688861594,
        "smoothness": 1.5543122343307022e-15,
        "time": 5.000252275999999,
        "traj_len": 1.6052550705405864,
        "weighted_distance": 2.0259623088389986
    },
    "planner": "RRTstar",
    "start": {
        "state": {
            "elbow_joint": 1.971548259319323,
            "shoulder_lift_joint": -1.1394851275133948,
            "shoulder_pan_joint": 0.1228115487234821,
            "wrist_1_joint": -0.7804723859257726,
            "wrist_2_joint": 0.12958671773740124,
            "wrist_3_joint": -3.192489227718131
        }
    },
    "waypoints": [
        {
            "positions": [
                0.1228115487234821,
                -1.1394851275133948,
                1.971548259319323,
                -0.7804723859257726,
                0.12958671773740124,
                -3.192489227718131
            ]
        },
        {
            "positions": [
                0.05693295806852375,
                -1.1732167716851767,
                2.0355503534989965,
                -0.8138301324176734,
                0.28700549146875054,
                -3.1787575281626146
            ]
        },
        {
            "positions": [
                -0.008945632586434604,
                -1.2069484158569586,
                2.0995524476786698,
                -0.8471878789095744,
                0.4444242652000998,
                -3.165025828607098
            ]
        },
        {
            "positions": [
                -0.07482422324139296,
                -1.2406800600287404,
                2.1635545418583435,
                -0.8805456254014752,
                0.6018430389314491,
                -3.1512941290515815
            ]
        },
        {
            "positions": [
                -0.1407028138963513,
                -1.2744117042005225,
                2.227556636038017,
                -0.9139033718933761,
                0.7592618126627984,
                -3.137562429496065
            ]
        },
        {
            "positions": [
                -0.2065814045513097,
                -1.3081433483723044,
                2.29155873021769,
                -0.9472611183852769,
                0.9166805863941476,
                -3.1238307299405483
            ]
        },
        {
            "positions": [
                -0.272459995206268,
                -1.3418749925440863,
                2.355560824397364,
                -0.9806188648771779,
                1.074099360125497,
                -3.1100990303850318
            ]
        },
        {
            "positions": [
                -0.3383385858612264,
                -1.3756066367158681,
                2.419562918577037,
                -1.0139766113690787,
                1.2315181338568462,
                -3.096367330829515
            ]
        }
    ]
}{
    "goal": {
        "global_pose": {
            "orientation": {
                "w": 0.5084816217422485,
                "x": -0.49083608388900757,
                "y": 0.5182115435600281,
                "z": -0.4816462993621826
            },
            "position": {
                "x": 0.5540239810943604,
                "y": 0.030875300988554955,
                "z": 0.16403168439865112
            }
        },
        "name": "move_to_storage_A"
    },
    "id": "RRTstar_move_to_storage_A_27",
    "joint_names": [
        "shoulder_pan_joint",
        "shoulder_lift_joint",
        "elbow_joint",
        "wrist_1_joint",
        "wrist_2_joint",
        "wrist_3_joint"
    ],
    "metrics": {
        "cart_traj_len": 0.353704423436303,
        "distance_elbow_joint": 0.450871546911209,
        "distance_shoulder_lift_joint": 0.23501503058709283,
        "distance_shoulder_pan_joint": 0.46378876440150174,
        "distance_wrist_1_joint": 0.24632940832614003,
        "distance_wrist_2_joint": 1.0948358546623518,
        "distance_wrist_3_joint": 0.09575703695909654,
        "smoothness": 8.881784197001252e-16,
        "time": 5.000392447,
        "traj_len": 1.608290285317732,
        "weighted_distance": 2.0296002017033
    },
    "planner": "RRTstar",
    "start": {
        "state": {
            "elbow_joint": 1.97154746011099,
            "shoulder_lift_joint": -1.13948474672311,
            "shoulder_pan_joint": 0.12281154466712228,
            "wrist_1_joint": -0.7804688027058302,
            "wrist_2_joint": 0.12958655903071145,
            "wrist_3_joint": 3.0906928834467795
        }
    },
    "waypoints": [
        {
            "positions": [
                0.12281154466712228,
                -1.13948474672311,
                1.97154746011099,
                -0.7804688027058302,
                0.12958655903071145,
                3.0906928834467795
            ]
        },
        {
            "positions": [
                0.05655600689547918,
                -1.173058322521266,
                2.0359576810983055,
                -0.815658718180993,
                0.28599168112533313,
                3.104372460155222
            ]
        },
        {
            "positions": [
                -0.009699530876163917,
                -1.2066318983194222,
                2.100367902085621,
                -0.8508486336561559,
                0.4423968032199548,
                3.118052036863664
            ]
        },
        {
            "positions": [
                -0.07595506864780703,
                -1.2402054741175783,
                2.164778123072937,
                -0.8860385491313187,
                0.5988019253145764,
                3.1317316135721067
            ]
        },
        {
            "positions": [
                -0.1422106064194501,
                -1.2737790499157344,
                2.229188344060252,
                -0.9212284646064817,
                0.7552070474091982,
                3.145411190280549
            ]
        },
        {
            "positions": [
                -0.20846614419109322,
                -1.3073526257138905,
                2.2935985650475677,
                -0.9564183800816445,
                0.91161216950382,
                3.1590907669889914
            ]
        },
        {
            "positions": [
                -0.27472168196273633,
                -1.3409262015120467,
                2.3580087860348833,
                -0.9916082955568073,
                1.0680172915984414,
                3.1727703436974335
            ]
        },
        {
            "positions": [
                -0.34097721973437944,
                -1.3744997773102028,
                2.422419007022199,
                -1.0267982110319702,
                1.2244224136930633,
                3.186449920405876
            ]
        }
    ]
}{
    "goal": {
        "global_pose": {
            "orientation": {
                "w": 0.5084816217422485,
                "x": -0.49083608388900757,
                "y": 0.5182115435600281,
                "z": -0.4816462993621826
            },
            "position": {
                "x": 0.5540239810943604,
                "y": 0.030875300988554955,
                "z": 0.16403168439865112
            }
        },
        "name": "move_to_storage_A"
    },
    "id": "RRTstar_move_to_storage_A_27",
    "joint_names": [
        "shoulder_pan_joint",
        "shoulder_lift_joint",
        "elbow_joint",
        "wrist_1_joint",
        "wrist_2_joint",
        "wrist_3_joint"
    ],
    "metrics": {
        "cart_traj_len": 0.3533558933023982,
        "distance_elbow_joint": 0.4478882633473158,
        "distance_shoulder_lift_joint": 0.23397924523935587,
        "distance_shoulder_pan_joint": 0.46204533425761934,
        "distance_wrist_1_joint": 0.23783278543086128,
        "distance_wrist_2_joint": 1.0986778908936632,
        "distance_wrist_3_joint": 0.09348234235870789,
        "smoothness": 4.440892133664971e-16,
        "time": 5.052791812,
        "traj_len": 1.6043396964257675,
        "weighted_distance": 2.0241989088450434
    },
    "planner": "RRTstar",
    "start": {
        "state": {
            "elbow_joint": 1.9715472970024885,
            "shoulder_lift_joint": -1.1394870060712896,
            "shoulder_pan_joint": 0.12281152778156021,
            "wrist_1_joint": -0.780463741449964,
            "wrist_2_joint": 0.12958659822042276,
            "wrist_3_joint": 3.090690232415272
        }
    },
    "waypoints": [
        {
            "positions": [
                0.12281152778156021,
                -1.1394870060712896,
                1.9715472970024885,
                -0.780463741449964,
                0.12958659822042276,
                3.090690232415272
            ]
        },
        {
            "positions": [
                0.056805051459043174,
                -1.1729126125340548,
                2.0355313346235335,
                -0.8144398536543728,
                0.2865405826338032,
                3.10404485275223
            ]
        },
        {
            "positions": [
                -0.009201424863473862,
                -1.20633821899682,
                2.099515372244579,
                -0.8484159658587815,
                0.4434945670471837,
                3.1173994730891885
            ]
        },
        {
            "positions": [
                -0.07520790118599091,
                -1.239763825459585,
                2.163499409865624,
                -0.8823920780631902,
                0.6004485514605641,
                3.130754093426147
            ]
        },
        {
            "positions": [
                -0.14121437750850793,
                -1.27318943192235,
                2.227483447486669,
                -0.916368190267599,
                0.7574025358739446,
                3.1441087137631047
            ]
        },
        {
            "positions": [
                -0.20722085383102498,
                -1.3066150383851152,
                2.291467485107714,
                -0.9503443024720077,
                0.9143565202873251,
                3.157463334100063
            ]
        },
        {
            "positions": [
                -0.27322733015354206,
                -1.3400406448478803,
                2.3554515227287594,
                -0.9843204146764165,
                1.0713105047007054,
                3.1708179544370214
            ]
        },
        {
            "positions": [
                -0.3392338064760591,
                -1.3734662513106455,
                2.4194355603498043,
                -1.0182965268808253,
                1.228264489114086,
                3.1841725747739797
            ]
        }
    ]
}