{
    "goal": {
        "global_pose": {
            "orientation": {
                "w": 0.7047431468963623,
                "x": -0.7094548344612122,
                "y": 0.0024358443915843964,
                "z": -0.0022348060738295317
            },
            "position": {
                "x": 0.6094750761985779,
                "y": 0.3671506643295288,
                "z": 0.19426114857196808
            }
        },
        "name": "move_to_magneteinheit_A"
    },
    "id": "RRTstar_move_to_magneteinheit_A_130",
    "joint_names": [
        "shoulder_pan_joint",
        "shoulder_lift_joint",
        "elbow_joint",
        "wrist_1_joint",
        "wrist_2_joint",
        "wrist_3_joint"
    ],
    "metrics": {
        "cart_traj_len": 3.3547377812099746,
        "distance_elbow_joint": 3.910800147389872,
        "distance_shoulder_lift_joint": 0.4906320220256223,
        "distance_shoulder_pan_joint": 2.701848391995633,
        "distance_wrist_1_joint": 3.449918923939858,
        "distance_wrist_2_joint": 1.431592215722839,
        "distance_wrist_3_joint": 0.4451662460923926,
        "smoothness": 0.006055403024744907,
        "time": 5.015248394,
        "traj_len": 3.525614548864669,
        "weighted_distance": 4.26635694463247
    },
    "planner": "RRTstar",
    "start": {
        "state": {
            "elbow_joint": -1.9196185241190666,
            "shoulder_lift_joint": -1.2443396400964142,
            "shoulder_pan_joint": 2.6996025414629847,
            "wrist_1_joint": -1.5485510000780065,
            "wrist_2_joint": -1.5709468930060704,
            "wrist_3_joint": 0.4420197071253992
        }
    },
    "waypoints": [
        {
            "positions": [
                2.6996025414629847,
                -1.2443396400964142,
                -1.9196185241190666,
                -1.5485510000780065,
                -1.5709468930060704,
                0.4420197071253992
            ]
        },
        {
            "positions": [
                2.5485430500835853,
                -1.2171374300455946,
                -1.810444659632061,
                -1.5023661216506932,
                -1.5440304166886887,
                0.41723296947340094
            ]
        },
        {
            "positions": [
                2.3974835587041863,
                -1.189935219994775,
                -1.7012707951450552,
                -1.4561812432233796,
                -1.517113940371307,
                0.39244623182140265
            ]
        },
        {
            "positions": [
                2.246424067324787,
                -1.1627330099439555,
                -1.5920969306580492,
                -1.4099963647960663,
                -1.4901974640539253,
                0.36765949416940436
            ]
        },
        {
            "positions": [
                2.0953645759453874,
                -1.1355307998931359,
                -1.4829230661710435,
                -1.363811486368753,
                -1.4632809877365436,
                0.3428727565174061
            ]
        },
        {
            "positions": [
                1.944305084565988,
                -1.1083285898423163,
                -1.3737492016840376,
                -1.3176266079414394,
                -1.4363645114191619,
                0.3180860188654079
            ]
        },
        {
            "positions": [
                1.7932455931865887,
                -1.0811263797914967,
                -1.2645753371970319,
                -1.271441729514126,
                -1.40944803510178,
                0.2932992812134096
            ]
        },
        {
            "positions": [
                1.6421861018071893,
                -1.0539241697406774,
                -1.1554014727100261,
                -1.2252568510868125,
                -1.3825315587843983,
                0.2685125435614113
            ]
        },
        {
            "positions": [
                1.49112661042779,
                -1.0267219596898578,
                -1.0462276082230204,
                -1.1790719726594991,
                -1.3556150824670166,
                0.24372580590941306
            ]
        },
        {
            "positions": [
                1.3400671190483906,
                -0.9995197496390382,
                -0.9370537437360147,
                -1.1328870942321858,
                -1.3286986061496349,
                0.2189390682574148
            ]
        },
        {
            "positions": [
                1.1890076276689914,
                -0.9723175395882186,
                -0.8278798792490087,
                -1.0867022158048725,
                -1.3017821298322532,
                0.19415233060541653
            ]
        },
        {
            "positions": [
                1.0379481362895921,
                -0.9451153295373991,
                -0.718706014762003,
                -1.0405173373775591,
                -1.2748656535148715,
                0.1693655929534183
            ]
        },
        {
            "positions": [
                0.8868886449101926,
                -0.9179131194865795,
                -0.6095321502749973,
                -0.9943324589502456,
                -1.2479491771974898,
                0.14457885530142
            ]
        },
        {
            "positions": [
                0.7966724513518703,
                -0.9015450427247562,
                -0.49926989937000577,
                -0.908202880000128,
                -1.2104859647534258,
                0.12972094935513795
            ]
        },
        {
            "positions": [
                0.7064562577935478,
                -0.8851769659629329,
                -0.3890076484650143,
                -0.8220733010500106,
                -1.173022752309362,
                0.11486304340885589
            ]
        },
        {
            "positions": [
                0.6162400642352255,
                -0.8688088892011097,
                -0.2787453975600228,
                -0.7359437220998932,
                -1.135559539865298,
                0.10000513746257383
            ]
        },
        {
            "positions": [
                0.5260238706769031,
                -0.8524408124392864,
                -0.16848314665503128,
                -0.6498141431497757,
                -1.098096327421234,
                0.08514723151629178
            ]
        },
        {
            "positions": [
                0.4358076771185807,
                -0.836072735677463,
                -0.05822089575003975,
                -0.5636845641996582,
                -1.0606331149771702,
                0.0702893255700097
            ]
        },
        {
            "positions": [
                0.3455914835602584,
                -0.8197046589156397,
                0.052041355154951674,
                -0.47755498524954076,
                -1.0231699025331062,
                0.05543141962372765
            ]
        },
        {
            "positions": [
                0.25537529000193604,
                -0.8033365821538164,
                0.16230360605994332,
                -0.39142540629942324,
                -0.9857066900890423,
                0.04057351367744558
            ]
        },
        {
            "positions": [
                0.1651590964436137,
                -0.7869685053919931,
                0.27256585696493474,
                -0.3052958273493058,
                -0.9482434776449784,
                0.025715607731163534
            ]
        },
        {
            "positions": [
                0.07494290288529126,
                -0.7706004286301699,
                0.38282810786992627,
                -0.2191662483991883,
                -0.9107802652009145,
                0.010857701784881456
            ]
        },
        {
            "positions": [
                0.07351810796026348,
                -0.7699711855374659,
                0.5211756546618215,
                -0.04031662717222939,
                -0.8453490433486318,
                0.010457229202724034
            ]
        },
        {
            "positions": [
                0.07209331303523571,
                -0.769341942444762,
                0.6595232014537167,
                0.13853299405472952,
                -0.7799178214963493,
                0.010056756620566614
            ]
        },
        {
            "positions": [
                0.07066851811020793,
                -0.768712699352058,
                0.797870748245612,
                0.31738261528168843,
                -0.7144865996440666,
                0.009656284038409194
            ]
        },
        {
            "positions": [
                0.06924372318518016,
                -0.768083456259354,
                0.9362182950375072,
                0.49623223650864734,
                -0.649055377791784,
                0.009255811456251772
            ]
        },
        {
            "positions": [
                0.06781892826015237,
                -0.7674542131666502,
                1.0745658418294024,
                0.6750818577356062,
                -0.5836241559395013,
                0.00885533887409435
            ]
        },
        {
            "positions": [
                0.06639413333512459,
                -0.7668249700739462,
                1.2129133886212977,
                0.8539314789625652,
                -0.5181929340872187,
                0.00845486629193693
            ]
        },
        {
            "positions": [
                0.06496933841009682,
                -0.7661957269812423,
                1.3512609354131928,
                1.032781100189524,
                -0.4527617122349361,
                0.00805439370977951
            ]
        },
        {
            "positions": [
                0.06354454348506904,
                -0.7655664838885383,
                1.4896084822050881,
                1.211630721416483,
                -0.38733049038265344,
                0.0076539211276220875
            ]
        },
        {
            "positions": [
                0.06211974856004126,
                -0.7649372407958344,
                1.6279560289969834,
                1.390480342643442,
                -0.32189926853037076,
                0.0072534485454646665
            ]
        },
        {
            "positions": [
                0.06069495363501348,
                -0.7643079977031304,
                1.7663035757888785,
                1.5693299638704008,
                -0.25646804667808826,
                0.0068529759633072455
            ]
        },
        {
            "positions": [
                0.09216535571884507,
                -0.7696081875192997,
                1.8787425995298415,
                1.7353489438661263,
                -0.19791136198065995,
                0.011852733428457593
            ]
        },
        {
            "positions": [
                0.12363575780267665,
                -0.7749083773354689,
                1.9911816232708044,
                1.901367923861852,
                -0.13935467728323161,
                0.016852490893607942
            ]
        }
    ]
}