{
    "goal": {
        "global_pose": {
            "orientation": {
                "w": 0.005598929693374612,
                "x": 0.007748599140229565,
                "y": 0.7110244013736278,
                "z": -0.7031023480610252
            },
            "position": {
                "x": -0.8858502320852131,
                "y": -0.7141253447532654,
                "z": 0.3711530566215515
            }
        },
        "name": "move_to_auspresseinheit_C"
    },
    "id": "RRTstar_move_to_auspresseinheit_C_116",
    "joint_names": [
        "shoulder_pan_joint",
        "shoulder_lift_joint",
        "elbow_joint",
        "wrist_1_joint",
        "wrist_2_joint",
        "wrist_3_joint"
    ],
    "metrics": {
        "cart_traj_len": 0.49304214821464404,
        "distance_elbow_joint": 0.9927443293380378,
        "distance_shoulder_lift_joint": 0.3211532743341927,
        "distance_shoulder_pan_joint": 0.25618368132897995,
        "distance_wrist_1_joint": 0.65837857265581,
        "distance_wrist_2_joint": 1.3124368226535181,
        "distance_wrist_3_joint": 0.04899390929081049,
        "smoothness": 6.459479416000911e-16,
        "time": 5.000088713999999,
        "traj_len": 1.8947006596297338,
        "weighted_distance": 2.378800917162321
    },
    "planner": "RRTstar",
    "start": {
        "state": {
            "elbow_joint": 1.7527959577737207,
            "shoulder_lift_joint": -0.9740617694225068,
            "shoulder_pan_joint": -2.967991417825858,
            "wrist_1_joint": -0.759517768980727,
            "wrist_2_joint": 1.7443932448377408,
            "wrist_3_joint": -3.0840537646736568
        }
    },
    "waypoints": [
        {
            "positions": [
                -2.967991417825858,
                -0.9740617694225068,
                1.7527959577737207,
                -0.759517768980727,
                1.7443932448377408,
                -3.0840537646736568
            ]
        },
        {
            "positions": [
                -2.94237304969296,
                -0.9419464419890875,
                1.6535215248399169,
                -0.693679911715146,
                1.613149562572389,
                -3.088953155602738
            ]
        },
        {
            "positions": [
                -2.916754681560062,
                -0.9098311145556682,
                1.554247091906113,
                -0.627842054449565,
                1.4819058803070373,
                -3.093852546531819
            ]
        },
        {
            "positions": [
                -2.891136313427164,
                -0.877715787122249,
                1.4549726589723093,
                -0.562004197183984,
                1.3506621980416855,
                -3.0987519374609
            ]
        },
        {
            "positions": [
                -2.865517945294266,
                -0.8456004596888297,
                1.3556982260385055,
                -0.496166339918403,
                1.2194185157763335,
                -3.103651328389981
            ]
        },
        {
            "positions": [
                -2.839899577161368,
                -0.8134851322554104,
                1.2564237931047018,
                -0.430328482652822,
                1.0881748335109818,
                -3.1085507193190622
            ]
        },
        {
            "positions": [
                -2.81428120902847,
                -0.7813698048219911,
                1.157149360170898,
                -0.364490625387241,
                0.95693115124563,
                -3.113450110248143
            ]
        },
        {
            "positions": [
                -2.788662840895572,
                -0.7492544773885719,
                1.0578749272370942,
                -0.29865276812166003,
                0.8256874689802782,
                -3.118349501177224
            ]
        },
        {
            "positions": [
                -2.763044472762674,
                -0.7171391499551526,
                0.9586004943032904,
                -0.23281491085607897,
                0.6944437867149262,
                -3.123248892106305
            ]
        },
        {
            "positions": [
                -2.737426104629776,
                -0.6850238225217333,
                0.8593260613694866,
                -0.16697705359049797,
                0.5632001044495745,
                -3.128148283035386
            ]
        },
        {
            "positions": [
                -2.711807736496878,
                -0.6529084950883141,
                0.7600516284356829,
                -0.10113919632491701,
                0.4319564221842228,
                -3.1330476739644673
            ]
        }
    ]
}