{
    "goal": {
        "global_pose": {
            "orientation": {
                "w": 0.7031023480610252,
                "x": -0.7110244013736278,
                "y": 0.0077485991402295624,
                "z": 0.005598929693374583
            },
            "position": {
                "x": -0.8841497679147869,
                "y": 0.44412534475326537,
                "z": 0.3711530566215515
            }
        },
        "name": "move_to_auspresseinheit_D"
    },
    "id": "RRTstar_move_to_auspresseinheit_D_32",
    "joint_names": [
        "shoulder_pan_joint",
        "shoulder_lift_joint",
        "elbow_joint",
        "wrist_1_joint",
        "wrist_2_joint",
        "wrist_3_joint"
    ],
    "metrics": {
        "cart_traj_len": 0.34262583262026547,
        "distance_elbow_joint": 0.6305550939303941,
        "distance_shoulder_lift_joint": 0.11760166101813008,
        "distance_shoulder_pan_joint": 0.13408923117219804,
        "distance_wrist_1_joint": 0.5038299955903018,
        "distance_wrist_2_joint": 1.4419234465251896,
        "distance_wrist_3_joint": 0.02929617546531693,
        "smoothness": 1.381610878086344e-15,
        "time": 5.0008109,
        "traj_len": 1.6903536918945485,
        "weighted_distance": 2.2049130134197257
    },
    "planner": "RRTstar",
    "start": {
        "state": {
            "elbow_joint": -1.8275523626775212,
            "shoulder_lift_joint": -2.126789852344167,
            "shoulder_pan_joint": -0.03513704404078235,
            "wrist_1_joint": -2.347782403156801,
            "wrist_2_joint": -1.6058999987535132,
            "wrist_3_joint": -3.0880379163319196
        }
    },
    "waypoints": [
        {
            "positions": [
                -0.03513704404078235,
                -2.126789852344167,
                -1.8275523626775212,
                -2.347782403156801,
                -1.6058999987535132,
                -3.0880379163319196
            ]
        },
        {
            "positions": [
                -0.0518981979373071,
                -2.1414900599714333,
                -1.748732975936222,
                -2.4107611526055885,
                -1.4256595679378645,
                -3.091699938265084
            ]
        },
        {
            "positions": [
                -0.06865935183383186,
                -2.1561902675986993,
                -1.6699135891949226,
                -2.473739902054376,
                -1.2454191371222159,
                -3.095361960198249
            ]
        },
        {
            "positions": [
                -0.08542050573035662,
                -2.1708904752259657,
                -1.5910942024536234,
                -2.536718651503164,
                -1.065178706306567,
                -3.0990239821314134
            ]
        },
        {
            "positions": [
                -0.10218165962688136,
                -2.185590682853232,
                -1.512274815712324,
                -2.5996974009519516,
                -0.8849382754909184,
                -3.1026860040645783
            ]
        },
        {
            "positions": [
                -0.11894281352340613,
                -2.200290890480498,
                -1.4334554289710248,
                -2.6626761504007397,
                -0.7046978446752697,
                -3.1063480259977427
            ]
        },
        {
            "positions": [
                -0.13570396741993088,
                -2.2149910981077645,
                -1.3546360422297257,
                -2.7256548998495274,
                -0.524457413859621,
                -3.110010047930907
            ]
        },
        {
            "positions": [
                -0.15246512131645562,
                -2.2296913057350305,
                -1.2758166554884265,
                -2.788633649298315,
                -0.3442169830439723,
                -3.113672069864072
            ]
        },
        {
            "positions": [
                -0.1692262752129804,
                -2.244391513362297,
                -1.196997268747127,
                -2.8516123987471027,
                -0.16397655222832372,
                -3.1173340917972365
            ]
        }
    ]
}