{
    "goal": {
        "global_pose": {
            "orientation": {
                "w": 0.005598929693374612,
                "x": 0.007748599140229565,
                "y": 0.7110244013736278,
                "z": -0.7031023480610252
            },
            "position": {
                "x": 0.1141497679147869,
                "y": -0.7141253447532654,
                "z": 0.3711530566215515
            }
        },
        "name": "move_to_auspresseinheit_B"
    },
    "id": "RRTstar_move_to_auspresseinheit_B_63",
    "joint_names": [
        "shoulder_pan_joint",
        "shoulder_lift_joint",
        "elbow_joint",
        "wrist_1_joint",
        "wrist_2_joint",
        "wrist_3_joint"
    ],
    "metrics": {
        "cart_traj_len": 0.5644652291567672,
        "distance_elbow_joint": 0.05974701404564309,
        "distance_shoulder_lift_joint": 0.29430830219570714,
        "distance_shoulder_pan_joint": 0.5786037922339766,
        "distance_wrist_1_joint": 0.31669542492973624,
        "distance_wrist_2_joint": 0.9856632645266217,
        "distance_wrist_3_joint": 0.006790782917617477,
        "smoothness": 0.0,
        "time": 5.000736656,
        "traj_len": 1.4972670372546448,
        "weighted_distance": 1.88619957484379
    },
    "planner": "RRTstar",
    "start": {
        "state": {
            "elbow_joint": 2.0193083361928714,
            "shoulder_lift_joint": -1.1220246554650708,
            "shoulder_pan_joint": -1.0952077554168747,
            "wrist_1_joint": -0.8559753972642168,
            "wrist_2_joint": 0.4759566250798843,
            "wrist_3_joint": -3.1240929996934557
        }
    },
    "waypoints": [
        {
            "positions": [
                -1.0952077554168747,
                -1.1220246554650708,
                2.0193083361928714,
                -0.8559753972642168,
                0.4759566250798843,
                -3.1240929996934557
            ]
        },
        {
            "positions": [
                -1.191641720789204,
                -1.1710760391643553,
                2.0093505005185976,
                -0.803192826442594,
                0.6402338358343213,
                -3.1252247968463918
            ]
        },
        {
            "positions": [
                -1.2880756861615335,
                -1.2201274228636398,
                1.9993926648443237,
                -0.7504102556209714,
                0.8045110465887582,
                -3.1263565939993283
            ]
        },
        {
            "positions": [
                -1.3845096515338629,
                -1.2691788065629244,
                1.9894348291700499,
                -0.6976276847993487,
                0.9687882573431952,
                -3.1274883911522644
            ]
        },
        {
            "positions": [
                -1.4809436169061923,
                -1.318230190262209,
                1.979476993495776,
                -0.644845113977726,
                1.133065468097632,
                -3.1286201883052005
            ]
        },
        {
            "positions": [
                -1.5773775822785219,
                -1.3672815739614934,
                1.969519157821502,
                -0.5920625431561033,
                1.297342678852069,
                -3.129751985458137
            ]
        },
        {
            "positions": [
                -1.6738115476508513,
                -1.416332957660778,
                1.9595613221472283,
                -0.5392799723344806,
                1.461619889606506,
                -3.130883782611073
            ]
        }
    ]
}