{
    "goal": {
        "global_pose": {
            "orientation": {
                "w": 0.7031023502349854,
                "x": -0.7110244035720825,
                "y": 0.007748599164187908,
                "z": 0.005598929710686207
            },
            "position": {
                "x": 0.11585023208521307,
                "y": 0.44412534475326537,
                "z": 0.3711530566215515
            }
        },
        "name": "move_to_auspresseinheit_A"
    },
    "id": "RRTstar_move_to_auspresseinheit_A_57",
    "joint_names": [
        "shoulder_pan_joint",
        "shoulder_lift_joint",
        "elbow_joint",
        "wrist_1_joint",
        "wrist_2_joint",
        "wrist_3_joint"
    ],
    "metrics": {
        "cart_traj_len": 0.6646704565054906,
        "distance_elbow_joint": 0.23810239012982581,
        "distance_shoulder_lift_joint": 0.5965141216248435,
        "distance_shoulder_pan_joint": 1.0431431759493575,
        "distance_wrist_1_joint": 0.5976850525925224,
        "distance_wrist_2_joint": 0.5220099009790254,
        "distance_wrist_3_joint": 0.9637832761711445,
        "smoothness": 0.774770484123366,
        "time": 5.00995362,
        "traj_len": 1.9902858883704924,
        "weighted_distance": 2.6473570638205484
    },
    "planner": "RRTstar",
    "start": {
        "state": {
            "elbow_joint": 2.4225746658250005,
            "shoulder_lift_joint": -1.3736534386056498,
            "shoulder_pan_joint": -0.3378633547517467,
            "wrist_1_joint": -1.0288598680537169,
            "wrist_2_joint": 1.233022673432363,
            "wrist_3_joint": -3.0940220416140027
        }
    },
    "waypoints": [
        {
            "positions": [
                -0.3378633547517467,
                -1.3736534386056498,
                2.4225746658250005,
                -1.0288598680537169,
                1.233022673432363,
                -3.0940220416140027
            ]
        },
        {
            "positions": [
                -0.2262836441057306,
                -1.4545386559891105,
                2.4376917162709644,
                -0.946633978542105,
                1.1981475247395303,
                -3.027530496255912
            ]
        },
        {
            "positions": [
                -0.11470393345971447,
                -1.5354238733725711,
                2.452808766716928,
                -0.864408089030493,
                1.1632723760466979,
                -2.961038950897821
            ]
        },
        {
            "positions": [
                -0.0031242228136983408,
                -1.6163090907560318,
                2.4679258171628917,
                -0.782182199518881,
                1.1283972273538652,
                -2.8945474055397304
            ]
        },
        {
            "positions": [
                0.10845548783231779,
                -1.6971943081394927,
                2.483042867608855,
                -0.6999563100072691,
                1.0935220786610327,
                -2.8280558601816397
            ]
        },
        {
            "positions": [
                0.22003519847833392,
                -1.7780795255229533,
                2.498159918054819,
                -0.6177304204956571,
                1.0586469299682,
                -2.7615643148235485
            ]
        },
        {
            "positions": [
                0.33161490912435004,
                -1.858964742906414,
                2.5132769685007825,
                -0.5355045309840452,
                1.0237717812753675,
                -2.6950727694654577
            ]
        },
        {
            "positions": [
                0.4431946197703662,
                -1.9398499602898747,
                2.5283940189467464,
                -0.4532786414724332,
                0.9888966325825348,
                -2.628581224107367
            ]
        },
        {
            "positions": [
                0.5087159201271774,
                -1.9322705603047199,
                2.4953232596947266,
                -0.45880459797524287,
                0.9194256675502355,
                -2.753166838773494
            ]
        },
        {
            "positions": [
                0.5742372204839885,
                -1.9246911603195653,
                2.4622525004427063,
                -0.4643305544780526,
                0.8499547025179361,
                -2.877752453439621
            ]
        },
        {
            "positions": [
                0.6397585208407995,
                -1.9171117603344108,
                2.4291817411906864,
                -0.4698565109808623,
                0.7804837374856369,
                -3.0023380681057485
            ]
        },
        {
            "positions": [
                0.7052798211976107,
                -1.909532360349256,
                2.3961109819386666,
                -0.47538246748367197,
                0.7110127724533376,
                -3.1269236827718756
            ]
        }
    ]
}