{
    "goal": {
        "global_pose": {
            "orientation": {
                "w": 0.7031023502349854,
                "x": -0.7110244035720825,
                "y": 0.007748599164187908,
                "z": 0.005598929710686207
            },
            "position": {
                "x": 0.11585023208521307,
                "y": 0.44412534475326537,
                "z": 0.3711530566215515
            }
        },
        "name": "move_to_auspresseinheit_A"
    },
    "id": "RRTstar_move_to_auspresseinheit_A_117",
    "joint_names": [
        "shoulder_pan_joint",
        "shoulder_lift_joint",
        "elbow_joint",
        "wrist_1_joint",
        "wrist_2_joint",
        "wrist_3_joint"
    ],
    "metrics": {
        "cart_traj_len": 0.7905686510422014,
        "distance_elbow_joint": 0.19977188107343968,
        "distance_shoulder_lift_joint": 1.317976860011733,
        "distance_shoulder_pan_joint": 1.0475976807568197,
        "distance_wrist_1_joint": 0.5490895398623712,
        "distance_wrist_2_joint": 0.6176159103874066,
        "distance_wrist_3_joint": 0.6113997342840314,
        "smoothness": 1.1593023615371059,
        "time": 5.012756564,
        "traj_len": 2.084094912995999,
        "weighted_distance": 2.5947941200013616
    },
    "planner": "RRTstar",
    "start": {
        "state": {
            "elbow_joint": 2.4225746658250005,
            "shoulder_lift_joint": -1.3736534386056498,
            "shoulder_pan_joint": -0.3378633547517467,
            "wrist_1_joint": -1.0288598680537169,
            "wrist_2_joint": 1.233022673432363,
            "wrist_3_joint": -3.0940220416140027
        }
    },
    "waypoints": [
        {
            "positions": [
                -0.3378633547517467,
                -1.3736534386056498,
                2.4225746658250005,
                -1.0288598680537169,
                1.233022673432363,
                -3.0940220416140027
            ]
        },
        {
            "positions": [
                -0.24134430525458916,
                -1.4765740067811768,
                2.4321509516825315,
                -0.9780522233436068,
                1.1698493869263886,
                -3.062496560660274
            ]
        },
        {
            "positions": [
                -0.14482525575743163,
                -1.5794945749567038,
                2.441727237540062,
                -0.9272445786334965,
                1.1066761004204144,
                -3.0309710797065454
            ]
        },
        {
            "positions": [
                -0.0483062062602741,
                -1.6824151431322307,
                2.451303523397593,
                -0.8764369339233864,
                1.04350281391444,
                -2.9994455987528164
            ]
        },
        {
            "positions": [
                0.04821284323688346,
                -1.7853357113077577,
                2.460879809255124,
                -0.8256292892132763,
                0.9803295274084657,
                -2.9679201177990877
            ]
        },
        {
            "positions": [
                0.14473189273404108,
                -1.8882562794832847,
                2.4704560951126546,
                -0.774821644503166,
                0.9171562409024913,
                -2.936394636845359
            ]
        },
        {
            "positions": [
                0.24125094223119853,
                -1.9911768476588116,
                2.4800323809701856,
                -0.7240139997930559,
                0.853982954396517,
                -2.9048691558916304
            ]
        },
        {
            "positions": [
                0.33776999172835614,
                -2.0940974158343386,
                2.4896086668277166,
                -0.6732063550829457,
                0.7908096678905425,
                -2.8733436749379013
            ]
        },
        {
            "positions": [
                0.43428904122551365,
                -2.1970179840098654,
                2.499184952685247,
                -0.6223987103728357,
                0.7276363813845683,
                -2.8418181939841727
            ]
        },
        {
            "positions": [
                0.5308080907226712,
                -2.2999385521853926,
                2.508761238542778,
                -0.5715910656627254,
                0.6644630948785939,
                -2.810292713030444
            ]
        },
        {
            "positions": [
                0.5904501691501385,
                -2.1693746367080626,
                2.4708994690908908,
                -0.5409841531722654,
                0.6808152054898063,
                -2.919516181597268
            ]
        },
        {
            "positions": [
                0.6500922475776056,
                -2.0388107212307323,
                2.4330376996390037,
                -0.5103772406818056,
                0.6971673161010189,
                -3.0287396501640926
            ]
        },
        {
            "positions": [
                0.7097343260050729,
                -1.9082468057534023,
                2.3951759301871163,
                -0.47977032819134563,
                0.7135194267122313,
                -3.1379631187309167
            ]
        }
    ]
}