{
    "goal": {
        "global_pose": {
            "orientation": {
                "w": 0.5084816217422485,
                "x": -0.49083608388900757,
                "y": 0.5182115435600281,
                "z": -0.4816462993621826
            },
            "position": {
                "x": 0.5540239810943604,
                "y": 0.030875300988554955,
                "z": 0.16403168439865112
            }
        },
        "name": "move_to_storage_A"
    },
    "id": "RRTstar_move_to_storage_A_147",
    "joint_names": [
        "shoulder_pan_joint",
        "shoulder_lift_joint",
        "elbow_joint",
        "wrist_1_joint",
        "wrist_2_joint",
        "wrist_3_joint"
    ],
    "metrics": {
        "cart_traj_len": 0.35269556952568665,
        "distance_elbow_joint": 0.45036687895115946,
        "distance_shoulder_lift_joint": 0.23573948256471833,
        "distance_shoulder_pan_joint": 0.46229923321764194,
        "distance_wrist_1_joint": 0.23791208228928873,
        "distance_wrist_2_joint": 1.0945006860520115,
        "distance_wrist_3_joint": 0.08857307597052566,
        "smoothness": 4.440892098500626e-16,
        "time": 5.001035531,
        "traj_len": 1.6029321380037727,
        "weighted_distance": 2.0196411461761463
    },
    "planner": "RRTstar",
    "start": {
        "state": {
            "elbow_joint": 1.971548259319323,
            "shoulder_lift_joint": -1.1394851275133948,
            "shoulder_pan_joint": 0.1228115487234821,
            "wrist_1_joint": -0.7804723859257726,
            "wrist_2_joint": 0.12958671773740124,
            "wrist_3_joint": -3.192489227718131
        }
    },
    "waypoints": [
        {
            "positions": [
                0.1228115487234821,
                -1.1394851275133948,
                1.971548259319323,
                -0.7804723859257726,
                0.12958671773740124,
                -3.192489227718131
            ]
        },
        {
            "positions": [
                0.05676880112096183,
                -1.1731621964512118,
                2.0358863848837743,
                -0.8144598262528139,
                0.2859439586019743,
                -3.179835931150913
            ]
        },
        {
            "positions": [
                -0.009273946481558437,
                -1.2068392653890285,
                2.100224510448226,
                -0.8484472665798551,
                0.44230119946654733,
                -3.1671826345836953
            ]
        },
        {
            "positions": [
                -0.0753166940840787,
                -1.2405163343268455,
                2.164562636012677,
                -0.8824347069068963,
                0.5986584403311204,
                -3.154529338016477
            ]
        },
        {
            "positions": [
                -0.14135944168659897,
                -1.2741934032646625,
                2.2289007615771284,
                -0.9164221472339376,
                0.7550156811956935,
                -3.1418760414492595
            ]
        },
        {
            "positions": [
                -0.2074021892891193,
                -1.3078704722024794,
                2.29323888714158,
                -0.9504095875609788,
                0.9113729220602667,
                -3.1292227448820413
            ]
        },
        {
            "positions": [
                -0.2734449368916395,
                -1.3415475411402962,
                2.357577012706031,
                -0.9843970278880201,
                1.0677301629248395,
                -3.1165694483148236
            ]
        },
        {
            "positions": [
                -0.33948768449415984,
                -1.3752246100781131,
                2.4219151382704824,
                -1.0183844682150613,
                1.2240874037894127,
                -3.1039161517476055
            ]
        }
    ]
}{
    "goal": {
        "global_pose": {
            "orientation": {
                "w": 0.5084816217422485,
                "x": -0.49083608388900757,
                "y": 0.5182115435600281,
                "z": -0.4816462993621826
            },
            "position": {
                "x": 0.5540239810943604,
                "y": 0.030875300988554955,
                "z": 0.16403168439865112
            }
        },
        "name": "move_to_storage_A"
    },
    "id": "RRTstar_move_to_storage_A_147",
    "joint_names": [
        "shoulder_pan_joint",
        "shoulder_lift_joint",
        "elbow_joint",
        "wrist_1_joint",
        "wrist_2_joint",
        "wrist_3_joint"
    ],
    "metrics": {
        "cart_traj_len": 0.35337673262785785,
        "distance_elbow_joint": 0.44860071952244107,
        "distance_shoulder_lift_joint": 0.2325357855785657,
        "distance_shoulder_pan_joint": 0.4619938639119548,
        "distance_wrist_1_joint": 0.24086450657620784,
        "distance_wrist_2_joint": 1.0986284533707342,
        "distance_wrist_3_joint": 0.09772551510089889,
        "smoothness": 6.661338146305771e-16,
        "time": 5.000073013,
        "traj_len": 1.6063464271634569,
        "weighted_distance": 2.028618454566936
    },
    "planner": "RRTstar",
    "start": {
        "state": {
            "elbow_joint": 1.97154746011099,
            "shoulder_lift_joint": -1.13948474672311,
            "shoulder_pan_joint": 0.12281154466712228,
            "wrist_1_joint": -0.7804688027058302,
            "wrist_2_joint": 0.12958655903071145,
            "wrist_3_joint": 3.0906928834467795
        }
    },
    "waypoints": [
        {
            "positions": [
                0.12281154466712228,
                -1.13948474672311,
                1.97154746011099,
                -0.7804688027058302,
                0.12958655903071145,
                3.0906928834467795
            ]
        },
        {
            "positions": [
                0.056812421251128745,
                -1.172704144662905,
                2.0356332771856245,
                -0.8148780179310028,
                0.2865334809408163,
                3.1046536713183364
            ]
        },
        {
            "positions": [
                -0.009186702164864793,
                -1.2059235426027002,
                2.0997190942602586,
                -0.8492872331561753,
                0.44348040285092116,
                3.1186144591898937
            ]
        },
        {
            "positions": [
                -0.07518582558085833,
                -1.2391429405424952,
                2.163804911334893,
                -0.8836964483813479,
                0.6004273247610261,
                3.1325752470614505
            ]
        },
        {
            "positions": [
                -0.14118494899685186,
                -1.2723623384822904,
                2.2278907284095277,
                -0.9181056636065204,
                0.757374246671131,
                3.1465360349330074
            ]
        },
        {
            "positions": [
                -0.20718407241284542,
                -1.3055817364220854,
                2.2919765454841623,
                -0.952514878831693,
                0.9143211685812359,
                3.1604968228045642
            ]
        },
        {
            "positions": [
                -0.27318319582883893,
                -1.3388011343618804,
                2.3560623625587964,
                -0.9869240940568654,
                1.0712680904913408,
                3.1744576106761215
            ]
        },
        {
            "positions": [
                -0.3391823192448325,
                -1.3720205323016756,
                2.420148179633431,
                -1.021333309282038,
                1.2282150124014457,
                3.1884183985476784
            ]
        }
    ]
}{
    "goal": {
        "global_pose": {
            "orientation": {
                "w": 0.5084816217422485,
                "x": -0.49083608388900757,
                "y": 0.5182115435600281,
                "z": -0.4816462993621826
            },
            "position": {
                "x": 0.5540239810943604,
                "y": 0.030875300988554955,
                "z": 0.16403168439865112
            }
        },
        "name": "move_to_storage_A"
    },
    "id": "RRTstar_move_to_storage_A_147",
    "joint_names": [
        "shoulder_pan_joint",
        "shoulder_lift_joint",
        "elbow_joint",
        "wrist_1_joint",
        "wrist_2_joint",
        "wrist_3_joint"
    ],
    "metrics": {
        "cart_traj_len": 0.352989740405718,
        "distance_elbow_joint": 0.44882984133214876,
        "distance_shoulder_lift_joint": 0.23678485146052508,
        "distance_shoulder_pan_joint": 0.46250920163373294,
        "distance_wrist_1_joint": 0.23559329337912405,
        "distance_wrist_2_joint": 1.0955911121747652,
        "distance_wrist_3_joint": 0.09159295399106337,
        "smoothness": 0.0,
        "time": 5.001334322,
        "traj_len": 1.6034030229394478,
        "weighted_distance": 2.0212054738465794
    },
    "planner": "RRTstar",
    "start": {
        "state": {
            "elbow_joint": 1.9715472970024885,
            "shoulder_lift_joint": -1.1394870060712896,
            "shoulder_pan_joint": 0.12281152778156021,
            "wrist_1_joint": -0.780463741449964,
            "wrist_2_joint": 0.12958659822042276,
            "wrist_3_joint": 3.090690232415272
        }
    },
    "waypoints": [
        {
            "positions": [
                0.12281152778156021,
                -1.1394870060712896,
                1.9715472970024885,
                -0.780463741449964,
                0.12958659822042276,
                3.090690232415272
            ]
        },
        {
            "positions": [
                0.056738784691026944,
                -1.1733134134227932,
                2.0356658457642243,
                -0.8141199262184103,
                0.2860996142453892,
                3.103774940128281
            ]
        },
        {
            "positions": [
                -0.00933395839950632,
                -1.2071398207742967,
                2.0997843945259596,
                -0.8477761109868566,
                0.4426126302703557,
                3.1168596478412898
            ]
        },
        {
            "positions": [
                -0.07540670149003958,
                -1.2409662281258003,
                2.1639029432876953,
                -0.8814322957553029,
                0.5991256462953222,
                3.129944355554299
            ]
        },
        {
            "positions": [
                -0.14147944458057285,
                -1.2747926354773038,
                2.2280214920494306,
                -0.9150884805237491,
                0.7556386623202885,
                3.143029063267308
            ]
        },
        {
            "positions": [
                -0.20755218767110614,
                -1.3086190428288076,
                2.2921400408111663,
                -0.9487446652921955,
                0.912151678345255,
                3.1561137709803173
            ]
        },
        {
            "positions": [
                -0.2736249307616394,
                -1.3424454501803111,
                2.3562585895729016,
                -0.9824008500606417,
                1.0686646943702216,
                3.169198478693326
            ]
        },
        {
            "positions": [
                -0.3396976738521727,
                -1.3762718575318147,
                2.4203771383346373,
                -1.016057034829088,
                1.225177710395188,
                3.1822831864063352
            ]
        }
    ]
}