{
    "goal": {
        "global_pose": {
            "orientation": {
                "w": 0.5084816262002911,
                "x": -0.4908360881923452,
                "y": 0.5182115481033761,
                "z": -0.48164630358495003
            },
            "position": {
                "x": 0.5540239810943604,
                "y": -0.46912469901144505,
                "z": 0.16403168439865112
            }
        },
        "name": "move_to_storage_B"
    },
    "id": "RRTstar_move_to_storage_B_24",
    "joint_names": [
        "shoulder_pan_joint",
        "shoulder_lift_joint",
        "elbow_joint",
        "wrist_1_joint",
        "wrist_2_joint",
        "wrist_3_joint"
    ],
    "metrics": {
        "cart_traj_len": 0.8936885864756572,
        "distance_elbow_joint": 0.7295090096564896,
        "distance_shoulder_lift_joint": 0.46148492561909205,
        "distance_shoulder_pan_joint": 0.18248061982809294,
        "distance_wrist_1_joint": 3.0200546742027674,
        "distance_wrist_2_joint": 2.704750543953806,
        "distance_wrist_3_joint": 3.1086217653361974,
        "smoothness": 0.027065020903810914,
        "time": 5.034579517,
        "traj_len": 3.194824179606203,
        "weighted_distance": 4.706267128778967
    },
    "planner": "RRTstar",
    "start": {
        "state": {
            "elbow_joint": 1.664937868594044,
            "shoulder_lift_joint": -0.661644460510453,
            "shoulder_pan_joint": -0.9139846352900073,
            "wrist_1_joint": 2.146753192139373,
            "wrist_2_joint": -2.2341966793290973,
            "wrist_3_joint": 0.005466555786416001
        }
    },
    "waypoints": [
        {
            "positions": [
                -0.9139846352900073,
                -0.661644460510453,
                1.664937868594044,
                2.146753192139373,
                -2.2341966793290973,
                0.005466555786416001
            ]
        },
        {
            "positions": [
                -0.9411113835641456,
                -0.7385248166812637,
                1.7556487281175026,
                2.129082347871267,
                -2.187774339303884,
                -0.10272567741912618
            ]
        },
        {
            "positions": [
                -0.968238131838284,
                -0.8154051728520744,
                1.8463595876409615,
                2.11141150360316,
                -2.141351999278671,
                -0.21091791062466836
            ]
        },
        {
            "positions": [
                -0.9953648801124224,
                -0.8922855290228852,
                1.9370704471644202,
                2.0937406593350536,
                -2.0949296592534576,
                -0.3191101438302105
            ]
        },
        {
            "positions": [
                -1.0224916283865606,
                -0.9691658851936958,
                2.027781306687879,
                2.076069815066947,
                -2.0485073192282446,
                -0.4273023770357527
            ]
        },
        {
            "positions": [
                -1.049618376660699,
                -1.0460462413645066,
                2.118492166211338,
                2.0583989707988404,
                -2.0020849792030315,
                -0.535494610241295
            ]
        },
        {
            "positions": [
                -1.0767451249348374,
                -1.1229265975353173,
                2.2092030257347965,
                2.040728126530734,
                -1.9556626391778185,
                -0.6436868434468371
            ]
        },
        {
            "positions": [
                -1.077684178753088,
                -1.1229362541350425,
                2.2003818899007137,
                1.9019648118357755,
                -1.8401285199491266,
                -0.7608043846898345
            ]
        },
        {
            "positions": [
                -1.0786232325713387,
                -1.1229459107347677,
                2.1915607540666313,
                1.763201497140817,
                -1.724594400720435,
                -0.8779219259328318
            ]
        },
        {
            "positions": [
                -1.0795622863895893,
                -1.1229555673344926,
                2.1827396182325485,
                1.6244381824458585,
                -1.6090602814917432,
                -0.9950394671758291
            ]
        },
        {
            "positions": [
                -1.0805013402078398,
                -1.1229652239342178,
                2.1739184823984656,
                1.4856748677509,
                -1.4935261622630516,
                -1.1121570084188266
            ]
        },
        {
            "positions": [
                -1.0814403940260904,
                -1.122974880533943,
                2.165097346564383,
                1.3469115530559415,
                -1.3779920430343597,
                -1.2292745496618238
            ]
        },
        {
            "positions": [
                -1.0823794478443411,
                -1.1229845371336682,
                2.1562762107303004,
                1.2081482383609832,
                -1.262457923805668,
                -1.3463920909048213
            ]
        },
        {
            "positions": [
                -1.0833185016625917,
                -1.1229941937333932,
                2.1474550748962176,
                1.0693849236660247,
                -1.1469238045769763,
                -1.4635096321478187
            ]
        },
        {
            "positions": [
                -1.0842575554808422,
                -1.1230038503331183,
                2.1386339390621347,
                0.9306216089710662,
                -1.0313896853482845,
                -1.580627173390816
            ]
        },
        {
            "positions": [
                -1.085196609299093,
                -1.1230135069328435,
                2.1298128032280523,
                0.7918582942761077,
                -0.9158555661195926,
                -1.6977447146338132
            ]
        },
        {
            "positions": [
                -1.0861356631173436,
                -1.1230231635325687,
                2.1209916673939695,
                0.6530949795811491,
                -0.800321446890901,
                -1.8148622558768106
            ]
        },
        {
            "positions": [
                -1.087074716935594,
                -1.1230328201322937,
                2.1121705315598867,
                0.5143316648861906,
                -0.684787327662209,
                -1.931979797119808
            ]
        },
        {
            "positions": [
                -1.0880137707538446,
                -1.1230424767320188,
                2.103349395725804,
                0.37556835019123236,
                -0.5692532084335173,
                -2.0490973383628055
            ]
        },
        {
            "positions": [
                -1.0889528245720954,
                -1.123052133331744,
                2.0945282598917214,
                0.23680503549627363,
                -0.4537190892048255,
                -2.166214879605803
            ]
        },
        {
            "positions": [
                -1.089891878390346,
                -1.1230617899314692,
                2.0857071240576386,
                0.09804172080131535,
                -0.3381849699761339,
                -2.2833324208488
            ]
        },
        {
            "positions": [
                -1.0908309322085965,
                -1.1230714465311942,
                2.0768859882235557,
                -0.04072159389364316,
                -0.22265085074744206,
                -2.4004499620917974
            ]
        },
        {
            "positions": [
                -1.0917699860268473,
                -1.1230811031309194,
                2.0680648523894734,
                -0.17948490858860167,
                -0.10711673151875045,
                -2.517567503334795
            ]
        },
        {
            "positions": [
                -1.0927090398450978,
                -1.1230907597306445,
                2.0592437165553905,
                -0.31824822328356017,
                0.008417387709941382,
                -2.6346850445777923
            ]
        },
        {
            "positions": [
                -1.0936480936633484,
                -1.1231004163303697,
                2.0504225807213077,
                -0.4570115379785187,
                0.12395150693863322,
                -2.7518025858207893
            ]
        },
        {
            "positions": [
                -1.094587147481599,
                -1.1231100729300947,
                2.041601444887225,
                -0.5957748526734772,
                0.23948562616732483,
                -2.8689201270637867
            ]
        },
        {
            "positions": [
                -1.0955262012998497,
                -1.1231197295298199,
                2.0327803090531424,
                -0.7345381673684357,
                0.35501974539601644,
                -2.986037668306784
            ]
        },
        {
            "positions": [
                -1.0964652551181002,
                -1.123129386129545,
                2.0239591732190596,
                -0.8733014820633944,
                0.4705538646247086,
                -3.1031552095497816
            ]
        }
    ]
}