{
    "goal": {
        "global_pose": {
            "orientation": {
                "w": 0.7031023502349854,
                "x": -0.7110244035720825,
                "y": 0.007748599164187908,
                "z": 0.005598929710686207
            },
            "position": {
                "x": 0.11585023208521307,
                "y": 0.44412534475326537,
                "z": 0.3711530566215515
            }
        },
        "name": "move_to_auspresseinheit_A"
    },
    "id": "RRTstar_move_to_auspresseinheit_A_16",
    "joint_names": [
        "shoulder_pan_joint",
        "shoulder_lift_joint",
        "elbow_joint",
        "wrist_1_joint",
        "wrist_2_joint",
        "wrist_3_joint"
    ],
    "metrics": {
        "cart_traj_len": 0.9219657109218847,
        "distance_elbow_joint": 0.45450369909058796,
        "distance_shoulder_lift_joint": 1.2546042326520226,
        "distance_shoulder_pan_joint": 1.045386606879167,
        "distance_wrist_1_joint": 0.5470862553356639,
        "distance_wrist_2_joint": 1.108136762246946,
        "distance_wrist_3_joint": 0.15074054898803935,
        "smoothness": 1.6115789788251578,
        "time": 5.009037217,
        "traj_len": 2.1355229114182848,
        "weighted_distance": 2.552873326420862
    },
    "planner": "RRTstar",
    "start": {
        "state": {
            "elbow_joint": 2.4225746658250005,
            "shoulder_lift_joint": -1.3736534386056498,
            "shoulder_pan_joint": -0.3378633547517467,
            "wrist_1_joint": -1.0288598680537169,
            "wrist_2_joint": 1.233022673432363,
            "wrist_3_joint": -3.0940220416140027
        }
    },
    "waypoints": [
        {
            "positions": [
                -0.3378633547517467,
                -1.3736534386056498,
                2.4225746658250005,
                -1.0288598680537169,
                1.233022673432363,
                -3.0940220416140027
            ]
        },
        {
            "positions": [
                -0.22297225370495677,
                -1.4730843716872086,
                2.4463011391146017,
                -0.981172882941617,
                1.1419340735866508,
                -3.0875020825240234
            ]
        },
        {
            "positions": [
                -0.10808115265816678,
                -1.5725153047687674,
                2.470027612404203,
                -0.9334858978295171,
                1.0508454737409387,
                -3.080982123434044
            ]
        },
        {
            "positions": [
                0.006809948388623199,
                -1.6719462378503263,
                2.493754085693804,
                -0.8857989127174173,
                0.9597568738952265,
                -3.074462164344064
            ]
        },
        {
            "positions": [
                0.12170104943541316,
                -1.7713771709318853,
                2.5174805589834053,
                -0.8381119276053173,
                0.8686682740495144,
                -3.067942205254085
            ]
        },
        {
            "positions": [
                0.23659215048220322,
                -1.870808104013444,
                2.5412070322730065,
                -0.7904249424932175,
                0.7775796742038021,
                -3.0614222461641054
            ]
        },
        {
            "positions": [
                0.3514832515289931,
                -1.970239037095003,
                2.5649335055626077,
                -0.7427379573811176,
                0.68649107435809,
                -3.054902287074126
            ]
        },
        {
            "positions": [
                0.46637435257578314,
                -2.069669970176562,
                2.588659978852209,
                -0.6950509722690177,
                0.5954024745123777,
                -3.048382327984146
            ]
        },
        {
            "positions": [
                0.581265453622573,
                -2.1691009032581205,
                2.61238645214181,
                -0.6473639871569178,
                0.5043138746666657,
                -3.041862368894167
            ]
        },
        {
            "positions": [
                0.696156554669363,
                -2.2685318363396796,
                2.6361129254314113,
                -0.5996770020448179,
                0.4132252748209534,
                -3.0353424098041875
            ]
        },
        {
            "positions": [
                0.6999454538220488,
                -2.1486232247003487,
                2.5557911122700188,
                -0.5603758722692296,
                0.5093383960327988,
                -3.0660293821969287
            ]
        },
        {
            "positions": [
                0.7037343529747344,
                -2.028714613061018,
                2.4754692991086267,
                -0.5210747424936413,
                0.6054515172446443,
                -3.0967163545896703
            ]
        },
        {
            "positions": [
                0.7075232521274202,
                -1.9088060014216868,
                2.395147485947234,
                -0.481773612718053,
                0.7015646384564898,
                -3.1274033269824115
            ]
        }
    ]
}