{
    "goal": {
        "global_pose": {
            "orientation": {
                "w": 0.005598929693374612,
                "x": 0.007748599140229565,
                "y": 0.7110244013736278,
                "z": -0.7031023480610252
            },
            "position": {
                "x": 0.1141497679147869,
                "y": -0.7141253447532654,
                "z": 0.3711530566215515
            }
        },
        "name": "move_to_auspresseinheit_B"
    },
    "id": "RRTstar_move_to_auspresseinheit_B_48",
    "joint_names": [
        "shoulder_pan_joint",
        "shoulder_lift_joint",
        "elbow_joint",
        "wrist_1_joint",
        "wrist_2_joint",
        "wrist_3_joint"
    ],
    "metrics": {
        "cart_traj_len": 0.5641723250183839,
        "distance_elbow_joint": 0.06038260349677227,
        "distance_shoulder_lift_joint": 0.2955045463473378,
        "distance_shoulder_pan_joint": 0.5766792005195183,
        "distance_wrist_1_joint": 0.32421256955877553,
        "distance_wrist_2_joint": 0.9968784431034428,
        "distance_wrist_3_joint": 0.001259736453081306,
        "smoothness": 5.075305255429287e-16,
        "time": 5.001270217999999,
        "traj_len": 1.5016381386602193,
        "weighted_distance": 1.8916996550846301
    },
    "planner": "RRTstar",
    "start": {
        "state": {
            "elbow_joint": 2.0193083361928714,
            "shoulder_lift_joint": -1.1220246554650708,
            "shoulder_pan_joint": -1.0952077554168747,
            "wrist_1_joint": -0.8559753972642168,
            "wrist_2_joint": 0.4759566250798843,
            "wrist_3_joint": -3.1240929996934557
        }
    },
    "waypoints": [
        {
            "positions": [
                -1.0952077554168747,
                -1.1220246554650708,
                2.0193083361928714,
                -0.8559753972642168,
                0.4759566250798843,
                -3.1240929996934557
            ]
        },
        {
            "positions": [
                -1.191320955503461,
                -1.171275413189627,
                2.0092445689434095,
                -0.8019399690044209,
                0.6421030322637914,
                -3.124302955768969
            ]
        },
        {
            "positions": [
                -1.2874341555900475,
                -1.2205261709141835,
                1.9991808016939474,
                -0.747904540744625,
                0.8082494394476984,
                -3.1245129118444828
            ]
        },
        {
            "positions": [
                -1.3835473556766338,
                -1.2697769286387397,
                1.9891170344444853,
                -0.6938691124848291,
                0.9743958466316056,
                -3.1247228679199965
            ]
        },
        {
            "positions": [
                -1.47966055576322,
                -1.319027686363296,
                1.9790532671950232,
                -0.6398336842250332,
                1.1405422538155128,
                -3.12493282399551
            ]
        },
        {
            "positions": [
                -1.5757737558498066,
                -1.3682784440878524,
                1.9689894999455613,
                -0.5857982559652372,
                1.30668866099942,
                -3.125142780071023
            ]
        },
        {
            "positions": [
                -1.671886955936393,
                -1.4175292018124086,
                1.9589257326960992,
                -0.5317628277054413,
                1.472835068183327,
                -3.125352736146537
            ]
        }
    ]
}