{
    "goal": {
        "global_pose": {
            "orientation": {
                "w": 0.7031023502349854,
                "x": -0.7110244035720825,
                "y": 0.007748599164187908,
                "z": 0.005598929710686207
            },
            "position": {
                "x": 0.11585023208521307,
                "y": 0.44412534475326537,
                "z": 0.3711530566215515
            }
        },
        "name": "move_to_auspresseinheit_A"
    },
    "id": "RRTstar_move_to_auspresseinheit_A_18",
    "joint_names": [
        "shoulder_pan_joint",
        "shoulder_lift_joint",
        "elbow_joint",
        "wrist_1_joint",
        "wrist_2_joint",
        "wrist_3_joint"
    ],
    "metrics": {
        "cart_traj_len": 0.7224535810957492,
        "distance_elbow_joint": 0.2549407354017563,
        "distance_shoulder_lift_joint": 0.53813691469717,
        "distance_shoulder_pan_joint": 1.31564453722492,
        "distance_wrist_1_joint": 0.5465263867157133,
        "distance_wrist_2_joint": 0.5134638844235337,
        "distance_wrist_3_joint": 1.1526591020071528,
        "smoothness": 0.9963849512081079,
        "time": 5.006713365,
        "traj_len": 2.0787908890675477,
        "weighted_distance": 2.7724862552632787
    },
    "planner": "RRTstar",
    "start": {
        "state": {
            "elbow_joint": 2.4225746658250005,
            "shoulder_lift_joint": -1.3736534386056498,
            "shoulder_pan_joint": -0.3378633547517467,
            "wrist_1_joint": -1.0288598680537169,
            "wrist_2_joint": 1.233022673432363,
            "wrist_3_joint": -3.0940220416140027
        }
    },
    "waypoints": [
        {
            "positions": [
                -0.3378633547517467,
                -1.3736534386056498,
                2.4225746658250005,
                -1.0288598680537169,
                1.233022673432363,
                -3.0940220416140027
            ]
        },
        {
            "positions": [
                -0.36044332020856984,
                -1.458458448949589,
                2.4418215654030675,
                -0.9900687632198399,
                1.156511361829754,
                -3.000483887013819
            ]
        },
        {
            "positions": [
                -0.38302328566539295,
                -1.5432634592935286,
                2.4610684649811345,
                -0.9512776583859629,
                1.080000050227145,
                -2.9069457324136354
            ]
        },
        {
            "positions": [
                -0.40560325112221607,
                -1.6280684696374679,
                2.4803153645592015,
                -0.912486553552086,
                1.0034887386245357,
                -2.8134075778134515
            ]
        },
        {
            "positions": [
                -0.42818321657903924,
                -1.7128734799814072,
                2.499562264137269,
                -0.873695448718209,
                0.9269774270219268,
                -2.7198694232132676
            ]
        },
        {
            "positions": [
                -0.45076318203586235,
                -1.7976784903253467,
                2.518809163715336,
                -0.834904343884332,
                0.8504661154193176,
                -2.626331268613084
            ]
        },
        {
            "positions": [
                -0.47334314749268547,
                -1.882483500669286,
                2.538056063293403,
                -0.7961132390504551,
                0.7739548038167086,
                -2.5327931140129003
            ]
        },
        {
            "positions": [
                -0.2766490234120219,
                -1.8873679761082083,
                2.514812840304511,
                -0.7438166127650465,
                0.7648888013487287,
                -2.631364809747242
            ]
        },
        {
            "positions": [
                -0.07995489933135835,
                -1.8922524515471306,
                2.4915696173156183,
                -0.691519986479638,
                0.7558227988807488,
                -2.7299365054815836
            ]
        },
        {
            "positions": [
                0.1167392247493052,
                -1.897136926986053,
                2.468326394326726,
                -0.6392233601942293,
                0.7467567964127689,
                -2.8285082012159255
            ]
        },
        {
            "positions": [
                0.31343334882996876,
                -1.902021402424975,
                2.445083171337834,
                -0.5869267339088208,
                0.7376907939447891,
                -2.9270798969502674
            ]
        },
        {
            "positions": [
                0.5101274729106323,
                -1.9069058778638974,
                2.4218399483489415,
                -0.5346301076234121,
                0.7286247914768091,
                -3.025651592684609
            ]
        },
        {
            "positions": [
                0.7068215969912959,
                -1.9117903533028198,
                2.3985967253600493,
                -0.48233348133800363,
                0.7195587890088293,
                -3.1242232884189507
            ]
        }
    ]
}