{
    "goal": {
        "global_pose": {
            "orientation": {
                "w": 0.005598929693374612,
                "x": 0.007748599140229565,
                "y": 0.7110244013736278,
                "z": -0.7031023480610252
            },
            "position": {
                "x": -0.8858502320852131,
                "y": -0.7141253447532654,
                "z": 0.3711530566215515
            }
        },
        "name": "move_to_auspresseinheit_C"
    },
    "id": "RRTstar_move_to_auspresseinheit_C_20",
    "joint_names": [
        "shoulder_pan_joint",
        "shoulder_lift_joint",
        "elbow_joint",
        "wrist_1_joint",
        "wrist_2_joint",
        "wrist_3_joint"
    ],
    "metrics": {
        "cart_traj_len": 0.49229022164942177,
        "distance_elbow_joint": 0.9874445982310551,
        "distance_shoulder_lift_joint": 0.3186259777074607,
        "distance_shoulder_pan_joint": 0.2566464436857743,
        "distance_wrist_1_joint": 0.6580510610712283,
        "distance_wrist_2_joint": 1.3017129048171048,
        "distance_wrist_3_joint": 0.044047088393179834,
        "smoothness": 1.6148698667872622e-16,
        "time": 5.069923948,
        "traj_len": 1.8885253702044362,
        "weighted_distance": 2.36946960659564
    },
    "planner": "RRTstar",
    "start": {
        "state": {
            "elbow_joint": 1.7527959577737207,
            "shoulder_lift_joint": -0.9740617694225068,
            "shoulder_pan_joint": -2.967991417825858,
            "wrist_1_joint": -0.759517768980727,
            "wrist_2_joint": 1.7443932448377408,
            "wrist_3_joint": -3.0840537646736568
        }
    },
    "waypoints": [
        {
            "positions": [
                -2.967991417825858,
                -0.9740617694225068,
                1.7527959577737207,
                -0.759517768980727,
                1.7443932448377408,
                -3.0840537646736568
            ]
        },
        {
            "positions": [
                -2.9423267734572804,
                -0.9421991716517607,
                1.6540514979506151,
                -0.6937126628736041,
                1.6142219543560303,
                -3.0884584735129748
            ]
        },
        {
            "positions": [
                -2.916662129088703,
                -0.9103365738810146,
                1.5553070381275096,
                -0.6279075567664814,
                1.4840506638743198,
                -3.0928631823522927
            ]
        },
        {
            "positions": [
                -2.890997484720126,
                -0.8784739761102686,
                1.456562578304404,
                -0.5621024506593585,
                1.3538793733926093,
                -3.0972678911916107
            ]
        },
        {
            "positions": [
                -2.8653328403515483,
                -0.8466113783395225,
                1.3578181184812985,
                -0.4962973445522356,
                1.2237080829108988,
                -3.1016726000309287
            ]
        },
        {
            "positions": [
                -2.839668195982971,
                -0.8147487805687764,
                1.2590736586581932,
                -0.4304922384451128,
                1.0935367924291883,
                -3.1060773088702467
            ]
        },
        {
            "positions": [
                -2.8140035516143933,
                -0.7828861827980304,
                1.1603291988350874,
                -0.36468713233799,
                0.9633655019474779,
                -3.1104820177095647
            ]
        },
        {
            "positions": [
                -2.788338907245816,
                -0.7510235850272843,
                1.0615847390119821,
                -0.2988820262308672,
                0.8331942114657676,
                -3.1148867265488827
            ]
        },
        {
            "positions": [
                -2.7626742628772387,
                -0.7191609872565382,
                0.9628402791888765,
                -0.23307692012374426,
                0.703022920984057,
                -3.1192914353882006
            ]
        },
        {
            "positions": [
                -2.737009618508661,
                -0.6872983894857921,
                0.8640958193657711,
                -0.1672718140166215,
                0.5728516305023466,
                -3.1236961442275186
            ]
        },
        {
            "positions": [
                -2.7113449741400837,
                -0.6554357917150461,
                0.7653513595426655,
                -0.10146670790949859,
                0.44268034002063605,
                -3.1281008530668366
            ]
        }
    ]
}