{
    "goal": {
        "global_pose": {
            "orientation": {
                "w": 0.7031023480610252,
                "x": -0.7110244013736278,
                "y": 0.0077485991402295624,
                "z": 0.005598929693374583
            },
            "position": {
                "x": -0.8841497679147869,
                "y": 0.44412534475326537,
                "z": 0.3711530566215515
            }
        },
        "name": "move_to_auspresseinheit_D"
    },
    "id": "RRTstar_move_to_auspresseinheit_D_28",
    "joint_names": [
        "shoulder_pan_joint",
        "shoulder_lift_joint",
        "elbow_joint",
        "wrist_1_joint",
        "wrist_2_joint",
        "wrist_3_joint"
    ],
    "metrics": {
        "cart_traj_len": 0.3437639321765089,
        "distance_elbow_joint": 0.6364650858652781,
        "distance_shoulder_lift_joint": 0.11970569521845054,
        "distance_shoulder_pan_joint": 0.1344316248631793,
        "distance_wrist_1_joint": 0.5224372289811603,
        "distance_wrist_2_joint": 1.4361176512456009,
        "distance_wrist_3_joint": 0.013006101216455956,
        "smoothness": 0.0,
        "time": 5.001442034,
        "traj_len": 1.6917929505084612,
        "weighted_distance": 2.201529120872535
    },
    "planner": "RRTstar",
    "start": {
        "state": {
            "elbow_joint": -1.8275523626775212,
            "shoulder_lift_joint": -2.126789852344167,
            "shoulder_pan_joint": -0.03513704404078235,
            "wrist_1_joint": -2.347782403156801,
            "wrist_2_joint": -1.6058999987535132,
            "wrist_3_joint": -3.0880379163319196
        }
    },
    "waypoints": [
        {
            "positions": [
                -0.03513704404078235,
                -2.126789852344167,
                -1.8275523626775212,
                -2.347782403156801,
                -1.6058999987535132,
                -3.0880379163319196
            ]
        },
        {
            "positions": [
                -0.051940997148679766,
                -2.141753064246473,
                -1.7479942269443614,
                -2.413087056779446,
                -1.426385292347813,
                -3.0896636789839764
            ]
        },
        {
            "positions": [
                -0.06874495025657718,
                -2.1567162761487797,
                -1.6684360912112017,
                -2.478391710402091,
                -1.246870585942113,
                -3.0912894416360337
            ]
        },
        {
            "positions": [
                -0.0855489033644746,
                -2.171679488051086,
                -1.588877955478042,
                -2.543696364024736,
                -1.0673558795364129,
                -3.0929152042880905
            ]
        },
        {
            "positions": [
                -0.102352856472372,
                -2.186642699953392,
                -1.5093198197448823,
                -2.609001017647381,
                -0.8878411731307128,
                -3.094540966940148
            ]
        },
        {
            "positions": [
                -0.11915680958026942,
                -2.2016059118556983,
                -1.4297616840117224,
                -2.674305671270026,
                -0.7083264667250126,
                -3.0961667295922046
            ]
        },
        {
            "positions": [
                -0.13596076268816684,
                -2.2165691237580045,
                -1.3502035482785626,
                -2.739610324892671,
                -0.5288117603193125,
                -3.0977924922442615
            ]
        },
        {
            "positions": [
                -0.15276471579606424,
                -2.231532335660311,
                -1.2706454125454028,
                -2.804914978515316,
                -0.34929705391361243,
                -3.0994182548963187
            ]
        },
        {
            "positions": [
                -0.16956866890396166,
                -2.2464955475626174,
                -1.1910872768122431,
                -2.870219632137961,
                -0.1697823475079122,
                -3.1010440175483756
            ]
        }
    ]
}