{
    "goal": {
        "global_pose": {
            "orientation": {
                "w": 0.7031023480610252,
                "x": -0.7110244013736278,
                "y": 0.0077485991402295624,
                "z": 0.005598929693374583
            },
            "position": {
                "x": -0.8841497679147869,
                "y": 0.44412534475326537,
                "z": 0.3711530566215515
            }
        },
        "name": "move_to_auspresseinheit_D"
    },
    "id": "RRTstar_move_to_auspresseinheit_D_67",
    "joint_names": [
        "shoulder_pan_joint",
        "shoulder_lift_joint",
        "elbow_joint",
        "wrist_1_joint",
        "wrist_2_joint",
        "wrist_3_joint"
    ],
    "metrics": {
        "cart_traj_len": 0.3430101546170692,
        "distance_elbow_joint": 0.6469259049091436,
        "distance_shoulder_lift_joint": 0.1261856395912173,
        "distance_shoulder_pan_joint": 0.13283927932763342,
        "distance_wrist_1_joint": 0.5536259648727513,
        "distance_wrist_2_joint": 1.4433363667907537,
        "distance_wrist_3_joint": 0.01785285434402173,
        "smoothness": 1.381610878086344e-15,
        "time": 5.001163162,
        "traj_len": 1.7090248710406533,
        "weighted_distance": 2.2256311577139347
    },
    "planner": "RRTstar",
    "start": {
        "state": {
            "elbow_joint": -1.8275523626775212,
            "shoulder_lift_joint": -2.126789852344167,
            "shoulder_pan_joint": -0.03513704404078235,
            "wrist_1_joint": -2.347782403156801,
            "wrist_2_joint": -1.6058999987535132,
            "wrist_3_joint": -3.0880379163319196
        }
    },
    "waypoints": [
        {
            "positions": [
                -0.03513704404078235,
                -2.126789852344167,
                -1.8275523626775212,
                -2.347782403156801,
                -1.6058999987535132,
                -3.0880379163319196
            ]
        },
        {
            "positions": [
                -0.05174195395673653,
                -2.142563057293069,
                -1.7466866245638784,
                -2.4169856487658947,
                -1.425482952904669,
                -3.085806309538917
            ]
        },
        {
            "positions": [
                -0.0683468638726907,
                -2.158336262241971,
                -1.6658208864502353,
                -2.4861888943749886,
                -1.2450659070558248,
                -3.0835747027459144
            ]
        },
        {
            "positions": [
                -0.08495177378864488,
                -2.174109467190873,
                -1.5849551483365922,
                -2.5553921399840824,
                -1.0646488612069804,
                -3.0813430959529113
            ]
        },
        {
            "positions": [
                -0.10155668370459905,
                -2.1898826721397757,
                -1.5040894102229494,
                -2.6245953855931763,
                -0.8842318153581363,
                -3.0791114891599087
            ]
        },
        {
            "positions": [
                -0.11816159362055323,
                -2.205655877088678,
                -1.4232236721093066,
                -2.6937986312022706,
                -0.7038147695092921,
                -3.076879882366906
            ]
        },
        {
            "positions": [
                -0.13476650353650743,
                -2.22142908203758,
                -1.3423579339956635,
                -2.7630018768113644,
                -0.5233977236604479,
                -3.074648275573903
            ]
        },
        {
            "positions": [
                -0.1513714134524616,
                -2.237202286986482,
                -1.2614921958820204,
                -2.8322051224204583,
                -0.3429806778116036,
                -3.0724166687809005
            ]
        },
        {
            "positions": [
                -0.16797632336841578,
                -2.252975491935384,
                -1.1806264577683776,
                -2.901408368029552,
                -0.16256363196275936,
                -3.070185061987898
            ]
        }
    ]
}