{
    "goal": {
        "global_pose": {
            "orientation": {
                "w": 0.7031023480610252,
                "x": -0.7110244013736278,
                "y": 0.0077485991402295624,
                "z": 0.005598929693374583
            },
            "position": {
                "x": -0.8841497679147869,
                "y": 0.44412534475326537,
                "z": 0.3711530566215515
            }
        },
        "name": "move_to_auspresseinheit_D"
    },
    "id": "RRTstar_move_to_auspresseinheit_D_70",
    "joint_names": [
        "shoulder_pan_joint",
        "shoulder_lift_joint",
        "elbow_joint",
        "wrist_1_joint",
        "wrist_2_joint",
        "wrist_3_joint"
    ],
    "metrics": {
        "cart_traj_len": 0.34384689357240167,
        "distance_elbow_joint": 0.6374649865440223,
        "distance_shoulder_lift_joint": 0.1199720999320526,
        "distance_shoulder_pan_joint": 0.13436337136582635,
        "distance_wrist_1_joint": 0.5281119481763139,
        "distance_wrist_2_joint": 1.4324766719634665,
        "distance_wrist_3_joint": 0.014567476545111369,
        "smoothness": 7.894919300567339e-16,
        "time": 5.00301652,
        "traj_len": 1.6932089518210072,
        "weighted_distance": 2.203787677558071
    },
    "planner": "RRTstar",
    "start": {
        "state": {
            "elbow_joint": -1.8275523626775212,
            "shoulder_lift_joint": -2.126789852344167,
            "shoulder_pan_joint": -0.03513704404078235,
            "wrist_1_joint": -2.347782403156801,
            "wrist_2_joint": -1.6058999987535132,
            "wrist_3_joint": -3.0880379163319196
        }
    },
    "waypoints": [
        {
            "positions": [
                -0.03513704404078235,
                -2.126789852344167,
                -1.8275523626775212,
                -2.347782403156801,
                -1.6058999987535132,
                -3.0880379163319196
            ]
        },
        {
            "positions": [
                -0.051932465461510646,
                -2.1417863648356734,
                -1.7478692393595183,
                -2.41379639667884,
                -1.4268404147580798,
                -3.0898588509000584
            ]
        },
        {
            "positions": [
                -0.06872788688223894,
                -2.15678287732718,
                -1.6681861160415157,
                -2.4798103902008792,
                -1.2477808307626466,
                -3.091679785468197
            ]
        },
        {
            "positions": [
                -0.08552330830296723,
                -2.1717793898186866,
                -1.5885029927235128,
                -2.5458243837229184,
                -1.0687212467672134,
                -3.0935007200363365
            ]
        },
        {
            "positions": [
                -0.10231872972369552,
                -2.186775902310193,
                -1.5088198694055102,
                -2.6118383772449576,
                -0.8896616627717799,
                -3.0953216546044753
            ]
        },
        {
            "positions": [
                -0.11911415114442381,
                -2.2017724148016997,
                -1.4291367460875073,
                -2.6778523707669972,
                -0.7106020787763466,
                -3.097142589172614
            ]
        },
        {
            "positions": [
                -0.13590957256515213,
                -2.2167689272932063,
                -1.3494536227695044,
                -2.7438663642890364,
                -0.5315424947809133,
                -3.0989635237407533
            ]
        },
        {
            "positions": [
                -0.15270499398588042,
                -2.231765439784713,
                -1.2697704994515018,
                -2.8098803578110756,
                -0.3524829107854801,
                -3.100784458308892
            ]
        },
        {
            "positions": [
                -0.1695004154066087,
                -2.2467619522762194,
                -1.190087376133499,
                -2.8758943513331148,
                -0.1734233267900467,
                -3.102605392877031
            ]
        }
    ]
}