{
    "goal": {
        "global_pose": {
            "orientation": {
                "w": 0.7031023480610252,
                "x": -0.7110244013736278,
                "y": 0.0077485991402295624,
                "z": 0.005598929693374583
            },
            "position": {
                "x": -0.8841497679147869,
                "y": 0.44412534475326537,
                "z": 0.3711530566215515
            }
        },
        "name": "move_to_auspresseinheit_D"
    },
    "id": "RRTstar_move_to_auspresseinheit_D_43",
    "joint_names": [
        "shoulder_pan_joint",
        "shoulder_lift_joint",
        "elbow_joint",
        "wrist_1_joint",
        "wrist_2_joint",
        "wrist_3_joint"
    ],
    "metrics": {
        "cart_traj_len": 0.3433890784840238,
        "distance_elbow_joint": 0.6368398358049208,
        "distance_shoulder_lift_joint": 0.12012372670517335,
        "distance_shoulder_pan_joint": 0.13425668087341464,
        "distance_wrist_1_joint": 0.528992325913785,
        "distance_wrist_2_joint": 1.4384123645571614,
        "distance_wrist_3_joint": 0.00021659315454281014,
        "smoothness": 1.9737298371844314e-16,
        "time": 5.004526182,
        "traj_len": 1.6908109081174625,
        "weighted_distance": 2.1969705058987548
    },
    "planner": "RRTstar",
    "start": {
        "state": {
            "elbow_joint": -1.8275523626775212,
            "shoulder_lift_joint": -2.126789852344167,
            "shoulder_pan_joint": -0.03513704404078235,
            "wrist_1_joint": -2.347782403156801,
            "wrist_2_joint": -1.6058999987535132,
            "wrist_3_joint": -3.0880379163319196
        }
    },
    "waypoints": [
        {
            "positions": [
                -0.03513704404078235,
                -2.126789852344167,
                -1.8275523626775212,
                -2.347782403156801,
                -1.6058999987535132,
                -3.0880379163319196
            ]
        },
        {
            "positions": [
                -0.05191912914995918,
                -2.1418053181823136,
                -1.7479473832019061,
                -2.413906443896024,
                -1.426098453183868,
                -3.0880649904762376
            ]
        },
        {
            "positions": [
                -0.068701214259136,
                -2.1568207840204603,
                -1.668342403726291,
                -2.4800304846352472,
                -1.246296907614223,
                -3.088092064620555
            ]
        },
        {
            "positions": [
                -0.08548329936831284,
                -2.171836249858607,
                -1.588737424250676,
                -2.54615452537447,
                -1.0664953620445776,
                -3.088119138764873
            ]
        },
        {
            "positions": [
                -0.10226538447748967,
                -2.1868517156967533,
                -1.509132444775061,
                -2.6122785661136936,
                -0.8866938164749325,
                -3.088146212909191
            ]
        },
        {
            "positions": [
                -0.11904746958666651,
                -2.2018671815349,
                -1.4295274652994459,
                -2.6784026068529165,
                -0.7068922709052874,
                -3.088173287053509
            ]
        },
        {
            "positions": [
                -0.13582955469584332,
                -2.2168826473730467,
                -1.3499224858238306,
                -2.7445266475921395,
                -0.527090725335642,
                -3.088200361197827
            ]
        },
        {
            "positions": [
                -0.15261163980502016,
                -2.2318981132111935,
                -1.2703175063482155,
                -2.810650688331363,
                -0.34728917976599694,
                -3.0882274353421444
            ]
        },
        {
            "positions": [
                -0.169393724914197,
                -2.24691357904934,
                -1.1907125268726004,
                -2.876774729070586,
                -0.1674876341963517,
                -3.0882545094864624
            ]
        }
    ]
}