{
    "goal": {
        "global_pose": {
            "orientation": {
                "w": 0.005598929693374612,
                "x": 0.007748599140229565,
                "y": 0.7110244013736278,
                "z": -0.7031023480610252
            },
            "position": {
                "x": 0.1141497679147869,
                "y": -0.7141253447532654,
                "z": 0.3711530566215515
            }
        },
        "name": "move_to_auspresseinheit_B"
    },
    "id": "RRTstar_move_to_auspresseinheit_B_24",
    "joint_names": [
        "shoulder_pan_joint",
        "shoulder_lift_joint",
        "elbow_joint",
        "wrist_1_joint",
        "wrist_2_joint",
        "wrist_3_joint"
    ],
    "metrics": {
        "cart_traj_len": 0.5650487946172218,
        "distance_elbow_joint": 0.06153395427652253,
        "distance_shoulder_lift_joint": 0.29437215467558664,
        "distance_shoulder_pan_joint": 0.5786898054785075,
        "distance_wrist_1_joint": 0.32113701081733304,
        "distance_wrist_2_joint": 0.9869306710174346,
        "distance_wrist_3_joint": 0.001492324371832332,
        "smoothness": 0.0,
        "time": 5.002318967,
        "traj_len": 1.4980507069646263,
        "weighted_distance": 1.8855259879449153
    },
    "planner": "RRTstar",
    "start": {
        "state": {
            "elbow_joint": 2.0193083361928714,
            "shoulder_lift_joint": -1.1220246554650708,
            "shoulder_pan_joint": -1.0952077554168747,
            "wrist_1_joint": -0.8559753972642168,
            "wrist_2_joint": 0.4759566250798843,
            "wrist_3_joint": -3.1240929996934557
        }
    },
    "waypoints": [
        {
            "positions": [
                -1.0952077554168747,
                -1.1220246554650708,
                2.0193083361928714,
                -0.8559753972642168,
                0.4759566250798843,
                -3.1240929996934557
            ]
        },
        {
            "positions": [
                -1.1916560563299592,
                -1.1710866812443352,
                2.0090526771467845,
                -0.8024525621279947,
                0.6404450702494567,
                -3.123844278964817
            ]
        },
        {
            "positions": [
                -1.2881043572430437,
                -1.2201487070235997,
                1.9987970181006973,
                -0.7489297269917724,
                0.8049335154190291,
                -3.123595558236178
            ]
        },
        {
            "positions": [
                -1.3845526581561285,
                -1.2692107328028641,
                1.9885413590546102,
                -0.6954068918555503,
                0.9694219605886016,
                -3.1233468375075395
            ]
        },
        {
            "positions": [
                -1.4810009590692128,
                -1.3182727585821286,
                1.978285700008523,
                -0.6418840567193281,
                1.133910405758174,
                -3.123098116778901
            ]
        },
        {
            "positions": [
                -1.5774492599822976,
                -1.367334784361393,
                1.968030040962436,
                -0.5883612215831059,
                1.2983988509277464,
                -3.122849396050262
            ]
        },
        {
            "positions": [
                -1.673897560895382,
                -1.4163968101406574,
                1.957774381916349,
                -0.5348383864468838,
                1.462887296097319,
                -3.1226006753216233
            ]
        }
    ]
}