{
    "goal": {
        "global_pose": {
            "orientation": {
                "w": 0.5084816217422485,
                "x": -0.49083608388900757,
                "y": 0.5182115435600281,
                "z": -0.4816462993621826
            },
            "position": {
                "x": 0.5540239810943604,
                "y": 0.030875300988554955,
                "z": 0.16403168439865112
            }
        },
        "name": "move_to_storage_A"
    },
    "id": "RRTstar_move_to_storage_A_4",
    "joint_names": [
        "shoulder_pan_joint",
        "shoulder_lift_joint",
        "elbow_joint",
        "wrist_1_joint",
        "wrist_2_joint",
        "wrist_3_joint"
    ],
    "metrics": {
        "cart_traj_len": 0.3536247238795274,
        "distance_elbow_joint": 0.44806987277601507,
        "distance_shoulder_lift_joint": 0.23440770369061048,
        "distance_shoulder_pan_joint": 0.4627964367992277,
        "distance_wrist_1_joint": 0.23545987403079904,
        "distance_wrist_2_joint": 1.097937542878902,
        "distance_wrist_3_joint": 0.08694832536017261,
        "smoothness": 6.661338165333112e-16,
        "time": 5.000158262,
        "traj_len": 1.6017552108657949,
        "weighted_distance": 2.0181461352354475
    },
    "planner": "RRTstar",
    "start": {
        "state": {
            "elbow_joint": 1.971548259319323,
            "shoulder_lift_joint": -1.1394851275133948,
            "shoulder_pan_joint": 0.1228115487234821,
            "wrist_1_joint": -0.7804723859257726,
            "wrist_2_joint": 0.12958671773740124,
            "wrist_3_joint": -3.192489227718131
        }
    },
    "waypoints": [
        {
            "positions": [
                0.1228115487234821,
                -1.1394851275133948,
                1.971548259319323,
                -0.7804723859257726,
                0.12958671773740124,
                -3.192489227718131
            ]
        },
        {
            "positions": [
                0.05669777203787814,
                -1.1729719423263392,
                2.035558241144468,
                -0.8141095107873153,
                0.28643493814867294,
                -3.1800680383809636
            ]
        },
        {
            "positions": [
                -0.009416004647725823,
                -1.2064587571392835,
                2.099568222969613,
                -0.8477466356488581,
                0.4432831585599446,
                -3.167646849043796
            ]
        },
        {
            "positions": [
                -0.07552978133332977,
                -1.2399455719522279,
                2.163578204794758,
                -0.8813837605104008,
                0.6001313789712164,
                -3.1552256597066286
            ]
        },
        {
            "positions": [
                -0.14164355801893375,
                -1.2734323867651722,
                2.227588186619903,
                -0.9150208853719435,
                0.756979599382488,
                -3.142804470369461
            ]
        },
        {
            "positions": [
                -0.20775733470453772,
                -1.3069192015781166,
                2.291598168445048,
                -0.9486580102334863,
                0.9138278197937598,
                -3.1303832810322936
            ]
        },
        {
            "positions": [
                -0.27387111139014164,
                -1.340406016391061,
                2.355608150270193,
                -0.9822951350950289,
                1.0706760402050315,
                -3.117962091695126
            ]
        },
        {
            "positions": [
                -0.3399848880757456,
                -1.3738928312040053,
                2.419618132095338,
                -1.0159322599565717,
                1.2275242606163033,
                -3.1055409023579585
            ]
        }
    ]
}{
    "goal": {
        "global_pose": {
            "orientation": {
                "w": 0.5084816217422485,
                "x": -0.49083608388900757,
                "y": 0.5182115435600281,
                "z": -0.4816462993621826
            },
            "position": {
                "x": 0.5540239810943604,
                "y": 0.030875300988554955,
                "z": 0.16403168439865112
            }
        },
        "name": "move_to_storage_A"
    },
    "id": "RRTstar_move_to_storage_A_4",
    "joint_names": [
        "shoulder_pan_joint",
        "shoulder_lift_joint",
        "elbow_joint",
        "wrist_1_joint",
        "wrist_2_joint",
        "wrist_3_joint"
    ],
    "metrics": {
        "cart_traj_len": 0.3528970257221308,
        "distance_elbow_joint": 0.44754635007091936,
        "distance_shoulder_lift_joint": 0.2329296895917483,
        "distance_shoulder_pan_joint": 0.4624399610601659,
        "distance_wrist_1_joint": 0.2385029978301354,
        "distance_wrist_2_joint": 1.0928968336004765,
        "distance_wrist_3_joint": 0.10586436805666377,
        "smoothness": 6.661338165333112e-16,
        "time": 5.001533211,
        "traj_len": 1.6062939333167232,
        "weighted_distance": 2.0305932058770533
    },
    "planner": "RRTstar",
    "start": {
        "state": {
            "elbow_joint": 1.97154746011099,
            "shoulder_lift_joint": -1.13948474672311,
            "shoulder_pan_joint": 0.12281154466712228,
            "wrist_1_joint": -0.7804688027058302,
            "wrist_2_joint": 0.12958655903071145,
            "wrist_3_joint": 3.0906928834467795
        }
    },
    "waypoints": [
        {
            "positions": [
                0.12281154466712228,
                -1.13948474672311,
                1.97154746011099,
                -0.7804688027058302,
                0.12958655903071145,
                3.0906928834467795
            ]
        },
        {
            "positions": [
                0.056748693087098595,
                -1.1727604166647883,
                2.035482652978264,
                -0.8145406595387067,
                0.2857146781164938,
                3.1058163645977315
            ]
        },
        {
            "positions": [
                -0.009314158492925093,
                -1.2060360866064666,
                2.0994178458455384,
                -0.8486125163715832,
                0.44184279720227615,
                3.1209398457486834
            ]
        },
        {
            "positions": [
                -0.0753770100729488,
                -1.2393117565481448,
                2.1633530387128124,
                -0.8826843732044596,
                0.5979709162880585,
                3.1360633268996354
            ]
        },
        {
            "positions": [
                -0.14143986165297245,
                -1.2725874264898231,
                2.227288231580087,
                -0.9167562300373361,
                0.7540990353738409,
                3.1511868080505874
            ]
        },
        {
            "positions": [
                -0.20750271323299618,
                -1.3058630964315017,
                2.291223424447361,
                -0.9508280868702126,
                0.9102271544596233,
                3.1663102892015393
            ]
        },
        {
            "positions": [
                -0.27356556481301986,
                -1.33913876637318,
                2.3551586173146353,
                -0.9848999437030891,
                1.0663552735454056,
                3.1814337703524913
            ]
        },
        {
            "positions": [
                -0.3396284163930436,
                -1.3724144363148583,
                2.4190938101819093,
                -1.0189718005359656,
                1.222483392631188,
                3.1965572515034433
            ]
        }
    ]
}{
    "goal": {
        "global_pose": {
            "orientation": {
                "w": 0.5084816217422485,
                "x": -0.49083608388900757,
                "y": 0.5182115435600281,
                "z": -0.4816462993621826
            },
            "position": {
                "x": 0.5540239810943604,
                "y": 0.030875300988554955,
                "z": 0.16403168439865112
            }
        },
        "name": "move_to_storage_A"
    },
    "id": "RRTstar_move_to_storage_A_4",
    "joint_names": [
        "shoulder_pan_joint",
        "shoulder_lift_joint",
        "elbow_joint",
        "wrist_1_joint",
        "wrist_2_joint",
        "wrist_3_joint"
    ],
    "metrics": {
        "cart_traj_len": 0.3526504230972102,
        "distance_elbow_joint": 0.4500794813890976,
        "distance_shoulder_lift_joint": 0.2341983684355251,
        "distance_shoulder_pan_joint": 0.4626901024981551,
        "distance_wrist_1_joint": 0.2398873285225156,
        "distance_wrist_2_joint": 1.0915938500679279,
        "distance_wrist_3_joint": 0.09548516164990106,
        "smoothness": 0.0,
        "time": 5.0023565990000005,
        "traj_len": 1.604348557067049,
        "weighted_distance": 2.0239530119183518
    },
    "planner": "RRTstar",
    "start": {
        "state": {
            "elbow_joint": 1.9715472970024885,
            "shoulder_lift_joint": -1.1394870060712896,
            "shoulder_pan_joint": 0.12281152778156021,
            "wrist_1_joint": -0.780463741449964,
            "wrist_2_joint": 0.12958659822042276,
            "wrist_3_joint": 3.090690232415272
        }
    },
    "waypoints": [
        {
            "positions": [
                0.12281152778156021,
                -1.1394870060712896,
                1.9715472970024885,
                -0.780463741449964,
                0.12958659822042276,
                3.090690232415272
            ]
        },
        {
            "positions": [
                0.05671294171039519,
                -1.1729439158477932,
                2.0358443657723595,
                -0.8147333598103234,
                0.2855285768015553,
                3.1043309697938293
            ]
        },
        {
            "positions": [
                -0.00938564436076983,
                -1.2064008256242968,
                2.100141434542231,
                -0.8490029781706827,
                0.44147055538268787,
                3.1179717071723863
            ]
        },
        {
            "positions": [
                -0.07548423043193483,
                -1.2398577354008005,
                2.164438503312102,
                -0.8832725965310421,
                0.5974125339638204,
                3.1316124445509437
            ]
        },
        {
            "positions": [
                -0.14158281650309987,
                -1.2733146451773039,
                2.228735572081973,
                -0.9175422148914014,
                0.7533545125449529,
                3.145253181929501
            ]
        },
        {
            "positions": [
                -0.2076814025742649,
                -1.3067715549538075,
                2.2930326408518438,
                -0.9518118332517609,
                0.9092964911260855,
                3.1588939193080585
            ]
        },
        {
            "positions": [
                -0.27377998864542985,
                -1.340228464730311,
                2.357329709621715,
                -0.9860814516121202,
                1.0652384697072181,
                3.1725346566866155
            ]
        },
        {
            "positions": [
                -0.3398785747165949,
                -1.3736853745068147,
                2.421626778391586,
                -1.0203510699724796,
                1.2211804482883506,
                3.186175394065173
            ]
        }
    ]
}