{
    "goal": {
        "global_pose": {
            "orientation": {
                "w": 0.7031023480610252,
                "x": -0.7110244013736278,
                "y": 0.0077485991402295624,
                "z": 0.005598929693374583
            },
            "position": {
                "x": -0.8841497679147869,
                "y": 0.44412534475326537,
                "z": 0.3711530566215515
            }
        },
        "name": "move_to_auspresseinheit_D"
    },
    "id": "RRTstar_move_to_auspresseinheit_D_9",
    "joint_names": [
        "shoulder_pan_joint",
        "shoulder_lift_joint",
        "elbow_joint",
        "wrist_1_joint",
        "wrist_2_joint",
        "wrist_3_joint"
    ],
    "metrics": {
        "cart_traj_len": 0.34351666822290683,
        "distance_elbow_joint": 0.6340872313626142,
        "distance_shoulder_lift_joint": 0.11905087217370713,
        "distance_shoulder_pan_joint": 0.13475428494973613,
        "distance_wrist_1_joint": 0.5135197649963668,
        "distance_wrist_2_joint": 1.4362607226522464,
        "distance_wrist_3_joint": 0.011423169323271143,
        "smoothness": 7.894919286223335e-16,
        "time": 5.001661467,
        "traj_len": 1.6879265521514677,
        "weighted_distance": 2.195842178243486
    },
    "planner": "RRTstar",
    "start": {
        "state": {
            "elbow_joint": -1.8275523626775212,
            "shoulder_lift_joint": -2.126789852344167,
            "shoulder_pan_joint": -0.03513704404078235,
            "wrist_1_joint": -2.347782403156801,
            "wrist_2_joint": -1.6058999987535132,
            "wrist_3_joint": -3.0880379163319196
        }
    },
    "waypoints": [
        {
            "positions": [
                -0.03513704404078235,
                -2.126789852344167,
                -1.8275523626775212,
                -2.347782403156801,
                -1.6058999987535132,
                -3.0880379163319196
            ]
        },
        {
            "positions": [
                -0.051981329659499365,
                -2.14167121136588,
                -1.7482914587571945,
                -2.4119723737813468,
                -1.4263674084219824,
                -3.0894658124973287
            ]
        },
        {
            "positions": [
                -0.06882561527821637,
                -2.1565525703875936,
                -1.6690305548368676,
                -2.4761623444058927,
                -1.2468348180904516,
                -3.0908937086627373
            ]
        },
        {
            "positions": [
                -0.0856699008969334,
                -2.1714339294093072,
                -1.5897696509165409,
                -2.5403523150304386,
                -1.0673022277589208,
                -3.0923216048281463
            ]
        },
        {
            "positions": [
                -0.10251418651565042,
                -2.1863152884310204,
                -1.510508746996214,
                -2.6045422856549845,
                -0.88776963742739,
                -3.093749500993555
            ]
        },
        {
            "positions": [
                -0.11935847213436743,
                -2.2011966474527336,
                -1.4312478430758873,
                -2.66873225627953,
                -0.7082370470958592,
                -3.095177397158964
            ]
        },
        {
            "positions": [
                -0.13620275775308444,
                -2.216078006474447,
                -1.3519869391555606,
                -2.732922226904076,
                -0.5287044567643284,
                -3.096605293324373
            ]
        },
        {
            "positions": [
                -0.15304704337180147,
                -2.230959365496161,
                -1.2727260352352339,
                -2.7971121975286217,
                -0.34917186643279763,
                -3.0980331894897817
            ]
        },
        {
            "positions": [
                -0.16989132899051848,
                -2.245840724517874,
                -1.193465131314907,
                -2.8613021681531676,
                -0.1696392761012669,
                -3.0994610856551907
            ]
        }
    ]
}