{
    "goal": {
        "global_pose": {
            "orientation": {
                "w": 0.5084816217422485,
                "x": -0.49083608388900757,
                "y": 0.5182115435600281,
                "z": -0.4816462993621826
            },
            "position": {
                "x": 0.5540239810943604,
                "y": 0.030875300988554955,
                "z": 0.16403168439865112
            }
        },
        "name": "move_to_storage_A"
    },
    "id": "RRTstar_move_to_storage_A_105",
    "joint_names": [
        "shoulder_pan_joint",
        "shoulder_lift_joint",
        "elbow_joint",
        "wrist_1_joint",
        "wrist_2_joint",
        "wrist_3_joint"
    ],
    "metrics": {
        "cart_traj_len": 0.35209499314730797,
        "distance_elbow_joint": 0.44912549606684693,
        "distance_shoulder_lift_joint": 0.23542601783019146,
        "distance_shoulder_pan_joint": 0.46098174976089606,
        "distance_wrist_1_joint": 0.23684911163155886,
        "distance_wrist_2_joint": 1.0950224785147666,
        "distance_wrist_3_joint": 0.09853951304211961,
        "smoothness": 4.440892133664971e-16,
        "time": 5.00083749,
        "traj_len": 1.6049748804409305,
        "weighted_distance": 2.0260540424867606
    },
    "planner": "RRTstar",
    "start": {
        "state": {
            "elbow_joint": 1.971548259319323,
            "shoulder_lift_joint": -1.1394851275133948,
            "shoulder_pan_joint": 0.1228115487234821,
            "wrist_1_joint": -0.7804723859257726,
            "wrist_2_joint": 0.12958671773740124,
            "wrist_3_joint": -3.192489227718131
        }
    },
    "waypoints": [
        {
            "positions": [
                0.1228115487234821,
                -1.1394851275133948,
                1.971548259319323,
                -0.7804723859257726,
                0.12958671773740124,
                -3.192489227718131
            ]
        },
        {
            "positions": [
                0.0569570130433541,
                -1.1731174157748507,
                2.0357090444717296,
                -0.8143079733017096,
                0.28601850038236787,
                -3.1784121544264
            ]
        },
        {
            "positions": [
                -0.008897522636773902,
                -1.2067497040363067,
                2.0998698296241365,
                -0.8481435606776466,
                0.4424502830273346,
                -3.164335081134668
            ]
        },
        {
            "positions": [
                -0.0747520583169019,
                -1.2403819922977626,
                2.164030614776543,
                -0.8819791480535836,
                0.5988820656723012,
                -3.150258007842937
            ]
        },
        {
            "positions": [
                -0.1406065939970299,
                -1.2740142805592185,
                2.2281913999289498,
                -0.9158147354295205,
                0.7553138483172679,
                -3.1361809345512057
            ]
        },
        {
            "positions": [
                -0.20646112967715796,
                -1.3076465688206744,
                2.2923521850813566,
                -0.9496503228054576,
                0.9117456309622346,
                -3.1221038612594745
            ]
        },
        {
            "positions": [
                -0.2723156653572859,
                -1.3412788570821303,
                2.356512970233763,
                -0.9834859101813944,
                1.068177413607201,
                -3.108026787967743
            ]
        },
        {
            "positions": [
                -0.33817020103741396,
                -1.3749111453435863,
                2.42067375538617,
                -1.0173214975573315,
                1.224609196252168,
                -3.0939497146760115
            ]
        }
    ]
}{
    "goal": {
        "global_pose": {
            "orientation": {
                "w": 0.5084816217422485,
                "x": -0.49083608388900757,
                "y": 0.5182115435600281,
                "z": -0.4816462993621826
            },
            "position": {
                "x": 0.5540239810943604,
                "y": 0.030875300988554955,
                "z": 0.16403168439865112
            }
        },
        "name": "move_to_storage_A"
    },
    "id": "RRTstar_move_to_storage_A_105",
    "joint_names": [
        "shoulder_pan_joint",
        "shoulder_lift_joint",
        "elbow_joint",
        "wrist_1_joint",
        "wrist_2_joint",
        "wrist_3_joint"
    ],
    "metrics": {
        "cart_traj_len": 0.35291563932298564,
        "distance_elbow_joint": 0.4488909950787465,
        "distance_shoulder_lift_joint": 0.2324868670394522,
        "distance_shoulder_pan_joint": 0.4608456873010962,
        "distance_wrist_1_joint": 0.24450543543755354,
        "distance_wrist_2_joint": 1.0998946809643353,
        "distance_wrist_3_joint": 0.09209362274071697,
        "smoothness": 1.3322676295501878e-15,
        "time": 5.000351352,
        "traj_len": 1.6058385001493458,
        "weighted_distance": 2.026648625303662
    },
    "planner": "RRTstar",
    "start": {
        "state": {
            "elbow_joint": 1.97154746011099,
            "shoulder_lift_joint": -1.13948474672311,
            "shoulder_pan_joint": 0.12281154466712228,
            "wrist_1_joint": -0.7804688027058302,
            "wrist_2_joint": 0.12958655903071145,
            "wrist_3_joint": 3.0906928834467795
        }
    },
    "waypoints": [
        {
            "positions": [
                0.12281154466712228,
                -1.13948474672311,
                1.97154746011099,
                -0.7804688027058302,
                0.12958655903071145,
                3.0906928834467795
            ]
        },
        {
            "positions": [
                0.0569764464812514,
                -1.1726971563001745,
                2.0356747451222392,
                -0.8153981506254807,
                0.2867143705970451,
                3.103849115266882
            ]
        },
        {
            "positions": [
                -0.008858651704619483,
                -1.2059095658772392,
                2.099802030133489,
                -0.8503274985451312,
                0.4438421821633787,
                3.1170053470869843
            ]
        },
        {
            "positions": [
                -0.07469374989049037,
                -1.2391219754543037,
                2.1639293151447383,
                -0.8852568464647816,
                0.6009699937297123,
                3.130161578907087
            ]
        },
        {
            "positions": [
                -0.14052884807636123,
                -1.2723343850313684,
                2.228056600155988,
                -0.9201861943844322,
                0.7580978052960459,
                3.143317810727189
            ]
        },
        {
            "positions": [
                -0.20636394626223215,
                -1.305546794608433,
                2.2921838851672374,
                -0.9551155423040827,
                0.9152256168623796,
                3.1564740425472917
            ]
        },
        {
            "positions": [
                -0.272199044448103,
                -1.3387592041854974,
                2.356311170178487,
                -0.9900448902237332,
                1.072353428428713,
                3.169630274367394
            ]
        },
        {
            "positions": [
                -0.3380341426339739,
                -1.3719716137625622,
                2.4204384551897364,
                -1.0249742381433837,
                1.2294812399950468,
                3.1827865061874965
            ]
        }
    ]
}{
    "goal": {
        "global_pose": {
            "orientation": {
                "w": 0.5084816217422485,
                "x": -0.49083608388900757,
                "y": 0.5182115435600281,
                "z": -0.4816462993621826
            },
            "position": {
                "x": 0.5540239810943604,
                "y": 0.030875300988554955,
                "z": 0.16403168439865112
            }
        },
        "name": "move_to_storage_A"
    },
    "id": "RRTstar_move_to_storage_A_105",
    "joint_names": [
        "shoulder_pan_joint",
        "shoulder_lift_joint",
        "elbow_joint",
        "wrist_1_joint",
        "wrist_2_joint",
        "wrist_3_joint"
    ],
    "metrics": {
        "cart_traj_len": 0.35274587050502954,
        "distance_elbow_joint": 0.45002706457507724,
        "distance_shoulder_lift_joint": 0.23563339056965948,
        "distance_shoulder_pan_joint": 0.4620346390342107,
        "distance_wrist_1_joint": 0.24080850097163387,
        "distance_wrist_2_joint": 1.095523305203003,
        "distance_wrist_3_joint": 0.0885457406543666,
        "smoothness": 4.440892098500626e-16,
        "time": 5.103609043,
        "traj_len": 1.603924138171114,
        "weighted_distance": 2.0213846562421813
    },
    "planner": "RRTstar",
    "start": {
        "state": {
            "elbow_joint": 1.9715472970024885,
            "shoulder_lift_joint": -1.1394870060712896,
            "shoulder_pan_joint": 0.12281152778156021,
            "wrist_1_joint": -0.780463741449964,
            "wrist_2_joint": 0.12958659822042276,
            "wrist_3_joint": 3.090690232415272
        }
    },
    "waypoints": [
        {
            "positions": [
                0.12281152778156021,
                -1.1394870060712896,
                1.9715472970024885,
                -0.780463741449964,
                0.12958659822042276,
                3.090690232415272
            ]
        },
        {
            "positions": [
                0.056806579348101544,
                -1.1731489190098123,
                2.035836877656071,
                -0.8148649558744832,
                0.28608992753513746,
                3.103339623937324
            ]
        },
        {
            "positions": [
                -0.009198369085357122,
                -1.2068108319483353,
                2.1001264583096533,
                -0.8492661702990022,
                0.4425932568498522,
                3.115989015459377
            ]
        },
        {
            "positions": [
                -0.07520331751881579,
                -1.240472744886858,
                2.164416038963236,
                -0.8836673847235214,
                0.5990965861645668,
                3.128638406981429
            ]
        },
        {
            "positions": [
                -0.14120826595227445,
                -1.2741346578253807,
                2.2287056196168185,
                -0.9180685991480405,
                0.7555999154792815,
                3.1412877985034813
            ]
        },
        {
            "positions": [
                -0.20721321438573317,
                -1.3077965707639034,
                2.292995200270401,
                -0.9524698135725596,
                0.9121032447939963,
                3.1539371900255335
            ]
        },
        {
            "positions": [
                -0.27321816281919176,
                -1.3414584837024264,
                2.357284780923983,
                -0.9868710279970787,
                1.068606574108711,
                3.166586581547586
            ]
        },
        {
            "positions": [
                -0.3392231112526505,
                -1.375120396640949,
                2.421574361577566,
                -1.0212722424215979,
                1.2251099034234256,
                3.1792359730696385
            ]
        }
    ]
}