{
    "goal": {
        "global_pose": {
            "orientation": {
                "w": 0.7031023502349854,
                "x": -0.7110244035720825,
                "y": 0.007748599164187908,
                "z": 0.005598929710686207
            },
            "position": {
                "x": 0.11585023208521307,
                "y": 0.44412534475326537,
                "z": 0.3711530566215515
            }
        },
        "name": "move_to_auspresseinheit_A"
    },
    "id": "RRTstar_move_to_auspresseinheit_A_98",
    "joint_names": [
        "shoulder_pan_joint",
        "shoulder_lift_joint",
        "elbow_joint",
        "wrist_1_joint",
        "wrist_2_joint",
        "wrist_3_joint"
    ],
    "metrics": {
        "cart_traj_len": 0.684056124636428,
        "distance_elbow_joint": 0.031129343832777767,
        "distance_shoulder_lift_joint": 0.5338963555872474,
        "distance_shoulder_pan_joint": 1.0465218545418695,
        "distance_wrist_1_joint": 0.5648411505167998,
        "distance_wrist_2_joint": 0.5189419417686514,
        "distance_wrist_3_joint": 0.167969391087464,
        "smoothness": 0.1650029695389533,
        "time": 5.006631904,
        "traj_len": 1.6921288477343592,
        "weighted_distance": 2.0695463057866545
    },
    "planner": "RRTstar",
    "start": {
        "state": {
            "elbow_joint": 2.4225746658250005,
            "shoulder_lift_joint": -1.3736534386056498,
            "shoulder_pan_joint": -0.3378633547517467,
            "wrist_1_joint": -1.0288598680537169,
            "wrist_2_joint": 1.233022673432363,
            "wrist_3_joint": -3.0940220416140027
        }
    },
    "waypoints": [
        {
            "positions": [
                -0.3378633547517467,
                -1.3736534386056498,
                2.4225746658250005,
                -1.0288598680537169,
                1.233022673432363,
                -3.0940220416140027
            ]
        },
        {
            "positions": [
                -0.2786589309893165,
                -1.4246245421147044,
                2.419517914465585,
                -0.9571916526340425,
                1.2089984942019312,
                -3.0606184956492926
            ]
        },
        {
            "positions": [
                -0.2194545072268863,
                -1.4755956456237591,
                2.416461163106169,
                -0.8855234372143681,
                1.184974314971499,
                -3.0272149496845824
            ]
        },
        {
            "positions": [
                -0.086866934795885,
                -1.537303381133636,
                2.4128874715184625,
                -0.8253084772604465,
                1.1177038030703865,
                -3.04166670670716
            ]
        },
        {
            "positions": [
                0.0457206376351163,
                -1.5990111166435128,
                2.4093137799307556,
                -0.765093517306525,
                1.0504332911692742,
                -3.056118463729738
            ]
        },
        {
            "positions": [
                0.17830821006611758,
                -1.6607188521533898,
                2.405740088343049,
                -0.7048785573526034,
                0.9831627792681616,
                -3.0705702207523156
            ]
        },
        {
            "positions": [
                0.3108957824971189,
                -1.7224265876632665,
                2.4021663967553426,
                -0.6446635973986818,
                0.9158922673670491,
                -3.085021977774893
            ]
        },
        {
            "positions": [
                0.4434833549281203,
                -1.7841343231731435,
                2.398592705167636,
                -0.5844486374447602,
                0.8486217554659367,
                -3.0994737347974706
            ]
        },
        {
            "positions": [
                0.5760709273591215,
                -1.8458420586830202,
                2.395019013579929,
                -0.5242336774908387,
                0.7813512435648242,
                -3.1139254918200483
            ]
        },
        {
            "positions": [
                0.7086584997901229,
                -1.9075497941928972,
                2.3914453219922227,
                -0.4640187175369171,
                0.7140807316637117,
                -3.128377248842626
            ]
        }
    ]
}