{
    "goal": {
        "global_pose": {
            "orientation": {
                "w": 0.5084816217422485,
                "x": -0.49083608388900757,
                "y": 0.5182115435600281,
                "z": -0.4816462993621826
            },
            "position": {
                "x": 0.5540239810943604,
                "y": 0.030875300988554955,
                "z": 0.16403168439865112
            }
        },
        "name": "move_to_storage_A"
    },
    "id": "RRTstar_move_to_storage_A_87",
    "joint_names": [
        "shoulder_pan_joint",
        "shoulder_lift_joint",
        "elbow_joint",
        "wrist_1_joint",
        "wrist_2_joint",
        "wrist_3_joint"
    ],
    "metrics": {
        "cart_traj_len": 0.3538073750726278,
        "distance_elbow_joint": 0.448551963541419,
        "distance_shoulder_lift_joint": 0.2358002882128436,
        "distance_shoulder_pan_joint": 0.46104599619644243,
        "distance_wrist_1_joint": 0.2374026228828524,
        "distance_wrist_2_joint": 1.107400664798818,
        "distance_wrist_3_joint": 0.10534301998394158,
        "smoothness": 4.440892098500626e-16,
        "time": 5.04454377,
        "traj_len": 1.6110693826202263,
        "weighted_distance": 2.0374086196111647
    },
    "planner": "RRTstar",
    "start": {
        "state": {
            "elbow_joint": 1.971548259319323,
            "shoulder_lift_joint": -1.1394851275133948,
            "shoulder_pan_joint": 0.1228115487234821,
            "wrist_1_joint": -0.7804723859257726,
            "wrist_2_joint": 0.12958671773740124,
            "wrist_3_joint": -3.192489227718131
        }
    },
    "waypoints": [
        {
            "positions": [
                0.1228115487234821,
                -1.1394851275133948,
                1.971548259319323,
                -0.7804723859257726,
                0.12958671773740124,
                -3.192489227718131
            ]
        },
        {
            "positions": [
                0.05694783498113319,
                -1.1731708829723724,
                2.0356271112538113,
                -0.8143870463376087,
                0.2877868127086609,
                -3.1774402248632825
            ]
        },
        {
            "positions": [
                -0.008915878761215718,
                -1.2068566384313502,
                2.0997059631883,
                -0.8483017067494447,
                0.44598690767992066,
                -3.1623912220084334
            ]
        },
        {
            "positions": [
                -0.07477959250356464,
                -1.2405423938903277,
                2.163784815122788,
                -0.8822163671612808,
                0.6041870026511803,
                -3.1473422191535847
            ]
        },
        {
            "positions": [
                -0.14064330624591354,
                -1.2742281493493055,
                2.2278636670572767,
                -0.9161310275731168,
                0.7623870976224401,
                -3.132293216298736
            ]
        },
        {
            "positions": [
                -0.20650701998826249,
                -1.307913904808283,
                2.2919425189917653,
                -0.9500456879849529,
                0.9205871925936998,
                -3.1172442134438874
            ]
        },
        {
            "positions": [
                -0.2723707337306114,
                -1.3415996602672609,
                2.3560213709262534,
                -0.9839603483967889,
                1.0787872875649593,
                -3.1021952105890382
            ]
        },
        {
            "positions": [
                -0.33823444747296033,
                -1.3752854157262384,
                2.420100222860742,
                -1.017875008808625,
                1.2369873825362192,
                -3.0871462077341896
            ]
        }
    ]
}{
    "goal": {
        "global_pose": {
            "orientation": {
                "w": 0.5084816217422485,
                "x": -0.49083608388900757,
                "y": 0.5182115435600281,
                "z": -0.4816462993621826
            },
            "position": {
                "x": 0.5540239810943604,
                "y": 0.030875300988554955,
                "z": 0.16403168439865112
            }
        },
        "name": "move_to_storage_A"
    },
    "id": "RRTstar_move_to_storage_A_87",
    "joint_names": [
        "shoulder_pan_joint",
        "shoulder_lift_joint",
        "elbow_joint",
        "wrist_1_joint",
        "wrist_2_joint",
        "wrist_3_joint"
    ],
    "metrics": {
        "cart_traj_len": 0.3526616045023764,
        "distance_elbow_joint": 0.4498334926416683,
        "distance_shoulder_lift_joint": 0.23422860702285075,
        "distance_shoulder_pan_joint": 0.4572118892278343,
        "distance_wrist_1_joint": 0.241267656396154,
        "distance_wrist_2_joint": 1.1150706685830913,
        "distance_wrist_3_joint": 0.08703499821248784,
        "smoothness": 8.881784197001252e-16,
        "time": 5.002674581,
        "traj_len": 1.6076838346155273,
        "weighted_distance": 2.02855999011326
    },
    "planner": "RRTstar",
    "start": {
        "state": {
            "elbow_joint": 1.97154746011099,
            "shoulder_lift_joint": -1.13948474672311,
            "shoulder_pan_joint": 0.12281154466712228,
            "wrist_1_joint": -0.7804688027058302,
            "wrist_2_joint": 0.12958655903071145,
            "wrist_3_joint": 3.0906928834467795
        }
    },
    "waypoints": [
        {
            "positions": [
                0.12281154466712228,
                -1.13948474672311,
                1.97154746011099,
                -0.7804688027058302,
                0.12958655903071145,
                3.0906928834467795
            ]
        },
        {
            "positions": [
                0.05749556049171739,
                -1.172945976297803,
                2.0358093876312284,
                -0.8149356107624236,
                0.28888236882829593,
                3.103126454619992
            ]
        },
        {
            "positions": [
                -0.007820423683687502,
                -1.206407205872496,
                2.1000713151514665,
                -0.849402418819017,
                0.4481781786258804,
                3.115560025793205
            ]
        },
        {
            "positions": [
                -0.07313640785909241,
                -1.239868435447189,
                2.164333242671705,
                -0.8838692268756104,
                0.6074739884234649,
                3.127993596966417
            ]
        },
        {
            "positions": [
                -0.13845239203449727,
                -1.2733296650218817,
                2.228595170191943,
                -0.9183360349322038,
                0.7667697982210494,
                3.1404271681396296
            ]
        },
        {
            "positions": [
                -0.20376837620990218,
                -1.3067908945965747,
                2.2928570977121816,
                -0.9528028429887974,
                0.9260656080186339,
                3.152860739312842
            ]
        },
        {
            "positions": [
                -0.2690843603853071,
                -1.3402521241712677,
                2.3571190252324197,
                -0.9872696510453908,
                1.0853614178162183,
                3.165294310486055
            ]
        },
        {
            "positions": [
                -0.334400344560712,
                -1.3737133537459607,
                2.421380952752658,
                -1.0217364591019842,
                1.2446572276138028,
                3.1777278816592673
            ]
        }
    ]
}{
    "goal": {
        "global_pose": {
            "orientation": {
                "w": 0.5084816217422485,
                "x": -0.49083608388900757,
                "y": 0.5182115435600281,
                "z": -0.4816462993621826
            },
            "position": {
                "x": 0.5540239810943604,
                "y": 0.030875300988554955,
                "z": 0.16403168439865112
            }
        },
        "name": "move_to_storage_A"
    },
    "id": "RRTstar_move_to_storage_A_87",
    "joint_names": [
        "shoulder_pan_joint",
        "shoulder_lift_joint",
        "elbow_joint",
        "wrist_1_joint",
        "wrist_2_joint",
        "wrist_3_joint"
    ],
    "metrics": {
        "cart_traj_len": 0.3538135762884046,
        "distance_elbow_joint": 0.4506278120965006,
        "distance_shoulder_lift_joint": 0.23576665289592724,
        "distance_shoulder_pan_joint": 0.46533096059047724,
        "distance_wrist_1_joint": 0.23964017355076117,
        "distance_wrist_2_joint": 1.0897987743997535,
        "distance_wrist_3_joint": 0.0935892901985027,
        "smoothness": 4.440892098500626e-16,
        "time": 5.000092246,
        "traj_len": 1.6046038962098783,
        "weighted_distance": 2.022713818630664
    },
    "planner": "RRTstar",
    "start": {
        "state": {
            "elbow_joint": 1.9715472970024885,
            "shoulder_lift_joint": -1.1394870060712896,
            "shoulder_pan_joint": 0.12281152778156021,
            "wrist_1_joint": -0.780463741449964,
            "wrist_2_joint": 0.12958659822042276,
            "wrist_3_joint": 3.090690232415272
        }
    },
    "waypoints": [
        {
            "positions": [
                0.12281152778156021,
                -1.1394870060712896,
                1.9715472970024885,
                -0.780463741449964,
                0.12958659822042276,
                3.090690232415272
            ]
        },
        {
            "positions": [
                0.05633567626863491,
                -1.1731679564849935,
                2.03592269873056,
                -0.8146980519572156,
                0.28527213742038754,
                3.104060131015058
            ]
        },
        {
            "positions": [
                -0.010140175244290395,
                -1.2068489068986974,
                2.1002981004586316,
                -0.8489323624644671,
                0.44095767662035235,
                3.117430029614844
            ]
        },
        {
            "positions": [
                -0.07661602675721571,
                -1.2405298573124013,
                2.164673502186703,
                -0.8831666729717188,
                0.5966432158203171,
                3.13079992821463
            ]
        },
        {
            "positions": [
                -0.143091878270141,
                -1.2742108077261052,
                2.2290489039147747,
                -0.9174009834789704,
                0.7523287550202818,
                3.1441698268144163
            ]
        },
        {
            "positions": [
                -0.20956772978306634,
                -1.307891758139809,
                2.293424305642846,
                -0.951635293986222,
                0.9080142942202467,
                3.1575397254142024
            ]
        },
        {
            "positions": [
                -0.2760435812959916,
                -1.341572708553513,
                2.3577997073709174,
                -0.9858696044934736,
                1.0636998334202115,
                3.1709096240139885
            ]
        },
        {
            "positions": [
                -0.342519432808917,
                -1.3752536589672169,
                2.422175109098989,
                -1.0201039150007252,
                1.2193853726201762,
                3.1842795226137746
            ]
        }
    ]
}