{
    "goal": {
        "global_pose": {
            "orientation": {
                "w": -0.4816463035849501,
                "x": 0.5182115481033762,
                "y": 0.4908360881923453,
                "z": -0.5084816262002911
            },
            "position": {
                "x": -0.8240239810943604,
                "y": -0.300875300988555,
                "z": 0.16403168439865112
            }
        },
        "name": "move_to_storage_C"
    },
    "id": "RRTstar_move_to_storage_C_65",
    "joint_names": [
        "shoulder_pan_joint",
        "shoulder_lift_joint",
        "elbow_joint",
        "wrist_1_joint",
        "wrist_2_joint",
        "wrist_3_joint"
    ],
    "metrics": {
        "cart_traj_len": 0.5773255137964555,
        "distance_elbow_joint": 0.25652399923509717,
        "distance_shoulder_lift_joint": 0.19049071981721233,
        "distance_shoulder_pan_joint": 0.4954765661212086,
        "distance_wrist_1_joint": 0.06825153656160077,
        "distance_wrist_2_joint": 1.0649474943837567,
        "distance_wrist_3_joint": 0.05896099048312298,
        "smoothness": 5.075305295617109e-16,
        "time": 5.1271978879999995,
        "traj_len": 1.4610445943235266,
        "weighted_distance": 1.840046825087232
    },
    "planner": "RRTstar",
    "start": {
        "state": {
            "elbow_joint": 2.010868314990456,
            "shoulder_lift_joint": -1.1634956873337592,
            "shoulder_pan_joint": -2.4736205022346125,
            "wrist_1_joint": -0.8367026794202681,
            "wrist_2_joint": 0.6746043897044499,
            "wrist_3_joint": -3.1496632123970403
        }
    },
    "waypoints": [
        {
            "positions": [
                -2.4736205022346125,
                -1.1634956873337592,
                2.010868314990456,
                -0.8367026794202681,
                0.6746043897044499,
                -3.1496632123970403
            ]
        },
        {
            "positions": [
                -2.5561999299214806,
                -1.1317472340308905,
                1.9681143151179397,
                -0.825327423326668,
                0.8520956387684093,
                -3.1398363806498533
            ]
        },
        {
            "positions": [
                -2.6387793576083487,
                -1.0999987807280218,
                1.9253603152454235,
                -0.8139521672330678,
                1.0295868878323688,
                -3.130009548902666
            ]
        },
        {
            "positions": [
                -2.721358785295217,
                -1.0682503274251531,
                1.8826063153729073,
                -0.8025769111394677,
                1.2070781368963281,
                -3.120182717155479
            ]
        },
        {
            "positions": [
                -2.803938212982085,
                -1.0365018741222842,
                1.839852315500391,
                -0.7912016550458676,
                1.3845693859602877,
                -3.1103558854082918
            ]
        },
        {
            "positions": [
                -2.886517640668953,
                -1.0047534208194155,
                1.7970983156278748,
                -0.7798263989522675,
                1.5620606350242472,
                -3.1005290536611043
            ]
        },
        {
            "positions": [
                -2.969097068355821,
                -0.9730049675165469,
                1.7543443157553587,
                -0.7684511428586673,
                1.7395518840882067,
                -3.0907022219139173
            ]
        }
    ]
}