{
    "goal": {
        "global_pose": {
            "orientation": {
                "w": 0.5084816262002911,
                "x": -0.4908360881923452,
                "y": 0.5182115481033761,
                "z": -0.48164630358495003
            },
            "position": {
                "x": 0.5540239810943604,
                "y": -0.46912469901144505,
                "z": 0.16403168439865112
            }
        },
        "name": "move_to_storage_B"
    },
    "id": "RRTstar_move_to_storage_B_57",
    "joint_names": [
        "shoulder_pan_joint",
        "shoulder_lift_joint",
        "elbow_joint",
        "wrist_1_joint",
        "wrist_2_joint",
        "wrist_3_joint"
    ],
    "metrics": {
        "cart_traj_len": 0.958029914392909,
        "distance_elbow_joint": 0.5091685640469272,
        "distance_shoulder_lift_joint": 0.4588769116921545,
        "distance_shoulder_pan_joint": 0.6380960998101003,
        "distance_wrist_1_joint": 2.9834536111541827,
        "distance_wrist_2_joint": 2.7107013242056466,
        "distance_wrist_3_joint": 3.1826641209107946,
        "smoothness": 0.0890184020456053,
        "time": 5.021499739,
        "traj_len": 3.2377400500688447,
        "weighted_distance": 4.747888352625957
    },
    "planner": "RRTstar",
    "start": {
        "state": {
            "elbow_joint": 1.664937868594044,
            "shoulder_lift_joint": -0.661644460510453,
            "shoulder_pan_joint": -0.9139846352900073,
            "wrist_1_joint": 2.146753192139373,
            "wrist_2_joint": -2.2341966793290973,
            "wrist_3_joint": 0.005466555786416001
        }
    },
    "waypoints": [
        {
            "positions": [
                -0.9139846352900073,
                -0.661644460510453,
                1.664937868594044,
                2.146753192139373,
                -2.2341966793290973,
                0.005466555786416001
            ]
        },
        {
            "positions": [
                -0.8911462695693078,
                -0.6868153600399645,
                1.707876409059824,
                1.9703108491934558,
                -2.114111457567485,
                0.003122378170395305
            ]
        },
        {
            "positions": [
                -0.8683079038486083,
                -0.711986259569476,
                1.750814949525604,
                1.7938685062475384,
                -1.994026235805873,
                0.0007782005543746093
            ]
        },
        {
            "positions": [
                -0.8454695381279089,
                -0.7371571590989875,
                1.793753489991384,
                1.6174261633016211,
                -1.8739410140442607,
                -0.0015659770616460863
            ]
        },
        {
            "positions": [
                -0.8226311724072094,
                -0.7623280586284991,
                1.8366920304571641,
                1.4409838203557035,
                -1.7538557922826485,
                -0.003910154677666782
            ]
        },
        {
            "positions": [
                -0.7997928066865099,
                -0.7874989581580105,
                1.8796305709229442,
                1.2645414774097863,
                -1.6337705705210364,
                -0.006254332293687478
            ]
        },
        {
            "positions": [
                -0.7769544409658105,
                -0.812669857687522,
                1.9225691113887242,
                1.0880991344638689,
                -1.5136853487594242,
                -0.008598509909708174
            ]
        },
        {
            "positions": [
                -0.754116075245111,
                -0.8378407572170335,
                1.9655076518545043,
                0.9116567915179516,
                -1.393600126997812,
                -0.01094268752572887
            ]
        },
        {
            "positions": [
                -0.7312777095244115,
                -0.863011656746545,
                2.0084461923202843,
                0.735214448572034,
                -1.2735149052361998,
                -0.013286865141749565
            ]
        },
        {
            "positions": [
                -0.708439343803712,
                -0.8881825562760566,
                2.0513847327860644,
                0.5587721056261168,
                -1.1534296834745876,
                -0.01563104275777026
            ]
        },
        {
            "positions": [
                -0.6856009780830126,
                -0.913353455805568,
                2.0943232732518444,
                0.38232976268019947,
                -1.0333444617129754,
                -0.017975220373790957
            ]
        },
        {
            "positions": [
                -0.7097017100008423,
                -0.9255398038289233,
                2.089630146228955,
                0.3106221049334343,
                -0.9445298083841799,
                0.1678613881409495
            ]
        },
        {
            "positions": [
                -0.733802441918672,
                -0.9377261518522786,
                2.084937019206065,
                0.23891444718666907,
                -0.8557151550553843,
                0.35369799665568996
            ]
        },
        {
            "positions": [
                -0.7579031738365019,
                -0.9499124998756339,
                2.080243892183175,
                0.16720678943990386,
                -0.7669005017265889,
                0.5395346051704305
            ]
        },
        {
            "positions": [
                -0.7820039057543315,
                -0.9620988478989891,
                2.075550765160285,
                0.09549913169313867,
                -0.6780858483977933,
                0.7253712136851709
            ]
        },
        {
            "positions": [
                -0.8061046376721612,
                -0.9742851959223443,
                2.0708576381373955,
                0.02379147394637343,
                -0.5892711950689977,
                0.9112078221999114
            ]
        },
        {
            "positions": [
                -0.830205369589991,
                -0.9864715439456996,
                2.0661645111145055,
                -0.047916183800391754,
                -0.5004565417402022,
                1.0970444307146519
            ]
        },
        {
            "positions": [
                -0.8543061015078207,
                -0.9986578919690549,
                2.061471384091616,
                -0.11962384154715688,
                -0.4116418884114067,
                1.2828810392293923
            ]
        },
        {
            "positions": [
                -0.8784068334256505,
                -1.01084423999241,
                2.056778257068726,
                -0.19133149929392212,
                -0.32282723508261113,
                1.4687176477441328
            ]
        },
        {
            "positions": [
                -0.9025075653434802,
                -1.0230305880157653,
                2.0520851300458363,
                -0.26303915704068737,
                -0.23401258175381567,
                1.6545542562588733
            ]
        },
        {
            "positions": [
                -0.92660829726131,
                -1.0352169360391206,
                2.047392003022946,
                -0.3347468147874526,
                -0.1451979284250201,
                1.8403908647736138
            ]
        },
        {
            "positions": [
                -0.9507090291791398,
                -1.0474032840624758,
                2.0426988760000566,
                -0.40645447253421774,
                -0.05638327509622454,
                2.0262274732883543
            ]
        },
        {
            "positions": [
                -0.9748097610969695,
                -1.0595896320858311,
                2.0380057489771666,
                -0.478162130280983,
                0.03243137823257114,
                2.2120640818030948
            ]
        },
        {
            "positions": [
                -0.9989104930147992,
                -1.0717759801091864,
                2.033312621954277,
                -0.5498697880277481,
                0.12124603156136637,
                2.397900690317835
            ]
        },
        {
            "positions": [
                -1.0230112249326289,
                -1.0839623281325417,
                2.028619494931387,
                -0.6215774457745132,
                0.21006068489016205,
                2.5837372988325753
            ]
        },
        {
            "positions": [
                -1.0471119568504585,
                -1.096148676155897,
                2.0239263679084973,
                -0.6932851035212785,
                0.2988753382189575,
                2.769573907347316
            ]
        },
        {
            "positions": [
                -1.0712126887682885,
                -1.1083350241792522,
                2.0192332408856073,
                -0.7649927612680437,
                0.3876899915477532,
                2.9554105158620563
            ]
        },
        {
            "positions": [
                -1.0953134206861181,
                -1.1205213722026075,
                2.0145401138627177,
                -0.8367004190148088,
                0.47650464487654864,
                3.1412471243767968
            ]
        }
    ]
}