{
    "goal": {
        "global_pose": {
            "orientation": {
                "w": 0.005598929693374612,
                "x": 0.007748599140229565,
                "y": 0.7110244013736278,
                "z": -0.7031023480610252
            },
            "position": {
                "x": -0.8858502320852131,
                "y": -0.7141253447532654,
                "z": 0.3711530566215515
            }
        },
        "name": "move_to_auspresseinheit_C"
    },
    "id": "RRTstar_move_to_auspresseinheit_C_43",
    "joint_names": [
        "shoulder_pan_joint",
        "shoulder_lift_joint",
        "elbow_joint",
        "wrist_1_joint",
        "wrist_2_joint",
        "wrist_3_joint"
    ],
    "metrics": {
        "cart_traj_len": 0.492323385072424,
        "distance_elbow_joint": 0.9900475462549381,
        "distance_shoulder_lift_joint": 0.31946988164444634,
        "distance_shoulder_pan_joint": 0.25657006837437724,
        "distance_wrist_1_joint": 0.666753281808466,
        "distance_wrist_2_joint": 1.301959967694018,
        "distance_wrist_3_joint": 0.04278090936315149,
        "smoothness": 4.844609600361787e-16,
        "time": 5.001664447,
        "traj_len": 1.8914496173938646,
        "weighted_distance": 2.3731533290894173
    },
    "planner": "RRTstar",
    "start": {
        "state": {
            "elbow_joint": 1.7527959577737207,
            "shoulder_lift_joint": -0.9740617694225068,
            "shoulder_pan_joint": -2.967991417825858,
            "wrist_1_joint": -0.759517768980727,
            "wrist_2_joint": 1.7443932448377408,
            "wrist_3_joint": -3.0840537646736568
        }
    },
    "waypoints": [
        {
            "positions": [
                -2.967991417825858,
                -0.9740617694225068,
                1.7527959577737207,
                -0.759517768980727,
                1.7443932448377408,
                -3.0840537646736568
            ]
        },
        {
            "positions": [
                -2.9423344109884204,
                -0.9421147812580621,
                1.653791203148227,
                -0.6928424407998803,
                1.614197248068339,
                -3.088331855609972
            ]
        },
        {
            "positions": [
                -2.9166774041509824,
                -0.9101677930936175,
                1.554786448522733,
                -0.6261671126190338,
                1.4840012512989373,
                -3.092609946546287
            ]
        },
        {
            "positions": [
                -2.891020397313545,
                -0.8782208049291729,
                1.4557816938972392,
                -0.5594917844381871,
                1.3538052545295356,
                -3.096888037482602
            ]
        },
        {
            "positions": [
                -2.865363390476107,
                -0.8462738167647282,
                1.3567769392717455,
                -0.49281645625734055,
                1.2236092577601336,
                -3.1011661284189174
            ]
        },
        {
            "positions": [
                -2.8397063836386693,
                -0.8143268286002836,
                1.2577721846462517,
                -0.42614112807649396,
                1.0934132609907319,
                -3.1054442193552325
            ]
        },
        {
            "positions": [
                -2.814049376801232,
                -0.782379840435839,
                1.1587674300207578,
                -0.35946579989564736,
                0.9632172642213301,
                -3.1097223102915477
            ]
        },
        {
            "positions": [
                -2.788392369963794,
                -0.7504328522713943,
                1.059762675395264,
                -0.29279047171480077,
                0.8330212674519284,
                -3.114000401227863
            ]
        },
        {
            "positions": [
                -2.7627353631263563,
                -0.7184858641069497,
                0.9607579207697702,
                -0.22611514353395412,
                0.7028252706825264,
                -3.118278492164178
            ]
        },
        {
            "positions": [
                -2.7370783562889183,
                -0.6865388759425051,
                0.8617531661442763,
                -0.15943981535310747,
                0.5726292739131247,
                -3.122556583100493
            ]
        },
        {
            "positions": [
                -2.7114213494514807,
                -0.6545918877780604,
                0.7627484115187826,
                -0.09276448717226093,
                0.4424332771437229,
                -3.1268346740368083
            ]
        }
    ]
}