{
    "goal": {
        "global_pose": {
            "orientation": {
                "w": 0.7031023502349854,
                "x": -0.7110244035720825,
                "y": 0.007748599164187908,
                "z": 0.005598929710686207
            },
            "position": {
                "x": 0.11585023208521307,
                "y": 0.44412534475326537,
                "z": 0.3711530566215515
            }
        },
        "name": "move_to_auspresseinheit_A"
    },
    "id": "RRTstar_move_to_auspresseinheit_A_67",
    "joint_names": [
        "shoulder_pan_joint",
        "shoulder_lift_joint",
        "elbow_joint",
        "wrist_1_joint",
        "wrist_2_joint",
        "wrist_3_joint"
    ],
    "metrics": {
        "cart_traj_len": 0.666643917076506,
        "distance_elbow_joint": 0.3894922509090568,
        "distance_shoulder_lift_joint": 0.536465164289541,
        "distance_shoulder_pan_joint": 1.0458049456022214,
        "distance_wrist_1_joint": 0.5599123200186344,
        "distance_wrist_2_joint": 0.5188066415778021,
        "distance_wrist_3_joint": 6.2484962807625894,
        "smoothness": 0.03767280785263785,
        "time": 5.013013913,
        "traj_len": 3.049422503222511,
        "weighted_distance": 4.782749118057675
    },
    "planner": "RRTstar",
    "start": {
        "state": {
            "elbow_joint": 2.4225746658250005,
            "shoulder_lift_joint": -1.3736534386056498,
            "shoulder_pan_joint": -0.3378633547517467,
            "wrist_1_joint": -1.0288598680537169,
            "wrist_2_joint": 1.233022673432363,
            "wrist_3_joint": -3.0940220416140027
        }
    },
    "waypoints": [
        {
            "positions": [
                -0.3378633547517467,
                -1.3736534386056498,
                2.4225746658250005,
                -1.0288598680537169,
                1.233022673432363,
                -3.0940220416140027
            ]
        },
        {
            "positions": [
                -0.33067569240879996,
                -1.4037228044385919,
                2.4338366667811595,
                -1.0119573984427426,
                1.2273339664484233,
                -2.7880142371639782
            ]
        },
        {
            "positions": [
                -0.3234880300658532,
                -1.433792170271534,
                2.4450986677373185,
                -0.9950549288317682,
                1.2216452594644838,
                -2.482006432713954
            ]
        },
        {
            "positions": [
                -0.3163003677229065,
                -1.4638615361044758,
                2.4563606686934776,
                -0.9781524592207937,
                1.215956552480544,
                -2.1759986282639296
            ]
        },
        {
            "positions": [
                -0.3091127053799597,
                -1.4939309019374178,
                2.4676226696496366,
                -0.9612499896098194,
                1.2102678454966043,
                -1.8699908238139054
            ]
        },
        {
            "positions": [
                -0.30192504303701295,
                -1.52400026777036,
                2.4788846706057956,
                -0.944347519998845,
                1.2045791385126647,
                -1.563983019363881
            ]
        },
        {
            "positions": [
                -0.2947373806940662,
                -1.554069633603302,
                2.4901466715619547,
                -0.9274450503878707,
                1.198890431528725,
                -1.2579752149138566
            ]
        },
        {
            "positions": [
                -0.2875497183511194,
                -1.584138999436244,
                2.5014086725181137,
                -0.9105425807768963,
                1.1932017245447852,
                -0.9519674104638325
            ]
        },
        {
            "positions": [
                -0.28036205600817266,
                -1.614208365269186,
                2.5126706734742728,
                -0.893640111165922,
                1.1875130175608457,
                -0.645959606013808
            ]
        },
        {
            "positions": [
                -0.27317439366522595,
                -1.644277731102128,
                2.523932674430432,
                -0.8767376415549476,
                1.181824310576906,
                -0.33995180156378346
            ]
        },
        {
            "positions": [
                -0.2659867313222792,
                -1.67434709693507,
                2.535194675386591,
                -0.8598351719439732,
                1.1761356035929662,
                -0.033943997113759394
            ]
        },
        {
            "positions": [
                -0.2587990689793324,
                -1.704416462768012,
                2.54645667634275,
                -0.8429327023329989,
                1.1704468966090265,
                0.2720638073362651
            ]
        },
        {
            "positions": [
                -0.25161140663638565,
                -1.7344858286009541,
                2.557718677298909,
                -0.8260302327220245,
                1.164758189625087,
                0.5780716117862896
            ]
        },
        {
            "positions": [
                -0.2444237442934389,
                -1.7645551944338962,
                2.568980678255068,
                -0.8091277631110502,
                1.1590694826411472,
                0.8840794162363137
            ]
        },
        {
            "positions": [
                -0.23723608195049214,
                -1.794624560266838,
                2.580242679211227,
                -0.7922252935000758,
                1.1533807756572074,
                1.1900872206863378
            ]
        },
        {
            "positions": [
                -0.2300484196075454,
                -1.82469392609978,
                2.591504680167386,
                -0.7753228238891015,
                1.147692068673268,
                1.4960950251363627
            ]
        },
        {
            "positions": [
                -0.22286075726459864,
                -1.8547632919327222,
                2.602766681123545,
                -0.758420354278127,
                1.1420033616893281,
                1.8021028295863868
            ]
        },
        {
            "positions": [
                -0.11943827414070163,
                -1.8609138820396631,
                2.5795110993890438,
                -0.726256709140011,
                1.0944714361521317,
                1.9523663195377423
            ]
        },
        {
            "positions": [
                -0.016015791016804615,
                -1.867064472146604,
                2.5562555176545425,
                -0.6940930640018949,
                1.0469395106149355,
                2.102629809489098
            ]
        },
        {
            "positions": [
                0.0874066921070924,
                -1.873215062253545,
                2.532999935920041,
                -0.6619294188637788,
                0.9994075850777391,
                2.252893299440453
            ]
        },
        {
            "positions": [
                0.1908291752309894,
                -1.879365652360486,
                2.5097443541855395,
                -0.6297657737256628,
                0.9518756595405428,
                2.403156789391809
            ]
        },
        {
            "positions": [
                0.29425165835488654,
                -1.885516242467427,
                2.4864887724510383,
                -0.5976021285875467,
                0.9043437340033463,
                2.553420279343164
            ]
        },
        {
            "positions": [
                0.39767414147878344,
                -1.891666832574368,
                2.463233190716537,
                -0.5654384834494306,
                0.85681180846615,
                2.7036837692945195
            ]
        },
        {
            "positions": [
                0.5010966246026806,
                -1.897817422681309,
                2.4399776089820353,
                -0.5332748383113145,
                0.8092798829289536,
                2.8539472592458752
            ]
        },
        {
            "positions": [
                0.6045191077265775,
                -1.90396801278825,
                2.416722027247534,
                -0.5011111931731984,
                0.7617479573917574,
                3.004210749197231
            ]
        },
        {
            "positions": [
                0.7079415908504746,
                -1.9101186028951909,
                2.393466445513033,
                -0.4689475480350824,
                0.714216031854561,
                3.1544742391485863
            ]
        }
    ]
}