{
    "goal": {
        "global_pose": {
            "orientation": {
                "w": 0.7047431468963623,
                "x": -0.7094548344612122,
                "y": 0.0024358443915843964,
                "z": -0.0022348060738295317
            },
            "position": {
                "x": 0.6094750761985779,
                "y": 0.3671506643295288,
                "z": 0.19426114857196808
            }
        },
        "name": "move_to_magneteinheit_A"
    },
    "id": "RRTstar_move_to_magneteinheit_A_40",
    "joint_names": [
        "shoulder_pan_joint",
        "shoulder_lift_joint",
        "elbow_joint",
        "wrist_1_joint",
        "wrist_2_joint",
        "wrist_3_joint"
    ],
    "metrics": {
        "cart_traj_len": 3.289095975226889,
        "distance_elbow_joint": 3.8745285234678737,
        "distance_shoulder_lift_joint": 0.12755829712125943,
        "distance_shoulder_pan_joint": 2.9781844658285896,
        "distance_wrist_1_joint": 1.0221638445341648,
        "distance_wrist_2_joint": 1.70211905025987,
        "distance_wrist_3_joint": 2.5829495820745936,
        "smoothness": 0.04985070888081813,
        "time": 5.026308744,
        "traj_len": 3.505353586057525,
        "weighted_distance": 4.491957905215672
    },
    "planner": "RRTstar",
    "start": {
        "state": {
            "elbow_joint": -1.9196185241190666,
            "shoulder_lift_joint": -1.2443396400964142,
            "shoulder_pan_joint": 2.6996025414629847,
            "wrist_1_joint": -1.5485510000780065,
            "wrist_2_joint": -1.5709468930060704,
            "wrist_3_joint": 0.4420197071253992
        }
    },
    "waypoints": [
        {
            "positions": [
                2.6996025414629847,
                -1.2443396400964142,
                -1.9196185241190666,
                -1.5485510000780065,
                -1.5709468930060704,
                0.4420197071253992
            ]
        },
        {
            "positions": [
                2.545314010618833,
                -1.239040875269278,
                -1.8187242331087807,
                -1.5020306183384673,
                -1.5370129577192857,
                0.48167558958163825
            ]
        },
        {
            "positions": [
                2.391025479774681,
                -1.233742110442142,
                -1.7178299420984946,
                -1.455510236598928,
                -1.5030790224325012,
                0.5213314720378773
            ]
        },
        {
            "positions": [
                2.2367369489305284,
                -1.2284433456150061,
                -1.6169356510882085,
                -1.4089898548593887,
                -1.4691450871457166,
                0.5609873544941164
            ]
        },
        {
            "positions": [
                2.0824484180863765,
                -1.22314458078787,
                -1.5160413600779226,
                -1.3624694731198495,
                -1.435211151858932,
                0.6006432369503555
            ]
        },
        {
            "positions": [
                1.9281598872422245,
                -1.217845815960734,
                -1.4151470690676367,
                -1.3159490913803102,
                -1.4012772165721474,
                0.6402991194065946
            ]
        },
        {
            "positions": [
                1.7738713563980726,
                -1.2125470511335978,
                -1.3142527780573505,
                -1.269428709640771,
                -1.367343281285363,
                0.6799550018628335
            ]
        },
        {
            "positions": [
                1.6195828255539204,
                -1.207248286306462,
                -1.2133584870470644,
                -1.2229083279012318,
                -1.3334093459985783,
                0.7196108843190727
            ]
        },
        {
            "positions": [
                1.4652942947097685,
                -1.2019495214793259,
                -1.1124641960367785,
                -1.1763879461616924,
                -1.2994754107117936,
                0.7592667667753117
            ]
        },
        {
            "positions": [
                1.3110057638656163,
                -1.1966507566521898,
                -1.0115699050264926,
                -1.1298675644221532,
                -1.2655414754250092,
                0.7989226492315509
            ]
        },
        {
            "positions": [
                1.1567172330214641,
                -1.1913519918250537,
                -0.9106756140162064,
                -1.083347182682614,
                -1.2316075401382247,
                0.8385785316877898
            ]
        },
        {
            "positions": [
                1.002428702177312,
                -1.1860532269979176,
                -0.8097813230059203,
                -1.0368268009430746,
                -1.19767360485144,
                0.878234414144029
            ]
        },
        {
            "positions": [
                0.8481401713331602,
                -1.1807544621707817,
                -0.7088870319956344,
                -0.9903064192035355,
                -1.1637396695646554,
                0.917890296600268
            ]
        },
        {
            "positions": [
                0.693851640489008,
                -1.1754556973436456,
                -0.6079927409853485,
                -0.9437860374639961,
                -1.129805734277871,
                0.9575461790565071
            ]
        },
        {
            "positions": [
                0.5395631096448561,
                -1.1701569325165095,
                -0.5070984499750624,
                -0.8972656557244569,
                -1.0958717989910862,
                0.9972020615127462
            ]
        },
        {
            "positions": [
                0.3852745788007037,
                -1.1648581676893734,
                -0.40620415896477624,
                -0.8507452739849176,
                -1.0619378637043018,
                1.0368579439689851
            ]
        },
        {
            "positions": [
                0.2309860479565522,
                -1.1595594028622376,
                -0.30530986795449033,
                -0.8042248922453784,
                -1.028003928417517,
                1.0765138264252243
            ]
        },
        {
            "positions": [
                0.0766975171123998,
                -1.1542606380351015,
                -0.20441557694420442,
                -0.7577045105058392,
                -0.9940699931307325,
                1.1161697088814635
            ]
        },
        {
            "positions": [
                -0.07759101373175215,
                -1.1489618732079654,
                -0.1035212859339183,
                -0.7111841287662999,
                -0.960136057843948,
                1.1558255913377025
            ]
        },
        {
            "positions": [
                -0.06722481233128311,
                -1.1495305022374513,
                0.050769209665878945,
                -0.7033422552428252,
                -0.8903553656983578,
                1.2767704879516357
            ]
        },
        {
            "positions": [
                -0.05685861093081407,
                -1.1500991312669373,
                0.20505970526567618,
                -0.6955003817193507,
                -0.8205746735527677,
                1.397715384565569
            ]
        },
        {
            "positions": [
                -0.04649240953034502,
                -1.150667760296423,
                0.3593502008654735,
                -0.6876585081958762,
                -0.7507939814071776,
                1.518660281179502
            ]
        },
        {
            "positions": [
                -0.036126208129875985,
                -1.151236389325909,
                0.5136406964652707,
                -0.6798166346724015,
                -0.6810132892615876,
                1.6396051777934353
            ]
        },
        {
            "positions": [
                -0.02576000672940694,
                -1.151805018355395,
                0.667931192065068,
                -0.6719747611489268,
                -0.6112325971159973,
                1.7605500744073685
            ]
        },
        {
            "positions": [
                -0.015393805328937901,
                -1.1523736473848807,
                0.8222216876648653,
                -0.6641328876254523,
                -0.5414519049704073,
                1.8814949710213018
            ]
        },
        {
            "positions": [
                -0.005027603928468863,
                -1.1529422764143666,
                0.9765121832646626,
                -0.6562910141019777,
                -0.47167121282481717,
                2.002439867635235
            ]
        },
        {
            "positions": [
                0.0053385974720001755,
                -1.1535109054438526,
                1.1308026788644596,
                -0.6484491405785031,
                -0.40189052067922715,
                2.123384764249168
            ]
        },
        {
            "positions": [
                0.015704798872469228,
                -1.1540795344733386,
                1.285093174464257,
                -0.6406072670550285,
                -0.332109828533637,
                2.2443296608631016
            ]
        },
        {
            "positions": [
                0.026071000272938266,
                -1.1546481635028245,
                1.4393836700640543,
                -0.6327653935315539,
                -0.2623291363880468,
                2.3652745574770346
            ]
        },
        {
            "positions": [
                0.036437201673407305,
                -1.1552167925323102,
                1.5936741656638516,
                -0.6249235200080794,
                -0.19254844424245676,
                2.4862194540909677
            ]
        },
        {
            "positions": [
                0.04680340307387634,
                -1.1557854215617962,
                1.7479646612636488,
                -0.6170816464846047,
                -0.12276775209686663,
                2.607164350704901
            ]
        },
        {
            "positions": [
                0.07233556768328435,
                -1.147333094268803,
                1.8169464406253684,
                -0.647313143464859,
                -0.03812111564664465,
                2.7464326635365985
            ]
        },
        {
            "positions": [
                0.09786773229269236,
                -1.1388807669758096,
                1.885928219987088,
                -0.6775446404451134,
                0.04652552080357733,
                2.8857009763682955
            ]
        },
        {
            "positions": [
                0.12339989690210036,
                -1.1304284396828164,
                1.9549099993488075,
                -0.7077761374253677,
                0.13117215725379933,
                3.024969289199993
            ]
        }
    ]
}