{
    "goal": {
        "global_pose": {
            "orientation": {
                "w": 0.7047431468963623,
                "x": -0.7094548344612122,
                "y": 0.0024358443915843964,
                "z": -0.0022348060738295317
            },
            "position": {
                "x": 0.6094750761985779,
                "y": 0.3671506643295288,
                "z": 0.19426114857196808
            }
        },
        "name": "move_to_magneteinheit_A"
    },
    "id": "RRTstar_move_to_magneteinheit_A_75",
    "joint_names": [
        "shoulder_pan_joint",
        "shoulder_lift_joint",
        "elbow_joint",
        "wrist_1_joint",
        "wrist_2_joint",
        "wrist_3_joint"
    ],
    "metrics": {
        "cart_traj_len": 3.5494319953962417,
        "distance_elbow_joint": 3.870717101020434,
        "distance_shoulder_lift_joint": 0.5477863718011491,
        "distance_shoulder_pan_joint": 3.0049986922513656,
        "distance_wrist_1_joint": 0.897414959789413,
        "distance_wrist_2_joint": 1.693375727784063,
        "distance_wrist_3_joint": 3.7109584517368828,
        "smoothness": 0.04942972932337474,
        "time": 5.023436372,
        "traj_len": 3.7047606271368343,
        "weighted_distance": 4.872161624518479
    },
    "planner": "RRTstar",
    "start": {
        "state": {
            "elbow_joint": -1.9196185241190666,
            "shoulder_lift_joint": -1.2443396400964142,
            "shoulder_pan_joint": 2.6996025414629847,
            "wrist_1_joint": -1.5485510000780065,
            "wrist_2_joint": -1.5709468930060704,
            "wrist_3_joint": 0.4420197071253992
        }
    },
    "waypoints": [
        {
            "positions": [
                2.6996025414629847,
                -1.2443396400964142,
                -1.9196185241190666,
                -1.5485510000780065,
                -1.5709468930060704,
                0.4420197071253992
            ]
        },
        {
            "positions": [
                2.5713740179261197,
                -1.2285370865611565,
                -1.859076710280011,
                -1.5093717553881218,
                -1.5145169922018231,
                0.3471404483324243
            ]
        },
        {
            "positions": [
                2.4431454943892548,
                -1.2127345330258987,
                -1.7985348964409553,
                -1.4701925106982374,
                -1.4580870913975756,
                0.25226118953944937
            ]
        },
        {
            "positions": [
                2.31491697085239,
                -1.196931979490641,
                -1.7379930826018997,
                -1.4310132660083528,
                -1.4016571905933284,
                0.15738193074647444
            ]
        },
        {
            "positions": [
                2.1866884473155244,
                -1.1811294259553833,
                -1.677451268762844,
                -1.3918340213184681,
                -1.3452272897890811,
                0.06250267195349957
            ]
        },
        {
            "positions": [
                2.0584599237786594,
                -1.1653268724201256,
                -1.6169094549237886,
                -1.3526547766285837,
                -1.2887973889848339,
                -0.03237658683947536
            ]
        },
        {
            "positions": [
                1.9302314002417944,
                -1.1495243188848678,
                -1.556367641084733,
                -1.313475531938699,
                -1.2323674881805864,
                -0.1272558456324503
            ]
        },
        {
            "positions": [
                1.8020028767049294,
                -1.1337217653496103,
                -1.4958258272456773,
                -1.2742962872488146,
                -1.1759375873763391,
                -0.22213510442542517
            ]
        },
        {
            "positions": [
                1.6737743531680644,
                -1.1179192118143526,
                -1.4352840134066216,
                -1.23511704255893,
                -1.1195076865720917,
                -0.31701436321840004
            ]
        },
        {
            "positions": [
                1.5455458296311995,
                -1.1021166582790949,
                -1.374742199567566,
                -1.1959377978690453,
                -1.0630777857678444,
                -0.411893622011375
            ]
        },
        {
            "positions": [
                1.4173173060943343,
                -1.0863141047438372,
                -1.3142003857285103,
                -1.1567585531791607,
                -1.0066478849635971,
                -0.5067728808043499
            ]
        },
        {
            "positions": [
                1.2890887825574693,
                -1.0705115512085794,
                -1.2536585718894546,
                -1.117579308489276,
                -0.9502179841593497,
                -0.601652139597325
            ]
        },
        {
            "positions": [
                1.1608602590206043,
                -1.0547089976733217,
                -1.1931167580503992,
                -1.0784000637993916,
                -0.8937880833551024,
                -0.6965313983902998
            ]
        },
        {
            "positions": [
                1.032631735483739,
                -1.038906444138064,
                -1.1325749442113433,
                -1.0392208191095071,
                -0.837358182550855,
                -0.7914106571832747
            ]
        },
        {
            "positions": [
                0.9044032119468741,
                -1.0231038906028063,
                -1.0720331303722879,
                -1.0000415744196225,
                -0.7809282817466078,
                -0.8862899159762495
            ]
        },
        {
            "positions": [
                0.7761746884100091,
                -1.0073013370675485,
                -1.011491316533232,
                -0.9608623297297378,
                -0.7244983809423604,
                -0.9811691747692245
            ]
        },
        {
            "positions": [
                0.6479461648731442,
                -0.9914987835322908,
                -0.9509495026941766,
                -0.9216830850398533,
                -0.6680684801381132,
                -1.0760484335621991
            ]
        },
        {
            "positions": [
                0.5197176413362792,
                -0.9756962299970331,
                -0.8904076888551209,
                -0.8825038403499686,
                -0.6116385793338658,
                -1.1709276923551744
            ]
        },
        {
            "positions": [
                0.3914891177994142,
                -0.9598936764617754,
                -0.8298658750160652,
                -0.8433245956600841,
                -0.5552086785296184,
                -1.2658069511481491
            ]
        },
        {
            "positions": [
                0.2632605942625488,
                -0.9440911229265176,
                -0.7693240611770096,
                -0.8041453509701996,
                -0.49877877772537116,
                -1.3606862099411243
            ]
        },
        {
            "positions": [
                0.1350320707256838,
                -0.92828856939126,
                -0.7087822473379539,
                -0.764966106280315,
                -0.4423488769211239,
                -1.455565468734099
            ]
        },
        {
            "positions": [
                0.006803547188818954,
                -0.9124860158560023,
                -0.6482404334988983,
                -0.7257868615904304,
                -0.3859189761168764,
                -1.5504447275270739
            ]
        },
        {
            "positions": [
                -0.0013370867440448374,
                -0.9203644656263987,
                -0.4643941810978202,
                -0.7213642825395781,
                -0.3553911417475577,
                -1.6869198341103377
            ]
        },
        {
            "positions": [
                -0.009477720676908628,
                -0.9282429153967953,
                -0.28054792869674217,
                -0.7169417034887258,
                -0.32486330737823904,
                -1.8233949406936016
            ]
        },
        {
            "positions": [
                -0.017618354609772423,
                -0.9361213651671917,
                -0.09670167629566406,
                -0.7125191244378735,
                -0.2943354730089203,
                -1.9598700472768655
            ]
        },
        {
            "positions": [
                -0.02575898854263621,
                -0.9439998149375881,
                0.08714457610541393,
                -0.708096545387021,
                -0.26380763863960166,
                -2.0963451538601294
            ]
        },
        {
            "positions": [
                -0.03389962247550001,
                -0.9518782647079845,
                0.27099082850649214,
                -0.7036739663361687,
                -0.23327980427028294,
                -2.2328202604433933
            ]
        },
        {
            "positions": [
                -0.0420402564083638,
                -0.959756714478381,
                0.45483708090757013,
                -0.6992513872853164,
                -0.20275196990096425,
                -2.369295367026657
            ]
        },
        {
            "positions": [
                -0.050180890341227594,
                -0.9676351642487775,
                0.6386833333086483,
                -0.6948288082344641,
                -0.17222413553164553,
                -2.505770473609921
            ]
        },
        {
            "positions": [
                -0.058321524274091374,
                -0.9755136140191739,
                0.8225295857097261,
                -0.6904062291836118,
                -0.14169630116232687,
                -2.6422455801931846
            ]
        },
        {
            "positions": [
                -0.06646215820695517,
                -0.9833920637895703,
                1.0063758381108043,
                -0.6859836501327594,
                -0.11116846679300818,
                -2.7787206867764485
            ]
        },
        {
            "positions": [
                -0.07460279213981898,
                -0.9912705135599669,
                1.1902220905118825,
                -0.6815610710819071,
                -0.08064063242368946,
                -2.915195793359713
            ]
        },
        {
            "positions": [
                -0.08274342607268276,
                -0.9991489633303633,
                1.3740683429129603,
                -0.6771384920310548,
                -0.0501127980543708,
                -3.0516708999429762
            ]
        },
        {
            "positions": [
                -0.09088406000554655,
                -1.0070274131007597,
                1.5579145953140383,
                -0.6727159129802025,
                -0.01958496368505208,
                -3.18814600652624
            ]
        },
        {
            "positions": [
                -0.019380029744601485,
                -1.0474911965394196,
                1.6889759225098147,
                -0.6799092038774055,
                0.0277529691359628,
                -3.215076919221321
            ]
        },
        {
            "positions": [
                0.05212400051634358,
                -1.0879549799780797,
                1.820037249705591,
                -0.6871024947746085,
                0.07509090195697768,
                -3.2420078319164025
            ]
        },
        {
            "positions": [
                0.12362803077728869,
                -1.1284187634167395,
                1.9510985769013676,
                -0.6942957856718115,
                0.12242883477799257,
                -3.2689387446114835
            ]
        }
    ]
}