{
    "goal": {
        "global_pose": {
            "orientation": {
                "w": -0.00223480608172531,
                "x": 0.0024358444001904467,
                "y": 0.7094548369677653,
                "z": -0.704743149386269
            },
            "position": {
                "x": 0.6205249238014221,
                "y": -0.6371506643295288,
                "z": 0.19426114857196808
            }
        },
        "name": "move_to_magneteinheit_B"
    },
    "id": "RRTstar_move_to_magneteinheit_B_139",
    "joint_names": [
        "shoulder_pan_joint",
        "shoulder_lift_joint",
        "elbow_joint",
        "wrist_1_joint",
        "wrist_2_joint",
        "wrist_3_joint"
    ],
    "metrics": {
        "cart_traj_len": 3.902637497855488,
        "distance_elbow_joint": 5.210586836425626,
        "distance_shoulder_lift_joint": 1.6353696868843923,
        "distance_shoulder_pan_joint": 2.3521516156817746,
        "distance_wrist_1_joint": 4.394544889206374,
        "distance_wrist_2_joint": 1.5488718486301902,
        "distance_wrist_3_joint": 3.123525707467464,
        "smoothness": 0.5529783758879047,
        "time": 5.086809168,
        "traj_len": 4.273763047279975,
        "weighted_distance": 5.518651894898547
    },
    "planner": "RRTstar",
    "start": {
        "state": {
            "elbow_joint": 2.6216224122426386,
            "shoulder_lift_joint": -1.4174107377796124,
            "shoulder_pan_joint": 0.7066234856936794,
            "wrist_1_joint": 1.9546482284002225,
            "wrist_2_joint": -0.7096286983471962,
            "wrist_3_joint": 0.005740856962016249
        }
    },
    "waypoints": [
        {
            "positions": [
                0.7066234856936794,
                -1.4174107377796124,
                2.6216224122426386,
                1.9546482284002225,
                -0.7096286983471962,
                0.005740856962016249
            ]
        },
        {
            "positions": [
                0.8879270686179248,
                -1.4582139089119113,
                2.6098896165611736,
                1.8673380401320552,
                -0.668023299839605,
                0.0196270433532234
            ]
        },
        {
            "positions": [
                1.0692306515421701,
                -1.4990170800442102,
                2.598156820879709,
                1.780027851863888,
                -0.6264179013320138,
                0.03351322974443055
            ]
        },
        {
            "positions": [
                1.1231682576372095,
                -1.512167243905536,
                2.4796553728774335,
                1.6506739137459472,
                -0.6181090293269412,
                0.10046705525079086
            ]
        },
        {
            "positions": [
                1.177105863732249,
                -1.5253174077668616,
                2.361153924875158,
                1.5213199756280065,
                -0.6098001573218687,
                0.16742088075715117
            ]
        },
        {
            "positions": [
                1.2310434698272883,
                -1.5384675716281875,
                2.242652476872882,
                1.3919660375100655,
                -0.6014912853167961,
                0.23437470626351148
            ]
        },
        {
            "positions": [
                1.2849810759223277,
                -1.551617735489513,
                2.1241510288706067,
                1.2626120993921248,
                -0.5931824133117235,
                0.3013285317698718
            ]
        },
        {
            "positions": [
                1.338918682017367,
                -1.564767899350839,
                2.0056495808683312,
                1.133258161274184,
                -0.5848735413066509,
                0.3682823572762321
            ]
        },
        {
            "positions": [
                1.3928562881124065,
                -1.5779180632121645,
                1.8871481328660558,
                1.0039042231562432,
                -0.5765646693015783,
                0.4352361827825924
            ]
        },
        {
            "positions": [
                1.4467938942074459,
                -1.5910682270734904,
                1.7686466848637803,
                0.8745502850383025,
                -0.5682557972965058,
                0.5021900082889528
            ]
        },
        {
            "positions": [
                1.5007315003024853,
                -1.604218390934816,
                1.6501452368615046,
                0.7451963469203617,
                -0.5599469252914332,
                0.569143833795313
            ]
        },
        {
            "positions": [
                1.5546691063975246,
                -1.6173685547961418,
                1.5316437888592291,
                0.615842408802421,
                -0.5516380532863606,
                0.6360976593016734
            ]
        },
        {
            "positions": [
                1.608606712492564,
                -1.6305187186574677,
                1.4131423408569534,
                0.4864884706844803,
                -0.543329181281288,
                0.7030514848080336
            ]
        },
        {
            "positions": [
                1.6625443185876034,
                -1.6436688825187933,
                1.294640892854678,
                0.3571345325665394,
                -0.5350203092762155,
                0.770005310314394
            ]
        },
        {
            "positions": [
                1.716481924682643,
                -1.6568190463801191,
                1.1761394448524025,
                0.22778059444859866,
                -0.5267114372711429,
                0.8369591358207542
            ]
        },
        {
            "positions": [
                1.7704195307776824,
                -1.6699692102414447,
                1.0576379968501268,
                0.09842665633065795,
                -0.5184025652660703,
                0.9039129613271146
            ]
        },
        {
            "positions": [
                1.8243571368727218,
                -1.6831193741027706,
                0.9391365488478514,
                -0.03092728178728299,
                -0.5100936932609977,
                0.9708667868334748
            ]
        },
        {
            "positions": [
                1.8782947429677612,
                -1.6962695379640964,
                0.8206351008455757,
                -0.1602812199052237,
                -0.5017848212559252,
                1.037820612339835
            ]
        },
        {
            "positions": [
                1.9322323490628006,
                -1.709419701825422,
                0.7021336528433002,
                -0.2896351580231644,
                -0.4934759492508526,
                1.1047744378461954
            ]
        },
        {
            "positions": [
                1.98616995515784,
                -1.7225698656867476,
                0.5836322048410247,
                -0.41898909614110513,
                -0.48516707724578,
                1.1717282633525559
            ]
        },
        {
            "positions": [
                2.0401075612528796,
                -1.7357200295480735,
                0.46513075683874927,
                -0.5483430342590458,
                -0.47685820524070743,
                1.238682088858916
            ]
        },
        {
            "positions": [
                2.094045167347919,
                -1.7488701934093993,
                0.34662930883647336,
                -0.6776969723769866,
                -0.46854933323563486,
                1.3056359143652763
            ]
        },
        {
            "positions": [
                2.1479827734429584,
                -1.762020357270725,
                0.2281278608341979,
                -0.8070509104949273,
                -0.4602404612305623,
                1.3725897398716367
            ]
        },
        {
            "positions": [
                2.201920379537998,
                -1.7751705211320508,
                0.10962641283192243,
                -0.9364048486128684,
                -0.4519315892254897,
                1.439543565377997
            ]
        },
        {
            "positions": [
                2.255857985633037,
                -1.7883206849933764,
                -0.00887503517035304,
                -1.0657587867308091,
                -0.44362271722041713,
                1.5064973908843573
            ]
        },
        {
            "positions": [
                2.3097955917280766,
                -1.8014708488547022,
                -0.1273764831726285,
                -1.1951127248487499,
                -0.43531384521534455,
                1.5734512163907175
            ]
        },
        {
            "positions": [
                2.363733197823116,
                -1.814621012716028,
                -0.24587793117490397,
                -1.3244666629666906,
                -0.42700497321027203,
                1.640405041897078
            ]
        },
        {
            "positions": [
                2.4176708039181554,
                -1.8277711765773537,
                -0.3643793791771799,
                -1.4538206010846313,
                -0.41869610120519946,
                1.7073588674034383
            ]
        },
        {
            "positions": [
                2.4716084100131948,
                -1.8409213404386793,
                -0.48288082717945535,
                -1.583174539202572,
                -0.4103872292001269,
                1.7743126929097985
            ]
        },
        {
            "positions": [
                2.525546016108234,
                -1.8540715043000051,
                -0.6013822751817308,
                -1.7125284773205127,
                -0.4020783571950543,
                1.8412665184161587
            ]
        },
        {
            "positions": [
                2.5794836222032735,
                -1.867221668161331,
                -0.7198837231840063,
                -1.8418824154384539,
                -0.3937694851899817,
                1.9082203439225192
            ]
        },
        {
            "positions": [
                2.633421228298313,
                -1.8803718320226566,
                -0.8383851711862818,
                -1.9712363535563946,
                -0.38546061318490915,
                1.9751741694288796
            ]
        },
        {
            "positions": [
                2.6873588343933523,
                -1.8935219958839824,
                -0.9568866191885577,
                -2.1005902916743353,
                -0.3771517411798366,
                2.0421279949352398
            ]
        },
        {
            "positions": [
                2.7412964404883917,
                -1.906672159745308,
                -1.0753880671908331,
                -2.229944229792276,
                -0.368842869174764,
                2.1090818204416
            ]
        },
        {
            "positions": [
                2.795234046583431,
                -1.9198223236066339,
                -1.1938895151931086,
                -2.3592981679102163,
                -0.3605339971696914,
                2.1760356459479606
            ]
        },
        {
            "positions": [
                2.770437790309865,
                -1.865653676803413,
                -1.3097732294113267,
                -2.368637317942751,
                -0.4421651446605954,
                2.2794546838371175
            ]
        },
        {
            "positions": [
                2.7456415340362983,
                -1.8114850300001926,
                -1.4256569436295445,
                -2.3779764679752855,
                -0.5237962921514994,
                2.3828737217262743
            ]
        },
        {
            "positions": [
                2.7208452777627317,
                -1.7573163831969718,
                -1.5415406578477624,
                -2.3873156180078197,
                -0.6054274396424034,
                2.486292759615431
            ]
        },
        {
            "positions": [
                2.6960490214891655,
                -1.7031477363937513,
                -1.6574243720659805,
                -2.3966547680403543,
                -0.6870585871333075,
                2.589711797504588
            ]
        },
        {
            "positions": [
                2.6712527652155993,
                -1.6489790895905305,
                -1.7733080862841986,
                -2.405993918072889,
                -0.7686897346242114,
                2.6931308353937453
            ]
        },
        {
            "positions": [
                2.6464565089420327,
                -1.5948104427873098,
                -1.8891918005024164,
                -2.415333068105423,
                -0.8503208821151154,
                2.796549873282902
            ]
        },
        {
            "positions": [
                2.621660252668466,
                -1.5406417959840892,
                -2.0050755147206343,
                -2.4246722181379576,
                -0.9319520296060195,
                2.899968911172059
            ]
        },
        {
            "positions": [
                2.5968639963949,
                -1.4864731491808685,
                -2.1209592289388524,
                -2.4340113681704922,
                -1.0135831770969235,
                3.003387949061216
            ]
        },
        {
            "positions": [
                2.6098981973155984,
                -1.6263949345071895,
                -2.0273581898900255,
                -2.435188426697624,
                -0.9042375835918328,
                3.0285636721348688
            ]
        },
        {
            "positions": [
                2.6229323982362964,
                -1.7663167198335108,
                -1.9337571508411988,
                -2.436365485224756,
                -0.7948919900867422,
                3.0537393952085217
            ]
        },
        {
            "positions": [
                2.635966599156995,
                -1.9062385051598318,
                -1.840156111792372,
                -2.4375425437518876,
                -0.6855463965816515,
                3.0789151182821746
            ]
        },
        {
            "positions": [
                2.649000800077693,
                -2.046160290486153,
                -1.7465550727435453,
                -2.4387196022790194,
                -0.5762008030765607,
                3.1040908413558275
            ]
        },
        {
            "positions": [
                2.6620350009983915,
                -2.186082075812474,
                -1.6529540336947184,
                -2.439896660806151,
                -0.4668552095714701,
                3.1292665644294804
            ]
        }
    ]
}