{
    "goal": {
        "global_pose": {
            "orientation": {
                "w": 0.7031023480610252,
                "x": -0.7110244013736278,
                "y": 0.0077485991402295624,
                "z": 0.005598929693374583
            },
            "position": {
                "x": -0.8841497679147869,
                "y": 0.44412534475326537,
                "z": 0.3711530566215515
            }
        },
        "name": "move_to_auspresseinheit_D"
    },
    "id": "RRTstar_move_to_auspresseinheit_D_111",
    "joint_names": [
        "shoulder_pan_joint",
        "shoulder_lift_joint",
        "elbow_joint",
        "wrist_1_joint",
        "wrist_2_joint",
        "wrist_3_joint"
    ],
    "metrics": {
        "cart_traj_len": 0.34362925245314074,
        "distance_elbow_joint": 0.634388881697618,
        "distance_shoulder_lift_joint": 0.1185422552200932,
        "distance_shoulder_pan_joint": 0.134471583451145,
        "distance_wrist_1_joint": 0.5180968666768959,
        "distance_wrist_2_joint": 1.4356383072659693,
        "distance_wrist_3_joint": 0.013265909845957324,
        "smoothness": 0.0,
        "time": 5.0006984050000005,
        "traj_len": 1.6894980923805978,
        "weighted_distance": 2.1987884840958345
    },
    "planner": "RRTstar",
    "start": {
        "state": {
            "elbow_joint": -1.8275523626775212,
            "shoulder_lift_joint": -2.126789852344167,
            "shoulder_pan_joint": -0.03513704404078235,
            "wrist_1_joint": -2.347782403156801,
            "wrist_2_joint": -1.6058999987535132,
            "wrist_3_joint": -3.0880379163319196
        }
    },
    "waypoints": [
        {
            "positions": [
                -0.03513704404078235,
                -2.126789852344167,
                -1.8275523626775212,
                -2.347782403156801,
                -1.6058999987535132,
                -3.0880379163319196
            ]
        },
        {
            "positions": [
                -0.051945991972175476,
                -2.1416076342466783,
                -1.748253752465319,
                -2.412544511491413,
                -1.426445210345267,
                -3.089696155062664
            ]
        },
        {
            "positions": [
                -0.0687549399035686,
                -2.1564254161491903,
                -1.6689551422531168,
                -2.4773066198260247,
                -1.246990421937021,
                -3.091354393793409
            ]
        },
        {
            "positions": [
                -0.08556388783496172,
                -2.1712431980517017,
                -1.5896565320409144,
                -2.5420687281606367,
                -1.0675356335287747,
                -3.093012632524154
            ]
        },
        {
            "positions": [
                -0.10237283576635484,
                -2.1860609799542132,
                -1.5103579218287122,
                -2.6068308364952486,
                -0.8880808451205285,
                -3.0946708712548983
            ]
        },
        {
            "positions": [
                -0.11918178369774796,
                -2.200878761856725,
                -1.43105931161651,
                -2.671592944829861,
                -0.7086260567122824,
                -3.0963291099856427
            ]
        },
        {
            "positions": [
                -0.1359907316291411,
                -2.2156965437592366,
                -1.3517607014043076,
                -2.736355053164473,
                -0.5291712683040362,
                -3.0979873487163876
            ]
        },
        {
            "positions": [
                -0.15279967956053422,
                -2.2305143256617486,
                -1.2724620911921054,
                -2.801117161499085,
                -0.34971647989579013,
                -3.0996455874471325
            ]
        },
        {
            "positions": [
                -0.16960862749192734,
                -2.24533210756426,
                -1.1931634809799032,
                -2.865879269833697,
                -0.17026169148754394,
                -3.101303826177877
            ]
        }
    ]
}