{
    "goal": {
        "global_pose": {
            "orientation": {
                "w": 0.005598929693374612,
                "x": 0.007748599140229565,
                "y": 0.7110244013736278,
                "z": -0.7031023480610252
            },
            "position": {
                "x": -0.8858502320852131,
                "y": -0.7141253447532654,
                "z": 0.3711530566215515
            }
        },
        "name": "move_to_auspresseinheit_C"
    },
    "id": "RRTstar_move_to_auspresseinheit_C_142",
    "joint_names": [
        "shoulder_pan_joint",
        "shoulder_lift_joint",
        "elbow_joint",
        "wrist_1_joint",
        "wrist_2_joint",
        "wrist_3_joint"
    ],
    "metrics": {
        "cart_traj_len": 0.49197830194222875,
        "distance_elbow_joint": 0.9885601969846824,
        "distance_shoulder_lift_joint": 0.3190871345282633,
        "distance_shoulder_pan_joint": 0.25577720266577053,
        "distance_wrist_1_joint": 0.6571905950282848,
        "distance_wrist_2_joint": 1.3056528371475853,
        "distance_wrist_3_joint": 0.05305886257936354,
        "smoothness": 1.6148698667872622e-16,
        "time": 5.012074933,
        "traj_len": 1.8919108934973523,
        "weighted_distance": 2.3766127127213106
    },
    "planner": "RRTstar",
    "start": {
        "state": {
            "elbow_joint": 1.7527959577737207,
            "shoulder_lift_joint": -0.9740617694225068,
            "shoulder_pan_joint": -2.967991417825858,
            "wrist_1_joint": -0.759517768980727,
            "wrist_2_joint": 1.7443932448377408,
            "wrist_3_joint": -3.0840537646736568
        }
    },
    "waypoints": [
        {
            "positions": [
                -2.967991417825858,
                -0.9740617694225068,
                1.7527959577737207,
                -0.759517768980727,
                1.7443932448377408,
                -3.0840537646736568
            ]
        },
        {
            "positions": [
                -2.9424136975592807,
                -0.9421530559696805,
                1.6539399380752524,
                -0.6937987094778985,
                1.6138279611229822,
                -3.089359650931593
            ]
        },
        {
            "positions": [
                -2.916835977292704,
                -0.9102443425168542,
                1.5550839183767842,
                -0.62807964997507,
                1.4832626774082238,
                -3.0946655371895293
            ]
        },
        {
            "positions": [
                -2.8912582570261267,
                -0.8783356290640277,
                1.456227898678316,
                -0.5623605904722415,
                1.3526973936934652,
                -3.099971423447466
            ]
        },
        {
            "positions": [
                -2.86568053675955,
                -0.8464269156112014,
                1.3573718789798477,
                -0.49664153096941305,
                1.2221321099787068,
                -3.1052773097054023
            ]
        },
        {
            "positions": [
                -2.8401028164929727,
                -0.8145182021583751,
                1.2585158592813794,
                -0.4309224714665846,
                1.0915668262639482,
                -3.1105831959633385
            ]
        },
        {
            "positions": [
                -2.8145250962263955,
                -0.7826094887055488,
                1.1596598395829112,
                -0.3652034119637561,
                0.9610015425491897,
                -3.115889082221275
            ]
        },
        {
            "positions": [
                -2.7889473759598187,
                -0.7507007752527225,
                1.060803819884443,
                -0.29948435246092764,
                0.8304362588344312,
                -3.121194968479211
            ]
        },
        {
            "positions": [
                -2.7633696556932414,
                -0.7187920617998962,
                0.9619478001859747,
                -0.2337652929580991,
                0.6998709751196726,
                -3.126500854737148
            ]
        },
        {
            "positions": [
                -2.7377919354266647,
                -0.6868833483470698,
                0.8630917804875065,
                -0.1680462334552706,
                0.5693056914049139,
                -3.131806740995084
            ]
        },
        {
            "positions": [
                -2.7122142151600874,
                -0.6549746348942435,
                0.7642357607890382,
                -0.10232717395244219,
                0.4387404076901555,
                -3.1371126272530203
            ]
        }
    ]
}