{
    "goal": {
        "global_pose": {
            "orientation": {
                "w": 0.7047431468963623,
                "x": -0.7094548344612122,
                "y": 0.0024358443915843964,
                "z": -0.0022348060738295317
            },
            "position": {
                "x": 0.6094750761985779,
                "y": 0.3671506643295288,
                "z": 0.19426114857196808
            }
        },
        "name": "move_to_magneteinheit_A"
    },
    "id": "RRTstar_move_to_magneteinheit_A_132",
    "joint_names": [
        "shoulder_pan_joint",
        "shoulder_lift_joint",
        "elbow_joint",
        "wrist_1_joint",
        "wrist_2_joint",
        "wrist_3_joint"
    ],
    "metrics": {
        "cart_traj_len": 3.122083492401125,
        "distance_elbow_joint": 3.9100331779085313,
        "distance_shoulder_lift_joint": 0.5360093050657087,
        "distance_shoulder_pan_joint": 2.6981626483977297,
        "distance_wrist_1_joint": 3.4574298097878993,
        "distance_wrist_2_joint": 1.4338700844083212,
        "distance_wrist_3_joint": 0.8152335741182607,
        "smoothness": 0.3234412133329667,
        "time": 5.036327818999999,
        "traj_len": 3.584792685733228,
        "weighted_distance": 4.401420866279342
    },
    "planner": "RRTstar",
    "start": {
        "state": {
            "elbow_joint": -1.9196185241190666,
            "shoulder_lift_joint": -1.2443396400964142,
            "shoulder_pan_joint": 2.6996025414629847,
            "wrist_1_joint": -1.5485510000780065,
            "wrist_2_joint": -1.5709468930060704,
            "wrist_3_joint": 0.4420197071253992
        }
    },
    "waypoints": [
        {
            "positions": [
                2.6996025414629847,
                -1.2443396400964142,
                -1.9196185241190666,
                -1.5485510000780065,
                -1.5709468930060704,
                0.4420197071253992
            ]
        },
        {
            "positions": [
                2.606872884880994,
                -1.2361907838494672,
                -1.806033147370712,
                -1.43404212455033,
                -1.5350197102881982,
                0.4201904884303637
            ]
        },
        {
            "positions": [
                2.514143228299003,
                -1.2280419276025203,
                -1.6924477706223573,
                -1.3195332490226537,
                -1.4990925275703257,
                0.39836126973532826
            ]
        },
        {
            "positions": [
                2.421413571717012,
                -1.2198930713555733,
                -1.5788623938740027,
                -1.2050243734949773,
                -1.4631653448524535,
                0.3765320510402928
            ]
        },
        {
            "positions": [
                2.3286839151350214,
                -1.2117442151086266,
                -1.465277017125648,
                -1.090515497967301,
                -1.427238162134581,
                0.35470283234525735
            ]
        },
        {
            "positions": [
                2.2359542585530305,
                -1.2035953588616797,
                -1.3516916403772934,
                -0.9760066224396245,
                -1.391310979416709,
                0.33287361365022183
            ]
        },
        {
            "positions": [
                2.1432246019710397,
                -1.1954465026147327,
                -1.2381062636289388,
                -0.8614977469119481,
                -1.3553837966988365,
                0.31104439495518643
            ]
        },
        {
            "positions": [
                2.050494945389049,
                -1.1872976463677858,
                -1.124520886880584,
                -0.7469888713842717,
                -1.3194566139809643,
                0.2892151762601509
            ]
        },
        {
            "positions": [
                1.957765288807058,
                -1.1791487901208388,
                -1.0109355101322295,
                -0.6324799958565954,
                -1.2835294312630918,
                0.2673859575651155
            ]
        },
        {
            "positions": [
                1.8650356322250672,
                -1.170999933873892,
                -0.8973501333838749,
                -0.517971120328919,
                -1.2476022485452196,
                0.24555673887008
            ]
        },
        {
            "positions": [
                1.7723059756430763,
                -1.1628510776269452,
                -0.7837647566355201,
                -0.4034622448012426,
                -1.2116750658273472,
                0.22372752017504455
            ]
        },
        {
            "positions": [
                1.6795763190610853,
                -1.1547022213799982,
                -0.6701793798871656,
                -0.2889533692735662,
                -1.175747883109475,
                0.2018983014800091
            ]
        },
        {
            "positions": [
                1.5868466624790944,
                -1.1465533651330513,
                -0.5565940031388108,
                -0.17444449374588977,
                -1.1398207003916028,
                0.18006908278497363
            ]
        },
        {
            "positions": [
                1.4941170058971036,
                -1.1384045088861043,
                -0.44300862639045624,
                -0.05993561821821336,
                -1.1038935176737303,
                0.15823986408993818
            ]
        },
        {
            "positions": [
                1.4013873493151128,
                -1.1302556526391574,
                -0.3294232496421017,
                0.05457325730946305,
                -1.067966334955858,
                0.13641064539490272
            ]
        },
        {
            "positions": [
                1.308657692733122,
                -1.1221067963922104,
                -0.2158378728937469,
                0.16908213283713946,
                -1.0320391522379857,
                0.1145814266998672
            ]
        },
        {
            "positions": [
                1.215928036151131,
                -1.1139579401452635,
                -0.10225249614539234,
                0.28359100836481566,
                -0.9961119695201134,
                0.0927522080048318
            ]
        },
        {
            "positions": [
                1.1231983795691403,
                -1.1058090838983166,
                0.011332880602962447,
                0.3980998838924923,
                -0.9601847868022411,
                0.07092298930979629
            ]
        },
        {
            "positions": [
                1.0304687229871494,
                -1.0976602276513698,
                0.12491825735131679,
                0.5126087594201685,
                -0.9242576040843689,
                0.049093770614760834
            ]
        },
        {
            "positions": [
                0.9377390664051584,
                -1.089511371404423,
                0.23850363409967157,
                0.6271176349478449,
                -0.8883304213664964,
                0.027264551919725377
            ]
        },
        {
            "positions": [
                0.8450094098231677,
                -1.081362515157476,
                0.35208901084802635,
                0.7416265104755213,
                -0.8524032386486242,
                0.00543533322468992
            ]
        },
        {
            "positions": [
                0.7522797532411767,
                -1.073213658910529,
                0.46567438759638113,
                0.8561353860031977,
                -0.8164760559307518,
                -0.016393885470345537
            ]
        },
        {
            "positions": [
                0.6595500966591858,
                -1.065064802663582,
                0.5792597643447355,
                0.9706442615308741,
                -0.7805488732128796,
                -0.038223104165380994
            ]
        },
        {
            "positions": [
                0.566820440077195,
                -1.056915946416635,
                0.6928451410930903,
                1.0851531370585505,
                -0.7446216904950073,
                -0.06005232286041651
            ]
        },
        {
            "positions": [
                0.47409078349520417,
                -1.0487670901696884,
                0.806430517841445,
                1.199662012586227,
                -0.7086945077771349,
                -0.08188154155545191
            ]
        },
        {
            "positions": [
                0.38136112691321333,
                -1.0406182339227414,
                0.9200158945897998,
                1.3141708881139034,
                -0.6727673250592626,
                -0.10371076025048742
            ]
        },
        {
            "positions": [
                0.2886314703312225,
                -1.0324693776757945,
                1.0336012713381542,
                1.4286797636415798,
                -0.6368401423413903,
                -0.12553997894552282
            ]
        },
        {
            "positions": [
                0.19590181374923174,
                -1.0243205214288476,
                1.147186648086509,
                1.5431886391692564,
                -0.600912959623518,
                -0.1473691976405584
            ]
        },
        {
            "positions": [
                0.1737380732603127,
                -0.9772929602730371,
                1.2757233362950364,
                1.602928056677032,
                -0.5358688906606255,
                -0.11549833828796449
            ]
        },
        {
            "positions": [
                0.1515743327713937,
                -0.9302653991172266,
                1.404260024503564,
                1.6626674741848078,
                -0.4708248216977331,
                -0.0836274789353706
            ]
        },
        {
            "positions": [
                0.12941059228247467,
                -0.8832378379614162,
                1.5327967127120914,
                1.7224068916925834,
                -0.4057807527348406,
                -0.051756619582776706
            ]
        },
        {
            "positions": [
                0.10724685179355566,
                -0.8362102768056058,
                1.6613334009206189,
                1.782146309200359,
                -0.34073668377194816,
                -0.01988576023018282
            ]
        },
        {
            "positions": [
                0.08508311130463662,
                -0.7891827156497953,
                1.7898700891291464,
                1.8418857267081348,
                -0.27569261480905566,
                0.01198509912241108
            ]
        },
        {
            "positions": [
                0.06291937081571762,
                -0.7421551544939848,
                1.9184067773376738,
                1.9016251442159104,
                -0.21064854584616322,
                0.04385595847500498
            ]
        },
        {
            "positions": [
                0.1243988485661802,
                -0.7759799739572641,
                1.9904146537894647,
                1.908878809709894,
                -0.137076808597749,
                0.00923644523826538
            ]
        }
    ]
}