{
    "goal": {
        "global_pose": {
            "orientation": {
                "w": -0.4816463035849501,
                "x": 0.5182115481033762,
                "y": 0.4908360881923453,
                "z": -0.5084816262002911
            },
            "position": {
                "x": -0.8240239810943604,
                "y": -0.300875300988555,
                "z": 0.16403168439865112
            }
        },
        "name": "move_to_storage_C"
    },
    "id": "RRTstar_move_to_storage_C_81",
    "joint_names": [
        "shoulder_pan_joint",
        "shoulder_lift_joint",
        "elbow_joint",
        "wrist_1_joint",
        "wrist_2_joint",
        "wrist_3_joint"
    ],
    "metrics": {
        "cart_traj_len": 0.5771715930869445,
        "distance_elbow_joint": 0.2552661366527622,
        "distance_shoulder_lift_joint": 0.1905810123971673,
        "distance_shoulder_pan_joint": 0.4944333535603027,
        "distance_wrist_1_joint": 0.06342408345288564,
        "distance_wrist_2_joint": 1.072963426105105,
        "distance_wrist_3_joint": 0.05583363763710425,
        "smoothness": 0.0,
        "time": 5.000078404,
        "traj_len": 1.4603087515334994,
        "weighted_distance": 1.8386289551286652
    },
    "planner": "RRTstar",
    "start": {
        "state": {
            "elbow_joint": 2.010868314990456,
            "shoulder_lift_joint": -1.1634956873337592,
            "shoulder_pan_joint": -2.4736205022346125,
            "wrist_1_joint": -0.8367026794202681,
            "wrist_2_joint": 0.6746043897044499,
            "wrist_3_joint": -3.1496632123970403
        }
    },
    "waypoints": [
        {
            "positions": [
                -2.4736205022346125,
                -1.1634956873337592,
                2.010868314990456,
                -0.8367026794202681,
                0.6746043897044499,
                -3.1496632123970403
            ]
        },
        {
            "positions": [
                -2.5560260611613295,
                -1.1317321852675646,
                1.9683239588816621,
                -0.8261319988447872,
                0.8534316273886341,
                -3.14035760612419
            ]
        },
        {
            "positions": [
                -2.638431620088047,
                -1.0999686832013702,
                1.9257796027728684,
                -0.8155613182693062,
                1.0322588650728184,
                -3.131051999851339
            ]
        },
        {
            "positions": [
                -2.720837179014764,
                -1.0682051811351756,
                1.8832352466640747,
                -0.8049906376938253,
                1.2110861027570023,
                -3.121746393578488
            ]
        },
        {
            "positions": [
                -2.803242737941481,
                -1.036441679068981,
                1.840690890555281,
                -0.7944199571183443,
                1.3899133404411868,
                -3.1124407873056374
            ]
        },
        {
            "positions": [
                -2.8856482968681982,
                -1.0046781770027864,
                1.7981465344464873,
                -0.7838492765428634,
                1.5687405781253707,
                -3.103135181032787
            ]
        },
        {
            "positions": [
                -2.968053855794915,
                -0.9729146749365919,
                1.7556021783376936,
                -0.7732785959673825,
                1.7475678158095551,
                -3.093829574759936
            ]
        }
    ]
}