{
    "goal": {
        "global_pose": {
            "orientation": {
                "w": 0.7031023480610252,
                "x": -0.7110244013736278,
                "y": 0.0077485991402295624,
                "z": 0.005598929693374583
            },
            "position": {
                "x": -0.8841497679147869,
                "y": 0.44412534475326537,
                "z": 0.3711530566215515
            }
        },
        "name": "move_to_auspresseinheit_D"
    },
    "id": "RRTstar_move_to_auspresseinheit_D_61",
    "joint_names": [
        "shoulder_pan_joint",
        "shoulder_lift_joint",
        "elbow_joint",
        "wrist_1_joint",
        "wrist_2_joint",
        "wrist_3_joint"
    ],
    "metrics": {
        "cart_traj_len": 0.3426694156804084,
        "distance_elbow_joint": 0.6307383088923817,
        "distance_shoulder_lift_joint": 0.11771799167205232,
        "distance_shoulder_pan_joint": 0.13404716845427575,
        "distance_wrist_1_joint": 0.502310844526165,
        "distance_wrist_2_joint": 1.4417473242483037,
        "distance_wrist_3_joint": 0.03517519842725125,
        "smoothness": 1.1842378929335002e-15,
        "time": 5.002134047,
        "traj_len": 1.6916668809846784,
        "weighted_distance": 2.20819958378979
    },
    "planner": "RRTstar",
    "start": {
        "state": {
            "elbow_joint": -1.8275523626775212,
            "shoulder_lift_joint": -2.126789852344167,
            "shoulder_pan_joint": -0.03513704404078235,
            "wrist_1_joint": -2.347782403156801,
            "wrist_2_joint": -1.6058999987535132,
            "wrist_3_joint": -3.0880379163319196
        }
    },
    "waypoints": [
        {
            "positions": [
                -0.03513704404078235,
                -2.126789852344167,
                -1.8275523626775212,
                -2.347782403156801,
                -1.6058999987535132,
                -3.0880379163319196
            ]
        },
        {
            "positions": [
                -0.051892940097566814,
                -2.1415046013031733,
                -1.7487100740659736,
                -2.4105712587225714,
                -1.4256815832224752,
                -3.092434816135326
            ]
        },
        {
            "positions": [
                -0.06864883615435129,
                -2.15621935026218,
                -1.6698677854544257,
                -2.473360114288342,
                -1.2454631676914372,
                -3.096831715938732
            ]
        },
        {
            "positions": [
                -0.08540473221113576,
                -2.1709340992211863,
                -1.591025496842878,
                -2.536148969854113,
                -1.0652447521603994,
                -3.101228615742139
            ]
        },
        {
            "positions": [
                -0.10216062826792022,
                -2.1856488481801932,
                -1.5121832082313302,
                -2.5989378254198834,
                -0.8850263366293614,
                -3.1056255155455452
            ]
        },
        {
            "positions": [
                -0.1189165243247047,
                -2.2003635971391997,
                -1.4333409196197826,
                -2.661726680985654,
                -0.7048079210983234,
                -3.1100224153489515
            ]
        },
        {
            "positions": [
                -0.13567242038148916,
                -2.215078346098206,
                -1.354498631008235,
                -2.724515536551425,
                -0.5245895055672856,
                -3.1144193151523583
            ]
        },
        {
            "positions": [
                -0.15242831643827362,
                -2.2297930950572127,
                -1.2756563423966871,
                -2.7873043921171954,
                -0.34437109003624755,
                -3.1188162149557646
            ]
        },
        {
            "positions": [
                -0.1691842124950581,
                -2.244507844016219,
                -1.1968140537851395,
                -2.850093247682966,
                -0.1641526745052096,
                -3.123213114759171
            ]
        }
    ]
}