{
    "goal": {
        "global_pose": {
            "orientation": {
                "w": 0.5084816217422485,
                "x": -0.49083608388900757,
                "y": 0.5182115435600281,
                "z": -0.4816462993621826
            },
            "position": {
                "x": 0.5540239810943604,
                "y": 0.030875300988554955,
                "z": 0.16403168439865112
            }
        },
        "name": "move_to_storage_A"
    },
    "id": "RRTstar_move_to_storage_A_84",
    "joint_names": [
        "shoulder_pan_joint",
        "shoulder_lift_joint",
        "elbow_joint",
        "wrist_1_joint",
        "wrist_2_joint",
        "wrist_3_joint"
    ],
    "metrics": {
        "cart_traj_len": 0.35291446650676667,
        "distance_elbow_joint": 0.4481538638905216,
        "distance_shoulder_lift_joint": 0.233521640067331,
        "distance_shoulder_pan_joint": 0.4618054434458712,
        "distance_wrist_1_joint": 0.2416416899102095,
        "distance_wrist_2_joint": 1.095985533279916,
        "distance_wrist_3_joint": 0.08727355801467862,
        "smoothness": 0.0,
        "time": 5.0318093379999995,
        "traj_len": 1.6026171497299433,
        "weighted_distance": 2.020038630281117
    },
    "planner": "RRTstar",
    "start": {
        "state": {
            "elbow_joint": 1.971548259319323,
            "shoulder_lift_joint": -1.1394851275133948,
            "shoulder_pan_joint": 0.1228115487234821,
            "wrist_1_joint": -0.7804723859257726,
            "wrist_2_joint": 0.12958671773740124,
            "wrist_3_joint": -3.192489227718131
        }
    },
    "waypoints": [
        {
            "positions": [
                0.1228115487234821,
                -1.1394851275133948,
                1.971548259319323,
                -0.7804723859257726,
                0.12958671773740124,
                -3.192489227718131
            ]
        },
        {
            "positions": [
                0.05683934251692907,
                -1.1728453618087278,
                2.0355702398751117,
                -0.8149926273415168,
                0.2861560796345321,
                -3.180021576573177
            ]
        },
        {
            "positions": [
                -0.00913286368962396,
                -1.2062055961040608,
                2.0995922204309005,
                -0.8495128687572611,
                0.44272544153166293,
                -3.167553925428223
            ]
        },
        {
            "positions": [
                -0.07510506989617699,
                -1.2395658303993937,
                2.1636142009866894,
                -0.8840331101730052,
                0.5992948034287938,
                -3.155086274283269
            ]
        },
        {
            "positions": [
                -0.14107727610273002,
                -1.272926064694727,
                2.2276361815424783,
                -0.9185533515887495,
                0.7558641653259247,
                -3.142618623138315
            ]
        },
        {
            "positions": [
                -0.20704948230928305,
                -1.3062862989900599,
                2.2916581620982672,
                -0.9530735930044937,
                0.9124335272230556,
                -3.130150971993361
            ]
        },
        {
            "positions": [
                -0.2730216885158361,
                -1.3396465332853928,
                2.3556801426540557,
                -0.987593834420238,
                1.0690028891201864,
                -3.1176833208484065
            ]
        },
        {
            "positions": [
                -0.3389938947223891,
                -1.3730067675807258,
                2.4197021232098446,
                -1.0221140758359821,
                1.2255722510173173,
                -3.1052156697034525
            ]
        }
    ]
}{
    "goal": {
        "global_pose": {
            "orientation": {
                "w": 0.5084816217422485,
                "x": -0.49083608388900757,
                "y": 0.5182115435600281,
                "z": -0.4816462993621826
            },
            "position": {
                "x": 0.5540239810943604,
                "y": 0.030875300988554955,
                "z": 0.16403168439865112
            }
        },
        "name": "move_to_storage_A"
    },
    "id": "RRTstar_move_to_storage_A_84",
    "joint_names": [
        "shoulder_pan_joint",
        "shoulder_lift_joint",
        "elbow_joint",
        "wrist_1_joint",
        "wrist_2_joint",
        "wrist_3_joint"
    ],
    "metrics": {
        "cart_traj_len": 0.3534656706101687,
        "distance_elbow_joint": 0.44889994094060404,
        "distance_shoulder_lift_joint": 0.2346942484202632,
        "distance_shoulder_pan_joint": 0.46121290791972136,
        "distance_wrist_1_joint": 0.23552710833333013,
        "distance_wrist_2_joint": 1.1041104447569074,
        "distance_wrist_3_joint": 0.08742114359499542,
        "smoothness": 2.2204460668324854e-16,
        "time": 5.001736832,
        "traj_len": 1.6037037737580535,
        "weighted_distance": 2.021471155927299
    },
    "planner": "RRTstar",
    "start": {
        "state": {
            "elbow_joint": 1.97154746011099,
            "shoulder_lift_joint": -1.13948474672311,
            "shoulder_pan_joint": 0.12281154466712228,
            "wrist_1_joint": -0.7804688027058302,
            "wrist_2_joint": 0.12958655903071145,
            "wrist_3_joint": 3.0906928834467795
        }
    },
    "waypoints": [
        {
            "positions": [
                0.12281154466712228,
                -1.13948474672311,
                1.97154746011099,
                -0.7804688027058302,
                0.12958655903071145,
                3.0906928834467795
            ]
        },
        {
            "positions": [
                0.05692398639287638,
                -1.1730124964974333,
                2.035676023102505,
                -0.8141155324677345,
                0.2873166225674125,
                3.1031816182460648
            ]
        },
        {
            "positions": [
                -0.008963571881369523,
                -1.2065402462717565,
                2.0998045860940198,
                -0.8477622622296388,
                0.4450466861041136,
                3.1156703530453496
            ]
        },
        {
            "positions": [
                -0.07485113015561544,
                -1.2400679960460799,
                2.1639331490855347,
                -0.8814089919915431,
                0.6027767496408146,
                3.128159087844635
            ]
        },
        {
            "positions": [
                -0.14073868842986131,
                -1.2735957458204032,
                2.228061712077049,
                -0.9150557217534474,
                0.7605068131775157,
                3.1406478226439196
            ]
        },
        {
            "positions": [
                -0.20662624670410723,
                -1.3071234955947266,
                2.292190275068564,
                -0.9487024515153517,
                0.9182368767142168,
                3.153136557443205
            ]
        },
        {
            "positions": [
                -0.27251380497835315,
                -1.3406512453690498,
                2.356318838060079,
                -0.982349181277256,
                1.0759669402509178,
                3.1656252922424897
            ]
        },
        {
            "positions": [
                -0.33840136325259906,
                -1.3741789951433732,
                2.420447401051594,
                -1.0159959110391603,
                1.233697003787619,
                3.178114027041775
            ]
        }
    ]
}{
    "goal": {
        "global_pose": {
            "orientation": {
                "w": 0.5084816217422485,
                "x": -0.49083608388900757,
                "y": 0.5182115435600281,
                "z": -0.4816462993621826
            },
            "position": {
                "x": 0.5540239810943604,
                "y": 0.030875300988554955,
                "z": 0.16403168439865112
            }
        },
        "name": "move_to_storage_A"
    },
    "id": "RRTstar_move_to_storage_A_84",
    "joint_names": [
        "shoulder_pan_joint",
        "shoulder_lift_joint",
        "elbow_joint",
        "wrist_1_joint",
        "wrist_2_joint",
        "wrist_3_joint"
    ],
    "metrics": {
        "cart_traj_len": 0.3532594406177076,
        "distance_elbow_joint": 0.4502527451516185,
        "distance_shoulder_lift_joint": 0.2366147281422144,
        "distance_shoulder_pan_joint": 0.4632855363704308,
        "distance_wrist_1_joint": 0.24258288030659125,
        "distance_wrist_2_joint": 1.094250515498025,
        "distance_wrist_3_joint": 0.10077169237619454,
        "smoothness": 0.0,
        "time": 5.000541819,
        "traj_len": 1.6086510180412263,
        "weighted_distance": 2.0312889696943857
    },
    "planner": "RRTstar",
    "start": {
        "state": {
            "elbow_joint": 1.9715472970024885,
            "shoulder_lift_joint": -1.1394870060712896,
            "shoulder_pan_joint": 0.12281152778156021,
            "wrist_1_joint": -0.780463741449964,
            "wrist_2_joint": 0.12958659822042276,
            "wrist_3_joint": 3.090690232415272
        }
    },
    "waypoints": [
        {
            "positions": [
                0.12281152778156021,
                -1.1394870060712896,
                1.9715472970024885,
                -0.780463741449964,
                0.12958659822042276,
                3.090690232415272
            ]
        },
        {
            "positions": [
                0.05662787972864153,
                -1.1732891100916059,
                2.035869117738434,
                -0.8151184386366199,
                0.2859081004344263,
                3.1050861884690137
            ]
        },
        {
            "positions": [
                -0.009555768324277153,
                -1.2070912141119223,
                2.1001909384743795,
                -0.8497731358232757,
                0.4422296026484299,
                3.119482144522756
            ]
        },
        {
            "positions": [
                -0.07573941637719583,
                -1.2408933181322386,
                2.164512759210325,
                -0.8844278330099317,
                0.5985511048624335,
                3.133878100576498
            ]
        },
        {
            "positions": [
                -0.14192306443011451,
                -1.274695422152555,
                2.2288345799462705,
                -0.9190825301965876,
                0.754872607076437,
                3.1482740566302403
            ]
        },
        {
            "positions": [
                -0.20810671248303322,
                -1.3084975261728713,
                2.293156400682216,
                -0.9537372273832434,
                0.9111941092904406,
                3.162670012683982
            ]
        },
        {
            "positions": [
                -0.2742903605359519,
                -1.3422996301931875,
                2.3574782214181615,
                -0.9883919245698993,
                1.0675156115044442,
                3.1770659687377245
            ]
        },
        {
            "positions": [
                -0.34047400858887056,
                -1.376101734213504,
                2.421800042154107,
                -1.0230466217565553,
                1.2238371137184478,
                3.1914619247914664
            ]
        }
    ]
}