{
    "goal": {
        "global_pose": {
            "orientation": {
                "w": 0.5084816262002911,
                "x": -0.4908360881923452,
                "y": 0.5182115481033761,
                "z": -0.48164630358495003
            },
            "position": {
                "x": 0.5540239810943604,
                "y": -0.46912469901144505,
                "z": 0.16403168439865112
            }
        },
        "name": "move_to_storage_B"
    },
    "id": "RRTstar_move_to_storage_B_108",
    "joint_names": [
        "shoulder_pan_joint",
        "shoulder_lift_joint",
        "elbow_joint",
        "wrist_1_joint",
        "wrist_2_joint",
        "wrist_3_joint"
    ],
    "metrics": {
        "cart_traj_len": 0.9629373057028011,
        "distance_elbow_joint": 0.3966891849470007,
        "distance_shoulder_lift_joint": 0.4593441017603588,
        "distance_shoulder_pan_joint": 0.7619886933546317,
        "distance_wrist_1_joint": 2.9823842226673296,
        "distance_wrist_2_joint": 2.6995525416583894,
        "distance_wrist_3_joint": 3.14218350817764,
        "smoothness": 0.087839655947089,
        "time": 5.026835191,
        "traj_len": 3.2314303725386613,
        "weighted_distance": 4.733756017503051
    },
    "planner": "RRTstar",
    "start": {
        "state": {
            "elbow_joint": 1.664937868594044,
            "shoulder_lift_joint": -0.661644460510453,
            "shoulder_pan_joint": -0.9139846352900073,
            "wrist_1_joint": 2.146753192139373,
            "wrist_2_joint": -2.2341966793290973,
            "wrist_3_joint": 0.005466555786416001
        }
    },
    "waypoints": [
        {
            "positions": [
                -0.9139846352900073,
                -0.661644460510453,
                1.664937868594044,
                2.146753192139373,
                -2.2341966793290973,
                0.005466555786416001
            ]
        },
        {
            "positions": [
                -0.8850089944456027,
                -0.6876857026794041,
                1.7022273047501604,
                2.051697150355582,
                -2.1080417244817524,
                -0.057810956925823054
            ]
        },
        {
            "positions": [
                -0.8560333536011979,
                -0.7137269448483552,
                1.7395167409062768,
                1.956641108571791,
                -1.9818867696344071,
                -0.12108846963806211
            ]
        },
        {
            "positions": [
                -0.8270577127567933,
                -0.7397681870173064,
                1.7768061770623933,
                1.861585066788,
                -1.855731814787062,
                -0.18436598235030113
            ]
        },
        {
            "positions": [
                -0.7980820719123887,
                -0.7658094291862575,
                1.8140956132185098,
                1.766529025004209,
                -1.729576859939717,
                -0.24764349506254021
            ]
        },
        {
            "positions": [
                -0.769106431067984,
                -0.7918506713552086,
                1.8513850493746262,
                1.671472983220418,
                -1.6034219050923721,
                -0.3109210077747792
            ]
        },
        {
            "positions": [
                -0.7401307902235793,
                -0.8178919135241597,
                1.8886744855307427,
                1.576416941436627,
                -1.4772669502450269,
                -0.37419852048701824
            ]
        },
        {
            "positions": [
                -0.7111551493791747,
                -0.8439331556931108,
                1.9259639216868591,
                1.4813608996528358,
                -1.351111995397682,
                -0.43747603319925726
            ]
        },
        {
            "positions": [
                -0.6821795085347699,
                -0.869974397862062,
                1.9632533578429756,
                1.3863048578690447,
                -1.224957040550337,
                -0.5007535459114965
            ]
        },
        {
            "positions": [
                -0.6532038676903653,
                -0.8960156400310131,
                2.000542793999092,
                1.2912488160852535,
                -1.0988020857029919,
                -0.5640310586237355
            ]
        },
        {
            "positions": [
                -0.6242282268459607,
                -0.9220568821999642,
                2.0378322301552085,
                1.1961927743014626,
                -0.9726471308556468,
                -0.6273085713359745
            ]
        },
        {
            "positions": [
                -0.6520065965465833,
                -0.9337587457335434,
                2.036432534661924,
                1.0766737269585556,
                -0.8880587194918269,
                -0.7749208290451068
            ]
        },
        {
            "positions": [
                -0.679784966247206,
                -0.9454606092671227,
                2.0350328391686396,
                0.9571546796156485,
                -0.803470308128007,
                -0.9225330867542392
            ]
        },
        {
            "positions": [
                -0.7075633359478286,
                -0.957162472800702,
                2.033633143675355,
                0.8376356322727414,
                -0.718881896764187,
                -1.0701453444633715
            ]
        },
        {
            "positions": [
                -0.7353417056484512,
                -0.9688643363342813,
                2.0322334481820707,
                0.7181165849298343,
                -0.6342934854003672,
                -1.2177576021725036
            ]
        },
        {
            "positions": [
                -0.763120075349074,
                -0.9805661998678605,
                2.0308337526887863,
                0.5985975375869272,
                -0.5497050740365472,
                -1.365369859881636
            ]
        },
        {
            "positions": [
                -0.7908984450496966,
                -0.9922680634014398,
                2.029434057195502,
                0.47907849024402016,
                -0.46511666267272733,
                -1.5129821175907683
            ]
        },
        {
            "positions": [
                -0.8186768147503193,
                -1.003969926935019,
                2.0280343617022174,
                0.3595594429011132,
                -0.38052825130890744,
                -1.6605943752999006
            ]
        },
        {
            "positions": [
                -0.8464551844509419,
                -1.0156717904685983,
                2.026634666208933,
                0.2400403955582061,
                -0.29593983994508755,
                -1.808206633009033
            ]
        },
        {
            "positions": [
                -0.8742335541515646,
                -1.0273736540021776,
                2.025234970715648,
                0.12052134821529892,
                -0.21135142858126754,
                -1.9558188907181653
            ]
        },
        {
            "positions": [
                -0.9020119238521873,
                -1.0390755175357569,
                2.0238352752223636,
                0.001002300872391837,
                -0.12676301721744765,
                -2.1034311484272976
            ]
        },
        {
            "positions": [
                -0.92979029355281,
                -1.0507773810693362,
                2.022435579729079,
                -0.11851674647051524,
                -0.042174605853627756,
                -2.25104340613643
            ]
        },
        {
            "positions": [
                -0.9575686632534326,
                -1.0624792446029154,
                2.0210358842357947,
                -0.23803579381342233,
                0.04241380551019214,
                -2.3986556638455623
            ]
        },
        {
            "positions": [
                -0.9853470329540552,
                -1.0741811081364947,
                2.0196361887425103,
                -0.3575548411563292,
                0.12700221687401192,
                -2.546267921554694
            ]
        },
        {
            "positions": [
                -1.0131254026546779,
                -1.085882971670074,
                2.018236493249226,
                -0.47707388849923626,
                0.21159062823783192,
                -2.693880179263827
            ]
        },
        {
            "positions": [
                -1.0409037723553005,
                -1.0975848352036532,
                2.0168367977559414,
                -0.5965929358421433,
                0.29617903960165193,
                -2.841492436972959
            ]
        },
        {
            "positions": [
                -1.0686821420559232,
                -1.1092866987372325,
                2.015437102262657,
                -0.7161119831850504,
                0.3807674509654717,
                -2.9891046946820916
            ]
        },
        {
            "positions": [
                -1.0964605117565458,
                -1.1209885622708118,
                2.0140374067693725,
                -0.8356310305279574,
                0.4653558623292917,
                -3.136716952391224
            ]
        }
    ]
}