{
    "goal": {
        "global_pose": {
            "orientation": {
                "w": -0.4816463035849501,
                "x": 0.5182115481033762,
                "y": 0.4908360881923453,
                "z": -0.5084816262002911
            },
            "position": {
                "x": -0.8240239810943604,
                "y": 0.19912469901144506,
                "z": 0.16403168439865112
            }
        },
        "name": "move_to_storage_D"
    },
    "id": "RRTstar_move_to_storage_D_11",
    "joint_names": [
        "shoulder_pan_joint",
        "shoulder_lift_joint",
        "elbow_joint",
        "wrist_1_joint",
        "wrist_2_joint",
        "wrist_3_joint"
    ],
    "metrics": {
        "cart_traj_len": 0.5590651269363879,
        "distance_elbow_joint": 0.5543087348461073,
        "distance_shoulder_lift_joint": 0.15255370196612583,
        "distance_shoulder_pan_joint": 0.15098117437813235,
        "distance_wrist_1_joint": 3.8243719830106433,
        "distance_wrist_2_joint": 1.7811797932087914,
        "distance_wrist_3_joint": 3.1309974009856747,
        "smoothness": 9.868649133826832e-16,
        "time": 5.040900193,
        "traj_len": 3.097481684916874,
        "weighted_distance": 4.632703246117353
    },
    "planner": "RRTstar",
    "start": {
        "state": {
            "elbow_joint": -2.384821988534728,
            "shoulder_lift_joint": -2.2788054721415256,
            "shoulder_pan_joint": -0.1854694642142757,
            "wrist_1_joint": 1.4845938289331202,
            "wrist_2_joint": 0.17898776772866878,
            "wrist_3_joint": 0.037105688729662994
        }
    },
    "waypoints": [
        {
            "positions": [
                -0.1854694642142757,
                -2.2788054721415256,
                -2.384821988534728,
                1.4845938289331202,
                0.17898776772866878,
                0.037105688729662994
            ]
        },
        {
            "positions": [
                -0.1828498937927238,
                -2.2785513141462204,
                -2.361424321266488,
                1.4303643422789496,
                0.09644115975821345,
                -0.15595137042585924
            ]
        },
        {
            "positions": [
                -0.18023032337117187,
                -2.278297156150915,
                -2.338026653998248,
                1.3761348556247792,
                0.013894551787758114,
                -0.34900842958138145
            ]
        },
        {
            "positions": [
                -0.17761075294961995,
                -2.27804299815561,
                -2.3146289867300083,
                1.3219053689706088,
                -0.06865205618269724,
                -0.5420654887369036
            ]
        },
        {
            "positions": [
                -0.17499118252806806,
                -2.277788840160305,
                -2.291231319461768,
                1.2676758823164382,
                -0.15119866415315256,
                -0.7351225478924259
            ]
        },
        {
            "positions": [
                -0.17237161210651614,
                -2.2775346821649998,
                -2.267833652193528,
                1.2134463956622676,
                -0.23374527212360788,
                -0.9281796070479482
            ]
        },
        {
            "positions": [
                -0.16975204168496422,
                -2.2772805241696945,
                -2.244435984925288,
                1.1592169090080973,
                -0.3162918800940633,
                -1.1212366662034703
            ]
        },
        {
            "positions": [
                -0.1671324712634123,
                -2.2770263661743892,
                -2.2210383176570483,
                1.1049874223539269,
                -0.3988384880645186,
                -1.3142937253589926
            ]
        },
        {
            "positions": [
                -0.16451290084186038,
                -2.276772208179084,
                -2.1976406503888084,
                1.0507579356997563,
                -0.4813850960349739,
                -1.5073507845145149
            ]
        },
        {
            "positions": [
                -0.15728931134154275,
                -2.2684099616233238,
                -2.1772446839054647,
                0.8623948196010185,
                -0.5436521476708155,
                -1.5954919471668203
            ]
        },
        {
            "positions": [
                -0.15006572184122516,
                -2.2600477150675635,
                -2.156848717422121,
                0.6740317035022808,
                -0.6059191993066572,
                -1.6836331098191257
            ]
        },
        {
            "positions": [
                -0.14284213234090753,
                -2.2516854685118033,
                -2.136452750938777,
                0.48566858740354313,
                -0.6681862509424987,
                -1.771774272471431
            ]
        },
        {
            "positions": [
                -0.13561854284058994,
                -2.243323221956043,
                -2.1160567844554334,
                0.29730547130480534,
                -0.7304533025783403,
                -1.8599154351237364
            ]
        },
        {
            "positions": [
                -0.12839495334027232,
                -2.234960975400283,
                -2.0956608179720897,
                0.10894235520606754,
                -0.792720354214182,
                -1.9480565977760418
            ]
        },
        {
            "positions": [
                -0.12117136383995472,
                -2.2265987288445226,
                -2.075264851488746,
                -0.07942076089267003,
                -0.8549874058500235,
                -2.036197760428347
            ]
        },
        {
            "positions": [
                -0.1139477743396371,
                -2.2182364822887624,
                -2.054868885005402,
                -0.26778387699140804,
                -0.9172544574858652,
                -2.1243389230806526
            ]
        },
        {
            "positions": [
                -0.1067241848393195,
                -2.209874235733002,
                -2.0344729185220585,
                -0.4561469930901456,
                -0.9795215091217067,
                -2.212480085732958
            ]
        },
        {
            "positions": [
                -0.09950059533900188,
                -2.201511989177242,
                -2.0140769520387147,
                -0.6445101091888834,
                -1.0417885607575483,
                -2.300621248385263
            ]
        },
        {
            "positions": [
                -0.09227700583868427,
                -2.1931497426214817,
                -1.9936809855553708,
                -0.8328732252876212,
                -1.10405561239339,
                -2.3887624110375687
            ]
        },
        {
            "positions": [
                -0.08505341633836665,
                -2.1847874960657214,
                -1.973285019072027,
                -1.0212363413863592,
                -1.1663226640292317,
                -2.4769035736898743
            ]
        },
        {
            "positions": [
                -0.07782982683804905,
                -2.176425249509961,
                -1.9528890525886833,
                -1.2095994574850963,
                -1.2285897156650731,
                -2.5650447363421796
            ]
        },
        {
            "positions": [
                -0.07060623733773144,
                -2.168063002954201,
                -1.9324930861053393,
                -1.3979625735838344,
                -1.2908567673009146,
                -2.6531858989944848
            ]
        },
        {
            "positions": [
                -0.06338264783741382,
                -2.1597007563984407,
                -1.9120971196219956,
                -1.5863256896825724,
                -1.3531238189367563,
                -2.74132706164679
            ]
        },
        {
            "positions": [
                -0.05615905833709621,
                -2.1513385098426805,
                -1.8917011531386518,
                -1.77468880578131,
                -1.415390870572598,
                -2.8294682242990956
            ]
        },
        {
            "positions": [
                -0.048935468836778614,
                -2.1429762632869203,
                -1.871305186655308,
                -1.9630519218800475,
                -1.4776579222084396,
                -2.917609386951401
            ]
        },
        {
            "positions": [
                -0.04171187933646099,
                -2.13461401673116,
                -1.8509092201719644,
                -2.151415037978785,
                -1.539924973844281,
                -3.0057505496037065
            ]
        },
        {
            "positions": [
                -0.03448828983614338,
                -2.1262517701754,
                -1.8305132536886206,
                -2.339778154077523,
                -1.6021920254801227,
                -3.0938917122560117
            ]
        }
    ]
}