{
    "goal": {
        "global_pose": {
            "orientation": {
                "w": 0.7047431468963623,
                "x": -0.7094548344612122,
                "y": 0.0024358443915843964,
                "z": -0.0022348060738295317
            },
            "position": {
                "x": 0.6094750761985779,
                "y": 0.3671506643295288,
                "z": 0.19426114857196808
            }
        },
        "name": "move_to_magneteinheit_A"
    },
    "id": "RRTstar_move_to_magneteinheit_A_105",
    "joint_names": [
        "shoulder_pan_joint",
        "shoulder_lift_joint",
        "elbow_joint",
        "wrist_1_joint",
        "wrist_2_joint",
        "wrist_3_joint"
    ],
    "metrics": {
        "cart_traj_len": 3.348193009480175,
        "distance_elbow_joint": 3.9279813650282227,
        "distance_shoulder_lift_joint": 1.05656336307481,
        "distance_shoulder_pan_joint": 3.041027646608825,
        "distance_wrist_1_joint": 3.7150371000880766,
        "distance_wrist_2_joint": 2.0496053644901635,
        "distance_wrist_3_joint": 0.9009581460056371,
        "smoothness": 0.6307348137258886,
        "time": 5.029213597,
        "traj_len": 3.832906597517833,
        "weighted_distance": 4.717810057843072
    },
    "planner": "RRTstar",
    "start": {
        "state": {
            "elbow_joint": -1.9196185241190666,
            "shoulder_lift_joint": -1.2443396400964142,
            "shoulder_pan_joint": 2.6996025414629847,
            "wrist_1_joint": -1.5485510000780065,
            "wrist_2_joint": -1.5709468930060704,
            "wrist_3_joint": 0.4420197071253992
        }
    },
    "waypoints": [
        {
            "positions": [
                2.6996025414629847,
                -1.2443396400964142,
                -1.9196185241190666,
                -1.5485510000780065,
                -1.5709468930060704,
                0.4420197071253992
            ]
        },
        {
            "positions": [
                2.610499236320585,
                -1.2297807693621345,
                -1.8219472818709619,
                -1.4254361623590197,
                -1.5235875659456246,
                0.4281277355165038
            ]
        },
        {
            "positions": [
                2.521395931178185,
                -1.2152218986278547,
                -1.7242760396228571,
                -1.302321324640033,
                -1.476228238885179,
                0.4142357639076084
            ]
        },
        {
            "positions": [
                2.432292626035785,
                -1.200663027893575,
                -1.6266047973747526,
                -1.1792064869210463,
                -1.4288689118247333,
                0.40034379229871303
            ]
        },
        {
            "positions": [
                2.343189320893385,
                -1.1861041571592952,
                -1.5289335551266479,
                -1.0560916492020596,
                -1.3815095847642875,
                0.38645182068981765
            ]
        },
        {
            "positions": [
                2.254086015750985,
                -1.1715452864250155,
                -1.431262312878543,
                -0.9329768114830727,
                -1.334150257703842,
                0.3725598490809222
            ]
        },
        {
            "positions": [
                2.164982710608585,
                -1.156986415690736,
                -1.3335910706304386,
                -0.809861973764086,
                -1.2867909306433962,
                0.35866787747202683
            ]
        },
        {
            "positions": [
                2.075879405466185,
                -1.142427544956456,
                -1.2359198283823338,
                -0.6867471360450992,
                -1.2394316035829505,
                0.34477590586313145
            ]
        },
        {
            "positions": [
                1.9867761003237852,
                -1.1278686742221764,
                -1.138248586134229,
                -0.5636322983261124,
                -1.192072276522505,
                0.33088393425423607
            ]
        },
        {
            "positions": [
                1.8976727951813852,
                -1.1133098034878965,
                -1.0405773438861243,
                -0.4405174606071256,
                -1.1447129494620591,
                0.3169919626453407
            ]
        },
        {
            "positions": [
                1.808569490038985,
                -1.098750932753617,
                -0.9429061016380196,
                -0.3174026228881388,
                -1.0973536224016134,
                0.30309999103644525
            ]
        },
        {
            "positions": [
                1.7194661848965853,
                -1.0841920620193373,
                -0.845234859389915,
                -0.19428778516915224,
                -1.0499942953411678,
                0.2892080194275499
            ]
        },
        {
            "positions": [
                1.6303628797541851,
                -1.0696331912850574,
                -0.7475636171418103,
                -0.07117294745016545,
                -1.002634968280722,
                0.2753160478186545
            ]
        },
        {
            "positions": [
                1.5412595746117852,
                -1.0550743205507778,
                -0.6498923748937055,
                0.051941890268821345,
                -0.9552756412202763,
                0.2614240762097591
            ]
        },
        {
            "positions": [
                1.4521562694693853,
                -1.040515449816498,
                -0.5522211326456008,
                0.17505672798780814,
                -0.9079163141598305,
                0.24753210460086372
            ]
        },
        {
            "positions": [
                1.3630529643269853,
                -1.0259565790822183,
                -0.45454989039749605,
                0.2981715657067949,
                -0.8605569870993849,
                0.2336401329919683
            ]
        },
        {
            "positions": [
                1.2739496591845854,
                -1.0113977083479386,
                -0.3568786481493913,
                0.4212864034257817,
                -0.8131976600389392,
                0.21974816138307296
            ]
        },
        {
            "positions": [
                1.1848463540421854,
                -0.9968388376136589,
                -0.25920740590128677,
                0.5444012411447681,
                -0.7658383329784936,
                0.20585618977417758
            ]
        },
        {
            "positions": [
                1.0957430488997855,
                -0.9822799668793791,
                -0.1615361636531818,
                0.6675160788637553,
                -0.7184790059180478,
                0.19196421816528214
            ]
        },
        {
            "positions": [
                1.0066397437573855,
                -0.9677210961450994,
                -0.06386492140507727,
                0.7906309165827421,
                -0.6711196788576022,
                0.17807224655638682
            ]
        },
        {
            "positions": [
                0.9175364386149854,
                -0.9531622254108196,
                0.03380632084302748,
                0.9137457543017289,
                -0.6237603517971564,
                0.16418027494749138
            ]
        },
        {
            "positions": [
                0.8284331334725856,
                -0.93860335467654,
                0.13147756309113223,
                1.0368605920207157,
                -0.5764010247367107,
                0.150288303338596
            ]
        },
        {
            "positions": [
                0.7393298283301857,
                -0.9240444839422601,
                0.22914880533923654,
                1.159975429739702,
                -0.5290416976762651,
                0.13639633172970062
            ]
        },
        {
            "positions": [
                0.6502265231877855,
                -0.9094856132079805,
                0.32682004758734173,
                1.2830902674586893,
                -0.4816823706158193,
                0.12250436012080523
            ]
        },
        {
            "positions": [
                0.5611232180453856,
                -0.8949267424737007,
                0.42449128983544604,
                1.4062051051776756,
                -0.43432304355537377,
                0.10861238851190985
            ]
        },
        {
            "positions": [
                0.4720199129029856,
                -0.880367871739421,
                0.5221625320835508,
                1.5293199428966624,
                -0.386963716494928,
                0.09472041690301447
            ]
        },
        {
            "positions": [
                0.38291660776058567,
                -0.8658090010051414,
                0.6198337743316555,
                1.6524347806156492,
                -0.33960438943448223,
                0.08082844529411903
            ]
        },
        {
            "positions": [
                0.2938133026181857,
                -0.8512501302708615,
                0.7175050165797603,
                1.775549618334636,
                -0.2922450623740367,
                0.06693647368522365
            ]
        },
        {
            "positions": [
                0.20470999747578578,
                -0.8366912595365819,
                0.815176258827865,
                1.8986644560536228,
                -0.2448857353135907,
                0.05304450207632827
            ]
        },
        {
            "positions": [
                0.1156066923333859,
                -0.8221323888023021,
                0.9128475010759696,
                2.0217792937726093,
                -0.19752640825314513,
                0.039152530467432896
            ]
        },
        {
            "positions": [
                0.07816343352404094,
                -0.871807775925566,
                1.0802758471915253,
                2.005814769763809,
                -0.13623777499608186,
                -0.010739154675265795
            ]
        },
        {
            "positions": [
                0.04072017471469598,
                -0.9214831630488299,
                1.2477041933070812,
                1.9898502457550094,
                -0.07494914173901862,
                -0.06063083981796449
            ]
        },
        {
            "positions": [
                0.0032769159053510216,
                -0.9711585501720938,
                1.415132539422637,
                1.9738857217462094,
                -0.013660508481955352,
                -0.1105225249606632
            ]
        },
        {
            "positions": [
                -0.03416634290399394,
                -1.0208339372953579,
                1.5825608855381927,
                1.9579211977374094,
                0.04762812477510789,
                -0.16041421010336188
            ]
        },
        {
            "positions": [
                -0.0716096017133389,
                -1.0705093244186217,
                1.7499892316537484,
                1.9419566737286094,
                0.10891675803217118,
                -0.2103058952460606
            ]
        },
        {
            "positions": [
                -0.10905286052268386,
                -1.1201847115418857,
                1.9174175777693043,
                1.9259921497198094,
                0.17020539128923445,
                -0.2601975803887593
            ]
        },
        {
            "positions": [
                -0.05095979936689522,
                -1.0361087642816071,
                1.9401538935542673,
                1.9382220652659745,
                0.0930921212405198,
                -0.21051236576588966
            ]
        },
        {
            "positions": [
                0.007133261788893411,
                -0.9520328170213286,
                1.9628902093392302,
                1.9504519808121397,
                0.015978851191805143,
                -0.16082715114302004
            ]
        },
        {
            "positions": [
                0.06522632294468204,
                -0.8679568697610499,
                1.9856265251241931,
                1.9626818963583046,
                -0.06113441885690951,
                -0.11114193652015042
            ]
        },
        {
            "positions": [
                0.12331938410047069,
                -0.7838809225007713,
                2.008362840909156,
                1.9749118119044697,
                -0.13824768890562414,
                -0.0614567218972808
            ]
        }
    ]
}