{
    "goal": {
        "global_pose": {
            "orientation": {
                "w": 0.005598929693374612,
                "x": 0.007748599140229565,
                "y": 0.7110244013736278,
                "z": -0.7031023480610252
            },
            "position": {
                "x": 0.1141497679147869,
                "y": -0.7141253447532654,
                "z": 0.3711530566215515
            }
        },
        "name": "move_to_auspresseinheit_B"
    },
    "id": "RRTstar_move_to_auspresseinheit_B_135",
    "joint_names": [
        "shoulder_pan_joint",
        "shoulder_lift_joint",
        "elbow_joint",
        "wrist_1_joint",
        "wrist_2_joint",
        "wrist_3_joint"
    ],
    "metrics": {
        "cart_traj_len": 0.5648713197688169,
        "distance_elbow_joint": 0.059726028468408465,
        "distance_shoulder_lift_joint": 0.2954452147837161,
        "distance_shoulder_pan_joint": 0.5789287443231164,
        "distance_wrist_1_joint": 0.3174844680224663,
        "distance_wrist_2_joint": 0.9862972141065525,
        "distance_wrist_3_joint": 0.005464972607406526,
        "smoothness": 5.075305255429287e-16,
        "time": 5.001005849999999,
        "traj_len": 1.4977805721505626,
        "weighted_distance": 1.8862815987162411
    },
    "planner": "RRTstar",
    "start": {
        "state": {
            "elbow_joint": 2.0193083361928714,
            "shoulder_lift_joint": -1.1220246554650708,
            "shoulder_pan_joint": -1.0952077554168747,
            "wrist_1_joint": -0.8559753972642168,
            "wrist_2_joint": 0.4759566250798843,
            "wrist_3_joint": -3.1240929996934557
        }
    },
    "waypoints": [
        {
            "positions": [
                -1.0952077554168747,
                -1.1220246554650708,
                2.0193083361928714,
                -0.8559753972642168,
                0.4759566250798843,
                -3.1240929996934557
            ]
        },
        {
            "positions": [
                -1.1916958794707273,
                -1.1712655245956902,
                2.009353998114803,
                -0.8030613192604724,
                0.640339494097643,
                -3.1231821709255545
            ]
        },
        {
            "positions": [
                -1.2881840035245802,
                -1.2205063937263094,
                1.9993996600367352,
                -0.750147241256728,
                0.8047223631154017,
                -3.1222713421576533
            ]
        },
        {
            "positions": [
                -1.3846721275784328,
                -1.2697472628569288,
                1.9894453219586672,
                -0.6972331632529836,
                0.9691052321331606,
                -3.121360513389752
            ]
        },
        {
            "positions": [
                -1.4811602516322855,
                -1.3189881319875483,
                1.9794909838805992,
                -0.6443190852492393,
                1.1334881011509192,
                -3.1204496846218515
            ]
        },
        {
            "positions": [
                -1.5776483756861384,
                -1.3682290011181675,
                1.969536645802531,
                -0.5914050072454948,
                1.2978709701686781,
                -3.1195388558539503
            ]
        },
        {
            "positions": [
                -1.674136499739991,
                -1.417469870248787,
                1.959582307724463,
                -0.5384909292417505,
                1.4622538391864368,
                -3.118628027086049
            ]
        }
    ]
}