{
    "goal": {
        "global_pose": {
            "orientation": {
                "w": 0.7047431468963623,
                "x": -0.7094548344612122,
                "y": 0.0024358443915843964,
                "z": -0.0022348060738295317
            },
            "position": {
                "x": 0.6094750761985779,
                "y": 0.3671506643295288,
                "z": 0.19426114857196808
            }
        },
        "name": "move_to_magneteinheit_A"
    },
    "id": "RRTstar_move_to_magneteinheit_A_25",
    "joint_names": [
        "shoulder_pan_joint",
        "shoulder_lift_joint",
        "elbow_joint",
        "wrist_1_joint",
        "wrist_2_joint",
        "wrist_3_joint"
    ],
    "metrics": {
        "cart_traj_len": 3.69865649689948,
        "distance_elbow_joint": 3.9038791551892977,
        "distance_shoulder_lift_joint": 0.21130847620695103,
        "distance_shoulder_pan_joint": 3.0204623830590616,
        "distance_wrist_1_joint": 0.7005619905626911,
        "distance_wrist_2_joint": 1.6978796214285141,
        "distance_wrist_3_joint": 3.5676671151632737,
        "smoothness": 0.05555757534454398,
        "time": 5.025547226,
        "traj_len": 3.6196351669208036,
        "weighted_distance": 4.757681639614775
    },
    "planner": "RRTstar",
    "start": {
        "state": {
            "elbow_joint": -1.9196185241190666,
            "shoulder_lift_joint": -1.2443396400964142,
            "shoulder_pan_joint": 2.6996025414629847,
            "wrist_1_joint": -1.5485510000780065,
            "wrist_2_joint": -1.5709468930060704,
            "wrist_3_joint": 0.4420197071253992
        }
    },
    "waypoints": [
        {
            "positions": [
                2.6996025414629847,
                -1.2443396400964142,
                -1.9196185241190666,
                -1.5485510000780065,
                -1.5709468930060704,
                0.4420197071253992
            ]
        },
        {
            "positions": [
                2.5724157919131336,
                -1.237288800488071,
                -1.7739519974540763,
                -1.5381146344080112,
                -1.5455163678682668,
                0.37375236397558653
            ]
        },
        {
            "positions": [
                2.445229042363283,
                -1.230237960879728,
                -1.628285470789086,
                -1.5276782687380157,
                -1.5200858427304633,
                0.30548502082577383
            ]
        },
        {
            "positions": [
                2.3180422928134323,
                -1.223187121271385,
                -1.4826189441240958,
                -1.5172419030680204,
                -1.4946553175926596,
                0.2372176776759612
            ]
        },
        {
            "positions": [
                2.1908555432635812,
                -1.2161362816630419,
                -1.3369524174591054,
                -1.506805537398025,
                -1.469224792454856,
                0.1689503345261485
            ]
        },
        {
            "positions": [
                2.06366879371373,
                -1.2090854420546988,
                -1.191285890794115,
                -1.4963691717280296,
                -1.4437942673170525,
                0.10068299137633585
            ]
        },
        {
            "positions": [
                1.9364820441638795,
                -1.2020346024463557,
                -1.045619364129125,
                -1.4859328060580344,
                -1.418363742179249,
                0.03241564822652321
            ]
        },
        {
            "positions": [
                1.8092952946140286,
                -1.1949837628380127,
                -0.8999528374641346,
                -1.4754964403880388,
                -1.3929332170414452,
                -0.035851694923289434
            ]
        },
        {
            "positions": [
                1.6821085450641777,
                -1.1879329232296696,
                -0.7542863107991442,
                -1.4650600747180436,
                -1.3675026919036417,
                -0.10411903807310219
            ]
        },
        {
            "positions": [
                1.5549217955143269,
                -1.1808820836213265,
                -0.6086197841341539,
                -1.454623709048048,
                -1.3420721667658382,
                -0.17238638122291483
            ]
        },
        {
            "positions": [
                1.427735045964476,
                -1.1738312440129834,
                -0.4629532574691637,
                -1.4441873433780528,
                -1.3166416416280347,
                -0.24065372437272747
            ]
        },
        {
            "positions": [
                1.300548296414625,
                -1.1667804044046401,
                -0.31728673080417336,
                -1.4337509777080575,
                -1.291211116490231,
                -0.3089210675225401
            ]
        },
        {
            "positions": [
                1.1733615468647745,
                -1.1597295647962973,
                -0.17162020413918322,
                -1.423314612038062,
                -1.2657805913524274,
                -0.37718841067235276
            ]
        },
        {
            "positions": [
                1.0461747973149234,
                -1.152678725187954,
                -0.025953677474192638,
                -1.4128782463680667,
                -1.2403500662146238,
                -0.4454557538221655
            ]
        },
        {
            "positions": [
                0.9189880477650725,
                -1.145627885579611,
                0.1197128491907975,
                -1.4024418806980712,
                -1.2149195410768203,
                -0.513723096971978
            ]
        },
        {
            "positions": [
                0.7918012982152218,
                -1.1385770459712679,
                0.26537937585578764,
                -1.392005515028076,
                -1.1894890159390168,
                -0.5819904401217907
            ]
        },
        {
            "positions": [
                0.6646145486653707,
                -1.1315262063629248,
                0.4110459025207782,
                -1.3815691493580804,
                -1.164058490801213,
                -0.6502577832716036
            ]
        },
        {
            "positions": [
                0.5374277991155201,
                -1.1244753667545817,
                0.5567124291857684,
                -1.371132783688085,
                -1.1386279656634095,
                -0.718525126421416
            ]
        },
        {
            "positions": [
                0.410241049565669,
                -1.1174245271462386,
                0.7023789558507589,
                -1.3606964180180898,
                -1.113197440525606,
                -0.7867924695712288
            ]
        },
        {
            "positions": [
                0.2830543000158179,
                -1.1103736875378956,
                0.8480454825157491,
                -1.3502600523480943,
                -1.0877669153878025,
                -0.8550598127210415
            ]
        },
        {
            "positions": [
                0.15586755046596723,
                -1.1033228479295525,
                0.9937120091807392,
                -1.339823686678099,
                -1.0623363902499987,
                -0.9233271558708541
            ]
        },
        {
            "positions": [
                0.028680800916116134,
                -1.0962720083212094,
                1.1393785358457298,
                -1.3293873210081035,
                -1.0369058651121952,
                -0.9915944990206668
            ]
        },
        {
            "positions": [
                -0.09850594863373453,
                -1.0892211687128663,
                1.28504506251072,
                -1.3189509553381082,
                -1.0114753399743917,
                -1.0598618421704793
            ]
        },
        {
            "positions": [
                -0.07997645755353938,
                -1.0939036691148165,
                1.3433130265573459,
                -1.2797041265195421,
                -0.916608000941322,
                -1.2320106393260954
            ]
        },
        {
            "positions": [
                -0.06144696647334422,
                -1.098586169516767,
                1.4015809906039718,
                -1.240457297700976,
                -0.8217406619082525,
                -1.4041594364817118
            ]
        },
        {
            "positions": [
                -0.04291747539314905,
                -1.103268669918717,
                1.4598489546505977,
                -1.2012104688824101,
                -0.7268733228751828,
                -1.5763082336373282
            ]
        },
        {
            "positions": [
                -0.0243879843129539,
                -1.1079511703206675,
                1.5181169186972234,
                -1.161963640063844,
                -0.6320059838421133,
                -1.7484570307929443
            ]
        },
        {
            "positions": [
                -0.005858493232758721,
                -1.1126336707226177,
                1.5763848827438494,
                -1.122716811245278,
                -0.5371386448090436,
                -1.9206058279485605
            ]
        },
        {
            "positions": [
                0.01267099784743643,
                -1.117316171124568,
                1.6346528467904753,
                -1.0834699824267118,
                -0.44227130577597396,
                -2.0927546251041766
            ]
        },
        {
            "positions": [
                0.031200488927631595,
                -1.1219986715265182,
                1.6929208108371012,
                -1.0442231536081459,
                -0.3474039667429043,
                -2.2649034222597932
            ]
        },
        {
            "positions": [
                0.04972998000782673,
                -1.1266811719284684,
                1.751188774883727,
                -1.0049763247895798,
                -0.25253662770983476,
                -2.4370522194154094
            ]
        },
        {
            "positions": [
                0.06825947108802193,
                -1.1313636723304188,
                1.8094567389303529,
                -0.9657294959710137,
                -0.1576692886767651,
                -2.6092010165710255
            ]
        },
        {
            "positions": [
                0.08678896216821709,
                -1.136046172732369,
                1.8677247029769788,
                -0.9264826671524475,
                -0.06280194964369545,
                -2.781349813726642
            ]
        },
        {
            "positions": [
                0.10531845324841223,
                -1.1407286731343194,
                1.9259926670236047,
                -0.8872358383338814,
                0.03206538938937409,
                -2.9534986108822583
            ]
        },
        {
            "positions": [
                0.12384794432860739,
                -1.1454111735362695,
                1.9842606310702307,
                -0.8479890095153154,
                0.12693272842244382,
                -3.1256474080378744
            ]
        }
    ]
}