{
    "goal": {
        "global_pose": {
            "orientation": {
                "w": -0.00223480608172531,
                "x": 0.0024358444001904467,
                "y": 0.7094548369677653,
                "z": -0.704743149386269
            },
            "position": {
                "x": 0.6205249238014221,
                "y": -0.6371506643295288,
                "z": 0.19426114857196808
            }
        },
        "name": "move_to_magneteinheit_B"
    },
    "id": "RRTstar_move_to_magneteinheit_B_105",
    "joint_names": [
        "shoulder_pan_joint",
        "shoulder_lift_joint",
        "elbow_joint",
        "wrist_1_joint",
        "wrist_2_joint",
        "wrist_3_joint"
    ],
    "metrics": {
        "cart_traj_len": 3.322722837661881,
        "distance_elbow_joint": 1.9659318277338482,
        "distance_shoulder_lift_joint": 2.3154874880008163,
        "distance_shoulder_pan_joint": 4.210246763075595,
        "distance_wrist_1_joint": 0.9198252674001384,
        "distance_wrist_2_joint": 3.468340493246751,
        "distance_wrist_3_joint": 0.9441954983576407,
        "smoothness": 1.49884844705119,
        "time": 5.026946224,
        "traj_len": 3.7180676887080457,
        "weighted_distance": 4.483367494994913
    },
    "planner": "RRTstar",
    "start": {
        "state": {
            "elbow_joint": 2.6216224122426386,
            "shoulder_lift_joint": -1.4174107377796124,
            "shoulder_pan_joint": 0.7066234856936794,
            "wrist_1_joint": 1.9546482284002225,
            "wrist_2_joint": -0.7096286983471962,
            "wrist_3_joint": 0.005740856962016249
        }
    },
    "waypoints": [
        {
            "positions": [
                0.7066234856936794,
                -1.4174107377796124,
                2.6216224122426386,
                1.9546482284002225,
                -0.7096286983471962,
                0.005740856962016249
            ]
        },
        {
            "positions": [
                0.8400031564200783,
                -1.442884761040781,
                2.6456104989521974,
                1.962597284954604,
                -0.8620061582765969,
                -0.0049908482735106525
            ]
        },
        {
            "positions": [
                0.9267101200525314,
                -1.44191756494739,
                2.635135090197946,
                1.9786107988487975,
                -1.0926929066836846,
                -0.017668375760972608
            ]
        },
        {
            "positions": [
                1.0134170836849847,
                -1.4409503688539993,
                2.6246596814436947,
                1.9946243127429912,
                -1.3233796550907722,
                -0.030345903248434565
            ]
        },
        {
            "positions": [
                1.1001240473174378,
                -1.4399831727606083,
                2.6141842726894438,
                2.010637826637185,
                -1.5540664034978597,
                -0.04302343073589652
            ]
        },
        {
            "positions": [
                1.186831010949891,
                -1.4390159766672175,
                2.6037088639351924,
                2.0266513405313784,
                -1.7847531519049473,
                -0.05570095822335847
            ]
        },
        {
            "positions": [
                1.0801408445824972,
                -1.3952696764407488,
                2.5497615077469264,
                2.034754264799667,
                -1.8383730498987298,
                -0.05471815281409624
            ]
        },
        {
            "positions": [
                0.9734506782151033,
                -1.3515233762142804,
                2.4958141515586605,
                2.042857189067956,
                -1.8919929478925122,
                -0.05373534740483401
            ]
        },
        {
            "positions": [
                0.8667605118477095,
                -1.3077770759878118,
                2.4418667953703945,
                2.0509601133362447,
                -1.9456128458862947,
                -0.05275254199557178
            ]
        },
        {
            "positions": [
                0.9157131804964572,
                -1.3701816927442263,
                2.3989495880314182,
                2.1208389146960167,
                -1.998320195066977,
                -0.12013025226132502
            ]
        },
        {
            "positions": [
                0.9646658491452049,
                -1.4325863095006406,
                2.356032380692442,
                2.1907177160557887,
                -2.0510275442476593,
                -0.18750796252707827
            ]
        },
        {
            "positions": [
                1.0136185177939525,
                -1.494990926257055,
                2.3131151733534656,
                2.2605965174155607,
                -2.1037348934283417,
                -0.2548856727928315
            ]
        },
        {
            "positions": [
                1.0625711864427003,
                -1.5573955430134694,
                2.2701979660144893,
                2.3304753187753326,
                -2.1564422426090237,
                -0.32226338305858476
            ]
        },
        {
            "positions": [
                1.111523855091448,
                -1.619800159769884,
                2.227280758675513,
                2.4003541201351046,
                -2.209149591789706,
                -0.389641093324338
            ]
        },
        {
            "positions": [
                0.92320828803455,
                -1.656553542436629,
                2.1522571463934526,
                2.4078570968948134,
                -2.2888115110047713,
                -0.3964330249170551
            ]
        },
        {
            "positions": [
                0.7348927209776522,
                -1.6933069251033737,
                2.077233534111392,
                2.415360073654522,
                -2.3684734302198365,
                -0.4032249565097722
            ]
        },
        {
            "positions": [
                0.5465771539207543,
                -1.7300603077701187,
                2.0022099218293317,
                2.4228630504142314,
                -2.448135349434901,
                -0.4100168881024893
            ]
        },
        {
            "positions": [
                0.35826158686385656,
                -1.7668136904368636,
                1.927186309547271,
                2.4303660271739402,
                -2.5277972686499663,
                -0.4168088196952064
            ]
        },
        {
            "positions": [
                0.16994601980695856,
                -1.8035670731036086,
                1.8521626972652105,
                2.437869003933649,
                -2.6074591878650315,
                -0.4236007512879235
            ]
        },
        {
            "positions": [
                -0.018369547249939222,
                -1.8403204557703536,
                1.7771390849831499,
                2.445371980693358,
                -2.687121107080096,
                -0.4303926828806406
            ]
        },
        {
            "positions": [
                -0.20668511430683711,
                -1.8770738384370984,
                1.7021154727010894,
                2.4528749574530666,
                -2.7667830262951614,
                -0.4371846144733577
            ]
        },
        {
            "positions": [
                -0.3950006813637348,
                -1.9138272211038434,
                1.627091860419029,
                2.4603779342127754,
                -2.8464449455102265,
                -0.44397654606607484
            ]
        },
        {
            "positions": [
                -0.5833162484206329,
                -1.9505806037705884,
                1.5520682481369685,
                2.467880910972484,
                -2.9261068647252917,
                -0.4507684776587919
            ]
        },
        {
            "positions": [
                -0.7716318154775308,
                -1.9873339864373332,
                1.477044635854908,
                2.4753838877321934,
                -3.005768783940357,
                -0.45756040925150904
            ]
        },
        {
            "positions": [
                -0.9599473825344282,
                -2.024087369104078,
                1.4020210235728476,
                2.482886864491902,
                -3.0854307031554216,
                -0.4643523408442261
            ]
        },
        {
            "positions": [
                -1.1482629495913264,
                -2.060840751770823,
                1.326997411290787,
                2.490389841251611,
                -3.1650926223704867,
                -0.47114427243694323
            ]
        },
        {
            "positions": [
                -1.0965052778574076,
                -1.9443347000068738,
                1.3705850609712693,
                2.4568074712300216,
                -3.0764003232799393,
                -0.4299973833115284
            ]
        },
        {
            "positions": [
                -1.044747606123489,
                -1.8278286482429247,
                1.4141727106517517,
                2.423225101208432,
                -2.987708024189392,
                -0.3888504941861136
            ]
        },
        {
            "positions": [
                -0.9929899343895703,
                -1.7113225964789756,
                1.457760360332234,
                2.3896427311868425,
                -2.8990157250988444,
                -0.34770360506069886
            ]
        },
        {
            "positions": [
                -0.9412322626556515,
                -1.5948165447150262,
                1.5013480100127163,
                2.3560603611652526,
                -2.8103234260082965,
                -0.30655671593528405
            ]
        },
        {
            "positions": [
                -0.8894745909217329,
                -1.4783104929510769,
                1.5449356596931985,
                2.3224779911436633,
                -2.721631126917749,
                -0.26540982680986924
            ]
        },
        {
            "positions": [
                -0.8377169191878142,
                -1.3618044411871277,
                1.5885233093736808,
                2.2888956211220735,
                -2.6329388278272017,
                -0.2242629376844545
            ]
        },
        {
            "positions": [
                -0.7859592474538954,
                -1.2452983894231784,
                1.6321109590541631,
                2.255313251100484,
                -2.5442465287366542,
                -0.18311604855903968
            ]
        },
        {
            "positions": [
                -0.7342015757199767,
                -1.1287923376592293,
                1.6756986087346455,
                2.2217308810788943,
                -2.455554229646107,
                -0.14196915943362487
            ]
        },
        {
            "positions": [
                -0.6824439039860579,
                -1.01228628589528,
                1.7192862584151278,
                2.188148511057305,
                -2.366861930555559,
                -0.10082227030821006
            ]
        },
        {
            "positions": [
                -0.6306862322521394,
                -0.8957802341313308,
                1.7628739080956102,
                2.1545661410357155,
                -2.2781696314650115,
                -0.059675381182795306
            ]
        },
        {
            "positions": [
                -0.5789285605182206,
                -0.7792741823673814,
                1.8064615577760925,
                2.1209837710141257,
                -2.189477332374464,
                -0.018528492057380472
            ]
        },
        {
            "positions": [
                -0.7469706613770128,
                -0.7191364151172688,
                1.7345283043373056,
                2.1283225631697578,
                -2.208107971988183,
                -0.014129613995607722
            ]
        },
        {
            "positions": [
                -0.915012762235805,
                -0.658998647867156,
                1.662595050898519,
                2.1356613553253903,
                -2.2267386116019017,
                -0.009730735933834972
            ]
        }
    ]
}