{
    "goal": {
        "global_pose": {
            "orientation": {
                "w": -0.4816463035849501,
                "x": 0.5182115481033762,
                "y": 0.4908360881923453,
                "z": -0.5084816262002911
            },
            "position": {
                "x": -0.8240239810943604,
                "y": -0.300875300988555,
                "z": 0.16403168439865112
            }
        },
        "name": "move_to_storage_C"
    },
    "id": "RRTstar_move_to_storage_C_117",
    "joint_names": [
        "shoulder_pan_joint",
        "shoulder_lift_joint",
        "elbow_joint",
        "wrist_1_joint",
        "wrist_2_joint",
        "wrist_3_joint"
    ],
    "metrics": {
        "cart_traj_len": 0.5766213908894753,
        "distance_elbow_joint": 0.2566476201176997,
        "distance_shoulder_lift_joint": 0.1887335380789661,
        "distance_shoulder_pan_joint": 0.49528246470320214,
        "distance_wrist_1_joint": 0.07339404402184102,
        "distance_wrist_2_joint": 1.0636470189698017,
        "distance_wrist_3_joint": 0.05785920231355002,
        "smoothness": 0.0,
        "time": 5.000598847,
        "traj_len": 1.4613568654524673,
        "weighted_distance": 1.8407398935818726
    },
    "planner": "RRTstar",
    "start": {
        "state": {
            "elbow_joint": 2.010868314990456,
            "shoulder_lift_joint": -1.1634956873337592,
            "shoulder_pan_joint": -2.4736205022346125,
            "wrist_1_joint": -0.8367026794202681,
            "wrist_2_joint": 0.6746043897044499,
            "wrist_3_joint": -3.1496632123970403
        }
    },
    "waypoints": [
        {
            "positions": [
                -2.4736205022346125,
                -1.1634956873337592,
                2.010868314990456,
                -0.8367026794202681,
                0.6746043897044499,
                -3.1496632123970403
            ]
        },
        {
            "positions": [
                -2.5561675796851464,
                -1.1320400976539315,
                1.968093711637506,
                -0.8244703387499612,
                0.8518788928660835,
                -3.1400200120114485
            ]
        },
        {
            "positions": [
                -2.63871465713568,
                -1.100584507974104,
                1.925319108284556,
                -0.8122379980796545,
                1.0291533960277173,
                -3.130376811625857
            ]
        },
        {
            "positions": [
                -2.7212617345862133,
                -1.0691289182942763,
                1.882544504931606,
                -0.8000056574093476,
                1.2064278991893507,
                -3.120733611240265
            ]
        },
        {
            "positions": [
                -2.8038088120367473,
                -1.0376733286144484,
                1.839769901578656,
                -0.7877733167390407,
                1.3837024023509845,
                -3.1110904108546737
            ]
        },
        {
            "positions": [
                -2.886355889487281,
                -1.0062177389346207,
                1.796995298225706,
                -0.775540976068734,
                1.560976905512618,
                -3.101447210469082
            ]
        },
        {
            "positions": [
                -2.9689029669378146,
                -0.9747621492547931,
                1.7542206948727561,
                -0.7633086353984271,
                1.7382514086742518,
                -3.0918040100834903
            ]
        }
    ]
}