{
    "goal": {
        "global_pose": {
            "orientation": {
                "w": 0.7047431493862688,
                "x": -0.7094548369677653,
                "y": 0.0024358444001904,
                "z": -0.0022348060817251984
            },
            "position": {
                "x": -0.39052492380142206,
                "y": 0.3671506643295288,
                "z": 0.19426114857196808
            }
        },
        "name": "move_to_magneteinheit_D"
    },
    "id": "RRTstar_move_to_magneteinheit_D_2",
    "joint_names": [
        "shoulder_pan_joint",
        "shoulder_lift_joint",
        "elbow_joint",
        "wrist_1_joint",
        "wrist_2_joint",
        "wrist_3_joint"
    ],
    "metrics": {
        "cart_traj_len": 4.767183245196583,
        "distance_elbow_joint": 3.122734770909607,
        "distance_shoulder_lift_joint": 1.6347255459415633,
        "distance_shoulder_pan_joint": 3.539551362504832,
        "distance_wrist_1_joint": 1.7131480481779082,
        "distance_wrist_2_joint": 0.25036325470710497,
        "distance_wrist_3_joint": 3.126542260720179,
        "smoothness": 0.2921951068186856,
        "time": 5.0188111609999995,
        "traj_len": 3.6588338638097793,
        "weighted_distance": 4.647973866889375
    },
    "planner": "RRTstar",
    "start": {
        "state": {
            "elbow_joint": 0.749534889911806,
            "shoulder_lift_joint": -0.6476975780787326,
            "shoulder_pan_joint": -2.711696901376241,
            "wrist_1_joint": -0.07506478083263063,
            "wrist_2_joint": 0.43296659715538205,
            "wrist_3_joint": -3.14703540197715
        }
    },
    "waypoints": [
        {
            "positions": [
                -2.711696901376241,
                -0.6476975780787326,
                0.749534889911806,
                -0.07506478083263063,
                0.43296659715538205,
                -3.14703540197715
            ]
        },
        {
            "positions": [
                -2.7414662118203355,
                -0.7674678955455443,
                0.7128654828663241,
                -0.09299310006398616,
                0.414749426028735,
                -3.0726312424194706
            ]
        },
        {
            "positions": [
                -2.7712355222644294,
                -0.887238213012356,
                0.6761960758208423,
                -0.11092141929534169,
                0.39653225490208793,
                -2.998227082861791
            ]
        },
        {
            "positions": [
                -2.8010048327085237,
                -1.0070085304791676,
                0.6395266687753605,
                -0.12884973852669723,
                0.3783150837754409,
                -2.9238229233041118
            ]
        },
        {
            "positions": [
                -2.6843312076628587,
                -1.0506243892147307,
                0.5655501659743785,
                -0.08590149874292194,
                0.37464123399354743,
                -2.8138701002610516
            ]
        },
        {
            "positions": [
                -2.567657582617194,
                -1.0942402479502937,
                0.49157366317339646,
                -0.042953258959146645,
                0.37096738421165404,
                -2.7039172772179914
            ]
        },
        {
            "positions": [
                -2.450983957571529,
                -1.1378561066858566,
                0.41759716037241446,
                -5.019175371351325e-06,
                0.3672935344297606,
                -2.593964454174931
            ]
        },
        {
            "positions": [
                -2.334310332525864,
                -1.1814719654214196,
                0.3436206575714325,
                0.04294322060840394,
                0.36361968464786715,
                -2.484011631131871
            ]
        },
        {
            "positions": [
                -2.2176367074801995,
                -1.2250878241569827,
                0.2696441547704505,
                0.08589146039217924,
                0.35994583486597376,
                -2.3740588080888108
            ]
        },
        {
            "positions": [
                -2.1009630824345344,
                -1.2687036828925458,
                0.1956676519694685,
                0.12883970017595453,
                0.3562719850840803,
                -2.2641059850457506
            ]
        },
        {
            "positions": [
                -1.9842894573888696,
                -1.3123195416281086,
                0.12169114916848656,
                0.1717879399597298,
                0.35259813530218687,
                -2.1541531620026904
            ]
        },
        {
            "positions": [
                -1.8676158323432048,
                -1.3559354003636717,
                0.047714646367504554,
                0.21473617974350512,
                0.3489242855202935,
                -2.04420033895963
            ]
        },
        {
            "positions": [
                -1.7509422072975398,
                -1.3995512590992347,
                -0.026261856433477337,
                0.2576844195272804,
                0.34525043573840003,
                -1.93424751591657
            ]
        },
        {
            "positions": [
                -1.634268582251875,
                -1.4431671178347978,
                -0.10023835923445945,
                0.3006326593110557,
                0.3415765859565066,
                -1.8242946928735098
            ]
        },
        {
            "positions": [
                -1.5175949572062102,
                -1.4867829765703608,
                -0.17421486203544134,
                0.34358089909483097,
                0.3379027361746132,
                -1.7143418698304496
            ]
        },
        {
            "positions": [
                -1.4009213321605452,
                -1.530398835305924,
                -0.24819136483642346,
                0.3865291388786063,
                0.33422888639271975,
                -1.6043890467873894
            ]
        },
        {
            "positions": [
                -1.2842477071148803,
                -1.5740146940414868,
                -0.32216786763740535,
                0.42947737866238156,
                0.3305550366108263,
                -1.4944362237443292
            ]
        },
        {
            "positions": [
                -1.1675740820692155,
                -1.6176305527770496,
                -0.39614437043838735,
                0.4724256184461568,
                0.3268811868289329,
                -1.384483400701269
            ]
        },
        {
            "positions": [
                -1.0509004570235507,
                -1.6612464115126127,
                -0.47012087323936913,
                0.5153738582299321,
                0.32320733704703947,
                -1.274530577658209
            ]
        },
        {
            "positions": [
                -0.9342268319778857,
                -1.7048622702481757,
                -0.5440973760403514,
                0.5583220980137075,
                0.3195334872651461,
                -1.1645777546151486
            ]
        },
        {
            "positions": [
                -0.8175532069322209,
                -1.7484781289837388,
                -0.6180738788413334,
                0.6012703377974827,
                0.31585963748325263,
                -1.0546249315720884
            ]
        },
        {
            "positions": [
                -0.7008795818865559,
                -1.7920939877193018,
                -0.6920503816423151,
                0.644218577581258,
                0.3121857877013592,
                -0.9446721085290282
            ]
        },
        {
            "positions": [
                -0.5842059568408913,
                -1.835709846454865,
                -0.7660268844432971,
                0.6871668173650333,
                0.3085119379194658,
                -0.834719285485968
            ]
        },
        {
            "positions": [
                -0.46753233179522624,
                -1.879325705190428,
                -0.8400033872442794,
                0.7301150571488086,
                0.30483808813757235,
                -0.7247664624429078
            ]
        },
        {
            "positions": [
                -0.3508587067495612,
                -1.9229415639259908,
                -0.9139798900452614,
                0.7730632969325839,
                0.3011642383556789,
                -0.6148136393998476
            ]
        },
        {
            "positions": [
                -0.23418508170389662,
                -1.9665574226615539,
                -0.9879563928462431,
                0.8160115367163592,
                0.2974903885737855,
                -0.5048608163567874
            ]
        },
        {
            "positions": [
                -0.1175114566582316,
                -2.010173281397117,
                -1.0619328956472252,
                0.8589597765001344,
                0.29381653879189207,
                -0.39490799331372717
            ]
        },
        {
            "positions": [
                -0.0008378316125665641,
                -2.0537891401326798,
                -1.1359093984482074,
                0.9019080162839098,
                0.2901426890099986,
                -0.28495517027066697
            ]
        },
        {
            "positions": [
                0.11583579343309847,
                -2.097404998868243,
                -1.2098859012491892,
                0.9448562560676851,
                0.2864688392281052,
                -0.17500234722760677
            ]
        },
        {
            "positions": [
                0.23250941847876316,
                -2.141020857603806,
                -1.2838624040501712,
                0.9878044958514604,
                0.2827949894462118,
                -0.06504952418454656
            ]
        },
        {
            "positions": [
                0.16305455514788605,
                -2.1645879020065544,
                -1.4654186502081095,
                1.0782559718690743,
                0.2660963816132227,
                -0.057623460363284126
            ]
        },
        {
            "positions": [
                0.09359969181700895,
                -2.1881549464093024,
                -1.6469748963660478,
                1.1687074478866883,
                0.24939777378023353,
                -0.0501973965420217
            ]
        },
        {
            "positions": [
                0.02414482848613181,
                -2.211721990812051,
                -1.8285311425239863,
                1.2591589239043022,
                0.23269916594724444,
                -0.04277133272075926
            ]
        },
        {
            "positions": [
                -0.04531003484474527,
                -2.2352890352147994,
                -2.0100873886819244,
                1.3496103999219162,
                0.2160005581142553,
                -0.03534526889949683
            ]
        },
        {
            "positions": [
                -0.11476489817562247,
                -2.2588560796175474,
                -2.1916436348398634,
                1.4400618759395303,
                0.19930195028126618,
                -0.027919205078234394
            ]
        },
        {
            "positions": [
                -0.18421976150649955,
                -2.282423124020296,
                -2.3731998809978014,
                1.530513351957144,
                0.18260334244827706,
                -0.020493141256971967
            ]
        }
    ]
}