{
    "goal": {
        "global_pose": {
            "orientation": {
                "w": 0.005598929693374612,
                "x": 0.007748599140229565,
                "y": 0.7110244013736278,
                "z": -0.7031023480610252
            },
            "position": {
                "x": 0.1141497679147869,
                "y": -0.7141253447532654,
                "z": 0.3711530566215515
            }
        },
        "name": "move_to_auspresseinheit_B"
    },
    "id": "RRTstar_move_to_auspresseinheit_B_142",
    "joint_names": [
        "shoulder_pan_joint",
        "shoulder_lift_joint",
        "elbow_joint",
        "wrist_1_joint",
        "wrist_2_joint",
        "wrist_3_joint"
    ],
    "metrics": {
        "cart_traj_len": 0.5651969002638514,
        "distance_elbow_joint": 0.06016465638358115,
        "distance_shoulder_lift_joint": 0.29461055033429395,
        "distance_shoulder_pan_joint": 0.5796117239915073,
        "distance_wrist_1_joint": 0.31776497558096106,
        "distance_wrist_2_joint": 0.9848775247096302,
        "distance_wrist_3_joint": 0.0002985819270451273,
        "smoothness": 7.612957943425664e-16,
        "time": 5.001222531,
        "traj_len": 1.49577004012215,
        "weighted_distance": 1.8816396246549711
    },
    "planner": "RRTstar",
    "start": {
        "state": {
            "elbow_joint": 2.0193083361928714,
            "shoulder_lift_joint": -1.1220246554650708,
            "shoulder_pan_joint": -1.0952077554168747,
            "wrist_1_joint": -0.8559753972642168,
            "wrist_2_joint": 0.4759566250798843,
            "wrist_3_joint": -3.1240929996934557
        }
    },
    "waypoints": [
        {
            "positions": [
                -1.0952077554168747,
                -1.1220246554650708,
                2.0193083361928714,
                -0.8559753972642168,
                0.4759566250798843,
                -3.1240929996934557
            ]
        },
        {
            "positions": [
                -1.1918097094154592,
                -1.1711264138541198,
                2.0092808934622743,
                -0.8030145680007232,
                0.640102879198156,
                -3.124142763347963
            ]
        },
        {
            "positions": [
                -1.2884116634140437,
                -1.2202281722431687,
                1.9992534507316777,
                -0.7500537387372298,
                0.8042491333164277,
                -3.124192527002471
            ]
        },
        {
            "positions": [
                -1.3850136174126284,
                -1.2693299306322179,
                1.9892260080010808,
                -0.6970929094737363,
                0.9683953874346993,
                -3.1242422906569782
            ]
        },
        {
            "positions": [
                -1.4816155714112127,
                -1.3184316890212668,
                1.979198565270484,
                -0.6441320802102428,
                1.132541641552971,
                -3.1242920543114856
            ]
        },
        {
            "positions": [
                -1.5782175254097974,
                -1.3675334474103158,
                1.9691711225398871,
                -0.5911712509467493,
                1.2966878956712429,
                -3.1243418179659934
            ]
        },
        {
            "positions": [
                -1.674819479408382,
                -1.4166352057993647,
                1.9591436798092903,
                -0.5382104216832557,
                1.4608341497895145,
                -3.124391581620501
            ]
        }
    ]
}