{
    "goal": {
        "global_pose": {
            "orientation": {
                "w": 0.7031023480610252,
                "x": -0.7110244013736278,
                "y": 0.0077485991402295624,
                "z": 0.005598929693374583
            },
            "position": {
                "x": -0.8841497679147869,
                "y": 0.44412534475326537,
                "z": 0.3711530566215515
            }
        },
        "name": "move_to_auspresseinheit_D"
    },
    "id": "RRTstar_move_to_auspresseinheit_D_66",
    "joint_names": [
        "shoulder_pan_joint",
        "shoulder_lift_joint",
        "elbow_joint",
        "wrist_1_joint",
        "wrist_2_joint",
        "wrist_3_joint"
    ],
    "metrics": {
        "cart_traj_len": 0.3423625171186762,
        "distance_elbow_joint": 0.6318262539356754,
        "distance_shoulder_lift_joint": 0.11869846454544941,
        "distance_shoulder_pan_joint": 0.13377085092090368,
        "distance_wrist_1_joint": 0.5049065667694834,
        "distance_wrist_2_joint": 1.44376228905772,
        "distance_wrist_3_joint": 0.022921662580743796,
        "smoothness": 3.947459674368863e-16,
        "time": 5.003573722,
        "traj_len": 1.6899367111847639,
        "weighted_distance": 2.2023619749711143
    },
    "planner": "RRTstar",
    "start": {
        "state": {
            "elbow_joint": -1.8275523626775212,
            "shoulder_lift_joint": -2.126789852344167,
            "shoulder_pan_joint": -0.03513704404078235,
            "wrist_1_joint": -2.347782403156801,
            "wrist_2_joint": -1.6058999987535132,
            "wrist_3_joint": -3.0880379163319196
        }
    },
    "waypoints": [
        {
            "positions": [
                -0.03513704404078235,
                -2.126789852344167,
                -1.8275523626775212,
                -2.347782403156801,
                -1.6058999987535132,
                -3.0880379163319196
            ]
        },
        {
            "positions": [
                -0.05185840040589531,
                -2.141627160412348,
                -1.7485740809355619,
                -2.4108957240029865,
                -1.4254297126212983,
                -3.0909031241545124
            ]
        },
        {
            "positions": [
                -0.06857975677100828,
                -2.156464468480529,
                -1.6695957991936023,
                -2.4740090448491716,
                -1.2449594264890833,
                -3.0937683319771057
            ]
        },
        {
            "positions": [
                -0.08530111313612124,
                -2.1713017765487104,
                -1.5906175174516428,
                -2.537122365695357,
                -1.0644891403568681,
                -3.0966335397996985
            ]
        },
        {
            "positions": [
                -0.1020224695012342,
                -2.1861390846168915,
                -1.5116392357096835,
                -2.6002356865415424,
                -0.8840188542246532,
                -3.0994987476222917
            ]
        },
        {
            "positions": [
                -0.11874382586634716,
                -2.2009763926850727,
                -1.4326609539677242,
                -2.663349007387728,
                -0.7035485680924383,
                -3.1023639554448845
            ]
        },
        {
            "positions": [
                -0.13546518223146012,
                -2.215813700753254,
                -1.3536826722257647,
                -2.7264623282339135,
                -0.5230782819602231,
                -3.1052291632674773
            ]
        },
        {
            "positions": [
                -0.15218653859657308,
                -2.230651008821435,
                -1.2747043904838051,
                -2.7895756490800987,
                -0.34260799582800816,
                -3.1080943710900706
            ]
        },
        {
            "positions": [
                -0.16890789496168604,
                -2.2454883168896163,
                -1.1957261087418458,
                -2.8526889699262843,
                -0.1621377096957932,
                -3.1109595789126634
            ]
        }
    ]
}