{
    "goal": {
        "global_pose": {
            "orientation": {
                "w": -0.4816463035849501,
                "x": 0.5182115481033762,
                "y": 0.4908360881923453,
                "z": -0.5084816262002911
            },
            "position": {
                "x": -0.8240239810943604,
                "y": -0.300875300988555,
                "z": 0.16403168439865112
            }
        },
        "name": "move_to_storage_C"
    },
    "id": "RRTstar_move_to_storage_C_118",
    "joint_names": [
        "shoulder_pan_joint",
        "shoulder_lift_joint",
        "elbow_joint",
        "wrist_1_joint",
        "wrist_2_joint",
        "wrist_3_joint"
    ],
    "metrics": {
        "cart_traj_len": 0.576651477259115,
        "distance_elbow_joint": 0.25345648767966145,
        "distance_shoulder_lift_joint": 0.18865104279744527,
        "distance_shoulder_pan_joint": 0.49572681337594515,
        "distance_wrist_1_joint": 0.06346177107683415,
        "distance_wrist_2_joint": 1.0635614821493937,
        "distance_wrist_3_joint": 0.07370624185627461,
        "smoothness": 2.5376526478085547e-16,
        "time": 5.000883154,
        "traj_len": 1.4623829317027583,
        "weighted_distance": 1.847430533436733
    },
    "planner": "RRTstar",
    "start": {
        "state": {
            "elbow_joint": 2.010868314990456,
            "shoulder_lift_joint": -1.1634956873337592,
            "shoulder_pan_joint": -2.4736205022346125,
            "wrist_1_joint": -0.8367026794202681,
            "wrist_2_joint": 0.6746043897044499,
            "wrist_3_joint": -3.1496632123970403
        }
    },
    "waypoints": [
        {
            "positions": [
                -2.4736205022346125,
                -1.1634956873337592,
                2.010868314990456,
                -0.8367026794202681,
                0.6746043897044499,
                -3.1496632123970403
            ]
        },
        {
            "positions": [
                -2.55624163779727,
                -1.1320538468675183,
                1.9686255670438455,
                -0.8261257175741291,
                0.8518646367293489,
                -3.1373788387543278
            ]
        },
        {
            "positions": [
                -2.6388627733599277,
                -1.1006120064012774,
                1.9263828190972354,
                -0.81554875572799,
                1.029124883754248,
                -3.1250944651116153
            ]
        },
        {
            "positions": [
                -2.7214839089225853,
                -1.0691701659350366,
                1.884140071150625,
                -0.804971793881851,
                1.2063851307791467,
                -3.112810091468903
            ]
        },
        {
            "positions": [
                -2.8041050444852424,
                -1.0377283254687957,
                1.8418973232040148,
                -0.794394832035712,
                1.3836453778040458,
                -3.1005257178261907
            ]
        },
        {
            "positions": [
                -2.8867261800479,
                -1.0062864850025548,
                1.7996545752574047,
                -0.7838178701895729,
                1.5609056248289446,
                -3.088241344183478
            ]
        },
        {
            "positions": [
                -2.9693473156105576,
                -0.9748446445363139,
                1.7574118273107944,
                -0.773240908343434,
                1.7381658718538437,
                -3.0759569705407657
            ]
        }
    ]
}