{
    "goal": {
        "global_pose": {
            "orientation": {
                "w": 0.005598929693374612,
                "x": 0.007748599140229565,
                "y": 0.7110244013736278,
                "z": -0.7031023480610252
            },
            "position": {
                "x": -0.8858502320852131,
                "y": -0.7141253447532654,
                "z": 0.3711530566215515
            }
        },
        "name": "move_to_auspresseinheit_C"
    },
    "id": "RRTstar_move_to_auspresseinheit_C_136",
    "joint_names": [
        "shoulder_pan_joint",
        "shoulder_lift_joint",
        "elbow_joint",
        "wrist_1_joint",
        "wrist_2_joint",
        "wrist_3_joint"
    ],
    "metrics": {
        "cart_traj_len": 0.49302720837638386,
        "distance_elbow_joint": 0.9886055643045525,
        "distance_shoulder_lift_joint": 0.31887259472840457,
        "distance_shoulder_pan_joint": 0.2568120907504934,
        "distance_wrist_1_joint": 0.6546753243054515,
        "distance_wrist_2_joint": 1.3025805999522815,
        "distance_wrist_3_joint": 0.04714133845084012,
        "smoothness": 6.459479416000911e-16,
        "time": 5.061528175,
        "traj_len": 1.889097009815013,
        "weighted_distance": 2.370701607889832
    },
    "planner": "RRTstar",
    "start": {
        "state": {
            "elbow_joint": 1.7527959577737207,
            "shoulder_lift_joint": -0.9740617694225068,
            "shoulder_pan_joint": -2.967991417825858,
            "wrist_1_joint": -0.759517768980727,
            "wrist_2_joint": 1.7443932448377408,
            "wrist_3_joint": -3.0840537646736568
        }
    },
    "waypoints": [
        {
            "positions": [
                -2.967991417825858,
                -0.9740617694225068,
                1.7527959577737207,
                -0.759517768980727,
                1.7443932448377408,
                -3.0840537646736568
            ]
        },
        {
            "positions": [
                -2.9423102087508086,
                -0.9421745099496663,
                1.6539354013432654,
                -0.6940502365501818,
                1.6141351848425127,
                -3.088767898518741
            ]
        },
        {
            "positions": [
                -2.9166289996757593,
                -0.9102872504768259,
                1.5550748449128102,
                -0.6285827041196367,
                1.4838771248472846,
                -3.093482032363825
            ]
        },
        {
            "positions": [
                -2.89094779060071,
                -0.8783999910039854,
                1.456214288482355,
                -0.5631151716890915,
                1.3536190648520563,
                -3.0981961662089086
            ]
        },
        {
            "positions": [
                -2.8652665815256606,
                -0.8465127315311449,
                1.3573537320518996,
                -0.4976476392585464,
                1.2233610048568282,
                -3.102910300053993
            ]
        },
        {
            "positions": [
                -2.8395853724506113,
                -0.8146254720583045,
                1.2584931756214444,
                -0.43218010682800123,
                1.0931029448616,
                -3.107624433899077
            ]
        },
        {
            "positions": [
                -2.813904163375562,
                -0.782738212585464,
                1.1596326191909891,
                -0.3667125743974561,
                0.962844884866372,
                -3.112338567744161
            ]
        },
        {
            "positions": [
                -2.7882229543005126,
                -0.7508509531126236,
                1.060772062760534,
                -0.301245041966911,
                0.8325868248711439,
                -3.1170527015892446
            ]
        },
        {
            "positions": [
                -2.7625417452254633,
                -0.7189636936397832,
                0.9619115063300786,
                -0.23577750953636578,
                0.7023287648759156,
                -3.121766835434329
            ]
        },
        {
            "positions": [
                -2.736860536150414,
                -0.6870764341669426,
                0.8630509498996234,
                -0.17030997710582063,
                0.5720707048806875,
                -3.126480969279413
            ]
        },
        {
            "positions": [
                -2.7111793270753646,
                -0.6551891746941022,
                0.7641903934691682,
                -0.10484244467527544,
                0.44181264488545924,
                -3.131195103124497
            ]
        }
    ]
}