{
    "goal": {
        "global_pose": {
            "orientation": {
                "w": 0.005598929693374612,
                "x": 0.007748599140229565,
                "y": 0.7110244013736278,
                "z": -0.7031023480610252
            },
            "position": {
                "x": -0.8858502320852131,
                "y": -0.7141253447532654,
                "z": 0.3711530566215515
            }
        },
        "name": "move_to_auspresseinheit_C"
    },
    "id": "RRTstar_move_to_auspresseinheit_C_84",
    "joint_names": [
        "shoulder_pan_joint",
        "shoulder_lift_joint",
        "elbow_joint",
        "wrist_1_joint",
        "wrist_2_joint",
        "wrist_3_joint"
    ],
    "metrics": {
        "cart_traj_len": 0.4920976667091338,
        "distance_elbow_joint": 0.9898677025451071,
        "distance_shoulder_lift_joint": 0.32018147414865994,
        "distance_shoulder_pan_joint": 0.25602114786752495,
        "distance_wrist_1_joint": 0.6593930915408172,
        "distance_wrist_2_joint": 1.315469182253528,
        "distance_wrist_3_joint": 0.036808217021946366,
        "smoothness": 1.6148698667872622e-16,
        "time": 5.004899928,
        "traj_len": 1.8914916905388677,
        "weighted_distance": 2.371965329260911
    },
    "planner": "RRTstar",
    "start": {
        "state": {
            "elbow_joint": 1.7527959577737207,
            "shoulder_lift_joint": -0.9740617694225068,
            "shoulder_pan_joint": -2.967991417825858,
            "wrist_1_joint": -0.759517768980727,
            "wrist_2_joint": 1.7443932448377408,
            "wrist_3_joint": -3.0840537646736568
        }
    },
    "waypoints": [
        {
            "positions": [
                -2.967991417825858,
                -0.9740617694225068,
                1.7527959577737207,
                -0.759517768980727,
                1.7443932448377408,
                -3.0840537646736568
            ]
        },
        {
            "positions": [
                -2.9423893030391053,
                -0.9420436220076408,
                1.65380918751921,
                -0.6935784598266452,
                1.612846326612388,
                -3.087734586375851
            ]
        },
        {
            "positions": [
                -2.916787188252353,
                -0.9100254745927748,
                1.5548224172646992,
                -0.6276391506725636,
                1.4812994083870352,
                -3.091415408078046
            ]
        },
        {
            "positions": [
                -2.8911850734656004,
                -0.8780073271779087,
                1.4558356470101885,
                -0.5616998415184818,
                1.3497524901616824,
                -3.095096229780241
            ]
        },
        {
            "positions": [
                -2.865582958678848,
                -0.8459891797630428,
                1.3568488767556777,
                -0.4957605323644001,
                1.2182055719363296,
                -3.0987770514824353
            ]
        },
        {
            "positions": [
                -2.8399808438920955,
                -0.8139710323481768,
                1.257862106501167,
                -0.4298212232103184,
                1.0866586537109768,
                -3.1024578731846297
            ]
        },
        {
            "positions": [
                -2.814378729105343,
                -0.7819528849333108,
                1.1588753362466564,
                -0.3638819140562367,
                0.955111735485624,
                -3.1061386948868246
            ]
        },
        {
            "positions": [
                -2.7887766143185906,
                -0.7499347375184449,
                1.0598885659921455,
                -0.297942604902155,
                0.8235648172602713,
                -3.1098195165890195
            ]
        },
        {
            "positions": [
                -2.763174499531838,
                -0.7179165901035789,
                0.9609017957376349,
                -0.2320032957480732,
                0.6920178990349184,
                -3.113500338291214
            ]
        },
        {
            "positions": [
                -2.7375723847450857,
                -0.6858984426887128,
                0.8619150254831243,
                -0.16606398659399157,
                0.5604709808095656,
                -3.1171811599934083
            ]
        },
        {
            "positions": [
                -2.711970269958333,
                -0.6538802952738468,
                0.7629282552286135,
                -0.10012467743990985,
                0.42892406258421284,
                -3.120861981695603
            ]
        }
    ]
}