{
    "goal": {
        "global_pose": {
            "orientation": {
                "w": 0.5084816262002911,
                "x": -0.4908360881923452,
                "y": 0.5182115481033761,
                "z": -0.48164630358495003
            },
            "position": {
                "x": 0.5540239810943604,
                "y": -0.46912469901144505,
                "z": 0.16403168439865112
            }
        },
        "name": "move_to_storage_B"
    },
    "id": "RRTstar_move_to_storage_B_42",
    "joint_names": [
        "shoulder_pan_joint",
        "shoulder_lift_joint",
        "elbow_joint",
        "wrist_1_joint",
        "wrist_2_joint",
        "wrist_3_joint"
    ],
    "metrics": {
        "cart_traj_len": 0.8764041465895348,
        "distance_elbow_joint": 0.48703349434256227,
        "distance_shoulder_lift_joint": 0.459362297984762,
        "distance_shoulder_pan_joint": 0.4685630115446223,
        "distance_wrist_1_joint": 2.980886051011438,
        "distance_wrist_2_joint": 2.7007297289303542,
        "distance_wrist_3_joint": 3.214285175910506,
        "smoothness": 0.09803283868195693,
        "time": 5.055337528,
        "traj_len": 3.2110527494459267,
        "weighted_distance": 4.735086682573725
    },
    "planner": "RRTstar",
    "start": {
        "state": {
            "elbow_joint": 1.664937868594044,
            "shoulder_lift_joint": -0.661644460510453,
            "shoulder_pan_joint": -0.9139846352900073,
            "wrist_1_joint": 2.146753192139373,
            "wrist_2_joint": -2.2341966793290973,
            "wrist_3_joint": 0.005466555786416001
        }
    },
    "waypoints": [
        {
            "positions": [
                -0.9139846352900073,
                -0.661644460510453,
                1.664937868594044,
                2.146753192139373,
                -2.2341966793290973,
                0.005466555786416001
            ]
        },
        {
            "positions": [
                -0.885324769050432,
                -0.6752326827141413,
                1.6950033065103145,
                2.0918086169015666,
                -2.149903663543959,
                0.16761297056892538
            ]
        },
        {
            "positions": [
                -0.8566649028108567,
                -0.6888209049178295,
                1.725068744426585,
                2.0368640416637596,
                -2.0656106477588208,
                0.3297593853514348
            ]
        },
        {
            "positions": [
                -0.8280050365712815,
                -0.7024091271215178,
                1.755134182342856,
                1.9819194664259527,
                -1.9813176319736823,
                0.49190580013394414
            ]
        },
        {
            "positions": [
                -0.7993451703317063,
                -0.7159973493252061,
                1.7851996202591265,
                1.926974891188146,
                -1.8970246161885438,
                0.6540522149164535
            ]
        },
        {
            "positions": [
                -0.770685304092131,
                -0.7295855715288944,
                1.815265058175397,
                1.872030315950339,
                -1.8127316004034055,
                0.8161986296989628
            ]
        },
        {
            "positions": [
                -0.7771385295392593,
                -0.747595562590739,
                1.8293774172110355,
                1.7558249331334184,
                -1.7067573324579763,
                0.9408620905338928
            ]
        },
        {
            "positions": [
                -0.7835917549863876,
                -0.7656055536525836,
                1.843489776246674,
                1.6396195503164976,
                -1.6007830645125474,
                1.0655255513688227
            ]
        },
        {
            "positions": [
                -0.7900449804335159,
                -0.7836155447144283,
                1.8576021352823127,
                1.523414167499577,
                -1.4948087965671182,
                1.1901890122037528
            ]
        },
        {
            "positions": [
                -0.7964982058806442,
                -0.8016255357762729,
                1.8717144943179511,
                1.4072087846826562,
                -1.388834528621689,
                1.3148524730386826
            ]
        },
        {
            "positions": [
                -0.8029514313277725,
                -0.8196355268381176,
                1.8858268533535896,
                1.2910034018657353,
                -1.28286026067626,
                1.4395159338736128
            ]
        },
        {
            "positions": [
                -0.8094046567749008,
                -0.8376455178999622,
                1.899939212389228,
                1.1747980190488145,
                -1.1768859927308308,
                1.5641793947085425
            ]
        },
        {
            "positions": [
                -0.815857882222029,
                -0.8556555089618069,
                1.9140515714248665,
                1.0585926362318938,
                -1.0709117247854016,
                1.6888428555434727
            ]
        },
        {
            "positions": [
                -0.8223111076691574,
                -0.8736655000236515,
                1.9281639304605052,
                0.9423872534149732,
                -0.9649374568399726,
                1.8135063163784024
            ]
        },
        {
            "positions": [
                -0.8287643331162857,
                -0.8916754910854963,
                1.9422762894961436,
                0.8261818705980524,
                -0.8589631888945435,
                1.9381697772133326
            ]
        },
        {
            "positions": [
                -0.835217558563414,
                -0.9096854821473408,
                1.956388648531782,
                0.7099764877811316,
                -0.7529889209491143,
                2.0628332380482624
            ]
        },
        {
            "positions": [
                -0.8416707840105423,
                -0.9276954732091856,
                1.9705010075674205,
                0.5937711049642109,
                -0.6470146530036851,
                2.1874966988831925
            ]
        },
        {
            "positions": [
                -0.8481240094576705,
                -0.9457054642710301,
                1.984613366603059,
                0.4775657221472902,
                -0.5410403850582561,
                2.3121601597181223
            ]
        },
        {
            "positions": [
                -0.8545772349047989,
                -0.9637154553328748,
                1.9987257256386977,
                0.36136033933036926,
                -0.43506611711282694,
                2.4368236205530525
            ]
        },
        {
            "positions": [
                -0.8610304603519272,
                -0.9817254463947194,
                2.012838084674336,
                0.24515495651344876,
                -0.329091849167398,
                2.561487081387982
            ]
        },
        {
            "positions": [
                -0.8674836857990555,
                -0.9997354374565641,
                2.026950443709975,
                0.12894957369652782,
                -0.22311758122196879,
                2.6861505422229124
            ]
        },
        {
            "positions": [
                -0.8739369112461838,
                -1.0177454285184087,
                2.0410628027456132,
                0.01274419087960732,
                -0.1171433132765396,
                2.810814003057842
            ]
        },
        {
            "positions": [
                -0.8803901366933121,
                -1.0357554195802534,
                2.0551751617812517,
                -0.10346119193731362,
                -0.011169045331110405,
                2.9354774638927723
            ]
        },
        {
            "positions": [
                -0.8868433621404403,
                -1.053765410642098,
                2.06928752081689,
                -0.21966657475423434,
                0.09480522261431856,
                3.060140924727702
            ]
        },
        {
            "positions": [
                -0.8932965875875687,
                -1.0717754017039427,
                2.0833998798525286,
                -0.33587195757115523,
                0.2007794905597477,
                3.1848043855626322
            ]
        },
        {
            "positions": [
                -0.9608473865380048,
                -1.0881858539677,
                2.060542718824503,
                -0.5019589246714584,
                0.2893640102402506,
                3.1731552701845356
            ]
        },
        {
            "positions": [
                -1.028398185488441,
                -1.1045963062314577,
                2.0376855577964768,
                -0.6680458917717617,
                0.37794852992075345,
                3.161506154806439
            ]
        },
        {
            "positions": [
                -1.095948984438877,
                -1.121006758495215,
                2.014828396768451,
                -0.8341328588720649,
                0.46653304960125636,
                3.1498570394283423
            ]
        }
    ]
}