{
    "goal": {
        "global_pose": {
            "orientation": {
                "w": 0.7047431493862688,
                "x": -0.7094548369677653,
                "y": 0.0024358444001904,
                "z": -0.0022348060817251984
            },
            "position": {
                "x": -0.39052492380142206,
                "y": 0.3671506643295288,
                "z": 0.19426114857196808
            }
        },
        "name": "move_to_magneteinheit_D"
    },
    "id": "RRTstar_move_to_magneteinheit_D_90",
    "joint_names": [
        "shoulder_pan_joint",
        "shoulder_lift_joint",
        "elbow_joint",
        "wrist_1_joint",
        "wrist_2_joint",
        "wrist_3_joint"
    ],
    "metrics": {
        "cart_traj_len": 3.8332147446184583,
        "distance_elbow_joint": 3.1466507520101814,
        "distance_shoulder_lift_joint": 1.6268389292250987,
        "distance_shoulder_pan_joint": 3.236658846760959,
        "distance_wrist_1_joint": 1.5124954552937226,
        "distance_wrist_2_joint": 1.9287178088603447,
        "distance_wrist_3_joint": 3.2349165383254963,
        "smoothness": 0.5457360851282113,
        "time": 5.046108517,
        "traj_len": 3.8322680400091795,
        "weighted_distance": 4.9595690005564865
    },
    "planner": "RRTstar",
    "start": {
        "state": {
            "elbow_joint": 0.749534889911806,
            "shoulder_lift_joint": -0.6476975780787326,
            "shoulder_pan_joint": -2.711696901376241,
            "wrist_1_joint": -0.07506478083263063,
            "wrist_2_joint": 0.43296659715538205,
            "wrist_3_joint": -3.14703540197715
        }
    },
    "waypoints": [
        {
            "positions": [
                -2.711696901376241,
                -0.6476975780787326,
                0.749534889911806,
                -0.07506478083263063,
                0.43296659715538205,
                -3.14703540197715
            ]
        },
        {
            "positions": [
                -2.717941777199517,
                -0.6548601676886968,
                0.662640549254947,
                -0.06180578179602548,
                0.40548644150831537,
                -3.1095716457797495
            ]
        },
        {
            "positions": [
                -2.7840282987907976,
                -0.6720035070591053,
                0.5767466003174357,
                0.0035887546357338193,
                0.444558861630708,
                -3.0291206199142815
            ]
        },
        {
            "positions": [
                -2.8501148203820788,
                -0.6891468464295136,
                0.4908526513799246,
                0.06898329106749312,
                0.4836312817531006,
                -2.948669594048813
            ]
        },
        {
            "positions": [
                -2.7602018822883725,
                -0.7225927341526789,
                0.3872523775220257,
                0.10159091079726287,
                0.4440544135401909,
                -2.8528931038015344
            ]
        },
        {
            "positions": [
                -2.670288944194666,
                -0.7560386218758441,
                0.28365210366412674,
                0.13419853052703262,
                0.40447754532728114,
                -2.757116613554256
            ]
        },
        {
            "positions": [
                -2.5803760061009595,
                -0.7894845095990094,
                0.18005182980622775,
                0.16680615025680234,
                0.3649006771143714,
                -2.661340123306978
            ]
        },
        {
            "positions": [
                -2.490463068007253,
                -0.8229303973221747,
                0.07645155594832881,
                0.1994137699865721,
                0.3253238089014617,
                -2.5655636330596994
            ]
        },
        {
            "positions": [
                -2.4005501299135465,
                -0.8563762850453398,
                -0.027148717909570186,
                0.23202138971634184,
                0.28574694068855194,
                -2.4697871428124207
            ]
        },
        {
            "positions": [
                -2.31063719181984,
                -0.8898221727685051,
                -0.13074899176746912,
                0.26462900944611156,
                0.2461700724756422,
                -2.3740106525651425
            ]
        },
        {
            "positions": [
                -2.2207242537261336,
                -0.9232680604916703,
                -0.23434926562536806,
                0.29723662917588134,
                0.20659320426273248,
                -2.2782341623178644
            ]
        },
        {
            "positions": [
                -2.130811315632427,
                -0.9567139482148356,
                -0.337949539483267,
                0.32984424890565106,
                0.16701633604982274,
                -2.1824576720705857
            ]
        },
        {
            "positions": [
                -2.0408983775387206,
                -0.9901598359380008,
                -0.44154981334116605,
                0.3624518686354208,
                0.127439467836913,
                -2.086681181823307
            ]
        },
        {
            "positions": [
                -1.950985439445014,
                -1.023605723661166,
                -0.545150087199065,
                0.39505948836519056,
                0.08786259962400328,
                -1.990904691576029
            ]
        },
        {
            "positions": [
                -1.8610725013513076,
                -1.0570516113843313,
                -0.6487503610569639,
                0.4276671080949603,
                0.048285731411093546,
                -1.8951282013287505
            ]
        },
        {
            "positions": [
                -1.7711595632576012,
                -1.0904974991074965,
                -0.7523506349148629,
                0.46027472782473,
                0.008708863198183814,
                -1.799351711081472
            ]
        },
        {
            "positions": [
                -1.6812466251638947,
                -1.1239433868306619,
                -0.8559509087727618,
                0.4928823475544998,
                -0.03086800501472592,
                -1.7035752208341937
            ]
        },
        {
            "positions": [
                -1.5913336870701882,
                -1.157389274553827,
                -0.9595511826306607,
                0.5254899672842694,
                -0.07044487322763565,
                -1.6077987305869152
            ]
        },
        {
            "positions": [
                -1.5014207489764815,
                -1.1908351622769924,
                -1.0631514564885598,
                0.5580975870140393,
                -0.1100217414405455,
                -1.5120222403396366
            ]
        },
        {
            "positions": [
                -1.4115078108827752,
                -1.2242810500001575,
                -1.1667517303464585,
                0.590705206743809,
                -0.14959860965345512,
                -1.4162457500923584
            ]
        },
        {
            "positions": [
                -1.3215948727890685,
                -1.257726937723323,
                -1.2703520042043577,
                0.6233128264735788,
                -0.18917547786636496,
                -1.3204692598450798
            ]
        },
        {
            "positions": [
                -1.2316819346953622,
                -1.291172825446488,
                -1.3739522780622568,
                0.6559204462033484,
                -0.22875234607927458,
                -1.2246927695978016
            ]
        },
        {
            "positions": [
                -1.1417689966016558,
                -1.3246187131696532,
                -1.4775525519201556,
                0.6885280659331183,
                -0.2683292142921844,
                -1.128916279350523
            ]
        },
        {
            "positions": [
                -1.0518560585079493,
                -1.3580646008928183,
                -1.5811528257780547,
                0.721135685662888,
                -0.30790608250509405,
                -1.0331397891032448
            ]
        },
        {
            "positions": [
                -0.9619431204142428,
                -1.391510488615984,
                -1.6847530996359539,
                0.7537433053926578,
                -0.3474829507180039,
                -0.9373632988559661
            ]
        },
        {
            "positions": [
                -0.8720301823205363,
                -1.424956376339149,
                -1.7883533734938526,
                0.7863509251224274,
                -0.3870598189309135,
                -0.841586808608688
            ]
        },
        {
            "positions": [
                -0.7821172442268298,
                -1.4584022640623142,
                -1.8919536473517518,
                0.8189585448521972,
                -0.42663668714382336,
                -0.7458103183614093
            ]
        },
        {
            "positions": [
                -0.6922043061331236,
                -1.4918481517854794,
                -1.9955539212096505,
                0.8515661645819669,
                -0.466213555356733,
                -0.6500338281141311
            ]
        },
        {
            "positions": [
                -0.6022913680394169,
                -1.5252940395086447,
                -2.0991541950675496,
                0.8841737843117368,
                -0.5057904235696429,
                -0.5542573378668525
            ]
        },
        {
            "positions": [
                -0.5123784299457106,
                -1.55873992723181,
                -2.2027544689254484,
                0.9167814040415064,
                -0.5453672917825525,
                -0.4584808476195743
            ]
        },
        {
            "positions": [
                -0.4224654918520041,
                -1.5921858149549752,
                -2.3063547427833475,
                0.9493890237712762,
                -0.5849441599954622,
                -0.3627043573722956
            ]
        },
        {
            "positions": [
                -0.33155373170035063,
                -1.6651376247455758,
                -2.3134381760115033,
                1.0033825401172887,
                -0.5278796078412467,
                -0.28538523493167117
            ]
        },
        {
            "positions": [
                -0.2406419715486971,
                -1.7380894345361764,
                -2.320521609239659,
                1.0573760564633012,
                -0.470815055687031,
                -0.2080661124910467
            ]
        },
        {
            "positions": [
                -0.14973021139704362,
                -1.811041244326777,
                -2.3276050424678143,
                1.1113695728093138,
                -0.4137505035328154,
                -0.13074699005042226
            ]
        },
        {
            "positions": [
                -0.05881845124539009,
                -1.8839930541173775,
                -2.33468847569597,
                1.1653630891553262,
                -0.3566859513785998,
                -0.053427867609797786
            ]
        },
        {
            "positions": [
                0.03209330890626341,
                -1.956944863907978,
                -2.341771908924126,
                1.2193566055013387,
                -0.2996213992243842,
                0.02389125483082668
            ]
        },
        {
            "positions": [
                -0.0219148907104314,
                -2.0363427747569416,
                -2.355607897217688,
                1.273875122741277,
                -0.1823227466121713,
                0.039888725210206394
            ]
        },
        {
            "positions": [
                -0.07592309032712621,
                -2.1157406856059047,
                -2.3694438855112505,
                1.3283936399812153,
                -0.06502409399995837,
                0.05588619558958611
            ]
        },
        {
            "positions": [
                -0.12993128994382103,
                -2.1951385964548678,
                -2.3832798738048133,
                1.3829121572211538,
                0.05227455861225455,
                0.07188366596896582
            ]
        },
        {
            "positions": [
                -0.18393948956051584,
                -2.2745365073038313,
                -2.3971158620983757,
                1.437430674461092,
                0.16957321122446745,
                0.08788113634834555
            ]
        }
    ]
}