{
    "goal": {
        "global_pose": {
            "orientation": {
                "w": 0.005598929693374612,
                "x": 0.007748599140229565,
                "y": 0.7110244013736278,
                "z": -0.7031023480610252
            },
            "position": {
                "x": 0.1141497679147869,
                "y": -0.7141253447532654,
                "z": 0.3711530566215515
            }
        },
        "name": "move_to_auspresseinheit_B"
    },
    "id": "RRTstar_move_to_auspresseinheit_B_74",
    "joint_names": [
        "shoulder_pan_joint",
        "shoulder_lift_joint",
        "elbow_joint",
        "wrist_1_joint",
        "wrist_2_joint",
        "wrist_3_joint"
    ],
    "metrics": {
        "cart_traj_len": 0.5643047607276258,
        "distance_elbow_joint": 0.0606335193494536,
        "distance_shoulder_lift_joint": 0.2949328932194033,
        "distance_shoulder_pan_joint": 0.5762332664789522,
        "distance_wrist_1_joint": 0.3217404485522204,
        "distance_wrist_2_joint": 0.9981728891640935,
        "distance_wrist_3_joint": 0.0007730711540405721,
        "smoothness": 2.5376526478085547e-16,
        "time": 5.009929531,
        "traj_len": 1.5008284671867613,
        "weighted_distance": 1.8904881824392765
    },
    "planner": "RRTstar",
    "start": {
        "state": {
            "elbow_joint": 2.0193083361928714,
            "shoulder_lift_joint": -1.1220246554650708,
            "shoulder_pan_joint": -1.0952077554168747,
            "wrist_1_joint": -0.8559753972642168,
            "wrist_2_joint": 0.4759566250798843,
            "wrist_3_joint": -3.1240929996934557
        }
    },
    "waypoints": [
        {
            "positions": [
                -1.0952077554168747,
                -1.1220246554650708,
                2.0193083361928714,
                -0.8559753972642168,
                0.4759566250798843,
                -3.1240929996934557
            ]
        },
        {
            "positions": [
                -1.1912466331633667,
                -1.1711801376683046,
                2.009202749634629,
                -0.8023519891721801,
                0.6423187732738999,
                -3.1239641545011154
            ]
        },
        {
            "positions": [
                -1.2872855109098587,
                -1.2203356198715385,
                1.999097163076387,
                -0.7487285810801433,
                0.8086809214679154,
                -3.1238353093087756
            ]
        },
        {
            "positions": [
                -1.3833243886563507,
                -1.2694911020747726,
                1.9889915765181447,
                -0.6951051729881066,
                0.975043069661931,
                -3.1237064641164354
            ]
        },
        {
            "positions": [
                -1.4793632664028427,
                -1.3186465842780064,
                1.9788859899599023,
                -0.6414817648960699,
                1.1414052178559466,
                -3.123577618924095
            ]
        },
        {
            "positions": [
                -1.5754021441493349,
                -1.3678020664812403,
                1.96878040340166,
                -0.5878583568040331,
                1.3077673660499622,
                -3.1234487737317553
            ]
        },
        {
            "positions": [
                -1.6714410218958269,
                -1.416957548684474,
                1.9586748168434178,
                -0.5342349487119964,
                1.4741295142439779,
                -3.123319928539415
            ]
        }
    ]
}