{
    "goal": {
        "global_pose": {
            "orientation": {
                "w": -0.4816463035849501,
                "x": 0.5182115481033762,
                "y": 0.4908360881923453,
                "z": -0.5084816262002911
            },
            "position": {
                "x": -0.8240239810943604,
                "y": 0.19912469901144506,
                "z": 0.16403168439865112
            }
        },
        "name": "move_to_storage_D"
    },
    "id": "RRTstar_move_to_storage_D_94",
    "joint_names": [
        "shoulder_pan_joint",
        "shoulder_lift_joint",
        "elbow_joint",
        "wrist_1_joint",
        "wrist_2_joint",
        "wrist_3_joint"
    ],
    "metrics": {
        "cart_traj_len": 0.827530079970208,
        "distance_elbow_joint": 0.5533401009151895,
        "distance_shoulder_lift_joint": 0.8508722259514787,
        "distance_shoulder_pan_joint": 0.5611950933483526,
        "distance_wrist_1_joint": 3.8213041926456044,
        "distance_wrist_2_joint": 1.7800536557397648,
        "distance_wrist_3_joint": 3.1494777853138065,
        "smoothness": 0.07279897860906231,
        "time": 5.021458141,
        "traj_len": 3.273567328452891,
        "weighted_distance": 4.755686750925378
    },
    "planner": "RRTstar",
    "start": {
        "state": {
            "elbow_joint": -2.384821988534728,
            "shoulder_lift_joint": -2.2788054721415256,
            "shoulder_pan_joint": -0.1854694642142757,
            "wrist_1_joint": 1.4845938289331202,
            "wrist_2_joint": 0.17898776772866878,
            "wrist_3_joint": 0.037105688729662994
        }
    },
    "waypoints": [
        {
            "positions": [
                -0.1854694642142757,
                -2.2788054721415256,
                -2.384821988534728,
                1.4845938289331202,
                0.17898776772866878,
                0.037105688729662994
            ]
        },
        {
            "positions": [
                -0.12608413392943504,
                -2.1951136839135392,
                -2.379845123592638,
                1.3586399043753825,
                0.08273266882076888,
                0.05779538010384983
            ]
        },
        {
            "positions": [
                -0.06669880364459438,
                -2.1114218956855533,
                -2.3748682586505474,
                1.2326859798176448,
                -0.013522430087131027,
                0.07848507147803667
            ]
        },
        {
            "positions": [
                -0.007313473359753714,
                -2.027730107457567,
                -2.369891393708457,
                1.1067320552599071,
                -0.10977752899503093,
                0.09917476285222351
            ]
        },
        {
            "positions": [
                0.05207185692508695,
                -1.9440383192295805,
                -2.364914528766367,
                0.9807781307021696,
                -0.20603262790293084,
                0.11986445422641034
            ]
        },
        {
            "positions": [
                0.11145718720992762,
                -1.860346531001594,
                -2.359937663824277,
                0.8548242061444319,
                -0.3022877268108307,
                0.1405541456005972
            ]
        },
        {
            "positions": [
                0.17084251749476828,
                -1.776654742773608,
                -2.3549607988821863,
                0.7288702815866942,
                -0.3985428257187306,
                0.16124383697478403
            ]
        },
        {
            "positions": [
                0.16152964878389062,
                -1.7925057198910426,
                -2.3311663029157024,
                0.5895257068003679,
                -0.45320296491383816,
                0.29875927502336064
            ]
        },
        {
            "positions": [
                0.15221678007301293,
                -1.808356697008477,
                -2.3073718069492184,
                0.4501811320140416,
                -0.5078631041089456,
                0.4362747130719373
            ]
        },
        {
            "positions": [
                0.14290391136213526,
                -1.8242076741259117,
                -2.2835773109827344,
                0.3108365572277153,
                -0.5625232433040531,
                0.5737901511205139
            ]
        },
        {
            "positions": [
                0.13359104265125757,
                -1.8400586512433463,
                -2.2597828150162504,
                0.17149198244138897,
                -0.6171833824991607,
                0.7113055891690906
            ]
        },
        {
            "positions": [
                0.1242781739403799,
                -1.8559096283607808,
                -2.2359883190497665,
                0.03214740765506274,
                -0.6718435216942682,
                0.8488210272176672
            ]
        },
        {
            "positions": [
                0.11496530522950223,
                -1.8717606054782154,
                -2.2121938230832825,
                -0.1071971671312636,
                -0.7265036608893757,
                0.9863364652662437
            ]
        },
        {
            "positions": [
                0.10565243651862455,
                -1.88761158259565,
                -2.1883993271167985,
                -0.24654174191758993,
                -0.7811638000844832,
                1.1238519033148202
            ]
        },
        {
            "positions": [
                0.09633956780774687,
                -1.9034625597130845,
                -2.1646048311503145,
                -0.38588631670391627,
                -0.8358239392795908,
                1.261367341363397
            ]
        },
        {
            "positions": [
                0.08702669909686918,
                -1.9193135368305192,
                -2.1408103351838306,
                -0.5252308914902427,
                -0.8904840784746982,
                1.3988827794119736
            ]
        },
        {
            "positions": [
                0.07771383038599151,
                -1.9351645139479539,
                -2.1170158392173466,
                -0.6645754662765687,
                -0.9451442176698057,
                1.5363982174605502
            ]
        },
        {
            "positions": [
                0.06840096167511384,
                -1.9510154910653883,
                -2.093221343250862,
                -0.8039200410628952,
                -0.9998043568649133,
                1.6739136555091267
            ]
        },
        {
            "positions": [
                0.05908809296423617,
                -1.966866468182823,
                -2.0694268472843786,
                -0.9432646158492214,
                -1.0544644960600207,
                1.8114290935577033
            ]
        },
        {
            "positions": [
                0.04977522425335848,
                -1.9827174453002576,
                -2.0456323513178942,
                -1.082609190635548,
                -1.1091246352551283,
                1.9489445316062801
            ]
        },
        {
            "positions": [
                0.040462355542480816,
                -1.998568422417692,
                -2.0218378553514103,
                -1.221953765421874,
                -1.1637847744502359,
                2.0864599696548565
            ]
        },
        {
            "positions": [
                0.03114948683160315,
                -2.014419399535127,
                -1.9980433593849265,
                -1.3612983402082004,
                -1.2184449136453432,
                2.223975407703433
            ]
        },
        {
            "positions": [
                0.02183661812072546,
                -2.0302703766525614,
                -1.9742488634184423,
                -1.5006429149945268,
                -1.2731050528404508,
                2.36149084575201
            ]
        },
        {
            "positions": [
                0.012523749409847768,
                -2.046121353769996,
                -1.9504543674519583,
                -1.6399874897808528,
                -1.3277651920355582,
                2.499006283800586
            ]
        },
        {
            "positions": [
                0.0032108806989700756,
                -2.0619723308874307,
                -1.9266598714854744,
                -1.7793320645671797,
                -1.3824253312306658,
                2.6365217218491632
            ]
        },
        {
            "positions": [
                -0.006101988011907589,
                -2.077823308004865,
                -1.9028653755189904,
                -1.9186766393535057,
                -1.4370854704257734,
                2.77403715989774
            ]
        },
        {
            "positions": [
                -0.015414856722785253,
                -2.0936742851222996,
                -1.8790708795525064,
                -2.0580212141398317,
                -1.491745609620881,
                2.9115525979463164
            ]
        },
        {
            "positions": [
                -0.024727725433662945,
                -2.1095252622397345,
                -1.8552763835860224,
                -2.1973657889261586,
                -1.5464057488159886,
                3.049068035994893
            ]
        },
        {
            "positions": [
                -0.034040594144540595,
                -2.125376239357169,
                -1.8314818876195385,
                -2.3367103637124846,
                -1.601065888011096,
                3.1865834740434695
            ]
        }
    ]
}