{
    "goal": {
        "global_pose": {
            "orientation": {
                "w": 0.005598929693374612,
                "x": 0.007748599140229565,
                "y": 0.7110244013736278,
                "z": -0.7031023480610252
            },
            "position": {
                "x": 0.1141497679147869,
                "y": -0.7141253447532654,
                "z": 0.3711530566215515
            }
        },
        "name": "move_to_auspresseinheit_B"
    },
    "id": "RRTstar_move_to_auspresseinheit_B_58",
    "joint_names": [
        "shoulder_pan_joint",
        "shoulder_lift_joint",
        "elbow_joint",
        "wrist_1_joint",
        "wrist_2_joint",
        "wrist_3_joint"
    ],
    "metrics": {
        "cart_traj_len": 0.5654143543024321,
        "distance_elbow_joint": 0.061929156441701716,
        "distance_shoulder_lift_joint": 0.2948247858523416,
        "distance_shoulder_pan_joint": 0.5789251310831638,
        "distance_wrist_1_joint": 0.3217867928992344,
        "distance_wrist_2_joint": 0.9869824609359752,
        "distance_wrist_3_joint": 0.002577611620208309,
        "smoothness": 2.5376526478085547e-16,
        "time": 5.005944416,
        "traj_len": 1.4990083184667873,
        "weighted_distance": 1.8870480693157372
    },
    "planner": "RRTstar",
    "start": {
        "state": {
            "elbow_joint": 2.0193083361928714,
            "shoulder_lift_joint": -1.1220246554650708,
            "shoulder_pan_joint": -1.0952077554168747,
            "wrist_1_joint": -0.8559753972642168,
            "wrist_2_joint": 0.4759566250798843,
            "wrist_3_joint": -3.1240929996934557
        }
    },
    "waypoints": [
        {
            "positions": [
                -1.0952077554168747,
                -1.1220246554650708,
                2.0193083361928714,
                -0.8559753972642168,
                0.4759566250798843,
                -3.1240929996934557
            ]
        },
        {
            "positions": [
                -1.1916952772640685,
                -1.1711621197737945,
                2.0089868101192545,
                -0.8023442651143444,
                0.6404537019025468,
                -3.1236633977567543
            ]
        },
        {
            "positions": [
                -1.2881827991112627,
                -1.220299584082518,
                1.9986652840456376,
                -0.748713132964472,
                0.8049507787252093,
                -3.123233795820053
            ]
        },
        {
            "positions": [
                -1.3846703209584565,
                -1.2694370483912416,
                1.9883437579720207,
                -0.6950820008145996,
                0.9694478555478718,
                -3.1228041938833515
            ]
        },
        {
            "positions": [
                -1.4811578428056504,
                -1.3185745126999653,
                1.9780222318984035,
                -0.6414508686647272,
                1.1339449323705344,
                -3.12237459194665
            ]
        },
        {
            "positions": [
                -1.5776453646528446,
                -1.3677119770086887,
                1.9677007058247866,
                -0.5878197365148548,
                1.298442009193197,
                -3.1219449900099487
            ]
        },
        {
            "positions": [
                -1.6741328865000384,
                -1.4168494413174124,
                1.9573791797511697,
                -0.5341886043649824,
                1.4629390860158595,
                -3.1215153880732474
            ]
        }
    ]
}