{
    "goal": {
        "global_pose": {
            "orientation": {
                "w": 0.7047431468963623,
                "x": -0.7094548344612122,
                "y": 0.0024358443915843964,
                "z": -0.0022348060738295317
            },
            "position": {
                "x": 0.6094750761985779,
                "y": 0.3671506643295288,
                "z": 0.19426114857196808
            }
        },
        "name": "move_to_magneteinheit_A"
    },
    "id": "RRTstar_move_to_magneteinheit_A_78",
    "joint_names": [
        "shoulder_pan_joint",
        "shoulder_lift_joint",
        "elbow_joint",
        "wrist_1_joint",
        "wrist_2_joint",
        "wrist_3_joint"
    ],
    "metrics": {
        "cart_traj_len": 3.682627634815197,
        "distance_elbow_joint": 3.90705167586001,
        "distance_shoulder_lift_joint": 0.5442403985462037,
        "distance_shoulder_pan_joint": 2.6635729602125298,
        "distance_wrist_1_joint": 0.88076346503903,
        "distance_wrist_2_joint": 1.7015622997185091,
        "distance_wrist_3_joint": 3.5599927229037784,
        "smoothness": 0.11138697915011951,
        "time": 5.015851256,
        "traj_len": 3.6410415436081003,
        "weighted_distance": 4.791606696385374
    },
    "planner": "RRTstar",
    "start": {
        "state": {
            "elbow_joint": -1.9196185241190666,
            "shoulder_lift_joint": -1.2443396400964142,
            "shoulder_pan_joint": 2.6996025414629847,
            "wrist_1_joint": -1.5485510000780065,
            "wrist_2_joint": -1.5709468930060704,
            "wrist_3_joint": 0.4420197071253992
        }
    },
    "waypoints": [
        {
            "positions": [
                2.6996025414629847,
                -1.2443396400964142,
                -1.9196185241190666,
                -1.5485510000780065,
                -1.5709468930060704,
                0.4420197071253992
            ]
        },
        {
            "positions": [
                2.6130175270341836,
                -1.2469436582870779,
                -1.873479902265982,
                -1.5671132083173651,
                -1.5174262479668719,
                0.31425850360171426
            ]
        },
        {
            "positions": [
                2.526432512605382,
                -1.2495476764777416,
                -1.8273412804128972,
                -1.585675416556724,
                -1.4639056029276734,
                0.18649730007802928
            ]
        },
        {
            "positions": [
                2.4398474981765808,
                -1.2521516946684053,
                -1.7812026585598126,
                -1.6042376247960826,
                -1.4103849578884748,
                0.058736096554344364
            ]
        },
        {
            "positions": [
                2.353262483747779,
                -1.254755712859069,
                -1.7350640367067278,
                -1.6227998330354414,
                -1.3568643128492763,
                -0.06902510696934061
            ]
        },
        {
            "positions": [
                2.266677469318978,
                -1.2573597310497326,
                -1.6889254148536432,
                -1.6413620412748,
                -1.3033436678100778,
                -0.19678631049302553
            ]
        },
        {
            "positions": [
                2.17422142128768,
                -1.2428607613824119,
                -1.565582555909984,
                -1.62803053339508,
                -1.2775592127507047,
                -0.31262131114457226
            ]
        },
        {
            "positions": [
                2.081765373256382,
                -1.2283617917150909,
                -1.4422396969663251,
                -1.6146990255153602,
                -1.2517747576913316,
                -0.428456311796119
            ]
        },
        {
            "positions": [
                1.9893093252250842,
                -1.21386282204777,
                -1.318896838022666,
                -1.6013675176356401,
                -1.2259903026319585,
                -0.5442913124476657
            ]
        },
        {
            "positions": [
                1.8968532771937863,
                -1.199363852380449,
                -1.195553979079007,
                -1.5880360097559203,
                -1.2002058475725852,
                -0.6601263130992124
            ]
        },
        {
            "positions": [
                1.8043972291624883,
                -1.1848648827131283,
                -1.072211120135348,
                -1.5747045018762003,
                -1.174421392513212,
                -0.7759613137507592
            ]
        },
        {
            "positions": [
                1.7119411811311904,
                -1.1703659130458073,
                -0.9488682611916889,
                -1.5613729939964802,
                -1.148636937453839,
                -0.8917963144023059
            ]
        },
        {
            "positions": [
                1.6194851330998925,
                -1.1558669433784865,
                -0.8255254022480298,
                -1.5480414861167604,
                -1.122852482394466,
                -1.0076313150538527
            ]
        },
        {
            "positions": [
                1.5270290850685946,
                -1.1413679737111655,
                -0.7021825433043707,
                -1.5347099782370404,
                -1.0970680273350928,
                -1.1234663157053992
            ]
        },
        {
            "positions": [
                1.4345730370372967,
                -1.1268690040438447,
                -0.5788396843607115,
                -1.5213784703573205,
                -1.0712835722757197,
                -1.2393013163569462
            ]
        },
        {
            "positions": [
                1.3421169890059987,
                -1.1123700343765237,
                -0.4554968254170526,
                -1.5080469624776005,
                -1.0454991172163464,
                -1.3551363170084927
            ]
        },
        {
            "positions": [
                1.2496609409747008,
                -1.097871064709203,
                -0.33215396647339346,
                -1.4947154545978805,
                -1.0197146621569733,
                -1.4709713176600396
            ]
        },
        {
            "positions": [
                1.1572048929434031,
                -1.0833720950418821,
                -0.20881110752973453,
                -1.4813839467181606,
                -0.9939302070976002,
                -1.5868063183115861
            ]
        },
        {
            "positions": [
                1.064748844912105,
                -1.0688731253745611,
                -0.08546824858607538,
                -1.4680524388384406,
                -0.9681457520382271,
                -1.702641318963133
            ]
        },
        {
            "positions": [
                0.9722927968808073,
                -1.0543741557072404,
                0.03787461035758355,
                -1.4547209309587208,
                -0.942361296978854,
                -1.8184763196146796
            ]
        },
        {
            "positions": [
                0.8798367488495094,
                -1.0398751860399194,
                0.1612174693012427,
                -1.4413894230790008,
                -0.9165768419194809,
                -1.9343113202662265
            ]
        },
        {
            "positions": [
                0.7873807008182112,
                -1.0253762163725986,
                0.28456032824490185,
                -1.4280579151992807,
                -0.8907923868601076,
                -2.050146320917773
            ]
        },
        {
            "positions": [
                0.6949246527869135,
                -1.0108772467052776,
                0.4079031871885608,
                -1.414726407319561,
                -0.8650079318007345,
                -2.16598132156932
            ]
        },
        {
            "positions": [
                0.6024686047556156,
                -0.9963782770379568,
                0.5312460461322202,
                -1.4013948994398409,
                -0.8392234767413613,
                -2.2818163222208665
            ]
        },
        {
            "positions": [
                0.5100125567243177,
                -0.9818793073706359,
                0.6545889050758786,
                -1.388063391560121,
                -0.8134390216819882,
                -2.397651322872413
            ]
        },
        {
            "positions": [
                0.4175565086930197,
                -0.967380337703315,
                0.7779317640195382,
                -1.374731883680401,
                -0.7876545666226151,
                -2.51348632352396
            ]
        },
        {
            "positions": [
                0.3337392108712089,
                -0.9522165697598363,
                0.9187308746531768,
                -1.3483849716326306,
                -0.7631238921533833,
                -2.61569037658438
            ]
        },
        {
            "positions": [
                0.24992191304939812,
                -0.9370528018163575,
                1.0595299852868154,
                -1.3220380595848602,
                -0.7385932176841514,
                -2.7178944296448
            ]
        },
        {
            "positions": [
                0.22148853787732234,
                -0.9533537745772835,
                1.1727475976718382,
                -1.2738110699780123,
                -0.654009625553951,
                -2.775009110652462
            ]
        },
        {
            "positions": [
                0.19305516270524656,
                -0.9696547473382096,
                1.285965210056861,
                -1.2255840803711644,
                -0.5694260334237506,
                -2.8321237916601243
            ]
        },
        {
            "positions": [
                0.16462178753317075,
                -0.9859557200991356,
                1.3991828224418836,
                -1.1773570907643163,
                -0.48484244129355014,
                -2.8892384726677864
            ]
        },
        {
            "positions": [
                0.13618841236109497,
                -1.0022566928600616,
                1.5124004348269064,
                -1.1291301011574684,
                -0.40025884916334975,
                -2.946353153675448
            ]
        },
        {
            "positions": [
                0.10775503718901919,
                -1.0185576656209876,
                1.6256180472119293,
                -1.0809031115506205,
                -0.31567525703314925,
                -3.0034678346831103
            ]
        },
        {
            "positions": [
                0.0793216620169434,
                -1.0348586383819136,
                1.738835659596952,
                -1.0326761219437726,
                -0.23109166490294883,
                -3.0605825156907724
            ]
        },
        {
            "positions": [
                0.09375235560577269,
                -1.0725611523132317,
                1.821701490311616,
                -0.9729206204400362,
                -0.11052264103115313,
                -3.079712682386641
            ]
        },
        {
            "positions": [
                0.10818304919460198,
                -1.1102636662445495,
                1.9045673210262797,
                -0.9131651189362998,
                0.010046382840642576,
                -3.0988428490825104
            ]
        },
        {
            "positions": [
                0.12261374278343126,
                -1.1479661801758676,
                1.9874331517409436,
                -0.8534096174325635,
                0.1306154067124383,
                -3.117973015778379
            ]
        }
    ]
}