{
    "goal": {
        "global_pose": {
            "orientation": {
                "w": 0.005598929693374612,
                "x": 0.007748599140229565,
                "y": 0.7110244013736278,
                "z": -0.7031023480610252
            },
            "position": {
                "x": -0.8858502320852131,
                "y": -0.7141253447532654,
                "z": 0.3711530566215515
            }
        },
        "name": "move_to_auspresseinheit_C"
    },
    "id": "RRTstar_move_to_auspresseinheit_C_48",
    "joint_names": [
        "shoulder_pan_joint",
        "shoulder_lift_joint",
        "elbow_joint",
        "wrist_1_joint",
        "wrist_2_joint",
        "wrist_3_joint"
    ],
    "metrics": {
        "cart_traj_len": 0.49258016880799627,
        "distance_elbow_joint": 0.9899893296352572,
        "distance_shoulder_lift_joint": 0.3207524505551733,
        "distance_shoulder_pan_joint": 0.2568243115627893,
        "distance_wrist_1_joint": 0.6577768028238842,
        "distance_wrist_2_joint": 1.3043556697173289,
        "distance_wrist_3_joint": 0.04301933213042597,
        "smoothness": 3.2297397080004555e-16,
        "time": 5.000570459,
        "traj_len": 1.8901634575943054,
        "weighted_distance": 2.370841418827274
    },
    "planner": "RRTstar",
    "start": {
        "state": {
            "elbow_joint": 1.7527959577737207,
            "shoulder_lift_joint": -0.9740617694225068,
            "shoulder_pan_joint": -2.967991417825858,
            "wrist_1_joint": -0.759517768980727,
            "wrist_2_joint": 1.7443932448377408,
            "wrist_3_joint": -3.0840537646736568
        }
    },
    "waypoints": [
        {
            "positions": [
                -2.967991417825858,
                -0.9740617694225068,
                1.7527959577737207,
                -0.759517768980727,
                1.7443932448377408,
                -3.0840537646736568
            ]
        },
        {
            "positions": [
                -2.942308986669579,
                -0.9419865243669895,
                1.653797024810195,
                -0.6937400886983386,
                1.6139576778660079,
                -3.0883556978866995
            ]
        },
        {
            "positions": [
                -2.9166265555133,
                -0.9099112793114721,
                1.5547980918466693,
                -0.6279624084159501,
                1.483522110894275,
                -3.092657631099742
            ]
        },
        {
            "positions": [
                -2.8909441243570213,
                -0.8778360342559548,
                1.4557991588831434,
                -0.5621847281335617,
                1.3530865439225421,
                -3.0969595643127845
            ]
        },
        {
            "positions": [
                -2.8652616932007424,
                -0.8457607892004374,
                1.3568002259196177,
                -0.4964070478511733,
                1.2226509769508094,
                -3.1012614975258272
            ]
        },
        {
            "positions": [
                -2.839579262044463,
                -0.8136855441449201,
                1.257801292956092,
                -0.4306293675687849,
                1.0922154099790764,
                -3.1055634307388695
            ]
        },
        {
            "positions": [
                -2.813896830888184,
                -0.7816102990894028,
                1.1588023599925663,
                -0.3648516872863965,
                0.9617798430073435,
                -3.1098653639519123
            ]
        },
        {
            "positions": [
                -2.7882143997319053,
                -0.7495350540338854,
                1.0598034270290406,
                -0.2990740070040081,
                0.8313442760356107,
                -3.114167297164955
            ]
        },
        {
            "positions": [
                -2.7625319685756264,
                -0.7174598089783681,
                0.9608044940655148,
                -0.2332963267216196,
                0.7009087090638777,
                -3.1184692303779977
            ]
        },
        {
            "positions": [
                -2.7368495374193476,
                -0.6853845639228509,
                0.8618055611019891,
                -0.1675186464392312,
                0.5704731420921447,
                -3.12277116359104
            ]
        },
        {
            "positions": [
                -2.7111671062630687,
                -0.6533093188673335,
                0.7628066281384634,
                -0.10174096615684276,
                0.4400375751204121,
                -3.1270730968040827
            ]
        }
    ]
}