{
    "goal": {
        "global_pose": {
            "orientation": {
                "w": 0.005598929693374612,
                "x": 0.007748599140229565,
                "y": 0.7110244013736278,
                "z": -0.7031023480610252
            },
            "position": {
                "x": -0.8858502320852131,
                "y": -0.7141253447532654,
                "z": 0.3711530566215515
            }
        },
        "name": "move_to_auspresseinheit_C"
    },
    "id": "RRTstar_move_to_auspresseinheit_C_92",
    "joint_names": [
        "shoulder_pan_joint",
        "shoulder_lift_joint",
        "elbow_joint",
        "wrist_1_joint",
        "wrist_2_joint",
        "wrist_3_joint"
    ],
    "metrics": {
        "cart_traj_len": 0.49220536723287667,
        "distance_elbow_joint": 0.9918378198696853,
        "distance_shoulder_lift_joint": 0.3214275207687276,
        "distance_shoulder_pan_joint": 0.25593689636494066,
        "distance_wrist_1_joint": 0.660855610473468,
        "distance_wrist_2_joint": 1.3165707926789976,
        "distance_wrist_3_joint": 0.0468160790801222,
        "smoothness": 4.844609574787718e-16,
        "time": 5.004821941,
        "traj_len": 1.895638340832961,
        "weighted_distance": 2.3800216974953505
    },
    "planner": "RRTstar",
    "start": {
        "state": {
            "elbow_joint": 1.7527959577737207,
            "shoulder_lift_joint": -0.9740617694225068,
            "shoulder_pan_joint": -2.967991417825858,
            "wrist_1_joint": -0.759517768980727,
            "wrist_2_joint": 1.7443932448377408,
            "wrist_3_joint": -3.0840537646736568
        }
    },
    "waypoints": [
        {
            "positions": [
                -2.967991417825858,
                -0.9740617694225068,
                1.7527959577737207,
                -0.759517768980727,
                1.7443932448377408,
                -3.0840537646736568
            ]
        },
        {
            "positions": [
                -2.942397728189364,
                -0.941919017345634,
                1.6536121757867521,
                -0.6934322079333802,
                1.6127361655698411,
                -3.088735372581669
            ]
        },
        {
            "positions": [
                -2.9168040385528697,
                -0.9097762652687612,
                1.5544283937997836,
                -0.6273466468860334,
                1.4810790863019414,
                -3.0934169804896814
            ]
        },
        {
            "positions": [
                -2.891210348916376,
                -0.8776335131918885,
                1.455244611812815,
                -0.5612610858386866,
                1.3494220070340415,
                -3.0980985883976935
            ]
        },
        {
            "positions": [
                -2.8656166592798815,
                -0.8454907611150158,
                1.3560608298258465,
                -0.4951755247913398,
                1.2177649277661418,
                -3.1027801963057056
            ]
        },
        {
            "positions": [
                -2.8400229696433876,
                -0.813348009038143,
                1.256877047838878,
                -0.429089963743993,
                1.086107848498242,
                -3.1074618042137176
            ]
        },
        {
            "positions": [
                -2.8144292800068937,
                -0.7812052569612702,
                1.1576932658519095,
                -0.3630044026966462,
                0.9544507692303423,
                -3.11214341212173
            ]
        },
        {
            "positions": [
                -2.7888355903703994,
                -0.7490625048843975,
                1.058509483864941,
                -0.29691884164929944,
                0.8227936899624426,
                -3.1168250200297423
            ]
        },
        {
            "positions": [
                -2.7632419007339055,
                -0.7169197528075246,
                0.9593257018779724,
                -0.23083328060195263,
                0.6911366106945427,
                -3.1215066279377544
            ]
        },
        {
            "positions": [
                -2.737648211097411,
                -0.684777000730652,
                0.8601419198910039,
                -0.16474771955460576,
                0.559479531426643,
                -3.126188235845767
            ]
        },
        {
            "positions": [
                -2.7120545214609173,
                -0.6526342486537792,
                0.7609581379040353,
                -0.09866215850725907,
                0.4278224521587433,
                -3.130869843753779
            ]
        }
    ]
}