{
    "goal": {
        "global_pose": {
            "orientation": {
                "w": 0.5084816217422485,
                "x": -0.49083608388900757,
                "y": 0.5182115435600281,
                "z": -0.4816462993621826
            },
            "position": {
                "x": 0.5540239810943604,
                "y": 0.030875300988554955,
                "z": 0.16403168439865112
            }
        },
        "name": "move_to_storage_A"
    },
    "id": "RRTstar_move_to_storage_A_98",
    "joint_names": [
        "shoulder_pan_joint",
        "shoulder_lift_joint",
        "elbow_joint",
        "wrist_1_joint",
        "wrist_2_joint",
        "wrist_3_joint"
    ],
    "metrics": {
        "cart_traj_len": 0.35292684136518016,
        "distance_elbow_joint": 0.4476045926224341,
        "distance_shoulder_lift_joint": 0.2338151835130402,
        "distance_shoulder_pan_joint": 0.45999447971328866,
        "distance_wrist_1_joint": 0.23966946929006705,
        "distance_wrist_2_joint": 1.1039267638900736,
        "distance_wrist_3_joint": 0.09669700147219107,
        "smoothness": 2.2204460668324854e-16,
        "time": 5.002310141,
        "traj_len": 1.6067692710844002,
        "weighted_distance": 2.0294574956440004
    },
    "planner": "RRTstar",
    "start": {
        "state": {
            "elbow_joint": 1.971548259319323,
            "shoulder_lift_joint": -1.1394851275133948,
            "shoulder_pan_joint": 0.1228115487234821,
            "wrist_1_joint": -0.7804723859257726,
            "wrist_2_joint": 0.12958671773740124,
            "wrist_3_joint": -3.192489227718131
        }
    },
    "waypoints": [
        {
            "positions": [
                0.1228115487234821,
                -1.1394851275133948,
                1.971548259319323,
                -0.7804723859257726,
                0.12958671773740124,
                -3.192489227718131
            ]
        },
        {
            "positions": [
                0.057098051621583726,
                -1.1728872965866863,
                2.0354917725510995,
                -0.8147108815386394,
                0.28729054115026886,
                -3.178675370364961
            ]
        },
        {
            "positions": [
                -0.008615445480314649,
                -1.2062894656599776,
                2.0994352857828757,
                -0.8489493771515061,
                0.44499436456313657,
                -3.164861513011791
            ]
        },
        {
            "positions": [
                -0.07432894258221304,
                -1.2396916347332692,
                2.163378799014652,
                -0.8831878727643727,
                0.6026981879760042,
                -3.151047655658621
            ]
        },
        {
            "positions": [
                -0.1400424396841114,
                -1.2730938038065607,
                2.2273223122464283,
                -0.9174263683772395,
                0.7604020113888719,
                -3.1372337983054503
            ]
        },
        {
            "positions": [
                -0.20575593678600979,
                -1.3064959728798522,
                2.2912658254782046,
                -0.9516648639901062,
                0.9181058348017396,
                -3.1234199409522803
            ]
        },
        {
            "positions": [
                -0.2714694338879082,
                -1.3398981419531435,
                2.355209338709981,
                -0.9859033596029729,
                1.075809658214607,
                -3.10960608359911
            ]
        },
        {
            "positions": [
                -0.33718293098980656,
                -1.373300311026435,
                2.419152851941757,
                -1.0201418552158397,
                1.2335134816274749,
                -3.09579222624594
            ]
        }
    ]
}{
    "goal": {
        "global_pose": {
            "orientation": {
                "w": 0.5084816217422485,
                "x": -0.49083608388900757,
                "y": 0.5182115435600281,
                "z": -0.4816462993621826
            },
            "position": {
                "x": 0.5540239810943604,
                "y": 0.030875300988554955,
                "z": 0.16403168439865112
            }
        },
        "name": "move_to_storage_A"
    },
    "id": "RRTstar_move_to_storage_A_98",
    "joint_names": [
        "shoulder_pan_joint",
        "shoulder_lift_joint",
        "elbow_joint",
        "wrist_1_joint",
        "wrist_2_joint",
        "wrist_3_joint"
    ],
    "metrics": {
        "cart_traj_len": 0.353662700497256,
        "distance_elbow_joint": 0.449904442039895,
        "distance_shoulder_lift_joint": 0.23458706593087353,
        "distance_shoulder_pan_joint": 0.46364142259359675,
        "distance_wrist_1_joint": 0.24131859895055263,
        "distance_wrist_2_joint": 1.0950096742232007,
        "distance_wrist_3_joint": 0.08681984631922601,
        "smoothness": 4.440892133664971e-16,
        "time": 5.001909337000001,
        "traj_len": 1.6035214529457797,
        "weighted_distance": 2.0202101415123996
    },
    "planner": "RRTstar",
    "start": {
        "state": {
            "elbow_joint": 1.97154746011099,
            "shoulder_lift_joint": -1.13948474672311,
            "shoulder_pan_joint": 0.12281154466712228,
            "wrist_1_joint": -0.7804688027058302,
            "wrist_2_joint": 0.12958655903071145,
            "wrist_3_joint": 3.0906928834467795
        }
    },
    "waypoints": [
        {
            "positions": [
                0.12281154466712228,
                -1.13948474672311,
                1.97154746011099,
                -0.7804688027058302,
                0.12958655903071145,
                3.0906928834467795
            ]
        },
        {
            "positions": [
                0.05657705572517989,
                -1.1729971847132348,
                2.0358195232595464,
                -0.8149428882701949,
                0.28601651249116866,
                3.1030957186352404
            ]
        },
        {
            "positions": [
                -0.009657433216762504,
                -1.2065096227033596,
                2.100091586408103,
                -0.8494169738345595,
                0.44244646595162596,
                3.1154985538237012
            ]
        },
        {
            "positions": [
                -0.0758919221587049,
                -1.2400220606934844,
                2.1643636495566594,
                -0.8838910593989242,
                0.5988764194120831,
                3.127901389012162
            ]
        },
        {
            "positions": [
                -0.14212641110064728,
                -1.273534498683609,
                2.2286357127052154,
                -0.9183651449632888,
                0.7553063728725404,
                3.140304224200623
            ]
        },
        {
            "positions": [
                -0.20836090004258967,
                -1.3070469366737338,
                2.292907775853772,
                -0.9528392305276535,
                0.9117363263329977,
                3.152707059389084
            ]
        },
        {
            "positions": [
                -0.27459538898453206,
                -1.3405593746638587,
                2.3571798390023284,
                -0.9873133160920181,
                1.0681662797934548,
                3.1651098945775447
            ]
        },
        {
            "positions": [
                -0.34082987792647446,
                -1.3740718126539835,
                2.421451902150885,
                -1.0217874016563828,
                1.2245962332539122,
                3.1775127297660055
            ]
        }
    ]
}{
    "goal": {
        "global_pose": {
            "orientation": {
                "w": 0.5084816217422485,
                "x": -0.49083608388900757,
                "y": 0.5182115435600281,
                "z": -0.4816462993621826
            },
            "position": {
                "x": 0.5540239810943604,
                "y": 0.030875300988554955,
                "z": 0.16403168439865112
            }
        },
        "name": "move_to_storage_A"
    },
    "id": "RRTstar_move_to_storage_A_98",
    "joint_names": [
        "shoulder_pan_joint",
        "shoulder_lift_joint",
        "elbow_joint",
        "wrist_1_joint",
        "wrist_2_joint",
        "wrist_3_joint"
    ],
    "metrics": {
        "cart_traj_len": 0.35298786766519713,
        "distance_elbow_joint": 0.44996334696045004,
        "distance_shoulder_lift_joint": 0.23565559439216233,
        "distance_shoulder_pan_joint": 0.46295015103830217,
        "distance_wrist_1_joint": 0.24064704456044828,
        "distance_wrist_2_joint": 1.0933773434985965,
        "distance_wrist_3_joint": 0.09549224565022607,
        "smoothness": 0.0,
        "time": 5.000298191000001,
        "traj_len": 1.6056418424107493,
        "weighted_distance": 2.025609687343463
    },
    "planner": "RRTstar",
    "start": {
        "state": {
            "elbow_joint": 1.9715472970024885,
            "shoulder_lift_joint": -1.1394870060712896,
            "shoulder_pan_joint": 0.12281152778156021,
            "wrist_1_joint": -0.780463741449964,
            "wrist_2_joint": 0.12958659822042276,
            "wrist_3_joint": 3.090690232415272
        }
    },
    "waypoints": [
        {
            "positions": [
                0.12281152778156021,
                -1.1394870060712896,
                1.9715472970024885,
                -0.780463741449964,
                0.12958659822042276,
                3.090690232415272
            ]
        },
        {
            "positions": [
                0.05667579191894562,
                -1.1731520909844557,
                2.035827775139696,
                -0.8148418906728851,
                0.2857833615773651,
                3.1043319817938757
            ]
        },
        {
            "positions": [
                -0.009459943943668975,
                -1.2068171758976216,
                2.1001082532769026,
                -0.8492200398958063,
                0.4419801249343075,
                3.117973731172479
            ]
        },
        {
            "positions": [
                -0.07559567980628357,
                -1.2404822608107877,
                2.16438873141411,
                -0.8835981891187276,
                0.5981768882912498,
                3.131615480551083
            ]
        },
        {
            "positions": [
                -0.14173141566889816,
                -1.2741473457239538,
                2.228669209551317,
                -0.9179763383416487,
                0.7543736516481921,
                3.145257229929687
            ]
        },
        {
            "positions": [
                -0.20786715153151278,
                -1.30781243063712,
                2.2929496876885245,
                -0.95235448756457,
                0.9105704150051346,
                3.1588989793082907
            ]
        },
        {
            "positions": [
                -0.27400288739412737,
                -1.3414775155502858,
                2.3572301658257313,
                -0.9867326367874911,
                1.066767178362077,
                3.172540728686894
            ]
        },
        {
            "positions": [
                -0.34013862325674193,
                -1.375142600463452,
                2.4215106439629386,
                -1.0211107860104123,
                1.2229639417190192,
                3.186182478065498
            ]
        }
    ]
}