{
    "goal": {
        "global_pose": {
            "orientation": {
                "w": -0.4816463035849501,
                "x": 0.5182115481033762,
                "y": 0.4908360881923453,
                "z": -0.5084816262002911
            },
            "position": {
                "x": -0.8240239810943604,
                "y": 0.19912469901144506,
                "z": 0.16403168439865112
            }
        },
        "name": "move_to_storage_D"
    },
    "id": "RRTstar_move_to_storage_D_117",
    "joint_names": [
        "shoulder_pan_joint",
        "shoulder_lift_joint",
        "elbow_joint",
        "wrist_1_joint",
        "wrist_2_joint",
        "wrist_3_joint"
    ],
    "metrics": {
        "cart_traj_len": 3.6595228610198394,
        "distance_elbow_joint": 4.208854061856533,
        "distance_shoulder_lift_joint": 1.2654995415261414,
        "distance_shoulder_pan_joint": 2.811689166751323,
        "distance_wrist_1_joint": 2.271230519517222,
        "distance_wrist_2_joint": 0.8667358725274924,
        "distance_wrist_3_joint": 3.130730948476456,
        "smoothness": 2.9605947493530593e-16,
        "time": 5.023068576999999,
        "traj_len": 3.8150675106287664,
        "weighted_distance": 4.894299582131522
    },
    "planner": "RRTstar",
    "start": {
        "state": {
            "elbow_joint": -2.384821988534728,
            "shoulder_lift_joint": -2.2788054721415256,
            "shoulder_pan_joint": -0.1854694642142757,
            "wrist_1_joint": 1.4845938289331202,
            "wrist_2_joint": 0.17898776772866878,
            "wrist_3_joint": 0.037105688729662994
        }
    },
    "waypoints": [
        {
            "positions": [
                -0.1854694642142757,
                -2.2788054721415256,
                -2.384821988534728,
                1.4845938289331202,
                0.17898776772866878,
                0.037105688729662994
            ]
        },
        {
            "positions": [
                -0.10635350604986873,
                -2.2528401116920067,
                -2.2499538711298817,
                1.4233508239571717,
                0.19706391620150693,
                -0.03230186909581831
            ]
        },
        {
            "positions": [
                -0.02723754788546176,
                -2.226874751242488,
                -2.1150857537250354,
                1.362107818981223,
                0.2151400646743451,
                -0.10170942692129961
            ]
        },
        {
            "positions": [
                0.05187841027894524,
                -2.2009093907929693,
                -1.980217636320189,
                1.3008648140052745,
                0.23321621314718324,
                -0.17111698474678091
            ]
        },
        {
            "positions": [
                0.1309943684433522,
                -2.1749440303434504,
                -1.8453495189153428,
                1.239621809029326,
                0.2512923616200214,
                -0.24052454257226222
            ]
        },
        {
            "positions": [
                0.21011032660775916,
                -2.1489786698939315,
                -1.7104814015104963,
                1.1783788040533774,
                0.26936851009285956,
                -0.30993210039774355
            ]
        },
        {
            "positions": [
                0.28922628477216616,
                -2.1230133094444126,
                -1.57561328410565,
                1.1171357990774289,
                0.28744465856569773,
                -0.3793396582232248
            ]
        },
        {
            "positions": [
                0.36834224293657314,
                -2.0970479489948937,
                -1.4407451667008038,
                1.0558927941014802,
                0.3055208070385359,
                -0.44874721604870615
            ]
        },
        {
            "positions": [
                0.4474582011009801,
                -2.071082588545375,
                -1.3058770492959575,
                0.9946497891255317,
                0.323596955511374,
                -0.5181547738741874
            ]
        },
        {
            "positions": [
                0.5265741592653872,
                -2.0451172280958563,
                -1.171008931891111,
                0.9334067841495831,
                0.3416731039842122,
                -0.5875623316996688
            ]
        },
        {
            "positions": [
                0.6056901174297941,
                -2.0191518676463374,
                -1.0361408144862647,
                0.8721637791736346,
                0.35974925245705036,
                -0.65696988952515
            ]
        },
        {
            "positions": [
                0.6848060755942011,
                -1.9931865071968184,
                -0.9012726970814184,
                0.810920774197686,
                0.3778254009298885,
                -0.7263774473506314
            ]
        },
        {
            "positions": [
                0.7639220337586081,
                -1.9672211467472998,
                -0.7664045796765722,
                0.7496777692217376,
                0.39590154940272665,
                -0.7957850051761126
            ]
        },
        {
            "positions": [
                0.8430379919230152,
                -1.9412557862977808,
                -0.6315364622717257,
                0.6884347642457889,
                0.4139776978755648,
                -0.865192563001594
            ]
        },
        {
            "positions": [
                0.922153950087422,
                -1.9152904258482621,
                -0.4966683448668796,
                0.6271917592698404,
                0.43205384634840294,
                -0.9346001208270752
            ]
        },
        {
            "positions": [
                1.001269908251829,
                -1.8893250653987432,
                -0.3618002274620329,
                0.5659487542938918,
                0.45012999482124116,
                -1.0040076786525565
            ]
        },
        {
            "positions": [
                1.0803858664162358,
                -1.8633597049492243,
                -0.22693211005718705,
                0.5047057493179433,
                0.4682061432940793,
                -1.0734152364780378
            ]
        },
        {
            "positions": [
                1.1595018245806428,
                -1.8373943444997056,
                -0.09206399265234078,
                0.44346274434199473,
                0.4862822917669174,
                -1.142822794303519
            ]
        },
        {
            "positions": [
                1.23861778274505,
                -1.8114289840501867,
                0.042804124752505945,
                0.38221973936604603,
                0.5043584402397556,
                -1.2122303521290005
            ]
        },
        {
            "positions": [
                1.317733740909457,
                -1.7854636236006678,
                0.17767224215735222,
                0.32097673439009755,
                0.5224345887125937,
                -1.2816379099544817
            ]
        },
        {
            "positions": [
                1.3968496990738637,
                -1.759498263151149,
                0.3125403595621985,
                0.2597337294141491,
                0.5405107371854319,
                -1.351045467779963
            ]
        },
        {
            "positions": [
                1.4759656572382707,
                -1.7335329027016302,
                0.4474084769670448,
                0.1984907244382006,
                0.55858688565827,
                -1.4204530256054442
            ]
        },
        {
            "positions": [
                1.5550816154026779,
                -1.7075675422521113,
                0.582276594371891,
                0.1372477194622519,
                0.5766630341311082,
                -1.4898605834309258
            ]
        },
        {
            "positions": [
                1.6341975735670848,
                -1.6816021818025926,
                0.7171447117767373,
                0.07600471448630342,
                0.5947391826039463,
                -1.559268141256407
            ]
        },
        {
            "positions": [
                1.7133135317314918,
                -1.6556368213530739,
                0.8520128291815836,
                0.014761709510354937,
                0.6128153310767845,
                -1.6286756990818883
            ]
        },
        {
            "positions": [
                1.7924294898958986,
                -1.629671460903555,
                0.9868809465864299,
                -0.04648129546559354,
                0.6308914795496227,
                -1.6980832569073694
            ]
        },
        {
            "positions": [
                1.871545448060306,
                -1.603706100454036,
                1.1217490639912766,
                -0.10772430044154246,
                0.6489676280224609,
                -1.767490814732851
            ]
        },
        {
            "positions": [
                1.9506614062247127,
                -1.5777407400045171,
                1.2566171813961229,
                -0.16896730541749094,
                0.667043776495299,
                -1.836898372558332
            ]
        },
        {
            "positions": [
                2.0297773643891195,
                -1.5517753795549984,
                1.3914852988009687,
                -0.23021031039343942,
                0.6851199249681371,
                -1.9063059303838135
            ]
        },
        {
            "positions": [
                2.1088933225535267,
                -1.5258100191054798,
                1.526353416205815,
                -0.2914533153693879,
                0.7031960734409752,
                -1.9757134882092946
            ]
        },
        {
            "positions": [
                2.188009280717934,
                -1.4998446586559608,
                1.6612215336106622,
                -0.3526963203453366,
                0.7212722219138135,
                -2.045121046034776
            ]
        },
        {
            "positions": [
                2.2671252388823406,
                -1.473879298206442,
                1.7960896510155082,
                -0.413939325321285,
                0.7393483703866516,
                -2.1145286038602573
            ]
        },
        {
            "positions": [
                2.31842444797587,
                -1.4080831028362908,
                1.8000814256306932,
                -0.467181806073116,
                0.7831162660822958,
                -2.254399554701191
            ]
        },
        {
            "positions": [
                2.3697236570694,
                -1.3422869074661397,
                1.8040732002458784,
                -0.520424286824947,
                0.82688416177794,
                -2.3942705055421247
            ]
        },
        {
            "positions": [
                2.421022866162929,
                -1.2764907120959887,
                1.8080649748610633,
                -0.5736667675767779,
                0.8706520574735842,
                -2.5341414563830584
            ]
        },
        {
            "positions": [
                2.4723220752564585,
                -1.2106945167258376,
                1.8120567494762483,
                -0.626909248328609,
                0.9144199531692285,
                -2.6740124072239917
            ]
        },
        {
            "positions": [
                2.5236212843499883,
                -1.1448983213556865,
                1.8160485240914332,
                -0.68015172908044,
                0.9581878488648727,
                -2.8138833580649254
            ]
        },
        {
            "positions": [
                2.5749204934435177,
                -1.0791021259855353,
                1.8200402987066184,
                -0.7333942098322709,
                1.001955744560517,
                -2.953754308905859
            ]
        },
        {
            "positions": [
                2.626219702537047,
                -1.0133059306153842,
                1.8240320733218034,
                -0.7866366905841019,
                1.0457236402561612,
                -3.093625259746793
            ]
        }
    ]
}