{
    "goal": {
        "global_pose": {
            "orientation": {
                "w": -0.00223480608172531,
                "x": 0.0024358444001904467,
                "y": 0.7094548369677653,
                "z": -0.704743149386269
            },
            "position": {
                "x": 0.6205249238014221,
                "y": -0.6371506643295288,
                "z": 0.19426114857196808
            }
        },
        "name": "move_to_magneteinheit_B"
    },
    "id": "RRTstar_move_to_magneteinheit_B_23",
    "joint_names": [
        "shoulder_pan_joint",
        "shoulder_lift_joint",
        "elbow_joint",
        "wrist_1_joint",
        "wrist_2_joint",
        "wrist_3_joint"
    ],
    "metrics": {
        "cart_traj_len": 1.6799447531481508,
        "distance_elbow_joint": 1.0793544435248728,
        "distance_shoulder_lift_joint": 1.611286066182283,
        "distance_shoulder_pan_joint": 1.6207612209178386,
        "distance_wrist_1_joint": 0.3065012168678769,
        "distance_wrist_2_joint": 1.5175205272210912,
        "distance_wrist_3_joint": 0.22163486354189876,
        "smoothness": 0.7100599345382992,
        "time": 5.012479816,
        "traj_len": 2.5213207527515933,
        "weighted_distance": 2.936724333237396
    },
    "planner": "RRTstar",
    "start": {
        "state": {
            "elbow_joint": 2.6216224122426386,
            "shoulder_lift_joint": -1.4174107377796124,
            "shoulder_pan_joint": 0.7066234856936794,
            "wrist_1_joint": 1.9546482284002225,
            "wrist_2_joint": -0.7096286983471962,
            "wrist_3_joint": 0.005740856962016249
        }
    },
    "waypoints": [
        {
            "positions": [
                0.7066234856936794,
                -1.4174107377796124,
                2.6216224122426386,
                1.9546482284002225,
                -0.7096286983471962,
                0.005740856962016249
            ]
        },
        {
            "positions": [
                0.6990491577974222,
                -1.560039305547453,
                2.642239682980923,
                1.9347698810955827,
                -0.8026874620058685,
                0.043314560713098034
            ]
        },
        {
            "positions": [
                0.6914748299011648,
                -1.7026678733152938,
                2.662856953719207,
                1.9148915337909431,
                -0.8957462256645408,
                0.08088826446417982
            ]
        },
        {
            "positions": [
                0.6839005020049076,
                -1.8452964410831347,
                2.683474224457491,
                1.8950131864863033,
                -0.9888049893232131,
                0.11846196821526161
            ]
        },
        {
            "positions": [
                0.5697549136314028,
                -1.760767843734652,
                2.610795465078204,
                1.9126464846973004,
                -1.0772581490550042,
                0.1106824144803578
            ]
        },
        {
            "positions": [
                0.45560932525789805,
                -1.6762392463861688,
                2.5381167056989167,
                1.9302797829082974,
                -1.1657113087867952,
                0.10290286074545399
            ]
        },
        {
            "positions": [
                0.3414637368843933,
                -1.591710649037686,
                2.46543794631963,
                1.9479130811192944,
                -1.2541644685185862,
                0.09512330701055016
            ]
        },
        {
            "positions": [
                0.2273181485108885,
                -1.507182051689203,
                2.3927591869403426,
                1.9655463793302912,
                -1.3426176282503772,
                0.08734375327564635
            ]
        },
        {
            "positions": [
                0.11317256013738364,
                -1.42265345434072,
                2.3200804275610554,
                1.9831796775412882,
                -1.4310707879821682,
                0.07956419954074254
            ]
        },
        {
            "positions": [
                -0.0009730282361209985,
                -1.3381248569922373,
                2.247401668181768,
                2.0008129757522854,
                -1.5195239477139593,
                0.07178464580583872
            ]
        },
        {
            "positions": [
                -0.11511861660962586,
                -1.2535962596437542,
                2.1747229088024813,
                2.0184462739632822,
                -1.6079771074457503,
                0.06400509207093491
            ]
        },
        {
            "positions": [
                -0.2292642049831306,
                -1.1690676622952711,
                2.102044149423194,
                2.036079572174279,
                -1.6964302671775413,
                0.05622553833603109
            ]
        },
        {
            "positions": [
                -0.3434097933566356,
                -1.0845390649467883,
                2.029365390043907,
                2.0537128703852763,
                -1.7848834269093325,
                0.04844598460112727
            ]
        },
        {
            "positions": [
                -0.4575553817301403,
                -1.0000104675983055,
                1.9566866306646196,
                2.071346168596273,
                -1.8733365866411233,
                0.04066643086622346
            ]
        },
        {
            "positions": [
                -0.5717009701036448,
                -0.9154818702498225,
                1.8840078712853325,
                2.0889794668072703,
                -1.9617897463729144,
                0.032886877131319645
            ]
        },
        {
            "positions": [
                -0.6858465584771496,
                -0.8309532729013396,
                1.8113291119060455,
                2.106612765018267,
                -2.0502429061047054,
                0.02510732339641583
            ]
        },
        {
            "positions": [
                -0.7999921468506546,
                -0.7464246755528565,
                1.7386503525267583,
                2.1242460632292643,
                -2.1386960658364966,
                0.017327769661512005
            ]
        },
        {
            "positions": [
                -0.9141377352241593,
                -0.6618960782043738,
                1.665971593147471,
                2.141879361440261,
                -2.2271492255682874,
                0.009548215926608192
            ]
        }
    ]
}