{
    "goal": {
        "global_pose": {
            "orientation": {
                "w": -0.4816463035849501,
                "x": 0.5182115481033762,
                "y": 0.4908360881923453,
                "z": -0.5084816262002911
            },
            "position": {
                "x": -0.8240239810943604,
                "y": 0.19912469901144506,
                "z": 0.16403168439865112
            }
        },
        "name": "move_to_storage_D"
    },
    "id": "RRTstar_move_to_storage_D_27",
    "joint_names": [
        "shoulder_pan_joint",
        "shoulder_lift_joint",
        "elbow_joint",
        "wrist_1_joint",
        "wrist_2_joint",
        "wrist_3_joint"
    ],
    "metrics": {
        "cart_traj_len": 4.080066780166419,
        "distance_elbow_joint": 4.477097827675198,
        "distance_shoulder_lift_joint": 1.2649109704736534,
        "distance_shoulder_pan_joint": 2.8123136308066736,
        "distance_wrist_1_joint": 3.691061012723812,
        "distance_wrist_2_joint": 0.8675137473541922,
        "distance_wrist_3_joint": 3.1339980186764396,
        "smoothness": 0.2782558297544427,
        "time": 5.029997914,
        "traj_len": 4.030743753665068,
        "weighted_distance": 5.2032168900729925
    },
    "planner": "RRTstar",
    "start": {
        "state": {
            "elbow_joint": -2.384821988534728,
            "shoulder_lift_joint": -2.2788054721415256,
            "shoulder_pan_joint": -0.1854694642142757,
            "wrist_1_joint": 1.4845938289331202,
            "wrist_2_joint": 0.17898776772866878,
            "wrist_3_joint": 0.037105688729662994
        }
    },
    "waypoints": [
        {
            "positions": [
                -0.1854694642142757,
                -2.2788054721415256,
                -2.384821988534728,
                1.4845938289331202,
                0.17898776772866878,
                0.037105688729662994
            ]
        },
        {
            "positions": [
                -0.12629797103402568,
                -2.2497648320883554,
                -2.4116190743908197,
                1.6273468910497015,
                0.22006180654162055,
                0.07129685124487115
            ]
        },
        {
            "positions": [
                -0.06712647785377568,
                -2.2207241920351852,
                -2.438416160246911,
                1.7700999531662829,
                0.26113584535457235,
                0.10548801376007931
            ]
        },
        {
            "positions": [
                -0.007954984673525678,
                -2.191683551982015,
                -2.4652132461030027,
                1.9128530152828644,
                0.3022098841675241,
                0.13967917627528748
            ]
        },
        {
            "positions": [
                0.05121650850672435,
                -2.162642911928845,
                -2.492010331959094,
                2.055606077399446,
                0.34328392298047583,
                0.17387033879049563
            ]
        },
        {
            "positions": [
                0.11038800168697438,
                -2.1336022718756746,
                -2.518807417815186,
                2.198359139516027,
                0.3843579617934276,
                0.20806150130570378
            ]
        },
        {
            "positions": [
                0.19472103021762552,
                -2.103571404673078,
                -2.442408986680805,
                2.096307289101228,
                0.38934604608842444,
                0.3013643501831215
            ]
        },
        {
            "positions": [
                0.27905405874827666,
                -2.073540537470481,
                -2.3660105555464246,
                1.9942554386864288,
                0.3943341303834213,
                0.39466719906053926
            ]
        },
        {
            "positions": [
                0.3633870872789278,
                -2.043509670267884,
                -2.2896121244120438,
                1.89220358827163,
                0.3993222146784181,
                0.48797004793795695
            ]
        },
        {
            "positions": [
                0.44772011580957893,
                -2.0134788030652873,
                -2.2132136932776634,
                1.7901517378568308,
                0.4043102989734149,
                0.5812728968153746
            ]
        },
        {
            "positions": [
                0.5320531443402301,
                -1.9834479358626904,
                -2.1368152621432825,
                1.6880998874420317,
                0.4092983832684118,
                0.6745757456927923
            ]
        },
        {
            "positions": [
                0.6163861728708813,
                -1.9534170686600936,
                -2.060416831008902,
                1.5860480370272325,
                0.4142864675634086,
                0.7678785945702101
            ]
        },
        {
            "positions": [
                0.7007192014015323,
                -1.9233862014574967,
                -1.9840183998745213,
                1.4839961866124334,
                0.4192745518584054,
                0.8611814434476278
            ]
        },
        {
            "positions": [
                0.7850522299321835,
                -1.8933553342548999,
                -1.9076199687401407,
                1.3819443361976345,
                0.42426263615340226,
                0.9544842923250456
            ]
        },
        {
            "positions": [
                0.8693852584628347,
                -1.863324467052303,
                -1.8312215376057601,
                1.279892485782835,
                0.42925072044839907,
                1.0477871412024633
            ]
        },
        {
            "positions": [
                0.9537182869934858,
                -1.8332935998497062,
                -1.7548231064713795,
                1.1778406353680362,
                0.4342388047433959,
                1.141089990079881
            ]
        },
        {
            "positions": [
                1.0380513155241369,
                -1.8032627326471093,
                -1.6784246753369987,
                1.0757887849532368,
                0.43922688903839274,
                1.234392838957299
            ]
        },
        {
            "positions": [
                1.122384344054788,
                -1.7732318654445127,
                -1.602026244202618,
                0.9737369345384379,
                0.44421497333338955,
                1.3276956878347166
            ]
        },
        {
            "positions": [
                1.2067173725854392,
                -1.7432009982419157,
                -1.5256278130682375,
                0.8716850841236388,
                0.44920305762838636,
                1.4209985367121343
            ]
        },
        {
            "positions": [
                1.2910504011160904,
                -1.713170131039319,
                -1.4492293819338569,
                0.7696332337088396,
                0.45419114192338317,
                1.514301385589552
            ]
        },
        {
            "positions": [
                1.3753834296467415,
                -1.6831392638367222,
                -1.3728309507994763,
                0.6675813832940405,
                0.45917922621838003,
                1.6076042344669697
            ]
        },
        {
            "positions": [
                1.4597164581773927,
                -1.6531083966341253,
                -1.2964325196650957,
                0.5655295328792416,
                0.46416731051337684,
                1.7009070833443873
            ]
        },
        {
            "positions": [
                1.5440494867080439,
                -1.6230775294315285,
                -1.2200340885307148,
                0.4634776824644422,
                0.4691553948083737,
                1.794209932221805
            ]
        },
        {
            "positions": [
                1.628382515238695,
                -1.5930466622289317,
                -1.1436356573963344,
                0.3614258320496433,
                0.4741434791033705,
                1.8875127810992227
            ]
        },
        {
            "positions": [
                1.7127155437693462,
                -1.5630157950263348,
                -1.0672372262619536,
                0.25937398163484415,
                0.4791315633983673,
                1.9808156299766408
            ]
        },
        {
            "positions": [
                1.7970485722999974,
                -1.532984927823738,
                -0.9908387951275732,
                0.15732213122004524,
                0.48411964769336413,
                2.074118478854058
            ]
        },
        {
            "positions": [
                1.8813816008306485,
                -1.5029540606211411,
                -0.9144403639931924,
                0.05527028080524585,
                0.489107731988361,
                2.167421327731476
            ]
        },
        {
            "positions": [
                1.9252323399931044,
                -1.474185851270949,
                -0.7533376966653837,
                0.006199290015238695,
                0.5218956015821551,
                2.2264614677123364
            ]
        },
        {
            "positions": [
                1.9690830791555602,
                -1.4454176419207565,
                -0.5922350293375751,
                -0.042871700774768456,
                0.5546834711759492,
                2.285501607693197
            ]
        },
        {
            "positions": [
                2.012933818318016,
                -1.4166494325705643,
                -0.4311323620097664,
                -0.09194269156477564,
                0.5874713407697434,
                2.3445417476740573
            ]
        },
        {
            "positions": [
                2.056784557480472,
                -1.3878812232203719,
                -0.2700296946819578,
                -0.14101368235478276,
                0.6202592103635375,
                2.4035818876549175
            ]
        },
        {
            "positions": [
                2.1006352966429276,
                -1.3591130138701797,
                -0.10892702735414916,
                -0.19008467314478994,
                0.6530470799573316,
                2.462622027635778
            ]
        },
        {
            "positions": [
                2.1444860358053837,
                -1.3303448045199873,
                0.05217563997365959,
                -0.23915566393479712,
                0.6858349495511257,
                2.5216621676166384
            ]
        },
        {
            "positions": [
                2.1883367749678393,
                -1.301576595169795,
                0.21327830730146813,
                -0.28822665472480424,
                0.7186228191449198,
                2.5807023075974986
            ]
        },
        {
            "positions": [
                2.2321875141302954,
                -1.2728083858196029,
                0.3743809746292768,
                -0.33729764551481134,
                0.751410688738714,
                2.6397424475783593
            ]
        },
        {
            "positions": [
                2.276038253292751,
                -1.2440401764694105,
                0.5354836419570854,
                -0.38636863630481855,
                0.784198558332508,
                2.6987825875592195
            ]
        },
        {
            "positions": [
                2.319888992455207,
                -1.2152719671192183,
                0.6965863092848941,
                -0.43543962709482575,
                0.8169864279263022,
                2.7578227275400797
            ]
        },
        {
            "positions": [
                2.3637397316176627,
                -1.1865037577690258,
                0.8576889766127027,
                -0.48451061788483285,
                0.8497742975200963,
                2.8168628675209404
            ]
        },
        {
            "positions": [
                2.407590470780119,
                -1.1577355484188336,
                1.0187916439405116,
                -0.5335816086748401,
                0.8825621671138904,
                2.8759030075018006
            ]
        },
        {
            "positions": [
                2.4514412099425744,
                -1.1289673390686414,
                1.17989431126832,
                -0.582652599464847,
                0.9153500367076844,
                2.9349431474826613
            ]
        },
        {
            "positions": [
                2.49529194910503,
                -1.100199129718449,
                1.3409969785961287,
                -0.6317235902548543,
                0.9481379063014785,
                2.9939832874635215
            ]
        },
        {
            "positions": [
                2.539142688267486,
                -1.0714309203682568,
                1.5020996459239373,
                -0.6807945810448615,
                0.9809257758952727,
                3.0530234274443817
            ]
        },
        {
            "positions": [
                2.582993427429942,
                -1.0426627110180644,
                1.663202313251746,
                -0.7298655718348686,
                1.0137136454890667,
                3.112063567425242
            ]
        },
        {
            "positions": [
                2.626844166592398,
                -1.0138945016678722,
                1.8243049805795548,
                -0.7789365626248758,
                1.046501515082861,
                3.1711037074061026
            ]
        }
    ]
}