{
    "goal": {
        "global_pose": {
            "orientation": {
                "w": 0.5084816262002911,
                "x": -0.4908360881923452,
                "y": 0.5182115481033761,
                "z": -0.48164630358495003
            },
            "position": {
                "x": 0.5540239810943604,
                "y": -0.46912469901144505,
                "z": 0.16403168439865112
            }
        },
        "name": "move_to_storage_B"
    },
    "id": "RRTstar_move_to_storage_B_16",
    "joint_names": [
        "shoulder_pan_joint",
        "shoulder_lift_joint",
        "elbow_joint",
        "wrist_1_joint",
        "wrist_2_joint",
        "wrist_3_joint"
    ],
    "metrics": {
        "cart_traj_len": 0.7179466197961568,
        "distance_elbow_joint": 0.3495145590189166,
        "distance_shoulder_lift_joint": 0.4601784760014829,
        "distance_shoulder_pan_joint": 0.33178899077861124,
        "distance_wrist_1_joint": 2.9819919051078814,
        "distance_wrist_2_joint": 2.707297204163515,
        "distance_wrist_3_joint": 3.1301272286528747,
        "smoothness": 0.03766294203110369,
        "time": 5.035390304000001,
        "traj_len": 3.1560890931219423,
        "weighted_distance": 4.680859101735539
    },
    "planner": "RRTstar",
    "start": {
        "state": {
            "elbow_joint": 1.664937868594044,
            "shoulder_lift_joint": -0.661644460510453,
            "shoulder_pan_joint": -0.9139846352900073,
            "wrist_1_joint": 2.146753192139373,
            "wrist_2_joint": -2.2341966793290973,
            "wrist_3_joint": 0.005466555786416001
        }
    },
    "waypoints": [
        {
            "positions": [
                -0.9139846352900073,
                -0.661644460510453,
                1.664937868594044,
                2.146753192139373,
                -2.2341966793290973,
                0.005466555786416001
            ]
        },
        {
            "positions": [
                -0.9016534468445756,
                -0.6818377422239228,
                1.6729288332261776,
                2.1401760301942994,
                -2.142868359316217,
                0.02754269278529136
            ]
        },
        {
            "positions": [
                -0.8807575213347115,
                -0.718156366382659,
                1.6877648832076964,
                2.1204988078874525,
                -1.9768750306621146,
                0.0745273493720176
            ]
        },
        {
            "positions": [
                -0.8598615958248473,
                -0.7544749905413951,
                1.702600933189215,
                2.100821585580605,
                -1.810881702008012,
                0.12151200595874384
            ]
        },
        {
            "positions": [
                -0.8389656703149833,
                -0.7907936147001313,
                1.7174369831707337,
                2.0811443632737583,
                -1.644888373353909,
                0.16849666254547008
            ]
        },
        {
            "positions": [
                -0.8501295844803566,
                -0.8051861939093402,
                1.7303506981464827,
                1.9543450990893119,
                -1.552801899519634,
                0.29750088523650575
            ]
        },
        {
            "positions": [
                -0.86129349864573,
                -0.8195787731185491,
                1.7432644131222317,
                1.8275458349048654,
                -1.460715425685359,
                0.4265051079275414
            ]
        },
        {
            "positions": [
                -0.8724574128111033,
                -0.833971352327758,
                1.7561781280979807,
                1.7007465707204192,
                -1.3686289518510837,
                0.5555093306185771
            ]
        },
        {
            "positions": [
                -0.8836213269764767,
                -0.8483639315369669,
                1.7690918430737297,
                1.5739473065359728,
                -1.2765424780168086,
                0.6845135533096127
            ]
        },
        {
            "positions": [
                -0.89478524114185,
                -0.8627565107461758,
                1.7820055580494787,
                1.4471480423515266,
                -1.1844560041825336,
                0.8135177760006485
            ]
        },
        {
            "positions": [
                -0.9059491553072234,
                -0.8771490899553847,
                1.7949192730252277,
                1.3203487781670802,
                -1.0923695303482583,
                0.9425219986916842
            ]
        },
        {
            "positions": [
                -0.9171130694725967,
                -0.8915416691645935,
                1.8078329880009767,
                1.1935495139826338,
                -1.0002830565139833,
                1.07152622138272
            ]
        },
        {
            "positions": [
                -0.9282769836379701,
                -0.9059342483738024,
                1.8207467029767257,
                1.0667502497981873,
                -0.9081965826797083,
                1.2005304440737554
            ]
        },
        {
            "positions": [
                -0.9394408978033435,
                -0.9203268275830114,
                1.8336604179524747,
                0.9399509856137409,
                -0.8161101088454331,
                1.3295346667647912
            ]
        },
        {
            "positions": [
                -0.9506048119687168,
                -0.9347194067922202,
                1.8465741329282235,
                0.8131517214292947,
                -0.7240236350111581,
                1.4585388894558269
            ]
        },
        {
            "positions": [
                -0.9617687261340901,
                -0.9491119860014292,
                1.8594878479039725,
                0.6863524572448483,
                -0.6319371611768829,
                1.5875431121468626
            ]
        },
        {
            "positions": [
                -0.9729326402994636,
                -0.963504565210638,
                1.8724015628797215,
                0.5595531930604019,
                -0.5398506873426079,
                1.7165473348378981
            ]
        },
        {
            "positions": [
                -0.9840965544648369,
                -0.977897144419847,
                1.8853152778554705,
                0.43275392887595565,
                -0.44776421350833284,
                1.8455515575289339
            ]
        },
        {
            "positions": [
                -0.9952604686302102,
                -0.9922897236290559,
                1.8982289928312195,
                0.305954664691509,
                -0.3556777396740576,
                1.9745557802199696
            ]
        },
        {
            "positions": [
                -1.0064243827955837,
                -1.0066823028382648,
                1.9111427078069685,
                0.1791554005070628,
                -0.26359126583978254,
                2.1035600029110055
            ]
        },
        {
            "positions": [
                -1.0175882969609569,
                -1.0210748820474735,
                1.9240564227827175,
                0.052356136322616376,
                -0.1715047920055075,
                2.232564225602041
            ]
        },
        {
            "positions": [
                -1.0287522111263303,
                -1.0354674612566825,
                1.9369701377584665,
                -0.0744431278618296,
                -0.07941831817123246,
                2.3615684482930765
            ]
        },
        {
            "positions": [
                -1.0399161252917037,
                -1.0498600404658913,
                1.9498838527342155,
                -0.20124239204627647,
                0.012668155663042802,
                2.4905726709841125
            ]
        },
        {
            "positions": [
                -1.051080039457077,
                -1.0642526196751003,
                1.9627975677099645,
                -0.3280416562307229,
                0.10475462949731784,
                2.619576893675148
            ]
        },
        {
            "positions": [
                -1.0622439536224504,
                -1.0786451988843093,
                1.9757112826857135,
                -0.4548409204151689,
                0.19684110333159288,
                2.748581116366184
            ]
        },
        {
            "positions": [
                -1.0734078677878238,
                -1.093037778093518,
                1.9886249976614625,
                -0.5816401845996153,
                0.2889275771658679,
                2.8775853390572195
            ]
        },
        {
            "positions": [
                -1.084571781953197,
                -1.1074303573027269,
                2.0015387126372115,
                -0.7084394487840617,
                0.3810140510001432,
                3.0065895617482554
            ]
        },
        {
            "positions": [
                -1.0957356961185705,
                -1.1218229365119359,
                2.0144524276129605,
                -0.8352387129685082,
                0.4731005248344181,
                3.135593784439291
            ]
        }
    ]
}