{
    "goal": {
        "global_pose": {
            "orientation": {
                "w": -0.4816463035849501,
                "x": 0.5182115481033762,
                "y": 0.4908360881923453,
                "z": -0.5084816262002911
            },
            "position": {
                "x": -0.8240239810943604,
                "y": -0.300875300988555,
                "z": 0.16403168439865112
            }
        },
        "name": "move_to_storage_C"
    },
    "id": "RRTstar_move_to_storage_C_52",
    "joint_names": [
        "shoulder_pan_joint",
        "shoulder_lift_joint",
        "elbow_joint",
        "wrist_1_joint",
        "wrist_2_joint",
        "wrist_3_joint"
    ],
    "metrics": {
        "cart_traj_len": 0.5766292061693203,
        "distance_elbow_joint": 0.2534140803365683,
        "distance_shoulder_lift_joint": 0.18887250433022662,
        "distance_shoulder_pan_joint": 0.4958125104761688,
        "distance_wrist_1_joint": 0.06331095191354741,
        "distance_wrist_2_joint": 1.0624979650362518,
        "distance_wrist_3_joint": 0.055426511185219685,
        "smoothness": 0.0,
        "time": 5.042975831,
        "traj_len": 1.4557934342749257,
        "weighted_distance": 1.8319378981281602
    },
    "planner": "RRTstar",
    "start": {
        "state": {
            "elbow_joint": 2.010868314990456,
            "shoulder_lift_joint": -1.1634956873337592,
            "shoulder_pan_joint": -2.4736205022346125,
            "wrist_1_joint": -0.8367026794202681,
            "wrist_2_joint": 0.6746043897044499,
            "wrist_3_joint": -3.1496632123970403
        }
    },
    "waypoints": [
        {
            "positions": [
                -2.4736205022346125,
                -1.1634956873337592,
                2.010868314990456,
                -0.8367026794202681,
                0.6746043897044499,
                -3.1496632123970403
            ]
        },
        {
            "positions": [
                -2.5562559206473074,
                -1.1320169366120547,
                1.968632634934361,
                -0.8261508541013436,
                0.8516873838771586,
                -3.140425460532837
            ]
        },
        {
            "positions": [
                -2.638891339060002,
                -1.1005381858903502,
                1.9263969548782665,
                -0.815599028782419,
                1.0287703780498672,
                -3.1311877086686337
            ]
        },
        {
            "positions": [
                -2.721526757472697,
                -1.0690594351686458,
                1.8841612748221717,
                -0.8050472034634943,
                1.2058533722225757,
                -3.12194995680443
            ]
        },
        {
            "positions": [
                -2.804162175885392,
                -1.0375806844469415,
                1.8419255947660769,
                -0.7944953781445698,
                1.3829363663952843,
                -3.112712204940227
            ]
        },
        {
            "positions": [
                -2.8867975942980864,
                -1.006101933725237,
                1.7996899147099823,
                -0.7839435528256453,
                1.5600193605679933,
                -3.103474453076024
            ]
        },
        {
            "positions": [
                -2.9694330127107813,
                -0.9746231830035326,
                1.7574542346538875,
                -0.7733917275067207,
                1.7371023547407018,
                -3.0942367012118206
            ]
        }
    ]
}