{
    "goal": {
        "global_pose": {
            "orientation": {
                "w": -0.4816463035849501,
                "x": 0.5182115481033762,
                "y": 0.4908360881923453,
                "z": -0.5084816262002911
            },
            "position": {
                "x": -0.8240239810943604,
                "y": -0.300875300988555,
                "z": 0.16403168439865112
            }
        },
        "name": "move_to_storage_C"
    },
    "id": "RRTstar_move_to_storage_C_97",
    "joint_names": [
        "shoulder_pan_joint",
        "shoulder_lift_joint",
        "elbow_joint",
        "wrist_1_joint",
        "wrist_2_joint",
        "wrist_3_joint"
    ],
    "metrics": {
        "cart_traj_len": 0.5760764075471688,
        "distance_elbow_joint": 0.25557624758887476,
        "distance_shoulder_lift_joint": 0.18923412884172786,
        "distance_shoulder_pan_joint": 0.4941363152776992,
        "distance_wrist_1_joint": 0.06507870110075042,
        "distance_wrist_2_joint": 1.0642326330432006,
        "distance_wrist_3_joint": 0.06868098352940155,
        "smoothness": 2.5376526478085547e-16,
        "time": 5.002389681,
        "traj_len": 1.4618272843881572,
        "weighted_distance": 1.8448881566600206
    },
    "planner": "RRTstar",
    "start": {
        "state": {
            "elbow_joint": 2.010868314990456,
            "shoulder_lift_joint": -1.1634956873337592,
            "shoulder_pan_joint": -2.4736205022346125,
            "wrist_1_joint": -0.8367026794202681,
            "wrist_2_joint": 0.6746043897044499,
            "wrist_3_joint": -3.1496632123970403
        }
    },
    "waypoints": [
        {
            "positions": [
                -2.4736205022346125,
                -1.1634956873337592,
                2.010868314990456,
                -0.8367026794202681,
                0.6746043897044499,
                -3.1496632123970403
            ]
        },
        {
            "positions": [
                -2.5559765547808957,
                -1.1319566658601379,
                1.9682722737256433,
                -0.8258562292368097,
                0.85197649521165,
                -3.1382163818088067
            ]
        },
        {
            "positions": [
                -2.638332607327179,
                -1.1004176443865166,
                1.925676232460831,
                -0.8150097790533513,
                1.0293486007188501,
                -3.126769551220573
            ]
        },
        {
            "positions": [
                -2.720688659873462,
                -1.0688786229128953,
                1.8830801911960184,
                -0.8041633288698928,
                1.2067207062260503,
                -3.1153227206323395
            ]
        },
        {
            "positions": [
                -2.8030447124197453,
                -1.037339601439274,
                1.840484149931206,
                -0.7933168786864345,
                1.3840928117332503,
                -3.103875890044106
            ]
        },
        {
            "positions": [
                -2.8854007649660285,
                -1.0058005799656526,
                1.7978881086663936,
                -0.7824704285029761,
                1.5614649172404504,
                -3.0924290594558723
            ]
        },
        {
            "positions": [
                -2.9677568175123117,
                -0.9742615584920313,
                1.755292067401581,
                -0.7716239783195177,
                1.7388370227476506,
                -3.0809822288676387
            ]
        }
    ]
}