{
    "goal": {
        "global_pose": {
            "orientation": {
                "w": -0.00223480608172531,
                "x": 0.0024358444001904467,
                "y": 0.7094548369677653,
                "z": -0.704743149386269
            },
            "position": {
                "x": 0.6205249238014221,
                "y": -0.6371506643295288,
                "z": 0.19426114857196808
            }
        },
        "name": "move_to_magneteinheit_B"
    },
    "id": "RRTstar_move_to_magneteinheit_B_117",
    "joint_names": [
        "shoulder_pan_joint",
        "shoulder_lift_joint",
        "elbow_joint",
        "wrist_1_joint",
        "wrist_2_joint",
        "wrist_3_joint"
    ],
    "metrics": {
        "cart_traj_len": 1.8953535170968294,
        "distance_elbow_joint": 0.9587647007009521,
        "distance_shoulder_lift_joint": 1.4607802147796893,
        "distance_shoulder_pan_joint": 2.112351335041042,
        "distance_wrist_1_joint": 0.18572192039555535,
        "distance_wrist_2_joint": 1.5201534902452745,
        "distance_wrist_3_joint": 0.008067518662446312,
        "smoothness": 0.7669181553430717,
        "time": 5.010774286,
        "traj_len": 2.4991676974194745,
        "weighted_distance": 2.822737966547848
    },
    "planner": "RRTstar",
    "start": {
        "state": {
            "elbow_joint": 2.6216224122426386,
            "shoulder_lift_joint": -1.4174107377796124,
            "shoulder_pan_joint": 0.7066234856936794,
            "wrist_1_joint": 1.9546482284002225,
            "wrist_2_joint": -0.7096286983471962,
            "wrist_3_joint": 0.005740856962016249
        }
    },
    "waypoints": [
        {
            "positions": [
                0.7066234856936794,
                -1.4174107377796124,
                2.6216224122426386,
                1.9546482284002225,
                -0.7096286983471962,
                0.005740856962016249
            ]
        },
        {
            "positions": [
                0.7679159625911233,
                -1.5053056779445724,
                2.566095541875976,
                1.9662249963432656,
                -0.8532095987620447,
                0.0038679293383569423
            ]
        },
        {
            "positions": [
                0.8292084394885673,
                -1.5932006181095324,
                2.5105686715093127,
                1.9778017642863086,
                -0.9967904991768931,
                0.0019950017146976354
            ]
        },
        {
            "positions": [
                0.8905009163860111,
                -1.6810955582744924,
                2.4550418011426496,
                1.9893785322293516,
                -1.1403713995917415,
                0.00012207409103832858
            ]
        },
        {
            "positions": [
                0.951793393283455,
                -1.7689904984394524,
                2.399514930775987,
                2.0009553001723948,
                -1.28395230000659,
                -0.0017508535326209778
            ]
        },
        {
            "positions": [
                0.8081640527102807,
                -1.6836673865840794,
                2.342848990834887,
                2.0116795192972705,
                -1.356708445282427,
                -0.0017951464686062919
            ]
        },
        {
            "positions": [
                0.6645347121371064,
                -1.5983442747287064,
                2.286183050893787,
                2.022403738422146,
                -1.429464590558264,
                -0.0018394394045916059
            ]
        },
        {
            "positions": [
                0.520905371563932,
                -1.5130211628733334,
                2.2295171109526866,
                2.0331279575470216,
                -1.5022207358341009,
                -0.00188373234057692
            ]
        },
        {
            "positions": [
                0.3772760309907577,
                -1.4276980510179604,
                2.1728511710115868,
                2.0438521766718973,
                -1.5749768811099378,
                -0.001928025276562234
            ]
        },
        {
            "positions": [
                0.23364669041758335,
                -1.3423749391625872,
                2.116185231070487,
                2.0545763957967726,
                -1.647733026385775,
                -0.001972318212547548
            ]
        },
        {
            "positions": [
                0.09001734984440901,
                -1.2570518273072144,
                2.0595192911293867,
                2.0653006149216484,
                -1.7204891716616117,
                -0.002016611148532862
            ]
        },
        {
            "positions": [
                -0.053611990728765324,
                -1.1717287154518412,
                2.0028533511882864,
                2.076024834046524,
                -1.793245316937449,
                -0.002060904084518176
            ]
        },
        {
            "positions": [
                -0.19724133130193966,
                -1.0864056035964682,
                1.9461874112471866,
                2.0867490531714,
                -1.8660014622132859,
                -0.00210519702050349
            ]
        },
        {
            "positions": [
                -0.340870671875114,
                -1.0010824917410952,
                1.8895214713060866,
                2.0974732722962752,
                -1.9387576074891228,
                -0.002149489956488804
            ]
        },
        {
            "positions": [
                -0.48450001244828833,
                -0.9157593798857222,
                1.8328555313649866,
                2.108197491421151,
                -2.0115137527649596,
                -0.002193782892474118
            ]
        },
        {
            "positions": [
                -0.6281293530214627,
                -0.8304362680303492,
                1.7761895914238865,
                2.1189217105460267,
                -2.0842698980407968,
                -0.002238075828459432
            ]
        },
        {
            "positions": [
                -0.771758693594637,
                -0.7451131561749762,
                1.7195236514827865,
                2.129645929670902,
                -2.157026043316634,
                -0.002282368764444746
            ]
        },
        {
            "positions": [
                -0.9153880341678114,
                -0.6597900443196032,
                1.6628577115416865,
                2.140370148795778,
                -2.2297821885924707,
                -0.00232666170043006
            ]
        }
    ]
}