{
    "goal": {
        "global_pose": {
            "orientation": {
                "w": -0.4816463035849501,
                "x": 0.5182115481033762,
                "y": 0.4908360881923453,
                "z": -0.5084816262002911
            },
            "position": {
                "x": -0.8240239810943604,
                "y": 0.19912469901144506,
                "z": 0.16403168439865112
            }
        },
        "name": "move_to_storage_D"
    },
    "id": "RRTstar_move_to_storage_D_56",
    "joint_names": [
        "shoulder_pan_joint",
        "shoulder_lift_joint",
        "elbow_joint",
        "wrist_1_joint",
        "wrist_2_joint",
        "wrist_3_joint"
    ],
    "metrics": {
        "cart_traj_len": 3.7767674964879756,
        "distance_elbow_joint": 4.208626340866938,
        "distance_shoulder_lift_joint": 1.2651110590358228,
        "distance_shoulder_pan_joint": 2.812611086210314,
        "distance_wrist_1_joint": 2.2646472489804053,
        "distance_wrist_2_joint": 0.86730128682748,
        "distance_wrist_3_joint": 3.1398186773596706,
        "smoothness": 1.8698493062526238e-16,
        "time": 5.0316354400000005,
        "traj_len": 3.8155098871947155,
        "weighted_distance": 4.895886190446819
    },
    "planner": "RRTstar",
    "start": {
        "state": {
            "elbow_joint": -2.384821988534728,
            "shoulder_lift_joint": -2.2788054721415256,
            "shoulder_pan_joint": -0.1854694642142757,
            "wrist_1_joint": 1.4845938289331202,
            "wrist_2_joint": 0.17898776772866878,
            "wrist_3_joint": 0.037105688729662994
        }
    },
    "waypoints": [
        {
            "positions": [
                -0.1854694642142757,
                -2.2788054721415256,
                -2.384821988534728,
                1.4845938289331202,
                0.17898776772866878,
                0.037105688729662994
            ]
        },
        {
            "positions": [
                -0.08677905111829805,
                -2.2361266199214738,
                -2.279186944991956,
                1.4340690702723833,
                0.2060888881858925,
                -0.03393798166292329
            ]
        },
        {
            "positions": [
                0.011911361977679613,
                -2.193447767701422,
                -2.173551901449184,
                1.3835443116116464,
                0.23319000864311623,
                -0.10498165205550958
            ]
        },
        {
            "positions": [
                0.11060177507365729,
                -2.1507689154813696,
                -2.067916857906412,
                1.3330195529509095,
                0.26029112910033997,
                -0.17602532244809588
            ]
        },
        {
            "positions": [
                0.20929218816963494,
                -2.1080900632613178,
                -1.96228181436364,
                1.2824947942901725,
                0.2873922495575637,
                -0.24706899284068215
            ]
        },
        {
            "positions": [
                0.3079826012656126,
                -2.065411211041266,
                -1.8566467708208678,
                1.2319700356294354,
                0.3144933700147874,
                -0.3181126632332685
            ]
        },
        {
            "positions": [
                0.4066730143615903,
                -2.022732358821214,
                -1.751011727278096,
                1.1814452769686987,
                0.3415944904720111,
                -0.3891563336258548
            ]
        },
        {
            "positions": [
                0.505363427457568,
                -1.980053506601162,
                -1.6453766837353239,
                1.1309205183079616,
                0.36869561092923486,
                -0.4602000040184411
            ]
        },
        {
            "positions": [
                0.6040538405535456,
                -1.9373746543811101,
                -1.5397416401925519,
                1.0803957596472247,
                0.39579673138645854,
                -0.5312436744110273
            ]
        },
        {
            "positions": [
                0.7027442536495234,
                -1.894695802161058,
                -1.4341065966497797,
                1.0298710009864878,
                0.42289785184368234,
                -0.6022873448036137
            ]
        },
        {
            "positions": [
                0.801434666745501,
                -1.8520169499410062,
                -1.3284715531070077,
                0.9793462423257508,
                0.449998972300906,
                -0.6733310151961999
            ]
        },
        {
            "positions": [
                0.9001250798414787,
                -1.809338097720954,
                -1.222836509564236,
                0.9288214836650139,
                0.4771000927581298,
                -0.7443746855887862
            ]
        },
        {
            "positions": [
                0.9988154929374563,
                -1.7666592455009023,
                -1.117201466021464,
                0.878296725004277,
                0.5042012132153535,
                -0.8154183559813725
            ]
        },
        {
            "positions": [
                1.097505906033434,
                -1.7239803932808502,
                -1.0115664224786918,
                0.82777196634354,
                0.5313023336725772,
                -0.8864620263739588
            ]
        },
        {
            "positions": [
                1.1961963191294116,
                -1.6813015410607983,
                -0.9059313789359198,
                0.7772472076828031,
                0.558403454129801,
                -0.9575056967665451
            ]
        },
        {
            "positions": [
                1.2948867322253892,
                -1.6386226888407465,
                -0.8002963353931478,
                0.7267224490220662,
                0.5855045745870247,
                -1.0285493671591313
            ]
        },
        {
            "positions": [
                1.3935771453213668,
                -1.5959438366206946,
                -0.6946612918503758,
                0.6761976903613293,
                0.6126056950442483,
                -1.0995930375517176
            ]
        },
        {
            "positions": [
                1.4922675584173444,
                -1.5532649844006425,
                -0.5890262483076039,
                0.6256729317005923,
                0.6397068155014721,
                -1.1706367079443039
            ]
        },
        {
            "positions": [
                1.5909579715133224,
                -1.5105861321805905,
                -0.48339120476483166,
                0.5751481730398553,
                0.6668079359586959,
                -1.2416803783368904
            ]
        },
        {
            "positions": [
                1.6896483846093,
                -1.4679072799605386,
                -0.37775616122205946,
                0.5246234143791184,
                0.6939090564159196,
                -1.3127240487294767
            ]
        },
        {
            "positions": [
                1.7883387977052776,
                -1.4252284277404867,
                -0.2721211176792875,
                0.4740986557183815,
                0.7210101768731433,
                -1.3837677191220628
            ]
        },
        {
            "positions": [
                1.8870292108012552,
                -1.3825495755204347,
                -0.16648607413651595,
                0.4235738970576446,
                0.748111297330367,
                -1.454811389514649
            ]
        },
        {
            "positions": [
                1.985719623897233,
                -1.3398707233003826,
                -0.06085103059374397,
                0.3730491383969077,
                0.7752124177875908,
                -1.5258550599072354
            ]
        },
        {
            "positions": [
                2.0844100369932104,
                -1.2971918710803307,
                0.04478401294902801,
                0.32252437973617076,
                0.8023135382448144,
                -1.5968987302998217
            ]
        },
        {
            "positions": [
                2.183100450089188,
                -1.2545130188602789,
                0.15041905649179999,
                0.27199962107543385,
                0.8294146587020381,
                -1.667942400692408
            ]
        },
        {
            "positions": [
                2.281790863185166,
                -1.2118341666402268,
                0.2560541000345724,
                0.22147486241469672,
                0.8565157791592619,
                -1.7389860710849945
            ]
        },
        {
            "positions": [
                2.380481276281144,
                -1.169155314420175,
                0.3616891435773444,
                0.1709501037539598,
                0.8836168996164856,
                -1.8100297414775806
            ]
        },
        {
            "positions": [
                2.479171689377121,
                -1.1264764622001229,
                0.46732418712011636,
                0.12042534509322289,
                0.9107180200737094,
                -1.8810734118701669
            ]
        },
        {
            "positions": [
                2.577862102473099,
                -1.083797609980071,
                0.5729592306628886,
                0.06990058643248598,
                0.9378191405309331,
                -1.9521170822627532
            ]
        },
        {
            "positions": [
                2.5833376046423147,
                -1.076008365882919,
                0.7119420219594799,
                -0.024538747620821866,
                0.9498713532004015,
                -2.0799610718591146
            ]
        },
        {
            "positions": [
                2.58881310681153,
                -1.068219121785767,
                0.8509248132560713,
                -0.11897808167412971,
                0.9619235658698699,
                -2.2078050614554763
            ]
        },
        {
            "positions": [
                2.5942886089807455,
                -1.060429877688615,
                0.9899076045526627,
                -0.21341741572743755,
                0.9739757785393383,
                -2.335649051051838
            ]
        },
        {
            "positions": [
                2.5997641111499608,
                -1.0526406335914629,
                1.128890395849254,
                -0.3078567497807454,
                0.9860279912088067,
                -2.4634930406481996
            ]
        },
        {
            "positions": [
                2.6052396133191764,
                -1.044851389494311,
                1.2678731871458455,
                -0.40229608383405324,
                0.9980802038782751,
                -2.5913370302445613
            ]
        },
        {
            "positions": [
                2.6107151154883916,
                -1.037062145397159,
                1.4068559784424368,
                -0.4967354178873611,
                1.0101324165477434,
                -2.7191810198409225
            ]
        },
        {
            "positions": [
                2.6161906176576073,
                -1.0292729013000068,
                1.5458387697390283,
                -0.5911747519406689,
                1.0221846292172119,
                -2.847025009437284
            ]
        },
        {
            "positions": [
                2.6216661198268225,
                -1.021483657202855,
                1.6848215610356194,
                -0.6856140859939768,
                1.0342368418866803,
                -2.974868999033646
            ]
        },
        {
            "positions": [
                2.627141621996038,
                -1.0136944131057029,
                1.823804352332211,
                -0.7800534200472846,
                1.0462890545561487,
                -3.1027129886300076
            ]
        }
    ]
}