{
    "goal": {
        "global_pose": {
            "orientation": {
                "w": 0.005598929693374612,
                "x": 0.007748599140229565,
                "y": 0.7110244013736278,
                "z": -0.7031023480610252
            },
            "position": {
                "x": 0.1141497679147869,
                "y": -0.7141253447532654,
                "z": 0.3711530566215515
            }
        },
        "name": "move_to_auspresseinheit_B"
    },
    "id": "RRTstar_move_to_auspresseinheit_B_62",
    "joint_names": [
        "shoulder_pan_joint",
        "shoulder_lift_joint",
        "elbow_joint",
        "wrist_1_joint",
        "wrist_2_joint",
        "wrist_3_joint"
    ],
    "metrics": {
        "cart_traj_len": 0.5639791842113635,
        "distance_elbow_joint": 0.05990269641519874,
        "distance_shoulder_lift_joint": 0.29520325401367353,
        "distance_shoulder_pan_joint": 0.5763981310539283,
        "distance_wrist_1_joint": 0.3192897889090792,
        "distance_wrist_2_joint": 0.9947106734027569,
        "distance_wrist_3_joint": 0.0038276917155681822,
        "smoothness": 5.075305255429287e-16,
        "time": 5.001198887,
        "traj_len": 1.4997773953191202,
        "weighted_distance": 1.889705818706493
    },
    "planner": "RRTstar",
    "start": {
        "state": {
            "elbow_joint": 2.0193083361928714,
            "shoulder_lift_joint": -1.1220246554650708,
            "shoulder_pan_joint": -1.0952077554168747,
            "wrist_1_joint": -0.8559753972642168,
            "wrist_2_joint": 0.4759566250798843,
            "wrist_3_joint": -3.1240929996934557
        }
    },
    "waypoints": [
        {
            "positions": [
                -1.0952077554168747,
                -1.1220246554650708,
                2.0193083361928714,
                -0.8559753972642168,
                0.4759566250798843,
                -3.1240929996934557
            ]
        },
        {
            "positions": [
                -1.1912741105925293,
                -1.1712251978006831,
                2.009324553457005,
                -0.8027604324460369,
                0.6417417373136771,
                -3.124730948312717
            ]
        },
        {
            "positions": [
                -1.2873404657681842,
                -1.2204257401362952,
                1.9993407707211386,
                -0.749545467627857,
                0.8075268495474699,
                -3.1253688969319784
            ]
        },
        {
            "positions": [
                -1.3834068209438388,
                -1.2696262824719076,
                1.9893569879852722,
                -0.6963305028096771,
                0.9733119617812627,
                -3.12600684555124
            ]
        },
        {
            "positions": [
                -1.4794731761194935,
                -1.31882682480752,
                1.9793732052494055,
                -0.6431155379914973,
                1.1390970740150554,
                -3.126644794170501
            ]
        },
        {
            "positions": [
                -1.5755395312951483,
                -1.368027367143132,
                1.969389422513539,
                -0.5899005731733173,
                1.3048821862488484,
                -3.1272827427897623
            ]
        },
        {
            "positions": [
                -1.671605886470803,
                -1.4172279094787443,
                1.9594056397776727,
                -0.5366856083551376,
                1.4706672984826412,
                -3.127920691409024
            ]
        }
    ]
}