{
    "goal": {
        "global_pose": {
            "orientation": {
                "w": 0.5084816217422485,
                "x": -0.49083608388900757,
                "y": 0.5182115435600281,
                "z": -0.4816462993621826
            },
            "position": {
                "x": 0.5540239810943604,
                "y": 0.030875300988554955,
                "z": 0.16403168439865112
            }
        },
        "name": "move_to_storage_A"
    },
    "id": "RRTstar_move_to_storage_A_126",
    "joint_names": [
        "shoulder_pan_joint",
        "shoulder_lift_joint",
        "elbow_joint",
        "wrist_1_joint",
        "wrist_2_joint",
        "wrist_3_joint"
    ],
    "metrics": {
        "cart_traj_len": 0.3525860338951977,
        "distance_elbow_joint": 0.44774233551846643,
        "distance_shoulder_lift_joint": 0.2344402497222402,
        "distance_shoulder_pan_joint": 0.46107917573909174,
        "distance_wrist_1_joint": 0.23488724109253833,
        "distance_wrist_2_joint": 1.097440418281936,
        "distance_wrist_3_joint": 0.10107400247215148,
        "smoothness": 2.2204460668324854e-16,
        "time": 5.000818678,
        "traj_len": 1.6051988732946534,
        "weighted_distance": 2.0275944089351796
    },
    "planner": "RRTstar",
    "start": {
        "state": {
            "elbow_joint": 1.971548259319323,
            "shoulder_lift_joint": -1.1394851275133948,
            "shoulder_pan_joint": 0.1228115487234821,
            "wrist_1_joint": -0.7804723859257726,
            "wrist_2_joint": 0.12958671773740124,
            "wrist_3_joint": -3.192489227718131
        }
    },
    "waypoints": [
        {
            "positions": [
                0.1228115487234821,
                -1.1394851275133948,
                1.971548259319323,
                -0.7804723859257726,
                0.12958671773740124,
                -3.192489227718131
            ]
        },
        {
            "positions": [
                0.056943095046468994,
                -1.172976591759429,
                2.035511450107675,
                -0.8140277060818495,
                0.2863639203491064,
                -3.1780500845078237
            ]
        },
        {
            "positions": [
                -0.008925358630544111,
                -1.2064680560054635,
                2.0994746408960276,
                -0.8475830262379265,
                0.44314112296081154,
                -3.1636109412975166
            ]
        },
        {
            "positions": [
                -0.07479381230755722,
                -1.2399595202514977,
                2.16343783168438,
                -0.8811383463940033,
                0.5999183255725167,
                -3.149171798087209
            ]
        },
        {
            "positions": [
                -0.14066226598457032,
                -1.2734509844975321,
                2.2274010224727325,
                -0.9146936665500802,
                0.7566955281842218,
                -3.1347326548769017
            ]
        },
        {
            "positions": [
                -0.20653071966158343,
                -1.3069424487435664,
                2.291364213261085,
                -0.9482489867061572,
                0.913472730795927,
                -3.120293511666594
            ]
        },
        {
            "positions": [
                -0.27239917333859653,
                -1.3404339129896008,
                2.355327404049437,
                -0.981804306862234,
                1.070249933407632,
                -3.105854368456287
            ]
        },
        {
            "positions": [
                -0.33826762701560964,
                -1.373925377235635,
                2.4192905948377894,
                -1.015359627018311,
                1.2270271360193372,
                -3.0914152252459797
            ]
        }
    ]
}{
    "goal": {
        "global_pose": {
            "orientation": {
                "w": 0.5084816217422485,
                "x": -0.49083608388900757,
                "y": 0.5182115435600281,
                "z": -0.4816462993621826
            },
            "position": {
                "x": 0.5540239810943604,
                "y": 0.030875300988554955,
                "z": 0.16403168439865112
            }
        },
        "name": "move_to_storage_A"
    },
    "id": "RRTstar_move_to_storage_A_126",
    "joint_names": [
        "shoulder_pan_joint",
        "shoulder_lift_joint",
        "elbow_joint",
        "wrist_1_joint",
        "wrist_2_joint",
        "wrist_3_joint"
    ],
    "metrics": {
        "cart_traj_len": 0.3529272647193679,
        "distance_elbow_joint": 0.4483482224726747,
        "distance_shoulder_lift_joint": 0.23630741385473142,
        "distance_shoulder_pan_joint": 0.46349458572763846,
        "distance_wrist_1_joint": 0.23488949618926425,
        "distance_wrist_2_joint": 1.0905068320524276,
        "distance_wrist_3_joint": 0.09313973757508887,
        "smoothness": 2.2204460668324854e-16,
        "time": 5.0023020869999995,
        "traj_len": 1.6020881024063018,
        "weighted_distance": 2.0194955041454525
    },
    "planner": "RRTstar",
    "start": {
        "state": {
            "elbow_joint": 1.97154746011099,
            "shoulder_lift_joint": -1.13948474672311,
            "shoulder_pan_joint": 0.12281154466712228,
            "wrist_1_joint": -0.7804688027058302,
            "wrist_2_joint": 0.12958655903071145,
            "wrist_3_joint": 3.0906928834467795
        }
    },
    "waypoints": [
        {
            "positions": [
                0.12281154466712228,
                -1.13948474672311,
                1.97154746011099,
                -0.7804688027058302,
                0.12958655903071145,
                3.0906928834467795
            ]
        },
        {
            "positions": [
                0.05659803242031679,
                -1.1732429487023572,
                2.035597206178515,
                -0.8140244450185822,
                0.2853732493239154,
                3.103998560243221
            ]
        },
        {
            "positions": [
                -0.009615479826488707,
                -1.2070011506816047,
                2.0996469522460397,
                -0.8475800873313343,
                0.4411599396171193,
                3.117304237039662
            ]
        },
        {
            "positions": [
                -0.0758289920732942,
                -1.240759352660852,
                2.1636966983135646,
                -0.8811357296440863,
                0.5969466299103232,
                3.1306099138361034
            ]
        },
        {
            "positions": [
                -0.14204250432009968,
                -1.2745175546400993,
                2.22774644438109,
                -0.9146913719568384,
                0.7527333202035272,
                3.1439155906325444
            ]
        },
        {
            "positions": [
                -0.20825601656690518,
                -1.3082757566193468,
                2.291796190448615,
                -0.9482470142695903,
                0.9085200104967313,
                3.157221267428986
            ]
        },
        {
            "positions": [
                -0.2744695288137107,
                -1.342033958598594,
                2.3558459365161397,
                -0.9818026565823423,
                1.064306700789935,
                3.170526944225427
            ]
        },
        {
            "positions": [
                -0.34068304106051617,
                -1.3757921605778414,
                2.4198956825836646,
                -1.0153582988950944,
                1.220093391083139,
                3.1838326210218684
            ]
        }
    ]
}{
    "goal": {
        "global_pose": {
            "orientation": {
                "w": 0.5084816217422485,
                "x": -0.49083608388900757,
                "y": 0.5182115435600281,
                "z": -0.4816462993621826
            },
            "position": {
                "x": 0.5540239810943604,
                "y": 0.030875300988554955,
                "z": 0.16403168439865112
            }
        },
        "name": "move_to_storage_A"
    },
    "id": "RRTstar_move_to_storage_A_126",
    "joint_names": [
        "shoulder_pan_joint",
        "shoulder_lift_joint",
        "elbow_joint",
        "wrist_1_joint",
        "wrist_2_joint",
        "wrist_3_joint"
    ],
    "metrics": {
        "cart_traj_len": 0.3532517561386529,
        "distance_elbow_joint": 0.4484244736757863,
        "distance_shoulder_lift_joint": 0.23474624314717318,
        "distance_shoulder_pan_joint": 0.4605386168648826,
        "distance_wrist_1_joint": 0.2369915898965984,
        "distance_wrist_2_joint": 1.1050383082771496,
        "distance_wrist_3_joint": 0.09516961916283506,
        "smoothness": 8.881784267329941e-16,
        "time": 5.0012674960000005,
        "traj_len": 1.6065207284764256,
        "weighted_distance": 2.028121788138928
    },
    "planner": "RRTstar",
    "start": {
        "state": {
            "elbow_joint": 1.9715472970024885,
            "shoulder_lift_joint": -1.1394870060712896,
            "shoulder_pan_joint": 0.12281152778156021,
            "wrist_1_joint": -0.780463741449964,
            "wrist_2_joint": 0.12958659822042276,
            "wrist_3_joint": 3.090690232415272
        }
    },
    "waypoints": [
        {
            "positions": [
                0.12281152778156021,
                -1.1394870060712896,
                1.9715472970024885,
                -0.780463741449964,
                0.12958659822042276,
                3.090690232415272
            ]
        },
        {
            "positions": [
                0.057020296800862694,
                -1.173022183663743,
                2.0356079360990296,
                -0.8143196828637638,
                0.287449213688587,
                3.104285892295677
            ]
        },
        {
            "positions": [
                -0.008770934179834822,
                -1.2065573612561962,
                2.09966857519557,
                -0.8481756242775635,
                0.44531182915675116,
                3.117881552176082
            ]
        },
        {
            "positions": [
                -0.07456216516053232,
                -1.2400925388486495,
                2.163729214292111,
                -0.8820315656913633,
                0.6031744446249154,
                3.131477212056487
            ]
        },
        {
            "positions": [
                -0.14035339614122985,
                -1.2736277164411027,
                2.227789853388652,
                -0.9158875071051631,
                0.7610370600930796,
                3.145072871936892
            ]
        },
        {
            "positions": [
                -0.2061446271219274,
                -1.3071628940335562,
                2.2918504924851932,
                -0.9497434485189629,
                0.9188996755612439,
                3.158668531817297
            ]
        },
        {
            "positions": [
                -0.2719358581026249,
                -1.3406980716260095,
                2.355911131581734,
                -0.9835993899327626,
                1.0767622910294081,
                3.172264191697702
            ]
        },
        {
            "positions": [
                -0.3377270890833224,
                -1.3742332492184628,
                2.419971770678275,
                -1.0174553313465624,
                1.2346249064975723,
                3.185859851578107
            ]
        }
    ]
}