{
    "goal": {
        "global_pose": {
            "orientation": {
                "w": 0.7047431468963623,
                "x": -0.7094548344612122,
                "y": 0.0024358443915843964,
                "z": -0.0022348060738295317
            },
            "position": {
                "x": 0.6094750761985779,
                "y": 0.3671506643295288,
                "z": 0.19426114857196808
            }
        },
        "name": "move_to_magneteinheit_A"
    },
    "id": "RRTstar_move_to_magneteinheit_A_53",
    "joint_names": [
        "shoulder_pan_joint",
        "shoulder_lift_joint",
        "elbow_joint",
        "wrist_1_joint",
        "wrist_2_joint",
        "wrist_3_joint"
    ],
    "metrics": {
        "cart_traj_len": 3.80229933222259,
        "distance_elbow_joint": 3.9058688442371996,
        "distance_shoulder_lift_joint": 0.7073311464904749,
        "distance_shoulder_pan_joint": 3.3524574897154937,
        "distance_wrist_1_joint": 3.4575235027368927,
        "distance_wrist_2_joint": 1.4515594672034622,
        "distance_wrist_3_joint": 0.41867305541939853,
        "smoothness": 0.1715803107693653,
        "time": 5.01563171,
        "traj_len": 3.6460133715886065,
        "weighted_distance": 4.363466808236551
    },
    "planner": "RRTstar",
    "start": {
        "state": {
            "elbow_joint": -1.9196185241190666,
            "shoulder_lift_joint": -1.2443396400964142,
            "shoulder_pan_joint": 2.6996025414629847,
            "wrist_1_joint": -1.5485510000780065,
            "wrist_2_joint": -1.5709468930060704,
            "wrist_3_joint": 0.4420197071253992
        }
    },
    "waypoints": [
        {
            "positions": [
                2.6996025414629847,
                -1.2443396400964142,
                -1.9196185241190666,
                -1.5485510000780065,
                -1.5709468930060704,
                0.4420197071253992
            ]
        },
        {
            "positions": [
                2.554947438923247,
                -1.2159004855003446,
                -1.8201378736334668,
                -1.5128215363567903,
                -1.4970314924110126,
                0.4334924651622978
            ]
        },
        {
            "positions": [
                2.4102923363835087,
                -1.1874613309042752,
                -1.7206572231478672,
                -1.4770920726355738,
                -1.423116091815955,
                0.42496522319919633
            ]
        },
        {
            "positions": [
                2.265637233843771,
                -1.1590221763082056,
                -1.6211765726622673,
                -1.4413626089143576,
                -1.3492006912208974,
                0.41643798123609493
            ]
        },
        {
            "positions": [
                2.120982131304033,
                -1.130583021712136,
                -1.5216959221766677,
                -1.4056331451931412,
                -1.2752852906258396,
                0.4079107392729935
            ]
        },
        {
            "positions": [
                1.9763270287642953,
                -1.1021438671160666,
                -1.4222152716910679,
                -1.369903681471925,
                -1.201369890030782,
                0.3993834973098921
            ]
        },
        {
            "positions": [
                1.8316719262245573,
                -1.073704712519997,
                -1.322734621205468,
                -1.3341742177507088,
                -1.1274544894357246,
                0.3908562553467907
            ]
        },
        {
            "positions": [
                1.6870168236848195,
                -1.0452655579239276,
                -1.2232539707198684,
                -1.2984447540294923,
                -1.0535390888406668,
                0.38232901338368924
            ]
        },
        {
            "positions": [
                1.5423617211450815,
                -1.016826403327858,
                -1.1237733202342686,
                -1.2627152903082761,
                -0.9796236882456091,
                0.37380177142058785
            ]
        },
        {
            "positions": [
                1.3977066186053437,
                -0.9883872487317884,
                -1.024292669748669,
                -1.2269858265870597,
                -0.9057082876505516,
                0.3652745294574864
            ]
        },
        {
            "positions": [
                1.2530515160656057,
                -0.9599480941357189,
                -0.924812019263069,
                -1.1912563628658435,
                -0.8317928870554938,
                0.356747287494385
            ]
        },
        {
            "positions": [
                1.108396413525868,
                -0.9315089395396494,
                -0.8253313687774693,
                -1.1555268991446273,
                -0.7578774864604362,
                0.3482200455312836
            ]
        },
        {
            "positions": [
                0.9637413109861299,
                -0.9030697849435798,
                -0.7258507182918694,
                -1.1197974354234108,
                -0.6839620858653785,
                0.33969280356818216
            ]
        },
        {
            "positions": [
                0.8190862084463922,
                -0.8746306303475103,
                -0.6263700678062698,
                -1.0840679717021946,
                -0.6100466852703209,
                0.33116556160508076
            ]
        },
        {
            "positions": [
                0.7416053477470048,
                -0.8589818998631834,
                -0.5119245129340613,
                -0.9388923969931641,
                -0.5808374219137543,
                0.3201709089423739
            ]
        },
        {
            "positions": [
                0.6641244870476175,
                -0.8433331693788565,
                -0.3974789580618527,
                -0.7937168222841335,
                -0.5516281585571877,
                0.30917625627966694
            ]
        },
        {
            "positions": [
                0.5866436263482302,
                -0.8276844388945296,
                -0.28303340318964415,
                -0.6485412475751031,
                -0.5224188952006211,
                0.29818160361696
            ]
        },
        {
            "positions": [
                0.5091627656488428,
                -0.8120357084102027,
                -0.16858784831743556,
                -0.5033656728660726,
                -0.49320963184405453,
                0.2871869509542531
            ]
        },
        {
            "positions": [
                0.43168190494945535,
                -0.7963869779258758,
                -0.05414229344522692,
                -0.35819009815704206,
                -0.46400036848748794,
                0.27619229829154623
            ]
        },
        {
            "positions": [
                0.35420104425006804,
                -0.780738247441549,
                0.0603032614269815,
                -0.21301452344801153,
                -0.43479110513092134,
                0.2651976456288393
            ]
        },
        {
            "positions": [
                0.2767201835506806,
                -0.765089516957222,
                0.17474881629919015,
                -0.067838948738981,
                -0.40558184177435475,
                0.25420299296613236
            ]
        },
        {
            "positions": [
                0.1992393228512933,
                -0.7494407864728951,
                0.2891943711713987,
                0.07733662597004942,
                -0.3763725784177882,
                0.24320834030342547
            ]
        },
        {
            "positions": [
                0.12175846215190578,
                -0.7337920559885682,
                0.40363992604360743,
                0.22251220067908006,
                -0.34716331506122156,
                0.23221368764071854
            ]
        },
        {
            "positions": [
                0.04427760145251847,
                -0.7181433255042413,
                0.518085480915816,
                0.3676877753881105,
                -0.317954051704655,
                0.22121903497801165
            ]
        },
        {
            "positions": [
                -0.033203259246868844,
                -0.7024945950199144,
                0.6325310357880243,
                0.5128633500971411,
                -0.2887447883480884,
                0.21022438231530474
            ]
        },
        {
            "positions": [
                -0.11068411994625615,
                -0.6868458645355875,
                0.7469765906602328,
                0.6580389248061715,
                -0.2595355249915218,
                0.19922972965259783
            ]
        },
        {
            "positions": [
                -0.1881649806456437,
                -0.6711971340512606,
                0.8614221455324416,
                0.8032144995152022,
                -0.23032626163495523,
                0.18823507698989092
            ]
        },
        {
            "positions": [
                -0.2656458413450309,
                -0.6555484035669337,
                0.9758677004046501,
                0.9483900742242326,
                -0.20111699827838864,
                0.177240424327184
            ]
        },
        {
            "positions": [
                -0.21033025464396266,
                -0.6724826764185043,
                1.1202080746494332,
                1.085616135429183,
                -0.18944134506756283,
                0.15525559966701497
            ]
        },
        {
            "positions": [
                -0.15501466794289442,
                -0.6894169492700749,
                1.2645484488942165,
                1.2228421966341334,
                -0.177765691856737,
                0.1332707750068459
            ]
        },
        {
            "positions": [
                -0.09969908124182617,
                -0.7063512221216456,
                1.4088888231389995,
                1.3600682578390837,
                -0.16609003864591115,
                0.11128595034667683
            ]
        },
        {
            "positions": [
                -0.044383494540757934,
                -0.7232854949732161,
                1.5532291973837826,
                1.497294319044034,
                -0.15441438543508534,
                0.08930112568650778
            ]
        },
        {
            "positions": [
                0.010932092160310325,
                -0.7402197678247868,
                1.697569571628566,
                1.6345203802489845,
                -0.14273873222425953,
                0.0673163010263387
            ]
        },
        {
            "positions": [
                0.06624767886137856,
                -0.7571540406763574,
                1.8419099458733488,
                1.7717464414539346,
                -0.1310630790134337,
                0.04533147636616966
            ]
        },
        {
            "positions": [
                0.12156326556244682,
                -0.7740883135279281,
                1.986250320118132,
                1.908972502658885,
                -0.11938742580260787,
                0.023346651706000573
            ]
        }
    ]
}