{
    "goal": {
        "global_pose": {
            "orientation": {
                "w": 0.5084816262002911,
                "x": -0.4908360881923452,
                "y": 0.5182115481033761,
                "z": -0.48164630358495003
            },
            "position": {
                "x": 0.5540239810943604,
                "y": -0.46912469901144505,
                "z": 0.16403168439865112
            }
        },
        "name": "move_to_storage_B"
    },
    "id": "RRTstar_move_to_storage_B_29",
    "joint_names": [
        "shoulder_pan_joint",
        "shoulder_lift_joint",
        "elbow_joint",
        "wrist_1_joint",
        "wrist_2_joint",
        "wrist_3_joint"
    ],
    "metrics": {
        "cart_traj_len": 0.9502586725587684,
        "distance_elbow_joint": 0.3504865804984201,
        "distance_shoulder_lift_joint": 0.45998281407195973,
        "distance_shoulder_pan_joint": 0.8644136457535311,
        "distance_wrist_1_joint": 2.983984919065165,
        "distance_wrist_2_joint": 2.7024139351982903,
        "distance_wrist_3_joint": 3.134216686922407,
        "smoothness": 0.08244646169720495,
        "time": 5.032260852,
        "traj_len": 3.2396756907921778,
        "weighted_distance": 4.738178005269329
    },
    "planner": "RRTstar",
    "start": {
        "state": {
            "elbow_joint": 1.664937868594044,
            "shoulder_lift_joint": -0.661644460510453,
            "shoulder_pan_joint": -0.9139846352900073,
            "wrist_1_joint": 2.146753192139373,
            "wrist_2_joint": -2.2341966793290973,
            "wrist_3_joint": 0.005466555786416001
        }
    },
    "waypoints": [
        {
            "positions": [
                -0.9139846352900073,
                -0.661644460510453,
                1.664937868594044,
                2.146753192139373,
                -2.2341966793290973,
                0.005466555786416001
            ]
        },
        {
            "positions": [
                -0.871353074134528,
                -0.6871390888831111,
                1.705605104146058,
                2.093245848115158,
                -2.1453106478329826,
                -0.12449589016619486
            ]
        },
        {
            "positions": [
                -0.8287215129790487,
                -0.7126337172557694,
                1.7462723396980722,
                2.039738504090943,
                -2.056424616336868,
                -0.2544583361188057
            ]
        },
        {
            "positions": [
                -0.7860899518235693,
                -0.7381283456284276,
                1.7869395752500863,
                1.9862311600667282,
                -1.9675385848407536,
                -0.38442078207141656
            ]
        },
        {
            "positions": [
                -0.74345839066809,
                -0.7636229740010858,
                1.8276068108021004,
                1.9327238160425133,
                -1.878652553344639,
                -0.5143832280240275
            ]
        },
        {
            "positions": [
                -0.7008268295126108,
                -0.789117602373744,
                1.8682740463541145,
                1.8792164720182982,
                -1.7897665218485244,
                -0.6443456739766383
            ]
        },
        {
            "positions": [
                -0.6581952683571315,
                -0.8146122307464021,
                1.9089412819061287,
                1.8257091279940831,
                -1.70088049035241,
                -0.7743081199292492
            ]
        },
        {
            "positions": [
                -0.6155637072016522,
                -0.8401068591190604,
                1.9496085174581428,
                1.772201783969868,
                -1.6119944588562953,
                -0.9042705658818601
            ]
        },
        {
            "positions": [
                -0.5729321460461729,
                -0.8656014874917185,
                1.990275753010157,
                1.7186944399456532,
                -1.5231084273601807,
                -1.034233011834471
            ]
        },
        {
            "positions": [
                -0.6004774700729991,
                -0.8790765289175445,
                1.9915993685934363,
                1.584172010110314,
                -1.4183018124533715,
                -1.1444707549556035
            ]
        },
        {
            "positions": [
                -0.6280227940998252,
                -0.8925515703433705,
                1.9929229841767155,
                1.449649580274975,
                -1.3134951975465623,
                -1.2547084980767362
            ]
        },
        {
            "positions": [
                -0.6555681181266514,
                -0.9060266117691965,
                1.994246599759995,
                1.3151271504396358,
                -1.208688582639753,
                -1.3649462411978688
            ]
        },
        {
            "positions": [
                -0.6831134421534775,
                -0.9195016531950225,
                1.9955702153432742,
                1.1806047206042964,
                -1.103881967732944,
                -1.4751839843190016
            ]
        },
        {
            "positions": [
                -0.7106587661803037,
                -0.9329766946208485,
                1.9968938309265536,
                1.0460822907689575,
                -0.9990753528261347,
                -1.585421727440134
            ]
        },
        {
            "positions": [
                -0.7382040902071298,
                -0.9464517360466745,
                1.9982174465098328,
                0.9115598609336183,
                -0.8942687379193255,
                -1.6956594705612669
            ]
        },
        {
            "positions": [
                -0.7657494142339559,
                -0.9599267774725005,
                1.9995410620931122,
                0.777037431098279,
                -0.7894621230125163,
                -1.8058972136823994
            ]
        },
        {
            "positions": [
                -0.793294738260782,
                -0.9734018188983266,
                2.0008646776763914,
                0.6425150012629399,
                -0.6846555081057071,
                -1.916134956803532
            ]
        },
        {
            "positions": [
                -0.8208400622876082,
                -0.9868768603241526,
                2.0021882932596706,
                0.5079925714276008,
                -0.5798488931988979,
                -2.0263726999246647
            ]
        },
        {
            "positions": [
                -0.8483853863144344,
                -1.0003519017499787,
                2.0035119088429503,
                0.37347014159226166,
                -0.47504227829208867,
                -2.1366104430457975
            ]
        },
        {
            "positions": [
                -0.8759307103412606,
                -1.0138269431758047,
                2.0048355244262295,
                0.2389477117569223,
                -0.37023566338527947,
                -2.24684818616693
            ]
        },
        {
            "positions": [
                -0.9034760343680867,
                -1.0273019846016307,
                2.0061591400095087,
                0.1044252819215834,
                -0.26542904847847026,
                -2.3570859292880626
            ]
        },
        {
            "positions": [
                -0.9310213583949127,
                -1.0407770260274567,
                2.007482755592788,
                -0.03009714791375595,
                -0.16062243357166106,
                -2.4673236724091954
            ]
        },
        {
            "positions": [
                -0.9585666824217389,
                -1.0542520674532827,
                2.0088063711760675,
                -0.16461957774909508,
                -0.05581581866485186,
                -2.5775614155303277
            ]
        },
        {
            "positions": [
                -0.9861120064485651,
                -1.0677271088791087,
                2.0101299867593467,
                -0.29914200758443443,
                0.048990796241957346,
                -2.687799158651461
            ]
        },
        {
            "positions": [
                -1.0136573304753913,
                -1.0812021503049347,
                2.011453602342626,
                -0.43366443741977334,
                0.15379741114876655,
                -2.7980369017725932
            ]
        },
        {
            "positions": [
                -1.0412026545022175,
                -1.0946771917307607,
                2.012777217925905,
                -0.5681868672551127,
                0.25860402605557575,
                -2.908274644893726
            ]
        },
        {
            "positions": [
                -1.0687479785290435,
                -1.1081522331565867,
                2.014100833509185,
                -0.7027092970904516,
                0.36341064096238496,
                -3.0185123880148588
            ]
        },
        {
            "positions": [
                -1.0962933025558697,
                -1.1216272745824127,
                2.015424449092464,
                -0.8372317269257908,
                0.46821725586919416,
                -3.128750131135991
            ]
        }
    ]
}