{
    "goal": {
        "global_pose": {
            "orientation": {
                "w": 0.005598929693374612,
                "x": 0.007748599140229565,
                "y": 0.7110244013736278,
                "z": -0.7031023480610252
            },
            "position": {
                "x": -0.8858502320852131,
                "y": -0.7141253447532654,
                "z": 0.3711530566215515
            }
        },
        "name": "move_to_auspresseinheit_C"
    },
    "id": "RRTstar_move_to_auspresseinheit_C_53",
    "joint_names": [
        "shoulder_pan_joint",
        "shoulder_lift_joint",
        "elbow_joint",
        "wrist_1_joint",
        "wrist_2_joint",
        "wrist_3_joint"
    ],
    "metrics": {
        "cart_traj_len": 0.4918694163457003,
        "distance_elbow_joint": 0.989034882221862,
        "distance_shoulder_lift_joint": 0.31994201625517804,
        "distance_shoulder_pan_joint": 0.2560441851805604,
        "distance_wrist_1_joint": 0.6591125598287795,
        "distance_wrist_2_joint": 1.3064426687422739,
        "distance_wrist_3_joint": 0.04315236777954645,
        "smoothness": 1.6148698667872622e-16,
        "time": 5.001400993000001,
        "traj_len": 1.8904308186252679,
        "weighted_distance": 2.3718323389603966
    },
    "planner": "RRTstar",
    "start": {
        "state": {
            "elbow_joint": 1.7527959577737207,
            "shoulder_lift_joint": -0.9740617694225068,
            "shoulder_pan_joint": -2.967991417825858,
            "wrist_1_joint": -0.759517768980727,
            "wrist_2_joint": 1.7443932448377408,
            "wrist_3_joint": -3.0840537646736568
        }
    },
    "waypoints": [
        {
            "positions": [
                -2.967991417825858,
                -0.9740617694225068,
                1.7527959577737207,
                -0.759517768980727,
                1.7443932448377408,
                -3.0840537646736568
            ]
        },
        {
            "positions": [
                -2.942386999307802,
                -0.942067567796989,
                1.6538924695515345,
                -0.693606512997849,
                1.6137489779635135,
                -3.0883690014516114
            ]
        },
        {
            "positions": [
                -2.916782580789746,
                -0.9100733661714712,
                1.5549889813293483,
                -0.6276952570149711,
                1.483104711089286,
                -3.092684238229566
            ]
        },
        {
            "positions": [
                -2.89117816227169,
                -0.8780791645459534,
                1.456085493107162,
                -0.5617840010320931,
                1.3524604442150587,
                -3.0969994750075207
            ]
        },
        {
            "positions": [
                -2.8655737437536337,
                -0.8460849629204356,
                1.3571820048849759,
                -0.4958727450492152,
                1.2218161773408314,
                -3.1013147117854754
            ]
        },
        {
            "positions": [
                -2.839969325235578,
                -0.8140907612949178,
                1.2582785166627897,
                -0.42996148906633724,
                1.091171910466604,
                -3.10562994856343
            ]
        },
        {
            "positions": [
                -2.814364906717522,
                -0.7820965596694,
                1.1593750284406035,
                -0.3640502330834593,
                0.9605276435923765,
                -3.1099451853413846
            ]
        },
        {
            "positions": [
                -2.7887604881994656,
                -0.7501023580438821,
                1.0604715402184173,
                -0.2981389771005814,
                0.8298833767181492,
                -3.1142604221193393
            ]
        },
        {
            "positions": [
                -2.7631560696814095,
                -0.7181081564183643,
                0.9615680519962311,
                -0.2322277211177034,
                0.6992391098439217,
                -3.118575658897294
            ]
        },
        {
            "positions": [
                -2.7375516511633537,
                -0.6861139547928465,
                0.8626645637740449,
                -0.16631646513482545,
                0.5685948429696943,
                -3.1228908956752486
            ]
        },
        {
            "positions": [
                -2.7119472326452976,
                -0.6541197531673287,
                0.7637610755518587,
                -0.10040520915194745,
                0.437950576095467,
                -3.1272061324532032
            ]
        }
    ]
}