{
    "goal": {
        "global_pose": {
            "orientation": {
                "w": -0.4816463035849501,
                "x": 0.5182115481033762,
                "y": 0.4908360881923453,
                "z": -0.5084816262002911
            },
            "position": {
                "x": -0.8240239810943604,
                "y": 0.19912469901144506,
                "z": 0.16403168439865112
            }
        },
        "name": "move_to_storage_D"
    },
    "id": "RRTstar_move_to_storage_D_38",
    "joint_names": [
        "shoulder_pan_joint",
        "shoulder_lift_joint",
        "elbow_joint",
        "wrist_1_joint",
        "wrist_2_joint",
        "wrist_3_joint"
    ],
    "metrics": {
        "cart_traj_len": 4.039379960883482,
        "distance_elbow_joint": 4.207839687578864,
        "distance_shoulder_lift_joint": 1.264668423893762,
        "distance_shoulder_pan_joint": 2.8131316001393087,
        "distance_wrist_1_joint": 2.263570080364638,
        "distance_wrist_2_joint": 0.874186281754893,
        "distance_wrist_3_joint": 3.136313850341217,
        "smoothness": 3.1883328010661366e-16,
        "time": 5.043228106,
        "traj_len": 3.81571879520395,
        "weighted_distance": 4.895926264444211
    },
    "planner": "RRTstar",
    "start": {
        "state": {
            "elbow_joint": -2.384821988534728,
            "shoulder_lift_joint": -2.2788054721415256,
            "shoulder_pan_joint": -0.1854694642142757,
            "wrist_1_joint": 1.4845938289331202,
            "wrist_2_joint": 0.17898776772866878,
            "wrist_3_joint": 0.037105688729662994
        }
    },
    "waypoints": [
        {
            "positions": [
                -0.1854694642142757,
                -2.2788054721415256,
                -2.384821988534728,
                1.4845938289331202,
                0.17898776772866878,
                0.037105688729662994
            ]
        },
        {
            "positions": [
                -0.09115244739504799,
                -2.2574227471866037,
                -2.272446872314361,
                1.4321428121689554,
                0.21207473106703745,
                0.1125923694258346
            ]
        },
        {
            "positions": [
                0.003164569424179725,
                -2.2360400222316823,
                -2.160071756093994,
                1.3796917954047905,
                0.24516169440540614,
                0.1880790501220062
            ]
        },
        {
            "positions": [
                0.09748158624340744,
                -2.2146572972767604,
                -2.047696639873627,
                1.3272407786406257,
                0.27824865774377483,
                0.2635657308181778
            ]
        },
        {
            "positions": [
                0.19179860306263516,
                -2.1932745723218385,
                -1.9353215236532604,
                1.2747897618764608,
                0.3113356210821435,
                0.3390524115143494
            ]
        },
        {
            "positions": [
                0.28611561988186285,
                -2.171891847366917,
                -1.8229464074328934,
                1.222338745112296,
                0.3444225844205122,
                0.4145390922105211
            ]
        },
        {
            "positions": [
                0.3804326367010906,
                -2.150509122411995,
                -1.7105712912125264,
                1.169887728348131,
                0.3775095477588809,
                0.4900257729066927
            ]
        },
        {
            "positions": [
                0.4747496535203184,
                -2.1291263974570733,
                -1.5981961749921596,
                1.1174367115839663,
                0.4105965110972496,
                0.5655124536028643
            ]
        },
        {
            "positions": [
                0.569066670339546,
                -2.107743672502152,
                -1.4858210587717928,
                1.0649856948198013,
                0.4436834744356182,
                0.6409991342990359
            ]
        },
        {
            "positions": [
                0.6633836871587738,
                -2.08636094754723,
                -1.3734459425514258,
                1.0125346780556366,
                0.47677043777398687,
                0.7164858149952076
            ]
        },
        {
            "positions": [
                0.7577007039780015,
                -2.064978222592308,
                -1.2610708263310588,
                0.9600836612914717,
                0.5098574011123557,
                0.7919724956913792
            ]
        },
        {
            "positions": [
                0.8520177207972291,
                -2.0435954976373867,
                -1.148695710110692,
                0.9076326445273069,
                0.5429443644507242,
                0.8674591763875508
            ]
        },
        {
            "positions": [
                0.9463347376164569,
                -2.022212772682465,
                -1.036320593890325,
                0.855181627763142,
                0.5760313277890929,
                0.9429458570837224
            ]
        },
        {
            "positions": [
                1.0406517544356844,
                -2.000830047727543,
                -0.9239454776699583,
                0.8027306109989772,
                0.6091182911274616,
                1.018432537779894
            ]
        },
        {
            "positions": [
                1.1349687712549124,
                -1.9794473227726213,
                -0.811570361449591,
                0.7502795942348123,
                0.6422052544658303,
                1.0939192184760655
            ]
        },
        {
            "positions": [
                1.22928578807414,
                -1.9580645978176996,
                -0.6991952452292243,
                0.6978285774706474,
                0.675292217804199,
                1.1694058991722371
            ]
        },
        {
            "positions": [
                1.3236028048933677,
                -1.936681872862778,
                -0.5868201290088575,
                0.6453775607064827,
                0.7083791811425676,
                1.2448925798684087
            ]
        },
        {
            "positions": [
                1.4179198217125955,
                -1.915299147907856,
                -0.4744450127884905,
                0.5929265439423177,
                0.7414661444809364,
                1.3203792605645805
            ]
        },
        {
            "positions": [
                1.5122368385318232,
                -1.8939164229529344,
                -0.3620698965681237,
                0.540475527178153,
                0.774553107819305,
                1.3958659412607521
            ]
        },
        {
            "positions": [
                1.6065538553510508,
                -1.8725336979980127,
                -0.24969478034775694,
                0.4880245104139881,
                0.8076400711576737,
                1.4713526219569235
            ]
        },
        {
            "positions": [
                1.7008708721702785,
                -1.8511509730430908,
                -0.13731966412738972,
                0.43557349364982323,
                0.8407270344960425,
                1.5468393026530953
            ]
        },
        {
            "positions": [
                1.7951878889895063,
                -1.8297682480881692,
                -0.02494454790702294,
                0.38312247688565826,
                0.873813997834411,
                1.622325983349267
            ]
        },
        {
            "positions": [
                1.8895049058087339,
                -1.8083855231332475,
                0.08743056831334384,
                0.3306714601214935,
                0.9069009611727797,
                1.6978126640454385
            ]
        },
        {
            "positions": [
                1.9838219226279619,
                -1.7870027981783256,
                0.19980568453371106,
                0.27822044335732854,
                0.9399879245111484,
                1.77329934474161
            ]
        },
        {
            "positions": [
                2.0781389394471894,
                -1.765620073223404,
                0.3121808007540779,
                0.2257694265931638,
                0.9730748878495171,
                1.8487860254377817
            ]
        },
        {
            "positions": [
                2.117390596338464,
                -1.7119427142965726,
                0.42009772206051055,
                0.15400187816282937,
                0.9787962565376631,
                1.943402704983003
            ]
        },
        {
            "positions": [
                2.1566422532297387,
                -1.658265355369741,
                0.5280146433669433,
                0.08223432973249495,
                0.9845176252258092,
                2.038019384528224
            ]
        },
        {
            "positions": [
                2.195893910121013,
                -1.6045879964429095,
                0.6359315646733759,
                0.010466781302160527,
                0.9902389939139553,
                2.1326360640734454
            ]
        },
        {
            "positions": [
                2.2351455670122875,
                -1.5509106375160782,
                0.7438484859798086,
                -0.061300767128173894,
                0.9959603626021013,
                2.227252743618667
            ]
        },
        {
            "positions": [
                2.274397223903562,
                -1.4972332785892468,
                0.8517654072862413,
                -0.13306831555850834,
                1.0016817312902473,
                2.3218694231638883
            ]
        },
        {
            "positions": [
                2.3136488807948368,
                -1.4435559196624153,
                0.9596823285926739,
                -0.20483586398884274,
                1.0074030999783934,
                2.4164861027091096
            ]
        },
        {
            "positions": [
                2.352900537686111,
                -1.3898785607355837,
                1.0675992498991067,
                -0.2766034124191772,
                1.0131244686665395,
                2.511102782254331
            ]
        },
        {
            "positions": [
                2.3921521945773856,
                -1.3362012018087523,
                1.1755161712055393,
                -0.3483709608495116,
                1.0188458373546854,
                2.605719461799552
            ]
        },
        {
            "positions": [
                2.4314038514686604,
                -1.2825238428819208,
                1.2834330925119721,
                -0.4201385092798461,
                1.0245672060428315,
                2.7003361413447733
            ]
        },
        {
            "positions": [
                2.470655508359935,
                -1.2288464839550894,
                1.3913500138184047,
                -0.4919060577101805,
                1.0302885747309776,
                2.7949528208899945
            ]
        },
        {
            "positions": [
                2.5099071652512093,
                -1.1751691250282579,
                1.4992669351248373,
                -0.5636736061405149,
                1.0360099434191237,
                2.8895695004352158
            ]
        },
        {
            "positions": [
                2.5491588221424837,
                -1.1214917661014265,
                1.60718385643127,
                -0.6354411545708493,
                1.0417313121072698,
                2.984186179980437
            ]
        },
        {
            "positions": [
                2.5884104790337585,
                -1.0678144071745952,
                1.7151007777377028,
                -0.7072087030011838,
                1.0474526807954156,
                3.0788028595256587
            ]
        },
        {
            "positions": [
                2.627662135925033,
                -1.0141370482477636,
                1.8230176990441354,
                -0.7789762514315183,
                1.0531740494835617,
                3.17341953907088
            ]
        }
    ]
}