{
    "goal": {
        "global_pose": {
            "orientation": {
                "w": 0.7031023480610252,
                "x": -0.7110244013736278,
                "y": 0.0077485991402295624,
                "z": 0.005598929693374583
            },
            "position": {
                "x": -0.8841497679147869,
                "y": 0.44412534475326537,
                "z": 0.3711530566215515
            }
        },
        "name": "move_to_auspresseinheit_D"
    },
    "id": "RRTstar_move_to_auspresseinheit_D_112",
    "joint_names": [
        "shoulder_pan_joint",
        "shoulder_lift_joint",
        "elbow_joint",
        "wrist_1_joint",
        "wrist_2_joint",
        "wrist_3_joint"
    ],
    "metrics": {
        "cart_traj_len": 0.3420141408104181,
        "distance_elbow_joint": 0.628153345061224,
        "distance_shoulder_lift_joint": 0.11676253201265885,
        "distance_shoulder_pan_joint": 0.13413605512607027,
        "distance_wrist_1_joint": 0.5039714492448222,
        "distance_wrist_2_joint": 1.4320323923997071,
        "distance_wrist_3_joint": 0.025298752616024434,
        "smoothness": 7.894919286223335e-16,
        "time": 5.0018948839999995,
        "traj_len": 1.6853351377279555,
        "weighted_distance": 2.1970334256303627
    },
    "planner": "RRTstar",
    "start": {
        "state": {
            "elbow_joint": -1.8275523626775212,
            "shoulder_lift_joint": -2.126789852344167,
            "shoulder_pan_joint": -0.03513704404078235,
            "wrist_1_joint": -2.347782403156801,
            "wrist_2_joint": -1.6058999987535132,
            "wrist_3_joint": -3.0880379163319196
        }
    },
    "waypoints": [
        {
            "positions": [
                -0.03513704404078235,
                -2.126789852344167,
                -1.8275523626775212,
                -2.347782403156801,
                -1.6058999987535132,
                -3.0880379163319196
            ]
        },
        {
            "positions": [
                -0.05190405093154113,
                -2.141385168845749,
                -1.7490331945448683,
                -2.4107788343124037,
                -1.4268959497035498,
                -3.0912002604089226
            ]
        },
        {
            "positions": [
                -0.06867105782229992,
                -2.1559804853473317,
                -1.6705140264122151,
                -2.4737752654680065,
                -1.2478919006535865,
                -3.0943626044859256
            ]
        },
        {
            "positions": [
                -0.0854380647130587,
                -2.170575801848914,
                -1.5919948582795622,
                -2.5367716966236094,
                -1.0688878516036229,
                -3.0975249485629286
            ]
        },
        {
            "positions": [
                -0.10220507160381748,
                -2.185171118350496,
                -1.513475690146909,
                -2.599768127779212,
                -0.8898838025536596,
                -3.1006872926399316
            ]
        },
        {
            "positions": [
                -0.11897207849457628,
                -2.1997664348520787,
                -1.4349565220142562,
                -2.6627645589348146,
                -0.7108797535036963,
                -3.103849636716935
            ]
        },
        {
            "positions": [
                -0.13573908538533505,
                -2.214361751353661,
                -1.3564373538816032,
                -2.7257609900904174,
                -0.5318757044537328,
                -3.107011980793938
            ]
        },
        {
            "positions": [
                -0.15250609227609382,
                -2.2289570678552435,
                -1.27791818574895,
                -2.78875742124602,
                -0.3528716554037694,
                -3.110174324870941
            ]
        },
        {
            "positions": [
                -0.16927309916685263,
                -2.2435523843568257,
                -1.1993990176162972,
                -2.851753852401623,
                -0.173867606353806,
                -3.113336668947944
            ]
        }
    ]
}