{
    "goal": {
        "global_pose": {
            "orientation": {
                "w": 0.7031023480610252,
                "x": -0.7110244013736278,
                "y": 0.0077485991402295624,
                "z": 0.005598929693374583
            },
            "position": {
                "x": -0.8841497679147869,
                "y": 0.44412534475326537,
                "z": 0.3711530566215515
            }
        },
        "name": "move_to_auspresseinheit_D"
    },
    "id": "RRTstar_move_to_auspresseinheit_D_6",
    "joint_names": [
        "shoulder_pan_joint",
        "shoulder_lift_joint",
        "elbow_joint",
        "wrist_1_joint",
        "wrist_2_joint",
        "wrist_3_joint"
    ],
    "metrics": {
        "cart_traj_len": 0.34360998789438874,
        "distance_elbow_joint": 0.6414958172755627,
        "distance_shoulder_lift_joint": 0.12231445059930302,
        "distance_shoulder_pan_joint": 0.13388749018453214,
        "distance_wrist_1_joint": 0.543352203204682,
        "distance_wrist_2_joint": 1.4321867385249731,
        "distance_wrist_3_joint": 0.004452425747520028,
        "smoothness": 0.0,
        "time": 5.001910697,
        "traj_len": 1.6963752902988691,
        "weighted_distance": 2.2050244712386458
    },
    "planner": "RRTstar",
    "start": {
        "state": {
            "elbow_joint": -1.8275523626775212,
            "shoulder_lift_joint": -2.126789852344167,
            "shoulder_pan_joint": -0.03513704404078235,
            "wrist_1_joint": -2.347782403156801,
            "wrist_2_joint": -1.6058999987535132,
            "wrist_3_joint": -3.0880379163319196
        }
    },
    "waypoints": [
        {
            "positions": [
                -0.03513704404078235,
                -2.126789852344167,
                -1.8275523626775212,
                -2.347782403156801,
                -1.6058999987535132,
                -3.0880379163319196
            ]
        },
        {
            "positions": [
                -0.05187298031384886,
                -2.1420791586690795,
                -1.747365385518076,
                -2.4157014285573863,
                -1.4268766564378916,
                -3.0874813631134796
            ]
        },
        {
            "positions": [
                -0.06860891658691538,
                -2.1573684649939926,
                -1.6671784083586305,
                -2.4836204539579714,
                -1.2478533141222699,
                -3.0869248098950397
            ]
        },
        {
            "positions": [
                -0.08534485285998189,
                -2.1726577713189057,
                -1.586991431199185,
                -2.5515394793585564,
                -1.0688299718066483,
                -3.0863682566765998
            ]
        },
        {
            "positions": [
                -0.10208078913304841,
                -2.1879470776438183,
                -1.5068044540397398,
                -2.619458504759142,
                -0.8898066294910266,
                -3.08581170345816
            ]
        },
        {
            "positions": [
                -0.11881672540611493,
                -2.203236383968731,
                -1.4266174768802946,
                -2.6873775301597274,
                -0.710783287175405,
                -3.0852551502397194
            ]
        },
        {
            "positions": [
                -0.13555266167918145,
                -2.218525690293644,
                -1.3464304997208492,
                -2.7552965555603124,
                -0.5317599448597834,
                -3.0846985970212795
            ]
        },
        {
            "positions": [
                -0.15228859795224797,
                -2.233814996618557,
                -1.2662435225614037,
                -2.8232155809608974,
                -0.3527366025441616,
                -3.0841420438028395
            ]
        },
        {
            "positions": [
                -0.1690245342253145,
                -2.24910430294347,
                -1.1860565454019585,
                -2.891134606361483,
                -0.17371326022854006,
                -3.0835854905843996
            ]
        }
    ]
}