{
    "goal": {
        "global_pose": {
            "orientation": {
                "w": -0.4816463035849501,
                "x": 0.5182115481033762,
                "y": 0.4908360881923453,
                "z": -0.5084816262002911
            },
            "position": {
                "x": -0.8240239810943604,
                "y": 0.19912469901144506,
                "z": 0.16403168439865112
            }
        },
        "name": "move_to_storage_D"
    },
    "id": "RRTstar_move_to_storage_D_44",
    "joint_names": [
        "shoulder_pan_joint",
        "shoulder_lift_joint",
        "elbow_joint",
        "wrist_1_joint",
        "wrist_2_joint",
        "wrist_3_joint"
    ],
    "metrics": {
        "cart_traj_len": 0.5398988738138512,
        "distance_elbow_joint": 0.5558082532096995,
        "distance_shoulder_lift_joint": 0.15301931165153304,
        "distance_shoulder_pan_joint": 0.15285594536845498,
        "distance_wrist_1_joint": 3.9842700849641512,
        "distance_wrist_2_joint": 1.774632463825888,
        "distance_wrist_3_joint": 3.124123908383408,
        "smoothness": 0.1292097620932464,
        "time": 5.018175978,
        "traj_len": 3.1216518011147776,
        "weighted_distance": 4.663888970908291
    },
    "planner": "RRTstar",
    "start": {
        "state": {
            "elbow_joint": -2.384821988534728,
            "shoulder_lift_joint": -2.2788054721415256,
            "shoulder_pan_joint": -0.1854694642142757,
            "wrist_1_joint": 1.4845938289331202,
            "wrist_2_joint": 0.17898776772866878,
            "wrist_3_joint": 0.037105688729662994
        }
    },
    "waypoints": [
        {
            "positions": [
                -0.1854694642142757,
                -2.2788054721415256,
                -2.384821988534728,
                1.4845938289331202,
                0.17898776772866878,
                0.037105688729662994
            ]
        },
        {
            "positions": [
                -0.14426595044940033,
                -2.2757543802865055,
                -2.3710832327545086,
                1.52288979665895,
                0.13132299628876068,
                -0.17073488770048215
            ]
        },
        {
            "positions": [
                -0.10306243668452496,
                -2.272703288431485,
                -2.3573444769742897,
                1.5611857643847797,
                0.08365822484885259,
                -0.37857546413062726
            ]
        },
        {
            "positions": [
                -0.09999944025675521,
                -2.266315587216637,
                -2.3343735751634522,
                1.3912867144059757,
                0.010645054372936433,
                -0.49633384480554543
            ]
        },
        {
            "positions": [
                -0.09693644382898546,
                -2.25992788600179,
                -2.3114026733526147,
                1.2213876644271717,
                -0.06236811610297972,
                -0.6140922254804636
            ]
        },
        {
            "positions": [
                -0.09387344740121571,
                -2.2535401847869423,
                -2.2884317715417772,
                1.0514886144483677,
                -0.13538128657889587,
                -0.7318506061553818
            ]
        },
        {
            "positions": [
                -0.09081045097344596,
                -2.247152483572095,
                -2.2654608697309397,
                0.8815895644695638,
                -0.20839445705481202,
                -0.8496089868302998
            ]
        },
        {
            "positions": [
                -0.08774745454567622,
                -2.2407647823572474,
                -2.2424899679201027,
                0.7116905144907598,
                -0.2814076275307281,
                -0.967367367505218
            ]
        },
        {
            "positions": [
                -0.08468445811790647,
                -2.2343770811423997,
                -2.219519066109265,
                0.5417914645119557,
                -0.3544207980066443,
                -1.0851257481801362
            ]
        },
        {
            "positions": [
                -0.08162146169013672,
                -2.2279893799275525,
                -2.1965481642984277,
                0.3718924145331517,
                -0.4274339684825605,
                -1.2028841288550545
            ]
        },
        {
            "positions": [
                -0.07855846526236697,
                -2.221601678712705,
                -2.17357726248759,
                0.2019933645543479,
                -0.5004471389584767,
                -1.3206425095299725
            ]
        },
        {
            "positions": [
                -0.07549546883459722,
                -2.2152139774978576,
                -2.1506063606767527,
                0.03209431457554368,
                -0.5734603094343929,
                -1.4384008902048908
            ]
        },
        {
            "positions": [
                -0.07243247240682747,
                -2.20882627628301,
                -2.127635458865915,
                -0.1378047354032601,
                -0.6464734799103089,
                -1.5561592708798089
            ]
        },
        {
            "positions": [
                -0.06936947597905772,
                -2.2024385750681623,
                -2.1046645570550777,
                -0.30770378538206433,
                -0.7194866503862252,
                -1.673917651554727
            ]
        },
        {
            "positions": [
                -0.06630647955128798,
                -2.196050873853315,
                -2.08169365524424,
                -0.47760283536086834,
                -0.7924998208621412,
                -1.791676032229645
            ]
        },
        {
            "positions": [
                -0.06324348312351823,
                -2.1896631726384674,
                -2.058722753433403,
                -0.6475018853396721,
                -0.8655129913380574,
                -1.909434412904563
            ]
        },
        {
            "positions": [
                -0.06018048669574848,
                -2.1832754714236198,
                -2.0357518516225657,
                -0.8174009353184764,
                -0.9385261618139736,
                -2.0271927935794816
            ]
        },
        {
            "positions": [
                -0.05711749026797873,
                -2.1768877702087726,
                -2.012780949811728,
                -0.9872999852972801,
                -1.0115393322898896,
                -2.1449511742543996
            ]
        },
        {
            "positions": [
                -0.05405449384020898,
                -2.170500068993925,
                -1.9898100480008907,
                -1.157199035276084,
                -1.0845525027658058,
                -2.2627095549293177
            ]
        },
        {
            "positions": [
                -0.05099149741243923,
                -2.1641123677790777,
                -1.9668391461900532,
                -1.3270980852548881,
                -1.1575656732417219,
                -2.3804679356042358
            ]
        },
        {
            "positions": [
                -0.047928500984669484,
                -2.15772466656423,
                -1.9438682443792157,
                -1.4969971352336924,
                -1.2305788437176381,
                -2.4982263162791543
            ]
        },
        {
            "positions": [
                -0.044865504556899735,
                -2.1513369653493823,
                -1.9208973425683782,
                -1.6668961852124962,
                -1.3035920141935542,
                -2.6159846969540723
            ]
        },
        {
            "positions": [
                -0.04180250812912999,
                -2.144949264134535,
                -1.8979264407575407,
                -1.8367952351913,
                -1.3766051846694702,
                -2.7337430776289904
            ]
        },
        {
            "positions": [
                -0.03873951170136024,
                -2.1385615629196875,
                -1.8749555389467034,
                -2.006694285170104,
                -1.4496183551453865,
                -2.8515014583039084
            ]
        },
        {
            "positions": [
                -0.03567651527359049,
                -2.1321738617048402,
                -1.8519846371358657,
                -2.176593335148908,
                -1.5226315256213028,
                -2.969259838978827
            ]
        },
        {
            "positions": [
                -0.03261351884582074,
                -2.1257861604899926,
                -1.8290137353250284,
                -2.346492385127712,
                -1.5956446960972188,
                -3.087018219653745
            ]
        }
    ]
}