{
    "goal": {
        "global_pose": {
            "orientation": {
                "w": 0.005598929693374612,
                "x": 0.007748599140229565,
                "y": 0.7110244013736278,
                "z": -0.7031023480610252
            },
            "position": {
                "x": -0.8858502320852131,
                "y": -0.7141253447532654,
                "z": 0.3711530566215515
            }
        },
        "name": "move_to_auspresseinheit_C"
    },
    "id": "RRTstar_move_to_auspresseinheit_C_5",
    "joint_names": [
        "shoulder_pan_joint",
        "shoulder_lift_joint",
        "elbow_joint",
        "wrist_1_joint",
        "wrist_2_joint",
        "wrist_3_joint"
    ],
    "metrics": {
        "cart_traj_len": 0.49204947634390783,
        "distance_elbow_joint": 0.9872880257396157,
        "distance_shoulder_lift_joint": 0.3183802306549748,
        "distance_shoulder_pan_joint": 0.2562363404096524,
        "distance_wrist_1_joint": 0.6580571698664128,
        "distance_wrist_2_joint": 1.308286326988694,
        "distance_wrist_3_joint": 0.04257249323192758,
        "smoothness": 0.0,
        "time": 5.000507201,
        "traj_len": 1.8896615006109634,
        "weighted_distance": 2.371140879452387
    },
    "planner": "RRTstar",
    "start": {
        "state": {
            "elbow_joint": 1.7527959577737207,
            "shoulder_lift_joint": -0.9740617694225068,
            "shoulder_pan_joint": -2.967991417825858,
            "wrist_1_joint": -0.759517768980727,
            "wrist_2_joint": 1.7443932448377408,
            "wrist_3_joint": -3.0840537646736568
        }
    },
    "waypoints": [
        {
            "positions": [
                -2.967991417825858,
                -0.9740617694225068,
                1.7527959577737207,
                -0.759517768980727,
                1.7443932448377408,
                -3.0840537646736568
            ]
        },
        {
            "positions": [
                -2.942367783784893,
                -0.9422237463570093,
                1.654067155199759,
                -0.6937120519940857,
                1.6135646121388714,
                -3.0883110139968495
            ]
        },
        {
            "positions": [
                -2.9167441497439275,
                -0.9103857232915118,
                1.5553383526257976,
                -0.6279063350074444,
                1.482735979440002,
                -3.092568263320042
            ]
        },
        {
            "positions": [
                -2.891120515702962,
                -0.8785477002260144,
                1.456609550051836,
                -0.5621006180208031,
                1.3519073467411327,
                -3.096825512643235
            ]
        },
        {
            "positions": [
                -2.865496881661997,
                -0.8467096771605168,
                1.3578807474778745,
                -0.49629490103416185,
                1.2210787140422632,
                -3.1010827619664276
            ]
        },
        {
            "positions": [
                -2.839873247621032,
                -0.8148716540950194,
                1.2591519449039128,
                -0.43048918404752057,
                1.090250081343394,
                -3.105340011289621
            ]
        },
        {
            "positions": [
                -2.8142496135800665,
                -0.783033631029522,
                1.1604231423299511,
                -0.3646834670608793,
                0.9594214486445245,
                -3.1095972606128135
            ]
        },
        {
            "positions": [
                -2.788625979539101,
                -0.7511956079640244,
                1.0616943397559897,
                -0.29887775007423806,
                0.8285928159456551,
                -3.113854509936006
            ]
        },
        {
            "positions": [
                -2.763002345498136,
                -0.719357584898527,
                0.962965537182028,
                -0.23307203308759672,
                0.6977641832467856,
                -3.118111759259199
            ]
        },
        {
            "positions": [
                -2.737378711457171,
                -0.6875195618330294,
                0.8642367346080665,
                -0.16726631610095544,
                0.5669355505479163,
                -3.1223690085823916
            ]
        },
        {
            "positions": [
                -2.7117550774162056,
                -0.655681538767532,
                0.7655079320341049,
                -0.10146059911431415,
                0.4361069178490468,
                -3.1266262579055843
            ]
        }
    ]
}