{
    "goal": {
        "global_pose": {
            "orientation": {
                "w": 0.5084816262002911,
                "x": -0.4908360881923452,
                "y": 0.5182115481033761,
                "z": -0.48164630358495003
            },
            "position": {
                "x": 0.5540239810943604,
                "y": -0.46912469901144505,
                "z": 0.16403168439865112
            }
        },
        "name": "move_to_storage_B"
    },
    "id": "RRTstar_move_to_storage_B_136",
    "joint_names": [
        "shoulder_pan_joint",
        "shoulder_lift_joint",
        "elbow_joint",
        "wrist_1_joint",
        "wrist_2_joint",
        "wrist_3_joint"
    ],
    "metrics": {
        "cart_traj_len": 0.7660544568140145,
        "distance_elbow_joint": 0.37175821807974607,
        "distance_shoulder_lift_joint": 0.5295480278785709,
        "distance_shoulder_pan_joint": 0.45208762881127973,
        "distance_wrist_1_joint": 2.9867377966085753,
        "distance_wrist_2_joint": 2.7206842402099323,
        "distance_wrist_3_joint": 3.147753084607709,
        "smoothness": 0.07919160993549479,
        "time": 5.030582813,
        "traj_len": 3.195085131290841,
        "weighted_distance": 4.712907510468431
    },
    "planner": "RRTstar",
    "start": {
        "state": {
            "elbow_joint": 1.664937868594044,
            "shoulder_lift_joint": -0.661644460510453,
            "shoulder_pan_joint": -0.9139846352900073,
            "wrist_1_joint": 2.146753192139373,
            "wrist_2_joint": -2.2341966793290973,
            "wrist_3_joint": 0.005466555786416001
        }
    },
    "waypoints": [
        {
            "positions": [
                -0.9139846352900073,
                -0.661644460510453,
                1.664937868594044,
                2.146753192139373,
                -2.2341966793290973,
                0.005466555786416001
            ]
        },
        {
            "positions": [
                -0.8800209236593735,
                -0.706991086079194,
                1.7441514770586315,
                2.116368357212794,
                -2.1540818654367113,
                0.06949833302837234
            ]
        },
        {
            "positions": [
                -0.8460572120287397,
                -0.7523377116479351,
                1.823365085523219,
                2.085983522286215,
                -2.0739670515443254,
                0.13353011027032868
            ]
        },
        {
            "positions": [
                -0.8120935003981059,
                -0.7976843372166761,
                1.9025786939878067,
                2.0555986873596357,
                -1.9938522376519394,
                0.197561887512285
            ]
        },
        {
            "positions": [
                -0.7781297887674721,
                -0.8430309627854171,
                1.9817923024523942,
                2.0252138524330565,
                -1.9137374237595535,
                0.2615936647542414
            ]
        },
        {
            "positions": [
                -0.7904765633806734,
                -0.857953063733144,
                1.9813549581885601,
                1.9069263088597874,
                -1.7994723458451203,
                0.3795250925821315
            ]
        },
        {
            "positions": [
                -0.8028233379938748,
                -0.8728751646808708,
                1.9809176139247262,
                1.7886387652865186,
                -1.685207267930687,
                0.49745652041002164
            ]
        },
        {
            "positions": [
                -0.8151701126070762,
                -0.8877972656285976,
                1.980480269660892,
                1.6703512217132495,
                -1.570942190016254,
                0.6153879482379119
            ]
        },
        {
            "positions": [
                -0.8275168872202775,
                -0.9027193665763245,
                1.9800429253970582,
                1.5520636781399804,
                -1.4566771121018207,
                0.7333193760658019
            ]
        },
        {
            "positions": [
                -0.8398636618334788,
                -0.9176414675240513,
                1.979605581133224,
                1.4337761345667115,
                -1.3424120341873875,
                0.851250803893692
            ]
        },
        {
            "positions": [
                -0.8522104364466803,
                -0.9325635684717781,
                1.9791682368693901,
                1.3154885909934424,
                -1.2281469562729543,
                0.9691822317215822
            ]
        },
        {
            "positions": [
                -0.8645572110598816,
                -0.947485669419505,
                1.978730892605556,
                1.1972010474201733,
                -1.1138818783585214,
                1.0871136595494724
            ]
        },
        {
            "positions": [
                -0.8769039856730829,
                -0.9624077703672318,
                1.978293548341722,
                1.0789135038469042,
                -0.9996168004440882,
                1.2050450873773624
            ]
        },
        {
            "positions": [
                -0.8892507602862842,
                -0.9773298713149585,
                1.977856204077888,
                0.9606259602736353,
                -0.885351722529655,
                1.3229765152052526
            ]
        },
        {
            "positions": [
                -0.9015975348994857,
                -0.9922519722626855,
                1.977418859814054,
                0.8423384167003662,
                -0.7710866446152218,
                1.4409079430331426
            ]
        },
        {
            "positions": [
                -0.913944309512687,
                -1.0071740732104122,
                1.97698151555022,
                0.7240508731270971,
                -0.6568215667007886,
                1.558839370861033
            ]
        },
        {
            "positions": [
                -0.9262910841258883,
                -1.0220961741581391,
                1.976544171286386,
                0.6057633295538283,
                -0.5425564887863554,
                1.676770798688923
            ]
        },
        {
            "positions": [
                -0.9386378587390898,
                -1.0370182751058659,
                1.976106827022552,
                0.48747578598055896,
                -0.42829141087192224,
                1.7947022265168133
            ]
        },
        {
            "positions": [
                -0.9509846333522911,
                -1.0519403760535928,
                1.975669482758718,
                0.3691882424072901,
                -0.3140263329574893,
                1.9126336543447033
            ]
        },
        {
            "positions": [
                -0.9633314079654924,
                -1.0668624770013195,
                1.9752321384948839,
                0.250900698834021,
                -0.19976125504305586,
                2.0305650821725933
            ]
        },
        {
            "positions": [
                -0.9756781825786938,
                -1.0817845779490463,
                1.97479479423105,
                0.13261315526075212,
                -0.0854961771286229,
                2.1484965100004834
            ]
        },
        {
            "positions": [
                -0.9880249571918952,
                -1.0967066788967732,
                1.9743574499672158,
                0.014325611687482809,
                0.028768900785810292,
                2.266427937828374
            ]
        },
        {
            "positions": [
                -1.0003717318050964,
                -1.1116287798445001,
                1.973920105703382,
                -0.10396193188578584,
                0.14303397870024348,
                2.384359365656264
            ]
        },
        {
            "positions": [
                -1.012718506418298,
                -1.1265508807922269,
                1.9734827614395478,
                -0.22224947545905493,
                0.25729905661467667,
                2.502290793484154
            ]
        },
        {
            "positions": [
                -1.0250652810314993,
                -1.1414729817399536,
                1.973045417175714,
                -0.34053701903232403,
                0.37156413452910986,
                2.620222221312044
            ]
        },
        {
            "positions": [
                -1.0374120556447006,
                -1.1563950826876805,
                1.9726080729118798,
                -0.4588245626055932,
                0.48582921244354305,
                2.7381536491399343
            ]
        },
        {
            "positions": [
                -1.0563955607818727,
                -1.1447959474538993,
                1.9878479244721736,
                -0.5858779098934626,
                0.48604866192264046,
                2.876508979557998
            ]
        },
        {
            "positions": [
                -1.0753790659190445,
                -1.1331968122201184,
                2.0030877760324675,
                -0.712931257181332,
                0.4862681114017378,
                3.0148643099760615
            ]
        },
        {
            "positions": [
                -1.0943625710562166,
                -1.1215976769863372,
                2.018327627592761,
                -0.8399846044692015,
                0.4864875608808352,
                3.1532196403941253
            ]
        }
    ]
}