{
    "goal": {
        "global_pose": {
            "orientation": {
                "w": 0.7047431468963623,
                "x": -0.7094548344612122,
                "y": 0.0024358443915843964,
                "z": -0.0022348060738295317
            },
            "position": {
                "x": 0.6094750761985779,
                "y": 0.3671506643295288,
                "z": 0.19426114857196808
            }
        },
        "name": "move_to_magneteinheit_A"
    },
    "id": "RRTstar_move_to_magneteinheit_A_108",
    "joint_names": [
        "shoulder_pan_joint",
        "shoulder_lift_joint",
        "elbow_joint",
        "wrist_1_joint",
        "wrist_2_joint",
        "wrist_3_joint"
    ],
    "metrics": {
        "cart_traj_len": 4.390217635829603,
        "distance_elbow_joint": 3.9066515284193493,
        "distance_shoulder_lift_joint": 1.059065241363136,
        "distance_shoulder_pan_joint": 3.3627971561854513,
        "distance_wrist_1_joint": 0.6896929665923227,
        "distance_wrist_2_joint": 1.6937571695146891,
        "distance_wrist_3_joint": 2.7237582372164004,
        "smoothness": 0.20546112963288987,
        "time": 5.016548771999999,
        "traj_len": 3.6654770902696074,
        "weighted_distance": 4.611582039802736
    },
    "planner": "RRTstar",
    "start": {
        "state": {
            "elbow_joint": -1.9196185241190666,
            "shoulder_lift_joint": -1.2443396400964142,
            "shoulder_pan_joint": 2.6996025414629847,
            "wrist_1_joint": -1.5485510000780065,
            "wrist_2_joint": -1.5709468930060704,
            "wrist_3_joint": 0.4420197071253992
        }
    },
    "waypoints": [
        {
            "positions": [
                2.6996025414629847,
                -1.2443396400964142,
                -1.9196185241190666,
                -1.5485510000780065,
                -1.5709468930060704,
                0.4420197071253992
            ]
        },
        {
            "positions": [
                2.5971837840616323,
                -1.2243899841283543,
                -1.8142950572192205,
                -1.5254182751272098,
                -1.5149432825967792,
                0.519006050507236
            ]
        },
        {
            "positions": [
                2.49476502666028,
                -1.2044403281602942,
                -1.7089715903193743,
                -1.5022855501764134,
                -1.458939672187488,
                0.5959923938890728
            ]
        },
        {
            "positions": [
                2.3923462692589275,
                -1.1844906721922344,
                -1.6036481234195281,
                -1.4791528252256168,
                -1.4029360617781972,
                0.6729787372709095
            ]
        },
        {
            "positions": [
                2.289927511857575,
                -1.1645410162241745,
                -1.498324656519682,
                -1.45602010027482,
                -1.346932451368906,
                0.7499650806527464
            ]
        },
        {
            "positions": [
                2.187508754456222,
                -1.1445913602561144,
                -1.3930011896198355,
                -1.4328873753240237,
                -1.290928840959615,
                0.8269514240345832
            ]
        },
        {
            "positions": [
                2.0850899970548697,
                -1.1246417042880545,
                -1.2876777227199894,
                -1.409754650373227,
                -1.2349252305503238,
                0.90393776741642
            ]
        },
        {
            "positions": [
                1.9826712396535173,
                -1.1046920483199947,
                -1.1823542558201432,
                -1.3866219254224303,
                -1.1789216201410326,
                0.9809241107982568
            ]
        },
        {
            "positions": [
                1.880252482252165,
                -1.0847423923519348,
                -1.077030788920297,
                -1.363489200471634,
                -1.1229180097317417,
                1.0579104541800937
            ]
        },
        {
            "positions": [
                1.7778337248508125,
                -1.0647927363838747,
                -0.9717073220204507,
                -1.3403564755208373,
                -1.0669143993224506,
                1.1348967975619304
            ]
        },
        {
            "positions": [
                1.67541496744946,
                -1.0448430804158149,
                -0.8663838551206045,
                -1.3172237505700406,
                -1.0109107889131594,
                1.2118831409437671
            ]
        },
        {
            "positions": [
                1.5729962100481076,
                -1.024893424447755,
                -0.7610603882207585,
                -1.2940910256192442,
                -0.9549071785038684,
                1.2888694843256039
            ]
        },
        {
            "positions": [
                1.4705774526467552,
                -1.004943768479695,
                -0.6557369213209121,
                -1.2709583006684475,
                -0.8989035680945773,
                1.3658558277074406
            ]
        },
        {
            "positions": [
                1.3681586952454026,
                -0.984994112511635,
                -0.5504134544210659,
                -1.2478255757176508,
                -0.8428999576852861,
                1.4428421710892776
            ]
        },
        {
            "positions": [
                1.2657399378440501,
                -0.9650444565435751,
                -0.44508998752121975,
                -1.2246928507668544,
                -0.786896347275995,
                1.5198285144711146
            ]
        },
        {
            "positions": [
                1.1633211804426975,
                -0.9450948005755151,
                -0.33976652062137336,
                -1.2015601258160578,
                -0.730892736866704,
                1.596814857852951
            ]
        },
        {
            "positions": [
                1.0609024230413453,
                -0.9251451446074552,
                -0.2344430537215274,
                -1.178427400865261,
                -0.674889126457413,
                1.673801201234788
            ]
        },
        {
            "positions": [
                0.9584836656399929,
                -0.9051954886393954,
                -0.12911958682168123,
                -1.1552946759144647,
                -0.6188855160481219,
                1.7507875446166246
            ]
        },
        {
            "positions": [
                0.8560649082386402,
                -0.8852458326713353,
                -0.023796119921834835,
                -1.132161950963668,
                -0.5628819056388308,
                1.8277738879984615
            ]
        },
        {
            "positions": [
                0.7536461508372878,
                -0.8652961767032754,
                0.08152734697801112,
                -1.1090292260128713,
                -0.5068782952295396,
                1.904760231380298
            ]
        },
        {
            "positions": [
                0.6512273934359354,
                -0.8453465207352155,
                0.18685081387785774,
                -1.085896501062075,
                -0.4508746848202485,
                1.981746574762135
            ]
        },
        {
            "positions": [
                0.548808636034583,
                -0.8253968647671556,
                0.29217428077770347,
                -1.0627637761112783,
                -0.39487107441095737,
                2.058732918143972
            ]
        },
        {
            "positions": [
                0.44638987863323054,
                -0.8054472087990956,
                0.39749774767754964,
                -1.0396310511604816,
                -0.33886746400166645,
                2.1357192615258085
            ]
        },
        {
            "positions": [
                0.3439711212318777,
                -0.7854975528310357,
                0.5028212145773963,
                -1.016498326209685,
                -0.2828638535923753,
                2.2127056049076455
            ]
        },
        {
            "positions": [
                0.2415523638305257,
                -0.7655478968629758,
                0.6081446814772424,
                -0.9933656012588885,
                -0.22686024318308418,
                2.2896919482894824
            ]
        },
        {
            "positions": [
                0.13913360642917327,
                -0.7455982408949159,
                0.7134681483770882,
                -0.970232876308092,
                -0.17085663277379326,
                2.366678291671319
            ]
        },
        {
            "positions": [
                0.036714849027820406,
                -0.7256485849268559,
                0.8187916152769348,
                -0.9471001513572953,
                -0.1148530223645019,
                2.443664635053156
            ]
        },
        {
            "positions": [
                -0.06570390837353202,
                -0.7056989289587959,
                0.924115082176781,
                -0.9239674264064988,
                -0.058849411955210984,
                2.520650978434993
            ]
        },
        {
            "positions": [
                -0.16812266577488444,
                -0.685749272990736,
                1.0294385490766271,
                -0.9008347014557021,
                -0.002845801545919624,
                2.59763732181683
            ]
        },
        {
            "positions": [
                -0.27054142317623675,
                -0.6657996170226761,
                1.1347620159764733,
                -0.8777019765049056,
                0.0531578088633714,
                2.6746236651986663
            ]
        },
        {
            "positions": [
                -0.20509922458519841,
                -0.7458871534042424,
                1.2768071806971082,
                -0.8745613193350352,
                0.0647665534709126,
                2.756482711722522
            ]
        },
        {
            "positions": [
                -0.13965702599416005,
                -0.8259746897858087,
                1.418852345417743,
                -0.871420662165165,
                0.07637529807845381,
                2.8383417582463775
            ]
        },
        {
            "positions": [
                -0.07421482740312169,
                -0.9060622261673751,
                1.5608975101383782,
                -0.8682800049952947,
                0.087984042685995,
                2.920200804770233
            ]
        },
        {
            "positions": [
                -0.00877262881208335,
                -0.9861497625489414,
                1.702942674859013,
                -0.8651393478254243,
                0.0995927872935362,
                3.0020598512940886
            ]
        },
        {
            "positions": [
                0.05666956977895504,
                -1.0662372989305078,
                1.8449878395796482,
                -0.8619986906555541,
                0.1112015319010774,
                3.083918897817944
            ]
        },
        {
            "positions": [
                0.12211176836999336,
                -1.146324835312074,
                1.987033004300283,
                -0.8588580334856838,
                0.1228102765086186,
                3.1657779443417997
            ]
        }
    ]
}