{
    "goal": {
        "global_pose": {
            "orientation": {
                "w": 0.7047431493862688,
                "x": -0.7094548369677653,
                "y": 0.0024358444001904,
                "z": -0.0022348060817251984
            },
            "position": {
                "x": -0.39052492380142206,
                "y": 0.3671506643295288,
                "z": 0.19426114857196808
            }
        },
        "name": "move_to_magneteinheit_D"
    },
    "id": "RRTstar_move_to_magneteinheit_D_116",
    "joint_names": [
        "shoulder_pan_joint",
        "shoulder_lift_joint",
        "elbow_joint",
        "wrist_1_joint",
        "wrist_2_joint",
        "wrist_3_joint"
    ],
    "metrics": {
        "cart_traj_len": 3.7647899392109765,
        "distance_elbow_joint": 3.1232750843054657,
        "distance_shoulder_lift_joint": 1.634701745944483,
        "distance_shoulder_pan_joint": 3.3391783734355314,
        "distance_wrist_1_joint": 1.7159405015113927,
        "distance_wrist_2_joint": 0.406511675159994,
        "distance_wrist_3_joint": 3.152324368362857,
        "smoothness": 0.2670779865679336,
        "time": 5.0367152289999995,
        "traj_len": 3.656765202842496,
        "weighted_distance": 4.66894342031651
    },
    "planner": "RRTstar",
    "start": {
        "state": {
            "elbow_joint": 0.749534889911806,
            "shoulder_lift_joint": -0.6476975780787326,
            "shoulder_pan_joint": -2.711696901376241,
            "wrist_1_joint": -0.07506478083263063,
            "wrist_2_joint": 0.43296659715538205,
            "wrist_3_joint": -3.14703540197715
        }
    },
    "waypoints": [
        {
            "positions": [
                -2.711696901376241,
                -0.6476975780787326,
                0.749534889911806,
                -0.07506478083263063,
                0.43296659715538205,
                -3.14703540197715
            ]
        },
        {
            "positions": [
                -2.7150718793641473,
                -0.6769507129374888,
                0.5122772103329307,
                -0.006449221363024379,
                0.4027616669922265,
                -3.1514348892859694
            ]
        },
        {
            "positions": [
                -2.7167593683581,
                -0.6915772803668667,
                0.3936483705434931,
                0.027858558371778745,
                0.38765920191064873,
                -3.1536346329403795
            ]
        },
        {
            "positions": [
                -2.616928458057647,
                -0.7165829273725032,
                0.2870189356885065,
                0.08516026113003436,
                0.3755801690554375,
                -3.0740067775100863
            ]
        },
        {
            "positions": [
                -2.5170975477571935,
                -0.7415885743781396,
                0.1803895008335199,
                0.14246196388829,
                0.3635011362002263,
                -2.9943789220797936
            ]
        },
        {
            "positions": [
                -2.4172666374567404,
                -0.766594221383776,
                0.0737600659785333,
                0.19976366664654563,
                0.35142210334501506,
                -2.9147510666495005
            ]
        },
        {
            "positions": [
                -2.3174357271562873,
                -0.7915998683894124,
                -0.03286936887645331,
                0.25706536940480124,
                0.33934307048980383,
                -2.8351232112192077
            ]
        },
        {
            "positions": [
                -2.2176048168558338,
                -0.8166055153950489,
                -0.13949880373143997,
                0.31436707216305687,
                0.32726403763459266,
                -2.7554953557889146
            ]
        },
        {
            "positions": [
                -2.1177739065553807,
                -0.8416111624006852,
                -0.24612823858642652,
                0.3716687749213125,
                0.31518500477938144,
                -2.675867500358622
            ]
        },
        {
            "positions": [
                -2.017942996254927,
                -0.8666168094063217,
                -0.3527576734414132,
                0.42897047767956814,
                0.3031059719241702,
                -2.5962396449283287
            ]
        },
        {
            "positions": [
                -1.9181120859544742,
                -0.8916224564119581,
                -0.4593871082963997,
                0.4862721804378237,
                0.291026939068959,
                -2.516611789498036
            ]
        },
        {
            "positions": [
                -1.818281175654021,
                -0.9166281034175946,
                -0.5660165431513863,
                0.5435738831960794,
                0.27894790621374776,
                -2.436983934067743
            ]
        },
        {
            "positions": [
                -1.7184502653535676,
                -0.941633750423231,
                -0.672645978006373,
                0.600875585954335,
                0.26686887335853654,
                -2.3573560786374497
            ]
        },
        {
            "positions": [
                -1.6186193550531145,
                -0.9666393974288674,
                -0.7792754128613596,
                0.6581772887125906,
                0.2547898405033253,
                -2.277728223207157
            ]
        },
        {
            "positions": [
                -1.5187884447526612,
                -0.9916450444345039,
                -0.8859048477163461,
                0.7154789914708463,
                0.24271080764811412,
                -2.1981003677768642
            ]
        },
        {
            "positions": [
                -1.418957534452208,
                -1.0166506914401403,
                -0.9925342825713327,
                0.7727806942291018,
                0.23063177479290292,
                -2.118472512346571
            ]
        },
        {
            "positions": [
                -1.3191266241517545,
                -1.0416563384457767,
                -1.0991637174263196,
                0.8300823969873575,
                0.21855274193769167,
                -2.038844656916278
            ]
        },
        {
            "positions": [
                -1.2192957138513014,
                -1.0666619854514132,
                -1.2057931522813061,
                0.8873840997456132,
                0.20647370908248047,
                -1.9592168014859852
            ]
        },
        {
            "positions": [
                -1.1194648035508483,
                -1.0916676324570496,
                -1.3124225871362927,
                0.9446858025038687,
                0.19439467622726925,
                -1.8795889460556923
            ]
        },
        {
            "positions": [
                -1.0196338932503948,
                -1.116673279462686,
                -1.4190520219912792,
                1.0019875052621243,
                0.18231564337205802,
                -1.799961090625399
            ]
        },
        {
            "positions": [
                -0.9198029829499417,
                -1.1416789264683225,
                -1.5256814568462658,
                1.05928920802038,
                0.1702366105168468,
                -1.7203332351951062
            ]
        },
        {
            "positions": [
                -0.8199720726494886,
                -1.1666845734739588,
                -1.6323108917012523,
                1.1165909107786356,
                0.1581575776616356,
                -1.6407053797648135
            ]
        },
        {
            "positions": [
                -0.720141162349035,
                -1.1916902204795954,
                -1.7389403265562393,
                1.1738926135368912,
                0.14607854480642438,
                -1.5610775243345203
            ]
        },
        {
            "positions": [
                -0.6203102520485819,
                -1.2166958674852317,
                -1.8455697614112259,
                1.2311943162951469,
                0.13399951195121318,
                -1.4814496689042274
            ]
        },
        {
            "positions": [
                -0.5204793417481288,
                -1.241701514490868,
                -1.9521991962662124,
                1.2884960190534025,
                0.12192047909600195,
                -1.4018218134739344
            ]
        },
        {
            "positions": [
                -0.4206484314476753,
                -1.2667071614965044,
                -2.058828631121199,
                1.3457977218116581,
                0.10984144624079073,
                -1.3221939580436415
            ]
        },
        {
            "positions": [
                -0.3208175211472222,
                -1.291712808502141,
                -2.1654580659761855,
                1.4030994245699138,
                0.0977624133855795,
                -1.2425661026133485
            ]
        },
        {
            "positions": [
                -0.23115052816558354,
                -1.3561899716536578,
                -2.1829481250124028,
                1.4328519589937039,
                0.10209157011926326,
                -1.1090452092477883
            ]
        },
        {
            "positions": [
                -0.1414835351839449,
                -1.4206671348051747,
                -2.2004381840486196,
                1.4626044934174942,
                0.106420726852947,
                -0.9755243158822279
            ]
        },
        {
            "positions": [
                -0.05181654220230625,
                -1.4851442979566918,
                -2.217928243084837,
                1.4923570278412845,
                0.11074988358663074,
                -0.8420034225166675
            ]
        },
        {
            "positions": [
                0.037850450779332356,
                -1.5496214611082086,
                -2.235418302121054,
                1.5221095622650747,
                0.11507904032031449,
                -0.7084825291511072
            ]
        },
        {
            "positions": [
                0.12751744376097107,
                -1.6140986242597255,
                -2.252908361157271,
                1.5518620966888648,
                0.11940819705399824,
                -0.5749616357855467
            ]
        },
        {
            "positions": [
                0.21718443674260962,
                -1.6785757874112424,
                -2.270398420193488,
                1.581614631112655,
                0.12373735378768198,
                -0.4414407424199865
            ]
        },
        {
            "positions": [
                0.13239490688501734,
                -1.813003991723198,
                -2.29361487500804,
                1.5695932812429612,
                0.13381304886395848,
                -0.34209138208054146
            ]
        },
        {
            "positions": [
                0.047605377027425066,
                -1.9474321960351535,
                -2.316831329822592,
                1.5575719313732674,
                0.143888743940235,
                -0.2427420217410964
            ]
        },
        {
            "positions": [
                -0.03718415283016724,
                -2.081860400347109,
                -2.3400477846371444,
                1.5455505815035737,
                0.1539644390165115,
                -0.14339266140165136
            ]
        },
        {
            "positions": [
                -0.12197368268775949,
                -2.2162886046590646,
                -2.3632642394516963,
                1.5335292316338798,
                0.164040134092788,
                -0.04404330106220634
            ]
        },
        {
            "positions": [
                -0.18298766461035373,
                -2.2823993240232157,
                -2.37374019439366,
                1.5223535415465481,
                0.16906990477577102,
                -0.007909495540752412
            ]
        }
    ]
}