{
    "goal": {
        "global_pose": {
            "orientation": {
                "w": 0.005598929693374612,
                "x": 0.007748599140229565,
                "y": 0.7110244013736278,
                "z": -0.7031023480610252
            },
            "position": {
                "x": 0.1141497679147869,
                "y": -0.7141253447532654,
                "z": 0.3711530566215515
            }
        },
        "name": "move_to_auspresseinheit_B"
    },
    "id": "RRTstar_move_to_auspresseinheit_B_27",
    "joint_names": [
        "shoulder_pan_joint",
        "shoulder_lift_joint",
        "elbow_joint",
        "wrist_1_joint",
        "wrist_2_joint",
        "wrist_3_joint"
    ],
    "metrics": {
        "cart_traj_len": 0.5640356711921762,
        "distance_elbow_joint": 0.058079520915303995,
        "distance_shoulder_lift_joint": 0.2965405124539382,
        "distance_shoulder_pan_joint": 0.578492276012359,
        "distance_wrist_1_joint": 0.3164107516746604,
        "distance_wrist_2_joint": 0.9856911670585922,
        "distance_wrist_3_joint": 0.00692703751588164,
        "smoothness": 5.075305255429287e-16,
        "time": 5.0003198410000005,
        "traj_len": 1.4973781304769798,
        "weighted_distance": 1.8862919337673454
    },
    "planner": "RRTstar",
    "start": {
        "state": {
            "elbow_joint": 2.0193083361928714,
            "shoulder_lift_joint": -1.1220246554650708,
            "shoulder_pan_joint": -1.0952077554168747,
            "wrist_1_joint": -0.8559753972642168,
            "wrist_2_joint": 0.4759566250798843,
            "wrist_3_joint": -3.1240929996934557
        }
    },
    "waypoints": [
        {
            "positions": [
                -1.0952077554168747,
                -1.1220246554650708,
                2.0193083361928714,
                -0.8559753972642168,
                0.4759566250798843,
                -3.1240929996934557
            ]
        },
        {
            "positions": [
                -1.1916231347522679,
                -1.1714480742073938,
                2.0096284160403206,
                -0.8032402719851067,
                0.6402384862563163,
                -3.1229384934408086
            ]
        },
        {
            "positions": [
                -1.288038514087661,
                -1.2208714929497169,
                1.99994849588777,
                -0.7505051467059967,
                0.8045203474327483,
                -3.1217839871881616
            ]
        },
        {
            "positions": [
                -1.3844538934230541,
                -1.27029491169204,
                1.9902685757352194,
                -0.6977700214268866,
                0.9688022086091803,
                -3.1206294809355146
            ]
        },
        {
            "positions": [
                -1.4808692727584472,
                -1.319718330434363,
                1.9805886555826688,
                -0.6450348961477765,
                1.1330840697856124,
                -3.119474974682868
            ]
        },
        {
            "positions": [
                -1.5772846520938404,
                -1.369141749176686,
                1.970908735430118,
                -0.5922997708686665,
                1.2973659309620444,
                -3.118320468430221
            ]
        },
        {
            "positions": [
                -1.6737000314292336,
                -1.418565167919009,
                1.9612288152775674,
                -0.5395646455895564,
                1.4616477921384765,
                -3.117165962177574
            ]
        }
    ]
}