{
    "goal": {
        "global_pose": {
            "orientation": {
                "w": -0.00223480608172531,
                "x": 0.0024358444001904467,
                "y": 0.7094548369677653,
                "z": -0.704743149386269
            },
            "position": {
                "x": 0.6205249238014221,
                "y": -0.6371506643295288,
                "z": 0.19426114857196808
            }
        },
        "name": "move_to_magneteinheit_B"
    },
    "id": "RRTstar_move_to_magneteinheit_B_27",
    "joint_names": [
        "shoulder_pan_joint",
        "shoulder_lift_joint",
        "elbow_joint",
        "wrist_1_joint",
        "wrist_2_joint",
        "wrist_3_joint"
    ],
    "metrics": {
        "cart_traj_len": 1.5344652598941955,
        "distance_elbow_joint": 0.9569714602106352,
        "distance_shoulder_lift_joint": 0.7566669442508864,
        "distance_shoulder_pan_joint": 1.6210113009277793,
        "distance_wrist_1_joint": 0.18636590767705785,
        "distance_wrist_2_joint": 3.702282747162563,
        "distance_wrist_3_joint": 1.496467756902288,
        "smoothness": 0.7860738330122891,
        "time": 5.080978808999999,
        "traj_len": 2.9529250104144547,
        "weighted_distance": 3.9498544638727395
    },
    "planner": "RRTstar",
    "start": {
        "state": {
            "elbow_joint": 2.6216224122426386,
            "shoulder_lift_joint": -1.4174107377796124,
            "shoulder_pan_joint": 0.7066234856936794,
            "wrist_1_joint": 1.9546482284002225,
            "wrist_2_joint": -0.7096286983471962,
            "wrist_3_joint": 0.005740856962016249
        }
    },
    "waypoints": [
        {
            "positions": [
                0.7066234856936794,
                -1.4174107377796124,
                2.6216224122426386,
                1.9546482284002225,
                -0.7096286983471962,
                0.005740856962016249
            ]
        },
        {
            "positions": [
                0.6494216149255391,
                -1.3608052185436361,
                2.6209566129917237,
                1.9584050200538268,
                -0.5533605582314989,
                -0.101669650351059
            ]
        },
        {
            "positions": [
                0.5922197441573988,
                -1.30419969930766,
                2.620290813740809,
                1.9621618117074309,
                -0.39709241811580154,
                -0.20908015766413424
            ]
        },
        {
            "positions": [
                0.5350178733892585,
                -1.2475941800716839,
                2.6196250144898943,
                1.9659186033610352,
                -0.2408242780001042,
                -0.31649066497720946
            ]
        },
        {
            "positions": [
                0.47781600262111823,
                -1.1909886608357076,
                2.6189592152389793,
                1.9696753950146393,
                -0.08455613788440686,
                -0.42390117229028473
            ]
        },
        {
            "positions": [
                0.42061413185297786,
                -1.1343831415997316,
                2.6182934159880644,
                1.9734321866682436,
                0.07171200223129048,
                -0.5313116796033601
            ]
        },
        {
            "positions": [
                0.3634122610848376,
                -1.0777776223637554,
                2.61762761673715,
                1.9771889783218477,
                0.22798014234698782,
                -0.6387221869164352
            ]
        },
        {
            "positions": [
                0.3062103903166973,
                -1.0211721031277792,
                2.616961817486235,
                1.980945769975452,
                0.38424828246268516,
                -0.7461326942295106
            ]
        },
        {
            "positions": [
                0.22992300246977246,
                -0.9986453337778384,
                2.5574423883953457,
                1.9909500428568163,
                0.2212229220656426,
                -0.699595556372588
            ]
        },
        {
            "positions": [
                0.15363561462284764,
                -0.9761185644278976,
                2.4979229593044563,
                2.0009543157381806,
                0.05819756166860002,
                -0.6530584185156654
            ]
        },
        {
            "positions": [
                0.07734822677592282,
                -0.9535917950779567,
                2.4384035302135665,
                2.0109585886195447,
                -0.10482779872844256,
                -0.6065212806587429
            ]
        },
        {
            "positions": [
                0.001060838928997998,
                -0.9310650257280159,
                2.378884101122677,
                2.020962861500909,
                -0.26785315912548513,
                -0.5599841428018203
            ]
        },
        {
            "positions": [
                -0.0752265489179268,
                -0.9085382563780751,
                2.3193646720317878,
                2.0309671343822733,
                -0.43087851952252776,
                -0.5134470049448977
            ]
        },
        {
            "positions": [
                -0.15151393676485164,
                -0.8860114870281341,
                2.259845242940898,
                2.040971407263638,
                -0.5939038799195703,
                -0.46690986708797516
            ]
        },
        {
            "positions": [
                -0.2278013246117765,
                -0.8634847176781933,
                2.2003258138500086,
                2.050975680145002,
                -0.7569292403166128,
                -0.4203727292310526
            ]
        },
        {
            "positions": [
                -0.3040887124587013,
                -0.8409579483282525,
                2.140806384759119,
                2.060979953026366,
                -0.9199546007136554,
                -0.37383559137413
            ]
        },
        {
            "positions": [
                -0.3803761003056261,
                -0.8184311789783117,
                2.08128695566823,
                2.0709842259077305,
                -1.082979961110698,
                -0.32729845351720743
            ]
        },
        {
            "positions": [
                -0.45666348815255087,
                -0.795904409628371,
                2.0217675265773405,
                2.0809884987890945,
                -1.2460053215077407,
                -0.2807613156602849
            ]
        },
        {
            "positions": [
                -0.5329508759994758,
                -0.77337764027843,
                1.9622480974864507,
                2.090992771670459,
                -1.409030681904783,
                -0.23422417780336235
            ]
        },
        {
            "positions": [
                -0.6092382638464006,
                -0.7508508709284892,
                1.9027286683955613,
                2.100997044551823,
                -1.5720560423018257,
                -0.18768703994643976
            ]
        },
        {
            "positions": [
                -0.6855256516933254,
                -0.7283241015785484,
                1.843209239304672,
                2.1110013174331876,
                -1.7350814026988681,
                -0.14114990208951717
            ]
        },
        {
            "positions": [
                -0.7618130395402503,
                -0.7057973322286075,
                1.7836898102137824,
                2.1210055903145517,
                -1.8981067630959108,
                -0.09461276423259468
            ]
        },
        {
            "positions": [
                -0.838100427387175,
                -0.6832705628786667,
                1.7241703811228928,
                2.1310098631959162,
                -2.0611321234929534,
                -0.04807562637567209
            ]
        },
        {
            "positions": [
                -0.9143878152340997,
                -0.6607437935287259,
                1.6646509520320034,
                2.1410141360772803,
                -2.224157483889996,
                -0.0015384885187494856
            ]
        }
    ]
}