{
    "goal": {
        "global_pose": {
            "orientation": {
                "w": 0.005598929693374612,
                "x": 0.007748599140229565,
                "y": 0.7110244013736278,
                "z": -0.7031023480610252
            },
            "position": {
                "x": -0.8858502320852131,
                "y": -0.7141253447532654,
                "z": 0.3711530566215515
            }
        },
        "name": "move_to_auspresseinheit_C"
    },
    "id": "RRTstar_move_to_auspresseinheit_C_148",
    "joint_names": [
        "shoulder_pan_joint",
        "shoulder_lift_joint",
        "elbow_joint",
        "wrist_1_joint",
        "wrist_2_joint",
        "wrist_3_joint"
    ],
    "metrics": {
        "cart_traj_len": 0.49187561402804364,
        "distance_elbow_joint": 0.9894431236070383,
        "distance_shoulder_lift_joint": 0.3198248739572328,
        "distance_shoulder_pan_joint": 0.25553846652912293,
        "distance_wrist_1_joint": 0.6569347775127137,
        "distance_wrist_2_joint": 1.3098126018323213,
        "distance_wrist_3_joint": 0.04569258192239767,
        "smoothness": 8.074349308362242e-16,
        "time": 5.000809395999999,
        "traj_len": 1.8913609981600092,
        "weighted_distance": 2.3738953154152895
    },
    "planner": "RRTstar",
    "start": {
        "state": {
            "elbow_joint": 1.7527959577737207,
            "shoulder_lift_joint": -0.9740617694225068,
            "shoulder_pan_joint": -2.967991417825858,
            "wrist_1_joint": -0.759517768980727,
            "wrist_2_joint": 1.7443932448377408,
            "wrist_3_joint": -3.0840537646736568
        }
    },
    "waypoints": [
        {
            "positions": [
                -2.967991417825858,
                -0.9740617694225068,
                1.7527959577737207,
                -0.759517768980727,
                1.7443932448377408,
                -3.0840537646736568
            ]
        },
        {
            "positions": [
                -2.942437571172946,
                -0.9420792820267835,
                1.6538516454130168,
                -0.6938242912294557,
                1.6134119846545087,
                -3.0886230228658964
            ]
        },
        {
            "positions": [
                -2.916883724520033,
                -0.9100967946310602,
                1.5549073330523129,
                -0.6281308134781842,
                1.4824307244712767,
                -3.0931922810581365
            ]
        },
        {
            "positions": [
                -2.891329877867121,
                -0.8781143072353369,
                1.4559630206916092,
                -0.5624373357269129,
                1.3514494642880446,
                -3.097761539250376
            ]
        },
        {
            "positions": [
                -2.865776031214209,
                -0.8461318198396136,
                1.3570187083309053,
                -0.4967438579756415,
                1.2204682041048123,
                -3.1023307974426158
            ]
        },
        {
            "positions": [
                -2.8402221845612967,
                -0.8141493324438904,
                1.2580743959702014,
                -0.43105038022437014,
                1.0894869439215802,
                -3.1069000556348554
            ]
        },
        {
            "positions": [
                -2.814668337908384,
                -0.7821668450481671,
                1.1591300836094978,
                -0.36535690247309877,
                0.9585056837383481,
                -3.1114693138270955
            ]
        },
        {
            "positions": [
                -2.789114491255472,
                -0.7501843576524438,
                1.0601857712487939,
                -0.29966342472182744,
                0.827524423555116,
                -3.116038572019335
            ]
        },
        {
            "positions": [
                -2.76356064460256,
                -0.7182018702567206,
                0.96124145888809,
                -0.23396994697055606,
                0.6965431633718837,
                -3.1206078302115747
            ]
        },
        {
            "positions": [
                -2.738006797949647,
                -0.6862193828609973,
                0.8622971465273861,
                -0.16827646921928463,
                0.5655619031886516,
                -3.125177088403815
            ]
        },
        {
            "positions": [
                -2.712452951296735,
                -0.654236895465274,
                0.7633528341666823,
                -0.10258299146801328,
                0.43458064300541954,
                -3.1297463465960544
            ]
        }
    ]
}