{
    "goal": {
        "global_pose": {
            "orientation": {
                "w": 0.7031023480610252,
                "x": -0.7110244013736278,
                "y": 0.0077485991402295624,
                "z": 0.005598929693374583
            },
            "position": {
                "x": -0.8841497679147869,
                "y": 0.44412534475326537,
                "z": 0.3711530566215515
            }
        },
        "name": "move_to_auspresseinheit_D"
    },
    "id": "RRTstar_move_to_auspresseinheit_D_142",
    "joint_names": [
        "shoulder_pan_joint",
        "shoulder_lift_joint",
        "elbow_joint",
        "wrist_1_joint",
        "wrist_2_joint",
        "wrist_3_joint"
    ],
    "metrics": {
        "cart_traj_len": 0.3425658599418862,
        "distance_elbow_joint": 0.6368904157861934,
        "distance_shoulder_lift_joint": 0.1205358798139069,
        "distance_shoulder_pan_joint": 0.13356145869966346,
        "distance_wrist_1_joint": 0.5347626865343322,
        "distance_wrist_2_joint": 1.43189591587244,
        "distance_wrist_3_joint": 0.009482365173692386,
        "smoothness": 3.9474596431116675e-16,
        "time": 5.000855491,
        "traj_len": 1.69325979160914,
        "weighted_distance": 2.202896287761724
    },
    "planner": "RRTstar",
    "start": {
        "state": {
            "elbow_joint": -1.8275523626775212,
            "shoulder_lift_joint": -2.126789852344167,
            "shoulder_pan_joint": -0.03513704404078235,
            "wrist_1_joint": -2.347782403156801,
            "wrist_2_joint": -1.6058999987535132,
            "wrist_3_joint": -3.0880379163319196
        }
    },
    "waypoints": [
        {
            "positions": [
                -0.03513704404078235,
                -2.126789852344167,
                -1.8275523626775212,
                -2.347782403156801,
                -1.6058999987535132,
                -3.0880379163319196
            ]
        },
        {
            "positions": [
                -0.05183222637824028,
                -2.1418568373209053,
                -1.747941060704247,
                -2.4146277389735924,
                -1.4269130092694582,
                -3.086852620685208
            ]
        },
        {
            "positions": [
                -0.06852740871569821,
                -2.1569238222976437,
                -1.668329758730973,
                -2.481473074790384,
                -1.2479260197854032,
                -3.0856673250384965
            ]
        },
        {
            "positions": [
                -0.08522259105315615,
                -2.171990807274382,
                -1.5887184567576986,
                -2.5483184106071755,
                -1.0689390303013482,
                -3.084482029391785
            ]
        },
        {
            "positions": [
                -0.10191777339061409,
                -2.18705779225112,
                -1.5091071547844246,
                -2.615163746423967,
                -0.8899520408172932,
                -3.0832967337450734
            ]
        },
        {
            "positions": [
                -0.11861295572807201,
                -2.2021247772278585,
                -1.4294958528111503,
                -2.6820090822407585,
                -0.7109650513332382,
                -3.082111438098362
            ]
        },
        {
            "positions": [
                -0.13530813806552994,
                -2.217191762204597,
                -1.349884550837876,
                -2.74885441805755,
                -0.5319780618491832,
                -3.0809261424516503
            ]
        },
        {
            "positions": [
                -0.1520033204029879,
                -2.2322587471813353,
                -1.2702732488646018,
                -2.8156997538743416,
                -0.35299107236512817,
                -3.0797408468049388
            ]
        },
        {
            "positions": [
                -0.16869850274044582,
                -2.2473257321580737,
                -1.1906619468913278,
                -2.882545089691133,
                -0.1740040828810731,
                -3.078555551158227
            ]
        }
    ]
}