{
    "goal": {
        "global_pose": {
            "orientation": {
                "w": 0.7047431468963623,
                "x": -0.7094548344612122,
                "y": 0.0024358443915843964,
                "z": -0.0022348060738295317
            },
            "position": {
                "x": 0.6094750761985779,
                "y": 0.3671506643295288,
                "z": 0.19426114857196808
            }
        },
        "name": "move_to_magneteinheit_A"
    },
    "id": "RRTstar_move_to_magneteinheit_A_128",
    "joint_names": [
        "shoulder_pan_joint",
        "shoulder_lift_joint",
        "elbow_joint",
        "wrist_1_joint",
        "wrist_2_joint",
        "wrist_3_joint"
    ],
    "metrics": {
        "cart_traj_len": 3.3503562087271845,
        "distance_elbow_joint": 3.903726923720613,
        "distance_shoulder_lift_joint": 0.1144758526541374,
        "distance_shoulder_pan_joint": 2.706032034402063,
        "distance_wrist_1_joint": 0.7118793563457368,
        "distance_wrist_2_joint": 1.6934667008547202,
        "distance_wrist_3_joint": 2.6962534451612963,
        "smoothness": 0.0392976967259938,
        "time": 5.017789327,
        "traj_len": 3.4388710812036223,
        "weighted_distance": 4.429863119856146
    },
    "planner": "RRTstar",
    "start": {
        "state": {
            "elbow_joint": -1.9196185241190666,
            "shoulder_lift_joint": -1.2443396400964142,
            "shoulder_pan_joint": 2.6996025414629847,
            "wrist_1_joint": -1.5485510000780065,
            "wrist_2_joint": -1.5709468930060704,
            "wrist_3_joint": 0.4420197071253992
        }
    },
    "waypoints": [
        {
            "positions": [
                2.6996025414629847,
                -1.2443396400964142,
                -1.9196185241190666,
                -1.5485510000780065,
                -1.5709468930060704,
                0.4420197071253992
            ]
        },
        {
            "positions": [
                2.5778594523458453,
                -1.2433195833369242,
                -1.7722684980092078,
                -1.5445953201351035,
                -1.5647031566373095,
                0.5430192388489677
            ]
        },
        {
            "positions": [
                2.456116363228706,
                -1.242299526577434,
                -1.6249184718993492,
                -1.5406396401922002,
                -1.5584594202685484,
                0.6440187705725364
            ]
        },
        {
            "positions": [
                2.3343732741115666,
                -1.241279469817944,
                -1.4775684457894904,
                -1.5366839602492972,
                -1.5522156838997874,
                0.745018302296105
            ]
        },
        {
            "positions": [
                2.2126301849944277,
                -1.2402594130584539,
                -1.3302184196796318,
                -1.532728280306394,
                -1.5459719475310265,
                0.8460178340196736
            ]
        },
        {
            "positions": [
                2.090887095877288,
                -1.2392393562989636,
                -1.1828683935697728,
                -1.528772600363491,
                -1.5397282111622657,
                0.9470173657432422
            ]
        },
        {
            "positions": [
                1.969144006760149,
                -1.2382192995394736,
                -1.0355183674599142,
                -1.524816920420588,
                -1.5334844747935046,
                1.0480168974668107
            ]
        },
        {
            "positions": [
                1.8474009176430095,
                -1.2371992427799836,
                -0.8881683413500554,
                -1.5208612404776847,
                -1.5272407384247435,
                1.1490164291903795
            ]
        },
        {
            "positions": [
                1.7256578285258701,
                -1.2361791860204934,
                -0.7408183152401968,
                -1.5169055605347816,
                -1.5209970020559826,
                1.250015960913948
            ]
        },
        {
            "positions": [
                1.6039147394087307,
                -1.2351591292610034,
                -0.593468289130338,
                -1.5129498805918784,
                -1.5147532656872218,
                1.3510154926375169
            ]
        },
        {
            "positions": [
                1.4821716502915914,
                -1.2341390725015133,
                -0.4461182630204792,
                -1.5089942006489754,
                -1.5085095293184607,
                1.4520150243610854
            ]
        },
        {
            "positions": [
                1.360428561174452,
                -1.233119015742023,
                -0.2987682369106204,
                -1.5050385207060724,
                -1.5022657929496996,
                1.553014556084654
            ]
        },
        {
            "positions": [
                1.2386854720573128,
                -1.232098958982533,
                -0.1514182108007618,
                -1.5010828407631691,
                -1.4960220565809388,
                1.6540140878082226
            ]
        },
        {
            "positions": [
                1.1169423829401735,
                -1.231078902223043,
                -0.004068184690902976,
                -1.497127160820266,
                -1.489778320212178,
                1.7550136195317911
            ]
        },
        {
            "positions": [
                0.9951992938230341,
                -1.2300588454635528,
                0.14328184141895584,
                -1.493171480877363,
                -1.4835345838434169,
                1.8560131512553597
            ]
        },
        {
            "positions": [
                0.8734562047058947,
                -1.2290387887040628,
                0.2906318675288144,
                -1.4892158009344598,
                -1.4772908474746558,
                1.9570126829789287
            ]
        },
        {
            "positions": [
                0.7517131155887555,
                -1.2280187319445728,
                0.437981893638673,
                -1.4852601209915568,
                -1.471047111105895,
                2.058012214702497
            ]
        },
        {
            "positions": [
                0.6299700264716162,
                -1.2269986751850825,
                0.585331919748532,
                -1.4813044410486536,
                -1.464803374737134,
                2.159011746426066
            ]
        },
        {
            "positions": [
                0.5082269373544765,
                -1.2259786184255925,
                0.7326819458583905,
                -1.4773487611057505,
                -1.458559638368373,
                2.2600112781496344
            ]
        },
        {
            "positions": [
                0.43374926166195354,
                -1.2286954962716732,
                0.8272691233646426,
                -1.4457627703321356,
                -1.401394515673527,
                2.3482908012972157
            ]
        },
        {
            "positions": [
                0.35927158596943054,
                -1.231412374117754,
                0.9218563008708949,
                -1.4141767795585207,
                -1.3442293929786813,
                2.436570324444797
            ]
        },
        {
            "positions": [
                0.28479391027690754,
                -1.2341292519638347,
                1.016443478377147,
                -1.3825907887849058,
                -1.2870642702838353,
                2.524849847592378
            ]
        },
        {
            "positions": [
                0.2393777812736732,
                -1.2308864419860621,
                1.113812683987606,
                -1.3384523857900201,
                -1.1851867358281734,
                2.600610479310448
            ]
        },
        {
            "positions": [
                0.19396165227043888,
                -1.2276436320082895,
                1.2111818895980648,
                -1.2943139827951342,
                -1.0833092013725114,
                2.676371111028518
            ]
        },
        {
            "positions": [
                0.14854552326720455,
                -1.2244008220305171,
                1.3085510952085238,
                -1.2501755798002485,
                -0.9814316669168494,
                2.7521317427465877
            ]
        },
        {
            "positions": [
                0.10312939426397019,
                -1.2211580120527445,
                1.4059203008189827,
                -1.2060371768053626,
                -0.8795541324611873,
                2.827892374464658
            ]
        },
        {
            "positions": [
                0.057713265260735856,
                -1.217915202074972,
                1.5032895064294416,
                -1.161898773810477,
                -0.7776765980055254,
                2.9036530061827275
            ]
        },
        {
            "positions": [
                0.06840372496070511,
                -1.2059568441489368,
                1.5834259886247926,
                -1.1076942521307758,
                -0.6276438636964962,
                2.9427563638667222
            ]
        },
        {
            "positions": [
                0.07909418466067437,
                -1.1939984862229016,
                1.6635624708201433,
                -1.0534897304510744,
                -0.47761112938746697,
                2.981859721550717
            ]
        },
        {
            "positions": [
                0.08978464436064362,
                -1.1820401282968667,
                1.7436989530154943,
                -0.9992852087713733,
                -0.3275783950784378,
                3.0209630792347113
            ]
        },
        {
            "positions": [
                0.10047510406061289,
                -1.1700817703708315,
                1.823835435210845,
                -0.9450806870916721,
                -0.1775456607694086,
                3.060066436918706
            ]
        },
        {
            "positions": [
                0.11116556376058215,
                -1.1581234124447963,
                1.9039719174061962,
                -0.8908761654119708,
                -0.027512926460379394,
                3.099169794602701
            ]
        },
        {
            "positions": [
                0.1218560234605514,
                -1.1461650545187612,
                1.984108399601547,
                -0.8366716437322697,
                0.12251980784864984,
                3.1382731522866956
            ]
        }
    ]
}