{
    "goal": {
        "global_pose": {
            "orientation": {
                "w": 0.005598929693374612,
                "x": 0.007748599140229565,
                "y": 0.7110244013736278,
                "z": -0.7031023480610252
            },
            "position": {
                "x": 0.1141497679147869,
                "y": -0.7141253447532654,
                "z": 0.3711530566215515
            }
        },
        "name": "move_to_auspresseinheit_B"
    },
    "id": "RRTstar_move_to_auspresseinheit_B_35",
    "joint_names": [
        "shoulder_pan_joint",
        "shoulder_lift_joint",
        "elbow_joint",
        "wrist_1_joint",
        "wrist_2_joint",
        "wrist_3_joint"
    ],
    "metrics": {
        "cart_traj_len": 0.5643690518207672,
        "distance_elbow_joint": 0.06256599518709272,
        "distance_shoulder_lift_joint": 0.2937109064999732,
        "distance_shoulder_pan_joint": 0.5768006859482091,
        "distance_wrist_1_joint": 0.32325475682239746,
        "distance_wrist_2_joint": 0.9909271295438735,
        "distance_wrist_3_joint": 0.0016115750470717671,
        "smoothness": 5.075305255429287e-16,
        "time": 5.002181184,
        "traj_len": 1.4996236357995354,
        "weighted_distance": 1.8884586533755598
    },
    "planner": "RRTstar",
    "start": {
        "state": {
            "elbow_joint": 2.0193083361928714,
            "shoulder_lift_joint": -1.1220246554650708,
            "shoulder_pan_joint": -1.0952077554168747,
            "wrist_1_joint": -0.8559753972642168,
            "wrist_2_joint": 0.4759566250798843,
            "wrist_3_joint": -3.1240929996934557
        }
    },
    "waypoints": [
        {
            "positions": [
                -1.0952077554168747,
                -1.1220246554650708,
                2.0193083361928714,
                -0.8559753972642168,
                0.4759566250798843,
                -3.1240929996934557
            ]
        },
        {
            "positions": [
                -1.1913412030749095,
                -1.1709764732150663,
                2.008880670328356,
                -0.8020996044604839,
                0.6411111466705299,
                -3.1243615955346344
            ]
        },
        {
            "positions": [
                -1.2874746507329444,
                -1.219928290965062,
                1.9984530044638404,
                -0.748223811656751,
                0.8062656682611755,
                -3.1246301913758128
            ]
        },
        {
            "positions": [
                -1.383608098390979,
                -1.2688801087150574,
                1.988025338599325,
                -0.694348018853018,
                0.9714201898518211,
                -3.1248987872169915
            ]
        },
        {
            "positions": [
                -1.479741546049014,
                -1.3178319264650529,
                1.9775976727348097,
                -0.6404722260492852,
                1.1365747114424667,
                -3.1251673830581703
            ]
        },
        {
            "positions": [
                -1.5758749937070489,
                -1.3667837442150486,
                1.9671700068702942,
                -0.5865964332455522,
                1.3017292330331123,
                -3.1254359788993487
            ]
        },
        {
            "positions": [
                -1.6720084413650838,
                -1.415735561965044,
                1.9567423410057787,
                -0.5327206404418193,
                1.4668837546237579,
                -3.1257045747405274
            ]
        }
    ]
}