{
    "goal": {
        "global_pose": {
            "orientation": {
                "w": 0.7047431468963623,
                "x": -0.7094548344612122,
                "y": 0.0024358443915843964,
                "z": -0.0022348060738295317
            },
            "position": {
                "x": 0.6094750761985779,
                "y": 0.3671506643295288,
                "z": 0.19426114857196808
            }
        },
        "name": "move_to_magneteinheit_A"
    },
    "id": "RRTstar_move_to_magneteinheit_A_124",
    "joint_names": [
        "shoulder_pan_joint",
        "shoulder_lift_joint",
        "elbow_joint",
        "wrist_1_joint",
        "wrist_2_joint",
        "wrist_3_joint"
    ],
    "metrics": {
        "cart_traj_len": 3.4935465090979276,
        "distance_elbow_joint": 3.907514236726746,
        "distance_shoulder_lift_joint": 0.09668056832104055,
        "distance_shoulder_pan_joint": 2.7565197375398665,
        "distance_wrist_1_joint": 0.6963198618334133,
        "distance_wrist_2_joint": 1.7038786322237005,
        "distance_wrist_3_joint": 3.566666132349179,
        "smoothness": 0.031232346330235337,
        "time": 5.030988966,
        "traj_len": 3.5675732885245606,
        "weighted_distance": 4.718168069044322
    },
    "planner": "RRTstar",
    "start": {
        "state": {
            "elbow_joint": -1.9196185241190666,
            "shoulder_lift_joint": -1.2443396400964142,
            "shoulder_pan_joint": 2.6996025414629847,
            "wrist_1_joint": -1.5485510000780065,
            "wrist_2_joint": -1.5709468930060704,
            "wrist_3_joint": 0.4420197071253992
        }
    },
    "waypoints": [
        {
            "positions": [
                2.6996025414629847,
                -1.2443396400964142,
                -1.9196185241190666,
                -1.5485510000780065,
                -1.5709468930060704,
                0.4420197071253992
            ]
        },
        {
            "positions": [
                2.5741714084927194,
                -1.2425068143956752,
                -1.7671660474388926,
                -1.5339247753250662,
                -1.5062339033443088,
                0.40751038026229436
            ]
        },
        {
            "positions": [
                2.4487402755224545,
                -1.2406739886949363,
                -1.6147135707587188,
                -1.519298550572126,
                -1.4415209136825475,
                0.37300105339918954
            ]
        },
        {
            "positions": [
                2.3233091425521892,
                -1.238841162994197,
                -1.4622610940785448,
                -1.5046723258191854,
                -1.376807924020786,
                0.3384917265360847
            ]
        },
        {
            "positions": [
                2.197878009581924,
                -1.2370083372934582,
                -1.309808617398371,
                -1.4900461010662451,
                -1.3120949343590245,
                0.30398239967297985
            ]
        },
        {
            "positions": [
                2.072446876611659,
                -1.2351755115927192,
                -1.157356140718197,
                -1.4754198763133048,
                -1.2473819446972632,
                0.26947307280987504
            ]
        },
        {
            "positions": [
                1.9470157436413937,
                -1.2333426858919803,
                -1.004903664038023,
                -1.4607936515603646,
                -1.1826689550355016,
                0.23496374594677022
            ]
        },
        {
            "positions": [
                1.8215846106711289,
                -1.231509860191241,
                -0.8524511873578491,
                -1.446167426807424,
                -1.1179559653737403,
                0.2004544190836654
            ]
        },
        {
            "positions": [
                1.6961534777008636,
                -1.2296770344905021,
                -0.699998710677675,
                -1.4315412020544838,
                -1.0532429757119788,
                0.16594509222056053
            ]
        },
        {
            "positions": [
                1.5707223447305985,
                -1.2278442087897632,
                -0.5475462339975012,
                -1.4169149773015435,
                -0.9885299860502174,
                0.13143576535745577
            ]
        },
        {
            "positions": [
                1.4452912117603331,
                -1.2260113830890242,
                -0.3950937573173272,
                -1.4022887525486032,
                -0.9238169963884558,
                0.0969264384943509
            ]
        },
        {
            "positions": [
                1.3198600787900683,
                -1.224178557388285,
                -0.2426412806371534,
                -1.387662527795663,
                -0.8591040067266945,
                0.06241711163124608
            ]
        },
        {
            "positions": [
                1.194428945819803,
                -1.2223457316875461,
                -0.09018880395697937,
                -1.3730363030427224,
                -0.794391017064933,
                0.027907784768141264
            ]
        },
        {
            "positions": [
                1.0689978128495379,
                -1.2205129059868072,
                0.062263672723194496,
                -1.358410078289782,
                -0.7296780274031716,
                -0.006601542094963567
            ]
        },
        {
            "positions": [
                0.9817182258677388,
                -1.2178676018266326,
                0.18393533039911245,
                -1.343311899240825,
                -0.6763219239941468,
                -0.10672953985706801
            ]
        },
        {
            "positions": [
                0.8944386388859397,
                -1.215222297666458,
                0.3056069880750304,
                -1.328213720191868,
                -0.622965820585122,
                -0.20685753761917247
            ]
        },
        {
            "positions": [
                0.8071590519041406,
                -1.2125769935062833,
                0.4272786457509483,
                -1.313115541142911,
                -0.5696097171760972,
                -0.3069855353812769
            ]
        },
        {
            "positions": [
                0.7198794649223414,
                -1.2099316893461087,
                0.5489503034268663,
                -1.298017362093954,
                -0.5162536137670725,
                -0.40711353314338133
            ]
        },
        {
            "positions": [
                0.6325998779405424,
                -1.2072863851859341,
                0.6706219611027842,
                -1.2829191830449969,
                -0.46289751035804766,
                -0.5072415309054857
            ]
        },
        {
            "positions": [
                0.5453202909587433,
                -1.2046410810257597,
                0.7922936187787022,
                -1.2678210039960396,
                -0.4095414069490229,
                -0.6073695286675902
            ]
        },
        {
            "positions": [
                0.4580407039769443,
                -1.2019957768655851,
                0.9139652764546202,
                -1.2527228249470825,
                -0.3561853035399981,
                -0.7074975264296947
            ]
        },
        {
            "positions": [
                0.37076111699514513,
                -1.1993504727054105,
                1.035636934130538,
                -1.2376246458981255,
                -0.3028292001309733,
                -0.8076255241917991
            ]
        },
        {
            "positions": [
                0.283481530013346,
                -1.196705168545236,
                1.157308591806456,
                -1.2225264668491684,
                -0.24947309672194856,
                -0.9077535219539037
            ]
        },
        {
            "positions": [
                0.19620194303154703,
                -1.1940598643850613,
                1.2789802494823739,
                -1.2074282878002114,
                -0.19611699331292376,
                -1.007881519716008
            ]
        },
        {
            "positions": [
                0.10892235604974793,
                -1.1914145602248867,
                1.400651907158292,
                -1.1923301087512543,
                -0.14276088990389907,
                -1.1080095174781126
            ]
        },
        {
            "positions": [
                0.09629112346407698,
                -1.1867346265318663,
                1.4769459736392738,
                -1.1574584978731388,
                -0.10743502646977182,
                -1.3216408764686138
            ]
        },
        {
            "positions": [
                0.08365989087840603,
                -1.1820546928388458,
                1.5532400401202557,
                -1.1225868869950235,
                -0.07210916303564457,
                -1.535272235459115
            ]
        },
        {
            "positions": [
                0.07102865829273508,
                -1.1773747591458252,
                1.6295341066012377,
                -1.087715276116908,
                -0.036783299601517314,
                -1.7489035944496165
            ]
        },
        {
            "positions": [
                0.058397425707064146,
                -1.172694825452805,
                1.7058281730822193,
                -1.0528436652387925,
                -0.0014574361673900804,
                -1.9625349534401177
            ]
        },
        {
            "positions": [
                0.0457661931213932,
                -1.1680148917597846,
                1.7821222395632013,
                -1.0179720543606772,
                0.033868427266737194,
                -2.176166312430619
            ]
        },
        {
            "positions": [
                0.03313496053572225,
                -1.163334958066764,
                1.8584163060441832,
                -0.9831004434825616,
                0.06919429070086444,
                -2.38979767142112
            ]
        },
        {
            "positions": [
                0.06315234607325716,
                -1.1581096626363006,
                1.9015761082320155,
                -0.9394773417365722,
                0.0904401068731196,
                -2.6347472560220067
            ]
        },
        {
            "positions": [
                0.09316973161079208,
                -1.152884367205837,
                1.9447359104198478,
                -0.8958542399905827,
                0.11168592304537475,
                -2.879696840622893
            ]
        },
        {
            "positions": [
                0.12318711714832699,
                -1.1476590717753736,
                1.9878957126076802,
                -0.8522311382445932,
                0.1329317392176299,
                -3.1246464252237796
            ]
        }
    ]
}