{
    "goal": {
        "global_pose": {
            "orientation": {
                "w": -0.4816463035849501,
                "x": 0.5182115481033762,
                "y": 0.4908360881923453,
                "z": -0.5084816262002911
            },
            "position": {
                "x": -0.8240239810943604,
                "y": -0.300875300988555,
                "z": 0.16403168439865112
            }
        },
        "name": "move_to_storage_C"
    },
    "id": "RRTstar_move_to_storage_C_38",
    "joint_names": [
        "shoulder_pan_joint",
        "shoulder_lift_joint",
        "elbow_joint",
        "wrist_1_joint",
        "wrist_2_joint",
        "wrist_3_joint"
    ],
    "metrics": {
        "cart_traj_len": 0.5761486861927404,
        "distance_elbow_joint": 0.25438194061547237,
        "distance_shoulder_lift_joint": 0.18841449300669688,
        "distance_shoulder_pan_joint": 0.4953938635105488,
        "distance_wrist_1_joint": 0.0655326909041366,
        "distance_wrist_2_joint": 1.059300135447582,
        "distance_wrist_3_joint": 0.059456745972051195,
        "smoothness": 0.0,
        "time": 5.000091041999999,
        "traj_len": 1.4568733196323171,
        "weighted_distance": 1.8347278238889573
    },
    "planner": "RRTstar",
    "start": {
        "state": {
            "elbow_joint": 2.010868314990456,
            "shoulder_lift_joint": -1.1634956873337592,
            "shoulder_pan_joint": -2.4736205022346125,
            "wrist_1_joint": -0.8367026794202681,
            "wrist_2_joint": 0.6746043897044499,
            "wrist_3_joint": -3.1496632123970403
        }
    },
    "waypoints": [
        {
            "positions": [
                -2.4736205022346125,
                -1.1634956873337592,
                2.010868314990456,
                -0.8367026794202681,
                0.6746043897044499,
                -3.1496632123970403
            ]
        },
        {
            "positions": [
                -2.5561861461530375,
                -1.132093271832643,
                1.9684713248878771,
                -0.8257805642695787,
                0.8511544122790469,
                -3.1397537547350316
            ]
        },
        {
            "positions": [
                -2.638751790071462,
                -1.100690856331527,
                1.9260743347852984,
                -0.8148584491188893,
                1.027704434853644,
                -3.1298442970730234
            ]
        },
        {
            "positions": [
                -2.7213174339898867,
                -1.0692884408304106,
                1.8836773446827197,
                -0.8039363339681997,
                1.2042544574282408,
                -3.1199348394110147
            ]
        },
        {
            "positions": [
                -2.8038830779083117,
                -1.0378860253292945,
                1.8412803545801408,
                -0.7930142188175103,
                1.3808044800028378,
                -3.110025381749006
            ]
        },
        {
            "positions": [
                -2.8864487218267367,
                -1.0064836098281784,
                1.7988833644775621,
                -0.7820921036668209,
                1.557354502577435,
                -3.1001159240869978
            ]
        },
        {
            "positions": [
                -2.9690143657451613,
                -0.9750811943270623,
                1.7564863743749835,
                -0.7711699885161315,
                1.7339045251520318,
                -3.090206466424989
            ]
        }
    ]
}