{
    "goal": {
        "global_pose": {
            "orientation": {
                "w": 0.7031023480610252,
                "x": -0.7110244013736278,
                "y": 0.0077485991402295624,
                "z": 0.005598929693374583
            },
            "position": {
                "x": -0.8841497679147869,
                "y": 0.44412534475326537,
                "z": 0.3711530566215515
            }
        },
        "name": "move_to_auspresseinheit_D"
    },
    "id": "RRTstar_move_to_auspresseinheit_D_86",
    "joint_names": [
        "shoulder_pan_joint",
        "shoulder_lift_joint",
        "elbow_joint",
        "wrist_1_joint",
        "wrist_2_joint",
        "wrist_3_joint"
    ],
    "metrics": {
        "cart_traj_len": 0.34238262714032347,
        "distance_elbow_joint": 0.626300680624527,
        "distance_shoulder_lift_joint": 0.1141438725311148,
        "distance_shoulder_pan_joint": 0.1335369299399807,
        "distance_wrist_1_joint": 0.5013360020835798,
        "distance_wrist_2_joint": 1.431549155279957,
        "distance_wrist_3_joint": 0.025807266261501205,
        "smoothness": 5.921189480296099e-16,
        "time": 5.0008968860000005,
        "traj_len": 1.6830549327697717,
        "weighted_distance": 2.194806049883953
    },
    "planner": "RRTstar",
    "start": {
        "state": {
            "elbow_joint": -1.8275523626775212,
            "shoulder_lift_joint": -2.126789852344167,
            "shoulder_pan_joint": -0.03513704404078235,
            "wrist_1_joint": -2.347782403156801,
            "wrist_2_joint": -1.6058999987535132,
            "wrist_3_joint": -3.0880379163319196
        }
    },
    "waypoints": [
        {
            "positions": [
                -0.03513704404078235,
                -2.126789852344167,
                -1.8275523626775212,
                -2.347782403156801,
                -1.6058999987535132,
                -3.0880379163319196
            ]
        },
        {
            "positions": [
                -0.05182916028327994,
                -2.1410578364105564,
                -1.7492647775994552,
                -2.4104494034172483,
                -1.4269563543435186,
                -3.0912638246146074
            ]
        },
        {
            "positions": [
                -0.06852127652577752,
                -2.1553258204769454,
                -1.6709771925213894,
                -2.473116403677696,
                -1.2480127099335239,
                -3.094489732897295
            ]
        },
        {
            "positions": [
                -0.08521339276827511,
                -2.169593804543335,
                -1.5926896074433237,
                -2.5357834039381433,
                -1.0690690655235293,
                -3.0977156411799824
            ]
        },
        {
            "positions": [
                -0.1019055090107727,
                -2.1838617886097245,
                -1.5144020223652577,
                -2.5984504041985907,
                -0.8901254211135347,
                -3.10094154946267
            ]
        },
        {
            "positions": [
                -0.11859762525327028,
                -2.1981297726761135,
                -1.4361144372871917,
                -2.661117404459038,
                -0.71118177670354,
                -3.104167457745358
            ]
        },
        {
            "positions": [
                -0.1352897414957679,
                -2.212397756742503,
                -1.357826852209126,
                -2.7237844047194857,
                -0.5322381322935454,
                -3.1073933660280453
            ]
        },
        {
            "positions": [
                -0.15198185773826547,
                -2.226665740808892,
                -1.2795392671310601,
                -2.786451404979933,
                -0.35329448788355067,
                -3.110619274310733
            ]
        },
        {
            "positions": [
                -0.16867397398076306,
                -2.2409337248752816,
                -1.2012516820529942,
                -2.8491184052403806,
                -0.1743508434735561,
                -3.113845182593421
            ]
        }
    ]
}