{
    "goal": {
        "global_pose": {
            "orientation": {
                "w": -0.4816463035849501,
                "x": 0.5182115481033762,
                "y": 0.4908360881923453,
                "z": -0.5084816262002911
            },
            "position": {
                "x": -0.8240239810943604,
                "y": 0.19912469901144506,
                "z": 0.16403168439865112
            }
        },
        "name": "move_to_storage_D"
    },
    "id": "RRTstar_move_to_storage_D_75",
    "joint_names": [
        "shoulder_pan_joint",
        "shoulder_lift_joint",
        "elbow_joint",
        "wrist_1_joint",
        "wrist_2_joint",
        "wrist_3_joint"
    ],
    "metrics": {
        "cart_traj_len": 0.8102179606674967,
        "distance_elbow_joint": 0.554271530933405,
        "distance_shoulder_lift_joint": 0.2058342018593935,
        "distance_shoulder_pan_joint": 0.998673660753195,
        "distance_wrist_1_joint": 3.8227325661651372,
        "distance_wrist_2_joint": 1.7731817760453077,
        "distance_wrist_3_joint": 3.1167192730657067,
        "smoothness": 0.09590597221165986,
        "time": 5.069764495,
        "traj_len": 3.235956274244469,
        "weighted_distance": 4.722368674422191
    },
    "planner": "RRTstar",
    "start": {
        "state": {
            "elbow_joint": -2.384821988534728,
            "shoulder_lift_joint": -2.2788054721415256,
            "shoulder_pan_joint": -0.1854694642142757,
            "wrist_1_joint": 1.4845938289331202,
            "wrist_2_joint": 0.17898776772866878,
            "wrist_3_joint": 0.037105688729662994
        }
    },
    "waypoints": [
        {
            "positions": [
                -0.1854694642142757,
                -2.2788054721415256,
                -2.384821988534728,
                1.4845938289331202,
                0.17898776772866878,
                0.037105688729662994
            ]
        },
        {
            "positions": [
                -0.14118427487653473,
                -2.265009428670788,
                -2.3822528687645677,
                1.318655302062264,
                0.07381792514152406,
                -0.026088479510496337
            ]
        },
        {
            "positions": [
                -0.09689908553879374,
                -2.25121338520005,
                -2.3796837489944074,
                1.1527167751914078,
                -0.03135191744562066,
                -0.08928264775065567
            ]
        },
        {
            "positions": [
                -0.05261389620105275,
                -2.237417341729312,
                -2.377114629224247,
                0.9867782483205516,
                -0.13652176003276542,
                -0.152476815990815
            ]
        },
        {
            "positions": [
                -0.008328706863311774,
                -2.2236212982585744,
                -2.374545509454087,
                0.8208397214496953,
                -0.2416916026199101,
                -0.21567098423097433
            ]
        },
        {
            "positions": [
                0.03595648247442923,
                -2.2098252547878365,
                -2.3719763896839265,
                0.6549011945788391,
                -0.34686144520705486,
                -0.27886515247113364
            ]
        },
        {
            "positions": [
                0.0802416718121702,
                -2.1960292113170987,
                -2.3694072699137663,
                0.4889626677079829,
                -0.45203128779419965,
                -0.34205932071129297
            ]
        },
        {
            "positions": [
                0.12452686114991116,
                -2.182233167846361,
                -2.366838150143606,
                0.3230241408371268,
                -0.5572011303813442,
                -0.4052534889514523
            ]
        },
        {
            "positions": [
                0.16881205048765216,
                -2.168437124375623,
                -2.3642690303734457,
                0.1570856139662704,
                -0.662370972968489,
                -0.46844765719161163
            ]
        },
        {
            "positions": [
                0.2130972398253931,
                -2.1546410809048853,
                -2.3616999106032854,
                -0.008852912904585786,
                -0.7675408155556337,
                -0.531641825431771
            ]
        },
        {
            "positions": [
                0.25738242916313414,
                -2.1408450374341474,
                -2.359130790833125,
                -0.17479143977544198,
                -0.8727106581427785,
                -0.5948359936719303
            ]
        },
        {
            "positions": [
                0.3016676185008751,
                -2.1270489939634096,
                -2.356561671062965,
                -0.3407299666462982,
                -0.9778805007299233,
                -0.6580301619120896
            ]
        },
        {
            "positions": [
                0.34595280783861615,
                -2.113252950492672,
                -2.3539925512928046,
                -0.5066684935171544,
                -1.083050343317068,
                -0.721224330152249
            ]
        },
        {
            "positions": [
                0.3902379971763571,
                -2.099456907021934,
                -2.3514234315226443,
                -0.6726070203880105,
                -1.1882201859042125,
                -0.7844184983924083
            ]
        },
        {
            "positions": [
                0.36002612579331694,
                -2.1013487382176343,
                -2.314218219099693,
                -0.7915735715911537,
                -1.2172183160765286,
                -0.9483610045312394
            ]
        },
        {
            "positions": [
                0.3298142544102768,
                -2.1032405694133343,
                -2.277013006676741,
                -0.9105401227942971,
                -1.246216446248845,
                -1.1123035106700705
            ]
        },
        {
            "positions": [
                0.29960238302723663,
                -2.105132400609034,
                -2.2398077942537897,
                -1.0295066739974403,
                -1.275214576421161,
                -1.2762460168089016
            ]
        },
        {
            "positions": [
                0.2693905116441965,
                -2.1070242318047345,
                -2.2026025818308383,
                -1.1484732252005836,
                -1.3042127065934772,
                -1.4401885229477327
            ]
        },
        {
            "positions": [
                0.23917864026115632,
                -2.108916063000435,
                -2.1653973694078865,
                -1.267439776403727,
                -1.3332108367657933,
                -1.6041310290865638
            ]
        },
        {
            "positions": [
                0.20896676887811616,
                -2.110807894196135,
                -2.128192156984935,
                -1.38640632760687,
                -1.3622089669381097,
                -1.768073535225395
            ]
        },
        {
            "positions": [
                0.178754897495076,
                -2.1126997253918347,
                -2.0909869445619838,
                -1.5053728788100136,
                -1.3912070971104258,
                -1.932016041364226
            ]
        },
        {
            "positions": [
                0.14854302611203585,
                -2.114591556587535,
                -2.053781732139032,
                -1.6243394300131566,
                -1.420205227282742,
                -2.095958547503057
            ]
        },
        {
            "positions": [
                0.11833115472899569,
                -2.1164833877832354,
                -2.0165765197160805,
                -1.7433059812163,
                -1.4492033574550582,
                -2.2599010536418884
            ]
        },
        {
            "positions": [
                0.08811928334595553,
                -2.1183752189789353,
                -1.9793713072931292,
                -1.8622725324194436,
                -1.4782014876273744,
                -2.4238435597807193
            ]
        },
        {
            "positions": [
                0.05790741196291538,
                -2.1202670501746352,
                -1.9421660948701776,
                -1.9812390836225866,
                -1.5071996177996905,
                -2.58778606591955
            ]
        },
        {
            "positions": [
                0.027695540579875222,
                -2.1221588813703356,
                -1.904960882447226,
                -2.1002056348257296,
                -1.5361977479720066,
                -2.7517285720583815
            ]
        },
        {
            "positions": [
                -0.0025163308031649345,
                -2.124050712566036,
                -1.8677556700242746,
                -2.219172186028873,
                -1.565195878144323,
                -2.915671078197213
            ]
        },
        {
            "positions": [
                -0.03272820218620508,
                -2.125942543761736,
                -1.830550457601323,
                -2.3381387372320166,
                -1.594194008316639,
                -3.0796135843360437
            ]
        }
    ]
}