{
    "goal": {
        "global_pose": {
            "orientation": {
                "w": 0.7047431468963623,
                "x": -0.7094548344612122,
                "y": 0.0024358443915843964,
                "z": -0.0022348060738295317
            },
            "position": {
                "x": 0.6094750761985779,
                "y": 0.3671506643295288,
                "z": 0.19426114857196808
            }
        },
        "name": "move_to_magneteinheit_A"
    },
    "id": "RRTstar_move_to_magneteinheit_A_68",
    "joint_names": [
        "shoulder_pan_joint",
        "shoulder_lift_joint",
        "elbow_joint",
        "wrist_1_joint",
        "wrist_2_joint",
        "wrist_3_joint"
    ],
    "metrics": {
        "cart_traj_len": 4.2557298904451075,
        "distance_elbow_joint": 4.22916255789747,
        "distance_shoulder_lift_joint": 0.45525404033813,
        "distance_shoulder_pan_joint": 6.2592585512133265,
        "distance_wrist_1_joint": 4.642633693686958,
        "distance_wrist_2_joint": 1.4333064467977312,
        "distance_wrist_3_joint": 6.4499024632399875,
        "smoothness": 0.26244806205519994,
        "time": 5.056308375,
        "traj_len": 4.8445348335184475,
        "weighted_distance": 6.515002902542583
    },
    "planner": "RRTstar",
    "start": {
        "state": {
            "elbow_joint": -1.9196185241190666,
            "shoulder_lift_joint": -1.2443396400964142,
            "shoulder_pan_joint": 2.6996025414629847,
            "wrist_1_joint": -1.5485510000780065,
            "wrist_2_joint": -1.5709468930060704,
            "wrist_3_joint": 0.4420197071253992
        }
    },
    "waypoints": [
        {
            "positions": [
                2.6996025414629847,
                -1.2443396400964142,
                -1.9196185241190666,
                -1.5485510000780065,
                -1.5709468930060704,
                0.4420197071253992
            ]
        },
        {
            "positions": [
                2.569678622114238,
                -1.2384451747636016,
                -1.9238748051620367,
                -1.4279357586861678,
                -1.5328454852369615,
                0.5290295115160828
            ]
        },
        {
            "positions": [
                2.4397547027654913,
                -1.232550709430789,
                -1.928131086205007,
                -1.3073205172943292,
                -1.4947440774678526,
                0.6160393159067664
            ]
        },
        {
            "positions": [
                2.3098307834167446,
                -1.2266562440979767,
                -1.932387367247977,
                -1.1867052759024905,
                -1.4566426696987436,
                0.70304912029745
            ]
        },
        {
            "positions": [
                2.1799068640679984,
                -1.2207617787651641,
                -1.9366436482909473,
                -1.066090034510652,
                -1.4185412619296347,
                0.7900589246881337
            ]
        },
        {
            "positions": [
                2.0499829447192517,
                -1.2148673134323515,
                -1.9408999293339173,
                -0.9454747931188134,
                -1.3804398541605258,
                0.8770687290788173
            ]
        },
        {
            "positions": [
                1.920059025370505,
                -1.208972848099539,
                -1.9451562103768874,
                -0.8248595517269748,
                -1.342338446391417,
                0.964078533469501
            ]
        },
        {
            "positions": [
                1.7901351060217583,
                -1.2030783827667264,
                -1.9494124914198576,
                -0.7042443103351362,
                -1.304237038622308,
                1.0510883378601845
            ]
        },
        {
            "positions": [
                1.6602111866730118,
                -1.1971839174339138,
                -1.9536687724628277,
                -0.5836290689432976,
                -1.266135630853199,
                1.1380981422508682
            ]
        },
        {
            "positions": [
                1.5302872673242651,
                -1.1912894521011015,
                -1.957925053505798,
                -0.46301382755145903,
                -1.2280342230840902,
                1.2251079466415518
            ]
        },
        {
            "positions": [
                1.4003633479755184,
                -1.185394986768289,
                -1.962181334548768,
                -0.3423985861596204,
                -1.1899328153149813,
                1.3121177510322355
            ]
        },
        {
            "positions": [
                1.270439428626772,
                -1.1795005214354763,
                -1.9664376155917382,
                -0.22178334476778172,
                -1.1518314075458724,
                1.3991275554229192
            ]
        },
        {
            "positions": [
                1.1405155092780253,
                -1.1736060561026638,
                -1.9706938966347083,
                -0.10116810337594306,
                -1.1137299997767633,
                1.4861373598136027
            ]
        },
        {
            "positions": [
                1.0105915899292788,
                -1.1677115907698512,
                -1.9749501776776783,
                0.01944713801589537,
                -1.0756285920076545,
                1.5731471642042862
            ]
        },
        {
            "positions": [
                0.8806676705805321,
                -1.1618171254370386,
                -1.9792064587206486,
                0.14006237940773403,
                -1.0375271842385456,
                1.6601569685949698
            ]
        },
        {
            "positions": [
                0.7507437512317856,
                -1.1559226601042263,
                -1.9834627397636186,
                0.2606776207995727,
                -0.9994257764694368,
                1.7471667729856537
            ]
        },
        {
            "positions": [
                0.6208198318830389,
                -1.1500281947714137,
                -1.987719020806589,
                0.38129286219141134,
                -0.9613243687003278,
                1.8341765773763372
            ]
        },
        {
            "positions": [
                0.4908959125342922,
                -1.1441337294386011,
                -1.991975301849559,
                0.50190810358325,
                -0.9232229609312189,
                1.9211863817670207
            ]
        },
        {
            "positions": [
                0.3609719931855455,
                -1.1382392641057886,
                -1.996231582892529,
                0.6225233449750884,
                -0.88512155316211,
                2.0081961861577047
            ]
        },
        {
            "positions": [
                0.23104807383679882,
                -1.132344798772976,
                -2.0004878639354993,
                0.7431385863669273,
                -0.8470201453930011,
                2.095205990548388
            ]
        },
        {
            "positions": [
                0.10112415448805212,
                -1.1264503334401637,
                -2.0047441449784693,
                0.8637538277587657,
                -0.8089187376238922,
                2.1822157949390717
            ]
        },
        {
            "positions": [
                -0.028799764860694577,
                -1.120555868107351,
                -2.0090004260214394,
                0.9843690691506046,
                -0.7708173298547832,
                2.269225599329755
            ]
        },
        {
            "positions": [
                -0.15872368420944083,
                -1.1146614027745385,
                -2.01325670706441,
                1.104984310542443,
                -0.7327159220856744,
                2.356235403720439
            ]
        },
        {
            "positions": [
                -0.2886476035581875,
                -1.108766937441726,
                -2.01751298810738,
                1.225599551934282,
                -0.6946145143165654,
                2.4432452081111227
            ]
        },
        {
            "positions": [
                -0.4185715229069342,
                -1.1028724721089134,
                -2.02176926915035,
                1.3462147933261204,
                -0.6565131065474565,
                2.5302550125018066
            ]
        },
        {
            "positions": [
                -0.5484954422556809,
                -1.0969780067761008,
                -2.02602555019332,
                1.4668300347179593,
                -0.6184116987783476,
                2.61726481689249
            ]
        },
        {
            "positions": [
                -0.6784193616044272,
                -1.0910835414432885,
                -2.03028183123629,
                1.5874452761097972,
                -0.5803102910092388,
                2.7042746212831736
            ]
        },
        {
            "positions": [
                -0.8083432809531739,
                -1.0851890761104759,
                -2.0345381122792605,
                1.7080605175016361,
                -0.54220888324013,
                2.791284425673857
            ]
        },
        {
            "positions": [
                -0.9382672003019206,
                -1.0792946107776633,
                -2.0387943933222306,
                1.8286757588934746,
                -0.5041074754710209,
                2.8782942300645407
            ]
        },
        {
            "positions": [
                -1.0681911196506673,
                -1.0734001454448507,
                -2.0430506743652006,
                1.9492910002853134,
                -0.466006067701912,
                2.965304034455224
            ]
        },
        {
            "positions": [
                -1.1981150389994135,
                -1.0675056801120382,
                -2.0473069554081706,
                2.0699062416771516,
                -0.42790465993280313,
                3.052313838845908
            ]
        },
        {
            "positions": [
                -1.3280389583481607,
                -1.0616112147792256,
                -2.0515632364511407,
                2.1905214830689905,
                -0.38980325216369427,
                3.1393236432365916
            ]
        },
        {
            "positions": [
                -1.457962877696907,
                -1.0557167494464132,
                -2.055819517494111,
                2.3111367244608294,
                -0.3517018443945852,
                3.226333447627275
            ]
        },
        {
            "positions": [
                -1.587886797045654,
                -1.0498222841136007,
                -2.0600757985370812,
                2.4317519658526683,
                -0.3136004366254763,
                3.313343252017959
            ]
        },
        {
            "positions": [
                -1.7178107163943999,
                -1.043927818780788,
                -2.0643320795800513,
                2.5523672072445067,
                -0.27549902885636746,
                3.4003530564086426
            ]
        },
        {
            "positions": [
                -1.6495942240478834,
                -1.0344892180762508,
                -1.9130561906009222,
                2.53230367071249,
                -0.2703931554249589,
                3.271035681817652
            ]
        },
        {
            "positions": [
                -1.581377731701367,
                -1.0250506173717138,
                -1.761780301621793,
                2.5122401341804736,
                -0.2652872819935504,
                3.141718307226662
            ]
        },
        {
            "positions": [
                -1.5131612393548506,
                -1.0156120166671765,
                -1.610504412642664,
                2.492176597648457,
                -0.26018140856214184,
                3.0124009326356713
            ]
        },
        {
            "positions": [
                -1.4449447470083343,
                -1.0061734159626394,
                -1.4592285236635347,
                2.472113061116441,
                -0.2550755351307333,
                2.8830835580446807
            ]
        },
        {
            "positions": [
                -1.3767282546618178,
                -0.9967348152581021,
                -1.3079526346844057,
                2.4520495245844245,
                -0.24996966169932475,
                2.75376618345369
            ]
        },
        {
            "positions": [
                -1.3085117623153013,
                -0.987296214553565,
                -1.1566767457052767,
                2.431985988052408,
                -0.2448637882679162,
                2.6244488088627
            ]
        },
        {
            "positions": [
                -1.2402952699687848,
                -0.9778576138490278,
                -1.0054008567261477,
                2.4119224515203914,
                -0.23975791483650766,
                2.4951314342717095
            ]
        },
        {
            "positions": [
                -1.1720787776222685,
                -0.9684190131444906,
                -0.8541249677470184,
                2.391858914988375,
                -0.2346520414050991,
                2.3658140596807193
            ]
        },
        {
            "positions": [
                -1.103862285275752,
                -0.9589804124399535,
                -0.7028490787678894,
                2.3717953784563583,
                -0.22954616797369057,
                2.2364966850897288
            ]
        },
        {
            "positions": [
                -1.0356457929292358,
                -0.9495418117354163,
                -0.5515731897887604,
                2.351731841924342,
                -0.224440294542282,
                2.107179310498738
            ]
        },
        {
            "positions": [
                -0.9674293005827193,
                -0.9401032110308791,
                -0.4002973008096311,
                2.3316683053923257,
                -0.21933442111087348,
                1.9778619359077478
            ]
        },
        {
            "positions": [
                -0.8992128082362028,
                -0.930664610326342,
                -0.24902141183050208,
                2.311604768860309,
                -0.21422854767946492,
                1.8485445613167573
            ]
        },
        {
            "positions": [
                -0.8309963158896864,
                -0.9212260096218048,
                -0.09774552285137306,
                2.2915412323282927,
                -0.2091226742480564,
                1.719227186725767
            ]
        },
        {
            "positions": [
                -0.76277982354317,
                -0.9117874089172675,
                0.05353036612775597,
                2.271477695796276,
                -0.20401680081664786,
                1.5899098121347766
            ]
        },
        {
            "positions": [
                -0.6945633311966535,
                -0.9023488082127303,
                0.20480625510688544,
                2.2514141592642596,
                -0.1989109273852393,
                1.460592437543786
            ]
        },
        {
            "positions": [
                -0.6263468388501372,
                -0.8929102075081932,
                0.35608214408601446,
                2.231350622732243,
                -0.19380505395383074,
                1.3312750629527956
            ]
        },
        {
            "positions": [
                -0.5581303465036205,
                -0.883471606803656,
                0.5073580330651435,
                2.211287086200227,
                -0.18869918052242218,
                1.201957688361805
            ]
        },
        {
            "positions": [
                -0.4899138541571042,
                -0.8740330060991188,
                0.6586339220442725,
                2.1912235496682104,
                -0.18359330709101368,
                1.072640313770815
            ]
        },
        {
            "positions": [
                -0.4216973618105877,
                -0.8645944053945817,
                0.809909811023402,
                2.171160013136194,
                -0.17848743365960512,
                0.9433229391798243
            ]
        },
        {
            "positions": [
                -0.3534808694640714,
                -0.8551558046900445,
                0.9611857000025306,
                2.1510964766041774,
                -0.17338156022819656,
                0.8140055645888338
            ]
        },
        {
            "positions": [
                -0.2852643771175549,
                -0.8457172039855073,
                1.11246158898166,
                2.131032940072161,
                -0.16827568679678803,
                0.6846881899978432
            ]
        },
        {
            "positions": [
                -0.21704788477103865,
                -0.8362786032809701,
                1.263737477960789,
                2.1109694035401443,
                -0.1631698133653795,
                0.5553708154068531
            ]
        },
        {
            "positions": [
                -0.14883139242452215,
                -0.8268400025764329,
                1.415013366939918,
                2.0909058670081277,
                -0.15806393993397094,
                0.4260534408158625
            ]
        },
        {
            "positions": [
                -0.08061490007800565,
                -0.8174014018718958,
                1.566289255919047,
                2.0708423304761117,
                -0.15295806650256238,
                0.2967360662248719
            ]
        },
        {
            "positions": [
                -0.012398407731489147,
                -0.8079628011673585,
                1.7175651448981766,
                2.050778793944095,
                -0.14785219307115385,
                0.16741869163388134
            ]
        },
        {
            "positions": [
                0.05581808461502713,
                -0.7985242004628214,
                1.8688410338773052,
                2.0307152574120786,
                -0.14274631963974532,
                0.038101317042891214
            ]
        },
        {
            "positions": [
                0.12403457696154357,
                -0.7890855997582842,
                2.0201169228564346,
                2.010651720880062,
                -0.13764044620833676,
                -0.09121605754809925
            ]
        }
    ]
}