{
    "goal": {
        "global_pose": {
            "orientation": {
                "w": 0.005598929693374612,
                "x": 0.007748599140229565,
                "y": 0.7110244013736278,
                "z": -0.7031023480610252
            },
            "position": {
                "x": -0.8858502320852131,
                "y": -0.7141253447532654,
                "z": 0.3711530566215515
            }
        },
        "name": "move_to_auspresseinheit_C"
    },
    "id": "RRTstar_move_to_auspresseinheit_C_37",
    "joint_names": [
        "shoulder_pan_joint",
        "shoulder_lift_joint",
        "elbow_joint",
        "wrist_1_joint",
        "wrist_2_joint",
        "wrist_3_joint"
    ],
    "metrics": {
        "cart_traj_len": 0.4920045529289447,
        "distance_elbow_joint": 0.988093809763982,
        "distance_shoulder_lift_joint": 0.31917070292823657,
        "distance_shoulder_pan_joint": 0.2558534758817701,
        "distance_wrist_1_joint": 0.6547616915353887,
        "distance_wrist_2_joint": 1.3149041453796824,
        "distance_wrist_3_joint": 0.04913875681794133,
        "smoothness": 3.2297397080004555e-16,
        "time": 5.000529013,
        "traj_len": 1.8925967828111196,
        "weighted_distance": 2.3769446633983624
    },
    "planner": "RRTstar",
    "start": {
        "state": {
            "elbow_joint": 1.7527959577737207,
            "shoulder_lift_joint": -0.9740617694225068,
            "shoulder_pan_joint": -2.967991417825858,
            "wrist_1_joint": -0.759517768980727,
            "wrist_2_joint": 1.7443932448377408,
            "wrist_3_joint": -3.0840537646736568
        }
    },
    "waypoints": [
        {
            "positions": [
                -2.967991417825858,
                -0.9740617694225068,
                1.7527959577737207,
                -0.759517768980727,
                1.7443932448377408,
                -3.0840537646736568
            ]
        },
        {
            "positions": [
                -2.942406070237681,
                -0.9421446991296831,
                1.6539865767973225,
                -0.6940415998271882,
                1.6129028302997725,
                -3.0889676403554507
            ]
        },
        {
            "positions": [
                -2.9168207226495038,
                -0.9102276288368595,
                1.5551771958209242,
                -0.6285654306736492,
                1.4814124157618043,
                -3.093881516037245
            ]
        },
        {
            "positions": [
                -2.891235375061327,
                -0.8783105585440358,
                1.456367814844526,
                -0.5630892615201104,
                1.3499220012238362,
                -3.0987953917190394
            ]
        },
        {
            "positions": [
                -2.86565002747315,
                -0.8463934882512121,
                1.357558433868128,
                -0.49761309236657153,
                1.2184315866858677,
                -3.1037092674008333
            ]
        },
        {
            "positions": [
                -2.840064679884973,
                -0.8144764179583885,
                1.2587490528917296,
                -0.43213692321303265,
                1.0869411721478996,
                -3.108623143082627
            ]
        },
        {
            "positions": [
                -2.814479332296796,
                -0.7825593476655648,
                1.1599396719153314,
                -0.3666607540594938,
                0.9554507576099315,
                -3.1135370187644216
            ]
        },
        {
            "positions": [
                -2.788893984708619,
                -0.7506422773727413,
                1.0611302909389333,
                -0.30118458490595496,
                0.8239603430719632,
                -3.118450894446216
            ]
        },
        {
            "positions": [
                -2.763308637120442,
                -0.7187252070799175,
                0.962320909962535,
                -0.23570841575241608,
                0.6924699285339948,
                -3.12336477012801
            ]
        },
        {
            "positions": [
                -2.7377232895322647,
                -0.6868081367870938,
                0.8635115289861368,
                -0.17023224659887715,
                0.5609795139960267,
                -3.1282786458098037
            ]
        },
        {
            "positions": [
                -2.712137941944088,
                -0.6548910664942702,
                0.7647021480097387,
                -0.10475607744533832,
                0.4294890994580586,
                -3.133192521491598
            ]
        }
    ]
}