{
    "goal": {
        "global_pose": {
            "orientation": {
                "w": -0.4816463035849501,
                "x": 0.5182115481033762,
                "y": 0.4908360881923453,
                "z": -0.5084816262002911
            },
            "position": {
                "x": -0.8240239810943604,
                "y": 0.19912469901144506,
                "z": 0.16403168439865112
            }
        },
        "name": "move_to_storage_D"
    },
    "id": "RRTstar_move_to_storage_D_116",
    "joint_names": [
        "shoulder_pan_joint",
        "shoulder_lift_joint",
        "elbow_joint",
        "wrist_1_joint",
        "wrist_2_joint",
        "wrist_3_joint"
    ],
    "metrics": {
        "cart_traj_len": 4.30085184663268,
        "distance_elbow_joint": 4.207626989195155,
        "distance_shoulder_lift_joint": 1.2660501403779327,
        "distance_shoulder_pan_joint": 2.812881607226154,
        "distance_wrist_1_joint": 2.2662453345607014,
        "distance_wrist_2_joint": 0.874129335935527,
        "distance_wrist_3_joint": 3.1311373518452017,
        "smoothness": 1.821904452246146e-16,
        "time": 5.0653753429999995,
        "traj_len": 3.815503998050674,
        "weighted_distance": 4.89496885928065
    },
    "planner": "RRTstar",
    "start": {
        "state": {
            "elbow_joint": -2.384821988534728,
            "shoulder_lift_joint": -2.2788054721415256,
            "shoulder_pan_joint": -0.1854694642142757,
            "wrist_1_joint": 1.4845938289331202,
            "wrist_2_joint": 0.17898776772866878,
            "wrist_3_joint": 0.037105688729662994
        }
    },
    "waypoints": [
        {
            "positions": [
                -0.1854694642142757,
                -2.2788054721415256,
                -2.384821988534728,
                1.4845938289331202,
                0.17898776772866878,
                0.037105688729662994
            ]
        },
        {
            "positions": [
                -0.08114047592330807,
                -2.26584331744556,
                -2.2690639466669063,
                1.4317208193577204,
                0.2128175085019226,
                -0.03645750528048118
            ]
        },
        {
            "positions": [
                0.023188512367659564,
                -2.2528811627495937,
                -2.153305904799085,
                1.3788478097823207,
                0.2466472492751764,
                -0.11002069929062536
            ]
        },
        {
            "positions": [
                0.1275175006586272,
                -2.239919008053628,
                -2.0375478629312633,
                1.3259748002069212,
                0.2804769900484302,
                -0.18358389330076955
            ]
        },
        {
            "positions": [
                0.23184648894959484,
                -2.2269568533576622,
                -1.9217898210634417,
                1.2731017906315214,
                0.31430673082168403,
                -0.25714708731091374
            ]
        },
        {
            "positions": [
                0.3361754772405625,
                -2.213994698661696,
                -1.8060317791956202,
                1.2202287810561216,
                0.3481364715949378,
                -0.33071028132105795
            ]
        },
        {
            "positions": [
                0.4405044655315301,
                -2.2010325439657303,
                -1.6902737373277987,
                1.167355771480722,
                0.3819662123681916,
                -0.40427347533120206
            ]
        },
        {
            "positions": [
                0.5448334538224978,
                -2.1880703892697646,
                -1.574515695459977,
                1.1144827619053221,
                0.41579595314144546,
                -0.4778366693413463
            ]
        },
        {
            "positions": [
                0.6491624421134654,
                -2.1751082345737984,
                -1.4587576535921556,
                1.0616097523299224,
                0.4496256939146992,
                -0.5513998633514904
            ]
        },
        {
            "positions": [
                0.7534914304044331,
                -2.1621460798778327,
                -1.342999611724334,
                1.0087367427545226,
                0.48345543468795305,
                -0.6249630573616347
            ]
        },
        {
            "positions": [
                0.8578204186954007,
                -2.1491839251818665,
                -1.2272415698565124,
                0.955863733179123,
                0.5172851754612069,
                -0.6985262513717788
            ]
        },
        {
            "positions": [
                0.9621494069863684,
                -2.136221770485901,
                -1.1114835279886908,
                0.9029907236037232,
                0.5511149162344606,
                -0.772089445381923
            ]
        },
        {
            "positions": [
                1.0664783952773358,
                -2.123259615789935,
                -0.9957254861208693,
                0.8501177140283236,
                0.5849446570077145,
                -0.8456526393920671
            ]
        },
        {
            "positions": [
                1.1708073835683035,
                -2.110297461093969,
                -0.8799674442530476,
                0.7972447044529238,
                0.6187743977809683,
                -0.9192158334022115
            ]
        },
        {
            "positions": [
                1.2751363718592712,
                -2.097335306398003,
                -0.764209402385226,
                0.7443716948775241,
                0.6526041385542221,
                -0.9927790274123556
            ]
        },
        {
            "positions": [
                1.3368655245517047,
                -2.053806157425597,
                -0.6557448545176026,
                0.6757764888520895,
                0.6710931557207921,
                -1.0847417417522631
            ]
        },
        {
            "positions": [
                1.3985946772441382,
                -2.010277008453191,
                -0.5472803066499792,
                0.607181282826655,
                0.689582172887362,
                -1.1767044560921704
            ]
        },
        {
            "positions": [
                1.4603238299365717,
                -1.9667478594807846,
                -0.4388157587823557,
                0.5385860768012205,
                0.708071190053932,
                -1.268667170432078
            ]
        },
        {
            "positions": [
                1.5220529826290052,
                -1.9232187105083784,
                -0.3303512109147322,
                0.4699908707757859,
                0.726560207220502,
                -1.3606298847719853
            ]
        },
        {
            "positions": [
                1.5837821353214387,
                -1.8796895615359723,
                -0.2218866630471087,
                0.4013956647503514,
                0.745049224387072,
                -1.4525925991118929
            ]
        },
        {
            "positions": [
                1.6455112880138723,
                -1.8361604125635662,
                -0.1134221151794853,
                0.3328004587249168,
                0.7635382415536419,
                -1.5445553134518004
            ]
        },
        {
            "positions": [
                1.7072404407063058,
                -1.79263126359116,
                -0.00495756731186181,
                0.26420525269948225,
                0.782027258720212,
                -1.6365180277917077
            ]
        },
        {
            "positions": [
                1.7689695933987393,
                -1.7491021146187538,
                0.10350698055576169,
                0.1956100466740477,
                0.8005162758867819,
                -1.7284807421316153
            ]
        },
        {
            "positions": [
                1.8306987460911728,
                -1.7055729656463476,
                0.21197152842338507,
                0.12701484064861324,
                0.8190052930533519,
                -1.8204434564715228
            ]
        },
        {
            "positions": [
                1.8924278987836063,
                -1.6620438166739415,
                0.3204360762910087,
                0.05841963462317867,
                0.8374943102199219,
                -1.9124061708114302
            ]
        },
        {
            "positions": [
                1.9541570514760398,
                -1.6185146677015352,
                0.42890062415863206,
                -0.010175571402256,
                0.8559833273864919,
                -2.004368885151338
            ]
        },
        {
            "positions": [
                2.0158862041684733,
                -1.5749855187291293,
                0.5373651720262554,
                -0.07877077742769045,
                0.8744723445530619,
                -2.0963315994912453
            ]
        },
        {
            "positions": [
                2.077615356860907,
                -1.531456369756723,
                0.645829719893879,
                -0.14736598345312502,
                0.8929613617196319,
                -2.188294313831153
            ]
        },
        {
            "positions": [
                2.1393445095533403,
                -1.4879272207843168,
                0.7542942677615024,
                -0.21596118947855958,
                0.9114503788862018,
                -2.28025702817106
            ]
        },
        {
            "positions": [
                2.201073662245774,
                -1.4443980718119107,
                0.862758815629126,
                -0.28455639550399425,
                0.9299393960527718,
                -2.3722197425109677
            ]
        },
        {
            "positions": [
                2.2628028149382073,
                -1.4008689228395044,
                0.9712233634967494,
                -0.3531516015294287,
                0.9484284132193418,
                -2.464182456850875
            ]
        },
        {
            "positions": [
                2.324531967630641,
                -1.3573397738670983,
                1.0796879113643731,
                -0.42174680755486316,
                0.9669174303859118,
                -2.5561451711907823
            ]
        },
        {
            "positions": [
                2.3862611203230744,
                -1.3138106248946921,
                1.188152459231996,
                -0.4903420135802976,
                0.9854064475524817,
                -2.64810788553069
            ]
        },
        {
            "positions": [
                2.447990273015508,
                -1.2702814759222858,
                1.29661700709962,
                -0.5589372196057323,
                1.0038954647190517,
                -2.740070599870598
            ]
        },
        {
            "positions": [
                2.5097194257079414,
                -1.22675232694988,
                1.4050815549672433,
                -0.6275324256311667,
                1.0223844818856218,
                -2.8320333142105047
            ]
        },
        {
            "positions": [
                2.571448578400375,
                -1.1832231779774736,
                1.5135461028348667,
                -0.6961276316566015,
                1.0408734990521917,
                -2.9239960285504125
            ]
        },
        {
            "positions": [
                2.5901030999375427,
                -1.1264005625728466,
                1.6166324021100542,
                -0.7246355896469281,
                1.0449547005895263,
                -2.9806745734054547
            ]
        },
        {
            "positions": [
                2.6087576214747106,
                -1.0695779471682199,
                1.7197187013852415,
                -0.7531435476372548,
                1.0490359021268612,
                -3.0373531182604965
            ]
        },
        {
            "positions": [
                2.6274121430118784,
                -1.012755331763593,
                1.822805000660429,
                -0.7816515056275813,
                1.0531171036641958,
                -3.0940316631155387
            ]
        }
    ]
}