{
    "goal": {
        "global_pose": {
            "orientation": {
                "w": 0.7031023502349854,
                "x": -0.7110244035720825,
                "y": 0.007748599164187908,
                "z": 0.005598929710686207
            },
            "position": {
                "x": 0.11585023208521307,
                "y": 0.44412534475326537,
                "z": 0.3711530566215515
            }
        },
        "name": "move_to_auspresseinheit_A"
    },
    "id": "RRTstar_move_to_auspresseinheit_A_85",
    "joint_names": [
        "shoulder_pan_joint",
        "shoulder_lift_joint",
        "elbow_joint",
        "wrist_1_joint",
        "wrist_2_joint",
        "wrist_3_joint"
    ],
    "metrics": {
        "cart_traj_len": 0.6781075763909608,
        "distance_elbow_joint": 0.3831562802710087,
        "distance_shoulder_lift_joint": 0.5344675016548299,
        "distance_shoulder_pan_joint": 1.0461118742252487,
        "distance_wrist_1_joint": 1.0531369359125664,
        "distance_wrist_2_joint": 0.8970488287975845,
        "distance_wrist_3_joint": 0.667157231057161,
        "smoothness": 0.9545492784683958,
        "time": 5.0235628089999995,
        "traj_len": 2.140345451537765,
        "weighted_distance": 2.8045639373604714
    },
    "planner": "RRTstar",
    "start": {
        "state": {
            "elbow_joint": 2.4225746658250005,
            "shoulder_lift_joint": -1.3736534386056498,
            "shoulder_pan_joint": -0.3378633547517467,
            "wrist_1_joint": -1.0288598680537169,
            "wrist_2_joint": 1.233022673432363,
            "wrist_3_joint": -3.0940220416140027
        }
    },
    "waypoints": [
        {
            "positions": [
                -0.3378633547517467,
                -1.3736534386056498,
                2.4225746658250005,
                -1.0288598680537169,
                1.233022673432363,
                -3.0940220416140027
            ]
        },
        {
            "positions": [
                -0.22954363343493323,
                -1.4058397103000921,
                2.4670303125587107,
                -1.0913312778262714,
                1.2797629647367654,
                -3.014153519133953
            ]
        },
        {
            "positions": [
                -0.12122391211811973,
                -1.4380259819945347,
                2.511485959292421,
                -1.153802687598826,
                1.3265032560411676,
                -2.934284996653903
            ]
        },
        {
            "positions": [
                -0.012904190801306226,
                -1.470212253688977,
                2.5559416060261313,
                -1.2162740973713806,
                1.3732435473455697,
                -2.8544164741738527
            ]
        },
        {
            "positions": [
                0.09541553051550726,
                -1.5023985253834193,
                2.6003972527598416,
                -1.278745507143935,
                1.4199838386499721,
                -2.774547951693803
            ]
        },
        {
            "positions": [
                0.1972262988570692,
                -1.5578378035196865,
                2.590726279735927,
                -1.2071834282210483,
                1.3541533360800377,
                -2.789533007119605
            ]
        },
        {
            "positions": [
                0.2990370671986311,
                -1.6132770816559534,
                2.5810553067120123,
                -1.1356213492981613,
                1.2883228335101031,
                -2.8045180625454065
            ]
        },
        {
            "positions": [
                0.40084783554019304,
                -1.6687163597922203,
                2.5713843336880977,
                -1.0640592703752745,
                1.2224923309401685,
                -2.819503117971208
            ]
        },
        {
            "positions": [
                0.502658603881755,
                -1.7241556379284875,
                2.561713360664183,
                -0.9924971914523876,
                1.1566618283702341,
                -2.83448817339701
            ]
        },
        {
            "positions": [
                0.5437765870001044,
                -1.7609486983948859,
                2.5283834004160815,
                -0.8890965952262274,
                1.0673086977101867,
                -2.8920367572837606
            ]
        },
        {
            "positions": [
                0.5848945701184539,
                -1.7977417588612843,
                2.4950534401679794,
                -0.7856959990000674,
                0.9779555670501392,
                -2.9495853411705117
            ]
        },
        {
            "positions": [
                0.6260125532368033,
                -1.834534819327683,
                2.4617234799198777,
                -0.6822954027739072,
                0.8886024363900917,
                -3.0071339250572624
            ]
        },
        {
            "positions": [
                0.6671305363551527,
                -1.8713278797940813,
                2.4283935196717756,
                -0.578894806547747,
                0.7992493057300442,
                -3.0646825089440135
            ]
        },
        {
            "positions": [
                0.7082485194735022,
                -1.9081209402604797,
                2.395063559423674,
                -0.475494210321587,
                0.7098961750699967,
                -3.122231092830764
            ]
        }
    ]
}