{
    "goal": {
        "global_pose": {
            "orientation": {
                "w": 0.5084816217422485,
                "x": -0.49083608388900757,
                "y": 0.5182115435600281,
                "z": -0.4816462993621826
            },
            "position": {
                "x": 0.5540239810943604,
                "y": 0.030875300988554955,
                "z": 0.16403168439865112
            }
        },
        "name": "move_to_storage_A"
    },
    "id": "RRTstar_move_to_storage_A_128",
    "joint_names": [
        "shoulder_pan_joint",
        "shoulder_lift_joint",
        "elbow_joint",
        "wrist_1_joint",
        "wrist_2_joint",
        "wrist_3_joint"
    ],
    "metrics": {
        "cart_traj_len": 0.35354532973009867,
        "distance_elbow_joint": 0.4488054156352532,
        "distance_shoulder_lift_joint": 0.23413806737424636,
        "distance_shoulder_pan_joint": 0.4597329524318782,
        "distance_wrist_1_joint": 0.23807970531362133,
        "distance_wrist_2_joint": 1.1105984840469008,
        "distance_wrist_3_joint": 0.08763497922818075,
        "smoothness": 0.0,
        "time": 5.0001686340000004,
        "traj_len": 1.6059232870937767,
        "weighted_distance": 2.02557096934345
    },
    "planner": "RRTstar",
    "start": {
        "state": {
            "elbow_joint": 1.971548259319323,
            "shoulder_lift_joint": -1.1394851275133948,
            "shoulder_pan_joint": 0.1228115487234821,
            "wrist_1_joint": -0.7804723859257726,
            "wrist_2_joint": 0.12958671773740124,
            "wrist_3_joint": -3.192489227718131
        }
    },
    "waypoints": [
        {
            "positions": [
                0.1228115487234821,
                -1.1394851275133948,
                1.971548259319323,
                -0.7804723859257726,
                0.12958671773740124,
                -3.192489227718131
            ]
        },
        {
            "positions": [
                0.05713541266178522,
                -1.172933422852573,
                2.0356633186957875,
                -0.814483772399147,
                0.2882436440298156,
                -3.179969944971248
            ]
        },
        {
            "positions": [
                -0.00854072339991166,
                -1.2063817181917509,
                2.0997783780722523,
                -0.8484951588725216,
                0.44690057032222996,
                -3.167450662224365
            ]
        },
        {
            "positions": [
                -0.07421685946160853,
                -1.239830013530929,
                2.163893437448717,
                -0.882506545345896,
                0.6055574966146444,
                -3.1549313794774823
            ]
        },
        {
            "positions": [
                -0.13989299552330542,
                -1.273278308870107,
                2.228008496825182,
                -0.9165179318192705,
                0.7642144229070588,
                -3.1424120967305993
            ]
        },
        {
            "positions": [
                -0.20556913158500234,
                -1.306726604209285,
                2.2921235562016467,
                -0.950529318292645,
                0.9228713491994732,
                -3.1298928139837163
            ]
        },
        {
            "positions": [
                -0.27124526764669915,
                -1.340174899548463,
                2.3562386155781114,
                -0.9845407047660195,
                1.0815282754918876,
                -3.1173735312368334
            ]
        },
        {
            "positions": [
                -0.33692140370839607,
                -1.3736231948876412,
                2.420353674954576,
                -1.018552091239394,
                1.240185201784302,
                -3.1048542484899504
            ]
        }
    ]
}{
    "goal": {
        "global_pose": {
            "orientation": {
                "w": 0.5084816217422485,
                "x": -0.49083608388900757,
                "y": 0.5182115435600281,
                "z": -0.4816462993621826
            },
            "position": {
                "x": 0.5540239810943604,
                "y": 0.030875300988554955,
                "z": 0.16403168439865112
            }
        },
        "name": "move_to_storage_A"
    },
    "id": "RRTstar_move_to_storage_A_128",
    "joint_names": [
        "shoulder_pan_joint",
        "shoulder_lift_joint",
        "elbow_joint",
        "wrist_1_joint",
        "wrist_2_joint",
        "wrist_3_joint"
    ],
    "metrics": {
        "cart_traj_len": 0.35216446205054797,
        "distance_elbow_joint": 0.44906609082817583,
        "distance_shoulder_lift_joint": 0.23468981303837144,
        "distance_shoulder_pan_joint": 0.46078051267279513,
        "distance_wrist_1_joint": 0.23586554422335104,
        "distance_wrist_2_joint": 1.0962304130505587,
        "distance_wrist_3_joint": 0.08824124877537365,
        "smoothness": 1.3322676295501878e-15,
        "time": 5.00009756,
        "traj_len": 1.6015222828885727,
        "weighted_distance": 2.018279484465242
    },
    "planner": "RRTstar",
    "start": {
        "state": {
            "elbow_joint": 1.97154746011099,
            "shoulder_lift_joint": -1.13948474672311,
            "shoulder_pan_joint": 0.12281154466712228,
            "wrist_1_joint": -0.7804688027058302,
            "wrist_2_joint": 0.12958655903071145,
            "wrist_3_joint": 3.0906928834467795
        }
    },
    "waypoints": [
        {
            "positions": [
                0.12281154466712228,
                -1.13948474672311,
                1.97154746011099,
                -0.7804688027058302,
                0.12958655903071145,
                3.0906928834467795
            ]
        },
        {
            "positions": [
                0.05698575714243727,
                -1.1730118628714488,
                2.0356997588007295,
                -0.8141638804520231,
                0.28619090375221984,
                3.103298776128976
            ]
        },
        {
            "positions": [
                -0.008840030382247746,
                -1.2065389790197876,
                2.0998520574904687,
                -0.8478589581982162,
                0.4427952484737282,
                3.115904668811172
            ]
        },
        {
            "positions": [
                -0.07466581790693276,
                -1.2400660951681264,
                2.1640043561802083,
                -0.8815540359444092,
                0.5993995931952366,
                3.128510561493368
            ]
        },
        {
            "positions": [
                -0.14049160543161776,
                -1.273593211316465,
                2.2281566548699474,
                -0.9152491136906022,
                0.756003937916745,
                3.1411164541755645
            ]
        },
        {
            "positions": [
                -0.2063173929563028,
                -1.3071203274648038,
                2.292308953559687,
                -0.9489441914367952,
                0.9126082826382534,
                3.153722346857761
            ]
        },
        {
            "positions": [
                -0.2721431804809878,
                -1.3406474436131426,
                2.356461252249426,
                -0.9826392691829882,
                1.0692126273597617,
                3.166328239539957
            ]
        },
        {
            "positions": [
                -0.33796896800567283,
                -1.3741745597614814,
                2.4206135509391657,
                -1.0163343469291812,
                1.2258169720812702,
                3.178934132222153
            ]
        }
    ]
}{
    "goal": {
        "global_pose": {
            "orientation": {
                "w": 0.5084816217422485,
                "x": -0.49083608388900757,
                "y": 0.5182115435600281,
                "z": -0.4816462993621826
            },
            "position": {
                "x": 0.5540239810943604,
                "y": 0.030875300988554955,
                "z": 0.16403168439865112
            }
        },
        "name": "move_to_storage_A"
    },
    "id": "RRTstar_move_to_storage_A_128",
    "joint_names": [
        "shoulder_pan_joint",
        "shoulder_lift_joint",
        "elbow_joint",
        "wrist_1_joint",
        "wrist_2_joint",
        "wrist_3_joint"
    ],
    "metrics": {
        "cart_traj_len": 0.35306379236966334,
        "distance_elbow_joint": 0.4487646495813564,
        "distance_shoulder_lift_joint": 0.23594838580899413,
        "distance_shoulder_pan_joint": 0.4606380693694216,
        "distance_wrist_1_joint": 0.234392606023605,
        "distance_wrist_2_joint": 1.1040402086661294,
        "distance_wrist_3_joint": 0.0872999211433183,
        "smoothness": 0.0,
        "time": 5.004098375,
        "traj_len": 1.6034599591485985,
        "weighted_distance": 2.020919715765373
    },
    "planner": "RRTstar",
    "start": {
        "state": {
            "elbow_joint": 1.9715472970024885,
            "shoulder_lift_joint": -1.1394870060712896,
            "shoulder_pan_joint": 0.12281152778156021,
            "wrist_1_joint": -0.780463741449964,
            "wrist_2_joint": 0.12958659822042276,
            "wrist_3_joint": 3.090690232415272
        }
    },
    "waypoints": [
        {
            "positions": [
                0.12281152778156021,
                -1.1394870060712896,
                1.9715472970024885,
                -0.780463741449964,
                0.12958659822042276,
                3.090690232415272
            ]
        },
        {
            "positions": [
                0.05700608930021428,
                -1.1731939183297173,
                2.035656532656968,
                -0.8139483994533362,
                0.28730662802986984,
                3.1031616497214602
            ]
        },
        {
            "positions": [
                -0.00879934918113165,
                -1.206900830588145,
                2.0997657683114475,
                -0.8474330574567083,
                0.44502665783931683,
                3.1156330670276486
            ]
        },
        {
            "positions": [
                -0.07460478766247758,
                -1.2406077428465727,
                2.163875003965927,
                -0.8809177154600805,
                0.6027466876487639,
                3.128104484333837
            ]
        },
        {
            "positions": [
                -0.1404102261438235,
                -1.2743146551050004,
                2.2279842396204064,
                -0.9144023734634525,
                0.7604667174582109,
                3.140575901640025
            ]
        },
        {
            "positions": [
                -0.20621566462516946,
                -1.3080215673634283,
                2.292093475274886,
                -0.9478870314668247,
                0.918186747267658,
                3.1530473189462134
            ]
        },
        {
            "positions": [
                -0.2720211031065154,
                -1.341728479621856,
                2.3562027109293653,
                -0.9813716894701968,
                1.0759067770771051,
                3.1655187362524018
            ]
        },
        {
            "positions": [
                -0.33782654158786135,
                -1.3754353918802837,
                2.420311946583845,
                -1.014856347473569,
                1.2336268068865521,
                3.17799015355859
            ]
        }
    ]
}