{
    "goal": {
        "global_pose": {
            "orientation": {
                "w": -0.4816463035849501,
                "x": 0.5182115481033762,
                "y": 0.4908360881923453,
                "z": -0.5084816262002911
            },
            "position": {
                "x": -0.8240239810943604,
                "y": -0.300875300988555,
                "z": 0.16403168439865112
            }
        },
        "name": "move_to_storage_C"
    },
    "id": "RRTstar_move_to_storage_C_113",
    "joint_names": [
        "shoulder_pan_joint",
        "shoulder_lift_joint",
        "elbow_joint",
        "wrist_1_joint",
        "wrist_2_joint",
        "wrist_3_joint"
    ],
    "metrics": {
        "cart_traj_len": 0.5756572389396615,
        "distance_elbow_joint": 0.2532249838409866,
        "distance_shoulder_lift_joint": 0.18797028257086756,
        "distance_shoulder_pan_joint": 0.4951072309651119,
        "distance_wrist_1_joint": 0.06553972849898082,
        "distance_wrist_2_joint": 1.0609721949330577,
        "distance_wrist_3_joint": 0.0733404179827235,
        "smoothness": 0.0,
        "time": 5.00017496,
        "traj_len": 1.4615590438951578,
        "weighted_distance": 1.8464418751179832
    },
    "planner": "RRTstar",
    "start": {
        "state": {
            "elbow_joint": 2.010868314990456,
            "shoulder_lift_joint": -1.1634956873337592,
            "shoulder_pan_joint": -2.4736205022346125,
            "wrist_1_joint": -0.8367026794202681,
            "wrist_2_joint": 0.6746043897044499,
            "wrist_3_joint": -3.1496632123970403
        }
    },
    "waypoints": [
        {
            "positions": [
                -2.4736205022346125,
                -1.1634956873337592,
                2.010868314990456,
                -0.8367026794202681,
                0.6746043897044499,
                -3.1496632123970403
            ]
        },
        {
            "positions": [
                -2.5561383740621313,
                -1.1321673069052813,
                1.968664151016958,
                -0.8257793913371047,
                0.8514330888599595,
                -3.1374398093999196
            ]
        },
        {
            "positions": [
                -2.6386562458896496,
                -1.1008389264768033,
                1.9264599870434602,
                -0.8148561032539412,
                1.0282617880154692,
                -3.125216406402799
            ]
        },
        {
            "positions": [
                -2.7211741177171684,
                -1.0695105460483254,
                1.8842558230699624,
                -0.8039328151707776,
                1.2050904871709789,
                -3.1129930034056787
            ]
        },
        {
            "positions": [
                -2.8036919895446872,
                -1.0381821656198476,
                1.8420516590964648,
                -0.7930095270876142,
                1.3819191863264884,
                -3.100769600408558
            ]
        },
        {
            "positions": [
                -2.8862098613722056,
                -1.0068537851913695,
                1.799847495122967,
                -0.7820862390044507,
                1.558747885481998,
                -3.0885461974114374
            ]
        },
        {
            "positions": [
                -2.9687277331997244,
                -0.9755254047628916,
                1.7576433311494692,
                -0.7711629509212873,
                1.7355765846375077,
                -3.0763227944143168
            ]
        }
    ]
}