{
    "goal": {
        "global_pose": {
            "orientation": {
                "w": 0.5084816217422485,
                "x": -0.49083608388900757,
                "y": 0.5182115435600281,
                "z": -0.4816462993621826
            },
            "position": {
                "x": 0.5540239810943604,
                "y": 0.030875300988554955,
                "z": 0.16403168439865112
            }
        },
        "name": "move_to_storage_A"
    },
    "id": "RRTstar_move_to_storage_A_56",
    "joint_names": [
        "shoulder_pan_joint",
        "shoulder_lift_joint",
        "elbow_joint",
        "wrist_1_joint",
        "wrist_2_joint",
        "wrist_3_joint"
    ],
    "metrics": {
        "cart_traj_len": 0.3539628200482144,
        "distance_elbow_joint": 0.4495276886225634,
        "distance_shoulder_lift_joint": 0.23398852206426746,
        "distance_shoulder_pan_joint": 0.4644515472374087,
        "distance_wrist_1_joint": 0.23997369974384208,
        "distance_wrist_2_joint": 1.093496716150895,
        "distance_wrist_3_joint": 0.08906664477290871,
        "smoothness": 2.2204460668324854e-16,
        "time": 5.001356397,
        "traj_len": 1.6032793950499975,
        "weighted_distance": 2.0204228577286587
    },
    "planner": "RRTstar",
    "start": {
        "state": {
            "elbow_joint": 1.971548259319323,
            "shoulder_lift_joint": -1.1394851275133948,
            "shoulder_pan_joint": 0.1228115487234821,
            "wrist_1_joint": -0.7804723859257726,
            "wrist_2_joint": 0.12958671773740124,
            "wrist_3_joint": -3.192489227718131
        }
    },
    "waypoints": [
        {
            "positions": [
                0.1228115487234821,
                -1.1394851275133948,
                1.971548259319323,
                -0.7804723859257726,
                0.12958671773740124,
                -3.192489227718131
            ]
        },
        {
            "positions": [
                0.056461327689566576,
                -1.1729120592368616,
                2.0357665005511176,
                -0.8147543430320358,
                0.2858005343303862,
                -3.1797654213220015
            ]
        },
        {
            "positions": [
                -0.009888893344348948,
                -1.2063389909603284,
                2.0999847417829125,
                -0.8490363001382989,
                0.44201435092337127,
                -3.1670416149258713
            ]
        },
        {
            "positions": [
                -0.07623911437826447,
                -1.2397659226837952,
                2.1642029830147074,
                -0.883318257244562,
                0.5982281675163562,
                -3.1543178085297416
            ]
        },
        {
            "positions": [
                -0.14258933541218,
                -1.273192854407262,
                2.2284212242465022,
                -0.9176002143508253,
                0.7544419841093413,
                -3.141594002133612
            ]
        },
        {
            "positions": [
                -0.20893955644609558,
                -1.3066197861307287,
                2.292639465478297,
                -0.9518821714570884,
                0.9106558007023263,
                -3.1288701957374823
            ]
        },
        {
            "positions": [
                -0.27528977748001104,
                -1.3400467178541955,
                2.3568577067100915,
                -0.9861641285633516,
                1.0668696172953112,
                -3.116146389341352
            ]
        },
        {
            "positions": [
                -0.3416399985139266,
                -1.3734736495776623,
                2.4210759479418864,
                -1.0204460856696147,
                1.2230834338882963,
                -3.1034225829452224
            ]
        }
    ]
}{
    "goal": {
        "global_pose": {
            "orientation": {
                "w": 0.5084816217422485,
                "x": -0.49083608388900757,
                "y": 0.5182115435600281,
                "z": -0.4816462993621826
            },
            "position": {
                "x": 0.5540239810943604,
                "y": 0.030875300988554955,
                "z": 0.16403168439865112
            }
        },
        "name": "move_to_storage_A"
    },
    "id": "RRTstar_move_to_storage_A_56",
    "joint_names": [
        "shoulder_pan_joint",
        "shoulder_lift_joint",
        "elbow_joint",
        "wrist_1_joint",
        "wrist_2_joint",
        "wrist_3_joint"
    ],
    "metrics": {
        "cart_traj_len": 0.35358601941523415,
        "distance_elbow_joint": 0.4500240560032651,
        "distance_shoulder_lift_joint": 0.2333398289058417,
        "distance_shoulder_pan_joint": 0.4634645153090794,
        "distance_wrist_1_joint": 0.2447076299951061,
        "distance_wrist_2_joint": 1.0944858920549623,
        "distance_wrist_3_joint": 0.08884339133734942,
        "smoothness": 2.2204460668324854e-16,
        "time": 5.000288378,
        "traj_len": 1.6046386863109103,
        "weighted_distance": 2.022806371932413
    },
    "planner": "RRTstar",
    "start": {
        "state": {
            "elbow_joint": 1.97154746011099,
            "shoulder_lift_joint": -1.13948474672311,
            "shoulder_pan_joint": 0.12281154466712228,
            "wrist_1_joint": -0.7804688027058302,
            "wrist_2_joint": 0.12958655903071145,
            "wrist_3_joint": 3.0906928834467795
        }
    },
    "waypoints": [
        {
            "positions": [
                0.12281154466712228,
                -1.13948474672311,
                1.97154746011099,
                -0.7804688027058302,
                0.12958655903071145,
                3.0906928834467795
            ]
        },
        {
            "positions": [
                0.05660232819439666,
                -1.172819007995373,
                2.035836610968599,
                -0.8154270355622739,
                0.28594168646713464,
                3.1033847964949723
            ]
        },
        {
            "positions": [
                -0.009606888278328965,
                -1.2061532692676362,
                2.1001257618262086,
                -0.8503852684187176,
                0.4422968139035578,
                3.116076709543165
            ]
        },
        {
            "positions": [
                -0.07581610475105459,
                -1.2394875305398994,
                2.1644149126838177,
                -0.8853435012751614,
                0.598651941339981,
                3.128768622591358
            ]
        },
        {
            "positions": [
                -0.1420253212237802,
                -1.2728217918121623,
                2.2287040635414272,
                -0.9203017341316051,
                0.7550070687764042,
                3.1414605356395504
            ]
        },
        {
            "positions": [
                -0.20823453769650585,
                -1.3061560530844254,
                2.2929932143990364,
                -0.9552599669880488,
                0.9113621962128274,
                3.1541524486877432
            ]
        },
        {
            "positions": [
                -0.27444375416923145,
                -1.3394903143566885,
                2.357282365256646,
                -0.9902181998444926,
                1.0677173236492505,
                3.166844361735936
            ]
        },
        {
            "positions": [
                -0.3406529706419571,
                -1.3728245756289517,
                2.421571516114255,
                -1.0251764327009363,
                1.2240724510856738,
                3.179536274784129
            ]
        }
    ]
}{
    "goal": {
        "global_pose": {
            "orientation": {
                "w": 0.5084816217422485,
                "x": -0.49083608388900757,
                "y": 0.5182115435600281,
                "z": -0.4816462993621826
            },
            "position": {
                "x": 0.5540239810943604,
                "y": 0.030875300988554955,
                "z": 0.16403168439865112
            }
        },
        "name": "move_to_storage_A"
    },
    "id": "RRTstar_move_to_storage_A_56",
    "joint_names": [
        "shoulder_pan_joint",
        "shoulder_lift_joint",
        "elbow_joint",
        "wrist_1_joint",
        "wrist_2_joint",
        "wrist_3_joint"
    ],
    "metrics": {
        "cart_traj_len": 0.3534521187084693,
        "distance_elbow_joint": 0.44778849921675246,
        "distance_shoulder_lift_joint": 0.23377298796046553,
        "distance_shoulder_pan_joint": 0.4597760103212691,
        "distance_wrist_1_joint": 0.23665957433200413,
        "distance_wrist_2_joint": 1.1092027069941355,
        "distance_wrist_3_joint": 0.08752477762171296,
        "smoothness": 0.0,
        "time": 5.00085728,
        "traj_len": 1.604594826255631,
        "weighted_distance": 2.023767870338865
    },
    "planner": "RRTstar",
    "start": {
        "state": {
            "elbow_joint": 1.9715472970024885,
            "shoulder_lift_joint": -1.1394870060712896,
            "shoulder_pan_joint": 0.12281152778156021,
            "wrist_1_joint": -0.780463741449964,
            "wrist_2_joint": 0.12958659822042276,
            "wrist_3_joint": 3.090690232415272
        }
    },
    "waypoints": [
        {
            "positions": [
                0.12281152778156021,
                -1.1394870060712896,
                1.9715472970024885,
                -0.780463741449964,
                0.12958659822042276,
                3.090690232415272
            ]
        },
        {
            "positions": [
                0.057129240592807495,
                -1.172883147208499,
                2.0355170826048816,
                -0.8142722520688217,
                0.2880441277910135,
                3.1031937720755165
            ]
        },
        {
            "positions": [
                -0.008553046595945218,
                -1.2062792883457083,
                2.099486868207275,
                -0.8480807626876794,
                0.4465016573616043,
                3.115697311735761
            ]
        },
        {
            "positions": [
                -0.07423533378469793,
                -1.2396754294829178,
                2.1634566538096682,
                -0.8818892733065372,
                0.6049591869321951,
                3.128200851396006
            ]
        },
        {
            "positions": [
                -0.13991762097345065,
                -1.273071570620127,
                2.2274264394120613,
                -0.9156977839253949,
                0.7634167165027859,
                3.140704391056251
            ]
        },
        {
            "positions": [
                -0.2055999081622034,
                -1.3064677117573364,
                2.291396225014455,
                -0.9495062945442527,
                0.9218742460733766,
                3.1532079307164955
            ]
        },
        {
            "positions": [
                -0.2712821953509561,
                -1.3398638528945457,
                2.355366010616848,
                -0.9833148051631104,
                1.0803317756439674,
                3.16571147037674
            ]
        },
        {
            "positions": [
                -0.33696448253970884,
                -1.3732599940317551,
                2.419335796219241,
                -1.0171233157819681,
                1.2387893052145582,
                3.178215010036985
            ]
        }
    ]
}