{
    "goal": {
        "global_pose": {
            "orientation": {
                "w": 0.7031023480610252,
                "x": -0.7110244013736278,
                "y": 0.0077485991402295624,
                "z": 0.005598929693374583
            },
            "position": {
                "x": -0.8841497679147869,
                "y": 0.44412534475326537,
                "z": 0.3711530566215515
            }
        },
        "name": "move_to_auspresseinheit_D"
    },
    "id": "RRTstar_move_to_auspresseinheit_D_26",
    "joint_names": [
        "shoulder_pan_joint",
        "shoulder_lift_joint",
        "elbow_joint",
        "wrist_1_joint",
        "wrist_2_joint",
        "wrist_3_joint"
    ],
    "metrics": {
        "cart_traj_len": 0.3431982054404021,
        "distance_elbow_joint": 0.6342191805349913,
        "distance_shoulder_lift_joint": 0.1189106668274098,
        "distance_shoulder_pan_joint": 0.13417194560128123,
        "distance_wrist_1_joint": 0.516842367235117,
        "distance_wrist_2_joint": 1.4313144601092906,
        "distance_wrist_3_joint": 0.013660308219972883,
        "smoothness": 7.89491931748053e-16,
        "time": 5.00074693,
        "traj_len": 1.6879333305933808,
        "weighted_distance": 2.1964963856816193
    },
    "planner": "RRTstar",
    "start": {
        "state": {
            "elbow_joint": -1.8275523626775212,
            "shoulder_lift_joint": -2.126789852344167,
            "shoulder_pan_joint": -0.03513704404078235,
            "wrist_1_joint": -2.347782403156801,
            "wrist_2_joint": -1.6058999987535132,
            "wrist_3_joint": -3.0880379163319196
        }
    },
    "waypoints": [
        {
            "positions": [
                -0.03513704404078235,
                -2.126789852344167,
                -1.8275523626775212,
                -2.347782403156801,
                -1.6058999987535132,
                -3.0880379163319196
            ]
        },
        {
            "positions": [
                -0.05190853724094251,
                -2.141653685697593,
                -1.7482749651106473,
                -2.4123876990611905,
                -1.4269856912398518,
                -3.089745454859416
            ]
        },
        {
            "positions": [
                -0.06868003044110266,
                -2.156517519051019,
                -1.6689975675437734,
                -2.4769929949655802,
                -1.2480713837261905,
                -3.0914529933869126
            ]
        },
        {
            "positions": [
                -0.08545152364126282,
                -2.1713813524044454,
                -1.5897201699768995,
                -2.54159829086997,
                -1.0691570762125293,
                -3.0931605319144095
            ]
        },
        {
            "positions": [
                -0.10222301684142296,
                -2.1862451857578717,
                -1.5104427724100256,
                -2.6062035867743596,
                -0.8902427686988679,
                -3.094868070441906
            ]
        },
        {
            "positions": [
                -0.11899451004158312,
                -2.201109019111298,
                -1.4311653748431516,
                -2.670808882678749,
                -0.7113284611852065,
                -3.0965756089694025
            ]
        },
        {
            "positions": [
                -0.1357660032417433,
                -2.2159728524647244,
                -1.3518879772762777,
                -2.7354141785831385,
                -0.5324141536715452,
                -3.0982831474968995
            ]
        },
        {
            "positions": [
                -0.15253749644190343,
                -2.2308366858181503,
                -1.2726105797094038,
                -2.800019474487528,
                -0.353499846157884,
                -3.099990686024396
            ]
        },
        {
            "positions": [
                -0.1693089896420636,
                -2.2457005191715766,
                -1.19333318214253,
                -2.864624770391918,
                -0.17458553864422252,
                -3.1016982245518925
            ]
        }
    ]
}