{
    "goal": {
        "global_pose": {
            "orientation": {
                "w": 0.7031023480610252,
                "x": -0.7110244013736278,
                "y": 0.0077485991402295624,
                "z": 0.005598929693374583
            },
            "position": {
                "x": -0.8841497679147869,
                "y": 0.44412534475326537,
                "z": 0.3711530566215515
            }
        },
        "name": "move_to_auspresseinheit_D"
    },
    "id": "RRTstar_move_to_auspresseinheit_D_121",
    "joint_names": [
        "shoulder_pan_joint",
        "shoulder_lift_joint",
        "elbow_joint",
        "wrist_1_joint",
        "wrist_2_joint",
        "wrist_3_joint"
    ],
    "metrics": {
        "cart_traj_len": 0.3424364271140605,
        "distance_elbow_joint": 0.6316631907748571,
        "distance_shoulder_lift_joint": 0.11789612882564171,
        "distance_shoulder_pan_joint": 0.13365364270116864,
        "distance_wrist_1_joint": 0.5121988527620451,
        "distance_wrist_2_joint": 1.4337179949498788,
        "distance_wrist_3_joint": 0.009435186666003847,
        "smoothness": 3.947459674368863e-16,
        "time": 5.002221958,
        "traj_len": 1.6848041419344848,
        "weighted_distance": 2.1916551320231767
    },
    "planner": "RRTstar",
    "start": {
        "state": {
            "elbow_joint": -1.8275523626775212,
            "shoulder_lift_joint": -2.126789852344167,
            "shoulder_pan_joint": -0.03513704404078235,
            "wrist_1_joint": -2.347782403156801,
            "wrist_2_joint": -1.6058999987535132,
            "wrist_3_joint": -3.0880379163319196
        }
    },
    "waypoints": [
        {
            "positions": [
                -0.03513704404078235,
                -2.126789852344167,
                -1.8275523626775212,
                -2.347782403156801,
                -1.6058999987535132,
                -3.0880379163319196
            ]
        },
        {
            "positions": [
                -0.05184374937842843,
                -2.141526868447372,
                -1.748594463830664,
                -2.4118072597520563,
                -1.4266852493847784,
                -3.08921731466517
            ]
        },
        {
            "positions": [
                -0.06855045471607452,
                -2.1562638845505773,
                -1.669636564983807,
                -2.4758321163473123,
                -1.2474705000160435,
                -3.0903967129984204
            ]
        },
        {
            "positions": [
                -0.08525716005372058,
                -2.1710009006537825,
                -1.5906786661369499,
                -2.5398569729425677,
                -1.0682557506473085,
                -3.091576111331671
            ]
        },
        {
            "positions": [
                -0.10196386539136668,
                -2.1857379167569877,
                -1.5117207672900927,
                -2.6038818295378237,
                -0.8890410012785738,
                -3.0927555096649213
            ]
        },
        {
            "positions": [
                -0.11867057072901274,
                -2.200474932860193,
                -1.4327628684432354,
                -2.667906686133079,
                -0.709826251909839,
                -3.093934907998172
            ]
        },
        {
            "positions": [
                -0.13537727606665884,
                -2.215211948963398,
                -1.3538049695963783,
                -2.7319315427283346,
                -0.530611502541104,
                -3.0951143063314226
            ]
        },
        {
            "positions": [
                -0.1520839814043049,
                -2.2299489650666033,
                -1.2748470707495212,
                -2.7959563993235905,
                -0.3513967531723692,
                -3.096293704664673
            ]
        },
        {
            "positions": [
                -0.168790686741951,
                -2.2446859811698086,
                -1.195889171902664,
                -2.859981255918846,
                -0.17218200380363427,
                -3.0974731029979234
            ]
        }
    ]
}