{
    "goal": {
        "global_pose": {
            "orientation": {
                "w": 0.5084816217422485,
                "x": -0.49083608388900757,
                "y": 0.5182115435600281,
                "z": -0.4816462993621826
            },
            "position": {
                "x": 0.5540239810943604,
                "y": 0.030875300988554955,
                "z": 0.16403168439865112
            }
        },
        "name": "move_to_storage_A"
    },
    "id": "RRTstar_move_to_storage_A_17",
    "joint_names": [
        "shoulder_pan_joint",
        "shoulder_lift_joint",
        "elbow_joint",
        "wrist_1_joint",
        "wrist_2_joint",
        "wrist_3_joint"
    ],
    "metrics": {
        "cart_traj_len": 0.3522233490285743,
        "distance_elbow_joint": 0.44848495639799446,
        "distance_shoulder_lift_joint": 0.23357097262830173,
        "distance_shoulder_pan_joint": 0.4590658997256527,
        "distance_wrist_1_joint": 0.2410370440995725,
        "distance_wrist_2_joint": 1.1028927554751757,
        "distance_wrist_3_joint": 0.09200552749571234,
        "smoothness": 4.440892133664971e-16,
        "time": 5.001018436,
        "traj_len": 1.6053215116674944,
        "weighted_distance": 2.0260794679351997
    },
    "planner": "RRTstar",
    "start": {
        "state": {
            "elbow_joint": 1.971548259319323,
            "shoulder_lift_joint": -1.1394851275133948,
            "shoulder_pan_joint": 0.1228115487234821,
            "wrist_1_joint": -0.7804723859257726,
            "wrist_2_joint": 0.12958671773740124,
            "wrist_3_joint": -3.192489227718131
        }
    },
    "waypoints": [
        {
            "positions": [
                0.1228115487234821,
                -1.1394851275133948,
                1.971548259319323,
                -0.7804723859257726,
                0.12958671773740124,
                -3.192489227718131
            ]
        },
        {
            "positions": [
                0.05723070590553171,
                -1.172852409317438,
                2.035617538804751,
                -0.8149062493685687,
                0.2871428256624263,
                -3.1793455809330293
            ]
        },
        {
            "positions": [
                -0.008350136912418676,
                -1.206219691121481,
                2.0996868182901784,
                -0.8493401128113648,
                0.4446989335874514,
                -3.1662019341479275
            ]
        },
        {
            "positions": [
                -0.07393097973036905,
                -1.2395869729255242,
                2.1637560977756065,
                -0.8837739762541608,
                0.6022550415124766,
                -3.1530582873628257
            ]
        },
        {
            "positions": [
                -0.13951182254831945,
                -1.2729542547295671,
                2.227825377261034,
                -0.9182078396969569,
                0.7598111494375016,
                -3.1399146405777243
            ]
        },
        {
            "positions": [
                -0.20509266536626986,
                -1.3063215365336103,
                2.2918946567464618,
                -0.9526417031397529,
                0.9173672573625268,
                -3.1267709937926225
            ]
        },
        {
            "positions": [
                -0.2706735081842202,
                -1.3396888183376534,
                2.35596393623189,
                -0.987075566582549,
                1.0749233652875518,
                -3.1136273470075206
            ]
        },
        {
            "positions": [
                -0.3362543510021706,
                -1.3730561001416965,
                2.4200332157173174,
                -1.0215094300253451,
                1.232479473212577,
                -3.100483700222419
            ]
        }
    ]
}{
    "goal": {
        "global_pose": {
            "orientation": {
                "w": 0.5084816217422485,
                "x": -0.49083608388900757,
                "y": 0.5182115435600281,
                "z": -0.4816462993621826
            },
            "position": {
                "x": 0.5540239810943604,
                "y": 0.030875300988554955,
                "z": 0.16403168439865112
            }
        },
        "name": "move_to_storage_A"
    },
    "id": "RRTstar_move_to_storage_A_17",
    "joint_names": [
        "shoulder_pan_joint",
        "shoulder_lift_joint",
        "elbow_joint",
        "wrist_1_joint",
        "wrist_2_joint",
        "wrist_3_joint"
    ],
    "metrics": {
        "cart_traj_len": 0.3533412800052902,
        "distance_elbow_joint": 0.4474769818422013,
        "distance_shoulder_lift_joint": 0.2344815440238497,
        "distance_shoulder_pan_joint": 0.45894374564495966,
        "distance_wrist_1_joint": 0.23555183545992042,
        "distance_wrist_2_joint": 1.1121496967793283,
        "distance_wrist_3_joint": 0.08944692361255058,
        "smoothness": 0.0,
        "time": 5.000176285999999,
        "traj_len": 1.60563094369871,
        "weighted_distance": 2.025992622599391
    },
    "planner": "RRTstar",
    "start": {
        "state": {
            "elbow_joint": 1.97154746011099,
            "shoulder_lift_joint": -1.13948474672311,
            "shoulder_pan_joint": 0.12281154466712228,
            "wrist_1_joint": -0.7804688027058302,
            "wrist_2_joint": 0.12958655903071145,
            "wrist_3_joint": 3.0906928834467795
        }
    },
    "waypoints": [
        {
            "positions": [
                0.12281154466712228,
                -1.13948474672311,
                1.97154746011099,
                -0.7804688027058302,
                0.12958655903071145,
                3.0906928834467795
            ]
        },
        {
            "positions": [
                0.05724815243212805,
                -1.1729821101550886,
                2.0354727432313044,
                -0.8141190649143902,
                0.28846508714204405,
                3.1034710153914298
            ]
        },
        {
            "positions": [
                -0.008315239802866178,
                -1.206479473587067,
                2.099398026351619,
                -0.8477693271229503,
                0.4473436152533766,
                3.1162491473360796
            ]
        },
        {
            "positions": [
                -0.07387863203786042,
                -1.2399768370190456,
                2.1633233094719335,
                -0.8814195893315103,
                0.6062221433647093,
                3.12902727928073
            ]
        },
        {
            "positions": [
                -0.13944202427285463,
                -1.273474200451024,
                2.2272485925922476,
                -0.9150698515400704,
                0.7651006714760419,
                3.1418054112253797
            ]
        },
        {
            "positions": [
                -0.20500541650784887,
                -1.3069715638830026,
                2.291173875712562,
                -0.9487201137486305,
                0.9239791995873745,
                3.15458354317003
            ]
        },
        {
            "positions": [
                -0.2705688087428431,
                -1.340468927314981,
                2.3550991588328767,
                -0.9823703759571906,
                1.082857727698707,
                3.16736167511468
            ]
        },
        {
            "positions": [
                -0.33613220097783736,
                -1.3739662907469596,
                2.419024441953191,
                -1.0160206381657506,
                1.2417362558100398,
                3.18013980705933
            ]
        }
    ]
}{
    "goal": {
        "global_pose": {
            "orientation": {
                "w": 0.5084816217422485,
                "x": -0.49083608388900757,
                "y": 0.5182115435600281,
                "z": -0.4816462993621826
            },
            "position": {
                "x": 0.5540239810943604,
                "y": 0.030875300988554955,
                "z": 0.16403168439865112
            }
        },
        "name": "move_to_storage_A"
    },
    "id": "RRTstar_move_to_storage_A_17",
    "joint_names": [
        "shoulder_pan_joint",
        "shoulder_lift_joint",
        "elbow_joint",
        "wrist_1_joint",
        "wrist_2_joint",
        "wrist_3_joint"
    ],
    "metrics": {
        "cart_traj_len": 0.3522194896952144,
        "distance_elbow_joint": 0.4489896552913679,
        "distance_shoulder_lift_joint": 0.23618046074898502,
        "distance_shoulder_pan_joint": 0.4616245106026892,
        "distance_wrist_1_joint": 0.23616286831334476,
        "distance_wrist_2_joint": 1.0934347569443679,
        "distance_wrist_3_joint": 0.08994930263561596,
        "smoothness": 0.0,
        "time": 5.057881069,
        "traj_len": 1.6019805100363644,
        "weighted_distance": 2.018870423049809
    },
    "planner": "RRTstar",
    "start": {
        "state": {
            "elbow_joint": 1.9715472970024885,
            "shoulder_lift_joint": -1.1394870060712896,
            "shoulder_pan_joint": 0.12281152778156021,
            "wrist_1_joint": -0.780463741449964,
            "wrist_2_joint": 0.12958659822042276,
            "wrist_3_joint": 3.090690232415272
        }
    },
    "waypoints": [
        {
            "positions": [
                0.12281152778156021,
                -1.1394870060712896,
                1.9715472970024885,
                -0.780463741449964,
                0.12958659822042276,
                3.090690232415272
            ]
        },
        {
            "positions": [
                0.056865169124033194,
                -1.1732270718925732,
                2.0356886763298268,
                -0.8142012940661562,
                0.28579156349818957,
                3.1035401327917884
            ]
        },
        {
            "positions": [
                -0.009081189533493822,
                -1.2069671377138567,
                2.099830055657165,
                -0.8479388466823482,
                0.4419965287759564,
                3.116390033168305
            ]
        },
        {
            "positions": [
                -0.07502754819102084,
                -1.2407072035351403,
                2.163971434984503,
                -0.8816763992985404,
                0.5982014940537232,
                3.1292399335448216
            ]
        },
        {
            "positions": [
                -0.14097390684854785,
                -1.274447269356424,
                2.2281128143118414,
                -0.9154139519147324,
                0.7544064593314901,
                3.142089833921338
            ]
        },
        {
            "positions": [
                -0.20692026550607492,
                -1.3081873351777076,
                2.29225419363918,
                -0.9491515045309246,
                0.9106114246092569,
                3.1549397342978547
            ]
        },
        {
            "positions": [
                -0.27286662416360186,
                -1.341927400998991,
                2.3563955729665182,
                -0.9828890571471166,
                1.0668163898870238,
                3.1677896346743712
            ]
        },
        {
            "positions": [
                -0.338812982821129,
                -1.3756674668202746,
                2.4205369522938565,
                -1.0166266097633088,
                1.2230213551647906,
                3.180639535050888
            ]
        }
    ]
}