{
    "goal": {
        "global_pose": {
            "orientation": {
                "w": 0.5084816217422485,
                "x": -0.49083608388900757,
                "y": 0.5182115435600281,
                "z": -0.4816462993621826
            },
            "position": {
                "x": 0.5540239810943604,
                "y": 0.030875300988554955,
                "z": 0.16403168439865112
            }
        },
        "name": "move_to_storage_A"
    },
    "id": "RRTstar_move_to_storage_A_136",
    "joint_names": [
        "shoulder_pan_joint",
        "shoulder_lift_joint",
        "elbow_joint",
        "wrist_1_joint",
        "wrist_2_joint",
        "wrist_3_joint"
    ],
    "metrics": {
        "cart_traj_len": 0.3533749515065832,
        "distance_elbow_joint": 0.44960083756292923,
        "distance_shoulder_lift_joint": 0.23645102791524808,
        "distance_shoulder_pan_joint": 0.46428962904950843,
        "distance_wrist_1_joint": 0.2360190771574181,
        "distance_wrist_2_joint": 1.091047393807374,
        "distance_wrist_3_joint": 0.08819348787438219,
        "smoothness": 0.0,
        "time": 5.002247075,
        "traj_len": 1.6017494976952107,
        "weighted_distance": 2.017189852264882
    },
    "planner": "RRTstar",
    "start": {
        "state": {
            "elbow_joint": 1.971548259319323,
            "shoulder_lift_joint": -1.1394851275133948,
            "shoulder_pan_joint": 0.1228115487234821,
            "wrist_1_joint": -0.7804723859257726,
            "wrist_2_joint": 0.12958671773740124,
            "wrist_3_joint": -3.192489227718131
        }
    },
    "waypoints": [
        {
            "positions": [
                0.1228115487234821,
                -1.1394851275133948,
                1.971548259319323,
                -0.7804723859257726,
                0.12958671773740124,
                -3.192489227718131
            ]
        },
        {
            "positions": [
                0.05648445885926662,
                -1.1732638457870017,
                2.0357769503997414,
                -0.8141893969482609,
                0.28545063113845465,
                -3.1798901580217906
            ]
        },
        {
            "positions": [
                -0.009842631004948865,
                -1.2070425640606086,
                2.10000564148016,
                -0.8479064079707492,
                0.441314544539508,
                -3.1672910883254506
            ]
        },
        {
            "positions": [
                -0.07616972086916435,
                -1.2408212823342155,
                2.164234332560578,
                -0.8816234189932375,
                0.5971784579405615,
                -3.15469201862911
            ]
        },
        {
            "positions": [
                -0.14249681073337983,
                -1.2746000006078222,
                2.228463023640997,
                -0.9153404300157258,
                0.7530423713416149,
                -3.14209294893277
            ]
        },
        {
            "positions": [
                -0.20882390059759537,
                -1.308378718881429,
                2.2926917147214154,
                -0.9490574410382141,
                0.9089062847426683,
                -3.1294938792364295
            ]
        },
        {
            "positions": [
                -0.2751509904618108,
                -1.342157437155036,
                2.3569204058018336,
                -0.9827744520607025,
                1.0647701981437216,
                -3.1168948095400895
            ]
        },
        {
            "positions": [
                -0.34147808032602633,
                -1.375936155428643,
                2.421149096882252,
                -1.0164914630831907,
                1.2206341115447752,
                -3.104295739843749
            ]
        }
    ]
}{
    "goal": {
        "global_pose": {
            "orientation": {
                "w": 0.5084816217422485,
                "x": -0.49083608388900757,
                "y": 0.5182115435600281,
                "z": -0.4816462993621826
            },
            "position": {
                "x": 0.5540239810943604,
                "y": 0.030875300988554955,
                "z": 0.16403168439865112
            }
        },
        "name": "move_to_storage_A"
    },
    "id": "RRTstar_move_to_storage_A_136",
    "joint_names": [
        "shoulder_pan_joint",
        "shoulder_lift_joint",
        "elbow_joint",
        "wrist_1_joint",
        "wrist_2_joint",
        "wrist_3_joint"
    ],
    "metrics": {
        "cart_traj_len": 0.3535671497588459,
        "distance_elbow_joint": 0.44854142898924554,
        "distance_shoulder_lift_joint": 0.23575149610565616,
        "distance_shoulder_pan_joint": 0.46426953979121866,
        "distance_wrist_1_joint": 0.23583756642440568,
        "distance_wrist_2_joint": 1.0917970255205036,
        "distance_wrist_3_joint": 0.10531271885112048,
        "smoothness": 2.220446049250313e-15,
        "time": 5.000081422,
        "traj_len": 1.6067077443275581,
        "weighted_distance": 2.0297216078391886
    },
    "planner": "RRTstar",
    "start": {
        "state": {
            "elbow_joint": 1.97154746011099,
            "shoulder_lift_joint": -1.13948474672311,
            "shoulder_pan_joint": 0.12281154466712228,
            "wrist_1_joint": -0.7804688027058302,
            "wrist_2_joint": 0.12958655903071145,
            "wrist_3_joint": 3.0906928834467795
        }
    },
    "waypoints": [
        {
            "positions": [
                0.12281154466712228,
                -1.13948474672311,
                1.97154746011099,
                -0.7804688027058302,
                0.12958655903071145,
                3.0906928834467795
            ]
        },
        {
            "positions": [
                0.0564873246969482,
                -1.173163531881061,
                2.0356248071094534,
                -0.8141598836236025,
                0.2855575626764977,
                3.1057375575683683
            ]
        },
        {
            "positions": [
                -0.009836895273225885,
                -1.2068423170390117,
                2.0997021541079173,
                -0.8478509645413747,
                0.4415285663222839,
                3.1207822316899567
            ]
        },
        {
            "positions": [
                -0.07616111524339998,
                -1.2405211021969627,
                2.1637795011063807,
                -0.8815420454591469,
                0.5974995699680701,
                3.1358269058115456
            ]
        },
        {
            "positions": [
                -0.14248533521357404,
                -1.2741998873549134,
                2.2278568481048446,
                -0.9152331263769191,
                0.7534705736138564,
                3.150871579933134
            ]
        },
        {
            "positions": [
                -0.20880955518374816,
                -1.3078786725128644,
                2.291934195103308,
                -0.9489242072946914,
                0.9094415772596427,
                3.1659162540547228
            ]
        },
        {
            "positions": [
                -0.27513377515392223,
                -1.3415574576708151,
                2.356011542101772,
                -0.9826152882124636,
                1.0654125809054287,
                3.180960928176311
            ]
        },
        {
            "positions": [
                -0.34145799512409636,
                -1.375236242828766,
                2.4200888891002355,
                -1.0163063691302359,
                1.221383584551215,
                3.1960056022979
            ]
        }
    ]
}{
    "goal": {
        "global_pose": {
            "orientation": {
                "w": 0.5084816217422485,
                "x": -0.49083608388900757,
                "y": 0.5182115435600281,
                "z": -0.4816462993621826
            },
            "position": {
                "x": 0.5540239810943604,
                "y": 0.030875300988554955,
                "z": 0.16403168439865112
            }
        },
        "name": "move_to_storage_A"
    },
    "id": "RRTstar_move_to_storage_A_136",
    "joint_names": [
        "shoulder_pan_joint",
        "shoulder_lift_joint",
        "elbow_joint",
        "wrist_1_joint",
        "wrist_2_joint",
        "wrist_3_joint"
    ],
    "metrics": {
        "cart_traj_len": 0.35335343153581655,
        "distance_elbow_joint": 0.4502187350369886,
        "distance_shoulder_lift_joint": 0.23506098013535692,
        "distance_shoulder_pan_joint": 0.4632828726600438,
        "distance_wrist_1_joint": 0.2443975987978868,
        "distance_wrist_2_joint": 1.0942449834761885,
        "distance_wrist_3_joint": 0.0976280025504126,
        "smoothness": 2.2204460668324854e-16,
        "time": 5.000125929,
        "traj_len": 1.6077416374084728,
        "weighted_distance": 2.029465880479832
    },
    "planner": "RRTstar",
    "start": {
        "state": {
            "elbow_joint": 1.9715472970024885,
            "shoulder_lift_joint": -1.1394870060712896,
            "shoulder_pan_joint": 0.12281152778156021,
            "wrist_1_joint": -0.780463741449964,
            "wrist_2_joint": 0.12958659822042276,
            "wrist_3_joint": 3.090690232415272
        }
    },
    "waypoints": [
        {
            "positions": [
                0.12281152778156021,
                -1.1394870060712896,
                1.9715472970024885,
                -0.780463741449964,
                0.12958659822042276,
                3.090690232415272
            ]
        },
        {
            "positions": [
                0.056628260258696814,
                -1.1730671460906263,
                2.03586425915063,
                -0.8153776841353764,
                0.28590731014559256,
                3.104637089922474
            ]
        },
        {
            "positions": [
                -0.009555007264166582,
                -1.206647286109963,
                2.100181221298771,
                -0.8502916268207887,
                0.4422280220707623,
                3.1185839474296753
            ]
        },
        {
            "positions": [
                -0.07573827478702996,
                -1.2402274261292998,
                2.1644981834469124,
                -0.8852055695062012,
                0.5985487339959321,
                3.132530804936877
            ]
        },
        {
            "positions": [
                -0.14192154230989337,
                -1.2738075661486363,
                2.2288151455950533,
                -0.9201195121916136,
                0.7548694459211018,
                3.146477662444079
            ]
        },
        {
            "positions": [
                -0.20810480983275678,
                -1.307387706167973,
                2.2931321077431948,
                -0.9550334548770261,
                0.9111901578462717,
                3.160424519951281
            ]
        },
        {
            "positions": [
                -0.2742880773556201,
                -1.3409678461873098,
                2.3574490698913357,
                -0.9899473975624384,
                1.0675108697714415,
                3.1743713774584825
            ]
        },
        {
            "positions": [
                -0.3404713448784836,
                -1.3745479862066465,
                2.421766032039477,
                -1.0248613402478508,
                1.2238315816966112,
                3.1883182349656845
            ]
        }
    ]
}