{
    "goal": {
        "global_pose": {
            "orientation": {
                "w": 0.5084816217422485,
                "x": -0.49083608388900757,
                "y": 0.5182115435600281,
                "z": -0.4816462993621826
            },
            "position": {
                "x": 0.5540239810943604,
                "y": 0.030875300988554955,
                "z": 0.16403168439865112
            }
        },
        "name": "move_to_storage_A"
    },
    "id": "RRTstar_move_to_storage_A_131",
    "joint_names": [
        "shoulder_pan_joint",
        "shoulder_lift_joint",
        "elbow_joint",
        "wrist_1_joint",
        "wrist_2_joint",
        "wrist_3_joint"
    ],
    "metrics": {
        "cart_traj_len": 0.353244777050411,
        "distance_elbow_joint": 0.4495963258645974,
        "distance_shoulder_lift_joint": 0.2367067436263497,
        "distance_shoulder_pan_joint": 0.46301736109116004,
        "distance_wrist_1_joint": 0.23472081953384716,
        "distance_wrist_2_joint": 1.0957839292368508,
        "distance_wrist_3_joint": 0.0852410540437849,
        "smoothness": 1.3322676311638882e-15,
        "time": 5.000176358,
        "traj_len": 1.6015824154243796,
        "weighted_distance": 2.0164456576498306
    },
    "planner": "RRTstar",
    "start": {
        "state": {
            "elbow_joint": 1.971548259319323,
            "shoulder_lift_joint": -1.1394851275133948,
            "shoulder_pan_joint": 0.1228115487234821,
            "wrist_1_joint": -0.7804723859257726,
            "wrist_2_joint": 0.12958671773740124,
            "wrist_3_joint": -3.192489227718131
        }
    },
    "waypoints": [
        {
            "positions": [
                0.1228115487234821,
                -1.1394851275133948,
                1.971548259319323,
                -0.7804723859257726,
                0.12958671773740124,
                -3.192489227718131
            ]
        },
        {
            "positions": [
                0.056666211424744956,
                -1.1733003766028733,
                2.0357763058714085,
                -0.8140039315734651,
                0.28612727905695134,
                -3.1803119342833046
            ]
        },
        {
            "positions": [
                -0.009479125873992189,
                -1.2071156256923519,
                2.1000043524234937,
                -0.8475354772211575,
                0.4426678403765014,
                -3.1681346408484785
            ]
        },
        {
            "positions": [
                -0.07562446317272933,
                -1.2409308747818304,
                2.164232398975579,
                -0.88106702286885,
                0.5992084016960515,
                -3.155957347413652
            ]
        },
        {
            "positions": [
                -0.14176980047146648,
                -1.274746123871309,
                2.228460445527664,
                -0.9145985685165424,
                0.7557489630156017,
                -3.1437800539788254
            ]
        },
        {
            "positions": [
                -0.20791513777020365,
                -1.3085613729607875,
                2.29268849207975,
                -0.9481301141642349,
                0.9122895243351519,
                -3.131602760543999
            ]
        },
        {
            "positions": [
                -0.27406047506894077,
                -1.342376622050266,
                2.356916538631835,
                -0.9816616598119273,
                1.0688300856547017,
                -3.119425467109173
            ]
        },
        {
            "positions": [
                -0.34020581236767794,
                -1.3761918711397445,
                2.4211445851839204,
                -1.0151932054596198,
                1.225370646974252,
                -3.1072481736743462
            ]
        }
    ]
}{
    "goal": {
        "global_pose": {
            "orientation": {
                "w": 0.5084816217422485,
                "x": -0.49083608388900757,
                "y": 0.5182115435600281,
                "z": -0.4816462993621826
            },
            "position": {
                "x": 0.5540239810943604,
                "y": 0.030875300988554955,
                "z": 0.16403168439865112
            }
        },
        "name": "move_to_storage_A"
    },
    "id": "RRTstar_move_to_storage_A_131",
    "joint_names": [
        "shoulder_pan_joint",
        "shoulder_lift_joint",
        "elbow_joint",
        "wrist_1_joint",
        "wrist_2_joint",
        "wrist_3_joint"
    ],
    "metrics": {
        "cart_traj_len": 0.35334283769532837,
        "distance_elbow_joint": 0.44707734409962985,
        "distance_shoulder_lift_joint": 0.23297773588713588,
        "distance_shoulder_pan_joint": 0.46140128578158696,
        "distance_wrist_1_joint": 0.235375278398124,
        "distance_wrist_2_joint": 1.1008396005988235,
        "distance_wrist_3_joint": 0.09657689370565015,
        "smoothness": 6.661338165333112e-16,
        "time": 5.000076437000001,
        "traj_len": 1.6044463650963687,
        "weighted_distance": 2.025738582561728
    },
    "planner": "RRTstar",
    "start": {
        "state": {
            "elbow_joint": 1.97154746011099,
            "shoulder_lift_joint": -1.13948474672311,
            "shoulder_pan_joint": 0.12281154466712228,
            "wrist_1_joint": -0.7804688027058302,
            "wrist_2_joint": 0.12958655903071145,
            "wrist_3_joint": 3.0906928834467795
        }
    },
    "waypoints": [
        {
            "positions": [
                0.12281154466712228,
                -1.13948474672311,
                1.97154746011099,
                -0.7804688027058302,
                0.12958655903071145,
                3.0906928834467795
            ]
        },
        {
            "positions": [
                0.056897075269752725,
                -1.1727672804212723,
                2.0354156521252227,
                -0.8140938424769908,
                0.28684935911625764,
                3.1044895825475867
            ]
        },
        {
            "positions": [
                -0.009017394127616832,
                -1.2060498141194345,
                2.0992838441394555,
                -0.8477188822481513,
                0.4441121592018038,
                3.118286281648394
            ]
        },
        {
            "positions": [
                -0.07493186352498639,
                -1.2393323478175968,
                2.1631520361536882,
                -0.8813439220193119,
                0.6013749592873501,
                3.132082980749201
            ]
        },
        {
            "positions": [
                -0.14084633292235593,
                -1.272614881515759,
                2.2270202281679214,
                -0.9149689617904725,
                0.7586377593728962,
                3.145879679850008
            ]
        },
        {
            "positions": [
                -0.20676080231972555,
                -1.3058974152139213,
                2.290888420182154,
                -0.948594001561633,
                0.9159005594584425,
                3.1596763789508153
            ]
        },
        {
            "positions": [
                -0.27267527171709505,
                -1.3391799489120835,
                2.354756612196387,
                -0.9822190413327936,
                1.0731633595439887,
                3.1734730780516225
            ]
        },
        {
            "positions": [
                -0.33858974111446466,
                -1.3724624826102458,
                2.4186248042106198,
                -1.0158440811039542,
                1.230426159629535,
                3.1872697771524297
            ]
        }
    ]
}{
    "goal": {
        "global_pose": {
            "orientation": {
                "w": 0.5084816217422485,
                "x": -0.49083608388900757,
                "y": 0.5182115435600281,
                "z": -0.4816462993621826
            },
            "position": {
                "x": 0.5540239810943604,
                "y": 0.030875300988554955,
                "z": 0.16403168439865112
            }
        },
        "name": "move_to_storage_A"
    },
    "id": "RRTstar_move_to_storage_A_131",
    "joint_names": [
        "shoulder_pan_joint",
        "shoulder_lift_joint",
        "elbow_joint",
        "wrist_1_joint",
        "wrist_2_joint",
        "wrist_3_joint"
    ],
    "metrics": {
        "cart_traj_len": 0.3534346443827199,
        "distance_elbow_joint": 0.44855572365730056,
        "distance_shoulder_lift_joint": 0.23414401305314203,
        "distance_shoulder_pan_joint": 0.4626836215734572,
        "distance_wrist_1_joint": 0.23841852404188923,
        "distance_wrist_2_joint": 1.096861970834443,
        "distance_wrist_3_joint": 0.0993111357259302,
        "smoothness": 8.881784232165597e-16,
        "time": 5.000473892,
        "traj_len": 1.6062300547823658,
        "weighted_distance": 2.0282696455881686
    },
    "planner": "RRTstar",
    "start": {
        "state": {
            "elbow_joint": 1.9715472970024885,
            "shoulder_lift_joint": -1.1394870060712896,
            "shoulder_pan_joint": 0.12281152778156021,
            "wrist_1_joint": -0.780463741449964,
            "wrist_2_joint": 0.12958659822042276,
            "wrist_3_joint": 3.090690232415272
        }
    },
    "waypoints": [
        {
            "positions": [
                0.12281152778156021,
                -1.1394870060712896,
                1.9715472970024885,
                -0.780463741449964,
                0.12958659822042276,
                3.090690232415272
            ]
        },
        {
            "positions": [
                0.05671386755678061,
                -1.172936150793167,
                2.0356266860963887,
                -0.8145235305988053,
                0.28628116548248606,
                3.104877537518976
            ]
        },
        {
            "positions": [
                -0.009383792667998991,
                -1.2063852955150445,
                2.0997060751902885,
                -0.8485833197476467,
                0.44297573274454927,
                3.1190648426226804
            ]
        },
        {
            "positions": [
                -0.07548145289277858,
                -1.239834440236922,
                2.1637854642841887,
                -0.8826431088964879,
                0.5996703000066126,
                3.1332521477263846
            ]
        },
        {
            "positions": [
                -0.1415791131175582,
                -1.2732835849587993,
                2.227864853378089,
                -0.9167028980453292,
                0.7563648672686758,
                3.1474394528300893
            ]
        },
        {
            "positions": [
                -0.20767677334233783,
                -1.3067327296806768,
                2.291944242471989,
                -0.9507626871941706,
                0.9130594345307391,
                3.1616267579337936
            ]
        },
        {
            "positions": [
                -0.2737744335671174,
                -1.3401818744025542,
                2.356023631565889,
                -0.9848224763430119,
                1.0697540017928024,
                3.175814063037498
            ]
        },
        {
            "positions": [
                -0.339872093791897,
                -1.3736310191244316,
                2.420103020659789,
                -1.0188822654918532,
                1.2264485690548657,
                3.190001368141202
            ]
        }
    ]
}