{
    "goal": {
        "global_pose": {
            "orientation": {
                "w": 0.7031023480610252,
                "x": -0.7110244013736278,
                "y": 0.0077485991402295624,
                "z": 0.005598929693374583
            },
            "position": {
                "x": -0.8841497679147869,
                "y": 0.44412534475326537,
                "z": 0.3711530566215515
            }
        },
        "name": "move_to_auspresseinheit_D"
    },
    "id": "RRTstar_move_to_auspresseinheit_D_128",
    "joint_names": [
        "shoulder_pan_joint",
        "shoulder_lift_joint",
        "elbow_joint",
        "wrist_1_joint",
        "wrist_2_joint",
        "wrist_3_joint"
    ],
    "metrics": {
        "cart_traj_len": 0.3429365852851202,
        "distance_elbow_joint": 0.6296045114128299,
        "distance_shoulder_lift_joint": 0.11617623810899236,
        "distance_shoulder_pan_joint": 0.1339286714568805,
        "distance_wrist_1_joint": 0.5029609884288635,
        "distance_wrist_2_joint": 1.4312963454000243,
        "distance_wrist_3_joint": 0.028510869580906206,
        "smoothness": 1.1842378974936202e-15,
        "time": 5.001760605,
        "traj_len": 1.6859648941744003,
        "weighted_distance": 2.1985806097069074
    },
    "planner": "RRTstar",
    "start": {
        "state": {
            "elbow_joint": -1.8275523626775212,
            "shoulder_lift_joint": -2.126789852344167,
            "shoulder_pan_joint": -0.03513704404078235,
            "wrist_1_joint": -2.347782403156801,
            "wrist_2_joint": -1.6058999987535132,
            "wrist_3_joint": -3.0880379163319196
        }
    },
    "waypoints": [
        {
            "positions": [
                -0.03513704404078235,
                -2.126789852344167,
                -1.8275523626775212,
                -2.347782403156801,
                -1.6058999987535132,
                -3.0880379163319196
            ]
        },
        {
            "positions": [
                -0.051878127972892416,
                -2.1413118821077908,
                -1.7488517987509176,
                -2.410652526710409,
                -1.42698795557851,
                -3.091601775029533
            ]
        },
        {
            "positions": [
                -0.06861921190500248,
                -2.155833911871415,
                -1.6701512348243137,
                -2.473522650264017,
                -1.248075912403507,
                -3.095165633727146
            ]
        },
        {
            "positions": [
                -0.08536029583711255,
                -2.170355941635039,
                -1.5914506708977099,
                -2.536392773817625,
                -1.0691638692285041,
                -3.0987294924247593
            ]
        },
        {
            "positions": [
                -0.1021013797692226,
                -2.184877971398663,
                -1.5127501069711062,
                -2.599262897371233,
                -0.8902518260535011,
                -3.1022933511223725
            ]
        },
        {
            "positions": [
                -0.11884246370133267,
                -2.199400001162287,
                -1.4340495430445026,
                -2.6621330209248404,
                -0.711339782878498,
                -3.105857209819986
            ]
        },
        {
            "positions": [
                -0.13558354763344274,
                -2.213922030925911,
                -1.3553489791178988,
                -2.7250031444784484,
                -0.5324277397034951,
                -3.1094210685175994
            ]
        },
        {
            "positions": [
                -0.1523246315655528,
                -2.2284440606895353,
                -1.276648415191295,
                -2.7878732680320564,
                -0.353515696528492,
                -3.1129849272152126
            ]
        },
        {
            "positions": [
                -0.16906571549766286,
                -2.242966090453159,
                -1.1979478512646913,
                -2.8507433915856644,
                -0.17460365335348887,
                -3.116548785912826
            ]
        }
    ]
}