{
    "goal": {
        "global_pose": {
            "orientation": {
                "w": -0.4816463035849501,
                "x": 0.5182115481033762,
                "y": 0.4908360881923453,
                "z": -0.5084816262002911
            },
            "position": {
                "x": -0.8240239810943604,
                "y": -0.300875300988555,
                "z": 0.16403168439865112
            }
        },
        "name": "move_to_storage_C"
    },
    "id": "RRTstar_move_to_storage_C_58",
    "joint_names": [
        "shoulder_pan_joint",
        "shoulder_lift_joint",
        "elbow_joint",
        "wrist_1_joint",
        "wrist_2_joint",
        "wrist_3_joint"
    ],
    "metrics": {
        "cart_traj_len": 0.5764665666315988,
        "distance_elbow_joint": 0.2550319741138656,
        "distance_shoulder_lift_joint": 0.19026095621252903,
        "distance_shoulder_pan_joint": 0.4945865472811257,
        "distance_wrist_1_joint": 0.06491954381793175,
        "distance_wrist_2_joint": 1.0661036058010027,
        "distance_wrist_3_joint": 0.0729991704084938,
        "smoothness": 0.0,
        "time": 5.000784144,
        "traj_len": 1.4642068834816167,
        "weighted_distance": 1.8495738125500345
    },
    "planner": "RRTstar",
    "start": {
        "state": {
            "elbow_joint": 2.010868314990456,
            "shoulder_lift_joint": -1.1634956873337592,
            "shoulder_pan_joint": -2.4736205022346125,
            "wrist_1_joint": -0.8367026794202681,
            "wrist_2_joint": 0.6746043897044499,
            "wrist_3_joint": -3.1496632123970403
        }
    },
    "waypoints": [
        {
            "positions": [
                -2.4736205022346125,
                -1.1634956873337592,
                2.010868314990456,
                -0.8367026794202681,
                0.6746043897044499,
                -3.1496632123970403
            ]
        },
        {
            "positions": [
                -2.5560515934481334,
                -1.1317855279650044,
                1.9683629859714782,
                -0.8258827554506128,
                0.8522883240046171,
                -3.1374966839956246
            ]
        },
        {
            "positions": [
                -2.6384826846616543,
                -1.1000753685962494,
                1.9258576569525006,
                -0.8150628314809575,
                1.0299722583047841,
                -3.125330155594209
            ]
        },
        {
            "positions": [
                -2.720913775875175,
                -1.0683652092274947,
                1.883352327933523,
                -0.8042429075113022,
                1.2076561926049512,
                -3.1131636271927934
            ]
        },
        {
            "positions": [
                -2.8033448670886965,
                -1.03665504985874,
                1.8408469989145455,
                -0.793422983541647,
                1.3853401269051182,
                -3.1009970987913777
            ]
        },
        {
            "positions": [
                -2.8857759583022173,
                -1.004944890489985,
                1.7983416698955679,
                -0.7826030595719916,
                1.5630240612052857,
                -3.088830570389962
            ]
        },
        {
            "positions": [
                -2.968207049515738,
                -0.9732347311212302,
                1.7558363408765902,
                -0.7717831356023364,
                1.7407079955054525,
                -3.0766640419885465
            ]
        }
    ]
}