{
    "goal": {
        "global_pose": {
            "orientation": {
                "w": -0.4816463035849501,
                "x": 0.5182115481033762,
                "y": 0.4908360881923453,
                "z": -0.5084816262002911
            },
            "position": {
                "x": -0.8240239810943604,
                "y": 0.19912469901144506,
                "z": 0.16403168439865112
            }
        },
        "name": "move_to_storage_D"
    },
    "id": "RRTstar_move_to_storage_D_4",
    "joint_names": [
        "shoulder_pan_joint",
        "shoulder_lift_joint",
        "elbow_joint",
        "wrist_1_joint",
        "wrist_2_joint",
        "wrist_3_joint"
    ],
    "metrics": {
        "cart_traj_len": 4.373284428007535,
        "distance_elbow_joint": 4.957635478407001,
        "distance_shoulder_lift_joint": 3.9857895216715233,
        "distance_shoulder_pan_joint": 6.085625997939587,
        "distance_wrist_1_joint": 2.2615953369017143,
        "distance_wrist_2_joint": 5.490446414608687,
        "distance_wrist_3_joint": 3.400195671111003,
        "smoothness": 0.39227336715739164,
        "time": 5.040927391,
        "traj_len": 5.11676542560234,
        "weighted_distance": 6.382297510643951
    },
    "planner": "RRTstar",
    "start": {
        "state": {
            "elbow_joint": -2.384821988534728,
            "shoulder_lift_joint": -2.2788054721415256,
            "shoulder_pan_joint": -0.1854694642142757,
            "wrist_1_joint": 1.4845938289331202,
            "wrist_2_joint": 0.17898776772866878,
            "wrist_3_joint": 0.037105688729662994
        }
    },
    "waypoints": [
        {
            "positions": [
                -0.1854694642142757,
                -2.2788054721415256,
                -2.384821988534728,
                1.4845938289331202,
                0.17898776772866878,
                0.037105688729662994
            ]
        },
        {
            "positions": [
                -0.2532353723989701,
                -2.2241531692045218,
                -2.438387052426236,
                1.404584153044643,
                0.2698737717375372,
                0.016133643250435228
            ]
        },
        {
            "positions": [
                -0.32100128058366445,
                -2.1695008662675184,
                -2.491952116317744,
                1.3245744771561656,
                0.3607597757464056,
                -0.004838402228792539
            ]
        },
        {
            "positions": [
                -0.3887671887683588,
                -2.114848563330515,
                -2.5455171802092518,
                1.2445648012676882,
                0.451645779755274,
                -0.02581044770802031
            ]
        },
        {
            "positions": [
                -0.4565330969530532,
                -2.060196260393511,
                -2.5990822441007597,
                1.164555125379211,
                0.5425317837641425,
                -0.04678249318724807
            ]
        },
        {
            "positions": [
                -0.5242990051377476,
                -2.0055439574565073,
                -2.6526473079922677,
                1.0845454494907338,
                0.6334177877730108,
                -0.06775453866647585
            ]
        },
        {
            "positions": [
                -0.5920649133224419,
                -1.9508916545195039,
                -2.7062123718837756,
                1.0045357736022564,
                0.7243037917818792,
                -0.08872658414570361
            ]
        },
        {
            "positions": [
                -0.6598308215071363,
                -1.8962393515825002,
                -2.7597774357752836,
                0.9245260977137791,
                0.8151897957907477,
                -0.10969862962493138
            ]
        },
        {
            "positions": [
                -0.7324695886308832,
                -1.7958284234815587,
                -2.7330435531687707,
                0.8689360790581386,
                0.9462309557483533,
                -0.10131929820220643
            ]
        },
        {
            "positions": [
                -0.8051083557546299,
                -1.6954174953806174,
                -2.706309670562258,
                0.8133460604024982,
                1.0772721157059588,
                -0.09293996677948149
            ]
        },
        {
            "positions": [
                -0.8777471228783766,
                -1.5950065672796758,
                -2.6795757879557454,
                0.7577560417468577,
                1.2083132756635644,
                -0.08456063535675655
            ]
        },
        {
            "positions": [
                -0.9503858900021235,
                -1.4945956391787345,
                -2.6528419053492325,
                0.7021660230912173,
                1.33935443562117,
                -0.07618130393403161
            ]
        },
        {
            "positions": [
                -1.0230246571258703,
                -1.394184711077793,
                -2.6261080227427196,
                0.6465760044355768,
                1.4703955955787755,
                -0.06780197251130667
            ]
        },
        {
            "positions": [
                -1.095663424249617,
                -1.2937737829768516,
                -2.5993741401362067,
                0.5909859857799364,
                1.6014367555363813,
                -0.059422641088581724
            ]
        },
        {
            "positions": [
                -1.168302191373364,
                -1.19336285487591,
                -2.572640257529694,
                0.5353959671242959,
                1.7324779154939869,
                -0.05104330966585678
            ]
        },
        {
            "positions": [
                -1.2409409584971107,
                -1.0929519267749686,
                -2.545906374923181,
                0.4798059484686555,
                1.8635190754515925,
                -0.04266397824313184
            ]
        },
        {
            "positions": [
                -1.3135797256208575,
                -0.9925409986740272,
                -2.5191724923166685,
                0.42421592981301504,
                1.994560235409198,
                -0.0342846468204069
            ]
        },
        {
            "positions": [
                -1.3862184927446042,
                -0.8921300705730857,
                -2.4924386097101556,
                0.36862591115737453,
                2.125601395366804,
                -0.025905315397681955
            ]
        },
        {
            "positions": [
                -1.458857259868351,
                -0.7917191424721444,
                -2.4657047271036427,
                0.31303589250173414,
                2.256642555324409,
                -0.017525983974957013
            ]
        },
        {
            "positions": [
                -1.5314960269920976,
                -0.6913082143712028,
                -2.43897084449713,
                0.25744587384609363,
                2.387683715282015,
                -0.00914665255223207
            ]
        },
        {
            "positions": [
                -1.6041347941158444,
                -0.5908972862702615,
                -2.412236961890617,
                0.20185585519045324,
                2.5187248752396205,
                -0.0007673211295071286
            ]
        },
        {
            "positions": [
                -1.6767735612395915,
                -0.49048635816931996,
                -2.3855030792841045,
                0.14626583653481273,
                2.649766035197226,
                0.0076120102932178135
            ]
        },
        {
            "positions": [
                -1.7494123283633383,
                -0.39007543006837864,
                -2.3587691966775917,
                0.09067581787917234,
                2.7808071951548317,
                0.015991341715942742
            ]
        },
        {
            "positions": [
                -1.8220510954870848,
                -0.2896645019674371,
                -2.332035314071079,
                0.03508579922353183,
                2.9118483551124372,
                0.024370673138667698
            ]
        },
        {
            "positions": [
                -1.7103125819471257,
                -0.3308847515444016,
                -2.237779149014372,
                0.02194819476725042,
                2.8418630677336956,
                -0.030545251992375767
            ]
        },
        {
            "positions": [
                -1.5985740684071668,
                -0.37210500112136613,
                -2.143522983957666,
                0.008810590310969004,
                2.771877780354954,
                -0.08546117712341923
            ]
        },
        {
            "positions": [
                -1.4868355548672076,
                -0.4133252506983307,
                -2.0492668189009593,
                -0.004327014145312412,
                2.7018924929762123,
                -0.1403771022544627
            ]
        },
        {
            "positions": [
                -1.3750970413272485,
                -0.4545455002752952,
                -1.9550106538442529,
                -0.017464618601593825,
                2.6319072055974706,
                -0.19529302738550616
            ]
        },
        {
            "positions": [
                -1.2633585277872896,
                -0.49576574985225974,
                -1.8607544887875465,
                -0.030602223057875244,
                2.5619219182187285,
                -0.2502089525165496
            ]
        },
        {
            "positions": [
                -1.1516200142473303,
                -0.5369859994292243,
                -1.76649832373084,
                -0.04373982751415666,
                2.491936630839987,
                -0.3051248776475931
            ]
        },
        {
            "positions": [
                -1.0398815007073714,
                -0.5782062490061888,
                -1.6722421586741336,
                -0.05687743197043807,
                2.421951343461245,
                -0.36004080277863654
            ]
        },
        {
            "positions": [
                -0.9281429871674123,
                -0.6194264985831534,
                -1.577985993617427,
                -0.07001503642671948,
                2.3519660560825035,
                -0.41495672790968
            ]
        },
        {
            "positions": [
                -0.8164044736274534,
                -0.6606467481601178,
                -1.4837298285607208,
                -0.0831526408830009,
                2.281980768703762,
                -0.46987265304072345
            ]
        },
        {
            "positions": [
                -0.7046659600874943,
                -0.7018669977370824,
                -1.3894736635040141,
                -0.09629024533928232,
                2.21199548132502,
                -0.5247885781717669
            ]
        },
        {
            "positions": [
                -0.5929274465475352,
                -0.7430872473140469,
                -1.295217498447308,
                -0.10942784979556372,
                2.1420101939462786,
                -0.5797045033028103
            ]
        },
        {
            "positions": [
                -0.48118893300757604,
                -0.7843074968910115,
                -1.2009613333906013,
                -0.12256545425184515,
                2.072024906567537,
                -0.6346204284338539
            ]
        },
        {
            "positions": [
                -0.36945041946761714,
                -0.825527746467976,
                -1.1067051683338949,
                -0.13570305870812654,
                2.0020396191887952,
                -0.6895363535648973
            ]
        },
        {
            "positions": [
                -0.257711905927658,
                -0.8667479960449406,
                -1.0124490032771885,
                -0.14884066316440797,
                1.9320543318100536,
                -0.7444522786959408
            ]
        },
        {
            "positions": [
                -0.1459733923876989,
                -0.907968245621905,
                -0.918192838220482,
                -0.16197826762068937,
                1.8620690444313117,
                -0.7993682038269843
            ]
        },
        {
            "positions": [
                -0.03423487884773979,
                -0.9491884951988696,
                -0.8239366731637754,
                -0.1751158720769708,
                1.79208375705257,
                -0.8542841289580277
            ]
        },
        {
            "positions": [
                0.0775036346922191,
                -0.9904087447758341,
                -0.7296805081070692,
                -0.18825347653325222,
                1.7220984696738284,
                -0.9092000540890711
            ]
        },
        {
            "positions": [
                0.189242148232178,
                -1.0316289943527985,
                -0.6354243430503628,
                -0.20139108098953362,
                1.6521131822950867,
                -0.9641159792201146
            ]
        },
        {
            "positions": [
                0.30098066177213734,
                -1.0728492439297632,
                -0.5411681779936561,
                -0.21452868544581508,
                1.5821278949163449,
                -1.0190319043511582
            ]
        },
        {
            "positions": [
                0.41271917531209623,
                -1.1140694935067277,
                -0.4469120129369497,
                -0.22766628990209647,
                1.5121426075376032,
                -1.0739478294822016
            ]
        },
        {
            "positions": [
                0.5244576888520556,
                -1.1552897430836921,
                -0.3526558478802433,
                -0.24080389435837785,
                1.4421573201588616,
                -1.128863754613245
            ]
        },
        {
            "positions": [
                0.6361962023920145,
                -1.1965099926606566,
                -0.2583996828235371,
                -0.25394149881465927,
                1.37217203278012,
                -1.1837796797442883
            ]
        },
        {
            "positions": [
                0.7479347159319738,
                -1.2377302422376215,
                -0.16414351776683,
                -0.2670791032709407,
                1.302186745401378,
                -1.238695604875332
            ]
        },
        {
            "positions": [
                0.8596732294719327,
                -1.278950491814586,
                -0.0698873527101238,
                -0.2802167077272221,
                1.2322014580226364,
                -1.2936115300063755
            ]
        },
        {
            "positions": [
                0.9714117430118916,
                -1.3201707413915504,
                0.02436881234658239,
                -0.29335431218350355,
                1.162216170643895,
                -1.348527455137419
            ]
        },
        {
            "positions": [
                1.0831502565518505,
                -1.361390990968515,
                0.11862497740328903,
                -0.3064919166397849,
                1.0922308832651533,
                -1.4034433802684623
            ]
        },
        {
            "positions": [
                1.1948887700918098,
                -1.4026112405454794,
                0.21288114245999568,
                -0.3196295210960664,
                1.0222455958864114,
                -1.4583593053995059
            ]
        },
        {
            "positions": [
                1.3066272836317687,
                -1.443831490122444,
                0.3071373075167019,
                -0.3327671255523478,
                0.9522603085076697,
                -1.5132752305305492
            ]
        },
        {
            "positions": [
                1.418365797171728,
                -1.4850517396994085,
                0.4013934725734085,
                -0.3459047300086292,
                0.8822750211289279,
                -1.5681911556615926
            ]
        },
        {
            "positions": [
                1.530104310711687,
                -1.526271989276373,
                0.4956496376301147,
                -0.3590423344649106,
                0.8122897337501862,
                -1.6231070807926362
            ]
        },
        {
            "positions": [
                1.6418428242516463,
                -1.5674922388533377,
                0.5899058026868214,
                -0.37217993892119206,
                0.7423044463714445,
                -1.6780230059236798
            ]
        },
        {
            "positions": [
                1.7535813377916052,
                -1.6087124884303021,
                0.684161967743528,
                -0.3853175433774734,
                0.6723191589927029,
                -1.7329389310547232
            ]
        },
        {
            "positions": [
                1.865319851331564,
                -1.6499327380072666,
                0.7784181328002344,
                -0.39845514783375485,
                0.6023338716139612,
                -1.7878548561857666
            ]
        },
        {
            "positions": [
                1.9287926363189083,
                -1.596901045052466,
                0.8654585046828118,
                -0.4300006778449915,
                0.6396731502578317,
                -1.8967795662414644
            ]
        },
        {
            "positions": [
                1.9922654213062523,
                -1.5438693520976654,
                0.9524988765653892,
                -0.46154620785622813,
                0.6770124289017021,
                -2.0057042762971626
            ]
        },
        {
            "positions": [
                2.0557382062935967,
                -1.490837659142865,
                1.0395392484479666,
                -0.4930917378674648,
                0.7143517075455725,
                -2.1146289863528605
            ]
        },
        {
            "positions": [
                2.1192109912809407,
                -1.4378059661880642,
                1.126579620330544,
                -0.5246372678787015,
                0.7516909861894429,
                -2.2235536964085583
            ]
        },
        {
            "positions": [
                2.1826837762682847,
                -1.3847742732332637,
                1.2136199922131214,
                -0.5561827978899381,
                0.7890302648333133,
                -2.332478406464256
            ]
        },
        {
            "positions": [
                2.246156561255629,
                -1.3317425802784633,
                1.3006603640956989,
                -0.5877283279011748,
                0.8263695434771837,
                -2.441403116519954
            ]
        },
        {
            "positions": [
                2.309629346242973,
                -1.2787108873236626,
                1.3877007359782763,
                -0.6192738579124114,
                0.8637088221210542,
                -2.550327826575652
            ]
        },
        {
            "positions": [
                2.3731021312303175,
                -1.225679194368862,
                1.4747411078608537,
                -0.6508193879236481,
                0.9010481007649245,
                -2.65925253663135
            ]
        },
        {
            "positions": [
                2.4365749162176615,
                -1.1726475014140614,
                1.561781479743431,
                -0.6823649179348847,
                0.9383873794087949,
                -2.768177246687048
            ]
        },
        {
            "positions": [
                2.5000477012050055,
                -1.119615808459261,
                1.6488218516260085,
                -0.7139104479461214,
                0.9757266580526653,
                -2.877101956742746
            ]
        },
        {
            "positions": [
                2.56352048619235,
                -1.0665841155044604,
                1.7358622235085859,
                -0.745455977957358,
                1.0130659366965358,
                -2.986026666798444
            ]
        },
        {
            "positions": [
                2.626993271179694,
                -1.0135524225496597,
                1.8229025953911633,
                -0.7770015079685947,
                1.0504052153404062,
                -3.0949513768541417
            ]
        }
    ]
}