{
    "goal": {
        "global_pose": {
            "orientation": {
                "w": -0.00223480608172531,
                "x": 0.0024358444001904467,
                "y": 0.7094548369677653,
                "z": -0.704743149386269
            },
            "position": {
                "x": 0.6205249238014221,
                "y": -0.6371506643295288,
                "z": 0.19426114857196808
            }
        },
        "name": "move_to_magneteinheit_B"
    },
    "id": "RRTstar_move_to_magneteinheit_B_35",
    "joint_names": [
        "shoulder_pan_joint",
        "shoulder_lift_joint",
        "elbow_joint",
        "wrist_1_joint",
        "wrist_2_joint",
        "wrist_3_joint"
    ],
    "metrics": {
        "cart_traj_len": 3.5225449686207173,
        "distance_elbow_joint": 4.492307801509109,
        "distance_shoulder_lift_joint": 0.7705397769201667,
        "distance_shoulder_pan_joint": 2.5227603135557928,
        "distance_wrist_1_joint": 4.472871022601893,
        "distance_wrist_2_joint": 0.549043997731637,
        "distance_wrist_3_joint": 3.1237176926439987,
        "smoothness": 0.19360943642250253,
        "time": 5.066148825000001,
        "traj_len": 3.9913958216346574,
        "weighted_distance": 5.215418584407595
    },
    "planner": "RRTstar",
    "start": {
        "state": {
            "elbow_joint": 2.6216224122426386,
            "shoulder_lift_joint": -1.4174107377796124,
            "shoulder_pan_joint": 0.7066234856936794,
            "wrist_1_joint": 1.9546482284002225,
            "wrist_2_joint": -0.7096286983471962,
            "wrist_3_joint": 0.005740856962016249
        }
    },
    "waypoints": [
        {
            "positions": [
                0.7066234856936794,
                -1.4174107377796124,
                2.6216224122426386,
                1.9546482284002225,
                -0.7096286983471962,
                0.005740856962016249
            ]
        },
        {
            "positions": [
                0.6070238811929491,
                -1.417521032655769,
                2.607343925637114,
                1.9635350158482092,
                -0.7185062291026841,
                -0.11945183856408746
            ]
        },
        {
            "positions": [
                0.5074242766922188,
                -1.4176313275319254,
                2.5930654390315895,
                1.972421803296196,
                -0.727383759858172,
                -0.24464453409019116
            ]
        },
        {
            "positions": [
                0.5306209358672667,
                -1.4221652073700883,
                2.4511141305634063,
                1.8992073385911588,
                -0.7383844545059771,
                -0.36385421595040274
            ]
        },
        {
            "positions": [
                0.5538175950423145,
                -1.4266990872082514,
                2.309162822095223,
                1.8259928738861217,
                -0.7493851491537823,
                -0.4830638978106143
            ]
        },
        {
            "positions": [
                0.5770142542173624,
                -1.4312329670464143,
                2.16721151362704,
                1.7527784091810845,
                -0.7603858438015874,
                -0.602273579670826
            ]
        },
        {
            "positions": [
                0.6002109133924103,
                -1.4357668468845775,
                2.0252602051588573,
                1.6795639444760473,
                -0.7713865384493925,
                -0.7214832615310376
            ]
        },
        {
            "positions": [
                0.6234075725674582,
                -1.4403007267227403,
                1.8833088966906741,
                1.6063494797710103,
                -0.7823872330971976,
                -0.8406929433912491
            ]
        },
        {
            "positions": [
                0.646604231742506,
                -1.4448346065609035,
                1.741357588222491,
                1.533135015065973,
                -0.7933879277450027,
                -0.9599026252514608
            ]
        },
        {
            "positions": [
                0.6698008909175539,
                -1.4493684863990663,
                1.5994062797543078,
                1.4599205503609358,
                -0.8043886223928078,
                -1.0791123071116724
            ]
        },
        {
            "positions": [
                0.6929975500926018,
                -1.4539023662372295,
                1.4574549712861247,
                1.3867060856558986,
                -0.8153893170406129,
                -1.198321988971884
            ]
        },
        {
            "positions": [
                0.7161942092676497,
                -1.4584362460753924,
                1.3155036628179417,
                1.3134916209508616,
                -0.826390011688418,
                -1.3175316708320954
            ]
        },
        {
            "positions": [
                0.7393908684426975,
                -1.4629701259135555,
                1.1735523543497586,
                1.2402771562458244,
                -0.8373907063362231,
                -1.436741352692307
            ]
        },
        {
            "positions": [
                0.7625875276177454,
                -1.4675040057517184,
                1.0316010458815754,
                1.1670626915407873,
                -0.8483914009840282,
                -1.5559510345525185
            ]
        },
        {
            "positions": [
                0.7857841867927933,
                -1.4720378855898815,
                0.8896497374133923,
                1.0938482268357501,
                -0.8593920956318334,
                -1.6751607164127305
            ]
        },
        {
            "positions": [
                0.8089808459678411,
                -1.4765717654280444,
                0.7476984289452093,
                1.0206337621307129,
                -0.8703927902796385,
                -1.7943703982729418
            ]
        },
        {
            "positions": [
                0.8981299352917259,
                -1.4826070582597963,
                0.6305354247019382,
                0.8738286957937,
                -0.8701237642550984,
                -1.8236060571330706
            ]
        },
        {
            "positions": [
                0.9872790246156107,
                -1.4886423510915483,
                0.5133724204586672,
                0.7270236294566872,
                -0.8698547382305584,
                -1.8528417159931994
            ]
        },
        {
            "positions": [
                1.0764281139394956,
                -1.4946776439233005,
                0.3962094162153961,
                0.5802185631196746,
                -0.8695857122060183,
                -1.8820773748533282
            ]
        },
        {
            "positions": [
                1.1655772032633802,
                -1.5007129367550525,
                0.27904641197212504,
                0.4334134967826616,
                -0.8693166861814783,
                -1.9113130337134572
            ]
        },
        {
            "positions": [
                1.2547262925872649,
                -1.5067482295868044,
                0.161883407728854,
                0.2866084304456489,
                -0.8690476601569384,
                -1.940548692573586
            ]
        },
        {
            "positions": [
                1.3438753819111497,
                -1.5127835224185564,
                0.04472040348558293,
                0.13980336410863614,
                -0.8687786341323983,
                -1.9697843514337148
            ]
        },
        {
            "positions": [
                1.4330244712350346,
                -1.5188188152503084,
                -0.07244260075768805,
                -0.007001702228376594,
                -0.8685096081078583,
                -1.9990200102938436
            ]
        },
        {
            "positions": [
                1.5221735605589193,
                -1.5248541080820606,
                -0.18960560500095924,
                -0.15380676856538966,
                -0.8682405820833182,
                -2.0282556691539724
            ]
        },
        {
            "positions": [
                1.611322649882804,
                -1.5308894009138125,
                -0.30676860924423033,
                -0.3006118349024023,
                -0.8679715560587782,
                -2.0574913280141014
            ]
        },
        {
            "positions": [
                1.7004717392066888,
                -1.5369246937455645,
                -0.4239316134875013,
                -0.44741690123941513,
                -0.8677025300342381,
                -2.08672698687423
            ]
        },
        {
            "positions": [
                1.7896208285305737,
                -1.5429599865773165,
                -0.5410946177307725,
                -0.594221967576428,
                -0.8674335040096981,
                -2.115962645734359
            ]
        },
        {
            "positions": [
                1.8787699178544583,
                -1.5489952794090684,
                -0.6582576219740435,
                -0.7410270339134406,
                -0.867164477985158,
                -2.1451983045944876
            ]
        },
        {
            "positions": [
                1.9679190071783432,
                -1.5550305722408206,
                -0.7754206262173144,
                -0.8878321002504537,
                -0.866895451960618,
                -2.1744339634546166
            ]
        },
        {
            "positions": [
                2.0570680965022277,
                -1.5610658650725726,
                -0.8925836304605854,
                -1.034637166587466,
                -0.866626425936078,
                -2.203669622314745
            ]
        },
        {
            "positions": [
                2.1462171858261128,
                -1.5671011579043246,
                -1.0097466347038566,
                -1.181442232924479,
                -0.8663573999115379,
                -2.232905281174874
            ]
        },
        {
            "positions": [
                2.2353662751499974,
                -1.5731364507360766,
                -1.1269096389471278,
                -1.3282472992614922,
                -0.866088373886998,
                -2.262140940035003
            ]
        },
        {
            "positions": [
                2.324515364473882,
                -1.5791717435678285,
                -1.2440726431903988,
                -1.4750523655985046,
                -0.865819347862458,
                -2.291376598895132
            ]
        },
        {
            "positions": [
                2.413664453797767,
                -1.5852070363995807,
                -1.36123564743367,
                -1.6218574319355175,
                -0.8655503218379179,
                -2.320612257755261
            ]
        },
        {
            "positions": [
                2.5028135431216514,
                -1.5912423292313327,
                -1.4783986516769407,
                -1.7686624982725303,
                -0.8652812958133779,
                -2.3498479166153894
            ]
        },
        {
            "positions": [
                2.5919626324455365,
                -1.5972776220630847,
                -1.595561655920212,
                -1.915467564609543,
                -0.8650122697888378,
                -2.3790835754755184
            ]
        },
        {
            "positions": [
                2.6227992824228465,
                -1.6448583131709626,
                -1.628055884848908,
                -2.0269610630044532,
                -0.8336626073749287,
                -2.4423036136206377
            ]
        },
        {
            "positions": [
                2.653635932400156,
                -1.6924390042788409,
                -1.660550113777604,
                -2.1384545613993637,
                -0.8023129449610196,
                -2.505523651765757
            ]
        },
        {
            "positions": [
                2.684472582377466,
                -1.7400196953867189,
                -1.6930443427063002,
                -2.2499480597942743,
                -0.7709632825471104,
                -2.5687436899108764
            ]
        },
        {
            "positions": [
                2.715309232354776,
                -1.787600386494597,
                -1.7255385716349962,
                -2.3614415581891848,
                -0.7396136201332013,
                -2.6319637280559958
            ]
        },
        {
            "positions": [
                2.746145882332086,
                -1.835181077602475,
                -1.7580328005636923,
                -2.4729350565840953,
                -0.7082639577192922,
                -2.695183766201115
            ]
        },
        {
            "positions": [
                2.7249360076034694,
                -1.9233734368768012,
                -1.7298696533879983,
                -2.475370203540502,
                -0.65172618940958,
                -2.800882033571332
            ]
        },
        {
            "positions": [
                2.7037261328748534,
                -2.0115657961511273,
                -1.701706506212304,
                -2.477805350496909,
                -0.5951884210998679,
                -2.9065803009415485
            ]
        },
        {
            "positions": [
                2.6825162581462374,
                -2.099758155425453,
                -1.6735433590366098,
                -2.480240497453316,
                -0.5386506527901558,
                -3.012278568311765
            ]
        },
        {
            "positions": [
                2.661306383417621,
                -2.187950514699779,
                -1.6453802118609158,
                -2.482675644409723,
                -0.4821128844804437,
                -3.117976835681982
            ]
        }
    ]
}