{
    "goal": {
        "global_pose": {
            "orientation": {
                "w": -0.4816463035849501,
                "x": 0.5182115481033762,
                "y": 0.4908360881923453,
                "z": -0.5084816262002911
            },
            "position": {
                "x": -0.8240239810943604,
                "y": -0.300875300988555,
                "z": 0.16403168439865112
            }
        },
        "name": "move_to_storage_C"
    },
    "id": "RRTstar_move_to_storage_C_133",
    "joint_names": [
        "shoulder_pan_joint",
        "shoulder_lift_joint",
        "elbow_joint",
        "wrist_1_joint",
        "wrist_2_joint",
        "wrist_3_joint"
    ],
    "metrics": {
        "cart_traj_len": 0.5768584477006191,
        "distance_elbow_joint": 0.2546523356076733,
        "distance_shoulder_lift_joint": 0.18975594306646426,
        "distance_shoulder_pan_joint": 0.49509405634089054,
        "distance_wrist_1_joint": 0.06507773051797772,
        "distance_wrist_2_joint": 1.0678006175286354,
        "distance_wrist_3_joint": 0.0642977971274088,
        "smoothness": 2.5376526478085547e-16,
        "time": 5.005886497,
        "traj_len": 1.4617381708736519,
        "weighted_distance": 1.8434078285855466
    },
    "planner": "RRTstar",
    "start": {
        "state": {
            "elbow_joint": 2.010868314990456,
            "shoulder_lift_joint": -1.1634956873337592,
            "shoulder_pan_joint": -2.4736205022346125,
            "wrist_1_joint": -0.8367026794202681,
            "wrist_2_joint": 0.6746043897044499,
            "wrist_3_joint": -3.1496632123970403
        }
    },
    "waypoints": [
        {
            "positions": [
                -2.4736205022346125,
                -1.1634956873337592,
                2.010868314990456,
                -0.8367026794202681,
                0.6746043897044499,
                -3.1496632123970403
            ]
        },
        {
            "positions": [
                -2.5561361782914274,
                -1.1318696968226818,
                1.9684262590558437,
                -0.8258563910006052,
                0.8525711592925558,
                -3.1389469128758054
            ]
        },
        {
            "positions": [
                -2.6386518543482427,
                -1.1002437063116044,
                1.9259842031212313,
                -0.8150101025809422,
                1.0305379288806618,
                -3.1282306133545705
            ]
        },
        {
            "positions": [
                -2.721167530405058,
                -1.068617715800527,
                1.8835421471866192,
                -0.8041638141612792,
                1.2085046984687677,
                -3.117514313833336
            ]
        },
        {
            "positions": [
                -2.803683206461873,
                -1.0369917252894496,
                1.841100091252007,
                -0.7933175257416163,
                1.3864714680568735,
                -3.1067980143121012
            ]
        },
        {
            "positions": [
                -2.8861988825186877,
                -1.0053657347783722,
                1.7986580353173947,
                -0.7824712373219533,
                1.5644382376449795,
                -3.0960817147908664
            ]
        },
        {
            "positions": [
                -2.968714558575503,
                -0.9737397442672949,
                1.7562159793827825,
                -0.7716249489022904,
                1.7424050072330852,
                -3.0853654152696315
            ]
        }
    ]
}