{
    "goal": {
        "global_pose": {
            "orientation": {
                "w": 0.7031023480610252,
                "x": -0.7110244013736278,
                "y": 0.0077485991402295624,
                "z": 0.005598929693374583
            },
            "position": {
                "x": -0.8841497679147869,
                "y": 0.44412534475326537,
                "z": 0.3711530566215515
            }
        },
        "name": "move_to_auspresseinheit_D"
    },
    "id": "RRTstar_move_to_auspresseinheit_D_131",
    "joint_names": [
        "shoulder_pan_joint",
        "shoulder_lift_joint",
        "elbow_joint",
        "wrist_1_joint",
        "wrist_2_joint",
        "wrist_3_joint"
    ],
    "metrics": {
        "cart_traj_len": 0.34304630960211135,
        "distance_elbow_joint": 0.631740063356844,
        "distance_shoulder_lift_joint": 0.1170892103179697,
        "distance_shoulder_pan_joint": 0.1334334675001822,
        "distance_wrist_1_joint": 0.5048214152920423,
        "distance_wrist_2_joint": 1.4447499052834283,
        "distance_wrist_3_joint": 0.01678656651163024,
        "smoothness": 5.921189480296099e-16,
        "time": 5.000629583,
        "traj_len": 1.6877857175192876,
        "weighted_distance": 2.198127630930658
    },
    "planner": "RRTstar",
    "start": {
        "state": {
            "elbow_joint": -1.8275523626775212,
            "shoulder_lift_joint": -2.126789852344167,
            "shoulder_pan_joint": -0.03513704404078235,
            "wrist_1_joint": -2.347782403156801,
            "wrist_2_joint": -1.6058999987535132,
            "wrist_3_joint": -3.0880379163319196
        }
    },
    "waypoints": [
        {
            "positions": [
                -0.03513704404078235,
                -2.126789852344167,
                -1.8275523626775212,
                -2.347782403156801,
                -1.6058999987535132,
                -3.0880379163319196
            ]
        },
        {
            "positions": [
                -0.051816227478305124,
                -2.1414260036339132,
                -1.7485848547579157,
                -2.410885080068306,
                -1.4253062605930846,
                -3.0901362371458734
            ]
        },
        {
            "positions": [
                -0.06849541091582789,
                -2.156062154923659,
                -1.6696173468383102,
                -2.4739877569798114,
                -1.244712522432656,
                -3.092234557959827
            ]
        },
        {
            "positions": [
                -0.08517459435335067,
                -2.1706983062134055,
                -1.5906498389187047,
                -2.5370904338913167,
                -1.0641187842722277,
                -3.094332878773781
            ]
        },
        {
            "positions": [
                -0.10185377779087346,
                -2.185334457503152,
                -1.5116823309990992,
                -2.600193110802822,
                -0.883525046111799,
                -3.0964311995877347
            ]
        },
        {
            "positions": [
                -0.11853296122839624,
                -2.199970608792898,
                -1.4327148230794937,
                -2.6632957877143273,
                -0.7029313079513705,
                -3.0985295204016885
            ]
        },
        {
            "positions": [
                -0.135212144665919,
                -2.2146067600826442,
                -1.3537473151598882,
                -2.7263984646258326,
                -0.522337569790942,
                -3.1006278412156423
            ]
        },
        {
            "positions": [
                -0.15189132810344178,
                -2.22924291137239,
                -1.2747798072402827,
                -2.789501141537338,
                -0.3417438316305135,
                -3.102726162029596
            ]
        },
        {
            "positions": [
                -0.16857051154096456,
                -2.2438790626621365,
                -1.1958122993206772,
                -2.852603818448843,
                -0.161150093470085,
                -3.10482448284355
            ]
        }
    ]
}