{
    "goal": {
        "global_pose": {
            "orientation": {
                "w": 0.7047431468963623,
                "x": -0.7094548344612122,
                "y": 0.0024358443915843964,
                "z": -0.0022348060738295317
            },
            "position": {
                "x": 0.6094750761985779,
                "y": 0.3671506643295288,
                "z": 0.19426114857196808
            }
        },
        "name": "move_to_magneteinheit_A"
    },
    "id": "RRTstar_move_to_magneteinheit_A_113",
    "joint_names": [
        "shoulder_pan_joint",
        "shoulder_lift_joint",
        "elbow_joint",
        "wrist_1_joint",
        "wrist_2_joint",
        "wrist_3_joint"
    ],
    "metrics": {
        "cart_traj_len": 2.9728305683124048,
        "distance_elbow_joint": 3.915044916457078,
        "distance_shoulder_lift_joint": 0.5934886637765985,
        "distance_shoulder_pan_joint": 2.9774999910466375,
        "distance_wrist_1_joint": 3.4798238127587267,
        "distance_wrist_2_joint": 1.4464537312656442,
        "distance_wrist_3_joint": 0.8216048622654648,
        "smoothness": 0.10286473940853166,
        "time": 5.04323624,
        "traj_len": 3.6378449633773773,
        "weighted_distance": 4.450101487171439
    },
    "planner": "RRTstar",
    "start": {
        "state": {
            "elbow_joint": -1.9196185241190666,
            "shoulder_lift_joint": -1.2443396400964142,
            "shoulder_pan_joint": 2.6996025414629847,
            "wrist_1_joint": -1.5485510000780065,
            "wrist_2_joint": -1.5709468930060704,
            "wrist_3_joint": 0.4420197071253992
        }
    },
    "waypoints": [
        {
            "positions": [
                2.6996025414629847,
                -1.2443396400964142,
                -1.9196185241190666,
                -1.5485510000780065,
                -1.5709468930060704,
                0.4420197071253992
            ]
        },
        {
            "positions": [
                2.5673028559465867,
                -1.227337164920118,
                -1.8427068199703056,
                -1.4357450976221622,
                -1.5489461740020098,
                0.4218382318141179
            ]
        },
        {
            "positions": [
                2.4350031704301887,
                -1.2103346897438216,
                -1.7657951158215446,
                -1.322939195166318,
                -1.5269454549979493,
                0.4016567565028366
            ]
        },
        {
            "positions": [
                2.302703484913791,
                -1.1933322145675254,
                -1.6888834116727836,
                -1.2101332927104738,
                -1.5049447359938888,
                0.3814752811915554
            ]
        },
        {
            "positions": [
                2.170403799397393,
                -1.176329739391229,
                -1.6119717075240223,
                -1.0973273902546294,
                -1.4829440169898283,
                0.3612938058802741
            ]
        },
        {
            "positions": [
                2.038104113880995,
                -1.1593272642149328,
                -1.5350600033752613,
                -0.9845214877987853,
                -1.4609432979857677,
                0.3411123305689928
            ]
        },
        {
            "positions": [
                1.905804428364597,
                -1.1423247890386363,
                -1.4581482992265002,
                -0.8717155853429411,
                -1.4389425789817072,
                0.3209308552577116
            ]
        },
        {
            "positions": [
                1.7735047428481991,
                -1.12532231386234,
                -1.3812365950777392,
                -0.7589096828870969,
                -1.4169418599776467,
                0.3007493799464303
            ]
        },
        {
            "positions": [
                1.641205057331801,
                -1.1083198386860438,
                -1.304324890928978,
                -0.6461037804312526,
                -1.3949411409735861,
                0.280567904635149
            ]
        },
        {
            "positions": [
                1.508905371815403,
                -1.0913173635097475,
                -1.227413186780217,
                -0.5332978779754083,
                -1.3729404219695256,
                0.26038642932386774
            ]
        },
        {
            "positions": [
                1.3766056862990053,
                -1.0743148883334512,
                -1.150501482631456,
                -0.4204919755195642,
                -1.3509397029654653,
                0.24020495401258649
            ]
        },
        {
            "positions": [
                1.2443060007826072,
                -1.057312413157155,
                -1.0735897784826949,
                -0.30768607306371987,
                -1.3289389839614048,
                0.2200234787013052
            ]
        },
        {
            "positions": [
                1.1120063152662094,
                -1.0403099379808587,
                -0.996678074333934,
                -0.19488017060787577,
                -1.3069382649573442,
                0.19984200339002395
            ]
        },
        {
            "positions": [
                0.9797066297498114,
                -1.0233074628045624,
                -0.9197663701851728,
                -0.08207426815203145,
                -1.2849375459532837,
                0.17966052807874267
            ]
        },
        {
            "positions": [
                0.8474069442334136,
                -1.0063049876282661,
                -0.8428546660364118,
                0.03073163430381265,
                -1.2629368269492232,
                0.15947905276746144
            ]
        },
        {
            "positions": [
                0.7151072587170155,
                -0.9893025124519698,
                -0.7659429618876508,
                0.14353753675965697,
                -1.2409361079451626,
                0.13929757745618015
            ]
        },
        {
            "positions": [
                0.5828075732006175,
                -0.9723000372756734,
                -0.6890312577388895,
                0.2563434392155013,
                -1.218935388941102,
                0.11911610214489887
            ]
        },
        {
            "positions": [
                0.4505078876842199,
                -0.9552975620993771,
                -0.6121195535901287,
                0.3691493416713454,
                -1.1969346699370416,
                0.09893462683361759
            ]
        },
        {
            "positions": [
                0.3182082021678214,
                -0.9382950869230808,
                -0.5352078494413675,
                0.48195524412718993,
                -1.174933950932981,
                0.0787531515223363
            ]
        },
        {
            "positions": [
                0.18590851665142383,
                -0.9212926117467846,
                -0.4582961452926064,
                0.5947611465830336,
                -1.1529332319289205,
                0.05857167621105508
            ]
        },
        {
            "positions": [
                0.0536088311350256,
                -0.9042901365704883,
                -0.3813844411438454,
                0.7075670490388779,
                -1.13093251292486,
                0.03839020089977382
            ]
        },
        {
            "positions": [
                0.04269091199993756,
                -0.9095800735949815,
                -0.20148571720130323,
                0.8002223300530545,
                -1.0525595564612886,
                0.019254668127750535
            ]
        },
        {
            "positions": [
                0.03177299286484953,
                -0.9148700106194747,
                -0.021586993258761067,
                0.8928776110672312,
                -0.9741865999977173,
                0.00011913535572725259
            ]
        },
        {
            "positions": [
                0.020855073729761496,
                -0.9201599476439679,
                0.15831173068378113,
                0.9855328920814079,
                -0.8958136435341459,
                -0.01901639741629603
            ]
        },
        {
            "positions": [
                0.009937154594673467,
                -0.9254498846684611,
                0.33821045462632326,
                1.0781881730955845,
                -0.8174406870705747,
                -0.03815193018831931
            ]
        },
        {
            "positions": [
                -0.0009807645404145762,
                -0.9307398216929543,
                0.5181091785688655,
                1.1708434541097614,
                -0.7390677306070033,
                -0.0572874629603426
            ]
        },
        {
            "positions": [
                -0.011898683675502605,
                -0.9360297587174475,
                0.6980079025114077,
                1.263498735123938,
                -0.660694774143432,
                -0.07642299573236588
            ]
        },
        {
            "positions": [
                -0.02281660281059064,
                -0.9413196957419407,
                0.8779066264539499,
                1.3561540161381147,
                -0.5823218176798607,
                -0.09555852850438917
            ]
        },
        {
            "positions": [
                -0.033734521945678664,
                -0.946609632766434,
                1.057805350396492,
                1.4488092971522912,
                -0.5039488612162895,
                -0.11469406127641243
            ]
        },
        {
            "positions": [
                -0.044652441080766714,
                -0.9518995697909272,
                1.2377040743390342,
                1.541464578166468,
                -0.4255759047527181,
                -0.13382959404843572
            ]
        },
        {
            "positions": [
                -0.05557036021585475,
                -0.9571895068154204,
                1.4176027982815764,
                1.6341198591806447,
                -0.34720294828914666,
                -0.152965126820459
            ]
        },
        {
            "positions": [
                -0.06648827935094277,
                -0.9624794438399136,
                1.5975015222241185,
                1.7267751401948213,
                -0.26882999182557543,
                -0.17210065959248227
            ]
        },
        {
            "positions": [
                -0.07740619848603081,
                -0.9677693808644068,
                1.777400246166661,
                1.819430421208998,
                -0.19045703536200403,
                -0.19123619236450556
            ]
        },
        {
            "positions": [
                -0.010575781453490196,
                -0.9044494088788221,
                1.850075628223778,
                1.8567112183662386,
                -0.16846907748814466,
                -0.12845320477265224
            ]
        },
        {
            "positions": [
                0.056254635579050416,
                -0.8411294368932374,
                1.922751010280895,
                1.8939920155234795,
                -0.1464811196142853,
                -0.0656702171807989
            ]
        },
        {
            "positions": [
                0.12308505261159103,
                -0.7778094649076527,
                1.995426392338012,
                1.9312728126807202,
                -0.12449316174042595,
                -0.002887229588945541
            ]
        }
    ]
}