{
    "goal": {
        "global_pose": {
            "orientation": {
                "w": 0.5084816262002911,
                "x": -0.4908360881923452,
                "y": 0.5182115481033761,
                "z": -0.48164630358495003
            },
            "position": {
                "x": 0.5540239810943604,
                "y": -0.46912469901144505,
                "z": 0.16403168439865112
            }
        },
        "name": "move_to_storage_B"
    },
    "id": "RRTstar_move_to_storage_B_144",
    "joint_names": [
        "shoulder_pan_joint",
        "shoulder_lift_joint",
        "elbow_joint",
        "wrist_1_joint",
        "wrist_2_joint",
        "wrist_3_joint"
    ],
    "metrics": {
        "cart_traj_len": 0.8801003483606706,
        "distance_elbow_joint": 0.34836457127416987,
        "distance_shoulder_lift_joint": 0.4587883183825978,
        "distance_shoulder_pan_joint": 0.7754048402407173,
        "distance_wrist_1_joint": 2.978285955451884,
        "distance_wrist_2_joint": 2.7019995704717417,
        "distance_wrist_3_joint": 3.1446540947606247,
        "smoothness": 0.0813359501837267,
        "time": 5.0211803470000005,
        "traj_len": 3.2260653047608523,
        "weighted_distance": 4.7304430094893455
    },
    "planner": "RRTstar",
    "start": {
        "state": {
            "elbow_joint": 1.664937868594044,
            "shoulder_lift_joint": -0.661644460510453,
            "shoulder_pan_joint": -0.9139846352900073,
            "wrist_1_joint": 2.146753192139373,
            "wrist_2_joint": -2.2341966793290973,
            "wrist_3_joint": 0.005466555786416001
        }
    },
    "waypoints": [
        {
            "positions": [
                -0.9139846352900073,
                -0.661644460510453,
                1.664937868594044,
                2.146753192139373,
                -2.2341966793290973,
                0.005466555786416001
            ]
        },
        {
            "positions": [
                -0.8869802587938115,
                -0.6830673132402643,
                1.6796782909841073,
                2.0586145594831513,
                -2.1740419321005264,
                -0.15040634656847787
            ]
        },
        {
            "positions": [
                -0.8599758822976156,
                -0.7044901659700755,
                1.6944187133741708,
                1.9704759268269298,
                -2.113887184871956,
                -0.3062792489233717
            ]
        },
        {
            "positions": [
                -0.8329715058014198,
                -0.7259130186998868,
                1.7091591357642342,
                1.8823372941707082,
                -2.053732437643385,
                -0.46215215127826553
            ]
        },
        {
            "positions": [
                -0.805967129305224,
                -0.747335871429698,
                1.7238995581542975,
                1.7941986615144865,
                -1.9935776904148144,
                -0.6180250536331595
            ]
        },
        {
            "positions": [
                -0.7789627528090282,
                -0.7687587241595093,
                1.738639980544361,
                1.7060600288582646,
                -1.9334229431862437,
                -0.7738979559880533
            ]
        },
        {
            "positions": [
                -0.7519583763128324,
                -0.7901815768893206,
                1.7533804029344244,
                1.6179213962020431,
                -1.8732681959576731,
                -0.9297708583429471
            ]
        },
        {
            "positions": [
                -0.7249539998166364,
                -0.8116044296191318,
                1.768120825324488,
                1.5297827635458212,
                -1.8131134487291023,
                -1.085643760697841
            ]
        },
        {
            "positions": [
                -0.6979496233204406,
                -0.8330272823489431,
                1.7828612477145513,
                1.4416441308895995,
                -1.7529587015005315,
                -1.241516663052735
            ]
        },
        {
            "positions": [
                -0.6709452468242447,
                -0.8544501350787543,
                1.7976016701046147,
                1.3535054982333778,
                -1.6928039542719608,
                -1.397389565407629
            ]
        },
        {
            "positions": [
                -0.6439408703280489,
                -0.8758729878085656,
                1.8123420924946783,
                1.2653668655771562,
                -1.6326492070433902,
                -1.5532624677625226
            ]
        },
        {
            "positions": [
                -0.6169364938318531,
                -0.8972958405383769,
                1.8270825148847416,
                1.1772282329209345,
                -1.5724944598148194,
                -1.7091353701174166
            ]
        },
        {
            "positions": [
                -0.6450751231720039,
                -0.9104215427945341,
                1.8380366281190634,
                1.0590658213777906,
                -1.4524769685820274,
                -1.793256085932522
            ]
        },
        {
            "positions": [
                -0.6732137525121547,
                -0.9235472450506914,
                1.8489907413533855,
                0.9409034098346468,
                -1.3324594773492353,
                -1.8773768017476273
            ]
        },
        {
            "positions": [
                -0.7013523818523054,
                -0.9366729473068487,
                1.8599448545877073,
                0.8227409982915029,
                -1.2124419861164433,
                -1.9614975175627327
            ]
        },
        {
            "positions": [
                -0.7294910111924562,
                -0.949798649563006,
                1.8708989678220291,
                0.7045785867483592,
                -1.0924244948836515,
                -2.045618233377838
            ]
        },
        {
            "positions": [
                -0.757629640532607,
                -0.9629243518191634,
                1.881853081056351,
                0.5864161752052153,
                -0.9724070036508594,
                -2.1297389491929435
            ]
        },
        {
            "positions": [
                -0.7857682698727577,
                -0.9760500540753206,
                1.892807194290673,
                0.4682537636620714,
                -0.8523895124180674,
                -2.213859665008049
            ]
        },
        {
            "positions": [
                -0.8139068992129085,
                -0.9891757563314779,
                1.9037613075249948,
                0.3500913521189277,
                -0.7323720211852756,
                -2.2979803808231543
            ]
        },
        {
            "positions": [
                -0.8420455285530593,
                -1.002301458587635,
                1.9147154207593167,
                0.23192894057578384,
                -0.6123545299524835,
                -2.3821010966382596
            ]
        },
        {
            "positions": [
                -0.8701841578932101,
                -1.0154271608437926,
                1.9256695339936387,
                0.11376652903263995,
                -0.4923370387196915,
                -2.466221812453365
            ]
        },
        {
            "positions": [
                -0.8983227872333608,
                -1.0285528630999499,
                1.9366236472279605,
                -0.0043958825105039345,
                -0.37231954748689944,
                -2.550342528268471
            ]
        },
        {
            "positions": [
                -0.9264614165735117,
                -1.0416785653561071,
                1.9475777604622824,
                -0.12255829405364782,
                -0.2523020562541074,
                -2.6344632440835762
            ]
        },
        {
            "positions": [
                -0.9546000459136624,
                -1.0548042676122644,
                1.9585318736966044,
                -0.2407207055967917,
                -0.13228456502131536,
                -2.7185839598986816
            ]
        },
        {
            "positions": [
                -0.9827386752538132,
                -1.0679299698684217,
                1.9694859869309262,
                -0.35888311713993515,
                -0.012267073788523764,
                -2.8027046757137866
            ]
        },
        {
            "positions": [
                -1.0108773045939639,
                -1.081055672124579,
                1.980440100165248,
                -0.47704552868307903,
                0.10775041744426828,
                -2.886825391528892
            ]
        },
        {
            "positions": [
                -1.0390159339341147,
                -1.0941813743807363,
                1.99139421339957,
                -0.5952079402262229,
                0.22776790867706032,
                -2.9709461073439978
            ]
        },
        {
            "positions": [
                -1.0671545632742654,
                -1.1073070766368935,
                2.002348326633892,
                -0.7133703517693668,
                0.34778539990985236,
                -3.055066823159103
            ]
        },
        {
            "positions": [
                -1.0952931926144163,
                -1.1204327788930508,
                2.0133024398682138,
                -0.8315327633125106,
                0.4678028911426444,
                -3.1391875389742085
            ]
        }
    ]
}