{
    "goal": {
        "global_pose": {
            "orientation": {
                "w": -0.4816463035849501,
                "x": 0.5182115481033762,
                "y": 0.4908360881923453,
                "z": -0.5084816262002911
            },
            "position": {
                "x": -0.8240239810943604,
                "y": 0.19912469901144506,
                "z": 0.16403168439865112
            }
        },
        "name": "move_to_storage_D"
    },
    "id": "RRTstar_move_to_storage_D_46",
    "joint_names": [
        "shoulder_pan_joint",
        "shoulder_lift_joint",
        "elbow_joint",
        "wrist_1_joint",
        "wrist_2_joint",
        "wrist_3_joint"
    ],
    "metrics": {
        "cart_traj_len": 0.6234707621721337,
        "distance_elbow_joint": 0.5555567785533371,
        "distance_shoulder_lift_joint": 0.15270786483968157,
        "distance_shoulder_pan_joint": 0.4037400650125755,
        "distance_wrist_1_joint": 3.8254735569836713,
        "distance_wrist_2_joint": 1.7897667932702783,
        "distance_wrist_3_joint": 3.1203281658751143,
        "smoothness": 0.021345814793773444,
        "time": 5.015095595,
        "traj_len": 3.13808432400002,
        "weighted_distance": 4.658698306022707
    },
    "planner": "RRTstar",
    "start": {
        "state": {
            "elbow_joint": -2.384821988534728,
            "shoulder_lift_joint": -2.2788054721415256,
            "shoulder_pan_joint": -0.1854694642142757,
            "wrist_1_joint": 1.4845938289331202,
            "wrist_2_joint": 0.17898776772866878,
            "wrist_3_joint": 0.037105688729662994
        }
    },
    "waypoints": [
        {
            "positions": [
                -0.1854694642142757,
                -2.2788054721415256,
                -2.384821988534728,
                1.4845938289331202,
                0.17898776772866878,
                0.037105688729662994
            ]
        },
        {
            "positions": [
                -0.14593100770822706,
                -2.2661094895586142,
                -2.35964064123212,
                1.3895774770177793,
                0.05324444958080232,
                -0.024096870307213664
            ]
        },
        {
            "positions": [
                -0.1063925512021784,
                -2.253413506975703,
                -2.334459293929512,
                1.2945611251024385,
                -0.07249886856706414,
                -0.08529942934409032
            ]
        },
        {
            "positions": [
                -0.06685409469612975,
                -2.2407175243927915,
                -2.309277946626904,
                1.1995447731870976,
                -0.19824218671493063,
                -0.14650198838096698
            ]
        },
        {
            "positions": [
                -0.027315638190081093,
                -2.22802154180988,
                -2.2840965993242968,
                1.1045284212717568,
                -0.3239855048627971,
                -0.20770454741784364
            ]
        },
        {
            "positions": [
                0.012222818315967582,
                -2.2153255592269687,
                -2.258915252021689,
                1.0095120693564157,
                -0.44972882301066364,
                -0.26890710645472027
            ]
        },
        {
            "positions": [
                0.0517612748220162,
                -2.2026295766440573,
                -2.233733904719081,
                0.9144957174410749,
                -0.5754721411585301,
                -0.3301096654915969
            ]
        },
        {
            "positions": [
                0.09129973132806489,
                -2.189933594061146,
                -2.208552557416473,
                0.8194793655257341,
                -0.7012154593063966,
                -0.3913122245284736
            ]
        },
        {
            "positions": [
                0.08461705398752623,
                -2.1865738052843406,
                -2.1885900654462054,
                0.6531446763901401,
                -0.7490872259503552,
                -0.5329917115083145
            ]
        },
        {
            "positions": [
                0.07793437664698755,
                -2.1832140165075353,
                -2.168627573475938,
                0.4868099872545461,
                -0.7969589925943137,
                -0.6746711984881555
            ]
        },
        {
            "positions": [
                0.07125169930644888,
                -2.17985422773073,
                -2.1486650815056705,
                0.3204752981189521,
                -0.8448307592382722,
                -0.8163506854679963
            ]
        },
        {
            "positions": [
                0.0645690219659102,
                -2.1764944389539247,
                -2.1287025895354033,
                0.15414060898335813,
                -0.8927025258822309,
                -0.9580301724478373
            ]
        },
        {
            "positions": [
                0.05788634462537154,
                -2.173134650177119,
                -2.1087400975651356,
                -0.012194080152235887,
                -0.9405742925261894,
                -1.099709659427678
            ]
        },
        {
            "positions": [
                0.05120366728483287,
                -2.1697748614003136,
                -2.0887776055948684,
                -0.1785287692878299,
                -0.9884460591701479,
                -1.241389146407519
            ]
        },
        {
            "positions": [
                0.044520989944294195,
                -2.1664150726235083,
                -2.0688151136246007,
                -0.3448634584234239,
                -1.0363178258141066,
                -1.38306863338736
            ]
        },
        {
            "positions": [
                0.037838312603755524,
                -2.163055283846703,
                -2.048852621654333,
                -0.5111981475590178,
                -1.0841895924580651,
                -1.5247481203672009
            ]
        },
        {
            "positions": [
                0.031155635263216852,
                -2.1596954950698977,
                -2.028890129684066,
                -0.6775328366946117,
                -1.1320613591020237,
                -1.6664276073470417
            ]
        },
        {
            "positions": [
                0.024472957922678187,
                -2.1563357062930923,
                -2.008927637713798,
                -0.8438675258302059,
                -1.1799331257459822,
                -1.8081070943268829
            ]
        },
        {
            "positions": [
                0.01779028058213951,
                -2.152975917516287,
                -1.9889651457435307,
                -1.0102022149657999,
                -1.227804892389941,
                -1.9497865813067237
            ]
        },
        {
            "positions": [
                0.011107603241600844,
                -2.1496161287394817,
                -1.9690026537732632,
                -1.1765369041013938,
                -1.2756766590338993,
                -2.0914660682865645
            ]
        },
        {
            "positions": [
                0.0044249259010621655,
                -2.1462563399626764,
                -1.9490401618029958,
                -1.3428715932369881,
                -1.323548425677858,
                -2.2331455552664057
            ]
        },
        {
            "positions": [
                -0.002257751439476499,
                -2.142896551185871,
                -1.9290776698327283,
                -1.509206282372582,
                -1.3714201923218163,
                -2.3748250422462465
            ]
        },
        {
            "positions": [
                -0.008940428780015178,
                -2.1395367624090653,
                -1.9091151778624607,
                -1.675540971508176,
                -1.419291958965775,
                -2.5165045292260877
            ]
        },
        {
            "positions": [
                -0.015623106120553842,
                -2.13617697363226,
                -1.8891526858921934,
                -1.8418756606437698,
                -1.4671637256097334,
                -2.6581840162059285
            ]
        },
        {
            "positions": [
                -0.02230578346109252,
                -2.1328171848554547,
                -1.8691901939219258,
                -2.008210349779364,
                -1.5150354922536922,
                -2.7998635031857693
            ]
        },
        {
            "positions": [
                -0.028988460801631186,
                -2.1294573960786494,
                -1.8492277019516583,
                -2.1745450389149577,
                -1.5629072588976505,
                -2.94154299016561
            ]
        },
        {
            "positions": [
                -0.03567113814216986,
                -2.126097607301844,
                -1.8292652099813909,
                -2.340879728050552,
                -1.6107790255416092,
                -3.0832224771454513
            ]
        }
    ]
}