{
    "goal": {
        "global_pose": {
            "orientation": {
                "w": -0.4816463035849501,
                "x": 0.5182115481033762,
                "y": 0.4908360881923453,
                "z": -0.5084816262002911
            },
            "position": {
                "x": -0.8240239810943604,
                "y": 0.19912469901144506,
                "z": 0.16403168439865112
            }
        },
        "name": "move_to_storage_D"
    },
    "id": "RRTstar_move_to_storage_D_109",
    "joint_names": [
        "shoulder_pan_joint",
        "shoulder_lift_joint",
        "elbow_joint",
        "wrist_1_joint",
        "wrist_2_joint",
        "wrist_3_joint"
    ],
    "metrics": {
        "cart_traj_len": 4.176679943190437,
        "distance_elbow_joint": 4.249652191505327,
        "distance_shoulder_lift_joint": 1.264588360822508,
        "distance_shoulder_pan_joint": 2.8117073722919246,
        "distance_wrist_1_joint": 2.26490486192362,
        "distance_wrist_2_joint": 0.8672226902228459,
        "distance_wrist_3_joint": 3.1341397647998663,
        "smoothness": 0.004846047130101521,
        "time": 5.025854677,
        "traj_len": 3.819975816882365,
        "weighted_distance": 4.898226446716433
    },
    "planner": "RRTstar",
    "start": {
        "state": {
            "elbow_joint": -2.384821988534728,
            "shoulder_lift_joint": -2.2788054721415256,
            "shoulder_pan_joint": -0.1854694642142757,
            "wrist_1_joint": 1.4845938289331202,
            "wrist_2_joint": 0.17898776772866878,
            "wrist_3_joint": 0.037105688729662994
        }
    },
    "waypoints": [
        {
            "positions": [
                -0.1854694642142757,
                -2.2788054721415256,
                -2.384821988534728,
                1.4845938289331202,
                0.17898776772866878,
                0.037105688729662994
            ]
        },
        {
            "positions": [
                -0.07390074388895619,
                -2.2415469356272992,
                -2.3870913594598475,
                1.3795640669401203,
                0.18034764792533817,
                -0.10081669585436248
            ]
        },
        {
            "positions": [
                0.037667976436363326,
                -2.2042883991130724,
                -2.389360730384967,
                1.2745343049471205,
                0.18170752812200758,
                -0.23873908043838796
            ]
        },
        {
            "positions": [
                0.14923669676168286,
                -2.167029862598846,
                -2.391630101310087,
                1.1695045429541207,
                0.18306740831867696,
                -0.3766614650224135
            ]
        },
        {
            "positions": [
                0.26080541708700233,
                -2.1297713260846196,
                -2.3938994722352067,
                1.0644747809611208,
                0.18442728851534634,
                -0.5145838496064389
            ]
        },
        {
            "positions": [
                0.37237413741232195,
                -2.0925127895703928,
                -2.3961688431603263,
                0.9594450189681208,
                0.18578716871201575,
                -0.6525062341904645
            ]
        },
        {
            "positions": [
                0.48394285773764145,
                -2.0552542530561664,
                -2.398438214085446,
                0.854415256975121,
                0.18714704890868514,
                -0.7904286187744899
            ]
        },
        {
            "positions": [
                0.5955115780629611,
                -2.01799571654194,
                -2.400707585010566,
                0.749385494982121,
                0.18850692910535452,
                -0.9283510033585154
            ]
        },
        {
            "positions": [
                0.7070802983882805,
                -1.9807371800277134,
                -2.4029769559356855,
                0.6443557329891213,
                0.18986680930202393,
                -1.0662733879425408
            ]
        },
        {
            "positions": [
                0.8186490187136001,
                -1.9434786435134868,
                -2.405246326860805,
                0.5393259709961213,
                0.19122668949869331,
                -1.2041957725265664
            ]
        },
        {
            "positions": [
                0.8832057647623162,
                -1.9102907316493987,
                -2.254202474961546,
                0.49219607799659915,
                0.22176182408629408,
                -1.2717971405102677
            ]
        },
        {
            "positions": [
                0.9477625108110321,
                -1.8771028197853104,
                -2.103158623062287,
                0.445066184997077,
                0.25229695867389484,
                -1.339398508493969
            ]
        },
        {
            "positions": [
                1.012319256859748,
                -1.8439149079212223,
                -1.9521147711630282,
                0.39793629199755487,
                0.2828320932614956,
                -1.4069998764776703
            ]
        },
        {
            "positions": [
                1.076876002908464,
                -1.810726996057134,
                -1.8010709192637693,
                0.3508063989980327,
                0.3133672278490964,
                -1.4746012444613716
            ]
        },
        {
            "positions": [
                1.1414327489571803,
                -1.7775390841930458,
                -1.6500270673645103,
                0.3036765059985105,
                0.34390236243669714,
                -1.542202612445073
            ]
        },
        {
            "positions": [
                1.2059894950058963,
                -1.7443511723289578,
                -1.4989832154652514,
                0.25654661299898834,
                0.3744374970242979,
                -1.6098039804287743
            ]
        },
        {
            "positions": [
                1.2705462410546122,
                -1.7111632604648694,
                -1.3479393635659924,
                0.20941671999946615,
                0.40497263161189867,
                -1.6774053484124756
            ]
        },
        {
            "positions": [
                1.3351029871033284,
                -1.6779753486007813,
                -1.1968955116667335,
                0.162286826999944,
                0.43550776619949944,
                -1.7450067163961769
            ]
        },
        {
            "positions": [
                1.3996597331520446,
                -1.644787436736693,
                -1.0458516597674745,
                0.11515693400042176,
                0.4660429007871002,
                -1.8126080843798782
            ]
        },
        {
            "positions": [
                1.4642164792007604,
                -1.611599524872605,
                -0.8948078078682156,
                0.06802704100089962,
                0.49657803537470097,
                -1.8802094523635797
            ]
        },
        {
            "positions": [
                1.5287732252494766,
                -1.5784116130085168,
                -0.7437639559689566,
                0.02089714800137743,
                0.5271131699623017,
                -1.9478108203472808
            ]
        },
        {
            "positions": [
                1.5933299712981923,
                -1.5452237011444288,
                -0.5927201040696977,
                -0.026232744998144653,
                0.5576483045499026,
                -2.0154121883309823
            ]
        },
        {
            "positions": [
                1.6578867173469085,
                -1.5120357892803404,
                -0.4416762521704387,
                -0.07336263799766685,
                0.5881834391375033,
                -2.0830135563146834
            ]
        },
        {
            "positions": [
                1.7224434633956247,
                -1.4788478774162521,
                -0.29063240027117976,
                -0.12049253099718904,
                0.618718573725104,
                -2.150614924298385
            ]
        },
        {
            "positions": [
                1.7870002094443405,
                -1.445659965552164,
                -0.13958854837192103,
                -0.16762242399671123,
                0.6492537083127048,
                -2.218216292282086
            ]
        },
        {
            "positions": [
                1.8515569554930567,
                -1.412472053688076,
                0.011455303527338145,
                -0.21475231699623332,
                0.6797888429003056,
                -2.2858176602657876
            ]
        },
        {
            "positions": [
                1.9161137015417724,
                -1.3792841418239878,
                0.16249915542659688,
                -0.2618822099957555,
                0.7103239774879062,
                -2.3534190282494887
            ]
        },
        {
            "positions": [
                1.980670447590489,
                -1.3460962299598993,
                0.31354300732585605,
                -0.3090121029952778,
                0.740859112075507,
                -2.42102039623319
            ]
        },
        {
            "positions": [
                2.045227193639205,
                -1.3129083180958112,
                0.4645868592251152,
                -0.3561419959947999,
                0.7713942466631079,
                -2.4886217642168917
            ]
        },
        {
            "positions": [
                2.109783939687921,
                -1.2797204062317231,
                0.615630711124374,
                -0.4032718889943221,
                0.8019293812507087,
                -2.556223132200593
            ]
        },
        {
            "positions": [
                2.1743406857366367,
                -1.246532494367635,
                0.7666745630236331,
                -0.4504017819938442,
                0.8324645158383095,
                -2.623824500184294
            ]
        },
        {
            "positions": [
                2.238897431785353,
                -1.213344582503547,
                0.9177184149228919,
                -0.4975316749933665,
                0.8629996504259101,
                -2.6914258681679954
            ]
        },
        {
            "positions": [
                2.3034541778340687,
                -1.1801566706394586,
                1.0687622668221506,
                -0.5446615679928886,
                0.8935347850135109,
                -2.759027236151697
            ]
        },
        {
            "positions": [
                2.368010923882785,
                -1.1469687587753705,
                1.2198061187214098,
                -0.5917914609924106,
                0.9240699196011117,
                -2.826628604135398
            ]
        },
        {
            "positions": [
                2.432567669931501,
                -1.1137808469112822,
                1.370849970620669,
                -0.638921353991933,
                0.9546050541887126,
                -2.894229972119099
            ]
        },
        {
            "positions": [
                2.4971244159802173,
                -1.0805929350471941,
                1.5218938225199277,
                -0.686051246991455,
                0.9851401887763132,
                -2.9618313401028007
            ]
        },
        {
            "positions": [
                2.561681162028933,
                -1.047405023183106,
                1.6729376744191864,
                -0.7331811399909773,
                1.015675323363914,
                -3.0294327080865022
            ]
        },
        {
            "positions": [
                2.6262379080776492,
                -1.0142171113190177,
                1.8239815263184453,
                -0.7803110329904994,
                1.0462104579515148,
                -3.0970340760702033
            ]
        }
    ]
}