{
    "goal": {
        "global_pose": {
            "orientation": {
                "w": -0.00223480608172531,
                "x": 0.0024358444001904467,
                "y": 0.7094548369677653,
                "z": -0.704743149386269
            },
            "position": {
                "x": -0.37947507619857795,
                "y": -0.6371506643295288,
                "z": 0.19426114857196808
            }
        },
        "name": "move_to_magneteinheit_C"
    },
    "id": "RRTstar_move_to_magneteinheit_C_72",
    "joint_names": [
        "shoulder_pan_joint",
        "shoulder_lift_joint",
        "elbow_joint",
        "wrist_1_joint",
        "wrist_2_joint",
        "wrist_3_joint"
    ],
    "metrics": {
        "cart_traj_len": 0.880671506410369,
        "distance_elbow_joint": 0.48229323196383733,
        "distance_shoulder_lift_joint": 0.7474532004130818,
        "distance_shoulder_pan_joint": 1.1267083834796205,
        "distance_wrist_1_joint": 2.438036706747262,
        "distance_wrist_2_joint": 2.1539566033859066,
        "distance_wrist_3_joint": 3.111865677315758,
        "smoothness": 0.23748526554864613,
        "time": 5.034365203,
        "traj_len": 3.1717997735206223,
        "weighted_distance": 4.56903036410026
    },
    "planner": "RRTstar",
    "start": {
        "state": {
            "elbow_joint": 1.9565354010623817,
            "shoulder_lift_joint": -1.4165861575791021,
            "shoulder_pan_joint": -1.6717766225146293,
            "wrist_1_joint": -0.5286633292919765,
            "wrist_2_joint": 1.472756589071564,
            "wrist_3_joint": -3.1238370188695823
        }
    },
    "waypoints": [
        {
            "positions": [
                -1.6717766225146293,
                -1.4165861575791021,
                1.9565354010623817,
                -0.5286633292919765,
                1.472756589071564,
                -3.1238370188695823
            ]
        },
        {
            "positions": [
                -1.6592788359337831,
                -1.4208709118211416,
                1.9588773955293397,
                -0.5299711409148218,
                1.4722559507090183,
                -3.051240635920948
            ]
        },
        {
            "positions": [
                -1.640857074969983,
                -1.432008073809375,
                1.9658357990068194,
                -0.5143523043752722,
                1.4230901304483716,
                -2.7918268483263096
            ]
        },
        {
            "positions": [
                -1.6224353140061827,
                -1.4431452357976084,
                1.9727942024842988,
                -0.4987334678357226,
                1.373924310187725,
                -2.532413060731671
            ]
        },
        {
            "positions": [
                -1.6040135530423827,
                -1.4542823977858421,
                1.9797526059617785,
                -0.48311463129617305,
                1.3247584899270781,
                -2.2729992731370325
            ]
        },
        {
            "positions": [
                -1.5855917920785825,
                -1.4654195597740756,
                1.986711009439258,
                -0.46749579475662345,
                1.2755926696664315,
                -2.013585485542394
            ]
        },
        {
            "positions": [
                -1.5671700311147823,
                -1.476556721762309,
                1.9936694129167376,
                -0.45187695821707385,
                1.2264268494057848,
                -1.7541716979477557
            ]
        },
        {
            "positions": [
                -1.6179185692419538,
                -1.4446306642300246,
                2.0062704277877925,
                -0.3355987535182204,
                1.1302161921920935,
                -1.6660927506945622
            ]
        },
        {
            "positions": [
                -1.668667107369125,
                -1.4127046066977402,
                2.0188714426588477,
                -0.21932054881936694,
                1.0340055349784023,
                -1.5780138034413687
            ]
        },
        {
            "positions": [
                -1.7194156454962966,
                -1.3807785491654556,
                2.0314724575299024,
                -0.1030423441205135,
                0.9377948777647109,
                -1.4899348561881751
            ]
        },
        {
            "positions": [
                -1.7701641836234678,
                -1.3488524916331712,
                2.0440734724009575,
                0.013235860578339975,
                0.8415842205510196,
                -1.4018559089349816
            ]
        },
        {
            "positions": [
                -1.8209127217506393,
                -1.3169264341008868,
                2.0566744872720126,
                0.12951406527719345,
                0.7453735633373283,
                -1.313776961681788
            ]
        },
        {
            "positions": [
                -1.8716612598778108,
                -1.2850003765686022,
                2.0692755021430673,
                0.24579226997604686,
                0.6491629061236369,
                -1.2256980144285945
            ]
        },
        {
            "positions": [
                -1.9224097980049821,
                -1.2530743190363178,
                2.0818765170141225,
                0.3620704746749004,
                0.5529522489099457,
                -1.137619067175401
            ]
        },
        {
            "positions": [
                -1.9731583361321536,
                -1.2211482615040334,
                2.0944775318851776,
                0.4783486793737538,
                0.4567415916962544,
                -1.0495401199222074
            ]
        },
        {
            "positions": [
                -2.023906874259325,
                -1.189222203971749,
                2.1070785467562323,
                0.5946268840726072,
                0.360530934482563,
                -0.9614611726690139
            ]
        },
        {
            "positions": [
                -2.0746554123864964,
                -1.1572961464394647,
                2.1196795616272874,
                0.7109050887714607,
                0.26432027726887175,
                -0.8733822254158203
            ]
        },
        {
            "positions": [
                -2.125403950513668,
                -1.12537008890718,
                2.1322805764983426,
                0.8271832934703143,
                0.16810962005518038,
                -0.7853032781626268
            ]
        },
        {
            "positions": [
                -2.1761524886408394,
                -1.0934440313748957,
                2.1448815913693973,
                0.9434614981691676,
                0.071898962841489,
                -0.6972243309094333
            ]
        },
        {
            "positions": [
                -2.2269010267680107,
                -1.0615179738426113,
                2.1574826062404524,
                1.0597397028680213,
                -0.024311694372202375,
                -0.6091453836562397
            ]
        },
        {
            "positions": [
                -2.277649564895182,
                -1.0295919163103266,
                2.1700836211115075,
                1.1760179075668746,
                -0.12052235158589353,
                -0.5210664364030462
            ]
        },
        {
            "positions": [
                -2.3283981030223537,
                -0.9976658587780423,
                2.1826846359825622,
                1.2922961122657282,
                -0.2167330087995849,
                -0.43298748914985263
            ]
        },
        {
            "positions": [
                -2.379146641149525,
                -0.9657398012457579,
                2.1952856508536174,
                1.4085743169645815,
                -0.31294366601327606,
                -0.3449085418966591
            ]
        },
        {
            "positions": [
                -2.4298951792766967,
                -0.9338137437134734,
                2.2078866657246725,
                1.5248525216634352,
                -0.40915432322696765,
                -0.25682959464346555
            ]
        },
        {
            "positions": [
                -2.4806437174038676,
                -0.901887686181189,
                2.220487680595727,
                1.6411307263622883,
                -0.5053649804406588,
                -0.168750647390272
            ]
        },
        {
            "positions": [
                -2.5313922555310393,
                -0.8699616286489045,
                2.2330886954667823,
                1.7574089310611423,
                -0.6015756376543503,
                -0.08067170013707853
            ]
        },
        {
            "positions": [
                -2.5024524716992813,
                -0.8295178570906693,
                2.130218726687064,
                1.8320833426353689,
                -0.6413878259843464,
                -0.046321520845451214
            ]
        },
        {
            "positions": [
                -2.473512687867523,
                -0.7890740855324341,
                2.0273487579073457,
                1.9067577542095955,
                -0.6812000143143425,
                -0.011971341553823896
            ]
        }
    ]
}