{
    "goal": {
        "global_pose": {
            "orientation": {
                "w": 0.5084816262002911,
                "x": -0.4908360881923452,
                "y": 0.5182115481033761,
                "z": -0.48164630358495003
            },
            "position": {
                "x": 0.5540239810943604,
                "y": -0.46912469901144505,
                "z": 0.16403168439865112
            }
        },
        "name": "move_to_storage_B"
    },
    "id": "RRTstar_move_to_storage_B_18",
    "joint_names": [
        "shoulder_pan_joint",
        "shoulder_lift_joint",
        "elbow_joint",
        "wrist_1_joint",
        "wrist_2_joint",
        "wrist_3_joint"
    ],
    "metrics": {
        "cart_traj_len": 0.9631589904089486,
        "distance_elbow_joint": 0.412660869396122,
        "distance_shoulder_lift_joint": 0.7587660229498203,
        "distance_shoulder_pan_joint": 0.23661357164994878,
        "distance_wrist_1_joint": 2.9905526042270303,
        "distance_wrist_2_joint": 2.7137562374575497,
        "distance_wrist_3_joint": 3.1345667588717903,
        "smoothness": 0.05170242754972437,
        "time": 5.029899585000001,
        "traj_len": 3.201080452683479,
        "weighted_distance": 4.7138475181087935
    },
    "planner": "RRTstar",
    "start": {
        "state": {
            "elbow_joint": 1.664937868594044,
            "shoulder_lift_joint": -0.661644460510453,
            "shoulder_pan_joint": -0.9139846352900073,
            "wrist_1_joint": 2.146753192139373,
            "wrist_2_joint": -2.2341966793290973,
            "wrist_3_joint": 0.005466555786416001
        }
    },
    "waypoints": [
        {
            "positions": [
                -0.9139846352900073,
                -0.661644460510453,
                1.664937868594044,
                2.146753192139373,
                -2.2341966793290973,
                0.005466555786416001
            ]
        },
        {
            "positions": [
                -0.9058636327744833,
                -0.6754304892996857,
                1.6831980765726993,
                2.1430053754370673,
                -2.2262617476091764,
                0.017482023926174352
            ]
        },
        {
            "positions": [
                -0.904634674539785,
                -0.7126615163912802,
                1.705985922255863,
                2.0470127425699385,
                -2.1115580484583187,
                0.12496760390448322
            ]
        },
        {
            "positions": [
                -0.9034057163050866,
                -0.7498925434828747,
                1.728773767939027,
                1.9510201097028095,
                -1.9968543493074609,
                0.2324531838827921
            ]
        },
        {
            "positions": [
                -0.9021767580703882,
                -0.7871235705744691,
                1.7515616136221905,
                1.8550274768356807,
                -1.8821506501566032,
                0.339938763861101
            ]
        },
        {
            "positions": [
                -0.9009477998356898,
                -0.8243545976660637,
                1.7743494593053544,
                1.7590348439685517,
                -1.7674469510057453,
                0.4474243438394099
            ]
        },
        {
            "positions": [
                -0.8997188416009915,
                -0.8615856247576581,
                1.7971373049885182,
                1.663042211101423,
                -1.6527432518548877,
                0.5549099238177188
            ]
        },
        {
            "positions": [
                -0.8984898833662931,
                -0.8988166518492526,
                1.8199251506716818,
                1.5670495782342941,
                -1.53803955270403,
                0.6623955037960276
            ]
        },
        {
            "positions": [
                -0.8972609251315947,
                -0.9360476789408471,
                1.8427129963548456,
                1.4710569453671654,
                -1.4233358535531724,
                0.7698810837743365
            ]
        },
        {
            "positions": [
                -0.8960319668968963,
                -0.9732787060324415,
                1.8655008420380095,
                1.3750643125000364,
                -1.3086321544023145,
                0.8773666637526454
            ]
        },
        {
            "positions": [
                -0.894803008662198,
                -1.010509733124036,
                1.8882886877211733,
                1.2790716796329074,
                -1.1939284552514569,
                0.9848522437309543
            ]
        },
        {
            "positions": [
                -0.8935740504274996,
                -1.0477407602156306,
                1.9110765334043371,
                1.1830790467657786,
                -1.079224756100599,
                1.0923378237092631
            ]
        },
        {
            "positions": [
                -0.8923450921928012,
                -1.084971787307225,
                1.9338643790875008,
                1.0870864138986498,
                -0.9645210569497413,
                1.199823403687572
            ]
        },
        {
            "positions": [
                -0.8911161339581029,
                -1.1222028143988194,
                1.9566522247706646,
                0.991093781031521,
                -0.8498173577988837,
                1.3073089836658809
            ]
        },
        {
            "positions": [
                -0.8898871757234045,
                -1.159433841490414,
                1.9794400704538284,
                0.895101148164392,
                -0.7351136586480258,
                1.4147945636441899
            ]
        },
        {
            "positions": [
                -0.8886582174887061,
                -1.1966648685820083,
                2.002227916136992,
                0.7991085152972632,
                -0.6204099594971682,
                1.5222801436224986
            ]
        },
        {
            "positions": [
                -0.8874292592540077,
                -1.2338958956736028,
                2.025015761820156,
                0.7031158824301342,
                -0.5057062603463103,
                1.6297657236008074
            ]
        },
        {
            "positions": [
                -0.8862003010193094,
                -1.2711269227651973,
                2.0478036075033197,
                0.6071232495630055,
                -0.3910025611954526,
                1.7372513035791164
            ]
        },
        {
            "positions": [
                -0.9051847771446958,
                -1.257555689974736,
                2.0450949592772427,
                0.4752211894129451,
                -0.3118605503478248,
                1.8647769409499428
            ]
        },
        {
            "positions": [
                -0.9241692532700823,
                -1.2439844571842744,
                2.0423863110511657,
                0.34331912926288477,
                -0.23271853950019697,
                1.992302578320769
            ]
        },
        {
            "positions": [
                -0.9431537293954687,
                -1.230413224393813,
                2.0396776628250888,
                0.21141706911282448,
                -0.15357652865256916,
                2.1198282156915953
            ]
        },
        {
            "positions": [
                -0.9621382055208552,
                -1.2168419916033515,
                2.036969014599012,
                0.07951500896276409,
                -0.07443451780494131,
                2.247353853062422
            ]
        },
        {
            "positions": [
                -0.9811226816462415,
                -1.2032707588128901,
                2.034260366372935,
                -0.05238705118729614,
                0.004707493042686528,
                2.374879490433248
            ]
        },
        {
            "positions": [
                -1.000107157771628,
                -1.1896995260224286,
                2.0315517181468583,
                -0.18428911133735648,
                0.08384950389031431,
                2.5024051278040744
            ]
        },
        {
            "positions": [
                -1.0190916338970144,
                -1.1761282932319672,
                2.0288430699207813,
                -0.3161911714874168,
                0.16299151473794216,
                2.629930765174901
            ]
        },
        {
            "positions": [
                -1.038076110022401,
                -1.1625570604415056,
                2.0261344216947044,
                -0.4480932316374773,
                0.24213352558557,
                2.7574564025457273
            ]
        },
        {
            "positions": [
                -1.0570605861477873,
                -1.1489858276510443,
                2.0234257734686274,
                -0.5799952917875375,
                0.32127553643319795,
                2.8849820399165536
            ]
        },
        {
            "positions": [
                -1.0760450622731739,
                -1.135414594860583,
                2.0207171252425504,
                -0.7118973519375977,
                0.4004175472808257,
                3.0125076772873802
            ]
        },
        {
            "positions": [
                -1.0950295383985602,
                -1.1218433620701214,
                2.0180084770164735,
                -0.8437994120876582,
                0.4795595581284536,
                3.1400333146582065
            ]
        }
    ]
}