{
    "goal": {
        "global_pose": {
            "orientation": {
                "w": -0.4816463035849501,
                "x": 0.5182115481033762,
                "y": 0.4908360881923453,
                "z": -0.5084816262002911
            },
            "position": {
                "x": -0.8240239810943604,
                "y": 0.19912469901144506,
                "z": 0.16403168439865112
            }
        },
        "name": "move_to_storage_D"
    },
    "id": "RRTstar_move_to_storage_D_35",
    "joint_names": [
        "shoulder_pan_joint",
        "shoulder_lift_joint",
        "elbow_joint",
        "wrist_1_joint",
        "wrist_2_joint",
        "wrist_3_joint"
    ],
    "metrics": {
        "cart_traj_len": 4.294203754383122,
        "distance_elbow_joint": 4.214916765217757,
        "distance_shoulder_lift_joint": 1.263857459052445,
        "distance_shoulder_pan_joint": 2.81272273519045,
        "distance_wrist_1_joint": 2.2890503751506683,
        "distance_wrist_2_joint": 0.8713039098192016,
        "distance_wrist_3_joint": 3.1258735039837164,
        "smoothness": 5.465713356738437e-16,
        "time": 5.046038812,
        "traj_len": 3.8180786723709916,
        "weighted_distance": 4.897941000190952
    },
    "planner": "RRTstar",
    "start": {
        "state": {
            "elbow_joint": -2.384821988534728,
            "shoulder_lift_joint": -2.2788054721415256,
            "shoulder_pan_joint": -0.1854694642142757,
            "wrist_1_joint": 1.4845938289331202,
            "wrist_2_joint": 0.17898776772866878,
            "wrist_3_joint": 0.037105688729662994
        }
    },
    "waypoints": [
        {
            "positions": [
                -0.1854694642142757,
                -2.2788054721415256,
                -2.384821988534728,
                1.4845938289331202,
                0.17898776772866878,
                0.037105688729662994
            ]
        },
        {
            "positions": [
                -0.06149385773943476,
                -2.22282244398899,
                -2.349472760101481,
                1.3713713761079442,
                0.1971615502475482,
                0.0018677490793837237
            ]
        },
        {
            "positions": [
                0.062481748735406184,
                -2.1668394158364546,
                -2.314123531668234,
                1.258148923282768,
                0.21533533276642758,
                -0.03337019057089555
            ]
        },
        {
            "positions": [
                0.18645735521024717,
                -2.110856387683919,
                -2.2787743032349868,
                1.144926470457592,
                0.233509115285307,
                -0.06860813022117483
            ]
        },
        {
            "positions": [
                0.31043296168508805,
                -2.054873359531383,
                -2.2434250748017397,
                1.0317040176324161,
                0.2516828978041864,
                -0.10384606987145409
            ]
        },
        {
            "positions": [
                0.434408568159929,
                -1.9988903313788475,
                -2.2080758463684926,
                0.9184815648072401,
                0.26985668032306576,
                -0.13908400952173336
            ]
        },
        {
            "positions": [
                0.5583841746347701,
                -1.942907303226312,
                -2.1727266179352456,
                0.805259111982064,
                0.2880304628419452,
                -0.17432194917201266
            ]
        },
        {
            "positions": [
                0.6823597811096109,
                -1.8869242750737762,
                -2.1373773895019985,
                0.692036659156888,
                0.3062042453608246,
                -0.20955988882229193
            ]
        },
        {
            "positions": [
                0.8063353875844519,
                -1.8309412469212407,
                -2.102028161068751,
                0.578814206331712,
                0.324378027879704,
                -0.24479782847257117
            ]
        },
        {
            "positions": [
                0.9303109940592927,
                -1.7749582187687052,
                -2.066678932635504,
                0.4655917535065359,
                0.3425518103985834,
                -0.28003576812285047
            ]
        },
        {
            "positions": [
                1.0542866005341336,
                -1.7189751906161694,
                -2.031329704202257,
                0.35236930068135996,
                0.36072559291746276,
                -0.3152737077731297
            ]
        },
        {
            "positions": [
                1.1782622070089745,
                -1.662992162463634,
                -1.99598047576901,
                0.239146847856184,
                0.37889937543634217,
                -0.350511647423409
            ]
        },
        {
            "positions": [
                1.3022378134838157,
                -1.6070091343110982,
                -1.9606312473357628,
                0.12592439503100783,
                0.3970731579552216,
                -0.38574958707368834
            ]
        },
        {
            "positions": [
                1.4262134199586565,
                -1.5510261061585626,
                -1.9252820189025157,
                0.012701942205831651,
                0.415246940474101,
                -0.42098752672396755
            ]
        },
        {
            "positions": [
                1.5501890264334974,
                -1.4950430780060269,
                -1.8899327904692687,
                -0.1005205106193443,
                0.4334207229929804,
                -0.4562254663742469
            ]
        },
        {
            "positions": [
                1.6741646329083384,
                -1.4390600498534913,
                -1.8545835620360216,
                -0.21374296344452032,
                0.4515945055118598,
                -0.4914634060245261
            ]
        },
        {
            "positions": [
                1.7156032693460703,
                -1.4206203960811257,
                -1.6943801560047584,
                -0.23942616269552144,
                0.47762481733951245,
                -0.6043896846866794
            ]
        },
        {
            "positions": [
                1.7570419057838023,
                -1.40218074230876,
                -1.5341767499734953,
                -0.26510936194652257,
                0.503655129167165,
                -0.7173159633488329
            ]
        },
        {
            "positions": [
                1.7984805422215344,
                -1.3837410885363943,
                -1.3739733439422324,
                -0.2907925611975237,
                0.5296854409948177,
                -0.8302422420109862
            ]
        },
        {
            "positions": [
                1.8399191786592664,
                -1.3653014347640287,
                -1.2137699379109692,
                -0.3164757604485249,
                0.5557157528224703,
                -0.9431685206731395
            ]
        },
        {
            "positions": [
                1.8813578150969983,
                -1.346861780991663,
                -1.053566531879706,
                -0.342158959699526,
                0.581746064650123,
                -1.056094799335293
            ]
        },
        {
            "positions": [
                1.9227964515347302,
                -1.3284221272192973,
                -0.893363125848443,
                -0.36784215895052713,
                0.6077763764777756,
                -1.1690210779974461
            ]
        },
        {
            "positions": [
                1.9642350879724622,
                -1.3099824734469316,
                -0.7331597198171798,
                -0.3935253582015283,
                0.6338066883054283,
                -1.2819473566595998
            ]
        },
        {
            "positions": [
                2.0056737244101943,
                -1.291542819674566,
                -0.5729563137859168,
                -0.4192085574525294,
                0.6598370001330809,
                -1.394873635321753
            ]
        },
        {
            "positions": [
                2.047112360847926,
                -1.2731031659022003,
                -0.4127529077546537,
                -0.44489175670353054,
                0.6858673119607335,
                -1.5077999139839062
            ]
        },
        {
            "positions": [
                2.088550997285658,
                -1.2546635121298346,
                -0.2525495017233905,
                -0.47057495595453164,
                0.7118976237883862,
                -1.6207261926460599
            ]
        },
        {
            "positions": [
                2.1299896337233903,
                -1.236223858357469,
                -0.09234609569212737,
                -0.4962581552055328,
                0.7379279356160389,
                -1.733652471308213
            ]
        },
        {
            "positions": [
                2.171428270161122,
                -1.217784204585103,
                0.06785731033913556,
                -0.5219413544565339,
                0.7639582474436915,
                -1.8465787499703663
            ]
        },
        {
            "positions": [
                2.212866906598854,
                -1.1993445508127376,
                0.2280607163703987,
                -0.547624553707535,
                0.789988559271344,
                -1.95950502863252
            ]
        },
        {
            "positions": [
                2.254305543036586,
                -1.1809048970403717,
                0.3882641224016621,
                -0.5733077529585362,
                0.8160188710989967,
                -2.072431307294673
            ]
        },
        {
            "positions": [
                2.295744179474318,
                -1.162465243268006,
                0.548467528432925,
                -0.5989909522095374,
                0.8420491829266493,
                -2.185357585956827
            ]
        },
        {
            "positions": [
                2.3371828159120502,
                -1.1440255894956404,
                0.7086709344641879,
                -0.6246741514605385,
                0.868079494754302,
                -2.29828386461898
            ]
        },
        {
            "positions": [
                2.378621452349782,
                -1.1255859357232747,
                0.8688743404954509,
                -0.6503573507115397,
                0.8941098065819546,
                -2.4112101432811333
            ]
        },
        {
            "positions": [
                2.420060088787514,
                -1.107146281950909,
                1.0290777465267142,
                -0.6760405499625408,
                0.9201401184096072,
                -2.5241364219432865
            ]
        },
        {
            "positions": [
                2.461498725225246,
                -1.0887066281785434,
                1.1892811525579772,
                -0.7017237492135419,
                0.9461704302372599,
                -2.63706270060544
            ]
        },
        {
            "positions": [
                2.502937361662978,
                -1.0702669744061777,
                1.3494845585892405,
                -0.7274069484645429,
                0.9722007420649126,
                -2.7499889792675933
            ]
        },
        {
            "positions": [
                2.54437599810071,
                -1.051827320633812,
                1.5096879646205035,
                -0.7530901477155441,
                0.9982310538925652,
                -2.8629152579297465
            ]
        },
        {
            "positions": [
                2.5858146345384423,
                -1.0333876668614463,
                1.6698913706517668,
                -0.7787733469665452,
                1.0242613657202178,
                -2.9758415365919
            ]
        },
        {
            "positions": [
                2.627253270976174,
                -1.0149480130890807,
                1.8300947766830298,
                -0.8044565462175465,
                1.0502916775478703,
                -3.0887678152540534
            ]
        }
    ]
}