{
    "goal": {
        "global_pose": {
            "orientation": {
                "w": 0.7031023502349854,
                "x": -0.7110244035720825,
                "y": 0.007748599164187908,
                "z": 0.005598929710686207
            },
            "position": {
                "x": 0.11585023208521307,
                "y": 0.44412534475326537,
                "z": 0.3711530566215515
            }
        },
        "name": "move_to_auspresseinheit_A"
    },
    "id": "RRTstar_move_to_auspresseinheit_A_66",
    "joint_names": [
        "shoulder_pan_joint",
        "shoulder_lift_joint",
        "elbow_joint",
        "wrist_1_joint",
        "wrist_2_joint",
        "wrist_3_joint"
    ],
    "metrics": {
        "cart_traj_len": 0.7960107484990264,
        "distance_elbow_joint": 0.319308307891335,
        "distance_shoulder_lift_joint": 0.6881078905151261,
        "distance_shoulder_pan_joint": 1.0430132666646348,
        "distance_wrist_1_joint": 1.63584011465499,
        "distance_wrist_2_joint": 2.1644172138489632,
        "distance_wrist_3_joint": 0.5199718699693019,
        "smoothness": 1.3964491798635432,
        "time": 5.012176596000001,
        "traj_len": 2.5240163754509104,
        "weighted_distance": 3.348262195824411
    },
    "planner": "RRTstar",
    "start": {
        "state": {
            "elbow_joint": 2.4225746658250005,
            "shoulder_lift_joint": -1.3736534386056498,
            "shoulder_pan_joint": -0.3378633547517467,
            "wrist_1_joint": -1.0288598680537169,
            "wrist_2_joint": 1.233022673432363,
            "wrist_3_joint": -3.0940220416140027
        }
    },
    "waypoints": [
        {
            "positions": [
                -0.3378633547517467,
                -1.3736534386056498,
                2.4225746658250005,
                -1.0288598680537169,
                1.233022673432363,
                -3.0940220416140027
            ]
        },
        {
            "positions": [
                -0.2798892400410944,
                -1.429246545484458,
                2.4357062507781126,
                -0.9286335861589166,
                1.1104882541263663,
                -3.072570181474896
            ]
        },
        {
            "positions": [
                -0.22191512533044208,
                -1.4848396523632663,
                2.448837835731225,
                -0.8284073042641164,
                0.9879538348203695,
                -3.051118321335789
            ]
        },
        {
            "positions": [
                -0.16394101061978977,
                -1.5404327592420743,
                2.461969420684337,
                -0.7281810223693161,
                0.8654194155143727,
                -3.0296664611966824
            ]
        },
        {
            "positions": [
                -0.10596689590913744,
                -1.5960258661208826,
                2.475101005637449,
                -0.6279547404745158,
                0.7428849962083759,
                -3.0082146010575754
            ]
        },
        {
            "positions": [
                -0.04799278119848516,
                -1.6516189729996908,
                2.4882325905905613,
                -0.5277284585797155,
                0.6203505769023792,
                -2.9867627409184685
            ]
        },
        {
            "positions": [
                0.009981333512167179,
                -1.707212079878499,
                2.5013641755436735,
                -0.4275021766849153,
                0.4978161575963824,
                -2.9653108807793616
            ]
        },
        {
            "positions": [
                0.06795544822281951,
                -1.7628051867573074,
                2.5144957604967857,
                -0.327275894790115,
                0.3752817382903857,
                -2.9438590206402546
            ]
        },
        {
            "positions": [
                0.12592956293347185,
                -1.8183982936361156,
                2.527627345449898,
                -0.22704961289531467,
                0.25274731898438885,
                -2.9224071605011477
            ]
        },
        {
            "positions": [
                0.18390367764412424,
                -1.8739914005149236,
                2.54075893040301,
                -0.12682333100051435,
                0.130212899678392,
                -2.900955300362041
            ]
        },
        {
            "positions": [
                0.2418777923547764,
                -1.9295845073937319,
                2.553890515356122,
                -0.026597049105714143,
                0.007678480372395269,
                -2.8795034402229343
            ]
        },
        {
            "positions": [
                0.29985190706542886,
                -1.9851776142725401,
                2.5670221003092344,
                0.07362923278908617,
                -0.11485593893360146,
                -2.8580515800838273
            ]
        },
        {
            "positions": [
                0.3674015745400054,
                -1.9724136617978343,
                2.537878621408051,
                -0.015262602846278256,
                0.021233827980231657,
                -2.905385148157015
            ]
        },
        {
            "positions": [
                0.4349512420145819,
                -1.9596497093231282,
                2.5087351425068674,
                -0.10415443848164269,
                0.15732359489406478,
                -2.9527187162302027
            ]
        },
        {
            "positions": [
                0.5025009094891584,
                -1.9468857568484221,
                2.479591663605684,
                -0.19304627411700714,
                0.29341336180789795,
                -3.0000522843033908
            ]
        },
        {
            "positions": [
                0.570050576963735,
                -1.9341218043737163,
                2.4504481847045003,
                -0.28193810975237155,
                0.429503128721731,
                -3.0473858523765784
            ]
        },
        {
            "positions": [
                0.6376002444383115,
                -1.9213578518990104,
                2.421304705803317,
                -0.37082994538773606,
                0.5655928956355643,
                -3.094719420449766
            ]
        },
        {
            "positions": [
                0.705149911912888,
                -1.9085938994243044,
                2.3921612269021333,
                -0.4597217810231005,
                0.7016826625493974,
                -3.142052988522954
            ]
        }
    ]
}