{
    "goal": {
        "global_pose": {
            "orientation": {
                "w": 0.005598929693374612,
                "x": 0.007748599140229565,
                "y": 0.7110244013736278,
                "z": -0.7031023480610252
            },
            "position": {
                "x": 0.1141497679147869,
                "y": -0.7141253447532654,
                "z": 0.3711530566215515
            }
        },
        "name": "move_to_auspresseinheit_B"
    },
    "id": "RRTstar_move_to_auspresseinheit_B_17",
    "joint_names": [
        "shoulder_pan_joint",
        "shoulder_lift_joint",
        "elbow_joint",
        "wrist_1_joint",
        "wrist_2_joint",
        "wrist_3_joint"
    ],
    "metrics": {
        "cart_traj_len": 0.5639981766045687,
        "distance_elbow_joint": 0.058890220069106824,
        "distance_shoulder_lift_joint": 0.29574666658446636,
        "distance_shoulder_pan_joint": 0.5761119244374209,
        "distance_wrist_1_joint": 0.31520934179991267,
        "distance_wrist_2_joint": 0.995994554977095,
        "distance_wrist_3_joint": 0.0013348568761668567,
        "smoothness": 0.0,
        "time": 5.004061826,
        "traj_len": 1.497760850317623,
        "weighted_distance": 1.8860437893308601
    },
    "planner": "RRTstar",
    "start": {
        "state": {
            "elbow_joint": 2.0193083361928714,
            "shoulder_lift_joint": -1.1220246554650708,
            "shoulder_pan_joint": -1.0952077554168747,
            "wrist_1_joint": -0.8559753972642168,
            "wrist_2_joint": 0.4759566250798843,
            "wrist_3_joint": -3.1240929996934557
        }
    },
    "waypoints": [
        {
            "positions": [
                -1.0952077554168747,
                -1.1220246554650708,
                2.0193083361928714,
                -0.8559753972642168,
                0.4759566250798843,
                -3.1240929996934557
            ]
        },
        {
            "positions": [
                -1.1912264094897782,
                -1.1713157665624818,
                2.009493299514687,
                -0.8034405069642313,
                0.6419557175760668,
                -3.123870523547428
            ]
        },
        {
            "positions": [
                -1.2872450635626815,
                -1.2206068776598928,
                1.9996782628365024,
                -0.7509056166642459,
                0.8079548100722493,
                -3.1236480474014
            ]
        },
        {
            "positions": [
                -1.383263717635585,
                -1.2698979887573039,
                1.989863226158318,
                -0.6983707263642605,
                0.9739539025684318,
                -3.123425571255372
            ]
        },
        {
            "positions": [
                -1.4792823717084884,
                -1.319189099854715,
                1.9800481894801336,
                -0.6458358360642751,
                1.1399529950646143,
                -3.1232030951093446
            ]
        },
        {
            "positions": [
                -1.5753010257813922,
                -1.3684802109521261,
                1.970233152801949,
                -0.5933009457642895,
                1.3059520875607968,
                -3.1229806189633167
            ]
        },
        {
            "positions": [
                -1.6713196798542955,
                -1.4177713220495372,
                1.9604181161237646,
                -0.5407660554643041,
                1.4719511800569793,
                -3.122758142817289
            ]
        }
    ]
}