{
    "goal": {
        "global_pose": {
            "orientation": {
                "w": 0.5084816262002911,
                "x": -0.4908360881923452,
                "y": 0.5182115481033761,
                "z": -0.48164630358495003
            },
            "position": {
                "x": 0.5540239810943604,
                "y": -0.46912469901144505,
                "z": 0.16403168439865112
            }
        },
        "name": "move_to_storage_B"
    },
    "id": "RRTstar_move_to_storage_B_88",
    "joint_names": [
        "shoulder_pan_joint",
        "shoulder_lift_joint",
        "elbow_joint",
        "wrist_1_joint",
        "wrist_2_joint",
        "wrist_3_joint"
    ],
    "metrics": {
        "cart_traj_len": 0.7231559915850402,
        "distance_elbow_joint": 0.5331631543283155,
        "distance_shoulder_lift_joint": 0.5480739396638512,
        "distance_shoulder_pan_joint": 0.1817152310005744,
        "distance_wrist_1_joint": 3.0280615272234668,
        "distance_wrist_2_joint": 2.7108054197269604,
        "distance_wrist_3_joint": 3.1019931754592918,
        "smoothness": 0.09874810114688233,
        "time": 5.0428216280000004,
        "traj_len": 3.1786494690988594,
        "weighted_distance": 4.695387709792608
    },
    "planner": "RRTstar",
    "start": {
        "state": {
            "elbow_joint": 1.664937868594044,
            "shoulder_lift_joint": -0.661644460510453,
            "shoulder_pan_joint": -0.9139846352900073,
            "wrist_1_joint": 2.146753192139373,
            "wrist_2_joint": -2.2341966793290973,
            "wrist_3_joint": 0.005466555786416001
        }
    },
    "waypoints": [
        {
            "positions": [
                -0.9139846352900073,
                -0.661644460510453,
                1.664937868594044,
                2.146753192139373,
                -2.2341966793290973,
                0.005466555786416001
            ]
        },
        {
            "positions": [
                -0.9186676492643394,
                -0.6836199017492827,
                1.6843786334536799,
                2.0352825432444073,
                -2.131310352033943,
                -0.11616970760307989
            ]
        },
        {
            "positions": [
                -0.9233506632386714,
                -0.7055953429881124,
                1.7038193983133159,
                1.9238118943494413,
                -2.028424024738788,
                -0.23780597099257578
            ]
        },
        {
            "positions": [
                -0.9280336772130036,
                -0.7275707842269421,
                1.7232601631729516,
                1.8123412454544754,
                -1.9255376974436338,
                -0.3594422343820716
            ]
        },
        {
            "positions": [
                -0.9327166911873356,
                -0.7495462254657718,
                1.7427009280325876,
                1.7008705965595095,
                -1.8226513701484794,
                -0.4810784977715675
            ]
        },
        {
            "positions": [
                -0.9373997051616677,
                -0.7715216667046014,
                1.7621416928922236,
                1.5893999476645435,
                -1.719765042853325,
                -0.6027147611610635
            ]
        },
        {
            "positions": [
                -0.9420827191359998,
                -0.7934971079434312,
                1.7815824577518595,
                1.4779292987695776,
                -1.6168787155581705,
                -0.7243510245505593
            ]
        },
        {
            "positions": [
                -0.9467657331103319,
                -0.8154725491822609,
                1.8010232226114955,
                1.3664586498746114,
                -1.513992388263016,
                -0.8459872879400554
            ]
        },
        {
            "positions": [
                -0.951448747084664,
                -0.8374479904210905,
                1.8204639874711315,
                1.2549880009796457,
                -1.4111060609678616,
                -0.9676235513295511
            ]
        },
        {
            "positions": [
                -0.9561317610589961,
                -0.8594234316599203,
                1.8399047523307672,
                1.1435173520846795,
                -1.308219733672707,
                -1.089259814719047
            ]
        },
        {
            "positions": [
                -0.9608147750333281,
                -0.88139887289875,
                1.8593455171904032,
                1.0320467031897136,
                -1.2053334063775527,
                -1.210896078108543
            ]
        },
        {
            "positions": [
                -0.9654977890076603,
                -0.9033743141375796,
                1.8787862820500392,
                0.9205760542947476,
                -1.1024470790823981,
                -1.332532341498039
            ]
        },
        {
            "positions": [
                -0.9701808029819923,
                -0.9253497553764094,
                1.8982270469096751,
                0.8091054053997817,
                -0.9995607517872438,
                -1.4541686048875346
            ]
        },
        {
            "positions": [
                -0.9748638169563244,
                -0.9473251966152391,
                1.9176678117693111,
                0.6976347565048158,
                -0.8966744244920895,
                -1.5758048682770305
            ]
        },
        {
            "positions": [
                -0.9795468309306565,
                -0.9693006378540687,
                1.937108576628947,
                0.5861641076098496,
                -0.7937880971969347,
                -1.6974411316665268
            ]
        },
        {
            "positions": [
                -0.9842298449049885,
                -0.9912760790928985,
                1.956549341488583,
                0.4746934587148839,
                -0.6909017699017803,
                -1.8190773950560224
            ]
        },
        {
            "positions": [
                -0.9889128588793207,
                -1.0132515203317283,
                1.9759901063482188,
                0.36322280981991795,
                -0.588015442606626,
                -1.9407136584455182
            ]
        },
        {
            "positions": [
                -0.9935958728536527,
                -1.0352269615705578,
                1.9954308712078548,
                0.251752160924952,
                -0.4851291153114716,
                -2.062349921835014
            ]
        },
        {
            "positions": [
                -0.9982788868279848,
                -1.0572024028093876,
                2.0148716360674905,
                0.14028151202998584,
                -0.38224278801631684,
                -2.18398618522451
            ]
        },
        {
            "positions": [
                -1.002961900802317,
                -1.0791778440482171,
                2.0343124009271265,
                0.028810863135019904,
                -0.2793564607211625,
                -2.305622448614006
            ]
        },
        {
            "positions": [
                -1.007644914776649,
                -1.101153285287047,
                2.0537531657867625,
                -0.08265978575994604,
                -0.17647013342600815,
                -2.4272587120035016
            ]
        },
        {
            "positions": [
                -1.012327928750981,
                -1.1231287265258767,
                2.0731939306463985,
                -0.19413043465491198,
                -0.0735838061308538,
                -2.5488949753929973
            ]
        },
        {
            "positions": [
                -1.0170109427253131,
                -1.1451041677647065,
                2.0926346955060344,
                -0.3056010835498779,
                0.029302521164300988,
                -2.6705312387824938
            ]
        },
        {
            "positions": [
                -1.0216939566996452,
                -1.167079609003536,
                2.1120754603656704,
                -0.417071732444844,
                0.13218884845945517,
                -2.7921675021719894
            ]
        },
        {
            "positions": [
                -1.0401954340973794,
                -1.156419911210844,
                2.0905690697264983,
                -0.5331308831046564,
                0.21829382144405732,
                -2.868257281547211
            ]
        },
        {
            "positions": [
                -1.0586969114951135,
                -1.145760213418152,
                2.0690626790873257,
                -0.6491900337644687,
                0.30439879442865947,
                -2.9443470609224325
            ]
        },
        {
            "positions": [
                -1.0771983888928476,
                -1.1351005156254599,
                2.0475562884481535,
                -0.765249184424281,
                0.3905037674132616,
                -3.020436840297654
            ]
        },
        {
            "positions": [
                -1.0956998662905817,
                -1.1244408178327678,
                2.0260498978089814,
                -0.8813083350840935,
                0.4766087403978638,
                -3.0965266196728756
            ]
        }
    ]
}