{
    "goal": {
        "global_pose": {
            "orientation": {
                "w": 0.7047431468963623,
                "x": -0.7094548344612122,
                "y": 0.0024358443915843964,
                "z": -0.0022348060738295317
            },
            "position": {
                "x": 0.6094750761985779,
                "y": 0.3671506643295288,
                "z": 0.19426114857196808
            }
        },
        "name": "move_to_magneteinheit_A"
    },
    "id": "RRTstar_move_to_magneteinheit_A_114",
    "joint_names": [
        "shoulder_pan_joint",
        "shoulder_lift_joint",
        "elbow_joint",
        "wrist_1_joint",
        "wrist_2_joint",
        "wrist_3_joint"
    ],
    "metrics": {
        "cart_traj_len": 3.6701138638147945,
        "distance_elbow_joint": 3.913813898596256,
        "distance_shoulder_lift_joint": 0.5795240093577807,
        "distance_shoulder_pan_joint": 3.1154673606529846,
        "distance_wrist_1_joint": 3.4751819626449802,
        "distance_wrist_2_joint": 1.4350829531870648,
        "distance_wrist_3_joint": 0.8825248992090179,
        "smoothness": 0.13294403913902297,
        "time": 5.0219630319999995,
        "traj_len": 3.6608189088847443,
        "weighted_distance": 4.480726481040566
    },
    "planner": "RRTstar",
    "start": {
        "state": {
            "elbow_joint": -1.9196185241190666,
            "shoulder_lift_joint": -1.2443396400964142,
            "shoulder_pan_joint": 2.6996025414629847,
            "wrist_1_joint": -1.5485510000780065,
            "wrist_2_joint": -1.5709468930060704,
            "wrist_3_joint": 0.4420197071253992
        }
    },
    "waypoints": [
        {
            "positions": [
                2.6996025414629847,
                -1.2443396400964142,
                -1.9196185241190666,
                -1.5485510000780065,
                -1.5709468930060704,
                0.4420197071253992
            ]
        },
        {
            "positions": [
                2.5857648849410713,
                -1.2234214639766954,
                -1.822085170265141,
                -1.470584989618155,
                -1.5149951722659343,
                0.41553899675660483
            ]
        },
        {
            "positions": [
                2.4719272284191582,
                -1.2025032878569766,
                -1.7245518164112157,
                -1.3926189791583035,
                -1.459043451525798,
                0.3890582863878105
            ]
        },
        {
            "positions": [
                2.3580895718972448,
                -1.181585111737258,
                -1.62701846255729,
                -1.3146529686984518,
                -1.4030917307856619,
                0.36257757601901613
            ]
        },
        {
            "positions": [
                2.2442519153753313,
                -1.1606669356175392,
                -1.5294851087033645,
                -1.2366869582386004,
                -1.3471400100455255,
                0.3360968656502218
            ]
        },
        {
            "positions": [
                2.130414258853418,
                -1.1397487594978204,
                -1.4319517548494392,
                -1.1587209477787488,
                -1.2911882893053894,
                0.3096161552814274
            ]
        },
        {
            "positions": [
                2.016576602331505,
                -1.1188305833781016,
                -1.3344184009955136,
                -1.0807549373188974,
                -1.235236568565253,
                0.2831354449126331
            ]
        },
        {
            "positions": [
                1.9027389458095914,
                -1.0979124072583828,
                -1.236885047141588,
                -1.0027889268590457,
                -1.179284847825117,
                0.2566547345438387
            ]
        },
        {
            "positions": [
                1.788901289287678,
                -1.076994231138664,
                -1.1393516932876624,
                -0.9248229163991943,
                -1.123333127084981,
                0.23017402417504434
            ]
        },
        {
            "positions": [
                1.6750636327657649,
                -1.0560760550189454,
                -1.041818339433737,
                -0.8468569059393428,
                -1.0673814063448446,
                0.20369331380625
            ]
        },
        {
            "positions": [
                1.5612259762438514,
                -1.0351578788992266,
                -0.9442849855798114,
                -0.7688908954794912,
                -1.0114296856047083,
                0.17721260343745565
            ]
        },
        {
            "positions": [
                1.4473883197219382,
                -1.0142397027795078,
                -0.8467516317258859,
                -0.6909248850196398,
                -0.9554779648645721,
                0.1507318930686613
            ]
        },
        {
            "positions": [
                1.333550663200025,
                -0.993321526659789,
                -0.7492182778719605,
                -0.6129588745597883,
                -0.899526244124436,
                0.12425118269986696
            ]
        },
        {
            "positions": [
                1.2197130066781114,
                -0.9724033505400702,
                -0.6516849240180349,
                -0.5349928640999366,
                -0.8435745233842997,
                0.09777047233107256
            ]
        },
        {
            "positions": [
                1.105875350156198,
                -0.9514851744203515,
                -0.5541515701641093,
                -0.457026853640085,
                -0.7876228026441635,
                0.07128976196227821
            ]
        },
        {
            "positions": [
                0.992037693634285,
                -0.9305669983006328,
                -0.45661821631018396,
                -0.3790608431802336,
                -0.7316710819040274,
                0.04480905159348386
            ]
        },
        {
            "positions": [
                0.8782000371123715,
                -0.909648822180914,
                -0.35908486245625837,
                -0.3010948327203822,
                -0.6757193611638912,
                0.018328341224689515
            ]
        },
        {
            "positions": [
                0.764362380590458,
                -0.8887306460611952,
                -0.2615515086023328,
                -0.22312882226053055,
                -0.6197676404237549,
                -0.008152369144104887
            ]
        },
        {
            "positions": [
                0.650524724068545,
                -0.8678124699414764,
                -0.16401815474840742,
                -0.14516281180067914,
                -0.5638159196836188,
                -0.03463307951289918
            ]
        },
        {
            "positions": [
                0.5366870675466315,
                -0.8468942938217577,
                -0.06648480089448183,
                -0.0671968013408275,
                -0.5078641989434827,
                -0.06111378988169358
            ]
        },
        {
            "positions": [
                0.42284941102471807,
                -0.8259761177020389,
                0.031048552959443754,
                0.010769209119024126,
                -0.45191247820334635,
                -0.08759450025048787
            ]
        },
        {
            "positions": [
                0.30901175450280505,
                -0.8050579415823202,
                0.1285819068133689,
                0.08873521957887553,
                -0.39596075746321024,
                -0.11407521061928227
            ]
        },
        {
            "positions": [
                0.19517409798089158,
                -0.7841397654626014,
                0.22611526066729493,
                0.16670123003872694,
                -0.3400090367230739,
                -0.14055592098807657
            ]
        },
        {
            "positions": [
                0.08133644145897811,
                -0.7632215893428826,
                0.3236486145212205,
                0.24466724049857858,
                -0.2840573159829378,
                -0.16703663135687097
            ]
        },
        {
            "positions": [
                -0.03250121506293491,
                -0.742303413223164,
                0.42118196837514565,
                0.32263325095843,
                -0.22810559524280172,
                -0.19351734172566526
            ]
        },
        {
            "positions": [
                -0.14633887158484826,
                -0.7213852371034452,
                0.5187153222290712,
                0.4005992614182815,
                -0.1721538745026653,
                -0.21999805209445972
            ]
        },
        {
            "positions": [
                -0.1193862768243331,
                -0.7270421977399263,
                0.6662633274538831,
                0.5532024315331507,
                -0.16852488103429938,
                -0.19794733809554377
            ]
        },
        {
            "positions": [
                -0.09243368206381794,
                -0.7326991583764075,
                0.8138113326786949,
                0.70580560164802,
                -0.16489588756593349,
                -0.17589662409662782
            ]
        },
        {
            "positions": [
                -0.06548108730330279,
                -0.7383561190128887,
                0.9613593379035068,
                0.8584087717628891,
                -0.16126689409756756,
                -0.15384591009771187
            ]
        },
        {
            "positions": [
                -0.03852849254278762,
                -0.7440130796493698,
                1.1089073431283185,
                1.0110119418777583,
                -0.15763790062920163,
                -0.13179519609879592
            ]
        },
        {
            "positions": [
                -0.01157589778227247,
                -0.7496700402858509,
                1.2564553483531304,
                1.1636151119926277,
                -0.1540089071608357,
                -0.10974448209987998
            ]
        },
        {
            "positions": [
                0.015376696978242677,
                -0.7553270009223322,
                1.4040033535779424,
                1.3162182821074966,
                -0.1503799136924698,
                -0.08769376810096405
            ]
        },
        {
            "positions": [
                0.042329291738757824,
                -0.7609839615588133,
                1.551551358802754,
                1.468821452222366,
                -0.14675092022410388,
                -0.0656430541020481
            ]
        },
        {
            "positions": [
                0.06928188649927303,
                -0.7666409221952944,
                1.699099364027566,
                1.6214246223372353,
                -0.14312192675573795,
                -0.04359234010313212
            ]
        },
        {
            "positions": [
                0.09623448125978817,
                -0.7722978828317757,
                1.846647369252378,
                1.7740277924521046,
                -0.13949293328737206,
                -0.0215416261042162
            ]
        },
        {
            "positions": [
                0.1231870760203033,
                -0.7779548434682568,
                1.9941953744771896,
                1.9266309625669735,
                -0.13586393981900613,
                0.0005090878946997402
            ]
        }
    ]
}