{
    "goal": {
        "global_pose": {
            "orientation": {
                "w": -0.4816463035849501,
                "x": 0.5182115481033762,
                "y": 0.4908360881923453,
                "z": -0.5084816262002911
            },
            "position": {
                "x": -0.8240239810943604,
                "y": 0.19912469901144506,
                "z": 0.16403168439865112
            }
        },
        "name": "move_to_storage_D"
    },
    "id": "RRTstar_move_to_storage_D_82",
    "joint_names": [
        "shoulder_pan_joint",
        "shoulder_lift_joint",
        "elbow_joint",
        "wrist_1_joint",
        "wrist_2_joint",
        "wrist_3_joint"
    ],
    "metrics": {
        "cart_traj_len": 3.71940001340808,
        "distance_elbow_joint": 4.209086601810368,
        "distance_shoulder_lift_joint": 1.2642265926702787,
        "distance_shoulder_pan_joint": 2.811855319441765,
        "distance_wrist_1_joint": 2.2663264939977186,
        "distance_wrist_2_joint": 0.8669962517731146,
        "distance_wrist_3_joint": 3.143087321159091,
        "smoothness": 3.416070865626389e-16,
        "time": 5.039008091,
        "traj_len": 3.8159636503578405,
        "weighted_distance": 4.897047678851141
    },
    "planner": "RRTstar",
    "start": {
        "state": {
            "elbow_joint": -2.384821988534728,
            "shoulder_lift_joint": -2.2788054721415256,
            "shoulder_pan_joint": -0.1854694642142757,
            "wrist_1_joint": 1.4845938289331202,
            "wrist_2_joint": 0.17898776772866878,
            "wrist_3_joint": 0.037105688729662994
        }
    },
    "waypoints": [
        {
            "positions": [
                -0.1854694642142757,
                -2.2788054721415256,
                -2.384821988534728,
                1.4845938289331202,
                0.17898776772866878,
                0.037105688729662994
            ]
        },
        {
            "positions": [
                -0.09197195941627992,
                -2.2473821406202887,
                -2.269389183743728,
                1.4327657514046082,
                0.20112565381053166,
                -0.031343491696942935
            ]
        },
        {
            "positions": [
                0.0015255453817158704,
                -2.215958809099052,
                -2.153956378952728,
                1.3809376738760961,
                0.22326353989239453,
                -0.09979267212354886
            ]
        },
        {
            "positions": [
                0.09502305017971166,
                -2.1845354775778145,
                -2.038523574161728,
                1.329109596347584,
                0.2454014259742574,
                -0.1682418525501548
            ]
        },
        {
            "positions": [
                0.18852055497770745,
                -2.1531121460565776,
                -1.9230907693707278,
                1.2772815188190718,
                0.26753931205612025,
                -0.23669103297676072
            ]
        },
        {
            "positions": [
                0.28201805977570327,
                -2.1216888145353408,
                -1.807657964579728,
                1.2254534412905598,
                0.28967719813798315,
                -0.3051402134033667
            ]
        },
        {
            "positions": [
                0.37551556457369906,
                -2.090265483014104,
                -1.6922251597887277,
                1.1736253637620477,
                0.31181508421984605,
                -0.3735893938299726
            ]
        },
        {
            "positions": [
                0.46901306937169496,
                -2.0588421514928665,
                -1.5767923549977279,
                1.1217972862335357,
                0.3339529703017089,
                -0.44203857425657855
            ]
        },
        {
            "positions": [
                0.5625105741696906,
                -2.0274188199716296,
                -1.4613595502067278,
                1.0699692087050237,
                0.35609085638357174,
                -0.5104877546831844
            ]
        },
        {
            "positions": [
                0.6560080789676865,
                -1.9959954884503928,
                -1.3459267454157278,
                1.0181411311765114,
                0.37822874246543464,
                -0.5789369351097904
            ]
        },
        {
            "positions": [
                0.7495055837656823,
                -1.9645721569291557,
                -1.2304939406247277,
                0.9663130536479994,
                0.40036662854729754,
                -0.6473861155363964
            ]
        },
        {
            "positions": [
                0.843003088563678,
                -1.9331488254079188,
                -1.1150611358337277,
                0.9144849761194873,
                0.4225045146291604,
                -0.7158352959630022
            ]
        },
        {
            "positions": [
                0.9365005933616738,
                -1.9017254938866817,
                -0.9996283310427276,
                0.8626568985909753,
                0.44464240071102323,
                -0.7842844763896082
            ]
        },
        {
            "positions": [
                1.0299980981596697,
                -1.8703021623654448,
                -0.8841955262517276,
                0.8108288210624631,
                0.4667802867928861,
                -0.8527336568162142
            ]
        },
        {
            "positions": [
                1.1234956029576655,
                -1.8388788308442077,
                -0.7687627214607275,
                0.7590007435339511,
                0.48891817287474904,
                -0.9211828372428201
            ]
        },
        {
            "positions": [
                1.2169931077556613,
                -1.8074554993229706,
                -0.6533299166697275,
                0.7071726660054389,
                0.5110560589566119,
                -0.989632017669426
            ]
        },
        {
            "positions": [
                1.3104906125536568,
                -1.7760321678017337,
                -0.5378971118787277,
                0.655344588476927,
                0.5331939450384747,
                -1.0580811980960318
            ]
        },
        {
            "positions": [
                1.4039881173516526,
                -1.7446088362804968,
                -0.42246430708772786,
                0.603516510948415,
                0.5553318311203376,
                -1.1265303785226377
            ]
        },
        {
            "positions": [
                1.4974856221496486,
                -1.7131855047592597,
                -0.3070315022967276,
                0.5516884334199028,
                0.5774697172022005,
                -1.1949795589492438
            ]
        },
        {
            "positions": [
                1.5909831269476442,
                -1.6817621732380228,
                -0.19159869750572778,
                0.4998603558913908,
                0.5996076032840634,
                -1.2634287393758497
            ]
        },
        {
            "positions": [
                1.6844806317456402,
                -1.6503388417167857,
                -0.07616589271472751,
                0.4480322783628785,
                0.6217454893659262,
                -1.3318779198024557
            ]
        },
        {
            "positions": [
                1.777978136543636,
                -1.6189155101955488,
                0.03926691207627231,
                0.39620420083436647,
                0.6438833754477891,
                -1.4003271002290616
            ]
        },
        {
            "positions": [
                1.8714756413416316,
                -1.587492178674312,
                0.15469971686727257,
                0.34437612330585443,
                0.6660212615296519,
                -1.4687762806556675
            ]
        },
        {
            "positions": [
                1.9649731461396276,
                -1.5560688471530748,
                0.27013252165827284,
                0.2925480457773424,
                0.6881591476115149,
                -1.5372254610822735
            ]
        },
        {
            "positions": [
                2.058470650937623,
                -1.5246455156318377,
                0.38556532644927266,
                0.24071996824883035,
                0.7102970336933777,
                -1.6056746415088794
            ]
        },
        {
            "positions": [
                2.151968155735619,
                -1.4932221841106008,
                0.5009981312402725,
                0.1888918907203183,
                0.7324349197752406,
                -1.6741238219354853
            ]
        },
        {
            "positions": [
                2.245465660533615,
                -1.461798852589364,
                0.6164309360312727,
                0.13706381319180605,
                0.7545728058571034,
                -1.7425730023620913
            ]
        },
        {
            "positions": [
                2.3389631653316107,
                -1.4303755210681268,
                0.7318637408222726,
                0.08523573566329423,
                0.7767106919389662,
                -1.8110221827886972
            ]
        },
        {
            "positions": [
                2.4324606701296068,
                -1.3989521895468897,
                0.8472965456132728,
                0.03340765813478197,
                0.7988485780208292,
                -1.8794713632153033
            ]
        },
        {
            "positions": [
                2.5259581749276023,
                -1.3675288580256528,
                0.9627293504042724,
                -0.01842041939373002,
                0.820986464102692,
                -1.9479205436419091
            ]
        },
        {
            "positions": [
                2.537116806072034,
                -1.3283121937418298,
                1.0584554907233132,
                -0.10323289113493758,
                0.8459861924803689,
                -2.0765939979516332
            ]
        },
        {
            "positions": [
                2.548275437216466,
                -1.289095529458007,
                1.154181631042354,
                -0.18804536287614512,
                0.8709859208580457,
                -2.205267452261358
            ]
        },
        {
            "positions": [
                2.559434068360898,
                -1.2498788651741841,
                1.249907771361395,
                -0.2728578346173527,
                0.8959856492357224,
                -2.333940906571082
            ]
        },
        {
            "positions": [
                2.5705926995053296,
                -1.2106622008903614,
                1.345633911680436,
                -0.35767030635856023,
                0.9209853776133993,
                -2.4626143608808064
            ]
        },
        {
            "positions": [
                2.581751330649762,
                -1.1714455366065384,
                1.4413600519994767,
                -0.4424827780997679,
                0.9459851059910761,
                -2.5912878151905305
            ]
        },
        {
            "positions": [
                2.5929099617941938,
                -1.1322288723227156,
                1.5370861923185175,
                -0.5272952498409754,
                0.9709848343687528,
                -2.7199612695002546
            ]
        },
        {
            "positions": [
                2.6040685929386256,
                -1.0930122080388927,
                1.6328123326375583,
                -0.6121077215821831,
                0.9959845627464297,
                -2.848634723809979
            ]
        },
        {
            "positions": [
                2.6152272240830574,
                -1.05379554375507,
                1.7285384729565991,
                -0.6969201933233905,
                1.0209842911241065,
                -2.9773081781197037
            ]
        },
        {
            "positions": [
                2.6263858552274892,
                -1.014578879471247,
                1.8242646132756402,
                -0.7817326650645982,
                1.0459840195017833,
                -3.105981632429428
            ]
        }
    ]
}