{
    "goal": {
        "global_pose": {
            "orientation": {
                "w": 0.5084816262002911,
                "x": -0.4908360881923452,
                "y": 0.5182115481033761,
                "z": -0.48164630358495003
            },
            "position": {
                "x": 0.5540239810943604,
                "y": -0.46912469901144505,
                "z": 0.16403168439865112
            }
        },
        "name": "move_to_storage_B"
    },
    "id": "RRTstar_move_to_storage_B_70",
    "joint_names": [
        "shoulder_pan_joint",
        "shoulder_lift_joint",
        "elbow_joint",
        "wrist_1_joint",
        "wrist_2_joint",
        "wrist_3_joint"
    ],
    "metrics": {
        "cart_traj_len": 0.5540861003565442,
        "distance_elbow_joint": 0.5403485999906499,
        "distance_shoulder_lift_joint": 0.5520710228769741,
        "distance_shoulder_pan_joint": 0.18234864372924753,
        "distance_wrist_1_joint": 2.9906099400719377,
        "distance_wrist_2_joint": 2.7088624669605554,
        "distance_wrist_3_joint": 3.1400265802703293,
        "smoothness": 0.12699047480471928,
        "time": 5.038779289,
        "traj_len": 3.180293579828707,
        "weighted_distance": 4.700403474327799
    },
    "planner": "RRTstar",
    "start": {
        "state": {
            "elbow_joint": 1.664937868594044,
            "shoulder_lift_joint": -0.661644460510453,
            "shoulder_pan_joint": -0.9139846352900073,
            "wrist_1_joint": 2.146753192139373,
            "wrist_2_joint": -2.2341966793290973,
            "wrist_3_joint": 0.005466555786416001
        }
    },
    "waypoints": [
        {
            "positions": [
                -0.9139846352900073,
                -0.661644460510453,
                1.664937868594044,
                2.146753192139373,
                -2.2341966793290973,
                0.005466555786416001
            ]
        },
        {
            "positions": [
                -0.9280456366903769,
                -0.638702456125328,
                1.6176983287404252,
                2.0095238229355883,
                -2.218476640403111,
                -0.12109379502098105
            ]
        },
        {
            "positions": [
                -0.9421066380907464,
                -0.6157604517402031,
                1.5704587888868065,
                1.8722944537318031,
                -2.2027566014771245,
                -0.24765414582837808
            ]
        },
        {
            "positions": [
                -0.9485327481294342,
                -0.6368515773279833,
                1.589036685565282,
                1.7591214869957879,
                -2.0911973352642668,
                -0.3679418907723587
            ]
        },
        {
            "positions": [
                -0.9549588581681221,
                -0.6579427029157634,
                1.6076145822437575,
                1.6459485202597726,
                -1.9796380690514093,
                -0.4882296357163393
            ]
        },
        {
            "positions": [
                -0.9613849682068099,
                -0.6790338285035437,
                1.626192478922233,
                1.5327755535237573,
                -1.8680788028385518,
                -0.6085173806603199
            ]
        },
        {
            "positions": [
                -0.9678110782454977,
                -0.7001249540913238,
                1.6447703756007086,
                1.419602586787742,
                -1.756519536625694,
                -0.7288051256043006
            ]
        },
        {
            "positions": [
                -0.9742371882841856,
                -0.721216079679104,
                1.6633482722791841,
                1.3064296200517265,
                -1.6449602704128363,
                -0.8490928705482812
            ]
        },
        {
            "positions": [
                -0.9806632983228735,
                -0.7423072052668842,
                1.6819261689576597,
                1.1932566533157112,
                -1.5334010041999788,
                -0.9693806154922618
            ]
        },
        {
            "positions": [
                -0.9870894083615613,
                -0.7633983308546644,
                1.7005040656361352,
                1.080083686579696,
                -1.4218417379871213,
                -1.0896683604362425
            ]
        },
        {
            "positions": [
                -0.9935155184002492,
                -0.7844894564424445,
                1.7190819623146105,
                0.9669107198436807,
                -1.3102824717742636,
                -1.209956105380223
            ]
        },
        {
            "positions": [
                -0.9999416284389371,
                -0.8055805820302246,
                1.737659858993086,
                0.8537377531076653,
                -1.1987232055614059,
                -1.3302438503242038
            ]
        },
        {
            "positions": [
                -1.0063677384776248,
                -0.8266717076180048,
                1.7562377556715616,
                0.74056478637165,
                -1.0871639393485484,
                -1.4505315952681843
            ]
        },
        {
            "positions": [
                -1.0127938485163128,
                -0.847762833205785,
                1.7748156523500371,
                0.6273918196356347,
                -0.9756046731356909,
                -1.5708193402121648
            ]
        },
        {
            "positions": [
                -1.0192199585550006,
                -0.8688539587935652,
                1.7933935490285127,
                0.5142188528996194,
                -0.8640454069228332,
                -1.6911070851561456
            ]
        },
        {
            "positions": [
                -1.0256460685936883,
                -0.8899450843813453,
                1.8119714457069882,
                0.40104588616360415,
                -0.7524861407099757,
                -1.8113948301001261
            ]
        },
        {
            "positions": [
                -1.0320721786323763,
                -0.9110362099691256,
                1.8305493423854637,
                0.28787291942758864,
                -0.6409268744971179,
                -1.931682575044107
            ]
        },
        {
            "positions": [
                -1.038498288671064,
                -0.9321273355569057,
                1.8491272390639393,
                0.17469995269157357,
                -0.5293676082842604,
                -2.0519703199880874
            ]
        },
        {
            "positions": [
                -1.044924398709752,
                -0.9532184611446859,
                1.8677051357424146,
                0.06152698595555828,
                -0.4178083420714027,
                -2.172258064932068
            ]
        },
        {
            "positions": [
                -1.0513505087484398,
                -0.974309586732466,
                1.8862830324208903,
                -0.051645980780457235,
                -0.306249075858545,
                -2.292545809876049
            ]
        },
        {
            "positions": [
                -1.0577766187871278,
                -0.9954007123202462,
                1.9048609290993657,
                -0.16481894751647252,
                -0.19468980964568727,
                -2.4128335548200295
            ]
        },
        {
            "positions": [
                -1.0642027288258156,
                -1.0164918379080263,
                1.9234388257778412,
                -0.2779919142524878,
                -0.08313054343283,
                -2.53312129976401
            ]
        },
        {
            "positions": [
                -1.0706288388645033,
                -1.0375829634958067,
                1.9420167224563167,
                -0.3911648809885031,
                0.028428722780027726,
                -2.6534090447079905
            ]
        },
        {
            "positions": [
                -1.0770549489031913,
                -1.0586740890835866,
                1.9605946191347923,
                -0.5043378477245184,
                0.13998798899288545,
                -2.773696789651971
            ]
        },
        {
            "positions": [
                -1.083481058941879,
                -1.079765214671367,
                1.9791725158132678,
                -0.6175108144605337,
                0.2515472552057427,
                -2.8939845345959516
            ]
        },
        {
            "positions": [
                -1.089907168980567,
                -1.1008563402591471,
                1.9977504124917433,
                -0.730683781196549,
                0.36310652141860045,
                -3.0142722795399326
            ]
        },
        {
            "positions": [
                -1.0963332790192548,
                -1.1219474658469273,
                2.016328309170219,
                -0.8438567479325642,
                0.474665787631458,
                -3.134560024483913
            ]
        }
    ]
}