{
    "goal": {
        "global_pose": {
            "orientation": {
                "w": 0.5084816262002911,
                "x": -0.4908360881923452,
                "y": 0.5182115481033761,
                "z": -0.48164630358495003
            },
            "position": {
                "x": 0.5540239810943604,
                "y": -0.46912469901144505,
                "z": 0.16403168439865112
            }
        },
        "name": "move_to_storage_B"
    },
    "id": "RRTstar_move_to_storage_B_87",
    "joint_names": [
        "shoulder_pan_joint",
        "shoulder_lift_joint",
        "elbow_joint",
        "wrist_1_joint",
        "wrist_2_joint",
        "wrist_3_joint"
    ],
    "metrics": {
        "cart_traj_len": 0.6696629042706197,
        "distance_elbow_joint": 0.5094698863299763,
        "distance_shoulder_lift_joint": 0.4582969482736292,
        "distance_shoulder_pan_joint": 0.47171742546826756,
        "distance_wrist_1_joint": 2.9985192630905058,
        "distance_wrist_2_joint": 2.699653190916914,
        "distance_wrist_3_joint": 3.1234715683322043,
        "smoothness": 0.08472243543766364,
        "time": 5.022787282,
        "traj_len": 3.2032995929840054,
        "weighted_distance": 4.712350143302524
    },
    "planner": "RRTstar",
    "start": {
        "state": {
            "elbow_joint": 1.664937868594044,
            "shoulder_lift_joint": -0.661644460510453,
            "shoulder_pan_joint": -0.9139846352900073,
            "wrist_1_joint": 2.146753192139373,
            "wrist_2_joint": -2.2341966793290973,
            "wrist_3_joint": 0.005466555786416001
        }
    },
    "waypoints": [
        {
            "positions": [
                -0.9139846352900073,
                -0.661644460510453,
                1.664937868594044,
                2.146753192139373,
                -2.2341966793290973,
                0.005466555786416001
            ]
        },
        {
            "positions": [
                -0.895893285574539,
                -0.6731845516672466,
                1.65501623859365,
                2.0337122176954416,
                -2.1513612701354976,
                -0.11037090551601005
            ]
        },
        {
            "positions": [
                -0.8778019358590707,
                -0.6847246428240402,
                1.645094608593256,
                1.9206712432515103,
                -2.0685258609418984,
                -0.2262083668184361
            ]
        },
        {
            "positions": [
                -0.8597105861436024,
                -0.6962647339808338,
                1.635172978592862,
                1.807630268807579,
                -1.985690451748299,
                -0.3420458281208621
            ]
        },
        {
            "positions": [
                -0.8416192364281341,
                -0.7078048251376274,
                1.625251348592468,
                1.6945892943636474,
                -1.9028550425546995,
                -0.45788328942328815
            ]
        },
        {
            "positions": [
                -0.8235278867126659,
                -0.719344916294421,
                1.615329718592074,
                1.5815483199197158,
                -1.8200196333610998,
                -0.5737207507257143
            ]
        },
        {
            "positions": [
                -0.8054365369971975,
                -0.7308850074512145,
                1.60540808859168,
                1.4685073454757844,
                -1.7371842241675004,
                -0.6895582120281403
            ]
        },
        {
            "positions": [
                -0.7873451872817292,
                -0.7424250986080082,
                1.595486458591286,
                1.355466371031853,
                -1.654348814973901,
                -0.8053956733305664
            ]
        },
        {
            "positions": [
                -0.769253837566261,
                -0.7539651897648018,
                1.585564828590892,
                1.2424253965879215,
                -1.5715134057803015,
                -0.9212331346329924
            ]
        },
        {
            "positions": [
                -0.7864636600791305,
                -0.7732270960289744,
                1.6082015047133564,
                1.1322047930332344,
                -1.464304462760927,
                -1.0368527071547184
            ]
        },
        {
            "positions": [
                -0.803673482592,
                -0.7924890022931471,
                1.630838180835821,
                1.0219841894785475,
                -1.3570955197415522,
                -1.1524722796764446
            ]
        },
        {
            "positions": [
                -0.8208833051048696,
                -0.8117509085573197,
                1.6534748569582853,
                0.9117635859238604,
                -1.2498865767221776,
                -1.2680918521981708
            ]
        },
        {
            "positions": [
                -0.8380931276177391,
                -0.8310128148214924,
                1.67611153308075,
                0.8015429823691733,
                -1.142677633702803,
                -1.3837114247198967
            ]
        },
        {
            "positions": [
                -0.8553029501306086,
                -0.850274721085665,
                1.6987482092032142,
                0.6913223788144863,
                -1.0354686906834283,
                -1.4993309972416229
            ]
        },
        {
            "positions": [
                -0.8725127726434783,
                -0.8695366273498377,
                1.7213848853256788,
                0.5811017752597993,
                -0.9282597476640536,
                -1.6149505697633488
            ]
        },
        {
            "positions": [
                -0.8897225951563478,
                -0.8887985336140103,
                1.7440215614481431,
                0.47088117170511234,
                -0.8210508046446789,
                -1.730570142285075
            ]
        },
        {
            "positions": [
                -0.9069324176692173,
                -0.908060439878183,
                1.7666582375706077,
                0.36066056815042524,
                -0.7138418616253044,
                -1.8461897148068012
            ]
        },
        {
            "positions": [
                -0.9241422401820868,
                -0.9273223461423556,
                1.789294913693072,
                0.25043996459573825,
                -0.6066329186059297,
                -1.9618092873285273
            ]
        },
        {
            "positions": [
                -0.9413520626949563,
                -0.9465842524065283,
                1.8119315898155366,
                0.14021936104105115,
                -0.49942397558655505,
                -2.0774288598502535
            ]
        },
        {
            "positions": [
                -0.9585618852078259,
                -0.965846158670701,
                1.834568265938001,
                0.029998757486364047,
                -0.39221503256718027,
                -2.1930484323719797
            ]
        },
        {
            "positions": [
                -0.9757717077206954,
                -0.9851080649348736,
                1.8572049420604655,
                -0.08022184606832283,
                -0.2850060895478057,
                -2.3086680048937054
            ]
        },
        {
            "positions": [
                -0.992981530233565,
                -1.0043699711990464,
                1.8798416181829298,
                -0.19044244962300994,
                -0.17779714652843093,
                -2.4242875774154315
            ]
        },
        {
            "positions": [
                -1.0101913527464346,
                -1.023631877463219,
                1.9024782943053942,
                -0.3006630531776968,
                -0.07058820350905637,
                -2.5399071499371577
            ]
        },
        {
            "positions": [
                -1.0274011752593042,
                -1.0428937837273917,
                1.9251149704278587,
                -0.4108836567323839,
                0.03662073951031819,
                -2.655526722458884
            ]
        },
        {
            "positions": [
                -1.0446109977721736,
                -1.0621556899915643,
                1.9477516465503233,
                -0.521104260287071,
                0.14382968252969275,
                -2.7711462949806096
            ]
        },
        {
            "positions": [
                -1.0618208202850432,
                -1.0814175962557369,
                1.9703883226727876,
                -0.6313248638417581,
                0.25103862554906753,
                -2.886765867502336
            ]
        },
        {
            "positions": [
                -1.0790306427979126,
                -1.1006795025199096,
                1.993024998795252,
                -0.741545467396445,
                0.3582475685684421,
                -3.002385440024062
            ]
        },
        {
            "positions": [
                -1.0962404653107822,
                -1.1199414087840822,
                2.0156616749177165,
                -0.8517660709511322,
                0.46545651158781676,
                -3.118005012545788
            ]
        }
    ]
}