{
    "goal": {
        "global_pose": {
            "orientation": {
                "w": -0.4816463035849501,
                "x": 0.5182115481033762,
                "y": 0.4908360881923453,
                "z": -0.5084816262002911
            },
            "position": {
                "x": -0.8240239810943604,
                "y": -0.300875300988555,
                "z": 0.16403168439865112
            }
        },
        "name": "move_to_storage_C"
    },
    "id": "RRTstar_move_to_storage_C_19",
    "joint_names": [
        "shoulder_pan_joint",
        "shoulder_lift_joint",
        "elbow_joint",
        "wrist_1_joint",
        "wrist_2_joint",
        "wrist_3_joint"
    ],
    "metrics": {
        "cart_traj_len": 0.5769748740308689,
        "distance_elbow_joint": 0.25864662773606395,
        "distance_shoulder_lift_joint": 0.1894037911717421,
        "distance_shoulder_pan_joint": 0.49439406530151686,
        "distance_wrist_1_joint": 0.0750866611183525,
        "distance_wrist_2_joint": 1.0689664926655489,
        "distance_wrist_3_joint": 0.061640870942257564,
        "smoothness": 2.5376526478085547e-16,
        "time": 5.004034627999999,
        "traj_len": 1.4656529292214722,
        "weighted_distance": 1.8480999444304678
    },
    "planner": "RRTstar",
    "start": {
        "state": {
            "elbow_joint": 2.010868314990456,
            "shoulder_lift_joint": -1.1634956873337592,
            "shoulder_pan_joint": -2.4736205022346125,
            "wrist_1_joint": -0.8367026794202681,
            "wrist_2_joint": 0.6746043897044499,
            "wrist_3_joint": -3.1496632123970403
        }
    },
    "waypoints": [
        {
            "positions": [
                -2.4736205022346125,
                -1.1634956873337592,
                2.010868314990456,
                -0.8367026794202681,
                0.6746043897044499,
                -3.1496632123970403
            ]
        },
        {
            "positions": [
                -2.5560195131181986,
                -1.1319283888051355,
                1.9677605437011119,
                -0.8241882359005427,
                0.8527654718153748,
                -3.139389733906664
            ]
        },
        {
            "positions": [
                -2.638418524001785,
                -1.1003610902765117,
                1.924652772411768,
                -0.8116737923808173,
                1.0309265539262995,
                -3.129116255416288
            ]
        },
        {
            "positions": [
                -2.720817534885371,
                -1.068793791747888,
                1.881545001122424,
                -0.7991593488610919,
                1.2090876360372245,
                -3.1188427769259115
            ]
        },
        {
            "positions": [
                -2.803216545768957,
                -1.0372264932192645,
                1.8384372298330798,
                -0.7866449053413664,
                1.387248718148149,
                -3.108569298435535
            ]
        },
        {
            "positions": [
                -2.885615556652543,
                -1.0056591946906408,
                1.7953294585437358,
                -0.774130461821641,
                1.565409800259074,
                -3.098295819945159
            ]
        },
        {
            "positions": [
                -2.9680145675361294,
                -0.9740918961620171,
                1.7522216872543919,
                -0.7616160183019156,
                1.7435708823699987,
                -3.0880223414547827
            ]
        }
    ]
}