{
    "goal": {
        "global_pose": {
            "orientation": {
                "w": 0.7031023502349854,
                "x": -0.7110244035720825,
                "y": 0.007748599164187908,
                "z": 0.005598929710686207
            },
            "position": {
                "x": 0.11585023208521307,
                "y": 0.44412534475326537,
                "z": 0.3711530566215515
            }
        },
        "name": "move_to_auspresseinheit_A"
    },
    "id": "RRTstar_move_to_auspresseinheit_A_100",
    "joint_names": [
        "shoulder_pan_joint",
        "shoulder_lift_joint",
        "elbow_joint",
        "wrist_1_joint",
        "wrist_2_joint",
        "wrist_3_joint"
    ],
    "metrics": {
        "cart_traj_len": 0.7177248268823144,
        "distance_elbow_joint": 0.030657694287417048,
        "distance_shoulder_lift_joint": 0.8362284021956854,
        "distance_shoulder_pan_joint": 1.0431534812386398,
        "distance_wrist_1_joint": 0.5731101549954047,
        "distance_wrist_2_joint": 0.6697391427452415,
        "distance_wrist_3_joint": 0.16865465697871773,
        "smoothness": 0.8306425870356801,
        "time": 5.014625453,
        "traj_len": 1.8225102283502024,
        "weighted_distance": 2.213978803904678
    },
    "planner": "RRTstar",
    "start": {
        "state": {
            "elbow_joint": 2.4225746658250005,
            "shoulder_lift_joint": -1.3736534386056498,
            "shoulder_pan_joint": -0.3378633547517467,
            "wrist_1_joint": -1.0288598680537169,
            "wrist_2_joint": 1.233022673432363,
            "wrist_3_joint": -3.0940220416140027
        }
    },
    "waypoints": [
        {
            "positions": [
                -0.3378633547517467,
                -1.3736534386056498,
                2.4225746658250005,
                -1.0288598680537169,
                1.233022673432363,
                -3.0940220416140027
            ]
        },
        {
            "positions": [
                -0.3012335350259371,
                -1.4877802596654681,
                2.4219695526263654,
                -0.9426331843328769,
                1.133427204294962,
                -3.112552836453065
            ]
        },
        {
            "positions": [
                -0.2646037153001275,
                -1.6019070807252862,
                2.42136443942773,
                -0.8564065006120369,
                1.0338317351575608,
                -3.1310836312921277
            ]
        },
        {
            "positions": [
                -0.22797389557431785,
                -1.7160339017851043,
                2.4207593262290947,
                -0.7701798168911969,
                0.9342362660201597,
                -3.14961442613119
            ]
        },
        {
            "positions": [
                -0.19134407584850827,
                -1.8301607228449226,
                2.4201542130304596,
                -0.6839531331703569,
                0.8346407968827587,
                -3.1681452209702523
            ]
        },
        {
            "positions": [
                -0.15471425612269862,
                -1.944287543904741,
                2.419549099831824,
                -0.5977264494495168,
                0.7350453277453575,
                -3.186676015809315
            ]
        },
        {
            "positions": [
                -0.11808443639688901,
                -2.058414364964559,
                2.418943986633189,
                -0.5114997657286768,
                0.6354498586079564,
                -3.2052068106483773
            ]
        },
        {
            "positions": [
                0.1563737512310384,
                -2.0079252063523003,
                2.4099349816013205,
                -0.49291641483855525,
                0.6595053012482347,
                -3.1860501813335964
            ]
        },
        {
            "positions": [
                0.43083193885896576,
                -1.9574360477400414,
                2.400925976569452,
                -0.4743330639484337,
                0.6835607438885131,
                -3.166893552018815
            ]
        },
        {
            "positions": [
                0.7052901264868932,
                -1.9069468891277828,
                2.3919169715375834,
                -0.45574971305831213,
                0.7076161865287913,
                -3.147736922704034
            ]
        }
    ]
}