{
    "goal": {
        "global_pose": {
            "orientation": {
                "w": 0.005598929693374612,
                "x": 0.007748599140229565,
                "y": 0.7110244013736278,
                "z": -0.7031023480610252
            },
            "position": {
                "x": -0.8858502320852131,
                "y": -0.7141253447532654,
                "z": 0.3711530566215515
            }
        },
        "name": "move_to_auspresseinheit_C"
    },
    "id": "RRTstar_move_to_auspresseinheit_C_58",
    "joint_names": [
        "shoulder_pan_joint",
        "shoulder_lift_joint",
        "elbow_joint",
        "wrist_1_joint",
        "wrist_2_joint",
        "wrist_3_joint"
    ],
    "metrics": {
        "cart_traj_len": 0.49229204302242197,
        "distance_elbow_joint": 0.9857358948675148,
        "distance_shoulder_lift_joint": 0.3183667510161968,
        "distance_shoulder_pan_joint": 0.2570444947289481,
        "distance_wrist_1_joint": 0.6539000801729645,
        "distance_wrist_2_joint": 1.3019351876973577,
        "distance_wrist_3_joint": 0.05084342106577999,
        "smoothness": 3.2297397080004555e-16,
        "time": 5.001487849999999,
        "traj_len": 1.8888689286313018,
        "weighted_distance": 2.371781596089877
    },
    "planner": "RRTstar",
    "start": {
        "state": {
            "elbow_joint": 1.7527959577737207,
            "shoulder_lift_joint": -0.9740617694225068,
            "shoulder_pan_joint": -2.967991417825858,
            "wrist_1_joint": -0.759517768980727,
            "wrist_2_joint": 1.7443932448377408,
            "wrist_3_joint": -3.0840537646736568
        }
    },
    "waypoints": [
        {
            "positions": [
                -2.967991417825858,
                -0.9740617694225068,
                1.7527959577737207,
                -0.759517768980727,
                1.7443932448377408,
                -3.0840537646736568
            ]
        },
        {
            "positions": [
                -2.9422869683529633,
                -0.9422250943208871,
                1.6542223682869692,
                -0.6941277609634305,
                1.614199726068005,
                -3.0891381067802346
            ]
        },
        {
            "positions": [
                -2.9165825188800683,
                -0.9103884192192674,
                1.5556487788002178,
                -0.6287377529461341,
                1.4840062072982692,
                -3.094222448886813
            ]
        },
        {
            "positions": [
                -2.8908780694071736,
                -0.8785517441176477,
                1.4570751893134664,
                -0.5633477449288377,
                1.3538126885285335,
                -3.0993067909933907
            ]
        },
        {
            "positions": [
                -2.8651736199342785,
                -0.846715069016028,
                1.3585015998267147,
                -0.49795773691154116,
                1.2236191697587977,
                -3.104391133099969
            ]
        },
        {
            "positions": [
                -2.839469170461384,
                -0.8148783939144084,
                1.2599280103399633,
                -0.4325677288942447,
                1.093425650989062,
                -3.1094754752065468
            ]
        },
        {
            "positions": [
                -2.8137647209884893,
                -0.7830417188127887,
                1.1613544208532118,
                -0.3671777208769483,
                0.9632321322193262,
                -3.1145598173131246
            ]
        },
        {
            "positions": [
                -2.788060271515594,
                -0.751205043711169,
                1.0627808313664604,
                -0.30178771285965184,
                0.8330386134495905,
                -3.119644159419703
            ]
        },
        {
            "positions": [
                -2.7623558220426996,
                -0.7193683686095493,
                0.9642072418797087,
                -0.23639770484235534,
                0.7028450946798546,
                -3.1247285015262807
            ]
        },
        {
            "positions": [
                -2.7366513725698045,
                -0.6875316935079296,
                0.8656336523929573,
                -0.1710076968250589,
                0.572651575910119,
                -3.129812843632859
            ]
        },
        {
            "positions": [
                -2.71094692309691,
                -0.65569501840631,
                0.7670600629062059,
                -0.10561768880776246,
                0.4424580571403831,
                -3.1348971857394368
            ]
        }
    ]
}