{
    "goal": {
        "global_pose": {
            "orientation": {
                "w": 0.7047431493862688,
                "x": -0.7094548369677653,
                "y": 0.0024358444001904,
                "z": -0.0022348060817251984
            },
            "position": {
                "x": -0.39052492380142206,
                "y": 0.3671506643295288,
                "z": 0.19426114857196808
            }
        },
        "name": "move_to_magneteinheit_D"
    },
    "id": "RRTstar_move_to_magneteinheit_D_97",
    "joint_names": [
        "shoulder_pan_joint",
        "shoulder_lift_joint",
        "elbow_joint",
        "wrist_1_joint",
        "wrist_2_joint",
        "wrist_3_joint"
    ],
    "metrics": {
        "cart_traj_len": 4.756548590578005,
        "distance_elbow_joint": 3.987039307687798,
        "distance_shoulder_lift_joint": 1.2958676491643681,
        "distance_shoulder_pan_joint": 4.062383181332552,
        "distance_wrist_1_joint": 2.3739559220330153,
        "distance_wrist_2_joint": 0.7682815585709614,
        "distance_wrist_3_joint": 6.678181646059414,
        "smoothness": 0.6005514949693935,
        "time": 5.040921872,
        "traj_len": 4.3778658344960855,
        "weighted_distance": 5.971960317816165
    },
    "planner": "RRTstar",
    "start": {
        "state": {
            "elbow_joint": 0.749534889911806,
            "shoulder_lift_joint": -0.6476975780787326,
            "shoulder_pan_joint": -2.711696901376241,
            "wrist_1_joint": -0.07506478083263063,
            "wrist_2_joint": 0.43296659715538205,
            "wrist_3_joint": -3.14703540197715
        }
    },
    "waypoints": [
        {
            "positions": [
                -2.711696901376241,
                -0.6476975780787326,
                0.749534889911806,
                -0.07506478083263063,
                0.43296659715538205,
                -3.14703540197715
            ]
        },
        {
            "positions": [
                -2.745584786622221,
                -0.7246965399118901,
                0.659962394483042,
                -0.024421086557692553,
                0.4071015776890672,
                -3.1358298000398355
            ]
        },
        {
            "positions": [
                -2.7794726718682012,
                -0.8016955017450474,
                0.570389899054278,
                0.026222607717245522,
                0.38123655822275226,
                -3.1246241981025205
            ]
        },
        {
            "positions": [
                -2.6689139851155357,
                -0.8313893562293143,
                0.44868109802185385,
                0.00012418291479215915,
                0.3745265109413278,
                -3.0299258707577383
            ]
        },
        {
            "positions": [
                -2.5583552983628697,
                -0.8610832107135813,
                0.32697229698942976,
                -0.025974241887661204,
                0.3678164636599033,
                -2.9352275434129567
            ]
        },
        {
            "positions": [
                -2.4477966116102037,
                -0.8907770651978482,
                0.2052634959570056,
                -0.052072666690114566,
                0.36110641637847884,
                -2.8405292160681745
            ]
        },
        {
            "positions": [
                -2.337237924857538,
                -0.920470919682115,
                0.0835546949245815,
                -0.07817109149256793,
                0.35439636909705435,
                -2.7458308887233924
            ]
        },
        {
            "positions": [
                -2.2631398217424277,
                -0.937961829260408,
                0.01884491597588188,
                -0.12781379103856305,
                0.3431763559985893,
                -2.574618995478052
            ]
        },
        {
            "positions": [
                -2.1890417186273172,
                -0.955452738838701,
                -0.045864862972817735,
                -0.17745649058455815,
                0.33195634290012427,
                -2.4034071022327117
            ]
        },
        {
            "positions": [
                -2.1149436155122068,
                -0.972943648416994,
                -0.11057464192151735,
                -0.22709919013055324,
                0.32073632980165917,
                -2.2321952089873713
            ]
        },
        {
            "positions": [
                -2.0408455123970963,
                -0.9904345579952869,
                -0.17528442087021695,
                -0.27674188967654834,
                0.3095163167031941,
                -2.060983315742031
            ]
        },
        {
            "positions": [
                -1.9667474092819859,
                -1.0079254675735798,
                -0.23999419981891656,
                -0.32638458922254343,
                0.2982963036047291,
                -1.8897714224966906
            ]
        },
        {
            "positions": [
                -1.8926493061668754,
                -1.025416377151873,
                -0.3047039787676162,
                -0.3760272887685385,
                0.28707629050626404,
                -1.7185595292513502
            ]
        },
        {
            "positions": [
                -1.818551203051765,
                -1.0429072867301659,
                -0.3694137577163158,
                -0.42566998831453373,
                0.27585627740779894,
                -1.5473476360060099
            ]
        },
        {
            "positions": [
                -1.7444530999366545,
                -1.0603981963084588,
                -0.4341235366650154,
                -0.4753126878605288,
                0.26463626430933396,
                -1.3761357427606695
            ]
        },
        {
            "positions": [
                -1.670354996821544,
                -1.0778891058867517,
                -0.49883331561371497,
                -0.5249553874065238,
                0.25341625121086886,
                -1.2049238495153294
            ]
        },
        {
            "positions": [
                -1.5962568937064336,
                -1.0953800154650448,
                -0.5635430945624147,
                -0.574598086952519,
                0.24219623811240382,
                -1.0337119562699888
            ]
        },
        {
            "positions": [
                -1.5221587905913232,
                -1.1128709250433377,
                -0.6282528735111143,
                -0.6242407864985141,
                0.23097622501393877,
                -0.8625000630246484
            ]
        },
        {
            "positions": [
                -1.4480606874762127,
                -1.1303618346216306,
                -0.6929626524598139,
                -0.6738834860445092,
                0.2197562119154737,
                -0.6912881697793081
            ]
        },
        {
            "positions": [
                -1.3739625843611023,
                -1.1478527441999238,
                -0.7576724314085136,
                -0.7235261855905044,
                0.20853619881700866,
                -0.5200762765339677
            ]
        },
        {
            "positions": [
                -1.2998644812459919,
                -1.1653436537782167,
                -0.8223822103572132,
                -0.7731688851364995,
                0.1973161857185436,
                -0.34886438328862734
            ]
        },
        {
            "positions": [
                -1.2257663781308814,
                -1.1828345633565096,
                -0.8870919893059127,
                -0.8228115846824945,
                0.18609617262007855,
                -0.17765249004328698
            ]
        },
        {
            "positions": [
                -1.151668275015771,
                -1.2003254729348027,
                -0.9518017682546124,
                -0.8724542842284897,
                0.1748761595216135,
                -0.006440596797946618
            ]
        },
        {
            "positions": [
                -1.0775701719006605,
                -1.2178163825130957,
                -1.016511547203312,
                -0.9220969837744848,
                0.16365614642314844,
                0.16477129644739374
            ]
        },
        {
            "positions": [
                -1.0034720687855503,
                -1.2353072920913886,
                -1.0812213261520114,
                -0.9717396833204798,
                0.15243613332468342,
                0.33598318969273366
            ]
        },
        {
            "positions": [
                -0.9293739656704396,
                -1.2527982016696815,
                -1.145931105100711,
                -1.021382382866475,
                0.14121612022621835,
                0.507195082938074
            ]
        },
        {
            "positions": [
                -0.8552758625553292,
                -1.2702891112479746,
                -1.2106408840494107,
                -1.07102508241247,
                0.12999610712775328,
                0.6784069761834148
            ]
        },
        {
            "positions": [
                -0.7811777594402187,
                -1.2877800208262675,
                -1.2753506629981102,
                -1.1206677819584652,
                0.11877609402928824,
                0.8496188694287552
            ]
        },
        {
            "positions": [
                -0.7070796563251083,
                -1.3052709304045604,
                -1.3400604419468098,
                -1.1703104815044603,
                0.10755608093082317,
                1.0208307626740956
            ]
        },
        {
            "positions": [
                -0.6329815532099978,
                -1.3227618399828533,
                -1.4047702208955095,
                -1.2199531810504554,
                0.0963360678323581,
                1.192042655919436
            ]
        },
        {
            "positions": [
                -0.5588834500948874,
                -1.3402527495611465,
                -1.4694799998442092,
                -1.2695958805964505,
                0.08511605473389305,
                1.3632545491647763
            ]
        },
        {
            "positions": [
                -0.48478534697977693,
                -1.3577436591394394,
                -1.5341897787929089,
                -1.3192385801424458,
                0.07389604163542801,
                1.5344664424101166
            ]
        },
        {
            "positions": [
                -0.4106872438646665,
                -1.3752345687177323,
                -1.5988995577416085,
                -1.3688812796884409,
                0.06267602853696297,
                1.705678335655457
            ]
        },
        {
            "positions": [
                -0.33658914074955604,
                -1.3927254782960254,
                -1.663609336690308,
                -1.418523979234436,
                0.05145601543849787,
                1.8768902289007974
            ]
        },
        {
            "positions": [
                -0.2624910376344456,
                -1.4102163878743184,
                -1.7283191156390076,
                -1.468166678780431,
                0.04023600234003283,
                2.0481021221461377
            ]
        },
        {
            "positions": [
                -0.18839293451933514,
                -1.4277072974526113,
                -1.7930288945877073,
                -1.5178093783264262,
                0.029015989241567786,
                2.219314015391478
            ]
        },
        {
            "positions": [
                -0.1142948314042247,
                -1.4451982070309044,
                -1.8577386735364068,
                -1.567452077872421,
                0.017795976143102743,
                2.3905259086368185
            ]
        },
        {
            "positions": [
                -0.04019672828911425,
                -1.4626891166091973,
                -1.9224484524851062,
                -1.6170947774184161,
                0.0065759630446377,
                2.561737801882159
            ]
        },
        {
            "positions": [
                0.0339013748259962,
                -1.4801800261874902,
                -1.987158231433806,
                -1.6667374769644114,
                -0.004644050053827342,
                2.732949695127499
            ]
        },
        {
            "positions": [
                0.10799947794110665,
                -1.4976709357657834,
                -2.0518680103825058,
                -1.7163801765104065,
                -0.015864063152292385,
                2.9041615883728396
            ]
        },
        {
            "positions": [
                0.1820975810562171,
                -1.515161845344076,
                -2.1165777893312057,
                -1.7660228760564016,
                -0.027084076250757483,
                3.07537348161818
            ]
        },
        {
            "positions": [
                0.25619568417132765,
                -1.5326527549223692,
                -2.181287568279905,
                -1.8156655756023967,
                -0.0383040893492225,
                3.2465853748635203
            ]
        },
        {
            "positions": [
                0.32094036592159036,
                -1.6114312898611884,
                -2.334415719869695,
                -1.8393855602455234,
                -0.018484479778289924,
                3.2068127126792523
            ]
        },
        {
            "positions": [
                0.385685047671853,
                -1.690209824800008,
                -2.4875438714594846,
                -1.8631055448886502,
                0.0013351297926426503,
                3.1670400504949843
            ]
        },
        {
            "positions": [
                0.4504297294221157,
                -1.7689883597388274,
                -2.640672023049274,
                -1.8868255295317768,
                0.021154739363575224,
                3.1272673883107163
            ]
        },
        {
            "positions": [
                0.5151744111723784,
                -1.8477668946776467,
                -2.7938001746390637,
                -1.9105455141749035,
                0.0409743489345078,
                3.0874947261264483
            ]
        },
        {
            "positions": [
                0.37518234561237584,
                -1.8286072281645558,
                -2.7050593260116784,
                -1.9777255964931013,
                -0.0025721378220175117,
                3.1125887702227835
            ]
        },
        {
            "positions": [
                0.23519028005237325,
                -1.809447561651465,
                -2.616318477384293,
                -2.044905678811299,
                -0.04611862457854282,
                3.1376828143191187
            ]
        },
        {
            "positions": [
                0.0951982144923707,
                -1.7902878951383743,
                -2.5275776287569074,
                -2.112085761129497,
                -0.0896651113350681,
                3.1627768584154534
            ]
        },
        {
            "positions": [
                -0.044793851067631896,
                -1.7711282286252834,
                -2.438836780129522,
                -2.179265843447695,
                -0.13321159809159344,
                3.1878709025117886
            ]
        },
        {
            "positions": [
                -0.18478591662763444,
                -1.7519685621121925,
                -2.350095931502137,
                -2.246445925765893,
                -0.17675808484811872,
                3.212964946608124
            ]
        }
    ]
}