{
    "goal": {
        "global_pose": {
            "orientation": {
                "w": 0.5084816217422485,
                "x": -0.49083608388900757,
                "y": 0.5182115435600281,
                "z": -0.4816462993621826
            },
            "position": {
                "x": 0.5540239810943604,
                "y": 0.030875300988554955,
                "z": 0.16403168439865112
            }
        },
        "name": "move_to_storage_A"
    },
    "id": "RRTstar_move_to_storage_A_30",
    "joint_names": [
        "shoulder_pan_joint",
        "shoulder_lift_joint",
        "elbow_joint",
        "wrist_1_joint",
        "wrist_2_joint",
        "wrist_3_joint"
    ],
    "metrics": {
        "cart_traj_len": 0.352673221287051,
        "distance_elbow_joint": 0.4491952064951301,
        "distance_shoulder_lift_joint": 0.23403314243307083,
        "distance_shoulder_pan_joint": 0.4615807791180702,
        "distance_wrist_1_joint": 0.2453680385193514,
        "distance_wrist_2_joint": 1.0954907948925405,
        "distance_wrist_3_joint": 0.09417315700183826,
        "smoothness": 1.1102230263833737e-15,
        "time": 5.001202803,
        "traj_len": 1.606188381996334,
        "weighted_distance": 2.0270782584487383
    },
    "planner": "RRTstar",
    "start": {
        "state": {
            "elbow_joint": 1.971548259319323,
            "shoulder_lift_joint": -1.1394851275133948,
            "shoulder_pan_joint": 0.1228115487234821,
            "wrist_1_joint": -0.7804723859257726,
            "wrist_2_joint": 0.12958671773740124,
            "wrist_3_joint": -3.192489227718131
        }
    },
    "waypoints": [
        {
            "positions": [
                0.1228115487234821,
                -1.1394851275133948,
                1.971548259319323,
                -0.7804723859257726,
                0.12958671773740124,
                -3.192489227718131
            ]
        },
        {
            "positions": [
                0.056871437420900645,
                -1.172918433575262,
                2.0357190031043415,
                -0.8155249628571085,
                0.28608540272204985,
                -3.1790359195750115
            ]
        },
        {
            "positions": [
                -0.009068673881680811,
                -1.2063517396371293,
                2.0998897468893603,
                -0.8505775397884444,
                0.44258408770669855,
                -3.1655826114318915
            ]
        },
        {
            "positions": [
                -0.07500878518426227,
                -1.2397850456989965,
                2.1640604906743786,
                -0.8856301167197803,
                0.5990827726913471,
                -3.152129303288772
            ]
        },
        {
            "positions": [
                -0.14094889648684372,
                -1.273218351760864,
                2.2282312344593973,
                -0.9206826936511163,
                0.7555814576759958,
                -3.138675995145652
            ]
        },
        {
            "positions": [
                -0.2068890077894252,
                -1.3066516578227312,
                2.292401978244416,
                -0.9557352705824522,
                0.9120801426606445,
                -3.1252226870025326
            ]
        },
        {
            "positions": [
                -0.27282911909200663,
                -1.3400849638845984,
                2.3565727220294344,
                -0.9907878475137881,
                1.068578827645293,
                -3.1117693788594125
            ]
        },
        {
            "positions": [
                -0.3387692303945881,
                -1.3735182699464656,
                2.420743465814453,
                -1.025840424445124,
                1.2250775126299418,
                -3.098316070716293
            ]
        }
    ]
}{
    "goal": {
        "global_pose": {
            "orientation": {
                "w": 0.5084816217422485,
                "x": -0.49083608388900757,
                "y": 0.5182115435600281,
                "z": -0.4816462993621826
            },
            "position": {
                "x": 0.5540239810943604,
                "y": 0.030875300988554955,
                "z": 0.16403168439865112
            }
        },
        "name": "move_to_storage_A"
    },
    "id": "RRTstar_move_to_storage_A_30",
    "joint_names": [
        "shoulder_pan_joint",
        "shoulder_lift_joint",
        "elbow_joint",
        "wrist_1_joint",
        "wrist_2_joint",
        "wrist_3_joint"
    ],
    "metrics": {
        "cart_traj_len": 0.35316651718796604,
        "distance_elbow_joint": 0.44974143881691564,
        "distance_shoulder_lift_joint": 0.23417243344303462,
        "distance_shoulder_pan_joint": 0.46120817621472016,
        "distance_wrist_1_joint": 0.24074584836354718,
        "distance_wrist_2_joint": 1.1016204032971406,
        "distance_wrist_3_joint": 0.09032254600661682,
        "smoothness": 6.661338165333112e-16,
        "time": 5.0002297989999995,
        "traj_len": 1.6055562419740936,
        "weighted_distance": 2.025048688258111
    },
    "planner": "RRTstar",
    "start": {
        "state": {
            "elbow_joint": 1.97154746011099,
            "shoulder_lift_joint": -1.13948474672311,
            "shoulder_pan_joint": 0.12281154466712228,
            "wrist_1_joint": -0.7804688027058302,
            "wrist_2_joint": 0.12958655903071145,
            "wrist_3_joint": 3.0906928834467795
        }
    },
    "waypoints": [
        {
            "positions": [
                0.12281154466712228,
                -1.13948474672311,
                1.97154746011099,
                -0.7804688027058302,
                0.12958655903071145,
                3.0906928834467795
            ]
        },
        {
            "positions": [
                0.05692466235073369,
                -1.1729379515006864,
                2.035796237084835,
                -0.8148610667577655,
                0.2869609023588744,
                3.1035961043048674
            ]
        },
        {
            "positions": [
                -0.008962219965654897,
                -1.2063911562782628,
                2.10004501405868,
                -0.8492533308097008,
                0.4443352456870373,
                3.116499325162956
            ]
        },
        {
            "positions": [
                -0.07484910228204349,
                -1.2398443610558392,
                2.164293791032525,
                -0.8836455948616361,
                0.6017095890152002,
                3.1294025460210437
            ]
        },
        {
            "positions": [
                -0.14073598459843206,
                -1.2732975658334154,
                2.2285425680063704,
                -0.9180378589135714,
                0.7590839323433632,
                3.142305766879132
            ]
        },
        {
            "positions": [
                -0.20662286691482068,
                -1.3067507706109918,
                2.2927913449802153,
                -0.9524301229655068,
                0.9164582756715263,
                3.15520898773722
            ]
        },
        {
            "positions": [
                -0.27250974923120924,
                -1.3402039753885682,
                2.3570401219540607,
                -0.9868223870174421,
                1.073832618999689,
                3.1681122085953084
            ]
        },
        {
            "positions": [
                -0.33839663154759786,
                -1.3736571801661446,
                2.4212888989279056,
                -1.0212146510693774,
                1.231206962327852,
                3.1810154294533963
            ]
        }
    ]
}{
    "goal": {
        "global_pose": {
            "orientation": {
                "w": 0.5084816217422485,
                "x": -0.49083608388900757,
                "y": 0.5182115435600281,
                "z": -0.4816462993621826
            },
            "position": {
                "x": 0.5540239810943604,
                "y": 0.030875300988554955,
                "z": 0.16403168439865112
            }
        },
        "name": "move_to_storage_A"
    },
    "id": "RRTstar_move_to_storage_A_30",
    "joint_names": [
        "shoulder_pan_joint",
        "shoulder_lift_joint",
        "elbow_joint",
        "wrist_1_joint",
        "wrist_2_joint",
        "wrist_3_joint"
    ],
    "metrics": {
        "cart_traj_len": 0.35288920473459634,
        "distance_elbow_joint": 0.45160500146466065,
        "distance_shoulder_lift_joint": 0.23387110386477494,
        "distance_shoulder_pan_joint": 0.46283618035035196,
        "distance_wrist_1_joint": 0.24905928832620639,
        "distance_wrist_2_joint": 1.0925329311807745,
        "distance_wrist_3_joint": 0.08863177487616092,
        "smoothness": 8.881784232165597e-16,
        "time": 5.000087949,
        "traj_len": 1.6057821396636998,
        "weighted_distance": 2.024201583173532
    },
    "planner": "RRTstar",
    "start": {
        "state": {
            "elbow_joint": 1.9715472970024885,
            "shoulder_lift_joint": -1.1394870060712896,
            "shoulder_pan_joint": 0.12281152778156021,
            "wrist_1_joint": -0.780463741449964,
            "wrist_2_joint": 0.12958659822042276,
            "wrist_3_joint": 3.090690232415272
        }
    },
    "waypoints": [
        {
            "positions": [
                0.12281152778156021,
                -1.1394870060712896,
                1.9715472970024885,
                -0.780463741449964,
                0.12958659822042276,
                3.090690232415272
            ]
        },
        {
            "positions": [
                0.05669207344579566,
                -1.1728971637662575,
                2.0360622972117257,
                -0.8160436397822792,
                0.2856627312462477,
                3.1033519145404376
            ]
        },
        {
            "positions": [
                -0.00942738088996889,
                -1.2063073214612252,
                2.100577297420963,
                -0.8516235381145943,
                0.44173886427207265,
                3.1160135966656037
            ]
        },
        {
            "positions": [
                -0.07554683522573344,
                -1.2397174791561931,
                2.1650922976302,
                -0.8872034364469096,
                0.5978149972978976,
                3.1286752787907695
            ]
        },
        {
            "positions": [
                -0.141666289561498,
                -1.273127636851161,
                2.2296072978394372,
                -0.9227833347792248,
                0.7538911303237225,
                3.141336960915935
            ]
        },
        {
            "positions": [
                -0.2077857438972626,
                -1.306537794546129,
                2.294122298048675,
                -0.9583632331115399,
                0.9099672633495475,
                3.153998643041101
            ]
        },
        {
            "positions": [
                -0.27390519823302706,
                -1.3399479522410966,
                2.358637298257912,
                -0.9939431314438552,
                1.0660433963753724,
                3.166660325166267
            ]
        },
        {
            "positions": [
                -0.3400246525687917,
                -1.3733581099360646,
                2.423152298467149,
                -1.0295230297761704,
                1.2221195294011973,
                3.1793220072914328
            ]
        }
    ]
}