{
    "goal": {
        "global_pose": {
            "orientation": {
                "w": 0.7047431468963623,
                "x": -0.7094548344612122,
                "y": 0.0024358443915843964,
                "z": -0.0022348060738295317
            },
            "position": {
                "x": 0.6094750761985779,
                "y": 0.3671506643295288,
                "z": 0.19426114857196808
            }
        },
        "name": "move_to_magneteinheit_A"
    },
    "id": "RRTstar_move_to_magneteinheit_A_126",
    "joint_names": [
        "shoulder_pan_joint",
        "shoulder_lift_joint",
        "elbow_joint",
        "wrist_1_joint",
        "wrist_2_joint",
        "wrist_3_joint"
    ],
    "metrics": {
        "cart_traj_len": 3.4041295008074797,
        "distance_elbow_joint": 3.9104518082041757,
        "distance_shoulder_lift_joint": 0.5991391236570067,
        "distance_shoulder_pan_joint": 3.099058152360751,
        "distance_wrist_1_joint": 3.4597399150182415,
        "distance_wrist_2_joint": 1.4397236339040134,
        "distance_wrist_3_joint": 0.4199966020401621,
        "smoothness": 0.09027792625357187,
        "time": 5.017094591,
        "traj_len": 3.5955679989654423,
        "weighted_distance": 4.320597873927511
    },
    "planner": "RRTstar",
    "start": {
        "state": {
            "elbow_joint": -1.9196185241190666,
            "shoulder_lift_joint": -1.2443396400964142,
            "shoulder_pan_joint": 2.6996025414629847,
            "wrist_1_joint": -1.5485510000780065,
            "wrist_2_joint": -1.5709468930060704,
            "wrist_3_joint": 0.4420197071253992
        }
    },
    "waypoints": [
        {
            "positions": [
                2.6996025414629847,
                -1.2443396400964142,
                -1.9196185241190666,
                -1.5485510000780065,
                -1.5709468930060704,
                0.4420197071253992
            ]
        },
        {
            "positions": [
                2.5860989274403137,
                -1.2229794750524798,
                -1.8249867181678852,
                -1.4243102326097847,
                -1.5435606302256704,
                0.43600278877102916
            ]
        },
        {
            "positions": [
                2.4725953134176426,
                -1.2016193100085455,
                -1.7303549122167037,
                -1.300069465141563,
                -1.5161743674452703,
                0.42998587041665914
            ]
        },
        {
            "positions": [
                2.3590916993949715,
                -1.1802591449646112,
                -1.6357231062655222,
                -1.1758286976733412,
                -1.4887881046648705,
                0.4239689520622891
            ]
        },
        {
            "positions": [
                2.2455880853723,
                -1.1588989799206768,
                -1.5410913003143407,
                -1.0515879302051194,
                -1.4614018418844705,
                0.41795203370791906
            ]
        },
        {
            "positions": [
                2.132084471349629,
                -1.1375388148767425,
                -1.4464594943631592,
                -0.9273471627368977,
                -1.4340155791040705,
                0.41193511535354904
            ]
        },
        {
            "positions": [
                2.018580857326958,
                -1.1161786498328081,
                -1.3518276884119778,
                -0.8031063952686759,
                -1.4066293163236705,
                0.405918196999179
            ]
        },
        {
            "positions": [
                1.9050772433042868,
                -1.0948184847888736,
                -1.2571958824607963,
                -0.678865627800454,
                -1.3792430535432705,
                0.39990127864480896
            ]
        },
        {
            "positions": [
                1.7915736292816158,
                -1.0734583197449392,
                -1.1625640765096148,
                -0.5546248603322324,
                -1.3518567907628705,
                0.39388436029043894
            ]
        },
        {
            "positions": [
                1.6780700152589447,
                -1.0520981547010049,
                -1.0679322705584335,
                -0.4303840928640106,
                -1.3244705279824704,
                0.3878674419360689
            ]
        },
        {
            "positions": [
                1.5645664012362734,
                -1.0307379896570705,
                -0.973300464607252,
                -0.3061433253957888,
                -1.2970842652020704,
                0.3818505235816989
            ]
        },
        {
            "positions": [
                1.4510627872136024,
                -1.0093778246131362,
                -0.8786686586560706,
                -0.18190255792756704,
                -1.2696980024216706,
                0.37583360522732884
            ]
        },
        {
            "positions": [
                1.3375591731909313,
                -0.9880176595692018,
                -0.7840368527048891,
                -0.057661790459345275,
                -1.2423117396412706,
                0.3698166868729588
            ]
        },
        {
            "positions": [
                1.2240555591682603,
                -0.9666574945252675,
                -0.6894050467537076,
                0.0665789770088765,
                -1.2149254768608706,
                0.3637997685185888
            ]
        },
        {
            "positions": [
                1.110551945145589,
                -0.9452973294813332,
                -0.5947732408025261,
                0.19081974447709849,
                -1.1875392140804706,
                0.35778285016421874
            ]
        },
        {
            "positions": [
                0.9970483311229181,
                -0.9239371644373988,
                -0.5001414348513447,
                0.31506051194532003,
                -1.1601529513000708,
                0.3517659318098487
            ]
        },
        {
            "positions": [
                0.8835447171002468,
                -0.9025769993934645,
                -0.4055096289001632,
                0.4393012794135418,
                -1.1327666885196708,
                0.3457490134554787
            ]
        },
        {
            "positions": [
                0.7700411030775756,
                -0.88121683434953,
                -0.3108778229489817,
                0.5635420468817636,
                -1.1053804257392708,
                0.3397320951011087
            ]
        },
        {
            "positions": [
                0.6565374890549047,
                -0.8598566693055957,
                -0.21624601699780044,
                0.6877828143499853,
                -1.0779941629588707,
                0.3337151767467387
            ]
        },
        {
            "positions": [
                0.5430338750322337,
                -0.8384965042616613,
                -0.12161421104661874,
                0.8120235818182071,
                -1.0506079001784707,
                0.32769825839236866
            ]
        },
        {
            "positions": [
                0.42953026100956215,
                -0.8171363392177269,
                -0.026982405095437256,
                0.9362643492864289,
                -1.0232216373980707,
                0.3216813400379986
            ]
        },
        {
            "positions": [
                0.31602664698689154,
                -0.7957761741737926,
                0.067649400855744,
                1.0605051167546506,
                -0.9958353746176708,
                0.31566442168362857
            ]
        },
        {
            "positions": [
                0.20252303296422003,
                -0.7744160091298582,
                0.16228120680692548,
                1.1847458842228724,
                -0.9684491118372708,
                0.3096475033292585
            ]
        },
        {
            "positions": [
                0.08901941894154897,
                -0.7530558440859239,
                0.25691301275810696,
                1.3089866516910942,
                -0.9410628490568708,
                0.3036305849748885
            ]
        },
        {
            "positions": [
                -0.024484195081122095,
                -0.7316956790419895,
                0.35154481870928844,
                1.433227419159316,
                -0.9136765862764709,
                0.29761366662051847
            ]
        },
        {
            "positions": [
                -0.13798780910379327,
                -0.7103355139980552,
                0.4461766246604699,
                1.5574681866275375,
                -0.8862903234960708,
                0.29159674826614845
            ]
        },
        {
            "positions": [
                -0.10893583112668512,
                -0.717572735949016,
                0.6178051423743187,
                1.5967704897733928,
                -0.802393983007847,
                0.2616441212460472
            ]
        },
        {
            "positions": [
                -0.07988385314957695,
                -0.7248099578999769,
                0.7894336600881675,
                1.6360727929192478,
                -0.7184976425196233,
                0.23169149422594593
            ]
        },
        {
            "positions": [
                -0.05083187517246879,
                -0.7320471798509377,
                0.9610621778020164,
                1.675375096065103,
                -0.6346013020313995,
                0.20173886720584466
            ]
        },
        {
            "positions": [
                -0.021779897195360637,
                -0.7392844018018986,
                1.132690695515865,
                1.7146773992109583,
                -0.5507049615431758,
                0.1717862401857434
            ]
        },
        {
            "positions": [
                0.007272080781747542,
                -0.7465216237528595,
                1.3043192132297143,
                1.7539797023568133,
                -0.46680862105495197,
                0.14183361316564214
            ]
        },
        {
            "positions": [
                0.03632405875885569,
                -0.7537588457038203,
                1.475947730943563,
                1.7932820055026686,
                -0.3829122805667282,
                0.11188098614554087
            ]
        },
        {
            "positions": [
                0.06537603673596384,
                -0.7609960676547811,
                1.647576248657412,
                1.8325843086485238,
                -0.2990159400785044,
                0.08192835912543961
            ]
        },
        {
            "positions": [
                0.094428014713072,
                -0.768233289605742,
                1.8192047663712605,
                1.8718866117943789,
                -0.2151195995902807,
                0.051975732105338346
            ]
        },
        {
            "positions": [
                0.12347999269018016,
                -0.7754705115567029,
                1.9908332840851095,
                1.9111889149402341,
                -0.13122325910205687,
                0.022023105085237055
            ]
        }
    ]
}