{
    "goal": {
        "global_pose": {
            "orientation": {
                "w": 0.005598929693374612,
                "x": 0.007748599140229565,
                "y": 0.7110244013736278,
                "z": -0.7031023480610252
            },
            "position": {
                "x": -0.8858502320852131,
                "y": -0.7141253447532654,
                "z": 0.3711530566215515
            }
        },
        "name": "move_to_auspresseinheit_C"
    },
    "id": "RRTstar_move_to_auspresseinheit_C_121",
    "joint_names": [
        "shoulder_pan_joint",
        "shoulder_lift_joint",
        "elbow_joint",
        "wrist_1_joint",
        "wrist_2_joint",
        "wrist_3_joint"
    ],
    "metrics": {
        "cart_traj_len": 0.49309895674013793,
        "distance_elbow_joint": 0.9877207374538918,
        "distance_shoulder_lift_joint": 0.31904088818657406,
        "distance_shoulder_pan_joint": 0.2574019522321036,
        "distance_wrist_1_joint": 0.6536239457019299,
        "distance_wrist_2_joint": 1.300896354526822,
        "distance_wrist_3_joint": 0.050400842255623246,
        "smoothness": 3.2297397080004555e-16,
        "time": 5.000091402000001,
        "traj_len": 1.88920213856457,
        "weighted_distance": 2.3715831642801275
    },
    "planner": "RRTstar",
    "start": {
        "state": {
            "elbow_joint": 1.7527959577737207,
            "shoulder_lift_joint": -0.9740617694225068,
            "shoulder_pan_joint": -2.967991417825858,
            "wrist_1_joint": -0.759517768980727,
            "wrist_2_joint": 1.7443932448377408,
            "wrist_3_joint": -3.0840537646736568
        }
    },
    "waypoints": [
        {
            "positions": [
                -2.967991417825858,
                -0.9740617694225068,
                1.7527959577737207,
                -0.759517768980727,
                1.7443932448377408,
                -3.0840537646736568
            ]
        },
        {
            "positions": [
                -2.9422512226026476,
                -0.9421576806038494,
                1.6540238840283314,
                -0.694155374410534,
                1.6143036093850587,
                -3.089093848899219
            ]
        },
        {
            "positions": [
                -2.9165110273794372,
                -0.9102535917851919,
                1.5552518102829422,
                -0.628792979840341,
                1.4842139739323765,
                -3.0941339331247812
            ]
        },
        {
            "positions": [
                -2.890770832156227,
                -0.8783495029665346,
                1.456479736537553,
                -0.563430585270148,
                1.3541243384796942,
                -3.099174017350344
            ]
        },
        {
            "positions": [
                -2.8650306369330165,
                -0.8464454141478771,
                1.3577076627921638,
                -0.498068190699955,
                1.224034703027012,
                -3.104214101575906
            ]
        },
        {
            "positions": [
                -2.839290441709806,
                -0.8145413253292197,
                1.2589355890467748,
                -0.432705796129762,
                1.0939450675743299,
                -3.1092541858014684
            ]
        },
        {
            "positions": [
                -2.813550246486596,
                -0.7826372365105624,
                1.1601635153013856,
                -0.367343401559569,
                0.9638554321216477,
                -3.1142942700270306
            ]
        },
        {
            "positions": [
                -2.7878100512633854,
                -0.7507331476919049,
                1.0613914415559964,
                -0.3019810069893761,
                0.8337657966689656,
                -3.119334354252593
            ]
        },
        {
            "positions": [
                -2.762069856040175,
                -0.7188290588732476,
                0.9626193678106072,
                -0.23661861241918303,
                0.7036761612162832,
                -3.1243744384781555
            ]
        },
        {
            "positions": [
                -2.7363296608169647,
                -0.6869249700545901,
                0.8638472940652181,
                -0.17125621784899003,
                0.573586525763601,
                -3.129414522703718
            ]
        },
        {
            "positions": [
                -2.7105894655937544,
                -0.6550208812359327,
                0.7650752203198289,
                -0.10589382327879707,
                0.4434968903109189,
                -3.13445460692928
            ]
        }
    ]
}