{
    "goal": {
        "global_pose": {
            "orientation": {
                "w": 0.5084816262002911,
                "x": -0.4908360881923452,
                "y": 0.5182115481033761,
                "z": -0.48164630358495003
            },
            "position": {
                "x": 0.5540239810943604,
                "y": -0.46912469901144505,
                "z": 0.16403168439865112
            }
        },
        "name": "move_to_storage_B"
    },
    "id": "RRTstar_move_to_storage_B_77",
    "joint_names": [
        "shoulder_pan_joint",
        "shoulder_lift_joint",
        "elbow_joint",
        "wrist_1_joint",
        "wrist_2_joint",
        "wrist_3_joint"
    ],
    "metrics": {
        "cart_traj_len": 1.3034494392602378,
        "distance_elbow_joint": 0.3499070955154173,
        "distance_shoulder_lift_joint": 0.45971837258775716,
        "distance_shoulder_pan_joint": 1.2372904583803968,
        "distance_wrist_1_joint": 2.9817805431648234,
        "distance_wrist_2_joint": 2.7091384729674926,
        "distance_wrist_3_joint": 3.131030567184864,
        "smoothness": 0.10303210333070166,
        "time": 5.021450586,
        "traj_len": 3.2967962493609995,
        "weighted_distance": 4.777221541890516
    },
    "planner": "RRTstar",
    "start": {
        "state": {
            "elbow_joint": 1.664937868594044,
            "shoulder_lift_joint": -0.661644460510453,
            "shoulder_pan_joint": -0.9139846352900073,
            "wrist_1_joint": 2.146753192139373,
            "wrist_2_joint": -2.2341966793290973,
            "wrist_3_joint": 0.005466555786416001
        }
    },
    "waypoints": [
        {
            "positions": [
                -0.9139846352900073,
                -0.661644460510453,
                1.664937868594044,
                2.146753192139373,
                -2.2341966793290973,
                0.005466555786416001
            ]
        },
        {
            "positions": [
                -0.8480511610503148,
                -0.6886625810711344,
                1.6713295408392743,
                2.118022760114548,
                -2.0164519393413967,
                0.041021720331953664
            ]
        },
        {
            "positions": [
                -0.7821176868106223,
                -0.7156807016318159,
                1.677721213084505,
                2.089292328089723,
                -1.7987071993536963,
                0.07657688487749133
            ]
        },
        {
            "positions": [
                -0.7161842125709298,
                -0.7426988221924973,
                1.6841128853297356,
                2.0605618960648973,
                -1.5809624593659959,
                0.11213204942302898
            ]
        },
        {
            "positions": [
                -0.6502507383312373,
                -0.7697169427531787,
                1.690504557574966,
                2.031831464040072,
                -1.3632177193782953,
                0.14768721396856666
            ]
        },
        {
            "positions": [
                -0.5843172640915447,
                -0.7967350633138601,
                1.6968962298201964,
                2.003101032015247,
                -1.145472979390595,
                0.18324237851410433
            ]
        },
        {
            "positions": [
                -0.5183837898518522,
                -0.8237531838745417,
                1.703287902065427,
                1.9743705999904215,
                -0.9277282394028945,
                0.21879754305964197
            ]
        },
        {
            "positions": [
                -0.45245031561215976,
                -0.8507713044352231,
                1.7096795743106576,
                1.9456401679655961,
                -0.7099834994151939,
                0.25435270760517964
            ]
        },
        {
            "positions": [
                -0.38651684137246717,
                -0.8777894249959045,
                1.716071246555888,
                1.916909735940771,
                -0.49223875942749346,
                0.28990787215071734
            ]
        },
        {
            "positions": [
                -0.42200797459561,
                -0.8899680954010198,
                1.7310099324335666,
                1.77931288159246,
                -0.4438797317741989,
                0.4322373346917455
            ]
        },
        {
            "positions": [
                -0.45749910781875286,
                -0.9021467658061351,
                1.7459486183112454,
                1.641716027244149,
                -0.39552070412090445,
                0.5745667972327737
            ]
        },
        {
            "positions": [
                -0.49299024104189565,
                -0.9143254362112504,
                1.7608873041889241,
                1.5041191728958379,
                -0.34716167646761,
                0.7168962597738018
            ]
        },
        {
            "positions": [
                -0.5284813742650385,
                -0.9265041066163656,
                1.7758259900666027,
                1.3665223185475268,
                -0.2988026488143154,
                0.85922572231483
            ]
        },
        {
            "positions": [
                -0.5639725074881814,
                -0.938682777021481,
                1.7907646759442812,
                1.2289254641992158,
                -0.2504436211610209,
                1.001555184855858
            ]
        },
        {
            "positions": [
                -0.5994636407113242,
                -0.9508614474265962,
                1.80570336182196,
                1.0913286098509047,
                -0.20208459350772645,
                1.1438846473968862
            ]
        },
        {
            "positions": [
                -0.634954773934467,
                -0.9630401178317115,
                1.8206420476996388,
                0.9537317555025936,
                -0.15372556585443192,
                1.2862141099379143
            ]
        },
        {
            "positions": [
                -0.6704459071576099,
                -0.9752187882368268,
                1.8355807335773173,
                0.8161349011542824,
                -0.1053665382011374,
                1.4285435724789426
            ]
        },
        {
            "positions": [
                -0.7059370403807527,
                -0.9873974586419421,
                1.8505194194549959,
                0.6785380468059714,
                -0.057007510547842866,
                1.5708730350199707
            ]
        },
        {
            "positions": [
                -0.7414281736038955,
                -0.9995761290470573,
                1.8654581053326746,
                0.5409411924576604,
                -0.008648482894548393,
                1.7132024975609987
            ]
        },
        {
            "positions": [
                -0.7769193068270384,
                -1.0117547994521727,
                1.8803967912103534,
                0.4033443381093491,
                0.03971054475874619,
                1.855531960102027
            ]
        },
        {
            "positions": [
                -0.8124104400501811,
                -1.023933469857288,
                1.895335477088032,
                0.2657474837610383,
                0.08806957241204055,
                1.9978614226430549
            ]
        },
        {
            "positions": [
                -0.847901573273324,
                -1.0361121402624032,
                1.9102741629657105,
                0.12815062941272704,
                0.13642860006533514,
                2.140190885184083
            ]
        },
        {
            "positions": [
                -0.8833927064964668,
                -1.0482908106675184,
                1.9252128488433893,
                -0.00944622493558378,
                0.1847876277186296,
                2.2825203477251113
            ]
        },
        {
            "positions": [
                -0.9188838397196097,
                -1.0604694810726338,
                1.940151534721068,
                -0.14704307928389504,
                0.2331466553719242,
                2.4248498102661395
            ]
        },
        {
            "positions": [
                -0.9543749729427526,
                -1.072648151477749,
                1.9550902205987466,
                -0.2846399336322061,
                0.28150568302521867,
                2.567179272807168
            ]
        },
        {
            "positions": [
                -0.9898661061658953,
                -1.0848268218828643,
                1.9700289064764251,
                -0.4222367879805171,
                0.32986471067851314,
                2.7095087353481957
            ]
        },
        {
            "positions": [
                -1.0253572393890382,
                -1.0970054922879795,
                1.984967592354104,
                -0.5598336423288282,
                0.3782237383318077,
                2.851838197889224
            ]
        },
        {
            "positions": [
                -1.060848372612181,
                -1.109184162693095,
                1.9999062782317827,
                -0.6974304966771392,
                0.4265827659851021,
                2.994167660430252
            ]
        },
        {
            "positions": [
                -1.0963395058353238,
                -1.1213628330982102,
                2.0148449641094612,
                -0.8350273510254503,
                0.4749417936383967,
                3.13649712297128
            ]
        }
    ]
}