{
    "goal": {
        "global_pose": {
            "orientation": {
                "w": -0.4816463035849501,
                "x": 0.5182115481033762,
                "y": 0.4908360881923453,
                "z": -0.5084816262002911
            },
            "position": {
                "x": -0.8240239810943604,
                "y": -0.300875300988555,
                "z": 0.16403168439865112
            }
        },
        "name": "move_to_storage_C"
    },
    "id": "RRTstar_move_to_storage_C_28",
    "joint_names": [
        "shoulder_pan_joint",
        "shoulder_lift_joint",
        "elbow_joint",
        "wrist_1_joint",
        "wrist_2_joint",
        "wrist_3_joint"
    ],
    "metrics": {
        "cart_traj_len": 0.5767717958910561,
        "distance_elbow_joint": 0.25725206413971646,
        "distance_shoulder_lift_joint": 0.19093650780546811,
        "distance_shoulder_pan_joint": 0.49342180229668786,
        "distance_wrist_1_joint": 0.06633971795613003,
        "distance_wrist_2_joint": 1.0722472411165107,
        "distance_wrist_3_joint": 0.05655240443611431,
        "smoothness": 0.0,
        "time": 5.000203041000001,
        "traj_len": 1.4617625449267153,
        "weighted_distance": 1.8407719863403769
    },
    "planner": "RRTstar",
    "start": {
        "state": {
            "elbow_joint": 2.010868314990456,
            "shoulder_lift_joint": -1.1634956873337592,
            "shoulder_pan_joint": -2.4736205022346125,
            "wrist_1_joint": -0.8367026794202681,
            "wrist_2_joint": 0.6746043897044499,
            "wrist_3_joint": -3.1496632123970403
        }
    },
    "waypoints": [
        {
            "positions": [
                -2.4736205022346125,
                -1.1634956873337592,
                2.010868314990456,
                -0.8367026794202681,
                0.6746043897044499,
                -3.1496632123970403
            ]
        },
        {
            "positions": [
                -2.5558574692840605,
                -1.131672936032848,
                1.9679929709671697,
                -0.8256460597609131,
                0.8533122632238683,
                -3.1402378116576877
            ]
        },
        {
            "positions": [
                -2.6380944363335086,
                -1.0998501847319364,
                1.9251176269438837,
                -0.8145894401015581,
                1.0320201367432869,
                -3.1308124109183355
            ]
        },
        {
            "positions": [
                -2.720331403382956,
                -1.0680274334310251,
                1.8822422829205976,
                -0.8035328204422031,
                1.2107280102627054,
                -3.1213870101789833
            ]
        },
        {
            "positions": [
                -2.8025683704324043,
                -1.0362046821301139,
                1.8393669388973115,
                -0.7924762007828481,
                1.3894358837821237,
                -3.1119616094396307
            ]
        },
        {
            "positions": [
                -2.8848053374818523,
                -1.0043819308292024,
                1.7964915948740254,
                -0.7814195811234931,
                1.5681437573015422,
                -3.102536208700278
            ]
        },
        {
            "positions": [
                -2.9670423045313004,
                -0.9725591795282911,
                1.7536162508507394,
                -0.7703629614641381,
                1.7468516308209605,
                -3.093110807960926
            ]
        }
    ]
}