{
    "goal": {
        "global_pose": {
            "orientation": {
                "w": 0.5084816262002911,
                "x": -0.4908360881923452,
                "y": 0.5182115481033761,
                "z": -0.48164630358495003
            },
            "position": {
                "x": 0.5540239810943604,
                "y": -0.46912469901144505,
                "z": 0.16403168439865112
            }
        },
        "name": "move_to_storage_B"
    },
    "id": "RRTstar_move_to_storage_B_1",
    "joint_names": [
        "shoulder_pan_joint",
        "shoulder_lift_joint",
        "elbow_joint",
        "wrist_1_joint",
        "wrist_2_joint",
        "wrist_3_joint"
    ],
    "metrics": {
        "cart_traj_len": 1.152738511829405,
        "distance_elbow_joint": 0.7900863558933051,
        "distance_shoulder_lift_joint": 0.45925774860394464,
        "distance_shoulder_pan_joint": 0.6952941966894807,
        "distance_wrist_1_joint": 2.9823398358506292,
        "distance_wrist_2_joint": 2.6993993796925015,
        "distance_wrist_3_joint": 3.1368249498976297,
        "smoothness": 0.08826076578504899,
        "time": 5.01554446,
        "traj_len": 3.2807320016465065,
        "weighted_distance": 4.766402373065652
    },
    "planner": "RRTstar",
    "start": {
        "state": {
            "elbow_joint": 1.664937868594044,
            "shoulder_lift_joint": -0.661644460510453,
            "shoulder_pan_joint": -0.9139846352900073,
            "wrist_1_joint": 2.146753192139373,
            "wrist_2_joint": -2.2341966793290973,
            "wrist_3_joint": 0.005466555786416001
        }
    },
    "waypoints": [
        {
            "positions": [
                -0.9139846352900073,
                -0.661644460510453,
                1.664937868594044,
                2.146753192139373,
                -2.2341966793290973,
                0.005466555786416001
            ]
        },
        {
            "positions": [
                -0.8929144213719755,
                -0.6918712679202481,
                1.7054218189398942,
                2.0557165199631027,
                -2.1296530449959272,
                0.04660710105072752
            ]
        },
        {
            "positions": [
                -0.8718442074539439,
                -0.7220980753300432,
                1.7459057692857445,
                1.9646798477868324,
                -2.025109410662757,
                0.08774764631503904
            ]
        },
        {
            "positions": [
                -0.8507739935359121,
                -0.7523248827398384,
                1.7863897196315945,
                1.8736431756105618,
                -1.920565776329587,
                0.12888819157935053
            ]
        },
        {
            "positions": [
                -0.8297037796178803,
                -0.7825516901496335,
                1.8268736699774448,
                1.7826065034342915,
                -1.8160221419964167,
                0.17002873684366207
            ]
        },
        {
            "positions": [
                -0.8086335656998487,
                -0.8127784975594287,
                1.867357620323295,
                1.691569831258021,
                -1.7114785076632466,
                0.21116928210797356
            ]
        },
        {
            "positions": [
                -0.7935048320302239,
                -0.8423609102052428,
                1.9040674727488922,
                1.584983193160185,
                -1.597012124052159,
                0.278904998024732
            ]
        },
        {
            "positions": [
                -0.7783760983605992,
                -0.871943322851057,
                1.9407773251744893,
                1.478396555062349,
                -1.4825457404410716,
                0.34664071394149043
            ]
        },
        {
            "positions": [
                -0.7632473646909745,
                -0.9015257354968712,
                1.9774871776000862,
                1.371809916964513,
                -1.3680793568299843,
                0.41437642985824885
            ]
        },
        {
            "positions": [
                -0.7481186310213498,
                -0.9311081481426855,
                2.0141970300256835,
                1.265223278866677,
                -1.2536129732188968,
                0.4821121457750073
            ]
        },
        {
            "positions": [
                -0.732989897351725,
                -0.9606905607884997,
                2.0509068824512804,
                1.158636640768841,
                -1.1391465896078095,
                0.5498478616917657
            ]
        },
        {
            "positions": [
                -0.7178611636821003,
                -0.9902729734343139,
                2.0876167348768773,
                1.0520500026710051,
                -1.024680205996722,
                0.6175835776085241
            ]
        },
        {
            "positions": [
                -0.7027324300124755,
                -1.019855386080128,
                2.1243265873024746,
                0.945463364573169,
                -0.9102138223856345,
                0.6853192935252824
            ]
        },
        {
            "positions": [
                -0.6876036963428509,
                -1.0494377987259422,
                2.1610364397280715,
                0.838876726475333,
                -0.7957474387745469,
                0.753055009442041
            ]
        },
        {
            "positions": [
                -0.6724749626732262,
                -1.0790202113717564,
                2.197746292153669,
                0.732290088377497,
                -0.6812810551634596,
                0.8207907253587994
            ]
        },
        {
            "positions": [
                -0.6573462290036014,
                -1.1086026240175706,
                2.2344561445792657,
                0.625703450279661,
                -0.5668146715523721,
                0.8885264412755578
            ]
        },
        {
            "positions": [
                -0.6886787854609638,
                -1.109481165810201,
                2.218701281728688,
                0.521325586423167,
                -0.4930991449869594,
                1.0495096601618783
            ]
        },
        {
            "positions": [
                -0.7200113419183264,
                -1.1103597076028315,
                2.2029464188781107,
                0.41694772256667284,
                -0.4193836184215467,
                1.210492879048199
            ]
        },
        {
            "positions": [
                -0.7513438983756888,
                -1.111238249395462,
                2.1871915560275337,
                0.3125698587101788,
                -0.345668091856134,
                1.3714760979345195
            ]
        },
        {
            "positions": [
                -0.7826764548330514,
                -1.1121167911880927,
                2.171436693176956,
                0.20819199485368467,
                -0.2719525652907213,
                1.53245931682084
            ]
        },
        {
            "positions": [
                -0.8140090112904138,
                -1.1129953329807232,
                2.1556818303263787,
                0.1038141309971905,
                -0.19823703872530862,
                1.6934425357071605
            ]
        },
        {
            "positions": [
                -0.8453415677477762,
                -1.1138738747733536,
                2.1399269674758012,
                -0.0005637328593034452,
                -0.12452151215989593,
                1.854425754593481
            ]
        },
        {
            "positions": [
                -0.8766741242051388,
                -1.1147524165659841,
                2.1241721046252238,
                -0.10494159671579761,
                -0.05080598559448324,
                2.0154089734798015
            ]
        },
        {
            "positions": [
                -0.9080066806625013,
                -1.1156309583586146,
                2.1084172417746467,
                -0.20931946057229167,
                0.022909540970929454,
                2.176392192366122
            ]
        },
        {
            "positions": [
                -0.9393392371198638,
                -1.116509500151245,
                2.0926623789240693,
                -0.31369732442878584,
                0.09662506753634215,
                2.337375411252443
            ]
        },
        {
            "positions": [
                -0.9706717935772262,
                -1.1173880419438755,
                2.0769075160734918,
                -0.41807518828528,
                0.17034059410175484,
                2.4983586301387635
            ]
        },
        {
            "positions": [
                -1.0020043500345888,
                -1.1182665837365062,
                2.0611526532229143,
                -0.5224530521417738,
                0.24405612066716753,
                2.659341849025084
            ]
        },
        {
            "positions": [
                -1.033336906491951,
                -1.1191451255291367,
                2.0453977903723373,
                -0.6268309159982679,
                0.3177716472325802,
                2.8203250679114045
            ]
        },
        {
            "positions": [
                -1.0646694629493136,
                -1.1200236673217672,
                2.02964292752176,
                -0.7312087798547622,
                0.3914871737979929,
                2.9813082867977254
            ]
        },
        {
            "positions": [
                -1.0960020194066762,
                -1.1209022091143976,
                2.0138880646711823,
                -0.8355866437112563,
                0.4652027003634056,
                3.142291505684046
            ]
        }
    ]
}