{
    "goal": {
        "global_pose": {
            "orientation": {
                "w": 0.7047431493862688,
                "x": -0.7094548369677653,
                "y": 0.0024358444001904,
                "z": -0.0022348060817251984
            },
            "position": {
                "x": -0.39052492380142206,
                "y": 0.3671506643295288,
                "z": 0.19426114857196808
            }
        },
        "name": "move_to_magneteinheit_D"
    },
    "id": "RRTstar_move_to_magneteinheit_D_41",
    "joint_names": [
        "shoulder_pan_joint",
        "shoulder_lift_joint",
        "elbow_joint",
        "wrist_1_joint",
        "wrist_2_joint",
        "wrist_3_joint"
    ],
    "metrics": {
        "cart_traj_len": 4.070921253293087,
        "distance_elbow_joint": 3.1598223588058296,
        "distance_shoulder_lift_joint": 1.098214384402397,
        "distance_shoulder_pan_joint": 2.7377602948496853,
        "distance_wrist_1_joint": 2.331208575164506,
        "distance_wrist_2_joint": 1.654183820622805,
        "distance_wrist_3_joint": 6.287720778317845,
        "smoothness": 0.1297902797889836,
        "time": 5.036997776,
        "traj_len": 4.1555878299180575,
        "weighted_distance": 5.816334254888217
    },
    "planner": "RRTstar",
    "start": {
        "state": {
            "elbow_joint": 0.749534889911806,
            "shoulder_lift_joint": -0.6476975780787326,
            "shoulder_pan_joint": -2.711696901376241,
            "wrist_1_joint": -0.07506478083263063,
            "wrist_2_joint": 0.43296659715538205,
            "wrist_3_joint": -3.14703540197715
        }
    },
    "waypoints": [
        {
            "positions": [
                -2.711696901376241,
                -0.6476975780787326,
                0.749534889911806,
                -0.07506478083263063,
                0.43296659715538205,
                -3.14703540197715
            ]
        },
        {
            "positions": [
                -2.7327179427338857,
                -0.6891868970204764,
                0.742101421161756,
                -0.05608321342902685,
                0.43157339022096936,
                -2.877863388034352
            ]
        },
        {
            "positions": [
                -2.75373898409153,
                -0.7306762159622203,
                0.734667952411706,
                -0.037101646025423075,
                0.4301801832865566,
                -2.6086913740915536
            ]
        },
        {
            "positions": [
                -2.7747600254491744,
                -0.7721655349039641,
                0.7272344836616561,
                -0.01812007862181931,
                0.4287869763521439,
                -2.339519360148756
            ]
        },
        {
            "positions": [
                -2.7957810668068186,
                -0.813654853845708,
                0.7198010149116061,
                0.000861488781784478,
                0.42739376941773116,
                -2.0703473462059576
            ]
        },
        {
            "positions": [
                -2.816802108164463,
                -0.8551441727874518,
                0.7123675461615562,
                0.019843056185388244,
                0.42600056248331847,
                -1.8011753322631596
            ]
        },
        {
            "positions": [
                -2.744514087867357,
                -0.8745047501921136,
                0.6434406347513331,
                -0.037554639581116975,
                0.45228609156974664,
                -1.6679686430972656
            ]
        },
        {
            "positions": [
                -2.672226067570251,
                -0.8938653275967754,
                0.5745137233411098,
                -0.0949523353476222,
                0.47857162065617487,
                -1.5347619539313713
            ]
        },
        {
            "positions": [
                -2.599938047273145,
                -0.9132259050014371,
                0.5055868119308866,
                -0.15235003111412743,
                0.504857149742603,
                -1.4015552647654772
            ]
        },
        {
            "positions": [
                -2.5276500269760387,
                -0.9325864824060989,
                0.4366599005206635,
                -0.20974772688063265,
                0.5311426788290312,
                -1.2683485755995831
            ]
        },
        {
            "positions": [
                -2.4553620066789326,
                -0.9519470598107607,
                0.36773298911044033,
                -0.26714542264713786,
                0.5574282079154593,
                -1.135141886433689
            ]
        },
        {
            "positions": [
                -2.3830739863818264,
                -0.9713076372154225,
                0.29880607770021717,
                -0.3245431184136431,
                0.5837137370018876,
                -1.001935197267795
            ]
        },
        {
            "positions": [
                -2.3107859660847203,
                -0.9906682146200843,
                0.22987916628999405,
                -0.3819408141801483,
                0.6099992660883158,
                -0.8687285081019007
            ]
        },
        {
            "positions": [
                -2.238497945787614,
                -1.010028792024746,
                0.16095225487977083,
                -0.4393385099466535,
                0.6362847951747439,
                -0.7355218189360064
            ]
        },
        {
            "positions": [
                -2.166209925490508,
                -1.0293893694294078,
                0.0920253434695476,
                -0.49673620571315874,
                0.6625703242611721,
                -0.6023151297701124
            ]
        },
        {
            "positions": [
                -2.093921905193402,
                -1.0487499468340695,
                0.023098432059324492,
                -0.5541339014796639,
                0.6888558533476004,
                -0.4691084406042183
            ]
        },
        {
            "positions": [
                -2.021633884896296,
                -1.0681105242387314,
                -0.04582847935089873,
                -0.6115315972461691,
                0.7151413824340285,
                -0.335901751438324
            ]
        },
        {
            "positions": [
                -1.9493458645991897,
                -1.0874711016433931,
                -0.11475539076112184,
                -0.6689292930126743,
                0.7414269115204566,
                -0.20269506227243017
            ]
        },
        {
            "positions": [
                -1.8770578443020836,
                -1.1068316790480548,
                -0.18368230217134507,
                -0.7263269887791796,
                0.7677124406068849,
                -0.06948837310653588
            ]
        },
        {
            "positions": [
                -1.8047698240049774,
                -1.1261922564527165,
                -0.25260921358156807,
                -0.7837246845456848,
                0.793997969693313,
                0.06371831605935818
            ]
        },
        {
            "positions": [
                -1.7324818037078713,
                -1.1455528338573784,
                -0.3215361249917914,
                -0.84112238031219,
                0.8202834987797412,
                0.19692500522525225
            ]
        },
        {
            "positions": [
                -1.6601937834107652,
                -1.1649134112620403,
                -0.3904630364020145,
                -0.8985200760786952,
                0.8465690278661695,
                0.33013169439114676
            ]
        },
        {
            "positions": [
                -1.587905763113659,
                -1.184273988666702,
                -0.45938994781223763,
                -0.9559177718452004,
                0.8728545569525976,
                0.4633383835570404
            ]
        },
        {
            "positions": [
                -1.515617742816553,
                -1.2036345660713637,
                -0.528316859222461,
                -1.0133154676117058,
                0.8991400860390257,
                0.5965450727229349
            ]
        },
        {
            "positions": [
                -1.4433297225194468,
                -1.2229951434760253,
                -0.5972437706326839,
                -1.070713163378211,
                0.9254256151254538,
                0.729751761888829
            ]
        },
        {
            "positions": [
                -1.3710417022223407,
                -1.2423557208806872,
                -0.6661706820429072,
                -1.1281108591447162,
                0.9517111442118821,
                0.8629584510547229
            ]
        },
        {
            "positions": [
                -1.3145558420240702,
                -1.2512751850113288,
                -0.8014937264284582,
                -1.2144855477605452,
                0.9364010084785153,
                0.920305124377074
            ]
        },
        {
            "positions": [
                -1.2580699818257997,
                -1.2601946491419702,
                -0.9368167708140092,
                -1.3008602363763742,
                0.9210908727451484,
                0.9776517976994252
            ]
        },
        {
            "positions": [
                -1.201584121627529,
                -1.2691141132726118,
                -1.0721398151995603,
                -1.3872349249922031,
                0.9057807370117816,
                1.0349984710217763
            ]
        },
        {
            "positions": [
                -1.1450982614292584,
                -1.2780335774032534,
                -1.2074628595851111,
                -1.4736096136080323,
                0.8904706012784149,
                1.0923451443441274
            ]
        },
        {
            "positions": [
                -1.088612401230988,
                -1.2869530415338948,
                -1.3427859039706624,
                -1.5599843022238613,
                0.875160465545048,
                1.1496918176664788
            ]
        },
        {
            "positions": [
                -1.0321265410327174,
                -1.2958725056645364,
                -1.4781089483562133,
                -1.6463589908396903,
                0.8598503298116813,
                1.2070384909888299
            ]
        },
        {
            "positions": [
                -0.9756406808344469,
                -1.304791969795178,
                -1.6134319927417642,
                -1.7327336794555195,
                0.8445401940783145,
                1.264385164311181
            ]
        },
        {
            "positions": [
                -0.9191548206361764,
                -1.3137114339258193,
                -1.7487550371273153,
                -1.8191083680713485,
                0.8292300583449477,
                1.321731837633532
            ]
        },
        {
            "positions": [
                -0.8626689604379058,
                -1.322630898056461,
                -1.8840780815128664,
                -1.9054830566871774,
                0.8139199226115809,
                1.3790785109558832
            ]
        },
        {
            "positions": [
                -0.8129274633437222,
                -1.3452655397606548,
                -1.9551829761510362,
                -1.9487351283695353,
                0.7621594142252064,
                1.480452478897233
            ]
        },
        {
            "positions": [
                -0.7631859662495388,
                -1.3679001814648486,
                -2.026287870789206,
                -1.9919872000518932,
                0.710398905838832,
                1.581826446838583
            ]
        },
        {
            "positions": [
                -0.7134444691553554,
                -1.3905348231690424,
                -2.097392765427376,
                -2.035239271734251,
                0.6586383974524577,
                1.6832004147799329
            ]
        },
        {
            "positions": [
                -0.6637029720611719,
                -1.4131694648732362,
                -2.168497660065546,
                -2.078491343416609,
                0.6068778890660832,
                1.7845743827212825
            ]
        },
        {
            "positions": [
                -0.6139614749669884,
                -1.43580410657743,
                -2.239602554703716,
                -2.121743415098967,
                0.5551173806797087,
                1.8859483506626327
            ]
        },
        {
            "positions": [
                -0.564219977872805,
                -1.458438748281624,
                -2.3107074493418858,
                -2.164995486781325,
                0.5033568722933344,
                1.9873223186039823
            ]
        },
        {
            "positions": [
                -0.5092409600008944,
                -1.499403403193336,
                -2.329388981861887,
                -2.1733497264236705,
                0.4061075421870033,
                2.153233384338789
            ]
        },
        {
            "positions": [
                -0.45426194212898363,
                -1.5403680581050483,
                -2.3480705143818885,
                -2.181703966066016,
                0.3088582120806722,
                2.3191444500735954
            ]
        },
        {
            "positions": [
                -0.399282924257073,
                -1.5813327130167603,
                -2.36675204690189,
                -2.190058205708361,
                0.21160888197434113,
                2.4850555158084022
            ]
        },
        {
            "positions": [
                -0.34430390638516234,
                -1.6222973679284725,
                -2.3854335794218913,
                -2.198412445350707,
                0.11435955186801006,
                2.6509665815432086
            ]
        },
        {
            "positions": [
                -0.29091827762444167,
                -1.6635022327793583,
                -2.377148949597847,
                -2.1923973664805763,
                0.01964101457524141,
                2.8142061798090365
            ]
        },
        {
            "positions": [
                -0.237532648863721,
                -1.7047070976302439,
                -2.3688643197738024,
                -2.1863822876104453,
                -0.07507752271752724,
                2.977445778074864
            ]
        },
        {
            "positions": [
                -0.1841470201030003,
                -1.7459119624811297,
                -2.360579689949758,
                -2.1803672087403148,
                -0.16979606001029593,
                3.140685376340692
            ]
        }
    ]
}