{
    "goal": {
        "global_pose": {
            "orientation": {
                "w": 0.7031023480610252,
                "x": -0.7110244013736278,
                "y": 0.0077485991402295624,
                "z": 0.005598929693374583
            },
            "position": {
                "x": -0.8841497679147869,
                "y": 0.44412534475326537,
                "z": 0.3711530566215515
            }
        },
        "name": "move_to_auspresseinheit_D"
    },
    "id": "RRTstar_move_to_auspresseinheit_D_122",
    "joint_names": [
        "shoulder_pan_joint",
        "shoulder_lift_joint",
        "elbow_joint",
        "wrist_1_joint",
        "wrist_2_joint",
        "wrist_3_joint"
    ],
    "metrics": {
        "cart_traj_len": 0.3432729592471796,
        "distance_elbow_joint": 0.6329620445439388,
        "distance_shoulder_lift_joint": 0.11802839603691018,
        "distance_shoulder_pan_joint": 0.13460174082683138,
        "distance_wrist_1_joint": 0.5199889600940528,
        "distance_wrist_2_joint": 1.4329595854865642,
        "distance_wrist_3_joint": 0.006013447612684519,
        "smoothness": 5.921189480296099e-16,
        "time": 5.00007243,
        "traj_len": 1.6865806160990295,
        "weighted_distance": 2.1930639788676864
    },
    "planner": "RRTstar",
    "start": {
        "state": {
            "elbow_joint": -1.8275523626775212,
            "shoulder_lift_joint": -2.126789852344167,
            "shoulder_pan_joint": -0.03513704404078235,
            "wrist_1_joint": -2.347782403156801,
            "wrist_2_joint": -1.6058999987535132,
            "wrist_3_joint": -3.0880379163319196
        }
    },
    "waypoints": [
        {
            "positions": [
                -0.03513704404078235,
                -2.126789852344167,
                -1.8275523626775212,
                -2.347782403156801,
                -1.6058999987535132,
                -3.0880379163319196
            ]
        },
        {
            "positions": [
                -0.05196226164413627,
                -2.1415434018487804,
                -1.7484321071095288,
                -2.4127810231685576,
                -1.4267800505676926,
                -3.088789597283505
            ]
        },
        {
            "positions": [
                -0.0687874792474902,
                -2.1562969513533945,
                -1.6693118515415364,
                -2.4777796431803143,
                -1.247660102381872,
                -3.0895412782350906
            ]
        },
        {
            "positions": [
                -0.0856126968508441,
                -2.171050500858008,
                -1.5901915959735442,
                -2.5427782631920706,
                -1.0685401541960515,
                -3.090292959186676
            ]
        },
        {
            "positions": [
                -0.10243791445419803,
                -2.1858040503626217,
                -1.5110713404055518,
                -2.6077768832038273,
                -0.8894202060102311,
                -3.0910446401382616
            ]
        },
        {
            "positions": [
                -0.11926313205755196,
                -2.2005575998672358,
                -1.4319510848375594,
                -2.672775503215584,
                -0.7103002578244105,
                -3.0917963210898476
            ]
        },
        {
            "positions": [
                -0.13608834966090588,
                -2.2153111493718494,
                -1.3528308292695672,
                -2.7377741232273403,
                -0.5311803096385901,
                -3.092548002041433
            ]
        },
        {
            "positions": [
                -0.1529135672642598,
                -2.2300646988764634,
                -1.2737105737015748,
                -2.802772743239097,
                -0.35206036145276953,
                -3.0932996829930186
            ]
        },
        {
            "positions": [
                -0.16973878486761373,
                -2.244818248381077,
                -1.1945903181335824,
                -2.8677713632508537,
                -0.17294041326694906,
                -3.094051363944604
            ]
        }
    ]
}