{
    "goal": {
        "global_pose": {
            "orientation": {
                "w": 0.5084816262002911,
                "x": -0.4908360881923452,
                "y": 0.5182115481033761,
                "z": -0.48164630358495003
            },
            "position": {
                "x": 0.5540239810943604,
                "y": -0.46912469901144505,
                "z": 0.16403168439865112
            }
        },
        "name": "move_to_storage_B"
    },
    "id": "RRTstar_move_to_storage_B_23",
    "joint_names": [
        "shoulder_pan_joint",
        "shoulder_lift_joint",
        "elbow_joint",
        "wrist_1_joint",
        "wrist_2_joint",
        "wrist_3_joint"
    ],
    "metrics": {
        "cart_traj_len": 0.6381740220973645,
        "distance_elbow_joint": 0.3513747023563316,
        "distance_shoulder_lift_joint": 0.460212361449587,
        "distance_shoulder_pan_joint": 0.2012612558917758,
        "distance_wrist_1_joint": 2.9869498137230215,
        "distance_wrist_2_joint": 2.705160633187626,
        "distance_wrist_3_joint": 3.137662478860539,
        "smoothness": 0.006029018917056614,
        "time": 5.193290737,
        "traj_len": 3.13729521171803,
        "weighted_distance": 4.670123836698616
    },
    "planner": "RRTstar",
    "start": {
        "state": {
            "elbow_joint": 1.664937868594044,
            "shoulder_lift_joint": -0.661644460510453,
            "shoulder_pan_joint": -0.9139846352900073,
            "wrist_1_joint": 2.146753192139373,
            "wrist_2_joint": -2.2341966793290973,
            "wrist_3_joint": 0.005466555786416001
        }
    },
    "waypoints": [
        {
            "positions": [
                -0.9139846352900073,
                -0.661644460510453,
                1.664937868594044,
                2.146753192139373,
                -2.2341966793290973,
                0.005466555786416001
            ]
        },
        {
            "positions": [
                -0.9120660760146797,
                -0.6888065671675994,
                1.6754228414636156,
                2.0245176512461667,
                -2.1755447219881074,
                -0.14979818693911026
            ]
        },
        {
            "positions": [
                -0.910147516739352,
                -0.7159686738247456,
                1.6859078143331874,
                1.9022821103529604,
                -2.116892764647117,
                -0.3050629296646365
            ]
        },
        {
            "positions": [
                -0.9082289574640244,
                -0.743130780481892,
                1.696392787202759,
                1.780046569459754,
                -2.0582408073061274,
                -0.46032767239016265
            ]
        },
        {
            "positions": [
                -0.9063103981886967,
                -0.7702928871390382,
                1.7068777600723308,
                1.6578110285665475,
                -1.9995888499651373,
                -0.6155924151156891
            ]
        },
        {
            "positions": [
                -0.9043918389133692,
                -0.7974549937961846,
                1.7173627329419026,
                1.5355754876733412,
                -1.9409368926241473,
                -0.7708571578412152
            ]
        },
        {
            "positions": [
                -0.91351890841409,
                -0.8129026998992253,
                1.7315984395137347,
                1.4224434824706274,
                -1.8260844713630675,
                -0.8833018609475441
            ]
        },
        {
            "positions": [
                -0.9226459779148108,
                -0.8283504060022661,
                1.7458341460855666,
                1.3093114772679137,
                -1.7112320501019875,
                -0.9957465640538731
            ]
        },
        {
            "positions": [
                -0.9317730474155317,
                -0.8437981121053068,
                1.7600698526573988,
                1.1961794720652,
                -1.5963796288409078,
                -1.108191267160202
            ]
        },
        {
            "positions": [
                -0.9409001169162525,
                -0.8592458182083476,
                1.7743055592292307,
                1.083047466862486,
                -1.4815272075798278,
                -1.2206359702665308
            ]
        },
        {
            "positions": [
                -0.9500271864169734,
                -0.8746935243113882,
                1.7885412658010629,
                0.9699154616597724,
                -1.366674786318748,
                -1.33308067337286
            ]
        },
        {
            "positions": [
                -0.9591542559176942,
                -0.8901412304144289,
                1.8027769723728948,
                0.8567834564570586,
                -1.2518223650576683,
                -1.4455253764791887
            ]
        },
        {
            "positions": [
                -0.968281325418415,
                -0.9055889365174697,
                1.817012678944727,
                0.7436514512543448,
                -1.1369699437965886,
                -1.5579700795855178
            ]
        },
        {
            "positions": [
                -0.9774083949191359,
                -0.9210366426205104,
                1.8312483855165589,
                0.630519446051631,
                -1.0221175225355086,
                -1.6704147826918465
            ]
        },
        {
            "positions": [
                -0.9865354644198567,
                -0.9364843487235511,
                1.845484092088391,
                0.5173874408489172,
                -0.9072651012744288,
                -1.7828594857981757
            ]
        },
        {
            "positions": [
                -0.9956625339205776,
                -0.9519320548265919,
                1.859719798660223,
                0.4042554356462036,
                -0.7924126800133489,
                -1.8953041889045044
            ]
        },
        {
            "positions": [
                -1.0047896034212984,
                -0.9673797609296326,
                1.8739555052320551,
                0.29112343044348954,
                -0.6775602587522691,
                -2.0077488920108335
            ]
        },
        {
            "positions": [
                -1.0139166729220193,
                -0.9828274670326733,
                1.888191211803887,
                0.17799142524077594,
                -0.5627078374911894,
                -2.120193595117162
            ]
        },
        {
            "positions": [
                -1.02304374242274,
                -0.9982751731357141,
                1.9024269183757192,
                0.06485942003806211,
                -0.4478554162301094,
                -2.2326382982234914
            ]
        },
        {
            "positions": [
                -1.032170811923461,
                -1.013722879238755,
                1.9166626249475511,
                -0.048272585164651494,
                -0.33300299496902963,
                -2.34508300132982
            ]
        },
        {
            "positions": [
                -1.0412978814241818,
                -1.0291705853417956,
                1.9308983315193833,
                -0.16140459036736554,
                -0.21815057370794966,
                -2.457527704436149
            ]
        },
        {
            "positions": [
                -1.0504249509249026,
                -1.0446182914448363,
                1.9451340380912152,
                -0.27453659557007914,
                -0.1032981524468699,
                -2.569972407542478
            ]
        },
        {
            "positions": [
                -1.0595520204256235,
                -1.060065997547877,
                1.9593697446630474,
                -0.38766860077279297,
                0.011554268814210067,
                -2.682417110648807
            ]
        },
        {
            "positions": [
                -1.0686790899263443,
                -1.0755137036509177,
                1.9736054512348793,
                -0.5008006059755068,
                0.1264066900752896,
                -2.7948618137551358
            ]
        },
        {
            "positions": [
                -1.0778061594270651,
                -1.0909614097539586,
                1.9878411578067114,
                -0.6139326111782204,
                0.2412591113363698,
                -2.907306516861465
            ]
        },
        {
            "positions": [
                -1.086933228927786,
                -1.1064091158569993,
                2.0020768643785436,
                -0.727064616380934,
                0.35611153259744954,
                -3.0197512199677936
            ]
        },
        {
            "positions": [
                -1.0960602984285068,
                -1.12185682196004,
                2.0163125709503755,
                -0.8401966215836479,
                0.47096395385852935,
                -3.1321959230741228
            ]
        }
    ]
}