{
    "goal": {
        "global_pose": {
            "orientation": {
                "w": -0.4816463035849501,
                "x": 0.5182115481033762,
                "y": 0.4908360881923453,
                "z": -0.5084816262002911
            },
            "position": {
                "x": -0.8240239810943604,
                "y": -0.300875300988555,
                "z": 0.16403168439865112
            }
        },
        "name": "move_to_storage_C"
    },
    "id": "RRTstar_move_to_storage_C_145",
    "joint_names": [
        "shoulder_pan_joint",
        "shoulder_lift_joint",
        "elbow_joint",
        "wrist_1_joint",
        "wrist_2_joint",
        "wrist_3_joint"
    ],
    "metrics": {
        "cart_traj_len": 0.5773149875290969,
        "distance_elbow_joint": 0.2554354515304742,
        "distance_shoulder_lift_joint": 0.189482487027556,
        "distance_shoulder_pan_joint": 0.49635920163401304,
        "distance_wrist_1_joint": 0.06612286639609899,
        "distance_wrist_2_joint": 1.0597974659649534,
        "distance_wrist_3_joint": 0.06528663024015202,
        "smoothness": 0.0,
        "time": 5.000400192,
        "traj_len": 1.4603027435409575,
        "weighted_distance": 1.8409176232614548
    },
    "planner": "RRTstar",
    "start": {
        "state": {
            "elbow_joint": 2.010868314990456,
            "shoulder_lift_joint": -1.1634956873337592,
            "shoulder_pan_joint": -2.4736205022346125,
            "wrist_1_joint": -0.8367026794202681,
            "wrist_2_joint": 0.6746043897044499,
            "wrist_3_joint": -3.1496632123970403
        }
    },
    "waypoints": [
        {
            "positions": [
                -2.4736205022346125,
                -1.1634956873337592,
                2.010868314990456,
                -0.8367026794202681,
                0.6746043897044499,
                -3.1496632123970403
            ]
        },
        {
            "positions": [
                -2.5563470358402816,
                -1.1319152728291666,
                1.9682957397353769,
                -0.8256822016875849,
                0.8512373006986088,
                -3.138782107357015
            ]
        },
        {
            "positions": [
                -2.63907356944595,
                -1.1003348583245738,
                1.9257231644802977,
                -0.8146617239549018,
                1.0278702116927678,
                -3.1279010023169898
            ]
        },
        {
            "positions": [
                -2.721800103051619,
                -1.0687544438199812,
                1.8831505892252187,
                -0.8036412462222187,
                1.2045031226869267,
                -3.1170198972769643
            ]
        },
        {
            "positions": [
                -2.804526636657288,
                -1.0371740293153886,
                1.8405780139701398,
                -0.7926207684895354,
                1.3811360336810856,
                -3.106138792236939
            ]
        },
        {
            "positions": [
                -2.887253170262957,
                -1.0055936148107958,
                1.7980054387150606,
                -0.7816002907568522,
                1.5577689446752445,
                -3.0952576871969137
            ]
        },
        {
            "positions": [
                -2.9699797038686255,
                -0.9740132003062032,
                1.7554328634599816,
                -0.7705798130241691,
                1.7344018556694032,
                -3.0843765821568883
            ]
        }
    ]
}