{
    "goal": {
        "global_pose": {
            "orientation": {
                "w": 0.7047431468963623,
                "x": -0.7094548344612122,
                "y": 0.0024358443915843964,
                "z": -0.0022348060738295317
            },
            "position": {
                "x": 0.6094750761985779,
                "y": 0.3671506643295288,
                "z": 0.19426114857196808
            }
        },
        "name": "move_to_magneteinheit_A"
    },
    "id": "RRTstar_move_to_magneteinheit_A_14",
    "joint_names": [
        "shoulder_pan_joint",
        "shoulder_lift_joint",
        "elbow_joint",
        "wrist_1_joint",
        "wrist_2_joint",
        "wrist_3_joint"
    ],
    "metrics": {
        "cart_traj_len": 3.0160854182914325,
        "distance_elbow_joint": 3.944085515482458,
        "distance_shoulder_lift_joint": 0.8729298084527904,
        "distance_shoulder_pan_joint": 2.57785924506906,
        "distance_wrist_1_joint": 3.57950302618333,
        "distance_wrist_2_joint": 1.4381356962970044,
        "distance_wrist_3_joint": 0.568721466983132,
        "smoothness": 0.021598682343734295,
        "time": 5.050523042,
        "traj_len": 3.6029480649140337,
        "weighted_distance": 4.374507562562256
    },
    "planner": "RRTstar",
    "start": {
        "state": {
            "elbow_joint": -1.9196185241190666,
            "shoulder_lift_joint": -1.2443396400964142,
            "shoulder_pan_joint": 2.6996025414629847,
            "wrist_1_joint": -1.5485510000780065,
            "wrist_2_joint": -1.5709468930060704,
            "wrist_3_joint": 0.4420197071253992
        }
    },
    "waypoints": [
        {
            "positions": [
                2.6996025414629847,
                -1.2443396400964142,
                -1.9196185241190666,
                -1.5485510000780065,
                -1.5709468930060704,
                0.4420197071253992
            ]
        },
        {
            "positions": [
                2.5808831545073865,
                -1.2046602828662358,
                -1.8622534178546895,
                -1.4135080373630773,
                -1.551866882113213,
                0.4337382895852505
            ]
        },
        {
            "positions": [
                2.4621637675517887,
                -1.1649809256360575,
                -1.8048883115903123,
                -1.2784650746481483,
                -1.5327868712203558,
                0.4254568720451019
            ]
        },
        {
            "positions": [
                2.343444380596191,
                -1.125301568405879,
                -1.7475232053259353,
                -1.1434221119332193,
                -1.5137068603274988,
                0.41717545450495325
            ]
        },
        {
            "positions": [
                2.2247249936405926,
                -1.0856222111757006,
                -1.6901580990615581,
                -1.00837914921829,
                -1.4946268494346415,
                0.40889403696480464
            ]
        },
        {
            "positions": [
                2.1060056066849944,
                -1.0459428539455222,
                -1.632792992797181,
                -0.8733361865033609,
                -1.4755468385417843,
                0.400612619424656
            ]
        },
        {
            "positions": [
                1.9872862197293966,
                -1.0062634967153439,
                -1.5754278865328037,
                -0.7382932237884319,
                -1.456466827648927,
                0.3923312018845074
            ]
        },
        {
            "positions": [
                1.8685668327737985,
                -0.9665841394851654,
                -1.5180627802684268,
                -0.6032502610735027,
                -1.43738681675607,
                0.3840497843443587
            ]
        },
        {
            "positions": [
                1.7498474458182005,
                -0.926904782254987,
                -1.4606976740040496,
                -0.46820729835857366,
                -1.4183068058632127,
                0.3757683668042101
            ]
        },
        {
            "positions": [
                1.6311280588626025,
                -0.8872254250248086,
                -1.4033325677396724,
                -0.3331643356436442,
                -1.3992267949703554,
                0.36748694926406145
            ]
        },
        {
            "positions": [
                1.5124086719070045,
                -0.8475460677946303,
                -1.3459674614752952,
                -0.19812137292871523,
                -1.3801467840774981,
                0.3592055317239128
            ]
        },
        {
            "positions": [
                1.3936892849514064,
                -0.8078667105644519,
                -1.288602355210918,
                -0.06307841021378624,
                -1.3610667731846409,
                0.3509241141837642
            ]
        },
        {
            "positions": [
                1.2749698979958084,
                -0.7681873533342735,
                -1.2312372489465409,
                0.07196455250114275,
                -1.3419867622917838,
                0.3426426966436155
            ]
        },
        {
            "positions": [
                1.1562505110402104,
                -0.728507996104095,
                -1.1738721426821637,
                0.2070075152160722,
                -1.3229067513989266,
                0.3343612791034669
            ]
        },
        {
            "positions": [
                1.0375311240846123,
                -0.6888286388739167,
                -1.1165070364177867,
                0.34205047793100113,
                -1.3038267405060693,
                0.32607986156331825
            ]
        },
        {
            "positions": [
                0.9669134433699629,
                -0.6781140895768973,
                -0.9973977577944149,
                0.4427609949001767,
                -1.2602322363030183,
                0.30890563115923186
            ]
        },
        {
            "positions": [
                0.8962957626553134,
                -0.667399540279878,
                -0.878288479171043,
                0.5434715118693522,
                -1.2166377320999673,
                0.2917314007551454
            ]
        },
        {
            "positions": [
                0.825678081940664,
                -0.6566849909828587,
                -0.7591792005476712,
                0.6441820288385277,
                -1.1730432278969165,
                0.274557170351059
            ]
        },
        {
            "positions": [
                0.7550604012260145,
                -0.6459704416858394,
                -0.6400699219242992,
                0.7448925458077033,
                -1.1294487236938655,
                0.2573829399469726
            ]
        },
        {
            "positions": [
                0.6844427205113651,
                -0.6352558923888201,
                -0.5209606433009274,
                0.8456030627768787,
                -1.0858542194908145,
                0.24020870954288617
            ]
        },
        {
            "positions": [
                0.6138250397967158,
                -0.6245413430918008,
                -0.40185136467755556,
                0.9463135797460542,
                -1.0422597152877637,
                0.22303447913879976
            ]
        },
        {
            "positions": [
                0.5432073590820663,
                -0.6138267937947814,
                -0.2827420860541837,
                1.0470240967152298,
                -0.9986652110847127,
                0.20586024873471337
            ]
        },
        {
            "positions": [
                0.4725896783674167,
                -0.6031122444977621,
                -0.16363280743081177,
                1.1477346136844053,
                -0.9550707068816617,
                0.18868601833062693
            ]
        },
        {
            "positions": [
                0.40197199765276737,
                -0.5923976952007428,
                -0.04452352880743993,
                1.2484451306535809,
                -0.9114762026786107,
                0.1715117879265405
            ]
        },
        {
            "positions": [
                0.3313543169381179,
                -0.5816831459037235,
                0.074585749815932,
                1.3491556476227564,
                -0.8678816984755598,
                0.1543375575224541
            ]
        },
        {
            "positions": [
                0.2979029220713413,
                -0.5903305978472252,
                0.2215008734704019,
                1.4185657155254228,
                -0.8128966881845221,
                0.13316037332142794
            ]
        },
        {
            "positions": [
                0.2644515272045647,
                -0.598978049790727,
                0.36841599712487183,
                1.4879757834280891,
                -0.7579116778934842,
                0.11198318912040181
            ]
        },
        {
            "positions": [
                0.2310001323377881,
                -0.6076255017342287,
                0.5153311207793417,
                1.5573858513307555,
                -0.7029266676024465,
                0.09080600491937565
            ]
        },
        {
            "positions": [
                0.19754873747101154,
                -0.6162729536777304,
                0.6622462444338116,
                1.6267959192334218,
                -0.6479416573114087,
                0.06962882071834951
            ]
        },
        {
            "positions": [
                0.16409734260423492,
                -0.6249204056212322,
                0.8091613680882817,
                1.6962059871360882,
                -0.5929566470203709,
                0.04845163651732336
            ]
        },
        {
            "positions": [
                0.13064594773745833,
                -0.6335678575647339,
                0.9560764917427516,
                1.7656160550387545,
                -0.5379716367293331,
                0.0272744523162972
            ]
        },
        {
            "positions": [
                0.12916217251353596,
                -0.6599659579979155,
                1.134141575012858,
                1.809838716883183,
                -0.47044489672595524,
                0.0016117502872922268
            ]
        },
        {
            "positions": [
                0.12767839728961355,
                -0.686364058431097,
                1.3122066582829643,
                1.8540613787276117,
                -0.40291815672257736,
                -0.024050951741712748
            ]
        },
        {
            "positions": [
                0.12619462206569115,
                -0.7127621588642785,
                1.4902717415530709,
                1.8982840405720403,
                -0.3353914167191995,
                -0.04971365377071772
            ]
        },
        {
            "positions": [
                0.12471084684176878,
                -0.7391602592974601,
                1.6683368248231774,
                1.9425067024164688,
                -0.2678646767158216,
                -0.0753763557997227
            ]
        },
        {
            "positions": [
                0.12322707161784639,
                -0.7655583597306417,
                1.8464019080932839,
                1.9867293642608974,
                -0.20033793671244365,
                -0.10103905782872767
            ]
        },
        {
            "positions": [
                0.121743296393924,
                -0.7919564601638233,
                2.0244669913633904,
                2.030952026105326,
                -0.13281119670906577,
                -0.12670175985773263
            ]
        }
    ]
}