{
    "goal": {
        "global_pose": {
            "orientation": {
                "w": 0.7047431468963623,
                "x": -0.7094548344612122,
                "y": 0.0024358443915843964,
                "z": -0.0022348060738295317
            },
            "position": {
                "x": 0.6094750761985779,
                "y": 0.3671506643295288,
                "z": 0.19426114857196808
            }
        },
        "name": "move_to_magneteinheit_A"
    },
    "id": "RRTstar_move_to_magneteinheit_A_95",
    "joint_names": [
        "shoulder_pan_joint",
        "shoulder_lift_joint",
        "elbow_joint",
        "wrist_1_joint",
        "wrist_2_joint",
        "wrist_3_joint"
    ],
    "metrics": {
        "cart_traj_len": 3.5423768030212788,
        "distance_elbow_joint": 3.8682141549680114,
        "distance_shoulder_lift_joint": 0.42439236921075585,
        "distance_shoulder_pan_joint": 2.610650895424621,
        "distance_wrist_1_joint": 1.1856847637851118,
        "distance_wrist_2_joint": 1.6940218109310727,
        "distance_wrist_3_joint": 2.6094356974074344,
        "smoothness": 0.25562323047505847,
        "time": 5.029876418,
        "traj_len": 3.5202840356606186,
        "weighted_distance": 4.526696108781554
    },
    "planner": "RRTstar",
    "start": {
        "state": {
            "elbow_joint": -1.9196185241190666,
            "shoulder_lift_joint": -1.2443396400964142,
            "shoulder_pan_joint": 2.6996025414629847,
            "wrist_1_joint": -1.5485510000780065,
            "wrist_2_joint": -1.5709468930060704,
            "wrist_3_joint": 0.4420197071253992
        }
    },
    "waypoints": [
        {
            "positions": [
                2.6996025414629847,
                -1.2443396400964142,
                -1.9196185241190666,
                -1.5485510000780065,
                -1.5709468930060704,
                0.4420197071253992
            ]
        },
        {
            "positions": [
                2.608329044874765,
                -1.2342741148783196,
                -1.8150348860152299,
                -1.5106028522936448,
                -1.5135683539947546,
                0.530533078135752
            ]
        },
        {
            "positions": [
                2.517055548286545,
                -1.224208589660225,
                -1.7104512479113934,
                -1.472654704509283,
                -1.4561898149834387,
                0.6190464491461047
            ]
        },
        {
            "positions": [
                2.4257820516983255,
                -1.2141430644421305,
                -1.6058676098075566,
                -1.4347065567249213,
                -1.398811275972123,
                0.7075598201564577
            ]
        },
        {
            "positions": [
                2.334508555110106,
                -1.204077539224036,
                -1.50128397170372,
                -1.3967584089405596,
                -1.341432736960807,
                0.7960731911668104
            ]
        },
        {
            "positions": [
                2.2432350585218863,
                -1.1940120140059414,
                -1.3967003335998833,
                -1.3588102611561979,
                -1.2840541979494913,
                0.8845865621771632
            ]
        },
        {
            "positions": [
                2.1519615619336663,
                -1.1839464887878468,
                -1.2921166954960466,
                -1.3208621133718361,
                -1.2266756589381753,
                0.9730999331875161
            ]
        },
        {
            "positions": [
                2.0606880653454467,
                -1.1738809635697525,
                -1.18753305739221,
                -1.2829139655874744,
                -1.1692971199268596,
                1.0616133041978688
            ]
        },
        {
            "positions": [
                1.969414568757227,
                -1.163815438351658,
                -1.0829494192883733,
                -1.2449658178031127,
                -1.1119185809155439,
                1.1501266752082215
            ]
        },
        {
            "positions": [
                1.8781410721690073,
                -1.1537499131335633,
                -0.9783657811845367,
                -1.207017670018751,
                -1.054540041904228,
                1.2386400462185745
            ]
        },
        {
            "positions": [
                1.7868675755807875,
                -1.1436843879154688,
                -0.8737821430807,
                -1.1690695222343892,
                -0.997161502892912,
                1.3271534172289274
            ]
        },
        {
            "positions": [
                1.6955940789925679,
                -1.1336188626973742,
                -0.7691985049768633,
                -1.1311213744500275,
                -0.9397829638815963,
                1.41566678823928
            ]
        },
        {
            "positions": [
                1.604320582404348,
                -1.1235533374792797,
                -0.6646148668730267,
                -1.0931732266656657,
                -0.8824044248702805,
                1.5041801592496329
            ]
        },
        {
            "positions": [
                1.5130470858161285,
                -1.113487812261185,
                -0.56003122876919,
                -1.055225078881304,
                -0.8250258858589646,
                1.5926935302599858
            ]
        },
        {
            "positions": [
                1.4217735892279086,
                -1.1034222870430905,
                -0.45544759066535345,
                -1.0172769310969423,
                -0.7676473468476488,
                1.6812069012703383
            ]
        },
        {
            "positions": [
                1.3305000926396888,
                -1.093356761824996,
                -0.3508639525615165,
                -0.9793287833125806,
                -0.7102688078363328,
                1.7697202722806913
            ]
        },
        {
            "positions": [
                1.2392265960514692,
                -1.0832912366069014,
                -0.24628031445767995,
                -0.9413806355282188,
                -0.6528902688250171,
                1.8582336432910442
            ]
        },
        {
            "positions": [
                1.1479530994632494,
                -1.0732257113888068,
                -0.1416966763538432,
                -0.9034324877438571,
                -0.5955117298137013,
                1.9467470143013972
            ]
        },
        {
            "positions": [
                1.0566796028750298,
                -1.0631601861707123,
                -0.03711303825000667,
                -0.8654843399594954,
                -0.5381331908023854,
                2.0352603853117497
            ]
        },
        {
            "positions": [
                0.96540610628681,
                -1.0530946609526177,
                0.06747059985383008,
                -0.8275361921751336,
                -0.48075465179106947,
                2.1237737563221026
            ]
        },
        {
            "positions": [
                0.8741326096985904,
                -1.0430291357345234,
                0.1720542379576666,
                -0.7895880443907719,
                -0.42337611277975373,
                2.2122871273324556
            ]
        },
        {
            "positions": [
                0.7828591131103704,
                -1.0329636105164286,
                0.27663787606150336,
                -0.7516398966064102,
                -0.365997573768438,
                2.3008004983428085
            ]
        },
        {
            "positions": [
                0.691585616522151,
                -1.0228980852983343,
                0.3812215141653401,
                -0.7136917488220484,
                -0.30861903475712227,
                2.389313869353161
            ]
        },
        {
            "positions": [
                0.600312119933931,
                -1.0128325600802397,
                0.48580515226917687,
                -0.6757436010376867,
                -0.2512404957458063,
                2.477827240363514
            ]
        },
        {
            "positions": [
                0.5090386233457114,
                -1.0027670348621451,
                0.5903887903730132,
                -0.637795453253325,
                -0.19386195673449058,
                2.566340611373867
            ]
        },
        {
            "positions": [
                0.4177651267574918,
                -0.9927015096440506,
                0.6949724284768499,
                -0.5998473054689633,
                -0.13648341772317463,
                2.65485398238422
            ]
        },
        {
            "positions": [
                0.3264916301692722,
                -0.982635984425956,
                0.7995560665806867,
                -0.5618991576846015,
                -0.0791048787118589,
                2.7433673533945724
            ]
        },
        {
            "positions": [
                0.23521813358105195,
                -0.9725704592078614,
                0.9041397046845236,
                -0.5239510099002398,
                -0.021726339700543013,
                2.8318807244049253
            ]
        },
        {
            "positions": [
                0.19800288508663672,
                -0.9859079529190343,
                1.0321694651638809,
                -0.5385602878819713,
                0.006130218508873093,
                2.884384729088994
            ]
        },
        {
            "positions": [
                0.16078763659222145,
                -0.9992454466302072,
                1.160199225643238,
                -0.5531695658637028,
                0.033986776718289195,
                2.9368887337730625
            ]
        },
        {
            "positions": [
                0.14244160394573324,
                -1.0359674245533002,
                1.3997322394039224,
                -0.591757001005694,
                0.06323099499841141,
                2.9685776627999805
            ]
        },
        {
            "positions": [
                0.12409557129924502,
                -1.0726894024763929,
                1.639265253164607,
                -0.630344436147685,
                0.09247521327853361,
                3.000266591826899
            ]
        },
        {
            "positions": [
                0.1057495386527568,
                -1.1094113803994858,
                1.8787982669252914,
                -0.6689318712896761,
                0.12171943155865583,
                3.031955520853817
            ]
        },
        {
            "positions": [
                0.12254743126714987,
                -1.1251936475300646,
                1.9485956308489447,
                -0.685035783507585,
                0.1203639451923096,
                3.0124556371748
            ]
        }
    ]
}