{
    "goal": {
        "global_pose": {
            "orientation": {
                "w": 0.7047431468963623,
                "x": -0.7094548344612122,
                "y": 0.0024358443915843964,
                "z": -0.0022348060738295317
            },
            "position": {
                "x": 0.6094750761985779,
                "y": 0.3671506643295288,
                "z": 0.19426114857196808
            }
        },
        "name": "move_to_magneteinheit_A"
    },
    "id": "RRTstar_move_to_magneteinheit_A_21",
    "joint_names": [
        "shoulder_pan_joint",
        "shoulder_lift_joint",
        "elbow_joint",
        "wrist_1_joint",
        "wrist_2_joint",
        "wrist_3_joint"
    ],
    "metrics": {
        "cart_traj_len": 3.6960769038858774,
        "distance_elbow_joint": 3.909655290554885,
        "distance_shoulder_lift_joint": 0.2913716999056519,
        "distance_shoulder_pan_joint": 2.7781502116076586,
        "distance_wrist_1_joint": 0.6823879179171483,
        "distance_wrist_2_joint": 1.6959178668720705,
        "distance_wrist_3_joint": 3.5532867440296227,
        "smoothness": 0.06310796360693101,
        "time": 5.024378879,
        "traj_len": 3.593155956939113,
        "weighted_distance": 4.732404146280778
    },
    "planner": "RRTstar",
    "start": {
        "state": {
            "elbow_joint": -1.9196185241190666,
            "shoulder_lift_joint": -1.2443396400964142,
            "shoulder_pan_joint": 2.6996025414629847,
            "wrist_1_joint": -1.5485510000780065,
            "wrist_2_joint": -1.5709468930060704,
            "wrist_3_joint": 0.4420197071253992
        }
    },
    "waypoints": [
        {
            "positions": [
                2.6996025414629847,
                -1.2443396400964142,
                -1.9196185241190666,
                -1.5485510000780065,
                -1.5709468930060704,
                0.4420197071253992
            ]
        },
        {
            "positions": [
                2.607288205591549,
                -1.23767664825246,
                -1.8133434257566357,
                -1.5336323249571169,
                -1.517500047314205,
                0.3294529157355704
            ]
        },
        {
            "positions": [
                2.5149738697201136,
                -1.2310136564085055,
                -1.7070683273942044,
                -1.5187136498362273,
                -1.4640532016223395,
                0.21688612434574164
            ]
        },
        {
            "positions": [
                2.422659533848678,
                -1.2243506645645512,
                -1.6007932290317735,
                -1.5037949747153376,
                -1.410606355930474,
                0.10431933295591289
            ]
        },
        {
            "positions": [
                2.3303451979772425,
                -1.2176876727205967,
                -1.4945181306693422,
                -1.488876299594448,
                -1.3571595102386087,
                -0.008247458433915889
            ]
        },
        {
            "positions": [
                2.2380308621058074,
                -1.2110246808766425,
                -1.388243032306911,
                -1.4739576244735582,
                -1.3037126645467432,
                -0.12081424982374467
            ]
        },
        {
            "positions": [
                2.145716526234372,
                -1.2043616890326883,
                -1.2819679339444803,
                -1.4590389493526685,
                -1.2502658188548779,
                -0.2333810412135734
            ]
        },
        {
            "positions": [
                2.0534021903629363,
                -1.1976986971887338,
                -1.175692835582049,
                -1.444120274231779,
                -1.1968189731630123,
                -0.34594783260340223
            ]
        },
        {
            "positions": [
                1.9610878544915007,
                -1.1910357053447795,
                -1.0694177372196179,
                -1.4292015991108893,
                -1.143372127471147,
                -0.45851462399323095
            ]
        },
        {
            "positions": [
                1.8687735186200651,
                -1.184372713500825,
                -0.9631426388571869,
                -1.4142829239899997,
                -1.0899252817792815,
                -0.5710814153830598
            ]
        },
        {
            "positions": [
                1.7764591827486296,
                -1.1777097216568708,
                -0.8568675404947557,
                -1.39936424886911,
                -1.0364784360874162,
                -0.6836482067728885
            ]
        },
        {
            "positions": [
                1.6841448468771942,
                -1.1710467298129164,
                -0.7505924421323247,
                -1.3844455737482204,
                -0.9830315903955508,
                -0.7962149981627172
            ]
        },
        {
            "positions": [
                1.5918305110057587,
                -1.164383737968962,
                -0.6443173437698937,
                -1.3695268986273308,
                -0.9295847447036854,
                -0.908781789552546
            ]
        },
        {
            "positions": [
                1.4995161751343231,
                -1.1577207461250079,
                -0.5380422454074625,
                -1.3546082235064412,
                -0.8761378990118198,
                -1.0213485809423748
            ]
        },
        {
            "positions": [
                1.4072018392628876,
                -1.1510577542810534,
                -0.4317671470450313,
                -1.3396895483855515,
                -0.8226910533199544,
                -1.1339153723322037
            ]
        },
        {
            "positions": [
                1.314887503391452,
                -1.1443947624370991,
                -0.3254920486826003,
                -1.3247708732646617,
                -0.769244207628089,
                -1.2464821637220322
            ]
        },
        {
            "positions": [
                1.2225731675200164,
                -1.1377317705931447,
                -0.2192169503201693,
                -1.309852198143772,
                -0.7157973619362237,
                -1.3590489551118612
            ]
        },
        {
            "positions": [
                1.130258831648581,
                -1.1310687787491904,
                -0.11294185195773832,
                -1.2949335230228824,
                -0.6623505162443583,
                -1.4716157465016897
            ]
        },
        {
            "positions": [
                1.0379444957771453,
                -1.1244057869052362,
                -0.006666753595307107,
                -1.2800148479019928,
                -0.6089036705524927,
                -1.5841825378915186
            ]
        },
        {
            "positions": [
                0.94563015990571,
                -1.1177427950612817,
                0.0996083447671241,
                -1.2650961727811032,
                -0.5554568248606273,
                -1.6967493292813471
            ]
        },
        {
            "positions": [
                0.8533158240342744,
                -1.1110798032173275,
                0.2058834431295553,
                -1.2501774976602136,
                -0.5020099791687618,
                -1.809316120671176
            ]
        },
        {
            "positions": [
                0.7610014881628389,
                -1.104416811373373,
                0.3121585414919861,
                -1.235258822539324,
                -0.44856313347689647,
                -1.9218829120610046
            ]
        },
        {
            "positions": [
                0.6686871522914037,
                -1.0977538195294188,
                0.4184336398544173,
                -1.2203401474184343,
                -0.39511628778503116,
                -2.0344497034508335
            ]
        },
        {
            "positions": [
                0.5763728164199677,
                -1.0910908276854645,
                0.5247087382168485,
                -1.2054214722975445,
                -0.34166944209316563,
                -2.1470164948406625
            ]
        },
        {
            "positions": [
                0.4840584805485326,
                -1.08442783584151,
                0.6309838365792793,
                -1.1905027971766549,
                -0.2882225964013003,
                -2.259583286230491
            ]
        },
        {
            "positions": [
                0.39174414467709706,
                -1.0777648439975558,
                0.7372589349417105,
                -1.1755841220557652,
                -0.2347757507094348,
                -2.3721500776203195
            ]
        },
        {
            "positions": [
                0.2994298088056615,
                -1.0711018521536013,
                0.8435340333041417,
                -1.1606654469348756,
                -0.18132890501756926,
                -2.4847168690101484
            ]
        },
        {
            "positions": [
                0.20711547293422594,
                -1.064438860309647,
                0.9498091316665724,
                -1.145746771813986,
                -0.12788205932570396,
                -2.5972836603999774
            ]
        },
        {
            "positions": [
                0.11480113706279038,
                -1.0577758684656926,
                1.056084230029004,
                -1.1308280966930964,
                -0.07443521363383843,
                -2.7098504517898063
            ]
        },
        {
            "positions": [
                0.022486801191354988,
                -1.0511128766217384,
                1.1623593283914349,
                -1.1159094215722067,
                -0.020988367941973098,
                -2.822417243179635
            ]
        },
        {
            "positions": [
                0.040478331849870604,
                -1.0697864716583372,
                1.3269837459005989,
                -1.0668017254856734,
                0.00837030974698725,
                -2.882227406504854
            ]
        },
        {
            "positions": [
                0.05846986250838622,
                -1.0884600666949358,
                1.4916081634097629,
                -1.01769402939914,
                0.037728987435947596,
                -2.942037569830073
            ]
        },
        {
            "positions": [
                0.07646139316690184,
                -1.1071336617315346,
                1.6562325809189269,
                -0.9685863333126068,
                0.06708766512490794,
                -3.001847733155292
            ]
        },
        {
            "positions": [
                0.09445292382541745,
                -1.1258072567681334,
                1.820856998428091,
                -0.9194786372260735,
                0.0964463428138683,
                -3.0616578964805115
            ]
        },
        {
            "positions": [
                0.1235212725273833,
                -1.1492578130527145,
                1.9900367664358185,
                -0.8661630821608582,
                0.12497097386600034,
                -3.1112670369042235
            ]
        }
    ]
}