{
    "goal": {
        "global_pose": {
            "orientation": {
                "w": 0.5084816217422485,
                "x": -0.49083608388900757,
                "y": 0.5182115435600281,
                "z": -0.4816462993621826
            },
            "position": {
                "x": 0.5540239810943604,
                "y": 0.030875300988554955,
                "z": 0.16403168439865112
            }
        },
        "name": "move_to_storage_A"
    },
    "id": "RRTstar_move_to_storage_A_130",
    "joint_names": [
        "shoulder_pan_joint",
        "shoulder_lift_joint",
        "elbow_joint",
        "wrist_1_joint",
        "wrist_2_joint",
        "wrist_3_joint"
    ],
    "metrics": {
        "cart_traj_len": 0.35324091149484316,
        "distance_elbow_joint": 0.45145067167035013,
        "distance_shoulder_lift_joint": 0.2330158419341355,
        "distance_shoulder_pan_joint": 0.4627647808719848,
        "distance_wrist_1_joint": 0.2521126865350932,
        "distance_wrist_2_joint": 1.0948079807567872,
        "distance_wrist_3_joint": 0.09315905601539409,
        "smoothness": 4.440892133664971e-16,
        "time": 5.000707526999999,
        "traj_len": 1.6085120508668083,
        "weighted_distance": 2.0299137412970074
    },
    "planner": "RRTstar",
    "start": {
        "state": {
            "elbow_joint": 1.971548259319323,
            "shoulder_lift_joint": -1.1394851275133948,
            "shoulder_pan_joint": 0.1228115487234821,
            "wrist_1_joint": -0.7804723859257726,
            "wrist_2_joint": 0.12958671773740124,
            "wrist_3_joint": -3.192489227718131
        }
    },
    "waypoints": [
        {
            "positions": [
                0.1228115487234821,
                -1.1394851275133948,
                1.971548259319323,
                -0.7804723859257726,
                0.12958671773740124,
                -3.192489227718131
            ]
        },
        {
            "positions": [
                0.056702294313198565,
                -1.172773104932557,
                2.0360412124150873,
                -0.8164884840022145,
                0.2859878578455137,
                -3.1791807911445034
            ]
        },
        {
            "positions": [
                -0.009406960097084971,
                -1.2060610823517193,
                2.100534165510852,
                -0.8525045820786564,
                0.4423889979536262,
                -3.1658723545708756
            ]
        },
        {
            "positions": [
                -0.0755162145073685,
                -1.2393490597708814,
                2.165027118606616,
                -0.8885206801550982,
                0.5987901380617386,
                -3.1525639179972478
            ]
        },
        {
            "positions": [
                -0.14162546891765204,
                -1.2726370371900437,
                2.22952007170238,
                -0.9245367782315401,
                0.7551912781698511,
                -3.1392554814236204
            ]
        },
        {
            "positions": [
                -0.20773472332793563,
                -1.3059250146092058,
                2.2940130247981445,
                -0.960552876307982,
                0.9115924182779636,
                -3.1259470448499926
            ]
        },
        {
            "positions": [
                -0.2738439777382191,
                -1.3392129920283682,
                2.358505977893909,
                -0.9965689743844239,
                1.067993558386076,
                -3.112638608276365
            ]
        },
        {
            "positions": [
                -0.3399532321485027,
                -1.3725009694475303,
                2.422998930989673,
                -1.0325850724608658,
                1.2243946984941885,
                -3.099330171702737
            ]
        }
    ]
}{
    "goal": {
        "global_pose": {
            "orientation": {
                "w": 0.5084816217422485,
                "x": -0.49083608388900757,
                "y": 0.5182115435600281,
                "z": -0.4816462993621826
            },
            "position": {
                "x": 0.5540239810943604,
                "y": 0.030875300988554955,
                "z": 0.16403168439865112
            }
        },
        "name": "move_to_storage_A"
    },
    "id": "RRTstar_move_to_storage_A_130",
    "joint_names": [
        "shoulder_pan_joint",
        "shoulder_lift_joint",
        "elbow_joint",
        "wrist_1_joint",
        "wrist_2_joint",
        "wrist_3_joint"
    ],
    "metrics": {
        "cart_traj_len": 0.35219448272118015,
        "distance_elbow_joint": 0.44879587080808614,
        "distance_shoulder_lift_joint": 0.2351580892670737,
        "distance_shoulder_pan_joint": 0.45942264426382573,
        "distance_wrist_1_joint": 0.23687827870454492,
        "distance_wrist_2_joint": 1.102248163482871,
        "distance_wrist_3_joint": 0.0989458490258972,
        "smoothness": 1.7763568394002505e-15,
        "time": 5.022785419000001,
        "traj_len": 1.6066887986017386,
        "weighted_distance": 2.0294006592566953
    },
    "planner": "RRTstar",
    "start": {
        "state": {
            "elbow_joint": 1.97154746011099,
            "shoulder_lift_joint": -1.13948474672311,
            "shoulder_pan_joint": 0.12281154466712228,
            "wrist_1_joint": -0.7804688027058302,
            "wrist_2_joint": 0.12958655903071145,
            "wrist_3_joint": 3.0906928834467795
        }
    },
    "waypoints": [
        {
            "positions": [
                0.12281154466712228,
                -1.13948474672311,
                1.97154746011099,
                -0.7804688027058302,
                0.12958655903071145,
                3.0906928834467795
            ]
        },
        {
            "positions": [
                0.05717973834371862,
                -1.173078759475549,
                2.0356611559407165,
                -0.8143085568064795,
                0.28705058238540726,
                3.1048280047361936
            ]
        },
        {
            "positions": [
                -0.008452067979685049,
                -1.2066727722279882,
                2.099774851770443,
                -0.8481483109071287,
                0.44451460574010315,
                3.118963126025607
            ]
        },
        {
            "positions": [
                -0.07408387430308873,
                -1.2402667849804272,
                2.1638885476001697,
                -0.881988065007778,
                0.6019786290947989,
                3.1330982473150213
            ]
        },
        {
            "positions": [
                -0.13971568062649237,
                -1.2738607977328664,
                2.2280022434298963,
                -0.9158278191084273,
                0.7594426524494948,
                3.147233368604435
            ]
        },
        {
            "positions": [
                -0.20534748694989607,
                -1.3074548104853054,
                2.292115939259623,
                -0.9496675732090766,
                0.9169066758041907,
                3.161368489893849
            ]
        },
        {
            "positions": [
                -0.2709792932732997,
                -1.3410488232377444,
                2.3562296350893495,
                -0.9835073273097258,
                1.0743706991588864,
                3.1755036111832626
            ]
        },
        {
            "positions": [
                -0.33661109959670343,
                -1.3746428359901837,
                2.420343330919076,
                -1.017347081410375,
                1.2318347225135824,
                3.1896387324726767
            ]
        }
    ]
}{
    "goal": {
        "global_pose": {
            "orientation": {
                "w": 0.5084816217422485,
                "x": -0.49083608388900757,
                "y": 0.5182115435600281,
                "z": -0.4816462993621826
            },
            "position": {
                "x": 0.5540239810943604,
                "y": 0.030875300988554955,
                "z": 0.16403168439865112
            }
        },
        "name": "move_to_storage_A"
    },
    "id": "RRTstar_move_to_storage_A_130",
    "joint_names": [
        "shoulder_pan_joint",
        "shoulder_lift_joint",
        "elbow_joint",
        "wrist_1_joint",
        "wrist_2_joint",
        "wrist_3_joint"
    ],
    "metrics": {
        "cart_traj_len": 0.3523481980673461,
        "distance_elbow_joint": 0.44870695412576556,
        "distance_shoulder_lift_joint": 0.23457149805970845,
        "distance_shoulder_pan_joint": 0.46095366395499965,
        "distance_wrist_1_joint": 0.23539610728686644,
        "distance_wrist_2_joint": 1.0966890173158395,
        "distance_wrist_3_joint": 0.08816406558433876,
        "smoothness": 6.661338165333112e-16,
        "time": 5.005067854,
        "traj_len": 1.6013997959059187,
        "weighted_distance": 2.018141363259497
    },
    "planner": "RRTstar",
    "start": {
        "state": {
            "elbow_joint": 1.9715472970024885,
            "shoulder_lift_joint": -1.1394870060712896,
            "shoulder_pan_joint": 0.12281152778156021,
            "wrist_1_joint": -0.780463741449964,
            "wrist_2_joint": 0.12958659822042276,
            "wrist_3_joint": 3.090690232415272
        }
    },
    "waypoints": [
        {
            "positions": [
                0.12281152778156021,
                -1.1394870060712896,
                1.9715472970024885,
                -0.780463741449964,
                0.12958659822042276,
                3.090690232415272
            ]
        },
        {
            "positions": [
                0.05696100435941741,
                -1.1729972200798193,
                2.0356482904490263,
                -0.8140917567766592,
                0.28625645783697123,
                3.10328509892732
            ]
        },
        {
            "positions": [
                -0.008889519062725393,
                -1.2065074340883493,
                2.0997492838955645,
                -0.8477197721033544,
                0.44292631745351974,
                3.1158799654393685
            ]
        },
        {
            "positions": [
                -0.07474004248486818,
                -1.240017648096879,
                2.1638502773421022,
                -0.8813477874300496,
                0.5995961770700682,
                3.128474831951417
            ]
        },
        {
            "positions": [
                -0.140590565907011,
                -1.2735278621054087,
                2.2279512707886404,
                -0.9149758027567448,
                0.7562660366866166,
                3.1410696984634656
            ]
        },
        {
            "positions": [
                -0.2064410893291538,
                -1.3070380761139386,
                2.292052264235178,
                -0.94860381808344,
                0.9129358963031652,
                3.153664564975514
            ]
        },
        {
            "positions": [
                -0.27229161275129654,
                -1.3405482901224683,
                2.356153257681716,
                -0.9822318334101352,
                1.0696057559197136,
                3.1662594314875623
            ]
        },
        {
            "positions": [
                -0.3381421361734394,
                -1.374058504130998,
                2.420254251128254,
                -1.0158598487368304,
                1.2262756155362622,
                3.1788542979996106
            ]
        }
    ]
}