{
    "goal": {
        "global_pose": {
            "orientation": {
                "w": 0.5084816217422485,
                "x": -0.49083608388900757,
                "y": 0.5182115435600281,
                "z": -0.4816462993621826
            },
            "position": {
                "x": 0.5540239810943604,
                "y": 0.030875300988554955,
                "z": 0.16403168439865112
            }
        },
        "name": "move_to_storage_A"
    },
    "id": "RRTstar_move_to_storage_A_132",
    "joint_names": [
        "shoulder_pan_joint",
        "shoulder_lift_joint",
        "elbow_joint",
        "wrist_1_joint",
        "wrist_2_joint",
        "wrist_3_joint"
    ],
    "metrics": {
        "cart_traj_len": 0.35279643267516997,
        "distance_elbow_joint": 0.44857296127108115,
        "distance_shoulder_lift_joint": 0.23400817733779444,
        "distance_shoulder_pan_joint": 0.46208264494955725,
        "distance_wrist_1_joint": 0.23802238387833186,
        "distance_wrist_2_joint": 1.0946555504086297,
        "distance_wrist_3_joint": 0.08830325711556553,
        "smoothness": 1.332267631163888e-15,
        "time": 5.000622355,
        "traj_len": 1.6017630832807204,
        "weighted_distance": 2.018645442736057
    },
    "planner": "RRTstar",
    "start": {
        "state": {
            "elbow_joint": 1.971548259319323,
            "shoulder_lift_joint": -1.1394851275133948,
            "shoulder_pan_joint": 0.1228115487234821,
            "wrist_1_joint": -0.7804723859257726,
            "wrist_2_joint": 0.12958671773740124,
            "wrist_3_joint": -3.192489227718131
        }
    },
    "waypoints": [
        {
            "positions": [
                0.1228115487234821,
                -1.1394851275133948,
                1.971548259319323,
                -0.7804723859257726,
                0.12958671773740124,
                -3.192489227718131
            ]
        },
        {
            "positions": [
                0.056799742302116776,
                -1.1729148671330798,
                2.0356301109294774,
                -0.8144755836226771,
                0.2859660820814912,
                -3.1798744767016216
            ]
        },
        {
            "positions": [
                -0.009212064119248548,
                -1.2063446067527646,
                2.099711962539632,
                -0.8484787813195818,
                0.44234544642558116,
                -3.1672597256851125
            ]
        },
        {
            "positions": [
                -0.07522387054061386,
                -1.2397743463724495,
                2.1637938141497863,
                -0.8824819790164863,
                0.5987248107696711,
                -3.154644974668603
            ]
        },
        {
            "positions": [
                -0.1412356769619792,
                -1.2732040859921345,
                2.2278756657599406,
                -0.9164851767133908,
                0.755104175113761,
                -3.142030223652094
            ]
        },
        {
            "positions": [
                -0.20724748338334453,
                -1.3066338256118195,
                2.2919575173700952,
                -0.9504883744102954,
                0.9114835394578511,
                -3.1294154726355843
            ]
        },
        {
            "positions": [
                -0.2732592898047098,
                -1.3400635652315043,
                2.35603936898025,
                -0.9844915721071998,
                1.067862903801941,
                -3.116800721619075
            ]
        },
        {
            "positions": [
                -0.33927109622607515,
                -1.3734933048511893,
                2.420121220590404,
                -1.0184947698041045,
                1.224242268146031,
                -3.1041859706025656
            ]
        }
    ]
}{
    "goal": {
        "global_pose": {
            "orientation": {
                "w": 0.5084816217422485,
                "x": -0.49083608388900757,
                "y": 0.5182115435600281,
                "z": -0.4816462993621826
            },
            "position": {
                "x": 0.5540239810943604,
                "y": 0.030875300988554955,
                "z": 0.16403168439865112
            }
        },
        "name": "move_to_storage_A"
    },
    "id": "RRTstar_move_to_storage_A_132",
    "joint_names": [
        "shoulder_pan_joint",
        "shoulder_lift_joint",
        "elbow_joint",
        "wrist_1_joint",
        "wrist_2_joint",
        "wrist_3_joint"
    ],
    "metrics": {
        "cart_traj_len": 0.3522442525167067,
        "distance_elbow_joint": 0.44876283767974945,
        "distance_shoulder_lift_joint": 0.23475989495161653,
        "distance_shoulder_pan_joint": 0.4589240603224967,
        "distance_wrist_1_joint": 0.23934294960189773,
        "distance_wrist_2_joint": 1.1043809683404082,
        "distance_wrist_3_joint": 0.10068613181498165,
        "smoothness": 0.0,
        "time": 5.018443016,
        "traj_len": 1.6083708660353029,
        "weighted_distance": 2.032720596708613
    },
    "planner": "RRTstar",
    "start": {
        "state": {
            "elbow_joint": 1.97154746011099,
            "shoulder_lift_joint": -1.13948474672311,
            "shoulder_pan_joint": 0.12281154466712228,
            "wrist_1_joint": -0.7804688027058302,
            "wrist_2_joint": 0.12958655903071145,
            "wrist_3_joint": 3.0906928834467795
        }
    },
    "waypoints": [
        {
            "positions": [
                0.12281154466712228,
                -1.13948474672311,
                1.97154746011099,
                -0.7804688027058302,
                0.12958655903071145,
                3.0906928834467795
            ]
        },
        {
            "positions": [
                0.05725096462105132,
                -1.173021874573341,
                2.0356564369223826,
                -0.8146606526489585,
                0.28735526879362694,
                3.1050766165632053
            ]
        },
        {
            "positions": [
                -0.008309615425019637,
                -1.2065590024235717,
                2.0997654137337753,
                -0.8488525025920867,
                0.4451239785565424,
                3.1194603496796316
            ]
        },
        {
            "positions": [
                -0.0738701954710906,
                -1.2400961302738027,
                2.163874390545168,
                -0.883044352535215,
                0.6028926883194579,
                3.1338440827960574
            ]
        },
        {
            "positions": [
                -0.13943077551716154,
                -1.2736332581240337,
                2.227983367356561,
                -0.9172362024783431,
                0.7606613980823733,
                3.1482278159124832
            ]
        },
        {
            "positions": [
                -0.2049913555632325,
                -1.3071703859742647,
                2.292092344167954,
                -0.9514280524214714,
                0.9184301078452888,
                3.162611549028909
            ]
        },
        {
            "positions": [
                -0.27055193560930346,
                -1.3407075138244955,
                2.3562013209793466,
                -0.9856199023645996,
                1.0761988176082042,
                3.1769952821453353
            ]
        },
        {
            "positions": [
                -0.3361125156553744,
                -1.3742446416747265,
                2.4203102977907394,
                -1.019811752307728,
                1.2339675273711197,
                3.191379015261761
            ]
        }
    ]
}{
    "goal": {
        "global_pose": {
            "orientation": {
                "w": 0.5084816217422485,
                "x": -0.49083608388900757,
                "y": 0.5182115435600281,
                "z": -0.4816462993621826
            },
            "position": {
                "x": 0.5540239810943604,
                "y": 0.030875300988554955,
                "z": 0.16403168439865112
            }
        },
        "name": "move_to_storage_A"
    },
    "id": "RRTstar_move_to_storage_A_132",
    "joint_names": [
        "shoulder_pan_joint",
        "shoulder_lift_joint",
        "elbow_joint",
        "wrist_1_joint",
        "wrist_2_joint",
        "wrist_3_joint"
    ],
    "metrics": {
        "cart_traj_len": 0.3539253662695373,
        "distance_elbow_joint": 0.4481314772131557,
        "distance_shoulder_lift_joint": 0.23463653675946494,
        "distance_shoulder_pan_joint": 0.46255542334913863,
        "distance_wrist_1_joint": 0.23582102051382292,
        "distance_wrist_2_joint": 1.1013164705588592,
        "distance_wrist_3_joint": 0.09690108342719306,
        "smoothness": 8.881784197001252e-16,
        "time": 5.000206861000001,
        "traj_len": 1.606039231096686,
        "weighted_distance": 2.0273878932628318
    },
    "planner": "RRTstar",
    "start": {
        "state": {
            "elbow_joint": 1.9715472970024885,
            "shoulder_lift_joint": -1.1394870060712896,
            "shoulder_pan_joint": 0.12281152778156021,
            "wrist_1_joint": -0.780463741449964,
            "wrist_2_joint": 0.12958659822042276,
            "wrist_3_joint": 3.090690232415272
        }
    },
    "waypoints": [
        {
            "positions": [
                0.12281152778156021,
                -1.1394870060712896,
                1.9715472970024885,
                -0.780463741449964,
                0.12958659822042276,
                3.090690232415272
            ]
        },
        {
            "positions": [
                0.05673218158882613,
                -1.1730065113226418,
                2.035566079461511,
                -0.8141524586662244,
                0.286917522585974,
                3.1045332443334424
            ]
        },
        {
            "positions": [
                -0.009347164603907943,
                -1.206526016573994,
                2.099584861920533,
                -0.8478411758824849,
                0.4442484469515253,
                3.118376256251613
            ]
        },
        {
            "positions": [
                -0.07542651079664203,
                -1.240045521825346,
                2.163603644379555,
                -0.8815298930987452,
                0.6015793713170766,
                3.1322192681697834
            ]
        },
        {
            "positions": [
                -0.1415058569893761,
                -1.273565027076698,
                2.2276224268385776,
                -0.9152186103150056,
                0.7589102956826279,
                3.1460622800879534
            ]
        },
        {
            "positions": [
                -0.20758520318211018,
                -1.3070845323280502,
                2.2916412092976,
                -0.948907327531266,
                0.9162412200481793,
                3.159905292006124
            ]
        },
        {
            "positions": [
                -0.2736645493748443,
                -1.3406040375794024,
                2.355659991756622,
                -0.9825960447475265,
                1.0735721444137305,
                3.1737483039242944
            ]
        },
        {
            "positions": [
                -0.3397438955675784,
                -1.3741235428307546,
                2.4196787742156443,
                -1.016284761963787,
                1.230903068779282,
                3.187591315842465
            ]
        }
    ]
}