{
    "goal": {
        "global_pose": {
            "orientation": {
                "w": -0.00223480608172531,
                "x": 0.0024358444001904467,
                "y": 0.7094548369677653,
                "z": -0.704743149386269
            },
            "position": {
                "x": 0.6205249238014221,
                "y": -0.6371506643295288,
                "z": 0.19426114857196808
            }
        },
        "name": "move_to_magneteinheit_B"
    },
    "id": "RRTstar_move_to_magneteinheit_B_70",
    "joint_names": [
        "shoulder_pan_joint",
        "shoulder_lift_joint",
        "elbow_joint",
        "wrist_1_joint",
        "wrist_2_joint",
        "wrist_3_joint"
    ],
    "metrics": {
        "cart_traj_len": 3.0625033836390463,
        "distance_elbow_joint": 4.785599919448018,
        "distance_shoulder_lift_joint": 1.0592120724289353,
        "distance_shoulder_pan_joint": 2.1853349678906335,
        "distance_wrist_1_joint": 1.1929688792957944,
        "distance_wrist_2_joint": 1.8018625982672312,
        "distance_wrist_3_joint": 0.7396969134767922,
        "smoothness": 0.5327435159705509,
        "time": 5.022247729,
        "traj_len": 3.429967252147957,
        "weighted_distance": 4.029751934713105
    },
    "planner": "RRTstar",
    "start": {
        "state": {
            "elbow_joint": 2.6216224122426386,
            "shoulder_lift_joint": -1.4174107377796124,
            "shoulder_pan_joint": 0.7066234856936794,
            "wrist_1_joint": 1.9546482284002225,
            "wrist_2_joint": -0.7096286983471962,
            "wrist_3_joint": 0.005740856962016249
        }
    },
    "waypoints": [
        {
            "positions": [
                0.7066234856936794,
                -1.4174107377796124,
                2.6216224122426386,
                1.9546482284002225,
                -0.7096286983471962,
                0.005740856962016249
            ]
        },
        {
            "positions": [
                0.7187162411534702,
                -1.5091590249291547,
                2.5527414249023144,
                1.8679415564094612,
                -0.7711278852499835,
                -0.05542564484564093
            ]
        },
        {
            "positions": [
                0.7308089966132609,
                -1.600907312078697,
                2.4838604375619897,
                1.7812348844187,
                -0.8326270721527709,
                -0.1165921466532981
            ]
        },
        {
            "positions": [
                0.7429017520730518,
                -1.692655599228239,
                2.4149794502216655,
                1.6945282124279388,
                -0.8941262590555583,
                -0.17775864846095524
            ]
        },
        {
            "positions": [
                0.7549945075328425,
                -1.7844038863777814,
                2.346098462881341,
                1.6078215404371774,
                -0.9556254459583456,
                -0.23892515026861244
            ]
        },
        {
            "positions": [
                0.7670872629926333,
                -1.8761521735273237,
                2.2772174755410166,
                1.5211148684464162,
                -1.017124632861133,
                -0.3000916520762696
            ]
        },
        {
            "positions": [
                0.8584319456790005,
                -1.884567786677139,
                2.0865579989770784,
                1.5261459886532813,
                -0.9500071186955844,
                -0.2828249473001791
            ]
        },
        {
            "positions": [
                0.9497766283653677,
                -1.8929833998269545,
                1.8958985224131397,
                1.5311771088601462,
                -0.8828896045300358,
                -0.2655582425240886
            ]
        },
        {
            "positions": [
                1.0411213110517348,
                -1.90139901297677,
                1.7052390458492015,
                1.5362082290670114,
                -0.8157720903644872,
                -0.2482915377479981
            ]
        },
        {
            "positions": [
                1.132465993738102,
                -1.9098146261265854,
                1.5145795692852628,
                1.5412393492738765,
                -0.7486545761989386,
                -0.23102483297190757
            ]
        },
        {
            "positions": [
                1.2238106764244692,
                -1.9182302392764008,
                1.3239200927213246,
                1.5462704694807414,
                -0.68153706203339,
                -0.21375812819581708
            ]
        },
        {
            "positions": [
                1.3151553591108365,
                -1.9266458524262162,
                1.1332606161573862,
                1.5513015896876066,
                -0.6144195478678414,
                -0.19649142341972659
            ]
        },
        {
            "positions": [
                1.4065000417972036,
                -1.9350614655760316,
                0.9426011395934477,
                1.5563327098944715,
                -0.5473020337022928,
                -0.1792247186436361
            ]
        },
        {
            "positions": [
                1.4978447244835706,
                -1.943477078725847,
                0.7519416630295093,
                1.5613638301013366,
                -0.48018451953674424,
                -0.16195801386754557
            ]
        },
        {
            "positions": [
                1.589189407169938,
                -1.9518926918756625,
                0.5612821864655706,
                1.5663949503082018,
                -0.41306700537119556,
                -0.14469130909145506
            ]
        },
        {
            "positions": [
                1.6805340898563053,
                -1.960308305025478,
                0.3706227099016324,
                1.5714260705150667,
                -0.345949491205647,
                -0.1274246043153646
            ]
        },
        {
            "positions": [
                1.7718787725426723,
                -1.9687239181752934,
                0.17996323333769393,
                1.5764571907219318,
                -0.27883197704009843,
                -0.11015789953927407
            ]
        },
        {
            "positions": [
                1.8632234552290394,
                -1.977139531325109,
                -0.010696243226244295,
                1.581488310928797,
                -0.21171446287454987,
                -0.09289119476318358
            ]
        },
        {
            "positions": [
                1.9545681379154067,
                -1.9855551444749244,
                -0.20135571979018296,
                1.5865194311356619,
                -0.1445969487090012,
                -0.07562448998709306
            ]
        },
        {
            "positions": [
                2.0459128206017736,
                -1.9939707576247399,
                -0.3920151963541212,
                1.591550551342527,
                -0.07747943454345263,
                -0.05835778521100257
            ]
        },
        {
            "positions": [
                2.137257503288141,
                -2.002386370774555,
                -0.5826746729180594,
                1.5965816715493921,
                -0.010361920377904177,
                -0.04109108043491211
            ]
        },
        {
            "positions": [
                2.228602185974508,
                -2.0108019839243707,
                -0.7733341494819981,
                1.601612791756257,
                0.0567555937876445,
                -0.02382437565882156
            ]
        },
        {
            "positions": [
                2.3199468686608755,
                -2.019217597074186,
                -0.9639936260459367,
                1.6066439119631222,
                0.12387310795319317,
                -0.00655767088273107
            ]
        },
        {
            "positions": [
                2.411291551347243,
                -2.0276332102240016,
                -1.1546531026098754,
                1.611675032169987,
                0.19099062211874185,
                0.010709033893359476
            ]
        },
        {
            "positions": [
                2.50263623403361,
                -2.0360488233738168,
                -1.3453125791738136,
                1.6167061523768522,
                0.2581081362842903,
                0.027975738669449968
            ]
        },
        {
            "positions": [
                2.593980916719977,
                -2.0444644365236324,
                -1.5359720557377519,
                1.6217372725837174,
                0.325225650449839,
                0.0452424434455404
            ]
        },
        {
            "positions": [
                2.6853255994063443,
                -2.0528800496734476,
                -1.72663153230169,
                1.6267683927905823,
                0.39234316461538765,
                0.06250914822163095
            ]
        },
        {
            "positions": [
                2.776670282092711,
                -2.0612956628232633,
                -1.917291008865629,
                1.6317995129974474,
                0.4594606787809361,
                0.07977585299772141
            ]
        },
        {
            "positions": [
                2.7478482392198105,
                -2.1651274496695843,
                -1.8556193842806914,
                1.4696117942997082,
                0.46390601680874244,
                0.06627662815659253
            ]
        },
        {
            "positions": [
                2.7190261963469102,
                -2.2689592365159053,
                -1.7939477596957536,
                1.3074240756019688,
                0.4683513548365487,
                0.05277740331546366
            ]
        },
        {
            "positions": [
                2.69020415347401,
                -2.3727910233622267,
                -1.732276135110816,
                1.1452363569042296,
                0.472796692864355,
                0.03927817847433479
            ]
        },
        {
            "positions": [
                2.6613821106011093,
                -2.4766228102085477,
                -1.6706045105258784,
                0.9830486382064905,
                0.47724203089216133,
                0.02577895363320591
            ]
        }
    ]
}