{
    "goal": {
        "global_pose": {
            "orientation": {
                "w": 0.5084816262002911,
                "x": -0.4908360881923452,
                "y": 0.5182115481033761,
                "z": -0.48164630358495003
            },
            "position": {
                "x": 0.5540239810943604,
                "y": -0.46912469901144505,
                "z": 0.16403168439865112
            }
        },
        "name": "move_to_storage_B"
    },
    "id": "RRTstar_move_to_storage_B_120",
    "joint_names": [
        "shoulder_pan_joint",
        "shoulder_lift_joint",
        "elbow_joint",
        "wrist_1_joint",
        "wrist_2_joint",
        "wrist_3_joint"
    ],
    "metrics": {
        "cart_traj_len": 0.6625181246226167,
        "distance_elbow_joint": 0.34849991059584706,
        "distance_shoulder_lift_joint": 0.4571185096283028,
        "distance_shoulder_pan_joint": 0.25872204389032294,
        "distance_wrist_1_joint": 3.0094304329439794,
        "distance_wrist_2_joint": 2.7333168776046275,
        "distance_wrist_3_joint": 3.135389736938717,
        "smoothness": 0.09520341613899573,
        "time": 5.062492947,
        "traj_len": 3.153169439088517,
        "weighted_distance": 4.685723454924313
    },
    "planner": "RRTstar",
    "start": {
        "state": {
            "elbow_joint": 1.664937868594044,
            "shoulder_lift_joint": -0.661644460510453,
            "shoulder_pan_joint": -0.9139846352900073,
            "wrist_1_joint": 2.146753192139373,
            "wrist_2_joint": -2.2341966793290973,
            "wrist_3_joint": 0.005466555786416001
        }
    },
    "waypoints": [
        {
            "positions": [
                -0.9139846352900073,
                -0.661644460510453,
                1.664937868594044,
                2.146753192139373,
                -2.2341966793290973,
                0.005466555786416001
            ]
        },
        {
            "positions": [
                -0.8946226885294695,
                -0.7165273048005335,
                1.7093077620406931,
                2.1523053254992233,
                -2.2414947530693214,
                -0.06565152778528323
            ]
        },
        {
            "positions": [
                -0.8752607417689318,
                -0.771410149090614,
                1.7536776554873421,
                2.157857458859073,
                -2.2487928268095456,
                -0.13676961135698246
            ]
        },
        {
            "positions": [
                -0.8840606677837016,
                -0.7853042619325397,
                1.7640680604354442,
                2.037924412210102,
                -2.1400439976045784,
                -0.2564957541487952
            ]
        },
        {
            "positions": [
                -0.8928605937984716,
                -0.7991983747744653,
                1.774458465383546,
                1.9179913655611305,
                -2.031295168399611,
                -0.3762218969406079
            ]
        },
        {
            "positions": [
                -0.9016605198132415,
                -0.813092487616391,
                1.784848870331648,
                1.7980583189121593,
                -1.922546339194644,
                -0.49594803973242063
            ]
        },
        {
            "positions": [
                -0.9104604458280113,
                -0.8269866004583167,
                1.79523927527975,
                1.678125272263188,
                -1.8137975099896768,
                -0.6156741825242333
            ]
        },
        {
            "positions": [
                -0.9192603718427812,
                -0.8408807133002424,
                1.805629680227852,
                1.5581922256142169,
                -1.7050486807847096,
                -0.7354003253160462
            ]
        },
        {
            "positions": [
                -0.9280602978575512,
                -0.854774826142168,
                1.8160200851759538,
                1.4382591789652457,
                -1.5962998515797426,
                -0.8551264681078588
            ]
        },
        {
            "positions": [
                -0.936860223872321,
                -0.8686689389840937,
                1.8264104901240559,
                1.3183261323162745,
                -1.4875510223747754,
                -0.9748526108996718
            ]
        },
        {
            "positions": [
                -0.9456601498870909,
                -0.8825630518260194,
                1.8368008950721577,
                1.1983930856673033,
                -1.3788021931698082,
                -1.0945787536914844
            ]
        },
        {
            "positions": [
                -0.9544600759018609,
                -0.8964571646679451,
                1.8471913000202598,
                1.0784600390183323,
                -1.2700533639648413,
                -1.2143048964832972
            ]
        },
        {
            "positions": [
                -0.9632600019166307,
                -0.9103512775098708,
                1.8575817049683616,
                0.9585269923693609,
                -1.1613045347598738,
                -1.33403103927511
            ]
        },
        {
            "positions": [
                -0.9720599279314006,
                -0.9242453903517964,
                1.8679721099164637,
                0.8385939457203897,
                -1.0525557055549069,
                -1.4537571820669226
            ]
        },
        {
            "positions": [
                -0.9808598539461705,
                -0.9381395031937221,
                1.8783625148645655,
                0.7186608990714187,
                -0.9438068763499396,
                -1.5734833248587352
            ]
        },
        {
            "positions": [
                -0.9896597799609405,
                -0.9520336160356477,
                1.8887529198126676,
                0.5987278524224473,
                -0.8350580471449724,
                -1.6932094676505483
            ]
        },
        {
            "positions": [
                -0.9984597059757103,
                -0.9659277288775734,
                1.8991433247607694,
                0.4787948057734761,
                -0.7263092179400052,
                -1.812935610442361
            ]
        },
        {
            "positions": [
                -1.0072596319904803,
                -0.979821841719499,
                1.9095337297088715,
                0.35886175912450513,
                -0.6175603887350383,
                -1.9326617532341734
            ]
        },
        {
            "positions": [
                -1.01605955800525,
                -0.9937159545614247,
                1.9199241346569733,
                0.2389287124755337,
                -0.5088115595300708,
                -2.0523878960259863
            ]
        },
        {
            "positions": [
                -1.02485948402002,
                -1.0076100674033504,
                1.9303145396050754,
                0.11899566582656274,
                -0.40006273032510364,
                -2.1721140388177993
            ]
        },
        {
            "positions": [
                -1.0336594100347898,
                -1.0215041802452762,
                1.9407049445531772,
                -0.0009373808224082403,
                -0.29131390112013666,
                -2.291840181609612
            ]
        },
        {
            "positions": [
                -1.0424593360495598,
                -1.0353982930872019,
                1.9510953495012793,
                -0.12087042747137966,
                -0.18256507191516924,
                -2.4115663244014245
            ]
        },
        {
            "positions": [
                -1.0512592620643297,
                -1.0492924059291275,
                1.9614857544493813,
                -0.24080347412035108,
                -0.07381624271020204,
                -2.5312924671932375
            ]
        },
        {
            "positions": [
                -1.0600591880790995,
                -1.0631865187710532,
                1.9718761593974832,
                -0.36073652076932206,
                0.03493258649476472,
                -2.65101860998505
            ]
        },
        {
            "positions": [
                -1.0688591140938695,
                -1.0770806316129788,
                1.982266564345585,
                -0.4806695674182935,
                0.14368141569973192,
                -2.7707447527768627
            ]
        },
        {
            "positions": [
                -1.0776590401086394,
                -1.0909747444549045,
                1.992656969293687,
                -0.6006026140672645,
                0.2524302449046991,
                -2.8904708955686758
            ]
        },
        {
            "positions": [
                -1.0864589661234092,
                -1.1048688572968302,
                2.003047374241789,
                -0.7205356607162354,
                0.3611790741096663,
                -3.010197038360488
            ]
        },
        {
            "positions": [
                -1.0952588921381792,
                -1.1187629701387558,
                2.013437779189891,
                -0.840468707365207,
                0.4699279033146337,
                -3.129923181152301
            ]
        }
    ]
}