{
    "goal": {
        "global_pose": {
            "orientation": {
                "w": 0.5084816262002911,
                "x": -0.4908360881923452,
                "y": 0.5182115481033761,
                "z": -0.48164630358495003
            },
            "position": {
                "x": 0.5540239810943604,
                "y": -0.46912469901144505,
                "z": 0.16403168439865112
            }
        },
        "name": "move_to_storage_B"
    },
    "id": "RRTstar_move_to_storage_B_40",
    "joint_names": [
        "shoulder_pan_joint",
        "shoulder_lift_joint",
        "elbow_joint",
        "wrist_1_joint",
        "wrist_2_joint",
        "wrist_3_joint"
    ],
    "metrics": {
        "cart_traj_len": 1.0900464399151133,
        "distance_elbow_joint": 0.680968605272462,
        "distance_shoulder_lift_joint": 0.45990782826883536,
        "distance_shoulder_pan_joint": 0.6131855635609967,
        "distance_wrist_1_joint": 2.9947318918079424,
        "distance_wrist_2_joint": 2.7023002477143567,
        "distance_wrist_3_joint": 3.130383159796015,
        "smoothness": 0.08959593557066096,
        "time": 5.069101394,
        "traj_len": 3.252918273861274,
        "weighted_distance": 4.747554713274502
    },
    "planner": "RRTstar",
    "start": {
        "state": {
            "elbow_joint": 1.664937868594044,
            "shoulder_lift_joint": -0.661644460510453,
            "shoulder_pan_joint": -0.9139846352900073,
            "wrist_1_joint": 2.146753192139373,
            "wrist_2_joint": -2.2341966793290973,
            "wrist_3_joint": 0.005466555786416001
        }
    },
    "waypoints": [
        {
            "positions": [
                -0.9139846352900073,
                -0.661644460510453,
                1.664937868594044,
                2.146753192139373,
                -2.2341966793290973,
                0.005466555786416001
            ]
        },
        {
            "positions": [
                -0.9020316514442148,
                -0.6835905822740168,
                1.693632765424068,
                2.014679322970207,
                -2.135262296826638,
                -0.09530696800413571
            ]
        },
        {
            "positions": [
                -0.8900786675984224,
                -0.7055367040375806,
                1.7223276622540922,
                1.8826054538010415,
                -2.0363279143241786,
                -0.19608049179468742
            ]
        },
        {
            "positions": [
                -0.8781256837526299,
                -0.7274828258011445,
                1.7510225590841162,
                1.7505315846318756,
                -1.937393531821719,
                -0.2968540155852391
            ]
        },
        {
            "positions": [
                -0.8661726999068374,
                -0.7494289475647083,
                1.7797174559141402,
                1.6184577154627098,
                -1.8384591493192595,
                -0.3976275393757908
            ]
        },
        {
            "positions": [
                -0.8542197160610451,
                -0.7713750693282722,
                1.8084123527441645,
                1.4863838462935437,
                -1.7395247668168001,
                -0.49840106316634253
            ]
        },
        {
            "positions": [
                -0.8422667322152526,
                -0.793321191091836,
                1.8371072495741885,
                1.354309977124378,
                -1.6405903843143408,
                -0.5991745869568943
            ]
        },
        {
            "positions": [
                -0.8303137483694601,
                -0.8152673128553998,
                1.8658021464042125,
                1.222236107955212,
                -1.5416560018118812,
                -0.699948110747446
            ]
        },
        {
            "positions": [
                -0.8183607645236677,
                -0.8372134346189637,
                1.8944970432342367,
                1.0901622387860461,
                -1.4427216193094217,
                -0.8007216345379977
            ]
        },
        {
            "positions": [
                -0.8064077806778752,
                -0.8591595563825275,
                1.9231919400642608,
                0.9580883696168803,
                -1.3437872368069623,
                -0.9014951583285494
            ]
        },
        {
            "positions": [
                -0.7944547968320828,
                -0.8811056781460913,
                1.951886836894285,
                0.8260145004477144,
                -1.244852854304503,
                -1.0022686821191011
            ]
        },
        {
            "positions": [
                -0.7825018129862903,
                -0.9030517999096552,
                1.980581733724309,
                0.6939406312785483,
                -1.1459184718020434,
                -1.103042205909653
            ]
        },
        {
            "positions": [
                -0.7705488291404978,
                -0.9249979216732189,
                2.009276630554333,
                0.5618667621093827,
                -1.046984089299584,
                -1.2038157297002046
            ]
        },
        {
            "positions": [
                -0.7585958452947055,
                -0.9469440434367828,
                2.0379715273843573,
                0.42979289294021683,
                -0.9480497067971245,
                -1.3045892534907562
            ]
        },
        {
            "positions": [
                -0.7466428614489129,
                -0.9688901652003467,
                2.066666424214381,
                0.29771902377105075,
                -0.8491153242946652,
                -1.405362777281308
            ]
        },
        {
            "positions": [
                -0.7346898776031205,
                -0.9908362869639105,
                2.0953613210444053,
                0.1656451546018849,
                -0.7501809417922056,
                -1.5061363010718598
            ]
        },
        {
            "positions": [
                -0.7227368937573281,
                -1.0127824087274744,
                2.1240562178744296,
                0.033571285432719034,
                -0.6512465592897463,
                -1.6069098248624114
            ]
        },
        {
            "positions": [
                -0.7107839099115356,
                -1.034728530491038,
                2.1527511147044534,
                -0.0985025837364466,
                -0.552312176787287,
                -1.707683348652963
            ]
        },
        {
            "positions": [
                -0.6988309260657432,
                -1.056674652254602,
                2.1814460115344776,
                -0.23057645290561285,
                -0.45337779428482744,
                -1.8084568724435148
            ]
        },
        {
            "positions": [
                -0.7430566876587135,
                -1.0638832785351227,
                2.163172626830919,
                -0.2991767025459414,
                -0.35099097621037323,
                -1.9547301759508575
            ]
        },
        {
            "positions": [
                -0.7872824492516837,
                -1.0710919048156433,
                2.14489924212736,
                -0.36777695218627,
                -0.24860415813591902,
                -2.1010034794582
            ]
        },
        {
            "positions": [
                -0.831508210844654,
                -1.0783005310961642,
                2.1266258574238015,
                -0.43637720182659856,
                -0.1462173400614648,
                -2.247276782965543
            ]
        },
        {
            "positions": [
                -0.8757339724376243,
                -1.0855091573766849,
                2.108352472720243,
                -0.5049774514669272,
                -0.043830521987010596,
                -2.3935500864728856
            ]
        },
        {
            "positions": [
                -0.9199597340305946,
                -1.0927177836572055,
                2.090079088016684,
                -0.5735777011072558,
                0.05855629608744367,
                -2.5398233899802283
            ]
        },
        {
            "positions": [
                -0.9641854956235649,
                -1.0999264099377262,
                2.0718057033131254,
                -0.6421779507475842,
                0.16094311416189783,
                -2.686096693487571
            ]
        },
        {
            "positions": [
                -1.0084112572165351,
                -1.107135036218247,
                2.053532318609567,
                -0.7107782003879128,
                0.2633299322363521,
                -2.8323699969949137
            ]
        },
        {
            "positions": [
                -1.0526370188095053,
                -1.1143436624987677,
                2.035258933906008,
                -0.7793784500282415,
                0.36571675031080625,
                -2.9786433005022563
            ]
        },
        {
            "positions": [
                -1.0968627804024758,
                -1.1215522887792884,
                2.0169855492024493,
                -0.84797869966857,
                0.4681035683852605,
                -3.124916604009599
            ]
        }
    ]
}