{
    "goal": {
        "global_pose": {
            "orientation": {
                "w": -0.4816463035849501,
                "x": 0.5182115481033762,
                "y": 0.4908360881923453,
                "z": -0.5084816262002911
            },
            "position": {
                "x": -0.8240239810943604,
                "y": 0.19912469901144506,
                "z": 0.16403168439865112
            }
        },
        "name": "move_to_storage_D"
    },
    "id": "RRTstar_move_to_storage_D_18",
    "joint_names": [
        "shoulder_pan_joint",
        "shoulder_lift_joint",
        "elbow_joint",
        "wrist_1_joint",
        "wrist_2_joint",
        "wrist_3_joint"
    ],
    "metrics": {
        "cart_traj_len": 3.675070351710893,
        "distance_elbow_joint": 4.208352466174061,
        "distance_shoulder_lift_joint": 1.264345243447622,
        "distance_shoulder_pan_joint": 2.81179918949514,
        "distance_wrist_1_joint": 2.2613272680453367,
        "distance_wrist_2_joint": 0.8713608907565543,
        "distance_wrist_3_joint": 3.1307844050410294,
        "smoothness": 5.4657133742059e-16,
        "time": 5.146972621000001,
        "traj_len": 3.814180051198389,
        "weighted_distance": 4.893079442625441
    },
    "planner": "RRTstar",
    "start": {
        "state": {
            "elbow_joint": -2.384821988534728,
            "shoulder_lift_joint": -2.2788054721415256,
            "shoulder_pan_joint": -0.1854694642142757,
            "wrist_1_joint": 1.4845938289331202,
            "wrist_2_joint": 0.17898776772866878,
            "wrist_3_joint": 0.037105688729662994
        }
    },
    "waypoints": [
        {
            "positions": [
                -0.1854694642142757,
                -2.2788054721415256,
                -2.384821988534728,
                1.4845938289331202,
                0.17898776772866878,
                0.037105688729662994
            ]
        },
        {
            "positions": [
                -0.05889445835582363,
                -2.2164608412571782,
                -2.301206904750172,
                1.4823314906308696,
                0.21281757361313003,
                -0.03522117027025061
            ]
        },
        {
            "positions": [
                0.06768054750262845,
                -2.1541162103728304,
                -2.217591820965617,
                1.480069152328619,
                0.24664737949759125,
                -0.10754802927016421
            ]
        },
        {
            "positions": [
                0.1942555533610805,
                -2.091771579488483,
                -2.133976737181061,
                1.477806814026368,
                0.2804771853820525,
                -0.1798748882700778
            ]
        },
        {
            "positions": [
                0.32083055921953263,
                -2.0294269486041356,
                -2.0503616533965054,
                1.4755444757241174,
                0.31430699126651374,
                -0.25220174726999145
            ]
        },
        {
            "positions": [
                0.4474055650779847,
                -1.9670823177197883,
                -1.9667465696119502,
                1.4732821374218668,
                0.348136797150975,
                -0.324528606269905
            ]
        },
        {
            "positions": [
                0.5739805709364367,
                -1.9047376868354406,
                -1.8831314858273944,
                1.4710197991196161,
                0.3819666030354362,
                -0.39685546526981863
            ]
        },
        {
            "positions": [
                0.7005555767948888,
                -1.842393055951093,
                -1.799516402042839,
                1.4687574608173655,
                0.41579640891989744,
                -0.46918232426973216
            ]
        },
        {
            "positions": [
                0.8271305826533409,
                -1.7800484250667457,
                -1.7159013182582834,
                1.4664951225151146,
                0.4496262148043587,
                -0.5415091832696458
            ]
        },
        {
            "positions": [
                0.953705588511793,
                -1.7177037941823983,
                -1.6322862344737277,
                1.464232784212864,
                0.48345602068882,
                -0.6138360422695595
            ]
        },
        {
            "positions": [
                1.080280594370245,
                -1.6553591632980507,
                -1.5486711506891722,
                1.4619704459106133,
                0.5172858265732811,
                -0.686162901269473
            ]
        },
        {
            "positions": [
                1.1407210642450392,
                -1.6298104690426882,
                -1.4264633395084467,
                1.3835026930197016,
                0.5376345159844221,
                -0.7740422977459349
            ]
        },
        {
            "positions": [
                1.2011615341198336,
                -1.6042617747873256,
                -1.3042555283277213,
                1.3050349401287902,
                0.5579832053955632,
                -0.8619216942223968
            ]
        },
        {
            "positions": [
                1.2616020039946279,
                -1.5787130805319631,
                -1.1820477171469959,
                1.2265671872378785,
                0.5783318948067042,
                -0.9498010906988588
            ]
        },
        {
            "positions": [
                1.3220424738694223,
                -1.5531643862766005,
                -1.0598399059662704,
                1.148099434346967,
                0.5986805842178453,
                -1.0376804871753207
            ]
        },
        {
            "positions": [
                1.3824829437442165,
                -1.527615692021238,
                -0.9376320947855449,
                1.0696316814560554,
                0.6190292736289863,
                -1.1255598836517828
            ]
        },
        {
            "positions": [
                1.4429234136190108,
                -1.5020669977658756,
                -0.8154242836048196,
                0.9911639285651438,
                0.6393779630401274,
                -1.2134392801282448
            ]
        },
        {
            "positions": [
                1.5033638834938052,
                -1.476518303510513,
                -0.693216472424094,
                0.9126961756742321,
                0.6597266524512684,
                -1.3013186766047067
            ]
        },
        {
            "positions": [
                1.5638043533685995,
                -1.4509696092551505,
                -0.5710086612433686,
                0.8342284227833205,
                0.6800753418624095,
                -1.3891980730811686
            ]
        },
        {
            "positions": [
                1.624244823243394,
                -1.4254209149997878,
                -0.44880085006264325,
                0.755760669892409,
                0.7004240312735505,
                -1.4770774695576305
            ]
        },
        {
            "positions": [
                1.6846852931181882,
                -1.3998722207444254,
                -0.3265930388819176,
                0.6772929170014974,
                0.7207727206846914,
                -1.5649568660340925
            ]
        },
        {
            "positions": [
                1.7451257629929824,
                -1.374323526489063,
                -0.20438522770119238,
                0.5988251641105858,
                0.7411214100958325,
                -1.6528362625105544
            ]
        },
        {
            "positions": [
                1.8055662328677768,
                -1.3487748322337003,
                -0.08217741652046695,
                0.5203574112196743,
                0.7614700995069735,
                -1.7407156589870163
            ]
        },
        {
            "positions": [
                1.8660067027425713,
                -1.3232261379783379,
                0.040030394660258706,
                0.4418896583287626,
                0.7818187889181146,
                -1.8285950554634782
            ]
        },
        {
            "positions": [
                1.9264471726173655,
                -1.2976774437229752,
                0.16223820584098414,
                0.3634219054378509,
                0.8021674783292556,
                -1.9164744519399404
            ]
        },
        {
            "positions": [
                1.9868876424921598,
                -1.2721287494676128,
                0.28444601702170935,
                0.28495415254693945,
                0.8225161677403967,
                -2.004353848416402
            ]
        },
        {
            "positions": [
                2.0473281123669542,
                -1.2465800552122501,
                0.406653828202435,
                0.20648639965602777,
                0.8428648571515377,
                -2.092233244892864
            ]
        },
        {
            "positions": [
                2.1077685822417482,
                -1.2210313609568877,
                0.5288616393831604,
                0.1280186467651161,
                0.8632135465626787,
                -2.180112641369326
            ]
        },
        {
            "positions": [
                2.1682090521165427,
                -1.1954826667015253,
                0.6510694505638857,
                0.04955089387420464,
                0.8835622359738198,
                -2.267992037845788
            ]
        },
        {
            "positions": [
                2.228649521991337,
                -1.1699339724461626,
                0.7732772617446113,
                -0.02891685901670682,
                0.9039109253849609,
                -2.3558714343222498
            ]
        },
        {
            "positions": [
                2.289089991866131,
                -1.1443852781908002,
                0.895485072925337,
                -0.1073846119076185,
                0.9242596147961019,
                -2.443750830798712
            ]
        },
        {
            "positions": [
                2.3495304617409256,
                -1.1188365839354377,
                1.0176928841060622,
                -0.18585236479852996,
                0.9446083042072428,
                -2.5316302272751736
            ]
        },
        {
            "positions": [
                2.40997093161572,
                -1.093287889680075,
                1.1399006952867874,
                -0.26432011768944164,
                0.9649569936183839,
                -2.619509623751636
            ]
        },
        {
            "positions": [
                2.470411401490514,
                -1.0677391954247124,
                1.262108506467513,
                -0.3427878705803533,
                0.985305683029525,
                -2.7073890202280975
            ]
        },
        {
            "positions": [
                2.5308518713653085,
                -1.0421905011693502,
                1.3843163176482383,
                -0.4212556234712648,
                1.005654372440666,
                -2.79526841670456
            ]
        },
        {
            "positions": [
                2.591292341240103,
                -1.0166418069139875,
                1.5065241288289637,
                -0.4997233763621764,
                1.026003061851807,
                -2.8831478131810218
            ]
        },
        {
            "positions": [
                2.6029714692536903,
                -1.0159146141739597,
                1.6121929117657532,
                -0.5920600639455232,
                1.0341182607296124,
                -2.9533247808911365
            ]
        },
        {
            "positions": [
                2.614650597267278,
                -1.0151874214339316,
                1.7178616947025427,
                -0.68439675152887,
                1.0422334596074176,
                -3.0235017486012516
            ]
        },
        {
            "positions": [
                2.6263297252808653,
                -1.0144602286939037,
                1.8235304776393322,
                -0.7767334391122168,
                1.050348658485223,
                -3.0936787163113664
            ]
        }
    ]
}