{
    "goal": {
        "global_pose": {
            "orientation": {
                "w": -0.00223480608172531,
                "x": 0.0024358444001904467,
                "y": 0.7094548369677653,
                "z": -0.704743149386269
            },
            "position": {
                "x": -0.37947507619857795,
                "y": -0.6371506643295288,
                "z": 0.19426114857196808
            }
        },
        "name": "move_to_magneteinheit_C"
    },
    "id": "RRTstar_move_to_magneteinheit_C_12",
    "joint_names": [
        "shoulder_pan_joint",
        "shoulder_lift_joint",
        "elbow_joint",
        "wrist_1_joint",
        "wrist_2_joint",
        "wrist_3_joint"
    ],
    "metrics": {
        "cart_traj_len": 0.7127587446736359,
        "distance_elbow_joint": 0.20089946651485535,
        "distance_shoulder_lift_joint": 0.608043904975494,
        "distance_shoulder_pan_joint": 1.1650958930115014,
        "distance_wrist_1_joint": 0.34247315338463236,
        "distance_wrist_2_joint": 1.857010903867107,
        "distance_wrist_3_joint": 0.5557437343322387,
        "smoothness": 1.1347662314911109,
        "time": 5.009153193,
        "traj_len": 2.1746878065795623,
        "weighted_distance": 2.8355314461317556
    },
    "planner": "RRTstar",
    "start": {
        "state": {
            "elbow_joint": 1.9565354010623817,
            "shoulder_lift_joint": -1.4165861575791021,
            "shoulder_pan_joint": -1.6717766225146293,
            "wrist_1_joint": -0.5286633292919765,
            "wrist_2_joint": 1.472756589071564,
            "wrist_3_joint": -3.1238370188695823
        }
    },
    "waypoints": [
        {
            "positions": [
                -1.6717766225146293,
                -1.4165861575791021,
                1.9565354010623817,
                -0.5286633292919765,
                1.472756589071564,
                -3.1238370188695823
            ]
        },
        {
            "positions": [
                -1.7485168225667764,
                -1.4460464999299076,
                1.9728601002140327,
                -0.5250673843332792,
                1.2921968866479918,
                -3.094532870942569
            ]
        },
        {
            "positions": [
                -1.8252570226189238,
                -1.4755068422807132,
                1.9891847993656835,
                -0.5214714393745818,
                1.1116371842244197,
                -3.065228723015555
            ]
        },
        {
            "positions": [
                -1.901997222671071,
                -1.5049671846315187,
                2.0055094985173345,
                -0.5178754944158845,
                0.9310774818008477,
                -3.0359245750885413
            ]
        },
        {
            "positions": [
                -1.9787374227232182,
                -1.534427526982324,
                2.0218341976689853,
                -0.5142795494571871,
                0.7505177793772757,
                -3.0066204271615278
            ]
        },
        {
            "positions": [
                -2.0554776227753653,
                -1.5638878693331295,
                2.0381588968206366,
                -0.5106836044984898,
                0.5699580769537035,
                -2.977316279234514
            ]
        },
        {
            "positions": [
                -2.1322178228275126,
                -1.593348211683935,
                2.0544835959722874,
                -0.5070876595397925,
                0.3893983745301315,
                -2.9480121313075003
            ]
        },
        {
            "positions": [
                -2.2630539039122066,
                -1.5286017963926848,
                2.0614278956460557,
                -0.5593991089258595,
                0.32766082111834877,
                -2.9256570412877507
            ]
        },
        {
            "positions": [
                -2.393889984996901,
                -1.4638553811014348,
                2.0683721953198235,
                -0.6117105583119264,
                0.26592326770656605,
                -2.903301951268001
            ]
        },
        {
            "positions": [
                -2.5247260660815956,
                -1.3991089658101847,
                2.075316494993592,
                -0.6640220076979935,
                0.20418571429478327,
                -2.880946861248251
            ]
        },
        {
            "positions": [
                -2.6555621471662896,
                -1.3343625505189345,
                2.08226079466736,
                -0.7163334570840605,
                0.14244816088300055,
                -2.8585917712285016
            ]
        },
        {
            "positions": [
                -2.610234555076329,
                -1.2912885030925194,
                2.0634672764398907,
                -0.7442463786061055,
                0.2741237798026364,
                -2.931216392901291
            ]
        },
        {
            "positions": [
                -2.564906962986369,
                -1.2482144556661043,
                2.0446737582124217,
                -0.7721593001281507,
                0.4057993987222723,
                -3.0038410145740806
            ]
        },
        {
            "positions": [
                -2.519579370896409,
                -1.205140408239689,
                2.0258802399849527,
                -0.8000722216501959,
                0.5374750176419081,
                -3.07646563624687
            ]
        },
        {
            "positions": [
                -2.4742517788064484,
                -1.162066360813274,
                2.0070867217574833,
                -0.8279851431722409,
                0.669150636561544,
                -3.1490902579196596
            ]
        }
    ]
}