{
    "goal": {
        "global_pose": {
            "orientation": {
                "w": 0.7047431468963623,
                "x": -0.7094548344612122,
                "y": 0.0024358443915843964,
                "z": -0.0022348060738295317
            },
            "position": {
                "x": 0.6094750761985779,
                "y": 0.3671506643295288,
                "z": 0.19426114857196808
            }
        },
        "name": "move_to_magneteinheit_A"
    },
    "id": "RRTstar_move_to_magneteinheit_A_17",
    "joint_names": [
        "shoulder_pan_joint",
        "shoulder_lift_joint",
        "elbow_joint",
        "wrist_1_joint",
        "wrist_2_joint",
        "wrist_3_joint"
    ],
    "metrics": {
        "cart_traj_len": 3.6169224104298747,
        "distance_elbow_joint": 3.9425131236081077,
        "distance_shoulder_lift_joint": 0.7933704423433748,
        "distance_shoulder_pan_joint": 2.8001083315121016,
        "distance_wrist_1_joint": 3.583943588600143,
        "distance_wrist_2_joint": 1.449489359884309,
        "distance_wrist_3_joint": 0.7789980346085494,
        "smoothness": 0.029097225362368733,
        "time": 5.030573026,
        "traj_len": 3.653549353786887,
        "weighted_distance": 4.4654061291508675
    },
    "planner": "RRTstar",
    "start": {
        "state": {
            "elbow_joint": -1.9196185241190666,
            "shoulder_lift_joint": -1.2443396400964142,
            "shoulder_pan_joint": 2.6996025414629847,
            "wrist_1_joint": -1.5485510000780065,
            "wrist_2_joint": -1.5709468930060704,
            "wrist_3_joint": 0.4420197071253992
        }
    },
    "waypoints": [
        {
            "positions": [
                2.6996025414629847,
                -1.2443396400964142,
                -1.9196185241190666,
                -1.5485510000780065,
                -1.5709468930060704,
                0.4420197071253992
            ]
        },
        {
            "positions": [
                2.5532451459529177,
                -1.2059806660401153,
                -1.8079080789044921,
                -1.515225845997256,
                -1.5319160731191757,
                0.44874668956484504
            ]
        },
        {
            "positions": [
                2.406887750442851,
                -1.1676216919838167,
                -1.6961976336899178,
                -1.4819006919165056,
                -1.492885253232281,
                0.45547367200429095
            ]
        },
        {
            "positions": [
                2.260530354932784,
                -1.1292627179275179,
                -1.5844871884753433,
                -1.4485755378357552,
                -1.4538544333453862,
                0.4622006544437368
            ]
        },
        {
            "positions": [
                2.114172959422717,
                -1.090903743871219,
                -1.472776743260769,
                -1.415250383755005,
                -1.4148236134584913,
                0.46892763688318273
            ]
        },
        {
            "positions": [
                1.9678155639126507,
                -1.0525447698149202,
                -1.3610662980461945,
                -1.3819252296742546,
                -1.3757927935715966,
                0.4756546193226286
            ]
        },
        {
            "positions": [
                1.8214581684025837,
                -1.0141857957586216,
                -1.24935585283162,
                -1.3486000755935041,
                -1.3367619736847018,
                0.4823816017620745
            ]
        },
        {
            "positions": [
                1.675100772892517,
                -0.9758268217023227,
                -1.1376454076170455,
                -1.3152749215127537,
                -1.2977311537978071,
                0.48910858420152037
            ]
        },
        {
            "positions": [
                1.52874337738245,
                -0.9374678476460239,
                -1.0259349624024714,
                -1.2819497674320033,
                -1.2587003339109124,
                0.4958355666409663
            ]
        },
        {
            "positions": [
                1.3823859818723832,
                -0.8991088735897251,
                -0.9142245171878969,
                -1.2486246133512529,
                -1.2196695140240177,
                0.5025625490804122
            ]
        },
        {
            "positions": [
                1.2360285863623164,
                -0.8607498995334264,
                -0.8025140719733224,
                -1.2152994592705024,
                -1.180638694137123,
                0.509289531519858
            ]
        },
        {
            "positions": [
                1.0896711908522496,
                -0.8223909254771276,
                -0.6908036267587481,
                -1.181974305189752,
                -1.1416078742502282,
                0.5160165139593039
            ]
        },
        {
            "positions": [
                0.9433137953421826,
                -0.7840319514208287,
                -0.5790931815441733,
                -1.1486491511090016,
                -1.1025770543633333,
                0.5227434963987498
            ]
        },
        {
            "positions": [
                0.7969563998321156,
                -0.74567297736453,
                -0.46738273632959904,
                -1.1153239970282514,
                -1.0635462344764386,
                0.5294704788381956
            ]
        },
        {
            "positions": [
                0.6505990043220491,
                -0.7073140033082311,
                -0.3556722911150245,
                -1.081998842947501,
                -1.0245154145895439,
                0.5361974612776416
            ]
        },
        {
            "positions": [
                0.504241608811982,
                -0.6689550292519324,
                -0.24396184590045034,
                -1.0486736888667505,
                -0.9854845947026492,
                0.5429244437170875
            ]
        },
        {
            "positions": [
                0.4496040544120601,
                -0.6635426716970864,
                -0.12244545337256116,
                -0.9151577370963269,
                -0.9401190084607376,
                0.5173357006681062
            ]
        },
        {
            "positions": [
                0.3949665000121381,
                -0.6581303141422403,
                -0.0009290608446719806,
                -0.7816417853259031,
                -0.894753422218826,
                0.4917469576191249
            ]
        },
        {
            "positions": [
                0.34032894561221616,
                -0.6527179565873944,
                0.12058733168321722,
                -0.6481258335554794,
                -0.8493878359769145,
                0.4661582145701436
            ]
        },
        {
            "positions": [
                0.28569139121229425,
                -0.6473055990325484,
                0.24210372421110637,
                -0.5146098817850557,
                -0.8040222497350028,
                0.4405694715211623
            ]
        },
        {
            "positions": [
                0.2310538368123723,
                -0.6418932414777023,
                0.36362011673899564,
                -0.3810939300146319,
                -0.7586566634930912,
                0.41498072847218104
            ]
        },
        {
            "positions": [
                0.1764162824124504,
                -0.6364808839228563,
                0.4851365092668848,
                -0.24757797824420824,
                -0.7132910772511797,
                0.38939198542319975
            ]
        },
        {
            "positions": [
                0.12177872801252843,
                -0.6310685263680104,
                0.6066529017947739,
                -0.1140620264737845,
                -0.667925491009268,
                0.36380324237421846
            ]
        },
        {
            "positions": [
                0.06714117361260652,
                -0.6256561688131643,
                0.7281692943226631,
                0.01945392529663903,
                -0.6225599047673565,
                0.3382144993252372
            ]
        },
        {
            "positions": [
                0.012503619212684572,
                -0.6202438112583183,
                0.8496856868505523,
                0.1529698770670629,
                -0.5771943185254449,
                0.3126257562762559
            ]
        },
        {
            "positions": [
                0.012067504917955186,
                -0.633204311536653,
                0.9671694629175007,
                0.3307851444992924,
                -0.5318769926482882,
                0.27140013729289436
            ]
        },
        {
            "positions": [
                0.011631390623225801,
                -0.6461648118149877,
                1.084653238984449,
                0.508600411931522,
                -0.48655966677113155,
                0.2301745183095329
            ]
        },
        {
            "positions": [
                0.011195276328496415,
                -0.6591253120933225,
                1.2021370150513975,
                0.6864156793637515,
                -0.44124234089397485,
                0.18894889932617137
            ]
        },
        {
            "positions": [
                0.02515790962569793,
                -0.6754244511771068,
                1.304731713106103,
                0.8550377930085497,
                -0.4012692399224482,
                0.14843418012292825
            ]
        },
        {
            "positions": [
                0.039120542922899446,
                -0.6917235902608911,
                1.4073264111608084,
                1.0236599066533478,
                -0.3612961389509215,
                0.1079194609196851
            ]
        },
        {
            "positions": [
                0.053083176220100954,
                -0.7080227293446755,
                1.5099211092155136,
                1.192282020298146,
                -0.3213230379793949,
                0.06740474171644197
            ]
        },
        {
            "positions": [
                0.06704580951730246,
                -0.7243218684284598,
                1.612515807270219,
                1.360904133942944,
                -0.2813499370078682,
                0.02689002251319883
            ]
        },
        {
            "positions": [
                0.08100844281450398,
                -0.7406210075122442,
                1.7151105053249245,
                1.5295262475877422,
                -0.24137683603634152,
                -0.013624696690044291
            ]
        },
        {
            "positions": [
                0.0949710761117055,
                -0.7569201465960286,
                1.8177052033796297,
                1.6981483612325403,
                -0.20140373506481488,
                -0.05413941589328744
            ]
        },
        {
            "positions": [
                0.10893370940890701,
                -0.7732192856798129,
                1.9202999014343352,
                1.8667704748773386,
                -0.16143063409328823,
                -0.09465413509653059
            ]
        },
        {
            "positions": [
                0.12289634270610852,
                -0.7895184247635972,
                2.0228945994890406,
                2.0353925885221367,
                -0.12145753312176154,
                -0.13516885429977368
            ]
        }
    ]
}