{
    "goal": {
        "global_pose": {
            "orientation": {
                "w": -0.4816463035849501,
                "x": 0.5182115481033762,
                "y": 0.4908360881923453,
                "z": -0.5084816262002911
            },
            "position": {
                "x": -0.8240239810943604,
                "y": -0.300875300988555,
                "z": 0.16403168439865112
            }
        },
        "name": "move_to_storage_C"
    },
    "id": "RRTstar_move_to_storage_C_96",
    "joint_names": [
        "shoulder_pan_joint",
        "shoulder_lift_joint",
        "elbow_joint",
        "wrist_1_joint",
        "wrist_2_joint",
        "wrist_3_joint"
    ],
    "metrics": {
        "cart_traj_len": 0.5768175326746631,
        "distance_elbow_joint": 0.25787032927371567,
        "distance_shoulder_lift_joint": 0.1898761260616907,
        "distance_shoulder_pan_joint": 0.49532504538722844,
        "distance_wrist_1_joint": 0.07477398694153481,
        "distance_wrist_2_joint": 1.0615138153384174,
        "distance_wrist_3_joint": 0.05712522578456847,
        "smoothness": 0.0,
        "time": 5.001568591,
        "traj_len": 1.4616718266379618,
        "weighted_distance": 1.8403865851054895
    },
    "planner": "RRTstar",
    "start": {
        "state": {
            "elbow_joint": 2.010868314990456,
            "shoulder_lift_joint": -1.1634956873337592,
            "shoulder_pan_joint": -2.4736205022346125,
            "wrist_1_joint": -0.8367026794202681,
            "wrist_2_joint": 0.6746043897044499,
            "wrist_3_joint": -3.1496632123970403
        }
    },
    "waypoints": [
        {
            "positions": [
                -2.4736205022346125,
                -1.1634956873337592,
                2.010868314990456,
                -0.8367026794202681,
                0.6746043897044499,
                -3.1496632123970403
            ]
        },
        {
            "positions": [
                -2.556174676465817,
                -1.1318496663234774,
                1.9678899267781698,
                -0.8242403482633456,
                0.8515233589275195,
                -3.1401423414329455
            ]
        },
        {
            "positions": [
                -2.638728850697022,
                -1.1002036453131956,
                1.924911538565884,
                -0.8117780171064232,
                1.028442328150589,
                -3.1306214704688506
            ]
        },
        {
            "positions": [
                -2.7212830249282267,
                -1.0685576243029138,
                1.881933150353598,
                -0.7993156859495008,
                1.2053612973736585,
                -3.1211005995047563
            ]
        },
        {
            "positions": [
                -2.8038371991594313,
                -1.036911603292632,
                1.838954762141312,
                -0.7868533547925782,
                1.382280266596728,
                -3.1115797285406614
            ]
        },
        {
            "positions": [
                -2.8863913733906363,
                -1.0052655822823502,
                1.795976373929026,
                -0.7743910236356557,
                1.559199235819798,
                -3.1020588575765666
            ]
        },
        {
            "positions": [
                -2.968945547621841,
                -0.9736195612720685,
                1.7529979857167401,
                -0.7619286924787333,
                1.7361182050428674,
                -3.092537986612472
            ]
        }
    ]
}