{
    "goal": {
        "global_pose": {
            "orientation": {
                "w": -0.4816463035849501,
                "x": 0.5182115481033762,
                "y": 0.4908360881923453,
                "z": -0.5084816262002911
            },
            "position": {
                "x": -0.8240239810943604,
                "y": 0.19912469901144506,
                "z": 0.16403168439865112
            }
        },
        "name": "move_to_storage_D"
    },
    "id": "RRTstar_move_to_storage_D_142",
    "joint_names": [
        "shoulder_pan_joint",
        "shoulder_lift_joint",
        "elbow_joint",
        "wrist_1_joint",
        "wrist_2_joint",
        "wrist_3_joint"
    ],
    "metrics": {
        "cart_traj_len": 3.728468892633632,
        "distance_elbow_joint": 4.209252801194371,
        "distance_shoulder_lift_joint": 1.2647571204043613,
        "distance_shoulder_pan_joint": 2.8122777294491548,
        "distance_wrist_1_joint": 2.262194646629294,
        "distance_wrist_2_joint": 0.8735416105231696,
        "distance_wrist_3_joint": 3.1429459176813674,
        "smoothness": 3.739698616058213e-16,
        "time": 5.030494788,
        "traj_len": 3.8164079742451174,
        "weighted_distance": 4.897611450329324
    },
    "planner": "RRTstar",
    "start": {
        "state": {
            "elbow_joint": -2.384821988534728,
            "shoulder_lift_joint": -2.2788054721415256,
            "shoulder_pan_joint": -0.1854694642142757,
            "wrist_1_joint": 1.4845938289331202,
            "wrist_2_joint": 0.17898776772866878,
            "wrist_3_joint": 0.037105688729662994
        }
    },
    "waypoints": [
        {
            "positions": [
                -0.1854694642142757,
                -2.2788054721415256,
                -2.384821988534728,
                1.4845938289331202,
                0.17898776772866878,
                0.037105688729662994
            ]
        },
        {
            "positions": [
                -0.0671696616115673,
                -2.226634671559108,
                -2.2719634933993147,
                1.4265362462247604,
                0.20657063844302231,
                0.06271615308011662
            ]
        },
        {
            "positions": [
                0.051130140991141104,
                -2.17446387097669,
                -2.159104998263901,
                1.3684786635164006,
                0.23415350915737587,
                0.08832661743057024
            ]
        },
        {
            "positions": [
                0.16942994359384952,
                -2.1222930703942726,
                -2.0462465031284878,
                1.3104210808080405,
                0.2617363798717294,
                0.11393708178102388
            ]
        },
        {
            "positions": [
                0.2877297461965579,
                -2.070122269811855,
                -1.9333880079930745,
                1.2523634980996807,
                0.28931925058608293,
                0.13954754613147752
            ]
        },
        {
            "positions": [
                0.40602954879926634,
                -2.017951469229437,
                -1.820529512857661,
                1.194305915391321,
                0.3169021213004365,
                0.16515801048193113
            ]
        },
        {
            "positions": [
                0.5243293514019748,
                -1.9657806686470196,
                -1.7076710177222476,
                1.136248332682961,
                0.34448499201479,
                0.19076847483238477
            ]
        },
        {
            "positions": [
                0.6426291540046832,
                -1.9136098680646019,
                -1.5948125225868344,
                1.0781907499746013,
                0.37206786272914355,
                0.21637893918283838
            ]
        },
        {
            "positions": [
                0.7609289566073916,
                -1.8614390674821841,
                -1.481954027451421,
                1.0201331672662413,
                0.3996507334434971,
                0.241989403533292
            ]
        },
        {
            "positions": [
                0.8792287592100999,
                -1.8092682668997664,
                -1.3690955323160074,
                0.9620755845578814,
                0.4272336041578506,
                0.2675998678837457
            ]
        },
        {
            "positions": [
                0.9975285618128084,
                -1.7570974663173486,
                -1.2562370371805942,
                0.9040180018495216,
                0.4548164748722041,
                0.29321033223419923
            ]
        },
        {
            "positions": [
                1.115828364415517,
                -1.7049266657349311,
                -1.1433785420451805,
                0.8459604191411616,
                0.4823993455865577,
                0.3188207965846529
            ]
        },
        {
            "positions": [
                1.2341281670182251,
                -1.6527558651525134,
                -1.0305200469097673,
                0.7879028364328019,
                0.5099822163009112,
                0.34443126093510656
            ]
        },
        {
            "positions": [
                1.3524279696209336,
                -1.6005850645700956,
                -0.9176615517743538,
                0.729845253724442,
                0.5375650870152648,
                0.37004172528556023
            ]
        },
        {
            "positions": [
                1.470727772223642,
                -1.5484142639876781,
                -0.8048030566389406,
                0.6717876710160822,
                0.5651479577296183,
                0.3956521896360138
            ]
        },
        {
            "positions": [
                1.5890275748263505,
                -1.4962434634052602,
                -0.6919445615035271,
                0.6137300883077222,
                0.5927308284439718,
                0.42126265398646745
            ]
        },
        {
            "positions": [
                1.7073273774290587,
                -1.4440726628228426,
                -0.5790860663681139,
                0.5556725055993624,
                0.6203136991583253,
                0.446873118336921
            ]
        },
        {
            "positions": [
                1.8256271800317672,
                -1.391901862240425,
                -0.4662275712327004,
                0.4976149228910025,
                0.647896569872679,
                0.47248358268737467
            ]
        },
        {
            "positions": [
                1.9439269826344754,
                -1.3397310616580071,
                -0.35336907609728696,
                0.4395573401826427,
                0.6754794405870325,
                0.49809404703782834
            ]
        },
        {
            "positions": [
                2.062226785237184,
                -1.2875602610755896,
                -0.24051058096187372,
                0.38149975747428266,
                0.703062311301386,
                0.5237045113882819
            ]
        },
        {
            "positions": [
                2.1805265878398923,
                -1.2353894604931719,
                -0.12765208582646048,
                0.3234421747659231,
                0.7306451820157395,
                0.5493149757387356
            ]
        },
        {
            "positions": [
                2.298826390442601,
                -1.1832186599107541,
                -0.014793590691046854,
                0.26538459205756304,
                0.7582280527300931,
                0.5749254400891892
            ]
        },
        {
            "positions": [
                2.3193252576171184,
                -1.1726455156499047,
                0.10015793451837118,
                0.2001980039479545,
                0.7766218855752022,
                0.7377458254843043
            ]
        },
        {
            "positions": [
                2.339824124791636,
                -1.1620723713890555,
                0.21510945972778922,
                0.13501141583834597,
                0.7950157184203113,
                0.9005662108794193
            ]
        },
        {
            "positions": [
                2.3603229919661532,
                -1.151499227128206,
                0.33006098493720726,
                0.06982482772873744,
                0.8134095512654204,
                1.0633865962745344
            ]
        },
        {
            "positions": [
                2.3808218591406707,
                -1.1409260828673566,
                0.4450125101466253,
                0.004638239619128903,
                0.8318033841105295,
                1.2262069816696495
            ]
        },
        {
            "positions": [
                2.4013207263151877,
                -1.1303529386065074,
                0.5599640353560433,
                -0.06054834849047963,
                0.8501972169556384,
                1.3890273670647646
            ]
        },
        {
            "positions": [
                2.421819593489705,
                -1.119779794345658,
                0.6749155605654613,
                -0.12573493660008817,
                0.8685910498007475,
                1.5518477524598797
            ]
        },
        {
            "positions": [
                2.4423184606642225,
                -1.1092066500848086,
                0.7898670857748795,
                -0.1909215247096967,
                0.8869848826458566,
                1.7146681378549946
            ]
        },
        {
            "positions": [
                2.46281732783874,
                -1.0986335058239591,
                0.9048186109842975,
                -0.25610811281930523,
                0.9053787154909657,
                1.8774885232501097
            ]
        },
        {
            "positions": [
                2.4833161950132574,
                -1.08806036156311,
                1.0197701361937155,
                -0.32129470092891377,
                0.9237725483360748,
                2.040308908645225
            ]
        },
        {
            "positions": [
                2.503815062187775,
                -1.0774872173022605,
                1.1347216614031335,
                -0.3864812890385223,
                0.9421663811811839,
                2.20312929404034
            ]
        },
        {
            "positions": [
                2.5243139293622923,
                -1.066914073041411,
                1.2496731866125517,
                -0.45166787714813084,
                0.960560214026293,
                2.365949679435455
            ]
        },
        {
            "positions": [
                2.5448127965368093,
                -1.0563409287805618,
                1.3646247118219696,
                -0.5168544652577394,
                0.978954046871402,
                2.52877006483057
            ]
        },
        {
            "positions": [
                2.5653116637113267,
                -1.0457677845197124,
                1.4795762370313876,
                -0.5820410533673479,
                0.9973478797165112,
                2.691590450225685
            ]
        },
        {
            "positions": [
                2.585810530885844,
                -1.035194640258863,
                1.5945277622408058,
                -0.6472276414769564,
                1.0157417125616202,
                2.8544108356208
            ]
        },
        {
            "positions": [
                2.6063093980603615,
                -1.0246214959980138,
                1.7094792874502238,
                -0.712414229586565,
                1.0341355454067291,
                3.0172312210159156
            ]
        },
        {
            "positions": [
                2.626808265234879,
                -1.0140483517371643,
                1.8244308126596418,
                -0.7776008176961735,
                1.0525293782518383,
                3.1800516064110305
            ]
        }
    ]
}