{
    "goal": {
        "global_pose": {
            "orientation": {
                "w": 0.005598929693374612,
                "x": 0.007748599140229565,
                "y": 0.7110244013736278,
                "z": -0.7031023480610252
            },
            "position": {
                "x": -0.8858502320852131,
                "y": -0.7141253447532654,
                "z": 0.3711530566215515
            }
        },
        "name": "move_to_auspresseinheit_C"
    },
    "id": "RRTstar_move_to_auspresseinheit_C_52",
    "joint_names": [
        "shoulder_pan_joint",
        "shoulder_lift_joint",
        "elbow_joint",
        "wrist_1_joint",
        "wrist_2_joint",
        "wrist_3_joint"
    ],
    "metrics": {
        "cart_traj_len": 0.4930351608245913,
        "distance_elbow_joint": 0.98985541223132,
        "distance_shoulder_lift_joint": 0.3202089225359309,
        "distance_shoulder_pan_joint": 0.25712709721679117,
        "distance_wrist_1_joint": 0.6572184196500507,
        "distance_wrist_2_joint": 1.3078832235216704,
        "distance_wrist_3_joint": 0.0472798857089316,
        "smoothness": 1.1304088931387485e-15,
        "time": 5.007303357,
        "traj_len": 1.8919759408789256,
        "weighted_distance": 2.3747072188912637
    },
    "planner": "RRTstar",
    "start": {
        "state": {
            "elbow_joint": 1.7527959577737207,
            "shoulder_lift_joint": -0.9740617694225068,
            "shoulder_pan_joint": -2.967991417825858,
            "wrist_1_joint": -0.759517768980727,
            "wrist_2_joint": 1.7443932448377408,
            "wrist_3_joint": -3.0840537646736568
        }
    },
    "waypoints": [
        {
            "positions": [
                -2.967991417825858,
                -0.9740617694225068,
                1.7527959577737207,
                -0.759517768980727,
                1.7443932448377408,
                -3.0840537646736568
            ]
        },
        {
            "positions": [
                -2.942278708104179,
                -0.9420408771689137,
                1.6538104165505887,
                -0.6937959270157219,
                1.6136049224855737,
                -3.08878175324455
            ]
        },
        {
            "positions": [
                -2.9165659983824996,
                -0.9100199849153205,
                1.5548248753274567,
                -0.6280740850507168,
                1.4828166001334067,
                -3.093509741815443
            ]
        },
        {
            "positions": [
                -2.8908532886608205,
                -0.8779990926617275,
                1.4558393341043248,
                -0.5623522430857117,
                1.3520282777812398,
                -3.0982377303863364
            ]
        },
        {
            "positions": [
                -2.8651405789391413,
                -0.8459782004081344,
                1.3568537928811926,
                -0.4966304011207067,
                1.2212399554290725,
                -3.1029657189572295
            ]
        },
        {
            "positions": [
                -2.839427869217462,
                -0.8139573081545413,
                1.2578682516580606,
                -0.43090855915570164,
                1.0904516330769056,
                -3.1076937075281226
            ]
        },
        {
            "positions": [
                -2.8137151594957834,
                -0.7819364159009482,
                1.1588827104349286,
                -0.36518671719069656,
                0.9596633107247386,
                -3.1124216960990156
            ]
        },
        {
            "positions": [
                -2.7880024497741043,
                -0.7499155236473551,
                1.0598971692117967,
                -0.29946487522569154,
                0.8288749883725716,
                -3.1171496846699087
            ]
        },
        {
            "positions": [
                -2.762289740052425,
                -0.717894631393762,
                0.9609116279886646,
                -0.23374303326068646,
                0.6980866660204044,
                -3.1218776732408022
            ]
        },
        {
            "positions": [
                -2.736577030330746,
                -0.6858737391401689,
                0.8619260867655326,
                -0.16802119129568138,
                0.5672983436682375,
                -3.1266056618116953
            ]
        },
        {
            "positions": [
                -2.710864320609067,
                -0.6538528468865759,
                0.7629405455424006,
                -0.10229934933067628,
                0.43651002131607036,
                -3.1313336503825884
            ]
        }
    ]
}