{
    "goal": {
        "global_pose": {
            "orientation": {
                "w": 0.7047431468963623,
                "x": -0.7094548344612122,
                "y": 0.0024358443915843964,
                "z": -0.0022348060738295317
            },
            "position": {
                "x": 0.6094750761985779,
                "y": 0.3671506643295288,
                "z": 0.19426114857196808
            }
        },
        "name": "move_to_magneteinheit_A"
    },
    "id": "RRTstar_move_to_magneteinheit_A_127",
    "joint_names": [
        "shoulder_pan_joint",
        "shoulder_lift_joint",
        "elbow_joint",
        "wrist_1_joint",
        "wrist_2_joint",
        "wrist_3_joint"
    ],
    "metrics": {
        "cart_traj_len": 3.322489324781479,
        "distance_elbow_joint": 3.8771521102938724,
        "distance_shoulder_lift_joint": 0.2525808116634889,
        "distance_shoulder_pan_joint": 2.7718336007421285,
        "distance_wrist_1_joint": 0.8301997798408686,
        "distance_wrist_2_joint": 1.6978151605413014,
        "distance_wrist_3_joint": 2.5985556773239393,
        "smoothness": 0.07270059890210369,
        "time": 5.013288932,
        "traj_len": 3.4681604836578135,
        "weighted_distance": 4.444464358664118
    },
    "planner": "RRTstar",
    "start": {
        "state": {
            "elbow_joint": -1.9196185241190666,
            "shoulder_lift_joint": -1.2443396400964142,
            "shoulder_pan_joint": 2.6996025414629847,
            "wrist_1_joint": -1.5485510000780065,
            "wrist_2_joint": -1.5709468930060704,
            "wrist_3_joint": 0.4420197071253992
        }
    },
    "waypoints": [
        {
            "positions": [
                2.6996025414629847,
                -1.2443396400964142,
                -1.9196185241190666,
                -1.5485510000780065,
                -1.5709468930060704,
                0.4420197071253992
            ]
        },
        {
            "positions": [
                2.5559604625702765,
                -1.2336105978958718,
                -1.7895084432100237,
                -1.5076283697662474,
                -1.5465468869921035,
                0.48429417290816507
            ]
        },
        {
            "positions": [
                2.412318383677568,
                -1.2228815556953296,
                -1.6593983623009807,
                -1.4667057394544885,
                -1.5221468809781364,
                0.526568638690931
            ]
        },
        {
            "positions": [
                2.2686763047848597,
                -1.2121525134947873,
                -1.5292882813919375,
                -1.4257831091427293,
                -1.4977468749641696,
                0.5688431044736968
            ]
        },
        {
            "positions": [
                2.125034225892151,
                -1.201423471294245,
                -1.3991782004828945,
                -1.3848604788309702,
                -1.4733468689502027,
                0.6111175702564627
            ]
        },
        {
            "positions": [
                1.9813921469994429,
                -1.1906944290937027,
                -1.2690681195738516,
                -1.343937848519211,
                -1.4489468629362356,
                0.6533920360392286
            ]
        },
        {
            "positions": [
                1.8377500681067345,
                -1.1799653868931603,
                -1.1389580386648084,
                -1.303015218207452,
                -1.4245468569222688,
                0.6956665018219945
            ]
        },
        {
            "positions": [
                1.694107989214026,
                -1.1692363446926182,
                -1.0088479577557654,
                -1.262092587895693,
                -1.400146850908302,
                0.7379409676047604
            ]
        },
        {
            "positions": [
                1.5504659103213176,
                -1.1585073024920758,
                -0.8787378768467224,
                -1.2211699575839339,
                -1.375746844894335,
                0.7802154333875262
            ]
        },
        {
            "positions": [
                1.4068238314286095,
                -1.1477782602915336,
                -0.7486277959376793,
                -1.1802473272721747,
                -1.351346838880368,
                0.822489899170292
            ]
        },
        {
            "positions": [
                1.263181752535901,
                -1.1370492180909912,
                -0.6185177150286363,
                -1.1393246969604158,
                -1.3269468328664011,
                0.864764364953058
            ]
        },
        {
            "positions": [
                1.1195396736431926,
                -1.126320175890449,
                -0.4884076341195931,
                -1.0984020666486567,
                -1.3025468268524343,
                0.9070388307358239
            ]
        },
        {
            "positions": [
                0.9758975947504842,
                -1.1155911336899067,
                -0.3582975532105501,
                -1.0574794363368976,
                -1.2781468208384674,
                0.9493132965185898
            ]
        },
        {
            "positions": [
                0.832255515857776,
                -1.1048620914893643,
                -0.22818747230150738,
                -1.0165568060251386,
                -1.2537468148245003,
                0.9915877623013556
            ]
        },
        {
            "positions": [
                0.6886134369650674,
                -1.0941330492888222,
                -0.09807739139246419,
                -0.9756341757133795,
                -1.2293468088105335,
                1.0338622280841214
            ]
        },
        {
            "positions": [
                0.5449713580723592,
                -1.0834040070882798,
                0.03203268951657878,
                -0.9347115454016204,
                -1.2049468027965666,
                1.0761366938668875
            ]
        },
        {
            "positions": [
                0.40132927917965056,
                -1.0726749648877376,
                0.16214277042562175,
                -0.8937889150898614,
                -1.1805467967825996,
                1.1184111596496533
            ]
        },
        {
            "positions": [
                0.25768720028694225,
                -1.0619459226871952,
                0.29225285133466516,
                -0.8528662847781022,
                -1.1561467907686327,
                1.1606856254324192
            ]
        },
        {
            "positions": [
                0.23440650285267445,
                -1.0657748365081774,
                0.42025453508752564,
                -0.8395891910127632,
                -1.0648537009189476,
                1.2950794946273818
            ]
        },
        {
            "positions": [
                0.21112580541840661,
                -1.0696037503291598,
                0.5482562188403861,
                -0.8263120972474242,
                -0.9735606110692625,
                1.4294733638223445
            ]
        },
        {
            "positions": [
                0.1878451079841388,
                -1.073432664150142,
                0.6762579025932467,
                -0.8130350034820851,
                -0.8822675212195774,
                1.5638672330173073
            ]
        },
        {
            "positions": [
                0.16456441054987098,
                -1.0772615779711243,
                0.8042595863461072,
                -0.7997579097167461,
                -0.7909744313698923,
                1.69826110221227
            ]
        },
        {
            "positions": [
                0.14128371311560317,
                -1.0810904917921065,
                0.9322612700989676,
                -0.7864808159514072,
                -0.6996813415202072,
                1.8326549714072327
            ]
        },
        {
            "positions": [
                0.11800301568133537,
                -1.0849194056130886,
                1.060262953851828,
                -0.7732037221860681,
                -0.6083882516705222,
                1.9670488406021953
            ]
        },
        {
            "positions": [
                0.09472231824706756,
                -1.088748319434071,
                1.1882646376046886,
                -0.7599266284207291,
                -0.5170951618208371,
                2.101442709797158
            ]
        },
        {
            "positions": [
                0.0714416208127997,
                -1.0925772332550532,
                1.3162663213575492,
                -0.7466495346553901,
                -0.42580207197115194,
                2.235836578992121
            ]
        },
        {
            "positions": [
                0.048160923378531895,
                -1.0964061470760356,
                1.4442680051104098,
                -0.733372440890051,
                -0.33450898212146696,
                2.3702304481870833
            ]
        },
        {
            "positions": [
                0.024880225944264076,
                -1.1002350608970177,
                1.5722696888632701,
                -0.720095347124712,
                -0.24321589227178186,
                2.504624317382046
            ]
        },
        {
            "positions": [
                0.04915804725011613,
                -1.1082095499081297,
                1.668585663191154,
                -0.7196593154028185,
                -0.15069485232002866,
                2.6386120841488694
            ]
        },
        {
            "positions": [
                0.07343586855596818,
                -1.1161840389192415,
                1.764901637519038,
                -0.7192232836809249,
                -0.05817381236827543,
                2.772599850915692
            ]
        },
        {
            "positions": [
                0.09771368986182023,
                -1.1241585279303532,
                1.861217611846922,
                -0.7187872519590315,
                0.0343472275834778,
                2.9065876176825154
            ]
        },
        {
            "positions": [
                0.12199151116767229,
                -1.1321330169414652,
                1.9575335861748058,
                -0.7183512202371379,
                0.126868267535231,
                3.0405753844493386
            ]
        }
    ]
}