{
    "goal": {
        "global_pose": {
            "orientation": {
                "w": 0.005598929693374612,
                "x": 0.007748599140229565,
                "y": 0.7110244013736278,
                "z": -0.7031023480610252
            },
            "position": {
                "x": 0.1141497679147869,
                "y": -0.7141253447532654,
                "z": 0.3711530566215515
            }
        },
        "name": "move_to_auspresseinheit_B"
    },
    "id": "RRTstar_move_to_auspresseinheit_B_94",
    "joint_names": [
        "shoulder_pan_joint",
        "shoulder_lift_joint",
        "elbow_joint",
        "wrist_1_joint",
        "wrist_2_joint",
        "wrist_3_joint"
    ],
    "metrics": {
        "cart_traj_len": 0.5644512756902175,
        "distance_elbow_joint": 0.05926815562561649,
        "distance_shoulder_lift_joint": 0.29490420600532685,
        "distance_shoulder_pan_joint": 0.5788470542062345,
        "distance_wrist_1_joint": 0.31853044974021905,
        "distance_wrist_2_joint": 0.9868481225921386,
        "distance_wrist_3_joint": 0.00991273565365658,
        "smoothness": 0.0,
        "time": 5.001858796,
        "traj_len": 1.4994368022104807,
        "weighted_distance": 1.8903742400548265
    },
    "planner": "RRTstar",
    "start": {
        "state": {
            "elbow_joint": 2.0193083361928714,
            "shoulder_lift_joint": -1.1220246554650708,
            "shoulder_pan_joint": -1.0952077554168747,
            "wrist_1_joint": -0.8559753972642168,
            "wrist_2_joint": 0.4759566250798843,
            "wrist_3_joint": -3.1240929996934557
        }
    },
    "waypoints": [
        {
            "positions": [
                -1.0952077554168747,
                -1.1220246554650708,
                2.0193083361928714,
                -0.8559753972642168,
                0.4759566250798843,
                -3.1240929996934557
            ]
        },
        {
            "positions": [
                -1.191682264451247,
                -1.1711753564659586,
                2.0094303102552686,
                -0.8028869889741803,
                0.6404313121785741,
                -3.1224408770845127
            ]
        },
        {
            "positions": [
                -1.2881567734856194,
                -1.2203260574668464,
                1.9995522843176659,
                -0.7497985806841437,
                0.8049059992772638,
                -3.12078875447557
            ]
        },
        {
            "positions": [
                -1.384631282519992,
                -1.2694767584677342,
                1.989674258380063,
                -0.6967101723941073,
                0.9693806863759535,
                -3.1191366318666276
            ]
        },
        {
            "positions": [
                -1.4811057915543642,
                -1.318627459468622,
                1.9797962324424605,
                -0.6436217641040708,
                1.1338553734746433,
                -3.1174845092576846
            ]
        },
        {
            "positions": [
                -1.5775803005887368,
                -1.3677781604695098,
                1.9699182065048577,
                -0.5905333558140342,
                1.2983300605733332,
                -3.1158323866487416
            ]
        },
        {
            "positions": [
                -1.6740548096231092,
                -1.4169288614703976,
                1.960040180567255,
                -0.5374449475239977,
                1.462804747672023,
                -3.114180264039799
            ]
        }
    ]
}