{
    "goal": {
        "global_pose": {
            "orientation": {
                "w": 0.7031023480610252,
                "x": -0.7110244013736278,
                "y": 0.0077485991402295624,
                "z": 0.005598929693374583
            },
            "position": {
                "x": -0.8841497679147869,
                "y": 0.44412534475326537,
                "z": 0.3711530566215515
            }
        },
        "name": "move_to_auspresseinheit_D"
    },
    "id": "RRTstar_move_to_auspresseinheit_D_76",
    "joint_names": [
        "shoulder_pan_joint",
        "shoulder_lift_joint",
        "elbow_joint",
        "wrist_1_joint",
        "wrist_2_joint",
        "wrist_3_joint"
    ],
    "metrics": {
        "cart_traj_len": 0.3427991213072254,
        "distance_elbow_joint": 0.6321794226143866,
        "distance_shoulder_lift_joint": 0.11779631016479897,
        "distance_shoulder_pan_joint": 0.1334864371527948,
        "distance_wrist_1_joint": 0.5072311728969314,
        "distance_wrist_2_joint": 1.441877510088034,
        "distance_wrist_3_joint": 0.015612591701437584,
        "smoothness": 3.947459674368863e-16,
        "time": 5.000220114,
        "traj_len": 1.687656198583818,
        "weighted_distance": 2.197388748266047
    },
    "planner": "RRTstar",
    "start": {
        "state": {
            "elbow_joint": -1.8275523626775212,
            "shoulder_lift_joint": -2.126789852344167,
            "shoulder_pan_joint": -0.03513704404078235,
            "wrist_1_joint": -2.347782403156801,
            "wrist_2_joint": -1.6058999987535132,
            "wrist_3_joint": -3.0880379163319196
        }
    },
    "waypoints": [
        {
            "positions": [
                -0.03513704404078235,
                -2.126789852344167,
                -1.8275523626775212,
                -2.347782403156801,
                -1.6058999987535132,
                -3.0880379163319196
            ]
        },
        {
            "positions": [
                -0.0518228486848817,
                -2.1415143911147667,
                -1.7485299348507228,
                -2.411186299768917,
                -1.425665309992509,
                -3.0899894902945992
            ]
        },
        {
            "positions": [
                -0.06850865332898104,
                -2.1562389298853666,
                -1.6695075070239245,
                -2.4745901963810337,
                -1.2454306212315047,
                -3.091941064257279
            ]
        },
        {
            "positions": [
                -0.0851944579730804,
                -2.1709634686559665,
                -1.5904850791971261,
                -2.5379940929931504,
                -1.0651959324705005,
                -3.0938926382199585
            ]
        },
        {
            "positions": [
                -0.10188026261717975,
                -2.1856880074265663,
                -1.5114626513703278,
                -2.6013979896052666,
                -0.8849612437094961,
                -3.095844212182638
            ]
        },
        {
            "positions": [
                -0.1185660672612791,
                -2.200412546197166,
                -1.4324402235435296,
                -2.664801886217383,
                -0.7047265549484919,
                -3.0977957861453183
            ]
        },
        {
            "positions": [
                -0.13525187190537843,
                -2.215137084967766,
                -1.3534177957167313,
                -2.7282057828294994,
                -0.5244918661874876,
                -3.099747360107998
            ]
        },
        {
            "positions": [
                -0.1519376765494778,
                -2.229861623738366,
                -1.274395367889933,
                -2.791609679441616,
                -0.3442571774264833,
                -3.1016989340706775
            ]
        },
        {
            "positions": [
                -0.16862348119357715,
                -2.244586162508966,
                -1.1953729400631345,
                -2.8550135760537323,
                -0.16402248866547917,
                -3.103650508033357
            ]
        }
    ]
}