{
    "goal": {
        "global_pose": {
            "orientation": {
                "w": -0.00223480608172531,
                "x": 0.0024358444001904467,
                "y": 0.7094548369677653,
                "z": -0.704743149386269
            },
            "position": {
                "x": 0.6205249238014221,
                "y": -0.6371506643295288,
                "z": 0.19426114857196808
            }
        },
        "name": "move_to_magneteinheit_B"
    },
    "id": "RRTstar_move_to_magneteinheit_B_147",
    "joint_names": [
        "shoulder_pan_joint",
        "shoulder_lift_joint",
        "elbow_joint",
        "wrist_1_joint",
        "wrist_2_joint",
        "wrist_3_joint"
    ],
    "metrics": {
        "cart_traj_len": 1.4584612247261457,
        "distance_elbow_joint": 1.1717439723552479,
        "distance_shoulder_lift_joint": 1.666182563773161,
        "distance_shoulder_pan_joint": 1.6207883840135504,
        "distance_wrist_1_joint": 0.38853779761145546,
        "distance_wrist_2_joint": 1.8165590576351425,
        "distance_wrist_3_joint": 1.2051408082157733,
        "smoothness": 0.7714442718406935,
        "time": 5.016854540000001,
        "traj_len": 2.8051653397980543,
        "weighted_distance": 3.533317287660772
    },
    "planner": "RRTstar",
    "start": {
        "state": {
            "elbow_joint": 2.6216224122426386,
            "shoulder_lift_joint": -1.4174107377796124,
            "shoulder_pan_joint": 0.7066234856936794,
            "wrist_1_joint": 1.9546482284002225,
            "wrist_2_joint": -0.7096286983471962,
            "wrist_3_joint": 0.005740856962016249
        }
    },
    "waypoints": [
        {
            "positions": [
                0.7066234856936794,
                -1.4174107377796124,
                2.6216224122426386,
                1.9546482284002225,
                -0.7096286983471962,
                0.005740856962016249
            ]
        },
        {
            "positions": [
                0.6047581986455017,
                -1.4931197894004082,
                2.6394279022156293,
                1.9374443639824666,
                -0.6848665296955461,
                -0.09559223662397517
            ]
        },
        {
            "positions": [
                0.5028929115973242,
                -1.5688288410212041,
                2.6572333921886204,
                1.9202404995647104,
                -0.6601043610438958,
                -0.19692533020996658
            ]
        },
        {
            "positions": [
                0.4010276245491465,
                -1.644537892642,
                2.675038882161611,
                1.9030366351469545,
                -0.6353421923922457,
                -0.298258423795958
            ]
        },
        {
            "positions": [
                0.2991623375009689,
                -1.720246944262796,
                2.692844372134602,
                1.8858327707291986,
                -0.6105800237405955,
                -0.3995915173819494
            ]
        },
        {
            "positions": [
                0.19729705045279122,
                -1.795955995883592,
                2.710649862107593,
                1.8686289063114425,
                -0.5858178550889452,
                -0.5009246109679409
            ]
        },
        {
            "positions": [
                0.09543176340461357,
                -1.871665047504388,
                2.7284553520805837,
                1.8514250418936866,
                -0.5610556864372951,
                -0.6022577045539323
            ]
        },
        {
            "positions": [
                0.028125319289647913,
                -1.7908698305678288,
                2.657461283246097,
                1.870446015967348,
                -0.6722547561523111,
                -0.5624482214406107
            ]
        },
        {
            "positions": [
                -0.03918112482531774,
                -1.71007461363127,
                2.58646721441161,
                1.8894669900410093,
                -0.7834538258673273,
                -0.522638738327289
            ]
        },
        {
            "positions": [
                -0.10648756894028344,
                -1.6292793966947108,
                2.515473145577123,
                1.9084879641146706,
                -0.8946528955823434,
                -0.48282925521396736
            ]
        },
        {
            "positions": [
                -0.17379401305524905,
                -1.5484841797581517,
                2.444479076742636,
                1.927508938188332,
                -1.0058519652973594,
                -0.4430197721006457
            ]
        },
        {
            "positions": [
                -0.24110045717021472,
                -1.4676889628215926,
                2.3734850079081493,
                1.9465299122619932,
                -1.1170510350123755,
                -0.40321028898732403
            ]
        },
        {
            "positions": [
                -0.30840690128518045,
                -1.3868937458850334,
                2.3024909390736625,
                1.9655508863356546,
                -1.2282501047273917,
                -0.36340080587400236
            ]
        },
        {
            "positions": [
                -0.37571334540014606,
                -1.3060985289484746,
                2.2314968702391758,
                1.9845718604093157,
                -1.3394491744424077,
                -0.3235913227606807
            ]
        },
        {
            "positions": [
                -0.4430197895151117,
                -1.2253033120119154,
                2.160502801404689,
                2.003592834482977,
                -1.4506482441574238,
                -0.28378183964735904
            ]
        },
        {
            "positions": [
                -0.5103262336300773,
                -1.1445080950753566,
                2.089508732570202,
                2.0226138085566383,
                -1.5618473138724398,
                -0.24397235653403737
            ]
        },
        {
            "positions": [
                -0.577632677745043,
                -1.0637128781387974,
                2.018514663735715,
                2.0416347826303,
                -1.6730463835874558,
                -0.2041628734207157
            ]
        },
        {
            "positions": [
                -0.6449391218600087,
                -0.9829176612022383,
                1.9475205949012282,
                2.060655756703961,
                -1.784245453302472,
                -0.1643533903073941
            ]
        },
        {
            "positions": [
                -0.7122455659749745,
                -0.9021224442656792,
                1.8765265260667414,
                2.0796767307776225,
                -1.8954445230174883,
                -0.12454390719407238
            ]
        },
        {
            "positions": [
                -0.77955201008994,
                -0.8213272273291201,
                1.8055324572322546,
                2.0986977048512836,
                -2.0066435927325044,
                -0.08473442408075071
            ]
        },
        {
            "positions": [
                -0.8468584542049057,
                -0.7405320103925612,
                1.7345383883977679,
                2.1177186789249447,
                -2.1178426624475204,
                -0.04492494096742905
            ]
        },
        {
            "positions": [
                -0.9141648983198714,
                -0.6597367934560022,
                1.6635443195632809,
                2.1367396529986062,
                -2.2290417321625364,
                -0.0051154578541074405
            ]
        }
    ]
}