{
    "goal": {
        "global_pose": {
            "orientation": {
                "w": 0.5084816262002911,
                "x": -0.4908360881923452,
                "y": 0.5182115481033761,
                "z": -0.48164630358495003
            },
            "position": {
                "x": 0.5540239810943604,
                "y": -0.46912469901144505,
                "z": 0.16403168439865112
            }
        },
        "name": "move_to_storage_B"
    },
    "id": "RRTstar_move_to_storage_B_63",
    "joint_names": [
        "shoulder_pan_joint",
        "shoulder_lift_joint",
        "elbow_joint",
        "wrist_1_joint",
        "wrist_2_joint",
        "wrist_3_joint"
    ],
    "metrics": {
        "cart_traj_len": 0.7872514104568697,
        "distance_elbow_joint": 0.3516997582418919,
        "distance_shoulder_lift_joint": 0.4581204285176299,
        "distance_shoulder_pan_joint": 0.1811871403606885,
        "distance_wrist_1_joint": 2.994608402136727,
        "distance_wrist_2_joint": 2.7020343884054547,
        "distance_wrist_3_joint": 3.1340575312094,
        "smoothness": 4.605369609677941e-16,
        "time": 5.066241628,
        "traj_len": 3.133960377680578,
        "weighted_distance": 4.667597401429645
    },
    "planner": "RRTstar",
    "start": {
        "state": {
            "elbow_joint": 1.664937868594044,
            "shoulder_lift_joint": -0.661644460510453,
            "shoulder_pan_joint": -0.9139846352900073,
            "wrist_1_joint": 2.146753192139373,
            "wrist_2_joint": -2.2341966793290973,
            "wrist_3_joint": 0.005466555786416001
        }
    },
    "waypoints": [
        {
            "positions": [
                -0.9139846352900073,
                -0.661644460510453,
                1.664937868594044,
                2.146753192139373,
                -2.2341966793290973,
                0.005466555786416001
            ]
        },
        {
            "positions": [
                -0.9196419250331508,
                -0.7019094959662161,
                1.6915431075242109,
                2.0352834462138256,
                -2.171512679480148,
                -0.1132342140350973
            ]
        },
        {
            "positions": [
                -0.9252992147762942,
                -0.7421745314219792,
                1.718148346454378,
                1.9238137002882776,
                -2.1088286796311984,
                -0.2319349838566106
            ]
        },
        {
            "positions": [
                -0.9309565045194377,
                -0.7824395668777423,
                1.744753585384545,
                1.8123439543627298,
                -2.046144679782249,
                -0.3506357536781239
            ]
        },
        {
            "positions": [
                -0.9366137942625812,
                -0.8227046023335054,
                1.771358824314712,
                1.700874208437182,
                -1.9834606799332999,
                -0.46933652349963717
            ]
        },
        {
            "positions": [
                -0.9422710840057246,
                -0.8629696377892686,
                1.7979640632448792,
                1.5894044625116341,
                -1.9207766800843502,
                -0.5880372933211506
            ]
        },
        {
            "positions": [
                -0.9479283737488681,
                -0.9032346732450316,
                1.8245693021750462,
                1.4779347165860863,
                -1.858092680235401,
                -0.7067380631426639
            ]
        },
        {
            "positions": [
                -0.9535856634920116,
                -0.9434997087007948,
                1.8511745411052132,
                1.3664649706605385,
                -1.7954086803864515,
                -0.8254388329641772
            ]
        },
        {
            "positions": [
                -0.959242953235155,
                -0.9837647441565578,
                1.8777797800353804,
                1.2549952247349907,
                -1.7327246805375023,
                -0.9441396027856904
            ]
        },
        {
            "positions": [
                -0.9649002429782985,
                -1.024029779612321,
                1.9043850189655473,
                1.1435254788094429,
                -1.6700406806885528,
                -1.0628403726072038
            ]
        },
        {
            "positions": [
                -0.9725632743119689,
                -1.0296612566367775,
                1.9109881135461584,
                1.026385438291396,
                -1.5442831283494405,
                -1.1843551139493085
            ]
        },
        {
            "positions": [
                -0.9802263056456393,
                -1.035292733661234,
                1.9175912081267694,
                0.909245397773349,
                -1.4185255760103281,
                -1.3058698552914132
            ]
        },
        {
            "positions": [
                -0.9878893369793098,
                -1.0409242106856909,
                1.9241943027073807,
                0.7921053572553021,
                -1.2927680236712158,
                -1.427384596633518
            ]
        },
        {
            "positions": [
                -0.9955523683129802,
                -1.0465556877101474,
                1.9307973972879917,
                0.6749653167372551,
                -1.1670104713321034,
                -1.5488993379756226
            ]
        },
        {
            "positions": [
                -1.0032153996466506,
                -1.052187164734604,
                1.9374004918686027,
                0.5578252762192082,
                -1.041252918992991,
                -1.6704140793177276
            ]
        },
        {
            "positions": [
                -1.0108784309803212,
                -1.0578186417590605,
                1.9440035864492138,
                0.44068523570116125,
                -0.9154953666538785,
                -1.791928820659832
            ]
        },
        {
            "positions": [
                -1.0185414623139915,
                -1.063450118783517,
                1.950606681029825,
                0.3235451951831144,
                -0.7897378143147663,
                -1.9134435620019368
            ]
        },
        {
            "positions": [
                -1.026204493647662,
                -1.0690815958079736,
                1.957209775610436,
                0.20640515466506748,
                -0.6639802619756539,
                -2.0349583033440415
            ]
        },
        {
            "positions": [
                -1.0338675249813323,
                -1.0747130728324303,
                1.963812870191047,
                0.08926511414702043,
                -0.5382227096365415,
                -2.1564730446861464
            ]
        },
        {
            "positions": [
                -1.0415305563150028,
                -1.0803445498568869,
                1.9704159647716581,
                -0.02787492637102651,
                -0.41246515729742916,
                -2.277987786028251
            ]
        },
        {
            "positions": [
                -1.049193587648673,
                -1.0859760268813434,
                1.9770190593522694,
                -0.14501496688907345,
                -0.2867076049583166,
                -2.399502527370356
            ]
        },
        {
            "positions": [
                -1.0568566189823436,
                -1.0916075039058,
                1.9836221539328804,
                -0.2621550074071204,
                -0.16095005261920425,
                -2.521017268712461
            ]
        },
        {
            "positions": [
                -1.0645196503160141,
                -1.0972389809302565,
                1.9902252485134915,
                -0.3792950479251671,
                -0.03519250028009213,
                -2.6425320100545653
            ]
        },
        {
            "positions": [
                -1.0721826816496844,
                -1.102870457954713,
                1.9968283430941025,
                -0.49643508844321405,
                0.09056505205902021,
                -2.7640467513966698
            ]
        },
        {
            "positions": [
                -1.079845712983355,
                -1.1085019349791698,
                2.0034314376747138,
                -0.613575128961261,
                0.21632260439813278,
                -2.8855614927387747
            ]
        },
        {
            "positions": [
                -1.0875087443170253,
                -1.1141334120036264,
                2.010034532255325,
                -0.7307151694793079,
                0.3420801567372451,
                -3.0070762340808797
            ]
        },
        {
            "positions": [
                -1.0951717756506958,
                -1.119764889028083,
                2.016637626835936,
                -0.8478552099973548,
                0.4678377090763573,
                -3.128590975422984
            ]
        }
    ]
}