{
    "goal": {
        "global_pose": {
            "orientation": {
                "w": 0.7047431468963623,
                "x": -0.7094548344612122,
                "y": 0.0024358443915843964,
                "z": -0.0022348060738295317
            },
            "position": {
                "x": 0.6094750761985779,
                "y": 0.3671506643295288,
                "z": 0.19426114857196808
            }
        },
        "name": "move_to_magneteinheit_A"
    },
    "id": "RRTstar_move_to_magneteinheit_A_84",
    "joint_names": [
        "shoulder_pan_joint",
        "shoulder_lift_joint",
        "elbow_joint",
        "wrist_1_joint",
        "wrist_2_joint",
        "wrist_3_joint"
    ],
    "metrics": {
        "cart_traj_len": 3.4930000484370067,
        "distance_elbow_joint": 3.8834157569907197,
        "distance_shoulder_lift_joint": 0.19084604211944467,
        "distance_shoulder_pan_joint": 3.019741568916016,
        "distance_wrist_1_joint": 0.8000424035883666,
        "distance_wrist_2_joint": 1.6928251527544396,
        "distance_wrist_3_joint": 2.6136882844719014,
        "smoothness": 0.0373844900730586,
        "time": 5.046956356,
        "traj_len": 3.492929888910009,
        "weighted_distance": 4.463272715634515
    },
    "planner": "RRTstar",
    "start": {
        "state": {
            "elbow_joint": -1.9196185241190666,
            "shoulder_lift_joint": -1.2443396400964142,
            "shoulder_pan_joint": 2.6996025414629847,
            "wrist_1_joint": -1.5485510000780065,
            "wrist_2_joint": -1.5709468930060704,
            "wrist_3_joint": 0.4420197071253992
        }
    },
    "waypoints": [
        {
            "positions": [
                2.6996025414629847,
                -1.2443396400964142,
                -1.9196185241190666,
                -1.5485510000780065,
                -1.5709468930060704,
                0.4420197071253992
            ]
        },
        {
            "positions": [
                2.544111120158886,
                -1.2360042249504992,
                -1.8185024141683872,
                -1.5465806887847082,
                -1.5435613780410882,
                0.522409106530568
            ]
        },
        {
            "positions": [
                2.3886196988547876,
                -1.2276688098045843,
                -1.7173863042177078,
                -1.54461037749141,
                -1.5161758630761062,
                0.6027985059357368
            ]
        },
        {
            "positions": [
                2.233128277550689,
                -1.219333394658669,
                -1.6162701942670286,
                -1.5426400661981114,
                -1.488790348111124,
                0.6831879053409057
            ]
        },
        {
            "positions": [
                2.07763685624659,
                -1.2109979795127541,
                -1.5151540843163491,
                -1.5406697549048132,
                -1.461404833146142,
                0.7635773047460745
            ]
        },
        {
            "positions": [
                1.9221454349424916,
                -1.2026625643668392,
                -1.4140379743656697,
                -1.538699443611515,
                -1.4340193181811598,
                0.8439667041512433
            ]
        },
        {
            "positions": [
                1.766654013638393,
                -1.1943271492209242,
                -1.3129218644149905,
                -1.5367291323182166,
                -1.4066338032161776,
                0.9243561035564122
            ]
        },
        {
            "positions": [
                1.6111625923342945,
                -1.185991734075009,
                -1.211805754464311,
                -1.5347588210249181,
                -1.3792482882511956,
                1.004745502961581
            ]
        },
        {
            "positions": [
                1.455671171030196,
                -1.177656318929094,
                -1.1106896445136316,
                -1.5327885097316198,
                -1.3518627732862134,
                1.0851349023667498
            ]
        },
        {
            "positions": [
                1.3001797497260972,
                -1.169320903783179,
                -1.0095735345629522,
                -1.5308181984383216,
                -1.3244772583212314,
                1.1655243017719186
            ]
        },
        {
            "positions": [
                1.1446883284219984,
                -1.1609854886372641,
                -0.9084574246122727,
                -1.5288478871450233,
                -1.2970917433562492,
                1.2459137011770876
            ]
        },
        {
            "positions": [
                0.9891969071178999,
                -1.152650073491349,
                -0.8073413146615933,
                -1.526877575851725,
                -1.269706228391267,
                1.3263031005822565
            ]
        },
        {
            "positions": [
                0.8337054858138013,
                -1.144314658345434,
                -0.7062252047109141,
                -1.5249072645584265,
                -1.242320713426285,
                1.4066924999874253
            ]
        },
        {
            "positions": [
                0.6782140645097026,
                -1.135979243199519,
                -0.6051090947602347,
                -1.5229369532651282,
                -1.2149351984613028,
                1.487081899392594
            ]
        },
        {
            "positions": [
                0.5227226432056042,
                -1.127643828053604,
                -0.5039929848095552,
                -1.52096664197183,
                -1.1875496834963206,
                1.5674712987977628
            ]
        },
        {
            "positions": [
                0.3672312219015055,
                -1.1193084129076891,
                -0.4028768748588758,
                -1.5189963306785317,
                -1.1601641685313386,
                1.6478606982029316
            ]
        },
        {
            "positions": [
                0.21173980059740716,
                -1.110972997761774,
                -0.3017607649081966,
                -1.5170260193852332,
                -1.1327786535663564,
                1.7282500976081003
            ]
        },
        {
            "positions": [
                0.05624837929330839,
                -1.102637582615859,
                -0.20064465495751715,
                -1.515055708091935,
                -1.1053931386013744,
                1.8086394970132695
            ]
        },
        {
            "positions": [
                -0.09924304201079047,
                -1.094302167469944,
                -0.09952854500683773,
                -1.5130853967986366,
                -1.0780076236363922,
                1.889028896418438
            ]
        },
        {
            "positions": [
                -0.08769061354684024,
                -1.097389483041012,
                0.045963105102133237,
                -1.4634510582203664,
                -0.9992658021040859,
                1.9679336209199947
            ]
        },
        {
            "positions": [
                -0.07613818508289001,
                -1.1004767986120803,
                0.19145475521110422,
                -1.4138167196420963,
                -0.9205239805717794,
                2.046838345421551
            ]
        },
        {
            "positions": [
                -0.06458575661893978,
                -1.1035641141831483,
                0.3369464053200752,
                -1.364182381063826,
                -0.841782159039473,
                2.1257430699231077
            ]
        },
        {
            "positions": [
                -0.05303332815498955,
                -1.1066514297542163,
                0.48243805542904616,
                -1.3145480424855558,
                -0.7630403375071666,
                2.2046477944246643
            ]
        },
        {
            "positions": [
                -0.04148089969103932,
                -1.1097387453252845,
                0.6279297055380172,
                -1.2649137039072857,
                -0.6842985159748602,
                2.283552518926221
            ]
        },
        {
            "positions": [
                -0.029928471227089082,
                -1.1128260608963525,
                0.7734213556469881,
                -1.2152793653290155,
                -0.6055566944425538,
                2.3624572434277775
            ]
        },
        {
            "positions": [
                -0.018376042763138867,
                -1.1159133764674205,
                0.9189130057559589,
                -1.1656450267507452,
                -0.5268148729102474,
                2.441361967929334
            ]
        },
        {
            "positions": [
                -0.006823614299188624,
                -1.1190006920384885,
                1.06440465586493,
                -1.1160106881724752,
                -0.44807305137794096,
                2.5202666924308907
            ]
        },
        {
            "positions": [
                0.004728814164761605,
                -1.1220880076095567,
                1.209896305973901,
                -1.066376349594205,
                -0.3693312298456346,
                2.599171416932447
            ]
        },
        {
            "positions": [
                0.016281242628711834,
                -1.1251753231806247,
                1.355387956082872,
                -1.0167420110159346,
                -0.29058940831332813,
                2.678076141434004
            ]
        },
        {
            "positions": [
                0.027833671092662063,
                -1.1282626387516927,
                1.5008796061918428,
                -0.9671076724376646,
                -0.21184758678102178,
                2.75698086593556
            ]
        },
        {
            "positions": [
                0.039386099556612306,
                -1.131349954322761,
                1.646371256300814,
                -0.9174733338593943,
                -0.1331057652487153,
                2.8358855904371167
            ]
        },
        {
            "positions": [
                0.05093852802056252,
                -1.134437269893829,
                1.7918629064097849,
                -0.8678389952811242,
                -0.05436394371640889,
                2.9147903149386734
            ]
        },
        {
            "positions": [
                0.08629573572600702,
                -1.1347740034283738,
                1.8778300696407193,
                -0.8081737958853821,
                0.0337571580159801,
                2.9852491532679872
            ]
        },
        {
            "positions": [
                0.12165294343145151,
                -1.1351107369629185,
                1.9637972328716535,
                -0.7485085964896399,
                0.12187825974836909,
                3.0557079915973007
            ]
        }
    ]
}