{
    "goal": {
        "global_pose": {
            "orientation": {
                "w": 0.7047431468963623,
                "x": -0.7094548344612122,
                "y": 0.0024358443915843964,
                "z": -0.0022348060738295317
            },
            "position": {
                "x": 0.6094750761985779,
                "y": 0.3671506643295288,
                "z": 0.19426114857196808
            }
        },
        "name": "move_to_magneteinheit_A"
    },
    "id": "RRTstar_move_to_magneteinheit_A_50",
    "joint_names": [
        "shoulder_pan_joint",
        "shoulder_lift_joint",
        "elbow_joint",
        "wrist_1_joint",
        "wrist_2_joint",
        "wrist_3_joint"
    ],
    "metrics": {
        "cart_traj_len": 3.423468627286239,
        "distance_elbow_joint": 3.9156161789178494,
        "distance_shoulder_lift_joint": 0.4660804130794578,
        "distance_shoulder_pan_joint": 3.4242243015961815,
        "distance_wrist_1_joint": 3.47183028463129,
        "distance_wrist_2_joint": 1.5624327269038816,
        "distance_wrist_3_joint": 0.5047736945219252,
        "smoothness": 0.184035056234135,
        "time": 5.017675037,
        "traj_len": 3.6530750881484195,
        "weighted_distance": 4.403267877409867
    },
    "planner": "RRTstar",
    "start": {
        "state": {
            "elbow_joint": -1.9196185241190666,
            "shoulder_lift_joint": -1.2443396400964142,
            "shoulder_pan_joint": 2.6996025414629847,
            "wrist_1_joint": -1.5485510000780065,
            "wrist_2_joint": -1.5709468930060704,
            "wrist_3_joint": 0.4420197071253992
        }
    },
    "waypoints": [
        {
            "positions": [
                2.6996025414629847,
                -1.2443396400964142,
                -1.9196185241190666,
                -1.5485510000780065,
                -1.5709468930060704,
                0.4420197071253992
            ]
        },
        {
            "positions": [
                2.543962838142979,
                -1.2441110203655896,
                -1.8101523207991572,
                -1.4913322708829744,
                -1.526356657212254,
                0.44462728987600186
            ]
        },
        {
            "positions": [
                2.3883231348229734,
                -1.243882400634765,
                -1.700686117479248,
                -1.434113541687942,
                -1.4817664214184374,
                0.4472348726266045
            ]
        },
        {
            "positions": [
                2.2326834315029678,
                -1.2436537809039405,
                -1.5912199141593386,
                -1.37689481249291,
                -1.437176185624621,
                0.4498424553772072
            ]
        },
        {
            "positions": [
                2.0770437281829626,
                -1.243425161173116,
                -1.4817537108394294,
                -1.3196760832978776,
                -1.3925859498308046,
                0.4524500381278098
            ]
        },
        {
            "positions": [
                1.921404024862957,
                -1.2431965414422914,
                -1.37228750751952,
                -1.2624573541028454,
                -1.3479957140369883,
                0.4550576208784125
            ]
        },
        {
            "positions": [
                1.7657643215429513,
                -1.2429679217114669,
                -1.2628213041996106,
                -1.205238624907813,
                -1.3034054782431719,
                0.45766520362901514
            ]
        },
        {
            "positions": [
                1.6101246182229456,
                -1.2427393019806425,
                -1.1533551008797014,
                -1.148019895712781,
                -1.2588152424493555,
                0.4602727863796178
            ]
        },
        {
            "positions": [
                1.45448491490294,
                -1.242510682249818,
                -1.0438888975597922,
                -1.0908011665177488,
                -1.214225006655539,
                0.46288036913022046
            ]
        },
        {
            "positions": [
                1.2988452115829345,
                -1.2422820625189934,
                -0.9344226942398829,
                -1.0335824373227167,
                -1.1696347708617225,
                0.46548795188082315
            ]
        },
        {
            "positions": [
                1.1432055082629289,
                -1.2420534427881689,
                -0.8249564909199734,
                -0.9763637081276844,
                -1.125044535067906,
                0.4680955346314258
            ]
        },
        {
            "positions": [
                0.9875658049429232,
                -1.2418248230573443,
                -0.7154902876000642,
                -0.9191449789326522,
                -1.0804542992740895,
                0.47070311738202847
            ]
        },
        {
            "positions": [
                0.8319261016229176,
                -1.2415962033265198,
                -0.6060240842801548,
                -0.8619262497376199,
                -1.0358640634802732,
                0.4733107001326311
            ]
        },
        {
            "positions": [
                0.6762863983029124,
                -1.2413675835956952,
                -0.49655788096024556,
                -0.8047075205425878,
                -0.9912738276864568,
                0.4759182828832338
            ]
        },
        {
            "positions": [
                0.6274403955023863,
                -1.219283147925209,
                -0.37953559110068114,
                -0.6704977835744819,
                -0.9452253228702698,
                0.4659427153783944
            ]
        },
        {
            "positions": [
                0.5785943927018603,
                -1.1971987122547232,
                -0.2625133012411167,
                -0.5362880466063759,
                -0.8991768180540829,
                0.45596714787355497
            ]
        },
        {
            "positions": [
                0.5297483899013342,
                -1.175114276584237,
                -0.14549101138155235,
                -0.40207830963826996,
                -0.8531283132378961,
                0.44599158036871556
            ]
        },
        {
            "positions": [
                0.4809023871008082,
                -1.1530298409137512,
                -0.028468721521987927,
                -0.26786857267016395,
                -0.8070798084217091,
                0.43601601286387615
            ]
        },
        {
            "positions": [
                0.43205638430028215,
                -1.130945405243265,
                0.08855356833757644,
                -0.13365883570205805,
                -0.7610313036055222,
                0.42604044535903673
            ]
        },
        {
            "positions": [
                0.3832103814997561,
                -1.1088609695727791,
                0.20557585819714086,
                0.000550901266047843,
                -0.7149827987893353,
                0.4160648778541973
            ]
        },
        {
            "positions": [
                0.3343643786992301,
                -1.086776533902293,
                0.32259814805670517,
                0.13476063823415374,
                -0.6689342939731484,
                0.4060893103493579
            ]
        },
        {
            "positions": [
                0.285518375898704,
                -1.064692098231807,
                0.4396204379162697,
                0.26897037520225986,
                -0.6228857891569615,
                0.3961137428445185
            ]
        },
        {
            "positions": [
                0.23667237309817796,
                -1.042607662561321,
                0.5566427277758341,
                0.40318011217036576,
                -0.5768372843407745,
                0.3861381753396791
            ]
        },
        {
            "positions": [
                0.18782637029765192,
                -1.020523226890835,
                0.6736650176353984,
                0.5373898491384717,
                -0.5307887795245876,
                0.3761626078348397
            ]
        },
        {
            "positions": [
                0.13898036749712583,
                -0.998438791220349,
                0.790687307494963,
                0.6715995861065778,
                -0.48474027470840064,
                0.3661870403300002
            ]
        },
        {
            "positions": [
                0.09013436469659986,
                -0.976354355549863,
                0.9077095973545273,
                0.8058093230746834,
                -0.4386917698922138,
                0.35621147282516086
            ]
        },
        {
            "positions": [
                0.041288361896073766,
                -0.9542699198793769,
                1.0247318872140916,
                0.9400190600427896,
                -0.39264326507602676,
                0.34623590532032145
            ]
        },
        {
            "positions": [
                -0.007557640904452212,
                -0.932185484208891,
                1.141754177073656,
                1.0742287970108952,
                -0.34659476025983993,
                0.33626033781548204
            ]
        },
        {
            "positions": [
                -0.0564036437049783,
                -0.9101010485384049,
                1.2587764669332204,
                1.2084385339790011,
                -0.300546255443653,
                0.32628477031064257
            ]
        },
        {
            "positions": [
                -0.10524964650550439,
                -0.8880166128679189,
                1.375798756792785,
                1.3426482709471075,
                -0.25449775062746605,
                0.31630920280580316
            ]
        },
        {
            "positions": [
                -0.15409564930603037,
                -0.8659321771974329,
                1.4928210466523493,
                1.4768580079152134,
                -0.20844924581127922,
                0.30633363530096375
            ]
        },
        {
            "positions": [
                -0.20294165210655646,
                -0.8438477415269469,
                1.6098433365119138,
                1.6110677448833193,
                -0.16240074099509216,
                0.29635806779612434
            ]
        },
        {
            "positions": [
                -0.25178765490708244,
                -0.8217633058564608,
                1.7268656263714781,
                1.7452774818514252,
                -0.11635223617890533,
                0.2863825002912849
            ]
        },
        {
            "positions": [
                -0.30063365770760847,
                -0.7996788701859748,
                1.8438879162310422,
                1.879487218819531,
                -0.07030373136271845,
                0.2764069327864455
            ]
        },
        {
            "positions": [
                -0.15930429023241358,
                -0.7925389891296354,
                1.8945911624202891,
                1.894084574064115,
                -0.09090025311622832,
                0.18595234323067805
            ]
        },
        {
            "positions": [
                -0.01797492275721868,
                -0.7853991080732958,
                1.945294408609536,
                1.908681929308699,
                -0.1114967748697382,
                0.09549775367491059
            ]
        },
        {
            "positions": [
                0.12335444471797627,
                -0.7782592270169564,
                1.995997654798783,
                1.923279284553283,
                -0.1320932966232481,
                0.005043164119143135
            ]
        }
    ]
}