{
    "goal": {
        "global_pose": {
            "orientation": {
                "w": 0.5084816217422485,
                "x": -0.49083608388900757,
                "y": 0.5182115435600281,
                "z": -0.4816462993621826
            },
            "position": {
                "x": 0.5540239810943604,
                "y": 0.030875300988554955,
                "z": 0.16403168439865112
            }
        },
        "name": "move_to_storage_A"
    },
    "id": "RRTstar_move_to_storage_A_149",
    "joint_names": [
        "shoulder_pan_joint",
        "shoulder_lift_joint",
        "elbow_joint",
        "wrist_1_joint",
        "wrist_2_joint",
        "wrist_3_joint"
    ],
    "metrics": {
        "cart_traj_len": 0.3533587474676406,
        "distance_elbow_joint": 0.4494651833888119,
        "distance_shoulder_lift_joint": 0.23473131871392527,
        "distance_shoulder_pan_joint": 0.46179432101422474,
        "distance_wrist_1_joint": 0.24120774318567106,
        "distance_wrist_2_joint": 1.1005349883268816,
        "distance_wrist_3_joint": 0.09193492225060274,
        "smoothness": 4.440892133664971e-16,
        "time": 5.001657015999999,
        "traj_len": 1.6061346384659405,
        "weighted_distance": 2.0261493165346613
    },
    "planner": "RRTstar",
    "start": {
        "state": {
            "elbow_joint": 1.971548259319323,
            "shoulder_lift_joint": -1.1394851275133948,
            "shoulder_pan_joint": 0.1228115487234821,
            "wrist_1_joint": -0.7804723859257726,
            "wrist_2_joint": 0.12958671773740124,
            "wrist_3_joint": -3.192489227718131
        }
    },
    "waypoints": [
        {
            "positions": [
                0.1228115487234821,
                -1.1394851275133948,
                1.971548259319323,
                -0.7804723859257726,
                0.12958671773740124,
                -3.192489227718131
            ]
        },
        {
            "positions": [
                0.05684093143573571,
                -1.1730181730439555,
                2.0357575712320104,
                -0.814930634952297,
                0.2868060017840986,
                -3.1793556673966163
            ]
        },
        {
            "positions": [
                -0.009129685852010683,
                -1.2065512185745164,
                2.099966883144698,
                -0.8493888839788215,
                0.4440252858307959,
                -3.166222107075102
            ]
        },
        {
            "positions": [
                -0.07510030313975707,
                -1.240084264105077,
                2.1641761950573852,
                -0.8838471330053459,
                0.6012445698774933,
                -3.153088546753587
            ]
        },
        {
            "positions": [
                -0.14107092042750347,
                -1.2736173096356378,
                2.2283855069700724,
                -0.9183053820318704,
                0.7584638539241907,
                -3.1399549864320724
            ]
        },
        {
            "positions": [
                -0.20704153771524986,
                -1.3071503551661987,
                2.29259481888276,
                -0.9527636310583948,
                0.9156831379708881,
                -3.1268214261105576
            ]
        },
        {
            "positions": [
                -0.27301215500299625,
                -1.3406834006967594,
                2.3568041307954477,
                -0.9872218800849193,
                1.0729024220175853,
                -3.113687865789043
            ]
        },
        {
            "positions": [
                -0.33898277229074264,
                -1.37421644622732,
                2.421013442708135,
                -1.0216801291114437,
                1.2301217060642828,
                -3.1005543054675284
            ]
        }
    ]
}{
    "goal": {
        "global_pose": {
            "orientation": {
                "w": 0.5084816217422485,
                "x": -0.49083608388900757,
                "y": 0.5182115435600281,
                "z": -0.4816462993621826
            },
            "position": {
                "x": 0.5540239810943604,
                "y": 0.030875300988554955,
                "z": 0.16403168439865112
            }
        },
        "name": "move_to_storage_A"
    },
    "id": "RRTstar_move_to_storage_A_149",
    "joint_names": [
        "shoulder_pan_joint",
        "shoulder_lift_joint",
        "elbow_joint",
        "wrist_1_joint",
        "wrist_2_joint",
        "wrist_3_joint"
    ],
    "metrics": {
        "cart_traj_len": 0.3521364050662977,
        "distance_elbow_joint": 0.4487618547950918,
        "distance_shoulder_lift_joint": 0.23499684960617895,
        "distance_shoulder_pan_joint": 0.46055867334318557,
        "distance_wrist_1_joint": 0.23874820221017945,
        "distance_wrist_2_joint": 1.09664060292125,
        "distance_wrist_3_joint": 0.09427542460908223,
        "smoothness": 8.881784232165597e-16,
        "time": 5.000965945,
        "traj_len": 1.604363302835417,
        "weighted_distance": 2.024332300249779
    },
    "planner": "RRTstar",
    "start": {
        "state": {
            "elbow_joint": 1.97154746011099,
            "shoulder_lift_joint": -1.13948474672311,
            "shoulder_pan_joint": 0.12281154466712228,
            "wrist_1_joint": -0.7804688027058302,
            "wrist_2_joint": 0.12958655903071145,
            "wrist_3_joint": 3.0906928834467795
        }
    },
    "waypoints": [
        {
            "positions": [
                0.12281154466712228,
                -1.13948474672311,
                1.97154746011099,
                -0.7804688027058302,
                0.12958655903071145,
                3.0906928834467795
            ]
        },
        {
            "positions": [
                0.05701744847523864,
                -1.1730557252382783,
                2.0356562965102887,
                -0.8145756887358558,
                0.28624950230517576,
                3.104160801248077
            ]
        },
        {
            "positions": [
                -0.008776647716645006,
                -1.2066267037534468,
                2.0997651329095874,
                -0.8486825747658815,
                0.44291244557964005,
                3.1176287190493746
            ]
        },
        {
            "positions": [
                -0.07457074390852865,
                -1.2401976822686152,
                2.163873969308886,
                -0.882789460795907,
                0.5995753888541043,
                3.131096636850672
            ]
        },
        {
            "positions": [
                -0.14036484010041228,
                -1.2737686607837837,
                2.2279828057081854,
                -0.9168963468259327,
                0.7562383321285686,
                3.144564554651969
            ]
        },
        {
            "positions": [
                -0.20615893629229598,
                -1.307339639298952,
                2.292091642107484,
                -0.9510032328559583,
                0.912901275403033,
                3.1580324724532667
            ]
        },
        {
            "positions": [
                -0.27195303248417957,
                -1.3409106178141204,
                2.356200478506783,
                -0.985110118885984,
                1.0695642186774972,
                3.171500390254564
            ]
        },
        {
            "positions": [
                -0.33774712867606327,
                -1.374481596329289,
                2.4203093149060817,
                -1.0192170049160096,
                1.2262271619519616,
                3.1849683080558617
            ]
        }
    ]
}{
    "goal": {
        "global_pose": {
            "orientation": {
                "w": 0.5084816217422485,
                "x": -0.49083608388900757,
                "y": 0.5182115435600281,
                "z": -0.4816462993621826
            },
            "position": {
                "x": 0.5540239810943604,
                "y": 0.030875300988554955,
                "z": 0.16403168439865112
            }
        },
        "name": "move_to_storage_A"
    },
    "id": "RRTstar_move_to_storage_A_149",
    "joint_names": [
        "shoulder_pan_joint",
        "shoulder_lift_joint",
        "elbow_joint",
        "wrist_1_joint",
        "wrist_2_joint",
        "wrist_3_joint"
    ],
    "metrics": {
        "cart_traj_len": 0.35338097468223356,
        "distance_elbow_joint": 0.4479430868476042,
        "distance_shoulder_lift_joint": 0.23296372691800848,
        "distance_shoulder_pan_joint": 0.45811641141865583,
        "distance_wrist_1_joint": 0.23704490420203084,
        "distance_wrist_2_joint": 1.1155851522193911,
        "distance_wrist_3_joint": 0.09207803984615115,
        "smoothness": 0.0,
        "time": 5.0004773579999995,
        "traj_len": 1.6073989304002418,
        "weighted_distance": 2.0299057755387477
    },
    "planner": "RRTstar",
    "start": {
        "state": {
            "elbow_joint": 1.9715472970024885,
            "shoulder_lift_joint": -1.1394870060712896,
            "shoulder_pan_joint": 0.12281152778156021,
            "wrist_1_joint": -0.780463741449964,
            "wrist_2_joint": 0.12958659822042276,
            "wrist_3_joint": 3.090690232415272
        }
    },
    "waypoints": [
        {
            "positions": [
                0.12281152778156021,
                -1.1394870060712896,
                1.9715472970024885,
                -0.780463741449964,
                0.12958659822042276,
                3.090690232415272
            ]
        },
        {
            "positions": [
                0.05736632615032368,
                -1.172767538488148,
                2.0355391665521463,
                -0.8143272991931113,
                0.2889559056803358,
                3.103844238107579
            ]
        },
        {
            "positions": [
                -0.00807887548091285,
                -1.2060480709050063,
                2.099531036101804,
                -0.8481908569362585,
                0.44832521314024876,
                3.1169982437998867
            ]
        },
        {
            "positions": [
                -0.0735240771121494,
                -1.2393286033218647,
                2.1635229056514618,
                -0.8820544146794058,
                0.6076945206001618,
                3.130152249492194
            ]
        },
        {
            "positions": [
                -0.1389692787433859,
                -1.272609135738723,
                2.2275147752011195,
                -0.915917972422553,
                0.7670638280600748,
                3.143306255184501
            ]
        },
        {
            "positions": [
                -0.20441448037462248,
                -1.3058896681555814,
                2.2915066447507773,
                -0.9497815301657003,
                0.9264331355199878,
                3.156460260876808
            ]
        },
        {
            "positions": [
                -0.26985968200585897,
                -1.3391702005724397,
                2.355498514300435,
                -0.9836450879088475,
                1.085802442979901,
                3.169614266569116
            ]
        },
        {
            "positions": [
                -0.3353048836370956,
                -1.372450732989298,
                2.4194903838500927,
                -1.0175086456519948,
                1.2451717504398139,
                3.182768272261423
            ]
        }
    ]
}