{
    "goal": {
        "global_pose": {
            "orientation": {
                "w": -0.4816463035849501,
                "x": 0.5182115481033762,
                "y": 0.4908360881923453,
                "z": -0.5084816262002911
            },
            "position": {
                "x": -0.8240239810943604,
                "y": -0.300875300988555,
                "z": 0.16403168439865112
            }
        },
        "name": "move_to_storage_C"
    },
    "id": "RRTstar_move_to_storage_C_149",
    "joint_names": [
        "shoulder_pan_joint",
        "shoulder_lift_joint",
        "elbow_joint",
        "wrist_1_joint",
        "wrist_2_joint",
        "wrist_3_joint"
    ],
    "metrics": {
        "cart_traj_len": 0.5763915984778387,
        "distance_elbow_joint": 0.2574272627424923,
        "distance_shoulder_lift_joint": 0.19026519832290656,
        "distance_shoulder_pan_joint": 0.49390783175904174,
        "distance_wrist_1_joint": 0.07014315722265363,
        "distance_wrist_2_joint": 1.0666880648699717,
        "distance_wrist_3_joint": 0.0620233643121737,
        "smoothness": 0.0,
        "time": 5.013692442,
        "traj_len": 1.4630293500915283,
        "weighted_distance": 1.8442702703091574
    },
    "planner": "RRTstar",
    "start": {
        "state": {
            "elbow_joint": 2.010868314990456,
            "shoulder_lift_joint": -1.1634956873337592,
            "shoulder_pan_joint": -2.4736205022346125,
            "wrist_1_joint": -0.8367026794202681,
            "wrist_2_joint": 0.6746043897044499,
            "wrist_3_joint": -3.1496632123970403
        }
    },
    "waypoints": [
        {
            "positions": [
                -2.4736205022346125,
                -1.1634956873337592,
                2.010868314990456,
                -0.8367026794202681,
                0.6746043897044499,
                -3.1496632123970403
            ]
        },
        {
            "positions": [
                -2.555938474194453,
                -1.1317848209466081,
                1.9679637712000404,
                -0.8250121532164925,
                0.8523857338494452,
                -3.139325985011678
            ]
        },
        {
            "positions": [
                -2.6382564461542932,
                -1.100073954559457,
                1.925059227409625,
                -0.8133216270127169,
                1.0301670779944405,
                -3.1289887576263156
            ]
        },
        {
            "positions": [
                -2.7205744181141336,
                -1.0683630881723059,
                1.8821546836192096,
                -0.8016311008089413,
                1.2079484221394359,
                -3.118651530240953
            ]
        },
        {
            "positions": [
                -2.8028923900739735,
                -1.0366522217851548,
                1.8392501398287944,
                -0.7899405746051656,
                1.385729766284431,
                -3.1083143028555913
            ]
        },
        {
            "positions": [
                -2.885210362033814,
                -1.0049413553980038,
                1.796345596038379,
                -0.7782500484013901,
                1.5635111104294264,
                -3.097977075470229
            ]
        },
        {
            "positions": [
                -2.9675283339936542,
                -0.9732304890108526,
                1.7534410522479635,
                -0.7665595221976145,
                1.7412924545744217,
                -3.0876398480848666
            ]
        }
    ]
}