{
    "goal": {
        "global_pose": {
            "orientation": {
                "w": 0.7031023480610252,
                "x": -0.7110244013736278,
                "y": 0.0077485991402295624,
                "z": 0.005598929693374583
            },
            "position": {
                "x": -0.8841497679147869,
                "y": 0.44412534475326537,
                "z": 0.3711530566215515
            }
        },
        "name": "move_to_auspresseinheit_D"
    },
    "id": "RRTstar_move_to_auspresseinheit_D_75",
    "joint_names": [
        "shoulder_pan_joint",
        "shoulder_lift_joint",
        "elbow_joint",
        "wrist_1_joint",
        "wrist_2_joint",
        "wrist_3_joint"
    ],
    "metrics": {
        "cart_traj_len": 0.3422449384407568,
        "distance_elbow_joint": 0.6282533247226831,
        "distance_shoulder_lift_joint": 0.1165723410533448,
        "distance_shoulder_pan_joint": 0.1341276024037301,
        "distance_wrist_1_joint": 0.501571126693261,
        "distance_wrist_2_joint": 1.4356726158176125,
        "distance_wrist_3_joint": 0.03259371864089422,
        "smoothness": 0.0,
        "time": 5.001556053,
        "traj_len": 1.6878361085518716,
        "weighted_distance": 2.202548957259336
    },
    "planner": "RRTstar",
    "start": {
        "state": {
            "elbow_joint": -1.8275523626775212,
            "shoulder_lift_joint": -2.126789852344167,
            "shoulder_pan_joint": -0.03513704404078235,
            "wrist_1_joint": -2.347782403156801,
            "wrist_2_joint": -1.6058999987535132,
            "wrist_3_joint": -3.0880379163319196
        }
    },
    "waypoints": [
        {
            "positions": [
                -0.03513704404078235,
                -2.126789852344167,
                -1.8275523626775212,
                -2.347782403156801,
                -1.6058999987535132,
                -3.0880379163319196
            ]
        },
        {
            "positions": [
                -0.05190299434124861,
                -2.141361394975835,
                -1.7490206970871858,
                -2.4104787939934584,
                -1.4264409217763117,
                -3.092112131162031
            ]
        },
        {
            "positions": [
                -0.06866894464171487,
                -2.155932937607503,
                -1.6704890314968504,
                -2.473175184830116,
                -1.2469818447991101,
                -3.0961863459921433
            ]
        },
        {
            "positions": [
                -0.08543489494218112,
                -2.1705044802391713,
                -1.591957365906515,
                -2.5358715756667736,
                -1.0675227678219086,
                -3.100260560822255
            ]
        },
        {
            "positions": [
                -0.10220084524264739,
                -2.185076022870839,
                -1.5134257003161795,
                -2.598567966503431,
                -0.8880636908447069,
                -3.104334775652367
            ]
        },
        {
            "positions": [
                -0.11896679554311365,
                -2.199647565502507,
                -1.4348940347258443,
                -2.661264357340089,
                -0.7086046138675054,
                -3.1084089904824785
            ]
        },
        {
            "positions": [
                -0.13573274584357992,
                -2.2142191081341753,
                -1.356362369135509,
                -2.7239607481767467,
                -0.5291455368903037,
                -3.11248320531259
            ]
        },
        {
            "positions": [
                -0.15249869614404618,
                -2.2287906507658435,
                -1.2778307035451735,
                -2.7866571390134043,
                -0.3496864599131022,
                -3.116557420142702
            ]
        },
        {
            "positions": [
                -0.16926464644451245,
                -2.2433621933975116,
                -1.199299037954838,
                -2.849353529850062,
                -0.17022738293590076,
                -3.120631634972814
            ]
        }
    ]
}