{
    "goal": {
        "global_pose": {
            "orientation": {
                "w": 0.5084816262002911,
                "x": -0.4908360881923452,
                "y": 0.5182115481033761,
                "z": -0.48164630358495003
            },
            "position": {
                "x": 0.5540239810943604,
                "y": -0.46912469901144505,
                "z": 0.16403168439865112
            }
        },
        "name": "move_to_storage_B"
    },
    "id": "RRTstar_move_to_storage_B_31",
    "joint_names": [
        "shoulder_pan_joint",
        "shoulder_lift_joint",
        "elbow_joint",
        "wrist_1_joint",
        "wrist_2_joint",
        "wrist_3_joint"
    ],
    "metrics": {
        "cart_traj_len": 0.7637661310317758,
        "distance_elbow_joint": 0.3478787572258146,
        "distance_shoulder_lift_joint": 0.4580599644728758,
        "distance_shoulder_pan_joint": 0.4172473071395789,
        "distance_wrist_1_joint": 2.9768021464341543,
        "distance_wrist_2_joint": 2.701462574525195,
        "distance_wrist_3_joint": 3.1444524211491878,
        "smoothness": 0.043061423668392884,
        "time": 5.042567514,
        "traj_len": 3.169527278782564,
        "weighted_distance": 4.691809111015124
    },
    "planner": "RRTstar",
    "start": {
        "state": {
            "elbow_joint": 1.664937868594044,
            "shoulder_lift_joint": -0.661644460510453,
            "shoulder_pan_joint": -0.9139846352900073,
            "wrist_1_joint": 2.146753192139373,
            "wrist_2_joint": -2.2341966793290973,
            "wrist_3_joint": 0.005466555786416001
        }
    },
    "waypoints": [
        {
            "positions": [
                -0.9139846352900073,
                -0.661644460510453,
                1.664937868594044,
                2.146753192139373,
                -2.2341966793290973,
                0.005466555786416001
            ]
        },
        {
            "positions": [
                -0.8845507768682164,
                -0.7197163239081477,
                1.7126879003394089,
                2.084085794558964,
                -2.1499363980318966,
                -0.032242888611286706
            ]
        },
        {
            "positions": [
                -0.8551169184464256,
                -0.7777881873058424,
                1.7604379320847738,
                2.0214183969785546,
                -2.0656761167346955,
                -0.06995233300898941
            ]
        },
        {
            "positions": [
                -0.8256830600246347,
                -0.8358600507035372,
                1.8081879638301388,
                1.9587509993981451,
                -1.9814158354374949,
                -0.10766177740669211
            ]
        },
        {
            "positions": [
                -0.7962492016028437,
                -0.8939319141012319,
                1.8559379955755038,
                1.8960836018177358,
                -1.8971555541402942,
                -0.14537122180439482
            ]
        },
        {
            "positions": [
                -0.8092714569703401,
                -0.9037481102265404,
                1.862758805586128,
                1.7775560993780612,
                -1.7943546215604511,
                -0.27552838021997644
            ]
        },
        {
            "positions": [
                -0.8222937123378363,
                -0.9135643063518489,
                1.869579615596752,
                1.6590285969383864,
                -1.691553688980608,
                -0.40568553863555806
            ]
        },
        {
            "positions": [
                -0.8353159677053327,
                -0.9233805024771575,
                1.876400425607376,
                1.5405010944987119,
                -1.5887527564007649,
                -0.5358426970511396
            ]
        },
        {
            "positions": [
                -0.848338223072829,
                -0.9331966986024661,
                1.8832212356180003,
                1.4219735920590373,
                -1.4859518238209217,
                -0.6659998554667212
            ]
        },
        {
            "positions": [
                -0.8613604784403254,
                -0.9430128947277746,
                1.8900420456286244,
                1.3034460896193627,
                -1.3831508912410788,
                -0.7961570138823029
            ]
        },
        {
            "positions": [
                -0.8743827338078216,
                -0.9528290908530832,
                1.8968628556392484,
                1.184918587179688,
                -1.2803499586612355,
                -0.9263141722978845
            ]
        },
        {
            "positions": [
                -0.887404989175318,
                -0.9626452869783918,
                1.9036836656498726,
                1.066391084740013,
                -1.1775490260813923,
                -1.0564713307134663
            ]
        },
        {
            "positions": [
                -0.9004272445428143,
                -0.9724614831037004,
                1.9105044756604967,
                0.9478635823003386,
                -1.0747480935015492,
                -1.1866284891290477
            ]
        },
        {
            "positions": [
                -0.9134494999103107,
                -0.9822776792290089,
                1.917325285671121,
                0.8293360798606639,
                -0.9719471609217061,
                -1.3167856475446293
            ]
        },
        {
            "positions": [
                -0.9264717552778069,
                -0.9920938753543175,
                1.9241460956817449,
                0.7108085774209894,
                -0.8691462283418632,
                -1.446942805960211
            ]
        },
        {
            "positions": [
                -0.9394940106453032,
                -1.001910071479626,
                1.930966905692369,
                0.5922810749813145,
                -0.7663452957620198,
                -1.5770999643757926
            ]
        },
        {
            "positions": [
                -0.9525162660127996,
                -1.0117262676049346,
                1.9377877157029932,
                0.47375357254163997,
                -0.6635443631821769,
                -1.7072571227913742
            ]
        },
        {
            "positions": [
                -0.9655385213802958,
                -1.0215424637302433,
                1.9446085257136174,
                0.3552260701019654,
                -0.5607434306023338,
                -1.8374142812069556
            ]
        },
        {
            "positions": [
                -0.9785607767477922,
                -1.0313586598555518,
                1.9514293357242414,
                0.23669856766229058,
                -0.45794249802249043,
                -1.9675714396225377
            ]
        },
        {
            "positions": [
                -0.9915830321152885,
                -1.0411748559808602,
                1.9582501457348656,
                0.118171065222616,
                -0.3551415654426475,
                -2.097728598038119
            ]
        },
        {
            "positions": [
                -1.0046052874827849,
                -1.050991052106169,
                1.9650709557454897,
                -0.00035643721705858056,
                -0.2523406328628044,
                -2.2278857564537007
            ]
        },
        {
            "positions": [
                -1.0176275428502812,
                -1.0608072482314774,
                1.971891765756114,
                -0.11888393965673338,
                -0.14953970028296126,
                -2.3580429148692823
            ]
        },
        {
            "positions": [
                -1.0306497982177776,
                -1.070623444356786,
                1.9787125757667379,
                -0.23741144209640797,
                -0.04673876770311791,
                -2.488200073284864
            ]
        },
        {
            "positions": [
                -1.043672053585274,
                -1.0804396404820946,
                1.985533385777362,
                -0.35593894453608255,
                0.056062164876724996,
                -2.6183572317004455
            ]
        },
        {
            "positions": [
                -1.05669430895277,
                -1.090255836607403,
                1.9923541957879862,
                -0.47446644697575713,
                0.1588630974565679,
                -2.748514390116027
            ]
        },
        {
            "positions": [
                -1.0697165643202664,
                -1.1000720327327116,
                1.9991750057986102,
                -0.5929939494154317,
                0.26166403003641125,
                -2.878671548531609
            ]
        },
        {
            "positions": [
                -1.0827388196877628,
                -1.1098882288580203,
                2.0059958158092344,
                -0.7115214518551067,
                0.3644649626162546,
                -3.0088287069471904
            ]
        },
        {
            "positions": [
                -1.095761075055259,
                -1.1197044249833288,
                2.0128166258198585,
                -0.8300489542947814,
                0.4672658951960977,
                -3.138985865362772
            ]
        }
    ]
}