{
    "goal": {
        "global_pose": {
            "orientation": {
                "w": 0.7047431493862688,
                "x": -0.7094548369677653,
                "y": 0.0024358444001904,
                "z": -0.0022348060817251984
            },
            "position": {
                "x": -0.39052492380142206,
                "y": 0.3671506643295288,
                "z": 0.19426114857196808
            }
        },
        "name": "move_to_magneteinheit_D"
    },
    "id": "RRTstar_move_to_magneteinheit_D_129",
    "joint_names": [
        "shoulder_pan_joint",
        "shoulder_lift_joint",
        "elbow_joint",
        "wrist_1_joint",
        "wrist_2_joint",
        "wrist_3_joint"
    ],
    "metrics": {
        "cart_traj_len": 3.7001557758166816,
        "distance_elbow_joint": 3.125968741945633,
        "distance_shoulder_lift_joint": 1.632150320226027,
        "distance_shoulder_pan_joint": 3.089740941847734,
        "distance_wrist_1_joint": 2.098460966224409,
        "distance_wrist_2_joint": 1.0431864397751336,
        "distance_wrist_3_joint": 3.149499735238149,
        "smoothness": 0.23892450221752165,
        "time": 5.024630092,
        "traj_len": 3.760187115724041,
        "weighted_distance": 4.855888592393048
    },
    "planner": "RRTstar",
    "start": {
        "state": {
            "elbow_joint": 0.749534889911806,
            "shoulder_lift_joint": -0.6476975780787326,
            "shoulder_pan_joint": -2.711696901376241,
            "wrist_1_joint": -0.07506478083263063,
            "wrist_2_joint": 0.43296659715538205,
            "wrist_3_joint": -3.14703540197715
        }
    },
    "waypoints": [
        {
            "positions": [
                -2.711696901376241,
                -0.6476975780787326,
                0.749534889911806,
                -0.07506478083263063,
                0.43296659715538205,
                -3.14703540197715
            ]
        },
        {
            "positions": [
                -2.733454112433875,
                -0.6902072484909396,
                0.5959577189965932,
                -0.0685503847031073,
                0.37446379882111047,
                -3.0440062869231883
            ]
        },
        {
            "positions": [
                -2.755211323491509,
                -0.7327169189031466,
                0.44238054808138044,
                -0.062035988573583965,
                0.3159610004868389,
                -2.9409771718692266
            ]
        },
        {
            "positions": [
                -2.651193270005374,
                -0.7626188462945848,
                0.3424237018936233,
                0.00569960574708115,
                0.29610348474074627,
                -2.874047508165325
            ]
        },
        {
            "positions": [
                -2.5471752165192387,
                -0.7925207736860229,
                0.24246685570586618,
                0.07343520006774626,
                0.2762459689946536,
                -2.807117844461423
            ]
        },
        {
            "positions": [
                -2.4431571630331037,
                -0.8224227010774611,
                0.14251000951810905,
                0.14117079438841137,
                0.25638845324856097,
                -2.7401881807575212
            ]
        },
        {
            "positions": [
                -2.3391391095469682,
                -0.8523246284688992,
                0.04255316333035192,
                0.2089063887090765,
                0.23653093750246834,
                -2.673258517053619
            ]
        },
        {
            "positions": [
                -2.2351210560608332,
                -0.8822265558603374,
                -0.057403682857405214,
                0.27664198302974163,
                0.2166734217563757,
                -2.6063288533497175
            ]
        },
        {
            "positions": [
                -2.131103002574698,
                -0.9121284832517755,
                -0.15736052904516235,
                0.34437757735040675,
                0.19681590601028304,
                -2.539399189645816
            ]
        },
        {
            "positions": [
                -2.0270849490885627,
                -0.9420304106432137,
                -0.2573173752329195,
                0.41211317167107187,
                0.1769583902641904,
                -2.472469525941914
            ]
        },
        {
            "positions": [
                -1.9230668956024275,
                -0.9719323380346518,
                -0.3572742214206766,
                0.479848765991737,
                0.1571008745180978,
                -2.405539862238012
            ]
        },
        {
            "positions": [
                -1.8190488421162923,
                -1.0018342654260899,
                -0.45723106760843374,
                0.5475843603124021,
                0.13724335877200514,
                -2.33861019853411
            ]
        },
        {
            "positions": [
                -1.715030788630157,
                -1.0317361928175282,
                -0.5571879137961908,
                0.6153199546330672,
                0.11738584302591248,
                -2.2716805348302085
            ]
        },
        {
            "positions": [
                -1.611012735144022,
                -1.0616381202089662,
                -0.657144759983948,
                0.6830555489537323,
                0.09752832727981986,
                -2.204750871126307
            ]
        },
        {
            "positions": [
                -1.5069946816578867,
                -1.0915400476004045,
                -0.7571016061717051,
                0.7507911432743974,
                0.07767081153372721,
                -2.1378212074224052
            ]
        },
        {
            "positions": [
                -1.4029766281717515,
                -1.1214419749918425,
                -0.8570584523594622,
                0.8185267375950626,
                0.057813295787634555,
                -2.070891543718503
            ]
        },
        {
            "positions": [
                -1.2989585746856163,
                -1.1513439023832808,
                -0.9570152985472193,
                0.8862623319157277,
                0.03795578004154193,
                -2.0039618800146015
            ]
        },
        {
            "positions": [
                -1.1949405211994808,
                -1.1812458297747188,
                -1.0569721447349767,
                0.9539979262363929,
                0.01809826429544925,
                -1.9370322163106994
            ]
        },
        {
            "positions": [
                -1.0909224677133458,
                -1.2111477571661569,
                -1.1569289909227336,
                1.021733520557058,
                -0.0017592514506433177,
                -1.8701025526067978
            ]
        },
        {
            "positions": [
                -0.9869044142272105,
                -1.2410496845575953,
                -1.256885837110491,
                1.0894691148777231,
                -0.021616767196735998,
                -1.803172888902896
            ]
        },
        {
            "positions": [
                -0.8828863607410753,
                -1.2709516119490334,
                -1.3568426832982479,
                1.1572047091983881,
                -0.04147428294282862,
                -1.736243225198994
            ]
        },
        {
            "positions": [
                -0.77886830725494,
                -1.3008535393404714,
                -1.4567995294860052,
                1.2249403035190534,
                -0.0613317986889213,
                -1.6693135614950922
            ]
        },
        {
            "positions": [
                -0.6748502537688048,
                -1.3307554667319095,
                -1.5567563756737621,
                1.2926758978397184,
                -0.08118931443501393,
                -1.6023838977911906
            ]
        },
        {
            "positions": [
                -0.5708322002826698,
                -1.3606573941233477,
                -1.6567132218615195,
                1.3604114921603836,
                -0.10104683018110655,
                -1.5354542340872888
            ]
        },
        {
            "positions": [
                -0.46681414679653477,
                -1.390559321514786,
                -1.7566700680492764,
                1.4281470864810486,
                -0.12090434592719917,
                -1.468524570383387
            ]
        },
        {
            "positions": [
                -0.3627960933103993,
                -1.420461248906224,
                -1.8566269142370337,
                1.4958826808017138,
                -0.14076186167329185,
                -1.401594906679485
            ]
        },
        {
            "positions": [
                -0.2587780398242643,
                -1.450363176297662,
                -1.9565837604247907,
                1.5636182751223788,
                -0.16061937741938448,
                -1.3346652429755834
            ]
        },
        {
            "positions": [
                -0.15475998633812882,
                -1.4802651036891004,
                -2.0565406066125482,
                1.631353869443044,
                -0.1804768931654771,
                -1.2677355792716816
            ]
        },
        {
            "positions": [
                -0.0507419328519938,
                -1.5101670310805386,
                -2.156497452800305,
                1.699089463763709,
                -0.20033440891156978,
                -1.2008059155677797
            ]
        },
        {
            "positions": [
                0.05327612063414153,
                -1.5400689584719767,
                -2.2564542989880625,
                1.7668250580843743,
                -0.22019192465766238,
                -1.1338762518638779
            ]
        },
        {
            "positions": [
                0.023558736183289547,
                -1.6325413259510746,
                -2.2714517431187833,
                1.7347536671709487,
                -0.1714384349124012,
                -0.9918336787232682
            ]
        },
        {
            "positions": [
                -0.006158648267562433,
                -1.7250136934301725,
                -2.2864491872495036,
                1.702682276257523,
                -0.12268494516714004,
                -0.8497911055826585
            ]
        },
        {
            "positions": [
                -0.03587603271841441,
                -1.8174860609092702,
                -2.301446631380224,
                1.6706108853440975,
                -0.07393145542187887,
                -0.7077485324420487
            ]
        },
        {
            "positions": [
                -0.0655934171692664,
                -1.9099584283883682,
                -2.3164440755109448,
                1.638539494430672,
                -0.025177965676617703,
                -0.5657059593014391
            ]
        },
        {
            "positions": [
                -0.09531080162011837,
                -2.002430795867466,
                -2.3314415196416656,
                1.6064681035172463,
                0.023575524068643466,
                -0.42366338616082944
            ]
        },
        {
            "positions": [
                -0.12502818607097035,
                -2.094903163346564,
                -2.346438963772386,
                1.5743967126038207,
                0.07232901381390464,
                -0.2816208130202197
            ]
        },
        {
            "positions": [
                -0.15474557052182233,
                -2.187375530825662,
                -2.3614364079031063,
                1.5423253216903952,
                0.1210825035591658,
                -0.13957823987960993
            ]
        },
        {
            "positions": [
                -0.18446295497267431,
                -2.2798478983047596,
                -2.376433852033827,
                1.5102539307769696,
                0.16983599330442697,
                0.002464333260999778
            ]
        }
    ]
}