{
    "goal": {
        "global_pose": {
            "orientation": {
                "w": -0.00223480608172531,
                "x": 0.0024358444001904467,
                "y": 0.7094548369677653,
                "z": -0.704743149386269
            },
            "position": {
                "x": 0.6205249238014221,
                "y": -0.6371506643295288,
                "z": 0.19426114857196808
            }
        },
        "name": "move_to_magneteinheit_B"
    },
    "id": "RRTstar_move_to_magneteinheit_B_52",
    "joint_names": [
        "shoulder_pan_joint",
        "shoulder_lift_joint",
        "elbow_joint",
        "wrist_1_joint",
        "wrist_2_joint",
        "wrist_3_joint"
    ],
    "metrics": {
        "cart_traj_len": 1.7992700868025975,
        "distance_elbow_joint": 0.9516949781176587,
        "distance_shoulder_lift_joint": 1.8420759373259972,
        "distance_shoulder_pan_joint": 1.6225694474976657,
        "distance_wrist_1_joint": 0.907083453418867,
        "distance_wrist_2_joint": 1.5148539825437342,
        "distance_wrist_3_joint": 0.41043270674387095,
        "smoothness": 1.0597051430479678,
        "time": 5.015485482000001,
        "traj_len": 2.692342939829136,
        "weighted_distance": 3.239060566753598
    },
    "planner": "RRTstar",
    "start": {
        "state": {
            "elbow_joint": 2.6216224122426386,
            "shoulder_lift_joint": -1.4174107377796124,
            "shoulder_pan_joint": 0.7066234856936794,
            "wrist_1_joint": 1.9546482284002225,
            "wrist_2_joint": -0.7096286983471962,
            "wrist_3_joint": 0.005740856962016249
        }
    },
    "waypoints": [
        {
            "positions": [
                0.7066234856936794,
                -1.4174107377796124,
                2.6216224122426386,
                1.9546482284002225,
                -0.7096286983471962,
                0.005740856962016249
            ]
        },
        {
            "positions": [
                0.6125086882638517,
                -1.4387460219175885,
                2.602594674561165,
                2.038763321159008,
                -0.7574788759668176,
                0.014955533474930746
            ]
        },
        {
            "positions": [
                0.518393890834024,
                -1.4600813060555646,
                2.5835669368796914,
                2.1228784139177934,
                -0.805329053586439,
                0.02417020998784524
            ]
        },
        {
            "positions": [
                0.4992666792269595,
                -1.5855281270993167,
                2.5694109528935503,
                2.0344744679119002,
                -0.8814465799641251,
                -0.02552610218779989
            ]
        },
        {
            "positions": [
                0.480139467619895,
                -1.7109749481430687,
                2.5552549689074087,
                1.946070521906007,
                -0.9575641063418113,
                -0.07522241436344501
            ]
        },
        {
            "positions": [
                0.4610122560128305,
                -1.8364217691868208,
                2.541098984921267,
                1.857666575900114,
                -1.0336816327194975,
                -0.12491872653909014
            ]
        },
        {
            "positions": [
                0.44188504440576604,
                -1.9618685902305728,
                2.526943000935126,
                1.769262629894221,
                -1.1097991590971836,
                -0.17461503871473527
            ]
        },
        {
            "positions": [
                0.3448971153907837,
                -1.8691815841680701,
                2.46572760330583,
                1.7967795930283441,
                -1.1894194106538798,
                -0.16081374549934516
            ]
        },
        {
            "positions": [
                0.24790918637580145,
                -1.7764945781055677,
                2.4045122056765336,
                1.824296556162467,
                -1.269039662210576,
                -0.14701245228395507
            ]
        },
        {
            "positions": [
                0.15092125736081913,
                -1.683807572043065,
                2.3432968080472376,
                1.85181351929659,
                -1.3486599137672721,
                -0.13321115906856495
            ]
        },
        {
            "positions": [
                0.05393332834583686,
                -1.5911205659805623,
                2.282081410417941,
                1.8793304824307133,
                -1.4282801653239683,
                -0.11940986585317485
            ]
        },
        {
            "positions": [
                -0.043054600669145515,
                -1.4984335599180598,
                2.2208660127886453,
                1.9068474455648365,
                -1.5079004168806647,
                -0.10560857263778474
            ]
        },
        {
            "positions": [
                -0.14004252968412778,
                -1.4057465538555571,
                2.1596506151593493,
                1.9343644086989595,
                -1.5875206684373608,
                -0.09180727942239465
            ]
        },
        {
            "positions": [
                -0.2370304586991101,
                -1.3130595477930544,
                2.098435217530053,
                1.9618813718330825,
                -1.667140919994057,
                -0.07800598620700454
            ]
        },
        {
            "positions": [
                -0.3340183877140923,
                -1.2203725417305518,
                2.037219819900757,
                1.9893983349672058,
                -1.7467611715507532,
                -0.06420469299161444
            ]
        },
        {
            "positions": [
                -0.43100631672907475,
                -1.127685535668049,
                1.9760044222714606,
                2.016915298101329,
                -1.8263814231074496,
                -0.05040339977622432
            ]
        },
        {
            "positions": [
                -0.5279942457440571,
                -1.0349985296055466,
                1.9147890246421646,
                2.044432261235452,
                -1.9060016746641457,
                -0.03660210656083421
            ]
        },
        {
            "positions": [
                -0.6249821747590394,
                -0.9423115235430439,
                1.8535736270128682,
                2.071949224369575,
                -1.9856219262208419,
                -0.02280081334544412
            ]
        },
        {
            "positions": [
                -0.7219701037740216,
                -0.8496245174805415,
                1.7923582293835723,
                2.0994661875036984,
                -2.065242177777538,
                -0.008999520130054034
            ]
        },
        {
            "positions": [
                -0.818958032789004,
                -0.7569375114180388,
                1.7311428317542759,
                2.1269831506378214,
                -2.144862429334234,
                0.0048017730853361085
            ]
        },
        {
            "positions": [
                -0.9159459618039862,
                -0.664250505355536,
                1.66992743412498,
                2.1545001137719444,
                -2.2244826808909304,
                0.0186030663007262
            ]
        }
    ]
}