{
    "goal": {
        "global_pose": {
            "orientation": {
                "w": 0.5084816262002911,
                "x": -0.4908360881923452,
                "y": 0.5182115481033761,
                "z": -0.48164630358495003
            },
            "position": {
                "x": 0.5540239810943604,
                "y": -0.46912469901144505,
                "z": 0.16403168439865112
            }
        },
        "name": "move_to_storage_B"
    },
    "id": "RRTstar_move_to_storage_B_112",
    "joint_names": [
        "shoulder_pan_joint",
        "shoulder_lift_joint",
        "elbow_joint",
        "wrist_1_joint",
        "wrist_2_joint",
        "wrist_3_joint"
    ],
    "metrics": {
        "cart_traj_len": 0.8835670566469938,
        "distance_elbow_joint": 0.34797838229035394,
        "distance_shoulder_lift_joint": 0.4590214372509558,
        "distance_shoulder_pan_joint": 0.744072646512164,
        "distance_wrist_1_joint": 2.9786695526313314,
        "distance_wrist_2_joint": 2.7075228210195887,
        "distance_wrist_3_joint": 3.269146225444197,
        "smoothness": 0.13314549573805512,
        "time": 5.03460372,
        "traj_len": 3.2413594470759626,
        "weighted_distance": 4.767692931564271
    },
    "planner": "RRTstar",
    "start": {
        "state": {
            "elbow_joint": 1.664937868594044,
            "shoulder_lift_joint": -0.661644460510453,
            "shoulder_pan_joint": -0.9139846352900073,
            "wrist_1_joint": 2.146753192139373,
            "wrist_2_joint": -2.2341966793290973,
            "wrist_3_joint": 0.005466555786416001
        }
    },
    "waypoints": [
        {
            "positions": [
                -0.9139846352900073,
                -0.661644460510453,
                1.664937868594044,
                2.146753192139373,
                -2.2341966793290973,
                0.005466555786416001
            ]
        },
        {
            "positions": [
                -0.8201082155226318,
                -0.7230497762624556,
                1.6893121012896657,
                2.115841607827567,
                -2.1698004930225885,
                0.02648951832648951
            ]
        },
        {
            "positions": [
                -0.7262317957552563,
                -0.7844550920144581,
                1.7136863339852877,
                2.084930023515761,
                -2.1054043067160793,
                0.04751248086656302
            ]
        },
        {
            "positions": [
                -0.6323553759878808,
                -0.8458604077664607,
                1.7380605666809095,
                2.0540184392039547,
                -2.0410081204095705,
                0.06853544340663653
            ]
        },
        {
            "positions": [
                -0.6508531114762823,
                -0.8568526273662586,
                1.749054794049049,
                1.9385810472161182,
                -1.940434749925568,
                -0.059707650106322535
            ]
        },
        {
            "positions": [
                -0.6693508469646838,
                -0.8678448469660565,
                1.7600490214171884,
                1.8231436552282816,
                -1.8398613794415655,
                -0.1879507436192816
            ]
        },
        {
            "positions": [
                -0.6878485824530853,
                -0.8788370665658545,
                1.771043248785328,
                1.7077062632404452,
                -1.7392880089575629,
                -0.31619383713224064
            ]
        },
        {
            "positions": [
                -0.7063463179414868,
                -0.8898292861656524,
                1.7820374761534676,
                1.5922688712526085,
                -1.6387146384735605,
                -0.44443693064519973
            ]
        },
        {
            "positions": [
                -0.7248440534298883,
                -0.9008215057654503,
                1.7930317035216072,
                1.476831479264772,
                -1.538141267989558,
                -0.5726800241581588
            ]
        },
        {
            "positions": [
                -0.7433417889182898,
                -0.9118137253652482,
                1.8040259308897466,
                1.3613940872769357,
                -1.4375678975055555,
                -0.7009231176711178
            ]
        },
        {
            "positions": [
                -0.7618395244066913,
                -0.9228059449650461,
                1.8150201582578862,
                1.245956695289099,
                -1.3369945270215529,
                -0.829166211184077
            ]
        },
        {
            "positions": [
                -0.7803372598950928,
                -0.9337981645648441,
                1.8260143856260258,
                1.1305193033012624,
                -1.2364211565375505,
                -0.957409304697036
            ]
        },
        {
            "positions": [
                -0.7988349953834943,
                -0.944790384164642,
                1.8370086129941652,
                1.0150819113134262,
                -1.135847786053548,
                -1.085652398209995
            ]
        },
        {
            "positions": [
                -0.8173327308718958,
                -0.9557826037644399,
                1.8480028403623048,
                0.8996445193255895,
                -1.0352744155695455,
                -1.213895491722954
            ]
        },
        {
            "positions": [
                -0.8358304663602973,
                -0.9667748233642378,
                1.8589970677304444,
                0.7842071273377531,
                -0.9347010450855431,
                -1.3421385852359131
            ]
        },
        {
            "positions": [
                -0.8543282018486988,
                -0.9777670429640357,
                1.869991295098584,
                0.6687697353499165,
                -0.8341276746015405,
                -1.4703816787488722
            ]
        },
        {
            "positions": [
                -0.8728259373371003,
                -0.9887592625638337,
                1.8809855224667233,
                0.55333234336208,
                -0.7335543041175381,
                -1.5986247722618312
            ]
        },
        {
            "positions": [
                -0.8913236728255018,
                -0.9997514821636316,
                1.891979749834863,
                0.4378949513742434,
                -0.6329809336335355,
                -1.7268678657747905
            ]
        },
        {
            "positions": [
                -0.9098214083139033,
                -1.0107437017634295,
                1.9029739772030025,
                0.32245755938640697,
                -0.5324075631495331,
                -1.8551109592877493
            ]
        },
        {
            "positions": [
                -0.9283191438023048,
                -1.0217359213632276,
                1.913968204571142,
                0.20702016739857032,
                -0.43183419266553047,
                -1.9833540528007085
            ]
        },
        {
            "positions": [
                -0.9468168792907063,
                -1.0327281409630253,
                1.9249624319392815,
                0.0915827754107339,
                -0.33126082218152786,
                -2.1115971463136676
            ]
        },
        {
            "positions": [
                -0.9653146147791078,
                -1.0437203605628234,
                1.9359566593074211,
                -0.023854616577102306,
                -0.2306874516975257,
                -2.2398402398266266
            ]
        },
        {
            "positions": [
                -0.9838123502675094,
                -1.0547125801626211,
                1.9469508866755607,
                -0.13929200856493917,
                -0.13011408121352308,
                -2.3680833333395856
            ]
        },
        {
            "positions": [
                -1.0023100857559109,
                -1.0657047997624192,
                1.9579451140437003,
                -0.2547294005527756,
                -0.02954071072952047,
                -2.4963264268525447
            ]
        },
        {
            "positions": [
                -1.0208078212443124,
                -1.076697019362217,
                1.9689393414118397,
                -0.370166792540612,
                0.07103265975448192,
                -2.6245695203655037
            ]
        },
        {
            "positions": [
                -1.0393055567327139,
                -1.087689238962015,
                1.9799335687799793,
                -0.48560418452844845,
                0.1716060302384843,
                -2.7528126138784628
            ]
        },
        {
            "positions": [
                -1.0578032922211154,
                -1.098681458561813,
                1.9909277961481187,
                -0.6010415765162853,
                0.27217940072248714,
                -2.881055707391422
            ]
        },
        {
            "positions": [
                -1.0763010277095169,
                -1.1096736781616108,
                2.0019220235162583,
                -0.7164789685041217,
                0.37275277120648953,
                -3.009298800904381
            ]
        },
        {
            "positions": [
                -1.0947987631979184,
                -1.1206658977614088,
                2.012916250884398,
                -0.8319163604919583,
                0.473326141690492,
                -3.13754189441734
            ]
        }
    ]
}