{
    "goal": {
        "global_pose": {
            "orientation": {
                "w": 0.005598929693374612,
                "x": 0.007748599140229565,
                "y": 0.7110244013736278,
                "z": -0.7031023480610252
            },
            "position": {
                "x": 0.1141497679147869,
                "y": -0.7141253447532654,
                "z": 0.3711530566215515
            }
        },
        "name": "move_to_auspresseinheit_B"
    },
    "id": "RRTstar_move_to_auspresseinheit_B_121",
    "joint_names": [
        "shoulder_pan_joint",
        "shoulder_lift_joint",
        "elbow_joint",
        "wrist_1_joint",
        "wrist_2_joint",
        "wrist_3_joint"
    ],
    "metrics": {
        "cart_traj_len": 0.5649443320041374,
        "distance_elbow_joint": 0.05946521247758585,
        "distance_shoulder_lift_joint": 0.2959189062790921,
        "distance_shoulder_pan_joint": 0.5777010954614776,
        "distance_wrist_1_joint": 0.31616172088544514,
        "distance_wrist_2_joint": 0.9931208166681389,
        "distance_wrist_3_joint": 0.008818035200587104,
        "smoothness": 2.5376526478085547e-16,
        "time": 5.038589376,
        "traj_len": 1.5003952102603924,
        "weighted_distance": 1.891587797308675
    },
    "planner": "RRTstar",
    "start": {
        "state": {
            "elbow_joint": 2.0193083361928714,
            "shoulder_lift_joint": -1.1220246554650708,
            "shoulder_pan_joint": -1.0952077554168747,
            "wrist_1_joint": -0.8559753972642168,
            "wrist_2_joint": 0.4759566250798843,
            "wrist_3_joint": -3.1240929996934557
        }
    },
    "waypoints": [
        {
            "positions": [
                -1.0952077554168747,
                -1.1220246554650708,
                2.0193083361928714,
                -0.8559753972642168,
                0.4759566250798843,
                -3.1240929996934557
            ]
        },
        {
            "positions": [
                -1.1914912713271208,
                -1.1713444731782527,
                2.009397467446607,
                -0.8032817771166426,
                0.6414767611912408,
                -3.125562672226887
            ]
        },
        {
            "positions": [
                -1.2877747872373673,
                -1.220664290891435,
                1.9994865987003427,
                -0.7505881569690684,
                0.8069968973025972,
                -3.127032344760318
            ]
        },
        {
            "positions": [
                -1.3840583031476135,
                -1.2699841086046169,
                1.9895757299540784,
                -0.6978945368214942,
                0.9725170334139537,
                -3.128502017293749
            ]
        },
        {
            "positions": [
                -1.4803418190578597,
                -1.3193039263177988,
                1.9796648612078143,
                -0.6452009166739201,
                1.1380371695253102,
                -3.1299716898271805
            ]
        },
        {
            "positions": [
                -1.576625334968106,
                -1.368623744030981,
                1.96975399246155,
                -0.5925072965263458,
                1.3035573056366667,
                -3.1314413623606114
            ]
        },
        {
            "positions": [
                -1.6729088508783523,
                -1.417943561744163,
                1.9598431237152856,
                -0.5398136763787716,
                1.4690774417480232,
                -3.1329110348940428
            ]
        }
    ]
}