{
    "goal": {
        "global_pose": {
            "orientation": {
                "w": 0.7047431468963623,
                "x": -0.7094548344612122,
                "y": 0.0024358443915843964,
                "z": -0.0022348060738295317
            },
            "position": {
                "x": 0.6094750761985779,
                "y": 0.3671506643295288,
                "z": 0.19426114857196808
            }
        },
        "name": "move_to_magneteinheit_A"
    },
    "id": "RRTstar_move_to_magneteinheit_A_60",
    "joint_names": [
        "shoulder_pan_joint",
        "shoulder_lift_joint",
        "elbow_joint",
        "wrist_1_joint",
        "wrist_2_joint",
        "wrist_3_joint"
    ],
    "metrics": {
        "cart_traj_len": 3.3890125297376414,
        "distance_elbow_joint": 3.9310930584128245,
        "distance_shoulder_lift_joint": 0.6160167821580629,
        "distance_shoulder_pan_joint": 2.931568176217332,
        "distance_wrist_1_joint": 3.5948008363491626,
        "distance_wrist_2_joint": 1.4326012329509124,
        "distance_wrist_3_joint": 1.0398540802661254,
        "smoothness": 0.22883852068546998,
        "time": 5.0308263140000005,
        "traj_len": 3.680480154321501,
        "weighted_distance": 4.54456206869119
    },
    "planner": "RRTstar",
    "start": {
        "state": {
            "elbow_joint": -1.9196185241190666,
            "shoulder_lift_joint": -1.2443396400964142,
            "shoulder_pan_joint": 2.6996025414629847,
            "wrist_1_joint": -1.5485510000780065,
            "wrist_2_joint": -1.5709468930060704,
            "wrist_3_joint": 0.4420197071253992
        }
    },
    "waypoints": [
        {
            "positions": [
                2.6996025414629847,
                -1.2443396400964142,
                -1.9196185241190666,
                -1.5485510000780065,
                -1.5709468930060704,
                0.4420197071253992
            ]
        },
        {
            "positions": [
                2.587537143075318,
                -1.2254247688969848,
                -1.8213009300893739,
                -1.4730586180207639,
                -1.5177391704228123,
                0.406816563631344
            ]
        },
        {
            "positions": [
                2.4754717446876517,
                -1.2065098976975552,
                -1.7229833360596813,
                -1.3975662359635213,
                -1.4645314478395541,
                0.3716134201372889
            ]
        },
        {
            "positions": [
                2.363406346299985,
                -1.1875950264981259,
                -1.6246657420299886,
                -1.3220738539062786,
                -1.411323725256296,
                0.3364102766432337
            ]
        },
        {
            "positions": [
                2.2513409479123183,
                -1.1686801552986965,
                -1.526348148000296,
                -1.2465814718490358,
                -1.358116002673038,
                0.3012071331491786
            ]
        },
        {
            "positions": [
                2.139275549524652,
                -1.1497652840992671,
                -1.4280305539706033,
                -1.1710890897917932,
                -1.30490828008978,
                0.2660039896551234
            ]
        },
        {
            "positions": [
                2.0272101511369853,
                -1.1308504128998376,
                -1.3297129599409105,
                -1.0955967077345505,
                -1.2517005575065219,
                0.23080084616106825
            ]
        },
        {
            "positions": [
                1.9151447527493186,
                -1.1119355417004082,
                -1.2313953659112178,
                -1.020104325677308,
                -1.1984928349232638,
                0.19559770266701307
            ]
        },
        {
            "positions": [
                1.803079354361652,
                -1.0930206705009788,
                -1.1330777718815253,
                -0.9446119436200652,
                -1.1452851123400056,
                0.16039455917295792
            ]
        },
        {
            "positions": [
                1.6910139559739854,
                -1.0741057993015493,
                -1.0347601778518325,
                -0.8691195615628224,
                -1.0920773897567475,
                0.12519141567890274
            ]
        },
        {
            "positions": [
                1.578948557586319,
                -1.05519092810212,
                -0.93644258382214,
                -0.7936271795055799,
                -1.0388696671734894,
                0.08998827218484762
            ]
        },
        {
            "positions": [
                1.4668831591986522,
                -1.0362760569026905,
                -0.8381249897924472,
                -0.7181347974483372,
                -0.9856619445902313,
                0.05478512869079244
            ]
        },
        {
            "positions": [
                1.3548177608109857,
                -1.017361185703261,
                -0.7398073957627547,
                -0.6426424153910946,
                -0.9324542220069733,
                0.019581985196737317
            ]
        },
        {
            "positions": [
                1.242752362423319,
                -0.9984463145038316,
                -0.6414898017330617,
                -0.5671500333338518,
                -0.879246499423715,
                -0.015621158297317916
            ]
        },
        {
            "positions": [
                1.1306869640356525,
                -0.9795314433044022,
                -0.5431722077033692,
                -0.4916576512766093,
                -0.826038776840457,
                -0.05082430179137304
            ]
        },
        {
            "positions": [
                1.018621565647986,
                -0.9606165721049729,
                -0.4448546136736766,
                -0.4161652692193667,
                -0.7728310542571989,
                -0.08602744528542816
            ]
        },
        {
            "positions": [
                0.9065561672603193,
                -0.9417017009055433,
                -0.34653701964398387,
                -0.34067288716212385,
                -0.7196233316739408,
                -0.12123058877948334
            ]
        },
        {
            "positions": [
                0.7944907688726526,
                -0.9227868297061139,
                -0.2482194256142911,
                -0.2651805051048812,
                -0.6664156090906826,
                -0.15643373227353852
            ]
        },
        {
            "positions": [
                0.6824253704849861,
                -0.9038719585066844,
                -0.14990183158459836,
                -0.18968812304763838,
                -0.6132078865074245,
                -0.1916368757675937
            ]
        },
        {
            "positions": [
                0.5703599720973194,
                -0.884957087307255,
                -0.05158423755490582,
                -0.11419574099039576,
                -0.5600001639241665,
                -0.22684001926164887
            ]
        },
        {
            "positions": [
                0.4582945737096531,
                -0.8660422161078256,
                0.046733356474786714,
                -0.03870335893315335,
                -0.5067924413409084,
                -0.26204316275570394
            ]
        },
        {
            "positions": [
                0.3462291753219864,
                -0.8471273449083963,
                0.14505095050447947,
                0.03678902312408949,
                -0.4535847187576503,
                -0.2972463062497591
            ]
        },
        {
            "positions": [
                0.23416377693431964,
                -0.8282124737089668,
                0.24336854453417212,
                0.11228140518133212,
                -0.40037699617439226,
                -0.33244944974381424
            ]
        },
        {
            "positions": [
                0.2075890661175048,
                -0.8228379545803359,
                0.3949379865520726,
                0.2607171258566583,
                -0.37795576089122307,
                -0.32632356548756003
            ]
        },
        {
            "positions": [
                0.18101435530069,
                -0.817463435451705,
                0.5465074285699729,
                0.40915284653198447,
                -0.3555345256080539,
                -0.3201976812313058
            ]
        },
        {
            "positions": [
                0.15443964448387515,
                -0.812088916323074,
                0.6980768705878734,
                0.5575885672073106,
                -0.3331132903248847,
                -0.3140717969750516
            ]
        },
        {
            "positions": [
                0.1278649336670603,
                -0.8067143971944432,
                0.8496463126057738,
                0.7060242878826368,
                -0.3106920550417155,
                -0.3079459127187974
            ]
        },
        {
            "positions": [
                0.10180548142867922,
                -0.817822329970443,
                0.9912802476267327,
                0.8729772631482531,
                -0.30046596151019106,
                -0.3059347212389351
            ]
        },
        {
            "positions": [
                0.07574602919029813,
                -0.8289302627464429,
                1.1329141826476916,
                1.0399302384138693,
                -0.29023986797866663,
                -0.30392352975907283
            ]
        },
        {
            "positions": [
                0.04968657695191704,
                -0.8400381955224427,
                1.2745481176686506,
                1.2068832136794856,
                -0.2800137744471422,
                -0.30191233827921055
            ]
        },
        {
            "positions": [
                0.023627124713535952,
                -0.8511461282984426,
                1.4161820526896096,
                1.3738361889451016,
                -0.2697876809156178,
                -0.2999011467993483
            ]
        },
        {
            "positions": [
                -0.0024323275248451515,
                -0.8622540610744425,
                1.5578159877105686,
                1.540789164210718,
                -0.25956158738409335,
                -0.29788995531948603
            ]
        },
        {
            "positions": [
                -0.028491779763226227,
                -0.8733619938504423,
                1.6994499227315274,
                1.7077421394763341,
                -0.24933549385256892,
                -0.29587876383962375
            ]
        },
        {
            "positions": [
                -0.05455123200160733,
                -0.8844699266264422,
                1.8410838577524864,
                1.8746951147419504,
                -0.2391094003210445,
                -0.29386757235976146
            ]
        },
        {
            "positions": [
                0.019553077948418762,
                -0.8341808120723568,
                1.8752999846703486,
                1.85615310428716,
                -0.1983618637550002,
                -0.20829568934828432
            ]
        },
        {
            "positions": [
                0.09365738789844485,
                -0.7838916975182715,
                1.9095161115882109,
                1.8376110938323695,
                -0.15761432718895588,
                -0.12272380633680718
            ]
        },
        {
            "positions": [
                0.1228631707511325,
                -0.7839494782341936,
                2.0114745342937574,
                1.9720817944519944,
                -0.1383456600551579,
                -0.06706452634690202
            ]
        }
    ]
}