{
    "goal": {
        "global_pose": {
            "orientation": {
                "w": 0.7047431493862688,
                "x": -0.7094548369677653,
                "y": 0.0024358444001904,
                "z": -0.0022348060817251984
            },
            "position": {
                "x": -0.39052492380142206,
                "y": 0.3671506643295288,
                "z": 0.19426114857196808
            }
        },
        "name": "move_to_magneteinheit_D"
    },
    "id": "RRTstar_move_to_magneteinheit_D_6",
    "joint_names": [
        "shoulder_pan_joint",
        "shoulder_lift_joint",
        "elbow_joint",
        "wrist_1_joint",
        "wrist_2_joint",
        "wrist_3_joint"
    ],
    "metrics": {
        "cart_traj_len": 4.1898279737227435,
        "distance_elbow_joint": 3.595642517890635,
        "distance_shoulder_lift_joint": 1.9056654672262736,
        "distance_shoulder_pan_joint": 3.00897334004378,
        "distance_wrist_1_joint": 1.7271151416622816,
        "distance_wrist_2_joint": 0.8647681279286297,
        "distance_wrist_3_joint": 3.451397061719436,
        "smoothness": 1.2934871231721132,
        "time": 5.037205063,
        "traj_len": 3.814913060145806,
        "weighted_distance": 4.903900391474201
    },
    "planner": "RRTstar",
    "start": {
        "state": {
            "elbow_joint": 0.749534889911806,
            "shoulder_lift_joint": -0.6476975780787326,
            "shoulder_pan_joint": -2.711696901376241,
            "wrist_1_joint": -0.07506478083263063,
            "wrist_2_joint": 0.43296659715538205,
            "wrist_3_joint": -3.14703540197715
        }
    },
    "waypoints": [
        {
            "positions": [
                -2.711696901376241,
                -0.6476975780787326,
                0.749534889911806,
                -0.07506478083263063,
                0.43296659715538205,
                -3.14703540197715
            ]
        },
        {
            "positions": [
                -2.733405853570969,
                -0.675449254512824,
                0.7805798505790414,
                -0.028861497178380012,
                0.3537408319422548,
                -3.006599797688807
            ]
        },
        {
            "positions": [
                -2.7551148057656967,
                -0.7032009309469154,
                0.811624811246277,
                0.017341786475870608,
                0.2745150667291275,
                -2.866164193400464
            ]
        },
        {
            "positions": [
                -2.7284453538767273,
                -0.6573337457461568,
                0.761251670748919,
                0.05613093508531526,
                0.18720469300448705,
                -2.9118422450907913
            ]
        },
        {
            "positions": [
                -2.7017759019877583,
                -0.6114665605453983,
                0.7108785302515609,
                0.09492008369475992,
                0.09989431927984657,
                -2.957520296781118
            ]
        },
        {
            "positions": [
                -2.675106450098789,
                -0.5655993753446397,
                0.6605053897542029,
                0.1337092323042046,
                0.012583945555206108,
                -3.0031983484714453
            ]
        },
        {
            "positions": [
                -2.6709596792476638,
                -0.6610397278905904,
                0.6855192921986305,
                0.1189663568884416,
                0.1069380703197096,
                -2.8729252495152897
            ]
        },
        {
            "positions": [
                -2.6668129083965386,
                -0.756480080436541,
                0.7105331946430581,
                0.10422348147267861,
                0.20129219508421312,
                -2.7426521505591337
            ]
        },
        {
            "positions": [
                -2.555129572862037,
                -0.7995001409654802,
                0.6016599164794052,
                0.15077618731530812,
                0.19528960318483926,
                -2.6754383489498252
            ]
        },
        {
            "positions": [
                -2.4434462373275356,
                -0.8425202014944193,
                0.4927866383157524,
                0.1973288931579376,
                0.1892870112854654,
                -2.608224547340517
            ]
        },
        {
            "positions": [
                -2.331762901793034,
                -0.8855402620233584,
                0.3839133601520996,
                0.2438815990005671,
                0.18328441938609155,
                -2.5410107457312088
            ]
        },
        {
            "positions": [
                -2.2200795662585326,
                -0.9285603225522976,
                0.27504008198844676,
                0.2904343048431966,
                0.1772818274867177,
                -2.4737969441219003
            ]
        },
        {
            "positions": [
                -2.108396230724031,
                -0.9715803830812367,
                0.16616680382479387,
                0.33698701068582615,
                0.17127923558734384,
                -2.406583142512592
            ]
        },
        {
            "positions": [
                -1.9967128951895292,
                -1.0146004436101759,
                0.0572935256611411,
                0.38353971652845564,
                0.16527664368797002,
                -2.339369340903284
            ]
        },
        {
            "positions": [
                -1.8850295596550277,
                -1.057620504139115,
                -0.05157975250251179,
                0.4300924223710852,
                0.15927405178859616,
                -2.2721555392939754
            ]
        },
        {
            "positions": [
                -1.7733462241205262,
                -1.100640564668054,
                -0.16045303066616456,
                0.47664512821371463,
                0.1532714598892223,
                -2.204941737684667
            ]
        },
        {
            "positions": [
                -1.6616628885860247,
                -1.1436606251969932,
                -0.26932630882981734,
                0.5231978340563441,
                0.14726886798984845,
                -2.1377279360753585
            ]
        },
        {
            "positions": [
                -1.549979553051523,
                -1.1866806857259324,
                -0.37819958699347034,
                0.5697505398989736,
                0.1412662760904746,
                -2.07051413446605
            ]
        },
        {
            "positions": [
                -1.4382962175170215,
                -1.2297007462548715,
                -0.4870728651571231,
                0.6163032457416031,
                0.13526368419110074,
                -2.003300332856742
            ]
        },
        {
            "positions": [
                -1.32661288198252,
                -1.2727208067838105,
                -0.5959461433207759,
                0.6628559515842326,
                0.1292610922917269,
                -1.9360865312474336
            ]
        },
        {
            "positions": [
                -1.2149295464480185,
                -1.3157408673127498,
                -0.7048194214844287,
                0.7094086574268621,
                0.12325850039235305,
                -1.8688727296381253
            ]
        },
        {
            "positions": [
                -1.1032462109135168,
                -1.358760927841689,
                -0.8136926996480817,
                0.7559613632694917,
                0.11725590849297918,
                -1.8016589280288167
            ]
        },
        {
            "positions": [
                -0.9915628753790153,
                -1.401780988370628,
                -0.9225659778117344,
                0.8025140691121211,
                0.11125331659360532,
                -1.7344451264195087
            ]
        },
        {
            "positions": [
                -0.8798795398445138,
                -1.444801048899567,
                -1.0314392559753873,
                0.8490667749547506,
                0.10525072469423148,
                -1.6672313248102002
            ]
        },
        {
            "positions": [
                -0.7681962043100121,
                -1.4878211094285063,
                -1.1403125341390403,
                0.8956194807973802,
                0.09924813279485761,
                -1.6000175232008917
            ]
        },
        {
            "positions": [
                -0.6565128687755108,
                -1.5308411699574453,
                -1.2491858123026929,
                0.9421721866400097,
                0.09324554089548377,
                -1.5328037215915835
            ]
        },
        {
            "positions": [
                -0.5448295332410091,
                -1.5738612304863846,
                -1.3580590904663459,
                0.9887248924826391,
                0.08724294899610993,
                -1.4655899199822753
            ]
        },
        {
            "positions": [
                -0.4331461977065074,
                -1.6168812910153236,
                -1.4669323686299989,
                1.0352775983252687,
                0.08124035709673606,
                -1.3983761183729668
            ]
        },
        {
            "positions": [
                -0.32146286217200615,
                -1.6599013515442627,
                -1.5758056467936514,
                1.0818303041678983,
                0.07523776519736222,
                -1.3311623167636584
            ]
        },
        {
            "positions": [
                -0.20977952663750443,
                -1.702921412073202,
                -1.6846789249573044,
                1.1283830100105277,
                0.06923517329798837,
                -1.2639485151543501
            ]
        },
        {
            "positions": [
                -0.09809619110300272,
                -1.7459414726021412,
                -1.7935522031209574,
                1.1749357158531573,
                0.06323258139861451,
                -1.1967347135450417
            ]
        },
        {
            "positions": [
                0.013587144431498693,
                -1.7889615331310802,
                -1.90242548128461,
                1.2214884216957866,
                0.05722998949924065,
                -1.1295209119357335
            ]
        },
        {
            "positions": [
                0.01018567059279821,
                -1.8540868145956204,
                -1.98817833099958,
                1.2667424000768477,
                0.05956964249456471,
                -0.9654088734998281
            ]
        },
        {
            "positions": [
                0.00678419675409773,
                -1.9192120960601604,
                -2.07393118071455,
                1.3119963784579085,
                0.06190929548988877,
                -0.8012968350639226
            ]
        },
        {
            "positions": [
                0.003382722915397247,
                -1.9843373775247006,
                -2.15968403042952,
                1.3572503568389696,
                0.06424894848521283,
                -0.6371847966280171
            ]
        },
        {
            "positions": [
                -1.8750923303233885e-05,
                -2.0494626589892406,
                -2.2454368801444904,
                1.4025043352200304,
                0.06658860148053689,
                -0.4730727581921117
            ]
        },
        {
            "positions": [
                -0.0034202247620037166,
                -2.114587940453781,
                -2.3311897298594606,
                1.4477583136010914,
                0.06892825447586096,
                -0.3089607197562062
            ]
        },
        {
            "positions": [
                -0.006821698600704199,
                -2.179713221918321,
                -2.4169425795744304,
                1.4930122919821522,
                0.07126790747118501,
                -0.14484868132030082
            ]
        },
        {
            "positions": [
                -0.010223172439404682,
                -2.2448385033828613,
                -2.5026954292894006,
                1.5382662703632133,
                0.07360756046650907,
                0.019263357115604562
            ]
        },
        {
            "positions": [
                -0.09674475673251753,
                -2.2614992187416583,
                -2.4431070561680124,
                1.5108599759615204,
                0.12122628559011242,
                0.024778353357964262
            ]
        },
        {
            "positions": [
                -0.18326634102563039,
                -2.278159934100455,
                -2.383518683046624,
                1.4834536815598276,
                0.16884501071371577,
                0.03029334960032396
            ]
        }
    ]
}