{
    "goal": {
        "global_pose": {
            "orientation": {
                "w": 0.5084816217422485,
                "x": -0.49083608388900757,
                "y": 0.5182115435600281,
                "z": -0.4816462993621826
            },
            "position": {
                "x": 0.5540239810943604,
                "y": 0.030875300988554955,
                "z": 0.16403168439865112
            }
        },
        "name": "move_to_storage_A"
    },
    "id": "RRTstar_move_to_storage_A_141",
    "joint_names": [
        "shoulder_pan_joint",
        "shoulder_lift_joint",
        "elbow_joint",
        "wrist_1_joint",
        "wrist_2_joint",
        "wrist_3_joint"
    ],
    "metrics": {
        "cart_traj_len": 0.35309413930134703,
        "distance_elbow_joint": 0.4479519225813766,
        "distance_shoulder_lift_joint": 0.23649657183883366,
        "distance_shoulder_pan_joint": 0.4636671448648759,
        "distance_wrist_1_joint": 0.23385759153225816,
        "distance_wrist_2_joint": 1.0909742085052494,
        "distance_wrist_3_joint": 0.09567093766843948,
        "smoothness": 0.0,
        "time": 5.000084595,
        "traj_len": 1.6026909798807234,
        "weighted_distance": 2.02108684928813
    },
    "planner": "RRTstar",
    "start": {
        "state": {
            "elbow_joint": 1.971548259319323,
            "shoulder_lift_joint": -1.1394851275133948,
            "shoulder_pan_joint": 0.1228115487234821,
            "wrist_1_joint": -0.7804723859257726,
            "wrist_2_joint": 0.12958671773740124,
            "wrist_3_joint": -3.192489227718131
        }
    },
    "waypoints": [
        {
            "positions": [
                0.1228115487234821,
                -1.1394851275133948,
                1.971548259319323,
                -0.7804723859257726,
                0.12958671773740124,
                -3.192489227718131
            ]
        },
        {
            "positions": [
                0.056573385171356974,
                -1.1732703520617995,
                2.0355413911166624,
                -0.8138806132875238,
                0.28544017609529404,
                -3.178821950908354
            ]
        },
        {
            "positions": [
                -0.009664778380768152,
                -1.2070555766102045,
                2.099534522914002,
                -0.8472888406492749,
                0.4412936344531868,
                -3.165154674098577
            ]
        },
        {
            "positions": [
                -0.07590294193289329,
                -1.2408408011586092,
                2.1635276547113413,
                -0.8806970680110261,
                0.5971470928110796,
                -3.1514873972888
            ]
        },
        {
            "positions": [
                -0.1421411054850184,
                -1.274626025707014,
                2.227520786508681,
                -0.9141052953727773,
                0.7530005511689724,
                -3.137820120479023
            ]
        },
        {
            "positions": [
                -0.20837926903714354,
                -1.3084112502554188,
                2.2915139183060207,
                -0.9475135227345284,
                0.9088540095268651,
                -3.1241528436692456
            ]
        },
        {
            "positions": [
                -0.2746174325892687,
                -1.3421964748038238,
                2.35550705010336,
                -0.9809217500962796,
                1.064707467884758,
                -3.110485566859469
            ]
        },
        {
            "positions": [
                -0.3408555961413938,
                -1.3759816993522285,
                2.4195001819006996,
                -1.0143299774580308,
                1.2205609262426507,
                -3.0968182900496917
            ]
        }
    ]
}{
    "goal": {
        "global_pose": {
            "orientation": {
                "w": 0.5084816217422485,
                "x": -0.49083608388900757,
                "y": 0.5182115435600281,
                "z": -0.4816462993621826
            },
            "position": {
                "x": 0.5540239810943604,
                "y": 0.030875300988554955,
                "z": 0.16403168439865112
            }
        },
        "name": "move_to_storage_A"
    },
    "id": "RRTstar_move_to_storage_A_141",
    "joint_names": [
        "shoulder_pan_joint",
        "shoulder_lift_joint",
        "elbow_joint",
        "wrist_1_joint",
        "wrist_2_joint",
        "wrist_3_joint"
    ],
    "metrics": {
        "cart_traj_len": 0.3521600612046787,
        "distance_elbow_joint": 0.4497982500972202,
        "distance_shoulder_lift_joint": 0.2346617460695699,
        "distance_shoulder_pan_joint": 0.4616714358638051,
        "distance_wrist_1_joint": 0.23974735643003853,
        "distance_wrist_2_joint": 1.0923278013923394,
        "distance_wrist_3_joint": 0.095089836219036,
        "smoothness": 6.661338146305771e-16,
        "time": 5.001248027,
        "traj_len": 1.6041497517601058,
        "weighted_distance": 2.023746836027782
    },
    "planner": "RRTstar",
    "start": {
        "state": {
            "elbow_joint": 1.97154746011099,
            "shoulder_lift_joint": -1.13948474672311,
            "shoulder_pan_joint": 0.12281154466712228,
            "wrist_1_joint": -0.7804688027058302,
            "wrist_2_joint": 0.12958655903071145,
            "wrist_3_joint": 3.0906928834467795
        }
    },
    "waypoints": [
        {
            "positions": [
                0.12281154466712228,
                -1.13948474672311,
                1.97154746011099,
                -0.7804688027058302,
                0.12958655903071145,
                3.0906928834467795
            ]
        },
        {
            "positions": [
                0.05685848240086441,
                -1.173007853304477,
                2.0358043529820216,
                -0.8147184250529785,
                0.28563338780104564,
                3.1042771457637848
            ]
        },
        {
            "positions": [
                -0.009094579865393457,
                -1.2065309598858442,
                2.1000612458530528,
                -0.8489680474001269,
                0.4416802165713798,
                3.1178614080807896
            ]
        },
        {
            "positions": [
                -0.07504764213165131,
                -1.2400540664672113,
                2.1643181387240844,
                -0.8832176697472752,
                0.5977270453417141,
                3.131445670397795
            ]
        },
        {
            "positions": [
                -0.14100070439790918,
                -1.2735771730485785,
                2.2285750315951156,
                -0.9174672920944236,
                0.7537738741120482,
                3.1450299327148
            ]
        },
        {
            "positions": [
                -0.2069537666641671,
                -1.3071002796299456,
                2.2928319244661473,
                -0.951716914441572,
                0.9098207028823825,
                3.1586141950318054
            ]
        },
        {
            "positions": [
                -0.2729068289304249,
                -1.3406233862113126,
                2.3570888173371785,
                -0.9859665367887204,
                1.0658675316527166,
                3.1721984573488102
            ]
        },
        {
            "positions": [
                -0.3388598911966828,
                -1.3741464927926799,
                2.42134571020821,
                -1.0202161591358687,
                1.221914360423051,
                3.1857827196658155
            ]
        }
    ]
}{
    "goal": {
        "global_pose": {
            "orientation": {
                "w": 0.5084816217422485,
                "x": -0.49083608388900757,
                "y": 0.5182115435600281,
                "z": -0.4816462993621826
            },
            "position": {
                "x": 0.5540239810943604,
                "y": 0.030875300988554955,
                "z": 0.16403168439865112
            }
        },
        "name": "move_to_storage_A"
    },
    "id": "RRTstar_move_to_storage_A_141",
    "joint_names": [
        "shoulder_pan_joint",
        "shoulder_lift_joint",
        "elbow_joint",
        "wrist_1_joint",
        "wrist_2_joint",
        "wrist_3_joint"
    ],
    "metrics": {
        "cart_traj_len": 0.3524199089931203,
        "distance_elbow_joint": 0.4481690642502123,
        "distance_shoulder_lift_joint": 0.2356401115067095,
        "distance_shoulder_pan_joint": 0.46166886558723946,
        "distance_wrist_1_joint": 0.23713294274521268,
        "distance_wrist_2_joint": 1.094039797959536,
        "distance_wrist_3_joint": 0.09859426660617876,
        "smoothness": 1.1102230298998083e-15,
        "time": 5.000151188999999,
        "traj_len": 1.6047570061087406,
        "weighted_distance": 2.025735995279788
    },
    "planner": "RRTstar",
    "start": {
        "state": {
            "elbow_joint": 1.9715472970024885,
            "shoulder_lift_joint": -1.1394870060712896,
            "shoulder_pan_joint": 0.12281152778156021,
            "wrist_1_joint": -0.780463741449964,
            "wrist_2_joint": 0.12958659822042276,
            "wrist_3_joint": 3.090690232415272
        }
    },
    "waypoints": [
        {
            "positions": [
                0.12281152778156021,
                -1.1394870060712896,
                1.9715472970024885,
                -0.780463741449964,
                0.12958659822042276,
                3.090690232415272
            ]
        },
        {
            "positions": [
                0.056858832697668865,
                -1.1731498791436767,
                2.0355714490382333,
                -0.8143398761278515,
                0.2858779979289279,
                3.104775127644726
            ]
        },
        {
            "positions": [
                -0.009093862386222479,
                -1.2068127522160637,
                2.0995956010739776,
                -0.848216010805739,
                0.442169397637433,
                3.11886002287418
            ]
        },
        {
            "positions": [
                -0.07504655747011382,
                -1.2404756252884508,
                2.1636197531097223,
                -0.8820921454836266,
                0.5984607973459382,
                3.132944918103634
            ]
        },
        {
            "positions": [
                -0.14099925255400517,
                -1.274138498360838,
                2.227643905145467,
                -0.9159682801615141,
                0.7547521970544433,
                3.1470298133330883
            ]
        },
        {
            "positions": [
                -0.2069519476378965,
                -1.307801371433225,
                2.291668057181212,
                -0.9498444148394016,
                0.9110435967629484,
                3.1611147085625424
            ]
        },
        {
            "positions": [
                -0.2729046427217878,
                -1.341464244505612,
                2.355692209216956,
                -0.9837205495172892,
                1.0673349964714536,
                3.1751996037919965
            ]
        },
        {
            "positions": [
                -0.3388573378056792,
                -1.375127117577999,
                2.419716361252701,
                -1.0175966841951767,
                1.2236263961799587,
                3.1892844990214506
            ]
        }
    ]
}