{
    "goal": {
        "global_pose": {
            "orientation": {
                "w": 0.7047431468963623,
                "x": -0.7094548344612122,
                "y": 0.0024358443915843964,
                "z": -0.0022348060738295317
            },
            "position": {
                "x": 0.6094750761985779,
                "y": 0.3671506643295288,
                "z": 0.19426114857196808
            }
        },
        "name": "move_to_magneteinheit_A"
    },
    "id": "RRTstar_move_to_magneteinheit_A_38",
    "joint_names": [
        "shoulder_pan_joint",
        "shoulder_lift_joint",
        "elbow_joint",
        "wrist_1_joint",
        "wrist_2_joint",
        "wrist_3_joint"
    ],
    "metrics": {
        "cart_traj_len": 3.2992857831694566,
        "distance_elbow_joint": 3.906925472886651,
        "distance_shoulder_lift_joint": 0.47092735473783087,
        "distance_shoulder_pan_joint": 2.7617086671205358,
        "distance_wrist_1_joint": 3.4508158931104553,
        "distance_wrist_2_joint": 1.5212044880260018,
        "distance_wrist_3_joint": 0.549035780426769,
        "smoothness": 0.09168822592161893,
        "time": 5.030729716000001,
        "traj_len": 3.558176169937098,
        "weighted_distance": 4.327898981988632
    },
    "planner": "RRTstar",
    "start": {
        "state": {
            "elbow_joint": -1.9196185241190666,
            "shoulder_lift_joint": -1.2443396400964142,
            "shoulder_pan_joint": 2.6996025414629847,
            "wrist_1_joint": -1.5485510000780065,
            "wrist_2_joint": -1.5709468930060704,
            "wrist_3_joint": 0.4420197071253992
        }
    },
    "waypoints": [
        {
            "positions": [
                2.6996025414629847,
                -1.2443396400964142,
                -1.9196185241190666,
                -1.5485510000780065,
                -1.5709468930060704,
                0.4420197071253992
            ]
        },
        {
            "positions": [
                2.5832394437370376,
                -1.2311539843413224,
                -1.8040306035151596,
                -1.4607219152306028,
                -1.513416095359196,
                0.4448490959108714
            ]
        },
        {
            "positions": [
                2.46687634601109,
                -1.2179683285862306,
                -1.6884426829112527,
                -1.3728928303831993,
                -1.4558852977123218,
                0.4476784846963437
            ]
        },
        {
            "positions": [
                2.350513248285143,
                -1.2047826728311388,
                -1.5728547623073457,
                -1.2850637455357958,
                -1.3983545000654474,
                0.4505078734818159
            ]
        },
        {
            "positions": [
                2.2341501505591954,
                -1.191597017076047,
                -1.4572668417034385,
                -1.1972346606883921,
                -1.340823702418573,
                0.4533372622672882
            ]
        },
        {
            "positions": [
                2.1177870528332483,
                -1.1784113613209553,
                -1.3416789210995315,
                -1.1094055758409884,
                -1.2832929047716988,
                0.45616665105276044
            ]
        },
        {
            "positions": [
                2.001423955107301,
                -1.1652257055658635,
                -1.2260910004956245,
                -1.021576490993585,
                -1.2257621071248244,
                0.45899603983823273
            ]
        },
        {
            "positions": [
                1.8850608573813536,
                -1.1520400498107717,
                -1.1105030798917175,
                -0.9337474061461812,
                -1.16823130947795,
                0.46182542862370496
            ]
        },
        {
            "positions": [
                1.7686977596554065,
                -1.13885439405568,
                -0.9949151592878104,
                -0.8459183212987776,
                -1.1107005118310758,
                0.46465481740917725
            ]
        },
        {
            "positions": [
                1.652334661929459,
                -1.1256687383005881,
                -0.8793272386839033,
                -0.758089236451374,
                -1.0531697141842011,
                0.4674842061946495
            ]
        },
        {
            "positions": [
                1.5359715642035119,
                -1.1124830825454963,
                -0.7637393180799963,
                -0.6702601516039705,
                -0.9956389165373271,
                0.4703135949801217
            ]
        },
        {
            "positions": [
                1.4196084664775646,
                -1.0992974267904048,
                -0.6481513974760893,
                -0.5824310667565669,
                -0.9381081188904526,
                0.473142983765594
            ]
        },
        {
            "positions": [
                1.3032453687516175,
                -1.086111771035313,
                -0.5325634768721823,
                -0.4946019819091634,
                -0.8805773212435783,
                0.4759723725510662
            ]
        },
        {
            "positions": [
                1.18688227102567,
                -1.0729261152802212,
                -0.4169755562682751,
                -0.4067728970617597,
                -0.8230465235967039,
                0.4788017613365385
            ]
        },
        {
            "positions": [
                1.0705191732997228,
                -1.0597404595251294,
                -0.3013876356643683,
                -0.31894381221435597,
                -0.7655157259498296,
                0.48163115012201074
            ]
        },
        {
            "positions": [
                0.9541560755737755,
                -1.0465548037700376,
                -0.18579971506046133,
                -0.2311147273669525,
                -0.7079849283029553,
                0.48446053890748303
            ]
        },
        {
            "positions": [
                0.8377929778478281,
                -1.0333691480149458,
                -0.07021179445655412,
                -0.14328564251954878,
                -0.6504541306560809,
                0.48728992769295526
            ]
        },
        {
            "positions": [
                0.7214298801218808,
                -1.020183492259854,
                0.04537612614735287,
                -0.0554565576721453,
                -0.5929233330092066,
                0.49011931647842755
            ]
        },
        {
            "positions": [
                0.6050667823959333,
                -1.0069978365047623,
                0.16096404675126008,
                0.0323725271752584,
                -0.5353925353623321,
                0.4929487052638998
            ]
        },
        {
            "positions": [
                0.48870368466998615,
                -0.9938121807496705,
                0.27655196735516707,
                0.12020161202266189,
                -0.4778617377154579,
                0.49577809404937206
            ]
        },
        {
            "positions": [
                0.37234058694403904,
                -0.9806265249945787,
                0.39213988795907406,
                0.2080306968700656,
                -0.42033094006858374,
                0.4986074828348443
            ]
        },
        {
            "positions": [
                0.2559774892180915,
                -0.9674408692394869,
                0.507727808562981,
                0.2958597817174693,
                -0.3628001424217091,
                0.5014368716203166
            ]
        },
        {
            "positions": [
                0.13961439149214439,
                -0.9542552134843951,
                0.6233157291668882,
                0.3836888665648729,
                -0.3052693447748349,
                0.5042662604057888
            ]
        },
        {
            "positions": [
                0.12745867731323107,
                -0.9364390052601643,
                0.7570139564495717,
                0.5243504185116682,
                -0.2811407283637687,
                0.4626762751111056
            ]
        },
        {
            "positions": [
                0.11530296313431776,
                -0.9186227970359335,
                0.8907121837322554,
                0.6650119704584636,
                -0.2570121119527025,
                0.4210862898164224
            ]
        },
        {
            "positions": [
                0.10314724895540446,
                -0.9008065888117028,
                1.024410411014939,
                0.8056735224052589,
                -0.23288349554163632,
                0.37949630452173916
            ]
        },
        {
            "positions": [
                0.09099153477649115,
                -0.882990380587472,
                1.1581086382976227,
                0.9463350743520542,
                -0.20875487913057011,
                0.33790631922705594
            ]
        },
        {
            "positions": [
                0.07883582059757784,
                -0.8651741723632412,
                1.2918068655803063,
                1.0869966262988495,
                -0.1846262627195039,
                0.29631633393237267
            ]
        },
        {
            "positions": [
                0.06668010641866454,
                -0.8473579641390104,
                1.4255050928629898,
                1.2276581782456448,
                -0.1604976463084377,
                0.2547263486376895
            ]
        },
        {
            "positions": [
                0.05452439223975121,
                -0.8295417559147797,
                1.5592033201456734,
                1.3683197301924404,
                -0.13636902989737149,
                0.21313636334300623
            ]
        },
        {
            "positions": [
                0.04236867806083791,
                -0.8117255476905489,
                1.6929015474283569,
                1.5089812821392354,
                -0.11224041348630528,
                0.171546378048323
            ]
        },
        {
            "positions": [
                0.030212963881924605,
                -0.7939093394663181,
                1.8265997747110405,
                1.649642834086031,
                -0.0881117970752391,
                0.12995639275363977
            ]
        },
        {
            "positions": [
                0.07637250865166256,
                -0.7836608124124507,
                1.9069533617393124,
                1.7759538635592391,
                -0.10729649312282466,
                0.07371671300652455
            ]
        },
        {
            "positions": [
                0.12253205342140053,
                -0.7734122853585833,
                1.987306948767584,
                1.9022648930324475,
                -0.1264811891704102,
                0.017477033259409337
            ]
        }
    ]
}