{
    "goal": {
        "global_pose": {
            "orientation": {
                "w": 0.5084816217422485,
                "x": -0.49083608388900757,
                "y": 0.5182115435600281,
                "z": -0.4816462993621826
            },
            "position": {
                "x": 0.5540239810943604,
                "y": 0.030875300988554955,
                "z": 0.16403168439865112
            }
        },
        "name": "move_to_storage_A"
    },
    "id": "RRTstar_move_to_storage_A_104",
    "joint_names": [
        "shoulder_pan_joint",
        "shoulder_lift_joint",
        "elbow_joint",
        "wrist_1_joint",
        "wrist_2_joint",
        "wrist_3_joint"
    ],
    "metrics": {
        "cart_traj_len": 0.3533793848486137,
        "distance_elbow_joint": 0.4492892553581871,
        "distance_shoulder_lift_joint": 0.23509291895307283,
        "distance_shoulder_pan_joint": 0.4643754018865893,
        "distance_wrist_1_joint": 0.2376415637679984,
        "distance_wrist_2_joint": 1.0899158721920745,
        "distance_wrist_3_joint": 0.09069269677693415,
        "smoothness": 0.0,
        "time": 5.003232303000001,
        "traj_len": 1.6021884124330872,
        "weighted_distance": 2.0188983477255107
    },
    "planner": "RRTstar",
    "start": {
        "state": {
            "elbow_joint": 1.971548259319323,
            "shoulder_lift_joint": -1.1394851275133948,
            "shoulder_pan_joint": 0.1228115487234821,
            "wrist_1_joint": -0.7804723859257726,
            "wrist_2_joint": 0.12958671773740124,
            "wrist_3_joint": -3.192489227718131
        }
    },
    "waypoints": [
        {
            "positions": [
                0.1228115487234821,
                -1.1394851275133948,
                1.971548259319323,
                -0.7804723859257726,
                0.12958671773740124,
                -3.192489227718131
            ]
        },
        {
            "positions": [
                0.05647220559682649,
                -1.1730698302209766,
                2.035732438656207,
                -0.8144211807497724,
                0.2852889851934119,
                -3.1795331281785693
            ]
        },
        {
            "positions": [
                -0.009867137529829123,
                -1.2066545329285585,
                2.099916617993091,
                -0.8483699755737721,
                0.4409912526494225,
                -3.166577028639007
            ]
        },
        {
            "positions": [
                -0.07620648065648475,
                -1.2402392356361402,
                2.1641007973299744,
                -0.882318770397772,
                0.5966935201054332,
                -3.153620929099445
            ]
        },
        {
            "positions": [
                -0.14254582378314035,
                -1.2738239383437222,
                2.2282849766668584,
                -0.9162675652217717,
                0.7523957875614439,
                -3.140664829559883
            ]
        },
        {
            "positions": [
                -0.20888516690979597,
                -1.307408641051304,
                2.2924691560037425,
                -0.9502163600457715,
                0.9080980550174546,
                -3.1277087300203212
            ]
        },
        {
            "positions": [
                -0.2752245100364516,
                -1.340993343758886,
                2.356653335340626,
                -0.9841651548697712,
                1.0638003224734651,
                -3.114752630480759
            ]
        },
        {
            "positions": [
                -0.3415638531631072,
                -1.3745780464664676,
                2.42083751467751,
                -1.018113949693771,
                1.2195025899294758,
                -3.101796530941197
            ]
        }
    ]
}{
    "goal": {
        "global_pose": {
            "orientation": {
                "w": 0.5084816217422485,
                "x": -0.49083608388900757,
                "y": 0.5182115435600281,
                "z": -0.4816462993621826
            },
            "position": {
                "x": 0.5540239810943604,
                "y": 0.030875300988554955,
                "z": 0.16403168439865112
            }
        },
        "name": "move_to_storage_A"
    },
    "id": "RRTstar_move_to_storage_A_104",
    "joint_names": [
        "shoulder_pan_joint",
        "shoulder_lift_joint",
        "elbow_joint",
        "wrist_1_joint",
        "wrist_2_joint",
        "wrist_3_joint"
    ],
    "metrics": {
        "cart_traj_len": 0.3526888558683485,
        "distance_elbow_joint": 0.44764296790817726,
        "distance_shoulder_lift_joint": 0.23470377266606302,
        "distance_shoulder_pan_joint": 0.46051126839931833,
        "distance_wrist_1_joint": 0.2361735363673252,
        "distance_wrist_2_joint": 1.1005789921985003,
        "distance_wrist_3_joint": 0.08852898609736748,
        "smoothness": 4.440892133664971e-16,
        "time": 5.001075113000001,
        "traj_len": 1.6025415824984859,
        "weighted_distance": 2.020383632976003
    },
    "planner": "RRTstar",
    "start": {
        "state": {
            "elbow_joint": 1.97154746011099,
            "shoulder_lift_joint": -1.13948474672311,
            "shoulder_pan_joint": 0.12281154466712228,
            "wrist_1_joint": -0.7804688027058302,
            "wrist_2_joint": 0.12958655903071145,
            "wrist_3_joint": 3.0906928834467795
        }
    },
    "waypoints": [
        {
            "positions": [
                0.12281154466712228,
                -1.13948474672311,
                1.97154746011099,
                -0.7804688027058302,
                0.12958655903071145,
                3.0906928834467795
            ]
        },
        {
            "positions": [
                0.05702422061007681,
                -1.173013857103976,
                2.035496455526444,
                -0.8142078793297338,
                0.28681212934478295,
                3.103339881460689
            ]
        },
        {
            "positions": [
                -0.008763103446968665,
                -1.2065429674848422,
                2.099445450941898,
                -0.8479469559536373,
                0.4440376996588544,
                3.115986879474599
            ]
        },
        {
            "positions": [
                -0.07455042750401412,
                -1.2400720778657084,
                2.163394446357352,
                -0.881686032577541,
                0.6012632699729259,
                3.1286338774885083
            ]
        },
        {
            "positions": [
                -0.1403377515610596,
                -1.2736011882465745,
                2.2273434417728053,
                -0.9154251092014446,
                0.7584888402869974,
                3.141280875502418
            ]
        },
        {
            "positions": [
                -0.2061250756181051,
                -1.3071302986274407,
                2.2912924371882593,
                -0.9491641858253481,
                0.9157144106010688,
                3.1539278735163276
            ]
        },
        {
            "positions": [
                -0.2719123996751505,
                -1.3406594090083068,
                2.355241432603713,
                -0.9829032624492517,
                1.0729399809151403,
                3.1665748715302375
            ]
        },
        {
            "positions": [
                -0.33769972373219603,
                -1.374188519389173,
                2.419190428019167,
                -1.0166423390731554,
                1.2301655512292118,
                3.179221869544147
            ]
        }
    ]
}{
    "goal": {
        "global_pose": {
            "orientation": {
                "w": 0.5084816217422485,
                "x": -0.49083608388900757,
                "y": 0.5182115435600281,
                "z": -0.4816462993621826
            },
            "position": {
                "x": 0.5540239810943604,
                "y": 0.030875300988554955,
                "z": 0.16403168439865112
            }
        },
        "name": "move_to_storage_A"
    },
    "id": "RRTstar_move_to_storage_A_104",
    "joint_names": [
        "shoulder_pan_joint",
        "shoulder_lift_joint",
        "elbow_joint",
        "wrist_1_joint",
        "wrist_2_joint",
        "wrist_3_joint"
    ],
    "metrics": {
        "cart_traj_len": 0.3533906875369344,
        "distance_elbow_joint": 0.44789435593405225,
        "distance_shoulder_lift_joint": 0.23350347238730396,
        "distance_shoulder_pan_joint": 0.46263687197520303,
        "distance_wrist_1_joint": 0.23662110747397902,
        "distance_wrist_2_joint": 1.0963437036903865,
        "distance_wrist_3_joint": 0.10141707422887558,
        "smoothness": 6.661338165333112e-16,
        "time": 5.001365692,
        "traj_len": 1.605744869426585,
        "weighted_distance": 2.0283529143893864
    },
    "planner": "RRTstar",
    "start": {
        "state": {
            "elbow_joint": 1.9715472970024885,
            "shoulder_lift_joint": -1.1394870060712896,
            "shoulder_pan_joint": 0.12281152778156021,
            "wrist_1_joint": -0.780463741449964,
            "wrist_2_joint": 0.12958659822042276,
            "wrist_3_joint": 3.090690232415272
        }
    },
    "waypoints": [
        {
            "positions": [
                0.12281152778156021,
                -1.1394870060712896,
                1.9715472970024885,
                -0.780463741449964,
                0.12958659822042276,
                3.090690232415272
            ]
        },
        {
            "positions": [
                0.05672054607081693,
                -1.1728446449837615,
                2.0355322049930673,
                -0.8142667568033896,
                0.2862071273190494,
                3.1051783858765396
            ]
        },
        {
            "positions": [
                -0.009370435639926344,
                -1.2062022838962336,
                2.0995171129836465,
                -0.8480697721568151,
                0.4428276564176761,
                3.119666539337808
            ]
        },
        {
            "positions": [
                -0.07546141735066964,
                -1.2395599228087055,
                2.1635020209742253,
                -0.8818727875102407,
                0.5994481855163026,
                3.1341546927990755
            ]
        },
        {
            "positions": [
                -0.1415523990614129,
                -1.2729175617211776,
                2.227486928964804,
                -0.9156758028636662,
                0.7560687146149293,
                3.1486428462603437
            ]
        },
        {
            "positions": [
                -0.2076433807721562,
                -1.3062752006336495,
                2.291471836955383,
                -0.9494788182170919,
                0.912689243713556,
                3.1631309997216115
            ]
        },
        {
            "positions": [
                -0.2737343624828995,
                -1.3396328395461214,
                2.355456744945962,
                -0.9832818335705175,
                1.0693097728121825,
                3.1776191531828797
            ]
        },
        {
            "positions": [
                -0.3398253441936428,
                -1.3729904784585936,
                2.419441652936541,
                -1.017084848923943,
                1.2259303019108092,
                3.1921073066441474
            ]
        }
    ]
}