{
    "goal": {
        "global_pose": {
            "orientation": {
                "w": 0.005598929693374612,
                "x": 0.007748599140229565,
                "y": 0.7110244013736278,
                "z": -0.7031023480610252
            },
            "position": {
                "x": 0.1141497679147869,
                "y": -0.7141253447532654,
                "z": 0.3711530566215515
            }
        },
        "name": "move_to_auspresseinheit_B"
    },
    "id": "RRTstar_move_to_auspresseinheit_B_96",
    "joint_names": [
        "shoulder_pan_joint",
        "shoulder_lift_joint",
        "elbow_joint",
        "wrist_1_joint",
        "wrist_2_joint",
        "wrist_3_joint"
    ],
    "metrics": {
        "cart_traj_len": 0.5644442867225591,
        "distance_elbow_joint": 0.06067612704725911,
        "distance_shoulder_lift_joint": 0.2942155194869611,
        "distance_shoulder_pan_joint": 0.5765968088271363,
        "distance_wrist_1_joint": 0.31879839046037706,
        "distance_wrist_2_joint": 0.9954609834791717,
        "distance_wrist_3_joint": 0.001395377412963139,
        "smoothness": 0.0,
        "time": 5.001708506,
        "traj_len": 1.499047433110063,
        "weighted_distance": 1.8879071310526223
    },
    "planner": "RRTstar",
    "start": {
        "state": {
            "elbow_joint": 2.0193083361928714,
            "shoulder_lift_joint": -1.1220246554650708,
            "shoulder_pan_joint": -1.0952077554168747,
            "wrist_1_joint": -0.8559753972642168,
            "wrist_2_joint": 0.4759566250798843,
            "wrist_3_joint": -3.1240929996934557
        }
    },
    "waypoints": [
        {
            "positions": [
                -1.0952077554168747,
                -1.1220246554650708,
                2.0193083361928714,
                -0.8559753972642168,
                0.4759566250798843,
                -3.1240929996934557
            ]
        },
        {
            "positions": [
                -1.1913072235547306,
                -1.1710605753795642,
                2.0091956483516618,
                -0.8028423321874872,
                0.6418667889930796,
                -3.123860436791295
            ]
        },
        {
            "positions": [
                -1.2874066916925868,
                -1.2200964952940578,
                1.9990829605104516,
                -0.7497092671107578,
                0.8077769529062748,
                -3.1236278738891348
            ]
        },
        {
            "positions": [
                -1.3835061598304428,
                -1.2691324152085515,
                1.988970272669242,
                -0.6965762020340283,
                0.9736871168194701,
                -3.1233953109869743
            ]
        },
        {
            "positions": [
                -1.4796056279682988,
                -1.3181683351230449,
                1.978857584828032,
                -0.6434431369572988,
                1.1395972807326653,
                -3.1231627480848134
            ]
        },
        {
            "positions": [
                -1.575705096106155,
                -1.3672042550375383,
                1.9687448969868222,
                -0.5903100718805692,
                1.3055074446458608,
                -3.122930185182653
            ]
        },
        {
            "positions": [
                -1.671804564244011,
                -1.416240174952032,
                1.9586322091456123,
                -0.5371770068038397,
                1.471417608559056,
                -3.1226976222804925
            ]
        }
    ]
}