{
    "goal": {
        "global_pose": {
            "orientation": {
                "w": 0.005598929693374612,
                "x": 0.007748599140229565,
                "y": 0.7110244013736278,
                "z": -0.7031023480610252
            },
            "position": {
                "x": -0.8858502320852131,
                "y": -0.7141253447532654,
                "z": 0.3711530566215515
            }
        },
        "name": "move_to_auspresseinheit_C"
    },
    "id": "RRTstar_move_to_auspresseinheit_C_97",
    "joint_names": [
        "shoulder_pan_joint",
        "shoulder_lift_joint",
        "elbow_joint",
        "wrist_1_joint",
        "wrist_2_joint",
        "wrist_3_joint"
    ],
    "metrics": {
        "cart_traj_len": 0.4925684448791939,
        "distance_elbow_joint": 0.9935554179991244,
        "distance_shoulder_lift_joint": 0.3220113187875028,
        "distance_shoulder_pan_joint": 0.25621110563327365,
        "distance_wrist_1_joint": 0.6646010765573123,
        "distance_wrist_2_joint": 1.3064039018343556,
        "distance_wrist_3_joint": 0.05601422339062845,
        "smoothness": 1.4533828684951017e-15,
        "time": 5.000754604,
        "traj_len": 1.897049562927178,
        "weighted_distance": 2.3836590505722755
    },
    "planner": "RRTstar",
    "start": {
        "state": {
            "elbow_joint": 1.7527959577737207,
            "shoulder_lift_joint": -0.9740617694225068,
            "shoulder_pan_joint": -2.967991417825858,
            "wrist_1_joint": -0.759517768980727,
            "wrist_2_joint": 1.7443932448377408,
            "wrist_3_joint": -3.0840537646736568
        }
    },
    "waypoints": [
        {
            "positions": [
                -2.967991417825858,
                -0.9740617694225068,
                1.7527959577737207,
                -0.759517768980727,
                1.7443932448377408,
                -3.0840537646736568
            ]
        },
        {
            "positions": [
                -2.9423703072625305,
                -0.9418606375437565,
                1.6534404159738083,
                -0.6930576613249958,
                1.6137528546543052,
                -3.0896551870127196
            ]
        },
        {
            "positions": [
                -2.9167491966992034,
                -0.9096595056650062,
                1.5540848741738957,
                -0.6265975536692645,
                1.4831124644708698,
                -3.0952566093517824
            ]
        },
        {
            "positions": [
                -2.891128086135876,
                -0.8774583737862559,
                1.4547293323739834,
                -0.5601374460135333,
                1.352472074287434,
                -3.100858031690845
            ]
        },
        {
            "positions": [
                -2.8655069755725484,
                -0.8452572419075056,
                1.3553737905740708,
                -0.4936773383578021,
                1.2218316841039987,
                -3.106459454029908
            ]
        },
        {
            "positions": [
                -2.8398858650092214,
                -0.8130561100287554,
                1.2560182487741585,
                -0.42721723070207085,
                1.091191293920563,
                -3.1120608763689708
            ]
        },
        {
            "positions": [
                -2.814264754445894,
                -0.7808549781500052,
                1.1566627069742461,
                -0.3607571230463396,
                0.9605509037371275,
                -3.117662298708034
            ]
        },
        {
            "positions": [
                -2.7886436438825664,
                -0.7486538462712549,
                1.0573071651743335,
                -0.29429701539060843,
                0.8299105135536919,
                -3.123263721047097
            ]
        },
        {
            "positions": [
                -2.763022533319239,
                -0.7164527143925046,
                0.9579516233744211,
                -0.2278369077348772,
                0.6992701233702563,
                -3.1288651433861596
            ]
        },
        {
            "positions": [
                -2.737401422755912,
                -0.6842515825137543,
                0.8585960815745087,
                -0.1613768000791459,
                0.5686297331868206,
                -3.1344665657252224
            ]
        },
        {
            "positions": [
                -2.7117803121925843,
                -0.652050450635004,
                0.7592405397745963,
                -0.09491669242341472,
                0.4379893430033853,
                -3.140067988064285
            ]
        }
    ]
}