{
    "goal": {
        "global_pose": {
            "orientation": {
                "w": 0.7047431493862688,
                "x": -0.7094548369677653,
                "y": 0.0024358444001904,
                "z": -0.0022348060817251984
            },
            "position": {
                "x": -0.39052492380142206,
                "y": 0.3671506643295288,
                "z": 0.19426114857196808
            }
        },
        "name": "move_to_magneteinheit_D"
    },
    "id": "RRTstar_move_to_magneteinheit_D_143",
    "joint_names": [
        "shoulder_pan_joint",
        "shoulder_lift_joint",
        "elbow_joint",
        "wrist_1_joint",
        "wrist_2_joint",
        "wrist_3_joint"
    ],
    "metrics": {
        "cart_traj_len": 4.432590706775472,
        "distance_elbow_joint": 3.4719471201532124,
        "distance_shoulder_lift_joint": 1.6328664217771427,
        "distance_shoulder_pan_joint": 3.7531199465499956,
        "distance_wrist_1_joint": 1.5921525375976726,
        "distance_wrist_2_joint": 0.377426253439224,
        "distance_wrist_3_joint": 3.1447006251272636,
        "smoothness": 0.2618937511846257,
        "time": 5.031729083,
        "traj_len": 3.7379423356499912,
        "weighted_distance": 4.714996600840337
    },
    "planner": "RRTstar",
    "start": {
        "state": {
            "elbow_joint": 0.749534889911806,
            "shoulder_lift_joint": -0.6476975780787326,
            "shoulder_pan_joint": -2.711696901376241,
            "wrist_1_joint": -0.07506478083263063,
            "wrist_2_joint": 0.43296659715538205,
            "wrist_3_joint": -3.14703540197715
        }
    },
    "waypoints": [
        {
            "positions": [
                -2.711696901376241,
                -0.6476975780787326,
                0.749534889911806,
                -0.07506478083263063,
                0.43296659715538205,
                -3.14703540197715
            ]
        },
        {
            "positions": [
                -2.719501416414725,
                -0.7232546691774708,
                0.7710679882005915,
                0.01271654759020524,
                0.44114778022070533,
                -2.9582072609914274
            ]
        },
        {
            "positions": [
                -2.727305931453209,
                -0.798811760276209,
                0.792601086489377,
                0.10049787601304111,
                0.4493289632860286,
                -2.7693791200057047
            ]
        },
        {
            "positions": [
                -2.7351104464916935,
                -0.8743688513749472,
                0.8141341847781626,
                0.18827920443587698,
                0.4575101463513519,
                -2.580550979019982
            ]
        },
        {
            "positions": [
                -2.7429149615301776,
                -0.9499259424736854,
                0.835667283066948,
                0.27606053285871285,
                0.4656913294166751,
                -2.3917228380342594
            ]
        },
        {
            "positions": [
                -2.7507194765686616,
                -1.0254830335724237,
                0.8572003813557336,
                0.3638418612815487,
                0.4738725124819984,
                -2.202894697048537
            ]
        },
        {
            "positions": [
                -2.758523991607146,
                -1.1010401246711619,
                0.8787334796445192,
                0.4516231897043846,
                0.4820536955473217,
                -2.014066556062814
            ]
        },
        {
            "positions": [
                -2.76632850664563,
                -1.1765972157699,
                0.9002665779333048,
                0.5394045181272205,
                0.490234878612645,
                -1.8252384150770915
            ]
        },
        {
            "positions": [
                -2.774133021684114,
                -1.2521543068686383,
                0.9217996762220902,
                0.6271858465500564,
                0.49841606167796826,
                -1.6364102740913689
            ]
        },
        {
            "positions": [
                -2.624666384145998,
                -1.285265479860122,
                0.8188927279708494,
                0.6588228304251851,
                0.4935845286222916,
                -1.5648262770939498
            ]
        },
        {
            "positions": [
                -2.4751997466078817,
                -1.3183766528516059,
                0.7159857797196088,
                0.6904598143003138,
                0.48875299556661483,
                -1.4932422800965308
            ]
        },
        {
            "positions": [
                -2.3257331090697657,
                -1.3514878258430896,
                0.613078831468368,
                0.7220967981754424,
                0.48392146251093815,
                -1.4216582830991118
            ]
        },
        {
            "positions": [
                -2.1762664715316493,
                -1.3845989988345735,
                0.5101718832171271,
                0.7537337820505711,
                0.47908992945526147,
                -1.3500742861016928
            ]
        },
        {
            "positions": [
                -2.0267998339935334,
                -1.4177101718260572,
                0.40726493496588645,
                0.7853707659256998,
                0.4742583963995847,
                -1.2784902891042738
            ]
        },
        {
            "positions": [
                -1.8773331964554172,
                -1.450821344817541,
                0.30435798671464565,
                0.8170077498008285,
                0.46942686334390804,
                -1.2069062921068547
            ]
        },
        {
            "positions": [
                -1.727866558917301,
                -1.4839325178090248,
                0.20145103846340484,
                0.848644733675957,
                0.46459533028823136,
                -1.1353222951094357
            ]
        },
        {
            "positions": [
                -1.5783999213791848,
                -1.5170436908005085,
                0.09854409021216415,
                0.8802817175510858,
                0.4597637972325546,
                -1.0637382981120167
            ]
        },
        {
            "positions": [
                -1.4289332838410689,
                -1.5501548637919924,
                -0.004362858039076656,
                0.9119187014262145,
                0.45493226417687793,
                -0.9921543011145976
            ]
        },
        {
            "positions": [
                -1.2794666463029527,
                -1.583266036783476,
                -0.10726980629031735,
                0.9435556853013431,
                0.45010073112120125,
                -0.9205703041171786
            ]
        },
        {
            "positions": [
                -1.1300000087648363,
                -1.61637720977496,
                -0.21017675454155837,
                0.9751926691764718,
                0.4452691980655245,
                -0.8489863071197595
            ]
        },
        {
            "positions": [
                -0.9805333712267204,
                -1.6494883827664437,
                -0.31308370279279896,
                1.0068296530516005,
                0.4404376650098478,
                -0.7774023101223405
            ]
        },
        {
            "positions": [
                -0.8310667336886042,
                -1.6825995557579276,
                -0.41599065104403976,
                1.0384666369267292,
                0.43560613195417114,
                -0.7058183131249214
            ]
        },
        {
            "positions": [
                -0.681600096150488,
                -1.7157107287494113,
                -0.5188975992952806,
                1.070103620801858,
                0.43077459889849445,
                -0.6342343161275026
            ]
        },
        {
            "positions": [
                -0.5321334586123716,
                -1.7488219017408952,
                -0.6218045475465214,
                1.1017406046769866,
                0.4259430658428177,
                -0.5626503191300833
            ]
        },
        {
            "positions": [
                -0.38266682107425565,
                -1.781933074732379,
                -0.724711495797762,
                1.1333775885521153,
                0.42111153278714103,
                -0.49106632213266455
            ]
        },
        {
            "positions": [
                -0.2332001835361397,
                -1.8150442477238626,
                -0.827618444049003,
                1.165014572427244,
                0.4162799997314643,
                -0.4194823251352453
            ]
        },
        {
            "positions": [
                -0.08373354599802374,
                -1.8481554207153463,
                -0.9305253923002436,
                1.1966515563023725,
                0.4114484666757876,
                -0.3478983281378263
            ]
        },
        {
            "positions": [
                0.06573309154009266,
                -1.8812665937068302,
                -1.0334323405514843,
                1.2282885401775012,
                0.4066169336201109,
                -0.27631433114040727
            ]
        },
        {
            "positions": [
                0.2151997290782086,
                -1.9143777666983142,
                -1.1363392888027248,
                1.25992552405263,
                0.40178540056443424,
                -0.20473033414298825
            ]
        },
        {
            "positions": [
                0.3646663666163249,
                -1.9474889396897979,
                -1.2392462370539659,
                1.2915625079277586,
                0.3969538675087575,
                -0.13314633714556912
            ]
        },
        {
            "positions": [
                0.2858257326246557,
                -1.9950710911420946,
                -1.4019085828492333,
                1.3237804006187992,
                0.3668803539734108,
                -0.11445897138904325
            ]
        },
        {
            "positions": [
                0.20698509863298656,
                -2.0426532425943913,
                -1.5645709286445009,
                1.3559982933098396,
                0.3368068404380641,
                -0.09577160563251738
            ]
        },
        {
            "positions": [
                0.1281444646413174,
                -2.090235394046688,
                -1.7272332744397683,
                1.3882161860008801,
                0.3067333269027174,
                -0.07708423987599153
            ]
        },
        {
            "positions": [
                0.04930383064964822,
                -2.137817545498985,
                -1.8898956202350359,
                1.4204340786919205,
                0.27665981336737067,
                -0.05839687411946566
            ]
        },
        {
            "positions": [
                -0.029536803342020967,
                -2.185399696951282,
                -2.052557966030303,
                1.452651971382961,
                0.24658629983202393,
                -0.039709508362939794
            ]
        },
        {
            "positions": [
                -0.1083774373336901,
                -2.2329818484035786,
                -2.2152203118255707,
                1.4848698640740015,
                0.21651278629667725,
                -0.021022142606413927
            ]
        },
        {
            "positions": [
                -0.18721807132535925,
                -2.2805639998558753,
                -2.3778826576208383,
                1.517087756765042,
                0.18643927276133052,
                -0.0023347768498880655
            ]
        }
    ]
}