{
    "goal": {
        "global_pose": {
            "orientation": {
                "w": 0.7031023480610252,
                "x": -0.7110244013736278,
                "y": 0.0077485991402295624,
                "z": 0.005598929693374583
            },
            "position": {
                "x": -0.8841497679147869,
                "y": 0.44412534475326537,
                "z": 0.3711530566215515
            }
        },
        "name": "move_to_auspresseinheit_D"
    },
    "id": "RRTstar_move_to_auspresseinheit_D_127",
    "joint_names": [
        "shoulder_pan_joint",
        "shoulder_lift_joint",
        "elbow_joint",
        "wrist_1_joint",
        "wrist_2_joint",
        "wrist_3_joint"
    ],
    "metrics": {
        "cart_traj_len": 0.34285513671120676,
        "distance_elbow_joint": 0.6324637930288566,
        "distance_shoulder_lift_joint": 0.11824078490892687,
        "distance_shoulder_pan_joint": 0.13386043425013433,
        "distance_wrist_1_joint": 0.5085968034826593,
        "distance_wrist_2_joint": 1.4385769160893824,
        "distance_wrist_3_joint": 0.03152762929472175,
        "smoothness": 1.9737298371844314e-16,
        "time": 5.001578356,
        "traj_len": 1.6921188968434462,
        "weighted_distance": 2.2075994517158604
    },
    "planner": "RRTstar",
    "start": {
        "state": {
            "elbow_joint": -1.8275523626775212,
            "shoulder_lift_joint": -2.126789852344167,
            "shoulder_pan_joint": -0.03513704404078235,
            "wrist_1_joint": -2.347782403156801,
            "wrist_2_joint": -1.6058999987535132,
            "wrist_3_joint": -3.0880379163319196
        }
    },
    "waypoints": [
        {
            "positions": [
                -0.03513704404078235,
                -2.126789852344167,
                -1.8275523626775212,
                -2.347782403156801,
                -1.6058999987535132,
                -3.0880379163319196
            ]
        },
        {
            "positions": [
                -0.05186959832204914,
                -2.1415699504577828,
                -1.7484943885489141,
                -2.4113570035921335,
                -1.4260778842423405,
                -3.09197886999376
            ]
        },
        {
            "positions": [
                -0.06860215260331592,
                -2.1563500485713987,
                -1.669436414420307,
                -2.4749316040274656,
                -1.2462557697311676,
                -3.0959198236556
            ]
        },
        {
            "positions": [
                -0.08533470688458272,
                -2.1711301466850146,
                -1.5903784402917,
                -2.538506204462798,
                -1.0664336552199947,
                -3.0998607773174403
            ]
        },
        {
            "positions": [
                -0.10206726116584952,
                -2.18591024479863,
                -1.511320466163093,
                -2.6020808048981303,
                -0.886611540708822,
                -3.1038017309792805
            ]
        },
        {
            "positions": [
                -0.11879981544711632,
                -2.200690342912246,
                -1.4322624920344857,
                -2.665655405333463,
                -0.7067894261976492,
                -3.1077426846411207
            ]
        },
        {
            "positions": [
                -0.1355323697283831,
                -2.215470441025862,
                -1.3532045179058787,
                -2.7292300057687955,
                -0.5269673116864764,
                -3.111683638302961
            ]
        },
        {
            "positions": [
                -0.1522649240096499,
                -2.230250539139478,
                -1.2741465437772717,
                -2.7928046062041276,
                -0.34714519717530345,
                -3.115624591964801
            ]
        },
        {
            "positions": [
                -0.1689974782909167,
                -2.2450306372530937,
                -1.1950885696486646,
                -2.85637920663946,
                -0.16732308266413068,
                -3.1195655456266413
            ]
        }
    ]
}