{
    "goal": {
        "global_pose": {
            "orientation": {
                "w": -0.4816463035849501,
                "x": 0.5182115481033762,
                "y": 0.4908360881923453,
                "z": -0.5084816262002911
            },
            "position": {
                "x": -0.8240239810943604,
                "y": -0.300875300988555,
                "z": 0.16403168439865112
            }
        },
        "name": "move_to_storage_C"
    },
    "id": "RRTstar_move_to_storage_C_53",
    "joint_names": [
        "shoulder_pan_joint",
        "shoulder_lift_joint",
        "elbow_joint",
        "wrist_1_joint",
        "wrist_2_joint",
        "wrist_3_joint"
    ],
    "metrics": {
        "cart_traj_len": 0.576599202434912,
        "distance_elbow_joint": 0.2548947123343668,
        "distance_shoulder_lift_joint": 0.18901772135580075,
        "distance_shoulder_pan_joint": 0.494844249908978,
        "distance_wrist_1_joint": 0.06547956589452142,
        "distance_wrist_2_joint": 1.0668616154233606,
        "distance_wrist_3_joint": 0.05902610042340983,
        "smoothness": 0.0,
        "time": 5.000734829,
        "traj_len": 1.4594944211405665,
        "weighted_distance": 1.838618325674238
    },
    "planner": "RRTstar",
    "start": {
        "state": {
            "elbow_joint": 2.010868314990456,
            "shoulder_lift_joint": -1.1634956873337592,
            "shoulder_pan_joint": -2.4736205022346125,
            "wrist_1_joint": -0.8367026794202681,
            "wrist_2_joint": 0.6746043897044499,
            "wrist_3_joint": -3.1496632123970403
        }
    },
    "waypoints": [
        {
            "positions": [
                -2.4736205022346125,
                -1.1634956873337592,
                2.010868314990456,
                -0.8367026794202681,
                0.6746043897044499,
                -3.1496632123970403
            ]
        },
        {
            "positions": [
                -2.556094543886109,
                -1.131992733774459,
                1.968385862934728,
                -0.8257894184378478,
                0.8524146589416767,
                -3.1398255289931387
            ]
        },
        {
            "positions": [
                -2.6385685855376053,
                -1.100489780215159,
                1.9259034108790003,
                -0.8148761574554276,
                1.0302249281789035,
                -3.129987845589237
            ]
        },
        {
            "positions": [
                -2.7210426271891013,
                -1.0689868266558589,
                1.8834209588232724,
                -0.8039628964730074,
                1.2080351974161303,
                -3.120150162185335
            ]
        },
        {
            "positions": [
                -2.8035166688405977,
                -1.0374838730965588,
                1.8409385067675446,
                -0.7930496354905872,
                1.385845466653357,
                -3.1103124787814336
            ]
        },
        {
            "positions": [
                -2.885990710492094,
                -1.0059809195372584,
                1.798456054711817,
                -0.7821363745081669,
                1.5636557358905838,
                -3.100474795377532
            ]
        },
        {
            "positions": [
                -2.9684647521435905,
                -0.9744779659779584,
                1.755973602656089,
                -0.7712231135257467,
                1.7414660051278106,
                -3.0906371119736304
            ]
        }
    ]
}