{
    "goal": {
        "global_pose": {
            "orientation": {
                "w": 0.005598929693374612,
                "x": 0.007748599140229565,
                "y": 0.7110244013736278,
                "z": -0.7031023480610252
            },
            "position": {
                "x": -0.8858502320852131,
                "y": -0.7141253447532654,
                "z": 0.3711530566215515
            }
        },
        "name": "move_to_auspresseinheit_C"
    },
    "id": "RRTstar_move_to_auspresseinheit_C_85",
    "joint_names": [
        "shoulder_pan_joint",
        "shoulder_lift_joint",
        "elbow_joint",
        "wrist_1_joint",
        "wrist_2_joint",
        "wrist_3_joint"
    ],
    "metrics": {
        "cart_traj_len": 0.4933115018264261,
        "distance_elbow_joint": 0.9952241864826392,
        "distance_shoulder_lift_joint": 0.3226397441674048,
        "distance_shoulder_pan_joint": 0.2561456947435534,
        "distance_wrist_1_joint": 0.659466208679174,
        "distance_wrist_2_joint": 1.3118387501844064,
        "distance_wrist_3_joint": 0.03605515627432698,
        "smoothness": 8.074349282788172e-16,
        "time": 5.000096412,
        "traj_len": 1.892450723409068,
        "weighted_distance": 2.371662921231375
    },
    "planner": "RRTstar",
    "start": {
        "state": {
            "elbow_joint": 1.7527959577737207,
            "shoulder_lift_joint": -0.9740617694225068,
            "shoulder_pan_joint": -2.967991417825858,
            "wrist_1_joint": -0.759517768980727,
            "wrist_2_joint": 1.7443932448377408,
            "wrist_3_joint": -3.0840537646736568
        }
    },
    "waypoints": [
        {
            "positions": [
                -2.967991417825858,
                -0.9740617694225068,
                1.7527959577737207,
                -0.759517768980727,
                1.7443932448377408,
                -3.0840537646736568
            ]
        },
        {
            "positions": [
                -2.9423768483515027,
                -0.9417977950057663,
                1.6532735391254567,
                -0.6935711481128096,
                1.6132093698193002,
                -3.0876592803010894
            ]
        },
        {
            "positions": [
                -2.9167622788771475,
                -0.9095338205890258,
                1.5537511204771928,
                -0.6276245272448921,
                1.4820254948008595,
                -3.091264795928522
            ]
        },
        {
            "positions": [
                -2.8911477094027918,
                -0.8772698461722853,
                1.4542287018289288,
                -0.5616779063769748,
                1.350841619782419,
                -3.094870311555955
            ]
        },
        {
            "positions": [
                -2.8655331399284365,
                -0.8450058717555449,
                1.3547062831806649,
                -0.4957312855090574,
                1.2196577447639783,
                -3.0984758271833877
            ]
        },
        {
            "positions": [
                -2.8399185704540812,
                -0.8127418973388043,
                1.255183864532401,
                -0.42978466464113996,
                1.0884738697455376,
                -3.1020813428108203
            ]
        },
        {
            "positions": [
                -2.814304000979726,
                -0.7804779229220639,
                1.155661445884137,
                -0.36383804377322254,
                0.957289994727097,
                -3.105686858438253
            ]
        },
        {
            "positions": [
                -2.7886894315053707,
                -0.7482139485053234,
                1.0561390272358733,
                -0.2978914229053052,
                0.8261061197086564,
                -3.1092923740656855
            ]
        },
        {
            "positions": [
                -2.763074862031015,
                -0.7159499740885829,
                0.9566166085876092,
                -0.23194480203738777,
                0.6949222446902157,
                -3.1128978896931185
            ]
        },
        {
            "positions": [
                -2.73746029255666,
                -0.6836859996718424,
                0.8570941899393454,
                -0.1659981811694703,
                0.563738369671775,
                -3.116503405320551
            ]
        },
        {
            "positions": [
                -2.7118457230823045,
                -0.651422025255102,
                0.7575717712910814,
                -0.10005156030155299,
                0.4325544946533344,
                -3.1201089209479838
            ]
        }
    ]
}