{
    "goal": {
        "global_pose": {
            "orientation": {
                "w": 0.005598929693374612,
                "x": 0.007748599140229565,
                "y": 0.7110244013736278,
                "z": -0.7031023480610252
            },
            "position": {
                "x": 0.1141497679147869,
                "y": -0.7141253447532654,
                "z": 0.3711530566215515
            }
        },
        "name": "move_to_auspresseinheit_B"
    },
    "id": "RRTstar_move_to_auspresseinheit_B_42",
    "joint_names": [
        "shoulder_pan_joint",
        "shoulder_lift_joint",
        "elbow_joint",
        "wrist_1_joint",
        "wrist_2_joint",
        "wrist_3_joint"
    ],
    "metrics": {
        "cart_traj_len": 0.5646881788711695,
        "distance_elbow_joint": 0.05996047177121522,
        "distance_shoulder_lift_joint": 0.2948827809899379,
        "distance_shoulder_pan_joint": 0.5786789164378172,
        "distance_wrist_1_joint": 0.31735179109988465,
        "distance_wrist_2_joint": 0.9859860856626002,
        "distance_wrist_3_joint": 0.003988474290924859,
        "smoothness": 0.0,
        "time": 5.002687863,
        "traj_len": 1.4969463985902702,
        "weighted_distance": 1.8847183730193524
    },
    "planner": "RRTstar",
    "start": {
        "state": {
            "elbow_joint": 2.0193083361928714,
            "shoulder_lift_joint": -1.1220246554650708,
            "shoulder_pan_joint": -1.0952077554168747,
            "wrist_1_joint": -0.8559753972642168,
            "wrist_2_joint": 0.4759566250798843,
            "wrist_3_joint": -3.1240929996934557
        }
    },
    "waypoints": [
        {
            "positions": [
                -1.0952077554168747,
                -1.1220246554650708,
                2.0193083361928714,
                -0.8559753972642168,
                0.4759566250798843,
                -3.1240929996934557
            ]
        },
        {
            "positions": [
                -1.1916542414898441,
                -1.1711717856300605,
                2.009314924231002,
                -0.8030834320809027,
                0.6402876393569843,
                -3.1247577454086097
            ]
        },
        {
            "positions": [
                -1.2881007275628138,
                -1.22031891579505,
                1.999321512269133,
                -0.7501914668975885,
                0.8046186536340842,
                -3.125422491123764
            ]
        },
        {
            "positions": [
                -1.3845472136357833,
                -1.2694660459600398,
                1.9893281003072638,
                -0.6972995017142745,
                0.9689496679111844,
                -3.1260872368389183
            ]
        },
        {
            "positions": [
                -1.4809936997087527,
                -1.3186131761250295,
                1.9793346883453946,
                -0.6444075365309604,
                1.1332806821882844,
                -3.1267519825540724
            ]
        },
        {
            "positions": [
                -1.5774401857817224,
                -1.367760306290019,
                1.9693412763835254,
                -0.5915155713476462,
                1.2976116964653845,
                -3.1274167282692265
            ]
        },
        {
            "positions": [
                -1.6738866718546919,
                -1.4169074364550087,
                1.9593478644216562,
                -0.5386236061643321,
                1.4619427107424845,
                -3.1280814739843805
            ]
        }
    ]
}