{
    "goal": {
        "global_pose": {
            "orientation": {
                "w": -0.4816463035849501,
                "x": 0.5182115481033762,
                "y": 0.4908360881923453,
                "z": -0.5084816262002911
            },
            "position": {
                "x": -0.8240239810943604,
                "y": -0.300875300988555,
                "z": 0.16403168439865112
            }
        },
        "name": "move_to_storage_C"
    },
    "id": "RRTstar_move_to_storage_C_40",
    "joint_names": [
        "shoulder_pan_joint",
        "shoulder_lift_joint",
        "elbow_joint",
        "wrist_1_joint",
        "wrist_2_joint",
        "wrist_3_joint"
    ],
    "metrics": {
        "cart_traj_len": 0.575701419068156,
        "distance_elbow_joint": 0.2538027784087271,
        "distance_shoulder_lift_joint": 0.18811645363218754,
        "distance_shoulder_pan_joint": 0.49538022136350746,
        "distance_wrist_1_joint": 0.06818468957922708,
        "distance_wrist_2_joint": 1.0591265133268233,
        "distance_wrist_3_joint": 0.06901098939386685,
        "smoothness": 2.5376526478085547e-16,
        "time": 5.011000707,
        "traj_len": 1.4606921803392867,
        "weighted_distance": 1.8436254574609572
    },
    "planner": "RRTstar",
    "start": {
        "state": {
            "elbow_joint": 2.010868314990456,
            "shoulder_lift_joint": -1.1634956873337592,
            "shoulder_pan_joint": -2.4736205022346125,
            "wrist_1_joint": -0.8367026794202681,
            "wrist_2_joint": 0.6746043897044499,
            "wrist_3_joint": -3.1496632123970403
        }
    },
    "waypoints": [
        {
            "positions": [
                -2.4736205022346125,
                -1.1634956873337592,
                2.010868314990456,
                -0.8367026794202681,
                0.6746043897044499,
                -3.1496632123970403
            ]
        },
        {
            "positions": [
                -2.5561838724618635,
                -1.132142945061728,
                1.9685678519223346,
                -0.8253385644903969,
                0.8511254752589205,
                -3.138161380831396
            ]
        },
        {
            "positions": [
                -2.638747242689115,
                -1.1007902027896967,
                1.9262673888542134,
                -0.8139744495605258,
                1.0276465608133911,
                -3.126659549265751
            ]
        },
        {
            "positions": [
                -2.7213106129163664,
                -1.0694374605176655,
                1.8839669257860923,
                -0.8026103346306546,
                1.2041676463678614,
                -3.115157717700107
            ]
        },
        {
            "positions": [
                -2.8038739831436175,
                -1.038084718245634,
                1.841666462717971,
                -0.7912462197007833,
                1.3806887319223322,
                -3.1036558861344625
            ]
        },
        {
            "positions": [
                -2.8864373533708685,
                -1.0067319759736029,
                1.79936599964985,
                -0.7798821047709122,
                1.5572098174768025,
                -3.0921540545688178
            ]
        },
        {
            "positions": [
                -2.96900072359812,
                -0.9753792337015716,
                1.7570655365817287,
                -0.768517989841041,
                1.7337309030312733,
                -3.0806522230031734
            ]
        }
    ]
}