{
    "goal": {
        "global_pose": {
            "orientation": {
                "w": 0.7031023480610252,
                "x": -0.7110244013736278,
                "y": 0.0077485991402295624,
                "z": 0.005598929693374583
            },
            "position": {
                "x": -0.8841497679147869,
                "y": 0.44412534475326537,
                "z": 0.3711530566215515
            }
        },
        "name": "move_to_auspresseinheit_D"
    },
    "id": "RRTstar_move_to_auspresseinheit_D_101",
    "joint_names": [
        "shoulder_pan_joint",
        "shoulder_lift_joint",
        "elbow_joint",
        "wrist_1_joint",
        "wrist_2_joint",
        "wrist_3_joint"
    ],
    "metrics": {
        "cart_traj_len": 0.3422937988936166,
        "distance_elbow_joint": 0.6327064602817551,
        "distance_shoulder_lift_joint": 0.11849165735561984,
        "distance_shoulder_pan_joint": 0.13329277470477008,
        "distance_wrist_1_joint": 0.5145162493719164,
        "distance_wrist_2_joint": 1.4404429461379158,
        "distance_wrist_3_joint": 0.01199957812336594,
        "smoothness": 1.9737298371844314e-16,
        "time": 5.0219167769999995,
        "traj_len": 1.6886236010358684,
        "weighted_distance": 2.1978189228714697
    },
    "planner": "RRTstar",
    "start": {
        "state": {
            "elbow_joint": -1.8275523626775212,
            "shoulder_lift_joint": -2.126789852344167,
            "shoulder_pan_joint": -0.03513704404078235,
            "wrist_1_joint": -2.347782403156801,
            "wrist_2_joint": -1.6058999987535132,
            "wrist_3_joint": -3.0880379163319196
        }
    },
    "waypoints": [
        {
            "positions": [
                -0.03513704404078235,
                -2.126789852344167,
                -1.8275523626775212,
                -2.347782403156801,
                -1.6058999987535132,
                -3.0880379163319196
            ]
        },
        {
            "positions": [
                -0.05179864087887861,
                -2.1416013095136193,
                -1.7484640551423019,
                -2.4120969343282903,
                -1.4258446304862737,
                -3.0895378635973403
            ]
        },
        {
            "positions": [
                -0.06846023771697488,
                -2.1564127666830717,
                -1.6693757476070825,
                -2.4764114654997798,
                -1.2457892622190343,
                -3.091037810862761
            ]
        },
        {
            "positions": [
                -0.08512183455507114,
                -2.171224223852524,
                -1.590287440071863,
                -2.5407259966712696,
                -1.0657338939517946,
                -3.0925377581281817
            ]
        },
        {
            "positions": [
                -0.1017834313931674,
                -2.186035681021977,
                -1.5111991325366436,
                -2.605040527842759,
                -0.8856785256845553,
                -3.0940377053936023
            ]
        },
        {
            "positions": [
                -0.11844502823126365,
                -2.2008471381914294,
                -1.4321108250014243,
                -2.6693550590142485,
                -0.7056231574173158,
                -3.0955376526590235
            ]
        },
        {
            "positions": [
                -0.13510662506935991,
                -2.215658595360882,
                -1.3530225174662047,
                -2.7336695901857384,
                -0.5255677891500763,
                -3.097037599924444
            ]
        },
        {
            "positions": [
                -0.15176822190745617,
                -2.2304700525303343,
                -1.2739342099309854,
                -2.797984121357228,
                -0.34551242088283685,
                -3.098537547189865
            ]
        },
        {
            "positions": [
                -0.16842981874555243,
                -2.2452815096997867,
                -1.194845902395766,
                -2.8622986525287173,
                -0.16545705261559743,
                -3.1000374944552855
            ]
        }
    ]
}