{
    "goal": {
        "global_pose": {
            "orientation": {
                "w": 0.7047431493862688,
                "x": -0.7094548369677653,
                "y": 0.0024358444001904,
                "z": -0.0022348060817251984
            },
            "position": {
                "x": -0.39052492380142206,
                "y": 0.3671506643295288,
                "z": 0.19426114857196808
            }
        },
        "name": "move_to_magneteinheit_D"
    },
    "id": "RRTstar_move_to_magneteinheit_D_73",
    "joint_names": [
        "shoulder_pan_joint",
        "shoulder_lift_joint",
        "elbow_joint",
        "wrist_1_joint",
        "wrist_2_joint",
        "wrist_3_joint"
    ],
    "metrics": {
        "cart_traj_len": 5.324551852415033,
        "distance_elbow_joint": 3.0982562146956942,
        "distance_shoulder_lift_joint": 1.7312693570686526,
        "distance_shoulder_pan_joint": 3.911094214903458,
        "distance_wrist_1_joint": 2.553662541850641,
        "distance_wrist_2_joint": 1.1663001331724066,
        "distance_wrist_3_joint": 0.6901620495840883,
        "smoothness": 0.722623368333554,
        "time": 5.0541226329999995,
        "traj_len": 3.6263955260388983,
        "weighted_distance": 4.272122573787668
    },
    "planner": "RRTstar",
    "start": {
        "state": {
            "elbow_joint": 0.749534889911806,
            "shoulder_lift_joint": -0.6476975780787326,
            "shoulder_pan_joint": -2.711696901376241,
            "wrist_1_joint": -0.07506478083263063,
            "wrist_2_joint": 0.43296659715538205,
            "wrist_3_joint": -3.14703540197715
        }
    },
    "waypoints": [
        {
            "positions": [
                -2.711696901376241,
                -0.6476975780787326,
                0.749534889911806,
                -0.07506478083263063,
                0.43296659715538205,
                -3.14703540197715
            ]
        },
        {
            "positions": [
                -2.742811706100106,
                -0.7130126877319019,
                0.6679113000940495,
                -0.07776864376344365,
                0.40673989547524336,
                -3.153163734955017
            ]
        },
        {
            "positions": [
                -2.773926510823971,
                -0.7783277973850711,
                0.5862877102762931,
                -0.08047250669425668,
                0.3805131937951046,
                -3.1592920679328844
            ]
        },
        {
            "positions": [
                -2.65472968307987,
                -0.8259917332166555,
                0.497740828722136,
                -0.16799990960766248,
                0.3493469308714661,
                -3.145156867601156
            ]
        },
        {
            "positions": [
                -2.535532855335769,
                -0.8736556690482399,
                0.40919394716797886,
                -0.25552731252106825,
                0.31818066794782757,
                -3.1310216672694278
            ]
        },
        {
            "positions": [
                -2.4163360275916688,
                -0.9213196048798243,
                0.3206470656138217,
                -0.34305471543447397,
                0.28701440502418907,
                -3.116886466937699
            ]
        },
        {
            "positions": [
                -2.297139199847568,
                -0.9689835407114088,
                0.23210018405966465,
                -0.43058211834787985,
                0.2558481421005505,
                -3.1027512666059707
            ]
        },
        {
            "positions": [
                -2.177942372103467,
                -1.0166474765429931,
                0.14355330250550752,
                -0.5181095212612856,
                0.22468187917691199,
                -3.0886160662742426
            ]
        },
        {
            "positions": [
                -2.058745544359366,
                -1.0643114123745776,
                0.05500642095135033,
                -0.6056369241746913,
                0.1935156162532735,
                -3.074480865942514
            ]
        },
        {
            "positions": [
                -1.9395487166152654,
                -1.111975348206162,
                -0.03354046060280669,
                -0.693164327088097,
                0.16234935332963496,
                -3.060345665610786
            ]
        },
        {
            "positions": [
                -1.8203518888711645,
                -1.1596392840377465,
                -0.12208734215696382,
                -0.7806917300015029,
                0.13118309040599643,
                -3.0462104652790574
            ]
        },
        {
            "positions": [
                -1.7011550611270638,
                -1.2073032198693308,
                -0.21063422371112095,
                -0.8682191329149087,
                0.1000168274823579,
                -3.032075264947329
            ]
        },
        {
            "positions": [
                -1.581958233382963,
                -1.2549671557009154,
                -0.2991811052652781,
                -0.9557465358283145,
                0.06885056455871935,
                -3.0179400646156007
            ]
        },
        {
            "positions": [
                -1.462761405638862,
                -1.3026310915324997,
                -0.3877279868194352,
                -1.0432739387417203,
                0.03768430163508085,
                -3.003804864283872
            ]
        },
        {
            "positions": [
                -1.3435645778947614,
                -1.3502950273640841,
                -0.47627486837359245,
                -1.130801341655126,
                0.006518038711442353,
                -2.9896696639521436
            ]
        },
        {
            "positions": [
                -1.2243677501506605,
                -1.3979589631956686,
                -0.5648217499277495,
                -1.2183287445685318,
                -0.0246482242121962,
                -2.9755344636204155
            ]
        },
        {
            "positions": [
                -1.1051709224065598,
                -1.445622899027253,
                -0.6533686314819065,
                -1.3058561474819375,
                -0.0558144871358347,
                -2.961399263288687
            ]
        },
        {
            "positions": [
                -0.9859740946624587,
                -1.4932868348588375,
                -0.7419155130360637,
                -1.3933835503953436,
                -0.08698075005947331,
                -2.947264062956959
            ]
        },
        {
            "positions": [
                -0.866777266918358,
                -1.5409507706904217,
                -0.8304623945902208,
                -1.4809109533087492,
                -0.11814701298311175,
                -2.9331288626252303
            ]
        },
        {
            "positions": [
                -0.7475804391742571,
                -1.5886147065220064,
                -0.919009276144378,
                -1.568438356222155,
                -0.14931327590675036,
                -2.9189936622935018
            ]
        },
        {
            "positions": [
                -0.6283836114301566,
                -1.6362786423535907,
                -1.007556157698535,
                -1.6559657591355608,
                -0.1804795388303888,
                -2.9048584619617737
            ]
        },
        {
            "positions": [
                -0.5091867836860553,
                -1.6839425781851753,
                -1.0961030392526923,
                -1.7434931620489666,
                -0.21164580175402736,
                -2.890723261630045
            ]
        },
        {
            "positions": [
                -0.38998995594195485,
                -1.7316065140167596,
                -1.1846499208068493,
                -1.8310205649623723,
                -0.24281206467766592,
                -2.8765880612983166
            ]
        },
        {
            "positions": [
                -0.27079312819785395,
                -1.779270449848344,
                -1.2731968023610065,
                -1.9185479678757782,
                -0.27397832760130447,
                -2.8624528609665885
            ]
        },
        {
            "positions": [
                -0.15159630045375305,
                -1.8269343856799283,
                -1.3617436839151635,
                -2.006075370789184,
                -0.3051445905249429,
                -2.84831766063486
            ]
        },
        {
            "positions": [
                -0.032399472709652155,
                -1.874598321511513,
                -1.4502905654693208,
                -2.0936027737025897,
                -0.33631085344858147,
                -2.834182460303132
            ]
        },
        {
            "positions": [
                0.0867973550344483,
                -1.9222622573430972,
                -1.538837447023478,
                -2.181130176615995,
                -0.3674771163722199,
                -2.8200472599714033
            ]
        },
        {
            "positions": [
                0.2059941827785492,
                -1.9699261931746817,
                -1.6273843285776353,
                -2.268657579529401,
                -0.3986433792958586,
                -2.8059120596396747
            ]
        },
        {
            "positions": [
                0.3251910105226501,
                -2.0175901290062663,
                -1.715931210131792,
                -2.356184982442807,
                -0.429809642219497,
                -2.7917768593079466
            ]
        },
        {
            "positions": [
                0.44438783826675077,
                -2.0652540648378506,
                -1.8044780916859495,
                -2.443712385356213,
                -0.4609759051431355,
                -2.777641658976218
            ]
        },
        {
            "positions": [
                0.33929612887258315,
                -2.0129685864529283,
                -1.8951852972022727,
                -2.4128765624683695,
                -0.41558296666415406,
                -2.827017488088166
            ]
        },
        {
            "positions": [
                0.23420441947841553,
                -1.9606831080680056,
                -1.9858925027185956,
                -2.3820407395805265,
                -0.37019002818517255,
                -2.876393317200114
            ]
        },
        {
            "positions": [
                0.1291127100842479,
                -1.9083976296830834,
                -2.0765997082349186,
                -2.3512049166926836,
                -0.3247970897061911,
                -2.925769146312062
            ]
        },
        {
            "positions": [
                0.024021000690080285,
                -1.8561121512981609,
                -2.1673069137512417,
                -2.3203690938048402,
                -0.27940415122720963,
                -2.97514497542401
            ]
        },
        {
            "positions": [
                -0.08107070870408739,
                -1.8038266729132384,
                -2.258014119267565,
                -2.289533270916997,
                -0.23401121274822811,
                -3.0245208045359577
            ]
        },
        {
            "positions": [
                -0.18616241809825496,
                -1.751541194528316,
                -2.348721324783888,
                -2.258697448029154,
                -0.18861827426924663,
                -3.0738966336479057
            ]
        }
    ]
}