{
    "goal": {
        "global_pose": {
            "orientation": {
                "w": 0.005598929693374612,
                "x": 0.007748599140229565,
                "y": 0.7110244013736278,
                "z": -0.7031023480610252
            },
            "position": {
                "x": -0.8858502320852131,
                "y": -0.7141253447532654,
                "z": 0.3711530566215515
            }
        },
        "name": "move_to_auspresseinheit_C"
    },
    "id": "RRTstar_move_to_auspresseinheit_C_81",
    "joint_names": [
        "shoulder_pan_joint",
        "shoulder_lift_joint",
        "elbow_joint",
        "wrist_1_joint",
        "wrist_2_joint",
        "wrist_3_joint"
    ],
    "metrics": {
        "cart_traj_len": 0.49297961365038456,
        "distance_elbow_joint": 0.998430296567154,
        "distance_shoulder_lift_joint": 0.32410953965971145,
        "distance_shoulder_pan_joint": 0.25683264563629304,
        "distance_wrist_1_joint": 0.6806350892787625,
        "distance_wrist_2_joint": 1.3024745031273122,
        "distance_wrist_3_joint": 0.06227704453255756,
        "smoothness": 1.6148698667872622e-16,
        "time": 5.006494519,
        "traj_len": 1.9038800169133008,
        "weighted_distance": 2.3942478569005714
    },
    "planner": "RRTstar",
    "start": {
        "state": {
            "elbow_joint": 1.7527959577737207,
            "shoulder_lift_joint": -0.9740617694225068,
            "shoulder_pan_joint": -2.967991417825858,
            "wrist_1_joint": -0.759517768980727,
            "wrist_2_joint": 1.7443932448377408,
            "wrist_3_joint": -3.0840537646736568
        }
    },
    "waypoints": [
        {
            "positions": [
                -2.967991417825858,
                -0.9740617694225068,
                1.7527959577737207,
                -0.759517768980727,
                1.7443932448377408,
                -3.0840537646736568
            ]
        },
        {
            "positions": [
                -2.942308153262229,
                -0.9416508154565356,
                1.6529529281170052,
                -0.6914542600528507,
                1.6141457945250095,
                -3.0902814691269125
            ]
        },
        {
            "positions": [
                -2.9166248886985993,
                -0.9092398614905645,
                1.5531098984602898,
                -0.6233907511249744,
                1.4838983442122784,
                -3.096509173580168
            ]
        },
        {
            "positions": [
                -2.89094162413497,
                -0.8768289075245933,
                1.4532668688035746,
                -0.5553272421970983,
                1.3536508938995473,
                -3.102736878033424
            ]
        },
        {
            "positions": [
                -2.8652583595713406,
                -0.8444179535586221,
                1.353423839146859,
                -0.48726373326922195,
                1.223403443586816,
                -3.1089645824866796
            ]
        },
        {
            "positions": [
                -2.8395750950077114,
                -0.8120069995926511,
                1.2535808094901437,
                -0.41920022434134574,
                1.0931559932740846,
                -3.1151922869399353
            ]
        },
        {
            "positions": [
                -2.8138918304440823,
                -0.77959604562668,
                1.1537377798334283,
                -0.3511367154134695,
                0.9629085429613535,
                -3.1214199913931915
            ]
        },
        {
            "positions": [
                -2.7882085658804527,
                -0.7471850916607088,
                1.0538947501767129,
                -0.28307320648559325,
                0.8326610926486224,
                -3.127647695846447
            ]
        },
        {
            "positions": [
                -2.7625253013168236,
                -0.7147741376947376,
                0.9540517205199974,
                -0.21500969755771693,
                0.7024136423358911,
                -3.133875400299703
            ]
        },
        {
            "positions": [
                -2.736842036753194,
                -0.6823631837287665,
                0.8542086908632821,
                -0.14694618862984077,
                0.5721661920231598,
                -3.1401031047529586
            ]
        },
        {
            "positions": [
                -2.711158772189565,
                -0.6499522297627953,
                0.7543656612065667,
                -0.07888267970196448,
                0.44191874171042866,
                -3.1463308092062143
            ]
        }
    ]
}