{
    "goal": {
        "global_pose": {
            "orientation": {
                "w": 0.7047431468963623,
                "x": -0.7094548344612122,
                "y": 0.0024358443915843964,
                "z": -0.0022348060738295317
            },
            "position": {
                "x": 0.6094750761985779,
                "y": 0.3671506643295288,
                "z": 0.19426114857196808
            }
        },
        "name": "move_to_magneteinheit_A"
    },
    "id": "RRTstar_move_to_magneteinheit_A_73",
    "joint_names": [
        "shoulder_pan_joint",
        "shoulder_lift_joint",
        "elbow_joint",
        "wrist_1_joint",
        "wrist_2_joint",
        "wrist_3_joint"
    ],
    "metrics": {
        "cart_traj_len": 3.2609948202619687,
        "distance_elbow_joint": 3.9106615317130435,
        "distance_shoulder_lift_joint": 0.467804326492933,
        "distance_shoulder_pan_joint": 2.9800559445279466,
        "distance_wrist_1_joint": 3.456482628235632,
        "distance_wrist_2_joint": 1.4303850862143492,
        "distance_wrist_3_joint": 0.42446010090519787,
        "smoothness": 0.06210442135877172,
        "time": 5.020901016,
        "traj_len": 3.559473221993544,
        "weighted_distance": 4.290179196065064
    },
    "planner": "RRTstar",
    "start": {
        "state": {
            "elbow_joint": -1.9196185241190666,
            "shoulder_lift_joint": -1.2443396400964142,
            "shoulder_pan_joint": 2.6996025414629847,
            "wrist_1_joint": -1.5485510000780065,
            "wrist_2_joint": -1.5709468930060704,
            "wrist_3_joint": 0.4420197071253992
        }
    },
    "waypoints": [
        {
            "positions": [
                2.6996025414629847,
                -1.2443396400964142,
                -1.9196185241190666,
                -1.5485510000780065,
                -1.5709468930060704,
                0.4420197071253992
            ]
        },
        {
            "positions": [
                2.596720528333554,
                -1.2338636789122255,
                -1.8163204159103838,
                -1.4308422336201343,
                -1.5268565261079352,
                0.42956630162568565
            ]
        },
        {
            "positions": [
                2.4938385152041236,
                -1.223387717728037,
                -1.7130223077017013,
                -1.313133467162262,
                -1.4827661592098,
                0.41711289612597213
            ]
        },
        {
            "positions": [
                2.390956502074693,
                -1.2129117565438483,
                -1.6097241994930185,
                -1.1954247007043899,
                -1.4386757923116646,
                0.4046594906262586
            ]
        },
        {
            "positions": [
                2.2880744889452624,
                -1.2024357953596596,
                -1.506426091284336,
                -1.0777159342465177,
                -1.3945854254135295,
                0.3922060851265451
            ]
        },
        {
            "positions": [
                2.185192475815832,
                -1.1919598341754711,
                -1.4031279830756531,
                -0.9600071677886455,
                -1.3504950585153943,
                0.3797526796268316
            ]
        },
        {
            "positions": [
                2.0823104626864013,
                -1.1814838729912824,
                -1.2998298748669703,
                -0.8422984013307732,
                -1.3064046916172591,
                0.3672992741271181
            ]
        },
        {
            "positions": [
                1.9794284495569707,
                -1.1710079118070937,
                -1.1965317666582878,
                -0.724589634872901,
                -1.262314324719124,
                0.3548458686274046
            ]
        },
        {
            "positions": [
                1.8765464364275402,
                -1.1605319506229053,
                -1.0932336584496052,
                -0.6068808684150288,
                -1.2182239578209886,
                0.34239246312769106
            ]
        },
        {
            "positions": [
                1.7736644232981096,
                -1.1500559894387166,
                -0.9899355502409224,
                -0.48917210195715666,
                -1.1741335909228534,
                0.32993905762797754
            ]
        },
        {
            "positions": [
                1.670782410168679,
                -1.1395800282545279,
                -0.8866374420322396,
                -0.37146333549928445,
                -1.1300432240247182,
                0.317485652128264
            ]
        },
        {
            "positions": [
                1.5679003970392482,
                -1.1291040670703394,
                -0.783339333823557,
                -0.25375456904141225,
                -1.085952857126583,
                0.30503224662855055
            ]
        },
        {
            "positions": [
                1.4650183839098176,
                -1.1186281058861507,
                -0.6800412256148742,
                -0.13604580258353982,
                -1.0418624902284477,
                0.29257884112883703
            ]
        },
        {
            "positions": [
                1.362136370780387,
                -1.108152144701962,
                -0.5767431174061917,
                -0.018337036125667616,
                -0.9977721233303126,
                0.2801254356291235
            ]
        },
        {
            "positions": [
                1.2592543576509565,
                -1.0976761835177735,
                -0.47344500919750887,
                0.09937173033220459,
                -0.9536817564321773,
                0.26767203012941
            ]
        },
        {
            "positions": [
                1.156372344521526,
                -1.0872002223335848,
                -0.3701469009888261,
                0.2170804967900768,
                -0.9095913895340421,
                0.25521862462969647
            ]
        },
        {
            "positions": [
                1.0534903313920954,
                -1.0767242611493961,
                -0.2668487927801435,
                0.334789263247949,
                -0.8655010226359069,
                0.24276521912998295
            ]
        },
        {
            "positions": [
                0.9506083182626646,
                -1.0662482999652076,
                -0.1635506845714607,
                0.4524980297058214,
                -0.8214106557377716,
                0.23031181363026942
            ]
        },
        {
            "positions": [
                0.8477263051332342,
                -1.055772338781019,
                -0.06025257636277814,
                0.5702067961636932,
                -0.7773202888396364,
                0.2178584081305559
            ]
        },
        {
            "positions": [
                0.7448442920038034,
                -1.0452963775968303,
                0.04304553184590465,
                0.6879155626215658,
                -0.7332299219415012,
                0.20540500263084238
            ]
        },
        {
            "positions": [
                0.6419622788743733,
                -1.0348204164126418,
                0.14634364005458744,
                0.8056243290794376,
                -0.6891395550433661,
                0.1929515971311289
            ]
        },
        {
            "positions": [
                0.5390802657449423,
                -1.024344455228453,
                0.24964174826327,
                0.9233330955373102,
                -0.6450491881452308,
                0.18049819163141534
            ]
        },
        {
            "positions": [
                0.4361982526155117,
                -1.0138684940442644,
                0.3529398564719526,
                1.041041861995182,
                -0.6009588212470957,
                0.16804478613170187
            ]
        },
        {
            "positions": [
                0.33331623948608113,
                -1.003392532860076,
                0.4562379646806356,
                1.1587506284530547,
                -0.5568684543489604,
                0.15559138063198835
            ]
        },
        {
            "positions": [
                0.23043422635665056,
                -0.9929165716758872,
                0.5595360728893182,
                1.2764593949109269,
                -0.5127780874508252,
                0.14313797513227483
            ]
        },
        {
            "positions": [
                0.12755221322722,
                -0.9824406104916985,
                0.6628341810980007,
                1.394168161368799,
                -0.4686877205526898,
                0.1306845696325613
            ]
        },
        {
            "positions": [
                0.02467020009778942,
                -0.97196464930751,
                0.7661322893066833,
                1.5118769278266713,
                -0.42459735365455487,
                0.11823116413284779
            ]
        },
        {
            "positions": [
                -0.078211813031641,
                -0.9614886881233213,
                0.8694303975153665,
                1.6295856942845435,
                -0.3805069867564196,
                0.10577775863313427
            ]
        },
        {
            "positions": [
                -0.05443475792999796,
                -0.932072401983093,
                1.0507373749504625,
                1.6813353000593483,
                -0.34010667381012216,
                0.09119983299174991
            ]
        },
        {
            "positions": [
                -0.03065770282835492,
                -0.9026561158428649,
                1.2320443523855582,
                1.7330849058341533,
                -0.2997063608638247,
                0.07662190735036557
            ]
        },
        {
            "positions": [
                0.008014167129153663,
                -0.871125915283019,
                1.421794016187663,
                1.7767965864150213,
                -0.2599202223457988,
                0.06185633206782451
            ]
        },
        {
            "positions": [
                0.046686037086662246,
                -0.839595714723173,
                1.6115436799897678,
                1.8205082669958892,
                -0.2201340838277729,
                0.047090756785283454
            ]
        },
        {
            "positions": [
                0.08535790704417083,
                -0.8080655141633271,
                1.8012933437918726,
                1.8642199475767571,
                -0.18034794530974702,
                0.0323251815027424
            ]
        },
        {
            "positions": [
                0.12402977700167943,
                -0.7765353136034812,
                1.9910430075939773,
                1.907931628157625,
                -0.14056180679172112,
                0.017559606220201335
            ]
        }
    ]
}