{
    "goal": {
        "global_pose": {
            "orientation": {
                "w": 0.5084816217422485,
                "x": -0.49083608388900757,
                "y": 0.5182115435600281,
                "z": -0.4816462993621826
            },
            "position": {
                "x": 0.5540239810943604,
                "y": 0.030875300988554955,
                "z": 0.16403168439865112
            }
        },
        "name": "move_to_storage_A"
    },
    "id": "RRTstar_move_to_storage_A_134",
    "joint_names": [
        "shoulder_pan_joint",
        "shoulder_lift_joint",
        "elbow_joint",
        "wrist_1_joint",
        "wrist_2_joint",
        "wrist_3_joint"
    ],
    "metrics": {
        "cart_traj_len": 0.3522225719733302,
        "distance_elbow_joint": 0.44703970567740714,
        "distance_shoulder_lift_joint": 0.2347206152592023,
        "distance_shoulder_pan_joint": 0.46014476408947735,
        "distance_wrist_1_joint": 0.23388469599125405,
        "distance_wrist_2_joint": 1.0985733105720574,
        "distance_wrist_3_joint": 0.10279839627814313,
        "smoothness": 4.440892098500626e-16,
        "time": 5.000849327,
        "traj_len": 1.605354007023853,
        "weighted_distance": 2.0285995876434413
    },
    "planner": "RRTstar",
    "start": {
        "state": {
            "elbow_joint": 1.971548259319323,
            "shoulder_lift_joint": -1.1394851275133948,
            "shoulder_pan_joint": 0.1228115487234821,
            "wrist_1_joint": -0.7804723859257726,
            "wrist_2_joint": 0.12958671773740124,
            "wrist_3_joint": -3.192489227718131
        }
    },
    "waypoints": [
        {
            "positions": [
                0.1228115487234821,
                -1.1394851275133948,
                1.971548259319323,
                -0.7804723859257726,
                0.12958671773740124,
                -3.192489227718131
            ]
        },
        {
            "positions": [
                0.05707658242498534,
                -1.173016643978995,
                2.0354110744160954,
                -0.8138844853530947,
                0.28652576210483804,
                -3.177803742535539
            ]
        },
        {
            "positions": [
                -0.008658383873511422,
                -1.2065481604445956,
                2.099273889512868,
                -0.8472965847804166,
                0.4434648064722748,
                -3.1631182573529473
            ]
        },
        {
            "positions": [
                -0.07439335017200818,
                -1.2400796769101958,
                2.16313670460964,
                -0.8807086842077386,
                0.6004038508397116,
                -3.1484327721703553
            ]
        },
        {
            "positions": [
                -0.14012831647050494,
                -1.273611193375796,
                2.2269995197064127,
                -0.9141207836350607,
                0.7573428952071484,
                -3.133747286987764
            ]
        },
        {
            "positions": [
                -0.20586328276900173,
                -1.3071427098413966,
                2.2908623348031854,
                -0.9475328830623826,
                0.9142819395745851,
                -3.119061801805172
            ]
        },
        {
            "positions": [
                -0.27159824906749847,
                -1.3406742263069968,
                2.3547251498999575,
                -0.9809449824897046,
                1.071220983942022,
                -3.10437631662258
            ]
        },
        {
            "positions": [
                -0.33733321536599525,
                -1.374205742772597,
                2.41858796499673,
                -1.0143570819170267,
                1.2281600283094587,
                -3.089690831439988
            ]
        }
    ]
}{
    "goal": {
        "global_pose": {
            "orientation": {
                "w": 0.5084816217422485,
                "x": -0.49083608388900757,
                "y": 0.5182115435600281,
                "z": -0.4816462993621826
            },
            "position": {
                "x": 0.5540239810943604,
                "y": 0.030875300988554955,
                "z": 0.16403168439865112
            }
        },
        "name": "move_to_storage_A"
    },
    "id": "RRTstar_move_to_storage_A_134",
    "joint_names": [
        "shoulder_pan_joint",
        "shoulder_lift_joint",
        "elbow_joint",
        "wrist_1_joint",
        "wrist_2_joint",
        "wrist_3_joint"
    ],
    "metrics": {
        "cart_traj_len": 0.3531948644096912,
        "distance_elbow_joint": 0.44850773095099683,
        "distance_shoulder_lift_joint": 0.23522776854787897,
        "distance_shoulder_pan_joint": 0.46266229828669914,
        "distance_wrist_1_joint": 0.24016669469024876,
        "distance_wrist_2_joint": 1.0953068061812468,
        "distance_wrist_3_joint": 0.10013552957512539,
        "smoothness": 4.440892098500626e-16,
        "time": 5.00122614,
        "traj_len": 1.6068624173314268,
        "weighted_distance": 2.0292243316730514
    },
    "planner": "RRTstar",
    "start": {
        "state": {
            "elbow_joint": 1.97154746011099,
            "shoulder_lift_joint": -1.13948474672311,
            "shoulder_pan_joint": 0.12281154466712228,
            "wrist_1_joint": -0.7804688027058302,
            "wrist_2_joint": 0.12958655903071145,
            "wrist_3_joint": 3.0906928834467795
        }
    },
    "waypoints": [
        {
            "positions": [
                0.12281154466712228,
                -1.13948474672311,
                1.97154746011099,
                -0.7804688027058302,
                0.12958655903071145,
                3.0906928834467795
            ]
        },
        {
            "positions": [
                0.05671693062616527,
                -1.1730887136585213,
                2.0356199931039893,
                -0.8147783305187228,
                0.2860589599137467,
                3.104997959100369
            ]
        },
        {
            "positions": [
                -0.00937768341479174,
                -1.2066926805939324,
                2.099692526096989,
                -0.8490878583316155,
                0.4425313607967819,
                3.1193030347539583
            ]
        },
        {
            "positions": [
                -0.07547229745574875,
                -1.2402966475293438,
                2.1637650590899886,
                -0.8833973861445082,
                0.5990037616798172,
                3.1336081104075477
            ]
        },
        {
            "positions": [
                -0.14156691149670575,
                -1.273900614464755,
                2.227837592082988,
                -0.9177069139574009,
                0.7554761625628524,
                3.1479131860611367
            ]
        },
        {
            "positions": [
                -0.20766152553766282,
                -1.3075045814001665,
                2.2919101250759875,
                -0.9520164417702937,
                0.9119485634458877,
                3.162218261714726
            ]
        },
        {
            "positions": [
                -0.2737561395786198,
                -1.3411085483355776,
                2.3559826580689873,
                -0.9863259695831863,
                1.0684209643289229,
                3.1765233373683155
            ]
        },
        {
            "positions": [
                -0.33985075361957684,
                -1.374712515270989,
                2.4200551910619867,
                -1.020635497396079,
                1.2248933652119582,
                3.190828413021905
            ]
        }
    ]
}{
    "goal": {
        "global_pose": {
            "orientation": {
                "w": 0.5084816217422485,
                "x": -0.49083608388900757,
                "y": 0.5182115435600281,
                "z": -0.4816462993621826
            },
            "position": {
                "x": 0.5540239810943604,
                "y": 0.030875300988554955,
                "z": 0.16403168439865112
            }
        },
        "name": "move_to_storage_A"
    },
    "id": "RRTstar_move_to_storage_A_134",
    "joint_names": [
        "shoulder_pan_joint",
        "shoulder_lift_joint",
        "elbow_joint",
        "wrist_1_joint",
        "wrist_2_joint",
        "wrist_3_joint"
    ],
    "metrics": {
        "cart_traj_len": 0.35381673800185953,
        "distance_elbow_joint": 0.4493177668997106,
        "distance_shoulder_lift_joint": 0.2356182367575752,
        "distance_shoulder_pan_joint": 0.46510803366879844,
        "distance_wrist_1_joint": 0.23735434844796766,
        "distance_wrist_2_joint": 1.090267599256437,
        "distance_wrist_3_joint": 0.09829963211135606,
        "smoothness": 6.661338165333112e-16,
        "time": 5.000127551,
        "traj_len": 1.604981500560628,
        "weighted_distance": 2.0248918067563415
    },
    "planner": "RRTstar",
    "start": {
        "state": {
            "elbow_joint": 1.9715472970024885,
            "shoulder_lift_joint": -1.1394870060712896,
            "shoulder_pan_joint": 0.12281152778156021,
            "wrist_1_joint": -0.780463741449964,
            "wrist_2_joint": 0.12958659822042276,
            "wrist_3_joint": 3.090690232415272
        }
    },
    "waypoints": [
        {
            "positions": [
                0.12281152778156021,
                -1.1394870060712896,
                1.9715472970024885,
                -0.780463741449964,
                0.12958659822042276,
                3.090690232415272
            ]
        },
        {
            "positions": [
                0.05636752297173188,
                -1.1731467541795146,
                2.035735549416733,
                -0.8143715055139594,
                0.2853391123999137,
                3.1047330370026085
            ]
        },
        {
            "positions": [
                -0.010076481838096452,
                -1.2068065022877397,
                2.099923801830977,
                -0.8482792695779547,
                0.4410916265794047,
                3.118775841589945
            ]
        },
        {
            "positions": [
                -0.0765204866479248,
                -1.2404662503959647,
                2.1641120542452215,
                -0.8821870336419502,
                0.5968441407588957,
                3.132818646177282
            ]
        },
        {
            "positions": [
                -0.1429644914577531,
                -1.2741259985041897,
                2.2283003066594658,
                -0.9160947977059455,
                0.7525966549383867,
                3.146861450764618
            ]
        },
        {
            "positions": [
                -0.20940849626758148,
                -1.3077857466124148,
                2.2924885590737105,
                -0.9500025617699409,
                0.9083491691178778,
                3.1609042553519546
            ]
        },
        {
            "positions": [
                -0.2758525010774098,
                -1.3414454947206398,
                2.356676811487955,
                -0.9839103258339362,
                1.0641016832973687,
                3.1749470599392913
            ]
        },
        {
            "positions": [
                -0.3422965058872382,
                -1.3751052428288648,
                2.420865063902199,
                -1.0178180898979317,
                1.2198541974768597,
                3.188989864526628
            ]
        }
    ]
}