{
    "goal": {
        "global_pose": {
            "orientation": {
                "w": -0.00223480608172531,
                "x": 0.0024358444001904467,
                "y": 0.7094548369677653,
                "z": -0.704743149386269
            },
            "position": {
                "x": 0.6205249238014221,
                "y": -0.6371506643295288,
                "z": 0.19426114857196808
            }
        },
        "name": "move_to_magneteinheit_B"
    },
    "id": "RRTstar_move_to_magneteinheit_B_3",
    "joint_names": [
        "shoulder_pan_joint",
        "shoulder_lift_joint",
        "elbow_joint",
        "wrist_1_joint",
        "wrist_2_joint",
        "wrist_3_joint"
    ],
    "metrics": {
        "cart_traj_len": 1.359972304946065,
        "distance_elbow_joint": 0.9562807546534955,
        "distance_shoulder_lift_joint": 1.158881369970826,
        "distance_shoulder_pan_joint": 1.62161893165832,
        "distance_wrist_1_joint": 1.1823534165783451,
        "distance_wrist_2_joint": 1.5674025854480182,
        "distance_wrist_3_joint": 1.9820824261916716,
        "smoothness": 0.5494610247196816,
        "time": 5.014646357,
        "traj_len": 2.910089257136399,
        "weighted_distance": 3.8964779402571224
    },
    "planner": "RRTstar",
    "start": {
        "state": {
            "elbow_joint": 2.6216224122426386,
            "shoulder_lift_joint": -1.4174107377796124,
            "shoulder_pan_joint": 0.7066234856936794,
            "wrist_1_joint": 1.9546482284002225,
            "wrist_2_joint": -0.7096286983471962,
            "wrist_3_joint": 0.005740856962016249
        }
    },
    "waypoints": [
        {
            "positions": [
                0.7066234856936794,
                -1.4174107377796124,
                2.6216224122426386,
                1.9546482284002225,
                -0.7096286983471962,
                0.005740856962016249
            ]
        },
        {
            "positions": [
                0.5740802275067014,
                -1.4425298822349544,
                2.6156092822974055,
                1.8922768278871387,
                -0.7062757610927671,
                -0.11817870437033308
            ]
        },
        {
            "positions": [
                0.44153696931972336,
                -1.4676490266902966,
                2.6095961523521725,
                1.829905427374055,
                -0.702922823838338,
                -0.2420982657026824
            ]
        },
        {
            "positions": [
                0.3089937111327453,
                -1.4927681711456389,
                2.6035830224069394,
                1.7675340268609714,
                -0.699569886583909,
                -0.3660178270350317
            ]
        },
        {
            "positions": [
                0.17645045294576733,
                -1.517887315600981,
                2.5975698924617063,
                1.7051626263478876,
                -0.6962169493294799,
                -0.48993738836738104
            ]
        },
        {
            "positions": [
                0.04390719475878935,
                -1.543006460056323,
                2.5915567625164733,
                1.6427912258348039,
                -0.6928640120750508,
                -0.6138569496997305
            ]
        },
        {
            "positions": [
                -0.08863606342818875,
                -1.5681256045116652,
                2.58554363257124,
                1.5804198253217203,
                -0.6895110748206217,
                -0.7377765110320798
            ]
        },
        {
            "positions": [
                -0.22117932161516674,
                -1.5932447489670074,
                2.579530502626007,
                1.5180484248086366,
                -0.6861581375661926,
                -0.861696072364429
            ]
        },
        {
            "positions": [
                -0.3537225798021448,
                -1.6183638934223494,
                2.573517372680774,
                1.4556770242955528,
                -0.6828052003117635,
                -0.9856156336967784
            ]
        },
        {
            "positions": [
                -0.3911407708796445,
                -1.5545020124671436,
                2.5129723250079987,
                1.5012358384604645,
                -0.7855104728059359,
                -0.9195672379945866
            ]
        },
        {
            "positions": [
                -0.4285589619571442,
                -1.4906401315119375,
                2.4524272773352234,
                1.5467946526253762,
                -0.8882157453001083,
                -0.8535188422923947
            ]
        },
        {
            "positions": [
                -0.46597715303464393,
                -1.4267782505567317,
                2.391882229662448,
                1.5923534667902879,
                -0.9909210177942807,
                -0.7874704465902029
            ]
        },
        {
            "positions": [
                -0.5033953441121436,
                -1.3629163696015256,
                2.3313371819896727,
                1.6379122809551996,
                -1.093626290288453,
                -0.7214220508880111
            ]
        },
        {
            "positions": [
                -0.5408135351896434,
                -1.2990544886463198,
                2.2707921343168973,
                1.6834710951201113,
                -1.1963315627826252,
                -0.6553736551858194
            ]
        },
        {
            "positions": [
                -0.578231726267143,
                -1.235192607691114,
                2.2102470866441215,
                1.729029909285023,
                -1.2990368352767978,
                -0.5893252594836275
            ]
        },
        {
            "positions": [
                -0.6156499173446428,
                -1.171330726735908,
                2.149702038971346,
                1.7745887234499347,
                -1.40174210777097,
                -0.5232768637814357
            ]
        },
        {
            "positions": [
                -0.6530681084221425,
                -1.107468845780702,
                2.089156991298571,
                1.8201475376148464,
                -1.5044473802651424,
                -0.4572284680792439
            ]
        },
        {
            "positions": [
                -0.6904862994996421,
                -1.0436069648254962,
                2.0286119436257954,
                1.865706351779758,
                -1.6071526527593147,
                -0.3911800723770521
            ]
        },
        {
            "positions": [
                -0.7279044905771419,
                -0.9797450838702902,
                1.96806689595302,
                1.9112651659446698,
                -1.7098579252534871,
                -0.3251316766748603
            ]
        },
        {
            "positions": [
                -0.7653226816546417,
                -0.9158832029150843,
                1.9075218482802447,
                1.9568239801095815,
                -1.8125631977476595,
                -0.25908328097266853
            ]
        },
        {
            "positions": [
                -0.8027408727321415,
                -0.8520213219598783,
                1.8469768006074694,
                2.002382794274493,
                -1.915268470241832,
                -0.19303488527047652
            ]
        },
        {
            "positions": [
                -0.840159063809641,
                -0.7881594410046724,
                1.786431752934694,
                2.047941608439405,
                -2.0179737427360043,
                -0.12698648956828473
            ]
        },
        {
            "positions": [
                -0.8775772548871408,
                -0.7242975600494665,
                1.7258867052619185,
                2.0935004226043166,
                -2.1206790152301767,
                -0.060938093866092946
            ]
        },
        {
            "positions": [
                -0.9149954459646404,
                -0.6604356790942606,
                1.665341657589143,
                2.1390592367692283,
                -2.223384287724349,
                0.005110301836098785
            ]
        }
    ]
}