{
    "goal": {
        "global_pose": {
            "orientation": {
                "w": 0.7031023480610252,
                "x": -0.7110244013736278,
                "y": 0.0077485991402295624,
                "z": 0.005598929693374583
            },
            "position": {
                "x": -0.8841497679147869,
                "y": 0.44412534475326537,
                "z": 0.3711530566215515
            }
        },
        "name": "move_to_auspresseinheit_D"
    },
    "id": "RRTstar_move_to_auspresseinheit_D_12",
    "joint_names": [
        "shoulder_pan_joint",
        "shoulder_lift_joint",
        "elbow_joint",
        "wrist_1_joint",
        "wrist_2_joint",
        "wrist_3_joint"
    ],
    "metrics": {
        "cart_traj_len": 0.34300363459913663,
        "distance_elbow_joint": 0.6345818285273863,
        "distance_shoulder_lift_joint": 0.11938336858285004,
        "distance_shoulder_pan_joint": 0.1337095595913433,
        "distance_wrist_1_joint": 0.5113979355190232,
        "distance_wrist_2_joint": 1.4427795861230435,
        "distance_wrist_3_joint": 0.02361109280480589,
        "smoothness": 1.973729812604375e-15,
        "time": 5.001028407000001,
        "traj_len": 1.6927679614018138,
        "weighted_distance": 2.2060967971510523
    },
    "planner": "RRTstar",
    "start": {
        "state": {
            "elbow_joint": -1.8275523626775212,
            "shoulder_lift_joint": -2.126789852344167,
            "shoulder_pan_joint": -0.03513704404078235,
            "wrist_1_joint": -2.347782403156801,
            "wrist_2_joint": -1.6058999987535132,
            "wrist_3_joint": -3.0880379163319196
        }
    },
    "waypoints": [
        {
            "positions": [
                -0.03513704404078235,
                -2.126789852344167,
                -1.8275523626775212,
                -2.347782403156801,
                -1.6058999987535132,
                -3.0880379163319196
            ]
        },
        {
            "positions": [
                -0.05185073898970026,
                -2.141712773417023,
                -1.748229634111598,
                -2.411707145096679,
                -1.4255525504881328,
                -3.0909893029325204
            ]
        },
        {
            "positions": [
                -0.06856443393861818,
                -2.1566356944898795,
                -1.6689069055456747,
                -2.4756318870365566,
                -1.2452051022227524,
                -3.093940689533121
            ]
        },
        {
            "positions": [
                -0.08527812888753608,
                -2.1715586155627356,
                -1.5895841769797514,
                -2.5395566289764346,
                -1.0648576539573718,
                -3.096892076133722
            ]
        },
        {
            "positions": [
                -0.101991823836454,
                -2.1864815366355916,
                -1.5102614484138281,
                -2.6034813709163123,
                -0.8845102056919915,
                -3.0998434627343228
            ]
        },
        {
            "positions": [
                -0.11870551878537192,
                -2.201404457708448,
                -1.4309387198479047,
                -2.6674061128561903,
                -0.704162757426611,
                -3.102794849334923
            ]
        },
        {
            "positions": [
                -0.13541921373428983,
                -2.2163273787813043,
                -1.3516159912819814,
                -2.7313308547960684,
                -0.5238153091612305,
                -3.105746235935524
            ]
        },
        {
            "positions": [
                -0.15213290868320775,
                -2.231250299854161,
                -1.2722932627160581,
                -2.795255596735946,
                -0.34346786089585013,
                -3.1086976225361247
            ]
        },
        {
            "positions": [
                -0.16884660363212567,
                -2.246173220927017,
                -1.1929705341501349,
                -2.859180338675824,
                -0.1631204126304697,
                -3.1116490091367255
            ]
        }
    ]
}