{
    "goal": {
        "global_pose": {
            "orientation": {
                "w": -0.00223480608172531,
                "x": 0.0024358444001904467,
                "y": 0.7094548369677653,
                "z": -0.704743149386269
            },
            "position": {
                "x": 0.6205249238014221,
                "y": -0.6371506643295288,
                "z": 0.19426114857196808
            }
        },
        "name": "move_to_magneteinheit_B"
    },
    "id": "RRTstar_move_to_magneteinheit_B_128",
    "joint_names": [
        "shoulder_pan_joint",
        "shoulder_lift_joint",
        "elbow_joint",
        "wrist_1_joint",
        "wrist_2_joint",
        "wrist_3_joint"
    ],
    "metrics": {
        "cart_traj_len": 3.7614841373418084,
        "distance_elbow_joint": 4.737505634548235,
        "distance_shoulder_lift_joint": 1.0881794230833632,
        "distance_shoulder_pan_joint": 2.2673298742669923,
        "distance_wrist_1_joint": 0.9665685407307614,
        "distance_wrist_2_joint": 1.7477519743954817,
        "distance_wrist_3_joint": 2.294715444440153,
        "smoothness": 0.34689385157934066,
        "time": 5.055479002999999,
        "traj_len": 3.619675522952987,
        "weighted_distance": 4.517278195492452
    },
    "planner": "RRTstar",
    "start": {
        "state": {
            "elbow_joint": 2.6216224122426386,
            "shoulder_lift_joint": -1.4174107377796124,
            "shoulder_pan_joint": 0.7066234856936794,
            "wrist_1_joint": 1.9546482284002225,
            "wrist_2_joint": -0.7096286983471962,
            "wrist_3_joint": 0.005740856962016249
        }
    },
    "waypoints": [
        {
            "positions": [
                0.7066234856936794,
                -1.4174107377796124,
                2.6216224122426386,
                1.9546482284002225,
                -0.7096286983471962,
                0.005740856962016249
            ]
        },
        {
            "positions": [
                0.6280192455464848,
                -1.4115394409759632,
                2.5987554412094003,
                1.8910922436047823,
                -0.7491891698256161,
                -0.06121286739759789
            ]
        },
        {
            "positions": [
                0.5494150053992902,
                -1.405668144172314,
                2.5758884701761615,
                1.8275362588093422,
                -0.788749641304036,
                -0.128166591757212
            ]
        },
        {
            "positions": [
                0.5971077762709247,
                -1.4395669549522865,
                2.340431655861707,
                1.8280433811040868,
                -0.7999476735671792,
                -0.1847740425782775
            ]
        },
        {
            "positions": [
                0.6448005471425593,
                -1.4734657657322592,
                2.104974841547252,
                1.8285505033988312,
                -0.8111457058303223,
                -0.241381493399343
            ]
        },
        {
            "positions": [
                0.6924933180141938,
                -1.5073645765122317,
                1.8695180272327971,
                1.8290576256935758,
                -0.8223437380934655,
                -0.29798894422040845
            ]
        },
        {
            "positions": [
                0.7401860888858283,
                -1.5412633872922044,
                1.634061212918342,
                1.8295647479883201,
                -0.8335417703566086,
                -0.354596395041474
            ]
        },
        {
            "positions": [
                0.7878788597574629,
                -1.5751621980721768,
                1.3986043986038872,
                1.8300718702830647,
                -0.8447398026197518,
                -0.4112038458625395
            ]
        },
        {
            "positions": [
                0.8355716306290972,
                -1.6090610088521495,
                1.1631475842894325,
                1.830578992577809,
                -0.8559378348828949,
                -0.46781129668360494
            ]
        },
        {
            "positions": [
                0.8832644015007318,
                -1.642959819632122,
                0.9276907699749777,
                1.8310861148725537,
                -0.8671358671460381,
                -0.5244187475046704
            ]
        },
        {
            "positions": [
                0.9309571723723663,
                -1.6768586304120947,
                0.6922339556605228,
                1.831593237167298,
                -0.8783338994091812,
                -0.5810261983257359
            ]
        },
        {
            "positions": [
                0.9786499432440008,
                -1.7107574411920672,
                0.45677714134606795,
                1.8321003594620426,
                -0.8895319316723244,
                -0.6376336491468014
            ]
        },
        {
            "positions": [
                1.0263427141156354,
                -1.7446562519720397,
                0.22132032703161286,
                1.8326074817567872,
                -0.9007299639354676,
                -0.694241099967867
            ]
        },
        {
            "positions": [
                1.0740354849872698,
                -1.7785550627520124,
                -0.014136487282841781,
                1.8331146040515316,
                -0.9119279961986106,
                -0.7508485507889324
            ]
        },
        {
            "positions": [
                1.1217282558589043,
                -1.8124538735319848,
                -0.24959330159729642,
                1.8336217263462762,
                -0.9231260284617537,
                -0.8074560016099979
            ]
        },
        {
            "positions": [
                1.169421026730539,
                -1.8463526843119575,
                -0.4850501159117515,
                1.8341288486410205,
                -0.9343240607248969,
                -0.8640634524310634
            ]
        },
        {
            "positions": [
                1.2171137976021735,
                -1.88025149509193,
                -0.7205069302262062,
                1.8346359709357651,
                -0.9455220929880401,
                -0.9206709032521289
            ]
        },
        {
            "positions": [
                1.264806568473808,
                -1.9141503058719027,
                -0.9559637445406612,
                1.8351430932305095,
                -0.9567201252511832,
                -0.9772783540731944
            ]
        },
        {
            "positions": [
                1.3124993393454423,
                -1.9480491166518752,
                -1.1914205588551159,
                1.835650215525254,
                -0.9679181575143264,
                -1.0338858048942599
            ]
        },
        {
            "positions": [
                1.3601921102170769,
                -1.9819479274318477,
                -1.4268773731695705,
                1.8361573378199985,
                -0.9791161897774696,
                -1.0904932557153253
            ]
        },
        {
            "positions": [
                1.4078848810887115,
                -2.0158467382118204,
                -1.6623341874840254,
                1.836664460114743,
                -0.9903142220406127,
                -1.147100706536391
            ]
        },
        {
            "positions": [
                1.5315022909162246,
                -2.0487311692504635,
                -1.690667309557357,
                1.7902184705722912,
                -0.9087268438681197,
                -1.1061863341040432
            ]
        },
        {
            "positions": [
                1.6551197007437377,
                -2.081615600289106,
                -1.7190004316306888,
                1.7437724810298394,
                -0.8271394656956268,
                -1.0652719616716955
            ]
        },
        {
            "positions": [
                1.778737110571251,
                -2.114500031327749,
                -1.7473335537040204,
                1.6973264914873878,
                -0.7455520875231338,
                -1.0243575892393477
            ]
        },
        {
            "positions": [
                1.9023545203987642,
                -2.147384462366392,
                -1.775666675777352,
                1.650880501944936,
                -0.6639647093506409,
                -0.983443216807
            ]
        },
        {
            "positions": [
                2.0259719302262775,
                -2.180268893405035,
                -1.8039997978506839,
                1.6044345124024841,
                -0.5823773311781479,
                -0.9425288443746522
            ]
        },
        {
            "positions": [
                2.1495893400537907,
                -2.213153324443678,
                -1.8323329199240155,
                1.5579885228600325,
                -0.500789953005655,
                -0.9016144719423044
            ]
        },
        {
            "positions": [
                2.273206749881304,
                -2.2460377554823205,
                -1.8606660419973473,
                1.5115425333175807,
                -0.41920257483316203,
                -0.8607000995099566
            ]
        },
        {
            "positions": [
                2.396824159708817,
                -2.2789221865209637,
                -1.888999164070679,
                1.4650965437751289,
                -0.337615196660669,
                -0.8197857270776089
            ]
        },
        {
            "positions": [
                2.4296631896667016,
                -2.3043200349118904,
                -1.8606386567913147,
                1.4077514870882706,
                -0.2358192684954038,
                -0.7179658643922384
            ]
        },
        {
            "positions": [
                2.462502219624586,
                -2.3297178833028176,
                -1.8322781495119502,
                1.3504064304014123,
                -0.13402334033013857,
                -0.6161460017068681
            ]
        },
        {
            "positions": [
                2.4953412495824705,
                -2.3551157316937443,
                -1.803917642232586,
                1.293061373714554,
                -0.03222741216487335,
                -0.5143261390214976
            ]
        },
        {
            "positions": [
                2.528180279540355,
                -2.3805135800846715,
                -1.7755571349532215,
                1.2357163170276957,
                0.06956851600039188,
                -0.41250627633612713
            ]
        },
        {
            "positions": [
                2.56101930949824,
                -2.4059114284755982,
                -1.7471966276738573,
                1.1783712603408376,
                0.17136444416565705,
                -0.31068641365075667
            ]
        },
        {
            "positions": [
                2.5938583394561245,
                -2.431309276866525,
                -1.718836120394493,
                1.1210262036539793,
                0.27316037233092233,
                -0.2088665509653863
            ]
        },
        {
            "positions": [
                2.6266973694140088,
                -2.456707125257452,
                -1.6904756131151286,
                1.063681146967121,
                0.3749563004961876,
                -0.10704668828001584
            ]
        },
        {
            "positions": [
                2.6595363993718935,
                -2.482104973648379,
                -1.6621151058357644,
                1.0063360902802627,
                0.4767522286614528,
                -0.005226825594645389
            ]
        }
    ]
}