{
    "goal": {
        "global_pose": {
            "orientation": {
                "w": 0.005598929693374612,
                "x": 0.007748599140229565,
                "y": 0.7110244013736278,
                "z": -0.7031023480610252
            },
            "position": {
                "x": 0.1141497679147869,
                "y": -0.7141253447532654,
                "z": 0.3711530566215515
            }
        },
        "name": "move_to_auspresseinheit_B"
    },
    "id": "RRTstar_move_to_auspresseinheit_B_99",
    "joint_names": [
        "shoulder_pan_joint",
        "shoulder_lift_joint",
        "elbow_joint",
        "wrist_1_joint",
        "wrist_2_joint",
        "wrist_3_joint"
    ],
    "metrics": {
        "cart_traj_len": 0.565372015253216,
        "distance_elbow_joint": 0.05993542985309408,
        "distance_shoulder_lift_joint": 0.29610425061113954,
        "distance_shoulder_pan_joint": 0.5786237338805098,
        "distance_wrist_1_joint": 0.31590422275824137,
        "distance_wrist_2_joint": 0.9889876769852597,
        "distance_wrist_3_joint": 0.004746270592447477,
        "smoothness": 0.0,
        "time": 5.002389231,
        "traj_len": 1.4980993240371923,
        "weighted_distance": 1.8864479917583437
    },
    "planner": "RRTstar",
    "start": {
        "state": {
            "elbow_joint": 2.0193083361928714,
            "shoulder_lift_joint": -1.1220246554650708,
            "shoulder_pan_joint": -1.0952077554168747,
            "wrist_1_joint": -0.8559753972642168,
            "wrist_2_joint": 0.4759566250798843,
            "wrist_3_joint": -3.1240929996934557
        }
    },
    "waypoints": [
        {
            "positions": [
                -1.0952077554168747,
                -1.1220246554650708,
                2.0193083361928714,
                -0.8559753972642168,
                0.4759566250798843,
                -3.1240929996934557
            ]
        },
        {
            "positions": [
                -1.1916450443969597,
                -1.1713753639002606,
                2.0093190978840223,
                -0.8033246934711765,
                0.6407879045774276,
                -3.1233019545947145
            ]
        },
        {
            "positions": [
                -1.2880823333770446,
                -1.2207260723354507,
                1.9993298595751734,
                -0.7506739896781364,
                0.8056191840749709,
                -3.1225109094959733
            ]
        },
        {
            "positions": [
                -1.3845196223571294,
                -1.2700767807706406,
                1.9893406212663245,
                -0.6980232858850961,
                0.9704504635725142,
                -3.1217198643972317
            ]
        },
        {
            "positions": [
                -1.4809569113372145,
                -1.3194274892058304,
                1.9793513829574754,
                -0.645372582092056,
                1.1352817430700575,
                -3.1209288192984905
            ]
        },
        {
            "positions": [
                -1.5773942003172996,
                -1.3687781976410205,
                1.9693621446486262,
                -0.5927218782990156,
                1.3001130225676008,
                -3.1201377741997494
            ]
        },
        {
            "positions": [
                -1.6738314892973845,
                -1.4181289060762103,
                1.9593729063397773,
                -0.5400711745059754,
                1.464944302065144,
                -3.119346729101008
            ]
        }
    ]
}