{
    "goal": {
        "global_pose": {
            "orientation": {
                "w": 0.7047431468963623,
                "x": -0.7094548344612122,
                "y": 0.0024358443915843964,
                "z": -0.0022348060738295317
            },
            "position": {
                "x": 0.6094750761985779,
                "y": 0.3671506643295288,
                "z": 0.19426114857196808
            }
        },
        "name": "move_to_magneteinheit_A"
    },
    "id": "RRTstar_move_to_magneteinheit_A_104",
    "joint_names": [
        "shoulder_pan_joint",
        "shoulder_lift_joint",
        "elbow_joint",
        "wrist_1_joint",
        "wrist_2_joint",
        "wrist_3_joint"
    ],
    "metrics": {
        "cart_traj_len": 3.6025312385573534,
        "distance_elbow_joint": 3.899252157820105,
        "distance_shoulder_lift_joint": 0.10135079019963045,
        "distance_shoulder_pan_joint": 3.0017302856558334,
        "distance_wrist_1_joint": 0.7226313336594666,
        "distance_wrist_2_joint": 1.6939420760161603,
        "distance_wrist_3_joint": 2.6805552717496597,
        "smoothness": 0.09315992027306273,
        "time": 5.01652832,
        "traj_len": 3.4784280810591515,
        "weighted_distance": 4.458379287171044
    },
    "planner": "RRTstar",
    "start": {
        "state": {
            "elbow_joint": -1.9196185241190666,
            "shoulder_lift_joint": -1.2443396400964142,
            "shoulder_pan_joint": 2.6996025414629847,
            "wrist_1_joint": -1.5485510000780065,
            "wrist_2_joint": -1.5709468930060704,
            "wrist_3_joint": 0.4420197071253992
        }
    },
    "waypoints": [
        {
            "positions": [
                2.6996025414629847,
                -1.2443396400964142,
                -1.9196185241190666,
                -1.5485510000780065,
                -1.5709468930060704,
                0.4420197071253992
            ]
        },
        {
            "positions": [
                2.5880502372437593,
                -1.2422295423784029,
                -1.8140689263522682,
                -1.5320395807464493,
                -1.5179912423539852,
                0.5457479514902143
            ]
        },
        {
            "positions": [
                2.4764979330245342,
                -1.2401194446603916,
                -1.7085193285854698,
                -1.515528161414892,
                -1.4650355917019,
                0.6494761958550294
            ]
        },
        {
            "positions": [
                2.364945628805309,
                -1.2380093469423805,
                -1.6029697308186714,
                -1.499016742083335,
                -1.4120799410498148,
                0.7532044402198443
            ]
        },
        {
            "positions": [
                2.2533933245860833,
                -1.2358992492243692,
                -1.497420133051873,
                -1.4825053227517775,
                -1.3591242903977299,
                0.8569326845846595
            ]
        },
        {
            "positions": [
                2.141841020366858,
                -1.233789151506358,
                -1.3918705352850744,
                -1.4659939034202203,
                -1.3061686397456445,
                0.9606609289494746
            ]
        },
        {
            "positions": [
                2.030288716147633,
                -1.2316790537883466,
                -1.2863209375182763,
                -1.449482484088663,
                -1.2532129890935595,
                1.0643891733142896
            ]
        },
        {
            "positions": [
                1.9187364119284074,
                -1.2295689560703353,
                -1.1807713397514776,
                -1.432971064757106,
                -1.2002573384414743,
                1.1681174176791047
            ]
        },
        {
            "positions": [
                1.8071841077091821,
                -1.2274588583523243,
                -1.0752217419846795,
                -1.4164596454255487,
                -1.1473016877893891,
                1.27184566204392
            ]
        },
        {
            "positions": [
                1.695631803489957,
                -1.225348760634313,
                -0.9696721442178811,
                -1.3999482260939915,
                -1.094346037137304,
                1.375573906408735
            ]
        },
        {
            "positions": [
                1.5840794992707314,
                -1.2232386629163017,
                -0.8641225464510824,
                -1.383436806762434,
                -1.0413903864852188,
                1.4793021507735502
            ]
        },
        {
            "positions": [
                1.4725271950515062,
                -1.2211285651982904,
                -0.7585729486842843,
                -1.3669253874308769,
                -0.9884347358331337,
                1.583030395138365
            ]
        },
        {
            "positions": [
                1.360974890832281,
                -1.219018467480279,
                -0.6530233509174859,
                -1.3504139680993197,
                -0.9354790851810485,
                1.68675863950318
            ]
        },
        {
            "positions": [
                1.2494225866130555,
                -1.216908369762268,
                -0.5474737531506872,
                -1.3339025487677625,
                -0.8825234345289633,
                1.7904868838679953
            ]
        },
        {
            "positions": [
                1.13787028239383,
                -1.2147982720442567,
                -0.44192415538388885,
                -1.3173911294362053,
                -0.8295677838768781,
                1.8942151282328106
            ]
        },
        {
            "positions": [
                1.026317978174605,
                -1.2126881743262454,
                -0.3363745576170907,
                -1.300879710104648,
                -0.776612133224793,
                1.9979433725976254
            ]
        },
        {
            "positions": [
                0.9147656739553796,
                -1.2105780766082341,
                -0.23082495985029206,
                -1.2843682907730907,
                -0.7236564825727079,
                2.1016716169624408
            ]
        },
        {
            "positions": [
                0.8032133697361541,
                -1.2084679788902228,
                -0.12527536208349366,
                -1.2678568714415335,
                -0.6707008319206226,
                2.2053998613272556
            ]
        },
        {
            "positions": [
                0.6916610655169291,
                -1.2063578811722118,
                -0.019725764316695482,
                -1.2513454521099763,
                -0.6177451812685376,
                2.3091281056920705
            ]
        },
        {
            "positions": [
                0.5801087612977036,
                -1.2042477834542005,
                0.08582383345010314,
                -1.234834032778419,
                -0.5647895306164523,
                2.412856350056886
            ]
        },
        {
            "positions": [
                0.46855645707847815,
                -1.2021376857361892,
                0.19137343121690176,
                -1.2183226134468619,
                -0.5118338799643671,
                2.516584594421701
            ]
        },
        {
            "positions": [
                0.35700415285925313,
                -1.2000275880181779,
                0.29692302898369993,
                -1.2018111941153047,
                -0.45887822931228217,
                2.620312838786516
            ]
        },
        {
            "positions": [
                0.24545184864002767,
                -1.1979174903001666,
                0.4024726267504981,
                -1.1852997747837475,
                -0.405922578660197,
                2.7240410831513313
            ]
        },
        {
            "positions": [
                0.1338995444208022,
                -1.1958073925821555,
                0.5080222245172967,
                -1.16878835545219,
                -0.3529669280081118,
                2.827769327516146
            ]
        },
        {
            "positions": [
                0.02234724020157719,
                -1.1936972948641442,
                0.6135718222840949,
                -1.1522769361206329,
                -0.3000112773560266,
                2.931497571880961
            ]
        },
        {
            "positions": [
                -0.08920506401764816,
                -1.191587197146133,
                0.7191214200508937,
                -1.1357655167890757,
                -0.24705562670394132,
                3.0352258162457764
            ]
        },
        {
            "positions": [
                -0.05371795065511489,
                -1.1834874726045748,
                0.9292067889925846,
                -1.0841245417273198,
                -0.18538049175160282,
                3.0497840100173237
            ]
        },
        {
            "positions": [
                -0.018230837292581625,
                -1.1753877480630166,
                1.1392921579342754,
                -1.0324835666655638,
                -0.1237053567992643,
                3.0643422037888706
            ]
        },
        {
            "positions": [
                0.017256276069951643,
                -1.1672880235214582,
                1.3493775268759662,
                -0.9808425916038077,
                -0.062030221846925776,
                3.0789003975604174
            ]
        },
        {
            "positions": [
                0.05274338943248491,
                -1.1591882989799,
                1.559462895817657,
                -0.9292016165420518,
                -0.00035508689458726983,
                3.0934585913319648
            ]
        },
        {
            "positions": [
                0.08823050279501818,
                -1.151088574438342,
                1.769548264759348,
                -0.8775606414802959,
                0.061320048057751264,
                3.108016785103512
            ]
        },
        {
            "positions": [
                0.12371761615755145,
                -1.1429888498967837,
                1.9796336337010387,
                -0.8259196664185399,
                0.12299518301008977,
                3.122574978875059
            ]
        }
    ]
}