{
    "goal": {
        "global_pose": {
            "orientation": {
                "w": 0.7047431493862688,
                "x": -0.7094548369677653,
                "y": 0.0024358444001904,
                "z": -0.0022348060817251984
            },
            "position": {
                "x": -0.39052492380142206,
                "y": 0.3671506643295288,
                "z": 0.19426114857196808
            }
        },
        "name": "move_to_magneteinheit_D"
    },
    "id": "RRTstar_move_to_magneteinheit_D_13",
    "joint_names": [
        "shoulder_pan_joint",
        "shoulder_lift_joint",
        "elbow_joint",
        "wrist_1_joint",
        "wrist_2_joint",
        "wrist_3_joint"
    ],
    "metrics": {
        "cart_traj_len": 5.303937297053799,
        "distance_elbow_joint": 3.725529297861584,
        "distance_shoulder_lift_joint": 2.151816320074939,
        "distance_shoulder_pan_joint": 3.7162019636726757,
        "distance_wrist_1_joint": 2.2769533127197,
        "distance_wrist_2_joint": 3.1939934774656886,
        "distance_wrist_3_joint": 1.0368280446177804,
        "smoothness": 0.7148712351818776,
        "time": 5.026318324,
        "traj_len": 4.012645314055599,
        "weighted_distance": 4.862707609535383
    },
    "planner": "RRTstar",
    "start": {
        "state": {
            "elbow_joint": 0.749534889911806,
            "shoulder_lift_joint": -0.6476975780787326,
            "shoulder_pan_joint": -2.711696901376241,
            "wrist_1_joint": -0.07506478083263063,
            "wrist_2_joint": 0.43296659715538205,
            "wrist_3_joint": -3.14703540197715
        }
    },
    "waypoints": [
        {
            "positions": [
                -2.711696901376241,
                -0.6476975780787326,
                0.749534889911806,
                -0.07506478083263063,
                0.43296659715538205,
                -3.14703540197715
            ]
        },
        {
            "positions": [
                -2.7433238172253476,
                -0.7108521610170281,
                0.8115819155021216,
                -0.19477524696608414,
                0.3677092805483156,
                -3.193323567763452
            ]
        },
        {
            "positions": [
                -2.774950733074454,
                -0.7740067439553237,
                0.8736289410924373,
                -0.31448571309953766,
                0.3024519639412491,
                -3.239611733549754
            ]
        },
        {
            "positions": [
                -2.80657764892356,
                -0.8371613268936191,
                0.9356759666827529,
                -0.43419617923299114,
                0.23719464733418266,
                -3.285899899336056
            ]
        },
        {
            "positions": [
                -2.8382045647726666,
                -0.9003159098319147,
                0.9977229922730686,
                -0.5539066453664447,
                0.1719373307271162,
                -3.3321880651223577
            ]
        },
        {
            "positions": [
                -2.869831480621773,
                -0.9634704927702101,
                1.0597700178633842,
                -0.6736171114998982,
                0.10668001412004972,
                -3.37847623090866
            ]
        },
        {
            "positions": [
                -2.71377839924649,
                -1.0290123748675515,
                0.989528958942986,
                -0.7514944594392865,
                0.12692347320990827,
                -3.3757887700937417
            ]
        },
        {
            "positions": [
                -2.5577253178712067,
                -1.094554256964893,
                0.9192879000225879,
                -0.8293718073786747,
                0.1471669322997668,
                -3.373101309278824
            ]
        },
        {
            "positions": [
                -2.4016722364959238,
                -1.1600961390622344,
                0.8490468411021896,
                -0.9072491553180629,
                0.16741039138962532,
                -3.370413848463906
            ]
        },
        {
            "positions": [
                -2.2456191551206404,
                -1.2256380211595759,
                0.7788057821817915,
                -0.9851265032574512,
                0.18765385047948388,
                -3.367726387648988
            ]
        },
        {
            "positions": [
                -2.0895660737453574,
                -1.2911799032569173,
                0.7085647232613933,
                -1.0630038511968394,
                0.2078973095693424,
                -3.36503892683407
            ]
        },
        {
            "positions": [
                -1.9335129923700745,
                -1.3567217853542588,
                0.6383236643409951,
                -1.1408811991362275,
                0.22814076865920094,
                -3.362351466019152
            ]
        },
        {
            "positions": [
                -1.7774599109947913,
                -1.4222636674516003,
                0.568082605420597,
                -1.2187585470756157,
                0.2483842277490595,
                -3.359664005204234
            ]
        },
        {
            "positions": [
                -1.621406829619508,
                -1.4878055495489417,
                0.49784154650019874,
                -1.296635895015004,
                0.268627686838918,
                -3.356976544389316
            ]
        },
        {
            "positions": [
                -1.4653537482442252,
                -1.5533474316462832,
                0.4276004875798005,
                -1.3745132429543925,
                0.28887114592877655,
                -3.354289083574398
            ]
        },
        {
            "positions": [
                -1.309300666868942,
                -1.6188893137436247,
                0.3573594286594024,
                -1.4523905908937804,
                0.3091146050186351,
                -3.35160162275948
            ]
        },
        {
            "positions": [
                -1.1532475854936588,
                -1.6844311958409661,
                0.2871183697390042,
                -1.5302679388331688,
                0.32935806410849366,
                -3.348914161944562
            ]
        },
        {
            "positions": [
                -0.9971945041183758,
                -1.7499730779383074,
                0.21687731081860606,
                -1.608145286772557,
                0.34960152319835214,
                -3.3462267011296443
            ]
        },
        {
            "positions": [
                -0.8411414227430924,
                -1.815514960035649,
                0.14663625189820784,
                -1.6860226347119451,
                0.3698449822882107,
                -3.343539240314726
            ]
        },
        {
            "positions": [
                -0.6850883413678095,
                -1.8810568421329903,
                0.07639519297780972,
                -1.7638999826513335,
                0.39008844137806925,
                -3.340851779499808
            ]
        },
        {
            "positions": [
                -0.5290352599925265,
                -1.9465987242303318,
                0.006154134057411609,
                -1.841777330590722,
                0.4103319004679278,
                -3.33816431868489
            ]
        },
        {
            "positions": [
                -0.37298217861724314,
                -2.0121406063276734,
                -0.06408692486298673,
                -1.9196546785301098,
                0.43057535955778636,
                -3.3354768578699723
            ]
        },
        {
            "positions": [
                -0.2169290972419602,
                -2.0776824884250145,
                -0.13432798378338484,
                -1.9975320264694982,
                0.45081881864764484,
                -3.332789397055054
            ]
        },
        {
            "positions": [
                -0.060876015866677236,
                -2.143224370522356,
                -0.20456904270378318,
                -2.0754093744088866,
                0.4710622777375034,
                -3.330101936240136
            ]
        },
        {
            "positions": [
                0.09517706550860572,
                -2.2087662526196974,
                -0.27481010162418107,
                -2.1532867223482746,
                0.49130573682736195,
                -3.3274144754252184
            ]
        },
        {
            "positions": [
                0.2512301468838891,
                -2.274308134717039,
                -0.3450511605445794,
                -2.231164070287663,
                0.5115491959172205,
                -3.3247270146103003
            ]
        },
        {
            "positions": [
                0.21361437767433875,
                -2.220387115396787,
                -0.47714526822688363,
                -2.2366416021162774,
                0.6103107699042082,
                -3.2713216072168128
            ]
        },
        {
            "positions": [
                0.17599860846478838,
                -2.1664660960765345,
                -0.6092393759091879,
                -2.2421191339448923,
                0.7090723438911959,
                -3.217916199823325
            ]
        },
        {
            "positions": [
                0.13838283925523803,
                -2.1125450767562826,
                -0.7413334835914922,
                -2.2475966657735067,
                0.8078339178781837,
                -3.1645107924298377
            ]
        },
        {
            "positions": [
                0.10076707004568766,
                -2.0586240574360306,
                -0.8734275912737964,
                -2.2530741976021216,
                0.9065954918651714,
                -3.11110538503635
            ]
        },
        {
            "positions": [
                0.06315130083613726,
                -2.0047030381157787,
                -1.0055216989561009,
                -2.258551729430736,
                1.0053570658521593,
                -3.057699977642862
            ]
        },
        {
            "positions": [
                0.02553553162658692,
                -1.9507820187955265,
                -1.137615806638405,
                -2.264029261259351,
                1.104118639839147,
                -3.0042945702493746
            ]
        },
        {
            "positions": [
                -0.012080237582963449,
                -1.8968609994752743,
                -1.2697099143207091,
                -2.2695067930879653,
                1.2028802138261345,
                -2.950889162855887
            ]
        },
        {
            "positions": [
                -0.04969600679251379,
                -1.8429399801550224,
                -1.4018040220030135,
                -2.27498432491658,
                1.3016417878131223,
                -2.8974837554623996
            ]
        },
        {
            "positions": [
                -0.08731177600206419,
                -1.7890189608347702,
                -1.5338981296853178,
                -2.2804618567451946,
                1.4004033618001102,
                -2.844078348068912
            ]
        },
        {
            "positions": [
                -0.09961975525650532,
                -1.7840293871404747,
                -1.6366013824804808,
                -2.2715173271443025,
                1.2036554184563233,
                -2.8779520146747273
            ]
        },
        {
            "positions": [
                -0.11192773451094645,
                -1.7790398134461793,
                -1.7393046352756438,
                -2.2625727975434105,
                1.0069074751125362,
                -2.9118256812805425
            ]
        },
        {
            "positions": [
                -0.12423571376538758,
                -1.774050239751884,
                -1.8420078880708066,
                -2.2536282679425184,
                0.8101595317687492,
                -2.9456993478863582
            ]
        },
        {
            "positions": [
                -0.13654369301982872,
                -1.7690606660575885,
                -1.9447111408659696,
                -2.2446837383416263,
                0.6134115884249622,
                -2.9795730144921735
            ]
        },
        {
            "positions": [
                -0.14885167227426985,
                -1.764071092363293,
                -2.047414393661133,
                -2.2357392087407346,
                0.41666364508117526,
                -3.0134466810979887
            ]
        },
        {
            "positions": [
                -0.16115965152871098,
                -1.7590815186689976,
                -2.1501176464562954,
                -2.2267946791398425,
                0.21991570173738828,
                -3.0473203477038044
            ]
        },
        {
            "positions": [
                -0.1734676307831521,
                -1.7540919449747023,
                -2.2528208992514585,
                -2.2178501495389504,
                0.02316775839360119,
                -3.0811940143096197
            ]
        },
        {
            "positions": [
                -0.18577561003759324,
                -1.7491023712804068,
                -2.3555241520466215,
                -2.2089056199380583,
                -0.17358018495018568,
                -3.115067680915435
            ]
        }
    ]
}