{
    "goal": {
        "global_pose": {
            "orientation": {
                "w": 0.5084816262002911,
                "x": -0.4908360881923452,
                "y": 0.5182115481033761,
                "z": -0.48164630358495003
            },
            "position": {
                "x": 0.5540239810943604,
                "y": -0.46912469901144505,
                "z": 0.16403168439865112
            }
        },
        "name": "move_to_storage_B"
    },
    "id": "RRTstar_move_to_storage_B_35",
    "joint_names": [
        "shoulder_pan_joint",
        "shoulder_lift_joint",
        "elbow_joint",
        "wrist_1_joint",
        "wrist_2_joint",
        "wrist_3_joint"
    ],
    "metrics": {
        "cart_traj_len": 0.5938062123006862,
        "distance_elbow_joint": 0.3538098170416464,
        "distance_shoulder_lift_joint": 0.46071136815282476,
        "distance_shoulder_pan_joint": 0.18119930707870247,
        "distance_wrist_1_joint": 2.9989259369398193,
        "distance_wrist_2_joint": 2.70351341943185,
        "distance_wrist_3_joint": 3.1257506811912683,
        "smoothness": 3.2895497167574374e-16,
        "time": 5.066807453,
        "traj_len": 3.134311811201322,
        "weighted_distance": 4.666674538532799
    },
    "planner": "RRTstar",
    "start": {
        "state": {
            "elbow_joint": 1.664937868594044,
            "shoulder_lift_joint": -0.661644460510453,
            "shoulder_pan_joint": -0.9139846352900073,
            "wrist_1_joint": 2.146753192139373,
            "wrist_2_joint": -2.2341966793290973,
            "wrist_3_joint": 0.005466555786416001
        }
    },
    "waypoints": [
        {
            "positions": [
                -0.9139846352900073,
                -0.661644460510453,
                1.664937868594044,
                2.146753192139373,
                -2.2341966793290973,
                0.005466555786416001
            ]
        },
        {
            "positions": [
                -0.9172292761889935,
                -0.6808265309965902,
                1.6886412229111003,
                2.0789802990673487,
                -2.1408480799757514,
                -0.014653848887555724
            ]
        },
        {
            "positions": [
                -0.9204739170879799,
                -0.7000086014827273,
                1.7123445772281567,
                2.011207405995324,
                -2.0474994806224056,
                -0.03477425356152745
            ]
        },
        {
            "positions": [
                -0.927753501474677,
                -0.7176064026152502,
                1.725111373411804,
                1.8918998997121672,
                -1.9426321380921907,
                -0.16333716488833264
            ]
        },
        {
            "positions": [
                -0.935033085861374,
                -0.7352042037477732,
                1.7378781695954513,
                1.77259239342901,
                -1.8377647955619758,
                -0.29190007621513786
            ]
        },
        {
            "positions": [
                -0.9423126702480711,
                -0.752802004880296,
                1.7506449657790983,
                1.653284887145853,
                -1.732897453031761,
                -0.4204629875419431
            ]
        },
        {
            "positions": [
                -0.9495922546347682,
                -0.770399806012819,
                1.7634117619627456,
                1.5339773808626957,
                -1.628030110501546,
                -0.5490258988687482
            ]
        },
        {
            "positions": [
                -0.9568718390214652,
                -0.787997607145342,
                1.776178558146393,
                1.4146698745795387,
                -1.5231627679713309,
                -0.6775888101955535
            ]
        },
        {
            "positions": [
                -0.9641514234081623,
                -0.8055954082778649,
                1.78894535433004,
                1.2953623682963817,
                -1.418295425441116,
                -0.8061517215223587
            ]
        },
        {
            "positions": [
                -0.9714310077948595,
                -0.8231932094103879,
                1.8017121505136873,
                1.1760548620132245,
                -1.3134280829109009,
                -0.934714632849164
            ]
        },
        {
            "positions": [
                -0.9787105921815565,
                -0.8407910105429107,
                1.8144789466973346,
                1.0567473557300675,
                -1.2085607403806862,
                -1.063277544175969
            ]
        },
        {
            "positions": [
                -0.9859901765682536,
                -0.8583888116754337,
                1.8272457428809818,
                0.9374398494469103,
                -1.103693397850471,
                -1.1918404555027744
            ]
        },
        {
            "positions": [
                -0.9932697609549507,
                -0.8759866128079566,
                1.8400125390646291,
                0.8181323431637533,
                -0.9988260553202561,
                -1.3204033668295796
            ]
        },
        {
            "positions": [
                -1.0005493453416476,
                -0.8935844139404796,
                1.8527793352482762,
                0.6988248368805963,
                -0.8939587127900412,
                -1.4489662781563848
            ]
        },
        {
            "positions": [
                -1.007828929728345,
                -0.9111822150730025,
                1.8655461314319235,
                0.579517330597439,
                -0.7890913702598263,
                -1.57752918948319
            ]
        },
        {
            "positions": [
                -1.0151085141150418,
                -0.9287800162055254,
                1.8783129276155708,
                0.46020982431428203,
                -0.6842240277296114,
                -1.7060921008099952
            ]
        },
        {
            "positions": [
                -1.022388098501739,
                -0.9463778173380484,
                1.8910797237992178,
                0.3409023180311248,
                -0.5793566851993963,
                -1.8346550121368006
            ]
        },
        {
            "positions": [
                -1.0296676828884361,
                -0.9639756184705713,
                1.9038465199828651,
                0.2215948117479678,
                -0.47448934266918164,
                -1.9632179234636056
            ]
        },
        {
            "positions": [
                -1.0369472672751332,
                -0.9815734196030943,
                1.9166133161665124,
                0.1022873054648108,
                -0.36962200013896673,
                -2.0917808347904105
            ]
        },
        {
            "positions": [
                -1.0442268516618303,
                -0.9991712207356171,
                1.9293801123501597,
                -0.01702020081834643,
                -0.2647546576087516,
                -2.220343746117216
            ]
        },
        {
            "positions": [
                -1.0515064360485273,
                -1.0167690218681402,
                1.942146908533807,
                -0.13632770710150366,
                -0.1598873150785367,
                -2.3489066574440214
            ]
        },
        {
            "positions": [
                -1.0587860204352244,
                -1.034366823000663,
                1.954913704717454,
                -0.25563521338466044,
                -0.055019972548321805,
                -2.4774695687708266
            ]
        },
        {
            "positions": [
                -1.0660656048219215,
                -1.051964624133186,
                1.9676805009011014,
                -0.37494271966781767,
                0.04984736998189332,
                -2.6060324800976318
            ]
        },
        {
            "positions": [
                -1.0733451892086185,
                -1.069562425265709,
                1.9804472970847486,
                -0.4942502259509749,
                0.15471471251210822,
                -2.734595391424437
            ]
        },
        {
            "positions": [
                -1.0806247735953156,
                -1.0871602263982318,
                1.9932140932683957,
                -0.6135577322341317,
                0.2595820550423231,
                -2.863158302751242
            ]
        },
        {
            "positions": [
                -1.0879043579820127,
                -1.104758027530755,
                2.0059808894520432,
                -0.7328652385172894,
                0.364449397572538,
                -2.9917212140780474
            ]
        },
        {
            "positions": [
                -1.0951839423687098,
                -1.1223558286632778,
                2.0187476856356903,
                -0.8521727448004462,
                0.46931674010275276,
                -3.1202841254048526
            ]
        }
    ]
}