{
    "goal": {
        "global_pose": {
            "orientation": {
                "w": 0.5084816262002911,
                "x": -0.4908360881923452,
                "y": 0.5182115481033761,
                "z": -0.48164630358495003
            },
            "position": {
                "x": 0.5540239810943604,
                "y": -0.46912469901144505,
                "z": 0.16403168439865112
            }
        },
        "name": "move_to_storage_B"
    },
    "id": "RRTstar_move_to_storage_B_10",
    "joint_names": [
        "shoulder_pan_joint",
        "shoulder_lift_joint",
        "elbow_joint",
        "wrist_1_joint",
        "wrist_2_joint",
        "wrist_3_joint"
    ],
    "metrics": {
        "cart_traj_len": 0.573328873857697,
        "distance_elbow_joint": 0.3489731147252786,
        "distance_shoulder_lift_joint": 0.45919822222086437,
        "distance_shoulder_pan_joint": 0.18040996058257341,
        "distance_wrist_1_joint": 2.980247343952082,
        "distance_wrist_2_joint": 2.707371870527902,
        "distance_wrist_3_joint": 3.1380408340399732,
        "smoothness": 3.416070872049977e-16,
        "time": 5.02966991,
        "traj_len": 3.132768958293712,
        "weighted_distance": 4.666684286365278
    },
    "planner": "RRTstar",
    "start": {
        "state": {
            "elbow_joint": 1.664937868594044,
            "shoulder_lift_joint": -0.661644460510453,
            "shoulder_pan_joint": -0.9139846352900073,
            "wrist_1_joint": 2.146753192139373,
            "wrist_2_joint": -2.2341966793290973,
            "wrist_3_joint": 0.005466555786416001
        }
    },
    "waypoints": [
        {
            "positions": [
                -0.9139846352900073,
                -0.661644460510453,
                1.664937868594044,
                2.146753192139373,
                -2.2341966793290973,
                0.005466555786416001
            ]
        },
        {
            "positions": [
                -0.9428024302710464,
                -0.6793768351591115,
                1.716841006720413,
                2.127771313101078,
                -1.9757947618674727,
                0.02029988612940303
            ]
        },
        {
            "positions": [
                -0.9716202252520854,
                -0.6971092098077701,
                1.7687441448467818,
                2.108789434062783,
                -1.7173928444058482,
                0.03513321647239006
            ]
        },
        {
            "positions": [
                -1.0004380202331244,
                -0.7148415844564286,
                1.8206472829731508,
                2.0898075550244877,
                -1.4589909269442234,
                0.049966546815377086
            ]
        },
        {
            "positions": [
                -1.0047087736712816,
                -0.7332961798325599,
                1.8294319966252495,
                1.956930204713706,
                -1.3711651943013585,
                0.19058203967951398
            ]
        },
        {
            "positions": [
                -1.0089795271094386,
                -0.7517507752086913,
                1.8382167102773483,
                1.8240528544029244,
                -1.2833394616584937,
                0.3311975325436509
            ]
        },
        {
            "positions": [
                -1.0132502805475958,
                -0.7702053705848225,
                1.847001423929447,
                1.6911755040921426,
                -1.1955137290156288,
                0.4718130254077878
            ]
        },
        {
            "positions": [
                -1.0175210339857528,
                -0.7886599659609539,
                1.8557861375815456,
                1.558298153781361,
                -1.107687996372764,
                0.6124285182719247
            ]
        },
        {
            "positions": [
                -1.02179178742391,
                -0.8071145613370851,
                1.8645708512336443,
                1.4254208034705793,
                -1.019862263729899,
                0.7530440111360616
            ]
        },
        {
            "positions": [
                -1.0260625408620672,
                -0.8255691567132165,
                1.8733555648857432,
                1.2925434531597977,
                -0.9320365310870342,
                0.8936595040001984
            ]
        },
        {
            "positions": [
                -1.0303332943002241,
                -0.8440237520893478,
                1.8821402785378418,
                1.159666102849016,
                -0.8442107984441694,
                1.0342749968643354
            ]
        },
        {
            "positions": [
                -1.0346040477383813,
                -0.8624783474654791,
                1.8909249921899405,
                1.0267887525382342,
                -0.7563850658013045,
                1.1748904897284724
            ]
        },
        {
            "positions": [
                -1.0388748011765383,
                -0.8809329428416104,
                1.8997097058420391,
                0.8939114022274526,
                -0.6685593331584396,
                1.3155059825926094
            ]
        },
        {
            "positions": [
                -1.0431455546146955,
                -0.8993875382177416,
                1.908494419494138,
                0.761034051916671,
                -0.5807336005155748,
                1.4561214754567462
            ]
        },
        {
            "positions": [
                -1.0474163080528527,
                -0.917842133593873,
                1.9172791331462367,
                0.6281567016058893,
                -0.4929078678727099,
                1.5967369683208832
            ]
        },
        {
            "positions": [
                -1.0516870614910097,
                -0.9362967289700043,
                1.9260638467983353,
                0.4952793512951077,
                -0.40508213522984504,
                1.73735246118502
            ]
        },
        {
            "positions": [
                -1.0559578149291668,
                -0.9547513243461356,
                1.9348485604504342,
                0.36240200098432584,
                -0.3172564025869802,
                1.8779679540491572
            ]
        },
        {
            "positions": [
                -1.0602285683673238,
                -0.9732059197222669,
                1.9436332741025328,
                0.22952465067354444,
                -0.22943066994411532,
                2.018583446913294
            ]
        },
        {
            "positions": [
                -1.064499321805481,
                -0.9916605150983981,
                1.9524179877546315,
                0.09664730036276281,
                -0.14160493730125046,
                2.1591989397774305
            ]
        },
        {
            "positions": [
                -1.068770075243638,
                -1.0101151104745296,
                1.9612027014067301,
                -0.03623004994801926,
                -0.05377920465838559,
                2.2998144326415675
            ]
        },
        {
            "positions": [
                -1.0730408286817952,
                -1.0285697058506609,
                1.969987415058829,
                -0.16910740025880067,
                0.03404652798447927,
                2.4404299255057045
            ]
        },
        {
            "positions": [
                -1.0773115821199524,
                -1.0470243012267921,
                1.9787721287109277,
                -0.3019847505695825,
                0.12187226062734413,
                2.5810454183698415
            ]
        },
        {
            "positions": [
                -1.0815823355581093,
                -1.0654788966029234,
                1.9875568423630263,
                -0.4348621008803639,
                0.209697993270209,
                2.7216609112339785
            ]
        },
        {
            "positions": [
                -1.0858530889962665,
                -1.0839334919790549,
                1.996341556015125,
                -0.5677394511911458,
                0.29752372591307386,
                2.862276404098115
            ]
        },
        {
            "positions": [
                -1.0901238424344235,
                -1.1023880873551861,
                2.005126269667224,
                -0.7006168015019276,
                0.3853494585559387,
                3.002891896962252
            ]
        },
        {
            "positions": [
                -1.0943945958725807,
                -1.1208426827313174,
                2.0139109833193225,
                -0.8334941518127089,
                0.4731751911988035,
                3.143507389826389
            ]
        }
    ]
}