{
    "goal": {
        "global_pose": {
            "orientation": {
                "w": -0.4816463035849501,
                "x": 0.5182115481033762,
                "y": 0.4908360881923453,
                "z": -0.5084816262002911
            },
            "position": {
                "x": -0.8240239810943604,
                "y": 0.19912469901144506,
                "z": 0.16403168439865112
            }
        },
        "name": "move_to_storage_D"
    },
    "id": "RRTstar_move_to_storage_D_130",
    "joint_names": [
        "shoulder_pan_joint",
        "shoulder_lift_joint",
        "elbow_joint",
        "wrist_1_joint",
        "wrist_2_joint",
        "wrist_3_joint"
    ],
    "metrics": {
        "cart_traj_len": 3.781483833086962,
        "distance_elbow_joint": 4.211733031205812,
        "distance_shoulder_lift_joint": 1.2644428271307349,
        "distance_shoulder_pan_joint": 2.8131413757247783,
        "distance_wrist_1_joint": 2.387466963562594,
        "distance_wrist_2_joint": 0.9133226164547481,
        "distance_wrist_3_joint": 3.1800189962936187,
        "smoothness": 0.23151403723327513,
        "time": 5.059157581,
        "traj_len": 3.8431921381024248,
        "weighted_distance": 4.942767785661882
    },
    "planner": "RRTstar",
    "start": {
        "state": {
            "elbow_joint": -2.384821988534728,
            "shoulder_lift_joint": -2.2788054721415256,
            "shoulder_pan_joint": -0.1854694642142757,
            "wrist_1_joint": 1.4845938289331202,
            "wrist_2_joint": 0.17898776772866878,
            "wrist_3_joint": 0.037105688729662994
        }
    },
    "waypoints": [
        {
            "positions": [
                -0.1854694642142757,
                -2.2788054721415256,
                -2.384821988534728,
                1.4845938289331202,
                0.17898776772866878,
                0.037105688729662994
            ]
        },
        {
            "positions": [
                -0.057793238087622684,
                -2.177671544325755,
                -2.3523172605258678,
                1.5415866755433483,
                0.15708947276730606,
                0.05948010527919044
            ]
        },
        {
            "positions": [
                0.020289203522306093,
                -2.145971545390933,
                -2.2425716495436023,
                1.4803889449831422,
                0.18338155885652432,
                -0.02473403745084564
            ]
        },
        {
            "positions": [
                0.09837164513223487,
                -2.114271546456111,
                -2.1328260385613373,
                1.4191912144229362,
                0.2096736449457426,
                -0.10894818018088172
            ]
        },
        {
            "positions": [
                0.17645408674216365,
                -2.0825715475212894,
                -2.023080427579072,
                1.35799348386273,
                0.23596573103496082,
                -0.19316232291091778
            ]
        },
        {
            "positions": [
                0.2545365283520924,
                -2.0508715485864677,
                -1.9133348165968065,
                1.2967957533025243,
                0.26225781712417906,
                -0.27737646564095386
            ]
        },
        {
            "positions": [
                0.3326189699620212,
                -2.0191715496516456,
                -1.8035892056145415,
                1.2355980227423182,
                0.28854990321339735,
                -0.36159060837098994
            ]
        },
        {
            "positions": [
                0.41070141157194995,
                -1.987471550716824,
                -1.693843594632276,
                1.1744002921821122,
                0.3148419893026156,
                -0.445804751101026
            ]
        },
        {
            "positions": [
                0.4887838531818788,
                -1.955771551782002,
                -1.5840979836500106,
                1.1132025616219061,
                0.3411340753918338,
                -0.5300188938310622
            ]
        },
        {
            "positions": [
                0.5668662947918075,
                -1.9240715528471803,
                -1.4743523726677454,
                1.0520048310617,
                0.3674261614810521,
                -0.6142330365610982
            ]
        },
        {
            "positions": [
                0.6449487364017362,
                -1.8923715539123585,
                -1.3646067616854802,
                0.9908071005014941,
                0.3937182475702703,
                -0.6984471792911342
            ]
        },
        {
            "positions": [
                0.723031178011665,
                -1.8606715549775366,
                -1.254861150703215,
                0.929609369941288,
                0.4200103336594886,
                -0.7826613220211703
            ]
        },
        {
            "positions": [
                0.8011136196215938,
                -1.8289715560427149,
                -1.1451155397209498,
                0.868411639381082,
                0.4463024197487068,
                -0.8668754647512064
            ]
        },
        {
            "positions": [
                0.8791960612315226,
                -1.797271557107893,
                -1.0353699287386844,
                0.807213908820876,
                0.4725945058379251,
                -0.9510896074812425
            ]
        },
        {
            "positions": [
                0.9572785028414514,
                -1.7655715581730713,
                -0.9256243177564192,
                0.7460161782606699,
                0.49888659192714335,
                -1.0353037502112785
            ]
        },
        {
            "positions": [
                1.0353609444513803,
                -1.7338715592382492,
                -0.8158787067741538,
                0.6848184477004639,
                0.5251786780163616,
                -1.1195178929413148
            ]
        },
        {
            "positions": [
                1.1134433860613089,
                -1.7021715603034275,
                -0.7061330957918885,
                0.6236207171402579,
                0.5514707641055798,
                -1.2037320356713506
            ]
        },
        {
            "positions": [
                1.1915258276712377,
                -1.6704715613686059,
                -0.5963874848096231,
                0.5624229865800519,
                0.5777628501947982,
                -1.2879461784013868
            ]
        },
        {
            "positions": [
                1.2696082692811665,
                -1.6387715624337837,
                -0.48664187382735813,
                0.5012252560198458,
                0.6040549362840164,
                -1.3721603211314228
            ]
        },
        {
            "positions": [
                1.3476907108910952,
                -1.607071563498962,
                -0.3768962628450929,
                0.44002752545963997,
                0.6303470223732346,
                -1.4563744638614589
            ]
        },
        {
            "positions": [
                1.4257731525010242,
                -1.5753715645641402,
                -0.26715065186282727,
                0.3788297948994337,
                0.656639108462453,
                -1.540588606591495
            ]
        },
        {
            "positions": [
                1.5038555941109528,
                -1.5436715656293183,
                -0.15740504088056229,
                0.31763206433922764,
                0.6829311945516712,
                -1.6248027493215311
            ]
        },
        {
            "positions": [
                1.5819380357208817,
                -1.5119715666944966,
                -0.04765942989829686,
                0.2564343337790218,
                0.7092232806408894,
                -1.7090168920515671
            ]
        },
        {
            "positions": [
                1.6600204773308103,
                -1.480271567759675,
                0.06208618108396813,
                0.19523660321881575,
                0.7355153667301075,
                -1.7932310347816032
            ]
        },
        {
            "positions": [
                1.7381029189407393,
                -1.4485715688248528,
                0.171831792066234,
                0.13403887265860948,
                0.7618074528193259,
                -1.8774451775116394
            ]
        },
        {
            "positions": [
                1.816185360550668,
                -1.4168715698900312,
                0.281577403048499,
                0.07284114209840364,
                0.7880995389085441,
                -1.9616593202416754
            ]
        },
        {
            "positions": [
                1.8942678021605968,
                -1.3851715709552095,
                0.3913230140307644,
                0.01164341153819759,
                0.8143916249977625,
                -2.0458734629717115
            ]
        },
        {
            "positions": [
                1.9723502437705256,
                -1.3534715720203876,
                0.5010686250130294,
                -0.049554319022008464,
                0.8406837110869807,
                -2.1300876057017475
            ]
        },
        {
            "positions": [
                2.0504326853804544,
                -1.3217715730855657,
                0.6108142359952948,
                -0.11075204958221452,
                0.8669757971761989,
                -2.214301748431784
            ]
        },
        {
            "positions": [
                2.1285151269903833,
                -1.2900715741507438,
                0.7205598469775603,
                -0.17194978014242057,
                0.8932678832654173,
                -2.29851589116182
            ]
        },
        {
            "positions": [
                2.2065975686003116,
                -1.258371575215922,
                0.8303054579598252,
                -0.2331475107026264,
                0.9195599693546355,
                -2.3827300338918556
            ]
        },
        {
            "positions": [
                2.2846800102102405,
                -1.2266715762811002,
                0.9400510689420907,
                -0.29434524126283246,
                0.9458520554438536,
                -2.4669441766218916
            ]
        },
        {
            "positions": [
                2.3627624518201698,
                -1.1949715773462783,
                1.049796679924356,
                -0.35554297182303873,
                0.972144141533072,
                -2.551158319351928
            ]
        },
        {
            "positions": [
                2.440844893430098,
                -1.1632715784114567,
                1.1595422909066215,
                -0.41674070238324457,
                0.9984362276222902,
                -2.635372462081964
            ]
        },
        {
            "positions": [
                2.518927335040027,
                -1.1315715794766348,
                1.2692879018888865,
                -0.4779384329434505,
                1.0247283137115084,
                -2.719586604812
            ]
        },
        {
            "positions": [
                2.546113479157646,
                -1.1022693458601738,
                1.408693687084436,
                -0.5556756850598421,
                1.0306746838488041,
                -2.8142310722252253
            ]
        },
        {
            "positions": [
                2.5732996232752647,
                -1.0729671122437128,
                1.5480994722799855,
                -0.6334129371762338,
                1.0366210539860998,
                -2.9088755396384505
            ]
        },
        {
            "positions": [
                2.6004857673928834,
                -1.0436648786272518,
                1.687505257475535,
                -0.7111501892926255,
                1.0425674241233958,
                -3.0035200070516757
            ]
        },
        {
            "positions": [
                2.6276719115105025,
                -1.0143626450107908,
                1.8269110426710844,
                -0.7888874414090171,
                1.0485137942606915,
                -3.098164474464901
            ]
        }
    ]
}