{
    "goal": {
        "global_pose": {
            "orientation": {
                "w": 0.7031023502349854,
                "x": -0.7110244035720825,
                "y": 0.007748599164187908,
                "z": 0.005598929710686207
            },
            "position": {
                "x": 0.11585023208521307,
                "y": 0.44412534475326537,
                "z": 0.3711530566215515
            }
        },
        "name": "move_to_auspresseinheit_A"
    },
    "id": "RRTstar_move_to_auspresseinheit_A_46",
    "joint_names": [
        "shoulder_pan_joint",
        "shoulder_lift_joint",
        "elbow_joint",
        "wrist_1_joint",
        "wrist_2_joint",
        "wrist_3_joint"
    ],
    "metrics": {
        "cart_traj_len": 0.8532854489435593,
        "distance_elbow_joint": 0.19796854749554083,
        "distance_shoulder_lift_joint": 0.5349026008664137,
        "distance_shoulder_pan_joint": 1.0442266081372906,
        "distance_wrist_1_joint": 0.6149092208234757,
        "distance_wrist_2_joint": 1.0906229060872938,
        "distance_wrist_3_joint": 0.311056899650914,
        "smoothness": 1.2038679658905531,
        "time": 5.021025195,
        "traj_len": 1.9477388898568844,
        "weighted_distance": 2.474132718605355
    },
    "planner": "RRTstar",
    "start": {
        "state": {
            "elbow_joint": 2.4225746658250005,
            "shoulder_lift_joint": -1.3736534386056498,
            "shoulder_pan_joint": -0.3378633547517467,
            "wrist_1_joint": -1.0288598680537169,
            "wrist_2_joint": 1.233022673432363,
            "wrist_3_joint": -3.0940220416140027
        }
    },
    "waypoints": [
        {
            "positions": [
                -0.3378633547517467,
                -1.3736534386056498,
                2.4225746658250005,
                -1.0288598680537169,
                1.233022673432363,
                -3.0940220416140027
            ]
        },
        {
            "positions": [
                -0.31459291840307757,
                -1.4290556428158507,
                2.3653284991233035,
                -1.0391314462677834,
                1.2952021051194227,
                -3.0606042840110694
            ]
        },
        {
            "positions": [
                -0.29132248205440847,
                -1.4844578470260514,
                2.3080823324216064,
                -1.0494030244818497,
                1.357381536806482,
                -3.0271865264081366
            ]
        },
        {
            "positions": [
                -0.18201038391054083,
                -1.5378844665861164,
                2.310184620483024,
                -0.9890660266988324,
                1.2232134787914641,
                -3.015931817414684
            ]
        },
        {
            "positions": [
                -0.0726982857666732,
                -1.5913110861461812,
                2.3122869085444413,
                -0.928729028915815,
                1.0890454207764464,
                -3.0046771084212316
            ]
        },
        {
            "positions": [
                0.036613812377194466,
                -1.6447377057062462,
                2.314389196605859,
                -0.8683920311327977,
                0.9548773627614284,
                -2.9934223994277787
            ]
        },
        {
            "positions": [
                0.14592591052106207,
                -1.6981643252663112,
                2.3164914846672766,
                -0.8080550333497803,
                0.8207093047464106,
                -2.982167690434326
            ]
        },
        {
            "positions": [
                0.25523800866492974,
                -1.751590944826376,
                2.318593772728694,
                -0.747718035566763,
                0.6865412467313926,
                -2.9709129814408737
            ]
        },
        {
            "positions": [
                0.3645501068087974,
                -1.805017564386441,
                2.3206960607901115,
                -0.6873810377837456,
                0.5523731887163748,
                -2.959658272447421
            ]
        },
        {
            "positions": [
                0.4784878223343796,
                -1.839530389414982,
                2.344316889364659,
                -0.6099330118846661,
                0.6061250869240639,
                -3.0185559826088655
            ]
        },
        {
            "positions": [
                0.5924255378599618,
                -1.8740432144435226,
                2.367937717939206,
                -0.5324849859855865,
                0.6598769851317531,
                -3.0774536927703093
            ]
        },
        {
            "positions": [
                0.706363253385544,
                -1.9085560394720635,
                2.391558546513753,
                -0.45503696008650696,
                0.7136288833394422,
                -3.1363514029317536
            ]
        }
    ]
}