{
    "goal": {
        "global_pose": {
            "orientation": {
                "w": 0.005598929693374612,
                "x": 0.007748599140229565,
                "y": 0.7110244013736278,
                "z": -0.7031023480610252
            },
            "position": {
                "x": 0.1141497679147869,
                "y": -0.7141253447532654,
                "z": 0.3711530566215515
            }
        },
        "name": "move_to_auspresseinheit_B"
    },
    "id": "RRTstar_move_to_auspresseinheit_B_140",
    "joint_names": [
        "shoulder_pan_joint",
        "shoulder_lift_joint",
        "elbow_joint",
        "wrist_1_joint",
        "wrist_2_joint",
        "wrist_3_joint"
    ],
    "metrics": {
        "cart_traj_len": 0.5654479349283091,
        "distance_elbow_joint": 0.06062185312003021,
        "distance_shoulder_lift_joint": 0.2951687986671443,
        "distance_shoulder_pan_joint": 0.5788267746158677,
        "distance_wrist_1_joint": 0.31809417450931843,
        "distance_wrist_2_joint": 0.9891572832452,
        "distance_wrist_3_joint": 0.006411174527992891,
        "smoothness": 5.075305295617109e-16,
        "time": 5.000802335,
        "traj_len": 1.4994265766237285,
        "weighted_distance": 1.889008699158386
    },
    "planner": "RRTstar",
    "start": {
        "state": {
            "elbow_joint": 2.0193083361928714,
            "shoulder_lift_joint": -1.1220246554650708,
            "shoulder_pan_joint": -1.0952077554168747,
            "wrist_1_joint": -0.8559753972642168,
            "wrist_2_joint": 0.4759566250798843,
            "wrist_3_joint": -3.1240929996934557
        }
    },
    "waypoints": [
        {
            "positions": [
                -1.0952077554168747,
                -1.1220246554650708,
                2.0193083361928714,
                -0.8559753972642168,
                0.4759566250798843,
                -3.1240929996934557
            ]
        },
        {
            "positions": [
                -1.1916788845195192,
                -1.1712194552429283,
                2.0092046940061996,
                -0.8029597015126637,
                0.6408161722874176,
                -3.123024470605457
            ]
        },
        {
            "positions": [
                -1.288150013622164,
                -1.2204142550207855,
                1.999101051819528,
                -0.7499440057611106,
                0.8056757194949509,
                -3.121955941517458
            ]
        },
        {
            "positions": [
                -1.3846211427248085,
                -1.269609054798643,
                1.9889974096328564,
                -0.6969283100095576,
                0.9705352667024842,
                -3.120887412429459
            ]
        },
        {
            "positions": [
                -1.481092271827453,
                -1.3188038545765004,
                1.9788937674461846,
                -0.6439126142580045,
                1.1353948139100176,
                -3.1198188833414604
            ]
        },
        {
            "positions": [
                -1.5775634009300978,
                -1.3679986543543576,
                1.9687901252595128,
                -0.5908969185064514,
                1.300254361117551,
                -3.1187503542534616
            ]
        },
        {
            "positions": [
                -1.6740345300327424,
                -1.417193454132215,
                1.9586864830728412,
                -0.5378812227548984,
                1.4651139083250844,
                -3.1176818251654628
            ]
        }
    ]
}