{
    "goal": {
        "global_pose": {
            "orientation": {
                "w": -0.4816463035849501,
                "x": 0.5182115481033762,
                "y": 0.4908360881923453,
                "z": -0.5084816262002911
            },
            "position": {
                "x": -0.8240239810943604,
                "y": 0.19912469901144506,
                "z": 0.16403168439865112
            }
        },
        "name": "move_to_storage_D"
    },
    "id": "SBL_move_to_storage_D_38",
    "joint_names": [
        "shoulder_pan_joint",
        "shoulder_lift_joint",
        "elbow_joint",
        "wrist_1_joint",
        "wrist_2_joint",
        "wrist_3_joint"
    ],
    "metrics": {
        "cart_traj_len": 3.8267937563006855,
        "distance_elbow_joint": 4.824248596030082,
        "distance_shoulder_lift_joint": 1.2646335724889148,
        "distance_shoulder_pan_joint": 2.812521128201715,
        "distance_wrist_1_joint": 2.4539449406743667,
        "distance_wrist_2_joint": 1.4273534614000083,
        "distance_wrist_3_joint": 3.2689829200529323,
        "smoothness": 0.2505768845392179,
        "time": 0.273257466,
        "traj_len": 4.0064553683833815,
        "weighted_distance": 5.144992600677698
    },
    "planner": "SBL",
    "start": {
        "state": {
            "elbow_joint": -2.384821988534728,
            "shoulder_lift_joint": -2.2788054721415256,
            "shoulder_pan_joint": -0.1854694642142757,
            "wrist_1_joint": 1.4845938289331202,
            "wrist_2_joint": 0.17898776772866878,
            "wrist_3_joint": 0.037105688729662994
        }
    },
    "waypoints": [
        {
            "positions": [
                -0.1854694642142757,
                -2.2788054721415256,
                -2.384821988534728,
                1.4845938289331202,
                0.17898776772866878,
                0.037105688729662994
            ]
        },
        {
            "positions": [
                -0.0776236839769216,
                -2.2228884850913664,
                -2.461351207876489,
                1.4374148302355505,
                0.2420286923855039,
                0.02108866812884557
            ]
        },
        {
            "positions": [
                0.030222096260432513,
                -2.1669714980412067,
                -2.5378804272182505,
                1.390235831537981,
                0.30506961704233904,
                0.0050716475280281476
            ]
        },
        {
            "positions": [
                0.1380678764977866,
                -2.111054510991047,
                -2.614409646560012,
                1.3430568328404116,
                0.3681105416991741,
                -0.010945373072789276
            ]
        },
        {
            "positions": [
                0.24591365673514076,
                -2.0551375239408878,
                -2.690938865901773,
                1.2958778341428419,
                0.43115146635600926,
                -0.0269623936736067
            ]
        },
        {
            "positions": [
                0.31539928218236946,
                -2.026916487195566,
                -2.556283026384918,
                1.220893316093983,
                0.4215964580031085,
                0.04235941129564448
            ]
        },
        {
            "positions": [
                0.3848849076295982,
                -1.998695450450244,
                -2.4216271868680623,
                1.1459087980451244,
                0.4120414496502077,
                0.11168121626489566
            ]
        },
        {
            "positions": [
                0.4543705330768269,
                -1.9704744137049224,
                -2.286971347351207,
                1.0709242799962655,
                0.402486441297307,
                0.18100302123414683
            ]
        },
        {
            "positions": [
                0.5238561585240556,
                -1.9422533769596004,
                -2.1523155078343517,
                0.9959397619474069,
                0.39293143294440624,
                0.250324826203398
            ]
        },
        {
            "positions": [
                0.5933417839712843,
                -1.9140323402142787,
                -2.0176596683174965,
                0.920955243898548,
                0.38337642459150545,
                0.3196466311726492
            ]
        },
        {
            "positions": [
                0.662827409418513,
                -1.885811303468957,
                -1.8830038288006412,
                0.8459707258496894,
                0.3738214162386047,
                0.38896843614190035
            ]
        },
        {
            "positions": [
                0.7323130348657418,
                -1.857590266723635,
                -1.7483479892837859,
                0.7709862078008305,
                0.3642664078857039,
                0.4582902411111516
            ]
        },
        {
            "positions": [
                0.8017986603129705,
                -1.8293692299783133,
                -1.6136921497669305,
                0.6960016897519717,
                0.3547113995328032,
                0.5276120460804028
            ]
        },
        {
            "positions": [
                0.8712842857601992,
                -1.8011481932329914,
                -1.4790363102500752,
                0.621017171703113,
                0.3451563911799024,
                0.5969338510496538
            ]
        },
        {
            "positions": [
                0.9407699112074279,
                -1.7729271564876696,
                -1.3443804707332199,
                0.5460326536542542,
                0.33560138282700164,
                0.666255656018905
            ]
        },
        {
            "positions": [
                1.0102555366546566,
                -1.744706119742348,
                -1.2097246312163648,
                0.4710481356053955,
                0.3260463744741009,
                0.7355774609881562
            ]
        },
        {
            "positions": [
                1.0797411621018853,
                -1.716485082997026,
                -1.0750687916995094,
                0.39606361755653674,
                0.3164913661212001,
                0.8048992659574075
            ]
        },
        {
            "positions": [
                1.149226787549114,
                -1.688264046251704,
                -0.9404129521826541,
                0.321079099507678,
                0.30693635776829936,
                0.8742210709266587
            ]
        },
        {
            "positions": [
                1.218712412996343,
                -1.6600430095063823,
                -0.8057571126657987,
                0.24609458145881913,
                0.2973813494153986,
                0.9435428758959099
            ]
        },
        {
            "positions": [
                1.2881980384435716,
                -1.6318219727610606,
                -0.6711012731489432,
                0.17111006340996027,
                0.2878263410624978,
                1.012864680865161
            ]
        },
        {
            "positions": [
                1.3576836638908003,
                -1.6036009360157388,
                -0.5364454336320881,
                0.09612554536110163,
                0.2782713327095971,
                1.0821864858344121
            ]
        },
        {
            "positions": [
                1.4271692893380288,
                -1.5753798992704169,
                -0.40178959411523296,
                0.021141027312242988,
                0.26871632435669635,
                1.1515082908036631
            ]
        },
        {
            "positions": [
                1.4966549147852577,
                -1.547158862525095,
                -0.2671337545983774,
                -0.05384349073661587,
                0.25916131600379555,
                1.2208300957729143
            ]
        },
        {
            "positions": [
                1.5661405402324864,
                -1.5189378257797732,
                -0.1324779150815223,
                -0.1288280087854745,
                0.2496063076508948,
                1.2901519007421656
            ]
        },
        {
            "positions": [
                1.635626165679715,
                -1.4907167890344515,
                0.002177924435333267,
                -0.20381252683433337,
                0.24005129929799401,
                1.3594737057114168
            ]
        },
        {
            "positions": [
                1.7051117911269438,
                -1.4624957522891298,
                0.13683376395218838,
                -0.27879704488319224,
                0.23049629094509327,
                1.428795510680668
            ]
        },
        {
            "positions": [
                1.7745974165741725,
                -1.4342747155438078,
                0.2714896034690435,
                -0.3537815629320509,
                0.22094128259219253,
                1.498117315649919
            ]
        },
        {
            "positions": [
                1.8440830420214014,
                -1.4060536787984859,
                0.40614544298589905,
                -0.42876608098090974,
                0.21138627423929174,
                1.5674391206191705
            ]
        },
        {
            "positions": [
                1.9135686674686299,
                -1.3778326420531641,
                0.5408012825027542,
                -0.5037505990297684,
                0.201831265886391,
                1.6367609255884215
            ]
        },
        {
            "positions": [
                1.9830542929158586,
                -1.3496116053078424,
                0.6754571220196093,
                -0.578735117078627,
                0.19227625753349026,
                1.7060827305576725
            ]
        },
        {
            "positions": [
                2.0525399183630872,
                -1.3213905685625205,
                0.8101129615364648,
                -0.6537196351274859,
                0.18272124918058946,
                1.775404535526924
            ]
        },
        {
            "positions": [
                2.122025543810316,
                -1.2931695318171987,
                0.94476880105332,
                -0.7287041531763445,
                0.17316624082768872,
                1.844726340496175
            ]
        },
        {
            "positions": [
                2.191511169257545,
                -1.2649484950718768,
                1.0794246405701755,
                -0.8036886712252036,
                0.16361123247478793,
                1.9140481454654263
            ]
        },
        {
            "positions": [
                2.2609967947047735,
                -1.236727458326555,
                1.2140804800870306,
                -0.8786731892740622,
                0.1540562241218872,
                1.9833699504346773
            ]
        },
        {
            "positions": [
                2.301669557958403,
                -1.211999062918339,
                1.282204077050834,
                -0.8685978645554864,
                0.2538445041817256,
                2.1161013386059415
            ]
        },
        {
            "positions": [
                2.3423423212120325,
                -1.187270667510123,
                1.3503276740146377,
                -0.8585225398369105,
                0.353632784241564,
                2.2488327267772057
            ]
        },
        {
            "positions": [
                2.3830150844656623,
                -1.162542272101907,
                1.4184512709784411,
                -0.8484472151183345,
                0.45342106430140244,
                2.3815641149484703
            ]
        },
        {
            "positions": [
                2.423687847719292,
                -1.137813876693691,
                1.4865748679422448,
                -0.8383718903997587,
                0.5532093443612409,
                2.5142955031197345
            ]
        },
        {
            "positions": [
                2.4643606109729213,
                -1.113085481285475,
                1.5546984649060482,
                -0.8282965656811828,
                0.6529976244210793,
                2.6470268912909987
            ]
        },
        {
            "positions": [
                2.5050333742265507,
                -1.0883570858772589,
                1.6228220618698517,
                -0.818221240962607,
                0.7527859044809178,
                2.779758279462263
            ]
        },
        {
            "positions": [
                2.5457061374801806,
                -1.0636286904690428,
                1.6909456588336553,
                -0.808145916244031,
                0.8525741845407562,
                2.912489667633527
            ]
        },
        {
            "positions": [
                2.58637890073381,
                -1.0389002950608268,
                1.759069255797459,
                -0.7980705915254551,
                0.9523624646005946,
                3.0452210558047916
            ]
        },
        {
            "positions": [
                2.6270516639874395,
                -1.0141718996526108,
                1.8271928527612624,
                -0.7879952668068793,
                1.052150744660433,
                3.177952443976056
            ]
        }
    ]
}