{
    "goal": {
        "global_pose": {
            "orientation": {
                "w": -0.4816463035849501,
                "x": 0.5182115481033762,
                "y": 0.4908360881923453,
                "z": -0.5084816262002911
            },
            "position": {
                "x": -0.8240239810943604,
                "y": -0.300875300988555,
                "z": 0.16403168439865112
            }
        },
        "name": "move_to_storage_C"
    },
    "id": "SBL_move_to_storage_C_28",
    "joint_names": [
        "shoulder_pan_joint",
        "shoulder_lift_joint",
        "elbow_joint",
        "wrist_1_joint",
        "wrist_2_joint",
        "wrist_3_joint"
    ],
    "metrics": {
        "cart_traj_len": 0.5760758895815731,
        "distance_elbow_joint": 0.25816155667107754,
        "distance_shoulder_lift_joint": 0.189289104803137,
        "distance_shoulder_pan_joint": 0.49478871510608036,
        "distance_wrist_1_joint": 0.0822300162924916,
        "distance_wrist_2_joint": 1.0637346795503002,
        "distance_wrist_3_joint": 0.07629786800470706,
        "smoothness": 0.0,
        "time": 0.273625889,
        "traj_len": 1.4712246396889204,
        "weighted_distance": 1.8609305124802482
    },
    "planner": "SBL",
    "start": {
        "state": {
            "elbow_joint": 2.010868314990456,
            "shoulder_lift_joint": -1.1634956873337592,
            "shoulder_pan_joint": -2.4736205022346125,
            "wrist_1_joint": -0.8367026794202681,
            "wrist_2_joint": 0.6746043897044499,
            "wrist_3_joint": -3.1496632123970403
        }
    },
    "waypoints": [
        {
            "positions": [
                -2.4736205022346125,
                -1.1634956873337592,
                2.010868314990456,
                -0.8367026794202681,
                0.6746043897044499,
                -3.1496632123970403
            ]
        },
        {
            "positions": [
                -2.556085288085626,
                -1.1319475031999031,
                1.9678413888786095,
                -0.8229976767048528,
                0.8518935029628333,
                -3.1369469010629225
            ]
        },
        {
            "positions": [
                -2.6385500739366394,
                -1.1003993190660468,
                1.9248144627667634,
                -0.8092926739894376,
                1.0291826162212168,
                -3.1242305897288047
            ]
        },
        {
            "positions": [
                -2.721014859787653,
                -1.0688511349321907,
                1.881787536654917,
                -0.7955876712740223,
                1.2064717294796,
                -3.1115142783946865
            ]
        },
        {
            "positions": [
                -2.803479645638666,
                -1.0373029507983345,
                1.8387606105430707,
                -0.781882668558607,
                1.3837608427379835,
                -3.0987979670605688
            ]
        },
        {
            "positions": [
                -2.8859444314896794,
                -1.0057547666644784,
                1.7957336844312246,
                -0.7681776658431918,
                1.5610499559963666,
                -3.086081655726451
            ]
        },
        {
            "positions": [
                -2.968409217340693,
                -0.9742065825306222,
                1.7527067583193783,
                -0.7544726631277765,
                1.7383390692547502,
                -3.073365344392333
            ]
        }
    ]
}