{
    "goal": {
        "global_pose": {
            "orientation": {
                "w": 0.7047431468963623,
                "x": -0.7094548344612122,
                "y": 0.0024358443915843964,
                "z": -0.0022348060738295317
            },
            "position": {
                "x": 0.6094750761985779,
                "y": 0.3671506643295288,
                "z": 0.19426114857196808
            }
        },
        "name": "move_to_magneteinheit_A"
    },
    "id": "SBL_move_to_magneteinheit_A_81",
    "joint_names": [
        "shoulder_pan_joint",
        "shoulder_lift_joint",
        "elbow_joint",
        "wrist_1_joint",
        "wrist_2_joint",
        "wrist_3_joint"
    ],
    "metrics": {
        "cart_traj_len": 3.757804249258203,
        "distance_elbow_joint": 3.8714197528344045,
        "distance_shoulder_lift_joint": 0.259132405067678,
        "distance_shoulder_pan_joint": 3.579284747209267,
        "distance_wrist_1_joint": 0.8534363634514921,
        "distance_wrist_2_joint": 2.6070110550234866,
        "distance_wrist_3_joint": 2.563086336526543,
        "smoothness": 0.16079880912581918,
        "time": 0.256024495,
        "traj_len": 3.7058562654416147,
        "weighted_distance": 4.724403745621339
    },
    "planner": "SBL",
    "start": {
        "state": {
            "elbow_joint": -1.9196185241190666,
            "shoulder_lift_joint": -1.2443396400964142,
            "shoulder_pan_joint": 2.6996025414629847,
            "wrist_1_joint": -1.5485510000780065,
            "wrist_2_joint": -1.5709468930060704,
            "wrist_3_joint": 0.4420197071253992
        }
    },
    "waypoints": [
        {
            "positions": [
                2.6996025414629847,
                -1.2443396400964142,
                -1.9196185241190666,
                -1.5485510000780065,
                -1.5709468930060704,
                0.4420197071253992
            ]
        },
        {
            "positions": [
                2.5529912530214576,
                -1.2354086553432941,
                -1.846117282742429,
                -1.5208274353387436,
                -1.4685510087064464,
                0.46875798932592544
            ]
        },
        {
            "positions": [
                2.40637996457993,
                -1.2264776705901739,
                -1.7726160413657912,
                -1.4931038705994808,
                -1.3661551244068222,
                0.49549627152645176
            ]
        },
        {
            "positions": [
                2.259768676138403,
                -1.2175466858370538,
                -1.6991147999891536,
                -1.4653803058602177,
                -1.2637592401071982,
                0.522234553726978
            ]
        },
        {
            "positions": [
                2.1131573876968757,
                -1.2086157010839336,
                -1.6256135586125158,
                -1.4376567411209549,
                -1.1613633558075742,
                0.5489728359275043
            ]
        },
        {
            "positions": [
                1.9665460992553483,
                -1.1996847163308135,
                -1.5521123172358782,
                -1.409933176381692,
                -1.05896747150795,
                0.5757111181280306
            ]
        },
        {
            "positions": [
                1.819934810813821,
                -1.1907537315776933,
                -1.4786110758592403,
                -1.3822096116424292,
                -0.9565715872083259,
                0.6024494003285569
            ]
        },
        {
            "positions": [
                1.6733235223722938,
                -1.1818227468245732,
                -1.4051098344826027,
                -1.3544860469031663,
                -0.8541757029087018,
                0.6291876825290832
            ]
        },
        {
            "positions": [
                1.5267122339307664,
                -1.1728917620714532,
                -1.331608593105965,
                -1.3267624821639035,
                -0.7517798186090778,
                0.6559259647296094
            ]
        },
        {
            "positions": [
                1.380100945489239,
                -1.163960777318333,
                -1.2581073517293273,
                -1.2990389174246404,
                -0.6493839343094537,
                0.6826642469301357
            ]
        },
        {
            "positions": [
                1.2334896570477119,
                -1.1550297925652129,
                -1.1846061103526897,
                -1.2713153526853775,
                -0.5469880500098296,
                0.709402529130662
            ]
        },
        {
            "positions": [
                1.0868783686061843,
                -1.1460988078120926,
                -1.1111048689760517,
                -1.2435917879461147,
                -0.44459216571020543,
                0.7361408113311884
            ]
        },
        {
            "positions": [
                0.9402670801646571,
                -1.1371678230589726,
                -1.037603627599414,
                -1.2158682232068518,
                -0.34219628141058145,
                0.7628790935317147
            ]
        },
        {
            "positions": [
                0.7936557917231297,
                -1.1282368383058523,
                -0.9641023862227763,
                -1.1881446584675888,
                -0.23980039711095724,
                0.7896173757322409
            ]
        },
        {
            "positions": [
                0.6470445032816028,
                -1.1193058535527323,
                -0.8906011448461388,
                -1.160421093728326,
                -0.13740451281133326,
                0.8163556579327672
            ]
        },
        {
            "positions": [
                0.5004332148400752,
                -1.110374868799612,
                -0.817099903469501,
                -1.132697528989063,
                -0.03500862851170905,
                0.8430939401332935
            ]
        },
        {
            "positions": [
                0.35382192639854804,
                -1.101443884046492,
                -0.7435986620928634,
                -1.1049739642498002,
                0.06738725578791471,
                0.8698322223338197
            ]
        },
        {
            "positions": [
                0.20721063795702044,
                -1.092512899293372,
                -0.6700974207162256,
                -1.0772503995105374,
                0.16978314008753892,
                0.8965705045343461
            ]
        },
        {
            "positions": [
                0.060599349515493284,
                -1.0835819145402517,
                -0.596596179339588,
                -1.0495268347712745,
                0.2721790243871629,
                0.9233087867348724
            ]
        },
        {
            "positions": [
                -0.08601193892603387,
                -1.0746509297871316,
                -0.5230949379629501,
                -1.0218032700320117,
                0.3745749086867871,
                0.9500470689353987
            ]
        },
        {
            "positions": [
                -0.23262322736756103,
                -1.0657199450340116,
                -0.44959369658631254,
                -0.9940797052927487,
                0.4769707929864111,
                0.9767853511359249
            ]
        },
        {
            "positions": [
                -0.3792345158090886,
                -1.0567889602808913,
                -0.37609245520967466,
                -0.9663561405534857,
                0.5793666772860355,
                1.0035236333364512
            ]
        },
        {
            "positions": [
                -0.34587133647994234,
                -1.0615610752977016,
                -0.2208995429480072,
                -0.948273373625021,
                0.5489201783039434,
                1.1369624606908173
            ]
        },
        {
            "positions": [
                -0.31250815715079605,
                -1.066333190314512,
                -0.06570663068633975,
                -0.9301906066965562,
                0.5184736793218512,
                1.2704012880451834
            ]
        },
        {
            "positions": [
                -0.2791449778216497,
                -1.0711053053313224,
                0.08948628157532773,
                -0.9121078397680915,
                0.48802718033975906,
                1.4038401153995494
            ]
        },
        {
            "positions": [
                -0.24578179849250342,
                -1.0758774203481327,
                0.24467919383699516,
                -0.8940250728396267,
                0.45758068135766694,
                1.5372789427539155
            ]
        },
        {
            "positions": [
                -0.21241861916335714,
                -1.080649535364943,
                0.3998721060986626,
                -0.875942305911162,
                0.42713418237557477,
                1.6707177701082814
            ]
        },
        {
            "positions": [
                -0.17905543983421082,
                -1.0854216503817533,
                0.5550650183603301,
                -0.8578595389826972,
                0.3966876833934826,
                1.8041565974626477
            ]
        },
        {
            "positions": [
                -0.14569226050506454,
                -1.0901937653985636,
                0.7102579306219974,
                -0.8397767720542324,
                0.3662411844113904,
                1.9375954248170135
            ]
        },
        {
            "positions": [
                -0.11232908117591822,
                -1.0949658804153741,
                0.8654508428836649,
                -0.8216940051257677,
                0.33579468542929836,
                2.07103425217138
            ]
        },
        {
            "positions": [
                -0.07896590184677194,
                -1.0997379954321844,
                1.0206437551453322,
                -0.803611238197303,
                0.3053481864472062,
                2.2044730795257457
            ]
        },
        {
            "positions": [
                -0.04560272251762565,
                -1.1045101104489947,
                1.1758366674069998,
                -0.7855284712688382,
                0.274901687465114,
                2.3379119068801115
            ]
        },
        {
            "positions": [
                -0.012239543188479363,
                -1.109282225465805,
                1.331029579668667,
                -0.7674457043403734,
                0.2444551884830219,
                2.471350734234478
            ]
        },
        {
            "positions": [
                0.02112363614066698,
                -1.1140543404826153,
                1.4862224919303348,
                -0.7493629374119086,
                0.21400868950092966,
                2.604789561588844
            ]
        },
        {
            "positions": [
                0.054486815469813266,
                -1.1188264554994258,
                1.6414154041920024,
                -0.731280170483444,
                0.18356219051883754,
                2.73822838894321
            ]
        },
        {
            "positions": [
                0.08784999479895955,
                -1.1235985705162361,
                1.7966083164536695,
                -0.7131974035549792,
                0.15311569153674537,
                2.871667216297576
            ]
        },
        {
            "positions": [
                0.12121317412810588,
                -1.1283706855330464,
                1.951801228715337,
                -0.6951146366265144,
                0.12266919255465322,
                3.005106043651942
            ]
        }
    ]
}