{
    "goal": {
        "global_pose": {
            "orientation": {
                "w": 0.7031023502349854,
                "x": -0.7110244035720825,
                "y": 0.007748599164187908,
                "z": 0.005598929710686207
            },
            "position": {
                "x": 0.11585023208521307,
                "y": 0.44412534475326537,
                "z": 0.3711530566215515
            }
        },
        "name": "move_to_auspresseinheit_A"
    },
    "id": "SBL_move_to_auspresseinheit_A_69",
    "joint_names": [
        "shoulder_pan_joint",
        "shoulder_lift_joint",
        "elbow_joint",
        "wrist_1_joint",
        "wrist_2_joint",
        "wrist_3_joint"
    ],
    "metrics": {
        "cart_traj_len": 0.8520114911691276,
        "distance_elbow_joint": 0.3969695080445197,
        "distance_shoulder_lift_joint": 0.7305462779333374,
        "distance_shoulder_pan_joint": 1.0498597119144955,
        "distance_wrist_1_joint": 0.6038161057468636,
        "distance_wrist_2_joint": 0.5175316039058129,
        "distance_wrist_3_joint": 2.4372567108850443,
        "smoothness": 1.0440345249950167,
        "time": 0.323173811,
        "traj_len": 2.3949905883802702,
        "weighted_distance": 3.4251775209254247
    },
    "planner": "SBL",
    "start": {
        "state": {
            "elbow_joint": 2.4225746658250005,
            "shoulder_lift_joint": -1.3736534386056498,
            "shoulder_pan_joint": -0.3378633547517467,
            "wrist_1_joint": -1.0288598680537169,
            "wrist_2_joint": 1.233022673432363,
            "wrist_3_joint": -3.0940220416140027
        }
    },
    "waypoints": [
        {
            "positions": [
                -0.3378633547517467,
                -1.3736534386056498,
                2.4225746658250005,
                -1.0288598680537169,
                1.233022673432363,
                -3.0940220416140027
            ]
        },
        {
            "positions": [
                -0.2753022497083878,
                -1.444067928741433,
                2.3990306823364804,
                -0.9685418942857824,
                1.1927125780862853,
                -2.9611056975922927
            ]
        },
        {
            "positions": [
                -0.21274114466502886,
                -1.5144824188772161,
                2.375486698847961,
                -0.908223920517848,
                1.1524024827402077,
                -2.828189353570582
            ]
        },
        {
            "positions": [
                -0.15018003962166993,
                -1.5848969090129994,
                2.3519427153594408,
                -0.8479059467499136,
                1.1120923873941302,
                -2.695273009548872
            ]
        },
        {
            "positions": [
                -0.08761893457831099,
                -1.6553113991487827,
                2.328398731870921,
                -0.7875879729819791,
                1.0717822920480524,
                -2.5623566655271617
            ]
        },
        {
            "positions": [
                -0.025057829534952003,
                -1.725725889284566,
                2.304854748382401,
                -0.7272699992140447,
                1.0314721967019747,
                -2.4294403215054516
            ]
        },
        {
            "positions": [
                0.037503275508406875,
                -1.7961403794203492,
                2.2813107648938815,
                -0.6669520254461103,
                0.9911621013558971,
                -2.2965239774837416
            ]
        },
        {
            "positions": [
                0.10006438055176586,
                -1.8665548695561323,
                2.2577667814053615,
                -0.6066340516781759,
                0.9508520060098195,
                -2.163607633462031
            ]
        },
        {
            "positions": [
                0.16262548559512474,
                -1.9369693596919155,
                2.234222797916842,
                -0.5463160779102414,
                0.9105419106637418,
                -2.0306912894403206
            ]
        },
        {
            "positions": [
                0.22518659063848373,
                -2.007383849827699,
                2.210678814428322,
                -0.48599810414230693,
                0.8702318153176641,
                -1.8977749454186106
            ]
        },
        {
            "positions": [
                0.30342343101127706,
                -1.9912232349580328,
                2.246339972458304,
                -0.4789009826280718,
                0.8402170127982209,
                -2.107335398909373
            ]
        },
        {
            "positions": [
                0.38166027138407044,
                -1.9750626200883667,
                2.282001130488286,
                -0.4718038611138367,
                0.8102022102787777,
                -2.316895852400136
            ]
        },
        {
            "positions": [
                0.45989711175686376,
                -1.9589020052187007,
                2.3176622885182687,
                -0.46470673959960157,
                0.7801874077593346,
                -2.5264563058908984
            ]
        },
        {
            "positions": [
                0.5381339521296571,
                -1.9427413903490347,
                2.353323446548251,
                -0.4576096180853665,
                0.7501726052398914,
                -2.7360167593816613
            ]
        },
        {
            "positions": [
                0.6163707925024504,
                -1.9265807754793687,
                2.388984604578233,
                -0.45051249657113135,
                0.7201578027204482,
                -2.945577212872424
            ]
        },
        {
            "positions": [
                0.7119963571627487,
                -1.9105679831164104,
                2.395752471076163,
                -0.4759812308354094,
                0.7248245359143461,
                -3.1387845601082627
            ]
        }
    ]
}