{
    "goal": {
        "global_pose": {
            "orientation": {
                "w": -0.00223480608172531,
                "x": 0.0024358444001904467,
                "y": 0.7094548369677653,
                "z": -0.704743149386269
            },
            "position": {
                "x": -0.37947507619857795,
                "y": -0.6371506643295288,
                "z": 0.19426114857196808
            }
        },
        "name": "move_to_magneteinheit_C"
    },
    "id": "SBL_move_to_magneteinheit_C_25",
    "joint_names": [
        "shoulder_pan_joint",
        "shoulder_lift_joint",
        "elbow_joint",
        "wrist_1_joint",
        "wrist_2_joint",
        "wrist_3_joint"
    ],
    "metrics": {
        "cart_traj_len": 0.8748742715160356,
        "distance_elbow_joint": 0.9371099505681761,
        "distance_shoulder_lift_joint": 1.1515261801178003,
        "distance_shoulder_pan_joint": 1.5143098714990517,
        "distance_wrist_1_joint": 0.32559034041711843,
        "distance_wrist_2_joint": 1.0789651906250057,
        "distance_wrist_3_joint": 1.5726961871899467,
        "smoothness": 1.1757073653916876,
        "time": 0.433552695,
        "traj_len": 2.565189607108429,
        "weighted_distance": 3.336187288783277
    },
    "planner": "SBL",
    "start": {
        "state": {
            "elbow_joint": 1.9565354010623817,
            "shoulder_lift_joint": -1.4165861575791021,
            "shoulder_pan_joint": -1.6717766225146293,
            "wrist_1_joint": -0.5286633292919765,
            "wrist_2_joint": 1.472756589071564,
            "wrist_3_joint": -3.1238370188695823
        }
    },
    "waypoints": [
        {
            "positions": [
                -1.6717766225146293,
                -1.4165861575791021,
                1.9565354010623817,
                -0.5286633292919765,
                1.472756589071564,
                -3.1238370188695823
            ]
        },
        {
            "positions": [
                -1.777037841798267,
                -1.4574523874727872,
                2.001776086509254,
                -0.5432144193707201,
                1.3872571698464948,
                -3.0532305454700537
            ]
        },
        {
            "positions": [
                -1.8822990610819048,
                -1.4983186173664724,
                2.0470167719561263,
                -0.5577655094494638,
                1.3017577506214257,
                -2.9826240720705246
            ]
        },
        {
            "positions": [
                -1.9875602803655426,
                -1.5391848472601575,
                2.092257457402999,
                -0.5723165995282075,
                1.2162583313963569,
                -2.912017598670996
            ]
        },
        {
            "positions": [
                -2.0928214996491805,
                -1.5800510771538425,
                2.1374981428498714,
                -0.5868676896069511,
                1.1307589121712878,
                -2.841411125271467
            ]
        },
        {
            "positions": [
                -2.198082718932818,
                -1.6209173070475276,
                2.1827388282967437,
                -0.6014187796856948,
                1.0452594929462187,
                -2.7708046518719383
            ]
        },
        {
            "positions": [
                -2.3033439382164556,
                -1.6617835369412126,
                2.227979513743616,
                -0.6159698697644385,
                0.9597600737211497,
                -2.7001981784724096
            ]
        },
        {
            "positions": [
                -2.4086051575000935,
                -1.7026497668348979,
                2.2732201991904883,
                -0.6305209598431822,
                0.8742606544960806,
                -2.6295917050728805
            ]
        },
        {
            "positions": [
                -2.5138663767837315,
                -1.743515996728583,
                2.3184608846373607,
                -0.6450720499219259,
                0.7887612352710115,
                -2.558985231673352
            ]
        },
        {
            "positions": [
                -2.619127596067369,
                -1.784382226622268,
                2.3637015700842334,
                -0.6596231400006696,
                0.7032618160459424,
                -2.4883787582738233
            ]
        },
        {
            "positions": [
                -2.7243888153510065,
                -1.8252484565159532,
                2.4089422555311057,
                -0.6741742300794132,
                0.6177623968208734,
                -2.417772284874294
            ]
        },
        {
            "positions": [
                -2.8296500346346445,
                -1.8661146864096383,
                2.454182940977978,
                -0.6887253201581569,
                0.5322629775958043,
                -2.3471658114747656
            ]
        },
        {
            "positions": [
                -2.7787305404376395,
                -1.7658293076543148,
                2.391402596599038,
                -0.7123722272368623,
                0.5520446317599824,
                -2.4608836657312128
            ]
        },
        {
            "positions": [
                -2.727811046240634,
                -1.6655439288989915,
                2.3286222522200983,
                -0.7360191343155678,
                0.5718262859241604,
                -2.57460151998766
            ]
        },
        {
            "positions": [
                -2.676891552043629,
                -1.565258550143668,
                2.2658419078411582,
                -0.7596660413942732,
                0.5916079400883385,
                -2.6883193742441067
            ]
        },
        {
            "positions": [
                -2.6259720578466235,
                -1.4649731713883445,
                2.203061563462218,
                -0.7833129484729786,
                0.6113895942525166,
                -2.802037228500554
            ]
        },
        {
            "positions": [
                -2.5750525636496184,
                -1.364687792633021,
                2.140281219083278,
                -0.806959855551684,
                0.6311712484166947,
                -2.915755082757001
            ]
        },
        {
            "positions": [
                -2.5241330694526134,
                -1.2644024138776977,
                2.0775008747043384,
                -0.8306067626303895,
                0.6509529025808727,
                -3.0294729370134483
            ]
        },
        {
            "positions": [
                -2.473213575255608,
                -1.1641170351223742,
                2.0147205303253983,
                -0.8542536697090949,
                0.6707345567450508,
                -3.1431907912698955
            ]
        }
    ]
}