{
    "goal": {
        "global_pose": {
            "orientation": {
                "w": 0.7047431468963623,
                "x": -0.7094548344612122,
                "y": 0.0024358443915843964,
                "z": -0.0022348060738295317
            },
            "position": {
                "x": 0.6094750761985779,
                "y": 0.3671506643295288,
                "z": 0.19426114857196808
            }
        },
        "name": "move_to_magneteinheit_A"
    },
    "id": "SBL_move_to_magneteinheit_A_14",
    "joint_names": [
        "shoulder_pan_joint",
        "shoulder_lift_joint",
        "elbow_joint",
        "wrist_1_joint",
        "wrist_2_joint",
        "wrist_3_joint"
    ],
    "metrics": {
        "cart_traj_len": 2.9770732773300463,
        "distance_elbow_joint": 3.92455026921299,
        "distance_shoulder_lift_joint": 0.6966980060440746,
        "distance_shoulder_pan_joint": 2.8440794224861174,
        "distance_wrist_1_joint": 3.9036263903610733,
        "distance_wrist_2_joint": 2.1398342954153837,
        "distance_wrist_3_joint": 0.8386924055159926,
        "smoothness": 0.3434142721672959,
        "time": 0.370047329,
        "traj_len": 3.7878068574091306,
        "weighted_distance": 4.697693719884691
    },
    "planner": "SBL",
    "start": {
        "state": {
            "elbow_joint": -1.9196185241190666,
            "shoulder_lift_joint": -1.2443396400964142,
            "shoulder_pan_joint": 2.6996025414629847,
            "wrist_1_joint": -1.5485510000780065,
            "wrist_2_joint": -1.5709468930060704,
            "wrist_3_joint": 0.4420197071253992
        }
    },
    "waypoints": [
        {
            "positions": [
                2.6996025414629847,
                -1.2443396400964142,
                -1.9196185241190666,
                -1.5485510000780065,
                -1.5709468930060704,
                0.4420197071253992
            ]
        },
        {
            "positions": [
                2.619488961914048,
                -1.2481205937626363,
                -1.8098303832611107,
                -1.4315459412063107,
                -1.5131314065898827,
                0.42111170055506497
            ]
        },
        {
            "positions": [
                2.539375382365111,
                -1.2519015474288584,
                -1.700042242403155,
                -1.314540882334615,
                -1.455315920173695,
                0.4002036939847307
            ]
        },
        {
            "positions": [
                2.459261802816174,
                -1.2556825010950805,
                -1.5902541015451992,
                -1.1975358234629194,
                -1.3975004337575072,
                0.3792956874143965
            ]
        },
        {
            "positions": [
                2.379148223267237,
                -1.2594634547613028,
                -1.4804659606872432,
                -1.0805307645912237,
                -1.3396849473413197,
                0.3583876808440623
            ]
        },
        {
            "positions": [
                2.2990346437183002,
                -1.263244408427525,
                -1.3706778198292873,
                -0.9635257057195278,
                -1.281869460925132,
                0.33747967427372805
            ]
        },
        {
            "positions": [
                2.218921064169363,
                -1.267025362093747,
                -1.2608896789713315,
                -0.8465206468478321,
                -1.2240539745089443,
                0.31657166770339384
            ]
        },
        {
            "positions": [
                2.1388074846204264,
                -1.2708063157599692,
                -1.1511015381133758,
                -0.7295155879761364,
                -1.1662384880927565,
                0.29566366113305964
            ]
        },
        {
            "positions": [
                2.0586939050714896,
                -1.2745872694261913,
                -1.0413133972554198,
                -0.6125105291044406,
                -1.1084230016765688,
                0.27475565456272544
            ]
        },
        {
            "positions": [
                1.9785803255225525,
                -1.2783682230924134,
                -0.931525256397464,
                -0.4955054702327448,
                -1.0506075152603813,
                0.2538476479923912
            ]
        },
        {
            "positions": [
                1.8984667459736158,
                -1.2821491767586357,
                -0.8217371155395081,
                -0.37850041136104906,
                -0.9927920288441935,
                0.23293964142205698
            ]
        },
        {
            "positions": [
                1.8183531664246786,
                -1.2859301304248578,
                -0.7119489746815522,
                -0.2614953524893533,
                -0.9349765424280058,
                0.21203163485172272
            ]
        },
        {
            "positions": [
                1.7382395868757419,
                -1.28971108409108,
                -0.6021608338235964,
                -0.14449029361765775,
                -0.8771610560118182,
                0.1911236282813885
            ]
        },
        {
            "positions": [
                1.658126007326805,
                -1.293492037757302,
                -0.49237269296564046,
                -0.027485234745961762,
                -0.8193455695956304,
                0.1702156217110543
            ]
        },
        {
            "positions": [
                1.578012427777868,
                -1.2972729914235241,
                -0.3825845521076847,
                0.08951982412573378,
                -0.7615300831794428,
                0.1493076151407201
            ]
        },
        {
            "positions": [
                1.497898848228931,
                -1.3010539450897463,
                -0.272796411249729,
                0.20652488299742955,
                -0.7037145967632551,
                0.12839960857038585
            ]
        },
        {
            "positions": [
                1.4177852686799943,
                -1.3048348987559686,
                -0.163008270391773,
                0.3235299418691253,
                -0.6458991103470674,
                0.10749160200005164
            ]
        },
        {
            "positions": [
                1.3376716891310574,
                -1.3086158524221907,
                -0.05322012953381727,
                0.44053500074082086,
                -0.5880836239308798,
                0.08658359542971744
            ]
        },
        {
            "positions": [
                1.2575581095821202,
                -1.3123968060884128,
                0.05656801132413869,
                0.5575400596125168,
                -0.530268137514692,
                0.06567558885938318
            ]
        },
        {
            "positions": [
                1.1774445300331835,
                -1.316177759754635,
                0.16635615218209443,
                0.6745451184842126,
                -0.4724526510985043,
                0.04476758228904898
            ]
        },
        {
            "positions": [
                1.0973309504842466,
                -1.319958713420857,
                0.2761442930400504,
                0.7915501773559084,
                -0.4146371646823166,
                0.023859575718714776
            ]
        },
        {
            "positions": [
                1.0172173709353098,
                -1.3237396670870791,
                0.3859324338980059,
                0.9085552362276037,
                -0.3568216782661291,
                0.002951569148380573
            ]
        },
        {
            "positions": [
                0.9371037913863727,
                -1.3275206207533015,
                0.4957205747559623,
                1.0255602950993,
                -0.29900619184994115,
                -0.01795643742195374
            ]
        },
        {
            "positions": [
                0.856990211837436,
                -1.3313015744195236,
                0.6055087156139178,
                1.1425653539709957,
                -0.24119070543375365,
                -0.038864443992287945
            ]
        },
        {
            "positions": [
                0.776876632288499,
                -1.3350825280857457,
                0.7152968564718738,
                1.259570412842691,
                -0.18337521901756593,
                -0.05977245056262215
            ]
        },
        {
            "positions": [
                0.6967630527395623,
                -1.3388634817519678,
                0.8250849973298293,
                1.3765754717143868,
                -0.1255597326013782,
                -0.08068045713295635
            ]
        },
        {
            "positions": [
                0.6166494731906251,
                -1.34264443541819,
                0.9348731381877857,
                1.493580530586083,
                -0.06774424618519048,
                -0.10158846370329055
            ]
        },
        {
            "positions": [
                0.5365358936416884,
                -1.346425389084412,
                1.0446612790457412,
                1.6105855894577783,
                -0.00992875976900276,
                -0.12249647027362476
            ]
        },
        {
            "positions": [
                0.45642231409275125,
                -1.3502063427506341,
                1.1544494199036972,
                1.727590648329474,
                0.04788672664718474,
                -0.14340447684395896
            ]
        },
        {
            "positions": [
                0.3763087345438145,
                -1.3539872964168564,
                1.2642375607616527,
                1.8445957072011698,
                0.10570221306337246,
                -0.16431248341429316
            ]
        },
        {
            "positions": [
                0.29619515499487736,
                -1.3577682500830786,
                1.3740257016196087,
                1.9616007660728656,
                0.16351769947956019,
                -0.18522048998462748
            ]
        },
        {
            "positions": [
                0.21608157544594064,
                -1.3615492037493007,
                1.4838138424775646,
                2.0786058249445616,
                0.22133318589574802,
                -0.2061284965549617
            ]
        },
        {
            "positions": [
                0.1405858517237048,
                -1.310769478866421,
                1.5499117437828929,
                2.021640377848187,
                0.14316974334803628,
                -0.21354633625935557
            ]
        },
        {
            "positions": [
                0.06509012800146893,
                -1.2599897539835412,
                1.616009645088221,
                1.9646749307518123,
                0.06500630080032455,
                -0.22096417596374943
            ]
        },
        {
            "positions": [
                -0.010405595720766936,
                -1.2092100291006616,
                1.6821075463935493,
                1.9077094836554378,
                -0.013157141747387191,
                -0.22838201566814328
            ]
        },
        {
            "positions": [
                -0.006265343102201023,
                -1.1059768591948484,
                1.7675509407069887,
                1.8974544040813401,
                -0.06639430801183577,
                -0.1799441274768967
            ]
        },
        {
            "positions": [
                -0.0021250904836351107,
                -1.0027436892890353,
                1.8529943350204279,
                1.8871993245072427,
                -0.11963147427628434,
                -0.13150623928565014
            ]
        },
        {
            "positions": [
                0.06077029954898146,
                -0.8924022253235739,
                1.9289630400571758,
                1.929730856957836,
                -0.12292625244705091,
                -0.09579878611567166
            ]
        },
        {
            "positions": [
                0.12366568958159804,
                -0.7820607613581125,
                2.004931745093924,
                1.9722623894084292,
                -0.12622103061781748,
                -0.060091332945693195
            ]
        }
    ]
}