{
    "goal": {
        "global_pose": {
            "orientation": {
                "w": -0.00223480608172531,
                "x": 0.0024358444001904467,
                "y": 0.7094548369677653,
                "z": -0.704743149386269
            },
            "position": {
                "x": 0.6205249238014221,
                "y": -0.6371506643295288,
                "z": 0.19426114857196808
            }
        },
        "name": "move_to_magneteinheit_B"
    },
    "id": "SBL_move_to_magneteinheit_B_114",
    "joint_names": [
        "shoulder_pan_joint",
        "shoulder_lift_joint",
        "elbow_joint",
        "wrist_1_joint",
        "wrist_2_joint",
        "wrist_3_joint"
    ],
    "metrics": {
        "cart_traj_len": 1.438855764088091,
        "distance_elbow_joint": 0.9961289223244112,
        "distance_shoulder_lift_joint": 1.06705111958849,
        "distance_shoulder_pan_joint": 1.62164635327536,
        "distance_wrist_1_joint": 0.17985388286944426,
        "distance_wrist_2_joint": 1.5142342631833612,
        "distance_wrist_3_joint": 0.09327706791169303,
        "smoothness": 0.3887553967688235,
        "time": 0.209834111,
        "traj_len": 2.339271597987878,
        "weighted_distance": 2.7116109402030655
    },
    "planner": "SBL",
    "start": {
        "state": {
            "elbow_joint": 2.6216224122426386,
            "shoulder_lift_joint": -1.4174107377796124,
            "shoulder_pan_joint": 0.7066234856936794,
            "wrist_1_joint": 1.9546482284002225,
            "wrist_2_joint": -0.7096286983471962,
            "wrist_3_joint": 0.005740856962016249
        }
    },
    "waypoints": [
        {
            "positions": [
                0.7066234856936794,
                -1.4174107377796124,
                2.6216224122426386,
                1.9546482284002225,
                -0.7096286983471962,
                0.005740856962016249
            ]
        },
        {
            "positions": [
                0.580332196646882,
                -1.4690086173986032,
                2.628198480011598,
                1.9589501354712473,
                -0.795565511223333,
                -0.009884212365770242
            ]
        },
        {
            "positions": [
                0.45404090760008453,
                -1.5206064970175943,
                2.6347745477805575,
                1.9632520425422724,
                -0.8815023240994697,
                -0.025509281693556735
            ]
        },
        {
            "positions": [
                0.3277496185532871,
                -1.5722043766365852,
                2.6413506155495168,
                1.9675539496132972,
                -0.9674391369756066,
                -0.041134351021343225
            ]
        },
        {
            "positions": [
                0.22418524470870643,
                -1.4961829199089587,
                2.559983888964722,
                1.9814662964179948,
                -1.0721411223551858,
                -0.03726752936064876
            ]
        },
        {
            "positions": [
                0.12062087086412576,
                -1.4201614631813324,
                2.478617162379928,
                1.995378643222692,
                -1.176843107734765,
                -0.0334007076999543
            ]
        },
        {
            "positions": [
                0.01705649701954509,
                -1.344140006453706,
                2.3972504357951334,
                2.0092909900273894,
                -1.2815450931143442,
                -0.029533886039259834
            ]
        },
        {
            "positions": [
                -0.08650787682503558,
                -1.2681185497260794,
                2.3158837092103393,
                2.023203336832087,
                -1.3862470784939234,
                -0.025667064378565373
            ]
        },
        {
            "positions": [
                -0.1900722506696163,
                -1.192097092998453,
                2.2345169826255447,
                2.0371156836367845,
                -1.4909490638735028,
                -0.02180024271787091
            ]
        },
        {
            "positions": [
                -0.2936366245141969,
                -1.1160756362708266,
                2.1531502560407505,
                2.051028030441482,
                -1.595651049253082,
                -0.017933421057176446
            ]
        },
        {
            "positions": [
                -0.39720099835877765,
                -1.0400541795432001,
                2.071783529455956,
                2.0649403772461796,
                -1.7003530346326614,
                -0.014066599396481982
            ]
        },
        {
            "positions": [
                -0.5007653722033583,
                -0.9640327228155737,
                1.9904168028711615,
                2.078852724050877,
                -1.8050550200122404,
                -0.010199777735787521
            ]
        },
        {
            "positions": [
                -0.6043297460479389,
                -0.8880112660879472,
                1.9090500762863671,
                2.0927650708555743,
                -1.9097570053918198,
                -0.0063329560750930575
            ]
        },
        {
            "positions": [
                -0.7078941198925197,
                -0.8119898093603208,
                1.8276833497015725,
                2.1066774176602716,
                -2.014458990771399,
                -0.0024661344143985936
            ]
        },
        {
            "positions": [
                -0.8114584937371003,
                -0.7359683526326944,
                1.7463166231167784,
                2.1205897644649694,
                -2.119160976150978,
                0.0014006872462958703
            ]
        },
        {
            "positions": [
                -0.9150228675816809,
                -0.6599468959050679,
                1.6649498965319838,
                2.1345021112696667,
                -2.2238629615305574,
                0.005267508906990332
            ]
        }
    ]
}