{
    "goal": {
        "global_pose": {
            "orientation": {
                "w": 0.7031023480610252,
                "x": -0.7110244013736278,
                "y": 0.0077485991402295624,
                "z": 0.005598929693374583
            },
            "position": {
                "x": -0.8841497679147869,
                "y": 0.44412534475326537,
                "z": 0.3711530566215515
            }
        },
        "name": "move_to_auspresseinheit_D"
    },
    "id": "SBL_move_to_auspresseinheit_D_44",
    "joint_names": [
        "shoulder_pan_joint",
        "shoulder_lift_joint",
        "elbow_joint",
        "wrist_1_joint",
        "wrist_2_joint",
        "wrist_3_joint"
    ],
    "metrics": {
        "cart_traj_len": 0.34333052710169354,
        "distance_elbow_joint": 0.6380483489024293,
        "distance_shoulder_lift_joint": 0.12140547165270821,
        "distance_shoulder_pan_joint": 0.13470342825542808,
        "distance_wrist_1_joint": 0.5335868779643889,
        "distance_wrist_2_joint": 1.4349660073180641,
        "distance_wrist_3_joint": 0.000600175586966678,
        "smoothness": 5.921189480296099e-16,
        "time": 0.147180859,
        "traj_len": 1.6921318830634877,
        "weighted_distance": 2.1984229679787215
    },
    "planner": "SBL",
    "start": {
        "state": {
            "elbow_joint": -1.8275523626775212,
            "shoulder_lift_joint": -2.126789852344167,
            "shoulder_pan_joint": -0.03513704404078235,
            "wrist_1_joint": -2.347782403156801,
            "wrist_2_joint": -1.6058999987535132,
            "wrist_3_joint": -3.0880379163319196
        }
    },
    "waypoints": [
        {
            "positions": [
                -0.03513704404078235,
                -2.126789852344167,
                -1.8275523626775212,
                -2.347782403156801,
                -1.6058999987535132,
                -3.0880379163319196
            ]
        },
        {
            "positions": [
                -0.05197497257271086,
                -2.1419655363007553,
                -1.7477963190647174,
                -2.4144807629023495,
                -1.4265292478387552,
                -3.0879628943835487
            ]
        },
        {
            "positions": [
                -0.06881290110463936,
                -2.157141220257344,
                -1.668040275451914,
                -2.481179122647898,
                -1.2471584969239973,
                -3.0878878724351777
            ]
        },
        {
            "positions": [
                -0.08565082963656788,
                -2.1723169042139325,
                -1.5882842318391102,
                -2.5478774823934467,
                -1.067787746009239,
                -3.087812850486807
            ]
        },
        {
            "positions": [
                -0.1024887581684964,
                -2.187492588170521,
                -1.5085281882263066,
                -2.6145758421389953,
                -0.8884169950944811,
                -3.0877378285384363
            ]
        },
        {
            "positions": [
                -0.1193266867004249,
                -2.2026682721271094,
                -1.4287721446135029,
                -2.681274201884544,
                -0.7090462441797232,
                -3.0876628065900653
            ]
        },
        {
            "positions": [
                -0.1361646152323534,
                -2.2178439560836978,
                -1.3490161010006991,
                -2.7479725616300925,
                -0.529675493264965,
                -3.087587784641695
            ]
        },
        {
            "positions": [
                -0.15300254376428193,
                -2.2330196400402866,
                -1.2692600573878954,
                -2.814670921375641,
                -0.35030474235020703,
                -3.087512762693324
            ]
        },
        {
            "positions": [
                -0.16984047229621044,
                -2.248195323996875,
                -1.1895040137750919,
                -2.8813692811211897,
                -0.17093399143544918,
                -3.087437740744953
            ]
        }
    ]
}