{
    "goal": {
        "global_pose": {
            "orientation": {
                "w": 0.7047431468963623,
                "x": -0.7094548344612122,
                "y": 0.0024358443915843964,
                "z": -0.0022348060738295317
            },
            "position": {
                "x": 0.6094750761985779,
                "y": 0.3671506643295288,
                "z": 0.19426114857196808
            }
        },
        "name": "move_to_magneteinheit_A"
    },
    "id": "SBL_move_to_magneteinheit_A_129",
    "joint_names": [
        "shoulder_pan_joint",
        "shoulder_lift_joint",
        "elbow_joint",
        "wrist_1_joint",
        "wrist_2_joint",
        "wrist_3_joint"
    ],
    "metrics": {
        "cart_traj_len": 3.971641744796262,
        "distance_elbow_joint": 4.866647467272482,
        "distance_shoulder_lift_joint": 0.10709129589600508,
        "distance_shoulder_pan_joint": 3.1773101621574407,
        "distance_wrist_1_joint": 1.6702611480671488,
        "distance_wrist_2_joint": 2.020441025972987,
        "distance_wrist_3_joint": 3.817394407972681,
        "smoothness": 0.43609512811251616,
        "time": 0.219581508,
        "traj_len": 3.957163821139927,
        "weighted_distance": 5.19467385860982
    },
    "planner": "SBL",
    "start": {
        "state": {
            "elbow_joint": -1.9196185241190666,
            "shoulder_lift_joint": -1.2443396400964142,
            "shoulder_pan_joint": 2.6996025414629847,
            "wrist_1_joint": -1.5485510000780065,
            "wrist_2_joint": -1.5709468930060704,
            "wrist_3_joint": 0.4420197071253992
        }
    },
    "waypoints": [
        {
            "positions": [
                2.6996025414629847,
                -1.2443396400964142,
                -1.9196185241190666,
                -1.5485510000780065,
                -1.5709468930060704,
                0.4420197071253992
            ]
        },
        {
            "positions": [
                2.5596634811463193,
                -1.2399679660224399,
                -1.8450033128561523,
                -1.507389276483457,
                -1.4769899911451023,
                0.42319659073566573
            ]
        },
        {
            "positions": [
                2.4197244208296538,
                -1.2355962919484653,
                -1.770388101593238,
                -1.4662275528889077,
                -1.383033089284134,
                0.40437347434593235
            ]
        },
        {
            "positions": [
                2.2797853605129883,
                -1.231224617874491,
                -1.6957728903303237,
                -1.4250658292943585,
                -1.289076187423166,
                0.3855503579561989
            ]
        },
        {
            "positions": [
                2.1398463001963224,
                -1.2268529438005167,
                -1.6211576790674094,
                -1.3839041056998092,
                -1.1951192855621977,
                0.36672724156646547
            ]
        },
        {
            "positions": [
                1.9999072398796571,
                -1.2224812697265421,
                -1.546542467804495,
                -1.3427423821052598,
                -1.1011623837012297,
                0.3479041251767321
            ]
        },
        {
            "positions": [
                1.8599681795629917,
                -1.2181095956525678,
                -1.4719272565415806,
                -1.3015806585107104,
                -1.0072054818402614,
                0.32908100878699864
            ]
        },
        {
            "positions": [
                1.7200291192463262,
                -1.2137379215785935,
                -1.3973120452786665,
                -1.2604189349161612,
                -0.9132485799792934,
                0.3102578923972652
            ]
        },
        {
            "positions": [
                1.5800900589296605,
                -1.2093662475046192,
                -1.322696834015752,
                -1.2192572113216118,
                -0.8192916781183252,
                0.29143477600753176
            ]
        },
        {
            "positions": [
                1.4401509986129952,
                -1.2049945734306446,
                -1.2480816227528377,
                -1.1780954877270624,
                -0.7253347762573571,
                0.2726116596177984
            ]
        },
        {
            "positions": [
                1.3002119382963295,
                -1.2006228993566703,
                -1.1734664114899234,
                -1.136933764132513,
                -0.6313778743963889,
                0.253788543228065
            ]
        },
        {
            "positions": [
                1.160272877979664,
                -1.196251225282696,
                -1.098851200227009,
                -1.0957720405379638,
                -0.5374209725354209,
                0.23496542683833155
            ]
        },
        {
            "positions": [
                1.0203338176629986,
                -1.1918795512087215,
                -1.0242359889640946,
                -1.0546103169434144,
                -0.4434640706744526,
                0.2161423104485981
            ]
        },
        {
            "positions": [
                0.8803947573463332,
                -1.1875078771347471,
                -0.9496207777011805,
                -1.013448593348865,
                -0.34950716881348454,
                0.1973191940588647
            ]
        },
        {
            "positions": [
                0.8322927204000352,
                -1.1876274082309362,
                -0.7945503201508013,
                -1.0345087963406483,
                -0.3566997093637138,
                0.039615465135227984
            ]
        },
        {
            "positions": [
                0.7841906834537372,
                -1.187746939327125,
                -0.639479862600422,
                -1.0555689993324315,
                -0.3638922499139431,
                -0.11808826378840873
            ]
        },
        {
            "positions": [
                0.7360886465074392,
                -1.187866470423314,
                -0.4844094050500428,
                -1.0766292023242148,
                -0.37108479046417236,
                -0.27579199271204535
            ]
        },
        {
            "positions": [
                0.6879866095611412,
                -1.187986001519503,
                -0.3293389474996635,
                -1.097689405315998,
                -0.37827733101440164,
                -0.4334957216356822
            ]
        },
        {
            "positions": [
                0.6398845726148432,
                -1.1881055326156917,
                -0.17426848994928434,
                -1.1187496083077813,
                -0.38546987156463086,
                -0.5911994505593189
            ]
        },
        {
            "positions": [
                0.5917825356685453,
                -1.1882250637118807,
                -0.019198032398905163,
                -1.1398098112995645,
                -0.39266241211486014,
                -0.7489031794829555
            ]
        },
        {
            "positions": [
                0.5436804987222472,
                -1.1883445948080698,
                0.13587242515147402,
                -1.160870014291348,
                -0.3998549526650894,
                -0.9066069084065923
            ]
        },
        {
            "positions": [
                0.4955784617759493,
                -1.1884641259042585,
                0.2909428827018534,
                -1.1819302172831312,
                -0.4070474932153187,
                -1.064310637330229
            ]
        },
        {
            "positions": [
                0.4474764248296513,
                -1.1885836570004475,
                0.4460133402522326,
                -1.2029904202749144,
                -0.41424003376554797,
                -1.2220143662538656
            ]
        },
        {
            "positions": [
                0.39937438788335333,
                -1.1887031880966366,
                0.6010837978026118,
                -1.2240506232666977,
                -0.42143257431577724,
                -1.3797180951775023
            ]
        },
        {
            "positions": [
                0.35127235093705533,
                -1.1888227191928253,
                0.756154255352991,
                -1.245110826258481,
                -0.4286251148660065,
                -1.537421824101139
            ]
        },
        {
            "positions": [
                0.30317031399075733,
                -1.1889422502890143,
                0.9112247129033701,
                -1.2661710292502641,
                -0.4358176554162358,
                -1.6951255530247755
            ]
        },
        {
            "positions": [
                0.25506827704445934,
                -1.1890617813852034,
                1.0662951704537493,
                -1.2872312322420474,
                -0.44301019596646507,
                -1.8528292819484125
            ]
        },
        {
            "positions": [
                0.20696624009816134,
                -1.1891813124813924,
                1.2213656280041285,
                -1.3082914352338306,
                -0.45020273651669435,
                -2.010533010872049
            ]
        },
        {
            "positions": [
                0.15886420315186345,
                -1.1893008435775811,
                1.3764360855545077,
                -1.3293516382256139,
                -0.4573952770669236,
                -2.168236739795686
            ]
        },
        {
            "positions": [
                0.11076216620556534,
                -1.1894203746737702,
                1.5315065431048873,
                -1.3504118412173973,
                -0.46458781761715284,
                -2.3259404687193226
            ]
        },
        {
            "positions": [
                0.06266012925926745,
                -1.1895399057699592,
                1.686577000655266,
                -1.3714720442091806,
                -0.4717803581673822,
                -2.4836441976429593
            ]
        },
        {
            "positions": [
                0.01455809231296934,
                -1.189659436866148,
                1.8416474582056457,
                -1.3925322472009638,
                -0.4789728987176114,
                -2.641347926566596
            ]
        },
        {
            "positions": [
                -0.03354394463332855,
                -1.189778967962337,
                1.9967179157560249,
                -1.413592450192747,
                -0.4861654392678407,
                -2.7990516554902327
            ]
        },
        {
            "positions": [
                -0.08164598157962655,
                -1.189898499058526,
                2.1517883733064043,
                -1.4346526531845303,
                -0.49335797981806995,
                -2.9567553844138694
            ]
        },
        {
            "positions": [
                -0.12974801852592466,
                -1.1900180301547147,
                2.3068588308567834,
                -1.4557128561763135,
                -0.5005505203682992,
                -3.114459113337506
            ]
        },
        {
            "positions": [
                -0.1778500554722225,
                -1.1901375612509038,
                2.461929288407162,
                -1.4767730591680968,
                -0.5077430609185285,
                -3.272162842261143
            ]
        },
        {
            "positions": [
                -0.1278737946018506,
                -1.1821992531145402,
                2.381079345949453,
                -1.3648006799149675,
                -0.40094882597263587,
                -3.2549608658301197
            ]
        },
        {
            "positions": [
                -0.07789753373147873,
                -1.1742609449781767,
                2.300229403491744,
                -1.2528283006618381,
                -0.29415459102674324,
                -3.2377588893990965
            ]
        },
        {
            "positions": [
                -0.02792127286110685,
                -1.1663226368418131,
                2.2193794610340345,
                -1.140855921408709,
                -0.18736035608085055,
                -3.220556912968073
            ]
        },
        {
            "positions": [
                0.02205498800926503,
                -1.1583843287054494,
                2.1385295185763256,
                -1.0288835421555798,
                -0.08056612113495792,
                -3.2033549365370497
            ]
        },
        {
            "positions": [
                0.07203124887963691,
                -1.1504460205690858,
                2.057679576118616,
                -0.9169111629024504,
                0.026228113810934817,
                -3.1861529601060266
            ]
        },
        {
            "positions": [
                0.12200750975000879,
                -1.1425077124327223,
                1.976829633660907,
                -0.8049387836493213,
                0.13302234875682745,
                -3.1689509836750034
            ]
        }
    ]
}