{
    "goal": {
        "global_pose": {
            "orientation": {
                "w": 0.5084816262002911,
                "x": -0.4908360881923452,
                "y": 0.5182115481033761,
                "z": -0.48164630358495003
            },
            "position": {
                "x": 0.5540239810943604,
                "y": -0.46912469901144505,
                "z": 0.16403168439865112
            }
        },
        "name": "move_to_storage_B"
    },
    "id": "SBL_move_to_storage_B_80",
    "joint_names": [
        "shoulder_pan_joint",
        "shoulder_lift_joint",
        "elbow_joint",
        "wrist_1_joint",
        "wrist_2_joint",
        "wrist_3_joint"
    ],
    "metrics": {
        "cart_traj_len": 4.70193743316434,
        "distance_elbow_joint": 4.422320671411146,
        "distance_shoulder_lift_joint": 1.3587233736723157,
        "distance_shoulder_pan_joint": 3.7900398402929705,
        "distance_wrist_1_joint": 1.8226654002841318,
        "distance_wrist_2_joint": 1.1586173436243978,
        "distance_wrist_3_joint": 4.3847079386895516,
        "smoothness": 0.26490755117022036,
        "time": 0.393366157,
        "traj_len": 4.115467721653823,
        "weighted_distance": 5.356096824111953
    },
    "planner": "SBL",
    "start": {
        "state": {
            "elbow_joint": -1.6666013991110213,
            "shoulder_lift_joint": -2.479295265494141,
            "shoulder_pan_joint": 2.6606783912885628,
            "wrist_1_joint": 0.9897123657714939,
            "wrist_2_joint": 0.474351758749468,
            "wrist_3_joint": 0.013243222496468381
        }
    },
    "waypoints": [
        {
            "positions": [
                2.6606783912885628,
                -2.479295265494141,
                -1.6666013991110213,
                0.9897123657714939,
                0.474351758749468,
                0.013243222496468381
            ]
        },
        {
            "positions": [
                2.669739710598423,
                -2.444132732977528,
                -1.712944072634957,
                0.9464421207703728,
                0.3988583703516518,
                -0.06887306783929475
            ]
        },
        {
            "positions": [
                2.6788010299082834,
                -2.408970200460916,
                -1.7592867461588926,
                0.9031718757692518,
                0.32336498195383556,
                -0.15098935817505788
            ]
        },
        {
            "positions": [
                2.595783660245866,
                -2.3305053568058938,
                -1.7989836111442228,
                0.8695259548262306,
                0.2630580742589804,
                -0.21715902224890987
            ]
        },
        {
            "positions": [
                2.5127662905834485,
                -2.252040513150871,
                -1.838680476129553,
                0.8358800338832094,
                0.2027511665641253,
                -0.28332868632276187
            ]
        },
        {
            "positions": [
                2.429748920921031,
                -2.173575669495849,
                -1.8783773411148832,
                0.8022341129401882,
                0.14244425886927017,
                -0.34949835039661387
            ]
        },
        {
            "positions": [
                2.346731551258614,
                -2.0951108258408264,
                -1.9180742061002136,
                0.7685881919971669,
                0.08213735117441506,
                -0.41566801447046586
            ]
        },
        {
            "positions": [
                2.2637141815961965,
                -2.0166459821858043,
                -1.9577710710855438,
                0.7349422710541457,
                0.021830443479559924,
                -0.4818376785443179
            ]
        },
        {
            "positions": [
                2.180696811933779,
                -1.9381811385307819,
                -1.997467936070874,
                0.7012963501111245,
                -0.038476464215295214,
                -0.5480073426181699
            ]
        },
        {
            "positions": [
                2.0976794422713616,
                -1.8597162948757595,
                -2.0371648010562042,
                0.6676504291681032,
                -0.09878337191015035,
                -0.6141770066920219
            ]
        },
        {
            "positions": [
                2.006513853298895,
                -1.8385978833599328,
                -1.921400307642891,
                0.6247760444915107,
                -0.0820553086825852,
                -0.506825929277706
            ]
        },
        {
            "positions": [
                1.9153482643264286,
                -1.817479471844106,
                -1.8056358142295779,
                0.581901659814918,
                -0.06532724545502007,
                -0.39947485186338993
            ]
        },
        {
            "positions": [
                1.824182675353962,
                -1.7963610603282794,
                -1.6898713208162646,
                0.5390272751383254,
                -0.04859918222745493,
                -0.29212377444907395
            ]
        },
        {
            "positions": [
                1.7330170863814955,
                -1.7752426488124526,
                -1.5741068274029515,
                0.49615289046173283,
                -0.031871118999889786,
                -0.18477269703475796
            ]
        },
        {
            "positions": [
                1.641851497409029,
                -1.7541242372966261,
                -1.4583423339896382,
                0.45327850578514023,
                -0.015143055772324651,
                -0.07742161962044203
            ]
        },
        {
            "positions": [
                1.5506859084365625,
                -1.7330058257807994,
                -1.342577840576325,
                0.41040412110854757,
                0.0015850074552404975,
                0.029929457793874015
            ]
        },
        {
            "positions": [
                1.4595203194640958,
                -1.7118874142649727,
                -1.2268133471630116,
                0.36752973643195497,
                0.018313070682805646,
                0.13728053520819006
            ]
        },
        {
            "positions": [
                1.3683547304916293,
                -1.690769002749146,
                -1.1110488537496985,
                0.3246553517553624,
                0.03504113391037078,
                0.244631612622506
            ]
        },
        {
            "positions": [
                1.277189141519163,
                -1.6696505912333193,
                -0.9952843603363855,
                0.2817809670787698,
                0.0517691971379359,
                0.3519826900368219
            ]
        },
        {
            "positions": [
                1.1860235525466962,
                -1.6485321797174926,
                -0.8795198669230722,
                0.23890658240217721,
                0.06849726036550105,
                0.45933376745113785
            ]
        },
        {
            "positions": [
                1.0948579635742297,
                -1.6274137682016658,
                -0.7637553735097589,
                0.19603219772558456,
                0.0852253235930662,
                0.5666848448654539
            ]
        },
        {
            "positions": [
                1.0036923746017632,
                -1.6062953566858391,
                -0.6479908800964456,
                0.1531578130489919,
                0.10195338682063135,
                0.6740359222797699
            ]
        },
        {
            "positions": [
                0.9125267856292965,
                -1.5851769451700126,
                -0.5322263866831323,
                0.11028342837239935,
                0.1186814500481965,
                0.781386999694086
            ]
        },
        {
            "positions": [
                0.8213611966568299,
                -1.564058533654186,
                -0.416461893269819,
                0.06740904369580669,
                0.13540951327576164,
                0.888738077108402
            ]
        },
        {
            "positions": [
                0.7301956076843636,
                -1.5429401221383592,
                -0.3006973998565061,
                0.024534659019214144,
                0.15213757650332677,
                0.9960891545227178
            ]
        },
        {
            "positions": [
                0.6390300187118969,
                -1.5218217106225325,
                -0.18493290644319282,
                -0.018339725657378403,
                0.16886563973089191,
                1.103440231937034
            ]
        },
        {
            "positions": [
                0.5478644297394304,
                -1.5007032991067057,
                -0.06916841302987953,
                -0.06121411033397106,
                0.18559370295845706,
                1.2107913093513498
            ]
        },
        {
            "positions": [
                0.4566988407669641,
                -1.479584887590879,
                0.046596080383433325,
                -0.10408849501056361,
                0.20232176618602216,
                1.3181423867656656
            ]
        },
        {
            "positions": [
                0.36553325179449736,
                -1.4584664760750523,
                0.16236057379674662,
                -0.14696287968715627,
                0.2190498294135873,
                1.425493464179982
            ]
        },
        {
            "positions": [
                0.27436766282203084,
                -1.4373480645592256,
                0.2781250672100599,
                -0.18983726436374881,
                0.23577789264115245,
                1.5328445415942977
            ]
        },
        {
            "positions": [
                0.18320207384956433,
                -1.4162296530433989,
                0.3938895606233732,
                -0.23271164904034147,
                0.2525059558687176,
                1.640195619008614
            ]
        },
        {
            "positions": [
                0.09203648487709781,
                -1.3951112415275722,
                0.5096540540366865,
                -0.27558603371693413,
                0.26923401909628275,
                1.7475466964229298
            ]
        },
        {
            "positions": [
                0.000870895904631297,
                -1.3739928300117457,
                0.6254185474499998,
                -0.3184604183935267,
                0.2859620823238479,
                1.854897773837246
            ]
        },
        {
            "positions": [
                -0.09029469306783522,
                -1.3528744184959187,
                0.7411830408633131,
                -0.36133480307011945,
                0.30269014555141305,
                1.962248851251562
            ]
        },
        {
            "positions": [
                -0.18146028204030218,
                -1.3317560069800922,
                0.8569475342766264,
                -0.4042091877467119,
                0.3194182087789782,
                2.0695999286658777
            ]
        },
        {
            "positions": [
                -0.2726258710127687,
                -1.3106375954642655,
                0.9727120276899397,
                -0.44708357242330454,
                0.33614627200654335,
                2.176951006080194
            ]
        },
        {
            "positions": [
                -0.3637914599852352,
                -1.2895191839484388,
                1.088476521103253,
                -0.4899579570998972,
                0.3528743352341085,
                2.28430208349451
            ]
        },
        {
            "positions": [
                -0.4549570489577017,
                -1.268400772432612,
                1.2042410145165663,
                -0.5328323417764899,
                0.36960239846167364,
                2.391653160908826
            ]
        },
        {
            "positions": [
                -0.5461226379301682,
                -1.2472823609167853,
                1.3200055079298796,
                -0.5757067264530825,
                0.3863304616892388,
                2.499004238323142
            ]
        },
        {
            "positions": [
                -0.6372882269026343,
                -1.2261639494009589,
                1.435770001343192,
                -0.618581111129675,
                0.4030585249168039,
                2.6063553157374577
            ]
        },
        {
            "positions": [
                -0.7284538158751008,
                -1.2050455378851321,
                1.5515344947565053,
                -0.6614554958062676,
                0.41978658814436903,
                2.7137063931517735
            ]
        },
        {
            "positions": [
                -0.8196194048475678,
                -1.1839271263693054,
                1.6672989881698186,
                -0.70432988048286,
                0.4365146513719342,
                2.82105747056609
            ]
        },
        {
            "positions": [
                -0.9107849938200343,
                -1.1628087148534787,
                1.7830634815831319,
                -0.7472042651594527,
                0.45324271459949933,
                2.9284085479804056
            ]
        },
        {
            "positions": [
                -1.0019505827925008,
                -1.141690303337652,
                1.8988279749964452,
                -0.7900786498360454,
                0.4699707778270645,
                3.035759625394722
            ]
        },
        {
            "positions": [
                -1.0931161717649671,
                -1.1205718918218253,
                2.014592468409759,
                -0.8329530345126379,
                0.4866988410546296,
                3.1431107028090377
            ]
        }
    ]
}