{
    "goal": {
        "global_pose": {
            "orientation": {
                "w": 0.7031023502349854,
                "x": -0.7110244035720825,
                "y": 0.007748599164187908,
                "z": 0.005598929710686207
            },
            "position": {
                "x": 0.11585023208521307,
                "y": 0.44412534475326537,
                "z": 0.3711530566215515
            }
        },
        "name": "move_to_auspresseinheit_A"
    },
    "id": "SBL_move_to_auspresseinheit_A_127",
    "joint_names": [
        "shoulder_pan_joint",
        "shoulder_lift_joint",
        "elbow_joint",
        "wrist_1_joint",
        "wrist_2_joint",
        "wrist_3_joint"
    ],
    "metrics": {
        "cart_traj_len": 0.6979202423877611,
        "distance_elbow_joint": 0.1227423913336132,
        "distance_shoulder_lift_joint": 0.5339087390958579,
        "distance_shoulder_pan_joint": 1.042498922189302,
        "distance_wrist_1_joint": 1.6369579983331775,
        "distance_wrist_2_joint": 0.9404246671779269,
        "distance_wrist_3_joint": 0.4188820795380863,
        "smoothness": 1.54234094860793,
        "time": 0.241736654,
        "traj_len": 2.1668905827632283,
        "weighted_distance": 2.847904777596196
    },
    "planner": "SBL",
    "start": {
        "state": {
            "elbow_joint": 2.4225746658250005,
            "shoulder_lift_joint": -1.3736534386056498,
            "shoulder_pan_joint": -0.3378633547517467,
            "wrist_1_joint": -1.0288598680537169,
            "wrist_2_joint": 1.233022673432363,
            "wrist_3_joint": -3.0940220416140027
        }
    },
    "waypoints": [
        {
            "positions": [
                -0.3378633547517467,
                -1.3736534386056498,
                2.4225746658250005,
                -1.0288598680537169,
                1.233022673432363,
                -3.0940220416140027
            ]
        },
        {
            "positions": [
                -0.24797535227804518,
                -1.4073946968527493,
                2.4135847232300103,
                -0.8910775927933188,
                1.1409905371829872,
                -3.0852540662976895
            ]
        },
        {
            "positions": [
                -0.15808734980434364,
                -1.4411359550998486,
                2.4045947806350205,
                -0.7532953175329208,
                1.0489584009336113,
                -3.0764860909813763
            ]
        },
        {
            "positions": [
                -0.06819934733064209,
                -1.474877213346948,
                2.3956048380400308,
                -0.6155130422725228,
                0.9569262646842353,
                -3.0677181156650626
            ]
        },
        {
            "positions": [
                0.021688655143059454,
                -1.5086184715940476,
                2.3866148954450406,
                -0.4777307670121247,
                0.8648941284348592,
                -3.0589501403487493
            ]
        },
        {
            "positions": [
                0.111576657616761,
                -1.542359729841147,
                2.3776249528500504,
                -0.3399484917517266,
                0.7728619921854833,
                -3.050182165032436
            ]
        },
        {
            "positions": [
                0.20146466009046254,
                -1.5761009880882466,
                2.3686350102550606,
                -0.2021662164913286,
                0.6808298559361075,
                -3.0414141897161224
            ]
        },
        {
            "positions": [
                0.2913526625641641,
                -1.609842246335346,
                2.359645067660071,
                -0.06438394123093061,
                0.5887977196867314,
                -3.032646214399809
            ]
        },
        {
            "positions": [
                0.3812406650378656,
                -1.6435835045824454,
                2.3506551250650807,
                0.07339833402946738,
                0.49676558343735555,
                -3.023878239083496
            ]
        },
        {
            "positions": [
                0.4557969968266201,
                -1.7303640020181743,
                2.349213394222302,
                -0.053865615174107734,
                0.5608401528820646,
                -2.986148307778553
            ]
        },
        {
            "positions": [
                0.5303533286153748,
                -1.8171444994539032,
                2.347771663379524,
                -0.18112956437768285,
                0.6249147223267736,
                -2.9484183764736094
            ]
        },
        {
            "positions": [
                0.6049096604041293,
                -1.9039249968896321,
                2.3463299325367455,
                -0.308393513581258,
                0.6889892917714826,
                -2.9106884451686663
            ]
        },
        {
            "positions": [
                0.6547726139208422,
                -1.90574358729557,
                2.3695787615594246,
                -0.38484748790089174,
                0.6949612261958789,
                -3.0284626867150415
            ]
        },
        {
            "positions": [
                0.7046355674375551,
                -1.9075621777015077,
                2.3928275905821037,
                -0.4613014622205254,
                0.700933160620275,
                -3.146236928261416
            ]
        }
    ]
}