{
    "goal": {
        "global_pose": {
            "orientation": {
                "w": 0.7047431493862688,
                "x": -0.7094548369677653,
                "y": 0.0024358444001904,
                "z": -0.0022348060817251984
            },
            "position": {
                "x": -0.39052492380142206,
                "y": 0.3671506643295288,
                "z": 0.19426114857196808
            }
        },
        "name": "move_to_magneteinheit_D"
    },
    "id": "SBL_move_to_magneteinheit_D_9",
    "joint_names": [
        "shoulder_pan_joint",
        "shoulder_lift_joint",
        "elbow_joint",
        "wrist_1_joint",
        "wrist_2_joint",
        "wrist_3_joint"
    ],
    "metrics": {
        "cart_traj_len": 5.6647558934607325,
        "distance_elbow_joint": 3.144655294229106,
        "distance_shoulder_lift_joint": 1.864192320560733,
        "distance_shoulder_pan_joint": 5.380062173427903,
        "distance_wrist_1_joint": 1.5078447469102076,
        "distance_wrist_2_joint": 1.1910560818766915,
        "distance_wrist_3_joint": 3.503484703338366,
        "smoothness": 0.42780382722148913,
        "time": 0.451254445,
        "traj_len": 4.073241377618445,
        "weighted_distance": 5.128076204173124
    },
    "planner": "SBL",
    "start": {
        "state": {
            "elbow_joint": 0.749534889911806,
            "shoulder_lift_joint": -0.6476975780787326,
            "shoulder_pan_joint": -2.711696901376241,
            "wrist_1_joint": -0.07506478083263063,
            "wrist_2_joint": 0.43296659715538205,
            "wrist_3_joint": -3.14703540197715
        }
    },
    "waypoints": [
        {
            "positions": [
                -2.711696901376241,
                -0.6476975780787326,
                0.749534889911806,
                -0.07506478083263063,
                0.43296659715538205,
                -3.14703540197715
            ]
        },
        {
            "positions": [
                -2.723828382621622,
                -0.712280532677263,
                0.7368636470343527,
                0.01495473479129758,
                0.4346997316403214,
                -2.95125354003047
            ]
        },
        {
            "positions": [
                -2.735959863867003,
                -0.7768634872757932,
                0.7241924041568994,
                0.10497425041522579,
                0.4364328661252608,
                -2.7554716780837896
            ]
        },
        {
            "positions": [
                -2.748091345112384,
                -0.8414464418743236,
                0.7115211612794461,
                0.19499376603915403,
                0.43816600061020017,
                -2.5596898161371096
            ]
        },
        {
            "positions": [
                -2.760222826357765,
                -0.9060293964728539,
                0.6988499184019928,
                0.2850132816630822,
                0.4398991350951395,
                -2.3639079541904295
            ]
        },
        {
            "positions": [
                -2.772354307603146,
                -0.9706123510713842,
                0.6861786755245396,
                0.3750327972870105,
                0.44163226958007884,
                -2.168126092243749
            ]
        },
        {
            "positions": [
                -2.784485788848527,
                -1.0351953056699146,
                0.6735074326470863,
                0.4650523129109387,
                0.44336540406501823,
                -1.972344230297069
            ]
        },
        {
            "positions": [
                -2.648162683249369,
                -1.082044620620605,
                0.5873011287743387,
                0.48470292038323487,
                0.41828722716573785,
                -1.896712342886636
            ]
        },
        {
            "positions": [
                -2.511839577650212,
                -1.128893935571295,
                0.501094824901591,
                0.504353527855531,
                0.39320905026645747,
                -1.8210804554762026
            ]
        },
        {
            "positions": [
                -2.3755164720510544,
                -1.1757432505219854,
                0.4148885210288433,
                0.5240041353278272,
                0.3681308733671771,
                -1.7454485680657694
            ]
        },
        {
            "positions": [
                -2.2391933664518966,
                -1.2225925654726755,
                0.3286822171560957,
                0.5436547428001234,
                0.3430526964678967,
                -1.669816680655336
            ]
        },
        {
            "positions": [
                -2.1028702608527388,
                -1.2694418804233658,
                0.242475913283348,
                0.5633053502724196,
                0.31797451956861633,
                -1.594184793244903
            ]
        },
        {
            "positions": [
                -1.9665471552535814,
                -1.3162911953740561,
                0.1562696094106003,
                0.5829559577447158,
                0.292896342669336,
                -1.5185529058344696
            ]
        },
        {
            "positions": [
                -1.8302240496544238,
                -1.3631405103247463,
                0.07006330553785267,
                0.602606565217012,
                0.2678181657700556,
                -1.4429210184240362
            ]
        },
        {
            "positions": [
                -1.6939009440552661,
                -1.4099898252754366,
                -0.016142998334894965,
                0.6222571726893081,
                0.24273998887077525,
                -1.367289131013603
            ]
        },
        {
            "positions": [
                -1.5575778384561085,
                -1.4568391402261267,
                -0.10234930220764271,
                0.6419077801616043,
                0.21766181197149487,
                -1.29165724360317
            ]
        },
        {
            "positions": [
                -1.421254732856951,
                -1.503688455176817,
                -0.18855560608039035,
                0.6615583876339005,
                0.1925836350722145,
                -1.2160253561927366
            ]
        },
        {
            "positions": [
                -1.2849316272577935,
                -1.5505377701275074,
                -0.274761909953138,
                0.6812089951061967,
                0.16750545817293416,
                -1.1403934687823034
            ]
        },
        {
            "positions": [
                -1.148608521658636,
                -1.5973870850781975,
                -0.36096821382588573,
                0.7008596025784929,
                0.14242728127365378,
                -1.06476158137187
            ]
        },
        {
            "positions": [
                -1.012285416059478,
                -1.6442364000288876,
                -0.44717451769863337,
                0.720510210050789,
                0.1173491043743734,
                -0.9891296939614368
            ]
        },
        {
            "positions": [
                -0.8759623104603205,
                -1.691085714979578,
                -0.533380821571381,
                0.7401608175230852,
                0.09227092747509302,
                -0.9134978065510035
            ]
        },
        {
            "positions": [
                -0.7396392048611626,
                -1.7379350299302683,
                -0.6195871254441286,
                0.7598114249953813,
                0.06719275057581264,
                -0.8378659191405702
            ]
        },
        {
            "positions": [
                -0.6033160992620052,
                -1.7847843448809586,
                -0.7057934293168763,
                0.7794620324676775,
                0.04211457367653226,
                -0.762234031730137
            ]
        },
        {
            "positions": [
                -0.46699299366284786,
                -1.8316336598316485,
                -0.7919997331896239,
                0.7991126399399737,
                0.01703639677725194,
                -0.6866021443197039
            ]
        },
        {
            "positions": [
                -0.33066988806369,
                -1.8784829747823388,
                -0.8782060370623718,
                0.8187632474122699,
                -0.008041780122028497,
                -0.6109702569092705
            ]
        },
        {
            "positions": [
                -0.19434678246453263,
                -1.9253322897330292,
                -0.9644123409351192,
                0.8384138548845661,
                -0.03311995702130882,
                -0.5353383694988374
            ]
        },
        {
            "positions": [
                -0.058023676865374796,
                -1.9721816046837195,
                -1.0506186448078672,
                0.8580644623568623,
                -0.05819813392058926,
                -0.45970648208840403
            ]
        },
        {
            "positions": [
                0.0782994287337826,
                -2.01903091963441,
                -1.1368249486806148,
                0.8777150698291585,
                -0.08327631081986964,
                -0.3840745946779709
            ]
        },
        {
            "positions": [
                0.21462253433293998,
                -2.0658802345850997,
                -1.2230312525533624,
                0.8973656773014547,
                -0.1083544877191499,
                -0.30844270726753775
            ]
        },
        {
            "positions": [
                0.3509456399320978,
                -2.11272954953579,
                -1.30923755642611,
                0.9170162847737509,
                -0.1334326646184304,
                -0.2328108198571044
            ]
        },
        {
            "positions": [
                0.4872687455312552,
                -2.1595788644864804,
                -1.3954438602988577,
                0.936666892246047,
                -0.15851084151771067,
                -0.15717893244667125
            ]
        },
        {
            "positions": [
                0.623591851130413,
                -2.2064281794371707,
                -1.4816501641716049,
                0.9563174997183432,
                -0.18358901841699105,
                -0.08154704503623789
            ]
        },
        {
            "positions": [
                0.7599149567295709,
                -2.253277494387861,
                -1.567856468044353,
                0.9759681071906394,
                -0.20866719531627143,
                -0.0059151576258045235
            ]
        },
        {
            "positions": [
                0.8962380623287283,
                -2.3001268093385514,
                -1.6540627719171006,
                0.9956187146629356,
                -0.2337453722155518,
                0.0697167297846284
            ]
        },
        {
            "positions": [
                1.032561167927886,
                -2.3469761242892417,
                -1.7402690757898482,
                1.0152693221352318,
                -0.2588235491148322,
                0.14534861719506198
            ]
        },
        {
            "positions": [
                1.1688842735270435,
                -2.3938254392399316,
                -1.8264753796625959,
                1.034919929607528,
                -0.28390172601411257,
                0.22098050460549512
            ]
        },
        {
            "positions": [
                0.999646370579538,
                -2.37906738181499,
                -1.8975560077444338,
                1.084652434166284,
                -0.22722795790312195,
                0.20404690501102996
            ]
        },
        {
            "positions": [
                0.8304084676320324,
                -2.364309324390048,
                -1.968636635826272,
                1.1343849387250402,
                -0.17055418979213133,
                0.18711330541656476
            ]
        },
        {
            "positions": [
                0.6611705646845267,
                -2.3495512669651064,
                -2.03971726390811,
                1.1841174432837964,
                -0.11388042168114071,
                0.17017970582209957
            ]
        },
        {
            "positions": [
                0.4919326617370212,
                -2.3347932095401647,
                -2.110797891989948,
                1.2338499478425524,
                -0.05720665357015009,
                0.1532461062276344
            ]
        },
        {
            "positions": [
                0.3226947587895157,
                -2.320035152115223,
                -2.181878520071786,
                1.2835824524013084,
                -0.0005328854591594712,
                0.13631250663316924
            ]
        },
        {
            "positions": [
                0.15345685584200996,
                -2.305277094690281,
                -2.252959148153624,
                1.3333149569600646,
                0.05614088265183115,
                0.11937890703870405
            ]
        },
        {
            "positions": [
                -0.01578104710549555,
                -2.2905190372653395,
                -2.324039776235462,
                1.3830474615188209,
                0.11281465076282177,
                0.10244530744423887
            ]
        },
        {
            "positions": [
                -0.185018950053001,
                -2.2757609798403977,
                -2.3951204043173,
                1.4327799660775768,
                0.16948841887381236,
                0.0855117078497737
            ]
        }
    ]
}