{
    "goal": {
        "global_pose": {
            "orientation": {
                "w": 0.005598929693374612,
                "x": 0.007748599140229565,
                "y": 0.7110244013736278,
                "z": -0.7031023480610252
            },
            "position": {
                "x": -0.8858502320852131,
                "y": -0.7141253447532654,
                "z": 0.3711530566215515
            }
        },
        "name": "move_to_auspresseinheit_C"
    },
    "id": "SBL_move_to_auspresseinheit_C_23",
    "joint_names": [
        "shoulder_pan_joint",
        "shoulder_lift_joint",
        "elbow_joint",
        "wrist_1_joint",
        "wrist_2_joint",
        "wrist_3_joint"
    ],
    "metrics": {
        "cart_traj_len": 0.492593833177135,
        "distance_elbow_joint": 0.9918872010269544,
        "distance_shoulder_lift_joint": 0.3211456111974845,
        "distance_shoulder_pan_joint": 0.25612746556766863,
        "distance_wrist_1_joint": 0.6590151357825579,
        "distance_wrist_2_joint": 1.3077082402086426,
        "distance_wrist_3_joint": 0.03914919460952415,
        "smoothness": 3.2297397080004555e-16,
        "time": 0.493294314,
        "traj_len": 1.8907757266246128,
        "weighted_distance": 2.3706654368769713
    },
    "planner": "SBL",
    "start": {
        "state": {
            "elbow_joint": 1.7527959577737207,
            "shoulder_lift_joint": -0.9740617694225068,
            "shoulder_pan_joint": -2.967991417825858,
            "wrist_1_joint": -0.759517768980727,
            "wrist_2_joint": 1.7443932448377408,
            "wrist_3_joint": -3.0840537646736568
        }
    },
    "waypoints": [
        {
            "positions": [
                -2.967991417825858,
                -0.9740617694225068,
                1.7527959577737207,
                -0.759517768980727,
                1.7443932448377408,
                -3.0840537646736568
            ]
        },
        {
            "positions": [
                -2.942378671269091,
                -0.9419472083027584,
                1.6536072376710251,
                -0.6936162554024712,
                1.6136224208168766,
                -3.087968684134609
            ]
        },
        {
            "positions": [
                -2.9167659247123243,
                -0.9098326471830098,
                1.5544185175683298,
                -0.6277147418242154,
                1.4828515967960123,
                -3.0918836035955617
            ]
        },
        {
            "positions": [
                -2.8911531781555575,
                -0.8777180860632614,
                1.4552297974656343,
                -0.5618132282459596,
                1.352080772775148,
                -3.095798523056514
            ]
        },
        {
            "positions": [
                -2.8655404315987907,
                -0.845603524943513,
                1.356041077362939,
                -0.49591171466770384,
                1.2213099487542838,
                -3.0997134425174666
            ]
        },
        {
            "positions": [
                -2.8399276850420234,
                -0.8134889638237646,
                1.2568523572602435,
                -0.43001020108944804,
                1.0905391247334195,
                -3.103628361978419
            ]
        },
        {
            "positions": [
                -2.8143149384852566,
                -0.781374402704016,
                1.157663637157548,
                -0.36410868751119224,
                0.9597683007125553,
                -3.107543281439371
            ]
        },
        {
            "positions": [
                -2.78870219192849,
                -0.7492598415842676,
                1.0584749170548526,
                -0.2982071739329365,
                0.8289974766916911,
                -3.1114582009003238
            ]
        },
        {
            "positions": [
                -2.763089445371723,
                -0.7171452804645191,
                0.9592861969521571,
                -0.2323056603546807,
                0.6982266526708267,
                -3.115373120361276
            ]
        },
        {
            "positions": [
                -2.737476698814956,
                -0.6850307193447707,
                0.8600974768494617,
                -0.1664041467764249,
                0.5674558286499625,
                -3.1192880398222287
            ]
        },
        {
            "positions": [
                -2.7118639522581893,
                -0.6529161582250222,
                0.7609087567467663,
                -0.1005026331981691,
                0.4366850046290981,
                -3.123202959283181
            ]
        }
    ]
}