{
    "goal": {
        "global_pose": {
            "orientation": {
                "w": 0.7047431493862688,
                "x": -0.7094548369677653,
                "y": 0.0024358444001904,
                "z": -0.0022348060817251984
            },
            "position": {
                "x": -0.39052492380142206,
                "y": 0.3671506643295288,
                "z": 0.19426114857196808
            }
        },
        "name": "move_to_magneteinheit_D"
    },
    "id": "SBL_move_to_magneteinheit_D_116",
    "joint_names": [
        "shoulder_pan_joint",
        "shoulder_lift_joint",
        "elbow_joint",
        "wrist_1_joint",
        "wrist_2_joint",
        "wrist_3_joint"
    ],
    "metrics": {
        "cart_traj_len": 4.296658690480404,
        "distance_elbow_joint": 3.403533297673748,
        "distance_shoulder_lift_joint": 1.6301401509069213,
        "distance_shoulder_pan_joint": 3.0235589387463153,
        "distance_wrist_1_joint": 1.658397433099025,
        "distance_wrist_2_joint": 0.5631792597742777,
        "distance_wrist_3_joint": 3.2234320588901393,
        "smoothness": 0.3637667720644895,
        "time": 0.559694171,
        "traj_len": 3.674539581919131,
        "weighted_distance": 4.708575363073634
    },
    "planner": "SBL",
    "start": {
        "state": {
            "elbow_joint": 0.749534889911806,
            "shoulder_lift_joint": -0.6476975780787326,
            "shoulder_pan_joint": -2.711696901376241,
            "wrist_1_joint": -0.07506478083263063,
            "wrist_2_joint": 0.43296659715538205,
            "wrist_3_joint": -3.14703540197715
        }
    },
    "waypoints": [
        {
            "positions": [
                -2.711696901376241,
                -0.6476975780787326,
                0.749534889911806,
                -0.07506478083263063,
                0.43296659715538205,
                -3.14703540197715
            ]
        },
        {
            "positions": [
                -2.7189870643669733,
                -0.732621736578148,
                0.7946388547772654,
                -0.0889923777583861,
                0.4857631915677828,
                -3.0729383536220047
            ]
        },
        {
            "positions": [
                -2.7262772273577056,
                -0.8175458950775633,
                0.8397428196427247,
                -0.10291997468414156,
                0.5385597859801836,
                -2.99884130526686
            ]
        },
        {
            "positions": [
                -2.733567390348438,
                -0.9024700535769786,
                0.8848467845081841,
                -0.11684757160989703,
                0.5913563803925843,
                -2.9247442569117146
            ]
        },
        {
            "positions": [
                -2.640309917661756,
                -0.9419976273347874,
                0.7975813832947929,
                -0.09241325738831038,
                0.5795676012946229,
                -2.7982100966662564
            ]
        },
        {
            "positions": [
                -2.547052444975074,
                -0.9815252010925962,
                0.7103159820814018,
                -0.06797894316672372,
                0.5677788221966614,
                -2.6716759364207983
            ]
        },
        {
            "positions": [
                -2.4537949722883923,
                -1.021052774850405,
                0.6230505808680107,
                -0.04354462894513707,
                0.5559900430986999,
                -2.54514177617534
            ]
        },
        {
            "positions": [
                -2.36053749960171,
                -1.0605803486082137,
                0.5357851796546194,
                -0.019110314723550403,
                0.5442012640007385,
                -2.418607615929882
            ]
        },
        {
            "positions": [
                -2.2672800269150284,
                -1.1001079223660226,
                0.44851977844122826,
                0.005323999498036247,
                0.5324124849027771,
                -2.2920734556844238
            ]
        },
        {
            "positions": [
                -2.1740225542283467,
                -1.1396354961238313,
                0.36125437722783715,
                0.029758313719622898,
                0.5206237058048157,
                -2.1655392954389656
            ]
        },
        {
            "positions": [
                -2.080765081541665,
                -1.1791630698816402,
                0.27398897601444594,
                0.05419262794120955,
                0.5088349267068542,
                -2.0390051351935075
            ]
        },
        {
            "positions": [
                -1.9875076088549828,
                -1.218690643639449,
                0.18672357480105473,
                0.07862694216279623,
                0.49704614760889276,
                -1.9124709749480493
            ]
        },
        {
            "positions": [
                -1.894250136168301,
                -1.2582182173972578,
                0.09945817358766351,
                0.10306125638438288,
                0.4852573685109313,
                -1.7859368147025911
            ]
        },
        {
            "positions": [
                -1.8009926634816191,
                -1.2977457911550665,
                0.01219277237427241,
                0.12749557060596953,
                0.4734685894129699,
                -1.659402654457133
            ]
        },
        {
            "positions": [
                -1.7077351907949372,
                -1.3372733649128754,
                -0.0750726288391188,
                0.15192988482755618,
                0.46167981031500843,
                -1.5328684942116746
            ]
        },
        {
            "positions": [
                -1.6144777181082555,
                -1.376800938670684,
                -0.1623380300525098,
                0.17636419904914283,
                0.449891031217047,
                -1.4063343339662167
            ]
        },
        {
            "positions": [
                -1.5212202454215735,
                -1.416328512428493,
                -0.24960343126590112,
                0.20079851327072948,
                0.43810225211908554,
                -1.2798001737207585
            ]
        },
        {
            "positions": [
                -1.4279627727348918,
                -1.4558560861863017,
                -0.3368688324792922,
                0.22523282749231613,
                0.4263134730211241,
                -1.1532660134753006
            ]
        },
        {
            "positions": [
                -1.3347053000482099,
                -1.4953836599441104,
                -0.42413423369268355,
                0.24966714171390278,
                0.41452469392316266,
                -1.0267318532298422
            ]
        },
        {
            "positions": [
                -1.2414478273615277,
                -1.5349112337019193,
                -0.5113996349060747,
                0.2741014559354895,
                0.4027359148252012,
                -0.900197692984384
            ]
        },
        {
            "positions": [
                -1.148190354674846,
                -1.5744388074597282,
                -0.5986650361194658,
                0.2985357701570761,
                0.39094713572723977,
                -0.7736635327389259
            ]
        },
        {
            "positions": [
                -1.054932881988164,
                -1.6139663812175369,
                -0.6859304373328571,
                0.3229700843786628,
                0.3791583566292783,
                -0.6471293724934677
            ]
        },
        {
            "positions": [
                -0.9616754093014823,
                -1.6534939549753456,
                -0.773195838546248,
                0.3474043986002494,
                0.3673695775313169,
                -0.5205952122480095
            ]
        },
        {
            "positions": [
                -0.8684179366148003,
                -1.6930215287331545,
                -0.8604612397596394,
                0.3718387128218361,
                0.35558079843335544,
                -0.3940610520025515
            ]
        },
        {
            "positions": [
                -0.7774342041420814,
                -1.720566870194659,
                -0.9836976162063336,
                0.45255643983376415,
                0.35401724598583767,
                -0.3512986619659967
            ]
        },
        {
            "positions": [
                -0.6864504716693626,
                -1.7481122116561636,
                -1.1069339926530277,
                0.5332741668456922,
                0.35245369353831996,
                -0.30853627192944194
            ]
        },
        {
            "positions": [
                -0.5954667391966437,
                -1.775657553117668,
                -1.2301703690997219,
                0.6139918938576203,
                0.3508901410908022,
                -0.2657738818928872
            ]
        },
        {
            "positions": [
                -0.5044830067239249,
                -1.8032028945791725,
                -1.3534067455464163,
                0.6947096208695483,
                0.3493265886432844,
                -0.2230114918563324
            ]
        },
        {
            "positions": [
                -0.4134992742512061,
                -1.830748236040677,
                -1.4766431219931104,
                0.7754273478814764,
                0.34776303619576665,
                -0.18024910181977766
            ]
        },
        {
            "positions": [
                -0.3225155417784873,
                -1.8582935775021816,
                -1.5998794984398046,
                0.8561450748934044,
                0.34619948374824894,
                -0.13748671178322291
            ]
        },
        {
            "positions": [
                -0.23153180930576844,
                -1.8858389189636862,
                -1.7231158748864988,
                0.9368628019053324,
                0.34463593130073117,
                -0.09472432174666817
            ]
        },
        {
            "positions": [
                -0.14054807683304948,
                -1.9133842604251905,
                -1.846352251333193,
                1.0175805289172606,
                0.3430723788532134,
                -0.05196193171011332
            ]
        },
        {
            "positions": [
                -0.04956434436033075,
                -1.940929601886695,
                -1.969588627779887,
                1.0982982559291887,
                0.3415088264056957,
                -0.009199541673558576
            ]
        },
        {
            "positions": [
                0.04141938811238806,
                -1.9684749433481996,
                -2.0928250042265812,
                1.1790159829411166,
                0.3399452739581779,
                0.03356284836299618
            ]
        },
        {
            "positions": [
                0.001839369606335059,
                -2.046042763624837,
                -2.1743267131420985,
                1.270118066895071,
                0.31143858370798,
                0.022499410734936692
            ]
        },
        {
            "positions": [
                -0.03774064889971794,
                -2.123610583901474,
                -2.2558284220576152,
                1.3612201508490254,
                0.28293189345778214,
                0.011435973106877204
            ]
        },
        {
            "positions": [
                -0.07732066740577095,
                -2.2011784041781115,
                -2.3373301309731325,
                1.4523222348029796,
                0.2544252032075842,
                0.00037253547881771574
            ]
        },
        {
            "positions": [
                -0.18528228320090329,
                -2.277837728985654,
                -2.3833746185691855,
                1.4997670707118615,
                0.1865669038555089,
                0.010016031144631598
            ]
        }
    ]
}