{
    "goal": {
        "global_pose": {
            "orientation": {
                "w": 0.7031023480610252,
                "x": -0.7110244013736278,
                "y": 0.0077485991402295624,
                "z": 0.005598929693374583
            },
            "position": {
                "x": -0.8841497679147869,
                "y": 0.44412534475326537,
                "z": 0.3711530566215515
            }
        },
        "name": "move_to_auspresseinheit_D"
    },
    "id": "SBL_move_to_auspresseinheit_D_113",
    "joint_names": [
        "shoulder_pan_joint",
        "shoulder_lift_joint",
        "elbow_joint",
        "wrist_1_joint",
        "wrist_2_joint",
        "wrist_3_joint"
    ],
    "metrics": {
        "cart_traj_len": 0.3426538407667673,
        "distance_elbow_joint": 0.6419006219909131,
        "distance_shoulder_lift_joint": 0.12380133216008682,
        "distance_shoulder_pan_joint": 0.13317536473146924,
        "distance_wrist_1_joint": 0.5404970639289788,
        "distance_wrist_2_joint": 1.4491608206805864,
        "distance_wrist_3_joint": 0.009038150806435219,
        "smoothness": 1.578983857244667e-15,
        "time": 0.177870505,
        "traj_len": 1.7022259997716138,
        "weighted_distance": 2.2147928888546002
    },
    "planner": "SBL",
    "start": {
        "state": {
            "elbow_joint": -1.8275523626775212,
            "shoulder_lift_joint": -2.126789852344167,
            "shoulder_pan_joint": -0.03513704404078235,
            "wrist_1_joint": -2.347782403156801,
            "wrist_2_joint": -1.6058999987535132,
            "wrist_3_joint": -3.0880379163319196
        }
    },
    "waypoints": [
        {
            "positions": [
                -0.03513704404078235,
                -2.126789852344167,
                -1.8275523626775212,
                -2.347782403156801,
                -1.6058999987535132,
                -3.0880379163319196
            ]
        },
        {
            "positions": [
                -0.051783964632216004,
                -2.142265018864178,
                -1.747314784928657,
                -2.415344536147923,
                -1.42475489616844,
                -3.086908147481115
            ]
        },
        {
            "positions": [
                -0.06843088522364965,
                -2.1577401853841884,
                -1.6670772071797928,
                -2.4829066691390453,
                -1.2436097935833665,
                -3.0857783786303106
            ]
        },
        {
            "positions": [
                -0.08507780581508331,
                -2.1732153519041995,
                -1.5868396294309288,
                -2.550468802130168,
                -1.0624646909982933,
                -3.0846486097795065
            ]
        },
        {
            "positions": [
                -0.10172472640651697,
                -2.1886905184242105,
                -1.5066020516820646,
                -2.6180309351212903,
                -0.88131958841322,
                -3.083518840928702
            ]
        },
        {
            "positions": [
                -0.11837164699795064,
                -2.204165684944221,
                -1.4263644739332004,
                -2.6855930681124125,
                -0.7001744858281467,
                -3.0823890720778975
            ]
        },
        {
            "positions": [
                -0.13501856758938427,
                -2.219640851464232,
                -1.3461268961843365,
                -2.753155201103535,
                -0.5190293832430735,
                -3.0812593032270934
            ]
        },
        {
            "positions": [
                -0.15166548818081793,
                -2.2351160179842426,
                -1.2658893184354723,
                -2.8207173340946574,
                -0.337884280658,
                -3.080129534376289
            ]
        },
        {
            "positions": [
                -0.1683124087722516,
                -2.2505911845042537,
                -1.185651740686608,
                -2.8882794670857797,
                -0.15673917807292678,
                -3.0789997655254844
            ]
        }
    ]
}