{
    "goal": {
        "global_pose": {
            "orientation": {
                "w": 0.005598929693374612,
                "x": 0.007748599140229565,
                "y": 0.7110244013736278,
                "z": -0.7031023480610252
            },
            "position": {
                "x": -0.8858502320852131,
                "y": -0.7141253447532654,
                "z": 0.3711530566215515
            }
        },
        "name": "move_to_auspresseinheit_C"
    },
    "id": "SBL_move_to_auspresseinheit_C_89",
    "joint_names": [
        "shoulder_pan_joint",
        "shoulder_lift_joint",
        "elbow_joint",
        "wrist_1_joint",
        "wrist_2_joint",
        "wrist_3_joint"
    ],
    "metrics": {
        "cart_traj_len": 0.49228187905215015,
        "distance_elbow_joint": 1.0016899896407927,
        "distance_shoulder_lift_joint": 0.3257974159130367,
        "distance_shoulder_pan_joint": 0.25601761736687845,
        "distance_wrist_1_joint": 0.6907816995919352,
        "distance_wrist_2_joint": 1.3047794148829366,
        "distance_wrist_3_joint": 0.06012040750132108,
        "smoothness": 4.844609574787718e-16,
        "time": 0.516988135,
        "traj_len": 1.9076652077597107,
        "weighted_distance": 2.3989557049629773
    },
    "planner": "SBL",
    "start": {
        "state": {
            "elbow_joint": 1.7527959577737207,
            "shoulder_lift_joint": -0.9740617694225068,
            "shoulder_pan_joint": -2.967991417825858,
            "wrist_1_joint": -0.759517768980727,
            "wrist_2_joint": 1.7443932448377408,
            "wrist_3_joint": -3.0840537646736568
        }
    },
    "waypoints": [
        {
            "positions": [
                -2.967991417825858,
                -0.9740617694225068,
                1.7527959577737207,
                -0.759517768980727,
                1.7443932448377408,
                -3.0840537646736568
            ]
        },
        {
            "positions": [
                -2.94238965608917,
                -0.941482027831203,
                1.6526269588096414,
                -0.6904395990215335,
                1.613915303349447,
                -3.090065805423789
            ]
        },
        {
            "positions": [
                -2.916787894352482,
                -0.9089022862398994,
                1.5524579598455621,
                -0.6213614290623399,
                1.4834373618611534,
                -3.096077846173921
            ]
        },
        {
            "positions": [
                -2.8911861326157946,
                -0.8763225446485958,
                1.4522889608814828,
                -0.5522832591031464,
                1.3529594203728599,
                -3.102089886924053
            ]
        },
        {
            "positions": [
                -2.8655843708791067,
                -0.8437428030572921,
                1.3521199619174036,
                -0.4832050891439529,
                1.2224814788845662,
                -3.108101927674185
            ]
        },
        {
            "positions": [
                -2.8399826091424187,
                -0.8111630614659884,
                1.2519509629533243,
                -0.41412691918475936,
                1.0920035373962724,
                -3.1141139684243173
            ]
        },
        {
            "positions": [
                -2.814380847405731,
                -0.7785833198746848,
                1.151781963989245,
                -0.34504874922556583,
                0.9615255959079789,
                -3.1201260091744496
            ]
        },
        {
            "positions": [
                -2.788779085669043,
                -0.7460035782833812,
                1.0516129650251658,
                -0.27597057926637236,
                0.8310476544196853,
                -3.1261380499245814
            ]
        },
        {
            "positions": [
                -2.7631773239323554,
                -0.7134238366920774,
                0.9514439660610865,
                -0.20689240930717878,
                0.7005697129313915,
                -3.1321500906747137
            ]
        },
        {
            "positions": [
                -2.7375755621956674,
                -0.6808440951007737,
                0.8512749670970072,
                -0.1378142393479852,
                0.570091771443098,
                -3.1381621314248456
            ]
        },
        {
            "positions": [
                -2.7119738004589795,
                -0.6482643535094701,
                0.7511059681329281,
                -0.06873606938879175,
                0.4396138299548043,
                -3.144174172174978
            ]
        }
    ]
}