{
    "goal": {
        "global_pose": {
            "orientation": {
                "w": -0.4816463035849501,
                "x": 0.5182115481033762,
                "y": 0.4908360881923453,
                "z": -0.5084816262002911
            },
            "position": {
                "x": -0.8240239810943604,
                "y": 0.19912469901144506,
                "z": 0.16403168439865112
            }
        },
        "name": "move_to_storage_D"
    },
    "id": "SBL_move_to_storage_D_24",
    "joint_names": [
        "shoulder_pan_joint",
        "shoulder_lift_joint",
        "elbow_joint",
        "wrist_1_joint",
        "wrist_2_joint",
        "wrist_3_joint"
    ],
    "metrics": {
        "cart_traj_len": 3.8118451000023135,
        "distance_elbow_joint": 4.21091758509921,
        "distance_shoulder_lift_joint": 1.265054557214649,
        "distance_shoulder_pan_joint": 2.8124364086664957,
        "distance_wrist_1_joint": 2.2793458590168427,
        "distance_wrist_2_joint": 0.867613398047942,
        "distance_wrist_3_joint": 3.1329540258268747,
        "smoothness": 3.416070852779214e-16,
        "time": 0.196648585,
        "traj_len": 3.8168471064311724,
        "weighted_distance": 4.897059234131293
    },
    "planner": "SBL",
    "start": {
        "state": {
            "elbow_joint": -2.384821988534728,
            "shoulder_lift_joint": -2.2788054721415256,
            "shoulder_pan_joint": -0.1854694642142757,
            "wrist_1_joint": 1.4845938289331202,
            "wrist_2_joint": 0.17898776772866878,
            "wrist_3_joint": 0.037105688729662994
        }
    },
    "waypoints": [
        {
            "positions": [
                -0.1854694642142757,
                -2.2788054721415256,
                -2.384821988534728,
                1.4845938289331202,
                0.17898776772866878,
                0.037105688729662994
            ]
        },
        {
            "positions": [
                -0.10215634835117315,
                -2.2462460567995666,
                -2.2607524014556164,
                1.4159320324088371,
                0.19975338785870592,
                -0.021684684099774407
            ]
        },
        {
            "positions": [
                -0.0188432324880706,
                -2.213686641457607,
                -2.1366828143765053,
                1.347270235884554,
                0.22051900798874302,
                -0.08047505692921181
            ]
        },
        {
            "positions": [
                0.06446988337503198,
                -2.181127226115648,
                -2.012613227297394,
                1.278608439360271,
                0.24128462811878015,
                -0.13926542975864922
            ]
        },
        {
            "positions": [
                0.1477829992381345,
                -2.148567810773689,
                -1.8885436402182827,
                1.209946642835988,
                0.2620502482488173,
                -0.1980558025880866
            ]
        },
        {
            "positions": [
                0.23109611510123715,
                -2.1160083954317295,
                -1.7644740531391712,
                1.141284846311705,
                0.2828158683788544,
                -0.2568461754175241
            ]
        },
        {
            "positions": [
                0.3144092309643397,
                -2.0834489800897704,
                -1.64040446606006,
                1.072623049787422,
                0.3035814885088915,
                -0.3156365482469614
            ]
        },
        {
            "positions": [
                0.39772234682744223,
                -2.0508895647478114,
                -1.5163348789809485,
                1.003961253263139,
                0.3243471086389286,
                -0.37442692107639886
            ]
        },
        {
            "positions": [
                0.48103546269054476,
                -2.018330149405852,
                -1.3922652919018372,
                0.935299456738856,
                0.34511272876896576,
                -0.4332172939058362
            ]
        },
        {
            "positions": [
                0.5643485785536474,
                -1.9857707340638928,
                -1.268195704822726,
                0.8666376602145729,
                0.36587834889900284,
                -0.49200766673527363
            ]
        },
        {
            "positions": [
                0.64766169441675,
                -1.9532113187219338,
                -1.1441261177436146,
                0.7979758636902898,
                0.38664396902903997,
                -0.5507980395647111
            ]
        },
        {
            "positions": [
                0.7309748102798524,
                -1.9206519033799745,
                -1.0200565306645033,
                0.7293140671660069,
                0.4074095891590771,
                -0.6095884123941484
            ]
        },
        {
            "positions": [
                0.8142879261429551,
                -1.8880924880380152,
                -0.895986943585392,
                0.6606522706417238,
                0.42817520928911423,
                -0.6683787852235858
            ]
        },
        {
            "positions": [
                0.8976010420060577,
                -1.8555330726960562,
                -0.7719173565062807,
                0.5919904741174408,
                0.44894082941915137,
                -0.7271691580530233
            ]
        },
        {
            "positions": [
                0.9809141578691601,
                -1.8229736573540969,
                -0.6478477694271692,
                0.5233286775931577,
                0.4697064495491885,
                -0.7859595308824606
            ]
        },
        {
            "positions": [
                1.0642272737322627,
                -1.7904142420121376,
                -0.5237781823480578,
                0.45466688106887454,
                0.49047206967922563,
                -0.8447499037118981
            ]
        },
        {
            "positions": [
                1.147540389595365,
                -1.7578548266701786,
                -0.39970859526894653,
                0.3860050845445917,
                0.5112376898092628,
                -0.9035402765413354
            ]
        },
        {
            "positions": [
                1.2308535054584677,
                -1.7252954113282195,
                -0.27563900818983544,
                0.31734328802030864,
                0.5320033099392998,
                -0.9623306493707727
            ]
        },
        {
            "positions": [
                1.3141666213215704,
                -1.69273599598626,
                -0.1515694211107239,
                0.2486814914960256,
                0.5527689300693369,
                -1.0211210222002103
            ]
        },
        {
            "positions": [
                1.3974797371846728,
                -1.660176580644301,
                -0.027499834031612824,
                0.18001969497174253,
                0.573534550199374,
                -1.0799113950296477
            ]
        },
        {
            "positions": [
                1.4807928530477756,
                -1.627617165302342,
                0.09656975304749871,
                0.11135789844745947,
                0.5943001703294112,
                -1.1387017678590852
            ]
        },
        {
            "positions": [
                1.564105968910878,
                -1.5950577499603826,
                0.22063934012661024,
                0.04269610192317641,
                0.6150657904594483,
                -1.1974921406885224
            ]
        },
        {
            "positions": [
                1.6474190847739805,
                -1.5624983346184234,
                0.3447089272057213,
                -0.025965694601106426,
                0.6358314105894854,
                -1.2562825135179598
            ]
        },
        {
            "positions": [
                1.730732200637083,
                -1.5299389192764643,
                0.46877851428483286,
                -0.0946274911253897,
                0.6565970307195226,
                -1.3150728863473973
            ]
        },
        {
            "positions": [
                1.8140453165001857,
                -1.497379503934505,
                0.592848101363944,
                -0.16328928764967254,
                0.6773626508495597,
                -1.3738632591768347
            ]
        },
        {
            "positions": [
                1.897358432363288,
                -1.4648200885925458,
                0.716917688443055,
                -0.2319510841739556,
                0.6981282709795967,
                -1.432653632006272
            ]
        },
        {
            "positions": [
                1.980671548226391,
                -1.4322606732505867,
                0.8409872755221666,
                -0.30061288069823866,
                0.7188938911096339,
                -1.4914440048357096
            ]
        },
        {
            "positions": [
                2.063984664089493,
                -1.3997012579086276,
                0.9650568626012781,
                -0.3692746772225217,
                0.739659511239671,
                -1.5502343776651468
            ]
        },
        {
            "positions": [
                2.147297779952596,
                -1.3671418425666682,
                1.0891264496803896,
                -0.4379364737468048,
                0.7604251313697081,
                -1.6090247504945843
            ]
        },
        {
            "positions": [
                2.2306108958156985,
                -1.334582427224709,
                1.213196036759501,
                -0.5065982702710878,
                0.7811907514997453,
                -1.6678151233240217
            ]
        },
        {
            "positions": [
                2.274650456775312,
                -1.2989344814138388,
                1.2812959878489434,
                -0.538615354694714,
                0.8106807975305081,
                -1.8264854804099317
            ]
        },
        {
            "positions": [
                2.3186900177349257,
                -1.2632865356029686,
                1.3493959389383856,
                -0.5706324391183403,
                0.8401708435612709,
                -1.9851558374958418
            ]
        },
        {
            "positions": [
                2.3627295786945393,
                -1.2276385897920983,
                1.417495890027828,
                -0.6026495235419664,
                0.8696608895920338,
                -2.143826194581752
            ]
        },
        {
            "positions": [
                2.406769139654153,
                -1.191990643981228,
                1.4855958411172705,
                -0.6346666079655927,
                0.8991509356227966,
                -2.3024965516676614
            ]
        },
        {
            "positions": [
                2.450808700613766,
                -1.1563426981703577,
                1.553695792206713,
                -0.6666836923892189,
                0.9286409816535595,
                -2.4611669087535715
            ]
        },
        {
            "positions": [
                2.4948482615733796,
                -1.1206947523594875,
                1.6217957432961554,
                -0.698700776812845,
                0.9581310276843222,
                -2.6198372658394815
            ]
        },
        {
            "positions": [
                2.538887822532993,
                -1.0850468065486172,
                1.6898956943855978,
                -0.7307178612364713,
                0.9876210737150851,
                -2.7785076229253916
            ]
        },
        {
            "positions": [
                2.5829273834926068,
                -1.049398860737747,
                1.75799564547504,
                -0.7627349456600976,
                1.017111119745848,
                -2.9371779800113016
            ]
        },
        {
            "positions": [
                2.6269669444522203,
                -1.0137509149268766,
                1.8260955965644825,
                -0.7947520300837237,
                1.0466011657766108,
                -3.0958483370972116
            ]
        }
    ]
}