{
    "goal": {
        "global_pose": {
            "orientation": {
                "w": -0.4816463035849501,
                "x": 0.5182115481033762,
                "y": 0.4908360881923453,
                "z": -0.5084816262002911
            },
            "position": {
                "x": -0.8240239810943604,
                "y": 0.19912469901144506,
                "z": 0.16403168439865112
            }
        },
        "name": "move_to_storage_D"
    },
    "id": "SBL_move_to_storage_D_134",
    "joint_names": [
        "shoulder_pan_joint",
        "shoulder_lift_joint",
        "elbow_joint",
        "wrist_1_joint",
        "wrist_2_joint",
        "wrist_3_joint"
    ],
    "metrics": {
        "cart_traj_len": 0.6341366112951637,
        "distance_elbow_joint": 0.8863146551352186,
        "distance_shoulder_lift_joint": 0.436488576256878,
        "distance_shoulder_pan_joint": 0.21839180725309604,
        "distance_wrist_1_joint": 3.829233165039368,
        "distance_wrist_2_joint": 2.2743111752310616,
        "distance_wrist_3_joint": 3.1260820729722982,
        "smoothness": 0.3277223075539728,
        "time": 0.376046003,
        "traj_len": 3.2818929677684365,
        "weighted_distance": 4.809005088176031
    },
    "planner": "SBL",
    "start": {
        "state": {
            "elbow_joint": -2.384821988534728,
            "shoulder_lift_joint": -2.2788054721415256,
            "shoulder_pan_joint": -0.1854694642142757,
            "wrist_1_joint": 1.4845938289331202,
            "wrist_2_joint": 0.17898776772866878,
            "wrist_3_joint": 0.037105688729662994
        }
    },
    "waypoints": [
        {
            "positions": [
                -0.1854694642142757,
                -2.2788054721415256,
                -2.384821988534728,
                1.4845938289331202,
                0.17898776772866878,
                0.037105688729662994
            ]
        },
        {
            "positions": [
                -0.13926333416899558,
                -2.2052035620908854,
                -2.426066982615472,
                1.4539213823786756,
                0.24083210633051752,
                -0.008471644620306328
            ]
        },
        {
            "positions": [
                -0.09305720412371545,
                -2.1316016520402448,
                -2.467311976696217,
                1.4232489358242313,
                0.30267644493236623,
                -0.05404897797027565
            ]
        },
        {
            "positions": [
                -0.046851074078435306,
                -2.0579997419896046,
                -2.5085569707769615,
                1.392576489269787,
                0.36452078353421496,
                -0.09962631132024496
            ]
        },
        {
            "positions": [
                -0.0006449440331551815,
                -1.9843978319389644,
                -2.5498019648577057,
                1.3619040427153424,
                0.4263651221360637,
                -0.1452036446702143
            ]
        },
        {
            "positions": [
                -0.0019876355160341913,
                -1.990081069381137,
                -2.5209485777052163,
                1.2136423075624787,
                0.34528776930311705,
                -0.26295455425311115
            ]
        },
        {
            "positions": [
                -0.003330326998913201,
                -1.9957643068233097,
                -2.4920951905527264,
                1.065380572409615,
                0.2642104164701704,
                -0.380705463836008
            ]
        },
        {
            "positions": [
                -0.004673018481792211,
                -2.001447544265482,
                -2.463241803400237,
                0.9171188372567516,
                0.18313306363722373,
                -0.4984563734189048
            ]
        },
        {
            "positions": [
                -0.006015709964671221,
                -2.007130781707655,
                -2.434388416247747,
                0.7688571021038879,
                0.10205571080427706,
                -0.6162072830018017
            ]
        },
        {
            "positions": [
                -0.007358401447550231,
                -2.0128140191498276,
                -2.4055350290952577,
                0.6205953669510244,
                0.020978357971330408,
                -0.7339581925846985
            ]
        },
        {
            "positions": [
                -0.008701092930429241,
                -2.0184972565920005,
                -2.376681641942768,
                0.4723336317981608,
                -0.06009899486161624,
                -0.8517091021675953
            ]
        },
        {
            "positions": [
                -0.01004378441330825,
                -2.024180494034173,
                -2.3478282547902785,
                0.3240718966452971,
                -0.141176347694563,
                -0.9694600117504923
            ]
        },
        {
            "positions": [
                -0.01138647589618726,
                -2.029863731476346,
                -2.3189748676377886,
                0.17581016149243345,
                -0.2222537005275096,
                -1.087210921333389
            ]
        },
        {
            "positions": [
                -0.01272916737906627,
                -2.0355469689185184,
                -2.290121480485299,
                0.027548426339569998,
                -0.3033310533604562,
                -1.204961830916286
            ]
        },
        {
            "positions": [
                -0.01407185886194528,
                -2.041230206360691,
                -2.2612680933328093,
                -0.12071330881329367,
                -0.3844084061934029,
                -1.3227127404991827
            ]
        },
        {
            "positions": [
                -0.01541455034482429,
                -2.0469134438028638,
                -2.23241470618032,
                -0.26897504396615735,
                -0.4654857590263496,
                -1.4404636500820795
            ]
        },
        {
            "positions": [
                -0.0167572418277033,
                -2.0525966812450362,
                -2.20356131902783,
                -0.4172367791190208,
                -0.5465631118592962,
                -1.5582145596649764
            ]
        },
        {
            "positions": [
                -0.01809993331058231,
                -2.058279918687209,
                -2.1747079318753406,
                -0.5654985142718845,
                -0.627640464692243,
                -1.6759654692478734
            ]
        },
        {
            "positions": [
                -0.01944262479346132,
                -2.0639631561293816,
                -2.1458545447228508,
                -0.7137602494247481,
                -0.7087178175251897,
                -1.7937163788307704
            ]
        },
        {
            "positions": [
                -0.020785316276340327,
                -2.0696463935715546,
                -2.1170011575703613,
                -0.8620219845776114,
                -0.7897951703581362,
                -1.911467288413667
            ]
        },
        {
            "positions": [
                -0.02212800775921934,
                -2.075329631013727,
                -2.0881477704178715,
                -1.0102837197304755,
                -0.8708725231910829,
                -2.0292181979965638
            ]
        },
        {
            "positions": [
                -0.02347069924209835,
                -2.0810128684558995,
                -2.059294383265382,
                -1.1585454548833392,
                -0.9519498760240296,
                -2.1469691075794612
            ]
        },
        {
            "positions": [
                -0.024813390724977357,
                -2.0866961058980724,
                -2.030440996112892,
                -1.3068071900362024,
                -1.0330272288569762,
                -2.2647200171623574
            ]
        },
        {
            "positions": [
                -0.026156082207856368,
                -2.092379343340245,
                -2.0015876089604028,
                -1.455068925189066,
                -1.1141045816899227,
                -2.3824709267452544
            ]
        },
        {
            "positions": [
                -0.02749877369073538,
                -2.098062580782418,
                -1.972734221807913,
                -1.6033306603419297,
                -1.1951819345228696,
                -2.5002218363281514
            ]
        },
        {
            "positions": [
                -0.028841465173614387,
                -2.1037458182245903,
                -1.9438808346554235,
                -1.751592395494793,
                -1.276259287355816,
                -2.6179727459110476
            ]
        },
        {
            "positions": [
                -0.030184156656493398,
                -2.109429055666763,
                -1.9150274475029339,
                -1.899854130647657,
                -1.357336640188763,
                -2.7357236554939446
            ]
        },
        {
            "positions": [
                -0.03152684813937241,
                -2.1151122931089357,
                -1.8861740603504442,
                -2.0481158658005207,
                -1.4384139930217095,
                -2.8534745650768416
            ]
        },
        {
            "positions": [
                -0.03286953962225142,
                -2.1207955305511086,
                -1.8573206731979546,
                -2.196377600953384,
                -1.519491345854656,
                -2.9712254746597386
            ]
        },
        {
            "positions": [
                -0.03421223110513043,
                -2.126478767993281,
                -1.828467286045465,
                -2.3446393361062476,
                -1.6005686986876029,
                -3.088976384242635
            ]
        }
    ]
}