{
    "goal": {
        "global_pose": {
            "orientation": {
                "w": 0.7047431468963623,
                "x": -0.7094548344612122,
                "y": 0.0024358443915843964,
                "z": -0.0022348060738295317
            },
            "position": {
                "x": 0.6094750761985779,
                "y": 0.3671506643295288,
                "z": 0.19426114857196808
            }
        },
        "name": "move_to_magneteinheit_A"
    },
    "id": "SBL_move_to_magneteinheit_A_15",
    "joint_names": [
        "shoulder_pan_joint",
        "shoulder_lift_joint",
        "elbow_joint",
        "wrist_1_joint",
        "wrist_2_joint",
        "wrist_3_joint"
    ],
    "metrics": {
        "cart_traj_len": 3.482938660140812,
        "distance_elbow_joint": 3.8954714705811364,
        "distance_shoulder_lift_joint": 1.3295114405054342,
        "distance_shoulder_pan_joint": 4.518541028335276,
        "distance_wrist_1_joint": 1.1034750870128005,
        "distance_wrist_2_joint": 1.6904974730634543,
        "distance_wrist_3_joint": 3.5969142284945343,
        "smoothness": 0.3026661696814098,
        "time": 0.336918098,
        "traj_len": 4.016766202804518,
        "weighted_distance": 5.110989311773011
    },
    "planner": "SBL",
    "start": {
        "state": {
            "elbow_joint": -1.9196185241190666,
            "shoulder_lift_joint": -1.2443396400964142,
            "shoulder_pan_joint": 2.6996025414629847,
            "wrist_1_joint": -1.5485510000780065,
            "wrist_2_joint": -1.5709468930060704,
            "wrist_3_joint": 0.4420197071253992
        }
    },
    "waypoints": [
        {
            "positions": [
                2.6996025414629847,
                -1.2443396400964142,
                -1.9196185241190666,
                -1.5485510000780065,
                -1.5709468930060704,
                0.4420197071253992
            ]
        },
        {
            "positions": [
                2.595260243947737,
                -1.2623863020393606,
                -1.822303272237209,
                -1.5215087117134147,
                -1.532745332037661,
                0.3419563724615062
            ]
        },
        {
            "positions": [
                2.490917946432489,
                -1.280432963982307,
                -1.7249880203553511,
                -1.4944664233488227,
                -1.4945437710692517,
                0.24189303779761318
            ]
        },
        {
            "positions": [
                2.386575648917241,
                -1.2984796259252533,
                -1.6276727684734933,
                -1.467424134984231,
                -1.4563422101008423,
                0.14182970313372012
            ]
        },
        {
            "positions": [
                2.282233351401993,
                -1.3165262878681998,
                -1.5303575165916357,
                -1.440381846619639,
                -1.418140649132433,
                0.041766368469827175
            ]
        },
        {
            "positions": [
                2.177891053886745,
                -1.3345729498111463,
                -1.4330422647097778,
                -1.4133395582550472,
                -1.3799390881640237,
                -0.05829696619406588
            ]
        },
        {
            "positions": [
                2.073548756371497,
                -1.3526196117540927,
                -1.33572701282792,
                -1.3862972698904552,
                -1.3417375271956142,
                -0.15836030085795894
            ]
        },
        {
            "positions": [
                1.9692064588562492,
                -1.3706662736970392,
                -1.2384117609460623,
                -1.3592549815258634,
                -1.303535966227205,
                -0.25842363552185177
            ]
        },
        {
            "positions": [
                1.8648641613410013,
                -1.3887129356399857,
                -1.1410965090642047,
                -1.3322126931612717,
                -1.2653344052587956,
                -0.3584869701857448
            ]
        },
        {
            "positions": [
                1.7605218638257534,
                -1.406759597582932,
                -1.0437812571823468,
                -1.3051704047966797,
                -1.2271328442903864,
                -0.4585503048496379
            ]
        },
        {
            "positions": [
                1.6561795663105054,
                -1.4248062595258784,
                -0.9464660053004891,
                -1.2781281164320877,
                -1.188931283321977,
                -0.5586136395135309
            ]
        },
        {
            "positions": [
                1.5518372687952575,
                -1.4428529214688248,
                -0.8491507534186313,
                -1.251085828067496,
                -1.1507297223535677,
                -0.658676974177424
            ]
        },
        {
            "positions": [
                1.4474949712800096,
                -1.4608995834117713,
                -0.7518355015367735,
                -1.2240435397029041,
                -1.1125281613851583,
                -0.758740308841317
            ]
        },
        {
            "positions": [
                1.3431526737647617,
                -1.4789462453547177,
                -0.6545202496549161,
                -1.1970012513383121,
                -1.0743266004167489,
                -0.8588036435052099
            ]
        },
        {
            "positions": [
                1.2388103762495137,
                -1.4969929072976642,
                -0.5572049977730582,
                -1.1699589629737204,
                -1.0361250394483397,
                -0.9588669781691027
            ]
        },
        {
            "positions": [
                1.1344680787342658,
                -1.5150395692406105,
                -0.45988974589120035,
                -1.1429166746091286,
                -0.9979234784799303,
                -1.0589303128329957
            ]
        },
        {
            "positions": [
                1.0301257812190179,
                -1.533086231183557,
                -0.3625744940093427,
                -1.1158743862445366,
                -0.9597219175115209,
                -1.1589936474968887
            ]
        },
        {
            "positions": [
                0.92578348370377,
                -1.5511328931265034,
                -0.26525924212748486,
                -1.0888320978799446,
                -0.9215203565431116,
                -1.2590569821607818
            ]
        },
        {
            "positions": [
                0.821441186188522,
                -1.5691795550694498,
                -0.167943990245627,
                -1.0617898095153528,
                -0.8833187955747023,
                -1.3591203168246748
            ]
        },
        {
            "positions": [
                0.7170988886732741,
                -1.5872262170123963,
                -0.07062873836376937,
                -1.034747521150761,
                -0.8451172346062928,
                -1.4591836514885679
            ]
        },
        {
            "positions": [
                0.6127565911580262,
                -1.6052728789553425,
                0.026686513518088484,
                -1.007705232786169,
                -0.8069156736378835,
                -1.559246986152461
            ]
        },
        {
            "positions": [
                0.5084142936427782,
                -1.623319540898289,
                0.12400176539994634,
                -0.9806629444215772,
                -0.7687141126694742,
                -1.659310320816354
            ]
        },
        {
            "positions": [
                0.4040719961275303,
                -1.6413662028412355,
                0.22131701728180397,
                -0.9536206560569853,
                -0.7305125517010649,
                -1.759373655480247
            ]
        },
        {
            "positions": [
                0.2997296986122824,
                -1.659412864784182,
                0.3186322691636616,
                -0.9265783676923934,
                -0.6923109907326555,
                -1.85943699014414
            ]
        },
        {
            "positions": [
                0.19538740109703445,
                -1.6774595267271284,
                0.4159475210455197,
                -0.8995360793278016,
                -0.6541094297642461,
                -1.9595003248080332
            ]
        },
        {
            "positions": [
                0.09104510358178652,
                -1.6955061886700749,
                0.5132627729273773,
                -0.8724937909632098,
                -0.6159078687958368,
                -2.0595636594719258
            ]
        },
        {
            "positions": [
                -0.013297193933461404,
                -1.713552850613021,
                0.6105780248092345,
                -0.8454515025986179,
                -0.5777063078274276,
                -2.159626994135819
            ]
        },
        {
            "positions": [
                -0.11763949144870933,
                -1.7315995125559676,
                0.7078932766910926,
                -0.8184092142340261,
                -0.5395047468590182,
                -2.2596903287997114
            ]
        },
        {
            "positions": [
                -0.22198178896395726,
                -1.749646174498914,
                0.8052085285729502,
                -0.7913669258694342,
                -0.501303185890609,
                -2.3597536634636045
            ]
        },
        {
            "positions": [
                -0.3263240864792052,
                -1.7676928364418605,
                0.9025237804548079,
                -0.7643246375048424,
                -0.46310162492219953,
                -2.4598169981274975
            ]
        },
        {
            "positions": [
                -0.4306663839944531,
                -1.7857394983848067,
                0.9998390323366659,
                -0.7372823491402505,
                -0.4249000639537903,
                -2.5598803327913906
            ]
        },
        {
            "positions": [
                -0.535008681509701,
                -1.8037861603277534,
                1.0971542842185236,
                -0.7102400607756586,
                -0.3866985029853809,
                -2.6599436674552837
            ]
        },
        {
            "positions": [
                -0.639350979024949,
                -1.8218328222706996,
                1.1944695361003812,
                -0.6831977724110667,
                -0.34849694201697146,
                -2.7600070021191767
            ]
        },
        {
            "positions": [
                -0.7436932765401969,
                -1.839879484213646,
                1.2917847879822393,
                -0.6561554840464748,
                -0.31029538104856225,
                -2.8600703367830698
            ]
        },
        {
            "positions": [
                -0.848035574055445,
                -1.8579261461565926,
                1.389100039864097,
                -0.629113195681883,
                -0.2720938200801527,
                -2.960133671446963
            ]
        },
        {
            "positions": [
                -0.7266727099533393,
                -1.7684355293509355,
                1.4624441531888435,
                -0.6521178560089675,
                -0.2231382700629605,
                -2.9844787776872344
            ]
        },
        {
            "positions": [
                -0.6053098458512336,
                -1.6789449125452787,
                1.5357882665135902,
                -0.6751225163360522,
                -0.17418272004576832,
                -3.008823883927506
            ]
        },
        {
            "positions": [
                -0.48394698174912787,
                -1.5894542957396216,
                1.6091323798383368,
                -0.6981271766631368,
                -0.12522717002857614,
                -3.0331689901677774
            ]
        },
        {
            "positions": [
                -0.36258411764702214,
                -1.4999636789339648,
                1.6824764931630836,
                -0.7211318369902215,
                -0.07627162001138393,
                -3.057514096408049
            ]
        },
        {
            "positions": [
                -0.24122125354491641,
                -1.4104730621283077,
                1.7558206064878301,
                -0.7441364973173061,
                -0.027316069994191727,
                -3.0818592026483205
            ]
        },
        {
            "positions": [
                -0.11985838944281069,
                -1.3209824453226506,
                1.8291647198125767,
                -0.7671411576443907,
                0.021639480023000424,
                -3.106204308888592
            ]
        },
        {
            "positions": [
                0.0015044746592950409,
                -1.2314918285169938,
                1.9025088331373232,
                -0.7901458179714753,
                0.07059503004019263,
                -3.1305494151288635
            ]
        },
        {
            "positions": [
                0.12286733876140078,
                -1.1420012117113367,
                1.97585294646207,
                -0.81315047829856,
                0.11955058005738481,
                -3.154894521369135
            ]
        }
    ]
}