{
    "goal": {
        "global_pose": {
            "orientation": {
                "w": 0.7031023480610252,
                "x": -0.7110244013736278,
                "y": 0.0077485991402295624,
                "z": 0.005598929693374583
            },
            "position": {
                "x": -0.8841497679147869,
                "y": 0.44412534475326537,
                "z": 0.3711530566215515
            }
        },
        "name": "move_to_auspresseinheit_D"
    },
    "id": "SBL_move_to_auspresseinheit_D_125",
    "joint_names": [
        "shoulder_pan_joint",
        "shoulder_lift_joint",
        "elbow_joint",
        "wrist_1_joint",
        "wrist_2_joint",
        "wrist_3_joint"
    ],
    "metrics": {
        "cart_traj_len": 0.3454195496415949,
        "distance_elbow_joint": 0.6743539159726843,
        "distance_shoulder_lift_joint": 0.14091282511966208,
        "distance_shoulder_pan_joint": 0.13380434509553657,
        "distance_wrist_1_joint": 0.641267330205995,
        "distance_wrist_2_joint": 1.4392541393116693,
        "distance_wrist_3_joint": 0.09190107622903376,
        "smoothness": 0.0,
        "time": 0.20261348599999998,
        "traj_len": 1.7667749239602029,
        "weighted_distance": 2.320736360276693
    },
    "planner": "SBL",
    "start": {
        "state": {
            "elbow_joint": -1.8275523626775212,
            "shoulder_lift_joint": -2.126789852344167,
            "shoulder_pan_joint": -0.03513704404078235,
            "wrist_1_joint": -2.347782403156801,
            "wrist_2_joint": -1.6058999987535132,
            "wrist_3_joint": -3.0880379163319196
        }
    },
    "waypoints": [
        {
            "positions": [
                -0.03513704404078235,
                -2.126789852344167,
                -1.8275523626775212,
                -2.347782403156801,
                -1.6058999987535132,
                -3.0880379163319196
            ]
        },
        {
            "positions": [
                -0.05186258717772442,
                -2.1444039554841248,
                -1.7432581231809356,
                -2.4279408194325502,
                -1.4259932313395545,
                -3.07655028180329
            ]
        },
        {
            "positions": [
                -0.06858813031466648,
                -2.1620180586240823,
                -1.65896388368435,
                -2.5080992357082996,
                -1.2460864639255957,
                -3.065062647274661
            ]
        },
        {
            "positions": [
                -0.08531367345160856,
                -2.17963216176404,
                -1.5746696441877646,
                -2.588257651984049,
                -1.0661796965116372,
                -3.053575012746032
            ]
        },
        {
            "positions": [
                -0.10203921658855064,
                -2.197246264903998,
                -1.490375404691179,
                -2.6684160682597984,
                -0.8862729290976785,
                -3.0420873782174027
            ]
        },
        {
            "positions": [
                -0.11876475972549272,
                -2.2148603680439556,
                -1.4060811651945935,
                -2.7485744845355478,
                -0.7063661616837198,
                -3.0305997436887733
            ]
        },
        {
            "positions": [
                -0.13549030286243477,
                -2.2324744711839135,
                -1.321786925698008,
                -2.828732900811297,
                -0.5264593942697613,
                -3.0191121091601443
            ]
        },
        {
            "positions": [
                -0.15221584599937685,
                -2.250088574323871,
                -1.2374926862014224,
                -2.9088913170870465,
                -0.34655262685580257,
                -3.0076244746315153
            ]
        },
        {
            "positions": [
                -0.16894138913631893,
                -2.267702677463829,
                -1.1531984467048368,
                -2.989049733362796,
                -0.16664585944184387,
                -2.996136840102886
            ]
        }
    ]
}