{
    "goal": {
        "global_pose": {
            "orientation": {
                "w": 0.005598929693374612,
                "x": 0.007748599140229565,
                "y": 0.7110244013736278,
                "z": -0.7031023480610252
            },
            "position": {
                "x": -0.8858502320852131,
                "y": -0.7141253447532654,
                "z": 0.3711530566215515
            }
        },
        "name": "move_to_auspresseinheit_C"
    },
    "id": "SBL_move_to_auspresseinheit_C_31",
    "joint_names": [
        "shoulder_pan_joint",
        "shoulder_lift_joint",
        "elbow_joint",
        "wrist_1_joint",
        "wrist_2_joint",
        "wrist_3_joint"
    ],
    "metrics": {
        "cart_traj_len": 0.4940641953116359,
        "distance_elbow_joint": 1.0196585187989284,
        "distance_shoulder_lift_joint": 0.33442765175402356,
        "distance_shoulder_pan_joint": 0.25529575461309095,
        "distance_wrist_1_joint": 0.7104993575881517,
        "distance_wrist_2_joint": 1.3195555539324026,
        "distance_wrist_3_joint": 0.08716638308577807,
        "smoothness": 3.2297397080004555e-16,
        "time": 0.229929407,
        "traj_len": 1.9304411982167122,
        "weighted_distance": 2.4353625802874785
    },
    "planner": "SBL",
    "start": {
        "state": {
            "elbow_joint": 1.7527959577737207,
            "shoulder_lift_joint": -0.9740617694225068,
            "shoulder_pan_joint": -2.967991417825858,
            "wrist_1_joint": -0.759517768980727,
            "wrist_2_joint": 1.7443932448377408,
            "wrist_3_joint": -3.0840537646736568
        }
    },
    "waypoints": [
        {
            "positions": [
                -2.967991417825858,
                -0.9740617694225068,
                1.7527959577737207,
                -0.759517768980727,
                1.7443932448377408,
                -3.0840537646736568
            ]
        },
        {
            "positions": [
                -2.942461842364549,
                -0.9406190042471044,
                1.6508301058938277,
                -0.6884678332219119,
                1.6124376894445005,
                -3.0927704029822345
            ]
        },
        {
            "positions": [
                -2.9169322669032396,
                -0.9071762390717021,
                1.548864254013935,
                -0.6174178974630966,
                1.4804821340512602,
                -3.101487041290812
            ]
        },
        {
            "positions": [
                -2.8914026914419306,
                -0.8737334738962997,
                1.446898402134042,
                -0.5463679617042815,
                1.34852657865802,
                -3.1102036795993904
            ]
        },
        {
            "positions": [
                -2.8658731159806217,
                -0.8402907087208973,
                1.3449325502541494,
                -0.4753180259454663,
                1.2165710232647797,
                -3.118920317907968
            ]
        },
        {
            "positions": [
                -2.8403435405193127,
                -0.8068479435454949,
                1.2429666983742564,
                -0.4042680901866511,
                1.0846154678715396,
                -3.127636956216546
            ]
        },
        {
            "positions": [
                -2.8148139650580033,
                -0.7734051783700926,
                1.1410008464943635,
                -0.3332181544278359,
                0.9526599124782993,
                -3.1363535945251235
            ]
        },
        {
            "positions": [
                -2.7892843895966943,
                -0.7399624131946902,
                1.0390349946144708,
                -0.2621682186690208,
                0.8207043570850591,
                -3.1450702328337012
            ]
        },
        {
            "positions": [
                -2.7637548141353854,
                -0.7065196480192879,
                0.9370691427345779,
                -0.1911182829102056,
                0.6887488016918186,
                -3.1537868711422794
            ]
        },
        {
            "positions": [
                -2.738225238674076,
                -0.6730768828438856,
                0.835103290854685,
                -0.12006834715139036,
                0.5567932462985785,
                -3.162503509450857
            ]
        },
        {
            "positions": [
                -2.712695663212767,
                -0.6396341176684832,
                0.7331374389747921,
                -0.04901841139257518,
                0.42483769090533824,
                -3.171220147759435
            ]
        }
    ]
}