{
    "goal": {
        "global_pose": {
            "orientation": {
                "w": 0.7031023480610252,
                "x": -0.7110244013736278,
                "y": 0.0077485991402295624,
                "z": 0.005598929693374583
            },
            "position": {
                "x": -0.8841497679147869,
                "y": 0.44412534475326537,
                "z": 0.3711530566215515
            }
        },
        "name": "move_to_auspresseinheit_D"
    },
    "id": "SBL_move_to_auspresseinheit_D_117",
    "joint_names": [
        "shoulder_pan_joint",
        "shoulder_lift_joint",
        "elbow_joint",
        "wrist_1_joint",
        "wrist_2_joint",
        "wrist_3_joint"
    ],
    "metrics": {
        "cart_traj_len": 0.3430029642344413,
        "distance_elbow_joint": 0.6444946100920286,
        "distance_shoulder_lift_joint": 0.12542515011598088,
        "distance_shoulder_pan_joint": 0.1338778057098116,
        "distance_wrist_1_joint": 0.5512507839892575,
        "distance_wrist_2_joint": 1.4415973937128426,
        "distance_wrist_3_joint": 0.01843721000692433,
        "smoothness": 5.921189463382907e-16,
        "time": 0.182196117,
        "traj_len": 1.7073614010006335,
        "weighted_distance": 2.2236918741909353
    },
    "planner": "SBL",
    "start": {
        "state": {
            "elbow_joint": -1.8275523626775212,
            "shoulder_lift_joint": -2.126789852344167,
            "shoulder_pan_joint": -0.03513704404078235,
            "wrist_1_joint": -2.347782403156801,
            "wrist_2_joint": -1.6058999987535132,
            "wrist_3_joint": -3.0880379163319196
        }
    },
    "waypoints": [
        {
            "positions": [
                -0.03513704404078235,
                -2.126789852344167,
                -1.8275523626775212,
                -2.347782403156801,
                -1.6058999987535132,
                -3.0880379163319196
            ]
        },
        {
            "positions": [
                -0.0518717697545088,
                -2.1424679961086643,
                -1.7469905364160176,
                -2.416688751155458,
                -1.4257003245394078,
                -3.0857332650810543
            ]
        },
        {
            "positions": [
                -0.06860649546823525,
                -2.1581461398731623,
                -1.666428710154514,
                -2.485595099154115,
                -1.2455006503253025,
                -3.0834286138301885
            ]
        },
        {
            "positions": [
                -0.08534122118196169,
                -2.17382428363766,
                -1.5858668838930106,
                -2.5545014471527723,
                -1.0653009761111973,
                -3.0811239625793228
            ]
        },
        {
            "positions": [
                -0.10207594689568814,
                -2.1895024274021573,
                -1.505305057631507,
                -2.6234077951514294,
                -0.8851013018970919,
                -3.0788193113284574
            ]
        },
        {
            "positions": [
                -0.11881067260941458,
                -2.205180571166655,
                -1.4247432313700035,
                -2.692314143150087,
                -0.7049016276829866,
                -3.076514660077592
            ]
        },
        {
            "positions": [
                -0.13554539832314105,
                -2.2208587149311523,
                -1.3441814051084997,
                -2.761220491148744,
                -0.5247019534688813,
                -3.0742100088267263
            ]
        },
        {
            "positions": [
                -0.1522801240368675,
                -2.23653685869565,
                -1.2636195788469962,
                -2.8301268391474013,
                -0.34450227925477606,
                -3.0719053575758606
            ]
        },
        {
            "positions": [
                -0.16901484975059394,
                -2.2522150024601477,
                -1.1830577525854926,
                -2.8990331871460584,
                -0.16430260504067068,
                -3.0696007063249953
            ]
        }
    ]
}