{
    "goal": {
        "global_pose": {
            "orientation": {
                "w": 0.7047431468963623,
                "x": -0.7094548344612122,
                "y": 0.0024358443915843964,
                "z": -0.0022348060738295317
            },
            "position": {
                "x": 0.6094750761985779,
                "y": 0.3671506643295288,
                "z": 0.19426114857196808
            }
        },
        "name": "move_to_magneteinheit_A"
    },
    "id": "SBL_move_to_magneteinheit_A_85",
    "joint_names": [
        "shoulder_pan_joint",
        "shoulder_lift_joint",
        "elbow_joint",
        "wrist_1_joint",
        "wrist_2_joint",
        "wrist_3_joint"
    ],
    "metrics": {
        "cart_traj_len": 3.4139176017101467,
        "distance_elbow_joint": 3.890376858164069,
        "distance_shoulder_lift_joint": 0.30117671508550603,
        "distance_shoulder_pan_joint": 2.6820856339190033,
        "distance_wrist_1_joint": 1.0330432055708059,
        "distance_wrist_2_joint": 1.7897199623545021,
        "distance_wrist_3_joint": 2.6391897164177474,
        "smoothness": 0.11527021356891842,
        "time": 0.11872585399999999,
        "traj_len": 3.5122061573193037,
        "weighted_distance": 4.520700685985795
    },
    "planner": "SBL",
    "start": {
        "state": {
            "elbow_joint": -1.9196185241190666,
            "shoulder_lift_joint": -1.2443396400964142,
            "shoulder_pan_joint": 2.6996025414629847,
            "wrist_1_joint": -1.5485510000780065,
            "wrist_2_joint": -1.5709468930060704,
            "wrist_3_joint": 0.4420197071253992
        }
    },
    "waypoints": [
        {
            "positions": [
                2.6996025414629847,
                -1.2443396400964142,
                -1.9196185241190666,
                -1.5485510000780065,
                -1.5709468930060704,
                0.4420197071253992
            ]
        },
        {
            "positions": [
                2.5818024936504274,
                -1.2495106207402815,
                -1.839487639932862,
                -1.5010037595139512,
                -1.4843074433181769,
                0.4844841427576457
            ]
        },
        {
            "positions": [
                2.4640024458378695,
                -1.254681601384149,
                -1.759356755746657,
                -1.4534565189498958,
                -1.3976679936302834,
                0.5269485783898922
            ]
        },
        {
            "positions": [
                2.346202398025312,
                -1.2598525820280164,
                -1.679225871560452,
                -1.4059092783858405,
                -1.31102854394239,
                0.5694130140221387
            ]
        },
        {
            "positions": [
                2.228402350212755,
                -1.2650235626718838,
                -1.5990949873742473,
                -1.3583620378217849,
                -1.2243890942544966,
                0.6118774496543853
            ]
        },
        {
            "positions": [
                2.1106023024001974,
                -1.2701945433157513,
                -1.5189641031880425,
                -1.3108147972577295,
                -1.137749644566603,
                0.6543418852866318
            ]
        },
        {
            "positions": [
                1.9928022545876396,
                -1.2753655239596187,
                -1.4388332190018376,
                -1.2632675566936742,
                -1.0511101948787096,
                0.6968063209188784
            ]
        },
        {
            "positions": [
                1.8750022067750822,
                -1.280536504603486,
                -1.3587023348156326,
                -1.2157203161296188,
                -0.9644707451908161,
                0.7392707565511248
            ]
        },
        {
            "positions": [
                1.7572021589625246,
                -1.2857074852473536,
                -1.278571450629428,
                -1.1681730755655635,
                -0.8778312955029226,
                0.7817351921833713
            ]
        },
        {
            "positions": [
                1.6394021111499673,
                -1.290878465891221,
                -1.1984405664432232,
                -1.1206258350015081,
                -0.7911918458150291,
                0.8241996278156178
            ]
        },
        {
            "positions": [
                1.5216020633374097,
                -1.2960494465350882,
                -1.1183096822570182,
                -1.0730785944374528,
                -0.7045523961271357,
                0.8666640634478644
            ]
        },
        {
            "positions": [
                1.403802015524852,
                -1.3012204271789556,
                -1.0381787980708133,
                -1.0255313538733972,
                -0.6179129464392421,
                0.909128499080111
            ]
        },
        {
            "positions": [
                1.2860019677122947,
                -1.3063914078228231,
                -0.9580479138846085,
                -0.977984113309342,
                -0.5312734967513488,
                0.9515929347123575
            ]
        },
        {
            "positions": [
                1.168201919899737,
                -1.3115623884666905,
                -0.8779170296984036,
                -0.9304368727452865,
                -0.4446340470634551,
                0.9940573703446041
            ]
        },
        {
            "positions": [
                1.0504018720871797,
                -1.3167333691105578,
                -0.7977861455121988,
                -0.8828896321812313,
                -0.35799459737556183,
                1.0365218059768506
            ]
        },
        {
            "positions": [
                0.9326018242746219,
                -1.3219043497544254,
                -0.7176552613259939,
                -0.8353423916171758,
                -0.2713551476876681,
                1.0789862416090972
            ]
        },
        {
            "positions": [
                0.8148017764620645,
                -1.3270753303982927,
                -0.6375243771397892,
                -0.7877951510531205,
                -0.18471569799977483,
                1.1214506772413435
            ]
        },
        {
            "positions": [
                0.6970017286495072,
                -1.33224631104216,
                -0.5573934929535842,
                -0.740247910489065,
                -0.09807624831188133,
                1.1639151128735903
            ]
        },
        {
            "positions": [
                0.5792016808369498,
                -1.3374172916860276,
                -0.47726260876737947,
                -0.6927006699250098,
                -0.011436798623987832,
                1.2063795485058366
            ]
        },
        {
            "positions": [
                0.4614016330243921,
                -1.342588272329895,
                -0.3971317245811746,
                -0.6451534293609543,
                0.07520265106390563,
                1.2488439841380832
            ]
        },
        {
            "positions": [
                0.4287619042024999,
                -1.3264847687914225,
                -0.22734012709461382,
                -0.6501982678818365,
                0.08354161111968463,
                1.381412462714609
            ]
        },
        {
            "positions": [
                0.39612217538060773,
                -1.3103812652529498,
                -0.05754852960805301,
                -0.6552431064027188,
                0.09188057117546362,
                1.5139809412911347
            ]
        },
        {
            "positions": [
                0.36348244655871553,
                -1.2942777617144774,
                0.1122430678785078,
                -0.660287944923601,
                0.10021953123124262,
                1.6465494198676605
            ]
        },
        {
            "positions": [
                0.3308427177368234,
                -1.2781742581760047,
                0.2820346653650686,
                -0.6653327834444832,
                0.10855849128702162,
                1.779117898444186
            ]
        },
        {
            "positions": [
                0.29820298891493113,
                -1.2620707546375323,
                0.4518262628516294,
                -0.6703776219653654,
                0.11689745134280063,
                1.911686377020712
            ]
        },
        {
            "positions": [
                0.265563260093039,
                -1.2459672510990596,
                0.6216178603381902,
                -0.6754224604862478,
                0.12523641139857963,
                2.0442548555972375
            ]
        },
        {
            "positions": [
                0.2329235312711468,
                -1.2298637475605871,
                0.7914094578247511,
                -0.68046729900713,
                0.13357537145435863,
                2.1768233341737635
            ]
        },
        {
            "positions": [
                0.20028380244925464,
                -1.2137602440221147,
                0.9612010553113118,
                -0.6855121375280122,
                0.1419143315101376,
                2.309391812750289
            ]
        },
        {
            "positions": [
                0.16764407362736244,
                -1.197656740483642,
                1.1309926527978726,
                -0.6905569760488944,
                0.15025329156591663,
                2.441960291326815
            ]
        },
        {
            "positions": [
                0.13500434480547024,
                -1.1815532369451696,
                1.3007842502844333,
                -0.6956018145697767,
                0.15859225162169563,
                2.5745287699033406
            ]
        },
        {
            "positions": [
                0.1023646159835781,
                -1.1654497334066969,
                1.470575847770994,
                -0.7006466530906589,
                0.16693121167747463,
                2.707097248479866
            ]
        },
        {
            "positions": [
                0.06972488716168587,
                -1.1493462298682244,
                1.6403674452575552,
                -0.7056914916115411,
                0.17527017173325363,
                2.839665727056392
            ]
        },
        {
            "positions": [
                0.0958288769705376,
                -1.1445032096730472,
                1.805562889651279,
                -0.7402452779131246,
                0.15351872292566499,
                2.9604375752997694
            ]
        },
        {
            "positions": [
                0.12193286677938935,
                -1.1396601894778697,
                1.9707583340450028,
                -0.7747990642147081,
                0.13176727411807637,
                3.081209423543146
            ]
        }
    ]
}