{
    "goal": {
        "global_pose": {
            "orientation": {
                "w": -0.00223480608172531,
                "x": 0.0024358444001904467,
                "y": 0.7094548369677653,
                "z": -0.704743149386269
            },
            "position": {
                "x": 0.6205249238014221,
                "y": -0.6371506643295288,
                "z": 0.19426114857196808
            }
        },
        "name": "move_to_magneteinheit_B"
    },
    "id": "SBL_move_to_magneteinheit_B_61",
    "joint_names": [
        "shoulder_pan_joint",
        "shoulder_lift_joint",
        "elbow_joint",
        "wrist_1_joint",
        "wrist_2_joint",
        "wrist_3_joint"
    ],
    "metrics": {
        "cart_traj_len": 3.153233543801316,
        "distance_elbow_joint": 4.591561363014128,
        "distance_shoulder_lift_joint": 1.0577398655180255,
        "distance_shoulder_pan_joint": 2.389559554412787,
        "distance_wrist_1_joint": 2.113738671484585,
        "distance_wrist_2_joint": 1.4089092352194488,
        "distance_wrist_3_joint": 0.6900530426833861,
        "smoothness": 0.5917127819997098,
        "time": 0.686002062,
        "traj_len": 3.500223097508551,
        "weighted_distance": 4.141776880084581
    },
    "planner": "SBL",
    "start": {
        "state": {
            "elbow_joint": 2.6216224122426386,
            "shoulder_lift_joint": -1.4174107377796124,
            "shoulder_pan_joint": 0.7066234856936794,
            "wrist_1_joint": 1.9546482284002225,
            "wrist_2_joint": -0.7096286983471962,
            "wrist_3_joint": 0.005740856962016249
        }
    },
    "waypoints": [
        {
            "positions": [
                0.7066234856936794,
                -1.4174107377796124,
                2.6216224122426386,
                1.9546482284002225,
                -0.7096286983471962,
                0.005740856962016249
            ]
        },
        {
            "positions": [
                0.6497806111678898,
                -1.450696495189392,
                2.6962346678475693,
                1.9289460207237692,
                -0.6438276137921558,
                -0.029366049455101483
            ]
        },
        {
            "positions": [
                0.5929377366421001,
                -1.4839822525991715,
                2.7708469234525,
                1.9032438130473157,
                -0.5780265292371154,
                -0.06447295587221921
            ]
        },
        {
            "positions": [
                0.5858099847685194,
                -1.5467185553253875,
                2.6481815162890925,
                1.820492352171667,
                -0.5695414020656744,
                0.03747218383855058
            ]
        },
        {
            "positions": [
                0.5786822328949386,
                -1.6094548580516035,
                2.525516109125685,
                1.7377408912960182,
                -0.5610562748942333,
                0.13941732354932038
            ]
        },
        {
            "positions": [
                0.5715544810213579,
                -1.6721911607778195,
                2.4028507019622776,
                1.6549894304203694,
                -0.5525711477227923,
                0.24136246326009014
            ]
        },
        {
            "positions": [
                0.6687009420040516,
                -1.7011991343979787,
                2.220422976188102,
                1.5955291982818676,
                -0.5580141836056183,
                0.23711303186743224
            ]
        },
        {
            "positions": [
                0.7658474029867453,
                -1.7302071080181376,
                2.037995250413926,
                1.536068966143366,
                -0.5634572194884444,
                0.23286360047477433
            ]
        },
        {
            "positions": [
                0.862993863969439,
                -1.7592150816382968,
                1.8555675246397505,
                1.4766087340048641,
                -0.5689002553712704,
                0.22861416908211643
            ]
        },
        {
            "positions": [
                0.9601403249521328,
                -1.788223055258456,
                1.6731397988655747,
                1.4171485018663625,
                -0.5743432912540964,
                0.22436473768945853
            ]
        },
        {
            "positions": [
                1.0572867859348265,
                -1.8172310288786149,
                1.490712073091399,
                1.3576882697278607,
                -0.5797863271369226,
                0.22011530629680062
            ]
        },
        {
            "positions": [
                1.15443324691752,
                -1.846239002498774,
                1.3082843473172234,
                1.298228037589359,
                -0.5852293630197486,
                0.21586587490414272
            ]
        },
        {
            "positions": [
                1.2515797079002138,
                -1.8752469761189332,
                1.1258566215430477,
                1.2387678054508573,
                -0.5906723989025746,
                0.21161644351148481
            ]
        },
        {
            "positions": [
                1.3487261688829075,
                -1.9042549497390922,
                0.9434288957688719,
                1.1793075733123555,
                -0.5961154347854007,
                0.2073670121188269
            ]
        },
        {
            "positions": [
                1.445872629865601,
                -1.9332629233592513,
                0.7610011699946964,
                1.1198473411738536,
                -0.6015584706682268,
                0.203117580726169
            ]
        },
        {
            "positions": [
                1.5430190908482948,
                -1.9622708969794105,
                0.5785734442205206,
                1.060387109035352,
                -0.6070015065510528,
                0.1988681493335111
            ]
        },
        {
            "positions": [
                1.6401655518309886,
                -1.9912788705995697,
                0.39614571844634483,
                1.0009268768968502,
                -0.6124445424338789,
                0.1946187179408532
            ]
        },
        {
            "positions": [
                1.7373120128136823,
                -2.0202868442197284,
                0.2137179926721693,
                0.9414666447583485,
                -0.6178875783167049,
                0.1903692865481953
            ]
        },
        {
            "positions": [
                1.834458473796376,
                -2.0492948178398875,
                0.0312902668979933,
                0.8820064126198468,
                -0.623330614199531,
                0.1861198551555374
            ]
        },
        {
            "positions": [
                1.9316049347790698,
                -2.0783027914600467,
                -0.15113745887618224,
                0.8225461804813451,
                -0.6287736500823571,
                0.18187042376287949
            ]
        },
        {
            "positions": [
                2.0287513957617636,
                -2.107310765080206,
                -0.3335651846503582,
                0.7630859483428433,
                -0.6342166859651831,
                0.17762099237022158
            ]
        },
        {
            "positions": [
                2.1258978567444573,
                -2.136318738700365,
                -0.5159929104245338,
                0.7036257162043417,
                -0.6396597218480091,
                0.17337156097756368
            ]
        },
        {
            "positions": [
                2.223044317727151,
                -2.165326712320524,
                -0.6984206361987098,
                0.6441654840658397,
                -0.6451027577308353,
                0.16912212958490577
            ]
        },
        {
            "positions": [
                2.3201907787098444,
                -2.1943346859406834,
                -0.8808483619728849,
                0.5847052519273381,
                -0.6505457936136613,
                0.16487269819224787
            ]
        },
        {
            "positions": [
                2.417337239692538,
                -2.223342659560842,
                -1.0632760877470608,
                0.5252450197888363,
                -0.6559888294964873,
                0.16062326679958996
            ]
        },
        {
            "positions": [
                2.514483700675232,
                -2.2523506331810013,
                -1.2457038135212364,
                0.4657847876503347,
                -0.6614318653793134,
                0.15637383540693206
            ]
        },
        {
            "positions": [
                2.6116301616579256,
                -2.2813586068011604,
                -1.4281315392954121,
                0.406324555511833,
                -0.6668749012621394,
                0.15212440401427416
            ]
        },
        {
            "positions": [
                2.6379763868939246,
                -2.30526102270859,
                -1.4737207954516742,
                0.47305827839989345,
                -0.5388223227304724,
                0.11703207664402013
            ]
        },
        {
            "positions": [
                2.6643226121299235,
                -2.3291634386160194,
                -1.5193100516079363,
                0.539792001287954,
                -0.4107697441988053,
                0.08193974927376611
            ]
        },
        {
            "positions": [
                2.690668837365922,
                -2.3530658545234493,
                -1.5648993077641982,
                0.6065257241760145,
                -0.2827171656671382,
                0.046847421903512085
            ]
        },
        {
            "positions": [
                2.717015062601921,
                -2.3769682704308788,
                -1.6104885639204602,
                0.6732594470640749,
                -0.15466458713547115,
                0.01175509453325807
            ]
        },
        {
            "positions": [
                2.74336128783792,
                -2.4008706863383082,
                -1.6560778200767223,
                0.7399931699521354,
                -0.026612008603804083,
                -0.023337232836995958
            ]
        },
        {
            "positions": [
                2.729276908415944,
                -2.425416269554998,
                -1.6711663940173314,
                0.8146131967131236,
                0.12972239562845328,
                -0.01978428602462054
            ]
        },
        {
            "positions": [
                2.69497722666498,
                -2.450283436426318,
                -1.671004626850114,
                0.8931763754105757,
                0.3001977127110058,
                0.003091297879069598
            ]
        },
        {
            "positions": [
                2.6606775449140163,
                -2.475150603297638,
                -1.6708428596828966,
                0.9717395541080278,
                0.4706730297935583,
                0.025966881782759736
            ]
        }
    ]
}