{
    "goal": {
        "global_pose": {
            "orientation": {
                "w": -0.4816463035849501,
                "x": 0.5182115481033762,
                "y": 0.4908360881923453,
                "z": -0.5084816262002911
            },
            "position": {
                "x": -0.8240239810943604,
                "y": 0.19912469901144506,
                "z": 0.16403168439865112
            }
        },
        "name": "move_to_storage_D"
    },
    "id": "SBL_move_to_storage_D_31",
    "joint_names": [
        "shoulder_pan_joint",
        "shoulder_lift_joint",
        "elbow_joint",
        "wrist_1_joint",
        "wrist_2_joint",
        "wrist_3_joint"
    ],
    "metrics": {
        "cart_traj_len": 0.544470279784381,
        "distance_elbow_joint": 0.6141261299365144,
        "distance_shoulder_lift_joint": 0.15188110856992187,
        "distance_shoulder_pan_joint": 0.15020520708212037,
        "distance_wrist_1_joint": 3.8242437931080753,
        "distance_wrist_2_joint": 1.7815060008015329,
        "distance_wrist_3_joint": 3.12306161386029,
        "smoothness": 0.05002470396210594,
        "time": 0.21685231900000002,
        "traj_len": 3.1056438709804532,
        "weighted_distance": 4.636474617097417
    },
    "planner": "SBL",
    "start": {
        "state": {
            "elbow_joint": -2.384821988534728,
            "shoulder_lift_joint": -2.2788054721415256,
            "shoulder_pan_joint": -0.1854694642142757,
            "wrist_1_joint": 1.4845938289331202,
            "wrist_2_joint": 0.17898776772866878,
            "wrist_3_joint": 0.037105688729662994
        }
    },
    "waypoints": [
        {
            "positions": [
                -0.1854694642142757,
                -2.2788054721415256,
                -2.384821988534728,
                1.4845938289331202,
                0.17898776772866878,
                0.037105688729662994
            ]
        },
        {
            "positions": [
                -0.1276055683291417,
                -2.219770675946296,
                -2.3997165219282133,
                1.3550732939297556,
                0.11539435961228964,
                0.010974128453363572
            ]
        },
        {
            "positions": [
                -0.06974167244400767,
                -2.1607358797510656,
                -2.414611055321699,
                1.2255527589263908,
                0.05180095149591049,
                -0.01515743182293585
            ]
        },
        {
            "positions": [
                -0.06824265438697062,
                -2.1592658138302196,
                -2.3892050960543276,
                1.0705439448785061,
                -0.020125969572297092,
                -0.14867040979283547
            ]
        },
        {
            "positions": [
                -0.06674363632993358,
                -2.1577957479093732,
                -2.363799136786956,
                0.9155351308306217,
                -0.09205289064050468,
                -0.28218338776273505
            ]
        },
        {
            "positions": [
                -0.06524461827289652,
                -2.1563256819885273,
                -2.3383931775195848,
                0.760526316782737,
                -0.1639798117087123,
                -0.41569636573263463
            ]
        },
        {
            "positions": [
                -0.06374560021585947,
                -2.154855616067681,
                -2.3129872182522133,
                0.6055175027348524,
                -0.23590673277691984,
                -0.5492093437025343
            ]
        },
        {
            "positions": [
                -0.06224658215882242,
                -2.153385550146835,
                -2.287581258984842,
                0.4505086886869678,
                -0.3078336538451274,
                -0.6827223216724339
            ]
        },
        {
            "positions": [
                -0.06074756410178537,
                -2.1519154842259884,
                -2.2621752997174704,
                0.2954998746390831,
                -0.37976057491333504,
                -0.8162352996423334
            ]
        },
        {
            "positions": [
                -0.059248546044748315,
                -2.1504454183051425,
                -2.236769340450099,
                0.14049106059119842,
                -0.4516874959815427,
                -0.9497482776122331
            ]
        },
        {
            "positions": [
                -0.05774952798771127,
                -2.1489753523842965,
                -2.2113633811827276,
                -0.014517753456686044,
                -0.5236144170497502,
                -1.0832612555821328
            ]
        },
        {
            "positions": [
                -0.05625050993067422,
                -2.14750528646345,
                -2.185957421915356,
                -0.16952656750457074,
                -0.5955413381179578,
                -1.2167742335520324
            ]
        },
        {
            "positions": [
                -0.05475149187363717,
                -2.146035220542604,
                -2.1605514626479847,
                -0.3245353815524552,
                -0.6674682591861654,
                -1.350287211521932
            ]
        },
        {
            "positions": [
                -0.053252473816600115,
                -2.1445651546217577,
                -2.1351455033806133,
                -0.4795441956003399,
                -0.739395180254373,
                -1.4838001894918318
            ]
        },
        {
            "positions": [
                -0.05175345575956307,
                -2.1430950887009117,
                -2.109739544113242,
                -0.6345530096482246,
                -0.8113221013225806,
                -1.6173131674617311
            ]
        },
        {
            "positions": [
                -0.05025443770252602,
                -2.1416250227800653,
                -2.0843335848458704,
                -0.7895618236961088,
                -0.8832490223907882,
                -1.7508261454316307
            ]
        },
        {
            "positions": [
                -0.04875541964548897,
                -2.1401549568592193,
                -2.058927625578499,
                -0.944570637743994,
                -0.9551759434589958,
                -1.8843391234015305
            ]
        },
        {
            "positions": [
                -0.04725640158845192,
                -2.138684890938373,
                -2.0335216663111275,
                -1.0995794517918782,
                -1.0271028645272033,
                -2.0178521013714303
            ]
        },
        {
            "positions": [
                -0.04575738353141487,
                -2.137214825017527,
                -2.008115707043756,
                -1.254588265839763,
                -1.0990297855954108,
                -2.1513650793413297
            ]
        },
        {
            "positions": [
                -0.04425836547437782,
                -2.135744759096681,
                -1.9827097477763846,
                -1.4095970798876476,
                -1.1709567066636184,
                -2.284878057311229
            ]
        },
        {
            "positions": [
                -0.04275934741734077,
                -2.1342746931758345,
                -1.957303788509013,
                -1.5646058939355323,
                -1.242883627731826,
                -2.418391035281129
            ]
        },
        {
            "positions": [
                -0.04126032936030372,
                -2.1328046272549885,
                -1.9318978292416416,
                -1.719614707983417,
                -1.3148105488000337,
                -2.5519040132510287
            ]
        },
        {
            "positions": [
                -0.03976131130326667,
                -2.131334561334142,
                -1.9064918699742701,
                -1.8746235220313012,
                -1.386737469868241,
                -2.685416991220928
            ]
        },
        {
            "positions": [
                -0.03826229324622962,
                -2.129864495413296,
                -1.8810859107068987,
                -2.029632336079186,
                -1.4586643909364487,
                -2.818929969190828
            ]
        },
        {
            "positions": [
                -0.03676327518919257,
                -2.1283944294924497,
                -1.8556799514395272,
                -2.184641150127071,
                -1.5305913120046564,
                -2.9524429471607276
            ]
        },
        {
            "positions": [
                -0.03526425713215552,
                -2.1269243635716037,
                -1.8302739921721558,
                -2.3396499641749555,
                -1.602518233072864,
                -3.085955925130627
            ]
        }
    ]
}