{
    "goal": {
        "global_pose": {
            "orientation": {
                "w": -0.4816463035849501,
                "x": 0.5182115481033762,
                "y": 0.4908360881923453,
                "z": -0.5084816262002911
            },
            "position": {
                "x": -0.8240239810943604,
                "y": -0.300875300988555,
                "z": 0.16403168439865112
            }
        },
        "name": "move_to_storage_C"
    },
    "id": "SBL_move_to_storage_C_68",
    "joint_names": [
        "shoulder_pan_joint",
        "shoulder_lift_joint",
        "elbow_joint",
        "wrist_1_joint",
        "wrist_2_joint",
        "wrist_3_joint"
    ],
    "metrics": {
        "cart_traj_len": 0.5769056841482477,
        "distance_elbow_joint": 0.26084969336894015,
        "distance_shoulder_lift_joint": 0.1907265267386291,
        "distance_shoulder_pan_joint": 0.49302260894581273,
        "distance_wrist_1_joint": 0.08076689120065994,
        "distance_wrist_2_joint": 1.0763693682317577,
        "distance_wrist_3_joint": 0.0736460881553227,
        "smoothness": 2.5376526478085547e-16,
        "time": 0.674137584,
        "traj_len": 1.4749173456980977,
        "weighted_distance": 1.865424780682455
    },
    "planner": "SBL",
    "start": {
        "state": {
            "elbow_joint": 2.010868314990456,
            "shoulder_lift_joint": -1.1634956873337592,
            "shoulder_pan_joint": -2.4736205022346125,
            "wrist_1_joint": -0.8367026794202681,
            "wrist_2_joint": 0.6746043897044499,
            "wrist_3_joint": -3.1496632123970403
        }
    },
    "waypoints": [
        {
            "positions": [
                -2.4736205022346125,
                -1.1634956873337592,
                2.010868314990456,
                -0.8367026794202681,
                0.6746043897044499,
                -3.1496632123970403
            ]
        },
        {
            "positions": [
                -2.5557909370589145,
                -1.131707932877321,
                1.9673933660956324,
                -0.8232415308868248,
                0.8539992844097428,
                -3.137388864371153
            ]
        },
        {
            "positions": [
                -2.637961371883217,
                -1.0999201784208827,
                1.923918417200809,
                -0.8097803823533815,
                1.0333941791150358,
                -3.125114516345266
            ]
        },
        {
            "positions": [
                -2.720131806707519,
                -1.0681324239644447,
                1.8804434683059856,
                -0.7963192338199381,
                1.2127890738203289,
                -3.112840168319379
            ]
        },
        {
            "positions": [
                -2.802302241531821,
                -1.0363446695080065,
                1.8369685194111625,
                -0.7828580852864948,
                1.3921839685256217,
                -3.100565820293492
            ]
        },
        {
            "positions": [
                -2.8844726763561233,
                -1.0045569150515683,
                1.793493570516339,
                -0.7693969367530515,
                1.5715788632309147,
                -3.0882914722676045
            ]
        },
        {
            "positions": [
                -2.9666431111804252,
                -0.9727691605951301,
                1.7500186216215157,
                -0.7559357882196082,
                1.7509737579362075,
                -3.0760171242417176
            ]
        }
    ]
}