{
    "goal": {
        "global_pose": {
            "orientation": {
                "w": 0.7047431468963623,
                "x": -0.7094548344612122,
                "y": 0.0024358443915843964,
                "z": -0.0022348060738295317
            },
            "position": {
                "x": 0.6094750761985779,
                "y": 0.3671506643295288,
                "z": 0.19426114857196808
            }
        },
        "name": "move_to_magneteinheit_A"
    },
    "id": "SBL_move_to_magneteinheit_A_105",
    "joint_names": [
        "shoulder_pan_joint",
        "shoulder_lift_joint",
        "elbow_joint",
        "wrist_1_joint",
        "wrist_2_joint",
        "wrist_3_joint"
    ],
    "metrics": {
        "cart_traj_len": 3.2738759361124226,
        "distance_elbow_joint": 3.8869474988556796,
        "distance_shoulder_lift_joint": 0.7386172289060522,
        "distance_shoulder_pan_joint": 2.8965927551606527,
        "distance_wrist_1_joint": 1.3702322320922908,
        "distance_wrist_2_joint": 1.7061153694954005,
        "distance_wrist_3_joint": 3.655288517180541,
        "smoothness": 0.08845425836673325,
        "time": 0.271864446,
        "traj_len": 3.775419659016811,
        "weighted_distance": 4.96394180441707
    },
    "planner": "SBL",
    "start": {
        "state": {
            "elbow_joint": -1.9196185241190666,
            "shoulder_lift_joint": -1.2443396400964142,
            "shoulder_pan_joint": 2.6996025414629847,
            "wrist_1_joint": -1.5485510000780065,
            "wrist_2_joint": -1.5709468930060704,
            "wrist_3_joint": 0.4420197071253992
        }
    },
    "waypoints": [
        {
            "positions": [
                2.6996025414629847,
                -1.2443396400964142,
                -1.9196185241190666,
                -1.5485510000780065,
                -1.5709468930060704,
                0.4420197071253992
            ]
        },
        {
            "positions": [
                2.5943360120894763,
                -1.2564883354167031,
                -1.8108522302921624,
                -1.5068522829694015,
                -1.5150388192245525,
                0.3735475930100921
            ]
        },
        {
            "positions": [
                2.489069482715968,
                -1.2686370307369923,
                -1.7020859364652583,
                -1.4651535658607966,
                -1.4591307454430344,
                0.30507547889478503
            ]
        },
        {
            "positions": [
                2.3838029533424594,
                -1.2807857260572812,
                -1.593319642638354,
                -1.4234548487521916,
                -1.4032226716615166,
                0.23660336477947796
            ]
        },
        {
            "positions": [
                2.2785364239689505,
                -1.2929344213775704,
                -1.48455334881145,
                -1.3817561316435865,
                -1.3473145978799985,
                0.1681312506641709
            ]
        },
        {
            "positions": [
                2.173269894595442,
                -1.3050831166978594,
                -1.3757870549845457,
                -1.3400574145349815,
                -1.2914065240984804,
                0.09965913654886382
            ]
        },
        {
            "positions": [
                2.0680033652219336,
                -1.3172318120181485,
                -1.2670207611576414,
                -1.2983586974263766,
                -1.2354984503169626,
                0.031187022433556755
            ]
        },
        {
            "positions": [
                1.9627368358484252,
                -1.3293805073384375,
                -1.1582544673307373,
                -1.2566599803177716,
                -1.1795903765354447,
                -0.037285091681750315
            ]
        },
        {
            "positions": [
                1.8574703064749167,
                -1.3415292026587264,
                -1.049488173503833,
                -1.2149612632091666,
                -1.1236823027539267,
                -0.10575720579705739
            ]
        },
        {
            "positions": [
                1.7522037771014083,
                -1.3536778979790156,
                -0.9407218796769289,
                -1.1732625461005617,
                -1.0677742289724088,
                -0.17422931991236446
            ]
        },
        {
            "positions": [
                1.6469372477278996,
                -1.3658265932993046,
                -0.8319555858500247,
                -1.1315638289919565,
                -1.0118661551908907,
                -0.24270143402767153
            ]
        },
        {
            "positions": [
                1.5416707183543914,
                -1.3779752886195937,
                -0.7231892920231204,
                -1.0898651118833516,
                -0.9559580814093729,
                -0.3111735481429786
            ]
        },
        {
            "positions": [
                1.4364041889808827,
                -1.3901239839398827,
                -0.6144229981962162,
                -1.0481663947747466,
                -0.9000500076278549,
                -0.37964566225828567
            ]
        },
        {
            "positions": [
                1.3311376596073743,
                -1.4022726792601716,
                -0.5056567043693121,
                -1.0064676776661416,
                -0.844141933846337,
                -0.44811777637359274
            ]
        },
        {
            "positions": [
                1.2258711302338658,
                -1.4144213745804608,
                -0.39689041054240803,
                -0.9647689605575367,
                -0.788233860064819,
                -0.5165898904888998
            ]
        },
        {
            "positions": [
                1.1206046008603574,
                -1.4265700699007497,
                -0.28812411671550375,
                -0.9230702434489317,
                -0.7323257862833011,
                -0.5850620046042069
            ]
        },
        {
            "positions": [
                1.0153380714868487,
                -1.438718765221039,
                -0.17935782288859947,
                -0.8813715263403267,
                -0.6764177125017831,
                -0.653534118719514
            ]
        },
        {
            "positions": [
                0.9100715421133403,
                -1.4508674605413279,
                -0.07059152906169519,
                -0.8396728092317217,
                -0.6205096387202651,
                -0.722006232834821
            ]
        },
        {
            "positions": [
                0.8048050127398318,
                -1.463016155861617,
                0.03817476476520887,
                -0.7979740921231168,
                -0.5646015649387472,
                -0.7904783469501281
            ]
        },
        {
            "positions": [
                0.6995384833663234,
                -1.475164851181906,
                0.14694105859211293,
                -0.7562753750145118,
                -0.5086934911572294,
                -0.8589504610654352
            ]
        },
        {
            "positions": [
                0.5942719539928145,
                -1.487313546502195,
                0.2557073524190172,
                -0.7145766579059066,
                -0.4527854173757111,
                -0.9274225751807422
            ]
        },
        {
            "positions": [
                0.4890054246193061,
                -1.499462241822484,
                0.3644736462459215,
                -0.6728779407973017,
                -0.39687734359419324,
                -0.9958946892960493
            ]
        },
        {
            "positions": [
                0.3837388952457981,
                -1.511610937142773,
                0.47323994007282577,
                -0.6311792236886967,
                -0.3409692698126754,
                -1.0643668034113563
            ]
        },
        {
            "positions": [
                0.27847236587228963,
                -1.5237596324630622,
                0.5820062338997296,
                -0.5894805065800918,
                -0.28506119603115754,
                -1.1328389175266635
            ]
        },
        {
            "positions": [
                0.17320583649878074,
                -1.5359083277833512,
                0.6907725277266343,
                -0.5477817894714867,
                -0.22915312224963946,
                -1.2013110316419704
            ]
        },
        {
            "positions": [
                0.0679393071252723,
                -1.5480570231036404,
                0.7995388215535382,
                -0.5060830723628817,
                -0.1732450484681214,
                -1.2697831457572777
            ]
        },
        {
            "positions": [
                -0.037327222248236064,
                -1.5602057184239293,
                0.9083051153804425,
                -0.46438435525427674,
                -0.1173369746866035,
                -1.3382552598725845
            ]
        },
        {
            "positions": [
                -0.03614698704924992,
                -1.5182796312367326,
                1.0168039601611634,
                -0.49134864213945645,
                -0.09361805039588697,
                -1.5245003476468224
            ]
        },
        {
            "positions": [
                -0.03496675185026377,
                -1.4763535440495357,
                1.125302804941884,
                -0.5183129290246361,
                -0.06989912610517043,
                -1.7107454354210603
            ]
        },
        {
            "positions": [
                -0.03378651665127763,
                -1.434427456862339,
                1.233801649722605,
                -0.5452772159098158,
                -0.0461802018144539,
                -1.8969905231952984
            ]
        },
        {
            "positions": [
                -0.03260628145229148,
                -1.3925013696751423,
                1.3423004945033257,
                -0.5722415027949955,
                -0.02246127752373736,
                -2.0832356109695365
            ]
        },
        {
            "positions": [
                -0.03142604625330534,
                -1.3505752824879453,
                1.4507993392840466,
                -0.5992057896801752,
                0.0012576467669791758,
                -2.269480698743774
            ]
        },
        {
            "positions": [
                -0.0302458110543192,
                -1.3086491953007486,
                1.5592981840647675,
                -0.6261700765653548,
                0.024976571057695712,
                -2.455725786518012
            ]
        },
        {
            "positions": [
                -0.029065575855333054,
                -1.2667231081135517,
                1.6677970288454884,
                -0.6531343634505345,
                0.04869549534841225,
                -2.64197087429225
            ]
        },
        {
            "positions": [
                -0.02788534065634691,
                -1.224797020926355,
                1.776295873626209,
                -0.6800986503357143,
                0.07241441963912879,
                -2.828215962066488
            ]
        },
        {
            "positions": [
                0.03104219778596152,
                -1.1872503969047723,
                1.853323920079013,
                -0.7027783186228754,
                0.09555384757874805,
                -2.9962051103604095
            ]
        },
        {
            "positions": [
                0.08996973622826994,
                -1.1497037728831894,
                1.9303519665318172,
                -0.7254579869100366,
                0.11869327551836732,
                -3.164194258654331
            ]
        },
        {
            "positions": [
                0.12233576920119536,
                -1.1374545678453922,
                1.9673289747366132,
                -0.7504499425228384,
                0.13516847648933,
                -3.213268810055142
            ]
        }
    ]
}