{
    "goal": {
        "global_pose": {
            "orientation": {
                "w": 0.7031023502349854,
                "x": -0.7110244035720825,
                "y": 0.007748599164187908,
                "z": 0.005598929710686207
            },
            "position": {
                "x": 0.11585023208521307,
                "y": 0.44412534475326537,
                "z": 0.3711530566215515
            }
        },
        "name": "move_to_auspresseinheit_A"
    },
    "id": "SBL_move_to_auspresseinheit_A_131",
    "joint_names": [
        "shoulder_pan_joint",
        "shoulder_lift_joint",
        "elbow_joint",
        "wrist_1_joint",
        "wrist_2_joint",
        "wrist_3_joint"
    ],
    "metrics": {
        "cart_traj_len": 0.993682870144645,
        "distance_elbow_joint": 0.0940069082000945,
        "distance_shoulder_lift_joint": 1.303276073209113,
        "distance_shoulder_pan_joint": 1.0417323043237368,
        "distance_wrist_1_joint": 2.920163773410508,
        "distance_wrist_2_joint": 0.5357690623610635,
        "distance_wrist_3_joint": 0.24508904626656047,
        "smoothness": 1.4083550215920362,
        "time": 0.235836286,
        "traj_len": 2.4779098385072604,
        "weighted_distance": 3.17586965980592
    },
    "planner": "SBL",
    "start": {
        "state": {
            "elbow_joint": 2.4225746658250005,
            "shoulder_lift_joint": -1.3736534386056498,
            "shoulder_pan_joint": -0.3378633547517467,
            "wrist_1_joint": -1.0288598680537169,
            "wrist_2_joint": 1.233022673432363,
            "wrist_3_joint": -3.0940220416140027
        }
    },
    "waypoints": [
        {
            "positions": [
                -0.3378633547517467,
                -1.3736534386056498,
                2.4225746658250005,
                -1.0288598680537169,
                1.233022673432363,
                -3.0940220416140027
            ]
        },
        {
            "positions": [
                -0.25378875871360995,
                -1.4571831009011915,
                2.4169215202238545,
                -0.8704715862911854,
                1.1952173538938435,
                -3.106747510483518
            ]
        },
        {
            "positions": [
                -0.16971416267547318,
                -1.5407127631967332,
                2.4112683746227086,
                -0.7120833045286538,
                1.1574120343553238,
                -3.1194729793530334
            ]
        },
        {
            "positions": [
                -0.08563956663733646,
                -1.624242425492275,
                2.405615229021562,
                -0.5536950227661221,
                1.1196067148168043,
                -3.1321984482225487
            ]
        },
        {
            "positions": [
                -0.0015649705991996332,
                -1.7077720877878169,
                2.3999620834204163,
                -0.39530674100359064,
                1.0818013952782848,
                -3.144923917092064
            ]
        },
        {
            "positions": [
                0.08250962543893708,
                -1.7913017500833586,
                2.3943089378192703,
                -0.23691845924105914,
                1.043996075739765,
                -3.1576493859615793
            ]
        },
        {
            "positions": [
                0.1665842214770738,
                -1.8748314123789003,
                2.3886557922181244,
                -0.07853017747852753,
                1.0061907562012455,
                -3.170374854831094
            ]
        },
        {
            "positions": [
                0.25065881751521063,
                -1.958361074674442,
                2.3830026466169785,
                0.07985810428400408,
                0.968385436662726,
                -3.1831003237006095
            ]
        },
        {
            "positions": [
                0.33473341355334746,
                -2.0418907369699837,
                2.3773495010158325,
                0.23824638604653559,
                0.9305801171242064,
                -3.195825792570125
            ]
        },
        {
            "positions": [
                0.4188080095914843,
                -2.1254203992655256,
                2.371696355414686,
                0.3966346678090673,
                0.8927747975856868,
                -3.20855126143964
            ]
        },
        {
            "positions": [
                0.502882605629621,
                -2.208950061561067,
                2.36604320981354,
                0.5550229495715986,
                0.8549694780471673,
                -3.2212767303091554
            ]
        },
        {
            "positions": [
                0.5869572016677577,
                -2.292479723856609,
                2.3603900642123943,
                0.7134112313341303,
                0.8171641585086477,
                -3.2340021991786707
            ]
        },
        {
            "positions": [
                0.6103395512486042,
                -2.215589766264978,
                2.366754525529892,
                0.47783269652959803,
                0.7931820490211781,
                -3.212980421438292
            ]
        },
        {
            "positions": [
                0.6337219008294507,
                -2.1386998086733473,
                2.3731189868473894,
                0.2422541617250658,
                0.7691999395337085,
                -3.1919586436979137
            ]
        },
        {
            "positions": [
                0.6571042504102972,
                -2.061809851081717,
                2.3794834481648874,
                0.006675626920533584,
                0.7452178300462388,
                -3.170936865957535
            ]
        },
        {
            "positions": [
                0.6804865999911437,
                -1.984919893490086,
                2.385847909482385,
                -0.2289029078839987,
                0.7212357205587692,
                -3.1499150882171567
            ]
        },
        {
            "positions": [
                0.7038689495719902,
                -1.9080299358984552,
                2.3922123707998826,
                -0.4644814426885308,
                0.6972536110712996,
                -3.128893310476778
            ]
        }
    ]
}