{
    "goal": {
        "global_pose": {
            "orientation": {
                "w": -0.00223480608172531,
                "x": 0.0024358444001904467,
                "y": 0.7094548369677653,
                "z": -0.704743149386269
            },
            "position": {
                "x": 0.6205249238014221,
                "y": -0.6371506643295288,
                "z": 0.19426114857196808
            }
        },
        "name": "move_to_magneteinheit_B"
    },
    "id": "SBL_move_to_magneteinheit_B_70",
    "joint_names": [
        "shoulder_pan_joint",
        "shoulder_lift_joint",
        "elbow_joint",
        "wrist_1_joint",
        "wrist_2_joint",
        "wrist_3_joint"
    ],
    "metrics": {
        "cart_traj_len": 2.138557603404619,
        "distance_elbow_joint": 1.583818411840219,
        "distance_shoulder_lift_joint": 1.4692595566610858,
        "distance_shoulder_pan_joint": 1.622052491839604,
        "distance_wrist_1_joint": 1.079189862776543,
        "distance_wrist_2_joint": 1.952773206270896,
        "distance_wrist_3_joint": 0.16735829006465228,
        "smoothness": 0.8026321925514884,
        "time": 0.49997400999999997,
        "traj_len": 2.806145366771472,
        "weighted_distance": 3.3527796630005
    },
    "planner": "SBL",
    "start": {
        "state": {
            "elbow_joint": 2.6216224122426386,
            "shoulder_lift_joint": -1.4174107377796124,
            "shoulder_pan_joint": 0.7066234856936794,
            "wrist_1_joint": 1.9546482284002225,
            "wrist_2_joint": -0.7096286983471962,
            "wrist_3_joint": 0.005740856962016249
        }
    },
    "waypoints": [
        {
            "positions": [
                0.7066234856936794,
                -1.4174107377796124,
                2.6216224122426386,
                1.9546482284002225,
                -0.7096286983471962,
                0.005740856962016249
            ]
        },
        {
            "positions": [
                0.6862318519887509,
                -1.4284397455861368,
                2.6191570695056012,
                1.9584390114271273,
                -0.7198570145676199,
                0.0004947560552132036
            ]
        },
        {
            "positions": [
                0.539056956848499,
                -1.462951783573495,
                2.4922997458068865,
                1.913724782250753,
                -0.6979345444639017,
                0.002111014115202864
            ]
        },
        {
            "positions": [
                0.39188206170824696,
                -1.4974638215608533,
                2.3654424221081713,
                1.8690105530743788,
                -0.6760120743601834,
                0.0037272721751925248
            ]
        },
        {
            "positions": [
                0.24470716656799502,
                -1.5319758595482116,
                2.238585098409456,
                1.8242963238980048,
                -0.6540896042564652,
                0.0053435302351821845
            ]
        },
        {
            "positions": [
                0.09753227142774301,
                -1.5664878975355698,
                2.1117277747107415,
                1.7795820947216305,
                -0.6321671341527471,
                0.006959788295171846
            ]
        },
        {
            "positions": [
                -0.04964262371250894,
                -1.600999935522928,
                1.9848704510120265,
                1.7348678655452563,
                -0.6102446640490289,
                0.008576046355161505
            ]
        },
        {
            "positions": [
                -0.1968175188527609,
                -1.6355119735102863,
                1.8580131273133116,
                1.690153636368882,
                -0.5883221939453106,
                0.010192304415151166
            ]
        },
        {
            "positions": [
                -0.34399241399301284,
                -1.6700240114976446,
                1.7311558036145969,
                1.6454394071925078,
                -0.5663997238415924,
                0.011808562475140824
            ]
        },
        {
            "positions": [
                -0.4911673091332649,
                -1.7045360494850028,
                1.6042984799158817,
                1.6007251780161336,
                -0.5444772537378741,
                0.013424820535130489
            ]
        },
        {
            "positions": [
                -0.638342204273517,
                -1.739048087472361,
                1.4774411562171668,
                1.5560109488397595,
                -0.522554783634156,
                0.015041078595120147
            ]
        },
        {
            "positions": [
                -0.7855170994137688,
                -1.7735601254597193,
                1.3505838325184518,
                1.5112967196633853,
                -0.5006323135304378,
                0.01665733665510981
            ]
        },
        {
            "positions": [
                -0.790914883875425,
                -1.6676069947290983,
                1.3776316152887234,
                1.5683553067681608,
                -0.6655220419886793,
                0.008128516039255509
            ]
        },
        {
            "positions": [
                -0.796312668337081,
                -1.5616538639984772,
                1.4046793980589949,
                1.6254138938729363,
                -0.8304117704469207,
                -0.0004003045765987902
            ]
        },
        {
            "positions": [
                -0.8017104527987372,
                -1.4557007332678562,
                1.4317271808292664,
                1.6824724809777118,
                -0.9953014989051621,
                -0.008929125192453088
            ]
        },
        {
            "positions": [
                -0.8071082372603933,
                -1.349747602537235,
                1.458774963599538,
                1.7395310680824876,
                -1.1601912273634034,
                -0.01745794580830739
            ]
        },
        {
            "positions": [
                -0.8125060217220494,
                -1.243794471806614,
                1.4858227463698093,
                1.796589655187263,
                -1.3250809558216448,
                -0.025986766424161686
            ]
        },
        {
            "positions": [
                -0.8179038061837056,
                -1.137841341075993,
                1.5128705291400808,
                1.8536482422920386,
                -1.489970684279886,
                -0.034515587040015984
            ]
        },
        {
            "positions": [
                -0.8233015906453617,
                -1.0318882103453721,
                1.5399183119103523,
                1.9107068293968141,
                -1.6548604127381277,
                -0.04304440765587028
            ]
        },
        {
            "positions": [
                -0.8286993751070179,
                -0.9259350796147509,
                1.5669660946806239,
                1.9677654165015896,
                -1.8197501411963692,
                -0.051573228271724586
            ]
        },
        {
            "positions": [
                -0.8340971595686739,
                -0.8199819488841299,
                1.5940138774508954,
                2.024824003606365,
                -1.9846398696546106,
                -0.06010204888757889
            ]
        },
        {
            "positions": [
                -0.8394949440303301,
                -0.7140288181535088,
                1.621061660221167,
                2.0818825907111407,
                -2.149529598112852,
                -0.06863086950343318
            ]
        },
        {
            "positions": [
                -0.9154290061459243,
                -0.6604499564787404,
                1.663363664634484,
                2.1395535076492815,
                -2.223952502543728,
                -0.00796946710402354
            ]
        }
    ]
}