{
    "goal": {
        "global_pose": {
            "orientation": {
                "w": 0.005598929693374612,
                "x": 0.007748599140229565,
                "y": 0.7110244013736278,
                "z": -0.7031023480610252
            },
            "position": {
                "x": -0.8858502320852131,
                "y": -0.7141253447532654,
                "z": 0.3711530566215515
            }
        },
        "name": "move_to_auspresseinheit_C"
    },
    "id": "SBL_move_to_auspresseinheit_C_45",
    "joint_names": [
        "shoulder_pan_joint",
        "shoulder_lift_joint",
        "elbow_joint",
        "wrist_1_joint",
        "wrist_2_joint",
        "wrist_3_joint"
    ],
    "metrics": {
        "cart_traj_len": 0.4927799642703109,
        "distance_elbow_joint": 0.9956234246121013,
        "distance_shoulder_lift_joint": 0.3221882090171334,
        "distance_shoulder_pan_joint": 0.25596383285476065,
        "distance_wrist_1_joint": 0.6703254544508789,
        "distance_wrist_2_joint": 1.3139450464959717,
        "distance_wrist_3_joint": 0.046546402134141296,
        "smoothness": 4.844609574787718e-16,
        "time": 0.414906196,
        "traj_len": 1.8985764060382155,
        "weighted_distance": 2.3836853137065135
    },
    "planner": "SBL",
    "start": {
        "state": {
            "elbow_joint": 1.7527959577737207,
            "shoulder_lift_joint": -0.9740617694225068,
            "shoulder_pan_joint": -2.967991417825858,
            "wrist_1_joint": -0.759517768980727,
            "wrist_2_joint": 1.7443932448377408,
            "wrist_3_joint": -3.0840537646736568
        }
    },
    "waypoints": [
        {
            "positions": [
                -2.967991417825858,
                -0.9740617694225068,
                1.7527959577737207,
                -0.759517768980727,
                1.7443932448377408,
                -3.0840537646736568
            ]
        },
        {
            "positions": [
                -2.942395034540382,
                -0.9418429485207934,
                1.6532336153125105,
                -0.6924852235356391,
                1.6129987401881436,
                -3.088708404887071
            ]
        },
        {
            "positions": [
                -2.916798651254906,
                -0.9096241276190801,
                1.5536712728513005,
                -0.6254526780905512,
                1.4816042355385464,
                -3.093363045100485
            ]
        },
        {
            "positions": [
                -2.8912022679694296,
                -0.8774053067173667,
                1.4541089303900903,
                -0.5584201326454633,
                1.3502097308889494,
                -3.098017685313899
            ]
        },
        {
            "positions": [
                -2.8656058846839536,
                -0.8451864858156534,
                1.35454658792888,
                -0.4913875872003754,
                1.2188152262393521,
                -3.102672325527313
            ]
        },
        {
            "positions": [
                -2.8400095013984776,
                -0.8129676649139401,
                1.25498424546767,
                -0.42435504175528754,
                1.087420721589755,
                -3.1073269657407274
            ]
        },
        {
            "positions": [
                -2.8144131181130017,
                -0.7807488440122268,
                1.1554219030064599,
                -0.3573224963101997,
                0.9560262169401579,
                -3.1119816059541416
            ]
        },
        {
            "positions": [
                -2.7888167348275257,
                -0.7485300231105134,
                1.0558595605452497,
                -0.2902899508651118,
                0.8246317122905608,
                -3.116636246167556
            ]
        },
        {
            "positions": [
                -2.7632203515420493,
                -0.7163112022088001,
                0.9562972180840396,
                -0.2232574054200238,
                0.6932372076409634,
                -3.1212908863809696
            ]
        },
        {
            "positions": [
                -2.7376239682565733,
                -0.6840923813070867,
                0.8567348756228295,
                -0.15622485997493596,
                0.5618427029913664,
                -3.125945526594384
            ]
        },
        {
            "positions": [
                -2.7120275849710973,
                -0.6518735604053734,
                0.7571725331616194,
                -0.08919231452984815,
                0.43044819834176923,
                -3.130600166807798
            ]
        }
    ]
}