{
    "goal": {
        "global_pose": {
            "orientation": {
                "w": 0.7047431493862688,
                "x": -0.7094548369677653,
                "y": 0.0024358444001904,
                "z": -0.0022348060817251984
            },
            "position": {
                "x": -0.39052492380142206,
                "y": 0.3671506643295288,
                "z": 0.19426114857196808
            }
        },
        "name": "move_to_magneteinheit_D"
    },
    "id": "SBL_move_to_magneteinheit_D_71",
    "joint_names": [
        "shoulder_pan_joint",
        "shoulder_lift_joint",
        "elbow_joint",
        "wrist_1_joint",
        "wrist_2_joint",
        "wrist_3_joint"
    ],
    "metrics": {
        "cart_traj_len": 4.674407510544743,
        "distance_elbow_joint": 3.125776025163044,
        "distance_shoulder_lift_joint": 1.635616193299622,
        "distance_shoulder_pan_joint": 3.5318540374690683,
        "distance_wrist_1_joint": 4.447008319818517,
        "distance_wrist_2_joint": 5.142072497606662,
        "distance_wrist_3_joint": 4.948352186714874,
        "smoothness": 0.28288573827218877,
        "time": 0.349004344,
        "traj_len": 4.77814600656696,
        "weighted_distance": 6.505110640944295
    },
    "planner": "SBL",
    "start": {
        "state": {
            "elbow_joint": 0.749534889911806,
            "shoulder_lift_joint": -0.6476975780787326,
            "shoulder_pan_joint": -2.711696901376241,
            "wrist_1_joint": -0.07506478083263063,
            "wrist_2_joint": 0.43296659715538205,
            "wrist_3_joint": -3.14703540197715
        }
    },
    "waypoints": [
        {
            "positions": [
                -2.711696901376241,
                -0.6476975780787326,
                0.749534889911806,
                -0.07506478083263063,
                0.43296659715538205,
                -3.14703540197715
            ]
        },
        {
            "positions": [
                -2.571520549368933,
                -0.7452290530746242,
                0.6782609489503121,
                -0.06700666943266874,
                0.36079312587237317,
                -3.14862269991775
            ]
        },
        {
            "positions": [
                -2.4313441973616245,
                -0.8427605280705158,
                0.6069870079888182,
                -0.05894855803270684,
                0.2886196545893643,
                -3.15020999785835
            ]
        },
        {
            "positions": [
                -2.291167845354316,
                -0.9402920030664075,
                0.5357130670273242,
                -0.050890446632744946,
                0.2164461833063554,
                -3.1517972957989504
            ]
        },
        {
            "positions": [
                -2.150991493347008,
                -1.037823478062299,
                0.4644391260658304,
                -0.042832335232783056,
                0.14427271202334652,
                -3.1533845937395504
            ]
        },
        {
            "positions": [
                -2.0804670648642034,
                -1.0568795121653163,
                0.39164547254362,
                -0.08353304205333612,
                0.07552245883603667,
                -3.0378025877261714
            ]
        },
        {
            "positions": [
                -2.0099426363813993,
                -1.0759355462683335,
                0.3188518190214096,
                -0.12423374887388919,
                0.006772205648726826,
                -2.9222205817127924
            ]
        },
        {
            "positions": [
                -1.9394182078985946,
                -1.0949915803713508,
                0.24605816549919915,
                -0.16493445569444226,
                -0.06197804753858302,
                -2.806638575699414
            ]
        },
        {
            "positions": [
                -1.8688937794157903,
                -1.114047614474368,
                0.17326451197698878,
                -0.2056351625149953,
                -0.13072830072589287,
                -2.691056569686035
            ]
        },
        {
            "positions": [
                -1.7983693509329859,
                -1.1331036485773853,
                0.10047085845477838,
                -0.2463358693355484,
                -0.19947855391320268,
                -2.575474563672656
            ]
        },
        {
            "positions": [
                -1.7278449224501813,
                -1.1521596826804026,
                0.027677204932567923,
                -0.28703657615610145,
                -0.26822880710051256,
                -2.459892557659277
            ]
        },
        {
            "positions": [
                -1.657320493967377,
                -1.1712157167834198,
                -0.04511644858964248,
                -0.32773728297665455,
                -0.33697906028782243,
                -2.344310551645898
            ]
        },
        {
            "positions": [
                -1.5867960654845725,
                -1.190271750886437,
                -0.11791010211185282,
                -0.3684379897972076,
                -0.40572931347513225,
                -2.228728545632519
            ]
        },
        {
            "positions": [
                -1.5162716370017681,
                -1.2093277849894544,
                -0.19070375563406317,
                -0.40913869661776064,
                -0.474479566662442,
                -2.1131465396191405
            ]
        },
        {
            "positions": [
                -1.4457472085189638,
                -1.2283838190924716,
                -0.2634974091562736,
                -0.44983940343831375,
                -0.5432298198497518,
                -1.9975645336057615
            ]
        },
        {
            "positions": [
                -1.3752227800361592,
                -1.247439853195489,
                -0.3362910626784841,
                -0.4905401102588668,
                -0.6119800730370617,
                -1.8819825275923825
            ]
        },
        {
            "positions": [
                -1.3046983515533548,
                -1.2664958872985062,
                -0.40908471620069453,
                -0.5312408170794198,
                -0.6807303262243716,
                -1.7664005215790035
            ]
        },
        {
            "positions": [
                -1.2341739230705504,
                -1.2855519214015234,
                -0.4818783697229049,
                -0.571941523899973,
                -0.7494805794116814,
                -1.6508185155656245
            ]
        },
        {
            "positions": [
                -1.1636494945877458,
                -1.3046079555045407,
                -0.5546720232451153,
                -0.612642230720526,
                -0.8182308325989913,
                -1.5352365095522456
            ]
        },
        {
            "positions": [
                -1.0931250661049414,
                -1.323663989607558,
                -0.6274656767673256,
                -0.6533429375410791,
                -0.8869810857863012,
                -1.419654503538867
            ]
        },
        {
            "positions": [
                -1.022600637622137,
                -1.3427200237105752,
                -0.700259330289536,
                -0.6940436443616321,
                -0.9557313389736111,
                -1.304072497525488
            ]
        },
        {
            "positions": [
                -0.9520762091393327,
                -1.3617760578135925,
                -0.7730529838117465,
                -0.7347443511821852,
                -1.024481592160921,
                -1.188490491512109
            ]
        },
        {
            "positions": [
                -0.8815517806565283,
                -1.3808320919166097,
                -0.8458466373339567,
                -0.7754450580027382,
                -1.0932318453482306,
                -1.0729084854987305
            ]
        },
        {
            "positions": [
                -0.8110273521737239,
                -1.399888126019627,
                -0.9186402908561672,
                -0.8161457648232913,
                -1.1619820985355405,
                -0.9573264794853515
            ]
        },
        {
            "positions": [
                -0.7405029236909193,
                -1.4189441601226442,
                -0.9914339443783776,
                -0.8568464716438444,
                -1.2307323517228503,
                -0.8417444734719726
            ]
        },
        {
            "positions": [
                -0.6699784952081149,
                -1.4380001942256615,
                -1.064227597900588,
                -0.8975471784643975,
                -1.2994826049101602,
                -0.7261624674585936
            ]
        },
        {
            "positions": [
                -0.5994540667253103,
                -1.4570562283286788,
                -1.1370212514227984,
                -0.9382478852849505,
                -1.36823285809747,
                -0.6105804614452146
            ]
        },
        {
            "positions": [
                -0.5289296382425059,
                -1.4761122624316962,
                -1.2098149049450089,
                -0.9789485921055037,
                -1.43698311128478,
                -0.4949984554318356
            ]
        },
        {
            "positions": [
                -0.45840520975970156,
                -1.4951682965347135,
                -1.2826085584672193,
                -1.0196492989260566,
                -1.5057333644720898,
                -0.37941644941845665
            ]
        },
        {
            "positions": [
                -0.38788078127689696,
                -1.5142243306377308,
                -1.3554022119894298,
                -1.0603500057466098,
                -1.5744836176593997,
                -0.26383444340507767
            ]
        },
        {
            "positions": [
                -0.3173563527940926,
                -1.533280364740748,
                -1.4281958655116402,
                -1.101050712567163,
                -1.6432338708467096,
                -0.1482524373916987
            ]
        },
        {
            "positions": [
                -0.2468319243112882,
                -1.5523363988437653,
                -1.5009895190338507,
                -1.1417514193877158,
                -1.7119841240340194,
                -0.03267043137831971
            ]
        },
        {
            "positions": [
                -0.1763074958284836,
                -1.5713924329467825,
                -1.5737831725560611,
                -1.182452126208269,
                -1.7807343772213293,
                0.08291157463505927
            ]
        },
        {
            "positions": [
                -0.105783067345679,
                -1.5904484670497998,
                -1.6465768260782716,
                -1.2231528330288222,
                -1.8494846304086392,
                0.19849358064843825
            ]
        },
        {
            "positions": [
                -0.035258638862874836,
                -1.6095045011528168,
                -1.7193704796004816,
                -1.263853539849375,
                -1.9182348835959488,
                0.31407558666181634
            ]
        },
        {
            "positions": [
                0.03526578961992932,
                -1.6285605352558343,
                -1.792164133122692,
                -1.304554246669928,
                -1.9869851367832587,
                0.4296575926751953
            ]
        },
        {
            "positions": [
                0.10579021810273392,
                -1.6476165693588516,
                -1.8649577866449025,
                -1.3452549534904812,
                -2.0557353899705686,
                0.5452395986885743
            ]
        },
        {
            "positions": [
                0.17631464658553853,
                -1.6666726034618689,
                -1.937751440167113,
                -1.3859556603110343,
                -2.1244856431578785,
                0.6608216047019533
            ]
        },
        {
            "positions": [
                0.24683907506834268,
                -1.6857286375648861,
                -2.0105450936893234,
                -1.4266563671315873,
                -2.1932358963451883,
                0.7764036107153323
            ]
        },
        {
            "positions": [
                0.3173635035511473,
                -1.7047846716679034,
                -2.083338747211534,
                -1.4673570739521404,
                -2.261986149532498,
                0.8919856167287112
            ]
        },
        {
            "positions": [
                0.29222382192406315,
                -1.733711126653426,
                -2.097983866613519,
                -1.3178445171771749,
                -2.1396301619865588,
                0.8471539775045008
            ]
        },
        {
            "positions": [
                0.267084140296979,
                -1.7626375816389486,
                -2.1126289860155043,
                -1.168331960402209,
                -2.0172741744406197,
                0.8023223382802904
            ]
        },
        {
            "positions": [
                0.2419444586698949,
                -1.7915640366244712,
                -2.1272741054174897,
                -1.0188194036272438,
                -1.8949181868946803,
                0.7574906990560801
            ]
        },
        {
            "positions": [
                0.21680477704281076,
                -1.8204904916099935,
                -2.1419192248194747,
                -0.869306846852278,
                -1.772562199348741,
                0.7126590598318697
            ]
        },
        {
            "positions": [
                0.19166509541572663,
                -1.8494169465955161,
                -2.1565643442214597,
                -0.7197942900773124,
                -1.6502062118028018,
                0.6678274206076593
            ]
        },
        {
            "positions": [
                0.1665254137886425,
                -1.8783434015810387,
                -2.171209463623445,
                -0.5702817333023469,
                -1.5278502242568626,
                0.622995781383449
            ]
        },
        {
            "positions": [
                0.14138573216155836,
                -1.9072698565665613,
                -2.1858545830254306,
                -0.42076917652738133,
                -1.4054942367109233,
                0.5781641421592386
            ]
        },
        {
            "positions": [
                0.11624605053447423,
                -1.936196311552084,
                -2.2004997024274155,
                -0.27125661975241555,
                -1.2831382491649839,
                0.5333325029350282
            ]
        },
        {
            "positions": [
                0.0911063689073901,
                -1.9651227665376065,
                -2.2151448218294005,
                -0.12174406297745,
                -1.1607822616190446,
                0.4885008637108178
            ]
        },
        {
            "positions": [
                0.06596668728030597,
                -1.9940492215231291,
                -2.229789941231386,
                0.02776849379751556,
                -1.0384262740731054,
                0.44366922448660745
            ]
        },
        {
            "positions": [
                0.04082700565322184,
                -2.0229756765086515,
                -2.2444350606333714,
                0.17728105057248134,
                -0.9160702865271659,
                0.39883758526239704
            ]
        },
        {
            "positions": [
                0.015687324026137706,
                -2.0519021314941743,
                -2.2590801800353564,
                0.32679360734744667,
                -0.7937142989812269,
                0.3540059460381867
            ]
        },
        {
            "positions": [
                -0.009452357600946426,
                -2.0808285864796967,
                -2.2737252994373414,
                0.47630616412241245,
                -0.6713583114352875,
                0.3091743068139763
            ]
        },
        {
            "positions": [
                -0.03459203922803056,
                -2.109755041465219,
                -2.288370418839327,
                0.6258187208973778,
                -0.5490023238893484,
                0.264342667589766
            ]
        },
        {
            "positions": [
                -0.05973172085511469,
                -2.138681496450742,
                -2.303015538241312,
                0.7753312776723436,
                -0.426646336343409,
                0.21951102836555558
            ]
        },
        {
            "positions": [
                -0.08487140248219882,
                -2.1676079514362643,
                -2.317660657643297,
                0.9248438344473093,
                -0.3042903487974695,
                0.17467938914134518
            ]
        },
        {
            "positions": [
                -0.11001108410928295,
                -2.196534406421787,
                -2.332305777045282,
                1.0743563912222747,
                -0.1819343612515305,
                0.12984774991713477
            ]
        },
        {
            "positions": [
                -0.13515076573636708,
                -2.2254608614073095,
                -2.3469508964472676,
                1.2238689479972404,
                -0.05957837370559105,
                0.08501611069292436
            ]
        },
        {
            "positions": [
                -0.16029044736345122,
                -2.2543873163928323,
                -2.361596015849253,
                1.3733815047722058,
                0.06277761384034797,
                0.04018447146871407
            ]
        },
        {
            "positions": [
                -0.1854301289905354,
                -2.2833137713783547,
                -2.376241135251238,
                1.5228940615471716,
                0.18513360138628743,
                -0.004647167755496362
            ]
        }
    ]
}