{
    "goal": {
        "global_pose": {
            "orientation": {
                "w": -0.4816463035849501,
                "x": 0.5182115481033762,
                "y": 0.4908360881923453,
                "z": -0.5084816262002911
            },
            "position": {
                "x": -0.8240239810943604,
                "y": -0.300875300988555,
                "z": 0.16403168439865112
            }
        },
        "name": "move_to_storage_C"
    },
    "id": "SBL_move_to_storage_C_23",
    "joint_names": [
        "shoulder_pan_joint",
        "shoulder_lift_joint",
        "elbow_joint",
        "wrist_1_joint",
        "wrist_2_joint",
        "wrist_3_joint"
    ],
    "metrics": {
        "cart_traj_len": 0.5765818768460443,
        "distance_elbow_joint": 0.2560826385893473,
        "distance_shoulder_lift_joint": 0.18899991008963835,
        "distance_shoulder_pan_joint": 0.49562510769555024,
        "distance_wrist_1_joint": 0.07585335581751873,
        "distance_wrist_2_joint": 1.0644104053236254,
        "distance_wrist_3_joint": 0.07500196935469816,
        "smoothness": 2.5376526478085547e-16,
        "time": 0.780702328,
        "traj_len": 1.4683233250447185,
        "weighted_distance": 1.8564054208930008
    },
    "planner": "SBL",
    "start": {
        "state": {
            "elbow_joint": 2.010868314990456,
            "shoulder_lift_joint": -1.1634956873337592,
            "shoulder_pan_joint": -2.4736205022346125,
            "wrist_1_joint": -0.8367026794202681,
            "wrist_2_joint": 0.6746043897044499,
            "wrist_3_joint": -3.1496632123970403
        }
    },
    "waypoints": [
        {
            "positions": [
                -2.4736205022346125,
                -1.1634956873337592,
                2.010868314990456,
                -0.8367026794202681,
                0.6746043897044499,
                -3.1496632123970403
            ]
        },
        {
            "positions": [
                -2.5562246868505376,
                -1.1319957023188194,
                1.9681878752255646,
                -0.8240604534506817,
                0.8520061239250541,
                -3.137162884171257
            ]
        },
        {
            "positions": [
                -2.6388288714664627,
                -1.1004957173038799,
                1.9255074354606734,
                -0.8114182274810952,
                1.0294078581456585,
                -3.1246625559454744
            ]
        },
        {
            "positions": [
                -2.721433056082388,
                -1.06899573228894,
                1.8828269956957822,
                -0.7987760015115087,
                1.2068095923662625,
                -3.112162227719691
            ]
        },
        {
            "positions": [
                -2.8040372406983125,
                -1.0374957472740003,
                1.840146555930891,
                -0.7861337755419223,
                1.384211326586867,
                -3.099661899493908
            ]
        },
        {
            "positions": [
                -2.8866414253142376,
                -1.0059957622590605,
                1.7974661161659997,
                -0.7734915495723358,
                1.561613060807471,
                -3.0871615712681253
            ]
        },
        {
            "positions": [
                -2.9692456099301627,
                -0.9744957772441208,
                1.7547856764011085,
                -0.7608493236027494,
                1.7390147950280754,
                -3.074661243042342
            ]
        }
    ]
}