{
    "goal": {
        "global_pose": {
            "orientation": {
                "w": -0.4816463035849501,
                "x": 0.5182115481033762,
                "y": 0.4908360881923453,
                "z": -0.5084816262002911
            },
            "position": {
                "x": -0.8240239810943604,
                "y": -0.300875300988555,
                "z": 0.16403168439865112
            }
        },
        "name": "move_to_storage_C"
    },
    "id": "SBL_move_to_storage_C_106",
    "joint_names": [
        "shoulder_pan_joint",
        "shoulder_lift_joint",
        "elbow_joint",
        "wrist_1_joint",
        "wrist_2_joint",
        "wrist_3_joint"
    ],
    "metrics": {
        "cart_traj_len": 0.57705226865067,
        "distance_elbow_joint": 0.2581387573398788,
        "distance_shoulder_lift_joint": 0.1903788324934994,
        "distance_shoulder_pan_joint": 0.49525140630868725,
        "distance_wrist_1_joint": 0.07240433847118466,
        "distance_wrist_2_joint": 1.061432970678386,
        "distance_wrist_3_joint": 0.07269568642731983,
        "smoothness": 0.0,
        "time": 0.775836488,
        "traj_len": 1.466390804567103,
        "weighted_distance": 1.8518992072256972
    },
    "planner": "SBL",
    "start": {
        "state": {
            "elbow_joint": 2.010868314990456,
            "shoulder_lift_joint": -1.1634956873337592,
            "shoulder_pan_joint": -2.4736205022346125,
            "wrist_1_joint": -0.8367026794202681,
            "wrist_2_joint": 0.6746043897044499,
            "wrist_3_joint": -3.1496632123970403
        }
    },
    "waypoints": [
        {
            "positions": [
                -2.4736205022346125,
                -1.1634956873337592,
                2.010868314990456,
                -0.8367026794202681,
                0.6746043897044499,
                -3.1496632123970403
            ]
        },
        {
            "positions": [
                -2.55616240328606,
                -1.131765881918176,
                1.9678451887671427,
                -0.8246352896750706,
                0.8515098848175142,
                -3.137547264659154
            ]
        },
        {
            "positions": [
                -2.6387043043375082,
                -1.1000360765025927,
                1.9248220625438295,
                -0.8125678999298732,
                1.0284153799305786,
                -3.125431316921267
            ]
        },
        {
            "positions": [
                -2.7212462053889563,
                -1.0683062710870095,
                1.8817989363205165,
                -0.8005005101846758,
                1.2053208750436428,
                -3.1133153691833804
            ]
        },
        {
            "positions": [
                -2.803788106440404,
                -1.0365764656714263,
                1.8387758100972034,
                -0.7884331204394783,
                1.3822263701567072,
                -3.101199421445494
            ]
        },
        {
            "positions": [
                -2.8863300074918516,
                -1.004846660255843,
                1.7957526838738902,
                -0.7763657306942808,
                1.5591318652697717,
                -3.089083473707607
            ]
        },
        {
            "positions": [
                -2.9688719085432997,
                -0.9731168548402598,
                1.752729557650577,
                -0.7642983409490834,
                1.7360373603828358,
                -3.0769675259697205
            ]
        }
    ]
}