{
    "goal": {
        "global_pose": {
            "orientation": {
                "w": 0.7031023502349854,
                "x": -0.7110244035720825,
                "y": 0.007748599164187908,
                "z": 0.005598929710686207
            },
            "position": {
                "x": 0.11585023208521307,
                "y": 0.44412534475326537,
                "z": 0.3711530566215515
            }
        },
        "name": "move_to_auspresseinheit_A"
    },
    "id": "SBL_move_to_auspresseinheit_A_1",
    "joint_names": [
        "shoulder_pan_joint",
        "shoulder_lift_joint",
        "elbow_joint",
        "wrist_1_joint",
        "wrist_2_joint",
        "wrist_3_joint"
    ],
    "metrics": {
        "cart_traj_len": 2.047602726599752,
        "distance_elbow_joint": 2.848110354079307,
        "distance_shoulder_lift_joint": 0.5326389691828257,
        "distance_shoulder_pan_joint": 1.0431112819043582,
        "distance_wrist_1_joint": 1.550433391092414,
        "distance_wrist_2_joint": 0.9733106281962858,
        "distance_wrist_3_joint": 2.8361390898977645,
        "smoothness": 0.5863528824910316,
        "time": 0.252945687,
        "traj_len": 3.1278976508755774,
        "weighted_distance": 4.240255406627906
    },
    "planner": "SBL",
    "start": {
        "state": {
            "elbow_joint": 2.4225746658250005,
            "shoulder_lift_joint": -1.3736534386056498,
            "shoulder_pan_joint": -0.3378633547517467,
            "wrist_1_joint": -1.0288598680537169,
            "wrist_2_joint": 1.233022673432363,
            "wrist_3_joint": -3.0940220416140027
        }
    },
    "waypoints": [
        {
            "positions": [
                -0.3378633547517467,
                -1.3736534386056498,
                2.4225746658250005,
                -1.0288598680537169,
                1.233022673432363,
                -3.0940220416140027
            ]
        },
        {
            "positions": [
                -0.32125762982508926,
                -1.3815340829199418,
                2.2916843425615743,
                -0.9856439707969845,
                1.1685067946832042,
                -2.966831347595777
            ]
        },
        {
            "positions": [
                -0.30465190489843175,
                -1.389414727234234,
                2.160794019298148,
                -0.942428073540252,
                1.1039909159340453,
                -2.8396406535775514
            ]
        },
        {
            "positions": [
                -0.2880461799717743,
                -1.3972953715485261,
                2.0299036960347223,
                -0.8992121762835197,
                1.0394750371848867,
                -2.7124499595593257
            ]
        },
        {
            "positions": [
                -0.2714404550451168,
                -1.4051760158628184,
                1.8990133727712961,
                -0.8559962790267872,
                0.9749591584357277,
                -2.5852592655410995
            ]
        },
        {
            "positions": [
                -0.25483473011845936,
                -1.4130566601771104,
                1.7681230495078701,
                -0.8127803817700548,
                0.9104432796865689,
                -2.458068571522874
            ]
        },
        {
            "positions": [
                -0.2382290051918019,
                -1.4209373044914027,
                1.6372327262444442,
                -0.7695644845133225,
                0.84592740093741,
                -2.330877877504648
            ]
        },
        {
            "positions": [
                -0.2216232802651444,
                -1.4288179488056947,
                1.506342402981018,
                -0.72634858725659,
                0.7814115221882512,
                -2.2036871834864225
            ]
        },
        {
            "positions": [
                -0.20501755533848692,
                -1.436698593119987,
                1.3754520797175918,
                -0.6831326899998575,
                0.7168956434390923,
                -2.0764964894681963
            ]
        },
        {
            "positions": [
                -0.18841183041182946,
                -1.444579237434279,
                1.2445617564541658,
                -0.6399167927431251,
                0.6523797646899334,
                -1.9493057954499706
            ]
        },
        {
            "positions": [
                -0.171806105485172,
                -1.4524598817485712,
                1.1136714331907398,
                -0.5967008954863928,
                0.5878638859407747,
                -1.8221151014317452
            ]
        },
        {
            "positions": [
                -0.1552003805585145,
                -1.4603405260628632,
                0.9827811099273137,
                -0.5534849982296604,
                0.5233480071916158,
                -1.6949244074135192
            ]
        },
        {
            "positions": [
                -0.06276947440502151,
                -1.5079754708472524,
                1.084062266081387,
                -0.4563382897435829,
                0.5299026260995985,
                -1.7139420450149927
            ]
        },
        {
            "positions": [
                0.029661431748471495,
                -1.5556104156316415,
                1.1853434222354604,
                -0.3591915812575055,
                0.5364572450075811,
                -1.732959682616466
            ]
        },
        {
            "positions": [
                0.12209233790196453,
                -1.6032453604160306,
                1.2866245783895336,
                -0.2620448727714281,
                0.5430118639155638,
                -1.7519773202179394
            ]
        },
        {
            "positions": [
                0.2145232440554575,
                -1.65088030520042,
                1.387905734543607,
                -0.16489816428535065,
                0.5495664828235465,
                -1.7709949578194129
            ]
        },
        {
            "positions": [
                0.30695415020895056,
                -1.698515249984809,
                1.4891868906976802,
                -0.06775145579927322,
                0.5561211017315291,
                -1.790012595420886
            ]
        },
        {
            "positions": [
                0.3993850563624436,
                -1.7461501947691982,
                1.5904680468517536,
                0.029395252686804263,
                0.5626757206395118,
                -1.8090302330223595
            ]
        },
        {
            "positions": [
                0.4327267741542624,
                -1.7653478620361929,
                1.7096374723099297,
                -0.007018211971577648,
                0.5932963506252034,
                -1.9557578642978493
            ]
        },
        {
            "positions": [
                0.4660684919460812,
                -1.7845455293031873,
                1.8288068977681058,
                -0.04343167662995956,
                0.6239169806108951,
                -2.102485495573339
            ]
        },
        {
            "positions": [
                0.4994102097379,
                -1.803743196570182,
                1.947976323226282,
                -0.07984514128834147,
                0.6545376105965868,
                -2.249213126848829
            ]
        },
        {
            "positions": [
                0.5327519275297188,
                -1.8229408638371767,
                2.067145748684458,
                -0.11625860594672338,
                0.6851582405822784,
                -2.3959407581243184
            ]
        },
        {
            "positions": [
                0.5660936453215376,
                -1.8421385311041711,
                2.186315174142634,
                -0.1526720706051053,
                0.71577887056797,
                -2.5426683893998083
            ]
        },
        {
            "positions": [
                0.5994353631133564,
                -1.8613361983711658,
                2.30548459960081,
                -0.1890855352634872,
                0.7463995005536617,
                -2.6893960206752983
            ]
        },
        {
            "positions": [
                0.6347062177931081,
                -1.876321601510269,
                2.334022369103518,
                -0.2803180293973542,
                0.7328713443558308,
                -2.836919301487132
            ]
        },
        {
            "positions": [
                0.6699770724728596,
                -1.8913070046493723,
                2.362560138606226,
                -0.3715505235312211,
                0.7193431881579999,
                -2.9844425822989664
            ]
        },
        {
            "positions": [
                0.7052479271526113,
                -1.9062924077884755,
                2.3910979081089336,
                -0.46278301766508806,
                0.705815031960169,
                -3.1319658631108003
            ]
        }
    ]
}