{
    "goal": {
        "global_pose": {
            "orientation": {
                "w": 0.5084816262002911,
                "x": -0.4908360881923452,
                "y": 0.5182115481033761,
                "z": -0.48164630358495003
            },
            "position": {
                "x": 0.5540239810943604,
                "y": -0.46912469901144505,
                "z": 0.16403168439865112
            }
        },
        "name": "move_to_storage_B"
    },
    "id": "SBL_move_to_storage_B_10",
    "joint_names": [
        "shoulder_pan_joint",
        "shoulder_lift_joint",
        "elbow_joint",
        "wrist_1_joint",
        "wrist_2_joint",
        "wrist_3_joint"
    ],
    "metrics": {
        "cart_traj_len": 4.657694787700933,
        "distance_elbow_joint": 4.312417902926748,
        "distance_shoulder_lift_joint": 1.3575091898088356,
        "distance_shoulder_pan_joint": 3.754900537356595,
        "distance_wrist_1_joint": 2.3110586967548348,
        "distance_wrist_2_joint": 0.6155859395379917,
        "distance_wrist_3_joint": 3.1704674129991024,
        "smoothness": 0.09896399667854539,
        "time": 0.635525244,
        "traj_len": 3.9397892937800756,
        "weighted_distance": 4.978907424493364
    },
    "planner": "SBL",
    "start": {
        "state": {
            "elbow_joint": -1.6666013991110213,
            "shoulder_lift_joint": -2.479295265494141,
            "shoulder_pan_joint": 2.6606783912885628,
            "wrist_1_joint": 0.9897123657714939,
            "wrist_2_joint": 0.474351758749468,
            "wrist_3_joint": 0.013243222496468381
        }
    },
    "waypoints": [
        {
            "positions": [
                2.6606783912885628,
                -2.479295265494141,
                -1.6666013991110213,
                0.9897123657714939,
                0.474351758749468,
                0.013243222496468381
            ]
        },
        {
            "positions": [
                2.658991815046781,
                -2.4491658809777923,
                -1.695284176766729,
                1.024863691172042,
                0.5123008423601796,
                -0.1884827140236306
            ]
        },
        {
            "positions": [
                2.657305238805,
                -2.4190364964614433,
                -1.7239669544224367,
                1.06001501657259,
                0.5502499259708911,
                -0.3902086505437296
            ]
        },
        {
            "positions": [
                2.655618662563218,
                -2.3889071119450946,
                -1.7526497320781445,
                1.095166341973138,
                0.5881990095816026,
                -0.5919345870638286
            ]
        },
        {
            "positions": [
                2.649864503469135,
                -2.358945922548734,
                -1.7787563512472357,
                1.1251259034635455,
                0.6217217723246371,
                -0.7742321736342662
            ]
        },
        {
            "positions": [
                2.6441103443750515,
                -2.3289847331523736,
                -1.8048629704163273,
                1.155085464953953,
                0.6552445350676716,
                -0.9565297602047038
            ]
        },
        {
            "positions": [
                2.6383561852809683,
                -2.2990235437560127,
                -1.8309695895854186,
                1.1850450264443606,
                0.688767297810706,
                -1.1388273467751415
            ]
        },
        {
            "positions": [
                2.632602026186885,
                -2.269062354359652,
                -1.8570762087545098,
                1.2150045879347682,
                0.7222900605537405,
                -1.321124933345579
            ]
        },
        {
            "positions": [
                2.559806382732036,
                -2.2023755507658684,
                -1.87963446602287,
                1.2081844061909928,
                0.7348931469176911,
                -1.4575823575077362
            ]
        },
        {
            "positions": [
                2.4870107392771867,
                -2.1356887471720847,
                -1.9021927232912306,
                1.2013642244472174,
                0.7474962332816419,
                -1.5940397816698935
            ]
        },
        {
            "positions": [
                2.414215095822337,
                -2.069001943578301,
                -1.9247509805595908,
                1.1945440427034417,
                0.7600993196455926,
                -1.7304972058320507
            ]
        },
        {
            "positions": [
                2.341419452367488,
                -2.002315139984517,
                -1.9473092378279513,
                1.1877238609596663,
                0.7727024060095434,
                -1.866954629994208
            ]
        },
        {
            "positions": [
                2.268623808912639,
                -1.9356283363907332,
                -1.9698674950963115,
                1.180903679215891,
                0.7853054923734941,
                -2.003412054156365
            ]
        },
        {
            "positions": [
                2.146211034262717,
                -1.8570607107082404,
                -1.9742088936418405,
                1.1254481098041742,
                0.7613383038033618,
                -1.9940617285673192
            ]
        },
        {
            "positions": [
                2.023798259612796,
                -1.7784930850257477,
                -1.9785502921873697,
                1.0699925403924575,
                0.7373711152332294,
                -1.9847114029782733
            ]
        },
        {
            "positions": [
                1.916280314589319,
                -1.7558480157381462,
                -1.840603084951149,
                1.0030699739424833,
                0.7285194659651707,
                -2.0238531783289
            ]
        },
        {
            "positions": [
                1.8087623695658424,
                -1.7332029464505447,
                -1.7026558777149283,
                0.9361474074925092,
                0.7196678166971121,
                -2.0629949536795267
            ]
        },
        {
            "positions": [
                1.7012444245423655,
                -1.7105578771629433,
                -1.5647086704787077,
                0.8692248410425352,
                0.7108161674290534,
                -2.102136729030154
            ]
        },
        {
            "positions": [
                1.5937264795188888,
                -1.6879128078753418,
                -1.426761463242487,
                0.802302274592561,
                0.7019645181609948,
                -2.1412785043807805
            ]
        },
        {
            "positions": [
                1.486208534495412,
                -1.6652677385877404,
                -1.288814256006266,
                0.7353797081425868,
                0.6931128688929361,
                -2.180420279731407
            ]
        },
        {
            "positions": [
                1.378690589471935,
                -1.642622669300139,
                -1.1508670487700454,
                0.6684571416926127,
                0.6842612196248775,
                -2.219562055082034
            ]
        },
        {
            "positions": [
                1.2711726444484581,
                -1.6199776000125374,
                -1.0129198415338247,
                0.6015345752426385,
                0.6754095703568188,
                -2.258703830432661
            ]
        },
        {
            "positions": [
                1.1636546994249817,
                -1.597332530724936,
                -0.8749726342976041,
                0.5346120087926645,
                0.6665579210887602,
                -2.2978456057832877
            ]
        },
        {
            "positions": [
                1.0561367544015048,
                -1.5746874614373345,
                -0.7370254270613834,
                0.4676894423426903,
                0.6577062718207015,
                -2.3369873811339144
            ]
        },
        {
            "positions": [
                0.9486188093780279,
                -1.552042392149733,
                -0.5990782198251625,
                0.4007668758927161,
                0.6488546225526429,
                -2.3761291564845415
            ]
        },
        {
            "positions": [
                0.8411008643545512,
                -1.5293973228621316,
                -0.46113101258894207,
                0.3338443094427421,
                0.6400029732845842,
                -2.415270931835168
            ]
        },
        {
            "positions": [
                0.7335829193310743,
                -1.5067522535745301,
                -0.3231838053527212,
                0.26692174299276794,
                0.6311513240165256,
                -2.454412707185795
            ]
        },
        {
            "positions": [
                0.6260649743075974,
                -1.4841071842869287,
                -0.1852365981165005,
                0.19999917654279376,
                0.6222996747484669,
                -2.4935544825364215
            ]
        },
        {
            "positions": [
                0.5185470292841206,
                -1.4614621149993272,
                -0.047289390880279836,
                0.13307661009281957,
                0.6134480254804082,
                -2.532696257887048
            ]
        },
        {
            "positions": [
                0.4110290842606439,
                -1.4388170457117258,
                0.09065781635594083,
                0.06615404364284538,
                0.6045963762123496,
                -2.5718380332376753
            ]
        },
        {
            "positions": [
                0.3035111392371672,
                -1.4161719764241243,
                0.2286050235921615,
                -0.0007685228071285799,
                0.595744726944291,
                -2.610979808588302
            ]
        },
        {
            "positions": [
                0.19599319421369055,
                -1.3935269071365228,
                0.3665522308283822,
                -0.06769108925710254,
                0.5868930776762323,
                -2.6501215839389287
            ]
        },
        {
            "positions": [
                0.08847524919021343,
                -1.3708818378489214,
                0.5044994380646028,
                -0.13461365570707695,
                0.5780414284081736,
                -2.689263359289556
            ]
        },
        {
            "positions": [
                -0.019042695833263235,
                -1.34823676856132,
                0.6424466453008235,
                -0.20153622215705091,
                0.569189779140115,
                -2.728405134640182
            ]
        },
        {
            "positions": [
                -0.12656064085674013,
                -1.3255916992737184,
                0.7803938525370446,
                -0.2684587886070253,
                0.5603381298720563,
                -2.767546909990809
            ]
        },
        {
            "positions": [
                -0.23407858588021702,
                -1.302946629986117,
                0.9183410597732649,
                -0.3353813550569993,
                0.5514864806039977,
                -2.806688685341436
            ]
        },
        {
            "positions": [
                -0.34159653090369346,
                -1.2803015606985155,
                1.0562882670094855,
                -0.40230392150697325,
                0.542634831335939,
                -2.8458304606920626
            ]
        },
        {
            "positions": [
                -0.44911447592717035,
                -1.257656491410914,
                1.1942354742457066,
                -0.46922648795694766,
                0.5337831820678804,
                -2.8849722360426897
            ]
        },
        {
            "positions": [
                -0.5566324209506472,
                -1.2350114221233126,
                1.3321826814819273,
                -0.5361490544069216,
                0.5249315327998217,
                -2.9241140113933164
            ]
        },
        {
            "positions": [
                -0.6641503659741237,
                -1.2123663528357111,
                1.4701298887181475,
                -0.6030716208568956,
                0.5160798835317632,
                -2.963255786743943
            ]
        },
        {
            "positions": [
                -0.771668310997601,
                -1.1897212835481097,
                1.6080770959543687,
                -0.66999418730687,
                0.5072282342637044,
                -3.00239756209457
            ]
        },
        {
            "positions": [
                -0.8791862560210775,
                -1.1670762142605082,
                1.7460243031905893,
                -0.736916753756844,
                0.49837658499564585,
                -3.0415393374451964
            ]
        },
        {
            "positions": [
                -0.9867042010445548,
                -1.1444311449729068,
                1.88397151042681,
                -0.8038393202068184,
                0.48952493572758715,
                -3.0806811127958236
            ]
        },
        {
            "positions": [
                -1.094222146068031,
                -1.1217860756853053,
                2.0219187176630307,
                -0.8707618866567924,
                0.4806732864595285,
                -3.1198228881464503
            ]
        }
    ]
}