{
    "goal": {
        "global_pose": {
            "orientation": {
                "w": -0.4816463035849501,
                "x": 0.5182115481033762,
                "y": 0.4908360881923453,
                "z": -0.5084816262002911
            },
            "position": {
                "x": -0.8240239810943604,
                "y": 0.19912469901144506,
                "z": 0.16403168439865112
            }
        },
        "name": "move_to_storage_D"
    },
    "id": "SBL_move_to_storage_D_114",
    "joint_names": [
        "shoulder_pan_joint",
        "shoulder_lift_joint",
        "elbow_joint",
        "wrist_1_joint",
        "wrist_2_joint",
        "wrist_3_joint"
    ],
    "metrics": {
        "cart_traj_len": 3.940829033961337,
        "distance_elbow_joint": 4.215579293972141,
        "distance_shoulder_lift_joint": 1.2643865686526523,
        "distance_shoulder_pan_joint": 2.811735915251449,
        "distance_wrist_1_joint": 2.829583099857643,
        "distance_wrist_2_joint": 0.8675269543354901,
        "distance_wrist_3_joint": 3.1620511784725744,
        "smoothness": 0.04036698778406005,
        "time": 0.162137726,
        "traj_len": 3.892410950881464,
        "weighted_distance": 5.0171780336839
    },
    "planner": "SBL",
    "start": {
        "state": {
            "elbow_joint": -2.384821988534728,
            "shoulder_lift_joint": -2.2788054721415256,
            "shoulder_pan_joint": -0.1854694642142757,
            "wrist_1_joint": 1.4845938289331202,
            "wrist_2_joint": 0.17898776772866878,
            "wrist_3_joint": 0.037105688729662994
        }
    },
    "waypoints": [
        {
            "positions": [
                -0.1854694642142757,
                -2.2788054721415256,
                -2.384821988534728,
                1.4845938289331202,
                0.17898776772866878,
                0.037105688729662994
            ]
        },
        {
            "positions": [
                -0.09029764449417542,
                -2.231007971746553,
                -2.269088738458597,
                1.3822052825417017,
                0.19137172072101136,
                0.05960344656491703
            ]
        },
        {
            "positions": [
                0.0048741752259248705,
                -2.18321047135158,
                -2.1533554883824655,
                1.279816736150283,
                0.20375567371335396,
                0.08210120440017106
            ]
        },
        {
            "positions": [
                0.10004599494602515,
                -2.135412970956607,
                -2.0376222383063345,
                1.1774281897588645,
                0.21613962670569653,
                0.10459896223542509
            ]
        },
        {
            "positions": [
                0.19521781466612545,
                -2.087615470561634,
                -1.9218889882302035,
                1.0750396433674458,
                0.22852357969803913,
                0.12709672007067913
            ]
        },
        {
            "positions": [
                0.2903896343862258,
                -2.0398179701666614,
                -1.8061557381540725,
                0.9726510969760273,
                0.2409075326903817,
                0.14959447790593317
            ]
        },
        {
            "positions": [
                0.38556145410632603,
                -1.9920204697716883,
                -1.6904224880779413,
                0.8702625505846088,
                0.2532914856827243,
                0.17209223574118718
            ]
        },
        {
            "positions": [
                0.4807332738264264,
                -1.9442229693767155,
                -1.57468923800181,
                0.7678740041931901,
                0.2656754386750669,
                0.19458999357644124
            ]
        },
        {
            "positions": [
                0.5759050935465266,
                -1.8964254689817426,
                -1.458955987925679,
                0.6654854578017716,
                0.27805939166740945,
                0.21708775141169526
            ]
        },
        {
            "positions": [
                0.6710769132666269,
                -1.84862796858677,
                -1.343222737849548,
                0.563096911410353,
                0.290443344659752,
                0.2395855092469493
            ]
        },
        {
            "positions": [
                0.7662487329867272,
                -1.8008304681917968,
                -1.2274894877734168,
                0.4607083650189343,
                0.3028272976520946,
                0.2620832670822033
            ]
        },
        {
            "positions": [
                0.8614205527068276,
                -1.7530329677968242,
                -1.1117562376972858,
                0.35831981862751583,
                0.3152112506444372,
                0.28458102491745735
            ]
        },
        {
            "positions": [
                0.9565923724269277,
                -1.705235467401851,
                -0.9960229876211546,
                0.25593127223609735,
                0.3275952036367798,
                0.3070787827527114
            ]
        },
        {
            "positions": [
                1.051764192147028,
                -1.6574379670068784,
                -0.8802897375450236,
                0.15354272584467865,
                0.33997915662912237,
                0.3295765405879655
            ]
        },
        {
            "positions": [
                1.1469360118671283,
                -1.6096404666119053,
                -0.7645564874688924,
                0.05115417945325995,
                0.352363109621465,
                0.35207429842321947
            ]
        },
        {
            "positions": [
                1.2421078315872285,
                -1.5618429662169326,
                -0.6488232373927614,
                -0.051234366938158304,
                0.3647470626138075,
                0.37457205625847345
            ]
        },
        {
            "positions": [
                1.3372796513073288,
                -1.5140454658219595,
                -0.5330899873166302,
                -0.153622913329577,
                0.37713101560615014,
                0.39706981409372755
            ]
        },
        {
            "positions": [
                1.4324514710274292,
                -1.4662479654269869,
                -0.41735673724049893,
                -0.2560114597209957,
                0.3895149685984927,
                0.41956757192898153
            ]
        },
        {
            "positions": [
                1.5276232907475293,
                -1.418450465032014,
                -0.30162348716436815,
                -0.3584000061124142,
                0.4018989215908353,
                0.4420653297642356
            ]
        },
        {
            "positions": [
                1.6227951104676297,
                -1.3706529646370411,
                -0.1858902370882367,
                -0.46078855250383266,
                0.4142828745831779,
                0.4645630875994896
            ]
        },
        {
            "positions": [
                1.71796693018773,
                -1.322855464242068,
                -0.07015698701210571,
                -0.5631770988952516,
                0.42666682757552044,
                0.4870608454347437
            ]
        },
        {
            "positions": [
                1.8131387499078302,
                -1.2750579638470954,
                0.04557626306402529,
                -0.6655656452866698,
                0.43905078056786306,
                0.5095586032699977
            ]
        },
        {
            "positions": [
                1.9083105696279308,
                -1.2272604634521225,
                0.1613095131401563,
                -0.7679541916780885,
                0.4514347335602056,
                0.5320563611052517
            ]
        },
        {
            "positions": [
                2.003482389348031,
                -1.1794629630571496,
                0.27704276321628774,
                -0.8703427380695072,
                0.4638186865525482,
                0.5545541189405058
            ]
        },
        {
            "positions": [
                2.098654209068131,
                -1.1316654626621767,
                0.39277601329241874,
                -0.9727312844609255,
                0.47620263954489084,
                0.5770518767757598
            ]
        },
        {
            "positions": [
                2.1938260287882314,
                -1.0838679622672038,
                0.5085092633685497,
                -1.0751198308523442,
                0.4885865925372334,
                0.5995496346110138
            ]
        },
        {
            "positions": [
                2.2247146303774414,
                -1.0789073152116089,
                0.6029555520877542,
                -1.05584344227576,
                0.5284386017891567,
                0.7852358655103869
            ]
        },
        {
            "positions": [
                2.2556032319666515,
                -1.0739466681560137,
                0.6974018408069586,
                -1.0365670536991758,
                0.5682906110410799,
                0.97092209640976
            ]
        },
        {
            "positions": [
                2.286491833555862,
                -1.0689860211004187,
                0.791848129526163,
                -1.0172906651225917,
                0.6081426202930031,
                1.156608327309133
            ]
        },
        {
            "positions": [
                2.317380435145072,
                -1.0640253740448238,
                0.8862944182453674,
                -0.9980142765460076,
                0.6479946295449264,
                1.3422945582085062
            ]
        },
        {
            "positions": [
                2.348269036734282,
                -1.0590647269892286,
                0.9807407069645719,
                -0.9787378879694234,
                0.6878466387968496,
                1.5279807891078794
            ]
        },
        {
            "positions": [
                2.379157638323492,
                -1.0541040799336336,
                1.0751869956837763,
                -0.9594614993928392,
                0.7276986480487728,
                1.7136670200072524
            ]
        },
        {
            "positions": [
                2.4100462399127025,
                -1.0491434328780387,
                1.1696332844029809,
                -0.9401851108162551,
                0.767550657300696,
                1.8993532509066255
            ]
        },
        {
            "positions": [
                2.4409348415019125,
                -1.0441827858224435,
                1.264079573122185,
                -0.9209087222396709,
                0.8074026665526193,
                2.0850394818059987
            ]
        },
        {
            "positions": [
                2.4718234430911226,
                -1.0392221387668485,
                1.3585258618413896,
                -0.9016323336630867,
                0.8472546758045426,
                2.2707257127053717
            ]
        },
        {
            "positions": [
                2.5027120446803326,
                -1.0342614917112534,
                1.4529721505605941,
                -0.8823559450865026,
                0.8871066850564658,
                2.4564119436047447
            ]
        },
        {
            "positions": [
                2.5336006462695426,
                -1.0293008446556584,
                1.5474184392797985,
                -0.8630795565099184,
                0.9269586943083891,
                2.6420981745041177
            ]
        },
        {
            "positions": [
                2.564489247858753,
                -1.0243401976000635,
                1.6418647279990028,
                -0.8438031679333342,
                0.9668107035603123,
                2.8277844054034906
            ]
        },
        {
            "positions": [
                2.595377849447963,
                -1.0193795505444683,
                1.7363110167182074,
                -0.8245267793567501,
                1.0066627128122356,
                3.0134706363028645
            ]
        },
        {
            "positions": [
                2.626266451037173,
                -1.0144189034888733,
                1.8307573054374118,
                -0.8052503907801659,
                1.0465147220641589,
                3.1991568672022375
            ]
        }
    ]
}