{
    "goal": {
        "global_pose": {
            "orientation": {
                "w": 0.7031023480610252,
                "x": -0.7110244013736278,
                "y": 0.0077485991402295624,
                "z": 0.005598929693374583
            },
            "position": {
                "x": -0.8841497679147869,
                "y": 0.44412534475326537,
                "z": 0.3711530566215515
            }
        },
        "name": "move_to_auspresseinheit_D"
    },
    "id": "SBL_move_to_auspresseinheit_D_10",
    "joint_names": [
        "shoulder_pan_joint",
        "shoulder_lift_joint",
        "elbow_joint",
        "wrist_1_joint",
        "wrist_2_joint",
        "wrist_3_joint"
    ],
    "metrics": {
        "cart_traj_len": 0.3440413707534554,
        "distance_elbow_joint": 0.6599453663762627,
        "distance_shoulder_lift_joint": 0.13386227829041752,
        "distance_shoulder_pan_joint": 0.13432022588405487,
        "distance_wrist_1_joint": 0.6048178821562398,
        "distance_wrist_2_joint": 1.437202241767269,
        "distance_wrist_3_joint": 0.06378750451451998,
        "smoothness": 5.921189455882201e-16,
        "time": 0.17081800400000002,
        "traj_len": 1.741819594271681,
        "weighted_distance": 2.2811248611028097
    },
    "planner": "SBL",
    "start": {
        "state": {
            "elbow_joint": -1.8275523626775212,
            "shoulder_lift_joint": -2.126789852344167,
            "shoulder_pan_joint": -0.03513704404078235,
            "wrist_1_joint": -2.347782403156801,
            "wrist_2_joint": -1.6058999987535132,
            "wrist_3_joint": -3.0880379163319196
        }
    },
    "waypoints": [
        {
            "positions": [
                -0.03513704404078235,
                -2.126789852344167,
                -1.8275523626775212,
                -2.347782403156801,
                -1.6058999987535132,
                -3.0880379163319196
            ]
        },
        {
            "positions": [
                -0.051927072276289205,
                -2.143522637130469,
                -1.7450591918804883,
                -2.423384638426331,
                -1.4262497185326046,
                -3.0800644782676048
            ]
        },
        {
            "positions": [
                -0.06871710051179607,
                -2.160255421916771,
                -1.6625660210834554,
                -2.498986873695861,
                -1.246599438311696,
                -3.0720910402032895
            ]
        },
        {
            "positions": [
                -0.08550712874730293,
                -2.1769882067030735,
                -1.5800728502864227,
                -2.574589108965391,
                -1.0669491580907873,
                -3.0641176021389747
            ]
        },
        {
            "positions": [
                -0.10229715698280978,
                -2.193720991489376,
                -1.4975796794893899,
                -2.650191344234921,
                -0.8872988778698787,
                -3.0561441640746594
            ]
        },
        {
            "positions": [
                -0.11908718521831665,
                -2.2104537762756777,
                -1.415086508692357,
                -2.7257935795044506,
                -0.7076485976489701,
                -3.0481707260103446
            ]
        },
        {
            "positions": [
                -0.1358772134538235,
                -2.22718656106198,
                -1.3325933378953243,
                -2.8013958147739806,
                -0.5279983174280614,
                -3.0401972879460297
            ]
        },
        {
            "positions": [
                -0.15266724168933035,
                -2.243919345848282,
                -1.2501001670982914,
                -2.8769980500435106,
                -0.3483480372071528,
                -3.0322238498817145
            ]
        },
        {
            "positions": [
                -0.16945726992483723,
                -2.2606521306345844,
                -1.1676069963012585,
                -2.9526002853130406,
                -0.16869775698624417,
                -3.0242504118173996
            ]
        }
    ]
}