{
    "goal": {
        "global_pose": {
            "orientation": {
                "w": 0.005598929693374612,
                "x": 0.007748599140229565,
                "y": 0.7110244013736278,
                "z": -0.7031023480610252
            },
            "position": {
                "x": -0.8858502320852131,
                "y": -0.7141253447532654,
                "z": 0.3711530566215515
            }
        },
        "name": "move_to_auspresseinheit_C"
    },
    "id": "SBL_move_to_auspresseinheit_C_17",
    "joint_names": [
        "shoulder_pan_joint",
        "shoulder_lift_joint",
        "elbow_joint",
        "wrist_1_joint",
        "wrist_2_joint",
        "wrist_3_joint"
    ],
    "metrics": {
        "cart_traj_len": 0.4924704785076257,
        "distance_elbow_joint": 0.9973347664819815,
        "distance_shoulder_lift_joint": 0.3237347304627386,
        "distance_shoulder_pan_joint": 0.25601744195657883,
        "distance_wrist_1_joint": 0.6754391564755634,
        "distance_wrist_2_joint": 1.3070236655878122,
        "distance_wrist_3_joint": 0.05139435323003294,
        "smoothness": 3.2297397080004555e-16,
        "time": 0.312230656,
        "traj_len": 1.9002484348617967,
        "weighted_distance": 2.386670409318838
    },
    "planner": "SBL",
    "start": {
        "state": {
            "elbow_joint": 1.7527959577737207,
            "shoulder_lift_joint": -0.9740617694225068,
            "shoulder_pan_joint": -2.967991417825858,
            "wrist_1_joint": -0.759517768980727,
            "wrist_2_joint": 1.7443932448377408,
            "wrist_3_joint": -3.0840537646736568
        }
    },
    "waypoints": [
        {
            "positions": [
                -2.967991417825858,
                -0.9740617694225068,
                1.7527959577737207,
                -0.759517768980727,
                1.7443932448377408,
                -3.0840537646736568
            ]
        },
        {
            "positions": [
                -2.9423896736302,
                -0.941688296376233,
                1.6530624811255226,
                -0.6919738533331706,
                1.6136908782789596,
                -3.08919319999666
            ]
        },
        {
            "positions": [
                -2.916787929434542,
                -0.909314823329959,
                1.5533290044773245,
                -0.6244299376856143,
                1.4829885117201784,
                -3.094332635319663
            ]
        },
        {
            "positions": [
                -2.8911861852388845,
                -0.8769413502836851,
                1.4535955278291262,
                -0.5568860220380579,
                1.3522861451613972,
                -3.099472070642667
            ]
        },
        {
            "positions": [
                -2.8655844410432265,
                -0.8445678772374113,
                1.353862051180928,
                -0.48934210639050163,
                1.221583778602616,
                -3.10461150596567
            ]
        },
        {
            "positions": [
                -2.8399826968475685,
                -0.8121944041911375,
                1.25412857453273,
                -0.4217981907429453,
                1.0908814120438346,
                -3.1097509412886732
            ]
        },
        {
            "positions": [
                -2.8143809526519106,
                -0.7798209311448636,
                1.1543950978845317,
                -0.3542542750953889,
                0.9601790454850535,
                -3.1148903766116764
            ]
        },
        {
            "positions": [
                -2.7887792084562526,
                -0.7474474580985898,
                1.0546616212363338,
                -0.28671035944783263,
                0.8294766789262723,
                -3.1200298119346797
            ]
        },
        {
            "positions": [
                -2.763177464260595,
                -0.7150739850523159,
                0.9549281445881355,
                -0.21916644380027628,
                0.698774312367491,
                -3.1251692472576833
            ]
        },
        {
            "positions": [
                -2.737575720064937,
                -0.6827005120060421,
                0.8551946679399373,
                -0.15162252815271993,
                0.5680719458087098,
                -3.1303086825806865
            ]
        },
        {
            "positions": [
                -2.711973975869279,
                -0.6503270389597682,
                0.7554611912917392,
                -0.0840786125051636,
                0.43736957924992853,
                -3.1354481179036897
            ]
        }
    ]
}