{
    "goal": {
        "global_pose": {
            "orientation": {
                "w": 0.7047431493862688,
                "x": -0.7094548369677653,
                "y": 0.0024358444001904,
                "z": -0.0022348060817251984
            },
            "position": {
                "x": -0.39052492380142206,
                "y": 0.3671506643295288,
                "z": 0.19426114857196808
            }
        },
        "name": "move_to_magneteinheit_D"
    },
    "id": "SBL_move_to_magneteinheit_D_140",
    "joint_names": [
        "shoulder_pan_joint",
        "shoulder_lift_joint",
        "elbow_joint",
        "wrist_1_joint",
        "wrist_2_joint",
        "wrist_3_joint"
    ],
    "metrics": {
        "cart_traj_len": 7.043709865901348,
        "distance_elbow_joint": 3.11324197633749,
        "distance_shoulder_lift_joint": 2.196752694849504,
        "distance_shoulder_pan_joint": 7.6952012513022945,
        "distance_wrist_1_joint": 4.818597177757805,
        "distance_wrist_2_joint": 1.615843918880811,
        "distance_wrist_3_joint": 5.880940737147616,
        "smoothness": 0.44469798921282994,
        "time": 0.49554083,
        "traj_len": 5.031955659211984,
        "weighted_distance": 6.596734065218135
    },
    "planner": "SBL",
    "start": {
        "state": {
            "elbow_joint": 0.749534889911806,
            "shoulder_lift_joint": -0.6476975780787326,
            "shoulder_pan_joint": -2.711696901376241,
            "wrist_1_joint": -0.07506478083263063,
            "wrist_2_joint": 0.43296659715538205,
            "wrist_3_joint": -3.14703540197715
        }
    },
    "waypoints": [
        {
            "positions": [
                -2.711696901376241,
                -0.6476975780787326,
                0.749534889911806,
                -0.07506478083263063,
                0.43296659715538205,
                -3.14703540197715
            ]
        },
        {
            "positions": [
                -2.7187728574279335,
                -0.6210446033434301,
                0.7093027109396888,
                -0.09917694066738707,
                0.4993516903448524,
                -3.0232356565754737
            ]
        },
        {
            "positions": [
                -2.725848813479626,
                -0.5943916286081277,
                0.6690705319675715,
                -0.1232891005021435,
                0.5657367835343227,
                -2.8994359111737973
            ]
        },
        {
            "positions": [
                -2.7276158431412068,
                -0.5696397960915249,
                0.6208535398839384,
                -0.14892387938763807,
                0.6348008161536748,
                -2.7597532747569944
            ]
        },
        {
            "positions": [
                -2.729382872802788,
                -0.5448879635749222,
                0.5726365478003055,
                -0.17455865827313266,
                0.7038648487730268,
                -2.6200706383401915
            ]
        },
        {
            "positions": [
                -2.7311499024643693,
                -0.5201361310583195,
                0.5244195557166724,
                -0.20019343715862725,
                0.7729288813923789,
                -2.480388001923388
            ]
        },
        {
            "positions": [
                -2.73291693212595,
                -0.49538429854171673,
                0.47620256363303937,
                -0.22582821604412182,
                0.841992914011731,
                -2.3407053655065853
            ]
        },
        {
            "positions": [
                -2.7595907275292446,
                -0.5351830815713733,
                0.38694085975273446,
                -0.2610623492468541,
                0.8360824950033022,
                -2.145790347364048
            ]
        },
        {
            "positions": [
                -2.7862645229325387,
                -0.5749818646010298,
                0.29767915587242955,
                -0.2962964824495864,
                0.8301720759948735,
                -1.9508753292215106
            ]
        },
        {
            "positions": [
                -2.812938318335833,
                -0.6147806476306864,
                0.20841745199212464,
                -0.33153061565231867,
                0.8242616569864447,
                -1.7559603110789734
            ]
        },
        {
            "positions": [
                -2.8396121137391277,
                -0.654579430660343,
                0.11915574811181967,
                -0.36676474885505095,
                0.818351237978016,
                -1.561045292936436
            ]
        },
        {
            "positions": [
                -2.866285909142422,
                -0.6943782136899995,
                0.029894044231514816,
                -0.4019988820577832,
                0.8124408189695872,
                -1.3661302747938988
            ]
        },
        {
            "positions": [
                -2.8929597045457163,
                -0.7341769967196561,
                -0.059367659648790094,
                -0.4372330152605155,
                0.8065303999611585,
                -1.1712152566513616
            ]
        },
        {
            "positions": [
                -2.919633499949011,
                -0.7739757797493126,
                -0.14862936352909506,
                -0.4724671484632478,
                0.8006199809527297,
                -0.9763002385088244
            ]
        },
        {
            "positions": [
                -2.9463072953523053,
                -0.8137745627789692,
                -0.23789106740940003,
                -0.5077012816659802,
                0.794709561944301,
                -0.781385220366287
            ]
        },
        {
            "positions": [
                -2.9729810907556,
                -0.8535733458086258,
                -0.3271527712897049,
                -0.5429354148687124,
                0.7887991429358722,
                -0.5864702022237496
            ]
        },
        {
            "positions": [
                -2.999654886158894,
                -0.8933721288382823,
                -0.41641447517000973,
                -0.5781695480714447,
                0.7828887239274435,
                -0.3915551840812126
            ]
        },
        {
            "positions": [
                -3.0263286815621884,
                -0.9331709118679389,
                -0.5056761790503147,
                -0.613403681274177,
                0.7769783049190147,
                -0.19664016593867517
            ]
        },
        {
            "positions": [
                -2.855957657769591,
                -0.9734740642902455,
                -0.5569262094608319,
                -0.5681691687885206,
                0.7419442412946917,
                -0.249836155707823
            ]
        },
        {
            "positions": [
                -2.685586633976994,
                -1.013777216712552,
                -0.6081762398713493,
                -0.5229346563028643,
                0.7069101776703688,
                -0.3030321454769708
            ]
        },
        {
            "positions": [
                -2.5152156101843963,
                -1.0540803691348588,
                -0.6594262702818665,
                -0.4777001438172078,
                0.6718761140460459,
                -0.3562281352461187
            ]
        },
        {
            "positions": [
                -2.344844586391799,
                -1.0943835215571653,
                -0.7106763006923837,
                -0.43246563133155147,
                0.6368420504217229,
                -0.4094241250152665
            ]
        },
        {
            "positions": [
                -2.1744735625992018,
                -1.134686673979472,
                -0.761926331102901,
                -0.3872311188458951,
                0.6018079867974001,
                -0.46262011478441434
            ]
        },
        {
            "positions": [
                -2.0041025388066043,
                -1.1749898264017786,
                -0.8131763615134183,
                -0.3419966063602387,
                0.5667739231730772,
                -0.5158161045535622
            ]
        },
        {
            "positions": [
                -1.833731515014007,
                -1.2152929788240852,
                -0.8644263919239356,
                -0.2967620938745823,
                0.5317398595487542,
                -0.5690120943227099
            ]
        },
        {
            "positions": [
                -1.6633604912214095,
                -1.255596131246392,
                -0.9156764223344528,
                -0.25152758138892595,
                0.4967057959244313,
                -0.6222080840918578
            ]
        },
        {
            "positions": [
                -1.4929894674288122,
                -1.2958992836686984,
                -0.96692645274497,
                -0.20629306890326954,
                0.46167173230010844,
                -0.6754040738610056
            ]
        },
        {
            "positions": [
                -1.322618443636215,
                -1.3362024360910052,
                -1.0181764831554871,
                -0.16105855641761319,
                0.4266376686757855,
                -0.7286000636301535
            ]
        },
        {
            "positions": [
                -1.1522474198436177,
                -1.3765055885133117,
                -1.0694265135660046,
                -0.11582404393195683,
                0.3916036050514626,
                -0.7817960533993012
            ]
        },
        {
            "positions": [
                -0.9818763960510202,
                -1.4168087409356183,
                -1.120676543976522,
                -0.07058953144630042,
                0.35656954142713965,
                -0.8349920431684492
            ]
        },
        {
            "positions": [
                -0.8115053722584227,
                -1.457111893357925,
                -1.1719265743870393,
                -0.02535501896064396,
                0.3215354778028167,
                -0.8881880329375971
            ]
        },
        {
            "positions": [
                -0.6411343484658256,
                -1.4974150457802315,
                -1.2231766047975565,
                0.019879493525012393,
                0.28650141417849384,
                -0.9413840227067448
            ]
        },
        {
            "positions": [
                -0.4707633246732281,
                -1.5377181982025383,
                -1.2744266352080738,
                0.06511400601066875,
                0.2514673505541709,
                -0.9945800124758927
            ]
        },
        {
            "positions": [
                -0.3003923008806306,
                -1.5780213506248448,
                -1.325676665618591,
                0.1103485184963251,
                0.21643328692984798,
                -1.0477760022450404
            ]
        },
        {
            "positions": [
                -0.13002127708803357,
                -1.6183245030471514,
                -1.3769266960291082,
                0.15558303098198145,
                0.18139922330552505,
                -1.1009719920141883
            ]
        },
        {
            "positions": [
                0.04034974670456393,
                -1.658627655469458,
                -1.4281767264396255,
                0.20081754346763792,
                0.14636515968120223,
                -1.1541679817833361
            ]
        },
        {
            "positions": [
                0.21072077049716098,
                -1.6989308078917646,
                -1.4794267568501427,
                0.24605205595329427,
                0.1113310960568793,
                -1.207363971552484
            ]
        },
        {
            "positions": [
                0.3810917942897585,
                -1.7392339603140714,
                -1.53067678726066,
                0.2912865684389506,
                0.07629703243255637,
                -1.2605599613216318
            ]
        },
        {
            "positions": [
                0.5514628180823555,
                -1.779537112736378,
                -1.5819268176711772,
                0.336521080924607,
                0.041262968808233436,
                -1.3137559510907797
            ]
        },
        {
            "positions": [
                0.721833841874953,
                -1.8198402651586845,
                -1.6331768480816944,
                0.3817555934102633,
                0.006228905183910505,
                -1.3669519408599273
            ]
        },
        {
            "positions": [
                0.892204865667551,
                -1.8601434175809912,
                -1.6844268784922116,
                0.4269901058959198,
                -0.028805158440412426,
                -1.4201479306290754
            ]
        },
        {
            "positions": [
                1.062575889460148,
                -1.900446570003298,
                -1.7356769089027293,
                0.47222461838157614,
                -0.06383922206473536,
                -1.4733439203982233
            ]
        },
        {
            "positions": [
                1.2329469132527455,
                -1.9407497224256045,
                -1.7869269393132465,
                0.5174591308672327,
                -0.09887328568905829,
                -1.5265399101673711
            ]
        },
        {
            "positions": [
                1.403317937045343,
                -1.981052874847911,
                -1.8381769697237638,
                0.5626936433528891,
                -0.13390734931338122,
                -1.579735899936519
            ]
        },
        {
            "positions": [
                1.5736889608379405,
                -2.0213560272702176,
                -1.889427000134281,
                0.6079281558385454,
                -0.16894141293770415,
                -1.6329318897056666
            ]
        },
        {
            "positions": [
                1.7440599846305371,
                -2.061659179692524,
                -1.9406770305447982,
                0.6531626683242018,
                -0.20397547656202697,
                -1.6861278794748145
            ]
        },
        {
            "positions": [
                1.9144310084231346,
                -2.101962332114831,
                -1.9919270609553155,
                0.6983971808098581,
                -0.2390095401863499,
                -1.7393238692439623
            ]
        },
        {
            "positions": [
                2.084802032215732,
                -2.1422654845371376,
                -2.0431770913658327,
                0.7436316932955145,
                -0.27404360381067283,
                -1.7925198590131102
            ]
        },
        {
            "positions": [
                1.965357887092657,
                -2.12134136720466,
                -2.060047091105825,
                0.589777856308853,
                -0.26926565201056457,
                -1.862765427857042
            ]
        },
        {
            "positions": [
                1.8459137419695817,
                -2.100417249872183,
                -2.076917090845817,
                0.43592401932219155,
                -0.26448770021045626,
                -1.9330109967009739
            ]
        },
        {
            "positions": [
                1.7264695968465067,
                -2.0794931325397057,
                -2.0937870905858094,
                0.28207018233553005,
                -0.259709748410348,
                -2.003256565544906
            ]
        },
        {
            "positions": [
                1.6070254517234315,
                -2.0585690152072287,
                -2.1106570903258013,
                0.1282163453488686,
                -0.25493179661023974,
                -2.073502134388838
            ]
        },
        {
            "positions": [
                1.4875813066003563,
                -2.0376448978747512,
                -2.1275270900657937,
                -0.02563749163779283,
                -0.2501538448101315,
                -2.1437477032327696
            ]
        },
        {
            "positions": [
                1.368137161477281,
                -2.0167207805422738,
                -2.1443970898057856,
                -0.17949132862445438,
                -0.2453758930100232,
                -2.2139932720767015
            ]
        },
        {
            "positions": [
                1.2486930163542058,
                -1.9957966632097968,
                -2.161267089545778,
                -0.33334516561111593,
                -0.2405979412099149,
                -2.2842388409206333
            ]
        },
        {
            "positions": [
                1.1292488712311308,
                -1.9748725458773193,
                -2.1781370892857703,
                -0.48719900259777726,
                -0.23581998940980664,
                -2.354484409764565
            ]
        },
        {
            "positions": [
                1.0098047261080556,
                -1.953948428544842,
                -2.1950070890257622,
                -0.6410528395844388,
                -0.23104203760969835,
                -2.424729978608497
            ]
        },
        {
            "positions": [
                0.8903605809849804,
                -1.9330243112123648,
                -2.2118770887657546,
                -0.7949066765711001,
                -0.22626408580959007,
                -2.494975547452429
            ]
        },
        {
            "positions": [
                0.770916435861905,
                -1.9121001938798876,
                -2.2287470885057465,
                -0.9487605135577619,
                -0.2214861340094818,
                -2.5652211162963607
            ]
        },
        {
            "positions": [
                0.65147229073883,
                -1.8911760765474104,
                -2.245617088245739,
                -1.1026143505444232,
                -0.21670818220937352,
                -2.6354666851402926
            ]
        },
        {
            "positions": [
                0.5320281456157547,
                -1.870251959214933,
                -2.2624870879857313,
                -1.2564681875310848,
                -0.21193023040926523,
                -2.7057122539842244
            ]
        },
        {
            "positions": [
                0.41258400049267974,
                -1.8493278418824557,
                -2.279357087725723,
                -1.4103220245177464,
                -0.20715227860915697,
                -2.7759578228281563
            ]
        },
        {
            "positions": [
                0.2931398553696043,
                -1.8284037245499785,
                -2.2962270874657156,
                -1.564175861504408,
                -0.2023743268090487,
                -2.846203391672088
            ]
        },
        {
            "positions": [
                0.1736957102465293,
                -1.8074796072175012,
                -2.3130970872057075,
                -1.718029698491069,
                -0.19759637500894042,
                -2.91644896051602
            ]
        },
        {
            "positions": [
                0.05425156512345408,
                -1.786555489885024,
                -2.3299670869457,
                -1.8718835354777306,
                -0.19281842320883213,
                -2.986694529359952
            ]
        },
        {
            "positions": [
                -0.06519257999962091,
                -1.7656313725525465,
                -2.346837086685692,
                -2.025737372464392,
                -0.18804047140872387,
                -3.0569400982038837
            ]
        },
        {
            "positions": [
                -0.18463672512269638,
                -1.7447072552200693,
                -2.363707086425684,
                -2.1795912094510537,
                -0.1832625196086156,
                -3.1271856670478155
            ]
        }
    ]
}