{
    "goal": {
        "global_pose": {
            "orientation": {
                "w": -0.4816463035849501,
                "x": 0.5182115481033762,
                "y": 0.4908360881923453,
                "z": -0.5084816262002911
            },
            "position": {
                "x": -0.8240239810943604,
                "y": 0.19912469901144506,
                "z": 0.16403168439865112
            }
        },
        "name": "move_to_storage_D"
    },
    "id": "SBL_move_to_storage_D_140",
    "joint_names": [
        "shoulder_pan_joint",
        "shoulder_lift_joint",
        "elbow_joint",
        "wrist_1_joint",
        "wrist_2_joint",
        "wrist_3_joint"
    ],
    "metrics": {
        "cart_traj_len": 0.7756069643637532,
        "distance_elbow_joint": 0.5558659756912439,
        "distance_shoulder_lift_joint": 0.1521369109251327,
        "distance_shoulder_pan_joint": 0.9958690120820267,
        "distance_wrist_1_joint": 3.8253314779900682,
        "distance_wrist_2_joint": 1.7831266032050999,
        "distance_wrist_3_joint": 4.720065214131457,
        "smoothness": 0.31916619929689805,
        "time": 0.318284346,
        "traj_len": 3.4687743071616857,
        "weighted_distance": 5.203939248634934
    },
    "planner": "SBL",
    "start": {
        "state": {
            "elbow_joint": -2.384821988534728,
            "shoulder_lift_joint": -2.2788054721415256,
            "shoulder_pan_joint": -0.1854694642142757,
            "wrist_1_joint": 1.4845938289331202,
            "wrist_2_joint": 0.17898776772866878,
            "wrist_3_joint": 0.037105688729662994
        }
    },
    "waypoints": [
        {
            "positions": [
                -0.1854694642142757,
                -2.2788054721415256,
                -2.384821988534728,
                1.4845938289331202,
                0.17898776772866878,
                0.037105688729662994
            ]
        },
        {
            "positions": [
                -0.11385258024730635,
                -2.264969039605562,
                -2.369340868284506,
                1.4131086641874142,
                0.09078308833551703,
                -0.06038597207667268
            ]
        },
        {
            "positions": [
                -0.04223569628033699,
                -2.2511326070695987,
                -2.3538597480342838,
                1.3416234994417084,
                0.0025784089423652734,
                -0.15787763288300835
            ]
        },
        {
            "positions": [
                0.029381187686632365,
                -2.2372961745336353,
                -2.3383786277840617,
                1.2701383346960025,
                -0.0856262704507865,
                -0.255369293689344
            ]
        },
        {
            "positions": [
                0.10099807165360172,
                -2.2234597419976723,
                -2.3228975075338396,
                1.1986531699502965,
                -0.17383094984393824,
                -0.35286095449567967
            ]
        },
        {
            "positions": [
                0.17261495562057108,
                -2.209623309461709,
                -2.3074163872836175,
                1.1271680052045907,
                -0.26203562923709,
                -0.4503526153020153
            ]
        },
        {
            "positions": [
                0.24423183958754044,
                -2.1957868769257454,
                -2.2919352670333955,
                1.0556828404588847,
                -0.3502403086302418,
                -0.5478442761083511
            ]
        },
        {
            "positions": [
                0.3158487235545099,
                -2.181950444389782,
                -2.2764541467831734,
                0.9841976757131787,
                -0.4384449880233935,
                -0.6453359369146867
            ]
        },
        {
            "positions": [
                0.3874656075214791,
                -2.1681140118538185,
                -2.2609730265329513,
                0.9127125109674729,
                -0.5266496674165453,
                -0.7428275977210224
            ]
        },
        {
            "positions": [
                0.36984336000705115,
                -2.166387118077259,
                -2.2429723176292233,
                0.7771520876331219,
                -0.5715450494190405,
                -0.5786554340676568
            ]
        },
        {
            "positions": [
                0.35222111249262317,
                -2.1646602243007,
                -2.224971608725496,
                0.6415916642987711,
                -0.6164404314215358,
                -0.4144832704142913
            ]
        },
        {
            "positions": [
                0.33459886497819513,
                -2.1629333305241403,
                -2.206970899821768,
                0.5060312409644202,
                -0.661335813424031,
                -0.2503111067609257
            ]
        },
        {
            "positions": [
                0.31697661746376715,
                -2.1612064367475807,
                -2.18897019091804,
                0.3704708176300694,
                -0.7062311954265262,
                -0.0861389431075602
            ]
        },
        {
            "positions": [
                0.29935436994933917,
                -2.1594795429710216,
                -2.1709694820143124,
                0.23491039429571836,
                -0.7511265774290216,
                0.07803322054580542
            ]
        },
        {
            "positions": [
                0.2817321224349112,
                -2.157752649194462,
                -2.1529687731105844,
                0.09934997096136755,
                -0.7960219594315168,
                0.24220538419917093
            ]
        },
        {
            "positions": [
                0.2641098749204832,
                -2.1560257554179025,
                -2.1349680642068565,
                -0.03621045237298337,
                -0.8409173414340121,
                0.40637754785253644
            ]
        },
        {
            "positions": [
                0.24648762740605523,
                -2.1542988616413434,
                -2.116967355303129,
                -0.17177087570733407,
                -0.8858127234365072,
                0.570549711505902
            ]
        },
        {
            "positions": [
                0.22886537989162722,
                -2.152571967864784,
                -2.098966646399401,
                -0.3073312990416851,
                -0.9307081054390025,
                0.7347218751592675
            ]
        },
        {
            "positions": [
                0.21124313237719922,
                -2.1508450740882243,
                -2.080965937495673,
                -0.44289172237603613,
                -0.9756034874414978,
                0.8988940388126332
            ]
        },
        {
            "positions": [
                0.19362088486277126,
                -2.1491181803116652,
                -2.0629652285919455,
                -0.5784521457103867,
                -1.020498869443993,
                1.0630662024659987
            ]
        },
        {
            "positions": [
                0.17599863734834326,
                -2.1473912865351057,
                -2.0449645196882176,
                -0.7140125690447378,
                -1.0653942514464882,
                1.2272383661193642
            ]
        },
        {
            "positions": [
                0.15837638983391528,
                -2.145664392758546,
                -2.02696381078449,
                -0.8495729923790886,
                -1.1102896334489833,
                1.3914105297727295
            ]
        },
        {
            "positions": [
                0.14075414231948727,
                -2.143937498981987,
                -2.008963101880762,
                -0.9851334157134396,
                -1.1551850154514787,
                1.5555826934260952
            ]
        },
        {
            "positions": [
                0.12313189480505932,
                -2.1422106052054275,
                -1.9909623929770341,
                -1.1206938390477905,
                -1.200080397453974,
                1.719754857079461
            ]
        },
        {
            "positions": [
                0.10550964729063134,
                -2.140483711428868,
                -1.9729616840733066,
                -1.256254262382141,
                -1.2449757794564693,
                1.8839270207328263
            ]
        },
        {
            "positions": [
                0.0878873997762033,
                -2.138756817652309,
                -1.9549609751695787,
                -1.3918146857164926,
                -1.2898711614589646,
                2.048099184386192
            ]
        },
        {
            "positions": [
                0.07026515226177532,
                -2.1370299238757493,
                -1.936960266265851,
                -1.5273751090508432,
                -1.3347665434614597,
                2.2122713480395575
            ]
        },
        {
            "positions": [
                0.05264290474734734,
                -2.1353030300991898,
                -1.9189595573621232,
                -1.6629355323851938,
                -1.3796619254639548,
                2.376443511692923
            ]
        },
        {
            "positions": [
                0.035020657232919306,
                -2.1335761363226307,
                -1.9009588484583952,
                -1.7984959557195452,
                -1.4245573074664502,
                2.540615675346289
            ]
        },
        {
            "positions": [
                0.017398409718491326,
                -2.131849242546071,
                -1.8829581395546675,
                -1.9340563790538958,
                -1.4694526894689455,
                2.7047878389996542
            ]
        },
        {
            "positions": [
                -0.00022383779593659892,
                -2.1301223487695116,
                -1.8649574306509398,
                -2.0696168023882464,
                -1.5143480714714408,
                2.8689600026530195
            ]
        },
        {
            "positions": [
                -0.017846085310364634,
                -2.1283954549929525,
                -1.8469567217472118,
                -2.205177225722598,
                -1.5592434534739361,
                3.0331321663063857
            ]
        },
        {
            "positions": [
                -0.035468332824792594,
                -2.126668561216393,
                -1.828956012843484,
                -2.3407376490569485,
                -1.6041388354764312,
                3.1973043299597506
            ]
        }
    ]
}