{
    "goal": {
        "global_pose": {
            "orientation": {
                "w": 0.7031023480610252,
                "x": -0.7110244013736278,
                "y": 0.0077485991402295624,
                "z": 0.005598929693374583
            },
            "position": {
                "x": -0.8841497679147869,
                "y": 0.44412534475326537,
                "z": 0.3711530566215515
            }
        },
        "name": "move_to_auspresseinheit_D"
    },
    "id": "SBL_move_to_auspresseinheit_D_20",
    "joint_names": [
        "shoulder_pan_joint",
        "shoulder_lift_joint",
        "elbow_joint",
        "wrist_1_joint",
        "wrist_2_joint",
        "wrist_3_joint"
    ],
    "metrics": {
        "cart_traj_len": 0.3432310511123003,
        "distance_elbow_joint": 0.6363654627223818,
        "distance_shoulder_lift_joint": 0.1198589912736776,
        "distance_shoulder_pan_joint": 0.13320263858567136,
        "distance_wrist_1_joint": 0.5122126010838368,
        "distance_wrist_2_joint": 1.447731855040406,
        "distance_wrist_3_joint": 0.013479490580081688,
        "smoothness": 1.9737298371844314e-16,
        "time": 0.21682088900000002,
        "traj_len": 1.6919961699974544,
        "weighted_distance": 2.2022158106258485
    },
    "planner": "SBL",
    "start": {
        "state": {
            "elbow_joint": -1.8275523626775212,
            "shoulder_lift_joint": -2.126789852344167,
            "shoulder_pan_joint": -0.03513704404078235,
            "wrist_1_joint": -2.347782403156801,
            "wrist_2_joint": -1.6058999987535132,
            "wrist_3_joint": -3.0880379163319196
        }
    },
    "waypoints": [
        {
            "positions": [
                -0.03513704404078235,
                -2.126789852344167,
                -1.8275523626775212,
                -2.347782403156801,
                -1.6058999987535132,
                -3.0880379163319196
            ]
        },
        {
            "positions": [
                -0.051787373863991265,
                -2.1417722262533765,
                -1.7480066798372236,
                -2.4118089782922807,
                -1.4249335168734625,
                -3.08972285265443
            ]
        },
        {
            "positions": [
                -0.06843770368720019,
                -2.156754600162586,
                -1.6684609969969257,
                -2.47583555342776,
                -1.2439670349934118,
                -3.09140778897694
            ]
        },
        {
            "positions": [
                -0.08508803351040911,
                -2.1717369740717958,
                -1.588915314156628,
                -2.5398621285632395,
                -1.063000553113361,
                -3.0930927252994502
            ]
        },
        {
            "positions": [
                -0.10173836333361802,
                -2.186719347981006,
                -1.5093696313163303,
                -2.6038887036987193,
                -0.8820340712333102,
                -3.0947776616219604
            ]
        },
        {
            "positions": [
                -0.11838869315682696,
                -2.2017017218902155,
                -1.4298239484760327,
                -2.667915278834199,
                -0.7010675893532595,
                -3.0964625979444707
            ]
        },
        {
            "positions": [
                -0.13503902298003587,
                -2.216684095799425,
                -1.3502782656357348,
                -2.7319418539696785,
                -0.5201011074732087,
                -3.098147534266981
            ]
        },
        {
            "positions": [
                -0.15168935280324478,
                -2.231666469708635,
                -1.270732582795437,
                -2.795968429105158,
                -0.339134625593158,
                -3.099832470589491
            ]
        },
        {
            "positions": [
                -0.1683396826264537,
                -2.2466488436178444,
                -1.1911868999551394,
                -2.8599950042406377,
                -0.1581681437131072,
                -3.1015174069120013
            ]
        }
    ]
}