{
    "goal": {
        "global_pose": {
            "orientation": {
                "w": 0.5084816262002911,
                "x": -0.4908360881923452,
                "y": 0.5182115481033761,
                "z": -0.48164630358495003
            },
            "position": {
                "x": 0.5540239810943604,
                "y": -0.46912469901144505,
                "z": 0.16403168439865112
            }
        },
        "name": "move_to_storage_B"
    },
    "id": "SBL_move_to_storage_B_41",
    "joint_names": [
        "shoulder_pan_joint",
        "shoulder_lift_joint",
        "elbow_joint",
        "wrist_1_joint",
        "wrist_2_joint",
        "wrist_3_joint"
    ],
    "metrics": {
        "cart_traj_len": 4.579932545729973,
        "distance_elbow_joint": 3.9328138222627476,
        "distance_shoulder_lift_joint": 1.355980299127977,
        "distance_shoulder_pan_joint": 3.7990787396531345,
        "distance_wrist_1_joint": 2.9048096411964957,
        "distance_wrist_2_joint": 1.0079130348259222,
        "distance_wrist_3_joint": 4.426354892819443,
        "smoothness": 0.3416347854096916,
        "time": 0.437198465,
        "traj_len": 4.17455990852757,
        "weighted_distance": 5.494759584508407
    },
    "planner": "SBL",
    "start": {
        "state": {
            "elbow_joint": -1.6666013991110213,
            "shoulder_lift_joint": -2.479295265494141,
            "shoulder_pan_joint": 2.6606783912885628,
            "wrist_1_joint": 0.9897123657714939,
            "wrist_2_joint": 0.474351758749468,
            "wrist_3_joint": 0.013243222496468381
        }
    },
    "waypoints": [
        {
            "positions": [
                2.6606783912885628,
                -2.479295265494141,
                -1.6666013991110213,
                0.9897123657714939,
                0.474351758749468,
                0.013243222496468381
            ]
        },
        {
            "positions": [
                2.667967613555787,
                -2.443628736305107,
                -1.7071332927567884,
                1.1044907551857228,
                0.4304372120622116,
                0.06395407829724677
            ]
        },
        {
            "positions": [
                2.6752568358230118,
                -2.407962207116073,
                -1.7476651864025552,
                1.219269144599952,
                0.3865226653749552,
                0.11466493409802515
            ]
        },
        {
            "positions": [
                2.682546058090236,
                -2.372295677927039,
                -1.7881970800483222,
                1.3340475340141809,
                0.3426081186876988,
                0.16537578989880355
            ]
        },
        {
            "positions": [
                2.5898193936435168,
                -2.304013406126273,
                -1.7678218666640682,
                1.3692079999138387,
                0.2683182554025728,
                0.26603515667772315
            ]
        },
        {
            "positions": [
                2.4970927291967975,
                -2.2357311343255066,
                -1.7474466532798143,
                1.4043684658134965,
                0.19402839211744685,
                0.36669452345664266
            ]
        },
        {
            "positions": [
                2.4043660647500786,
                -2.16744886252474,
                -1.7270714398955602,
                1.4395289317131543,
                0.11973852883232092,
                0.4673538902355622
            ]
        },
        {
            "positions": [
                2.3116394003033593,
                -2.0991665907239736,
                -1.7066962265113064,
                1.4746893976128121,
                0.0454486655471949,
                0.5680132570144818
            ]
        },
        {
            "positions": [
                2.21891273585664,
                -2.0308843189232073,
                -1.6863210131270523,
                1.50984986351247,
                -0.02884119773793105,
                0.6686726237934013
            ]
        },
        {
            "positions": [
                2.1293565804345356,
                -2.0063554175027467,
                -1.5860685246296422,
                1.445399265040699,
                -0.01520011453959256,
                0.5667557186171173
            ]
        },
        {
            "positions": [
                2.039800425012431,
                -1.981826516082286,
                -1.485816036132232,
                1.3809486665689283,
                -0.0015590313412540725,
                0.4648388134408332
            ]
        },
        {
            "positions": [
                1.9502442695903266,
                -1.9572976146618255,
                -1.3855635476348218,
                1.3164980680971574,
                0.01208205185708442,
                0.3629219082645492
            ]
        },
        {
            "positions": [
                1.860688114168222,
                -1.9327687132413647,
                -1.2853110591374115,
                1.2520474696253867,
                0.025723135055422904,
                0.26100500308826513
            ]
        },
        {
            "positions": [
                1.7711319587461178,
                -1.908239811820904,
                -1.1850585706400014,
                1.1875968711536158,
                0.03936421825376139,
                0.15908809791198109
            ]
        },
        {
            "positions": [
                1.6815758033240134,
                -1.8837109104004435,
                -1.0848060821425913,
                1.123146272681845,
                0.05300530145209989,
                0.05717119273569704
            ]
        },
        {
            "positions": [
                1.5920196479019089,
                -1.8591820089799829,
                -0.9845535936451811,
                1.0586956742100742,
                0.06664638465043837,
                -0.044745712440587004
            ]
        },
        {
            "positions": [
                1.5024634924798044,
                -1.8346531075595223,
                -0.8843011051477709,
                0.9942450757383033,
                0.08028746784877686,
                -0.14666261761687105
            ]
        },
        {
            "positions": [
                1.4129073370577,
                -1.8101242061390617,
                -0.7840486166503607,
                0.9297944772665325,
                0.09392855104711535,
                -0.2485795227931551
            ]
        },
        {
            "positions": [
                1.3233511816355956,
                -1.785595304718601,
                -0.6837961281529505,
                0.8653438787947617,
                0.10756963424545384,
                -0.35049642796943914
            ]
        },
        {
            "positions": [
                1.2337950262134911,
                -1.7610664032981402,
                -0.5835436396555405,
                0.8008932803229909,
                0.12121071744379232,
                -0.4524133331457232
            ]
        },
        {
            "positions": [
                1.1442388707913866,
                -1.7365375018776796,
                -0.48329115115813015,
                0.7364426818512201,
                0.13485180064213081,
                -0.5543302383220072
            ]
        },
        {
            "positions": [
                1.0546827153692822,
                -1.712008600457219,
                -0.38303866266072006,
                0.6719920833794493,
                0.14849288384046933,
                -0.6562471434982913
            ]
        },
        {
            "positions": [
                0.9651265599471777,
                -1.6874796990367584,
                -0.28278617416331,
                0.6075414849076783,
                0.16213396703880778,
                -0.7581640486745753
            ]
        },
        {
            "positions": [
                0.8755704045250732,
                -1.6629507976162978,
                -0.18253368566589967,
                0.5430908864359075,
                0.1757750502371463,
                -0.8600809538508594
            ]
        },
        {
            "positions": [
                0.7860142491029687,
                -1.6384218961958372,
                -0.08228119716848958,
                0.4786402879641367,
                0.18941613343548475,
                -0.9619978590271434
            ]
        },
        {
            "positions": [
                0.6964580936808642,
                -1.6138929947753766,
                0.017971291328920502,
                0.414189689492366,
                0.20305721663382326,
                -1.0639147642034275
            ]
        },
        {
            "positions": [
                0.6069019382587599,
                -1.589364093354916,
                0.11822377982633081,
                0.3497390910205951,
                0.21669829983216177,
                -1.1658316693797115
            ]
        },
        {
            "positions": [
                0.5173457828366554,
                -1.5648351919344554,
                0.21847626832374067,
                0.2852884925488244,
                0.23033938303050022,
                -1.2677485745559953
            ]
        },
        {
            "positions": [
                0.42778962741455095,
                -1.5403062905139946,
                0.3187287568211512,
                0.22083789407705345,
                0.24398046622883873,
                -1.3696654797322796
            ]
        },
        {
            "positions": [
                0.3382334719924467,
                -1.5157773890935342,
                0.41898124531856107,
                0.15638729560528275,
                0.2576215494271772,
                -1.4715823849085634
            ]
        },
        {
            "positions": [
                0.24867731657034198,
                -1.4912484876730734,
                0.5192337338159714,
                0.09193669713351182,
                0.2712626326255157,
                -1.5734992900848477
            ]
        },
        {
            "positions": [
                0.1591211611482377,
                -1.4667195862526128,
                0.6194862223133812,
                0.02748609866174112,
                0.28490371582385415,
                -1.6754161952611315
            ]
        },
        {
            "positions": [
                0.06956500572613322,
                -1.442190684832152,
                0.719738710810792,
                -0.036964499810029805,
                0.2985447990221927,
                -1.7773331004374158
            ]
        },
        {
            "positions": [
                -0.019991149695971266,
                -1.4176617834116914,
                0.8199911993082019,
                -0.10141509828180051,
                0.3121858822205312,
                -1.8792500056136996
            ]
        },
        {
            "positions": [
                -0.10954730511807576,
                -1.3931328819912308,
                0.9202436878056122,
                -0.16586569675357143,
                0.3258269654188697,
                -1.9811669107899839
            ]
        },
        {
            "positions": [
                -0.19910346054018024,
                -1.3686039805707702,
                1.020496176303022,
                -0.23031629522534214,
                0.33946804861720814,
                -2.0830838159662677
            ]
        },
        {
            "positions": [
                -0.28865961596228473,
                -1.3440750791503095,
                1.1207486648004323,
                -0.2947668936971133,
                0.35310913181554665,
                -2.185000721142552
            ]
        },
        {
            "positions": [
                -0.3782157713843892,
                -1.319546177729849,
                1.2210011532978422,
                -0.359217492168884,
                0.3667502150138851,
                -2.2869176263188358
            ]
        },
        {
            "positions": [
                -0.4677719268064937,
                -1.2950172763093883,
                1.321253641795253,
                -0.4236680906406549,
                0.3803912982122236,
                -2.38883453149512
            ]
        },
        {
            "positions": [
                -0.5573280822285978,
                -1.2704883748889277,
                1.4215061302926628,
                -0.4881186891124256,
                0.39403238141056207,
                -2.490751436671404
            ]
        },
        {
            "positions": [
                -0.6468842376507027,
                -1.2459594734684671,
                1.5217586187900731,
                -0.5525692875841965,
                0.4076734646089006,
                -2.592668341847688
            ]
        },
        {
            "positions": [
                -0.7364403930728067,
                -1.2214305720480065,
                1.622011107287483,
                -0.6170198860559672,
                0.4213145478072391,
                -2.694585247023972
            ]
        },
        {
            "positions": [
                -0.8259965484949117,
                -1.1969016706275457,
                1.7222635957848933,
                -0.681470484527738,
                0.4349556310055776,
                -2.796502152200256
            ]
        },
        {
            "positions": [
                -0.9155527039170157,
                -1.1723727692070853,
                1.8225160842823036,
                -0.7459210829995087,
                0.44859671420391606,
                -2.89841905737654
            ]
        },
        {
            "positions": [
                -1.0051088593391202,
                -1.1478438677866245,
                1.922768572779714,
                -0.8103716814712798,
                0.46223779740225457,
                -3.0003359625528243
            ]
        },
        {
            "positions": [
                -1.0946650147612247,
                -1.123314966366164,
                2.0230210612771238,
                -0.8748222799430505,
                0.475878880600593,
                -3.102252867729108
            ]
        }
    ]
}