{
    "goal": {
        "global_pose": {
            "orientation": {
                "w": -0.00223480608172531,
                "x": 0.0024358444001904467,
                "y": 0.7094548369677653,
                "z": -0.704743149386269
            },
            "position": {
                "x": -0.37947507619857795,
                "y": -0.6371506643295288,
                "z": 0.19426114857196808
            }
        },
        "name": "move_to_magneteinheit_C"
    },
    "id": "SBL_move_to_magneteinheit_C_105",
    "joint_names": [
        "shoulder_pan_joint",
        "shoulder_lift_joint",
        "elbow_joint",
        "wrist_1_joint",
        "wrist_2_joint",
        "wrist_3_joint"
    ],
    "metrics": {
        "cart_traj_len": 2.473915794496198,
        "distance_elbow_joint": 2.996277506570517,
        "distance_shoulder_lift_joint": 1.0675726744253031,
        "distance_shoulder_pan_joint": 2.2848628134590787,
        "distance_wrist_1_joint": 4.035251722089704,
        "distance_wrist_2_joint": 3.85430529822319,
        "distance_wrist_3_joint": 6.061678162141323,
        "smoothness": 0.3861827015650258,
        "time": 0.38385888300000004,
        "traj_len": 4.505546379398299,
        "weighted_distance": 6.349241019327007
    },
    "planner": "SBL",
    "start": {
        "state": {
            "elbow_joint": 1.9565354010623817,
            "shoulder_lift_joint": -1.4165861575791021,
            "shoulder_pan_joint": -1.6717766225146293,
            "wrist_1_joint": -0.5286633292919765,
            "wrist_2_joint": 1.472756589071564,
            "wrist_3_joint": -3.1238370188695823
        }
    },
    "waypoints": [
        {
            "positions": [
                -1.6717766225146293,
                -1.4165861575791021,
                1.9565354010623817,
                -0.5286633292919765,
                1.472756589071564,
                -3.1238370188695823
            ]
        },
        {
            "positions": [
                -1.5779173464635834,
                -1.423564655355341,
                1.9044553075130146,
                -0.4613217620012444,
                1.4218887614838192,
                -3.032743290121391
            ]
        },
        {
            "positions": [
                -1.4840580704125377,
                -1.4305431531315798,
                1.8523752139636473,
                -0.3939801947105123,
                1.3710209338960746,
                -2.9416495613731994
            ]
        },
        {
            "positions": [
                -1.3901987943614917,
                -1.4375216509078186,
                1.80029512041428,
                -0.3266386274197802,
                1.32015310630833,
                -2.850555832625008
            ]
        },
        {
            "positions": [
                -1.2963395183104458,
                -1.4445001486840572,
                1.748215026864913,
                -0.2592970601290482,
                1.2692852787205853,
                -2.7594621038768166
            ]
        },
        {
            "positions": [
                -1.2024802422594,
                -1.451478646460296,
                1.696134933315546,
                -0.19195549283831603,
                1.2184174511328405,
                -2.668368375128625
            ]
        },
        {
            "positions": [
                -1.1086209662083542,
                -1.4584571442365348,
                1.6440548397661787,
                -0.12461392554758396,
                1.167549623545096,
                -2.5772746463804337
            ]
        },
        {
            "positions": [
                -1.1481632723090163,
                -1.4339320804703546,
                1.5807993720989328,
                -0.04455105337144791,
                1.0832464146890146,
                -2.4987737645233654
            ]
        },
        {
            "positions": [
                -1.1877055784096786,
                -1.4094070167041743,
                1.5175439044316867,
                0.03551181880468815,
                0.9989432058329334,
                -2.420272882666297
            ]
        },
        {
            "positions": [
                -1.2272478845103407,
                -1.384881952937994,
                1.4542884367644406,
                0.11557469098082415,
                0.9146399969768522,
                -2.3417720008092293
            ]
        },
        {
            "positions": [
                -1.2667901906110028,
                -1.3603568891718139,
                1.3910329690971948,
                0.19563756315696026,
                0.8303367881207708,
                -2.263271118952161
            ]
        },
        {
            "positions": [
                -1.306332496711665,
                -1.3358318254056336,
                1.3277775014299489,
                0.2757004353330963,
                0.7460335792646896,
                -2.1847702370950928
            ]
        },
        {
            "positions": [
                -1.3458748028123273,
                -1.3113067616394534,
                1.2645220337627028,
                0.35576330750923224,
                0.6617303704086084,
                -2.106269355238025
            ]
        },
        {
            "positions": [
                -1.3854171089129894,
                -1.2867816978732731,
                1.201266566095457,
                0.4358261796853683,
                0.5774271615525272,
                -2.0277684733809567
            ]
        },
        {
            "positions": [
                -1.4249594150136518,
                -1.2622566341070929,
                1.1380110984282108,
                0.5158890518615045,
                0.4931239526964457,
                -1.9492675915238884
            ]
        },
        {
            "positions": [
                -1.4645017211143139,
                -1.2377315703409126,
                1.074755630760965,
                0.5959519240376404,
                0.4088207438403645,
                -1.8707667096668201
            ]
        },
        {
            "positions": [
                -1.504044027214976,
                -1.2132065065747324,
                1.0115001630937188,
                0.6760147962137765,
                0.32451753498428326,
                -1.792265827809752
            ]
        },
        {
            "positions": [
                -1.5547498367609867,
                -1.1883000834959643,
                0.9615291852975891,
                0.7360874516462448,
                0.25468432246923095,
                -1.731710646589279
            ]
        },
        {
            "positions": [
                -1.6054556463069973,
                -1.1633936604171962,
                0.9115582075014594,
                0.7961601070787132,
                0.1848511099541786,
                -1.671155465368806
            ]
        },
        {
            "positions": [
                -1.6765964370783217,
                -1.1325784061140631,
                0.8639451734862026,
                0.8567386885430459,
                0.09937079190879257,
                -1.5896298603732641
            ]
        },
        {
            "positions": [
                -1.747737227849646,
                -1.10176315181093,
                0.8163321394709459,
                0.9173172700073786,
                0.013890473863406527,
                -1.5081042553777224
            ]
        },
        {
            "positions": [
                -1.8188780186209703,
                -1.070947897507797,
                0.768719105455689,
                0.9778958514717113,
                -0.07158984418197947,
                -1.4265786503821807
            ]
        },
        {
            "positions": [
                -1.8900188093922945,
                -1.040132643204664,
                0.7211060714404323,
                1.038474432936044,
                -0.15707016222736556,
                -1.3450530453866387
            ]
        },
        {
            "positions": [
                -1.9611596001636191,
                -1.0093173889015308,
                0.6734930374251754,
                1.0990530144003767,
                -0.24255048027275158,
                -1.2635274403910968
            ]
        },
        {
            "positions": [
                -2.0323003909349433,
                -0.9785021345983979,
                0.6258800034099187,
                1.1596315958647094,
                -0.32803079831813753,
                -1.182001835395555
            ]
        },
        {
            "positions": [
                -2.1034411817062675,
                -0.9476868802952647,
                0.5782669693946618,
                1.2202101773290421,
                -0.41351111636352367,
                -1.1004762304000133
            ]
        },
        {
            "positions": [
                -2.1745819724775917,
                -0.9168716259921317,
                0.5306539353794051,
                1.2807887587933748,
                -0.4989914344089097,
                -1.0189506254044713
            ]
        },
        {
            "positions": [
                -2.2457227632489163,
                -0.8860563716889986,
                0.48304090136414823,
                1.3413673402577075,
                -0.5844717524542957,
                -0.9374250204089295
            ]
        },
        {
            "positions": [
                -2.327115198021395,
                -0.8682741837700501,
                0.5246630940244852,
                1.3125930944320783,
                -0.639182771143308,
                -0.8359428443979153
            ]
        },
        {
            "positions": [
                -2.4085076327938735,
                -0.8504919958511015,
                0.5662852866848221,
                1.2838188486064488,
                -0.6938937898323204,
                -0.7344606683869013
            ]
        },
        {
            "positions": [
                -2.489900067566352,
                -0.8327098079321529,
                0.6079074793451591,
                1.2550446027808195,
                -0.7486048085213327,
                -0.6329784923758872
            ]
        },
        {
            "positions": [
                -2.5712925023388307,
                -0.8149276200132043,
                0.649529672005496,
                1.22627035695519,
                -0.8033158272103451,
                -0.531496316364873
            ]
        },
        {
            "positions": [
                -2.6526849371113093,
                -0.7971454320942557,
                0.691151864665833,
                1.1974961111295608,
                -0.8580268458993574,
                -0.43001414035385904
            ]
        },
        {
            "positions": [
                -2.650848523458888,
                -0.8214048107862397,
                0.7989988088564994,
                1.0522945259237764,
                -0.8022744885598747,
                -0.38407534312234076
            ]
        },
        {
            "positions": [
                -2.6490121098064674,
                -0.8456641894782239,
                0.9068457530471657,
                0.9070929407179922,
                -0.7465221312203919,
                -0.3381365458908225
            ]
        },
        {
            "positions": [
                -2.6471756961540462,
                -0.8699235681702079,
                1.014692697237832,
                0.7618913555122078,
                -0.6907697738809092,
                -0.2921977486593042
            ]
        },
        {
            "positions": [
                -2.6453392825016255,
                -0.8941829468621919,
                1.1225396414284985,
                0.6166897703064235,
                -0.6350174165414264,
                -0.24625895142778592
            ]
        },
        {
            "positions": [
                -2.6435028688492044,
                -0.918442325554176,
                1.230386585619165,
                0.47148818510063906,
                -0.5792650592019437,
                -0.20032015419626764
            ]
        },
        {
            "positions": [
                -2.6416664551967837,
                -0.9427017042461601,
                1.3382335298098313,
                0.32628659989485476,
                -0.523512701862461,
                -0.15438135696474936
            ]
        },
        {
            "positions": [
                -2.6398300415443625,
                -0.9669610829381441,
                1.4460804740004978,
                0.18108501468907037,
                -0.4677603445229782,
                -0.10844255973323111
            ]
        },
        {
            "positions": [
                -2.630333534727903,
                -0.9845358219939686,
                1.5056689613131726,
                0.08089764457817242,
                -0.39675540018883365,
                -0.1960162164109195
            ]
        },
        {
            "positions": [
                -2.620837027911444,
                -1.0021105610497931,
                1.5652574486258477,
                -0.019289725532725538,
                -0.3257504558546891,
                -0.28358987308860795
            ]
        },
        {
            "positions": [
                -2.6113405210949847,
                -1.0196853001056176,
                1.6248459359385226,
                -0.1194770956436235,
                -0.2547455115205445,
                -0.3711635297662963
            ]
        },
        {
            "positions": [
                -2.6018440142785257,
                -1.0372600391614422,
                1.6844344232511974,
                -0.21966446575452145,
                -0.18374056718639992,
                -0.45873718644398476
            ]
        },
        {
            "positions": [
                -2.5923475074620663,
                -1.0548347782172667,
                1.7440229105638725,
                -0.31985183586541943,
                -0.1127356228522553,
                -0.5463108431216732
            ]
        },
        {
            "positions": [
                -2.5828510006456074,
                -1.0724095172730912,
                1.8036113978765473,
                -0.4200392059763174,
                -0.04173067851811074,
                -0.6338844997993616
            ]
        },
        {
            "positions": [
                -2.573354493829148,
                -1.0899842563289157,
                1.8631998851892222,
                -0.5202265760872153,
                0.0292742658160339,
                -0.72145815647705
            ]
        },
        {
            "positions": [
                -2.5635232195323794,
                -1.0971393714680089,
                1.877462287493943,
                -0.550589289706725,
                0.09289634096972163,
                -0.9647849671031655
            ]
        },
        {
            "positions": [
                -2.5536919452356104,
                -1.104294486607102,
                1.8917246897986641,
                -0.5809520033262349,
                0.15651841612340936,
                -1.208111777729281
            ]
        },
        {
            "positions": [
                -2.543860670938842,
                -1.111449601746195,
                1.905987092103385,
                -0.6113147169457447,
                0.2201404912770971,
                -1.4514385883553964
            ]
        },
        {
            "positions": [
                -2.534029396642073,
                -1.1186047168852882,
                1.920249494408106,
                -0.6416774305652544,
                0.2837625664307848,
                -1.694765398981512
            ]
        },
        {
            "positions": [
                -2.5241981223453043,
                -1.1257598320243813,
                1.934511896712827,
                -0.6720401441847641,
                0.3473846415844726,
                -1.9380922096076274
            ]
        },
        {
            "positions": [
                -2.5143668480485357,
                -1.1329149471634745,
                1.9487742990175478,
                -0.7024028578042739,
                0.41100671673816025,
                -2.1814190202337427
            ]
        },
        {
            "positions": [
                -2.5045355737517667,
                -1.1400700623025677,
                1.963036701322269,
                -0.7327655714237837,
                0.4746287918918479,
                -2.424745830859858
            ]
        },
        {
            "positions": [
                -2.494704299454998,
                -1.1472251774416606,
                1.9772991036269898,
                -0.7631282850432934,
                0.5382508670455357,
                -2.6680726414859737
            ]
        },
        {
            "positions": [
                -2.484873025158229,
                -1.1543802925807538,
                1.9915615059317109,
                -0.7934909986628031,
                0.6018729421992235,
                -2.9113994521120894
            ]
        },
        {
            "positions": [
                -2.4750417508614606,
                -1.161535407719847,
                2.0058239082364318,
                -0.823853712282313,
                0.6654950173529112,
                -3.1547262627382047
            ]
        }
    ]
}