{
    "goal": {
        "global_pose": {
            "orientation": {
                "w": -0.00223480608172531,
                "x": 0.0024358444001904467,
                "y": 0.7094548369677653,
                "z": -0.704743149386269
            },
            "position": {
                "x": -0.37947507619857795,
                "y": -0.6371506643295288,
                "z": 0.19426114857196808
            }
        },
        "name": "move_to_magneteinheit_C"
    },
    "id": "SBL_move_to_magneteinheit_C_131",
    "joint_names": [
        "shoulder_pan_joint",
        "shoulder_lift_joint",
        "elbow_joint",
        "wrist_1_joint",
        "wrist_2_joint",
        "wrist_3_joint"
    ],
    "metrics": {
        "cart_traj_len": 1.7129932839615385,
        "distance_elbow_joint": 1.2317048690175425,
        "distance_shoulder_lift_joint": 0.931940473316671,
        "distance_shoulder_pan_joint": 1.7019229041066397,
        "distance_wrist_1_joint": 1.6447209060541206,
        "distance_wrist_2_joint": 1.684842216962008,
        "distance_wrist_3_joint": 2.6227285789104466,
        "smoothness": 1.0453596971023462,
        "time": 0.914989064,
        "traj_len": 3.133346445634033,
        "weighted_distance": 4.2886921350458875
    },
    "planner": "SBL",
    "start": {
        "state": {
            "elbow_joint": 1.9565354010623817,
            "shoulder_lift_joint": -1.4165861575791021,
            "shoulder_pan_joint": -1.6717766225146293,
            "wrist_1_joint": -0.5286633292919765,
            "wrist_2_joint": 1.472756589071564,
            "wrist_3_joint": -3.1238370188695823
        }
    },
    "waypoints": [
        {
            "positions": [
                -1.6717766225146293,
                -1.4165861575791021,
                1.9565354010623817,
                -0.5286633292919765,
                1.472756589071564,
                -3.1238370188695823
            ]
        },
        {
            "positions": [
                -1.6093168259514492,
                -1.4475210633394253,
                1.921002509150571,
                -0.47574981892617585,
                1.4366691852136655,
                -2.955999821596856
            ]
        },
        {
            "positions": [
                -1.5468570293882689,
                -1.4784559690997485,
                1.88546961723876,
                -0.4228363085603753,
                1.400581781355767,
                -2.78816262432413
            ]
        },
        {
            "positions": [
                -1.4843972328250887,
                -1.5093908748600715,
                1.8499367253269492,
                -0.36992279819457474,
                1.3644943774978684,
                -2.6203254270514043
            ]
        },
        {
            "positions": [
                -1.4219374362619084,
                -1.5403257806203947,
                1.8144038334151382,
                -0.31700928782877413,
                1.32840697363997,
                -2.452488229778678
            ]
        },
        {
            "positions": [
                -1.3594776396987283,
                -1.571260686380718,
                1.7788709415033275,
                -0.2640957774629736,
                1.2923195697820715,
                -2.284651032505952
            ]
        },
        {
            "positions": [
                -1.4750079366168078,
                -1.5917431366193322,
                1.744389589970566,
                -0.21825592672118663,
                1.1745355645479698,
                -2.2336943281930144
            ]
        },
        {
            "positions": [
                -1.5905382335348874,
                -1.6122255868579463,
                1.7099082384378046,
                -0.17241607597939967,
                1.0567515593138683,
                -2.182737623880077
            ]
        },
        {
            "positions": [
                -1.7060685304529668,
                -1.6327080370965605,
                1.675426886905043,
                -0.1265762252376127,
                0.9389675540797666,
                -2.131780919567139
            ]
        },
        {
            "positions": [
                -1.8215988273710464,
                -1.6531904873351746,
                1.6409455353722815,
                -0.08073637449582574,
                0.8211835488456649,
                -2.0808242152542014
            ]
        },
        {
            "positions": [
                -1.937129124289126,
                -1.6736729375737889,
                1.6064641838395202,
                -0.03489652375403876,
                0.7033995436115632,
                -2.029867510941264
            ]
        },
        {
            "positions": [
                -2.0526594212072053,
                -1.694155387812403,
                1.5719828323067586,
                0.010943326987748192,
                0.5856155383774616,
                -1.9789108066283263
            ]
        },
        {
            "positions": [
                -2.168189718125285,
                -1.7146378380510172,
                1.537501480773997,
                0.05678317772953517,
                0.4678315331433599,
                -1.9279541023153886
            ]
        },
        {
            "positions": [
                -2.2837200150433645,
                -1.7351202882896313,
                1.5030201292412357,
                0.1026230284713221,
                0.3500475279092583,
                -1.8769973980024508
            ]
        },
        {
            "positions": [
                -2.399250311961444,
                -1.7556027385282456,
                1.4685387777084742,
                0.14846287921310908,
                0.23226352267515663,
                -1.8260406936895133
            ]
        },
        {
            "positions": [
                -2.4415917605043536,
                -1.7289225055064488,
                1.5197931551956316,
                0.07417362122593471,
                0.26170104384304255,
                -1.9421319795181957
            ]
        },
        {
            "positions": [
                -2.483933209047263,
                -1.702242272484652,
                1.5710475326827888,
                -0.00011563676123965694,
                0.2911385650109285,
                -2.058223265346878
            ]
        },
        {
            "positions": [
                -2.5262746575901724,
                -1.675562039462855,
                1.6223019101699463,
                -0.074404894748414,
                0.32057608617881445,
                -2.1743145511755606
            ]
        },
        {
            "positions": [
                -2.568616106133082,
                -1.6488818064410582,
                1.6735562876571035,
                -0.1486941527355884,
                0.3500136073467004,
                -2.290405837004243
            ]
        },
        {
            "positions": [
                -2.6109575546759913,
                -1.6222015734192614,
                1.724810665144261,
                -0.22298341072276273,
                0.37945112851458634,
                -2.4064971228329255
            ]
        },
        {
            "positions": [
                -2.596227602073423,
                -1.5696415243825885,
                1.7889414152901337,
                -0.29796830823165193,
                0.39870613081439504,
                -2.516251420787396
            ]
        },
        {
            "positions": [
                -2.581497649470854,
                -1.5170814753459156,
                1.8530721654360063,
                -0.37295320574054114,
                0.41796113311420374,
                -2.626005718741867
            ]
        },
        {
            "positions": [
                -2.5667676968682858,
                -1.4645214263092425,
                1.9172029155818788,
                -0.44793810324943034,
                0.43721613541401244,
                -2.7357600166963376
            ]
        },
        {
            "positions": [
                -2.5520377442657174,
                -1.4119613772725697,
                1.9813336657277516,
                -0.5229230007583195,
                0.45647113771382114,
                -2.845514314650808
            ]
        },
        {
            "positions": [
                -2.5373077916631486,
                -1.3594013282358968,
                2.0454644158736244,
                -0.5979078982672088,
                0.47572614001362984,
                -2.955268612605279
            ]
        },
        {
            "positions": [
                -2.52257783906058,
                -1.3068412791992239,
                2.109595166019497,
                -0.672892795776098,
                0.49498114231343854,
                -3.0650229105597497
            ]
        },
        {
            "positions": [
                -2.497695693711548,
                -1.234760062679971,
                2.0582692373431906,
                -0.746012307056012,
                0.5857969077770985,
                -3.1079979289898203
            ]
        },
        {
            "positions": [
                -2.4728135483625158,
                -1.162678846160718,
                2.0069433086668846,
                -0.819131818335926,
                0.6766126732407584,
                -3.150972947419891
            ]
        }
    ]
}