{
    "goal": {
        "global_pose": {
            "orientation": {
                "w": -0.4816463035849501,
                "x": 0.5182115481033762,
                "y": 0.4908360881923453,
                "z": -0.5084816262002911
            },
            "position": {
                "x": -0.8240239810943604,
                "y": -0.300875300988555,
                "z": 0.16403168439865112
            }
        },
        "name": "move_to_storage_C"
    },
    "id": "SBL_move_to_storage_C_46",
    "joint_names": [
        "shoulder_pan_joint",
        "shoulder_lift_joint",
        "elbow_joint",
        "wrist_1_joint",
        "wrist_2_joint",
        "wrist_3_joint"
    ],
    "metrics": {
        "cart_traj_len": 0.5767296268766499,
        "distance_elbow_joint": 0.2584158718256222,
        "distance_shoulder_lift_joint": 0.18831216525922456,
        "distance_shoulder_pan_joint": 0.49635745523714947,
        "distance_wrist_1_joint": 0.0869744363830911,
        "distance_wrist_2_joint": 1.0608764490657845,
        "distance_wrist_3_joint": 0.06887457547246223,
        "smoothness": 0.0,
        "time": 0.215481558,
        "traj_len": 1.4696295292499173,
        "weighted_distance": 1.856181830973769
    },
    "planner": "SBL",
    "start": {
        "state": {
            "elbow_joint": 2.010868314990456,
            "shoulder_lift_joint": -1.1634956873337592,
            "shoulder_pan_joint": -2.4736205022346125,
            "wrist_1_joint": -0.8367026794202681,
            "wrist_2_joint": 0.6746043897044499,
            "wrist_3_joint": -3.1496632123970403
        }
    },
    "waypoints": [
        {
            "positions": [
                -2.4736205022346125,
                -1.1634956873337592,
                2.010868314990456,
                -0.8367026794202681,
                0.6746043897044499,
                -3.1496632123970403
            ]
        },
        {
            "positions": [
                -2.5563467447741375,
                -1.1321103264572216,
                1.9677990030195187,
                -0.8222069400230863,
                0.851417131215414,
                -3.1381841164849633
            ]
        },
        {
            "positions": [
                -2.6390729873136625,
                -1.1007249655806843,
                1.9247296910485818,
                -0.8077112006259044,
                1.0282298727263781,
                -3.1267050205728864
            ]
        },
        {
            "positions": [
                -2.721799229853187,
                -1.069339604704147,
                1.8816603790776447,
                -0.7932154612287226,
                1.205042614237342,
                -3.115225924660809
            ]
        },
        {
            "positions": [
                -2.804525472392712,
                -1.0379542438276095,
                1.8385910671067076,
                -0.7787197218315407,
                1.3818553557483062,
                -3.103746828748732
            ]
        },
        {
            "positions": [
                -2.887251714932237,
                -1.006568882951072,
                1.7955217551357707,
                -0.7642239824343589,
                1.5586680972592704,
                -3.092267732836655
            ]
        },
        {
            "positions": [
                -2.969977957471762,
                -0.9751835220745346,
                1.7524524431648336,
                -0.749728243037177,
                1.7354808387702343,
                -3.080788636924578
            ]
        }
    ]
}