{
    "goal": {
        "global_pose": {
            "orientation": {
                "w": -0.00223480608172531,
                "x": 0.0024358444001904467,
                "y": 0.7094548369677653,
                "z": -0.704743149386269
            },
            "position": {
                "x": -0.37947507619857795,
                "y": -0.6371506643295288,
                "z": 0.19426114857196808
            }
        },
        "name": "move_to_magneteinheit_C"
    },
    "id": "SBL_move_to_magneteinheit_C_110",
    "joint_names": [
        "shoulder_pan_joint",
        "shoulder_lift_joint",
        "elbow_joint",
        "wrist_1_joint",
        "wrist_2_joint",
        "wrist_3_joint"
    ],
    "metrics": {
        "cart_traj_len": 0.6730370187521982,
        "distance_elbow_joint": 0.17002696920794458,
        "distance_shoulder_lift_joint": 0.2525002077727836,
        "distance_shoulder_pan_joint": 0.8722987175284691,
        "distance_wrist_1_joint": 2.0473457620648374,
        "distance_wrist_2_joint": 1.7674569545453993,
        "distance_wrist_3_joint": 6.305197405320711,
        "smoothness": 0.9248556540326907,
        "time": 0.316161503,
        "traj_len": 3.378583433399292,
        "weighted_distance": 5.276364614362033
    },
    "planner": "SBL",
    "start": {
        "state": {
            "elbow_joint": 1.9565354010623817,
            "shoulder_lift_joint": -1.4165861575791021,
            "shoulder_pan_joint": -1.6717766225146293,
            "wrist_1_joint": -0.5286633292919765,
            "wrist_2_joint": 1.472756589071564,
            "wrist_3_joint": -3.1238370188695823
        }
    },
    "waypoints": [
        {
            "positions": [
                -1.6717766225146293,
                -1.4165861575791021,
                1.9565354010623817,
                -0.5286633292919765,
                1.472756589071564,
                -3.1238370188695823
            ]
        },
        {
            "positions": [
                -1.7241009337025128,
                -1.4122987658466257,
                1.952967267425139,
                -0.474358124941548,
                1.392730792643527,
                -2.9273278755856
            ]
        },
        {
            "positions": [
                -1.7764252448903963,
                -1.4080113741141491,
                1.9493991337878966,
                -0.42005292059111954,
                1.3127049962154902,
                -2.7308187323016178
            ]
        },
        {
            "positions": [
                -1.8287495560782796,
                -1.4037239823816727,
                1.945831000150654,
                -0.365747716240691,
                1.2326791997874533,
                -2.534309589017636
            ]
        },
        {
            "positions": [
                -1.881073867266163,
                -1.3994365906491963,
                1.9422628665134116,
                -0.31144251189026256,
                1.1526534033594165,
                -2.3378004457336536
            ]
        },
        {
            "positions": [
                -1.9333981784540466,
                -1.3951491989167197,
                1.938694732876169,
                -0.2571373075398341,
                1.0726276069313796,
                -2.1412913024496714
            ]
        },
        {
            "positions": [
                -1.98572248964193,
                -1.3908618071842433,
                1.9351265992389264,
                -0.2028321031894056,
                0.9926018105033427,
                -1.9447821591656893
            ]
        },
        {
            "positions": [
                -2.0380468008298136,
                -1.3865744154517667,
                1.931558465601684,
                -0.14852689883897713,
                0.9125760140753059,
                -1.7482730158817072
            ]
        },
        {
            "positions": [
                -2.090371112017697,
                -1.3822870237192904,
                1.9279903319644414,
                -0.09422169448854867,
                0.832550217647269,
                -1.551763872597725
            ]
        },
        {
            "positions": [
                -2.1426954232055806,
                -1.377999631986814,
                1.9244221983271987,
                -0.03991649013812021,
                0.7525244212192321,
                -1.3552547293137427
            ]
        },
        {
            "positions": [
                -2.1950197343934637,
                -1.3737122402543374,
                1.9208540646899563,
                0.014388714212308251,
                0.6724986247911953,
                -1.1587455860297606
            ]
        },
        {
            "positions": [
                -2.2473440455813476,
                -1.369424848521861,
                1.9172859310527137,
                0.06869391856273677,
                0.5924728283631584,
                -0.9622364427457786
            ]
        },
        {
            "positions": [
                -2.2996683567692306,
                -1.3651374567893844,
                1.913717797415471,
                0.12299912291316528,
                0.5124470319351215,
                -0.7657272994617963
            ]
        },
        {
            "positions": [
                -2.351992667957114,
                -1.360850065056908,
                1.9101496637782287,
                0.1773043272635937,
                0.43242123550708467,
                -0.569218156177814
            ]
        },
        {
            "positions": [
                -2.4043169791449976,
                -1.3565626733244316,
                1.906581530140986,
                0.2316095316140222,
                0.3523954390790478,
                -0.3727090128938322
            ]
        },
        {
            "positions": [
                -2.456641290332881,
                -1.352275281591955,
                1.9030133965037437,
                0.2859147359644506,
                0.27236964265101093,
                -0.1761998696098499
            ]
        },
        {
            "positions": [
                -2.5089656015207646,
                -1.3479878898594786,
                1.899445262866501,
                0.3402199403148791,
                0.19234384622297404,
                0.020309273674132447
            ]
        },
        {
            "positions": [
                -2.5064577630548834,
                -1.3348520369985386,
                1.9075121793673628,
                0.25604404799645186,
                0.22713271848703187,
                -0.20548009152422447
            ]
        },
        {
            "positions": [
                -2.5039499245890027,
                -1.3217161841375986,
                1.9155790958682244,
                0.1718681556780246,
                0.2619215907510897,
                -0.4312694567225814
            ]
        },
        {
            "positions": [
                -2.501442086123122,
                -1.3085803312766586,
                1.9236460123690862,
                0.08769226335959734,
                0.2967104630151475,
                -0.6570588219209382
            ]
        },
        {
            "positions": [
                -2.4989342476572407,
                -1.2954444784157186,
                1.931712928869948,
                0.0035163710411700855,
                0.3314993352792053,
                -0.8828481871192951
            ]
        },
        {
            "positions": [
                -2.4964264091913595,
                -1.2823086255547786,
                1.9397798453708097,
                -0.08065952127725717,
                0.36628820754326313,
                -1.1086375523176522
            ]
        },
        {
            "positions": [
                -2.4939185707254787,
                -1.2691727726938387,
                1.9478467618716713,
                -0.16483541359568443,
                0.40107707980732094,
                -1.334426917516009
            ]
        },
        {
            "positions": [
                -2.491410732259598,
                -1.2560369198328987,
                1.955913678372533,
                -0.2490113059141117,
                0.4358659520713788,
                -1.560216282714366
            ]
        },
        {
            "positions": [
                -2.4889028937937168,
                -1.2429010669719585,
                1.9639805948733948,
                -0.33318719823253895,
                0.4706548243354366,
                -1.7860056479127229
            ]
        },
        {
            "positions": [
                -2.4863950553278356,
                -1.2297652141110185,
                1.9720475113742564,
                -0.4173630905509663,
                0.5054436965994944,
                -2.01179501311108
            ]
        },
        {
            "positions": [
                -2.483887216861955,
                -1.2166293612500785,
                1.9801144278751182,
                -0.5015389828693935,
                0.5402325688635522,
                -2.2375843783094367
            ]
        },
        {
            "positions": [
                -2.481379378396074,
                -1.2034935083891385,
                1.98818134437598,
                -0.5857148751878207,
                0.57502144112761,
                -2.4633737435077934
            ]
        },
        {
            "positions": [
                -2.478871539930193,
                -1.1903576555281985,
                1.9962482608768417,
                -0.669890767506248,
                0.6098103133916678,
                -2.6891631087061505
            ]
        },
        {
            "positions": [
                -2.4763637014643116,
                -1.1772218026672585,
                2.0043151773777033,
                -0.7540666598246752,
                0.6445991856557257,
                -2.9149524739045076
            ]
        },
        {
            "positions": [
                -2.473855862998431,
                -1.1640859498063185,
                2.012382093878565,
                -0.8382425521431024,
                0.6793880579197835,
                -3.1407418391028643
            ]
        }
    ]
}