{
    "goal": {
        "global_pose": {
            "orientation": {
                "w": -0.4816463035849501,
                "x": 0.5182115481033762,
                "y": 0.4908360881923453,
                "z": -0.5084816262002911
            },
            "position": {
                "x": -0.8240239810943604,
                "y": -0.300875300988555,
                "z": 0.16403168439865112
            }
        },
        "name": "move_to_storage_C"
    },
    "id": "SBL_move_to_storage_C_55",
    "joint_names": [
        "shoulder_pan_joint",
        "shoulder_lift_joint",
        "elbow_joint",
        "wrist_1_joint",
        "wrist_2_joint",
        "wrist_3_joint"
    ],
    "metrics": {
        "cart_traj_len": 0.5770230484501393,
        "distance_elbow_joint": 0.2600128236489372,
        "distance_shoulder_lift_joint": 0.18891516288380605,
        "distance_shoulder_pan_joint": 0.4962416577208799,
        "distance_wrist_1_joint": 0.08874660001365908,
        "distance_wrist_2_joint": 1.0603756083696418,
        "distance_wrist_3_joint": 0.06273709540361816,
        "smoothness": 0.0,
        "time": 0.200108426,
        "traj_len": 1.4686827254518051,
        "weighted_distance": 1.8524646682814436
    },
    "planner": "SBL",
    "start": {
        "state": {
            "elbow_joint": 2.010868314990456,
            "shoulder_lift_joint": -1.1634956873337592,
            "shoulder_pan_joint": -2.4736205022346125,
            "wrist_1_joint": -0.8367026794202681,
            "wrist_2_joint": 0.6746043897044499,
            "wrist_3_joint": -3.1496632123970403
        }
    },
    "waypoints": [
        {
            "positions": [
                -2.4736205022346125,
                -1.1634956873337592,
                2.010868314990456,
                -0.8367026794202681,
                0.6746043897044499,
                -3.1496632123970403
            ]
        },
        {
            "positions": [
                -2.5563274451880926,
                -1.132009826853125,
                1.9675328443822997,
                -0.8219115794179916,
                0.8513336577660569,
                -3.1392070298297705
            ]
        },
        {
            "positions": [
                -2.6390343881415723,
                -1.1005239663724904,
                1.9241973737741433,
                -0.8071204794157151,
                1.028062925827664,
                -3.1287508472625007
            ]
        },
        {
            "positions": [
                -2.7217413310950525,
                -1.069038105891856,
                1.8808619031659872,
                -0.7923293794134385,
                1.2047921938892707,
                -3.118294664695231
            ]
        },
        {
            "positions": [
                -2.8044482740485326,
                -1.0375522454112218,
                1.837526432557831,
                -0.777538279411162,
                1.3815214619508778,
                -3.1078384821279617
            ]
        },
        {
            "positions": [
                -2.8871552170020123,
                -1.0060663849305875,
                1.7941909619496748,
                -0.7627471794088856,
                1.5582507300124848,
                -3.097382299560692
            ]
        },
        {
            "positions": [
                -2.9698621599554924,
                -0.9745805244499531,
                1.7508554913415186,
                -0.747956079406609,
                1.7349799980740919,
                -3.086926116993422
            ]
        }
    ]
}