{
    "goal": {
        "global_pose": {
            "orientation": {
                "w": 0.5084816262002911,
                "x": -0.4908360881923452,
                "y": 0.5182115481033761,
                "z": -0.48164630358495003
            },
            "position": {
                "x": 0.5540239810943604,
                "y": -0.46912469901144505,
                "z": 0.16403168439865112
            }
        },
        "name": "move_to_storage_B"
    },
    "id": "SBL_move_to_storage_B_15",
    "joint_names": [
        "shoulder_pan_joint",
        "shoulder_lift_joint",
        "elbow_joint",
        "wrist_1_joint",
        "wrist_2_joint",
        "wrist_3_joint"
    ],
    "metrics": {
        "cart_traj_len": 4.2932320364671135,
        "distance_elbow_joint": 3.6838140654548344,
        "distance_shoulder_lift_joint": 1.3947358813018036,
        "distance_shoulder_pan_joint": 3.7538175456906124,
        "distance_wrist_1_joint": 3.1948879114029425,
        "distance_wrist_2_joint": 2.883927733835,
        "distance_wrist_3_joint": 4.290727452980402,
        "smoothness": 0.21438294705652453,
        "time": 0.411887038,
        "traj_len": 4.381998469952448,
        "weighted_distance": 5.819122025002083
    },
    "planner": "SBL",
    "start": {
        "state": {
            "elbow_joint": -1.6666013991110213,
            "shoulder_lift_joint": -2.479295265494141,
            "shoulder_pan_joint": 2.6606783912885628,
            "wrist_1_joint": 0.9897123657714939,
            "wrist_2_joint": 0.474351758749468,
            "wrist_3_joint": 0.013243222496468381
        }
    },
    "waypoints": [
        {
            "positions": [
                2.6606783912885628,
                -2.479295265494141,
                -1.6666013991110213,
                0.9897123657714939,
                0.474351758749468,
                0.013243222496468381
            ]
        },
        {
            "positions": [
                2.6561824245897827,
                -2.4855227407209974,
                -1.6420113370736604,
                0.9927654356183967,
                0.3612098075992001,
                -0.12245987226645351
            ]
        },
        {
            "positions": [
                2.651686457891003,
                -2.4917502159478544,
                -1.6174212750362997,
                0.9958185054652996,
                0.24806785644893214,
                -0.2581629670293754
            ]
        },
        {
            "positions": [
                2.647190491192223,
                -2.497977691174711,
                -1.5928312129989388,
                0.9988715753122024,
                0.13492590529866422,
                -0.39386606179229733
            ]
        },
        {
            "positions": [
                2.6053288628926743,
                -2.4480064111366797,
                -1.541320740185099,
                1.0619332838044055,
                0.017745882354621795,
                -0.42882851053018123
            ]
        },
        {
            "positions": [
                2.5634672345931255,
                -2.3980351310986485,
                -1.4898102673712594,
                1.1249949922966087,
                -0.09943414058942063,
                -0.4637909592680651
            ]
        },
        {
            "positions": [
                2.5216056062935763,
                -2.3480638510606173,
                -1.4382997945574196,
                1.1880567007888116,
                -0.21661416353346302,
                -0.498753408005949
            ]
        },
        {
            "positions": [
                2.4797439779940276,
                -2.298092571022586,
                -1.38678932174358,
                1.2511184092810148,
                -0.3337941864775055,
                -0.5337158567438328
            ]
        },
        {
            "positions": [
                2.437882349694479,
                -2.248121290984555,
                -1.3352788489297402,
                1.314180117773218,
                -0.45097420942154787,
                -0.5686783054817167
            ]
        },
        {
            "positions": [
                2.3567640157875,
                -2.1752594021875,
                -1.2649897216186528,
                1.3739767742562516,
                -0.5359784544070111,
                -0.5482161001011088
            ]
        },
        {
            "positions": [
                2.2756456818805213,
                -2.1023975133904447,
                -1.1947005943075655,
                1.4337734307392853,
                -0.6209826993924743,
                -0.5277538947205008
            ]
        },
        {
            "positions": [
                2.1945273479735423,
                -2.0295356245933895,
                -1.124411466996478,
                1.4935700872223192,
                -0.7059869443779375,
                -0.5072916893398929
            ]
        },
        {
            "positions": [
                2.1134090140665633,
                -1.9566737357963346,
                -1.0541223396853905,
                1.5533667437053529,
                -0.7909911893634007,
                -0.48682948395928494
            ]
        },
        {
            "positions": [
                2.032290680159585,
                -1.8838118469992795,
                -0.9838332123743031,
                1.6131634001883866,
                -0.875995434348864,
                -0.46636727857867694
            ]
        },
        {
            "positions": [
                1.9511723462526058,
                -1.8109499582022244,
                -0.9135440850632157,
                1.6729600566714202,
                -0.9609996793343272,
                -0.445905073198069
            ]
        },
        {
            "positions": [
                1.8666081379010877,
                -1.7918103547953148,
                -0.8321341753019094,
                1.6031922727685586,
                -0.9207614488967938,
                -0.34629305395588655
            ]
        },
        {
            "positions": [
                1.7820439295495694,
                -1.772670751388405,
                -0.750724265540603,
                1.533424488865697,
                -0.8805232184592603,
                -0.24668103471370412
            ]
        },
        {
            "positions": [
                1.6974797211980512,
                -1.7535311479814955,
                -0.6693143557792967,
                1.4636567049628355,
                -0.8402849880217269,
                -0.14706901547152168
            ]
        },
        {
            "positions": [
                1.612915512846533,
                -1.7343915445745859,
                -0.5879044460179903,
                1.3938889210599739,
                -0.8000467575841935,
                -0.04745699622933924
            ]
        },
        {
            "positions": [
                1.5283513044950148,
                -1.715251941167676,
                -0.5064945362566837,
                1.3241211371571122,
                -0.75980852714666,
                0.052155023012843194
            ]
        },
        {
            "positions": [
                1.4437870961434967,
                -1.6961123377607665,
                -0.4250846264953775,
                1.2543533532542506,
                -0.7195702967091266,
                0.15176704225502563
            ]
        },
        {
            "positions": [
                1.3592228877919783,
                -1.676972734353857,
                -0.343674716734071,
                1.184585569351389,
                -0.6793320662715931,
                0.25137906149720807
            ]
        },
        {
            "positions": [
                1.27465867944046,
                -1.6578331309469472,
                -0.2622648069727648,
                1.1148177854485275,
                -0.6390938358340599,
                0.3509910807393905
            ]
        },
        {
            "positions": [
                1.1900944710889418,
                -1.6386935275400376,
                -0.1808548972114583,
                1.0450500015456656,
                -0.5988556053965264,
                0.45060309998157294
            ]
        },
        {
            "positions": [
                1.1055302627374237,
                -1.619553924133128,
                -0.09944498745015184,
                0.9752822176428041,
                -0.5586173749589929,
                0.5502151192237554
            ]
        },
        {
            "positions": [
                1.0209660543859054,
                -1.6004143207262183,
                -0.01803507768884549,
                0.9055144337399424,
                -0.5183791445214595,
                0.649827138465938
            ]
        },
        {
            "positions": [
                0.9364018460343873,
                -1.5812747173193087,
                0.06337483207246075,
                0.8357466498370809,
                -0.4781409140839261,
                0.7494391577081203
            ]
        },
        {
            "positions": [
                0.8518376376828689,
                -1.5621351139123991,
                0.1447847418337671,
                0.7659788659342193,
                -0.43790268364639273,
                0.8490511769503026
            ]
        },
        {
            "positions": [
                0.7672734293313508,
                -1.5429955105054893,
                0.22619465159507368,
                0.6962110820313577,
                -0.39766445320885924,
                0.9486631961924852
            ]
        },
        {
            "positions": [
                0.6827092209798324,
                -1.5238559070985798,
                0.30760456135638004,
                0.626443298128496,
                -0.35742622277132585,
                1.0482752154346677
            ]
        },
        {
            "positions": [
                0.5981450126283143,
                -1.5047163036916702,
                0.38901447111768617,
                0.5566755142256345,
                -0.31718799233379247,
                1.14788723467685
            ]
        },
        {
            "positions": [
                0.5135808042767962,
                -1.4855767002847604,
                0.47042438087899274,
                0.4869077303227729,
                -0.276949761896259,
                1.2474992539190324
            ]
        },
        {
            "positions": [
                0.42901659592527785,
                -1.4664370968778508,
                0.5518342906402991,
                0.41713994641991126,
                -0.2367115314587256,
                1.347111273161215
            ]
        },
        {
            "positions": [
                0.3444523875737595,
                -1.4472974934709413,
                0.6332442004016055,
                0.3473721625170496,
                -0.1964733010211922,
                1.4467232924033975
            ]
        },
        {
            "positions": [
                0.2598881792222414,
                -1.4281578900640315,
                0.714654110162912,
                0.27760437861418796,
                -0.1562350705836587,
                1.5463353116455798
            ]
        },
        {
            "positions": [
                0.17532397087072304,
                -1.409018286657122,
                0.7960640199242184,
                0.20783659471132632,
                -0.11599684014612532,
                1.6459473308877623
            ]
        },
        {
            "positions": [
                0.09075976251920492,
                -1.3898786832502124,
                0.8774739296855247,
                0.13806881080846467,
                -0.07575860970859183,
                1.745559350129945
            ]
        },
        {
            "positions": [
                0.006195554167686801,
                -1.3707390798433026,
                0.9588838394468309,
                0.06830102690560325,
                -0.035520379271058555,
                1.845171369372127
            ]
        },
        {
            "positions": [
                -0.07836865418383132,
                -1.351599476436393,
                1.0402937492081372,
                -0.0014667569972584005,
                0.00471785116647494,
                1.9447833886143095
            ]
        },
        {
            "positions": [
                -0.16293286253534944,
                -1.3324598730294834,
                1.1217036589694438,
                -0.07123454090012005,
                0.044956081604008435,
                2.044395407856492
            ]
        },
        {
            "positions": [
                -0.247497070886868,
                -1.3133202696225736,
                1.20311356873075,
                -0.1410023248029817,
                0.08519431204154171,
                2.144007427098674
            ]
        },
        {
            "positions": [
                -0.33206127923838613,
                -1.294180666215664,
                1.2845234784920565,
                -0.21077010870584312,
                0.1254325424790752,
                2.2436194463408565
            ]
        },
        {
            "positions": [
                -0.41662548758990425,
                -1.2750410628087545,
                1.365933388253363,
                -0.28053789260870476,
                0.1656707729166087,
                2.343231465583039
            ]
        },
        {
            "positions": [
                -0.5011896959414228,
                -1.2559014594018447,
                1.4473432980146692,
                -0.3503056765115664,
                0.20590900335414197,
                2.4428434848252216
            ]
        },
        {
            "positions": [
                -0.5857539042929409,
                -1.2367618559949352,
                1.5287532077759758,
                -0.4200734604144283,
                0.24614723379167547,
                2.542455504067404
            ]
        },
        {
            "positions": [
                -0.6703181126444591,
                -1.2176222525880256,
                1.6101631175372824,
                -0.4898412443172897,
                0.28638546422920896,
                2.6420675233095867
            ]
        },
        {
            "positions": [
                -0.7548823209959772,
                -1.1984826491811158,
                1.691573027298588,
                -0.5596090282201511,
                0.32662369466674224,
                2.741679542551769
            ]
        },
        {
            "positions": [
                -0.8394465293474953,
                -1.1793430457742062,
                1.7729829370598946,
                -0.629376812123013,
                0.36686192510427573,
                2.841291561793951
            ]
        },
        {
            "positions": [
                -0.9240107376990134,
                -1.1602034423672967,
                1.8543928468212012,
                -0.6991445960258744,
                0.4071001555418092,
                2.9409035810361335
            ]
        },
        {
            "positions": [
                -1.008574946050532,
                -1.1410638389603869,
                1.9358027565825073,
                -0.7689123799287363,
                0.4473383859793425,
                3.040515600278316
            ]
        },
        {
            "positions": [
                -1.09313915440205,
                -1.1219242355534773,
                2.0172126663438137,
                -0.8386801638315978,
                0.487576616416876,
                3.1401276195204986
            ]
        }
    ]
}