{
    "goal": {
        "global_pose": {
            "orientation": {
                "w": 0.005598929693374612,
                "x": 0.007748599140229565,
                "y": 0.7110244013736278,
                "z": -0.7031023480610252
            },
            "position": {
                "x": -0.8858502320852131,
                "y": -0.7141253447532654,
                "z": 0.3711530566215515
            }
        },
        "name": "move_to_auspresseinheit_C"
    },
    "id": "SBL_move_to_auspresseinheit_C_105",
    "joint_names": [
        "shoulder_pan_joint",
        "shoulder_lift_joint",
        "elbow_joint",
        "wrist_1_joint",
        "wrist_2_joint",
        "wrist_3_joint"
    ],
    "metrics": {
        "cart_traj_len": 0.49217066076186733,
        "distance_elbow_joint": 0.9907196681960172,
        "distance_shoulder_lift_joint": 0.3209411114433848,
        "distance_shoulder_pan_joint": 0.25584529817746393,
        "distance_wrist_1_joint": 0.6565886525113851,
        "distance_wrist_2_joint": 1.309856208421686,
        "distance_wrist_3_joint": 0.03786051728309836,
        "smoothness": 0.0,
        "time": 0.3077318,
        "traj_len": 1.889923664075625,
        "weighted_distance": 2.369383327267309
    },
    "planner": "SBL",
    "start": {
        "state": {
            "elbow_joint": 1.7527959577737207,
            "shoulder_lift_joint": -0.9740617694225068,
            "shoulder_pan_joint": -2.967991417825858,
            "wrist_1_joint": -0.759517768980727,
            "wrist_2_joint": 1.7443932448377408,
            "wrist_3_joint": -3.0840537646736568
        }
    },
    "waypoints": [
        {
            "positions": [
                -2.967991417825858,
                -0.9740617694225068,
                1.7527959577737207,
                -0.759517768980727,
                1.7443932448377408,
                -3.0840537646736568
            ]
        },
        {
            "positions": [
                -2.9424068880081116,
                -0.9419676582781683,
                1.653723990954119,
                -0.6938589037295885,
                1.6134076239955721,
                -3.0878398164019667
            ]
        },
        {
            "positions": [
                -2.916822358190365,
                -0.9098735471338298,
                1.5546520241345172,
                -0.62820003847845,
                1.4824220031534037,
                -3.0916258681302766
            ]
        },
        {
            "positions": [
                -2.891237828372619,
                -0.8777794359894914,
                1.4555800573149156,
                -0.5625411732273115,
                1.351436382311235,
                -3.095411919858586
            ]
        },
        {
            "positions": [
                -2.8656532985548724,
                -0.8456853248451528,
                1.3565080904953137,
                -0.49688230797617294,
                1.2204507614690665,
                -3.099197971586896
            ]
        },
        {
            "positions": [
                -2.840068768737126,
                -0.8135912137008143,
                1.2574361236757121,
                -0.43122344272503443,
                1.0894651406268978,
                -3.102984023315206
            ]
        },
        {
            "positions": [
                -2.8144842389193796,
                -0.7814971025564759,
                1.1583641568561105,
                -0.3655645774738959,
                0.9584795197847292,
                -3.106770075043516
            ]
        },
        {
            "positions": [
                -2.788899709101633,
                -0.7494029914121374,
                1.0592921900365087,
                -0.29990571222275747,
                0.8274938989425606,
                -3.110556126771826
            ]
        },
        {
            "positions": [
                -2.763315179283887,
                -0.7173088802677989,
                0.9602202232169068,
                -0.2342468469716189,
                0.696508278100392,
                -3.1143421785001353
            ]
        },
        {
            "positions": [
                -2.7377306494661404,
                -0.6852147691234605,
                0.8611482563973052,
                -0.1685879817204804,
                0.5655226572582233,
                -3.118128230228445
            ]
        },
        {
            "positions": [
                -2.712146119648394,
                -0.653120657979122,
                0.7620762895777035,
                -0.1029291164693419,
                0.43453703641605473,
                -3.121914281956755
            ]
        }
    ]
}