{
    "goal": {
        "global_pose": {
            "orientation": {
                "w": 0.5084816217422485,
                "x": -0.49083608388900757,
                "y": 0.5182115435600281,
                "z": -0.4816462993621826
            },
            "position": {
                "x": 0.5540239810943604,
                "y": 0.030875300988554955,
                "z": 0.16403168439865112
            }
        },
        "name": "move_to_storage_A"
    },
    "id": "SBL_move_to_storage_A_141",
    "joint_names": [
        "shoulder_pan_joint",
        "shoulder_lift_joint",
        "elbow_joint",
        "wrist_1_joint",
        "wrist_2_joint",
        "wrist_3_joint"
    ],
    "metrics": {
        "cart_traj_len": 0.35301857428860794,
        "distance_elbow_joint": 0.4479352793967033,
        "distance_shoulder_lift_joint": 0.23433674119540404,
        "distance_shoulder_pan_joint": 0.45861444454616845,
        "distance_wrist_1_joint": 0.24072664275265465,
        "distance_wrist_2_joint": 1.1108217688850992,
        "distance_wrist_3_joint": 0.10653338788973121,
        "smoothness": 0.0,
        "time": 0.261727037,
        "traj_len": 1.6121315903690245,
        "weighted_distance": 2.04048608230563
    },
    "planner": "SBL",
    "start": {
        "state": {
            "elbow_joint": 1.9715481507254546,
            "shoulder_lift_joint": -1.1394850672790213,
            "shoulder_pan_joint": 0.12281154597544902,
            "wrist_1_joint": -0.7804720171073349,
            "wrist_2_joint": 0.12958658322886563,
            "wrist_3_joint": -3.1924895760937617
        }
    },
    "waypoints": [
        {
            "positions": [
                0.12281154597544902,
                -1.1394850672790213,
                1.9715481507254546,
                -0.7804720171073349,
                0.12958658322886563,
                -3.1924895760937617
            ]
        },
        {
            "positions": [
                0.05729519675456782,
                -1.1729617445926506,
                2.0355389049249837,
                -0.8148615375005713,
                0.2882754073553083,
                -3.177270520680943
            ]
        },
        {
            "positions": [
                -0.008221152466313386,
                -1.2064384219062796,
                2.0995296591245127,
                -0.8492510578938077,
                0.4469642314817511,
                -3.1620514652681244
            ]
        },
        {
            "positions": [
                -0.07373750168719459,
                -1.2399150992199088,
                2.1635204133240418,
                -0.883640578287044,
                0.6056530556081938,
                -3.1468324098553055
            ]
        },
        {
            "positions": [
                -0.1392538509080758,
                -1.2733917765335379,
                2.227511167523571,
                -0.9180300986802804,
                0.7643418797346365,
                -3.1316133544424867
            ]
        },
        {
            "positions": [
                -0.20477020012895703,
                -1.306868453847167,
                2.2915019217231,
                -0.9524196190735168,
                0.9230307038610793,
                -3.116394299029668
            ]
        },
        {
            "positions": [
                -0.2702865493498382,
                -1.3403451311607961,
                2.355492675922629,
                -0.9868091394667532,
                1.081719527987522,
                -3.1011752436168494
            ]
        },
        {
            "positions": [
                -0.33580289857071943,
                -1.3738218084744254,
                2.419483430122158,
                -1.0211986598599896,
                1.2404083521139648,
                -3.0859561882040305
            ]
        }
    ]
}