{
    "goal": {
        "global_pose": {
            "orientation": {
                "w": -0.4816463035849501,
                "x": 0.5182115481033762,
                "y": 0.4908360881923453,
                "z": -0.5084816262002911
            },
            "position": {
                "x": -0.8240239810943604,
                "y": -0.300875300988555,
                "z": 0.16403168439865112
            }
        },
        "name": "move_to_storage_C"
    },
    "id": "SBL_move_to_storage_C_88",
    "joint_names": [
        "shoulder_pan_joint",
        "shoulder_lift_joint",
        "elbow_joint",
        "wrist_1_joint",
        "wrist_2_joint",
        "wrist_3_joint"
    ],
    "metrics": {
        "cart_traj_len": 0.5770827713402585,
        "distance_elbow_joint": 0.2622115984598057,
        "distance_shoulder_lift_joint": 0.1905737556799595,
        "distance_shoulder_pan_joint": 0.4938275079425627,
        "distance_wrist_1_joint": 0.09040214273024416,
        "distance_wrist_2_joint": 1.0746766045115241,
        "distance_wrist_3_joint": 0.07393019688030122,
        "smoothness": 0.0,
        "time": 0.34893135799999997,
        "traj_len": 1.4783848640338542,
        "weighted_distance": 1.8704440508089966
    },
    "planner": "SBL",
    "start": {
        "state": {
            "elbow_joint": 2.010868314990456,
            "shoulder_lift_joint": -1.1634956873337592,
            "shoulder_pan_joint": -2.4736205022346125,
            "wrist_1_joint": -0.8367026794202681,
            "wrist_2_joint": 0.6746043897044499,
            "wrist_3_joint": -3.1496632123970403
        }
    },
    "waypoints": [
        {
            "positions": [
                -2.4736205022346125,
                -1.1634956873337592,
                2.010868314990456,
                -0.8367026794202681,
                0.6746043897044499,
                -3.1496632123970403
            ]
        },
        {
            "positions": [
                -2.5559250868917065,
                -1.1317333947204327,
                1.9671663819138216,
                -0.8216356556318941,
                0.8537171571230373,
                -3.13734151291699
            ]
        },
        {
            "positions": [
                -2.6382296715488,
                -1.099971102107106,
                1.9234644488371873,
                -0.80656863184352,
                1.0328299245416246,
                -3.12501981343694
            ]
        },
        {
            "positions": [
                -2.7205342562058936,
                -1.0682088094937794,
                1.8797625157605529,
                -0.791501608055146,
                1.2119426919602119,
                -3.1126981139568897
            ]
        },
        {
            "positions": [
                -2.8028388408629876,
                -1.0364465168804529,
                1.8360605826839187,
                -0.776434584266772,
                1.3910554593787992,
                -3.1003764144768393
            ]
        },
        {
            "positions": [
                -2.8851434255200816,
                -1.0046842242671263,
                1.7923586496072845,
                -0.7613675604783979,
                1.5701682267973869,
                -3.0880547149967894
            ]
        },
        {
            "positions": [
                -2.967448010177175,
                -0.9729219316537997,
                1.7486567165306501,
                -0.7463005366900239,
                1.749280994215974,
                -3.075733015516739
            ]
        }
    ]
}