{
    "goal": {
        "global_pose": {
            "orientation": {
                "w": 0.7047431468963623,
                "x": -0.7094548344612122,
                "y": 0.0024358443915843964,
                "z": -0.0022348060738295317
            },
            "position": {
                "x": 0.6094750761985779,
                "y": 0.3671506643295288,
                "z": 0.19426114857196808
            }
        },
        "name": "move_to_magneteinheit_A"
    },
    "id": "SBL_move_to_magneteinheit_A_136",
    "joint_names": [
        "shoulder_pan_joint",
        "shoulder_lift_joint",
        "elbow_joint",
        "wrist_1_joint",
        "wrist_2_joint",
        "wrist_3_joint"
    ],
    "metrics": {
        "cart_traj_len": 3.177486099320652,
        "distance_elbow_joint": 4.114200794172455,
        "distance_shoulder_lift_joint": 0.652544526426333,
        "distance_shoulder_pan_joint": 2.905993750084908,
        "distance_wrist_1_joint": 3.501702341341826,
        "distance_wrist_2_joint": 2.478647786838878,
        "distance_wrist_3_joint": 1.045525107053773,
        "smoothness": 0.28313852129733325,
        "time": 0.270274682,
        "traj_len": 3.8338771897281974,
        "weighted_distance": 4.771793651050559
    },
    "planner": "SBL",
    "start": {
        "state": {
            "elbow_joint": -1.9196185241190666,
            "shoulder_lift_joint": -1.2443396400964142,
            "shoulder_pan_joint": 2.6996025414629847,
            "wrist_1_joint": -1.5485510000780065,
            "wrist_2_joint": -1.5709468930060704,
            "wrist_3_joint": 0.4420197071253992
        }
    },
    "waypoints": [
        {
            "positions": [
                2.6996025414629847,
                -1.2443396400964142,
                -1.9196185241190666,
                -1.5485510000780065,
                -1.5709468930060704,
                0.4420197071253992
            ]
        },
        {
            "positions": [
                2.6016896609616937,
                -1.2477030058039968,
                -1.8228159202496212,
                -1.4554466799169103,
                -1.5008540799590129,
                0.4189865871559323
            ]
        },
        {
            "positions": [
                2.5037767804604028,
                -1.2510663715115797,
                -1.7260133163801756,
                -1.3623423597558142,
                -1.4307612669119556,
                0.39595346718646535
            ]
        },
        {
            "positions": [
                2.4058638999591118,
                -1.2544297372191624,
                -1.6292107125107302,
                -1.269238039594718,
                -1.360668453864898,
                0.37292034721699846
            ]
        },
        {
            "positions": [
                2.3079510194578208,
                -1.257793102926745,
                -1.5324081086412846,
                -1.1761337194336219,
                -1.2905756408178408,
                0.3498872272475315
            ]
        },
        {
            "positions": [
                2.21003813895653,
                -1.261156468634328,
                -1.4356055047718392,
                -1.0830293992725257,
                -1.2204828277707833,
                0.32685410727806463
            ]
        },
        {
            "positions": [
                2.112125258455239,
                -1.2645198343419106,
                -1.3388029009023938,
                -0.9899250791114296,
                -1.150390014723726,
                0.30382098730859775
            ]
        },
        {
            "positions": [
                2.014212377953948,
                -1.2678832000494933,
                -1.2420002970329482,
                -0.8968207589503334,
                -1.0802972016766685,
                0.2807878673391308
            ]
        },
        {
            "positions": [
                1.916299497452657,
                -1.2712465657570762,
                -1.1451976931635028,
                -0.8037164387892373,
                -1.010204388629611,
                0.2577547473696639
            ]
        },
        {
            "positions": [
                1.8183866169513658,
                -1.2746099314646588,
                -1.0483950892940572,
                -0.710612118628141,
                -0.9401115755825536,
                0.23472162740019697
            ]
        },
        {
            "positions": [
                1.7204737364500748,
                -1.2779732971722415,
                -0.9515924854246117,
                -0.617507798467045,
                -0.8700187625354963,
                0.21168850743073006
            ]
        },
        {
            "positions": [
                1.622560855948784,
                -1.2813366628798244,
                -0.8547898815551662,
                -0.5244034783059488,
                -0.799925949488439,
                0.18865538746126315
            ]
        },
        {
            "positions": [
                1.524647975447493,
                -1.284700028587407,
                -0.7579872776857208,
                -0.43129915814485265,
                -0.7298331364413816,
                0.16562226749179626
            ]
        },
        {
            "positions": [
                1.426735094946202,
                -1.2880633942949897,
                -0.6611846738162752,
                -0.3381948379837565,
                -0.6597403233943241,
                0.14258914752232932
            ]
        },
        {
            "positions": [
                1.328822214444911,
                -1.2914267600025724,
                -0.5643820699468298,
                -0.24509051782266034,
                -0.5896475103472667,
                0.11955602755286243
            ]
        },
        {
            "positions": [
                1.2309093339436201,
                -1.2947901257101553,
                -0.46757946607738443,
                -0.15198619766156418,
                -0.5195546973002094,
                0.09652290758339555
            ]
        },
        {
            "positions": [
                1.1329964534423294,
                -1.298153491417738,
                -0.37077686220793904,
                -0.05888187750046803,
                -0.4494618842531519,
                0.07348978761392866
            ]
        },
        {
            "positions": [
                1.0350835729410384,
                -1.3015168571253206,
                -0.2739742583384934,
                0.034222442660627905,
                -0.37936907120609464,
                0.05045666764446172
            ]
        },
        {
            "positions": [
                0.9371706924397472,
                -1.3048802228329035,
                -0.1771716544690478,
                0.1273267628217245,
                -0.3092762581590369,
                0.027423547674994775
            ]
        },
        {
            "positions": [
                0.8392578119384562,
                -1.3082435885404862,
                -0.0803690505996022,
                0.22043108298282044,
                -0.23918344511197964,
                0.004390427705527833
            ]
        },
        {
            "positions": [
                0.7413449314371652,
                -1.3116069542480688,
                0.016433553269843193,
                0.3135354031439166,
                -0.16909063206492214,
                -0.018642692263939054
            ]
        },
        {
            "positions": [
                0.6434320509358744,
                -1.3149703199556517,
                0.11323615713928836,
                0.40663972330501275,
                -0.09899781901786486,
                -0.04167581223340594
            ]
        },
        {
            "positions": [
                0.5455191704345834,
                -1.3183336856632344,
                0.2100387610087342,
                0.4997440434661089,
                -0.028905005970807585,
                -0.06470893220287288
            ]
        },
        {
            "positions": [
                0.44760628993329243,
                -1.321697051370817,
                0.3068413648781796,
                0.592848363627205,
                0.041187807076249916,
                -0.08774205217233977
            ]
        },
        {
            "positions": [
                0.34969340943200145,
                -1.3250604170784,
                0.403643968747625,
                0.6859526837883012,
                0.1112806201233072,
                -0.11077517214180665
            ]
        },
        {
            "positions": [
                0.25178052893071046,
                -1.3284237827859826,
                0.5004465726170708,
                0.7790570039493974,
                0.18137343317036492,
                -0.13380829211127365
            ]
        },
        {
            "positions": [
                0.15386764842941947,
                -1.3317871484935653,
                0.5972491764865162,
                0.8721613241104935,
                0.2514662462174222,
                -0.15684141208074054
            ]
        },
        {
            "positions": [
                0.05595476792812848,
                -1.3351505142011482,
                0.6940517803559616,
                0.9652656442715897,
                0.3215590592644797,
                -0.17987453205020743
            ]
        },
        {
            "positions": [
                -0.04195811257316262,
                -1.3385138799087308,
                0.7908543842254069,
                1.0583699644326858,
                0.39165187231153703,
                -0.20290765201967426
            ]
        },
        {
            "positions": [
                -0.038515094430202595,
                -1.2872580660955135,
                0.9360700521081121,
                1.1576090160821149,
                0.3371628347306027,
                -0.21596320840689176
            ]
        },
        {
            "positions": [
                -0.035072076287242564,
                -1.2360022522822962,
                1.0812857199908172,
                1.256848067731544,
                0.2826737971496684,
                -0.22901876479410926
            ]
        },
        {
            "positions": [
                -0.03162905814428254,
                -1.1847464384690787,
                1.2265013878735225,
                1.3560871193809727,
                0.22818475956873407,
                -0.24207432118132677
            ]
        },
        {
            "positions": [
                -0.028186040001322507,
                -1.1334906246558614,
                1.3717170557562277,
                1.4553261710304017,
                0.17369572198779976,
                -0.25512987756854427
            ]
        },
        {
            "positions": [
                -0.02474302185836248,
                -1.082234810842644,
                1.516932723638933,
                1.5545652226798308,
                0.11920668440686538,
                -0.2681854339557618
            ]
        },
        {
            "positions": [
                -0.021300003715402454,
                -1.0309789970294267,
                1.662148391521638,
                1.6538042743292598,
                0.06471764682593112,
                -0.2812409903429793
            ]
        },
        {
            "positions": [
                -0.017856985572442426,
                -0.9797231832162093,
                1.8073640594043434,
                1.7530433259786888,
                0.010228609244996745,
                -0.2942965467301968
            ]
        },
        {
            "positions": [
                -0.014413967429482397,
                -0.9284673694029919,
                1.9525797272870484,
                1.8522823776281179,
                -0.04426042833593752,
                -0.3073521031174143
            ]
        },
        {
            "positions": [
                -0.010970949286522369,
                -0.8772115555897746,
                2.097795395169754,
                1.951521429277547,
                -0.09874946591687189,
                -0.3204076595046318
            ]
        },
        {
            "positions": [
                0.05575201709453842,
                -0.8286775744422445,
                2.0494019577279365,
                1.952336385270683,
                -0.11157330756330364,
                -0.17885878929276056
            ]
        },
        {
            "positions": [
                0.12247498347559921,
                -0.7801435932947145,
                2.0010085202861188,
                1.953151341263819,
                -0.1243971492097354,
                -0.037309919080889334
            ]
        }
    ]
}