{
    "goal": {
        "global_pose": {
            "orientation": {
                "w": 0.5084816262002911,
                "x": -0.4908360881923452,
                "y": 0.5182115481033761,
                "z": -0.48164630358495003
            },
            "position": {
                "x": 0.5540239810943604,
                "y": -0.46912469901144505,
                "z": 0.16403168439865112
            }
        },
        "name": "move_to_storage_B"
    },
    "id": "SBL_move_to_storage_B_29",
    "joint_names": [
        "shoulder_pan_joint",
        "shoulder_lift_joint",
        "elbow_joint",
        "wrist_1_joint",
        "wrist_2_joint",
        "wrist_3_joint"
    ],
    "metrics": {
        "cart_traj_len": 5.090634683821443,
        "distance_elbow_joint": 3.6835325937699266,
        "distance_shoulder_lift_joint": 1.3582625024243822,
        "distance_shoulder_pan_joint": 4.116818065666327,
        "distance_wrist_1_joint": 1.8293208532773424,
        "distance_wrist_2_joint": 1.2419357326023315,
        "distance_wrist_3_joint": 8.565252912488585,
        "smoothness": 0.08437415503964947,
        "time": 1.279042312,
        "traj_len": 4.560166955302065,
        "weighted_distance": 6.402880997729518
    },
    "planner": "SBL",
    "start": {
        "state": {
            "elbow_joint": -1.6666013991110213,
            "shoulder_lift_joint": -2.479295265494141,
            "shoulder_pan_joint": 2.6606783912885628,
            "wrist_1_joint": 0.9897123657714939,
            "wrist_2_joint": 0.474351758749468,
            "wrist_3_joint": 0.013243222496468381
        }
    },
    "waypoints": [
        {
            "positions": [
                2.6606783912885628,
                -2.479295265494141,
                -1.6666013991110213,
                0.9897123657714939,
                0.474351758749468,
                0.013243222496468381
            ]
        },
        {
            "positions": [
                2.6739469673425686,
                -2.4718459335419025,
                -1.646044277554892,
                0.9178658561301232,
                0.41863774630709943,
                0.2116515970946806
            ]
        },
        {
            "positions": [
                2.6872155433965745,
                -2.464396601589664,
                -1.625487155998763,
                0.8460193464887524,
                0.36292373386473087,
                0.41005997169289277
            ]
        },
        {
            "positions": [
                2.700484119450581,
                -2.4569472696374257,
                -1.6049300344426336,
                0.7741728368473817,
                0.30720972142236236,
                0.608468346291105
            ]
        },
        {
            "positions": [
                2.7137526955045868,
                -2.4494979376851873,
                -1.5843729128865043,
                0.702326327206011,
                0.25149570897999374,
                0.8068767208893172
            ]
        },
        {
            "positions": [
                2.7270212715585926,
                -2.4420486057329494,
                -1.5638157913303752,
                0.6304798175646402,
                0.19578169653762517,
                1.0052850954875296
            ]
        },
        {
            "positions": [
                2.7402898476125985,
                -2.434599273780711,
                -1.5432586697742459,
                0.5586333079232695,
                0.14006768409525666,
                1.2036934700857418
            ]
        },
        {
            "positions": [
                2.753558423666605,
                -2.4271499418284725,
                -1.5227015482181165,
                0.48678679828189864,
                0.0843536716528881,
                1.402101844683954
            ]
        },
        {
            "positions": [
                2.7668269997206107,
                -2.419700609876234,
                -1.5021444266619874,
                0.4149402886405279,
                0.02863965921051953,
                1.600510219282166
            ]
        },
        {
            "positions": [
                2.7800955757746166,
                -2.4122512779239957,
                -1.4815873051058581,
                0.34309377899915716,
                -0.02707435323184898,
                1.7989185938803784
            ]
        },
        {
            "positions": [
                2.7929478475464986,
                -2.405085046156099,
                -1.4125565022995346,
                0.28091387387308764,
                -0.05613594220387268,
                1.9932068446185751
            ]
        },
        {
            "positions": [
                2.80580011931838,
                -2.397918814388202,
                -1.343525699493211,
                0.21873396874701806,
                -0.08519753117589637,
                2.187495095356772
            ]
        },
        {
            "positions": [
                2.8186523910902617,
                -2.3907525826203053,
                -1.2744948966868874,
                0.15655406362094854,
                -0.11425912014792007,
                2.3817833460949687
            ]
        },
        {
            "positions": [
                2.8315046628621436,
                -2.3835863508524087,
                -1.2054640938805639,
                0.09437415849487898,
                -0.14332070911994377,
                2.5760715968331653
            ]
        },
        {
            "positions": [
                2.8411648424603437,
                -2.378271463649428,
                -1.0824683010094258,
                0.05836882878018032,
                -0.12910977845447238,
                2.725152295133567
            ]
        },
        {
            "positions": [
                2.762982092399181,
                -2.3774959911317994,
                -0.8943991374639417,
                0.04619218839588487,
                -0.08844872674941731,
                2.699700653912468
            ]
        },
        {
            "positions": [
                2.6847993423380174,
                -2.376720518614171,
                -0.7063299739184576,
                0.03401554801158942,
                -0.04778767504436223,
                2.6742490126913694
            ]
        },
        {
            "positions": [
                2.585326549854538,
                -2.3436761039945813,
                -0.6346652063243166,
                0.011025441813762082,
                -0.03387372160601122,
                2.5215532085490198
            ]
        },
        {
            "positions": [
                2.4858537573710584,
                -2.310631689374991,
                -0.5630004387301755,
                -0.011964664384065252,
                -0.01995976816766021,
                2.3688574044066697
            ]
        },
        {
            "positions": [
                2.386380964887579,
                -2.2775872747554016,
                -0.4913356711360343,
                -0.034954770581892586,
                -0.006045814729309207,
                2.21616160026432
            ]
        },
        {
            "positions": [
                2.2869081724041,
                -2.2445428601358115,
                -0.41967090354189324,
                -0.05794487677971992,
                0.007868138709041808,
                2.0634657961219705
            ]
        },
        {
            "positions": [
                2.18743537992062,
                -2.211498445516222,
                -0.3480061359477521,
                -0.08093498297754725,
                0.021782092147392816,
                1.9107699919796206
            ]
        },
        {
            "positions": [
                2.087962587437141,
                -2.1784540308966323,
                -0.276341368353611,
                -0.10392508917537459,
                0.03569604558574382,
                1.7580741878372708
            ]
        },
        {
            "positions": [
                1.9884897949536613,
                -2.145409616277042,
                -0.20467660075946992,
                -0.1269151953732019,
                0.04960999902409483,
                1.6053783836949211
            ]
        },
        {
            "positions": [
                1.8890170024701818,
                -2.1123652016574526,
                -0.13301183316532883,
                -0.14990530157102927,
                0.06352395246244585,
                1.4526825795525713
            ]
        },
        {
            "positions": [
                1.7895442099867025,
                -2.079320787037863,
                -0.06134706557118763,
                -0.1728954077688566,
                0.07743790590079686,
                1.2999867754102217
            ]
        },
        {
            "positions": [
                1.690071417503223,
                -2.046276372418273,
                0.010317702022953457,
                -0.1958855139666839,
                0.09135185933914786,
                1.1472909712678718
            ]
        },
        {
            "positions": [
                1.5905986250197435,
                -2.0132319577986832,
                0.08198246961709466,
                -0.2188756201645113,
                0.10526581277749888,
                0.994595167125522
            ]
        },
        {
            "positions": [
                1.491125832536264,
                -1.9801875431790934,
                0.15364723721123563,
                -0.2418657263623386,
                0.11917976621584986,
                0.8418993629831724
            ]
        },
        {
            "positions": [
                1.3916530400527845,
                -1.9471431285595036,
                0.22531200480537683,
                -0.264855832560166,
                0.1330937196542009,
                0.6892035588408225
            ]
        },
        {
            "positions": [
                1.2921802475693052,
                -1.914098713939914,
                0.2969767723995178,
                -0.28784593875799325,
                0.1470076730925519,
                0.5365077546984729
            ]
        },
        {
            "positions": [
                1.1927074550858257,
                -1.8810542993203239,
                0.3686415399936591,
                -0.3108360449558206,
                0.16092162653090292,
                0.3838119505561228
            ]
        },
        {
            "positions": [
                1.0932346626023464,
                -1.8480098847007342,
                0.4403063075878,
                -0.33382615115364794,
                0.17483557996925392,
                0.2311161464137732
            ]
        },
        {
            "positions": [
                0.9937618701188666,
                -1.8149654700811444,
                0.5119710751819413,
                -0.3568162573514753,
                0.18874953340760492,
                0.07842034227142358
            ]
        },
        {
            "positions": [
                0.8942890776353873,
                -1.7819210554615545,
                0.5836358427760824,
                -0.3798063635493026,
                0.20266348684595595,
                -0.07427546187092604
            ]
        },
        {
            "positions": [
                0.7948162851519078,
                -1.748876640841965,
                0.6553006103702235,
                -0.40279646974712996,
                0.21657744028430695,
                -0.2269712660132761
            ]
        },
        {
            "positions": [
                0.6953434926684285,
                -1.715832226222375,
                0.7269653779643646,
                -0.4257865759449573,
                0.23049139372265795,
                -0.37966707015562573
            ]
        },
        {
            "positions": [
                0.5958707001849488,
                -1.6827878116027852,
                0.7986301455585059,
                -0.44877668214278466,
                0.244405347161009,
                -0.5323628742979758
            ]
        },
        {
            "positions": [
                0.4963979077014695,
                -1.6497433969831954,
                0.870294913152647,
                -0.471766788340612,
                0.25831930059936004,
                -0.6850586784403254
            ]
        },
        {
            "positions": [
                0.39692511521799023,
                -1.6166989823636055,
                0.9419596807467878,
                -0.49475689453843924,
                0.27223325403771104,
                -0.837754482582675
            ]
        },
        {
            "positions": [
                0.2974523227345105,
                -1.583654567744016,
                1.013624448340929,
                -0.5177470007362666,
                0.286147207476062,
                -0.9904502867250247
            ]
        },
        {
            "positions": [
                0.19797953025103077,
                -1.5506101531244258,
                1.0852892159350702,
                -0.5407371069340939,
                0.30006116091441304,
                -1.1431460908673752
            ]
        },
        {
            "positions": [
                0.09850673776755148,
                -1.5175657385048362,
                1.1569539835292113,
                -0.5637272131319213,
                0.31397511435276404,
                -1.2958418950097244
            ]
        },
        {
            "positions": [
                -0.000966054715927811,
                -1.4845213238852466,
                1.2286187511233524,
                -0.5867173193297486,
                0.32788906779111504,
                -1.448537699152074
            ]
        },
        {
            "positions": [
                -0.1004388471994071,
                -1.4514769092656568,
                1.3002835187174933,
                -0.6097074255275758,
                0.34180302122946604,
                -1.6012335032944236
            ]
        },
        {
            "positions": [
                -0.19991163968288683,
                -1.418432494646067,
                1.3719482863116346,
                -0.6326975317254033,
                0.3557169746678171,
                -1.753929307436774
            ]
        },
        {
            "positions": [
                -0.2993844321663661,
                -1.385388080026477,
                1.4436130539057759,
                -0.6556876379232306,
                0.3696309281061681,
                -1.9066251115791237
            ]
        },
        {
            "positions": [
                -0.3988572246498454,
                -1.3523436654068872,
                1.5152778214999167,
                -0.6786777441210579,
                0.3835448815445191,
                -2.0593209157214734
            ]
        },
        {
            "positions": [
                -0.4983300171333247,
                -1.3192992507872976,
                1.5869425890940576,
                -0.7016678503188852,
                0.3974588349828701,
                -2.212016719863823
            ]
        },
        {
            "positions": [
                -0.5978028096168044,
                -1.2862548361677077,
                1.658607356688199,
                -0.7246579565167126,
                0.41137278842122116,
                -2.3647125240061726
            ]
        },
        {
            "positions": [
                -0.6972756021002842,
                -1.253210421548118,
                1.7302721242823402,
                -0.74764806271454,
                0.4252867418595721,
                -2.5174083281485222
            ]
        },
        {
            "positions": [
                -0.7967483945837635,
                -1.220166006928528,
                1.801936891876481,
                -0.7706381689123672,
                0.4392006952979231,
                -2.670104132290872
            ]
        },
        {
            "positions": [
                -0.8962211870672427,
                -1.1871215923089384,
                1.8736016594706224,
                -0.7936282751101945,
                0.45311464873627416,
                -2.8227999364332215
            ]
        },
        {
            "positions": [
                -0.9956939795507225,
                -1.1540771776893486,
                1.9452664270647637,
                -0.816618381308022,
                0.46702860217462516,
                -2.975495740575572
            ]
        },
        {
            "positions": [
                -1.095166772034202,
                -1.1210327630697587,
                2.0169311946589046,
                -0.8396084875058493,
                0.48094255561297616,
                -3.128191544717922
            ]
        }
    ]
}