{
    "goal": {
        "global_pose": {
            "orientation": {
                "w": 0.5084816217422485,
                "x": -0.49083608388900757,
                "y": 0.5182115435600281,
                "z": -0.4816462993621826
            },
            "position": {
                "x": 0.5540239810943604,
                "y": 0.030875300988554955,
                "z": 0.16403168439865112
            }
        },
        "name": "move_to_storage_A"
    },
    "id": "SBL_move_to_storage_A_29",
    "joint_names": [
        "shoulder_pan_joint",
        "shoulder_lift_joint",
        "elbow_joint",
        "wrist_1_joint",
        "wrist_2_joint",
        "wrist_3_joint"
    ],
    "metrics": {
        "cart_traj_len": 0.35392991170720356,
        "distance_elbow_joint": 0.45338973527813886,
        "distance_shoulder_lift_joint": 0.23239224252878365,
        "distance_shoulder_pan_joint": 0.4615571041412031,
        "distance_wrist_1_joint": 0.2615205186057772,
        "distance_wrist_2_joint": 1.1050724831927612,
        "distance_wrist_3_joint": 0.09996749192601184,
        "smoothness": 8.881784197001252e-16,
        "time": 0.202294493,
        "traj_len": 1.6167558800488946,
        "weighted_distance": 2.0446093908918734
    },
    "planner": "SBL",
    "start": {
        "state": {
            "elbow_joint": 1.9715481507254546,
            "shoulder_lift_joint": -1.1394850672790213,
            "shoulder_pan_joint": 0.12281154597544902,
            "wrist_1_joint": -0.7804720171073349,
            "wrist_2_joint": 0.12958658322886563,
            "wrist_3_joint": -3.1924895760937617
        }
    },
    "waypoints": [
        {
            "positions": [
                0.12281154597544902,
                -1.1394850672790213,
                1.9715481507254546,
                -0.7804720171073349,
                0.12958658322886563,
                -3.1924895760937617
            ]
        },
        {
            "positions": [
                0.056874816812420015,
                -1.1726839590688476,
                2.036318112908046,
                -0.8178320911938746,
                0.2874540808278315,
                -3.1782085058186174
            ]
        },
        {
            "positions": [
                -0.009061912350608992,
                -1.2058828508586739,
                2.101088075090637,
                -0.8551921652804141,
                0.44532157842679737,
                -3.1639274355434726
            ]
        },
        {
            "positions": [
                -0.074998641513638,
                -1.2390817426485001,
                2.1658580372732286,
                -0.8925522393669537,
                0.6031890760257632,
                -3.149646365268328
            ]
        },
        {
            "positions": [
                -0.140935370676667,
                -1.2722806344383262,
                2.2306279994558196,
                -0.9299123134534933,
                0.7610565736247291,
                -3.1353652949931834
            ]
        },
        {
            "positions": [
                -0.20687209983969607,
                -1.3054795262281524,
                2.295397961638411,
                -0.9672723875400329,
                0.918924071223695,
                -3.121084224718039
            ]
        },
        {
            "positions": [
                -0.272808829002725,
                -1.3386784180179787,
                2.360167923821002,
                -1.0046324616265725,
                1.076791568822661,
                -3.1068031544428942
            ]
        },
        {
            "positions": [
                -0.3387455581657541,
                -1.371877309807805,
                2.4249378860035935,
                -1.0419925357131121,
                1.2346590664216268,
                -3.09252208416775
            ]
        }
    ]
}