{
    "goal": {
        "global_pose": {
            "orientation": {
                "w": 0.005598929693374612,
                "x": 0.007748599140229565,
                "y": 0.7110244013736278,
                "z": -0.7031023480610252
            },
            "position": {
                "x": 0.1141497679147869,
                "y": -0.7141253447532654,
                "z": 0.3711530566215515
            }
        },
        "name": "move_to_auspresseinheit_B"
    },
    "id": "SBL_move_to_auspresseinheit_B_10",
    "joint_names": [
        "shoulder_pan_joint",
        "shoulder_lift_joint",
        "elbow_joint",
        "wrist_1_joint",
        "wrist_2_joint",
        "wrist_3_joint"
    ],
    "metrics": {
        "cart_traj_len": 0.5642223412166373,
        "distance_elbow_joint": 0.060318069043949984,
        "distance_shoulder_lift_joint": 0.29601460753333875,
        "distance_shoulder_pan_joint": 0.5775238887350469,
        "distance_wrist_1_joint": 0.32011633454087485,
        "distance_wrist_2_joint": 0.9880958108043025,
        "distance_wrist_3_joint": 0.008070394075257337,
        "smoothness": 0.0,
        "time": 0.322968266,
        "traj_len": 1.5000463675276077,
        "weighted_distance": 1.8906327084413996
    },
    "planner": "SBL",
    "start": {
        "state": {
            "elbow_joint": 2.0193083361928714,
            "shoulder_lift_joint": -1.1220246554650708,
            "shoulder_pan_joint": -1.0952077554168747,
            "wrist_1_joint": -0.8559753972642168,
            "wrist_2_joint": 0.4759566250798843,
            "wrist_3_joint": -3.1240929996934557
        }
    },
    "waypoints": [
        {
            "positions": [
                -1.0952077554168747,
                -1.1220246554650708,
                2.0193083361928714,
                -0.8559753972642168,
                0.4759566250798843,
                -3.1240929996934557
            ]
        },
        {
            "positions": [
                -1.1914617368727158,
                -1.1713604233872938,
                2.0092553246855465,
                -0.8026226748407377,
                0.6406392602139347,
                -3.122747934014246
            ]
        },
        {
            "positions": [
                -1.287715718328557,
                -1.2206961913095171,
                1.9992023131782215,
                -0.7492699524172585,
                0.805321895347985,
                -3.1214028683350366
            ]
        },
        {
            "positions": [
                -1.383969699784398,
                -1.2700319592317402,
                1.9891493016708965,
                -0.6959172299937794,
                0.9700045304820355,
                -3.120057802655827
            ]
        },
        {
            "positions": [
                -1.4802236812402392,
                -1.3193677271539632,
                1.9790962901635714,
                -0.6425645075703003,
                1.134687165616086,
                -3.1187127369766174
            ]
        },
        {
            "positions": [
                -1.5764776626960804,
                -1.3687034950761865,
                1.9690432786562464,
                -0.589211785146821,
                1.2993698007501364,
                -3.1173676712974077
            ]
        },
        {
            "positions": [
                -1.6727316441519215,
                -1.4180392629984095,
                1.9589902671489214,
                -0.5358590627233419,
                1.4640524358841869,
                -3.1160226056181983
            ]
        }
    ]
}