{
    "goal": {
        "global_pose": {
            "orientation": {
                "w": 0.005598929693374612,
                "x": 0.007748599140229565,
                "y": 0.7110244013736278,
                "z": -0.7031023480610252
            },
            "position": {
                "x": -0.8858502320852131,
                "y": -0.7141253447532654,
                "z": 0.3711530566215515
            }
        },
        "name": "move_to_auspresseinheit_C"
    },
    "id": "SBL_move_to_auspresseinheit_C_101",
    "joint_names": [
        "shoulder_pan_joint",
        "shoulder_lift_joint",
        "elbow_joint",
        "wrist_1_joint",
        "wrist_2_joint",
        "wrist_3_joint"
    ],
    "metrics": {
        "cart_traj_len": 0.4933660046016462,
        "distance_elbow_joint": 0.9940778741880962,
        "distance_shoulder_lift_joint": 0.32204172610265214,
        "distance_shoulder_pan_joint": 0.25725800128243126,
        "distance_wrist_1_joint": 0.6670795528327078,
        "distance_wrist_2_joint": 1.304352026040294,
        "distance_wrist_3_joint": 0.05295570973898034,
        "smoothness": 3.2297397080004555e-16,
        "time": 0.144015069,
        "traj_len": 1.8967775014969894,
        "weighted_distance": 2.3822484942877233
    },
    "planner": "SBL",
    "start": {
        "state": {
            "elbow_joint": 1.7527959577737207,
            "shoulder_lift_joint": -0.9740617694225068,
            "shoulder_pan_joint": -2.967991417825858,
            "wrist_1_joint": -0.759517768980727,
            "wrist_2_joint": 1.7443932448377408,
            "wrist_3_joint": -3.0840537646736568
        }
    },
    "waypoints": [
        {
            "positions": [
                -2.967991417825858,
                -0.9740617694225068,
                1.7527959577737207,
                -0.759517768980727,
                1.7443932448377408,
                -3.0840537646736568
            ]
        },
        {
            "positions": [
                -2.9422656176976147,
                -0.9418575968122416,
                1.6533881703549111,
                -0.6928098136974562,
                1.6139580422337114,
                -3.089349335647555
            ]
        },
        {
            "positions": [
                -2.9165398175693715,
                -0.9096534242019764,
                1.5539803829361014,
                -0.6261018584141854,
                1.483522839629682,
                -3.0946449066214528
            ]
        },
        {
            "positions": [
                -2.8908140174411288,
                -0.8774492515917112,
                1.4545725955172917,
                -0.5593939031309146,
                1.3530876370256526,
                -3.099940477595351
            ]
        },
        {
            "positions": [
                -2.8650882173128855,
                -0.8452450789814459,
                1.3551648080984822,
                -0.49268594784764386,
                1.2226524344216232,
                -3.1052360485692487
            ]
        },
        {
            "positions": [
                -2.8393624171846423,
                -0.8130409063711808,
                1.2557570206796727,
                -0.4259779925643731,
                1.0922172318175938,
                -3.110531619543147
            ]
        },
        {
            "positions": [
                -2.813636617056399,
                -0.7808367337609154,
                1.156349233260863,
                -0.3592700372811023,
                0.9617820292135644,
                -3.115827190517045
            ]
        },
        {
            "positions": [
                -2.787910816928156,
                -0.7486325611506504,
                1.0569414458420532,
                -0.29256208199783157,
                0.8313468266095351,
                -3.121122761490943
            ]
        },
        {
            "positions": [
                -2.762185016799913,
                -0.716428388540385,
                0.9575336584232437,
                -0.22585412671456073,
                0.7009116240055056,
                -3.126418332464841
            ]
        },
        {
            "positions": [
                -2.73645921667167,
                -0.6842242159301198,
                0.858125871004434,
                -0.15914617143128995,
                0.5704764214014761,
                -3.131713903438739
            ]
        },
        {
            "positions": [
                -2.7107334165434267,
                -0.6520200433198546,
                0.7587180835856244,
                -0.09243821614801914,
                0.44004121879744684,
                -3.137009474412637
            ]
        }
    ]
}