{
    "goal": {
        "global_pose": {
            "orientation": {
                "w": 0.7047431468963623,
                "x": -0.7094548344612122,
                "y": 0.0024358443915843964,
                "z": -0.0022348060738295317
            },
            "position": {
                "x": 0.6094750761985779,
                "y": 0.3671506643295288,
                "z": 0.19426114857196808
            }
        },
        "name": "move_to_magneteinheit_A"
    },
    "id": "SBL_move_to_magneteinheit_A_149",
    "joint_names": [
        "shoulder_pan_joint",
        "shoulder_lift_joint",
        "elbow_joint",
        "wrist_1_joint",
        "wrist_2_joint",
        "wrist_3_joint"
    ],
    "metrics": {
        "cart_traj_len": 4.582230430300042,
        "distance_elbow_joint": 5.302726882166266,
        "distance_shoulder_lift_joint": 1.3149851485908983,
        "distance_shoulder_pan_joint": 2.8617272006200145,
        "distance_wrist_1_joint": 3.029798835545857,
        "distance_wrist_2_joint": 3.3428653594905984,
        "distance_wrist_3_joint": 8.112332068549183,
        "smoothness": 0.6088208744566278,
        "time": 0.34343777400000003,
        "traj_len": 4.895348352769477,
        "weighted_distance": 6.823618089188289
    },
    "planner": "SBL",
    "start": {
        "state": {
            "elbow_joint": -1.9196185241190666,
            "shoulder_lift_joint": -1.2443396400964142,
            "shoulder_pan_joint": 2.6996025414629847,
            "wrist_1_joint": -1.5485510000780065,
            "wrist_2_joint": -1.5709468930060704,
            "wrist_3_joint": 0.4420197071253992
        }
    },
    "waypoints": [
        {
            "positions": [
                2.6996025414629847,
                -1.2443396400964142,
                -1.9196185241190666,
                -1.5485510000780065,
                -1.5709468930060704,
                0.4420197071253992
            ]
        },
        {
            "positions": [
                2.682255512756979,
                -1.2470044881439022,
                -1.75736474666822,
                -1.4730659405703355,
                -1.5441255794660804,
                0.3363935033827006
            ]
        },
        {
            "positions": [
                2.6649084840509736,
                -1.24966933619139,
                -1.5951109692173733,
                -1.3975808810626644,
                -1.5173042659260905,
                0.23076729964000192
            ]
        },
        {
            "positions": [
                2.6475614553449685,
                -1.252334184238878,
                -1.4328571917665267,
                -1.3220958215549934,
                -1.4904829523861003,
                0.12514109589730332
            ]
        },
        {
            "positions": [
                2.630214426638963,
                -1.2549990322863658,
                -1.27060341431568,
                -1.2466107620473224,
                -1.4636616388461103,
                0.01951489215460467
            ]
        },
        {
            "positions": [
                2.6128673979329573,
                -1.2576638803338538,
                -1.1083496368648333,
                -1.1711257025396513,
                -1.4368403253061204,
                -0.08611131158809393
            ]
        },
        {
            "positions": [
                2.5955203692269517,
                -1.2603287283813416,
                -0.9460958594139868,
                -1.0956406430319803,
                -1.4100190117661304,
                -0.19173751533079253
            ]
        },
        {
            "positions": [
                2.5781733405209466,
                -1.2629935764288296,
                -0.7838420819631402,
                -1.0201555835243092,
                -1.3831976982261402,
                -0.29736371907349124
            ]
        },
        {
            "positions": [
                2.560826311814941,
                -1.2656584244763174,
                -0.6215883045122934,
                -0.9446705240166381,
                -1.3563763846861503,
                -0.40298992281618984
            ]
        },
        {
            "positions": [
                2.5434792831089355,
                -1.2683232725238054,
                -0.4593345270614466,
                -0.869185464508967,
                -1.3295550711461603,
                -0.5086161265588885
            ]
        },
        {
            "positions": [
                2.52613225440293,
                -1.2709881205712932,
                -0.29708074961060027,
                -0.793700405001296,
                -1.3027337576061704,
                -0.614242330301587
            ]
        },
        {
            "positions": [
                2.5087852256969247,
                -1.2736529686187812,
                -0.13482697215975348,
                -0.718215345493625,
                -1.2759124440661802,
                -0.7198685340442857
            ]
        },
        {
            "positions": [
                2.491438196990919,
                -1.2763178166662692,
                0.027426805291093093,
                -0.642730285985954,
                -1.2490911305261903,
                -0.8254947377869842
            ]
        },
        {
            "positions": [
                2.4740911682849136,
                -1.278982664713757,
                0.1896805827419401,
                -0.5672452264782828,
                -1.2222698169862003,
                -0.9311209415296832
            ]
        },
        {
            "positions": [
                2.456744139578908,
                -1.281647512761245,
                0.35193436019278623,
                -0.49176016697061176,
                -1.1954485034462103,
                -1.0367471452723818
            ]
        },
        {
            "positions": [
                2.4393971108729025,
                -1.2843123608087328,
                0.5141881376436328,
                -0.41627510746294094,
                -1.1686271899062204,
                -1.14237334901508
            ]
        },
        {
            "positions": [
                2.4220500821668973,
                -1.2869772088562208,
                0.6764419150944798,
                -0.3407900479552697,
                -1.1418058763662302,
                -1.2479995527577787
            ]
        },
        {
            "positions": [
                2.4047030534608917,
                -1.2896420569037086,
                0.8386956925453264,
                -0.26530498844759864,
                -1.1149845628262403,
                -1.3536257565004775
            ]
        },
        {
            "positions": [
                2.387356024754886,
                -1.2923069049511966,
                1.0009494699961734,
                -0.1898199289399276,
                -1.0881632492862503,
                -1.4592519602431762
            ]
        },
        {
            "positions": [
                2.3700089960488806,
                -1.2949717529986844,
                1.16320324744702,
                -0.11433486943225657,
                -1.0613419357462601,
                -1.5648781639858749
            ]
        },
        {
            "positions": [
                2.3526619673428755,
                -1.2976366010461724,
                1.325457024897866,
                -0.03884980992458553,
                -1.0345206222062702,
                -1.6705043677285731
            ]
        },
        {
            "positions": [
                2.33531493863687,
                -1.3003014490936602,
                1.4877108023487131,
                0.036635249583085505,
                -1.0076993086662802,
                -1.7761305714712718
            ]
        },
        {
            "positions": [
                2.3179679099308643,
                -1.3029662971411482,
                1.6499645797995597,
                0.11212030909075663,
                -0.9808779951262903,
                -1.8817567752139706
            ]
        },
        {
            "positions": [
                2.2676172565175934,
                -1.3126044156033645,
                1.775681693663315,
                0.15871706413207226,
                -0.9559132973501421,
                -1.94556056480701
            ]
        },
        {
            "positions": [
                2.2172666031043224,
                -1.3222425340655808,
                1.9013988075270705,
                0.20531381917338792,
                -0.930948599573994,
                -2.0093643544000495
            ]
        },
        {
            "positions": [
                2.166915949691051,
                -1.3318806525277969,
                2.027115921390826,
                0.25191057421470353,
                -0.9059839017978459,
                -2.073168143993089
            ]
        },
        {
            "positions": [
                2.11656529627778,
                -1.3415187709900132,
                2.1528330352545813,
                0.2985073292560192,
                -0.8810192040216978,
                -2.1369719335861284
            ]
        },
        {
            "positions": [
                1.9626330632434095,
                -1.3733754528254258,
                2.1287477819538014,
                0.23813120594080314,
                -0.8571696954166467,
                -2.044777122005296
            ]
        },
        {
            "positions": [
                1.8087008302090386,
                -1.4052321346608383,
                2.1046625286530216,
                0.1777550826255871,
                -0.8333201868115956,
                -1.952582310424464
            ]
        },
        {
            "positions": [
                1.654768597174668,
                -1.437088816496251,
                2.080577275352242,
                0.11737895931037107,
                -0.8094706782065446,
                -1.8603874988436315
            ]
        },
        {
            "positions": [
                1.500836364140297,
                -1.4689454983316637,
                2.056492022051462,
                0.05700283599515499,
                -0.7856211696014935,
                -1.7681926872627993
            ]
        },
        {
            "positions": [
                1.3469041311059264,
                -1.5008021801670761,
                2.032406768750682,
                -0.003373287320061036,
                -0.7617716609964424,
                -1.6759978756819671
            ]
        },
        {
            "positions": [
                1.1929718980715558,
                -1.5326588620024888,
                2.0083215154499023,
                -0.06374941063527706,
                -0.7379221523913914,
                -1.583803064101135
            ]
        },
        {
            "positions": [
                1.0390396650371851,
                -1.5645155438379015,
                1.9842362621491225,
                -0.12412553395049308,
                -0.7140726437863403,
                -1.4916082525203027
            ]
        },
        {
            "positions": [
                0.8851074320028143,
                -1.5963722256733142,
                1.9601510088483427,
                -0.18450165726570922,
                -0.6902231351812893,
                -1.3994134409394703
            ]
        },
        {
            "positions": [
                0.7311751989684436,
                -1.6282289075087266,
                1.9360657555475629,
                -0.24487778058092524,
                -0.6663736265762382,
                -1.307218629358638
            ]
        },
        {
            "positions": [
                0.577242965934073,
                -1.6600855893441393,
                1.911980502246783,
                -0.30525390389614127,
                -0.6425241179711871,
                -1.2150238177778059
            ]
        },
        {
            "positions": [
                0.5041378599901355,
                -1.6751044769888033,
                1.8773775499089644,
                -0.34101745692003954,
                -0.584945825326203,
                -1.1138436207485642
            ]
        },
        {
            "positions": [
                0.431032754046198,
                -1.6901233646334675,
                1.8427745975711458,
                -0.3767810099439379,
                -0.5273675326812189,
                -1.0126634237193224
            ]
        },
        {
            "positions": [
                0.35792764810226063,
                -1.7051422522781314,
                1.8081716452333274,
                -0.41254456296783615,
                -0.4697892400362348,
                -0.9114832266900808
            ]
        },
        {
            "positions": [
                0.2848225421583231,
                -1.7201611399227956,
                1.7735686928955088,
                -0.4483081159917345,
                -0.4122109473912507,
                -0.8103030296608391
            ]
        },
        {
            "positions": [
                0.21171743621438566,
                -1.7351800275674596,
                1.7389657405576902,
                -0.48407166901563276,
                -0.3546326547462666,
                -0.7091228326315974
            ]
        },
        {
            "positions": [
                0.19073558264885082,
                -1.724452878829459,
                1.713322283368165,
                -0.5040729245479668,
                -0.2541996813567925,
                -0.5076882936333159
            ]
        },
        {
            "positions": [
                0.16975372908331599,
                -1.7137257300914583,
                1.6876788261786395,
                -0.5240741800803008,
                -0.15376670796731834,
                -0.3062537546350345
            ]
        },
        {
            "positions": [
                0.14877187551778115,
                -1.7029985813534578,
                1.6620353689891143,
                -0.5440754356126349,
                -0.05333373457784424,
                -0.10481921563675312
            ]
        },
        {
            "positions": [
                0.12779002195224629,
                -1.6922714326154573,
                1.6363919117995889,
                -0.564076691144969,
                0.04709923881162992,
                0.09661532336152834
            ]
        },
        {
            "positions": [
                0.10680816838671145,
                -1.6815442838774566,
                1.6107484546100637,
                -0.584077946677303,
                0.14753221220110402,
                0.2980498623598097
            ]
        },
        {
            "positions": [
                0.08582631482117661,
                -1.670817135139456,
                1.5851049974205382,
                -0.6040792022096371,
                0.24796518559057812,
                0.49948440135809113
            ]
        },
        {
            "positions": [
                0.06484446125564178,
                -1.6600899864014553,
                1.559461540231013,
                -0.6240804577419711,
                0.34839815898005233,
                0.7009189403563726
            ]
        },
        {
            "positions": [
                0.043862607690106914,
                -1.6493628376634548,
                1.5338180830414876,
                -0.6440817132743052,
                0.44883113236952643,
                0.902353479354654
            ]
        },
        {
            "positions": [
                0.022880754124572078,
                -1.6386356889254543,
                1.5081746258519624,
                -0.6640829688066392,
                0.5492641057590006,
                1.1037880183529354
            ]
        },
        {
            "positions": [
                0.001898900559037242,
                -1.6279085401874536,
                1.4825311686624372,
                -0.6840842243389733,
                0.6496970791484746,
                1.3052225573512168
            ]
        },
        {
            "positions": [
                -0.019082953006497608,
                -1.617181391449453,
                1.4568877114729117,
                -0.7040854798713073,
                0.7501300525379488,
                1.5066570963494983
            ]
        },
        {
            "positions": [
                -0.018714773667884335,
                -1.5519944198539066,
                1.4987536185058348,
                -0.7029550868919999,
                0.6592647487695966,
                1.703337256096957
            ]
        },
        {
            "positions": [
                -0.01834659432927106,
                -1.4868074482583604,
                1.540619525538758,
                -0.7018246939126925,
                0.5683994450012444,
                1.9000174158444159
            ]
        },
        {
            "positions": [
                -0.017978414990657787,
                -1.421620476662814,
                1.582485432571681,
                -0.7006943009333851,
                0.47753414123289223,
                2.0966975755918744
            ]
        },
        {
            "positions": [
                -0.01761023565204451,
                -1.3564335050672676,
                1.6243513396046043,
                -0.6995639079540777,
                0.38666883746454,
                2.2933777353393334
            ]
        },
        {
            "positions": [
                -0.017242056313431238,
                -1.2912465334717211,
                1.6662172466375273,
                -0.6984335149747705,
                0.2958035336961878,
                2.4900578950867924
            ]
        },
        {
            "positions": [
                -0.016873876974817962,
                -1.2260595618761747,
                1.7080831536704504,
                -0.6973031219954631,
                0.2049382299278356,
                2.686738054834251
            ]
        },
        {
            "positions": [
                -0.01650569763620469,
                -1.1608725902806283,
                1.7499490607033736,
                -0.6961727290161557,
                0.11407292615948339,
                2.88341821458171
            ]
        },
        {
            "positions": [
                -0.016137518297591413,
                -1.095685618685082,
                1.791814967736297,
                -0.6950423360368483,
                0.023207622391131166,
                3.0800983743291686
            ]
        },
        {
            "positions": [
                -0.01576933895897814,
                -1.0304986470895356,
                1.83368087476922,
                -0.6939119430575409,
                -0.06765768137722103,
                3.2767785340766276
            ]
        },
        {
            "positions": [
                0.03080669174202625,
                -1.0703197739701786,
                1.8861931533407672,
                -0.7505699964811197,
                0.0003425452999152867,
                3.2369152140183264
            ]
        },
        {
            "positions": [
                0.07738272244303064,
                -1.1101409008508216,
                1.9387054319123143,
                -0.8072280499046983,
                0.0683427719770516,
                3.1970518939600256
            ]
        },
        {
            "positions": [
                0.12395875314403502,
                -1.1499620277314646,
                1.9912177104838615,
                -0.8638861033282771,
                0.13634299865418792,
                3.1571885739017245
            ]
        }
    ]
}