{
    "goal": {
        "global_pose": {
            "orientation": {
                "w": 0.7031023502349854,
                "x": -0.7110244035720825,
                "y": 0.007748599164187908,
                "z": 0.005598929710686207
            },
            "position": {
                "x": 0.11585023208521307,
                "y": 0.44412534475326537,
                "z": 0.3711530566215515
            }
        },
        "name": "move_to_auspresseinheit_A"
    },
    "id": "SBL_move_to_auspresseinheit_A_21",
    "joint_names": [
        "shoulder_pan_joint",
        "shoulder_lift_joint",
        "elbow_joint",
        "wrist_1_joint",
        "wrist_2_joint",
        "wrist_3_joint"
    ],
    "metrics": {
        "cart_traj_len": 0.7253253815125472,
        "distance_elbow_joint": 0.22703064212914503,
        "distance_shoulder_lift_joint": 0.7535204974939085,
        "distance_shoulder_pan_joint": 1.0450748167341273,
        "distance_wrist_1_joint": 1.8636020833313045,
        "distance_wrist_2_joint": 0.6563174334073175,
        "distance_wrist_3_joint": 1.7686570787316365,
        "smoothness": 1.2148590802931825,
        "time": 0.257930305,
        "traj_len": 2.512807702914697,
        "weighted_distance": 3.5173052506186226
    },
    "planner": "SBL",
    "start": {
        "state": {
            "elbow_joint": 2.4225746658250005,
            "shoulder_lift_joint": -1.3736534386056498,
            "shoulder_pan_joint": -0.3378633547517467,
            "wrist_1_joint": -1.0288598680537169,
            "wrist_2_joint": 1.233022673432363,
            "wrist_3_joint": -3.0940220416140027
        }
    },
    "waypoints": [
        {
            "positions": [
                -0.3378633547517467,
                -1.3736534386056498,
                2.4225746658250005,
                -1.0288598680537169,
                1.233022673432363,
                -3.0940220416140027
            ]
        },
        {
            "positions": [
                -0.2802403409133885,
                -1.432304854801838,
                2.410980615068718,
                -0.9189953044812018,
                1.1792599753437323,
                -3.0148575364042878
            ]
        },
        {
            "positions": [
                -0.22261732707503024,
                -1.4909562709980264,
                2.399386564312436,
                -0.8091307409086868,
                1.1254972772551017,
                -2.935693031194573
            ]
        },
        {
            "positions": [
                -0.16499431323667202,
                -1.5496076871942146,
                2.3877925135561537,
                -0.6992661773361717,
                1.071734579166471,
                -2.856528525984858
            ]
        },
        {
            "positions": [
                -0.10737129939831377,
                -1.6082591033904028,
                2.376198462799872,
                -0.5894016137636566,
                1.0179718810778402,
                -2.777364020775143
            ]
        },
        {
            "positions": [
                -0.04974828555995553,
                -1.6669105195865912,
                2.3646044120435894,
                -0.47953705019114157,
                0.9642091829892095,
                -2.698199515565428
            ]
        },
        {
            "positions": [
                0.007874728278402687,
                -1.7255619357827794,
                2.3530103612873075,
                -0.3696724866186265,
                0.9104464849005789,
                -2.619035010355713
            ]
        },
        {
            "positions": [
                0.0654977421167609,
                -1.7842133519789676,
                2.341416310531025,
                -0.25980792304611144,
                0.8566837868119481,
                -2.5398705051459975
            ]
        },
        {
            "positions": [
                0.12312075595511918,
                -1.842864768175156,
                2.329822259774743,
                -0.14994335947359638,
                0.8029210887233174,
                -2.4607059999362826
            ]
        },
        {
            "positions": [
                0.18074376979347745,
                -1.9015161843713444,
                2.3182282090184607,
                -0.04007879590108121,
                0.7491583906346866,
                -2.3815414947265676
            ]
        },
        {
            "positions": [
                0.23836678363183567,
                -1.9601676005675324,
                2.3066341582621788,
                0.06978576767143374,
                0.695395692546056,
                -2.3023769895168527
            ]
        },
        {
            "positions": [
                0.29598979747019394,
                -2.0188190167637208,
                2.2950401075058964,
                0.1796503312439488,
                0.6416329944574253,
                -2.2232124843071377
            ]
        },
        {
            "positions": [
                0.3623673030381568,
                -2.000955085764077,
                2.3120938561237354,
                0.07441163394218805,
                0.6523140379156779,
                -2.372799484000237
            ]
        },
        {
            "positions": [
                0.42874480860611963,
                -1.983091154764433,
                2.329147604741575,
                -0.030827063359572693,
                0.6629950813739304,
                -2.522386483693336
            ]
        },
        {
            "positions": [
                0.49512231417408253,
                -1.965227223764789,
                2.346201353359414,
                -0.13606576066133347,
                0.673676124832183,
                -2.6719734833864353
            ]
        },
        {
            "positions": [
                0.5658186967768486,
                -1.9469728483191537,
                2.3623129660115882,
                -0.24919102470411894,
                0.6846376661847237,
                -2.8216689908349264
            ]
        },
        {
            "positions": [
                0.6365150793796146,
                -1.9287184728735185,
                2.378424578663763,
                -0.3623162887469044,
                0.6955992075372643,
                -2.971364498283418
            ]
        },
        {
            "positions": [
                0.7072114619823806,
                -1.9104640974278833,
                2.3945361913159373,
                -0.4754415527896899,
                0.706560748889805,
                -3.121060005731909
            ]
        }
    ]
}