{
    "goal": {
        "global_pose": {
            "orientation": {
                "w": -0.00223480608172531,
                "x": 0.0024358444001904467,
                "y": 0.7094548369677653,
                "z": -0.704743149386269
            },
            "position": {
                "x": -0.37947507619857795,
                "y": -0.6371506643295288,
                "z": 0.19426114857196808
            }
        },
        "name": "move_to_magneteinheit_C"
    },
    "id": "SBL_move_to_magneteinheit_C_42",
    "joint_names": [
        "shoulder_pan_joint",
        "shoulder_lift_joint",
        "elbow_joint",
        "wrist_1_joint",
        "wrist_2_joint",
        "wrist_3_joint"
    ],
    "metrics": {
        "cart_traj_len": 2.1874898602127884,
        "distance_elbow_joint": 2.034241202366402,
        "distance_shoulder_lift_joint": 0.8436036448963335,
        "distance_shoulder_pan_joint": 2.888327579874889,
        "distance_wrist_1_joint": 1.8780558755695123,
        "distance_wrist_2_joint": 3.441646632874033,
        "distance_wrist_3_joint": 2.9015948496008317,
        "smoothness": 1.1342711417558566,
        "time": 0.33028293799999997,
        "traj_len": 3.7399825915613563,
        "weighted_distance": 5.011024046322988
    },
    "planner": "SBL",
    "start": {
        "state": {
            "elbow_joint": 1.9565354010623817,
            "shoulder_lift_joint": -1.4165861575791021,
            "shoulder_pan_joint": -1.6717766225146293,
            "wrist_1_joint": -0.5286633292919765,
            "wrist_2_joint": 1.472756589071564,
            "wrist_3_joint": -3.1238370188695823
        }
    },
    "waypoints": [
        {
            "positions": [
                -1.6717766225146293,
                -1.4165861575791021,
                1.9565354010623817,
                -0.5286633292919765,
                1.472756589071564,
                -3.1238370188695823
            ]
        },
        {
            "positions": [
                -1.6013583668342952,
                -1.4415914456000587,
                1.9444058994818856,
                -0.5155451964698955,
                1.3427285918479606,
                -2.9803591858895597
            ]
        },
        {
            "positions": [
                -1.5309401111539611,
                -1.4665967336210153,
                1.9322763979013895,
                -0.5024270636478146,
                1.212700594624357,
                -2.836881352909537
            ]
        },
        {
            "positions": [
                -1.4605218554736272,
                -1.4916020216419716,
                1.9201468963208936,
                -0.4893089308257337,
                1.0826725974007536,
                -2.6934035199295145
            ]
        },
        {
            "positions": [
                -1.3901035997932931,
                -1.5166073096629282,
                1.9080173947403976,
                -0.4761907980036527,
                0.9526446001771501,
                -2.549925686949492
            ]
        },
        {
            "positions": [
                -1.319685344112959,
                -1.5416125976838848,
                1.8958878931599015,
                -0.4630726651815718,
                0.8226166029535468,
                -2.4064478539694694
            ]
        },
        {
            "positions": [
                -1.249267088432625,
                -1.5666178857048414,
                1.8837583915794054,
                -0.4499545323594909,
                0.6925886057299434,
                -2.2629700209894468
            ]
        },
        {
            "positions": [
                -1.178848832752291,
                -1.591623173725798,
                1.8716288899989093,
                -0.43683639953740994,
                0.5625606085063399,
                -2.119492188009424
            ]
        },
        {
            "positions": [
                -1.1084305770719567,
                -1.6166284617467546,
                1.8594993884184134,
                -0.42371826671532903,
                0.43253261128273635,
                -1.9760143550294018
            ]
        },
        {
            "positions": [
                -1.0380123213916228,
                -1.641633749767711,
                1.8473698868379174,
                -0.41060013389324806,
                0.302504614059133,
                -1.8325365220493792
            ]
        },
        {
            "positions": [
                -0.9675940657112887,
                -1.6666390377886675,
                1.8352403852574213,
                -0.39748200107116716,
                0.17247661683552953,
                -1.6890586890693566
            ]
        },
        {
            "positions": [
                -1.082861284884323,
                -1.6694982556557327,
                1.900516980468109,
                -0.46575700130634423,
                0.255258928141235,
                -1.7318486100533494
            ]
        },
        {
            "positions": [
                -1.1981285040573575,
                -1.6723574735227982,
                1.9657935756787968,
                -0.5340320015415213,
                0.3380412394469405,
                -1.774638531037342
            ]
        },
        {
            "positions": [
                -1.3133957232303919,
                -1.6752166913898634,
                2.0310701708894845,
                -0.6023070017766984,
                0.420823550752646,
                -1.8174284520213349
            ]
        },
        {
            "positions": [
                -1.4286629424034263,
                -1.6780759092569288,
                2.0963467661001722,
                -0.6705820020118755,
                0.5036058620583515,
                -1.8602183730053277
            ]
        },
        {
            "positions": [
                -1.5439301615764607,
                -1.680935127123994,
                2.1616233613108604,
                -0.7388570022470525,
                0.5863881733640569,
                -1.9030082939893203
            ]
        },
        {
            "positions": [
                -1.6591973807494953,
                -1.6837943449910595,
                2.226899956521548,
                -0.8071320024822296,
                0.6691704846697624,
                -1.945798214973313
            ]
        },
        {
            "positions": [
                -1.7744645999225295,
                -1.6866535628581247,
                2.292176551732236,
                -0.8754070027174067,
                0.7519527959754678,
                -1.9885881359573059
            ]
        },
        {
            "positions": [
                -1.889731819095564,
                -1.68951278072519,
                2.3574531469429236,
                -0.9436820029525838,
                0.8347351072811733,
                -2.0313780569412985
            ]
        },
        {
            "positions": [
                -2.0049990382685987,
                -1.6923719985922554,
                2.4227297421536114,
                -1.011957003187761,
                0.9175174185868787,
                -2.0741679779252915
            ]
        },
        {
            "positions": [
                -2.120266257441633,
                -1.6952312164593206,
                2.488006337364299,
                -1.080232003422938,
                1.0002997298925842,
                -2.116957898909284
            ]
        },
        {
            "positions": [
                -2.235533476614667,
                -1.698090434326386,
                2.5532829325749873,
                -1.148507003658115,
                1.0830820411982898,
                -2.1597478198932767
            ]
        },
        {
            "positions": [
                -2.3508006957877017,
                -1.7009496521934513,
                2.618559527785675,
                -1.2167820038932922,
                1.1658643525039953,
                -2.2025377408772693
            ]
        },
        {
            "positions": [
                -2.4660679149607363,
                -1.7038088700605167,
                2.6838361229963628,
                -1.2850570041284692,
                1.2486466638097007,
                -2.2453276618612623
            ]
        },
        {
            "positions": [
                -2.5813351341337705,
                -1.706668087927582,
                2.7491127182070505,
                -1.3533320043636463,
                1.3314289751154063,
                -2.288117582845255
            ]
        },
        {
            "positions": [
                -2.6966023533068046,
                -1.7095273057946474,
                2.8143893134177382,
                -1.4216070045988234,
                1.4142112864211116,
                -2.330907503829248
            ]
        },
        {
            "positions": [
                -2.8118695724798393,
                -1.7123865236617126,
                2.879665908628426,
                -1.4898820048340005,
                1.4969935977268172,
                -2.3736974248132405
            ]
        },
        {
            "positions": [
                -2.780972343725021,
                -1.6625862255877377,
                2.8007094847020224,
                -1.4303843190534669,
                1.4227345359316617,
                -2.444804496091124
            ]
        },
        {
            "positions": [
                -2.7500751149702034,
                -1.612785927513763,
                2.7217530607756193,
                -1.3708866332729333,
                1.3484754741365061,
                -2.5159115673690082
            ]
        },
        {
            "positions": [
                -2.7191778862153853,
                -1.5629856294397881,
                2.6427966368492157,
                -1.3113889474923996,
                1.2742164123413504,
                -2.587018638646892
            ]
        },
        {
            "positions": [
                -2.688280657460567,
                -1.5131853313658132,
                2.5638402129228126,
                -1.251891261711866,
                1.199957350546195,
                -2.658125709924776
            ]
        },
        {
            "positions": [
                -2.6573834287057494,
                -1.4633850332918386,
                2.484883788996409,
                -1.1923935759313324,
                1.1256982887510394,
                -2.7292327812026596
            ]
        },
        {
            "positions": [
                -2.6264861999509312,
                -1.4135847352178637,
                2.405927365070006,
                -1.1328958901507988,
                1.0514392269558839,
                -2.8003398524805436
            ]
        },
        {
            "positions": [
                -2.5955889711961135,
                -1.363784437143889,
                2.3269709411436024,
                -1.0733982043702652,
                0.9771801651607283,
                -2.8714469237584272
            ]
        },
        {
            "positions": [
                -2.5646917424412954,
                -1.313984139069914,
                2.2480145172171992,
                -1.0139005185897316,
                0.9029211033655726,
                -2.9425539950363113
            ]
        },
        {
            "positions": [
                -2.5337945136864772,
                -1.2641838409959392,
                2.1690580932907957,
                -0.9544028328091981,
                0.8286620415704171,
                -3.013661066314195
            ]
        },
        {
            "positions": [
                -2.5028972849316595,
                -1.2143835429219645,
                2.090101669364392,
                -0.8949051470286645,
                0.7544029797752616,
                -3.0847681375920786
            ]
        },
        {
            "positions": [
                -2.4720000561768414,
                -1.1645832448479896,
                2.011145245437989,
                -0.8354074612481309,
                0.680143917980106,
                -3.1558752088699626
            ]
        }
    ]
}