{
    "goal": {
        "global_pose": {
            "orientation": {
                "w": 0.7047431468963623,
                "x": -0.7094548344612122,
                "y": 0.0024358443915843964,
                "z": -0.0022348060738295317
            },
            "position": {
                "x": 0.6094750761985779,
                "y": 0.3671506643295288,
                "z": 0.19426114857196808
            }
        },
        "name": "move_to_magneteinheit_A"
    },
    "id": "SBL_move_to_magneteinheit_A_54",
    "joint_names": [
        "shoulder_pan_joint",
        "shoulder_lift_joint",
        "elbow_joint",
        "wrist_1_joint",
        "wrist_2_joint",
        "wrist_3_joint"
    ],
    "metrics": {
        "cart_traj_len": 3.8530424563081427,
        "distance_elbow_joint": 3.9146681933058156,
        "distance_shoulder_lift_joint": 0.46505845511024835,
        "distance_shoulder_pan_joint": 3.874365126504559,
        "distance_wrist_1_joint": 3.4849901380680004,
        "distance_wrist_2_joint": 1.903865403504058,
        "distance_wrist_3_joint": 1.6258079539897954,
        "smoothness": 0.26999439303701356,
        "time": 0.12573102,
        "traj_len": 3.9075254663894996,
        "weighted_distance": 4.889706199766417
    },
    "planner": "SBL",
    "start": {
        "state": {
            "elbow_joint": -1.9196185241190666,
            "shoulder_lift_joint": -1.2443396400964142,
            "shoulder_pan_joint": 2.6996025414629847,
            "wrist_1_joint": -1.5485510000780065,
            "wrist_2_joint": -1.5709468930060704,
            "wrist_3_joint": 0.4420197071253992
        }
    },
    "waypoints": [
        {
            "positions": [
                2.6996025414629847,
                -1.2443396400964142,
                -1.9196185241190666,
                -1.5485510000780065,
                -1.5709468930060704,
                0.4420197071253992
            ]
        },
        {
            "positions": [
                2.592070960607887,
                -1.2361856554495916,
                -1.8153490938317158,
                -1.470892834389384,
                -1.5150636282777354,
                0.4072951614423378
            ]
        },
        {
            "positions": [
                2.48453937975279,
                -1.228031670802769,
                -1.711079663544365,
                -1.3932346687007615,
                -1.4591803635494005,
                0.3725706157592764
            ]
        },
        {
            "positions": [
                2.3770077988976923,
                -1.2198776861559466,
                -1.6068102332570144,
                -1.315576503012139,
                -1.4032970988210658,
                0.33784607007621503
            ]
        },
        {
            "positions": [
                2.269476218042595,
                -1.211723701509124,
                -1.5025408029696636,
                -1.2379183373235163,
                -1.3474138340927309,
                0.30312152439315365
            ]
        },
        {
            "positions": [
                2.1619446371874975,
                -1.2035697168623014,
                -1.3982713726823128,
                -1.160260171634894,
                -1.291530569364396,
                0.26839697871009227
            ]
        },
        {
            "positions": [
                2.0544130563324,
                -1.1954157322154788,
                -1.294001942394962,
                -1.0826020059462713,
                -1.235647304636061,
                0.2336724330270309
            ]
        },
        {
            "positions": [
                1.9468814754773027,
                -1.1872617475686562,
                -1.1897325121076112,
                -1.0049438402576487,
                -1.179764039907726,
                0.1989478873439695
            ]
        },
        {
            "positions": [
                1.839349894622205,
                -1.1791077629218338,
                -1.0854630818202606,
                -0.9272856745690262,
                -1.1238807751793911,
                0.16422334166090813
            ]
        },
        {
            "positions": [
                1.731818313767108,
                -1.1709537782750112,
                -0.9811936515329098,
                -0.8496275088804037,
                -1.0679975104510562,
                0.12949879597784675
            ]
        },
        {
            "positions": [
                1.6242867329120103,
                -1.1627997936281886,
                -0.876924221245559,
                -0.7719693431917812,
                -1.0121142457227215,
                0.09477425029478537
            ]
        },
        {
            "positions": [
                1.516755152056913,
                -1.154645808981366,
                -0.7726547909582084,
                -0.6943111775031587,
                -0.9562309809943865,
                0.060049704611723986
            ]
        },
        {
            "positions": [
                1.4092235712018153,
                -1.1464918243345437,
                -0.6683853606708574,
                -0.6166530118145361,
                -0.9003477162660516,
                0.025325158928662606
            ]
        },
        {
            "positions": [
                1.301691990346718,
                -1.138337839687721,
                -0.5641159303835066,
                -0.5389948461259135,
                -0.8444644515377167,
                -0.009399386754398775
            ]
        },
        {
            "positions": [
                1.1941604094916205,
                -1.1301838550408985,
                -0.459846500096156,
                -0.46133668043729115,
                -0.7885811868093818,
                -0.044123932437460156
            ]
        },
        {
            "positions": [
                1.086628828636523,
                -1.1220298703940759,
                -0.3555770698088052,
                -0.38367851474866854,
                -0.7326979220810469,
                -0.07884847812052154
            ]
        },
        {
            "positions": [
                0.9790972477814257,
                -1.1138758857472535,
                -0.2513076395214544,
                -0.30602034906004594,
                -0.676814657352712,
                -0.11357302380358292
            ]
        },
        {
            "positions": [
                0.8715656669263283,
                -1.105721901100431,
                -0.14703820923410382,
                -0.22836218337142355,
                -0.6209313926243771,
                -0.1482975694866443
            ]
        },
        {
            "positions": [
                0.7640340860712309,
                -1.0975679164536083,
                -0.04276877894675302,
                -0.15070401768280095,
                -0.5650481278960422,
                -0.18302211516970568
            ]
        },
        {
            "positions": [
                0.6565025052161335,
                -1.0894139318067857,
                0.06150065134059779,
                -0.07304585199417857,
                -0.5091648631677073,
                -0.21774666085276706
            ]
        },
        {
            "positions": [
                0.5489709243610359,
                -1.081259947159963,
                0.1657700816279486,
                0.004612313694444037,
                -0.45328159843937255,
                -0.25247120653582844
            ]
        },
        {
            "positions": [
                0.4414393435059387,
                -1.0731059625131407,
                0.2700395119152992,
                0.08227047938306664,
                -0.3973983337110376,
                -0.2871957522188898
            ]
        },
        {
            "positions": [
                0.3339077626508411,
                -1.0649519778663181,
                0.37430894220264976,
                0.15992864507168902,
                -0.3415150689827027,
                -0.3219202979019512
            ]
        },
        {
            "positions": [
                0.22637618179574348,
                -1.0567979932194955,
                0.47857837249000124,
                0.23758681076031185,
                -0.2856318042543675,
                -0.3566448435850126
            ]
        },
        {
            "positions": [
                0.11884460094064586,
                -1.048644008572673,
                0.5828478027773518,
                0.31524497644893423,
                -0.2297485395260328,
                -0.39136938926807396
            ]
        },
        {
            "positions": [
                0.011313020085548686,
                -1.0404900239258503,
                0.6871172330647024,
                0.39290314213755684,
                -0.17386527479769787,
                -0.42609393495113534
            ]
        },
        {
            "positions": [
                -0.09621856076954893,
                -1.032336039279028,
                0.7913866633520534,
                0.47056130782617944,
                -0.11798201006936293,
                -0.4608184806341967
            ]
        },
        {
            "positions": [
                -0.2037501416246461,
                -1.0241820546322054,
                0.895656093639404,
                0.5482194735148018,
                -0.062098745341027994,
                -0.4955430263172581
            ]
        },
        {
            "positions": [
                -0.3112817224797437,
                -1.0160280699853828,
                0.9999255239267546,
                0.6258776392034242,
                -0.0062154806126932804,
                -0.5302675720003195
            ]
        },
        {
            "positions": [
                -0.4188133033348409,
                -1.0078740853385602,
                1.1041949542141056,
                0.703535804892047,
                0.049667784115641656,
                -0.5649921176833809
            ]
        },
        {
            "positions": [
                -0.5263448841899383,
                -0.9997201006917377,
                1.2084643845014564,
                0.7811939705806696,
                0.10555104884397658,
                -0.5997166633664421
            ]
        },
        {
            "positions": [
                -0.4615031141047748,
                -0.9776762091211805,
                1.2871229129699855,
                0.8967184873216022,
                0.08281430267857555,
                -0.5413095050166467
            ]
        },
        {
            "positions": [
                -0.3966613440196113,
                -0.9556323175506233,
                1.3657814414385148,
                1.0122430040625348,
                0.06007755651317452,
                -0.4829023466668512
            ]
        },
        {
            "positions": [
                -0.3318195739344478,
                -0.9335884259800661,
                1.4444399699070438,
                1.1277675208034672,
                0.03734081034777349,
                -0.4244951883170558
            ]
        },
        {
            "positions": [
                -0.26697780384928427,
                -0.9115445344095089,
                1.5230984983755729,
                1.2432920375443997,
                0.014604064182372464,
                -0.3660880299672603
            ]
        },
        {
            "positions": [
                -0.20213603376412076,
                -0.8895006428389518,
                1.6017570268441021,
                1.3588165542853323,
                -0.008132681983028564,
                -0.3076808716174648
            ]
        },
        {
            "positions": [
                -0.13729426367895725,
                -0.8674567512683946,
                1.6804155553126312,
                1.4743410710262648,
                -0.030869428148429592,
                -0.2492737132676694
            ]
        },
        {
            "positions": [
                -0.0724524935937938,
                -0.8454128596978374,
                1.7590740837811603,
                1.5898655877671972,
                -0.05360617431383062,
                -0.1908665549178739
            ]
        },
        {
            "positions": [
                -0.007610723508630235,
                -0.8233689681272802,
                1.8377326122496895,
                1.7053901045081297,
                -0.07634292047923165,
                -0.13245939656807842
            ]
        },
        {
            "positions": [
                0.05723104657653333,
                -0.801325076556723,
                1.9163911407182186,
                1.8209146212490623,
                -0.09907966664463268,
                -0.074052238218283
            ]
        },
        {
            "positions": [
                0.12207281666169677,
                -0.7792811849861658,
                1.9950496691867476,
                1.9364391379899948,
                -0.12181641281003372,
                -0.015645079868487496
            ]
        }
    ]
}