{
    "goal": {
        "global_pose": {
            "orientation": {
                "w": 0.005598929693374612,
                "x": 0.007748599140229565,
                "y": 0.7110244013736278,
                "z": -0.7031023480610252
            },
            "position": {
                "x": -0.8858502320852131,
                "y": -0.7141253447532654,
                "z": 0.3711530566215515
            }
        },
        "name": "move_to_auspresseinheit_C"
    },
    "id": "SBL_move_to_auspresseinheit_C_20",
    "joint_names": [
        "shoulder_pan_joint",
        "shoulder_lift_joint",
        "elbow_joint",
        "wrist_1_joint",
        "wrist_2_joint",
        "wrist_3_joint"
    ],
    "metrics": {
        "cart_traj_len": 0.49236093675850395,
        "distance_elbow_joint": 0.9922431945873497,
        "distance_shoulder_lift_joint": 0.3210613147035266,
        "distance_shoulder_pan_joint": 0.2555134628653364,
        "distance_wrist_1_joint": 0.6587974604411272,
        "distance_wrist_2_joint": 1.3176036795251993,
        "distance_wrist_3_joint": 0.05166920448077539,
        "smoothness": 3.2297397080004555e-16,
        "time": 0.221366481,
        "traj_len": 1.896546418256963,
        "weighted_distance": 2.3825674944335136
    },
    "planner": "SBL",
    "start": {
        "state": {
            "elbow_joint": 1.7527959577737207,
            "shoulder_lift_joint": -0.9740617694225068,
            "shoulder_pan_joint": -2.967991417825858,
            "wrist_1_joint": -0.759517768980727,
            "wrist_2_joint": 1.7443932448377408,
            "wrist_3_joint": -3.0840537646736568
        }
    },
    "waypoints": [
        {
            "positions": [
                -2.967991417825858,
                -0.9740617694225068,
                1.7527959577737207,
                -0.759517768980727,
                1.7443932448377408,
                -3.0840537646736568
            ]
        },
        {
            "positions": [
                -2.942440071539324,
                -0.9419556379521541,
                1.6535716383149857,
                -0.6936380229366143,
                1.612632876885221,
                -3.0892206851217345
            ]
        },
        {
            "positions": [
                -2.916888725252791,
                -0.9098495064818014,
                1.5543473188562507,
                -0.6277582768925015,
                1.480872508932701,
                -3.094387605569812
            ]
        },
        {
            "positions": [
                -2.891337378966257,
                -0.8777433750114488,
                1.4551229993975157,
                -0.5618785308483888,
                1.3491121409801812,
                -3.099554526017889
            ]
        },
        {
            "positions": [
                -2.8657860326797233,
                -0.8456372435410962,
                1.3558986799387807,
                -0.4959987848042761,
                1.217351773027661,
                -3.104721446465967
            ]
        },
        {
            "positions": [
                -2.84023468639319,
                -0.8135311120707435,
                1.2566743604800459,
                -0.4301190387601634,
                1.0855914050751412,
                -3.1098883669140447
            ]
        },
        {
            "positions": [
                -2.814683340106656,
                -0.7814249806003908,
                1.1574500410213109,
                -0.36423929271605066,
                0.9538310371226213,
                -3.115055287362122
            ]
        },
        {
            "positions": [
                -2.7891319938201224,
                -0.7493188491300382,
                1.0582257215625759,
                -0.298359546671938,
                0.8220706691701014,
                -3.1202222078101993
            ]
        },
        {
            "positions": [
                -2.7635806475335887,
                -0.7172127176596854,
                0.9590014021038409,
                -0.23247980062782525,
                0.6903103012175813,
                -3.125389128258277
            ]
        },
        {
            "positions": [
                -2.7380293012470553,
                -0.6851065861893328,
                0.859777082645106,
                -0.16660005458371252,
                0.5585499332650614,
                -3.130556048706355
            ]
        },
        {
            "positions": [
                -2.7124779549605216,
                -0.6530004547189802,
                0.760552763186371,
                -0.10072030853959975,
                0.4267895653125414,
                -3.135722969154432
            ]
        }
    ]
}