{
    "goal": {
        "global_pose": {
            "orientation": {
                "w": 0.7031023480610252,
                "x": -0.7110244013736278,
                "y": 0.0077485991402295624,
                "z": 0.005598929693374583
            },
            "position": {
                "x": -0.8841497679147869,
                "y": 0.44412534475326537,
                "z": 0.3711530566215515
            }
        },
        "name": "move_to_auspresseinheit_D"
    },
    "id": "SBL_move_to_auspresseinheit_D_50",
    "joint_names": [
        "shoulder_pan_joint",
        "shoulder_lift_joint",
        "elbow_joint",
        "wrist_1_joint",
        "wrist_2_joint",
        "wrist_3_joint"
    ],
    "metrics": {
        "cart_traj_len": 0.3442469306988426,
        "distance_elbow_joint": 0.667895414340667,
        "distance_shoulder_lift_joint": 0.13806062999972957,
        "distance_shoulder_pan_joint": 0.13314012610971965,
        "distance_wrist_1_joint": 0.6203439280518137,
        "distance_wrist_2_joint": 1.4436494283726846,
        "distance_wrist_3_joint": 0.07997090174825816,
        "smoothness": 9.868649032415994e-16,
        "time": 0.16025534,
        "traj_len": 1.7558645815161467,
        "weighted_distance": 2.3036917303632203
    },
    "planner": "SBL",
    "start": {
        "state": {
            "elbow_joint": -1.8275523626775212,
            "shoulder_lift_joint": -2.126789852344167,
            "shoulder_pan_joint": -0.03513704404078235,
            "wrist_1_joint": -2.347782403156801,
            "wrist_2_joint": -1.6058999987535132,
            "wrist_3_joint": -3.0880379163319196
        }
    },
    "waypoints": [
        {
            "positions": [
                -0.03513704404078235,
                -2.126789852344167,
                -1.8275523626775212,
                -2.347782403156801,
                -1.6058999987535132,
                -3.0880379163319196
            ]
        },
        {
            "positions": [
                -0.051779559804497305,
                -2.144047431094133,
                -1.744065435884938,
                -2.4253253941632775,
                -1.4254438202069277,
                -3.0780415536133874
            ]
        },
        {
            "positions": [
                -0.06842207556821225,
                -2.1613050098440993,
                -1.6605785090923544,
                -2.502868385169754,
                -1.244987641660342,
                -3.068045190894855
            ]
        },
        {
            "positions": [
                -0.08506459133192722,
                -2.1785625885940654,
                -1.577091582299771,
                -2.580411376176231,
                -1.0645314631137563,
                -3.058048828176323
            ]
        },
        {
            "positions": [
                -0.10170710709564218,
                -2.1958201673440314,
                -1.4936046555071876,
                -2.6579543671827075,
                -0.8840752845671709,
                -3.0480524654577907
            ]
        },
        {
            "positions": [
                -0.11834962285935713,
                -2.213077746093998,
                -1.4101177287146043,
                -2.7354973581891846,
                -0.7036191060205853,
                -3.038056102739258
            ]
        },
        {
            "positions": [
                -0.13499213862307208,
                -2.230335324843964,
                -1.326630801922021,
                -2.8130403491956613,
                -0.5231629274739997,
                -3.028059740020726
            ]
        },
        {
            "positions": [
                -0.15163465438678705,
                -2.2475929035939304,
                -1.2431438751294377,
                -2.890583340202138,
                -0.34270674892741404,
                -3.0180633773021937
            ]
        },
        {
            "positions": [
                -0.168277170150502,
                -2.2648504823438964,
                -1.1596569483368542,
                -2.9681263312086146,
                -0.16225057038082866,
                -3.0080670145836614
            ]
        }
    ]
}