{
    "goal": {
        "global_pose": {
            "orientation": {
                "w": 0.7047431493862688,
                "x": -0.7094548369677653,
                "y": 0.0024358444001904,
                "z": -0.0022348060817251984
            },
            "position": {
                "x": -0.39052492380142206,
                "y": 0.3671506643295288,
                "z": 0.19426114857196808
            }
        },
        "name": "move_to_magneteinheit_D"
    },
    "id": "SBL_move_to_magneteinheit_D_93",
    "joint_names": [
        "shoulder_pan_joint",
        "shoulder_lift_joint",
        "elbow_joint",
        "wrist_1_joint",
        "wrist_2_joint",
        "wrist_3_joint"
    ],
    "metrics": {
        "cart_traj_len": 4.645658031467424,
        "distance_elbow_joint": 3.1145917223402257,
        "distance_shoulder_lift_joint": 1.0951638078507528,
        "distance_shoulder_pan_joint": 3.8096210224588143,
        "distance_wrist_1_joint": 2.5712583171232564,
        "distance_wrist_2_joint": 1.1678407192215878,
        "distance_wrist_3_joint": 1.8533128060330188,
        "smoothness": 0.464820733669637,
        "time": 0.597282513,
        "traj_len": 3.6894157254269473,
        "weighted_distance": 4.588846591839668
    },
    "planner": "SBL",
    "start": {
        "state": {
            "elbow_joint": 0.749534889911806,
            "shoulder_lift_joint": -0.6476975780787326,
            "shoulder_pan_joint": -2.711696901376241,
            "wrist_1_joint": -0.07506478083263063,
            "wrist_2_joint": 0.43296659715538205,
            "wrist_3_joint": -3.14703540197715
        }
    },
    "waypoints": [
        {
            "positions": [
                -2.711696901376241,
                -0.6476975780787326,
                0.749534889911806,
                -0.07506478083263063,
                0.43296659715538205,
                -3.14703540197715
            ]
        },
        {
            "positions": [
                -2.7210604427581306,
                -0.6769979008530824,
                0.711789826929709,
                -0.027216856366986696,
                0.4362291319191031,
                -3.130865745802523
            ]
        },
        {
            "positions": [
                -2.7337207296895807,
                -0.7139096672486772,
                0.6437243319676067,
                0.035496477698721614,
                0.43714167119872077,
                -3.0412609404458464
            ]
        },
        {
            "positions": [
                -2.7463810166210303,
                -0.7508214336442721,
                0.5756588370055044,
                0.09820981176442992,
                0.43805421047833837,
                -2.95165613508917
            ]
        },
        {
            "positions": [
                -2.7590413035524803,
                -0.7877332000398669,
                0.507593342043402,
                0.16092314583013825,
                0.438966749757956,
                -2.8620513297324934
            ]
        },
        {
            "positions": [
                -2.6213070380755146,
                -0.8179552689394427,
                0.4060050962812373,
                0.07802086370902622,
                0.45074068531530176,
                -2.8341338520274375
            ]
        },
        {
            "positions": [
                -2.483572772598549,
                -0.8481773378390185,
                0.30441685051907263,
                -0.004881418412085808,
                0.4625146208726475,
                -2.8062163743223816
            ]
        },
        {
            "positions": [
                -2.345838507121583,
                -0.8783994067385943,
                0.202828604756908,
                -0.08778370053319784,
                0.47428855642999324,
                -2.778298896617325
            ]
        },
        {
            "positions": [
                -2.2081042416446173,
                -0.90862147563817,
                0.10124035899474332,
                -0.17068598265430987,
                0.48606249198733903,
                -2.7503814189122693
            ]
        },
        {
            "positions": [
                -2.0703699761676515,
                -0.9388435445377458,
                -0.00034788676742136815,
                -0.25358826477542185,
                0.49783642754468477,
                -2.7224639412072134
            ]
        },
        {
            "positions": [
                -1.9326357106906857,
                -0.9690656134373216,
                -0.101936132529586,
                -0.3364905468965339,
                0.5096103631020306,
                -2.6945464635021574
            ]
        },
        {
            "positions": [
                -1.79490144521372,
                -0.9992876823368974,
                -0.20352437829175074,
                -0.4193928290176461,
                0.5213842986593763,
                -2.6666289857971015
            ]
        },
        {
            "positions": [
                -1.6571671797367542,
                -1.029509751236473,
                -0.30511262405391537,
                -0.502295111138758,
                0.533158234216722,
                -2.6387115080920456
            ]
        },
        {
            "positions": [
                -1.5194329142597884,
                -1.0597318201360488,
                -0.4067008698160801,
                -0.5851973932598701,
                0.5449321697740678,
                -2.610794030386989
            ]
        },
        {
            "positions": [
                -1.3816986487828227,
                -1.0899538890356246,
                -0.5082891155782447,
                -0.668099675380982,
                0.5567061053314135,
                -2.5828765526819333
            ]
        },
        {
            "positions": [
                -1.243964383305857,
                -1.1201759579352004,
                -0.6098773613404096,
                -0.7510019575020941,
                0.5684800408887593,
                -2.5549590749768774
            ]
        },
        {
            "positions": [
                -1.1062301178288911,
                -1.1503980268347762,
                -0.711465607102574,
                -0.8339042396232061,
                0.580253976446105,
                -2.5270415972718214
            ]
        },
        {
            "positions": [
                -0.9684958523519256,
                -1.180620095734352,
                -0.8130538528647386,
                -0.9168065217443181,
                0.5920279120034507,
                -2.4991241195667655
            ]
        },
        {
            "positions": [
                -0.8307615868749594,
                -1.2108421646339278,
                -0.9146420986269035,
                -0.9997088038654304,
                0.6038018475607965,
                -2.471206641861709
            ]
        },
        {
            "positions": [
                -0.6930273213979938,
                -1.2410642335335036,
                -1.0162303443890681,
                -1.082611085986542,
                0.6155757831181422,
                -2.443289164156653
            ]
        },
        {
            "positions": [
                -0.5552930559210281,
                -1.2712863024330794,
                -1.1178185901512327,
                -1.1655133681076542,
                0.6273497186754879,
                -2.4153716864515973
            ]
        },
        {
            "positions": [
                -0.4175587904440623,
                -1.301508371332655,
                -1.2194068359133974,
                -1.248415650228766,
                0.6391236542328337,
                -2.3874542087465414
            ]
        },
        {
            "positions": [
                -0.27982452496709653,
                -1.331730440232231,
                -1.3209950816755622,
                -1.3313179323498783,
                0.6508975897901795,
                -2.3595367310414854
            ]
        },
        {
            "positions": [
                -0.14209025949013077,
                -1.3619525091318065,
                -1.4225833274377269,
                -1.4142202144709903,
                0.6626715253475253,
                -2.3316192533364295
            ]
        },
        {
            "positions": [
                -0.004355994013164999,
                -1.3921745780313823,
                -1.5241715731998915,
                -1.4971224965921022,
                0.674445460904871,
                -2.3037017756313736
            ]
        },
        {
            "positions": [
                0.13337827146380077,
                -1.4223966469309581,
                -1.6257598189620563,
                -1.5800247787132142,
                0.6862193964622167,
                -2.275784297926317
            ]
        },
        {
            "positions": [
                0.27111253694076654,
                -1.452618715830534,
                -1.7273480647242212,
                -1.6629270608343263,
                0.6979933320195625,
                -2.2478668202212613
            ]
        },
        {
            "positions": [
                0.4088468024177321,
                -1.4828407847301097,
                -1.8289363104863856,
                -1.7458293429554383,
                0.7097672675769082,
                -2.2199493425162053
            ]
        },
        {
            "positions": [
                0.33811452785505464,
                -1.5115501150151598,
                -1.89026581254216,
                -1.777004217444421,
                0.6234285464954258,
                -2.3110461524145762
            ]
        },
        {
            "positions": [
                0.2673822532923772,
                -1.54025944530021,
                -1.9515953145979346,
                -1.8081790919334033,
                0.5370898254139433,
                -2.402142962312947
            ]
        },
        {
            "positions": [
                0.1966499787296997,
                -1.5689687755852604,
                -2.012924816653709,
                -1.839353966422386,
                0.45075110433246085,
                -2.4932397722113175
            ]
        },
        {
            "positions": [
                0.12591770416702225,
                -1.5976781058703104,
                -2.0742543187094835,
                -1.8705288409113683,
                0.3644123832509784,
                -2.5843365821096884
            ]
        },
        {
            "positions": [
                0.055185429604344804,
                -1.6263874361553605,
                -2.135583820765258,
                -1.9017037154003509,
                0.27807366216949597,
                -2.6754333920080593
            ]
        },
        {
            "positions": [
                -0.015546844958332695,
                -1.6550967664404108,
                -2.1969133228210325,
                -1.9328785898893335,
                0.19173494108801348,
                -2.7665302019064297
            ]
        },
        {
            "positions": [
                -0.08627911952101014,
                -1.683806096725461,
                -2.258242824876807,
                -1.9640534643783158,
                0.10539622000653104,
                -2.8576270118048006
            ]
        },
        {
            "positions": [
                -0.15701139408368758,
                -1.7125154270105112,
                -2.3195723269325814,
                -1.9952283388672984,
                0.019057498925048627,
                -2.9487238217031715
            ]
        },
        {
            "positions": [
                -0.17127655298915906,
                -1.7276884064699982,
                -2.3423145796805,
                -2.0847877917488233,
                -0.08110764114905232,
                -3.0474499553957255
            ]
        },
        {
            "positions": [
                -0.18554171189463056,
                -1.7428613859294855,
                -2.365056832428419,
                -2.1743472446303485,
                -0.18127278122315327,
                -3.1461760890882795
            ]
        }
    ]
}