{
    "goal": {
        "global_pose": {
            "orientation": {
                "w": 0.5084816217422485,
                "x": -0.49083608388900757,
                "y": 0.5182115435600281,
                "z": -0.4816462993621826
            },
            "position": {
                "x": 0.5540239810943604,
                "y": 0.030875300988554955,
                "z": 0.16403168439865112
            }
        },
        "name": "move_to_storage_A"
    },
    "id": "SBL_move_to_storage_A_86",
    "joint_names": [
        "shoulder_pan_joint",
        "shoulder_lift_joint",
        "elbow_joint",
        "wrist_1_joint",
        "wrist_2_joint",
        "wrist_3_joint"
    ],
    "metrics": {
        "cart_traj_len": 0.3527236231207327,
        "distance_elbow_joint": 0.45130602800827235,
        "distance_shoulder_lift_joint": 0.23235513110818573,
        "distance_shoulder_pan_joint": 0.4614206144136874,
        "distance_wrist_1_joint": 0.25476133787502553,
        "distance_wrist_2_joint": 1.0961550319988662,
        "distance_wrist_3_joint": 0.10033950691486737,
        "smoothness": 4.440892098500626e-16,
        "time": 0.23587236700000003,
        "traj_len": 1.61131550303437,
        "weighted_distance": 2.036647498715114
    },
    "planner": "SBL",
    "start": {
        "state": {
            "elbow_joint": 1.9715481507254546,
            "shoulder_lift_joint": -1.1394850672790213,
            "shoulder_pan_joint": 0.12281154597544902,
            "wrist_1_joint": -0.7804720171073349,
            "wrist_2_joint": 0.12958658322886563,
            "wrist_3_joint": -3.1924895760937617
        }
    },
    "waypoints": [
        {
            "positions": [
                0.12281154597544902,
                -1.1394850672790213,
                1.9715481507254546,
                -0.7804720171073349,
                0.12958658322886563,
                -3.1924895760937617
            ]
        },
        {
            "positions": [
                0.056894315344922244,
                -1.1726786574373336,
                2.036020440440922,
                -0.8168664939466243,
                0.28618015922870366,
                -3.178155360820209
            ]
        },
        {
            "positions": [
                -0.009022915285604532,
                -1.2058722475956458,
                2.1004927301563896,
                -0.8532609707859137,
                0.4427737352285417,
                -3.163821145546657
            ]
        },
        {
            "positions": [
                -0.0749401459161313,
                -1.239065837753958,
                2.164965019871857,
                -0.889655447625203,
                0.5993673112283797,
                -3.1494869302731043
            ]
        },
        {
            "positions": [
                -0.1408573765466581,
                -1.2722594279122703,
                2.2294373095873246,
                -0.9260499244644924,
                0.7559608872282177,
                -3.1351527149995517
            ]
        },
        {
            "positions": [
                -0.20677460717718488,
                -1.3054530180705826,
                2.293909599302792,
                -0.9624444013037817,
                0.9125544632280558,
                -3.120818499725999
            ]
        },
        {
            "positions": [
                -0.2726918378077116,
                -1.3386466082288948,
                2.3583818890182595,
                -0.998838878143071,
                1.0691480392278938,
                -3.106484284452447
            ]
        },
        {
            "positions": [
                -0.3386090684382384,
                -1.371840198387207,
                2.422854178733727,
                -1.0352333549823605,
                1.2257416152277318,
                -3.0921500691788943
            ]
        }
    ]
}