{
    "goal": {
        "global_pose": {
            "orientation": {
                "w": -0.00223480608172531,
                "x": 0.0024358444001904467,
                "y": 0.7094548369677653,
                "z": -0.704743149386269
            },
            "position": {
                "x": -0.37947507619857795,
                "y": -0.6371506643295288,
                "z": 0.19426114857196808
            }
        },
        "name": "move_to_magneteinheit_C"
    },
    "id": "SBL_move_to_magneteinheit_C_94",
    "joint_names": [
        "shoulder_pan_joint",
        "shoulder_lift_joint",
        "elbow_joint",
        "wrist_1_joint",
        "wrist_2_joint",
        "wrist_3_joint"
    ],
    "metrics": {
        "cart_traj_len": 2.23773295281388,
        "distance_elbow_joint": 1.7446284124531388,
        "distance_shoulder_lift_joint": 0.7665183886318523,
        "distance_shoulder_pan_joint": 2.0319447047323638,
        "distance_wrist_1_joint": 1.2572322087140186,
        "distance_wrist_2_joint": 0.8382954769820566,
        "distance_wrist_3_joint": 2.2719821459637237,
        "smoothness": 0.8383244062227111,
        "time": 0.825259107,
        "traj_len": 2.985063037437761,
        "weighted_distance": 3.943360662569514
    },
    "planner": "SBL",
    "start": {
        "state": {
            "elbow_joint": 1.9565354010623817,
            "shoulder_lift_joint": -1.4165861575791021,
            "shoulder_pan_joint": -1.6717766225146293,
            "wrist_1_joint": -0.5286633292919765,
            "wrist_2_joint": 1.472756589071564,
            "wrist_3_joint": -3.1238370188695823
        }
    },
    "waypoints": [
        {
            "positions": [
                -1.6717766225146293,
                -1.4165861575791021,
                1.9565354010623817,
                -0.5286633292919765,
                1.472756589071564,
                -3.1238370188695823
            ]
        },
        {
            "positions": [
                -1.5789087646414135,
                -1.429742422604154,
                1.9239356438203061,
                -0.5342762466449474,
                1.4466418021271497,
                -2.953284805176912
            ]
        },
        {
            "positions": [
                -1.4860409067681974,
                -1.4428986876292058,
                1.8913358865782304,
                -0.5398891639979183,
                1.4205270151827354,
                -2.782732591484241
            ]
        },
        {
            "positions": [
                -1.3931730488949816,
                -1.4560549526542577,
                1.8587361293361548,
                -0.5455020813508893,
                1.3944122282383211,
                -2.61218037779157
            ]
        },
        {
            "positions": [
                -1.3003051910217658,
                -1.4692112176793093,
                1.8261363720940793,
                -0.5511149987038603,
                1.368297441293907,
                -2.4416281640988995
            ]
        },
        {
            "positions": [
                -1.2074373331485497,
                -1.4823674827043611,
                1.7935366148520036,
                -0.5567279160568311,
                1.3421826543494928,
                -2.271075950406229
            ]
        },
        {
            "positions": [
                -1.114569475275334,
                -1.495523747729413,
                1.760936857609928,
                -0.5623408334098021,
                1.3160678674050785,
                -2.100523736713558
            ]
        },
        {
            "positions": [
                -1.1715591994232115,
                -1.5250589856933323,
                1.652430200274515,
                -0.4821347182197624,
                1.2157575537118617,
                -2.0838167098390574
            ]
        },
        {
            "positions": [
                -1.2285489235710891,
                -1.5545942236572514,
                1.543923542939102,
                -0.4019286030297226,
                1.1154472400186448,
                -2.0671096829645568
            ]
        },
        {
            "positions": [
                -1.2855386477189668,
                -1.5841294616211707,
                1.435416885603689,
                -0.3217224878396828,
                1.015136926325428,
                -2.050402656090056
            ]
        },
        {
            "positions": [
                -1.3425283718668444,
                -1.61366469958509,
                1.3269102282682763,
                -0.2415163726496431,
                0.9148266126322111,
                -2.0336956292155555
            ]
        },
        {
            "positions": [
                -1.399518096014722,
                -1.6431999375490092,
                1.2184035709328631,
                -0.1613102574596033,
                0.8145162989389942,
                -2.016988602341055
            ]
        },
        {
            "positions": [
                -1.4565078201625996,
                -1.6727351755129285,
                1.1098969135974504,
                -0.0811041422695636,
                0.7142059852457774,
                -2.000281575466554
            ]
        },
        {
            "positions": [
                -1.6138360464757868,
                -1.6661637943278085,
                1.224249109632882,
                -0.11005964947584285,
                0.7061818152966872,
                -2.0635009939759543
            ]
        },
        {
            "positions": [
                -1.7711642727889738,
                -1.6595924131426882,
                1.3386013056683137,
                -0.13901515668212208,
                0.698157645347597,
                -2.126720412485354
            ]
        },
        {
            "positions": [
                -1.9284924991021608,
                -1.6530210319575682,
                1.4529535017037452,
                -0.16797066388840132,
                0.6901334753985068,
                -2.1899398309947538
            ]
        },
        {
            "positions": [
                -2.0858207254153482,
                -1.6464496507724482,
                1.5673056977391768,
                -0.19692617109468058,
                0.6821093054494166,
                -2.253159249504154
            ]
        },
        {
            "positions": [
                -2.2431489517285352,
                -1.639878269587328,
                1.6816578937746085,
                -0.22588167830095984,
                0.6740851355003263,
                -2.316378668013554
            ]
        },
        {
            "positions": [
                -2.4004771780417222,
                -1.633306888402208,
                1.7960100898100402,
                -0.25483718550723905,
                0.6660609655512362,
                -2.379598086522954
            ]
        },
        {
            "positions": [
                -2.4866955747442017,
                -1.6131613700551852,
                1.8691927071046583,
                -0.28618142610761094,
                0.6561719700357076,
                -2.43946582458798
            ]
        },
        {
            "positions": [
                -2.5089875364703786,
                -1.5666857227568807,
                1.901760160137827,
                -0.3435699216911585,
                0.6550353802356526,
                -2.5202699761911025
            ]
        },
        {
            "positions": [
                -2.5312794981965556,
                -1.520210075458576,
                1.9343276131709954,
                -0.4009584172747061,
                0.6538987904355974,
                -2.601074127794225
            ]
        },
        {
            "positions": [
                -2.5167726145535942,
                -1.4307490077976577,
                1.952717419524661,
                -0.5065743518874092,
                0.6587582100221199,
                -2.7379826653524812
            ]
        },
        {
            "positions": [
                -2.5022657309106324,
                -1.3412879401367392,
                1.9711072258783267,
                -0.6121902865001123,
                0.6636176296086425,
                -2.8748912029107374
            ]
        },
        {
            "positions": [
                -2.4877588472676706,
                -1.2518268724758208,
                1.9894970322319923,
                -0.7178062211128154,
                0.668477049195165,
                -3.0117997404689936
            ]
        },
        {
            "positions": [
                -2.4732519636247092,
                -1.1623658048149026,
                2.007886838585658,
                -0.8234221557255186,
                0.6733364687816875,
                -3.1487082780272497
            ]
        }
    ]
}