{
    "goal": {
        "global_pose": {
            "orientation": {
                "w": 0.5084816262002911,
                "x": -0.4908360881923452,
                "y": 0.5182115481033761,
                "z": -0.48164630358495003
            },
            "position": {
                "x": 0.5540239810943604,
                "y": -0.46912469901144505,
                "z": 0.16403168439865112
            }
        },
        "name": "move_to_storage_B"
    },
    "id": "SBL_move_to_storage_B_23",
    "joint_names": [
        "shoulder_pan_joint",
        "shoulder_lift_joint",
        "elbow_joint",
        "wrist_1_joint",
        "wrist_2_joint",
        "wrist_3_joint"
    ],
    "metrics": {
        "cart_traj_len": 4.859674144057141,
        "distance_elbow_joint": 3.8833892823950276,
        "distance_shoulder_lift_joint": 1.3595722783025606,
        "distance_shoulder_pan_joint": 3.757132649685026,
        "distance_wrist_1_joint": 4.57778049668031,
        "distance_wrist_2_joint": 4.838116094496078,
        "distance_wrist_3_joint": 3.234023403522598,
        "smoothness": 0.25417825095009655,
        "time": 0.288620331,
        "traj_len": 4.65295757611023,
        "weighted_distance": 6.12649635626295
    },
    "planner": "SBL",
    "start": {
        "state": {
            "elbow_joint": -1.6666013991110213,
            "shoulder_lift_joint": -2.479295265494141,
            "shoulder_pan_joint": 2.6606783912885628,
            "wrist_1_joint": 0.9897123657714939,
            "wrist_2_joint": 0.474351758749468,
            "wrist_3_joint": 0.013243222496468381
        }
    },
    "waypoints": [
        {
            "positions": [
                2.6606783912885628,
                -2.479295265494141,
                -1.6666013991110213,
                0.9897123657714939,
                0.474351758749468,
                0.013243222496468381
            ]
        },
        {
            "positions": [
                2.6600171974099394,
                -2.4563957916915293,
                -1.675787939473256,
                0.8359804836503704,
                0.365319986511404,
                -0.07915243877337991
            ]
        },
        {
            "positions": [
                2.659356003531316,
                -2.4334963178889177,
                -1.6849744798354909,
                0.6822486015292468,
                0.25628821427334003,
                -0.17154810004322818
            ]
        },
        {
            "positions": [
                2.6586948096526926,
                -2.410596844086306,
                -1.6941610201977255,
                0.5285167194081233,
                0.14725644203527605,
                -0.26394376131307645
            ]
        },
        {
            "positions": [
                2.658033615774069,
                -2.3876973702836946,
                -1.7033475605599604,
                0.37478483728699963,
                0.03822466979721201,
                -0.3563394225829248
            ]
        },
        {
            "positions": [
                2.6573724218954458,
                -2.364797896481083,
                -1.712534100922195,
                0.22105295516587609,
                -0.07080710244085198,
                -0.448735083852773
            ]
        },
        {
            "positions": [
                2.656711228016823,
                -2.3418984226784714,
                -1.72172064128443,
                0.06732107304475266,
                -0.1798388746789159,
                -0.5411307451226213
            ]
        },
        {
            "positions": [
                2.6560500341381994,
                -2.3189989488758598,
                -1.7309071816466646,
                -0.08641080907637111,
                -0.28887064691697995,
                -0.6335264063924696
            ]
        },
        {
            "positions": [
                2.655388840259576,
                -2.296099475073248,
                -1.7400937220088994,
                -0.24014269119749465,
                -0.397902419155044,
                -0.7259220676623179
            ]
        },
        {
            "positions": [
                2.6547276463809526,
                -2.2732000012706366,
                -1.749280262371134,
                -0.3938745733186182,
                -0.506934191393108,
                -0.8183177289321661
            ]
        },
        {
            "positions": [
                2.654066452502329,
                -2.250300527468025,
                -1.758466802733369,
                -0.5476064554397417,
                -0.615965963631172,
                -0.9107133902020144
            ]
        },
        {
            "positions": [
                2.653405258623706,
                -2.2274010536654134,
                -1.7676533430956036,
                -0.7013383375608654,
                -0.7249977358692361,
                -1.0031090514718626
            ]
        },
        {
            "positions": [
                2.6416463313193694,
                -2.198952439852901,
                -1.7662293038389039,
                -0.8349461455120865,
                -0.8256765799561319,
                -1.072678980693883
            ]
        },
        {
            "positions": [
                2.629887404015033,
                -2.1705038260403886,
                -1.7648052645822039,
                -0.9685539534633074,
                -0.9263554240430275,
                -1.1422489099159032
            ]
        },
        {
            "positions": [
                2.618128476710697,
                -2.142055212227876,
                -1.7633812253255041,
                -1.1021617614145285,
                -1.0270342681299232,
                -1.2118188391379237
            ]
        },
        {
            "positions": [
                2.606369549406361,
                -2.1136065984153642,
                -1.7619571860688044,
                -1.2357695693657496,
                -1.127713112216819,
                -1.2813887683599439
            ]
        },
        {
            "positions": [
                2.5946106221020244,
                -2.085157984602852,
                -1.7605331468121044,
                -1.3693773773169706,
                -1.2283919563037147,
                -1.3509586975819645
            ]
        },
        {
            "positions": [
                2.582851694797688,
                -2.0567093707903394,
                -1.7591091075554046,
                -1.5029851852681917,
                -1.3290708003906104,
                -1.4205286268039847
            ]
        },
        {
            "positions": [
                2.5504297218800582,
                -2.0134149531989887,
                -1.7398928040761228,
                -1.630109832429318,
                -1.4361030818454577,
                -1.4663500839914934
            ]
        },
        {
            "positions": [
                2.518007748962428,
                -1.970120535607638,
                -1.7206765005968407,
                -1.757234479590444,
                -1.5431353633003047,
                -1.512171541179002
            ]
        },
        {
            "positions": [
                2.485585776044798,
                -1.9268261180162871,
                -1.7014601971175587,
                -1.88435912675157,
                -1.6501676447551517,
                -1.5579929983665104
            ]
        },
        {
            "positions": [
                2.4531638031271683,
                -1.8835317004249363,
                -1.6822438936382769,
                -2.0114837739126963,
                -1.7571999262099989,
                -1.603814455554019
            ]
        },
        {
            "positions": [
                2.4158139695558294,
                -1.8400301172093914,
                -1.657334175294251,
                -2.114179399485254,
                -1.8495702127730138,
                -1.6301247671930201
            ]
        },
        {
            "positions": [
                2.378464135984491,
                -1.7965285339938464,
                -1.632424456950225,
                -2.2168750250578118,
                -1.941940499336029,
                -1.6564350788320215
            ]
        },
        {
            "positions": [
                2.3438541423056054,
                -1.7726429582084149,
                -1.6021962747273257,
                -2.199283544617538,
                -1.9478228201080499,
                -1.6125830239811818
            ]
        },
        {
            "positions": [
                2.239602372587361,
                -1.752857504541238,
                -1.4925938423018055,
                -2.1582653135444856,
                -1.8746124711493055,
                -1.6586585708703718
            ]
        },
        {
            "positions": [
                2.1353506028691163,
                -1.7330720508740614,
                -1.3829914098762852,
                -2.1172470824714336,
                -1.8014021221905612,
                -1.7047341177595616
            ]
        },
        {
            "positions": [
                2.031098833150872,
                -1.7132865972068845,
                -1.273388977450765,
                -2.076228851398381,
                -1.7281917732318168,
                -1.7508096646487517
            ]
        },
        {
            "positions": [
                1.9268470634326273,
                -1.6935011435397076,
                -1.163786545025245,
                -2.0352106203253286,
                -1.6549814242730725,
                -1.7968852115379417
            ]
        },
        {
            "positions": [
                1.8225952937143828,
                -1.673715689872531,
                -1.0541841125997244,
                -1.9941923892522764,
                -1.581771075314328,
                -1.8429607584271315
            ]
        },
        {
            "positions": [
                1.7183435239961384,
                -1.653930236205354,
                -0.9445816801742044,
                -1.953174158179224,
                -1.5085607263555838,
                -1.8890363053163215
            ]
        },
        {
            "positions": [
                1.6140917542778939,
                -1.6341447825381772,
                -0.8349792477486842,
                -1.9121559271061717,
                -1.4353503773968392,
                -1.9351118522055115
            ]
        },
        {
            "positions": [
                1.5098399845596493,
                -1.6143593288710005,
                -0.7253768153231639,
                -1.8711376960331192,
                -1.362140028438095,
                -1.9811873990947015
            ]
        },
        {
            "positions": [
                1.405588214841405,
                -1.5945738752038237,
                -0.6157743828976437,
                -1.830119464960067,
                -1.2889296794793506,
                -2.0272629459838916
            ]
        },
        {
            "positions": [
                1.3013364451231604,
                -1.5747884215366468,
                -0.5061719504721234,
                -1.7891012338870147,
                -1.2157193305206062,
                -2.0733384928730816
            ]
        },
        {
            "positions": [
                1.1970846754049158,
                -1.5550029678694701,
                -0.39656951804660334,
                -1.7480830028139622,
                -1.1425089815618619,
                -2.119414039762271
            ]
        },
        {
            "positions": [
                1.0928329056866712,
                -1.5352175142022932,
                -0.2869670856210831,
                -1.7070647717409098,
                -1.0692986326031175,
                -2.165489586651461
            ]
        },
        {
            "positions": [
                0.9885811359684269,
                -1.5154320605351166,
                -0.17736465319556283,
                -1.6660465406678575,
                -0.9960882836443732,
                -2.211565133540651
            ]
        },
        {
            "positions": [
                0.8843293662501823,
                -1.4956466068679397,
                -0.06776222077004257,
                -1.6250283095948053,
                -0.9228779346856288,
                -2.2576406804298412
            ]
        },
        {
            "positions": [
                0.7800775965319378,
                -1.4758611532007628,
                0.041840211655477466,
                -1.5840100785217528,
                -0.8496675857268845,
                -2.3037162273190313
            ]
        },
        {
            "positions": [
                0.6758258268136932,
                -1.456075699533586,
                0.15144264408099795,
                -1.5429918474487003,
                -0.7764572367681399,
                -2.349791774208221
            ]
        },
        {
            "positions": [
                0.5715740570954488,
                -1.4362902458664093,
                0.261045076506518,
                -1.5019736163756483,
                -0.7032468878093958,
                -2.395867321097411
            ]
        },
        {
            "positions": [
                0.4673222873772045,
                -1.4165047921992324,
                0.37064750893203824,
                -1.4609553853025958,
                -0.6300365388506515,
                -2.441942867986601
            ]
        },
        {
            "positions": [
                0.3630705176589597,
                -1.3967193385320555,
                0.4802499413575585,
                -1.4199371542295434,
                -0.5568261898919069,
                -2.488018414875791
            ]
        },
        {
            "positions": [
                0.25881874794071535,
                -1.3769338848648789,
                0.589852373783079,
                -1.3789189231564911,
                -0.48361584093316257,
                -2.534093961764981
            ]
        },
        {
            "positions": [
                0.15456697822247056,
                -1.357148431197702,
                0.699454806208599,
                -1.3379006920834389,
                -0.4104054919744182,
                -2.580169508654171
            ]
        },
        {
            "positions": [
                0.050315208504226216,
                -1.3373629775305251,
                0.809057238634119,
                -1.2968824610103864,
                -0.3371951430156739,
                -2.626245055543361
            ]
        },
        {
            "positions": [
                -0.053936561214018575,
                -1.3175775238633483,
                0.9186596710596395,
                -1.255864229937334,
                -0.2639847940569293,
                -2.672320602432551
            ]
        },
        {
            "positions": [
                -0.15818833093226292,
                -1.2977920701961716,
                1.0282621034851596,
                -1.2148459988642817,
                -0.1907744450981852,
                -2.718396149321741
            ]
        },
        {
            "positions": [
                -0.26244010065050727,
                -1.2780066165289947,
                1.13786453591068,
                -1.1738277677912294,
                -0.11756409613944085,
                -2.7644716962109306
            ]
        },
        {
            "positions": [
                -0.3666918703687516,
                -1.258221162861818,
                1.2474669683362,
                -1.132809536718177,
                -0.04435374718069651,
                -2.8105472431001206
            ]
        },
        {
            "positions": [
                -0.4709436400869964,
                -1.2384357091946412,
                1.3570694007617206,
                -1.0917913056451245,
                0.028856601778048052,
                -2.8566227899893106
            ]
        },
        {
            "positions": [
                -0.5751954098052408,
                -1.2186502555274643,
                1.4666718331872406,
                -1.0507730745720723,
                0.10206695073679217,
                -2.9026983368785007
            ]
        },
        {
            "positions": [
                -0.6794471795234855,
                -1.1988648018602874,
                1.5762742656127606,
                -1.00975484349902,
                0.17527729969553674,
                -2.9487738837676902
            ]
        },
        {
            "positions": [
                -0.7836989492417299,
                -1.1790793481931108,
                1.6858766980382807,
                -0.9687366124259678,
                0.24848764865428086,
                -2.9948494306568803
            ]
        },
        {
            "positions": [
                -0.8879507189599747,
                -1.159293894525934,
                1.7954791304638016,
                -0.9277183813529153,
                0.3216979976130254,
                -3.0409249775460703
            ]
        },
        {
            "positions": [
                -0.992202488678219,
                -1.1395084408587572,
                1.9050815628893216,
                -0.8867001502798628,
                0.39490834657177,
                -3.0870005244352603
            ]
        },
        {
            "positions": [
                -1.0964542583964636,
                -1.1197229871915804,
                2.014683995314842,
                -0.8456819192068105,
                0.4681186955305141,
                -3.1330760713244503
            ]
        }
    ]
}