{
    "goal": {
        "global_pose": {
            "orientation": {
                "w": 0.005598929693374612,
                "x": 0.007748599140229565,
                "y": 0.7110244013736278,
                "z": -0.7031023480610252
            },
            "position": {
                "x": 0.1141497679147869,
                "y": -0.7141253447532654,
                "z": 0.3711530566215515
            }
        },
        "name": "move_to_auspresseinheit_B"
    },
    "id": "SBL_move_to_auspresseinheit_B_25",
    "joint_names": [
        "shoulder_pan_joint",
        "shoulder_lift_joint",
        "elbow_joint",
        "wrist_1_joint",
        "wrist_2_joint",
        "wrist_3_joint"
    ],
    "metrics": {
        "cart_traj_len": 0.5645502863677545,
        "distance_elbow_joint": 0.06505511126364505,
        "distance_shoulder_lift_joint": 0.29345774252186096,
        "distance_shoulder_pan_joint": 0.5784267950012225,
        "distance_wrist_1_joint": 0.33595421623161603,
        "distance_wrist_2_joint": 0.9851671700801101,
        "distance_wrist_3_joint": 0.004998890608686413,
        "smoothness": 5.075305295617109e-16,
        "time": 0.33122087100000003,
        "traj_len": 1.5043470097378269,
        "weighted_distance": 1.8958320319153383
    },
    "planner": "SBL",
    "start": {
        "state": {
            "elbow_joint": 2.0193083361928714,
            "shoulder_lift_joint": -1.1220246554650708,
            "shoulder_pan_joint": -1.0952077554168747,
            "wrist_1_joint": -0.8559753972642168,
            "wrist_2_joint": 0.4759566250798843,
            "wrist_3_joint": -3.1240929996934557
        }
    },
    "waypoints": [
        {
            "positions": [
                -1.0952077554168747,
                -1.1220246554650708,
                2.0193083361928714,
                -0.8559753972642168,
                0.4759566250798843,
                -3.1240929996934557
            ]
        },
        {
            "positions": [
                -1.1916122212504117,
                -1.1709342792187143,
                2.0084658176489305,
                -0.7999830278922808,
                0.6401511534265694,
                -3.1232598512586747
            ]
        },
        {
            "positions": [
                -1.288016687083949,
                -1.2198439029723578,
                1.9976232991049898,
                -0.7439906585203447,
                0.8043456817732544,
                -3.1224267028238937
            ]
        },
        {
            "positions": [
                -1.384421152917486,
                -1.2687535267260013,
                1.986780780561049,
                -0.6879982891484088,
                0.9685402101199394,
                -3.1215935543891122
            ]
        },
        {
            "positions": [
                -1.480825618751023,
                -1.3176631504796448,
                1.975938262017108,
                -0.6320059197764728,
                1.1327347384666244,
                -3.1207604059543312
            ]
        },
        {
            "positions": [
                -1.5772300845845602,
                -1.3665727742332883,
                1.9650957434731673,
                -0.5760135504045367,
                1.2969292668133094,
                -3.1199272575195502
            ]
        },
        {
            "positions": [
                -1.6736345504180972,
                -1.4154823979869318,
                1.9542532249292264,
                -0.5200211810326008,
                1.4611237951599945,
                -3.1190941090847693
            ]
        }
    ]
}