{
    "goal": {
        "global_pose": {
            "orientation": {
                "w": 0.005598929693374612,
                "x": 0.007748599140229565,
                "y": 0.7110244013736278,
                "z": -0.7031023480610252
            },
            "position": {
                "x": 0.1141497679147869,
                "y": -0.7141253447532654,
                "z": 0.3711530566215515
            }
        },
        "name": "move_to_auspresseinheit_B"
    },
    "id": "SBL_move_to_auspresseinheit_B_111",
    "joint_names": [
        "shoulder_pan_joint",
        "shoulder_lift_joint",
        "elbow_joint",
        "wrist_1_joint",
        "wrist_2_joint",
        "wrist_3_joint"
    ],
    "metrics": {
        "cart_traj_len": 0.5649762447900217,
        "distance_elbow_joint": 0.0679088689557843,
        "distance_shoulder_lift_joint": 0.2928196991743619,
        "distance_shoulder_pan_joint": 0.5762601585874243,
        "distance_wrist_1_joint": 0.34050172558550396,
        "distance_wrist_2_joint": 0.9950386782125362,
        "distance_wrist_3_joint": 0.00299143446068717,
        "smoothness": 2.5376526478085547e-16,
        "time": 0.21852149399999998,
        "traj_len": 1.5084828686386524,
        "weighted_distance": 1.9018527381728882
    },
    "planner": "SBL",
    "start": {
        "state": {
            "elbow_joint": 2.0193083361928714,
            "shoulder_lift_joint": -1.1220246554650708,
            "shoulder_pan_joint": -1.0952077554168747,
            "wrist_1_joint": -0.8559753972642168,
            "wrist_2_joint": 0.4759566250798843,
            "wrist_3_joint": -3.1240929996934557
        }
    },
    "waypoints": [
        {
            "positions": [
                -1.0952077554168747,
                -1.1220246554650708,
                2.0193083361928714,
                -0.8559753972642168,
                0.4759566250798843,
                -3.1240929996934557
            ]
        },
        {
            "positions": [
                -1.1912511151814453,
                -1.1708279386607978,
                2.0079901913669076,
                -0.7992251096666327,
                0.6417964047819736,
                -3.123594427283341
            ]
        },
        {
            "positions": [
                -1.287294474946016,
                -1.2196312218565248,
                1.9966720465409433,
                -0.7424748220690488,
                0.8076361844840629,
                -3.1230958548732266
            ]
        },
        {
            "positions": [
                -1.383337834710587,
                -1.2684345050522516,
                1.9853539017149793,
                -0.6857245344714649,
                0.9734759641861523,
                -3.1225972824631123
            ]
        },
        {
            "positions": [
                -1.4793811944751574,
                -1.3172377882479787,
                1.9740357568890152,
                -0.6289742468738808,
                1.1393157438882417,
                -3.1220987100529975
            ]
        },
        {
            "positions": [
                -1.5754245542397283,
                -1.3660410714437057,
                1.9627176120630512,
                -0.5722239592762968,
                1.3051555235903312,
                -3.121600137642883
            ]
        },
        {
            "positions": [
                -1.671467914004299,
                -1.4148443546394327,
                1.9513994672370871,
                -0.5154736716787128,
                1.4709953032924206,
                -3.1211015652327685
            ]
        }
    ]
}