{
    "goal": {
        "global_pose": {
            "orientation": {
                "w": -0.4816463035849501,
                "x": 0.5182115481033762,
                "y": 0.4908360881923453,
                "z": -0.5084816262002911
            },
            "position": {
                "x": -0.8240239810943604,
                "y": 0.19912469901144506,
                "z": 0.16403168439865112
            }
        },
        "name": "move_to_storage_D"
    },
    "id": "SBL_move_to_storage_D_105",
    "joint_names": [
        "shoulder_pan_joint",
        "shoulder_lift_joint",
        "elbow_joint",
        "wrist_1_joint",
        "wrist_2_joint",
        "wrist_3_joint"
    ],
    "metrics": {
        "cart_traj_len": 4.079883236145716,
        "distance_elbow_joint": 4.2138681784232785,
        "distance_shoulder_lift_joint": 1.2651928539133686,
        "distance_shoulder_pan_joint": 2.8153881547520627,
        "distance_wrist_1_joint": 3.1912763939209885,
        "distance_wrist_2_joint": 1.115935891253986,
        "distance_wrist_3_joint": 3.1262363015655517,
        "smoothness": 0.22643599690170899,
        "time": 0.295251343,
        "traj_len": 3.965841370230185,
        "weighted_distance": 5.12714176341315
    },
    "planner": "SBL",
    "start": {
        "state": {
            "elbow_joint": -2.384821988534728,
            "shoulder_lift_joint": -2.2788054721415256,
            "shoulder_pan_joint": -0.1854694642142757,
            "wrist_1_joint": 1.4845938289331202,
            "wrist_2_joint": 0.17898776772866878,
            "wrist_3_joint": 0.037105688729662994
        }
    },
    "waypoints": [
        {
            "positions": [
                -0.1854694642142757,
                -2.2788054721415256,
                -2.384821988534728,
                1.4845938289331202,
                0.17898776772866878,
                0.037105688729662994
            ]
        },
        {
            "positions": [
                -0.15852938456376553,
                -2.2735916035074113,
                -2.3834855010587477,
                1.4693355537975719,
                0.1750873848813003,
                0.011482832554565312
            ]
        },
        {
            "positions": [
                -0.0861050468563855,
                -2.2415584993307407,
                -2.2784545076981404,
                1.3915046591909204,
                0.20368437336709203,
                -0.06274378843168338
            ]
        },
        {
            "positions": [
                -0.01368070914900546,
                -2.2095253951540696,
                -2.1734235143375336,
                1.3136737645842689,
                0.23228136185288376,
                -0.13697040941793207
            ]
        },
        {
            "positions": [
                0.05874362855837459,
                -2.177492290977399,
                -2.0683925209769263,
                1.2358428699776174,
                0.26087835033867546,
                -0.21119703040418075
            ]
        },
        {
            "positions": [
                0.1311679662657546,
                -2.1454591868007284,
                -1.963361527616319,
                1.158011975370966,
                0.2894753388244672,
                -0.2854236513904294
            ]
        },
        {
            "positions": [
                0.20359230397313466,
                -2.113426082624058,
                -1.858330534255712,
                1.0801810807643144,
                0.3180723273102589,
                -0.35965027237667807
            ]
        },
        {
            "positions": [
                0.2760166416805147,
                -2.081392978447387,
                -1.7532995408951049,
                1.002350186157663,
                0.34666931579605065,
                -0.4338768933629268
            ]
        },
        {
            "positions": [
                0.34844097938789476,
                -2.049359874270716,
                -1.6482685475344976,
                0.9245192915510114,
                0.3752663042818424,
                -0.5081035143491756
            ]
        },
        {
            "positions": [
                0.42086531709527475,
                -2.0173267700940456,
                -1.5432375541738903,
                0.8466883969443599,
                0.4038632927676341,
                -0.5823301353354242
            ]
        },
        {
            "positions": [
                0.49328965480265474,
                -1.9852936659173748,
                -1.4382065608132835,
                0.7688575023377086,
                0.43246028125342584,
                -0.6565567563216729
            ]
        },
        {
            "positions": [
                0.5657139925100348,
                -1.953260561740704,
                -1.3331755674526762,
                0.691026607731057,
                0.46105726973921757,
                -0.7307833773079215
            ]
        },
        {
            "positions": [
                0.638138330217415,
                -1.9212274575640333,
                -1.228144574092069,
                0.6131957131244055,
                0.4896542582250093,
                -0.8050099982941703
            ]
        },
        {
            "positions": [
                0.7105626679247949,
                -1.8891943533873625,
                -1.1231135807314618,
                0.535364818517754,
                0.518251246710801,
                -0.879236619280419
            ]
        },
        {
            "positions": [
                0.782987005632175,
                -1.8571612492106917,
                -1.0180825873708546,
                0.4575339239111025,
                0.5468482351965928,
                -0.9534632402666677
            ]
        },
        {
            "positions": [
                0.855411343339555,
                -1.825128145034021,
                -0.9130515940102475,
                0.379703029304451,
                0.5754452236823845,
                -1.0276898612529164
            ]
        },
        {
            "positions": [
                0.9278356810469349,
                -1.7930950408573505,
                -0.8080206006496404,
                0.3018721346977995,
                0.6040422121681762,
                -1.101916482239165
            ]
        },
        {
            "positions": [
                1.000260018754315,
                -1.7610619366806797,
                -0.7029896072890331,
                0.224041240091148,
                0.632639200653968,
                -1.1761431032254137
            ]
        },
        {
            "positions": [
                1.072684356461695,
                -1.7290288325040089,
                -0.5979586139284261,
                0.14621034548449652,
                0.6612361891397597,
                -1.2503697242116625
            ]
        },
        {
            "positions": [
                1.1451086941690751,
                -1.6969957283273382,
                -0.492927620567819,
                0.06837945087784525,
                0.6898331776255514,
                -1.324596345197911
            ]
        },
        {
            "positions": [
                1.2175330318764552,
                -1.6649626241506676,
                -0.38789662720721196,
                -0.009451443728806241,
                0.7184301661113431,
                -1.3988229661841596
            ]
        },
        {
            "positions": [
                1.2899573695838353,
                -1.6329295199739966,
                -0.2828656338466047,
                -0.08728233833545795,
                0.7470271545971349,
                -1.4730495871704083
            ]
        },
        {
            "positions": [
                1.3623817072912154,
                -1.600896415797326,
                -0.1778346404859974,
                -0.16511323294210944,
                0.7756241430829266,
                -1.5472762081566571
            ]
        },
        {
            "positions": [
                1.4348060449985955,
                -1.5688633116206554,
                -0.07280364712539011,
                -0.24294412754876094,
                0.8042211315687183,
                -1.6215028291429059
            ]
        },
        {
            "positions": [
                1.5072303827059752,
                -1.5368302074439846,
                0.032227346235216725,
                -0.3207750221554124,
                0.8328181200545101,
                -1.6957294501291544
            ]
        },
        {
            "positions": [
                1.5796547204133553,
                -1.5047971032673138,
                0.137258339595824,
                -0.3986059167620639,
                0.8614151085403018,
                -1.7699560711154032
            ]
        },
        {
            "positions": [
                1.6520790581207354,
                -1.4727639990906431,
                0.2422893329564313,
                -0.4764368113687154,
                0.8900120970260935,
                -1.844182692101652
            ]
        },
        {
            "positions": [
                1.7245033958281155,
                -1.4407308949139723,
                0.3473203263170386,
                -0.5542677059753669,
                0.9186090855118852,
                -1.9184093130879007
            ]
        },
        {
            "positions": [
                1.7969277335354956,
                -1.4086977907373015,
                0.45235131967764586,
                -0.6320986005820184,
                0.947206073997677,
                -1.9926359340741495
            ]
        },
        {
            "positions": [
                1.8693520712428757,
                -1.376664686560631,
                0.5573823130382527,
                -0.7099294951886699,
                0.9758030624834687,
                -2.066862555060398
            ]
        },
        {
            "positions": [
                1.9417764089502558,
                -1.34463158238396,
                0.66241330639886,
                -0.7877603897953214,
                1.0044000509692605,
                -2.1410891760466466
            ]
        },
        {
            "positions": [
                2.0142007466576355,
                -1.3125984782072895,
                0.7674442997594668,
                -0.8655912844019729,
                1.0329970394550523,
                -2.215315797032895
            ]
        },
        {
            "positions": [
                2.0866250843650156,
                -1.2805653740306187,
                0.8724752931200741,
                -0.9434221790086244,
                1.061594027940844,
                -2.289542418019144
            ]
        },
        {
            "positions": [
                2.1590494220723957,
                -1.248532269853948,
                0.9775062864806814,
                -1.0212530736152758,
                1.0901910164266357,
                -2.3637690390053927
            ]
        },
        {
            "positions": [
                2.231473759779776,
                -1.2164991656772772,
                1.0825372798412882,
                -1.0990839682219273,
                1.1187880049124275,
                -2.4379956599916413
            ]
        },
        {
            "positions": [
                2.303898097487156,
                -1.1844660615006066,
                1.1875682732018955,
                -1.1769148628285788,
                1.1473849933982192,
                -2.5122222809778902
            ]
        },
        {
            "positions": [
                2.376322435194536,
                -1.1524329573239358,
                1.2925992665625026,
                -1.2547457574352305,
                1.175981981884011,
                -2.586448901964139
            ]
        },
        {
            "positions": [
                2.4185884777517446,
                -1.129296234141306,
                1.3820070871168437,
                -1.1794229561764575,
                1.1574584966500265,
                -2.6702291871094306
            ]
        },
        {
            "positions": [
                2.460854520308953,
                -1.1061595109586762,
                1.471414907671185,
                -1.1041001549176848,
                1.138935011416042,
                -2.754009472254722
            ]
        },
        {
            "positions": [
                2.5031205628661617,
                -1.0830227877760463,
                1.5608227282255263,
                -1.0287773536589118,
                1.1204115261820575,
                -2.8377897574000137
            ]
        },
        {
            "positions": [
                2.54538660542337,
                -1.0598860645934167,
                1.6502305487798674,
                -0.953454552400139,
                1.1018880409480731,
                -2.9215700425453055
            ]
        },
        {
            "positions": [
                2.5876526479805784,
                -1.036749341410787,
                1.7396383693342088,
                -0.878131751141366,
                1.0833645557140885,
                -3.005350327690597
            ]
        },
        {
            "positions": [
                2.629918690537787,
                -1.013612618228157,
                1.82904618988855,
                -0.8028089498825931,
                1.0648410704801041,
                -3.0891306128358886
            ]
        }
    ]
}