{
    "goal": {
        "global_pose": {
            "orientation": {
                "w": -0.4816463035849501,
                "x": 0.5182115481033762,
                "y": 0.4908360881923453,
                "z": -0.5084816262002911
            },
            "position": {
                "x": -0.8240239810943604,
                "y": -0.300875300988555,
                "z": 0.16403168439865112
            }
        },
        "name": "move_to_storage_C"
    },
    "id": "SBL_move_to_storage_C_93",
    "joint_names": [
        "shoulder_pan_joint",
        "shoulder_lift_joint",
        "elbow_joint",
        "wrist_1_joint",
        "wrist_2_joint",
        "wrist_3_joint"
    ],
    "metrics": {
        "cart_traj_len": 0.5769511757224574,
        "distance_elbow_joint": 0.2570653640387881,
        "distance_shoulder_lift_joint": 0.18810941208793797,
        "distance_shoulder_pan_joint": 0.4959960095835467,
        "distance_wrist_1_joint": 0.0784005995698751,
        "distance_wrist_2_joint": 1.0641311254632835,
        "distance_wrist_3_joint": 0.06867373799244536,
        "smoothness": 0.0,
        "time": 0.367942516,
        "traj_len": 1.4670979001879447,
        "weighted_distance": 1.8526347318761804
    },
    "planner": "SBL",
    "start": {
        "state": {
            "elbow_joint": 2.010868314990456,
            "shoulder_lift_joint": -1.1634956873337592,
            "shoulder_pan_joint": -2.4736205022346125,
            "wrist_1_joint": -0.8367026794202681,
            "wrist_2_joint": 0.6746043897044499,
            "wrist_3_joint": -3.1496632123970403
        }
    },
    "waypoints": [
        {
            "positions": [
                -2.4736205022346125,
                -1.1634956873337592,
                2.010868314990456,
                -0.8367026794202681,
                0.6746043897044499,
                -3.1496632123970403
            ]
        },
        {
            "positions": [
                -2.5562865038318705,
                -1.1321441186524361,
                1.9680240876506578,
                -0.8236359128252889,
                0.8519595772816638,
                -3.1382175893982995
            ]
        },
        {
            "positions": [
                -2.638952505429128,
                -1.1007925499711133,
                1.9251798603108599,
                -0.8105691462303097,
                1.0293147648588779,
                -3.1267719663995583
            ]
        },
        {
            "positions": [
                -2.7216185070263856,
                -1.0694409812897903,
                1.8823356329710617,
                -0.7975023796353305,
                1.2066699524360915,
                -3.1153263434008176
            ]
        },
        {
            "positions": [
                -2.8042845086236436,
                -1.0380894126084672,
                1.8394914056312637,
                -0.7844356130403514,
                1.3840251400133057,
                -3.103880720402077
            ]
        },
        {
            "positions": [
                -2.8869505102209017,
                -1.0067378439271442,
                1.7966471782914657,
                -0.7713688464453722,
                1.5613803275905194,
                -3.0924350974033357
            ]
        },
        {
            "positions": [
                -2.969616511818159,
                -0.9753862752458212,
                1.7538029509516677,
                -0.758302079850393,
                1.7387355151677335,
                -3.080989474404595
            ]
        }
    ]
}