{
    "goal": {
        "global_pose": {
            "orientation": {
                "w": -0.4816463035849501,
                "x": 0.5182115481033762,
                "y": 0.4908360881923453,
                "z": -0.5084816262002911
            },
            "position": {
                "x": -0.8240239810943604,
                "y": 0.19912469901144506,
                "z": 0.16403168439865112
            }
        },
        "name": "move_to_storage_D"
    },
    "id": "SBL_move_to_storage_D_127",
    "joint_names": [
        "shoulder_pan_joint",
        "shoulder_lift_joint",
        "elbow_joint",
        "wrist_1_joint",
        "wrist_2_joint",
        "wrist_3_joint"
    ],
    "metrics": {
        "cart_traj_len": 2.8404702570449474,
        "distance_elbow_joint": 2.4707613403473854,
        "distance_shoulder_lift_joint": 2.534103751350792,
        "distance_shoulder_pan_joint": 1.84587437743854,
        "distance_wrist_1_joint": 5.032797987243487,
        "distance_wrist_2_joint": 1.7812436036180948,
        "distance_wrist_3_joint": 4.902993703116934,
        "smoothness": 0.6811459898983966,
        "time": 0.199458052,
        "traj_len": 4.309034087021733,
        "weighted_distance": 5.931930862730169
    },
    "planner": "SBL",
    "start": {
        "state": {
            "elbow_joint": -2.384821988534728,
            "shoulder_lift_joint": -2.2788054721415256,
            "shoulder_pan_joint": -0.1854694642142757,
            "wrist_1_joint": 1.4845938289331202,
            "wrist_2_joint": 0.17898776772866878,
            "wrist_3_joint": 0.037105688729662994
        }
    },
    "waypoints": [
        {
            "positions": [
                -0.1854694642142757,
                -2.2788054721415256,
                -2.384821988534728,
                1.4845938289331202,
                0.17898776772866878,
                0.037105688729662994
            ]
        },
        {
            "positions": [
                -0.2477332713840789,
                -2.2425163348163406,
                -2.4357386568413264,
                1.472046268781826,
                0.051723553561775965,
                -0.009575720997085146
            ]
        },
        {
            "positions": [
                -0.30999707855388214,
                -2.2062271974911556,
                -2.486655325147925,
                1.459498708630532,
                -0.07554066060511685,
                -0.05625713072383329
            ]
        },
        {
            "positions": [
                -0.3722608857236853,
                -2.16993806016597,
                -2.5375719934545238,
                1.4469511484792381,
                -0.20280487477200967,
                -0.10293854045058143
            ]
        },
        {
            "positions": [
                -0.4345246928934885,
                -2.133648922840785,
                -2.5884886617611222,
                1.434403588327944,
                -0.3300690889389025,
                -0.14961995017732957
            ]
        },
        {
            "positions": [
                -0.49678850006329167,
                -2.0973597855156,
                -2.6394053300677207,
                1.42185602817665,
                -0.45733330310579534,
                -0.1963013599040777
            ]
        },
        {
            "positions": [
                -0.42545865996092,
                -2.014345638014019,
                -2.531355315367776,
                1.4650314819633754,
                -0.4701633742675386,
                -0.13261383087726258
            ]
        },
        {
            "positions": [
                -0.3541288198585484,
                -1.9313314905124375,
                -2.423305300667831,
                1.508206935750101,
                -0.48299344542928185,
                -0.06892630185044749
            ]
        },
        {
            "positions": [
                -0.28279897975617674,
                -1.8483173430108562,
                -2.315255285967886,
                1.5513823895368264,
                -0.49582351659102514,
                -0.005238772823632359
            ]
        },
        {
            "positions": [
                -0.21146913965380504,
                -1.7653031955092748,
                -2.207205271267941,
                1.5945578433235519,
                -0.5086535877527684,
                0.05844875620318274
            ]
        },
        {
            "positions": [
                -0.14013929955143334,
                -1.6822890480076935,
                -2.0991552565679963,
                1.6377332971102774,
                -0.5214836589145116,
                0.12213628522999787
            ]
        },
        {
            "positions": [
                -0.06880945944906175,
                -1.5992749005061122,
                -1.9911052418680515,
                1.6809087508970029,
                -0.5343137300762549,
                0.185823814256813
            ]
        },
        {
            "positions": [
                0.0025203806533099504,
                -1.516260753004531,
                -1.8830552271681065,
                1.7240842046837284,
                -0.5471438012379982,
                0.24951134328362812
            ]
        },
        {
            "positions": [
                0.0738502207556816,
                -1.4332466055029496,
                -1.7750052124681617,
                1.7672596584704539,
                -0.5599738723997415,
                0.3131988723104432
            ]
        },
        {
            "positions": [
                0.14518006085805335,
                -1.3502324580013683,
                -1.6669551977682167,
                1.8104351122571793,
                -0.5728039435614848,
                0.37688640133725837
            ]
        },
        {
            "positions": [
                0.216509900960425,
                -1.267218310499787,
                -1.5589051830682719,
                1.8536105660439048,
                -0.585634014723228,
                0.44057393036407344
            ]
        },
        {
            "positions": [
                0.28783974106279653,
                -1.1842041629982056,
                -1.4508551683683268,
                1.8967860198306303,
                -0.5984640858849712,
                0.5042614593908886
            ]
        },
        {
            "positions": [
                0.3591695811651682,
                -1.1011900154966243,
                -1.342805153668382,
                1.9399614736173558,
                -0.6112941570467145,
                0.5679489884177037
            ]
        },
        {
            "positions": [
                0.43049942126753993,
                -1.018175867995043,
                -1.234755138968437,
                1.9831369274040813,
                -0.6241242282084578,
                0.6316365174445189
            ]
        },
        {
            "positions": [
                0.5018292613699116,
                -0.9351617204934617,
                -1.1267051242684922,
                2.026312381190807,
                -0.6369542993702011,
                0.695324046471334
            ]
        },
        {
            "positions": [
                0.48396467536470084,
                -0.9748437204835526,
                -1.1501543840356643,
                1.880792253408378,
                -0.6691310172541752,
                0.5693920048677412
            ]
        },
        {
            "positions": [
                0.4661000893594901,
                -1.0145257204736435,
                -1.1736036438028365,
                1.7352721256259493,
                -0.7013077351381494,
                0.44345996326414855
            ]
        },
        {
            "positions": [
                0.4482355033542794,
                -1.0542077204637343,
                -1.1970529035700086,
                1.5897519978435208,
                -0.7334844530221236,
                0.3175279216605558
            ]
        },
        {
            "positions": [
                0.4303709173490687,
                -1.0938897204538254,
                -1.2205021633371806,
                1.444231870061092,
                -0.7656611709060978,
                0.19159588005696315
            ]
        },
        {
            "positions": [
                0.41250633134385795,
                -1.1335717204439162,
                -1.243951423104353,
                1.2987117422786634,
                -0.7978378887900719,
                0.06566383845337054
            ]
        },
        {
            "positions": [
                0.3946417453386472,
                -1.1732537204340072,
                -1.267400682871525,
                1.1531916144962346,
                -0.830014606674046,
                -0.0602682031502223
            ]
        },
        {
            "positions": [
                0.3767771593334365,
                -1.212935720424098,
                -1.290849942638697,
                1.007671486713806,
                -0.8621913245580202,
                -0.18620024475381491
            ]
        },
        {
            "positions": [
                0.3589125733282258,
                -1.252617720414189,
                -1.3142992024058693,
                0.8621513589313774,
                -0.8943680424419944,
                -0.31213228635740764
            ]
        },
        {
            "positions": [
                0.34104798732301506,
                -1.2922997204042799,
                -1.3377484621730413,
                0.7166312311489487,
                -0.9265447603259684,
                -0.43806432796100037
            ]
        },
        {
            "positions": [
                0.3231834013178043,
                -1.3319817203943707,
                -1.3611977219402134,
                0.5711111033665199,
                -0.9587214782099427,
                -0.5639963695645929
            ]
        },
        {
            "positions": [
                0.30531881531259364,
                -1.3716637203844617,
                -1.3846469817073856,
                0.4255909755840914,
                -0.9908981960939168,
                -0.6899284111681856
            ]
        },
        {
            "positions": [
                0.28745422930738285,
                -1.4113457203745527,
                -1.4080962414745577,
                0.28007084780166247,
                -1.023074913977891,
                -0.8158604527717785
            ]
        },
        {
            "positions": [
                0.26958964330217217,
                -1.4510277203646436,
                -1.4315455012417297,
                0.13455072001923374,
                -1.0552516318618652,
                -0.9417924943753713
            ]
        },
        {
            "positions": [
                0.25172505729696143,
                -1.4907097203547344,
                -1.454994761008902,
                -0.010969407763194994,
                -1.0874283497458395,
                -1.0677245359789638
            ]
        },
        {
            "positions": [
                0.2338604712917507,
                -1.5303917203448254,
                -1.478444020776074,
                -0.1564895355456235,
                -1.1196050676298135,
                -1.1936565775825565
            ]
        },
        {
            "positions": [
                0.21599588528653996,
                -1.5700737203349164,
                -1.5018932805432461,
                -0.302009663328052,
                -1.1517817855137875,
                -1.3195886191861492
            ]
        },
        {
            "positions": [
                0.19813129928132928,
                -1.6097557203250072,
                -1.5253425403104184,
                -0.44752979111048097,
                -1.1839585033977618,
                -1.445520660789742
            ]
        },
        {
            "positions": [
                0.18026671327611854,
                -1.649437720315098,
                -1.5487918000775904,
                -0.5930499188929095,
                -1.216135221281736,
                -1.5714527023933347
            ]
        },
        {
            "positions": [
                0.1624021272709078,
                -1.689119720305189,
                -1.5722410598447625,
                -0.738570046675338,
                -1.2483119391657103,
                -1.697384743996927
            ]
        },
        {
            "positions": [
                0.14453754126569707,
                -1.72880172029528,
                -1.5956903196119345,
                -0.8840901744577669,
                -1.2804886570496843,
                -1.8233167856005197
            ]
        },
        {
            "positions": [
                0.1266729552604864,
                -1.7684837202853707,
                -1.6191395793791068,
                -1.0296103022401955,
                -1.3126653749336583,
                -1.9492488272041124
            ]
        },
        {
            "positions": [
                0.10880836925527565,
                -1.8081657202754617,
                -1.6425888391462788,
                -1.175130430022624,
                -1.3448420928176326,
                -2.0751808688077054
            ]
        },
        {
            "positions": [
                0.09094378325006486,
                -1.8478477202655528,
                -1.6660380989134511,
                -1.3206505578050534,
                -1.3770188107016068,
                -2.2011129104112985
            ]
        },
        {
            "positions": [
                0.07307919724485412,
                -1.8875297202556438,
                -1.6894873586806232,
                -1.4661706855874819,
                -1.409195528585581,
                -2.327044952014891
            ]
        },
        {
            "positions": [
                0.05521461123964344,
                -1.9272117202457346,
                -1.7129366184477952,
                -1.6116908133699104,
                -1.441372246469555,
                -2.452976993618484
            ]
        },
        {
            "positions": [
                0.037350025234432704,
                -1.9668937202358254,
                -1.7363858782149675,
                -1.7572109411523393,
                -1.4735489643535291,
                -2.5789090352220763
            ]
        },
        {
            "positions": [
                0.019485439229221968,
                -2.0065757202259165,
                -1.7598351379821395,
                -1.9027310689347678,
                -1.5057256822375034,
                -2.7048410768256685
            ]
        },
        {
            "positions": [
                0.0016208532240112872,
                -2.0462577202160075,
                -1.7832843977493118,
                -2.048251196717197,
                -1.5379024001214776,
                -2.8307731184292617
            ]
        },
        {
            "positions": [
                -0.016243732781199505,
                -2.085939720206098,
                -1.8067336575164838,
                -2.1937713244996253,
                -1.5700791180054519,
                -2.956705160032854
            ]
        },
        {
            "positions": [
                -0.03410831878641022,
                -2.125621720196189,
                -1.830182917283656,
                -2.339291452282054,
                -1.6022558358894259,
                -3.0826372016364467
            ]
        }
    ]
}