{
    "goal": {
        "global_pose": {
            "orientation": {
                "w": -0.4816463035849501,
                "x": 0.5182115481033762,
                "y": 0.4908360881923453,
                "z": -0.5084816262002911
            },
            "position": {
                "x": -0.8240239810943604,
                "y": 0.19912469901144506,
                "z": 0.16403168439865112
            }
        },
        "name": "move_to_storage_D"
    },
    "id": "SBL_move_to_storage_D_70",
    "joint_names": [
        "shoulder_pan_joint",
        "shoulder_lift_joint",
        "elbow_joint",
        "wrist_1_joint",
        "wrist_2_joint",
        "wrist_3_joint"
    ],
    "metrics": {
        "cart_traj_len": 3.9021375425278744,
        "distance_elbow_joint": 4.208562303879442,
        "distance_shoulder_lift_joint": 1.2634242416700303,
        "distance_shoulder_pan_joint": 2.8126437589478757,
        "distance_wrist_1_joint": 2.2603929233875006,
        "distance_wrist_2_joint": 1.4158097673498005,
        "distance_wrist_3_joint": 3.517038821881241,
        "smoothness": 0.06777655062776392,
        "time": 0.262735739,
        "traj_len": 3.9341926512457275,
        "weighted_distance": 5.117436091600527
    },
    "planner": "SBL",
    "start": {
        "state": {
            "elbow_joint": -2.384821988534728,
            "shoulder_lift_joint": -2.2788054721415256,
            "shoulder_pan_joint": -0.1854694642142757,
            "wrist_1_joint": 1.4845938289331202,
            "wrist_2_joint": 0.17898776772866878,
            "wrist_3_joint": 0.037105688729662994
        }
    },
    "waypoints": [
        {
            "positions": [
                -0.1854694642142757,
                -2.2788054721415256,
                -2.384821988534728,
                1.4845938289331202,
                0.17898776772866878,
                0.037105688729662994
            ]
        },
        {
            "positions": [
                -0.08941087499260124,
                -2.2745191001377645,
                -2.2114385959579805,
                1.4028077583389078,
                0.159490733111213,
                0.023450722643610637
            ]
        },
        {
            "positions": [
                0.006647714229073232,
                -2.270232728134003,
                -2.0380552033812327,
                1.3210216877446956,
                0.1399936984937572,
                0.009795756557558283
            ]
        },
        {
            "positions": [
                0.10270630345074769,
                -2.2659463561302413,
                -1.8646718108044853,
                1.2392356171504832,
                0.12049666387630142,
                -0.0038592095284940703
            ]
        },
        {
            "positions": [
                0.19876489267242217,
                -2.26165998412648,
                -1.6912884182277375,
                1.157449546556271,
                0.10099962925884565,
                -0.017514175614546428
            ]
        },
        {
            "positions": [
                0.2948234818940967,
                -2.257373612122719,
                -1.51790502565099,
                1.0756634759620587,
                0.08150259464138986,
                -0.031169141700598785
            ]
        },
        {
            "positions": [
                0.3908820711157711,
                -2.2530872401189574,
                -1.3445216330742424,
                0.9938774053678465,
                0.06200556002393408,
                -0.044824107786651135
            ]
        },
        {
            "positions": [
                0.48694066033744565,
                -2.248800868115196,
                -1.1711382404974948,
                0.9120913347736341,
                0.04250852540647829,
                -0.0584790738727035
            ]
        },
        {
            "positions": [
                0.5829992495591201,
                -2.2445144961114347,
                -0.9977548479207472,
                0.8303052641794219,
                0.02301149078902251,
                -0.07213403995875585
            ]
        },
        {
            "positions": [
                0.6790578387807946,
                -2.2402281241076736,
                -0.8243714553439996,
                0.7485191935852095,
                0.0035144561715667044,
                -0.08578900604480823
            ]
        },
        {
            "positions": [
                0.775116428002469,
                -2.235941752103912,
                -0.650988062767252,
                0.6667331229909972,
                -0.015982578445889073,
                -0.09944397213086056
            ]
        },
        {
            "positions": [
                0.8711750172241436,
                -2.2316553801001504,
                -0.47760467019050457,
                0.584947052396785,
                -0.03547961306334485,
                -0.11309893821691291
            ]
        },
        {
            "positions": [
                0.9672336064458179,
                -2.2273690080963893,
                -0.30422127761375695,
                0.5031609818025727,
                -0.05497664768080063,
                -0.12675390430296526
            ]
        },
        {
            "positions": [
                1.0632921956674923,
                -2.223082636092628,
                -0.1308378850370091,
                0.42137491120836024,
                -0.07447368229825643,
                -0.14040887038901764
            ]
        },
        {
            "positions": [
                1.1593507848891669,
                -2.2187962640888665,
                0.042545507539738125,
                0.33958884061414807,
                -0.09397071691571222,
                -0.15406383647507
            ]
        },
        {
            "positions": [
                1.215805535267799,
                -2.1725110704881985,
                0.11105300014762179,
                0.29668930464997395,
                -0.05001489835011917,
                -0.026145786602896598
            ]
        },
        {
            "positions": [
                1.272260285646431,
                -2.1262258768875304,
                0.17956049275550545,
                0.25378976868579983,
                -0.00605907978452612,
                0.1017722632692768
            ]
        },
        {
            "positions": [
                1.328715036025063,
                -2.0799406832868623,
                0.24806798536338914,
                0.21089023272162566,
                0.03789673878106693,
                0.22969031314145022
            ]
        },
        {
            "positions": [
                1.3851697864036951,
                -2.0336554896861943,
                0.3165754779712728,
                0.16799069675745154,
                0.08185255734665998,
                0.3576083630136236
            ]
        },
        {
            "positions": [
                1.441624536782327,
                -1.987370296085526,
                0.38508297057915647,
                0.1250911607932774,
                0.12580837591225302,
                0.48552641288579695
            ]
        },
        {
            "positions": [
                1.4980792871609592,
                -1.9410851024848577,
                0.45359046318704016,
                0.08219162482910325,
                0.16976419447784608,
                0.6134444627579705
            ]
        },
        {
            "positions": [
                1.5545340375395913,
                -1.8947999088841896,
                0.5220979557949237,
                0.03929208886492919,
                0.21372001304343913,
                0.7413625126301437
            ]
        },
        {
            "positions": [
                1.6109887879182234,
                -1.8485147152835215,
                0.5906054484028074,
                -0.003607447099244987,
                0.2576758316090322,
                0.8692805625023172
            ]
        },
        {
            "positions": [
                1.6674435382968553,
                -1.8022295216828534,
                0.6591129410106911,
                -0.046506983063419105,
                0.30163165017462523,
                0.9971986123744905
            ]
        },
        {
            "positions": [
                1.7238982886754874,
                -1.7559443280821854,
                0.7276204336185748,
                -0.08940651902759328,
                0.3455874687402183,
                1.125116662246664
            ]
        },
        {
            "positions": [
                1.7803530390541193,
                -1.7096591344815173,
                0.7961279262264584,
                -0.13230605499176734,
                0.38954328730581134,
                1.2530347121188374
            ]
        },
        {
            "positions": [
                1.8368077894327515,
                -1.663373940880849,
                0.8646354188343421,
                -0.17520559095594157,
                0.4334991058714044,
                1.380952761991011
            ]
        },
        {
            "positions": [
                1.8932625398113836,
                -1.617088747280181,
                0.9331429114422258,
                -0.21810512692011563,
                0.47745492443699744,
                1.5088708118631842
            ]
        },
        {
            "positions": [
                1.9497172901900157,
                -1.5708035536795129,
                1.0016504040501093,
                -0.2610046628842897,
                0.5214107430025905,
                1.6367888617353574
            ]
        },
        {
            "positions": [
                2.0061720405686474,
                -1.5245183600788448,
                1.070157896657993,
                -0.30390419884846387,
                0.5653665615681834,
                1.7647069116075307
            ]
        },
        {
            "positions": [
                2.06262679094728,
                -1.4782331664781765,
                1.1386653892658767,
                -0.34680373481263804,
                0.6093223801337766,
                1.8926249614797044
            ]
        },
        {
            "positions": [
                2.1190815413259116,
                -1.4319479728775084,
                1.2071728818737604,
                -0.3897032707768122,
                0.6532781986993696,
                2.0205430113518776
            ]
        },
        {
            "positions": [
                2.1755362917045438,
                -1.3856627792768403,
                1.275680374481644,
                -0.4326028067409863,
                0.6972340172649627,
                2.148461061224051
            ]
        },
        {
            "positions": [
                2.231991042083176,
                -1.3393775856761723,
                1.3441878670895275,
                -0.47550234270516034,
                0.7411898358305558,
                2.2763791110962246
            ]
        },
        {
            "positions": [
                2.288445792461808,
                -1.293092392075504,
                1.4126953596974114,
                -0.5184018786693346,
                0.7851456543961488,
                2.404297160968398
            ]
        },
        {
            "positions": [
                2.34490054284044,
                -1.246807198474836,
                1.4812028523052951,
                -0.5613014146335087,
                0.8291014729617419,
                2.5322152108405716
            ]
        },
        {
            "positions": [
                2.401355293219072,
                -1.2005220048741678,
                1.5497103449131786,
                -0.6042009505976828,
                0.8730572915273349,
                2.660133260712745
            ]
        },
        {
            "positions": [
                2.4578100435977044,
                -1.1542368112734998,
                1.6182178375210623,
                -0.6471004865618569,
                0.917013110092928,
                2.788051310584918
            ]
        },
        {
            "positions": [
                2.514264793976336,
                -1.1079516176728315,
                1.6867253301289462,
                -0.6900000225260312,
                0.960968928658521,
                2.9159693604570918
            ]
        },
        {
            "positions": [
                2.570719544354968,
                -1.0616664240721634,
                1.7552328227368297,
                -0.7328995584902052,
                1.004924747224114,
                3.043887410329265
            ]
        },
        {
            "positions": [
                2.6271742947336003,
                -1.0153812304714953,
                1.8237403153447134,
                -0.7757990944543793,
                1.0488805657897071,
                3.1718054602014383
            ]
        }
    ]
}