{
    "goal": {
        "global_pose": {
            "orientation": {
                "w": 0.7047431468963623,
                "x": -0.7094548344612122,
                "y": 0.0024358443915843964,
                "z": -0.0022348060738295317
            },
            "position": {
                "x": 0.6094750761985779,
                "y": 0.3671506643295288,
                "z": 0.19426114857196808
            }
        },
        "name": "move_to_magneteinheit_A"
    },
    "id": "SBL_move_to_magneteinheit_A_21",
    "joint_names": [
        "shoulder_pan_joint",
        "shoulder_lift_joint",
        "elbow_joint",
        "wrist_1_joint",
        "wrist_2_joint",
        "wrist_3_joint"
    ],
    "metrics": {
        "cart_traj_len": 3.6109793059488946,
        "distance_elbow_joint": 3.9066059922727074,
        "distance_shoulder_lift_joint": 0.09725438410118659,
        "distance_shoulder_pan_joint": 2.691515073647243,
        "distance_wrist_1_joint": 0.6943822337807988,
        "distance_wrist_2_joint": 1.6947636061655467,
        "distance_wrist_3_joint": 3.5646712872664676,
        "smoothness": 0.023964524249011607,
        "time": 0.158275159,
        "traj_len": 3.556570339137685,
        "weighted_distance": 4.708256682861846
    },
    "planner": "SBL",
    "start": {
        "state": {
            "elbow_joint": -1.9196185241190666,
            "shoulder_lift_joint": -1.2443396400964142,
            "shoulder_pan_joint": 2.6996025414629847,
            "wrist_1_joint": -1.5485510000780065,
            "wrist_2_joint": -1.5709468930060704,
            "wrist_3_joint": 0.4420197071253992
        }
    },
    "waypoints": [
        {
            "positions": [
                2.6996025414629847,
                -1.2443396400964142,
                -1.9196185241190666,
                -1.5485510000780065,
                -1.5709468930060704,
                0.4420197071253992
            ]
        },
        {
            "positions": [
                2.602053549661737,
                -1.2421068248155855,
                -1.8039589112108039,
                -1.5433330077466814,
                -1.5087776112335882,
                0.3392729954434341
            ]
        },
        {
            "positions": [
                2.5045045578604896,
                -1.239874009534757,
                -1.6882992983025413,
                -1.538115015415356,
                -1.4466083294611063,
                0.236526283761469
            ]
        },
        {
            "positions": [
                2.4069555660592425,
                -1.2376411942539283,
                -1.5726396853942788,
                -1.5328970230840309,
                -1.3844390476886241,
                0.13377957207950392
            ]
        },
        {
            "positions": [
                2.309406574257995,
                -1.2354083789730996,
                -1.456980072486016,
                -1.5276790307527055,
                -1.322269765916142,
                0.03103286039753883
            ]
        },
        {
            "positions": [
                2.2118575824567475,
                -1.2331755636922712,
                -1.3413204595777533,
                -1.5224610384213804,
                -1.2601004841436598,
                -0.07171385128442631
            ]
        },
        {
            "positions": [
                2.1143085906555,
                -1.2309427484114426,
                -1.2256608466694907,
                -1.517243046090055,
                -1.197931202371178,
                -0.17446056296639134
            ]
        },
        {
            "positions": [
                2.016759598854253,
                -1.228709933130614,
                -1.1100012337612282,
                -1.5120250537587299,
                -1.1357619205986957,
                -0.2772072746483565
            ]
        },
        {
            "positions": [
                1.919210607053005,
                -1.2264771178497853,
                -0.9943416208529654,
                -1.5068070614274045,
                -1.0735926388262138,
                -0.3799539863303215
            ]
        },
        {
            "positions": [
                1.8216616152517577,
                -1.2242443025689567,
                -0.8786820079447026,
                -1.5015890690960794,
                -1.0114233570537317,
                -0.48270069801228666
            ]
        },
        {
            "positions": [
                1.7241126234505102,
                -1.222011487288128,
                -0.7630223950364401,
                -1.4963710767647542,
                -0.9492540752812495,
                -0.5854474096942518
            ]
        },
        {
            "positions": [
                1.6265636316492627,
                -1.2197786720072994,
                -0.6473627821281773,
                -1.4911530844334289,
                -0.8870847935087675,
                -0.6881941213762167
            ]
        },
        {
            "positions": [
                1.5290146398480153,
                -1.2175458567264708,
                -0.5317031692199148,
                -1.4859350921021037,
                -0.8249155117362853,
                -0.7909408330581819
            ]
        },
        {
            "positions": [
                1.4314656480467678,
                -1.2153130414456421,
                -0.416043556311652,
                -1.4807170997707784,
                -0.7627462299638033,
                -0.893687544740147
            ]
        },
        {
            "positions": [
                1.3339166562455205,
                -1.2130802261648137,
                -0.3003839434033895,
                -1.4754991074394532,
                -0.7005769481913212,
                -0.9964342564221121
            ]
        },
        {
            "positions": [
                1.2363676644442727,
                -1.210847410883985,
                -0.1847243304951265,
                -1.4702811151081279,
                -0.6384076664188391,
                -1.0991809681040774
            ]
        },
        {
            "positions": [
                1.1388186726430254,
                -1.2086145956031564,
                -0.06906471758686417,
                -1.4650631227768027,
                -0.576238384646357,
                -1.201927679786042
            ]
        },
        {
            "positions": [
                1.0412696808417778,
                -1.2063817803223278,
                0.04659489532139882,
                -1.4598451304454774,
                -0.5140691028738749,
                -1.3046743914680072
            ]
        },
        {
            "positions": [
                0.9437206890405305,
                -1.2041489650414992,
                0.16225450822966136,
                -1.4546271381141522,
                -0.45189982110139293,
                -1.4074211031499724
            ]
        },
        {
            "positions": [
                0.846171697239283,
                -1.2019161497606705,
                0.27791412113792413,
                -1.449409145782827,
                -0.3897305393289108,
                -1.5101678148319375
            ]
        },
        {
            "positions": [
                0.7486227054380357,
                -1.1996833344798419,
                0.39357373404618645,
                -1.4441911534515017,
                -0.3275612575564286,
                -1.6129145265139027
            ]
        },
        {
            "positions": [
                0.6510737136367881,
                -1.1974505191990132,
                0.5092333469544492,
                -1.4389731611201766,
                -0.26539197578394647,
                -1.7156612381958678
            ]
        },
        {
            "positions": [
                0.5535247218355406,
                -1.1952177039181846,
                0.624892959862712,
                -1.4337551687888512,
                -0.20322269401146453,
                -1.8184079498778325
            ]
        },
        {
            "positions": [
                0.45597573003429304,
                -1.1929848886373562,
                0.7405525727709747,
                -1.428537176457526,
                -0.14105341223898238,
                -1.9211546615597976
            ]
        },
        {
            "positions": [
                0.35842673823304594,
                -1.1907520733565276,
                0.8562121856792371,
                -1.4233191841262007,
                -0.07888413046650022,
                -2.023901373241763
            ]
        },
        {
            "positions": [
                0.2608777464317984,
                -1.188519258075699,
                0.9718717985874998,
                -1.4181011917948756,
                -0.01671484869401807,
                -2.126648084923728
            ]
        },
        {
            "positions": [
                0.16332875463055085,
                -1.1862864427948703,
                1.0875314114957626,
                -1.4128831994635505,
                0.04545443307846386,
                -2.229394796605693
            ]
        },
        {
            "positions": [
                0.06577976282930348,
                -1.1840536275140416,
                1.2031910244040254,
                -1.407665207132225,
                0.1076237148509459,
                -2.332141508287658
            ]
        },
        {
            "positions": [
                0.07539514533156368,
                -1.177892232260906,
                1.3338237650289613,
                -1.315415800326389,
                0.11032254790236767,
                -2.4638931869298935
            ]
        },
        {
            "positions": [
                0.08501052783382387,
                -1.1717308370077704,
                1.4644565056538972,
                -1.2231663935205526,
                0.11302138095378943,
                -2.5956448655721283
            ]
        },
        {
            "positions": [
                0.09462591033608406,
                -1.1655694417546347,
                1.595089246278833,
                -1.1309169867147164,
                0.11572021400521118,
                -2.727396544214363
            ]
        },
        {
            "positions": [
                0.10424129283834425,
                -1.1594080465014989,
                1.725721986903769,
                -1.0386675799088803,
                0.11841904705663295,
                -2.8591482228565983
            ]
        },
        {
            "positions": [
                0.11385667534060445,
                -1.1532466512483632,
                1.856354727528705,
                -0.9464181731030439,
                0.12111788010805472,
                -2.9908999014988336
            ]
        },
        {
            "positions": [
                0.12347205784286465,
                -1.1470852559952276,
                1.9869874681536408,
                -0.8541687662972077,
                0.12381671315947647,
                -3.1226515801410684
            ]
        }
    ]
}