{
    "goal": {
        "global_pose": {
            "orientation": {
                "w": 0.7031023502349854,
                "x": -0.7110244035720825,
                "y": 0.007748599164187908,
                "z": 0.005598929710686207
            },
            "position": {
                "x": 0.11585023208521307,
                "y": 0.44412534475326537,
                "z": 0.3711530566215515
            }
        },
        "name": "move_to_auspresseinheit_A"
    },
    "id": "SBL_move_to_auspresseinheit_A_58",
    "joint_names": [
        "shoulder_pan_joint",
        "shoulder_lift_joint",
        "elbow_joint",
        "wrist_1_joint",
        "wrist_2_joint",
        "wrist_3_joint"
    ],
    "metrics": {
        "cart_traj_len": 1.712438919789905,
        "distance_elbow_joint": 0.3907176062152886,
        "distance_shoulder_lift_joint": 0.9207300596027219,
        "distance_shoulder_pan_joint": 3.73543496072501,
        "distance_wrist_1_joint": 2.3528689626160606,
        "distance_wrist_2_joint": 0.8253662395604466,
        "distance_wrist_3_joint": 7.419815853101944,
        "smoothness": 0.7345482837727859,
        "time": 0.24195208599999998,
        "traj_len": 3.9553677050081535,
        "weighted_distance": 5.801965235176945
    },
    "planner": "SBL",
    "start": {
        "state": {
            "elbow_joint": 2.4225746658250005,
            "shoulder_lift_joint": -1.3736534386056498,
            "shoulder_pan_joint": -0.3378633547517467,
            "wrist_1_joint": -1.0288598680537169,
            "wrist_2_joint": 1.233022673432363,
            "wrist_3_joint": -3.0940220416140027
        }
    },
    "waypoints": [
        {
            "positions": [
                -0.3378633547517467,
                -1.3736534386056498,
                2.4225746658250005,
                -1.0288598680537169,
                1.233022673432363,
                -3.0940220416140027
            ]
        },
        {
            "positions": [
                -0.40523935250873966,
                -1.4100155140077535,
                2.4120006357757053,
                -0.9556132319472037,
                1.2402561774059209,
                -2.909632528255675
            ]
        },
        {
            "positions": [
                -0.47261535026573265,
                -1.4463775894098572,
                2.4014266057264098,
                -0.8823665958406907,
                1.2474896813794785,
                -2.725243014897347
            ]
        },
        {
            "positions": [
                -0.5399913480227255,
                -1.4827396648119608,
                2.3908525756771146,
                -0.8091199597341776,
                1.2547231853530363,
                -2.54085350153902
            ]
        },
        {
            "positions": [
                -0.6073673457797185,
                -1.5191017402140647,
                2.3802785456278195,
                -0.7358733236276644,
                1.261956689326594,
                -2.356463988180692
            ]
        },
        {
            "positions": [
                -0.6747433435367114,
                -1.5554638156161684,
                2.3697045155785244,
                -0.6626266875211513,
                1.269190193300152,
                -2.1720744748223644
            ]
        },
        {
            "positions": [
                -0.7421193412937044,
                -1.591825891018272,
                2.3591304855292288,
                -0.5893800514146382,
                1.2764236972737097,
                -1.9876849614640368
            ]
        },
        {
            "positions": [
                -0.8094953390506974,
                -1.6281879664203758,
                2.3485564554799336,
                -0.5161334153081252,
                1.2836572012472673,
                -1.8032954481057093
            ]
        },
        {
            "positions": [
                -0.8768713368076904,
                -1.6645500418224795,
                2.3379824254306385,
                -0.442886779201612,
                1.2908907052208252,
                -1.6189059347473815
            ]
        },
        {
            "positions": [
                -0.9442473345646833,
                -1.7009121172245831,
                2.327408395381343,
                -0.36964014309509885,
                1.298124209194383,
                -1.4345164213890538
            ]
        },
        {
            "positions": [
                -1.0116233323216761,
                -1.7372741926266868,
                2.316834365332048,
                -0.2963935069885858,
                1.3053577131679406,
                -1.2501269080307262
            ]
        },
        {
            "positions": [
                -1.078999330078669,
                -1.7736362680287907,
                2.3062603352827526,
                -0.22314687088207263,
                1.3125912171414984,
                -1.0657373946723983
            ]
        },
        {
            "positions": [
                -1.146375327835662,
                -1.8099983434308944,
                2.295686305233457,
                -0.14990023477555958,
                1.3198247211150562,
                -0.8813478813140709
            ]
        },
        {
            "positions": [
                -1.213751325592655,
                -1.846360418832998,
                2.285112275184162,
                -0.07665359866904642,
                1.327058225088614,
                -0.6969583679557432
            ]
        },
        {
            "positions": [
                -1.2811273233496479,
                -1.8827224942351017,
                2.274538245134867,
                -0.0034069625625334776,
                1.3342917290621719,
                -0.5125688545974159
            ]
        },
        {
            "positions": [
                -1.3485033211066408,
                -1.9190845696372054,
                2.263964215085571,
                0.06983967354397969,
                1.3415252330357295,
                -0.3281793412390881
            ]
        },
        {
            "positions": [
                -1.4158793188636338,
                -1.9554466450393093,
                2.253390185036276,
                0.14308630965049285,
                1.3487587370092873,
                -0.14378982788076033
            ]
        },
        {
            "positions": [
                -1.4832553166206266,
                -1.991808720441413,
                2.242816154986981,
                0.216332945757006,
                1.355992240982845,
                0.040599685477567427
            ]
        },
        {
            "positions": [
                -1.5506313143776198,
                -2.0281707958435167,
                2.232242124937686,
                0.2895795818635192,
                1.3632257449564027,
                0.2249891988358952
            ]
        },
        {
            "positions": [
                -1.6180073121346126,
                -2.0645328712456203,
                2.2216680948883902,
                0.3628262179700321,
                1.3704592489299605,
                0.4093787121942225
            ]
        },
        {
            "positions": [
                -1.6853833098916056,
                -2.100894946647724,
                2.211094064839095,
                0.4360728540765453,
                1.3776927529035183,
                0.5937682255525503
            ]
        },
        {
            "positions": [
                -1.571673071530408,
                -2.091681206097217,
                2.2196291603262086,
                0.393790175958174,
                1.3452786500421234,
                0.4160527214603888
            ]
        },
        {
            "positions": [
                -1.4579628331692103,
                -2.08246746554671,
                2.228164255813322,
                0.35150749783980273,
                1.3128645471807288,
                0.23833721736822733
            ]
        },
        {
            "positions": [
                -1.3442525948080126,
                -2.073253724996203,
                2.2366993513004356,
                0.30922481972143145,
                1.2804504443193339,
                0.060621713276065914
            ]
        },
        {
            "positions": [
                -1.2305423564468148,
                -2.064039984445696,
                2.245234446787549,
                0.2669421416030602,
                1.248036341457939,
                -0.11709379081609561
            ]
        },
        {
            "positions": [
                -1.116832118085617,
                -2.0548262438951888,
                2.2537695422746626,
                0.22465946348468893,
                1.2156222385965443,
                -0.294809294908257
            ]
        },
        {
            "positions": [
                -1.0031218797244195,
                -2.0456125033446817,
                2.262304637761776,
                0.18237678536631768,
                1.1832081357351494,
                -0.47252479900041844
            ]
        },
        {
            "positions": [
                -0.8894116413632218,
                -2.0363987627941746,
                2.2708397332488897,
                0.1400941072479464,
                1.1507940328737545,
                -0.6502403030925801
            ]
        },
        {
            "positions": [
                -0.7757014030020241,
                -2.0271850222436676,
                2.279374828736003,
                0.09781142912957513,
                1.1183799300123598,
                -0.8279558071847415
            ]
        },
        {
            "positions": [
                -0.6619911646408265,
                -2.0179712816931605,
                2.2879099242231167,
                0.05552875101120386,
                1.085965827150965,
                -1.005671311276903
            ]
        },
        {
            "positions": [
                -0.5482809262796287,
                -2.0087575411426535,
                2.29644501971023,
                0.013246072892832583,
                1.0535517242895702,
                -1.1833868153690643
            ]
        },
        {
            "positions": [
                -0.434570687918431,
                -1.9995438005921466,
                2.3049801151973437,
                -0.029036605225538692,
                1.021137621428175,
                -1.3611023194612262
            ]
        },
        {
            "positions": [
                -0.32086044955723336,
                -1.9903300600416396,
                2.3135152106844568,
                -0.07131928334390991,
                0.9887235185667804,
                -1.5388178235533871
            ]
        },
        {
            "positions": [
                -0.2071502111960355,
                -1.9811163194911325,
                2.3220503061715703,
                -0.1136019614622813,
                0.9563094157053855,
                -1.716533327645549
            ]
        },
        {
            "positions": [
                -0.09343997283483807,
                -1.9719025789406255,
                2.3305854016586838,
                -0.15588463958065246,
                0.9238953128439908,
                -1.8942488317377104
            ]
        },
        {
            "positions": [
                0.0202702655263598,
                -1.9626888383901184,
                2.3391204971457973,
                -0.19816731769902374,
                0.891481209982596,
                -2.071964335829872
            ]
        },
        {
            "positions": [
                0.13398050388755744,
                -1.9534750978396116,
                2.347655592632911,
                -0.240449995817395,
                0.8590671071212012,
                -2.2496798399220332
            ]
        },
        {
            "positions": [
                0.2476907422487551,
                -1.9442613572891045,
                2.3561906881200243,
                -0.2827326739357663,
                0.8266530042598063,
                -2.427395344014195
            ]
        },
        {
            "positions": [
                0.3614009806099525,
                -1.9350476167385975,
                2.364725783607138,
                -0.32501535205413756,
                0.7942389013984115,
                -2.605110848106356
            ]
        },
        {
            "positions": [
                0.4751112189711506,
                -1.9258338761880904,
                2.3732608790942513,
                -0.36729803017250884,
                0.7618247985370167,
                -2.782826352198518
            ]
        },
        {
            "positions": [
                0.5888214573323483,
                -1.9166201356375834,
                2.381795974581365,
                -0.4095807082908801,
                0.7294106956756219,
                -2.960541856290679
            ]
        },
        {
            "positions": [
                0.702531695693546,
                -1.9074063950870763,
                2.3903310700684783,
                -0.45186338640925133,
                0.696996592814227,
                -3.1382573603828408
            ]
        }
    ]
}