{
    "goal": {
        "global_pose": {
            "orientation": {
                "w": -0.4816463035849501,
                "x": 0.5182115481033762,
                "y": 0.4908360881923453,
                "z": -0.5084816262002911
            },
            "position": {
                "x": -0.8240239810943604,
                "y": -0.300875300988555,
                "z": 0.16403168439865112
            }
        },
        "name": "move_to_storage_C"
    },
    "id": "SBL_move_to_storage_C_107",
    "joint_names": [
        "shoulder_pan_joint",
        "shoulder_lift_joint",
        "elbow_joint",
        "wrist_1_joint",
        "wrist_2_joint",
        "wrist_3_joint"
    ],
    "metrics": {
        "cart_traj_len": 0.5770095047827342,
        "distance_elbow_joint": 0.2603751554730165,
        "distance_shoulder_lift_joint": 0.18853870658554128,
        "distance_shoulder_pan_joint": 0.4949298227790182,
        "distance_wrist_1_joint": 0.09065429235634204,
        "distance_wrist_2_joint": 1.072245981320811,
        "distance_wrist_3_joint": 0.06430283704410611,
        "smoothness": 0.0,
        "time": 0.735086407,
        "traj_len": 1.4734472489908945,
        "weighted_distance": 1.860793578913094
    },
    "planner": "SBL",
    "start": {
        "state": {
            "elbow_joint": 2.010868314990456,
            "shoulder_lift_joint": -1.1634956873337592,
            "shoulder_pan_joint": -2.4736205022346125,
            "wrist_1_joint": -0.8367026794202681,
            "wrist_2_joint": 0.6746043897044499,
            "wrist_3_joint": -3.1496632123970403
        }
    },
    "waypoints": [
        {
            "positions": [
                -2.4736205022346125,
                -1.1634956873337592,
                2.010868314990456,
                -0.8367026794202681,
                0.6746043897044499,
                -3.1496632123970403
            ]
        },
        {
            "positions": [
                -2.5561088060311157,
                -1.1320725695695022,
                1.967472455744953,
                -0.8215936306942111,
                0.8533120532579184,
                -3.138946072889689
            ]
        },
        {
            "positions": [
                -2.6385971098276184,
                -1.1006494518052454,
                1.9240765964994504,
                -0.8064845819681541,
                1.032019716811387,
                -3.128228933382338
            ]
        },
        {
            "positions": [
                -2.7210854136241216,
                -1.0692263340409887,
                1.8806807372539476,
                -0.7913755332420971,
                1.2107273803648555,
                -3.1175117938749874
            ]
        },
        {
            "positions": [
                -2.8035737174206248,
                -1.0378032162767317,
                1.8372848780084448,
                -0.7762664845160401,
                1.3894350439183238,
                -3.1067946543676364
            ]
        },
        {
            "positions": [
                -2.8860620212171275,
                -1.0063800985124747,
                1.7938890187629422,
                -0.7611574357899831,
                1.5681427074717924,
                -3.0960775148602853
            ]
        },
        {
            "positions": [
                -2.9685503250136307,
                -0.9749569807482179,
                1.7504931595174393,
                -0.7460483870639261,
                1.746850371025261,
                -3.085360375352934
            ]
        }
    ]
}