{
    "goal": {
        "global_pose": {
            "orientation": {
                "w": 0.005598929693374612,
                "x": 0.007748599140229565,
                "y": 0.7110244013736278,
                "z": -0.7031023480610252
            },
            "position": {
                "x": -0.8858502320852131,
                "y": -0.7141253447532654,
                "z": 0.3711530566215515
            }
        },
        "name": "move_to_auspresseinheit_C"
    },
    "id": "SBL_move_to_auspresseinheit_C_53",
    "joint_names": [
        "shoulder_pan_joint",
        "shoulder_lift_joint",
        "elbow_joint",
        "wrist_1_joint",
        "wrist_2_joint",
        "wrist_3_joint"
    ],
    "metrics": {
        "cart_traj_len": 0.4938270530521163,
        "distance_elbow_joint": 0.9953783715348697,
        "distance_shoulder_lift_joint": 0.3225284110429475,
        "distance_shoulder_pan_joint": 0.2566186826385932,
        "distance_wrist_1_joint": 0.6588466078655734,
        "distance_wrist_2_joint": 1.3156223350674678,
        "distance_wrist_3_joint": 0.05224618155868388,
        "smoothness": 3.2297397335745243e-16,
        "time": 0.6578613680000001,
        "traj_len": 1.8976934920339836,
        "weighted_distance": 2.3833174139754325
    },
    "planner": "SBL",
    "start": {
        "state": {
            "elbow_joint": 1.7527959577737207,
            "shoulder_lift_joint": -0.9740617694225068,
            "shoulder_pan_joint": -2.967991417825858,
            "wrist_1_joint": -0.759517768980727,
            "wrist_2_joint": 1.7443932448377408,
            "wrist_3_joint": -3.0840537646736568
        }
    },
    "waypoints": [
        {
            "positions": [
                -2.967991417825858,
                -0.9740617694225068,
                1.7527959577737207,
                -0.759517768980727,
                1.7443932448377408,
                -3.0840537646736568
            ]
        },
        {
            "positions": [
                -2.9423295495619985,
                -0.9418089283182121,
                1.6532581206202337,
                -0.6936331081941697,
                1.612831011330994,
                -3.089278382829525
            ]
        },
        {
            "positions": [
                -2.916667681298139,
                -0.9095560872139172,
                1.5537202834667467,
                -0.6277484474076123,
                1.4812687778242473,
                -3.0945030009853935
            ]
        },
        {
            "positions": [
                -2.89100581303428,
                -0.8773032461096225,
                1.4541824463132598,
                -0.561863786621055,
                1.3497065443175005,
                -3.099727619141262
            ]
        },
        {
            "positions": [
                -2.8653439447704208,
                -0.8450504050053278,
                1.3546446091597728,
                -0.4959791258344976,
                1.2181443108107537,
                -3.1049522372971303
            ]
        },
        {
            "positions": [
                -2.8396820765065613,
                -0.812797563901033,
                1.2551067720062858,
                -0.4300944650479403,
                1.086582077304007,
                -3.1101768554529987
            ]
        },
        {
            "positions": [
                -2.814020208242702,
                -0.7805447227967383,
                1.1555689348527989,
                -0.364209804261383,
                0.9550198437972601,
                -3.115401473608867
            ]
        },
        {
            "positions": [
                -2.7883583399788425,
                -0.7482918816924435,
                1.056031097699312,
                -0.29832514347482564,
                0.8234576102905135,
                -3.1206260917647355
            ]
        },
        {
            "positions": [
                -2.7626964717149836,
                -0.7160390405881487,
                0.9564932605458248,
                -0.23244048268826822,
                0.6918953767837666,
                -3.125850709920604
            ]
        },
        {
            "positions": [
                -2.737034603451124,
                -0.683786199483854,
                0.8569554233923379,
                -0.16655582190171092,
                0.5603331432770198,
                -3.1310753280764723
            ]
        },
        {
            "positions": [
                -2.7113727351872647,
                -0.6515333583795593,
                0.7574175862388509,
                -0.10067116111515362,
                0.428770909770273,
                -3.1362999462323407
            ]
        }
    ]
}