{
    "goal": {
        "global_pose": {
            "orientation": {
                "w": 0.005598929693374612,
                "x": 0.007748599140229565,
                "y": 0.7110244013736278,
                "z": -0.7031023480610252
            },
            "position": {
                "x": 0.1141497679147869,
                "y": -0.7141253447532654,
                "z": 0.3711530566215515
            }
        },
        "name": "move_to_auspresseinheit_B"
    },
    "id": "SBL_move_to_auspresseinheit_B_130",
    "joint_names": [
        "shoulder_pan_joint",
        "shoulder_lift_joint",
        "elbow_joint",
        "wrist_1_joint",
        "wrist_2_joint",
        "wrist_3_joint"
    ],
    "metrics": {
        "cart_traj_len": 0.5639921992663381,
        "distance_elbow_joint": 0.06170555319452653,
        "distance_shoulder_lift_joint": 0.2937842913559541,
        "distance_shoulder_pan_joint": 0.5772363442364754,
        "distance_wrist_1_joint": 0.3248612755429974,
        "distance_wrist_2_joint": 0.9900444114109321,
        "distance_wrist_3_joint": 0.003977561674293195,
        "smoothness": 5.075305295617109e-16,
        "time": 0.257996387,
        "traj_len": 1.5005363832360676,
        "weighted_distance": 1.8906269456764058
    },
    "planner": "SBL",
    "start": {
        "state": {
            "elbow_joint": 2.0193083361928714,
            "shoulder_lift_joint": -1.1220246554650708,
            "shoulder_pan_joint": -1.0952077554168747,
            "wrist_1_joint": -0.8559753972642168,
            "wrist_2_joint": 0.4759566250798843,
            "wrist_3_joint": -3.1240929996934557
        }
    },
    "waypoints": [
        {
            "positions": [
                -1.0952077554168747,
                -1.1220246554650708,
                2.0193083361928714,
                -0.8559753972642168,
                0.4759566250798843,
                -3.1240929996934557
            ]
        },
        {
            "positions": [
                -1.1914138127896206,
                -1.1709887040243965,
                2.009024077327117,
                -0.8018318513403839,
                0.6409640269817063,
                -3.12343007274774
            ]
        },
        {
            "positions": [
                -1.2876198701623665,
                -1.2199527525837222,
                1.9987398184613625,
                -0.747688305416551,
                0.8059714288835282,
                -3.1227671458020247
            ]
        },
        {
            "positions": [
                -1.3838259275351124,
                -1.2689168011430478,
                1.9884555595956082,
                -0.6935447594927181,
                0.9709788307853504,
                -3.1221042188563093
            ]
        },
        {
            "positions": [
                -1.4800319849078583,
                -1.3178808497023735,
                1.9781713007298538,
                -0.6394012135688852,
                1.1359862326871724,
                -3.1214412919105934
            ]
        },
        {
            "positions": [
                -1.5762380422806042,
                -1.3668448982616992,
                1.9678870418640992,
                -0.5852576676450523,
                1.3009936345889945,
                -3.120778364964878
            ]
        },
        {
            "positions": [
                -1.67244409965335,
                -1.4158089468210249,
                1.957602782998345,
                -0.5311141217212194,
                1.4660010364908165,
                -3.1201154380191625
            ]
        }
    ]
}