{
    "goal": {
        "global_pose": {
            "orientation": {
                "w": -0.00223480608172531,
                "x": 0.0024358444001904467,
                "y": 0.7094548369677653,
                "z": -0.704743149386269
            },
            "position": {
                "x": -0.37947507619857795,
                "y": -0.6371506643295288,
                "z": 0.19426114857196808
            }
        },
        "name": "move_to_magneteinheit_C"
    },
    "id": "SBL_move_to_magneteinheit_C_23",
    "joint_names": [
        "shoulder_pan_joint",
        "shoulder_lift_joint",
        "elbow_joint",
        "wrist_1_joint",
        "wrist_2_joint",
        "wrist_3_joint"
    ],
    "metrics": {
        "cart_traj_len": 2.2633460995419994,
        "distance_elbow_joint": 1.0542200819062577,
        "distance_shoulder_lift_joint": 0.8249114119266727,
        "distance_shoulder_pan_joint": 2.3343026485164975,
        "distance_wrist_1_joint": 2.2087858963725755,
        "distance_wrist_2_joint": 2.109734438616477,
        "distance_wrist_3_joint": 6.615023234917926,
        "smoothness": 0.6993283221321306,
        "time": 0.566971492,
        "traj_len": 3.8919118325389124,
        "weighted_distance": 5.718001794078181
    },
    "planner": "SBL",
    "start": {
        "state": {
            "elbow_joint": 1.9565354010623817,
            "shoulder_lift_joint": -1.4165861575791021,
            "shoulder_pan_joint": -1.6717766225146293,
            "wrist_1_joint": -0.5286633292919765,
            "wrist_2_joint": 1.472756589071564,
            "wrist_3_joint": -3.1238370188695823
        }
    },
    "waypoints": [
        {
            "positions": [
                -1.6717766225146293,
                -1.4165861575791021,
                1.9565354010623817,
                -0.5286633292919765,
                1.472756589071564,
                -3.1238370188695823
            ]
        },
        {
            "positions": [
                -1.6084531255875172,
                -1.4427890252574955,
                1.9382056747509528,
                -0.5141853137012632,
                1.3850071498027612,
                -3.0103549769012967
            ]
        },
        {
            "positions": [
                -1.5451296286604053,
                -1.4689918929358887,
                1.9198759484395242,
                -0.49970729811055004,
                1.2972577105339584,
                -2.8968729349330116
            ]
        },
        {
            "positions": [
                -1.4818061317332931,
                -1.4951947606142821,
                1.9015462221280954,
                -0.48522928251983677,
                1.2095082712651557,
                -2.783390892964726
            ]
        },
        {
            "positions": [
                -1.418482634806181,
                -1.5213976282926753,
                1.8832164958166668,
                -0.47075126692912356,
                1.121758831996353,
                -2.669908850996441
            ]
        },
        {
            "positions": [
                -1.355159137879069,
                -1.5476004959710687,
                1.864886769505238,
                -0.45627325133841035,
                1.0340093927275502,
                -2.5564268090281552
            ]
        },
        {
            "positions": [
                -1.317291675855229,
                -1.5700717189824605,
                1.820907144457581,
                -0.4542200152470665,
                0.9289360793172553,
                -2.3903002743701376
            ]
        },
        {
            "positions": [
                -1.279424213831389,
                -1.5925429419938522,
                1.776927519409924,
                -0.45216677915572273,
                0.8238627659069604,
                -2.22417373971212
            ]
        },
        {
            "positions": [
                -1.241556751807549,
                -1.615014165005244,
                1.7329478943622671,
                -0.4501135430643789,
                0.7187894524966654,
                -2.0580472050541023
            ]
        },
        {
            "positions": [
                -1.203689289783709,
                -1.6374853880166358,
                1.68896826931461,
                -0.44806030697303506,
                0.6137161390863705,
                -1.8919206703960847
            ]
        },
        {
            "positions": [
                -1.1658218277598689,
                -1.6599566110280275,
                1.644988644266953,
                -0.4460070708816913,
                0.5086428256760754,
                -1.725794135738067
            ]
        },
        {
            "positions": [
                -1.127954365736029,
                -1.6824278340394192,
                1.601009019219296,
                -0.44395383479034745,
                0.4035695122657805,
                -1.5596676010800494
            ]
        },
        {
            "positions": [
                -1.2485656767440672,
                -1.660167103979254,
                1.5898560930498162,
                -0.37732855360934586,
                0.37574952220335445,
                -1.4263810393952785
            ]
        },
        {
            "positions": [
                -1.3691769877521054,
                -1.637906373919089,
                1.5787031668803364,
                -0.3107032724283443,
                0.3479295321409284,
                -1.2930944777105078
            ]
        },
        {
            "positions": [
                -1.4897882987601434,
                -1.615645643858924,
                1.5675502407108566,
                -0.24407799124734275,
                0.3201095420785024,
                -1.1598079160257369
            ]
        },
        {
            "positions": [
                -1.6103996097681816,
                -1.5933849137987588,
                1.5563973145413768,
                -0.17745271006634117,
                0.2922895520160763,
                -1.0265213543409661
            ]
        },
        {
            "positions": [
                -1.7310109207762197,
                -1.5711241837385939,
                1.545244388371897,
                -0.11082742888533964,
                0.2644695619536503,
                -0.8932347926561952
            ]
        },
        {
            "positions": [
                -1.8516222317842579,
                -1.5488634536784287,
                1.534091462202417,
                -0.04420214770433806,
                0.23664957189122426,
                -0.7599482309714244
            ]
        },
        {
            "positions": [
                -1.9722335427922961,
                -1.5266027236182635,
                1.5229385360329375,
                0.02242313347666347,
                0.20882958182879824,
                -0.6266616692866537
            ]
        },
        {
            "positions": [
                -2.0928448538003344,
                -1.5043419935580984,
                1.5117856098634577,
                0.08904841465766511,
                0.18100959176637219,
                -0.49337510760188263
            ]
        },
        {
            "positions": [
                -2.213456164808372,
                -1.4820812634979335,
                1.5006326836939778,
                0.15567369583866664,
                0.1531896017039462,
                -0.3600885459171119
            ]
        },
        {
            "positions": [
                -2.3340674758164104,
                -1.4598205334377683,
                1.489479757524498,
                0.22229897701966816,
                0.1253696116415201,
                -0.226801984232341
            ]
        },
        {
            "positions": [
                -2.4546787868244486,
                -1.4375598033776031,
                1.4783268313550182,
                0.2889242582006697,
                0.09754962157909408,
                -0.09351542254757028
            ]
        },
        {
            "positions": [
                -2.575290097832487,
                -1.4152990733174382,
                1.4671739051855384,
                0.35554953938167133,
                0.06972963151666806,
                0.03977113913720065
            ]
        },
        {
            "positions": [
                -2.695901408840525,
                -1.393038343257273,
                1.4560209790160585,
                0.42217482056267286,
                0.04190964145424203,
                0.17305770082197136
            ]
        },
        {
            "positions": [
                -2.686989309097028,
                -1.3738015983801555,
                1.4896054558073977,
                0.3566018389136518,
                0.09230475548337394,
                -0.038153458865251955
            ]
        },
        {
            "positions": [
                -2.678077209353531,
                -1.3545648535030381,
                1.523189932598737,
                0.2910288572646308,
                0.14269986951250585,
                -0.24936461855247527
            ]
        },
        {
            "positions": [
                -2.669165109610034,
                -1.3353281086259206,
                1.5567744093900762,
                0.22545587561560976,
                0.19309498354163776,
                -0.46057577823969864
            ]
        },
        {
            "positions": [
                -2.660253009866537,
                -1.3160913637488032,
                1.5903588861814155,
                0.15988289396658872,
                0.24349009757076967,
                -0.6717869379269219
            ]
        },
        {
            "positions": [
                -2.65134091012304,
                -1.2968546188716856,
                1.6239433629727547,
                0.09430991231756769,
                0.2938852115999016,
                -0.8829980976141452
            ]
        },
        {
            "positions": [
                -2.642428810379543,
                -1.2776178739945683,
                1.657527839764094,
                0.028736930668546656,
                0.3442803256290335,
                -1.0942092573013686
            ]
        },
        {
            "positions": [
                -2.6335167106360458,
                -1.2583811291174507,
                1.6911123165554331,
                -0.03683605098047438,
                0.3946754396581654,
                -1.3054204169885917
            ]
        },
        {
            "positions": [
                -2.6246046108925487,
                -1.2391443842403334,
                1.7246967933467725,
                -0.10240903262949541,
                0.4450705536872973,
                -1.5166315766758152
            ]
        },
        {
            "positions": [
                -2.6156925111490517,
                -1.2199076393632158,
                1.7582812701381116,
                -0.16798201427851644,
                0.4954656677164292,
                -1.7278427363630384
            ]
        },
        {
            "positions": [
                -2.6067804114055546,
                -1.2006708944860984,
                1.791865746929451,
                -0.23355499592753748,
                0.5458607817455612,
                -1.9390538960502617
            ]
        },
        {
            "positions": [
                -2.5978683116620576,
                -1.1814341496089809,
                1.8254502237207901,
                -0.2991279775765585,
                0.596255895774693,
                -2.150265055737485
            ]
        },
        {
            "positions": [
                -2.5889562119185605,
                -1.1621974047318635,
                1.8590347005121295,
                -0.36470095922557955,
                0.646651009803825,
                -2.361476215424709
            ]
        },
        {
            "positions": [
                -2.5800441121750635,
                -1.142960659854746,
                1.8926191773034686,
                -0.4302739408746006,
                0.6970461238329568,
                -2.572687375111932
            ]
        },
        {
            "positions": [
                -2.5533750991830786,
                -1.1478613001751665,
                1.9218960426965999,
                -0.5316486871447633,
                0.691108371677847,
                -2.7157832349350493
            ]
        },
        {
            "positions": [
                -2.526706086191094,
                -1.1527619404955871,
                1.9511729080897309,
                -0.6330234334149261,
                0.6851706195227371,
                -2.8588790947581666
            ]
        },
        {
            "positions": [
                -2.5000370731991093,
                -1.1576625808160077,
                1.9804497734828619,
                -0.7343981796850888,
                0.6792328673676271,
                -3.001974954581284
            ]
        },
        {
            "positions": [
                -2.4733680602071244,
                -1.1625632211364283,
                2.009726638875993,
                -0.8357729259552515,
                0.6732951152125173,
                -3.1450708144044013
            ]
        }
    ]
}