{
    "goal": {
        "global_pose": {
            "orientation": {
                "w": 0.005598929693374612,
                "x": 0.007748599140229565,
                "y": 0.7110244013736278,
                "z": -0.7031023480610252
            },
            "position": {
                "x": 0.1141497679147869,
                "y": -0.7141253447532654,
                "z": 0.3711530566215515
            }
        },
        "name": "move_to_auspresseinheit_B"
    },
    "id": "SBL_move_to_auspresseinheit_B_19",
    "joint_names": [
        "shoulder_pan_joint",
        "shoulder_lift_joint",
        "elbow_joint",
        "wrist_1_joint",
        "wrist_2_joint",
        "wrist_3_joint"
    ],
    "metrics": {
        "cart_traj_len": 0.565683582980879,
        "distance_elbow_joint": 0.06605490729160501,
        "distance_shoulder_lift_joint": 0.29435425018906414,
        "distance_shoulder_pan_joint": 0.5769860980189099,
        "distance_wrist_1_joint": 0.336614433780949,
        "distance_wrist_2_joint": 0.9983410593301443,
        "distance_wrist_3_joint": 0.006907534242420521,
        "smoothness": 2.5376526478085547e-16,
        "time": 0.349888849,
        "traj_len": 1.5097212599857939,
        "weighted_distance": 1.9047385239053227
    },
    "planner": "SBL",
    "start": {
        "state": {
            "elbow_joint": 2.0193083361928714,
            "shoulder_lift_joint": -1.1220246554650708,
            "shoulder_pan_joint": -1.0952077554168747,
            "wrist_1_joint": -0.8559753972642168,
            "wrist_2_joint": 0.4759566250798843,
            "wrist_3_joint": -3.1240929996934557
        }
    },
    "waypoints": [
        {
            "positions": [
                -1.0952077554168747,
                -1.1220246554650708,
                2.0193083361928714,
                -0.8559753972642168,
                0.4759566250798843,
                -3.1240929996934557
            ]
        },
        {
            "positions": [
                -1.191372105086693,
                -1.1710836971632481,
                2.008299184977604,
                -0.7998729916340586,
                0.6423468016349083,
                -3.1229417439863854
            ]
        },
        {
            "positions": [
                -1.2875364547565114,
                -1.2201427388614254,
                1.9972900337623365,
                -0.7437705860039004,
                0.8087369781899323,
                -3.1217904882793155
            ]
        },
        {
            "positions": [
                -1.3837008044263297,
                -1.269201780559603,
                1.986280882547069,
                -0.6876681803737423,
                0.9751271547449565,
                -3.1206392325722456
            ]
        },
        {
            "positions": [
                -1.4798651540961478,
                -1.3182608222577803,
                1.9752717313318013,
                -0.6315657747435841,
                1.1415173312999805,
                -3.1194879768651753
            ]
        },
        {
            "positions": [
                -1.5760295037659662,
                -1.3673198639559576,
                1.9642625801165339,
                -0.5754633691134259,
                1.3079075078550046,
                -3.118336721158105
            ]
        },
        {
            "positions": [
                -1.6721938534357845,
                -1.416378905654135,
                1.9532534289012664,
                -0.5193609634832678,
                1.4742976844100286,
                -3.117185465451035
            ]
        }
    ]
}