{
    "goal": {
        "global_pose": {
            "orientation": {
                "w": 0.7047431493862688,
                "x": -0.7094548369677653,
                "y": 0.0024358444001904,
                "z": -0.0022348060817251984
            },
            "position": {
                "x": -0.39052492380142206,
                "y": 0.3671506643295288,
                "z": 0.19426114857196808
            }
        },
        "name": "move_to_magneteinheit_D"
    },
    "id": "SBL_move_to_magneteinheit_D_14",
    "joint_names": [
        "shoulder_pan_joint",
        "shoulder_lift_joint",
        "elbow_joint",
        "wrist_1_joint",
        "wrist_2_joint",
        "wrist_3_joint"
    ],
    "metrics": {
        "cart_traj_len": 4.140327163009029,
        "distance_elbow_joint": 3.230311664156354,
        "distance_shoulder_lift_joint": 1.6301302240740643,
        "distance_shoulder_pan_joint": 2.9774155941201386,
        "distance_wrist_1_joint": 2.3869487219416157,
        "distance_wrist_2_joint": 1.8435443170691708,
        "distance_wrist_3_joint": 6.853275535029714,
        "smoothness": 0.18997210576741452,
        "time": 0.459331862,
        "traj_len": 4.349899545551719,
        "weighted_distance": 6.071134174555961
    },
    "planner": "SBL",
    "start": {
        "state": {
            "elbow_joint": 0.749534889911806,
            "shoulder_lift_joint": -0.6476975780787326,
            "shoulder_pan_joint": -2.711696901376241,
            "wrist_1_joint": -0.07506478083263063,
            "wrist_2_joint": 0.43296659715538205,
            "wrist_3_joint": -3.14703540197715
        }
    },
    "waypoints": [
        {
            "positions": [
                -2.711696901376241,
                -0.6476975780787326,
                0.749534889911806,
                -0.07506478083263063,
                0.43296659715538205,
                -3.14703540197715
            ]
        },
        {
            "positions": [
                -2.720316019254289,
                -0.7060922693035263,
                0.7652414558095543,
                -0.15302819280028063,
                0.42668953024918616,
                -2.999396208003602
            ]
        },
        {
            "positions": [
                -2.728935137132337,
                -0.76448696052832,
                0.7809480217073026,
                -0.23099160476793065,
                0.4204124633429902,
                -2.8517570140300537
            ]
        },
        {
            "positions": [
                -2.7375542550103846,
                -0.8228816517531137,
                0.7966545876050509,
                -0.3089550167355807,
                0.4141353964367943,
                -2.7041178200565055
            ]
        },
        {
            "positions": [
                -2.7169002624521275,
                -0.8913606399158575,
                0.772008105320455,
                -0.35552619775934563,
                0.40606185996009514,
                -2.497633119213035
            ]
        },
        {
            "positions": [
                -2.6962462698938703,
                -0.9598396280786012,
                0.7473616230358591,
                -0.4020973787831106,
                0.3979883234833959,
                -2.2911484183695645
            ]
        },
        {
            "positions": [
                -2.675592277335613,
                -1.0283186162413451,
                0.7227151407512632,
                -0.4486685598068756,
                0.3899147870066967,
                -2.0846637175260936
            ]
        },
        {
            "positions": [
                -2.654938284777356,
                -1.0967976044040888,
                0.6980686584666673,
                -0.49523974083064054,
                0.3818412505299975,
                -1.8781790166826233
            ]
        },
        {
            "positions": [
                -2.5749845152882145,
                -1.1198878358608595,
                0.6374231821347007,
                -0.43155767851514626,
                0.3620339485076083,
                -1.7304956972026733
            ]
        },
        {
            "positions": [
                -2.495030745799073,
                -1.14297806731763,
                0.5767777058027341,
                -0.3678756161996519,
                0.342226646485219,
                -1.582812377722723
            ]
        },
        {
            "positions": [
                -2.4150769763099316,
                -1.1660682987744007,
                0.5161322294707674,
                -0.3041935538841577,
                0.32241934446282977,
                -1.435129058242773
            ]
        },
        {
            "positions": [
                -2.33512320682079,
                -1.1891585302311711,
                0.4554867531388008,
                -0.24051149156866336,
                0.3026120424404405,
                -1.2874457387628229
            ]
        },
        {
            "positions": [
                -2.2551694373316487,
                -1.2122487616879418,
                0.3948412768068342,
                -0.17682942925316908,
                0.28280474041805126,
                -1.1397624192828726
            ]
        },
        {
            "positions": [
                -2.175215667842507,
                -1.2353389931447123,
                0.3341958004748676,
                -0.1131473669376748,
                0.26299743839566203,
                -0.9920790998029226
            ]
        },
        {
            "positions": [
                -2.0952618983533657,
                -1.258429224601483,
                0.2735503241429009,
                -0.04946530462218046,
                0.24319013637327275,
                -0.8443957803229725
            ]
        },
        {
            "positions": [
                -2.0153081288642243,
                -1.2815194560582535,
                0.21290484781093433,
                0.01421675769331382,
                0.22338283435088352,
                -0.6967124608430224
            ]
        },
        {
            "positions": [
                -1.935354359375083,
                -1.3046096875150242,
                0.15225937147896773,
                0.07789882000880805,
                0.2035755323284943,
                -0.5490291413630723
            ]
        },
        {
            "positions": [
                -1.8554005898859416,
                -1.3276999189717946,
                0.09161389514700102,
                0.14158088232430238,
                0.183768230306105,
                -0.40134582188312207
            ]
        },
        {
            "positions": [
                -1.7754468203968004,
                -1.3507901504285653,
                0.030968418815034426,
                0.20526294463979672,
                0.16396092828371578,
                -0.253662502403172
            ]
        },
        {
            "positions": [
                -1.695493050907659,
                -1.3738803818853358,
                -0.02967705751693217,
                0.26894500695529094,
                0.14415362626132655,
                -0.10597918292322195
            ]
        },
        {
            "positions": [
                -1.6155392814185172,
                -1.3969706133421065,
                -0.09032253384889877,
                0.3326270692707853,
                0.12434632423893727,
                0.04170413655672833
            ]
        },
        {
            "positions": [
                -1.5355855119293758,
                -1.420060844798877,
                -0.15096801018086548,
                0.3963091315862796,
                0.10453902221654798,
                0.1893874560366784
            ]
        },
        {
            "positions": [
                -1.4556317424402345,
                -1.4431510762556476,
                -0.21161348651283196,
                0.45999119390177384,
                0.08473172019415881,
                0.33707077551662823
            ]
        },
        {
            "positions": [
                -1.375677972951093,
                -1.4662413077124181,
                -0.27225896284479867,
                0.5236732562172681,
                0.06492441817176953,
                0.4847540949965785
            ]
        },
        {
            "positions": [
                -1.2957242034619516,
                -1.4893315391691888,
                -0.33290443917676527,
                0.5873553185327625,
                0.04511711614938024,
                0.6324374144765288
            ]
        },
        {
            "positions": [
                -1.2157704339728101,
                -1.5124217706259593,
                -0.39354991550873186,
                0.6510373808482566,
                0.02530981412699107,
                0.7801207339564786
            ]
        },
        {
            "positions": [
                -1.1358166644836687,
                -1.53551200208273,
                -0.45419539184069846,
                0.7147194431637509,
                0.005502512104601787,
                0.9278040534364289
            ]
        },
        {
            "positions": [
                -1.0558628949945272,
                -1.5586022335395007,
                -0.5148408681726653,
                0.7784015054792452,
                -0.014304789917787497,
                1.0754873729163792
            ]
        },
        {
            "positions": [
                -0.975909125505386,
                -1.5816924649962711,
                -0.5754863445046317,
                0.8420835677947396,
                -0.03411209194017667,
                1.223170692396329
            ]
        },
        {
            "positions": [
                -0.8959553560162445,
                -1.6047826964530416,
                -0.6361318208365985,
                0.9057656301102339,
                -0.053919393962565954,
                1.3708540118762793
            ]
        },
        {
            "positions": [
                -0.8160015865271029,
                -1.6278729279098123,
                -0.6967772971685651,
                0.9694476924257283,
                -0.07372669598495524,
                1.5185373313562296
            ]
        },
        {
            "positions": [
                -0.7360478170379616,
                -1.650963159366583,
                -0.7574227735005317,
                1.0331297547412224,
                -0.09353399800734441,
                1.6662206508361794
            ]
        },
        {
            "positions": [
                -0.6560940475488202,
                -1.6740533908233535,
                -0.8180682498324982,
                1.0968118170567167,
                -0.1133413000297337,
                1.81390397031613
            ]
        },
        {
            "positions": [
                -0.5574369100625716,
                -1.7071834810269568,
                -0.9241437166571366,
                1.1020635432236867,
                -0.19250219294468152,
                1.8249420059692119
            ]
        },
        {
            "positions": [
                -0.45877977257632296,
                -1.74031357123056,
                -1.0302191834817749,
                1.107315269390657,
                -0.27166308585962934,
                1.8359800416222938
            ]
        },
        {
            "positions": [
                -0.36012263509007436,
                -1.7734436614341633,
                -1.1362946503064133,
                1.112566995557627,
                -0.35082397877457716,
                1.8470180772753757
            ]
        },
        {
            "positions": [
                -0.26146549760382576,
                -1.8065737516377667,
                -1.2423701171310517,
                1.117818721724597,
                -0.429984871689525,
                1.8580561129284578
            ]
        },
        {
            "positions": [
                -0.16280836011757716,
                -1.8397038418413698,
                -1.3484455839556901,
                1.1230704478915672,
                -0.5091457646044728,
                1.8690941485815398
            ]
        },
        {
            "positions": [
                -0.0641512226313285,
                -1.8728339320449732,
                -1.4545210507803286,
                1.1283221740585372,
                -0.5883066575194207,
                1.8801321842346217
            ]
        },
        {
            "positions": [
                -0.0381280803373622,
                -1.9269113177807478,
                -1.5461765989899623,
                1.1556116656132327,
                -0.5974494488461358,
                1.812278994943965
            ]
        },
        {
            "positions": [
                -0.012104938043395908,
                -1.9809887035165226,
                -1.6378321471995958,
                1.1829011571679284,
                -0.6065922401728508,
                1.7444258056533086
            ]
        },
        {
            "positions": [
                0.013918204250570387,
                -2.035066089252297,
                -1.7294876954092295,
                1.210190648722624,
                -0.615735031499566,
                1.676572616362652
            ]
        },
        {
            "positions": [
                -0.002137780387635721,
                -2.060970447343525,
                -1.7954963330353466,
                1.2357582641043567,
                -0.5448848988917895,
                1.525454272880715
            ]
        },
        {
            "positions": [
                -0.01819376502584183,
                -2.0868748054347535,
                -1.8615049706614637,
                1.2613258794860893,
                -0.474034766284013,
                1.374335929398778
            ]
        },
        {
            "positions": [
                -0.03424974966404794,
                -2.1127791635259814,
                -1.9275136082875806,
                1.286893494867822,
                -0.4031846336762365,
                1.223217585916841
            ]
        },
        {
            "positions": [
                -0.050305734302254046,
                -2.1386835216172093,
                -1.9935222459136976,
                1.3124611102495547,
                -0.33233450106846,
                1.072099242434904
            ]
        },
        {
            "positions": [
                -0.06636171894046015,
                -2.1645878797084377,
                -2.0595308835398147,
                1.3380287256312875,
                -0.2614843684606835,
                0.9209808989529671
            ]
        },
        {
            "positions": [
                -0.08241770357866626,
                -2.1904922377996656,
                -2.1255395211659316,
                1.36359634101302,
                -0.19063423585290706,
                0.7698625554710301
            ]
        },
        {
            "positions": [
                -0.09847368821687237,
                -2.216396595890894,
                -2.191548158792049,
                1.3891639563947527,
                -0.11978410324513056,
                0.6187442119890931
            ]
        },
        {
            "positions": [
                -0.1145296728550785,
                -2.242300953982122,
                -2.2575567964181658,
                1.4147315717764855,
                -0.04893397063735408,
                0.4676258685071562
            ]
        },
        {
            "positions": [
                -0.1384089742282088,
                -2.2541432367056804,
                -2.3005503238981295,
                1.4336657215553115,
                0.027079905213316463,
                0.3297586574769965
            ]
        },
        {
            "positions": [
                -0.16228827560133913,
                -2.2659855194292384,
                -2.3435438513780937,
                1.4525998713341373,
                0.103093781063987,
                0.19189144644683687
            ]
        },
        {
            "positions": [
                -0.18616757697446942,
                -2.277827802152797,
                -2.3865373788580575,
                1.4715340211129633,
                0.17910765691465758,
                0.054024235416677176
            ]
        }
    ]
}