{
    "goal": {
        "global_pose": {
            "orientation": {
                "w": 0.5084816262002911,
                "x": -0.4908360881923452,
                "y": 0.5182115481033761,
                "z": -0.48164630358495003
            },
            "position": {
                "x": 0.5540239810943604,
                "y": -0.46912469901144505,
                "z": 0.16403168439865112
            }
        },
        "name": "move_to_storage_B"
    },
    "id": "SBL_move_to_storage_B_31",
    "joint_names": [
        "shoulder_pan_joint",
        "shoulder_lift_joint",
        "elbow_joint",
        "wrist_1_joint",
        "wrist_2_joint",
        "wrist_3_joint"
    ],
    "metrics": {
        "cart_traj_len": 5.286363957044061,
        "distance_elbow_joint": 4.803021773073146,
        "distance_shoulder_lift_joint": 1.391027211876803,
        "distance_shoulder_pan_joint": 3.7555122686169744,
        "distance_wrist_1_joint": 2.3958636693342235,
        "distance_wrist_2_joint": 1.0411896240104848,
        "distance_wrist_3_joint": 6.532584989944676,
        "smoothness": 0.2072264538054173,
        "time": 0.461086501,
        "traj_len": 4.463093045955498,
        "weighted_distance": 6.03501638855193
    },
    "planner": "SBL",
    "start": {
        "state": {
            "elbow_joint": -1.6666013991110213,
            "shoulder_lift_joint": -2.479295265494141,
            "shoulder_pan_joint": 2.6606783912885628,
            "wrist_1_joint": 0.9897123657714939,
            "wrist_2_joint": 0.474351758749468,
            "wrist_3_joint": 0.013243222496468381
        }
    },
    "waypoints": [
        {
            "positions": [
                2.6606783912885628,
                -2.479295265494141,
                -1.6666013991110213,
                0.9897123657714939,
                0.474351758749468,
                0.013243222496468381
            ]
        },
        {
            "positions": [
                2.638779907100429,
                -2.455840190131619,
                -1.7003515798320081,
                0.9616766345411752,
                0.43143650848636633,
                -0.11466005331190114
            ]
        },
        {
            "positions": [
                2.6168814229122948,
                -2.4323851147690974,
                -1.7341017605529947,
                0.9336409033108566,
                0.38852125822326466,
                -0.24256332912027065
            ]
        },
        {
            "positions": [
                2.5817269908158456,
                -2.3949867178163755,
                -1.7829612708507845,
                0.8919303153176594,
                0.34070437605138065,
                -0.4016875646971503
            ]
        },
        {
            "positions": [
                2.5465725587193964,
                -2.357588320863653,
                -1.8318207811485743,
                0.8502197273244622,
                0.29288749387949664,
                -0.5608118002740299
            ]
        },
        {
            "positions": [
                2.511418126622947,
                -2.3201899239109314,
                -1.880680291446364,
                0.808509139331265,
                0.24507061170761263,
                -0.7199360358509095
            ]
        },
        {
            "positions": [
                2.476263694526498,
                -2.282791526958209,
                -1.9295398017441538,
                0.7667985513380677,
                0.1972537295357286,
                -0.8790602714277891
            ]
        },
        {
            "positions": [
                2.4411092624300483,
                -2.2453931300054872,
                -1.9783993120419434,
                0.7250879633448706,
                0.14943684736384458,
                -1.0381845070046687
            ]
        },
        {
            "positions": [
                2.405954830333599,
                -2.207994733052765,
                -2.0272588223397334,
                0.6833773753516734,
                0.10161996519196059,
                -1.1973087425815483
            ]
        },
        {
            "positions": [
                2.37080039823715,
                -2.170596336100043,
                -2.076118332637523,
                0.6416667873584762,
                0.053803083020076525,
                -1.356432978158428
            ]
        },
        {
            "positions": [
                2.3356459661407007,
                -2.133197939147321,
                -2.124977842935313,
                0.5999561993652789,
                0.005986200848192513,
                -1.5155572137353075
            ]
        },
        {
            "positions": [
                2.3004915340442516,
                -2.095799542194599,
                -2.1738373532331026,
                0.5582456113720817,
                -0.041830681323691506,
                -1.674681449312187
            ]
        },
        {
            "positions": [
                2.217919733927755,
                -2.0424940251249555,
                -2.1984998965513296,
                0.5026885425168058,
                -0.005565381703436477,
                -1.6396097014584425
            ]
        },
        {
            "positions": [
                2.1353479338112584,
                -1.989188508055312,
                -2.2231624398695566,
                0.44713147366153,
                0.03069991791681856,
                -1.604537953604698
            ]
        },
        {
            "positions": [
                1.9969213001859305,
                -1.950783323734605,
                -2.1737597563452864,
                0.37823433329004397,
                0.050284905087805976,
                -1.5333725383223136
            ]
        },
        {
            "positions": [
                1.8584946665606026,
                -1.9123781394138983,
                -2.1243570728210157,
                0.309337192918558,
                0.06986989225879339,
                -1.4622071230399292
            ]
        },
        {
            "positions": [
                1.7200680329352744,
                -1.8739729550931914,
                -2.0749543892967455,
                0.240440052547072,
                0.08945487942978081,
                -1.3910417077575448
            ]
        },
        {
            "positions": [
                1.5816413993099465,
                -1.8355677707724845,
                -2.0255517057724752,
                0.17154291217558598,
                0.10903986660076824,
                -1.3198762924751604
            ]
        },
        {
            "positions": [
                1.4432147656846186,
                -1.7971625864517775,
                -1.9761490222482048,
                0.1026457718041,
                0.12862485377175564,
                -1.248710877192776
            ]
        },
        {
            "positions": [
                1.3047881320592905,
                -1.7587574021310708,
                -1.9267463387239345,
                0.033748631432613974,
                0.1482098409427431,
                -1.1775454619103916
            ]
        },
        {
            "positions": [
                1.1663614984339623,
                -1.7203522178103638,
                -1.877343655199664,
                -0.03514850893887206,
                0.1677948281137305,
                -1.1063800466280072
            ]
        },
        {
            "positions": [
                1.0279348648086346,
                -1.681947033489657,
                -1.8279409716753938,
                -0.10404564931035803,
                0.18737981528471792,
                -1.0352146313456227
            ]
        },
        {
            "positions": [
                0.8895082311833065,
                -1.6435418491689502,
                -1.7785382881511234,
                -0.17294278968184412,
                0.20696480245570534,
                -0.9640492160632385
            ]
        },
        {
            "positions": [
                0.7510815975579785,
                -1.6051366648482432,
                -1.7291356046268531,
                -0.24183993005333,
                0.22654978962669275,
                -0.892883800780854
            ]
        },
        {
            "positions": [
                0.6126549639326504,
                -1.5667314805275363,
                -1.6797329211025827,
                -0.3107370704248161,
                0.2461347767976802,
                -0.8217183854984697
            ]
        },
        {
            "positions": [
                0.4742283303073227,
                -1.5283262962068296,
                -1.6303302375783124,
                -0.37963421079630205,
                0.2657197639686676,
                -0.7505529702160852
            ]
        },
        {
            "positions": [
                0.3358016966819948,
                -1.4899211118861226,
                -1.5809275540540422,
                -0.44853135116778803,
                0.28530475113965503,
                -0.679387554933701
            ]
        },
        {
            "positions": [
                0.1973750630566664,
                -1.4515159275654157,
                -1.5315248705297715,
                -0.5174284915392742,
                0.3048897383106425,
                -0.6082221396513164
            ]
        },
        {
            "positions": [
                0.05894842943133849,
                -1.413110743244709,
                -1.4821221870055012,
                -0.5863256319107601,
                0.3244747254816299,
                -0.5370567243689321
            ]
        },
        {
            "positions": [
                -0.07947820419398921,
                -1.374705558924002,
                -1.432719503481231,
                -0.6552227722822461,
                0.34405971265261726,
                -0.46589130908654774
            ]
        },
        {
            "positions": [
                -0.21790483781931735,
                -1.336300374603295,
                -1.3833168199569608,
                -0.7241199126537321,
                0.3636446998236047,
                -0.39472589380416334
            ]
        },
        {
            "positions": [
                -0.3563314714446455,
                -1.2978951902825884,
                -1.33391413643269,
                -0.7930170530252183,
                0.38322968699459214,
                -0.32356047852177894
            ]
        },
        {
            "positions": [
                -0.4947581050699732,
                -1.2594900059618814,
                -1.2845114529084198,
                -0.8619141933967043,
                0.4028146741655796,
                -0.25239506323939453
            ]
        },
        {
            "positions": [
                -0.6331847386953013,
                -1.2210848216411745,
                -1.2351087693841496,
                -0.93081133376819,
                0.4223996613365669,
                -0.18122964795701013
            ]
        },
        {
            "positions": [
                -0.771611372320629,
                -1.1826796373204678,
                -1.1857060858598791,
                -0.999708474139676,
                0.44198464850755437,
                -0.11006423267462573
            ]
        },
        {
            "positions": [
                -0.9100380059459576,
                -1.1442744529997606,
                -1.1363034023356087,
                -1.0686056145111622,
                0.4615696356785418,
                -0.038898817392241325
            ]
        },
        {
            "positions": [
                -1.0484646395712853,
                -1.1058692686790539,
                -1.0869007188113384,
                -1.1375027548826482,
                0.4811546228495292,
                0.03226659789014308
            ]
        },
        {
            "positions": [
                -1.0511922417922928,
                -1.1069046342709195,
                -0.9039478357962565,
                -1.1216998990779374,
                0.4810356887457583,
                0.21683790794506633
            ]
        },
        {
            "positions": [
                -1.0539198440133004,
                -1.1079399998627852,
                -0.7209949527811746,
                -1.1058970432732267,
                0.48091675464198747,
                0.4014092179999896
            ]
        },
        {
            "positions": [
                -1.0566474462343078,
                -1.1089753654546508,
                -0.5380420697660927,
                -1.090094187468516,
                0.48079782053821657,
                0.5859805280549129
            ]
        },
        {
            "positions": [
                -1.0593750484553153,
                -1.1100107310465164,
                -0.35508918675101087,
                -1.074291331663805,
                0.48067888643444573,
                0.7705518381098361
            ]
        },
        {
            "positions": [
                -1.0621026506763227,
                -1.1110460966383822,
                -0.1721363037359288,
                -1.0584884758590942,
                0.48055995233067483,
                0.9551231481647593
            ]
        },
        {
            "positions": [
                -1.0648302528973304,
                -1.1120814622302477,
                0.010816579279153027,
                -1.0426856200543835,
                0.480441018226904,
                1.1396944582196826
            ]
        },
        {
            "positions": [
                -1.0675578551183378,
                -1.1131168278221133,
                0.19376946229423475,
                -1.0268827642496727,
                0.4803220841231331,
                1.3242657682746057
            ]
        },
        {
            "positions": [
                -1.0702854573393452,
                -1.114152193413979,
                0.3767223453093167,
                -1.011079908444962,
                0.48020315001936226,
                1.508837078329529
            ]
        },
        {
            "positions": [
                -1.0730130595603529,
                -1.1151875590058447,
                0.5596752283243989,
                -0.9952770526402511,
                0.48008421591559136,
                1.6934083883844522
            ]
        },
        {
            "positions": [
                -1.0757406617813603,
                -1.1162229245977104,
                0.7426281113394808,
                -0.9794741968355404,
                0.4799652818118205,
                1.8779796984393755
            ]
        },
        {
            "positions": [
                -1.0784682640023677,
                -1.117258290189576,
                0.9255809943545628,
                -0.9636713410308296,
                0.4798463477080496,
                2.0625510084942986
            ]
        },
        {
            "positions": [
                -1.0811958662233754,
                -1.1182936557814416,
                1.1085338773696445,
                -0.9478684852261188,
                0.4797274136042788,
                2.247122318549222
            ]
        },
        {
            "positions": [
                -1.0839234684443828,
                -1.1193290213733074,
                1.2914867603847262,
                -0.932065629421408,
                0.4796084795005079,
                2.431693628604145
            ]
        },
        {
            "positions": [
                -1.0866510706653902,
                -1.120364386965173,
                1.474439643399808,
                -0.9162627736166973,
                0.47948954539673705,
                2.6162649386590684
            ]
        },
        {
            "positions": [
                -1.0893786728863977,
                -1.1213997525570385,
                1.65739252641489,
                -0.9004599178119865,
                0.47937061129296615,
                2.8008362487139915
            ]
        },
        {
            "positions": [
                -1.0921062751074053,
                -1.1224351181489043,
                1.8403454094299718,
                -0.8846570620072758,
                0.4792516771891953,
                2.985407558768915
            ]
        },
        {
            "positions": [
                -1.0948338773284128,
                -1.1234704837407699,
                2.023298292445054,
                -0.8688542062025649,
                0.4791327430854244,
                3.169978868823838
            ]
        }
    ]
}