{
    "goal": {
        "global_pose": {
            "orientation": {
                "w": 0.5084816262002911,
                "x": -0.4908360881923452,
                "y": 0.5182115481033761,
                "z": -0.48164630358495003
            },
            "position": {
                "x": 0.5540239810943604,
                "y": -0.46912469901144505,
                "z": 0.16403168439865112
            }
        },
        "name": "move_to_storage_B"
    },
    "id": "SBL_move_to_storage_B_118",
    "joint_names": [
        "shoulder_pan_joint",
        "shoulder_lift_joint",
        "elbow_joint",
        "wrist_1_joint",
        "wrist_2_joint",
        "wrist_3_joint"
    ],
    "metrics": {
        "cart_traj_len": 4.7939010075404695,
        "distance_elbow_joint": 3.797317712434922,
        "distance_shoulder_lift_joint": 1.3587439497488676,
        "distance_shoulder_pan_joint": 3.994082334757632,
        "distance_wrist_1_joint": 1.8269985525395511,
        "distance_wrist_2_joint": 0.2087424892312127,
        "distance_wrist_3_joint": 3.1385314737902408,
        "smoothness": 0.10278099984707996,
        "time": 0.335413173,
        "traj_len": 3.7847610905448743,
        "weighted_distance": 4.757858814829805
    },
    "planner": "SBL",
    "start": {
        "state": {
            "elbow_joint": -1.6666013991110213,
            "shoulder_lift_joint": -2.479295265494141,
            "shoulder_pan_joint": 2.6606783912885628,
            "wrist_1_joint": 0.9897123657714939,
            "wrist_2_joint": 0.474351758749468,
            "wrist_3_joint": 0.013243222496468381
        }
    },
    "waypoints": [
        {
            "positions": [
                2.6606783912885628,
                -2.479295265494141,
                -1.6666013991110213,
                0.9897123657714939,
                0.474351758749468,
                0.013243222496468381
            ]
        },
        {
            "positions": [
                2.681941360516565,
                -2.4073213506820363,
                -1.68784289194044,
                0.9869972692313471,
                0.46960452904910954,
                0.16505795990358527
            ]
        },
        {
            "positions": [
                2.703204329744567,
                -2.3353474358699318,
                -1.7090843847698585,
                0.9842821726912003,
                0.4648572993487511,
                0.3168726973107021
            ]
        },
        {
            "positions": [
                2.7284463582960905,
                -2.2495712094500773,
                -1.7142211902984759,
                0.9533505302009119,
                0.4684823308023854,
                0.5010659248669931
            ]
        },
        {
            "positions": [
                2.753688386847614,
                -2.163794983030223,
                -1.7193579958270933,
                0.9224188877106233,
                0.4721073622560196,
                0.685259152423284
            ]
        },
        {
            "positions": [
                2.778930415399137,
                -2.0780187566103687,
                -1.7244948013557106,
                0.8914872452203348,
                0.4757323937096539,
                0.8694523799795749
            ]
        },
        {
            "positions": [
                2.7214667010019182,
                -2.023326159517045,
                -1.6864579798135206,
                0.8214122082368861,
                0.45128985319133424,
                0.9343827532963564
            ]
        },
        {
            "positions": [
                2.6640029866046997,
                -1.9686335624237206,
                -1.6484211582713306,
                0.7513371712534374,
                0.42684731267301457,
                0.9993131266131381
            ]
        },
        {
            "positions": [
                2.606539272207481,
                -1.9139409653303967,
                -1.6103843367291406,
                0.6812621342699886,
                0.40240477215469495,
                1.0642434999299195
            ]
        },
        {
            "positions": [
                2.549075557810262,
                -1.8592483682370726,
                -1.5723475151869506,
                0.6111870972865399,
                0.37796223163637527,
                1.1291738732467012
            ]
        },
        {
            "positions": [
                2.4275430427083227,
                -1.8346251331540127,
                -1.4527716143862348,
                0.5629046544847199,
                0.3809823240829191,
                1.1965939006813682
            ]
        },
        {
            "positions": [
                2.306010527606383,
                -1.8100018980709527,
                -1.333195713585519,
                0.5146222116829,
                0.3840024165294629,
                1.264013928116035
            ]
        },
        {
            "positions": [
                2.184478012504444,
                -1.7853786629878927,
                -1.2136198127848032,
                0.46633976888108014,
                0.3870225089760067,
                1.331433955550702
            ]
        },
        {
            "positions": [
                2.0629454974025045,
                -1.7607554279048327,
                -1.0940439119840875,
                0.41805732607926027,
                0.3900426014225505,
                1.398853982985369
            ]
        },
        {
            "positions": [
                1.941412982300565,
                -1.7361321928217728,
                -0.9744680111833719,
                0.36977488327744035,
                0.3930626938690943,
                1.4662740104200358
            ]
        },
        {
            "positions": [
                1.8198804671986255,
                -1.7115089577387128,
                -0.854892110382656,
                0.3214924404756204,
                0.39608278631563815,
                1.5336940378547028
            ]
        },
        {
            "positions": [
                1.698347952096686,
                -1.6868857226556528,
                -0.7353162095819403,
                0.27320999767380055,
                0.3991028787621819,
                1.6011140652893698
            ]
        },
        {
            "positions": [
                1.576815436994747,
                -1.6622624875725929,
                -0.6157403087812245,
                0.22492755487198063,
                0.40212297120872575,
                1.6685340927240366
            ]
        },
        {
            "positions": [
                1.4552829218928074,
                -1.637639252489533,
                -0.49616440798050876,
                0.17664511207016076,
                0.40514306365526953,
                1.7359541201587037
            ]
        },
        {
            "positions": [
                1.3337504067908679,
                -1.613016017406473,
                -0.3765885071797932,
                0.12836266926834083,
                0.40816315610181336,
                1.8033741475933707
            ]
        },
        {
            "positions": [
                1.2122178916889286,
                -1.588392782323413,
                -0.2570126063790774,
                0.08008022646652102,
                0.4111832485483572,
                1.8707941750280375
            ]
        },
        {
            "positions": [
                1.0906853765869888,
                -1.5637695472403528,
                -0.1374367055783614,
                0.031797783664700985,
                0.41420334099490097,
                1.9382142024627045
            ]
        },
        {
            "positions": [
                0.9691528614850495,
                -1.539146312157293,
                -0.017860804777645622,
                -0.01648465913711894,
                0.4172234334414448,
                2.0056342298973715
            ]
        },
        {
            "positions": [
                0.84762034638311,
                -1.5145230770742328,
                0.10171509602306994,
                -0.06476710193893875,
                0.4202435258879886,
                2.0730542573320383
            ]
        },
        {
            "positions": [
                0.7260878312811707,
                -1.489899841991173,
                0.22129099682378572,
                -0.11304954474075868,
                0.4232636183345324,
                2.1404742847667055
            ]
        },
        {
            "positions": [
                0.6045553161792314,
                -1.465276606908113,
                0.3408668976245015,
                -0.1613319875425786,
                0.42628371078107624,
                2.2078943122013723
            ]
        },
        {
            "positions": [
                0.4830228010772921,
                -1.4406533718250532,
                0.46044279842521707,
                -0.20961443034439842,
                0.42930380322762,
                2.275314339636039
            ]
        },
        {
            "positions": [
                0.3614902859753526,
                -1.416030136741993,
                0.5800186992259331,
                -0.25789687314621834,
                0.43232389567416385,
                2.3427343670707064
            ]
        },
        {
            "positions": [
                0.23995777087341308,
                -1.3914069016589332,
                0.6995946000266486,
                -0.30617931594803827,
                0.4353439881207076,
                2.4101543945053727
            ]
        },
        {
            "positions": [
                0.11842525577147356,
                -1.366783666575873,
                0.8191705008273642,
                -0.3544617587498582,
                0.43836408056725146,
                2.47757442194004
            ]
        },
        {
            "positions": [
                -0.003107259330465517,
                -1.3421604314928133,
                0.9387464016280802,
                -0.402744201551678,
                0.4413841730137953,
                2.544994449374707
            ]
        },
        {
            "positions": [
                -0.12463977443240504,
                -1.317537196409753,
                1.0583223024287958,
                -0.4510266443534978,
                0.44440426546033907,
                2.6124144768093736
            ]
        },
        {
            "positions": [
                -0.246172289534345,
                -1.2929139613266931,
                1.1778982032295118,
                -0.4993090871553181,
                0.4474243579068829,
                2.679834504244041
            ]
        },
        {
            "positions": [
                -0.3677048046362845,
                -1.2682907262436331,
                1.2974741040302278,
                -0.5475915299571379,
                0.45044445035342673,
                2.747254531678708
            ]
        },
        {
            "positions": [
                -0.4892373197382236,
                -1.2436674911605732,
                1.4170500048309433,
                -0.5958739727589577,
                0.4534645427999705,
                2.814674559113375
            ]
        },
        {
            "positions": [
                -0.6107698348401631,
                -1.2190442560775132,
                1.5366259056316594,
                -0.6441564155607777,
                0.45648463524651434,
                2.8820945865480416
            ]
        },
        {
            "positions": [
                -0.7323023499421026,
                -1.1944210209944532,
                1.656201806432375,
                -0.6924388583625976,
                0.4595047276930581,
                2.949514613982709
            ]
        },
        {
            "positions": [
                -0.8538348650440422,
                -1.1697977859113933,
                1.7757777072330905,
                -0.7407213011644174,
                0.46252482013960194,
                3.0169346414173757
            ]
        },
        {
            "positions": [
                -0.9753673801459812,
                -1.1451745508283333,
                1.8953536080338065,
                -0.7890037439662374,
                0.4655449125861457,
                3.0843546688520425
            ]
        },
        {
            "positions": [
                -1.096899895247921,
                -1.1205513157452733,
                2.014929508834522,
                -0.8372861867680572,
                0.46856500503268955,
                3.1517746962867093
            ]
        }
    ]
}