{
    "goal": {
        "global_pose": {
            "orientation": {
                "w": 0.5084816217422485,
                "x": -0.49083608388900757,
                "y": 0.5182115435600281,
                "z": -0.4816462993621826
            },
            "position": {
                "x": 0.5540239810943604,
                "y": 0.030875300988554955,
                "z": 0.16403168439865112
            }
        },
        "name": "move_to_storage_A"
    },
    "id": "SBL_move_to_storage_A_115",
    "joint_names": [
        "shoulder_pan_joint",
        "shoulder_lift_joint",
        "elbow_joint",
        "wrist_1_joint",
        "wrist_2_joint",
        "wrist_3_joint"
    ],
    "metrics": {
        "cart_traj_len": 0.35380353756167565,
        "distance_elbow_joint": 0.4528485104125046,
        "distance_shoulder_lift_joint": 0.23394961019541927,
        "distance_shoulder_pan_joint": 0.46416843268763086,
        "distance_wrist_1_joint": 0.25938000497201763,
        "distance_wrist_2_joint": 1.093294539711146,
        "distance_wrist_3_joint": 0.09247339319556636,
        "smoothness": 6.661338165333112e-16,
        "time": 0.19154502899999998,
        "traj_len": 1.6112462540450745,
        "weighted_distance": 2.0331590745066115
    },
    "planner": "SBL",
    "start": {
        "state": {
            "elbow_joint": 1.9715481507254546,
            "shoulder_lift_joint": -1.1394850672790213,
            "shoulder_pan_joint": 0.12281154597544902,
            "wrist_1_joint": -0.7804720171073349,
            "wrist_2_joint": 0.12958658322886563,
            "wrist_3_joint": -3.1924895760937617
        }
    },
    "waypoints": [
        {
            "positions": [
                0.12281154597544902,
                -1.1394850672790213,
                1.9715481507254546,
                -0.7804720171073349,
                0.12958658322886563,
                -3.1924895760937617
            ]
        },
        {
            "positions": [
                0.05650176987721604,
                -1.1729064401640812,
                2.036240795070098,
                -0.8175263035319089,
                0.2857715174733151,
                -3.179279091351538
            ]
        },
        {
            "positions": [
                -0.009808006221016935,
                -1.206327813049141,
                2.100933439414742,
                -0.8545805899564828,
                0.4419564517177645,
                -3.166068606609314
            ]
        },
        {
            "positions": [
                -0.0761177823192499,
                -1.239749185934201,
                2.1656260837593853,
                -0.8916348763810568,
                0.5981413859622139,
                -3.1528581218670904
            ]
        },
        {
            "positions": [
                -0.1424275584174829,
                -1.273170558819261,
                2.2303187281040286,
                -0.9286891628056307,
                0.7543263202066633,
                -3.1396476371248667
            ]
        },
        {
            "positions": [
                -0.2087373345157159,
                -1.3065919317043209,
                2.2950113724486725,
                -0.9657434492302046,
                0.9105112544511128,
                -3.126437152382643
            ]
        },
        {
            "positions": [
                -0.2750471106139488,
                -1.3400133045893807,
                2.359704016793316,
                -1.0027977356547786,
                1.0666961886955622,
                -3.113226667640419
            ]
        },
        {
            "positions": [
                -0.34135688671218184,
                -1.3734346774744406,
                2.4243966611379593,
                -1.0398520220793526,
                1.2228811229400116,
                -3.1000161828981954
            ]
        }
    ]
}