{
    "goal": {
        "global_pose": {
            "orientation": {
                "w": -0.00223480608172531,
                "x": 0.0024358444001904467,
                "y": 0.7094548369677653,
                "z": -0.704743149386269
            },
            "position": {
                "x": 0.6205249238014221,
                "y": -0.6371506643295288,
                "z": 0.19426114857196808
            }
        },
        "name": "move_to_magneteinheit_B"
    },
    "id": "SBL_move_to_magneteinheit_B_132",
    "joint_names": [
        "shoulder_pan_joint",
        "shoulder_lift_joint",
        "elbow_joint",
        "wrist_1_joint",
        "wrist_2_joint",
        "wrist_3_joint"
    ],
    "metrics": {
        "cart_traj_len": 1.507327909687743,
        "distance_elbow_joint": 0.9570884957895007,
        "distance_shoulder_lift_joint": 0.8549419189297828,
        "distance_shoulder_pan_joint": 1.6205591723704154,
        "distance_wrist_1_joint": 0.48964749847712197,
        "distance_wrist_2_joint": 1.5192780467018359,
        "distance_wrist_3_joint": 0.0410224484272262,
        "smoothness": 0.2686269235138323,
        "time": 0.270305391,
        "traj_len": 2.3414819197883814,
        "weighted_distance": 2.7520007308736845
    },
    "planner": "SBL",
    "start": {
        "state": {
            "elbow_joint": 2.6216224122426386,
            "shoulder_lift_joint": -1.4174107377796124,
            "shoulder_pan_joint": 0.7066234856936794,
            "wrist_1_joint": 1.9546482284002225,
            "wrist_2_joint": -0.7096286983471962,
            "wrist_3_joint": 0.005740856962016249
        }
    },
    "waypoints": [
        {
            "positions": [
                0.7066234856936794,
                -1.4174107377796124,
                2.6216224122426386,
                1.9546482284002225,
                -0.7096286983471962,
                0.005740856962016249
            ]
        },
        {
            "positions": [
                0.5559200012532837,
                -1.4297796350277774,
                2.5476193876374076,
                1.9170620066038504,
                -0.7427218718579047,
                0.010390207701885746
            ]
        },
        {
            "positions": [
                0.40521651681288795,
                -1.4421485322759426,
                2.473616363032176,
                1.8794757848074783,
                -0.7758150453686131,
                0.015039558441755243
            ]
        },
        {
            "positions": [
                0.25451303237249223,
                -1.454517429524108,
                2.3996133384269447,
                1.8418895630111065,
                -0.8089082188793215,
                0.01968890918162474
            ]
        },
        {
            "positions": [
                0.10380954793209657,
                -1.466886326772273,
                2.3256103138217137,
                1.8043033412147345,
                -0.84200139239003,
                0.024338259921494236
            ]
        },
        {
            "positions": [
                0.011287253876748143,
                -1.3936621149598072,
                2.2655124595154796,
                1.8351490331503375,
                -0.968083697177212,
                0.022299619424426216
            ]
        },
        {
            "positions": [
                -0.08123504017860028,
                -1.3204379031473417,
                2.205414605209245,
                1.8659947250859406,
                -1.094166001964394,
                0.020260978927358196
            ]
        },
        {
            "positions": [
                -0.17375733423394868,
                -1.247213691334876,
                2.145316750903011,
                1.8968404170215436,
                -1.220248306751576,
                0.01822233843029018
            ]
        },
        {
            "positions": [
                -0.26627962828929713,
                -1.1739894795224104,
                2.085218896596777,
                1.9276861089571469,
                -1.346330611538758,
                0.016183697933222156
            ]
        },
        {
            "positions": [
                -0.35880192234464553,
                -1.1007652677099447,
                2.025121042290543,
                1.95853180089275,
                -1.47241291632594,
                0.01414505743615414
            ]
        },
        {
            "positions": [
                -0.4513242163999939,
                -1.027541055897479,
                1.9650231879843088,
                1.989377492828353,
                -1.598495221113122,
                0.012106416939086121
            ]
        },
        {
            "positions": [
                -0.5438465104553425,
                -0.9543168440850134,
                1.9049253336780745,
                2.0202231847639562,
                -1.724577525900304,
                0.010067776442018101
            ]
        },
        {
            "positions": [
                -0.6363688045106908,
                -0.8810926322725476,
                1.8448274793718404,
                2.051068876699559,
                -1.8506598306874862,
                0.00802913594495008
            ]
        },
        {
            "positions": [
                -0.7288910985660393,
                -0.807868420460082,
                1.7847296250656062,
                2.0819145686351623,
                -1.9767421354746681,
                0.00599049544788206
            ]
        },
        {
            "positions": [
                -0.8214133926213876,
                -0.7346442086476164,
                1.724631770759372,
                2.112760260570765,
                -2.10282444026185,
                0.003951854950814043
            ]
        },
        {
            "positions": [
                -0.9139356866767362,
                -0.6614199968351507,
                1.6645339164531379,
                2.1436059525063684,
                -2.228906745049032,
                0.0019132144537460228
            ]
        }
    ]
}