{
    "goal": {
        "global_pose": {
            "orientation": {
                "w": 0.005598929693374612,
                "x": 0.007748599140229565,
                "y": 0.7110244013736278,
                "z": -0.7031023480610252
            },
            "position": {
                "x": -0.8858502320852131,
                "y": -0.7141253447532654,
                "z": 0.3711530566215515
            }
        },
        "name": "move_to_auspresseinheit_C"
    },
    "id": "SBL_move_to_auspresseinheit_C_136",
    "joint_names": [
        "shoulder_pan_joint",
        "shoulder_lift_joint",
        "elbow_joint",
        "wrist_1_joint",
        "wrist_2_joint",
        "wrist_3_joint"
    ],
    "metrics": {
        "cart_traj_len": 0.4941607791514398,
        "distance_elbow_joint": 1.0099323010697319,
        "distance_shoulder_lift_joint": 0.32970260512980476,
        "distance_shoulder_pan_joint": 0.25661416494270783,
        "distance_wrist_1_joint": 0.6950810328804217,
        "distance_wrist_2_joint": 1.3157729387209662,
        "distance_wrist_3_joint": 0.0728863823027468,
        "smoothness": 6.459479416000911e-16,
        "time": 0.398188025,
        "traj_len": 1.9183298530352855,
        "weighted_distance": 2.415908972054465
    },
    "planner": "SBL",
    "start": {
        "state": {
            "elbow_joint": 1.7527959577737207,
            "shoulder_lift_joint": -0.9740617694225068,
            "shoulder_pan_joint": -2.967991417825858,
            "wrist_1_joint": -0.759517768980727,
            "wrist_2_joint": 1.7443932448377408,
            "wrist_3_joint": -3.0840537646736568
        }
    },
    "waypoints": [
        {
            "positions": [
                -2.967991417825858,
                -0.9740617694225068,
                1.7527959577737207,
                -0.759517768980727,
                1.7443932448377408,
                -3.0840537646736568
            ]
        },
        {
            "positions": [
                -2.9423300013315874,
                -0.9410915089095263,
                1.6518027276667475,
                -0.6900096656926848,
                1.6128159509656441,
                -3.0913424029039316
            ]
        },
        {
            "positions": [
                -2.9166685848373164,
                -0.9081212483965458,
                1.5508094975597744,
                -0.6205015624046426,
                1.4812386570935476,
                -3.098631041134206
            ]
        },
        {
            "positions": [
                -2.8910071683430454,
                -0.8751509878835654,
                1.449816267452801,
                -0.5509934591166005,
                1.349661363221451,
                -3.1059196793644808
            ]
        },
        {
            "positions": [
                -2.865345751848775,
                -0.8421807273705848,
                1.3488230373458279,
                -0.4814853558285583,
                1.2180840693493544,
                -3.1132083175947556
            ]
        },
        {
            "positions": [
                -2.8396843353545043,
                -0.8092104668576043,
                1.2478298072388547,
                -0.41197725254051615,
                1.0865067754772577,
                -3.12049695582503
            ]
        },
        {
            "positions": [
                -2.8140229188602333,
                -0.7762402063446239,
                1.1468365771318816,
                -0.342469149252474,
                0.9549294816051611,
                -3.1277855940553048
            ]
        },
        {
            "positions": [
                -2.7883615023659623,
                -0.7432699458316434,
                1.0458433470249084,
                -0.2729610459644318,
                0.8233521877330645,
                -3.1350742322855796
            ]
        },
        {
            "positions": [
                -2.7627000858716917,
                -0.7102996853186629,
                0.9448501169179351,
                -0.20345294267638958,
                0.6917748938609678,
                -3.1423628705158544
            ]
        },
        {
            "positions": [
                -2.737038669377421,
                -0.6773294248056825,
                0.8438568868109619,
                -0.13394483938834745,
                0.5601975999888711,
                -3.1496515087461288
            ]
        },
        {
            "positions": [
                -2.71137725288315,
                -0.644359164292702,
                0.7428636567039887,
                -0.06443673610030527,
                0.4286203061167746,
                -3.1569401469764036
            ]
        }
    ]
}