{
    "goal": {
        "global_pose": {
            "orientation": {
                "w": 0.7047431493862688,
                "x": -0.7094548369677653,
                "y": 0.0024358444001904,
                "z": -0.0022348060817251984
            },
            "position": {
                "x": -0.39052492380142206,
                "y": 0.3671506643295288,
                "z": 0.19426114857196808
            }
        },
        "name": "move_to_magneteinheit_D"
    },
    "id": "SBL_move_to_magneteinheit_D_50",
    "joint_names": [
        "shoulder_pan_joint",
        "shoulder_lift_joint",
        "elbow_joint",
        "wrist_1_joint",
        "wrist_2_joint",
        "wrist_3_joint"
    ],
    "metrics": {
        "cart_traj_len": 4.419291682368949,
        "distance_elbow_joint": 3.370903373445046,
        "distance_shoulder_lift_joint": 1.255140170355453,
        "distance_shoulder_pan_joint": 2.988274526340739,
        "distance_wrist_1_joint": 2.860379632637443,
        "distance_wrist_2_joint": 1.027529652296084,
        "distance_wrist_3_joint": 1.079929716892741,
        "smoothness": 0.660256453067081,
        "time": 0.313599139,
        "traj_len": 3.547133641684156,
        "weighted_distance": 4.316239774466488
    },
    "planner": "SBL",
    "start": {
        "state": {
            "elbow_joint": 0.749534889911806,
            "shoulder_lift_joint": -0.6476975780787326,
            "shoulder_pan_joint": -2.711696901376241,
            "wrist_1_joint": -0.07506478083263063,
            "wrist_2_joint": 0.43296659715538205,
            "wrist_3_joint": -3.14703540197715
        }
    },
    "waypoints": [
        {
            "positions": [
                -2.711696901376241,
                -0.6476975780787326,
                0.749534889911806,
                -0.07506478083263063,
                0.43296659715538205,
                -3.14703540197715
            ]
        },
        {
            "positions": [
                -2.7253602365201406,
                -0.6287832790798128,
                0.6894072318706502,
                0.010968037822305807,
                0.3362433416707878,
                -3.071592069502083
            ]
        },
        {
            "positions": [
                -2.73902357166404,
                -0.609868980080893,
                0.6292795738294945,
                0.09700085647724224,
                0.23952008618619355,
                -2.9961487370270166
            ]
        },
        {
            "positions": [
                -2.752686906807939,
                -0.590954681081973,
                0.5691519157883389,
                0.18303367513217866,
                0.14279683070159932,
                -2.92070540455195
            ]
        },
        {
            "positions": [
                -2.7663502419518387,
                -0.5720403820830532,
                0.5090242577471832,
                0.2690664937871151,
                0.04607357521700506,
                -2.845262072076883
            ]
        },
        {
            "positions": [
                -2.6464581234531543,
                -0.618723308637298,
                0.40055829826046885,
                0.176514807186892,
                0.027049357239422218,
                -2.8383096503499283
            ]
        },
        {
            "positions": [
                -2.52656600495447,
                -0.6654062351915428,
                0.2920923387737545,
                0.08396312058666888,
                0.008025139261839377,
                -2.831357228622973
            ]
        },
        {
            "positions": [
                -2.4066738864557857,
                -0.7120891617457876,
                0.18362637928704012,
                -0.008588566013554233,
                -0.01099907871574346,
                -2.8244048068960184
            ]
        },
        {
            "positions": [
                -2.2867817679571014,
                -0.7587720883000325,
                0.07516041980032578,
                -0.10114025261377735,
                -0.030023296693326304,
                -2.817452385169063
            ]
        },
        {
            "positions": [
                -2.166889649458417,
                -0.8054550148542773,
                -0.03330553968638861,
                -0.19369193921400046,
                -0.04904751467090915,
                -2.8104999634421084
            ]
        },
        {
            "positions": [
                -2.046997530959733,
                -0.8521379414085222,
                -0.14177149917310294,
                -0.2862436258142236,
                -0.06807173264849198,
                -2.803547541715153
            ]
        },
        {
            "positions": [
                -1.9271054124610485,
                -0.898820867962767,
                -0.2502374586598174,
                -0.37879531241444675,
                -0.08709595062607484,
                -2.7965951199881984
            ]
        },
        {
            "positions": [
                -1.8072132939623644,
                -0.9455037945170117,
                -0.3587034181465316,
                -0.4713469990146698,
                -0.10612016860365767,
                -2.7896426982612437
            ]
        },
        {
            "positions": [
                -1.68732117546368,
                -0.9921867210712566,
                -0.46716937763324606,
                -0.563898685614893,
                -0.12514438658124052,
                -2.7826902765342885
            ]
        },
        {
            "positions": [
                -1.5674290569649958,
                -1.0388696476255013,
                -0.5756353371199604,
                -0.656450372215116,
                -0.14416860455882335,
                -2.7757378548073337
            ]
        },
        {
            "positions": [
                -1.4475369384663115,
                -1.0855525741797463,
                -0.6841012966066747,
                -0.7490020588153391,
                -0.1631928225364062,
                -2.7687854330803785
            ]
        },
        {
            "positions": [
                -1.3276448199676272,
                -1.132235500733991,
                -0.7925672560933891,
                -0.8415537454155623,
                -0.18221704051398901,
                -2.7618330113534237
            ]
        },
        {
            "positions": [
                -1.207752701468943,
                -1.1789184272882358,
                -0.9010332155801034,
                -0.9341054320157852,
                -0.20124125849157184,
                -2.7548805896264685
            ]
        },
        {
            "positions": [
                -1.0878605829702586,
                -1.2256013538424808,
                -1.0094991750668179,
                -1.0266571186160087,
                -0.22026547646915473,
                -2.7479281678995138
            ]
        },
        {
            "positions": [
                -0.9679684644715743,
                -1.2722842803967256,
                -1.1179651345535322,
                -1.1192088052162315,
                -0.2392896944467376,
                -2.7409757461725586
            ]
        },
        {
            "positions": [
                -0.8480763459728902,
                -1.3189672069509704,
                -1.2264310940402465,
                -1.2117604918164546,
                -0.2583139124243204,
                -2.734023324445604
            ]
        },
        {
            "positions": [
                -0.7281842274742059,
                -1.3656501335052151,
                -1.3348970535269609,
                -1.3043121784166778,
                -0.2773381304019032,
                -2.727070902718649
            ]
        },
        {
            "positions": [
                -0.6082921089755216,
                -1.41233306005946,
                -1.4433630130136752,
                -1.396863865016901,
                -0.2963623483794861,
                -2.720118480991694
            ]
        },
        {
            "positions": [
                -0.48839999047683724,
                -1.459015986613705,
                -1.5518289725003895,
                -1.4894155516171241,
                -0.3153865663570689,
                -2.713166059264739
            ]
        },
        {
            "positions": [
                -0.36850787197815293,
                -1.5056989131679495,
                -1.6602949319871039,
                -1.5819672382173473,
                -0.33441078433465177,
                -2.706213637537784
            ]
        },
        {
            "positions": [
                -0.24861575347946863,
                -1.5523818397221945,
                -1.7687608914738182,
                -1.67451892481757,
                -0.35343500231223457,
                -2.699261215810829
            ]
        },
        {
            "positions": [
                -0.12872363498078432,
                -1.5990647662764395,
                -1.8772268509605325,
                -1.7670706114177932,
                -0.3724592202898175,
                -2.692308794083874
            ]
        },
        {
            "positions": [
                -0.00883151648209982,
                -1.6457476928306842,
                -1.9856928104472469,
                -1.8596222980180164,
                -0.3914834382674003,
                -2.685356372356919
            ]
        },
        {
            "positions": [
                -0.01312893961920723,
                -1.6646058433651423,
                -2.110798689199271,
                -1.8672146496549047,
                -0.34757491737219137,
                -2.8105695804737008
            ]
        },
        {
            "positions": [
                -0.017426362756314637,
                -1.6834639938996006,
                -2.235904567951295,
                -1.8748070012917928,
                -0.3036663964769825,
                -2.9357827885904824
            ]
        },
        {
            "positions": [
                -0.021723785893422047,
                -1.7023221444340586,
                -2.361010446703319,
                -1.8823993529286809,
                -0.25975787558177366,
                -3.0609959967072644
            ]
        },
        {
            "positions": [
                -0.026021209030529457,
                -1.7211802949685167,
                -2.486116325455343,
                -1.8899917045655692,
                -0.21584935468656474,
                -3.186209204824046
            ]
        },
        {
            "positions": [
                -0.0789921316128539,
                -1.7312946487932868,
                -2.4410322727627105,
                -2.0090550911205733,
                -0.20670084358907598,
                -3.1470765865555848
            ]
        },
        {
            "positions": [
                -0.13196305419517834,
                -1.7414090026180566,
                -2.3959482200700783,
                -2.128118477675577,
                -0.19755233249158724,
                -3.107943968287124
            ]
        },
        {
            "positions": [
                -0.1849339767775028,
                -1.7515233564428268,
                -2.3508641673774457,
                -2.247181864230581,
                -0.18840382139409848,
                -3.0688113500186627
            ]
        }
    ]
}