{
    "goal": {
        "global_pose": {
            "orientation": {
                "w": 0.7031023502349854,
                "x": -0.7110244035720825,
                "y": 0.007748599164187908,
                "z": 0.005598929710686207
            },
            "position": {
                "x": 0.11585023208521307,
                "y": 0.44412534475326537,
                "z": 0.3711530566215515
            }
        },
        "name": "move_to_auspresseinheit_A"
    },
    "id": "SBL_move_to_auspresseinheit_A_149",
    "joint_names": [
        "shoulder_pan_joint",
        "shoulder_lift_joint",
        "elbow_joint",
        "wrist_1_joint",
        "wrist_2_joint",
        "wrist_3_joint"
    ],
    "metrics": {
        "cart_traj_len": 3.1638204377073693,
        "distance_elbow_joint": 1.8647985535433964,
        "distance_shoulder_lift_joint": 1.3634427054654714,
        "distance_shoulder_pan_joint": 5.762303820372058,
        "distance_wrist_1_joint": 2.749733322566625,
        "distance_wrist_2_joint": 4.094187063105684,
        "distance_wrist_3_joint": 4.3064407704026095,
        "smoothness": 0.8903303829925533,
        "time": 0.307388355,
        "traj_len": 4.487862100761991,
        "weighted_distance": 5.966381496513055
    },
    "planner": "SBL",
    "start": {
        "state": {
            "elbow_joint": 2.4225746658250005,
            "shoulder_lift_joint": -1.3736534386056498,
            "shoulder_pan_joint": -0.3378633547517467,
            "wrist_1_joint": -1.0288598680537169,
            "wrist_2_joint": 1.233022673432363,
            "wrist_3_joint": -3.0940220416140027
        }
    },
    "waypoints": [
        {
            "positions": [
                -0.3378633547517467,
                -1.3736534386056498,
                2.4225746658250005,
                -1.0288598680537169,
                1.233022673432363,
                -3.0940220416140027
            ]
        },
        {
            "positions": [
                -0.2665194862041034,
                -1.4415665166356806,
                2.39199823001841,
                -0.9656503754323933,
                1.227988322876505,
                -2.9944348852911418
            ]
        },
        {
            "positions": [
                -0.19517561765646,
                -1.5094795946657114,
                2.3614217942118194,
                -0.9024408828110697,
                1.2229539723206468,
                -2.8948477289682812
            ]
        },
        {
            "positions": [
                -0.12383174910881661,
                -1.5773926726957423,
                2.330845358405229,
                -0.8392313901897461,
                1.2179196217647887,
                -2.7952605726454203
            ]
        },
        {
            "positions": [
                -0.05248788056117326,
                -1.6453057507257731,
                2.300268922598639,
                -0.7760218975684225,
                1.2128852712089306,
                -2.6956734163225593
            ]
        },
        {
            "positions": [
                0.018855987986470146,
                -1.713218828755804,
                2.269692486792048,
                -0.712812404947099,
                1.2078509206530725,
                -2.5960862599996988
            ]
        },
        {
            "positions": [
                0.09019985653411353,
                -1.7811319067858347,
                2.2391160509854577,
                -0.6496029123257754,
                1.2028165700972144,
                -2.496499103676838
            ]
        },
        {
            "positions": [
                -0.02215385401381048,
                -1.8050561250801507,
                2.2028482034226236,
                -0.5915722276607799,
                1.2878551485646799,
                -2.4234030725903124
            ]
        },
        {
            "positions": [
                -0.1345075645617345,
                -1.8289803433744667,
                2.1665803558597894,
                -0.5335415429957845,
                1.3728937270321455,
                -2.350307041503787
            ]
        },
        {
            "positions": [
                -0.24686127510965847,
                -1.8529045616687827,
                2.1303125082969556,
                -0.475510858330789,
                1.457932305499611,
                -2.2772110104172616
            ]
        },
        {
            "positions": [
                -0.3592149856575825,
                -1.8768287799630987,
                2.0940446607341214,
                -0.41748017366579354,
                1.5429708839670764,
                -2.2041149793307366
            ]
        },
        {
            "positions": [
                -0.47156869620550645,
                -1.9007529982574147,
                2.0577768131712872,
                -0.3594494890007981,
                1.6280094624345418,
                -2.1310189482442112
            ]
        },
        {
            "positions": [
                -0.5839224067534304,
                -1.9246772165517307,
                2.021508965608453,
                -0.3014188043358026,
                1.7130480409020075,
                -2.057922917157686
            ]
        },
        {
            "positions": [
                -0.6962761173013545,
                -1.948601434846047,
                1.9852411180456193,
                -0.24338811967080715,
                1.798086619369473,
                -1.9848268860711604
            ]
        },
        {
            "positions": [
                -0.8086298278492785,
                -1.972525653140363,
                1.9489732704827851,
                -0.1853574350058117,
                1.8831251978369385,
                -1.911730854984635
            ]
        },
        {
            "positions": [
                -0.9209835383972025,
                -1.996449871434679,
                1.912705422919951,
                -0.1273267503408162,
                1.968163776304404,
                -1.8386348238981096
            ]
        },
        {
            "positions": [
                -1.0333372489451265,
                -2.020374089728995,
                1.876437575357117,
                -0.0692960656758208,
                2.0532023547718694,
                -1.7655387928115844
            ]
        },
        {
            "positions": [
                -1.1456909594930507,
                -2.0442983080233113,
                1.8401697277942828,
                -0.011265381010825193,
                2.1382409332393353,
                -1.692442761725059
            ]
        },
        {
            "positions": [
                -1.2580446700409744,
                -2.0682225263176273,
                1.8039018802314488,
                0.0467653036541702,
                2.2232795117068003,
                -1.6193467306385338
            ]
        },
        {
            "positions": [
                -1.3703983805888986,
                -2.0921467446119433,
                1.7676340326686146,
                0.1047959883191657,
                2.308318090174266,
                -1.5462506995520084
            ]
        },
        {
            "positions": [
                -1.4827520911368226,
                -2.1160709629062593,
                1.7313661851057807,
                0.1628266729841611,
                2.393356668641731,
                -1.473154668465483
            ]
        },
        {
            "positions": [
                -1.5951058016847466,
                -2.1399951812005753,
                1.6950983375429465,
                0.2208573576491566,
                2.478395247109197,
                -1.4000586373789576
            ]
        },
        {
            "positions": [
                -1.7074595122326706,
                -2.1639193994948913,
                1.6588304899801125,
                0.278888042314152,
                2.5634338255766624,
                -1.3269626062924325
            ]
        },
        {
            "positions": [
                -1.8198132227805948,
                -2.1878436177892073,
                1.6225626424172783,
                0.3369187269791475,
                2.648472404044128,
                -1.253866575205907
            ]
        },
        {
            "positions": [
                -1.9321669333285185,
                -2.2117678360835233,
                1.5862947948544441,
                0.394949411644143,
                2.7335109825115937,
                -1.1807705441193816
            ]
        },
        {
            "positions": [
                -2.0445206438764427,
                -2.2356920543778394,
                1.5500269472916102,
                0.4529800963091384,
                2.8185495609790587,
                -1.1076745130328562
            ]
        },
        {
            "positions": [
                -2.1568743544243665,
                -2.2596162726721554,
                1.5137590997287762,
                0.5110107809741338,
                2.9035881394465246,
                -1.034578481946331
            ]
        },
        {
            "positions": [
                -2.2692280649722907,
                -2.2835404909664714,
                1.477491252165942,
                0.5690414656391294,
                2.98862671791399,
                -0.9614824508598057
            ]
        },
        {
            "positions": [
                -2.1543070512799485,
                -2.2663322999052355,
                1.5140446037158526,
                0.5231447543723725,
                2.9008174665660467,
                -1.0432631627030378
            ]
        },
        {
            "positions": [
                -2.0393860375876067,
                -2.2491241088439993,
                1.5505979552657632,
                0.4772480431056156,
                2.8130082152181033,
                -1.1250438745462696
            ]
        },
        {
            "positions": [
                -1.9244650238952645,
                -2.2319159177827634,
                1.587151306815674,
                0.43135133183885865,
                2.7251989638701595,
                -1.2068245863895015
            ]
        },
        {
            "positions": [
                -1.8095440102029225,
                -2.2147077267215276,
                1.6237046583655845,
                0.3854546205721018,
                2.637389712522216,
                -1.2886052982327336
            ]
        },
        {
            "positions": [
                -1.6946229965105803,
                -2.1974995356602918,
                1.660258009915495,
                0.3395579093053448,
                2.5495804611742727,
                -1.3703860100759657
            ]
        },
        {
            "positions": [
                -1.5797019828182384,
                -2.1802913445990555,
                1.696811361465406,
                0.2936611980385879,
                2.4617712098263294,
                -1.4521667219191976
            ]
        },
        {
            "positions": [
                -1.4647809691258962,
                -2.1630831535378197,
                1.7333647130153165,
                0.247764486771831,
                2.373961958478386,
                -1.5339474337624295
            ]
        },
        {
            "positions": [
                -1.3498599554335544,
                -2.145874962476584,
                1.769918064565227,
                0.20186777550507412,
                2.2861527071304426,
                -1.6157281456056616
            ]
        },
        {
            "positions": [
                -1.2349389417412122,
                -2.1286667714153475,
                1.8064714161151376,
                0.1559710642383172,
                2.1983434557824992,
                -1.6975088574488937
            ]
        },
        {
            "positions": [
                -1.12001792804887,
                -2.1114585803541117,
                1.8430247676650482,
                0.11007435297156026,
                2.1105342044345554,
                -1.7792895692921256
            ]
        },
        {
            "positions": [
                -1.0050969143565283,
                -2.094250389292876,
                1.879578119214959,
                0.06417764170480345,
                2.022724953086612,
                -1.8610702811353574
            ]
        },
        {
            "positions": [
                -0.8901759006641861,
                -2.0770421982316396,
                1.9161314707648696,
                0.01828093043804646,
                1.9349157017386687,
                -1.9428509929785895
            ]
        },
        {
            "positions": [
                -0.7752548869718441,
                -2.0598340071704038,
                1.9526848223147801,
                -0.027615780828710412,
                1.8471064503907253,
                -2.0246317048218216
            ]
        },
        {
            "positions": [
                -0.6603338732795019,
                -2.042625816109168,
                1.989238173864691,
                -0.0735124920954674,
                1.7592971990427817,
                -2.1064124166650533
            ]
        },
        {
            "positions": [
                -0.5454128595871599,
                -2.025417625047932,
                2.0257915254146015,
                -0.11940920336222427,
                1.6714879476948383,
                -2.1881931285082854
            ]
        },
        {
            "positions": [
                -0.4304918458948179,
                -2.008209433986696,
                2.062344876964512,
                -0.16530591462898114,
                1.583678696346895,
                -2.2699738403515175
            ]
        },
        {
            "positions": [
                -0.3155708322024757,
                -1.99100124292546,
                2.0988982285144226,
                -0.21120262589573813,
                1.4958694449989514,
                -2.3517545521947496
            ]
        },
        {
            "positions": [
                -0.20064981851013375,
                -1.9737930518642242,
                2.135451580064333,
                -0.257099337162495,
                1.408060193651008,
                -2.4335352640379817
            ]
        },
        {
            "positions": [
                -0.08572880481779199,
                -1.956584860802988,
                2.172004931614244,
                -0.3029960484292519,
                1.3202509423030646,
                -2.5153159758812134
            ]
        },
        {
            "positions": [
                0.02919220887455065,
                -1.939376669741752,
                2.2085582831641544,
                -0.34889275969600886,
                1.232441690955121,
                -2.5970966877244455
            ]
        },
        {
            "positions": [
                0.1441132225668924,
                -1.9221684786805162,
                2.245111634714065,
                -0.39478947096276573,
                1.1446324396071776,
                -2.6788773995676776
            ]
        },
        {
            "positions": [
                0.25903423625923416,
                -1.9049602876192802,
                2.281664986263976,
                -0.4406861822295225,
                1.0568231882592343,
                -2.760658111410909
            ]
        },
        {
            "positions": [
                0.3739552499515768,
                -1.887752096558044,
                2.3182183378138865,
                -0.4865828934962797,
                0.9690139369112907,
                -2.8424388232541418
            ]
        },
        {
            "positions": [
                0.4888762636439186,
                -1.8705439054968083,
                2.354771689363797,
                -0.5324796047630365,
                0.8812046855633475,
                -2.9242195350973734
            ]
        },
        {
            "positions": [
                0.5972304431257102,
                -1.8908234393143015,
                2.3759890407070383,
                -0.5073241455272304,
                0.7958302957617889,
                -3.029801582802796
            ]
        },
        {
            "positions": [
                0.7055846226075017,
                -1.911102973131795,
                2.39720639205028,
                -0.4821686862914242,
                0.7104559059602301,
                -3.1353836305082186
            ]
        }
    ]
}