{
    "goal": {
        "global_pose": {
            "orientation": {
                "w": 0.7047431493862688,
                "x": -0.7094548369677653,
                "y": 0.0024358444001904,
                "z": -0.0022348060817251984
            },
            "position": {
                "x": -0.39052492380142206,
                "y": 0.3671506643295288,
                "z": 0.19426114857196808
            }
        },
        "name": "move_to_magneteinheit_D"
    },
    "id": "SBL_move_to_magneteinheit_D_118",
    "joint_names": [
        "shoulder_pan_joint",
        "shoulder_lift_joint",
        "elbow_joint",
        "wrist_1_joint",
        "wrist_2_joint",
        "wrist_3_joint"
    ],
    "metrics": {
        "cart_traj_len": 4.6406533128571965,
        "distance_elbow_joint": 3.1353042727065703,
        "distance_shoulder_lift_joint": 1.3001229937906282,
        "distance_shoulder_pan_joint": 3.0583236657590116,
        "distance_wrist_1_joint": 2.9947668004181076,
        "distance_wrist_2_joint": 0.8353430768475182,
        "distance_wrist_3_joint": 2.0614562134620376,
        "smoothness": 0.5688514708239997,
        "time": 0.46705424100000004,
        "traj_len": 3.6585949520251453,
        "weighted_distance": 4.619344036459459
    },
    "planner": "SBL",
    "start": {
        "state": {
            "elbow_joint": 0.749534889911806,
            "shoulder_lift_joint": -0.6476975780787326,
            "shoulder_pan_joint": -2.711696901376241,
            "wrist_1_joint": -0.07506478083263063,
            "wrist_2_joint": 0.43296659715538205,
            "wrist_3_joint": -3.14703540197715
        }
    },
    "waypoints": [
        {
            "positions": [
                -2.711696901376241,
                -0.6476975780787326,
                0.749534889911806,
                -0.07506478083263063,
                0.43296659715538205,
                -3.14703540197715
            ]
        },
        {
            "positions": [
                -2.715271910348489,
                -0.6991001064435703,
                0.7499891032703122,
                -0.018450178304689688,
                0.46166078861592424,
                -2.9897872909799634
            ]
        },
        {
            "positions": [
                -2.718846919320737,
                -0.7505026348084081,
                0.7504433166288185,
                0.03816442422325125,
                0.4903549800764664,
                -2.832539179982777
            ]
        },
        {
            "positions": [
                -2.7224219282929853,
                -0.8019051631732458,
                0.7508975299873248,
                0.09477902675119221,
                0.5190491715370086,
                -2.67529106898559
            ]
        },
        {
            "positions": [
                -2.7259969372652333,
                -0.8533076915380835,
                0.7513517433458311,
                0.15139362927913314,
                0.5477433629975508,
                -2.5180429579884036
            ]
        },
        {
            "positions": [
                -2.610681826550028,
                -0.8904747873647741,
                0.6652416415281686,
                0.05348817528543286,
                0.5207042090234226,
                -2.4991498348633043
            ]
        },
        {
            "positions": [
                -2.4953667158348223,
                -0.9276418831914648,
                0.5791315397105061,
                -0.04441727870826742,
                0.4936650550492946,
                -2.480256711738205
            ]
        },
        {
            "positions": [
                -2.380051605119617,
                -0.9648089790181555,
                0.49302143789284364,
                -0.1423227327019677,
                0.4666259010751665,
                -2.461363588613106
            ]
        },
        {
            "positions": [
                -2.2647364944044117,
                -1.001976074844846,
                0.40691133607518115,
                -0.24022818669566798,
                0.4395867471010384,
                -2.4424704654880065
            ]
        },
        {
            "positions": [
                -2.149421383689206,
                -1.0391431706715368,
                0.32080123425751866,
                -0.33813364068936824,
                0.41254759312691025,
                -2.4235773423629072
            ]
        },
        {
            "positions": [
                -2.0341062729740007,
                -1.0763102664982276,
                0.23469113243985618,
                -0.43603909468306856,
                0.3855084391527822,
                -2.404684219237808
            ]
        },
        {
            "positions": [
                -1.9187911622587952,
                -1.1134773623249181,
                0.14858103062219363,
                -0.5339445486767689,
                0.35846928517865406,
                -2.3857910961127087
            ]
        },
        {
            "positions": [
                -1.8034760515435897,
                -1.1506444581516089,
                0.0624709288045312,
                -0.6318500026704691,
                0.33143013120452597,
                -2.3668979729876094
            ]
        },
        {
            "positions": [
                -1.6881609408283844,
                -1.1878115539782996,
                -0.023639173013131343,
                -0.7297554566641694,
                0.3043909772303979,
                -2.34800484986251
            ]
        },
        {
            "positions": [
                -1.572845830113179,
                -1.2249786498049902,
                -0.10974927483079377,
                -0.8276609106578696,
                0.2773518232562698,
                -2.329111726737411
            ]
        },
        {
            "positions": [
                -1.4575307193979734,
                -1.262145745631681,
                -0.19585937664845632,
                -0.9255663646515699,
                0.25031266928214163,
                -2.3102186036123116
            ]
        },
        {
            "positions": [
                -1.3422156086827681,
                -1.2993128414583714,
                -0.28196947846611875,
                -1.0234718186452703,
                0.2232735153080136,
                -2.2913254804872127
            ]
        },
        {
            "positions": [
                -1.2269004979675626,
                -1.3364799372850622,
                -0.3680795802837812,
                -1.1213772726389704,
                0.1962343613338855,
                -2.2724323573621135
            ]
        },
        {
            "positions": [
                -1.1115853872523571,
                -1.373647033111753,
                -0.45418968210144384,
                -1.219282726632671,
                0.16919520735975735,
                -2.253539234237014
            ]
        },
        {
            "positions": [
                -0.9962702765371516,
                -1.4108141289384435,
                -0.5402997839191063,
                -1.317188180626371,
                0.14215605338562926,
                -2.234646111111915
            ]
        },
        {
            "positions": [
                -0.8809551658219463,
                -1.447981224765134,
                -0.6264098857367687,
                -1.4150936346200713,
                0.11511689941150116,
                -2.2157529879868156
            ]
        },
        {
            "positions": [
                -0.765640055106741,
                -1.4851483205918248,
                -0.7125199875544311,
                -1.5129990886137716,
                0.08807774543737307,
                -2.1968598648617164
            ]
        },
        {
            "positions": [
                -0.6503249443915355,
                -1.5223154164185155,
                -0.7986300893720938,
                -1.610904542607472,
                0.06103859146324492,
                -2.177966741736617
            ]
        },
        {
            "positions": [
                -0.5350098336763298,
                -1.5594825122452063,
                -0.8847401911897562,
                -1.7088099966011723,
                0.033999437489116824,
                -2.159073618611518
            ]
        },
        {
            "positions": [
                -0.41969472296112453,
                -1.5966496080718968,
                -0.9708502930074187,
                -1.8067154505948724,
                0.006960283514988785,
                -2.1401804954864185
            ]
        },
        {
            "positions": [
                -0.30437961224591925,
                -1.6338167038985874,
                -1.0569603948250812,
                -1.9046209045885727,
                -0.020078870459139364,
                -2.1212873723613193
            ]
        },
        {
            "positions": [
                -0.18906450153071352,
                -1.670983799725278,
                -1.1430704966427436,
                -2.002526358582273,
                -0.047118024433267514,
                -2.10239424923622
            ]
        },
        {
            "positions": [
                -0.07374939081550826,
                -1.7081508955519689,
                -1.2291805984604063,
                -2.100431812575973,
                -0.0741571784073955,
                -2.0835011261111207
            ]
        },
        {
            "positions": [
                -0.05383056885396212,
                -1.6945215178625654,
                -1.3909214552216411,
                -2.1501379991611755,
                -0.08117896799582483,
                -2.2241056055526505
            ]
        },
        {
            "positions": [
                -0.03391174689241599,
                -1.680892140173162,
                -1.5526623119828762,
                -2.1998441857463775,
                -0.08820075758425416,
                -2.3647100849941807
            ]
        },
        {
            "positions": [
                -0.01399292493086985,
                -1.6672627624837586,
                -1.714403168744111,
                -2.24955037233158,
                -0.09522254717268351,
                -2.5053145644357104
            ]
        },
        {
            "positions": [
                0.00592589703067628,
                -1.653633384794355,
                -1.8761440255053459,
                -2.2992565589167824,
                -0.10224433676111284,
                -2.6459190438772406
            ]
        },
        {
            "positions": [
                0.025844718992222418,
                -1.6400040071049515,
                -2.0378848822665807,
                -2.348962745501985,
                -0.10926612634954219,
                -2.7865235233187704
            ]
        },
        {
            "positions": [
                0.045763540953768556,
                -1.6263746294155481,
                -2.199625739027816,
                -2.398668932087187,
                -0.11628791593797153,
                -2.9271280027603
            ]
        },
        {
            "positions": [
                0.06568236291531471,
                -1.6127452517261447,
                -2.361366595789051,
                -2.448375118672389,
                -0.12330970552640086,
                -3.0677324822018304
            ]
        },
        {
            "positions": [
                -0.060489801929421494,
                -1.6848772679719286,
                -2.3509820557202197,
                -2.3641052974949788,
                -0.1480663267670996,
                -3.060887191449181
            ]
        },
        {
            "positions": [
                -0.1866619667741577,
                -1.7570092842177125,
                -2.340597515651388,
                -2.2798354763175683,
                -0.17282294800779835,
                -3.054041900696532
            ]
        }
    ]
}