{
    "goal": {
        "global_pose": {
            "orientation": {
                "w": 0.005598929693374612,
                "x": 0.007748599140229565,
                "y": 0.7110244013736278,
                "z": -0.7031023480610252
            },
            "position": {
                "x": -0.8858502320852131,
                "y": -0.7141253447532654,
                "z": 0.3711530566215515
            }
        },
        "name": "move_to_auspresseinheit_C"
    },
    "id": "SBL_move_to_auspresseinheit_C_43",
    "joint_names": [
        "shoulder_pan_joint",
        "shoulder_lift_joint",
        "elbow_joint",
        "wrist_1_joint",
        "wrist_2_joint",
        "wrist_3_joint"
    ],
    "metrics": {
        "cart_traj_len": 0.4926767072967415,
        "distance_elbow_joint": 0.9957783060177611,
        "distance_shoulder_lift_joint": 0.32362482304815177,
        "distance_shoulder_pan_joint": 0.2557181317197368,
        "distance_wrist_1_joint": 0.6614278630619717,
        "distance_wrist_2_joint": 1.3201814484993806,
        "distance_wrist_3_joint": 0.045053681483520513,
        "smoothness": 6.459479427736914e-16,
        "time": 0.35381852,
        "traj_len": 1.8978367300246146,
        "weighted_distance": 2.381911192374501
    },
    "planner": "SBL",
    "start": {
        "state": {
            "elbow_joint": 1.7527959577737207,
            "shoulder_lift_joint": -0.9740617694225068,
            "shoulder_pan_joint": -2.967991417825858,
            "wrist_1_joint": -0.759517768980727,
            "wrist_2_joint": 1.7443932448377408,
            "wrist_3_joint": -3.0840537646736568
        }
    },
    "waypoints": [
        {
            "positions": [
                -2.967991417825858,
                -0.9740617694225068,
                1.7527959577737207,
                -0.759517768980727,
                1.7443932448377408,
                -3.0840537646736568
            ]
        },
        {
            "positions": [
                -2.9424196046538844,
                -0.9416992871176916,
                1.6532181271719446,
                -0.6933749826745298,
                1.6123750999878028,
                -3.088559132822009
            ]
        },
        {
            "positions": [
                -2.9168477914819104,
                -0.9093368048128764,
                1.5536402965701686,
                -0.6272321963683326,
                1.4803569551378648,
                -3.093064500970361
            ]
        },
        {
            "positions": [
                -2.891275978309937,
                -0.8769743225080613,
                1.4540624659683923,
                -0.5610894100621355,
                1.3483388102879266,
                -3.097569869118713
            ]
        },
        {
            "positions": [
                -2.8657041651379633,
                -0.8446118402032461,
                1.3544846353666162,
                -0.4949466237559383,
                1.2163206654379886,
                -3.102075237267065
            ]
        },
        {
            "positions": [
                -2.8401323519659893,
                -0.8122493578984309,
                1.2549068047648402,
                -0.42880383744974115,
                1.0843025205880505,
                -3.106580605415417
            ]
        },
        {
            "positions": [
                -2.814560538794016,
                -0.7798868755936157,
                1.155328974163064,
                -0.362661051143544,
                0.9522843757381125,
                -3.1110859735637693
            ]
        },
        {
            "positions": [
                -2.7889887256220423,
                -0.7475243932888005,
                1.055751143561288,
                -0.29651826483734683,
                0.8202662308881745,
                -3.115591341712121
            ]
        },
        {
            "positions": [
                -2.7634169124500687,
                -0.7151619109839853,
                0.9561733129595118,
                -0.2303754785311496,
                0.6882480860382363,
                -3.1200967098604733
            ]
        },
        {
            "positions": [
                -2.7378450992780947,
                -0.6827994286791701,
                0.8565954823577356,
                -0.16423269222495251,
                0.5562299411882983,
                -3.124602078008825
            ]
        },
        {
            "positions": [
                -2.712273286106121,
                -0.650436946374355,
                0.7570176517559596,
                -0.09808990591875534,
                0.42421179633836015,
                -3.1291074461571773
            ]
        }
    ]
}