{
    "goal": {
        "global_pose": {
            "orientation": {
                "w": 0.5084816262002911,
                "x": -0.4908360881923452,
                "y": 0.5182115481033761,
                "z": -0.48164630358495003
            },
            "position": {
                "x": 0.5540239810943604,
                "y": -0.46912469901144505,
                "z": 0.16403168439865112
            }
        },
        "name": "move_to_storage_B"
    },
    "id": "SBL_move_to_storage_B_140",
    "joint_names": [
        "shoulder_pan_joint",
        "shoulder_lift_joint",
        "elbow_joint",
        "wrist_1_joint",
        "wrist_2_joint",
        "wrist_3_joint"
    ],
    "metrics": {
        "cart_traj_len": 4.664356325251256,
        "distance_elbow_joint": 3.7298888279099787,
        "distance_shoulder_lift_joint": 1.3603616986727707,
        "distance_shoulder_pan_joint": 3.880385337249244,
        "distance_wrist_1_joint": 2.7804558975219793,
        "distance_wrist_2_joint": 0.08011679955274331,
        "distance_wrist_3_joint": 3.4851048031632907,
        "smoothness": 0.33310915793975576,
        "time": 0.362810101,
        "traj_len": 3.9136061840801006,
        "weighted_distance": 5.0146879930331965
    },
    "planner": "SBL",
    "start": {
        "state": {
            "elbow_joint": -1.6666013991110213,
            "shoulder_lift_joint": -2.479295265494141,
            "shoulder_pan_joint": 2.6606783912885628,
            "wrist_1_joint": 0.9897123657714939,
            "wrist_2_joint": 0.474351758749468,
            "wrist_3_joint": 0.013243222496468381
        }
    },
    "waypoints": [
        {
            "positions": [
                2.6606783912885628,
                -2.479295265494141,
                -1.6666013991110213,
                0.9897123657714939,
                0.474351758749468,
                0.013243222496468381
            ]
        },
        {
            "positions": [
                2.6811950681471988,
                -2.356620812623061,
                -1.6749393315290637,
                1.1489449220904373,
                0.48648906975177036,
                0.06914306979760843
            ]
        },
        {
            "positions": [
                2.7017117450058348,
                -2.2339463597519806,
                -1.683277263947106,
                1.3081774784093807,
                0.4986263807540728,
                0.12504291709874849
            ]
        },
        {
            "positions": [
                2.722228421864471,
                -2.1112719068809005,
                -1.6916151963651485,
                1.467410034728324,
                0.5107636917563751,
                0.18094276439988854
            ]
        },
        {
            "positions": [
                2.616149663345767,
                -2.083706952990358,
                -1.5887020010691526,
                1.4034445283792922,
                0.5095496676856575,
                0.08879261825378103
            ]
        },
        {
            "positions": [
                2.5100709048270633,
                -2.0561419990998155,
                -1.4857888057731568,
                1.3394790220302604,
                0.5083356436149398,
                -0.0033575278923264895
            ]
        },
        {
            "positions": [
                2.4039921463083593,
                -2.028577045209273,
                -1.382875610477161,
                1.2755135156812283,
                0.5071216195442221,
                -0.09550767403843402
            ]
        },
        {
            "positions": [
                2.297913387789656,
                -2.0010120913187306,
                -1.279962415181165,
                1.2115480093321964,
                0.5059075954735045,
                -0.18765782018454152
            ]
        },
        {
            "positions": [
                2.191834629270952,
                -1.973447137428188,
                -1.177049219885169,
                1.1475825029831646,
                0.5046935714027868,
                -0.27980796633064914
            ]
        },
        {
            "positions": [
                2.0857558707522483,
                -1.9458821835376454,
                -1.0741360245891731,
                1.0836169966341327,
                0.5034795473320691,
                -0.3719581124767566
            ]
        },
        {
            "positions": [
                1.9796771122335444,
                -1.918317229647103,
                -0.9712228292931773,
                1.0196514902851006,
                0.5022655232613514,
                -0.4641082586228642
            ]
        },
        {
            "positions": [
                1.8735983537148408,
                -1.8907522757565605,
                -0.8683096339971815,
                0.9556859839360689,
                0.5010514991906337,
                -0.5562584047689716
            ]
        },
        {
            "positions": [
                1.7675195951961369,
                -1.863187321866018,
                -0.7653964387011856,
                0.8917204775870369,
                0.4998374751199161,
                -0.6484085509150792
            ]
        },
        {
            "positions": [
                1.6614408366774331,
                -1.8356223679754753,
                -0.6624832434051897,
                0.8277549712380049,
                0.4986234510491984,
                -0.7405586970611868
            ]
        },
        {
            "positions": [
                1.5553620781587292,
                -1.8080574140849328,
                -0.5595700481091936,
                0.763789464888973,
                0.4974094269784808,
                -0.8327088432072943
            ]
        },
        {
            "positions": [
                1.4492833196400257,
                -1.7804924601943903,
                -0.456656852813198,
                0.6998239585399412,
                0.4961954029077631,
                -0.9248589893534017
            ]
        },
        {
            "positions": [
                1.343204561121322,
                -1.7529275063038479,
                -0.35374365751720216,
                0.6358584521909092,
                0.4949813788370454,
                -1.0170091354995092
            ]
        },
        {
            "positions": [
                1.237125802602618,
                -1.7253625524133054,
                -0.2508304622212061,
                0.5718929458418773,
                0.49376735476632777,
                -1.109159281645617
            ]
        },
        {
            "positions": [
                1.1310470440839142,
                -1.697797598522763,
                -0.14791726692521023,
                0.5079274394928454,
                0.4925533306956101,
                -1.2013094277917244
            ]
        },
        {
            "positions": [
                1.0249682855652107,
                -1.6702326446322204,
                -0.045004071629214604,
                0.4439619331438136,
                0.4913393066248924,
                -1.2934595739378318
            ]
        },
        {
            "positions": [
                0.9188895270465067,
                -1.642667690741678,
                0.05790912366678147,
                0.3799964267947815,
                0.49012528255417476,
                -1.3856097200839392
            ]
        },
        {
            "positions": [
                0.812810768527803,
                -1.6151027368511355,
                0.16082231896277732,
                0.31603092044574965,
                0.48891125848345707,
                -1.477759866230047
            ]
        },
        {
            "positions": [
                0.706732010009099,
                -1.587537782960593,
                0.2637355142587732,
                0.2520654140967178,
                0.4876972344127394,
                -1.5699100123761545
            ]
        },
        {
            "positions": [
                0.6006532514903955,
                -1.5599728290700503,
                0.366648709554769,
                0.1880999077476857,
                0.48648321034202174,
                -1.6620601585222623
            ]
        },
        {
            "positions": [
                0.49457449297169154,
                -1.5324078751795078,
                0.4695619048507649,
                0.12413440139865384,
                0.48526918627130405,
                -1.7542103046683697
            ]
        },
        {
            "positions": [
                0.3884957344529876,
                -1.5048429212889651,
                0.5724751001467612,
                0.06016889504962197,
                0.48405516220058636,
                -1.846360450814477
            ]
        },
        {
            "positions": [
                0.2824169759342845,
                -1.4772779673984229,
                0.6753882954427566,
                -0.003796611299409891,
                0.48284113812986873,
                -1.9385105969605845
            ]
        },
        {
            "positions": [
                0.17633821741558053,
                -1.4497130135078804,
                0.7783014907387524,
                -0.06776211764844176,
                0.48162711405915104,
                -2.030660743106692
            ]
        },
        {
            "positions": [
                0.07025945889687657,
                -1.4221480596173377,
                0.8812146860347483,
                -0.13172762399747362,
                0.48041308998843335,
                -2.1228108892527993
            ]
        },
        {
            "positions": [
                -0.03581929962182695,
                -1.3945831057267952,
                0.9841278813307441,
                -0.1956931303465057,
                0.4791990659177157,
                -2.214961035398907
            ]
        },
        {
            "positions": [
                -0.1418980581405309,
                -1.3670181518362527,
                1.08704107662674,
                -0.25965863669553757,
                0.477985041846998,
                -2.3071111815450145
            ]
        },
        {
            "positions": [
                -0.24797681665923488,
                -1.3394531979457103,
                1.1899542719227363,
                -0.32362414304456943,
                0.47677101777628034,
                -2.3992613276911223
            ]
        },
        {
            "positions": [
                -0.3540555751779384,
                -1.3118882440551678,
                1.2928674672187321,
                -0.3875896493936015,
                0.4755569937055627,
                -2.4914114738372297
            ]
        },
        {
            "positions": [
                -0.46013433369664236,
                -1.2843232901646253,
                1.395780662514728,
                -0.4515551557426334,
                0.474342969634845,
                -2.583561619983337
            ]
        },
        {
            "positions": [
                -0.5662130922153463,
                -1.2567583362740828,
                1.4986938578107238,
                -0.5155206620916652,
                0.4731289455641273,
                -2.675711766129445
            ]
        },
        {
            "positions": [
                -0.6722918507340494,
                -1.2291933823835404,
                1.6016070531067192,
                -0.5794861684406969,
                0.4719149214934097,
                -2.767861912275552
            ]
        },
        {
            "positions": [
                -0.7783706092527534,
                -1.201628428492998,
                1.7045202484027155,
                -0.643451674789729,
                0.470700897422692,
                -2.8600120584216597
            ]
        },
        {
            "positions": [
                -0.8844493677714573,
                -1.1740634746024554,
                1.8074334436987114,
                -0.7074171811387611,
                0.4694868733519743,
                -2.952162204567767
            ]
        },
        {
            "positions": [
                -0.9905281262901608,
                -1.1464985207119127,
                1.9103466389947072,
                -0.7713826874877927,
                0.4682728492812567,
                -3.044312350713875
            ]
        },
        {
            "positions": [
                -1.096606884808865,
                -1.1189335668213702,
                2.0132598342907033,
                -0.835348193836825,
                0.467058825210539,
                -3.1364624968599824
            ]
        }
    ]
}