{
    "goal": {
        "global_pose": {
            "orientation": {
                "w": 0.7031023502349854,
                "x": -0.7110244035720825,
                "y": 0.007748599164187908,
                "z": 0.005598929710686207
            },
            "position": {
                "x": 0.11585023208521307,
                "y": 0.44412534475326537,
                "z": 0.3711530566215515
            }
        },
        "name": "move_to_auspresseinheit_A"
    },
    "id": "SBL_move_to_auspresseinheit_A_105",
    "joint_names": [
        "shoulder_pan_joint",
        "shoulder_lift_joint",
        "elbow_joint",
        "wrist_1_joint",
        "wrist_2_joint",
        "wrist_3_joint"
    ],
    "metrics": {
        "cart_traj_len": 1.5300015506326288,
        "distance_elbow_joint": 0.7599906266045018,
        "distance_shoulder_lift_joint": 1.0920850027257358,
        "distance_shoulder_pan_joint": 1.8767267264146472,
        "distance_wrist_1_joint": 0.5533381665214214,
        "distance_wrist_2_joint": 0.5168692045737564,
        "distance_wrist_3_joint": 6.9090398284352474,
        "smoothness": 0.8383897899096381,
        "time": 0.289388922,
        "traj_len": 3.4217027274845653,
        "weighted_distance": 5.157163618040539
    },
    "planner": "SBL",
    "start": {
        "state": {
            "elbow_joint": 2.4225746658250005,
            "shoulder_lift_joint": -1.3736534386056498,
            "shoulder_pan_joint": -0.3378633547517467,
            "wrist_1_joint": -1.0288598680537169,
            "wrist_2_joint": 1.233022673432363,
            "wrist_3_joint": -3.0940220416140027
        }
    },
    "waypoints": [
        {
            "positions": [
                -0.3378633547517467,
                -1.3736534386056498,
                2.4225746658250005,
                -1.0288598680537169,
                1.233022673432363,
                -3.0940220416140027
            ]
        },
        {
            "positions": [
                -0.36751873771184196,
                -1.4318372544907716,
                2.3944342527154503,
                -1.011963754080689,
                1.2253795163356227,
                -2.848862708300517
            ]
        },
        {
            "positions": [
                -0.39717412067193714,
                -1.4900210703758934,
                2.3662938396059,
                -0.9950676401076612,
                1.2177363592388821,
                -2.6037033749870315
            ]
        },
        {
            "positions": [
                -0.4268295036320323,
                -1.5482048862610154,
                2.33815342649635,
                -0.9781715261346334,
                1.2100932021421418,
                -2.3585440416735457
            ]
        },
        {
            "positions": [
                -0.45648488659212755,
                -1.6063887021461372,
                2.3100130133867998,
                -0.9612754121616056,
                1.2024500450454014,
                -2.1133847083600603
            ]
        },
        {
            "positions": [
                -0.4861402695522228,
                -1.664572518031259,
                2.2818726002772496,
                -0.9443792981885777,
                1.194806887948661,
                -1.8682253750465743
            ]
        },
        {
            "positions": [
                -0.515795652512318,
                -1.7227563339163807,
                2.2537321871676994,
                -0.9274831842155499,
                1.1871637308519205,
                -1.6230660417330889
            ]
        },
        {
            "positions": [
                -0.5454510354724131,
                -1.7809401498015025,
                2.2255917740581497,
                -0.9105870702425221,
                1.1795205737551802,
                -1.377906708419603
            ]
        },
        {
            "positions": [
                -0.5751064184325083,
                -1.8391239656866243,
                2.1974513609485995,
                -0.8936909562694942,
                1.1718774166584398,
                -1.1327473751061174
            ]
        },
        {
            "positions": [
                -0.6047618013926036,
                -1.8973077815717463,
                2.1693109478390493,
                -0.8767948422964664,
                1.1642342595616992,
                -0.8875880417926316
            ]
        },
        {
            "positions": [
                -0.6344171843526988,
                -1.955491597456868,
                2.141170534729499,
                -0.8598987283234385,
                1.1565911024649589,
                -0.6424287084791458
            ]
        },
        {
            "positions": [
                -0.664072567312794,
                -2.01367541334199,
                2.113030121619949,
                -0.8430026143504108,
                1.1489479453682185,
                -0.3972693751656604
            ]
        },
        {
            "positions": [
                -0.6937279502728892,
                -2.071859229227112,
                2.084889708510399,
                -0.8261065003773829,
                1.1413047882714782,
                -0.15211004185217503
            ]
        },
        {
            "positions": [
                -0.7233833332329844,
                -2.1300430451122336,
                2.0567492954008486,
                -0.809210386404355,
                1.1336616311747376,
                0.09304929146131125
            ]
        },
        {
            "positions": [
                -0.7530387161930796,
                -2.1882268609973554,
                2.0286088822912984,
                -0.7923142724313272,
                1.1260184740779973,
                0.3382086247747966
            ]
        },
        {
            "positions": [
                -0.6656213646718742,
                -2.171781866427974,
                2.0511603989429603,
                -0.7731081949964006,
                1.1017759820199218,
                0.12850952906670846
            ]
        },
        {
            "positions": [
                -0.5782040131506686,
                -2.155336871858592,
                2.0737119155946218,
                -0.753902117561474,
                1.0775334899618465,
                -0.08118956664137966
            ]
        },
        {
            "positions": [
                -0.49078666162946316,
                -2.1388918772892107,
                2.0962634322462836,
                -0.7346960401265474,
                1.053290997903771,
                -0.2908886623494678
            ]
        },
        {
            "positions": [
                -0.40336931010825766,
                -2.122446882719829,
                2.1188149488979455,
                -0.7154899626916208,
                1.0290485058456955,
                -0.500587758057556
            ]
        },
        {
            "positions": [
                -0.31595195858705216,
                -2.1060018881504474,
                2.1413664655496074,
                -0.6962838852566942,
                1.0048060137876202,
                -0.7102868537656439
            ]
        },
        {
            "positions": [
                -0.22853460706584672,
                -2.089556893581066,
                2.1639179822012693,
                -0.6770778078217675,
                0.9805635217295448,
                -0.9199859494737321
            ]
        },
        {
            "positions": [
                -0.14111725554464116,
                -2.073111899011684,
                2.1864694988529307,
                -0.6578717303868409,
                0.9563210296714693,
                -1.1296850451818201
            ]
        },
        {
            "positions": [
                -0.05369990402343572,
                -2.0566669044423027,
                2.2090210155045926,
                -0.6386656529519144,
                0.9320785376133939,
                -1.3393841408899083
            ]
        },
        {
            "positions": [
                0.033717447497769726,
                -2.0402219098729213,
                2.2315725321562545,
                -0.6194595755169877,
                0.9078360455553185,
                -1.5490832365979965
            ]
        },
        {
            "positions": [
                0.12113479901897528,
                -2.0237769153035394,
                2.254124048807916,
                -0.6002534980820611,
                0.883593553497243,
                -1.7587823323060845
            ]
        },
        {
            "positions": [
                0.20855215054018073,
                -2.007331920734158,
                2.276675565459578,
                -0.5810474206471344,
                0.8593510614391676,
                -1.9684814280141727
            ]
        },
        {
            "positions": [
                0.29596950206138617,
                -1.9908869261647764,
                2.2992270821112397,
                -0.5618413432122078,
                0.8351085693810922,
                -2.178180523722261
            ]
        },
        {
            "positions": [
                0.3833868535825917,
                -1.9744419315953947,
                2.3217785987629016,
                -0.5426352657772813,
                0.8108660773230167,
                -2.387879619430349
            ]
        },
        {
            "positions": [
                0.4708042051037973,
                -1.9579969370260133,
                2.3443301154145635,
                -0.5234291883423545,
                0.7866235852649414,
                -2.597578715138437
            ]
        },
        {
            "positions": [
                0.5582215566250026,
                -1.9415519424566317,
                2.366881632066225,
                -0.504223110907428,
                0.762381093206866,
                -2.807277810846525
            ]
        },
        {
            "positions": [
                0.6456389081462082,
                -1.92510694788725,
                2.389433148717887,
                -0.48501703347250136,
                0.7381386011487905,
                -3.0169769065546133
            ]
        },
        {
            "positions": [
                0.7085126487802352,
                -1.9107152806633252,
                2.394633725362098,
                -0.4755217015322955,
                0.7161534688586066,
                -3.138600537271651
            ]
        }
    ]
}