{
    "goal": {
        "global_pose": {
            "orientation": {
                "w": 0.7031023480610252,
                "x": -0.7110244013736278,
                "y": 0.0077485991402295624,
                "z": 0.005598929693374583
            },
            "position": {
                "x": -0.8841497679147869,
                "y": 0.44412534475326537,
                "z": 0.3711530566215515
            }
        },
        "name": "move_to_auspresseinheit_D"
    },
    "id": "SBL_move_to_auspresseinheit_D_88",
    "joint_names": [
        "shoulder_pan_joint",
        "shoulder_lift_joint",
        "elbow_joint",
        "wrist_1_joint",
        "wrist_2_joint",
        "wrist_3_joint"
    ],
    "metrics": {
        "cart_traj_len": 0.34337498135862976,
        "distance_elbow_joint": 0.6420506288669796,
        "distance_shoulder_lift_joint": 0.12375720329991413,
        "distance_shoulder_pan_joint": 0.13435278927480662,
        "distance_wrist_1_joint": 0.5419527866175877,
        "distance_wrist_2_joint": 1.4367655139853697,
        "distance_wrist_3_joint": 0.01030817209702617,
        "smoothness": 3.9474596431116675e-16,
        "time": 0.249688618,
        "traj_len": 1.699760893226363,
        "weighted_distance": 2.2110001671050807
    },
    "planner": "SBL",
    "start": {
        "state": {
            "elbow_joint": -1.8275523626775212,
            "shoulder_lift_joint": -2.126789852344167,
            "shoulder_pan_joint": -0.03513704404078235,
            "wrist_1_joint": -2.347782403156801,
            "wrist_2_joint": -1.6058999987535132,
            "wrist_3_joint": -3.0880379163319196
        }
    },
    "waypoints": [
        {
            "positions": [
                -0.03513704404078235,
                -2.126789852344167,
                -1.8275523626775212,
                -2.347782403156801,
                -1.6058999987535132,
                -3.0880379163319196
            ]
        },
        {
            "positions": [
                -0.05193114270013317,
                -2.142259502756656,
                -1.7472960340691488,
                -2.4155265014839995,
                -1.426304309505342,
                -3.0867493948197913
            ]
        },
        {
            "positions": [
                -0.068725241359484,
                -2.1577291531691456,
                -1.6670397054607764,
                -2.4832705998111977,
                -1.2467086202571709,
                -3.085460873307663
            ]
        },
        {
            "positions": [
                -0.08551934001883482,
                -2.1731988035816348,
                -1.5867833768524038,
                -2.5510146981383963,
                -1.0671129310089995,
                -3.0841723517955346
            ]
        },
        {
            "positions": [
                -0.10231343867818565,
                -2.188668453994124,
                -1.5065270482440314,
                -2.6187587964655945,
                -0.8875172417608284,
                -3.0828838302834063
            ]
        },
        {
            "positions": [
                -0.11910753733753648,
                -2.204138104406613,
                -1.426270719635659,
                -2.686502894792793,
                -0.7079215525126572,
                -3.0815953087712784
            ]
        },
        {
            "positions": [
                -0.13590163599688732,
                -2.219607754819102,
                -1.3460143910272864,
                -2.7542469931199918,
                -0.5283258632644858,
                -3.08030678725915
            ]
        },
        {
            "positions": [
                -0.15269573465623815,
                -2.235077405231592,
                -1.265758062418914,
                -2.82199109144719,
                -0.3487301740163147,
                -3.0790182657470218
            ]
        },
        {
            "positions": [
                -0.16948983331558898,
                -2.250547055644081,
                -1.1855017338105416,
                -2.8897351897743886,
                -0.1691344847681435,
                -3.0777297442348934
            ]
        }
    ]
}