{
    "goal": {
        "global_pose": {
            "orientation": {
                "w": 0.7047431468963623,
                "x": -0.7094548344612122,
                "y": 0.0024358443915843964,
                "z": -0.0022348060738295317
            },
            "position": {
                "x": 0.6094750761985779,
                "y": 0.3671506643295288,
                "z": 0.19426114857196808
            }
        },
        "name": "move_to_magneteinheit_A"
    },
    "id": "SBL_move_to_magneteinheit_A_26",
    "joint_names": [
        "shoulder_pan_joint",
        "shoulder_lift_joint",
        "elbow_joint",
        "wrist_1_joint",
        "wrist_2_joint",
        "wrist_3_joint"
    ],
    "metrics": {
        "cart_traj_len": 3.7962595799799046,
        "distance_elbow_joint": 3.8718476205403496,
        "distance_shoulder_lift_joint": 0.36633681107957905,
        "distance_shoulder_pan_joint": 4.385889235061246,
        "distance_wrist_1_joint": 2.9902489906847665,
        "distance_wrist_2_joint": 1.7427383409189285,
        "distance_wrist_3_joint": 2.5763291746515264,
        "smoothness": 0.25374872936501097,
        "time": 0.152289355,
        "traj_len": 3.9916650877718176,
        "weighted_distance": 5.081243534199393
    },
    "planner": "SBL",
    "start": {
        "state": {
            "elbow_joint": -1.9196185241190666,
            "shoulder_lift_joint": -1.2443396400964142,
            "shoulder_pan_joint": 2.6996025414629847,
            "wrist_1_joint": -1.5485510000780065,
            "wrist_2_joint": -1.5709468930060704,
            "wrist_3_joint": 0.4420197071253992
        }
    },
    "waypoints": [
        {
            "positions": [
                2.6996025414629847,
                -1.2443396400964142,
                -1.9196185241190666,
                -1.5485510000780065,
                -1.5709468930060704,
                0.4420197071253992
            ]
        },
        {
            "positions": [
                2.554557950258785,
                -1.24955607174927,
                -1.881886162003659,
                -1.4684734283447467,
                -1.499206893485026,
                0.48889031152555934
            ]
        },
        {
            "positions": [
                2.4095133590545856,
                -1.2547725034021255,
                -1.8441537998882513,
                -1.3883958566114871,
                -1.4274668939639816,
                0.5357609159257195
            ]
        },
        {
            "positions": [
                2.264468767850386,
                -1.2599889350549813,
                -1.8064214377728438,
                -1.3083182848782273,
                -1.3557268944429373,
                0.5826315203258796
            ]
        },
        {
            "positions": [
                2.1194241766461865,
                -1.265205366707837,
                -1.768689075657436,
                -1.2282407131449675,
                -1.2839868949218929,
                0.6295021247260397
            ]
        },
        {
            "positions": [
                1.9743795854419868,
                -1.2704217983606927,
                -1.7309567135420285,
                -1.1481631414117077,
                -1.2122468954008485,
                0.6763727291262
            ]
        },
        {
            "positions": [
                1.8293349942377872,
                -1.2756382300135483,
                -1.6932243514266208,
                -1.068085569678448,
                -1.1405068958798041,
                0.72324333352636
            ]
        },
        {
            "positions": [
                1.6842904030335877,
                -1.280854661666404,
                -1.6554919893112132,
                -0.9880079979451882,
                -1.0687668963587598,
                0.7701139379265203
            ]
        },
        {
            "positions": [
                1.5392458118293881,
                -1.2860710933192596,
                -1.6177596271958055,
                -0.9079304262119285,
                -0.9970268968377154,
                0.8169845423266804
            ]
        },
        {
            "positions": [
                1.3942012206251886,
                -1.2912875249721154,
                -1.580027265080398,
                -0.8278528544786687,
                -0.925286897316671,
                0.8638551467268405
            ]
        },
        {
            "positions": [
                1.2491566294209888,
                -1.296503956624971,
                -1.5422949029649902,
                -0.7477752827454089,
                -0.8535468977956266,
                0.9107257511270006
            ]
        },
        {
            "positions": [
                1.1041120382167893,
                -1.3017203882778268,
                -1.5045625408495826,
                -0.6676977110121493,
                -0.7818068982745823,
                0.9575963555271607
            ]
        },
        {
            "positions": [
                0.9590674470125897,
                -1.3069368199306823,
                -1.4668301787341749,
                -0.5876201392788895,
                -0.7100668987535379,
                1.004466959927321
            ]
        },
        {
            "positions": [
                0.8140228558083902,
                -1.3121532515835381,
                -1.4290978166187673,
                -0.5075425675456298,
                -0.6383268992324936,
                1.051337564327481
            ]
        },
        {
            "positions": [
                0.6689782646041906,
                -1.317369683236394,
                -1.3913654545033598,
                -0.42746499581236996,
                -0.5665868997114492,
                1.0982081687276413
            ]
        },
        {
            "positions": [
                0.5239336733999909,
                -1.3225861148892495,
                -1.353633092387952,
                -0.34738742407911016,
                -0.4948469001904048,
                1.1450787731278014
            ]
        },
        {
            "positions": [
                0.37888908219579154,
                -1.3278025465421053,
                -1.3159007302725445,
                -0.2673098523458506,
                -0.4231069006693604,
                1.1919493775279615
            ]
        },
        {
            "positions": [
                0.23384449099159177,
                -1.3330189781949608,
                -1.2781683681571367,
                -0.18723228061259056,
                -0.35136690114831604,
                1.2388199819281218
            ]
        },
        {
            "positions": [
                0.08879989978739244,
                -1.3382354098478166,
                -1.2404360060417292,
                -0.10715470887933098,
                -0.27962690162727166,
                1.2856905863282817
            ]
        },
        {
            "positions": [
                -0.056244691416807324,
                -1.3434518415006722,
                -1.2027036439263217,
                -0.027077137146071184,
                -0.2078869021062273,
                1.332561190728442
            ]
        },
        {
            "positions": [
                -0.2012892826210071,
                -1.348668273153528,
                -1.1649712818109137,
                0.053000434587188616,
                -0.13614690258518292,
                1.3794317951286021
            ]
        },
        {
            "positions": [
                -0.3463338738252064,
                -1.3538847048063836,
                -1.1272389196955062,
                0.13307800632044842,
                -0.06440690306413854,
                1.4263023995287623
            ]
        },
        {
            "positions": [
                -0.4913784650294062,
                -1.3591011364592394,
                -1.0895065575800986,
                0.213155578053708,
                0.00733309645690583,
                1.4731730039289221
            ]
        },
        {
            "positions": [
                -0.636423056233606,
                -1.364317568112095,
                -1.051774195464691,
                0.293233149786968,
                0.0790730959779502,
                1.5200436083290825
            ]
        },
        {
            "positions": [
                -0.7814676474378051,
                -1.3695339997649507,
                -1.0140418333492833,
                0.3733107215202276,
                0.15081309549899455,
                1.5669142127292426
            ]
        },
        {
            "positions": [
                -0.7282429976636606,
                -1.3553491496819483,
                -0.8395553080686617,
                0.310464411573961,
                0.14957907476876725,
                1.652292722673224
            ]
        },
        {
            "positions": [
                -0.6750183478895161,
                -1.3411642995989457,
                -0.6650687827880403,
                0.24761810162769435,
                0.14834505403853993,
                1.7376712326172052
            ]
        },
        {
            "positions": [
                -0.6217936981153717,
                -1.3269794495159433,
                -0.4905822575074187,
                0.1847717916814277,
                0.14711103330831263,
                1.8230497425611867
            ]
        },
        {
            "positions": [
                -0.5685690483412271,
                -1.3127945994329406,
                -0.3160957322267972,
                0.1219254817351611,
                0.1458770125780853,
                1.9084282525051681
            ]
        },
        {
            "positions": [
                -0.5153443985670827,
                -1.2986097493499382,
                -0.14160920694617563,
                0.05907917178889449,
                0.144642991847858,
                1.9938067624491493
            ]
        },
        {
            "positions": [
                -0.4621197487929382,
                -1.2844248992669356,
                0.03287731833444596,
                -0.003767138157372174,
                0.14340897111763068,
                2.079185272393131
            ]
        },
        {
            "positions": [
                -0.4088950990187938,
                -1.2702400491839332,
                0.20736384361506732,
                -0.06661344810363873,
                0.14217495038740338,
                2.164563782337112
            ]
        },
        {
            "positions": [
                -0.3556704492446493,
                -1.2560551991009308,
                0.3818503688956889,
                -0.1294597580499054,
                0.14094092965717606,
                2.2499422922810934
            ]
        },
        {
            "positions": [
                -0.3024457994705049,
                -1.2418703490179281,
                0.5563368941763105,
                -0.192306067996172,
                0.13970690892694876,
                2.335320802225075
            ]
        },
        {
            "positions": [
                -0.24922114969636033,
                -1.2276854989349257,
                0.7308234194569321,
                -0.2551523779424386,
                0.13847288819672143,
                2.4206993121690563
            ]
        },
        {
            "positions": [
                -0.1959964999222159,
                -1.213500648851923,
                0.9053099447375537,
                -0.31799868788870533,
                0.13723886746649414,
                2.5060778221130375
            ]
        },
        {
            "positions": [
                -0.14277185014807137,
                -1.1993157987689207,
                1.0797964700181752,
                -0.38084499783497194,
                0.1360048467362668,
                2.591456332057019
            ]
        },
        {
            "positions": [
                -0.08954720037392705,
                -1.1851309486859183,
                1.2542829952987964,
                -0.44369130778123844,
                0.1347708260060395,
                2.676834842001
            ]
        },
        {
            "positions": [
                -0.03632255059978251,
                -1.1709460986029157,
                1.428769520579418,
                -0.506537617727505,
                0.1335368052758122,
                2.7622133519449816
            ]
        },
        {
            "positions": [
                0.016902099174361918,
                -1.1567612485199132,
                1.6032560458600396,
                -0.5693839276737718,
                0.1323027845455849,
                2.8475918618889633
            ]
        },
        {
            "positions": [
                0.07012674894850646,
                -1.1425763984369106,
                1.7777425711406611,
                -0.6322302376200384,
                0.1310687638153576,
                2.932970371832944
            ]
        },
        {
            "positions": [
                0.12335139872265088,
                -1.1283915483539082,
                1.952229096421283,
                -0.695076547566305,
                0.12983474308513027,
                3.0183488817769257
            ]
        }
    ]
}