{
    "goal": {
        "global_pose": {
            "orientation": {
                "w": 0.5084816262002911,
                "x": -0.4908360881923452,
                "y": 0.5182115481033761,
                "z": -0.48164630358495003
            },
            "position": {
                "x": 0.5540239810943604,
                "y": -0.46912469901144505,
                "z": 0.16403168439865112
            }
        },
        "name": "move_to_storage_B"
    },
    "id": "SBL_move_to_storage_B_26",
    "joint_names": [
        "shoulder_pan_joint",
        "shoulder_lift_joint",
        "elbow_joint",
        "wrist_1_joint",
        "wrist_2_joint",
        "wrist_3_joint"
    ],
    "metrics": {
        "cart_traj_len": 4.929904035750817,
        "distance_elbow_joint": 4.0230563330413744,
        "distance_shoulder_lift_joint": 1.3585503764254205,
        "distance_shoulder_pan_joint": 3.9225913900258056,
        "distance_wrist_1_joint": 1.9311373021574731,
        "distance_wrist_2_joint": 0.5375014285154687,
        "distance_wrist_3_joint": 4.32178287004947,
        "smoothness": 0.37813690271162664,
        "time": 0.64367983,
        "traj_len": 4.011810027931907,
        "weighted_distance": 5.216016120660182
    },
    "planner": "SBL",
    "start": {
        "state": {
            "elbow_joint": -1.6666013991110213,
            "shoulder_lift_joint": -2.479295265494141,
            "shoulder_pan_joint": 2.6606783912885628,
            "wrist_1_joint": 0.9897123657714939,
            "wrist_2_joint": 0.474351758749468,
            "wrist_3_joint": 0.013243222496468381
        }
    },
    "waypoints": [
        {
            "positions": [
                2.6606783912885628,
                -2.479295265494141,
                -1.6666013991110213,
                0.9897123657714939,
                0.474351758749468,
                0.013243222496468381
            ]
        },
        {
            "positions": [
                2.6781302512431364,
                -2.406359402139635,
                -1.7235458638657757,
                1.0065039197341188,
                0.5640383062152458,
                -0.04513284184030719
            ]
        },
        {
            "positions": [
                2.6955821111977096,
                -2.3334235387851296,
                -1.78049032862053,
                1.0232954736967437,
                0.6537248536810235,
                -0.10350890617708276
            ]
        },
        {
            "positions": [
                2.7130339711522833,
                -2.260487675430624,
                -1.8374347933752844,
                1.0400870276593686,
                0.7434114011468013,
                -0.16188497051385833
            ]
        },
        {
            "positions": [
                2.7234490602256853,
                -2.219462675420414,
                -1.7448068691140095,
                0.9523735615084302,
                0.7190767252093266,
                -0.26482855706597197
            ]
        },
        {
            "positions": [
                2.7338641492990874,
                -2.1784376754102044,
                -1.6521789448527344,
                0.8646600953574919,
                0.694742049271852,
                -0.36777214361808563
            ]
        },
        {
            "positions": [
                2.7442792383724894,
                -2.1374126753999945,
                -1.5595510205914596,
                0.7769466292065534,
                0.6704073733343774,
                -0.4707157301701993
            ]
        },
        {
            "positions": [
                2.7435134934900947,
                -2.1098499590501767,
                -1.4957135352419595,
                0.7236405021702842,
                0.6540766076072725,
                -0.5260758363094569
            ]
        },
        {
            "positions": [
                2.7427477486077,
                -2.0822872427003585,
                -1.4318760498924594,
                0.670334375134015,
                0.6377458418801676,
                -0.5814359424487143
            ]
        },
        {
            "positions": [
                2.6331060613740687,
                -2.054814604025169,
                -1.3333999300269084,
                0.6271626611984651,
                0.6330950925415533,
                -0.47494726516002045
            ]
        },
        {
            "positions": [
                2.5234643741404374,
                -2.0273419653499793,
                -1.2349238101613573,
                0.5839909472629152,
                0.628444343202939,
                -0.36845858787132657
            ]
        },
        {
            "positions": [
                2.4138226869068067,
                -1.9998693266747896,
                -1.1364476902958063,
                0.5408192333273654,
                0.6237935938643245,
                -0.26196991058263264
            ]
        },
        {
            "positions": [
                2.3041809996731755,
                -1.9723966879995998,
                -1.0379715704302552,
                0.49764751939181556,
                0.6191428445257102,
                -0.15548123329393876
            ]
        },
        {
            "positions": [
                2.1945393124395443,
                -1.9449240493244102,
                -0.9394954505647044,
                0.45447580545626576,
                0.6144920951870959,
                -0.04899255600524488
            ]
        },
        {
            "positions": [
                2.084897625205913,
                -1.9174514106492204,
                -0.8410193306991532,
                0.41130409152071584,
                0.6098413458484816,
                0.05749612128344905
            ]
        },
        {
            "positions": [
                1.9752559379722818,
                -1.8899787719740309,
                -0.7425432108336022,
                0.368132377585166,
                0.6051905965098672,
                0.163984798572143
            ]
        },
        {
            "positions": [
                1.865614250738651,
                -1.8625061332988413,
                -0.6440670909680513,
                0.3249606636496162,
                0.6005398471712529,
                0.2704734758608368
            ]
        },
        {
            "positions": [
                1.7559725635050198,
                -1.8350334946236515,
                -0.5455909711025003,
                0.2817889497140664,
                0.5958890978326385,
                0.37696215314953074
            ]
        },
        {
            "positions": [
                1.6463308762713886,
                -1.807560855948462,
                -0.4471148512369493,
                0.2386172357785165,
                0.5912383484940242,
                0.48345083043822457
            ]
        },
        {
            "positions": [
                1.5366891890377576,
                -1.7800882172732722,
                -0.3486387313713981,
                0.19544552184296665,
                0.5865875991554099,
                0.5899395077269185
            ]
        },
        {
            "positions": [
                1.4270475018041264,
                -1.7526155785980826,
                -0.25016261150584707,
                0.15227380790741674,
                0.5819368498167955,
                0.6964281850156124
            ]
        },
        {
            "positions": [
                1.3174058145704952,
                -1.7251429399228928,
                -0.15168649164029602,
                0.10910209397186688,
                0.5772861004781812,
                0.8029168623043064
            ]
        },
        {
            "positions": [
                1.207764127336864,
                -1.6976703012477032,
                -0.05321037177474497,
                0.06593038003631702,
                0.5726353511395669,
                0.9094055395930003
            ]
        },
        {
            "positions": [
                1.098122440103233,
                -1.6701976625725137,
                0.04526574809080586,
                0.022758666100767266,
                0.5679846018009526,
                1.015894216881694
            ]
        },
        {
            "positions": [
                0.988480752869602,
                -1.6427250238973239,
                0.1437418679563569,
                -0.020413047834782594,
                0.5633338524623382,
                1.122382894170388
            ]
        },
        {
            "positions": [
                0.8788390656359708,
                -1.6152523852221343,
                0.24221798782190795,
                -0.06358476177033245,
                0.5586831031237238,
                1.2288715714590819
            ]
        },
        {
            "positions": [
                0.7691973784023398,
                -1.5877797465469445,
                0.3406941076874588,
                -0.1067564757058822,
                0.5540323537851095,
                1.3353602487477758
            ]
        },
        {
            "positions": [
                0.6595556911687086,
                -1.560307107871755,
                0.43917022755300983,
                -0.14992818964143206,
                0.5493816044464952,
                1.4418489260364697
            ]
        },
        {
            "positions": [
                0.5499140039350774,
                -1.5328344691965654,
                0.5376463474185609,
                -0.19309990357698192,
                0.5447308551078809,
                1.5483376033251635
            ]
        },
        {
            "positions": [
                0.4402723167014462,
                -1.5053618305213756,
                0.6361224672841121,
                -0.23627161751253178,
                0.5400801057692666,
                1.6548262806138576
            ]
        },
        {
            "positions": [
                0.3306306294678154,
                -1.4778891918461858,
                0.7345985871496632,
                -0.27944333144808164,
                0.5354293564306521,
                1.7613149579025513
            ]
        },
        {
            "positions": [
                0.2209889422341842,
                -1.4504165531709963,
                0.8330747070152142,
                -0.3226150453836315,
                0.5307786070920378,
                1.8678036351912455
            ]
        },
        {
            "positions": [
                0.11134725500055298,
                -1.4229439144958067,
                0.9315508268807653,
                -0.3657867593191815,
                0.5261278577534235,
                1.9742923124799392
            ]
        },
        {
            "positions": [
                0.0017055677669217673,
                -1.395471275820617,
                1.0300269467463163,
                -0.40895847325473134,
                0.5214771084148092,
                2.080780989768633
            ]
        },
        {
            "positions": [
                -0.10793611946670945,
                -1.3679986371454271,
                1.1285030666118674,
                -0.4521301871902812,
                0.5168263590761948,
                2.1872696670573273
            ]
        },
        {
            "positions": [
                -0.21757780670034066,
                -1.3405259984702376,
                1.2269791864774184,
                -0.49530190112583106,
                0.5121756097375805,
                2.2937583443460214
            ]
        },
        {
            "positions": [
                -0.32721949393397187,
                -1.313053359795048,
                1.3254553063429695,
                -0.5384736150613809,
                0.5075248603989662,
                2.4002470216347147
            ]
        },
        {
            "positions": [
                -0.4368611811676031,
                -1.2855807211198584,
                1.4239314262085205,
                -0.5816453289969308,
                0.5028741110603518,
                2.506735698923409
            ]
        },
        {
            "positions": [
                -0.5465028684012339,
                -1.2581080824446689,
                1.5224075460740711,
                -0.6248170429324804,
                0.49822336172173753,
                2.613224376212102
            ]
        },
        {
            "positions": [
                -0.6561445556348646,
                -1.230635443769479,
                1.6208836659396222,
                -0.6679887568680303,
                0.49357261238312317,
                2.7197130535007963
            ]
        },
        {
            "positions": [
                -0.7657862428684958,
                -1.2031628050942893,
                1.7193597858051732,
                -0.7111604708035801,
                0.4889218630445088,
                2.8262017307894904
            ]
        },
        {
            "positions": [
                -0.875427930102127,
                -1.1756901664190997,
                1.8178359056707243,
                -0.75433218473913,
                0.4842711137058945,
                2.9326904080781846
            ]
        },
        {
            "positions": [
                -0.9850696173357583,
                -1.1482175277439102,
                1.9163120255362753,
                -0.7975038986746799,
                0.47962036436728017,
                3.039179085366878
            ]
        },
        {
            "positions": [
                -1.0947113045693895,
                -1.1207448890687204,
                2.0147881454018264,
                -0.8406756126102297,
                0.4749696150286658,
                3.1456677626555725
            ]
        }
    ]
}