{
    "goal": {
        "global_pose": {
            "orientation": {
                "w": -0.4816463035849501,
                "x": 0.5182115481033762,
                "y": 0.4908360881923453,
                "z": -0.5084816262002911
            },
            "position": {
                "x": -0.8240239810943604,
                "y": -0.300875300988555,
                "z": 0.16403168439865112
            }
        },
        "name": "move_to_storage_C"
    },
    "id": "SBL_move_to_storage_C_51",
    "joint_names": [
        "shoulder_pan_joint",
        "shoulder_lift_joint",
        "elbow_joint",
        "wrist_1_joint",
        "wrist_2_joint",
        "wrist_3_joint"
    ],
    "metrics": {
        "cart_traj_len": 0.5771869077132442,
        "distance_elbow_joint": 0.26199297474060224,
        "distance_shoulder_lift_joint": 0.18940114494119176,
        "distance_shoulder_pan_joint": 0.49447162090937535,
        "distance_wrist_1_joint": 0.09132388064393404,
        "distance_wrist_2_joint": 1.072306707018889,
        "distance_wrist_3_joint": 0.07654837942441883,
        "smoothness": 5.075305295617109e-16,
        "time": 0.648828609,
        "traj_len": 1.4785278853232395,
        "weighted_distance": 1.8715694093968493
    },
    "planner": "SBL",
    "start": {
        "state": {
            "elbow_joint": 2.010868314990456,
            "shoulder_lift_joint": -1.1634956873337592,
            "shoulder_pan_joint": -2.4736205022346125,
            "wrist_1_joint": -0.8367026794202681,
            "wrist_2_joint": 0.6746043897044499,
            "wrist_3_joint": -3.1496632123970403
        }
    },
    "waypoints": [
        {
            "positions": [
                -2.4736205022346125,
                -1.1634956873337592,
                2.010868314990456,
                -0.8367026794202681,
                0.6746043897044499,
                -3.1496632123970403
            ]
        },
        {
            "positions": [
                -2.5560324390528417,
                -1.1319288298435606,
                1.9672028192003554,
                -0.8214820326462791,
                0.853322174207598,
                -3.136905149159637
            ]
        },
        {
            "positions": [
                -2.638444375871071,
                -1.100361972353362,
                1.923537323410255,
                -0.8062613858722901,
                1.0320399587107463,
                -3.124147085922234
            ]
        },
        {
            "positions": [
                -2.7208563126893,
                -1.0687951148631634,
                1.8798718276201547,
                -0.7910407390983011,
                1.2107577432138945,
                -3.111389022684831
            ]
        },
        {
            "positions": [
                -2.8032682495075294,
                -1.0372282573729648,
                1.8362063318300543,
                -0.775820092324312,
                1.3894755277170425,
                -3.0986309594474277
            ]
        },
        {
            "positions": [
                -2.8856801863257586,
                -1.005661399882766,
                1.792540836039954,
                -0.7605994455503231,
                1.5681933122201908,
                -3.0858728962100246
            ]
        },
        {
            "positions": [
                -2.968092123143988,
                -0.9740945423925674,
                1.7488753402498536,
                -0.7453787987763341,
                1.7469110967233388,
                -3.0731148329726214
            ]
        }
    ]
}