{
    "goal": {
        "global_pose": {
            "orientation": {
                "w": -0.4816463035849501,
                "x": 0.5182115481033762,
                "y": 0.4908360881923453,
                "z": -0.5084816262002911
            },
            "position": {
                "x": -0.8240239810943604,
                "y": -0.300875300988555,
                "z": 0.16403168439865112
            }
        },
        "name": "move_to_storage_C"
    },
    "id": "SBL_move_to_storage_C_45",
    "joint_names": [
        "shoulder_pan_joint",
        "shoulder_lift_joint",
        "elbow_joint",
        "wrist_1_joint",
        "wrist_2_joint",
        "wrist_3_joint"
    ],
    "metrics": {
        "cart_traj_len": 0.5768231110480303,
        "distance_elbow_joint": 0.2605160936409827,
        "distance_shoulder_lift_joint": 0.18924860779640706,
        "distance_shoulder_pan_joint": 0.4958264723587349,
        "distance_wrist_1_joint": 0.08683922021232104,
        "distance_wrist_2_joint": 1.0580450548196443,
        "distance_wrist_3_joint": 0.059028706468207126,
        "smoothness": 2.5376526478085547e-16,
        "time": 0.558717186,
        "traj_len": 1.4661187384711707,
        "weighted_distance": 1.8472806617470656
    },
    "planner": "SBL",
    "start": {
        "state": {
            "elbow_joint": 2.010868314990456,
            "shoulder_lift_joint": -1.1634956873337592,
            "shoulder_pan_joint": -2.4736205022346125,
            "wrist_1_joint": -0.8367026794202681,
            "wrist_2_joint": 0.6746043897044499,
            "wrist_3_joint": -3.1496632123970403
        }
    },
    "waypoints": [
        {
            "positions": [
                -2.4736205022346125,
                -1.1634956873337592,
                2.010868314990456,
                -0.8367026794202681,
                0.6746043897044499,
                -3.1496632123970403
            ]
        },
        {
            "positions": [
                -2.556258247627735,
                -1.1319542527010247,
                1.967448966050292,
                -0.822229476051548,
                0.8509452321743907,
                -3.139825094652339
            ]
        },
        {
            "positions": [
                -2.6388959930208573,
                -1.1004128180682902,
                1.9240296171101283,
                -0.8077562726828278,
                1.0272860746443313,
                -3.129986976907638
            ]
        },
        {
            "positions": [
                -2.7215337384139797,
                -1.0688713834355557,
                1.8806102681699643,
                -0.7932830693141075,
                1.203626917114272,
                -3.1201488591629367
            ]
        },
        {
            "positions": [
                -2.8041714838071026,
                -1.0373299488028211,
                1.8371909192298006,
                -0.7788098659453874,
                1.3799677595842126,
                -3.1103107414182354
            ]
        },
        {
            "positions": [
                -2.886809229200225,
                -1.0057885141700866,
                1.7937715702896369,
                -0.7643366625766672,
                1.5563086020541537,
                -3.1004726236735345
            ]
        },
        {
            "positions": [
                -2.9694469745933474,
                -0.9742470795373521,
                1.750352221349473,
                -0.7498634592079471,
                1.732649444524094,
                -3.090634505928833
            ]
        }
    ]
}