{
    "goal": {
        "global_pose": {
            "orientation": {
                "w": -0.4816463035849501,
                "x": 0.5182115481033762,
                "y": 0.4908360881923453,
                "z": -0.5084816262002911
            },
            "position": {
                "x": -0.8240239810943604,
                "y": -0.300875300988555,
                "z": 0.16403168439865112
            }
        },
        "name": "move_to_storage_C"
    },
    "id": "SBL_move_to_storage_C_44",
    "joint_names": [
        "shoulder_pan_joint",
        "shoulder_lift_joint",
        "elbow_joint",
        "wrist_1_joint",
        "wrist_2_joint",
        "wrist_3_joint"
    ],
    "metrics": {
        "cart_traj_len": 0.5769507533711844,
        "distance_elbow_joint": 0.2556432226268044,
        "distance_shoulder_lift_joint": 0.18857315783118145,
        "distance_shoulder_pan_joint": 0.49492472959658684,
        "distance_wrist_1_joint": 0.07003709236867084,
        "distance_wrist_2_joint": 1.0714057875350989,
        "distance_wrist_3_joint": 0.05538994688250032,
        "smoothness": 0.0,
        "time": 0.539398858,
        "traj_len": 1.4614971559468881,
        "weighted_distance": 1.8407054926059228
    },
    "planner": "SBL",
    "start": {
        "state": {
            "elbow_joint": 2.010868314990456,
            "shoulder_lift_joint": -1.1634956873337592,
            "shoulder_pan_joint": -2.4736205022346125,
            "wrist_1_joint": -0.8367026794202681,
            "wrist_2_joint": 0.6746043897044499,
            "wrist_3_joint": -3.1496632123970403
        }
    },
    "waypoints": [
        {
            "positions": [
                -2.4736205022346125,
                -1.1634956873337592,
                2.010868314990456,
                -0.8367026794202681,
                0.6746043897044499,
                -3.1496632123970403
            ]
        },
        {
            "positions": [
                -2.556107957167377,
                -1.132066827695229,
                1.9682611112193218,
                -0.8250298306921563,
                0.8531720209602998,
                -3.1404315545832904
            ]
        },
        {
            "positions": [
                -2.6385954121001416,
                -1.1006379680566987,
                1.9256539074481878,
                -0.8133569819640445,
                1.0317396522161495,
                -3.13119989676954
            ]
        },
        {
            "positions": [
                -2.721082867032906,
                -1.0692091084181685,
                1.8830467036770537,
                -0.8016841332359327,
                1.2103072834719995,
                -3.12196823895579
            ]
        },
        {
            "positions": [
                -2.8035703219656702,
                -1.0377802487796381,
                1.8404394999059195,
                -0.7900112845078209,
                1.388874914727849,
                -3.11273658114204
            ]
        },
        {
            "positions": [
                -2.886057776898435,
                -1.006351389141108,
                1.7978322961347855,
                -0.7783384357797091,
                1.567442545983699,
                -3.10350492332829
            ]
        },
        {
            "positions": [
                -2.9685452318311993,
                -0.9749225295025777,
                1.7552250923636514,
                -0.7666655870515973,
                1.7460101772395487,
                -3.09427326551454
            ]
        }
    ]
}