{
    "goal": {
        "global_pose": {
            "orientation": {
                "w": 0.7047431468963623,
                "x": -0.7094548344612122,
                "y": 0.0024358443915843964,
                "z": -0.0022348060738295317
            },
            "position": {
                "x": 0.6094750761985779,
                "y": 0.3671506643295288,
                "z": 0.19426114857196808
            }
        },
        "name": "move_to_magneteinheit_A"
    },
    "id": "SBL_move_to_magneteinheit_A_76",
    "joint_names": [
        "shoulder_pan_joint",
        "shoulder_lift_joint",
        "elbow_joint",
        "wrist_1_joint",
        "wrist_2_joint",
        "wrist_3_joint"
    ],
    "metrics": {
        "cart_traj_len": 4.38097440169661,
        "distance_elbow_joint": 3.9001906218749793,
        "distance_shoulder_lift_joint": 0.7194056731261629,
        "distance_shoulder_pan_joint": 3.3316887216311897,
        "distance_wrist_1_joint": 0.8484486240973612,
        "distance_wrist_2_joint": 3.2925593292999276,
        "distance_wrist_3_joint": 3.6019241220865537,
        "smoothness": 0.3185841031261232,
        "time": 0.162818419,
        "traj_len": 3.9615927468779746,
        "weighted_distance": 5.199910892475618
    },
    "planner": "SBL",
    "start": {
        "state": {
            "elbow_joint": -1.9196185241190666,
            "shoulder_lift_joint": -1.2443396400964142,
            "shoulder_pan_joint": 2.6996025414629847,
            "wrist_1_joint": -1.5485510000780065,
            "wrist_2_joint": -1.5709468930060704,
            "wrist_3_joint": 0.4420197071253992
        }
    },
    "waypoints": [
        {
            "positions": [
                2.6996025414629847,
                -1.2443396400964142,
                -1.9196185241190666,
                -1.5485510000780065,
                -1.5709468930060704,
                0.4420197071253992
            ]
        },
        {
            "positions": [
                2.610077596522511,
                -1.231916433081662,
                -1.8241625348830945,
                -1.5244965717732273,
                -1.4951852365971647,
                0.34738400753714543
            ]
        },
        {
            "positions": [
                2.520552651582037,
                -1.21949322606691,
                -1.7287065456471225,
                -1.500442143468448,
                -1.4194235801882593,
                0.2527483079488917
            ]
        },
        {
            "positions": [
                2.4310277066415633,
                -1.2070700190521577,
                -1.6332505564111504,
                -1.4763877151636688,
                -1.343661923779354,
                0.15811260836063795
            ]
        },
        {
            "positions": [
                2.3415027617010895,
                -1.1946468120374056,
                -1.5377945671751783,
                -1.4523332868588896,
                -1.2679002673704483,
                0.06347690877238427
            ]
        },
        {
            "positions": [
                2.2519778167606157,
                -1.1822236050226536,
                -1.4423385779392062,
                -1.4282788585541104,
                -1.1921386109615426,
                -0.031158790815869475
            ]
        },
        {
            "positions": [
                2.1624528718201423,
                -1.1698003980079015,
                -1.346882588703234,
                -1.4042244302493312,
                -1.1163769545526372,
                -0.12579449040412327
            ]
        },
        {
            "positions": [
                2.072927926879668,
                -1.1573771909931494,
                -1.251426599467262,
                -1.380170001944552,
                -1.0406152981437318,
                -0.22043018999237696
            ]
        },
        {
            "positions": [
                1.9834029819391947,
                -1.1449539839783973,
                -1.1559706102312899,
                -1.3561155736397728,
                -0.9648536417348261,
                -0.31506588958063064
            ]
        },
        {
            "positions": [
                1.893878036998721,
                -1.132530776963645,
                -1.0605146209953178,
                -1.3320611453349935,
                -0.8890919853259207,
                -0.40970158916888433
            ]
        },
        {
            "positions": [
                1.8043530920582471,
                -1.120107569948893,
                -0.9650586317593456,
                -1.308006717030214,
                -0.8133303289170151,
                -0.5043372887571381
            ]
        },
        {
            "positions": [
                1.7148281471177733,
                -1.1076843629341409,
                -0.8696026425233736,
                -1.2839522887254349,
                -0.7375686725081096,
                -0.5989729883453917
            ]
        },
        {
            "positions": [
                1.6253032021772995,
                -1.0952611559193888,
                -0.7741466532874013,
                -1.2598978604206557,
                -0.661807016099204,
                -0.6936086879336457
            ]
        },
        {
            "positions": [
                1.535778257236826,
                -1.0828379489046367,
                -0.6786906640514292,
                -1.2358434321158764,
                -0.5860453596902986,
                -0.7882443875218993
            ]
        },
        {
            "positions": [
                1.446253312296352,
                -1.0704147418898844,
                -0.5832346748154571,
                -1.2117890038110972,
                -0.5102837032813929,
                -0.8828800871101531
            ]
        },
        {
            "positions": [
                1.3567283673558783,
                -1.0579915348751323,
                -0.487778685579485,
                -1.187734575506318,
                -0.4345220468724875,
                -0.9775157866984067
            ]
        },
        {
            "positions": [
                1.2672034224154045,
                -1.0455683278603802,
                -0.3923226963435129,
                -1.1636801472015388,
                -0.3587603904635819,
                -1.0721514862866606
            ]
        },
        {
            "positions": [
                1.1776784774749307,
                -1.0331451208456282,
                -0.2968667071075408,
                -1.1396257188967596,
                -0.28299873405467646,
                -1.1667871858749144
            ]
        },
        {
            "positions": [
                1.0881535325344571,
                -1.020721913830876,
                -0.20141071787156872,
                -1.1155712905919803,
                -0.20723707764577104,
                -1.2614228854631677
            ]
        },
        {
            "positions": [
                0.9986285875939831,
                -1.0082987068161238,
                -0.1059547286355964,
                -1.0915168622872011,
                -0.13147542123686518,
                -1.356058585051422
            ]
        },
        {
            "positions": [
                0.9091036426535093,
                -0.9958754998013718,
                -0.010498739399624535,
                -1.067462433982422,
                -0.055713764827959755,
                -1.4506942846396753
            ]
        },
        {
            "positions": [
                0.8195786977130357,
                -0.9834522927866196,
                0.08495724983634778,
                -1.0434080056776427,
                0.020047891580945665,
                -1.545329984227929
            ]
        },
        {
            "positions": [
                0.7300537527725619,
                -0.9710290857718675,
                0.18041323907231943,
                -1.0193535773728635,
                0.09580954798985108,
                -1.6399656838161825
            ]
        },
        {
            "positions": [
                0.6405288078320881,
                -0.9586058787571154,
                0.27586922830829197,
                -0.9952991490680843,
                0.17157120439875695,
                -1.7346013834044367
            ]
        },
        {
            "positions": [
                0.5510038628916143,
                -0.9461826717423633,
                0.37132521754426406,
                -0.971244720763305,
                0.24733286080766237,
                -1.8292370829926905
            ]
        },
        {
            "positions": [
                0.4614789179511405,
                -0.9337594647276112,
                0.46678120678023616,
                -0.9471902924585258,
                0.3230945172165678,
                -1.9238727825809439
            ]
        },
        {
            "positions": [
                0.3719539730106671,
                -0.921336257712859,
                0.5622371960162083,
                -0.9231358641537466,
                0.3988561736254732,
                -2.0185084821691976
            ]
        },
        {
            "positions": [
                0.2824290280701929,
                -0.9089130506981069,
                0.6576931852521803,
                -0.8990814358489673,
                0.4746178300343791,
                -2.1131441817574514
            ]
        },
        {
            "positions": [
                0.19290408312971907,
                -0.8964898436833548,
                0.7531491744881524,
                -0.875027007544188,
                0.5503794864432845,
                -2.2077798813457052
            ]
        },
        {
            "positions": [
                0.10337913818924571,
                -0.8840666366686027,
                0.8486051637241245,
                -0.8509725792394088,
                0.6261411428521899,
                -2.302415580933959
            ]
        },
        {
            "positions": [
                0.013854193248771907,
                -0.8716434296538506,
                0.9440611529600966,
                -0.8269181509346296,
                0.7019027992610953,
                -2.3970512805222124
            ]
        },
        {
            "positions": [
                -0.07567075169170234,
                -0.8592202226390984,
                1.0395171421960687,
                -0.8028637226298504,
                0.7776644556700012,
                -2.4916869801104666
            ]
        },
        {
            "positions": [
                -0.1651956966321757,
                -0.8467970156243463,
                1.1349731314320408,
                -0.7788092943250712,
                0.8534261120789066,
                -2.58632267969872
            ]
        },
        {
            "positions": [
                -0.25472064157264973,
                -0.8343738086095942,
                1.230429120668013,
                -0.754754866020292,
                0.929187768487812,
                -2.680958379286974
            ]
        },
        {
            "positions": [
                -0.20081127891614167,
                -0.8785795002723574,
                1.3375924031091415,
                -0.7625623645973844,
                0.8159842445155198,
                -2.7493792415261424
            ]
        },
        {
            "positions": [
                -0.1469019162596336,
                -0.9227851919351208,
                1.44475568555027,
                -0.7703698631744768,
                0.7027807205432275,
                -2.817800103765311
            ]
        },
        {
            "positions": [
                -0.09299255360312553,
                -0.966990883597884,
                1.5519189679913985,
                -0.7781773617515692,
                0.5895771965709351,
                -2.8862209660044797
            ]
        },
        {
            "positions": [
                -0.03908319094661747,
                -1.0111965752606473,
                1.6590822504325269,
                -0.7859848603286614,
                0.4763736725986429,
                -2.9546418282436484
            ]
        },
        {
            "positions": [
                0.014826171709890645,
                -1.0554022669234107,
                1.7662455328736555,
                -0.7937923589057538,
                0.36317014862635055,
                -3.023062690482817
            ]
        },
        {
            "positions": [
                0.06873553436639868,
                -1.0996079585861738,
                1.873408815314784,
                -0.8015998574828462,
                0.24996662465405828,
                -3.0914835527219857
            ]
        },
        {
            "positions": [
                0.12264489702290676,
                -1.143813650248937,
                1.9805720977559125,
                -0.8094073560599386,
                0.13676310068176598,
                -3.1599044149611544
            ]
        }
    ]
}