{
    "goal": {
        "global_pose": {
            "orientation": {
                "w": -0.4816463035849501,
                "x": 0.5182115481033762,
                "y": 0.4908360881923453,
                "z": -0.5084816262002911
            },
            "position": {
                "x": -0.8240239810943604,
                "y": -0.300875300988555,
                "z": 0.16403168439865112
            }
        },
        "name": "move_to_storage_C"
    },
    "id": "SBL_move_to_storage_C_95",
    "joint_names": [
        "shoulder_pan_joint",
        "shoulder_lift_joint",
        "elbow_joint",
        "wrist_1_joint",
        "wrist_2_joint",
        "wrist_3_joint"
    ],
    "metrics": {
        "cart_traj_len": 0.5774272839776142,
        "distance_elbow_joint": 0.2608957138107262,
        "distance_shoulder_lift_joint": 0.18937426970979254,
        "distance_shoulder_pan_joint": 0.49624912743603433,
        "distance_wrist_1_joint": 0.08937969865243289,
        "distance_wrist_2_joint": 1.0617896521146948,
        "distance_wrist_3_joint": 0.07545451200008113,
        "smoothness": 0.0,
        "time": 0.407851238,
        "traj_len": 1.4741583950592831,
        "weighted_distance": 1.8641945575746786
    },
    "planner": "SBL",
    "start": {
        "state": {
            "elbow_joint": 2.010868314990456,
            "shoulder_lift_joint": -1.1634956873337592,
            "shoulder_pan_joint": -2.4736205022346125,
            "wrist_1_joint": -0.8367026794202681,
            "wrist_2_joint": 0.6746043897044499,
            "wrist_3_joint": -3.1496632123970403
        }
    },
    "waypoints": [
        {
            "positions": [
                -2.4736205022346125,
                -1.1634956873337592,
                2.010868314990456,
                -0.8367026794202681,
                0.6746043897044499,
                -3.1496632123970403
            ]
        },
        {
            "positions": [
                -2.556328690140618,
                -1.1319333090487937,
                1.9673856960220015,
                -0.8218060629781959,
                0.8515693317235657,
                -3.137087460397027
            ]
        },
        {
            "positions": [
                -2.639036878046624,
                -1.1003709307638283,
                1.923903077053547,
                -0.8069094465361238,
                1.0285342737426815,
                -3.124511708397013
            ]
        },
        {
            "positions": [
                -2.7217450659526294,
                -1.0688085524788629,
                1.8804204580850927,
                -0.7920128300940517,
                1.2054992157617974,
                -3.1119359563969997
            ]
        },
        {
            "positions": [
                -2.8044532538586355,
                -1.0372461741938974,
                1.8369378391166384,
                -0.7771162136519795,
                1.382464157780913,
                -3.0993602043969863
            ]
        },
        {
            "positions": [
                -2.887161441764641,
                -1.005683795908932,
                1.793455220148184,
                -0.7622195972099074,
                1.5594290998000289,
                -3.0867844523969725
            ]
        },
        {
            "positions": [
                -2.969869629670647,
                -0.9741214176239666,
                1.7499726011797296,
                -0.7473229807678352,
                1.7363940418191446,
                -3.074208700396959
            ]
        }
    ]
}