{
    "goal": {
        "global_pose": {
            "orientation": {
                "w": -0.00223480608172531,
                "x": 0.0024358444001904467,
                "y": 0.7094548369677653,
                "z": -0.704743149386269
            },
            "position": {
                "x": -0.37947507619857795,
                "y": -0.6371506643295288,
                "z": 0.19426114857196808
            }
        },
        "name": "move_to_magneteinheit_C"
    },
    "id": "SBL_move_to_magneteinheit_C_133",
    "joint_names": [
        "shoulder_pan_joint",
        "shoulder_lift_joint",
        "elbow_joint",
        "wrist_1_joint",
        "wrist_2_joint",
        "wrist_3_joint"
    ],
    "metrics": {
        "cart_traj_len": 1.9434193498634427,
        "distance_elbow_joint": 1.812922206150788,
        "distance_shoulder_lift_joint": 0.7591884669681692,
        "distance_shoulder_pan_joint": 1.2840030573592107,
        "distance_wrist_1_joint": 1.1984180158677735,
        "distance_wrist_2_joint": 1.2965212413521554,
        "distance_wrist_3_joint": 3.907311006155595,
        "smoothness": 0.7529097294935345,
        "time": 0.474410411,
        "traj_len": 3.2028680887376075,
        "weighted_distance": 4.5351874562563355
    },
    "planner": "SBL",
    "start": {
        "state": {
            "elbow_joint": 1.9565354010623817,
            "shoulder_lift_joint": -1.4165861575791021,
            "shoulder_pan_joint": -1.6717766225146293,
            "wrist_1_joint": -0.5286633292919765,
            "wrist_2_joint": 1.472756589071564,
            "wrist_3_joint": -3.1238370188695823
        }
    },
    "waypoints": [
        {
            "positions": [
                -1.6717766225146293,
                -1.4165861575791021,
                1.9565354010623817,
                -0.5286633292919765,
                1.472756589071564,
                -3.1238370188695823
            ]
        },
        {
            "positions": [
                -1.5105775326072717,
                -1.4661560342247526,
                1.9116518499751316,
                -0.5062158633304404,
                1.4340710872483782,
                -3.125628732288496
            ]
        },
        {
            "positions": [
                -1.5286605784512262,
                -1.4710648399145758,
                1.801785169547233,
                -0.4950950413011568,
                1.377423085687955,
                -2.9807945271601204
            ]
        },
        {
            "positions": [
                -1.5467436242951806,
                -1.4759736456043988,
                1.6919184891193344,
                -0.48397421927187306,
                1.320775084127532,
                -2.8359603220317444
            ]
        },
        {
            "positions": [
                -1.5648266701391351,
                -1.480882451294222,
                1.5820518086914357,
                -0.4728533972425894,
                1.264127082567109,
                -2.691126116903369
            ]
        },
        {
            "positions": [
                -1.5829097159830894,
                -1.4857912569840452,
                1.472185128263537,
                -0.46173257521330574,
                1.207479081006686,
                -2.5462919117749934
            ]
        },
        {
            "positions": [
                -1.6009927618270439,
                -1.4907000626738685,
                1.3623184478356385,
                -0.450611753184022,
                1.1508310794462628,
                -2.4014577066466174
            ]
        },
        {
            "positions": [
                -1.6190758076709983,
                -1.4956088683636914,
                1.2524517674077398,
                -0.43949093115473836,
                1.09418307788584,
                -2.2566235015182423
            ]
        },
        {
            "positions": [
                -1.6371588535149528,
                -1.5005176740535147,
                1.142585086979841,
                -0.4283701091254547,
                1.0375350763254167,
                -2.1117892963898663
            ]
        },
        {
            "positions": [
                -1.7164078824987414,
                -1.5147529612498012,
                1.1805096994707736,
                -0.5044807852505994,
                0.9764710462682126,
                -2.018616703022608
            ]
        },
        {
            "positions": [
                -1.79565691148253,
                -1.5289882484460875,
                1.218434311961706,
                -0.580591461375744,
                0.9154070162110084,
                -1.925444109655349
            ]
        },
        {
            "positions": [
                -1.8749059404663186,
                -1.543223535642374,
                1.2563589244526385,
                -0.6567021375008886,
                0.8543429861538041,
                -1.8322715162880905
            ]
        },
        {
            "positions": [
                -1.9541549694501075,
                -1.5574588228386603,
                1.294283536943571,
                -0.7328128136260333,
                0.7932789560965999,
                -1.7390989229208318
            ]
        },
        {
            "positions": [
                -2.0334039984338963,
                -1.5716941100349469,
                1.3322081494345035,
                -0.8089234897511779,
                0.7322149260393958,
                -1.645926329553573
            ]
        },
        {
            "positions": [
                -2.112653027417685,
                -1.5859293972312334,
                1.370132761925436,
                -0.8850341658763226,
                0.6711508959821916,
                -1.5527537361863146
            ]
        },
        {
            "positions": [
                -2.1919020564014735,
                -1.6001646844275197,
                1.4080573744163685,
                -0.9611448420014672,
                0.6100868659249874,
                -1.4595811428190562
            ]
        },
        {
            "positions": [
                -2.271151085385262,
                -1.6143999716238062,
                1.445981986907301,
                -1.0372555181266119,
                0.5490228358677831,
                -1.3664085494517972
            ]
        },
        {
            "positions": [
                -2.3504001143690507,
                -1.6286352588200925,
                1.4839065993982334,
                -1.1133661942517565,
                0.48795880581057893,
                -1.2732359560845388
            ]
        },
        {
            "positions": [
                -2.4296491433528393,
                -1.642870546016379,
                1.521831211889166,
                -1.1894768703769012,
                0.42689477575337476,
                -1.18006336271728
            ]
        },
        {
            "positions": [
                -2.448405847028973,
                -1.6481611541148273,
                1.6200037566929486,
                -1.1777554950402258,
                0.46185502905363407,
                -1.341554011499532
            ]
        },
        {
            "positions": [
                -2.467162550705107,
                -1.6534517622132758,
                1.7181763014967313,
                -1.1660341197035506,
                0.49681528235389333,
                -1.503044660281784
            ]
        },
        {
            "positions": [
                -2.4859192543812405,
                -1.6587423703117241,
                1.8163488463005142,
                -1.1543127443668753,
                0.5317755356541526,
                -1.6645353090640358
            ]
        },
        {
            "positions": [
                -2.5046759580573745,
                -1.6640329784101726,
                1.9145213911042969,
                -1.1425913690302,
                0.5667357889544119,
                -1.8260259578462879
            ]
        },
        {
            "positions": [
                -2.523432661733508,
                -1.669323586508621,
                2.0126939359080795,
                -1.1308699936935247,
                0.6016960422546712,
                -1.9875166066285397
            ]
        },
        {
            "positions": [
                -2.530814922127985,
                -1.607727973843825,
                2.02891203039764,
                -1.1019886481869081,
                0.6168691706318667,
                -2.1868334022163216
            ]
        },
        {
            "positions": [
                -2.538197182522462,
                -1.5461323611790294,
                2.0451301248872,
                -1.0731073026802913,
                0.6320422990090622,
                -2.386150197804104
            ]
        },
        {
            "positions": [
                -2.5455794429169387,
                -1.4845367485142336,
                2.06134821937676,
                -1.0442259571736747,
                0.6472154273862577,
                -2.5854669933918863
            ]
        },
        {
            "positions": [
                -2.5529617033114156,
                -1.4229411358494377,
                2.0775663138663205,
                -1.0153446116670581,
                0.6623885557634532,
                -2.7847837889796683
            ]
        },
        {
            "positions": [
                -2.5261551043955124,
                -1.3362516067229486,
                2.0562360921390646,
                -0.9610493530870708,
                0.6674437717714159,
                -2.9031949546140274
            ]
        },
        {
            "positions": [
                -2.4993485054796096,
                -1.2495620775964595,
                2.0349058704118086,
                -0.9067540945070836,
                0.6724989877793784,
                -3.021606120248386
            ]
        },
        {
            "positions": [
                -2.4725419065637064,
                -1.1628725484699705,
                2.0135756486845526,
                -0.8524588359270963,
                0.6775542037873411,
                -3.1400172858827453
            ]
        }
    ]
}