{
    "goal": {
        "global_pose": {
            "orientation": {
                "w": 0.005598929693374612,
                "x": 0.007748599140229565,
                "y": 0.7110244013736278,
                "z": -0.7031023480610252
            },
            "position": {
                "x": 0.1141497679147869,
                "y": -0.7141253447532654,
                "z": 0.3711530566215515
            }
        },
        "name": "move_to_auspresseinheit_B"
    },
    "id": "SBL_move_to_auspresseinheit_B_99",
    "joint_names": [
        "shoulder_pan_joint",
        "shoulder_lift_joint",
        "elbow_joint",
        "wrist_1_joint",
        "wrist_2_joint",
        "wrist_3_joint"
    ],
    "metrics": {
        "cart_traj_len": 0.5652618046799494,
        "distance_elbow_joint": 0.06563955777587127,
        "distance_shoulder_lift_joint": 0.2949827601747963,
        "distance_shoulder_pan_joint": 0.57511745775222,
        "distance_wrist_1_joint": 0.3367844283155522,
        "distance_wrist_2_joint": 1.0064606075502966,
        "distance_wrist_3_joint": 0.0081874240437938,
        "smoothness": 2.5376526478085547e-16,
        "time": 0.091220035,
        "traj_len": 1.512339986779603,
        "weighted_distance": 1.9096575922311223
    },
    "planner": "SBL",
    "start": {
        "state": {
            "elbow_joint": 2.0193083361928714,
            "shoulder_lift_joint": -1.1220246554650708,
            "shoulder_pan_joint": -1.0952077554168747,
            "wrist_1_joint": -0.8559753972642168,
            "wrist_2_joint": 0.4759566250798843,
            "wrist_3_joint": -3.1240929996934557
        }
    },
    "waypoints": [
        {
            "positions": [
                -1.0952077554168747,
                -1.1220246554650708,
                2.0193083361928714,
                -0.8559753972642168,
                0.4759566250798843,
                -3.1240929996934557
            ]
        },
        {
            "positions": [
                -1.1910606650422446,
                -1.1711884488275368,
                2.008368409896893,
                -0.7998446592116247,
                0.6437000596716004,
                -3.12272842901949
            ]
        },
        {
            "positions": [
                -1.2869135746676146,
                -1.2203522421900028,
                1.9974284836009144,
                -0.7437139211590327,
                0.8114434942633164,
                -3.1213638583455245
            ]
        },
        {
            "positions": [
                -1.3827664842929845,
                -1.2695160355524688,
                1.9864885573049358,
                -0.6875831831064407,
                0.9791869288550326,
                -3.1199992876715585
            ]
        },
        {
            "positions": [
                -1.4786193939183545,
                -1.318679828914935,
                1.9755486310089572,
                -0.6314524450538487,
                1.1469303634467487,
                -3.118634716997593
            ]
        },
        {
            "positions": [
                -1.5744723035437247,
                -1.367843622277401,
                1.9646087047129788,
                -0.5753217070012566,
                1.3146737980384648,
                -3.1172701463236274
            ]
        },
        {
            "positions": [
                -1.6703252131690947,
                -1.417007415639867,
                1.9536687784170002,
                -0.5191909689486646,
                1.482417232630181,
                -3.115905575649662
            ]
        }
    ]
}