{
    "goal": {
        "global_pose": {
            "orientation": {
                "w": 0.7031023502349854,
                "x": -0.7110244035720825,
                "y": 0.007748599164187908,
                "z": 0.005598929710686207
            },
            "position": {
                "x": 0.11585023208521307,
                "y": 0.44412534475326537,
                "z": 0.3711530566215515
            }
        },
        "name": "move_to_auspresseinheit_A"
    },
    "id": "SBL_move_to_auspresseinheit_A_118",
    "joint_names": [
        "shoulder_pan_joint",
        "shoulder_lift_joint",
        "elbow_joint",
        "wrist_1_joint",
        "wrist_2_joint",
        "wrist_3_joint"
    ],
    "metrics": {
        "cart_traj_len": 3.320834743815577,
        "distance_elbow_joint": 2.6464585099009152,
        "distance_shoulder_lift_joint": 0.8868588304163973,
        "distance_shoulder_pan_joint": 3.346783125500183,
        "distance_wrist_1_joint": 1.4712045039121506,
        "distance_wrist_2_joint": 2.041717519005503,
        "distance_wrist_3_joint": 8.737371174076886,
        "smoothness": 0.26223393416712015,
        "time": 0.24861868599999998,
        "traj_len": 4.373830548022184,
        "weighted_distance": 6.333881750860482
    },
    "planner": "SBL",
    "start": {
        "state": {
            "elbow_joint": 2.4225746658250005,
            "shoulder_lift_joint": -1.3736534386056498,
            "shoulder_pan_joint": -0.3378633547517467,
            "wrist_1_joint": -1.0288598680537169,
            "wrist_2_joint": 1.233022673432363,
            "wrist_3_joint": -3.0940220416140027
        }
    },
    "waypoints": [
        {
            "positions": [
                -0.3378633547517467,
                -1.3736534386056498,
                2.4225746658250005,
                -1.0288598680537169,
                1.233022673432363,
                -3.0940220416140027
            ]
        },
        {
            "positions": [
                -0.2654145143377801,
                -1.3627013935549712,
                2.2887923994556574,
                -1.015180462858318,
                1.2381105822391285,
                -2.943630703125746
            ]
        },
        {
            "positions": [
                -0.19296567392381353,
                -1.3517493485042926,
                2.155010133086314,
                -1.001501057662919,
                1.243198491045894,
                -2.793239364637489
            ]
        },
        {
            "positions": [
                -0.12051683350984693,
                -1.340797303453614,
                2.0212278667169707,
                -0.9878216524675203,
                1.2482863998526594,
                -2.642848026149232
            ]
        },
        {
            "positions": [
                -0.048067993095880335,
                -1.3298452584029354,
                1.8874456003476276,
                -0.9741422472721215,
                1.253374308659425,
                -2.4924566876609746
            ]
        },
        {
            "positions": [
                0.024380847318086263,
                -1.3188932133522568,
                1.7536633339782843,
                -0.9604628420767226,
                1.2584622174661906,
                -2.3420653491727177
            ]
        },
        {
            "positions": [
                0.09682968773205286,
                -1.3079411683015785,
                1.619881067608941,
                -0.9467834368813237,
                1.263550126272956,
                -2.1916740106844608
            ]
        },
        {
            "positions": [
                0.16927852814601946,
                -1.2969891232508999,
                1.486098801239598,
                -0.9331040316859249,
                1.2686380350797215,
                -2.041282672196204
            ]
        },
        {
            "positions": [
                0.24172736855998606,
                -1.2860370782002213,
                1.3523165348702546,
                -0.919424626490526,
                1.273725943886487,
                -1.8908913337079465
            ]
        },
        {
            "positions": [
                0.31417620897395265,
                -1.2750850331495427,
                1.2185342685009113,
                -0.9057452212951272,
                1.2788138526932524,
                -1.7404999952196896
            ]
        },
        {
            "positions": [
                0.3866250493879193,
                -1.264132988098864,
                1.0847520021315682,
                -0.8920658160997283,
                1.283901761500018,
                -1.5901086567314326
            ]
        },
        {
            "positions": [
                0.48468889091102824,
                -1.29249215540907,
                1.1166831684093081,
                -0.8979421676253277,
                1.2468222598995529,
                -1.4031039732881414
            ]
        },
        {
            "positions": [
                0.5827527324341372,
                -1.3208513227192757,
                1.148614334687048,
                -0.9038185191509271,
                1.209742758299088,
                -1.21609928984485
            ]
        },
        {
            "positions": [
                0.680816573957246,
                -1.3492104900294817,
                1.180545500964788,
                -0.9096948706765265,
                1.172663256698623,
                -1.0290946064015585
            ]
        },
        {
            "positions": [
                0.778880415480355,
                -1.3775696573396874,
                1.212476667242528,
                -0.915571222202126,
                1.1355837550981582,
                -0.8420899229582672
            ]
        },
        {
            "positions": [
                0.8769442570034638,
                -1.4059288246498933,
                1.244407833520268,
                -0.9214475737277253,
                1.0985042534976932,
                -0.6550852395149759
            ]
        },
        {
            "positions": [
                0.9750080985265728,
                -1.434287991960099,
                1.276338999798008,
                -0.9273239252533247,
                1.0614247518972282,
                -0.46808055607168453
            ]
        },
        {
            "positions": [
                1.0730719400496818,
                -1.462647159270305,
                1.308270166075748,
                -0.9332002767789243,
                1.0243452502967634,
                -0.28107587262839306
            ]
        },
        {
            "positions": [
                1.1711357815727905,
                -1.4910063265805107,
                1.3402013323534878,
                -0.9390766283045235,
                0.9872657486962984,
                -0.09407118918510182
            ]
        },
        {
            "positions": [
                1.2691996230958995,
                -1.5193654938907166,
                1.372132498631228,
                -0.944952979830123,
                0.9501862470958335,
                0.09293349425818964
            ]
        },
        {
            "positions": [
                1.3672634646190085,
                -1.5477246612009223,
                1.4040636649089677,
                -0.9508293313557225,
                0.9131067454953685,
                0.2799381777014809
            ]
        },
        {
            "positions": [
                1.4653273061421173,
                -1.5760838285111283,
                1.435994831186708,
                -0.9567056828813219,
                0.8760272438949036,
                0.46694286114477235
            ]
        },
        {
            "positions": [
                1.5633911476652262,
                -1.604442995821334,
                1.4679259974644479,
                -0.9625820344069212,
                0.8389477422944387,
                0.6539475445880636
            ]
        },
        {
            "positions": [
                1.6614549891883352,
                -1.63280216313154,
                1.4998571637421878,
                -0.9684583859325206,
                0.8018682406939737,
                0.8409522280313553
            ]
        },
        {
            "positions": [
                1.759518830711444,
                -1.6611613304417459,
                1.5317883300199278,
                -0.97433473745812,
                0.7647887390935088,
                1.0279569114746465
            ]
        },
        {
            "positions": [
                1.857582672234553,
                -1.6895204977519516,
                1.5637194962976677,
                -0.9802110889837194,
                0.7277092374930438,
                1.2149615949179375
            ]
        },
        {
            "positions": [
                1.8568188586802805,
                -1.7370878437927948,
                1.7711162976726778,
                -0.9788942431807501,
                0.6533724934597427,
                1.2339741890652183
            ]
        },
        {
            "positions": [
                1.856055045126008,
                -1.784655189833638,
                1.9785130990476876,
                -0.9775773973777808,
                0.5790357494264415,
                1.252986783212499
            ]
        },
        {
            "positions": [
                1.806350074655443,
                -1.816850967736593,
                2.082059059137105,
                -0.9095645262849925,
                0.5014468054813846,
                1.19655291406283
            ]
        },
        {
            "positions": [
                1.7566451041848783,
                -1.849046745639548,
                2.1856050192265224,
                -0.8415516551922042,
                0.4238578615363277,
                1.1401190449131609
            ]
        },
        {
            "positions": [
                1.7069401337143133,
                -1.881242523542503,
                2.2891509793159397,
                -0.7735387840994159,
                0.34626891759127076,
                1.0836851757634918
            ]
        },
        {
            "positions": [
                1.6317945011915485,
                -1.8929736311873522,
                2.2966193756289304,
                -0.6891414395299498,
                0.3028854068712908,
                0.9346035229855895
            ]
        },
        {
            "positions": [
                1.5566488686687838,
                -1.9047047388322014,
                2.304087771941921,
                -0.6047440949604838,
                0.25950189615131086,
                0.7855218702076872
            ]
        },
        {
            "positions": [
                1.4815032361460192,
                -1.9164358464770503,
                2.3115561682549117,
                -0.5203467503910177,
                0.21611838543133088,
                0.6364402174297847
            ]
        },
        {
            "positions": [
                1.4063576036232543,
                -1.9281669541218995,
                2.3190245645679024,
                -0.4359494058215516,
                0.17273487471135093,
                0.48735856465188243
            ]
        },
        {
            "positions": [
                1.3312119711004895,
                -1.9398980617667487,
                2.3264929608808926,
                -0.35155206125208555,
                0.12935136399137098,
                0.3382769118739801
            ]
        },
        {
            "positions": [
                1.2560663385777249,
                -1.9516291694115977,
                2.3339613571938833,
                -0.2671547166826195,
                0.085967853271391,
                0.1891952590960777
            ]
        },
        {
            "positions": [
                1.1809207060549602,
                -1.963360277056447,
                2.341429753506874,
                -0.18275737211315346,
                0.04258434255141108,
                0.04011360631817551
            ]
        },
        {
            "positions": [
                1.1057750735321954,
                -1.975091384701296,
                2.3488981498198647,
                -0.09836002754368739,
                -0.0007991681685688926,
                -0.10896804645972683
            ]
        },
        {
            "positions": [
                1.0724809485479017,
                -1.9695597194256977,
                2.3526056246964635,
                -0.12872787067986569,
                0.05804562360386954,
                -0.36133533975790644
            ]
        },
        {
            "positions": [
                1.039186823563608,
                -1.9640280541500994,
                2.3563130995730623,
                -0.15909571381604398,
                0.11689041537630797,
                -0.6137026330560861
            ]
        },
        {
            "positions": [
                1.0058926985793142,
                -1.9584963888745013,
                2.360020574449661,
                -0.18946355695222228,
                0.1757352071487464,
                -0.8660699263542658
            ]
        },
        {
            "positions": [
                0.9725985735950203,
                -1.952964723598903,
                2.36372804932626,
                -0.21983140008840057,
                0.23457999892118483,
                -1.1184372196524455
            ]
        },
        {
            "positions": [
                0.9393044486107265,
                -1.9474330583233046,
                2.367435524202859,
                -0.25019924322457887,
                0.2934247906936233,
                -1.3708045129506254
            ]
        },
        {
            "positions": [
                0.9060103236264327,
                -1.9419013930477063,
                2.371142999079458,
                -0.28056708636075717,
                0.3522695824660617,
                -1.623171806248805
            ]
        },
        {
            "positions": [
                0.872716198642139,
                -1.936369727772108,
                2.374850473956057,
                -0.31093492949693546,
                0.41111437423850017,
                -1.8755390995469847
            ]
        },
        {
            "positions": [
                0.8394220736578453,
                -1.9308380624965096,
                2.378557948832656,
                -0.34130277263311376,
                0.46995916601093857,
                -2.127906392845164
            ]
        },
        {
            "positions": [
                0.8061279486735514,
                -1.9253063972209112,
                2.3822654237092546,
                -0.37167061576929206,
                0.5288039577833771,
                -2.380273686143344
            ]
        },
        {
            "positions": [
                0.7728338236892576,
                -1.9197747319453131,
                2.3859728985858535,
                -0.40203845890547035,
                0.5876487495558156,
                -2.6326409794415238
            ]
        },
        {
            "positions": [
                0.7395396987049638,
                -1.9142430666697148,
                2.3896803734624523,
                -0.43240630204164865,
                0.6464935413282539,
                -2.885008272739703
            ]
        },
        {
            "positions": [
                0.7062455737206701,
                -1.9087114013941164,
                2.393387848339051,
                -0.46277414517782695,
                0.7053383331006924,
                -3.137375566037883
            ]
        }
    ]
}