{
    "goal": {
        "global_pose": {
            "orientation": {
                "w": -0.00223480608172531,
                "x": 0.0024358444001904467,
                "y": 0.7094548369677653,
                "z": -0.704743149386269
            },
            "position": {
                "x": -0.37947507619857795,
                "y": -0.6371506643295288,
                "z": 0.19426114857196808
            }
        },
        "name": "move_to_magneteinheit_C"
    },
    "id": "SBL_move_to_magneteinheit_C_121",
    "joint_names": [
        "shoulder_pan_joint",
        "shoulder_lift_joint",
        "elbow_joint",
        "wrist_1_joint",
        "wrist_2_joint",
        "wrist_3_joint"
    ],
    "metrics": {
        "cart_traj_len": 6.3894955513734635,
        "distance_elbow_joint": 1.2453747161797395,
        "distance_shoulder_lift_joint": 2.465427103828584,
        "distance_shoulder_pan_joint": 9.136584661014968,
        "distance_wrist_1_joint": 2.3845890701214585,
        "distance_wrist_2_joint": 2.2553764289271196,
        "distance_wrist_3_joint": 4.714678170024495,
        "smoothness": 0.6037283861441173,
        "time": 0.46966345800000003,
        "traj_len": 4.711903028511555,
        "weighted_distance": 6.022570214550754
    },
    "planner": "SBL",
    "start": {
        "state": {
            "elbow_joint": 1.9565354010623817,
            "shoulder_lift_joint": -1.4165861575791021,
            "shoulder_pan_joint": -1.6717766225146293,
            "wrist_1_joint": -0.5286633292919765,
            "wrist_2_joint": 1.472756589071564,
            "wrist_3_joint": -3.1238370188695823
        }
    },
    "waypoints": [
        {
            "positions": [
                -1.6717766225146293,
                -1.4165861575791021,
                1.9565354010623817,
                -0.5286633292919765,
                1.472756589071564,
                -3.1238370188695823
            ]
        },
        {
            "positions": [
                -1.5229540507762638,
                -1.4560534583105929,
                1.9351693836958594,
                -0.49136560013197056,
                1.4180742186687008,
                -3.04009664593016
            ]
        },
        {
            "positions": [
                -1.3741314790378982,
                -1.4955207590420838,
                1.913803366329337,
                -0.4540678709719647,
                1.3633918482658378,
                -2.956356272990738
            ]
        },
        {
            "positions": [
                -1.2253089072995327,
                -1.5349880597735746,
                1.8924373489628148,
                -0.4167701418119588,
                1.3087094778629746,
                -2.8726159000513154
            ]
        },
        {
            "positions": [
                -1.0764863355611671,
                -1.5744553605050653,
                1.8710713315962926,
                -0.379472412651953,
                1.2540271074601115,
                -2.7888755271118932
            ]
        },
        {
            "positions": [
                -0.9276637638228016,
                -1.613922661236556,
                1.8497053142297701,
                -0.342174683491947,
                1.1993447370572485,
                -2.705135154172471
            ]
        },
        {
            "positions": [
                -0.778841192084436,
                -1.6533899619680468,
                1.828339296863248,
                -0.3048769543319412,
                1.1446623666543854,
                -2.6213947812330485
            ]
        },
        {
            "positions": [
                -0.6300186203460705,
                -1.6928572626995377,
                1.8069732794967255,
                -0.2675792251719353,
                1.0899799962515222,
                -2.5376544082936263
            ]
        },
        {
            "positions": [
                -0.48119604860770493,
                -1.7323245634310285,
                1.7856072621302033,
                -0.23028149601192943,
                1.035297625848659,
                -2.453914035354204
            ]
        },
        {
            "positions": [
                -0.3323734768693394,
                -1.7717918641625192,
                1.764241244763681,
                -0.19298376685192348,
                0.980615255445796,
                -2.370173662414782
            ]
        },
        {
            "positions": [
                -0.18355090513097383,
                -1.8112591648940102,
                1.7428752273971586,
                -0.15568603769191763,
                0.9259328850429329,
                -2.28643328947536
            ]
        },
        {
            "positions": [
                -0.03472833339260828,
                -1.850726465625501,
                1.7215092100306364,
                -0.11838830853191173,
                0.8712505146400698,
                -2.2026929165359372
            ]
        },
        {
            "positions": [
                0.11409423834575727,
                -1.8901937663569917,
                1.7001431926641142,
                -0.08109057937190589,
                0.8165681442372067,
                -2.118952543596515
            ]
        },
        {
            "positions": [
                0.2629168100841228,
                -1.9296610670884826,
                1.6787771752975917,
                -0.043792850211899936,
                0.7618857738343435,
                -2.0352121706570925
            ]
        },
        {
            "positions": [
                0.41173938182248837,
                -1.9691283678199731,
                1.6574111579310695,
                -0.006495121051894093,
                0.7072034034314805,
                -1.9514717977176705
            ]
        },
        {
            "positions": [
                0.5605619535608539,
                -2.008595668551464,
                1.6360451405645473,
                0.03080260810811175,
                0.6525210330286174,
                -1.8677314247782484
            ]
        },
        {
            "positions": [
                0.7093845252992195,
                -2.048062969282955,
                1.6146791231980249,
                0.0681003372681176,
                0.5978386626257544,
                -1.783991051838826
            ]
        },
        {
            "positions": [
                0.858207097037585,
                -2.0875302700144456,
                1.5933131058315027,
                0.10539806642812355,
                0.5431562922228912,
                -1.7002506788994038
            ]
        },
        {
            "positions": [
                1.0070296687759506,
                -2.1269975707459365,
                1.5719470884649804,
                0.1426957955881295,
                0.488473921820028,
                -1.6165103059599812
            ]
        },
        {
            "positions": [
                1.1558522405143161,
                -2.1664648714774275,
                1.550581071098458,
                0.17999352474813535,
                0.43379155141716486,
                -1.532769933020559
            ]
        },
        {
            "positions": [
                1.3046748122526817,
                -2.205932172208918,
                1.5292150537319358,
                0.2172912539081412,
                0.3791091810143019,
                -1.449029560081137
            ]
        },
        {
            "positions": [
                1.4534973839910472,
                -2.2453994729404085,
                1.5078490363654136,
                0.25458898306814715,
                0.32442681061143874,
                -1.3652891871417148
            ]
        },
        {
            "positions": [
                1.6023199557294128,
                -2.2848667736718995,
                1.4864830189988911,
                0.291886712228153,
                0.2697444402085756,
                -1.2815488142022924
            ]
        },
        {
            "positions": [
                1.7511425274677783,
                -2.3243340744033905,
                1.465117001632369,
                0.32918444138815883,
                0.21506206980571263,
                -1.1978084412628702
            ]
        },
        {
            "positions": [
                1.8999650992061439,
                -2.363801375134881,
                1.4437509842658467,
                0.3664821705481647,
                0.16037969940284946,
                -1.1140680683234478
            ]
        },
        {
            "positions": [
                2.0487876709445096,
                -2.403268675866372,
                1.4223849668993243,
                0.40377989970817063,
                0.1056973289999863,
                -1.0303276953840252
            ]
        },
        {
            "positions": [
                2.1976102426828747,
                -2.442735976597863,
                1.4010189495328018,
                0.4410776288681766,
                0.05101495859712313,
                -0.9465873224446031
            ]
        },
        {
            "positions": [
                2.3464328144212407,
                -2.4822032773293534,
                1.3796529321662798,
                0.47837535802818243,
                -0.0036674118057398175,
                -0.8628469495051809
            ]
        },
        {
            "positions": [
                2.495255386159606,
                -2.5216705780608444,
                1.3582869147997574,
                0.5156730871881883,
                -0.058349782208602985,
                -0.7791065765657588
            ]
        },
        {
            "positions": [
                2.3238915015961323,
                -2.474762209669574,
                1.3806016123831062,
                0.46945747844193675,
                -0.03337495263457006,
                -0.8608289120044026
            ]
        },
        {
            "positions": [
                2.152527617032659,
                -2.4278538412783037,
                1.402916309966455,
                0.42324186969568517,
                -0.008400123060537133,
                -0.9425512474430463
            ]
        },
        {
            "positions": [
                1.9811637324691849,
                -2.380945472887033,
                1.4252310075498038,
                0.37702626094943364,
                0.016574706513495796,
                -1.02427358288169
            ]
        },
        {
            "positions": [
                1.8097998479057114,
                -2.334037104495763,
                1.4475457051331526,
                0.33081065220318207,
                0.04154953608752872,
                -1.1059959183203338
            ]
        },
        {
            "positions": [
                1.6384359633422376,
                -2.2871287361044925,
                1.4698604027165014,
                0.28459504345693054,
                0.06652436566156165,
                -1.1877182537589777
            ]
        },
        {
            "positions": [
                1.467072078778764,
                -2.240220367713222,
                1.4921751002998502,
                0.23837943471067902,
                0.09149919523559458,
                -1.2694405891976215
            ]
        },
        {
            "positions": [
                1.2957081942152904,
                -2.193311999321952,
                1.514489797883199,
                0.19216382596442744,
                0.11647402480962751,
                -1.3511629246362653
            ]
        },
        {
            "positions": [
                1.1243443096518169,
                -2.1464036309306813,
                1.5368044954665478,
                0.1459482172181759,
                0.14144885438366042,
                -1.432885260074909
            ]
        },
        {
            "positions": [
                0.9529804250883431,
                -2.0994952625394108,
                1.5591191930498967,
                0.09973260847192433,
                0.16642368395769336,
                -1.514607595513553
            ]
        },
        {
            "positions": [
                0.7816165405248694,
                -2.0525868941481407,
                1.5814338906332455,
                0.053516999725672754,
                0.1913985135317263,
                -1.5963299309521966
            ]
        },
        {
            "positions": [
                0.6102526559613959,
                -2.0056785257568706,
                1.6037485882165943,
                0.007301390979421285,
                0.21637334310575917,
                -1.6780522663908404
            ]
        },
        {
            "positions": [
                0.4388887713979224,
                -1.9587701573656,
                1.626063285799943,
                -0.03891421776683024,
                0.24134817267979214,
                -1.7597746018294842
            ]
        },
        {
            "positions": [
                0.2675248868344484,
                -1.9118617889743295,
                1.6483779833832917,
                -0.08512982651308187,
                0.26632300225382505,
                -1.841496937268128
            ]
        },
        {
            "positions": [
                0.0961610022709749,
                -1.8649534205830591,
                1.6706926809666407,
                -0.1313454352593334,
                0.291297831827858,
                -1.9232192727067718
            ]
        },
        {
            "positions": [
                -0.07520288229249905,
                -1.8180450521917888,
                1.6930073785499893,
                -0.17756104400558503,
                0.3162726614018909,
                -2.0049416081454154
            ]
        },
        {
            "positions": [
                -0.24656676685597212,
                -1.7711366838005183,
                1.7153220761333383,
                -0.22377665275183645,
                0.34124749097592383,
                -2.0866639435840595
            ]
        },
        {
            "positions": [
                -0.41793065141944563,
                -1.7242283154092481,
                1.737636773716687,
                -0.26999226149808797,
                0.36622232054995674,
                -2.168386279022703
            ]
        },
        {
            "positions": [
                -0.5892945359829196,
                -1.6773199470179776,
                1.759951471300036,
                -0.3162078702443396,
                0.3911971501239897,
                -2.2501086144613467
            ]
        },
        {
            "positions": [
                -0.7606584205463931,
                -1.6304115786267073,
                1.7822661688833845,
                -0.36242347899059113,
                0.4161719796980226,
                -2.3318309498999907
            ]
        },
        {
            "positions": [
                -0.932022305109867,
                -1.583503210235437,
                1.8045808664667335,
                -0.40863908773684277,
                0.4411468092720556,
                -2.413553285338635
            ]
        },
        {
            "positions": [
                -1.1033861896733406,
                -1.5365948418441664,
                1.8268955640500821,
                -0.4548546964830942,
                0.4661216388460885,
                -2.495275620777278
            ]
        },
        {
            "positions": [
                -1.274750074236814,
                -1.4896864734528963,
                1.849210261633431,
                -0.5010703052293457,
                0.49109646842012133,
                -2.576997956215922
            ]
        },
        {
            "positions": [
                -1.446113958800288,
                -1.4427781050616257,
                1.8715249592167797,
                -0.5472859139755974,
                0.5160712979941543,
                -2.658720291654566
            ]
        },
        {
            "positions": [
                -1.617477843363761,
                -1.3958697366703554,
                1.8938396568001286,
                -0.5935015227218488,
                0.5410461275681873,
                -2.7404426270932096
            ]
        },
        {
            "positions": [
                -1.7888417279272346,
                -1.348961368279085,
                1.9161543543834774,
                -0.6397171314681003,
                0.5660209571422201,
                -2.8221649625318532
            ]
        },
        {
            "positions": [
                -1.960205612490709,
                -1.3020529998878148,
                1.9384690519668262,
                -0.685932740214352,
                0.5909957867162531,
                -2.9038872979704973
            ]
        },
        {
            "positions": [
                -2.1315694970541825,
                -1.2551446314965444,
                1.960783749550175,
                -0.7321483489606035,
                0.615970616290286,
                -2.985609633409141
            ]
        },
        {
            "positions": [
                -2.302933381617656,
                -1.2082362631052739,
                1.9830984471335238,
                -0.7783639577068551,
                0.640945445864319,
                -3.067331968847785
            ]
        },
        {
            "positions": [
                -2.4742972661811296,
                -1.1613278947140036,
                2.0054131447168726,
                -0.8245795664531065,
                0.6659202754383519,
                -3.1490543042864285
            ]
        }
    ]
}