{
    "goal": {
        "global_pose": {
            "orientation": {
                "w": 0.5084816262002911,
                "x": -0.4908360881923452,
                "y": 0.5182115481033761,
                "z": -0.48164630358495003
            },
            "position": {
                "x": 0.5540239810943604,
                "y": -0.46912469901144505,
                "z": 0.16403168439865112
            }
        },
        "name": "move_to_storage_B"
    },
    "id": "SBL_move_to_storage_B_76",
    "joint_names": [
        "shoulder_pan_joint",
        "shoulder_lift_joint",
        "elbow_joint",
        "wrist_1_joint",
        "wrist_2_joint",
        "wrist_3_joint"
    ],
    "metrics": {
        "cart_traj_len": 4.719878368942595,
        "distance_elbow_joint": 4.84517578958693,
        "distance_shoulder_lift_joint": 1.359035162002657,
        "distance_shoulder_pan_joint": 3.7563285890907765,
        "distance_wrist_1_joint": 1.9183997898767442,
        "distance_wrist_2_joint": 0.747626155335104,
        "distance_wrist_3_joint": 3.1347334452655926,
        "smoothness": 0.2453528063317539,
        "time": 0.704942108,
        "traj_len": 3.970050242900939,
        "weighted_distance": 4.969586679684825
    },
    "planner": "SBL",
    "start": {
        "state": {
            "elbow_joint": -1.6666013991110213,
            "shoulder_lift_joint": -2.479295265494141,
            "shoulder_pan_joint": 2.6606783912885628,
            "wrist_1_joint": 0.9897123657714939,
            "wrist_2_joint": 0.474351758749468,
            "wrist_3_joint": 0.013243222496468381
        }
    },
    "waypoints": [
        {
            "positions": [
                2.6606783912885628,
                -2.479295265494141,
                -1.6666013991110213,
                0.9897123657714939,
                0.474351758749468,
                0.013243222496468381
            ]
        },
        {
            "positions": [
                2.6268432934673105,
                -2.4022136657740205,
                -1.811420258489635,
                0.9973252775533604,
                0.39716509886412293,
                -0.00238720512202
            ]
        },
        {
            "positions": [
                2.5930081956460587,
                -2.3251320660538997,
                -1.956239117868249,
                1.004938189335227,
                0.31997843897877787,
                -0.018017632740508382
            ]
        },
        {
            "positions": [
                2.5591730978248064,
                -2.248050466333779,
                -2.1010579772468625,
                1.0125511011170936,
                0.2427917790934328,
                -0.03364806035899676
            ]
        },
        {
            "positions": [
                2.525338000003554,
                -2.1709688666136584,
                -2.2458768366254764,
                1.02016401289896,
                0.16560511920808776,
                -0.04927848797748514
            ]
        },
        {
            "positions": [
                2.3708052112066076,
                -2.0990567483219738,
                -2.1457659459220557,
                0.9658064873828517,
                0.1602937895525392,
                -0.04885545657136837
            ]
        },
        {
            "positions": [
                2.2162724224096615,
                -2.027144630030289,
                -2.0456550552186346,
                0.9114489618667434,
                0.15498245989699067,
                -0.0484324251652516
            ]
        },
        {
            "positions": [
                2.0617396336127154,
                -1.9552325117386045,
                -1.9455441645152136,
                0.8570914363506352,
                0.1496711302414421,
                -0.04800939375913483
            ]
        },
        {
            "positions": [
                1.9072068448157689,
                -1.8833203934469198,
                -1.8454332738117927,
                0.8027339108345269,
                0.14435980058589357,
                -0.04758636235301806
            ]
        },
        {
            "positions": [
                1.7526740560188225,
                -1.8114082751552352,
                -1.745322383108372,
                0.7483763853184187,
                0.139048470930345,
                -0.04716333094690129
            ]
        },
        {
            "positions": [
                1.5981412672218762,
                -1.7394961568635505,
                -1.6452114924049508,
                0.6940188598023104,
                0.13373714127479647,
                -0.04674029954078451
            ]
        },
        {
            "positions": [
                1.4436084784249301,
                -1.6675840385718659,
                -1.54510060170153,
                0.6396613342862022,
                0.1284258116192479,
                -0.046317268134667744
            ]
        },
        {
            "positions": [
                1.2890756896279836,
                -1.5956719202801812,
                -1.444989710998109,
                0.5853038087700939,
                0.12311448196369935,
                -0.045894236728550974
            ]
        },
        {
            "positions": [
                1.1345429008310375,
                -1.5237598019884966,
                -1.3448788202946882,
                0.5309462832539856,
                0.1178031523081508,
                -0.045471205322434205
            ]
        },
        {
            "positions": [
                0.9800101120340909,
                -1.451847683696812,
                -1.2447679295912673,
                0.47658875773787734,
                0.11249182265260226,
                -0.045048173916317436
            ]
        },
        {
            "positions": [
                0.8254773232371448,
                -1.3799355654051273,
                -1.1446570388878463,
                0.42223123222176917,
                0.1071804929970537,
                -0.044625142510200666
            ]
        },
        {
            "positions": [
                0.6709445344401983,
                -1.3080234471134426,
                -1.0445461481844254,
                0.3678737067056608,
                0.10186916334150516,
                -0.0442021111040839
            ]
        },
        {
            "positions": [
                0.5164117456432522,
                -1.236111328821758,
                -0.9444352574810043,
                0.3135161811895526,
                0.0965578336859566,
                -0.04377907969796713
            ]
        },
        {
            "positions": [
                0.44924249799969107,
                -1.2312841944329966,
                -0.8209161419423375,
                0.26429533489622464,
                0.11196750994727298,
                -0.1715587599693055
            ]
        },
        {
            "positions": [
                0.38207325035612993,
                -1.2264570600442353,
                -0.6973970264036706,
                0.21507448860289669,
                0.12737718620858934,
                -0.2993384402406439
            ]
        },
        {
            "positions": [
                0.3149040027125688,
                -1.2216299256554737,
                -0.5738779108650038,
                0.1658536423095687,
                0.14278686246990568,
                -0.4271181205119823
            ]
        },
        {
            "positions": [
                0.24773475506900772,
                -1.2168027912667123,
                -0.45035879532633705,
                0.11663279601624074,
                0.15819653873122205,
                -0.5548978007833206
            ]
        },
        {
            "positions": [
                0.18056550742544658,
                -1.211975656877951,
                -0.32683967978767015,
                0.06741194972291276,
                0.17360621499253842,
                -0.6826774810546591
            ]
        },
        {
            "positions": [
                0.11339625978188544,
                -1.2071485224891894,
                -0.20332056424900335,
                0.0181911034295848,
                0.18901589125385476,
                -0.8104571613259974
            ]
        },
        {
            "positions": [
                0.04622701213832431,
                -1.202321388100428,
                -0.07980144871033645,
                -0.031029742863743215,
                0.20442556751517116,
                -0.9382368415973359
            ]
        },
        {
            "positions": [
                -0.020942235505236773,
                -1.1974942537116666,
                0.043717666828330226,
                -0.08025058915707112,
                0.2198352437764875,
                -1.0660165218686741
            ]
        },
        {
            "positions": [
                -0.08811148314879791,
                -1.1926671193229053,
                0.16723678236699702,
                -0.12947143545039907,
                0.23524492003780387,
                -1.1937962021400126
            ]
        },
        {
            "positions": [
                -0.15528073079235905,
                -1.1878399849341439,
                0.29075589790566403,
                -0.1786922817437271,
                0.25065459629912024,
                -1.321575882411351
            ]
        },
        {
            "positions": [
                -0.22244997843592018,
                -1.1830128505453823,
                0.4142750134443308,
                -0.227913128037055,
                0.2660642725604366,
                -1.4493555626826893
            ]
        },
        {
            "positions": [
                -0.2896192260794813,
                -1.178185716156621,
                0.5377941289829976,
                -0.277133974330383,
                0.2814739488217529,
                -1.5771352429540277
            ]
        },
        {
            "positions": [
                -0.35678847372304234,
                -1.1733585817678596,
                0.6613132445216644,
                -0.3263548206237109,
                0.2968836250830693,
                -1.704914923225366
            ]
        },
        {
            "positions": [
                -0.4239577213666036,
                -1.168531447379098,
                0.7848323600603314,
                -0.37557566691703903,
                0.3122933013443857,
                -1.8326946034967047
            ]
        },
        {
            "positions": [
                -0.4911269690101647,
                -1.1637043129903366,
                0.9083514755989982,
                -0.42479651321036693,
                0.327702977605702,
                -1.960474283768043
            ]
        },
        {
            "positions": [
                -0.5582962166537258,
                -1.1588771786015752,
                1.0318705911376647,
                -0.47401735950369484,
                0.3431126538670184,
                -2.088253964039381
            ]
        },
        {
            "positions": [
                -0.625465464297287,
                -1.1540500442128139,
                1.1553897066763317,
                -0.5232382057970228,
                0.3585223301283348,
                -2.21603364431072
            ]
        },
        {
            "positions": [
                -0.692634711940848,
                -1.1492229098240525,
                1.2789088222149982,
                -0.5724590520903508,
                0.37393200638965113,
                -2.343813324582058
            ]
        },
        {
            "positions": [
                -0.759803959584409,
                -1.144395775435291,
                1.4024279377536653,
                -0.6216798983836788,
                0.38934168265096747,
                -2.4715930048533963
            ]
        },
        {
            "positions": [
                -0.8269732072279703,
                -1.1395686410465296,
                1.5259470532923323,
                -0.6709007446770068,
                0.40475135891228387,
                -2.599372685124735
            ]
        },
        {
            "positions": [
                -0.8941424548715315,
                -1.1347415066577682,
                1.6494661688309988,
                -0.7201215909703347,
                0.4201610351736002,
                -2.727152365396073
            ]
        },
        {
            "positions": [
                -0.9613117025150926,
                -1.1299143722690066,
                1.7729852843696658,
                -0.7693424372636626,
                0.43557071143491655,
                -2.8549320456674114
            ]
        },
        {
            "positions": [
                -1.0284809501586538,
                -1.1250872378802452,
                1.8965043999083329,
                -0.8185632835569907,
                0.45098038769623294,
                -2.98271172593875
            ]
        },
        {
            "positions": [
                -1.0956501978022148,
                -1.1202601034914839,
                2.0200235154469994,
                -0.8677841298503186,
                0.4663900639575493,
                -3.1104914062100883
            ]
        }
    ]
}