{
    "goal": {
        "global_pose": {
            "orientation": {
                "w": -0.00223480608172531,
                "x": 0.0024358444001904467,
                "y": 0.7094548369677653,
                "z": -0.704743149386269
            },
            "position": {
                "x": 0.6205249238014221,
                "y": -0.6371506643295288,
                "z": 0.19426114857196808
            }
        },
        "name": "move_to_magneteinheit_B"
    },
    "id": "SBL_move_to_magneteinheit_B_124",
    "joint_names": [
        "shoulder_pan_joint",
        "shoulder_lift_joint",
        "elbow_joint",
        "wrist_1_joint",
        "wrist_2_joint",
        "wrist_3_joint"
    ],
    "metrics": {
        "cart_traj_len": 3.162559175492298,
        "distance_elbow_joint": 5.094825443590956,
        "distance_shoulder_lift_joint": 1.0575902000910018,
        "distance_shoulder_pan_joint": 2.7355273060591996,
        "distance_wrist_1_joint": 1.4663101950716497,
        "distance_wrist_2_joint": 1.1821635743451493,
        "distance_wrist_3_joint": 2.383612085940399,
        "smoothness": 0.5611648503876916,
        "time": 1.4813207899999998,
        "traj_len": 3.7309554815219057,
        "weighted_distance": 4.619061240814626
    },
    "planner": "SBL",
    "start": {
        "state": {
            "elbow_joint": 2.6216224122426386,
            "shoulder_lift_joint": -1.4174107377796124,
            "shoulder_pan_joint": 0.7066234856936794,
            "wrist_1_joint": 1.9546482284002225,
            "wrist_2_joint": -0.7096286983471962,
            "wrist_3_joint": 0.005740856962016249
        }
    },
    "waypoints": [
        {
            "positions": [
                0.7066234856936794,
                -1.4174107377796124,
                2.6216224122426386,
                1.9546482284002225,
                -0.7096286983471962,
                0.005740856962016249
            ]
        },
        {
            "positions": [
                0.6793591054556009,
                -1.4734112159334036,
                2.6121554764223793,
                1.8544554999593044,
                -0.6831255889152614,
                0.09095891477254507
            ]
        },
        {
            "positions": [
                0.6520947252175224,
                -1.5294116940871951,
                2.60268854060212,
                1.7542627715183863,
                -0.6566224794833267,
                0.1761769725830739
            ]
        },
        {
            "positions": [
                0.6248303449794439,
                -1.5854121722409866,
                2.593221604781861,
                1.654070043077468,
                -0.6301193700513921,
                0.26139503039360273
            ]
        },
        {
            "positions": [
                0.5975659647413654,
                -1.641412650394778,
                2.5837546689616016,
                1.5538773146365499,
                -0.6036162606194573,
                0.34661308820413156
            ]
        },
        {
            "positions": [
                0.6952862334113721,
                -1.655847261588425,
                2.389707222598108,
                1.5195389215356825,
                -0.5979683558125766,
                0.2974844179677843
            ]
        },
        {
            "positions": [
                0.7930065020813788,
                -1.670281872782072,
                2.195659776234615,
                1.485200528434815,
                -0.5923204510056959,
                0.248355747731437
            ]
        },
        {
            "positions": [
                0.8907267707513855,
                -1.684716483975719,
                2.0016123298711213,
                1.4508621353339477,
                -0.5866725461988151,
                0.19922707749508972
            ]
        },
        {
            "positions": [
                0.9884470394213922,
                -1.699151095169366,
                1.807564883507628,
                1.4165237422330803,
                -0.5810246413919343,
                0.15009840725874246
            ]
        },
        {
            "positions": [
                1.086167308091399,
                -1.713585706363013,
                1.6135174371441343,
                1.382185349132213,
                -0.5753767365850536,
                0.10096973702239515
            ]
        },
        {
            "positions": [
                1.1838875767614057,
                -1.7280203175566602,
                1.419469990780641,
                1.3478469560313455,
                -0.5697288317781729,
                0.051841066786047885
            ]
        },
        {
            "positions": [
                1.2816078454314124,
                -1.7424549287503073,
                1.2254225444171474,
                1.3135085629304781,
                -0.5640809269712922,
                0.0027123965497005686
            ]
        },
        {
            "positions": [
                1.379328114101419,
                -1.7568895399439544,
                1.0313750980536542,
                1.279170169829611,
                -0.5584330221644115,
                -0.046416273686646636
            ]
        },
        {
            "positions": [
                1.4770483827714258,
                -1.7713241511376014,
                0.8373276516901607,
                1.2448317767287436,
                -0.5527851173575307,
                -0.09554494392299395
            ]
        },
        {
            "positions": [
                1.5747686514414325,
                -1.7857587623312483,
                0.6432802053266671,
                1.210493383627876,
                -0.54713721255065,
                -0.14467361415934127
            ]
        },
        {
            "positions": [
                1.6724889201114392,
                -1.8001933735248954,
                0.44923275896317394,
                1.1761549905270088,
                -0.5414893077437692,
                -0.19380228439568853
            ]
        },
        {
            "positions": [
                1.770209188781446,
                -1.8146279847185425,
                0.25518531259968036,
                1.1418165974261414,
                -0.5358414029368885,
                -0.2429309546320358
            ]
        },
        {
            "positions": [
                1.8679294574514527,
                -1.8290625959121896,
                0.06113786623618722,
                1.107478204325274,
                -0.5301934981300078,
                -0.29205962486838305
            ]
        },
        {
            "positions": [
                1.9656497261214594,
                -1.8434972071058366,
                -0.1329095801273068,
                1.0731398112244066,
                -0.5245455933231271,
                -0.3411882951047304
            ]
        },
        {
            "positions": [
                2.063369994791466,
                -1.8579318182994835,
                -0.32695702649079994,
                1.0388014181235392,
                -0.5188976885162464,
                -0.3903169653410777
            ]
        },
        {
            "positions": [
                2.161090263461473,
                -1.8723664294931306,
                -0.5210044728542931,
                1.0044630250226718,
                -0.5132497837093656,
                -0.43944563557742483
            ]
        },
        {
            "positions": [
                2.2588105321314798,
                -1.8868010406867777,
                -0.7150519192177871,
                0.9701246319218043,
                -0.5076018789024849,
                -0.4885743058137722
            ]
        },
        {
            "positions": [
                2.3565308008014862,
                -1.9012356518804248,
                -0.9090993655812802,
                0.935786238820937,
                -0.5019539740956042,
                -0.5377029760501195
            ]
        },
        {
            "positions": [
                2.4542510694714927,
                -1.9156702630740718,
                -1.1031468119447734,
                0.9014478457200696,
                -0.49630606928872345,
                -0.5868316462864667
            ]
        },
        {
            "positions": [
                2.5519713381414997,
                -1.930104874267719,
                -1.2971942583082674,
                0.8671094526192021,
                -0.4906581644818427,
                -0.635960316522814
            ]
        },
        {
            "positions": [
                2.6496916068115066,
                -1.944539485461366,
                -1.4912417046717605,
                0.8327710595183349,
                -0.485010259674962,
                -0.6850889867591612
            ]
        },
        {
            "positions": [
                2.747411875481513,
                -1.9589740966550129,
                -1.6852891510352537,
                0.7984326664174675,
                -0.47936235486808126,
                -0.7342176569955086
            ]
        },
        {
            "positions": [
                2.84513214415152,
                -1.97340870784866,
                -1.8793365973987477,
                0.7640942733166001,
                -0.4737144500612005,
                -0.7833463272318559
            ]
        },
        {
            "positions": [
                2.9428524128215265,
                -1.987843319042307,
                -2.0733840437622404,
                0.7297558802157327,
                -0.4680665452543198,
                -0.8324749974682031
            ]
        },
        {
            "positions": [
                2.9116098198185574,
                -2.0419719433565633,
                -2.0289597118082323,
                0.7565800854254171,
                -0.36355527622628947,
                -0.7365136897986532
            ]
        },
        {
            "positions": [
                2.8803672268155878,
                -2.0961005676708195,
                -1.984535379854224,
                0.7834042906351016,
                -0.25904400719825915,
                -0.6405523821291033
            ]
        },
        {
            "positions": [
                2.8491246338126186,
                -2.1502291919850762,
                -1.9401110479002157,
                0.8102284958447861,
                -0.15453273817022878,
                -0.5445910744595532
            ]
        },
        {
            "positions": [
                2.817882040809649,
                -2.2043578162993325,
                -1.8956867159462074,
                0.8370527010544705,
                -0.05002146914219846,
                -0.4486297667900033
            ]
        },
        {
            "positions": [
                2.78663944780668,
                -2.2584864406135887,
                -1.8512623839921993,
                0.863876906264155,
                0.05448979988583191,
                -0.3526684591204533
            ]
        },
        {
            "positions": [
                2.75539685480371,
                -2.312615064927845,
                -1.806838052038191,
                0.8907011114738395,
                0.15900106891386223,
                -0.2567071514509034
            ]
        },
        {
            "positions": [
                2.724154261800741,
                -2.3667436892421017,
                -1.7624137200841827,
                0.9175253166835239,
                0.26351233794189266,
                -0.16074584378135348
            ]
        },
        {
            "positions": [
                2.6929116687977714,
                -2.420872313556358,
                -1.7179893881301747,
                0.9443495218932083,
                0.36802360696992287,
                -0.06478453611180357
            ]
        },
        {
            "positions": [
                2.6616690757948023,
                -2.475000937870614,
                -1.6735650561761664,
                0.9711737271028928,
                0.4725348759979533,
                0.031176771557746435
            ]
        }
    ]
}