{
    "goal": {
        "global_pose": {
            "orientation": {
                "w": -0.00223480608172531,
                "x": 0.0024358444001904467,
                "y": 0.7094548369677653,
                "z": -0.704743149386269
            },
            "position": {
                "x": 0.6205249238014221,
                "y": -0.6371506643295288,
                "z": 0.19426114857196808
            }
        },
        "name": "move_to_magneteinheit_B"
    },
    "id": "SBL_move_to_magneteinheit_B_7",
    "joint_names": [
        "shoulder_pan_joint",
        "shoulder_lift_joint",
        "elbow_joint",
        "wrist_1_joint",
        "wrist_2_joint",
        "wrist_3_joint"
    ],
    "metrics": {
        "cart_traj_len": 3.741850982354146,
        "distance_elbow_joint": 4.283391407221934,
        "distance_shoulder_lift_joint": 1.0643842679952105,
        "distance_shoulder_pan_joint": 2.827856135423436,
        "distance_wrist_1_joint": 2.0859468402653194,
        "distance_wrist_2_joint": 1.5951824538844237,
        "distance_wrist_3_joint": 2.2755306257138583,
        "smoothness": 0.6254070318820731,
        "time": 0.835538141,
        "traj_len": 3.759294046826369,
        "weighted_distance": 4.729110093461733
    },
    "planner": "SBL",
    "start": {
        "state": {
            "elbow_joint": 2.6216224122426386,
            "shoulder_lift_joint": -1.4174107377796124,
            "shoulder_pan_joint": 0.7066234856936794,
            "wrist_1_joint": 1.9546482284002225,
            "wrist_2_joint": -0.7096286983471962,
            "wrist_3_joint": 0.005740856962016249
        }
    },
    "waypoints": [
        {
            "positions": [
                0.7066234856936794,
                -1.4174107377796124,
                2.6216224122426386,
                1.9546482284002225,
                -0.7096286983471962,
                0.005740856962016249
            ]
        },
        {
            "positions": [
                0.5744664365180644,
                -1.4651171391164448,
                2.575978710203877,
                1.988658526663597,
                -0.7914314385045161,
                0.05712145431281005
            ]
        },
        {
            "positions": [
                0.4423093873424494,
                -1.512823540453277,
                2.5303350081651157,
                2.0226688249269715,
                -0.8732341786618361,
                0.10850205166360385
            ]
        },
        {
            "positions": [
                0.49763578549646725,
                -1.5309042294621789,
                2.3590368551089433,
                1.953664238640841,
                -0.845605179458501,
                0.0598455335010376
            ]
        },
        {
            "positions": [
                0.5529621836504851,
                -1.5489849184710809,
                2.187738702052771,
                1.8846596523547103,
                -0.817976180255166,
                0.011189015338471345
            ]
        },
        {
            "positions": [
                0.608288581804503,
                -1.5670656074799827,
                2.0164405489965986,
                1.81565506606858,
                -0.790347181051831,
                -0.03746750282409489
            ]
        },
        {
            "positions": [
                0.6636149799585208,
                -1.5851462964888845,
                1.8451423959404258,
                1.7466504797824494,
                -0.7627181818484959,
                -0.08612402098666117
            ]
        },
        {
            "positions": [
                0.7189413781125387,
                -1.6032269854977865,
                1.6738442428842535,
                1.6776458934963188,
                -0.735089182645161,
                -0.13478053914922739
            ]
        },
        {
            "positions": [
                0.7742677762665564,
                -1.6213076745066883,
                1.5025460898280811,
                1.6086413072101884,
                -0.7074601834418259,
                -0.18343705731179363
            ]
        },
        {
            "positions": [
                0.8295941744205744,
                -1.6393883635155904,
                1.3312479367719086,
                1.5396367209240578,
                -0.679831184238491,
                -0.2320935754743599
            ]
        },
        {
            "positions": [
                0.8849205725745921,
                -1.6574690525244922,
                1.159949783715736,
                1.4706321346379272,
                -0.6522021850351559,
                -0.28075009363692616
            ]
        },
        {
            "positions": [
                0.9402469707286101,
                -1.675549741533394,
                0.9886516306595634,
                1.4016275483517968,
                -0.6245731858318209,
                -0.3294066117994924
            ]
        },
        {
            "positions": [
                0.9955733688826278,
                -1.693630430542296,
                0.8173534776033913,
                1.3326229620656662,
                -0.5969441866284859,
                -0.3780631299620586
            ]
        },
        {
            "positions": [
                1.0508997670366456,
                -1.7117111195511978,
                0.6460553245472187,
                1.2636183757795356,
                -0.5693151874251509,
                -0.42671964812462493
            ]
        },
        {
            "positions": [
                1.1062261651906633,
                -1.7297918085600996,
                0.47475717149104657,
                1.1946137894934052,
                -0.5416861882218158,
                -0.47537616628719115
            ]
        },
        {
            "positions": [
                1.1615525633446815,
                -1.7478724975690016,
                0.3034590184348738,
                1.1256092032072744,
                -0.5140571890184809,
                -0.5240326844497575
            ]
        },
        {
            "positions": [
                1.2168789614986992,
                -1.7659531865779035,
                0.13216086537870142,
                1.056604616921144,
                -0.4864281898151458,
                -0.5726892026123237
            ]
        },
        {
            "positions": [
                1.272205359652717,
                -1.7840338755868053,
                -0.03913728767747093,
                0.9876000306350134,
                -0.4587991906118108,
                -0.6213457207748899
            ]
        },
        {
            "positions": [
                1.327531757806735,
                -1.8021145645957073,
                -0.21043544073364373,
                0.9185954443488829,
                -0.43117019140847573,
                -0.6700022389374563
            ]
        },
        {
            "positions": [
                1.3828581559607527,
                -1.820195253604609,
                -0.3817335937898161,
                0.8495908580627525,
                -0.4035411922051408,
                -0.7186587571000224
            ]
        },
        {
            "positions": [
                1.4381845541147706,
                -1.8382759426135111,
                -0.5530317468459889,
                0.7805862717766219,
                -0.37591219300180573,
                -0.7673152752625887
            ]
        },
        {
            "positions": [
                1.4935109522687884,
                -1.856356631622413,
                -0.7243298999021608,
                0.7115816854904913,
                -0.3482831937984707,
                -0.8159717934251549
            ]
        },
        {
            "positions": [
                1.5488373504228061,
                -1.8744373206313147,
                -0.8956280529583331,
                0.6425770992043609,
                -0.32065419459513567,
                -0.8646283115877211
            ]
        },
        {
            "positions": [
                1.6041637485768243,
                -1.8925180096402168,
                -1.066926206014506,
                0.5735725129182301,
                -0.2930251953918006,
                -0.9132848297502875
            ]
        },
        {
            "positions": [
                1.659490146730842,
                -1.9105986986491186,
                -1.2382243590706783,
                0.5045679266320997,
                -0.2653961961884657,
                -0.9619413479128537
            ]
        },
        {
            "positions": [
                1.8942160005517312,
                -1.9717064214045659,
                -1.260324375483036,
                0.5583083534219972,
                -0.2739014525683954,
                -0.9763522610020815
            ]
        },
        {
            "positions": [
                2.1289418543726204,
                -2.0328141441600134,
                -1.2824243918953935,
                0.6120487802118947,
                -0.2824067089483251,
                -0.9907631740913093
            ]
        },
        {
            "positions": [
                2.3636677081935096,
                -2.0939218669154607,
                -1.3045244083077512,
                0.6657892070017922,
                -0.29091196532825475,
                -1.0051740871805372
            ]
        },
        {
            "positions": [
                2.5983935620143987,
                -2.155029589670908,
                -1.3266244247201087,
                0.7195296337916897,
                -0.29941722170818447,
                -1.019585000269765
            ]
        },
        {
            "positions": [
                2.833119415835288,
                -2.2161373124263553,
                -1.3487244411324664,
                0.7732700605815872,
                -0.3079224780881141,
                -1.0339959133589929
            ]
        },
        {
            "positions": [
                2.811527914762867,
                -2.249344524094914,
                -1.3878550103633198,
                0.8021604620183636,
                -0.21027088943851854,
                -0.9052119801102835
            ]
        },
        {
            "positions": [
                2.789936413690446,
                -2.282551735763472,
                -1.4269855795941733,
                0.83105086345514,
                -0.11261930078892296,
                -0.7764280468615741
            ]
        },
        {
            "positions": [
                2.768344912618025,
                -2.3157589474320304,
                -1.4661161488250267,
                0.8599412648919165,
                -0.01496771213932735,
                -0.6476441136128648
            ]
        },
        {
            "positions": [
                2.746753411545604,
                -2.348966159100589,
                -1.5052467180558802,
                0.8888316663286928,
                0.0826838765102682,
                -0.5188601803641554
            ]
        },
        {
            "positions": [
                2.725161910473183,
                -2.3821733707691477,
                -1.5443772872867338,
                0.9177220677654692,
                0.18033546515986376,
                -0.390076247115446
            ]
        },
        {
            "positions": [
                2.703570409400762,
                -2.415380582437706,
                -1.5835078565175873,
                0.9466124692022456,
                0.27798705380945943,
                -0.2612923138667367
            ]
        },
        {
            "positions": [
                2.681978908328341,
                -2.448587794106264,
                -1.6226384257484407,
                0.9755028706390221,
                0.375638642459055,
                -0.13250838061802728
            ]
        },
        {
            "positions": [
                2.66038740725592,
                -2.481795005774823,
                -1.6617689949792942,
                1.0043932720757984,
                0.4732902311086506,
                -0.003724447369317805
            ]
        }
    ]
}