{
    "goal": {
        "global_pose": {
            "orientation": {
                "w": 0.7031023502349854,
                "x": -0.7110244035720825,
                "y": 0.007748599164187908,
                "z": 0.005598929710686207
            },
            "position": {
                "x": 0.11585023208521307,
                "y": 0.44412534475326537,
                "z": 0.3711530566215515
            }
        },
        "name": "move_to_auspresseinheit_A"
    },
    "id": "SBL_move_to_auspresseinheit_A_39",
    "joint_names": [
        "shoulder_pan_joint",
        "shoulder_lift_joint",
        "elbow_joint",
        "wrist_1_joint",
        "wrist_2_joint",
        "wrist_3_joint"
    ],
    "metrics": {
        "cart_traj_len": 3.0669529859046776,
        "distance_elbow_joint": 1.623560407061643,
        "distance_shoulder_lift_joint": 0.8673073038792749,
        "distance_shoulder_pan_joint": 6.661682858378352,
        "distance_wrist_1_joint": 7.367338394058914,
        "distance_wrist_2_joint": 5.922836680656792,
        "distance_wrist_3_joint": 8.176580805021107,
        "smoothness": 0.4442504867054063,
        "time": 0.34600740900000004,
        "traj_len": 5.533471464556046,
        "weighted_distance": 7.762901721251784
    },
    "planner": "SBL",
    "start": {
        "state": {
            "elbow_joint": 2.4225746658250005,
            "shoulder_lift_joint": -1.3736534386056498,
            "shoulder_pan_joint": -0.3378633547517467,
            "wrist_1_joint": -1.0288598680537169,
            "wrist_2_joint": 1.233022673432363,
            "wrist_3_joint": -3.0940220416140027
        }
    },
    "waypoints": [
        {
            "positions": [
                -0.3378633547517467,
                -1.3736534386056498,
                2.4225746658250005,
                -1.0288598680537169,
                1.233022673432363,
                -3.0940220416140027
            ]
        },
        {
            "positions": [
                -0.40811236285044167,
                -1.39117386082697,
                2.4018933596061847,
                -0.9296550195932038,
                1.1523189943058383,
                -2.992363231768685
            ]
        },
        {
            "positions": [
                -0.4783613709491366,
                -1.40869428304829,
                2.3812120533873684,
                -0.8304501711326909,
                1.0716153151793133,
                -2.890704421923367
            ]
        },
        {
            "positions": [
                -0.5486103790478316,
                -1.4262147052696101,
                2.3605307471685526,
                -0.731245322672178,
                0.9909116360527885,
                -2.789045612078049
            ]
        },
        {
            "positions": [
                -0.6188593871465264,
                -1.4437351274909302,
                2.339849440949737,
                -0.632040474211665,
                0.9102079569262636,
                -2.687386802232731
            ]
        },
        {
            "positions": [
                -0.6891083952452215,
                -1.4612555497122504,
                2.3191681347309205,
                -0.5328356257511521,
                0.8295042777997388,
                -2.5857279923874135
            ]
        },
        {
            "positions": [
                -0.7593574033439163,
                -1.4787759719335705,
                2.2984868285121047,
                -0.43363077729063915,
                0.748800598673214,
                -2.4840691825420955
            ]
        },
        {
            "positions": [
                -0.8296064114426113,
                -1.4962963941548906,
                2.277805522293289,
                -0.33442592883012623,
                0.6680969195466891,
                -2.3824103726967776
            ]
        },
        {
            "positions": [
                -0.8998554195413062,
                -1.5138168163762107,
                2.2571242160744727,
                -0.2352210803696131,
                0.5873932404201642,
                -2.2807515628514596
            ]
        },
        {
            "positions": [
                -0.9701044276400013,
                -1.5313372385975308,
                2.236442909855657,
                -0.13601623190910017,
                0.5066895612936394,
                -2.1790927530061417
            ]
        },
        {
            "positions": [
                -1.040353435738696,
                -1.548857660818851,
                2.2157616036368406,
                -0.036811383448587254,
                0.4259858821671145,
                -2.0774339431608237
            ]
        },
        {
            "positions": [
                -1.1106024438373912,
                -1.566378083040171,
                2.195080297418025,
                0.062393465011925775,
                0.34528220304058965,
                -1.9757751333155058
            ]
        },
        {
            "positions": [
                -1.180851451936086,
                -1.5838985052614911,
                2.174398991199209,
                0.16159831347243858,
                0.2645785239140649,
                -1.874116323470188
            ]
        },
        {
            "positions": [
                -1.251100460034781,
                -1.6014189274828112,
                2.1537176849803927,
                0.2608031619329516,
                0.18387484478754001,
                -1.77245751362487
            ]
        },
        {
            "positions": [
                -1.3213494681334759,
                -1.6189393497041313,
                2.133036378761577,
                0.3600080103934644,
                0.10317116566101525,
                -1.6707987037795522
            ]
        },
        {
            "positions": [
                -1.3915984762321707,
                -1.6364597719254514,
                2.112355072542761,
                0.45921285885397745,
                0.022467486534490266,
                -1.5691398939342343
            ]
        },
        {
            "positions": [
                -1.4618474843308658,
                -1.6539801941467716,
                2.091673766323945,
                0.5584177073144907,
                -0.05823619259203472,
                -1.4674810840889163
            ]
        },
        {
            "positions": [
                -1.5320964924295606,
                -1.6715006163680917,
                2.070992460105129,
                0.6576225557750035,
                -0.13893987171855948,
                -1.3658222742435986
            ]
        },
        {
            "positions": [
                -1.6023455005282556,
                -1.6890210385894115,
                2.0503111538863132,
                0.7568274042355165,
                -0.21964355084508425,
                -1.2641634643982804
            ]
        },
        {
            "positions": [
                -1.6725945086269505,
                -1.7065414608107319,
                2.029629847667497,
                0.8560322526960293,
                -0.300347229971609,
                -1.1625046545529627
            ]
        },
        {
            "positions": [
                -1.7428435167256455,
                -1.7240618830320518,
                2.008948541448681,
                0.9552371011565424,
                -0.381050909098134,
                -1.0608458447076448
            ]
        },
        {
            "positions": [
                -1.8130925248243406,
                -1.741582305253372,
                1.9882672352298651,
                1.0544419496170556,
                -0.461754588224659,
                -0.9591870348623268
            ]
        },
        {
            "positions": [
                -1.8833415329230356,
                -1.759102727474692,
                1.9675859290110491,
                1.1536467980775684,
                -0.5424582673511837,
                -0.8575282250170089
            ]
        },
        {
            "positions": [
                -1.9535905410217302,
                -1.776623149696012,
                1.9469046227922333,
                1.2528516465380812,
                -0.6231619464777085,
                -0.7558694151716914
            ]
        },
        {
            "positions": [
                -2.0238395491204253,
                -1.7941435719173322,
                1.9262233165734173,
                1.352056494998594,
                -0.7038656256042333,
                -0.6542106053263734
            ]
        },
        {
            "positions": [
                -2.0940885572191204,
                -1.8116639941386525,
                1.9055420103546012,
                1.4512613434591073,
                -0.7845693047307585,
                -0.5525517954810555
            ]
        },
        {
            "positions": [
                -2.1643375653178154,
                -1.8291844163599724,
                1.8848607041357854,
                1.55046619191962,
                -0.865272983857283,
                -0.4508929856357371
            ]
        },
        {
            "positions": [
                -2.2345865734165105,
                -1.8467048385812928,
                1.8641793979169694,
                1.6496710403801333,
                -0.945976662983808,
                -0.34923417579041915
            ]
        },
        {
            "positions": [
                -2.304835581515205,
                -1.8642252608026126,
                1.8434980916981534,
                1.7488758888406457,
                -1.0266803421103325,
                -0.24757536594510166
            ]
        },
        {
            "positions": [
                -2.3750845896139,
                -1.8817456830239327,
                1.8228167854793376,
                1.848080737301159,
                -1.1073840212368575,
                -0.1459165560997837
            ]
        },
        {
            "positions": [
                -2.4453335977125947,
                -1.8992661052452529,
                1.8021354792605215,
                1.9472855857616718,
                -1.1880877003633825,
                -0.04425774625446577
            ]
        },
        {
            "positions": [
                -2.51558260581129,
                -1.9167865274665732,
                1.7814541730417055,
                2.046490434222185,
                -1.2687913794899075,
                0.057401063590852175
            ]
        },
        {
            "positions": [
                -2.585831613909985,
                -1.934306949687893,
                1.7607728668228897,
                2.1456952826826985,
                -1.3494950586164325,
                0.15905987343617012
            ]
        },
        {
            "positions": [
                -2.6560806220086794,
                -1.9518273719092132,
                1.7400915606040737,
                2.2449001311432104,
                -1.430198737742957,
                0.2607186832814876
            ]
        },
        {
            "positions": [
                -2.7263296301073745,
                -1.9693477941305333,
                1.7194102543852576,
                2.344104979603724,
                -1.510902416869482,
                0.36237749312680556
            ]
        },
        {
            "positions": [
                -2.7965786382060696,
                -1.9868682163518534,
                1.6987289481664418,
                2.443309828064237,
                -1.5916060959960066,
                0.46403630297212395
            ]
        },
        {
            "positions": [
                -2.8668276463047646,
                -2.0043886385731735,
                1.6780476419476256,
                2.5425146765247497,
                -1.6723097751225315,
                0.5656951128174419
            ]
        },
        {
            "positions": [
                -2.9370766544034597,
                -2.021909060794494,
                1.6573663357288098,
                2.6417195249852625,
                -1.7530134542490565,
                0.6673539226627598
            ]
        },
        {
            "positions": [
                -3.0073256625021543,
                -2.0394294830158137,
                1.636685029509994,
                2.7409243734457753,
                -1.833717133375581,
                0.7690127325080773
            ]
        },
        {
            "positions": [
                -3.0775746706008493,
                -2.0569499052371336,
                1.616003723291178,
                2.840129221906288,
                -1.914420812502106,
                0.8706715423533953
            ]
        },
        {
            "positions": [
                -3.1478236786995444,
                -2.074470327458454,
                1.5953224170723619,
                2.9393340703668014,
                -1.9951244916286308,
                0.9723303521987128
            ]
        },
        {
            "positions": [
                -3.0464625593724244,
                -2.070089000747231,
                1.6162778949225989,
                2.849882900481581,
                -1.924211609639268,
                0.8641664466405973
            ]
        },
        {
            "positions": [
                -2.9451014400453044,
                -2.065707674036008,
                1.6372333727728359,
                2.76043173059636,
                -1.853298727649905,
                0.7560025410824819
            ]
        },
        {
            "positions": [
                -2.8437403207181844,
                -2.061326347324785,
                1.6581888506230729,
                2.6709805607111394,
                -1.7823858456605424,
                0.6478386355243664
            ]
        },
        {
            "positions": [
                -2.7423792013910644,
                -2.056945020613562,
                1.6791443284733096,
                2.581529390825919,
                -1.7114729636711796,
                0.539674729966251
            ]
        },
        {
            "positions": [
                -2.641018082063945,
                -2.0525636939023393,
                1.7000998063235466,
                2.492078220940698,
                -1.6405600816818167,
                0.4315108244081355
            ]
        },
        {
            "positions": [
                -2.5396569627368244,
                -2.0481823671911163,
                1.7210552841737836,
                2.4026270510554775,
                -1.569647199692454,
                0.3233469188500201
            ]
        },
        {
            "positions": [
                -2.438295843409705,
                -2.0438010404798934,
                1.7420107620240206,
                2.3131758811702565,
                -1.4987343177030912,
                0.2151830132919046
            ]
        },
        {
            "positions": [
                -2.336934724082585,
                -2.0394197137686705,
                1.7629662398742576,
                2.223724711285036,
                -1.4278214357137284,
                0.10701910773378909
            ]
        },
        {
            "positions": [
                -2.235573604755465,
                -2.0350383870574476,
                1.7839217177244944,
                2.134273541399815,
                -1.3569085537243657,
                -0.0011447978243263046
            ]
        },
        {
            "positions": [
                -2.134212485428345,
                -2.0306570603462246,
                1.8048771955747314,
                2.0448223715145946,
                -1.2859956717350027,
                -0.10930870338244181
            ]
        },
        {
            "positions": [
                -2.032851366101225,
                -2.0262757336350017,
                1.8258326734249684,
                1.9553712016293738,
                -1.2150827897456398,
                -0.21747260894055742
            ]
        },
        {
            "positions": [
                -1.9314902467741049,
                -2.0218944069237788,
                1.8467881512752053,
                1.8659200317441533,
                -1.144169907756277,
                -0.3256365144986726
            ]
        },
        {
            "positions": [
                -1.8301291274469849,
                -2.0175130802125563,
                1.8677436291254423,
                1.7764688618589326,
                -1.0732570257669143,
                -0.4338004200567882
            ]
        },
        {
            "positions": [
                -1.728768008119865,
                -2.0131317535013333,
                1.8886991069756793,
                1.6870176919737119,
                -1.0023441437775515,
                -0.5419643256149036
            ]
        },
        {
            "positions": [
                -1.6274068887927449,
                -2.0087504267901104,
                1.9096545848259163,
                1.5975665220884911,
                -0.9314312617881886,
                -0.6501282311730192
            ]
        },
        {
            "positions": [
                -1.526045769465625,
                -2.0043691000788875,
                1.9306100626761533,
                1.5081153522032706,
                -0.8605183797988258,
                -0.7582921367311346
            ]
        },
        {
            "positions": [
                -1.424684650138505,
                -1.9999877733676643,
                1.95156554052639,
                1.41866418231805,
                -0.7896054978094631,
                -0.86645604228925
            ]
        },
        {
            "positions": [
                -1.323323530811385,
                -1.9956064466564414,
                1.972521018376627,
                1.3292130124328292,
                -0.7186926158201004,
                -0.9746199478473654
            ]
        },
        {
            "positions": [
                -1.221962411484265,
                -1.9912251199452187,
                1.993476496226864,
                1.2397618425476085,
                -0.6477797338307374,
                -1.082783853405481
            ]
        },
        {
            "positions": [
                -1.1206012921571453,
                -1.9868437932339957,
                2.014431974077101,
                1.150310672662388,
                -0.5768668518413747,
                -1.1909477589635964
            ]
        },
        {
            "positions": [
                -1.0192401728300249,
                -1.9824624665227728,
                2.035387451927338,
                1.060859502777167,
                -0.5059539698520117,
                -1.2991116645217122
            ]
        },
        {
            "positions": [
                -0.9178790535029053,
                -1.9780811398115499,
                2.056342929777575,
                0.9714083328919463,
                -0.43504108786264895,
                -1.4072755700798276
            ]
        },
        {
            "positions": [
                -0.8165179341757853,
                -1.973699813100327,
                2.077298407627812,
                0.8819571630067258,
                -0.3641282058732862,
                -1.515439475637943
            ]
        },
        {
            "positions": [
                -0.7151568148486653,
                -1.969318486389104,
                2.098253885478049,
                0.7925059931215053,
                -0.29321532388392346,
                -1.623603381196058
            ]
        },
        {
            "positions": [
                -0.6137956955215453,
                -1.964937159677881,
                2.119209363328286,
                0.7030548232362843,
                -0.2223024418945605,
                -1.7317672867541738
            ]
        },
        {
            "positions": [
                -0.5124345761944253,
                -1.9605558329666581,
                2.140164841178523,
                0.6136036533510638,
                -0.15138955990519776,
                -1.8399311923122892
            ]
        },
        {
            "positions": [
                -0.41107345686730534,
                -1.9561745062554352,
                2.16112031902876,
                0.5241524834658429,
                -0.08047667791583502,
                -1.9480950978704046
            ]
        },
        {
            "positions": [
                -0.3097123375401858,
                -1.9517931795442123,
                2.1820757968789968,
                0.43470131358062236,
                -0.009563795926472274,
                -2.05625900342852
            ]
        },
        {
            "positions": [
                -0.20835121821306535,
                -1.9474118528329893,
                2.2030312747292338,
                0.3452501436954014,
                0.06134908606289091,
                -2.164422908986636
            ]
        },
        {
            "positions": [
                -0.10699009888594535,
                -1.9430305261217664,
                2.2239867525794708,
                0.2557989738101809,
                0.13226196805225365,
                -2.272586814544751
            ]
        },
        {
            "positions": [
                -0.005628979558825797,
                -1.9386491994105435,
                2.2449422304297073,
                0.1663478039249604,
                0.2031748500416164,
                -2.3807507201028666
            ]
        },
        {
            "positions": [
                0.0957321397682942,
                -1.9342678726993205,
                2.2658977082799447,
                0.0768966340397399,
                0.27408773203097914,
                -2.488914625660982
            ]
        },
        {
            "positions": [
                0.19709325909541464,
                -1.9298865459880978,
                2.2868531861301813,
                -0.012554535845481052,
                0.3450006140203419,
                -2.597078531219098
            ]
        },
        {
            "positions": [
                0.2984543784225342,
                -1.925505219276875,
                2.3078086639804183,
                -0.10200570573070156,
                0.4159134960097046,
                -2.7052424367772128
            ]
        },
        {
            "positions": [
                0.3998154977496542,
                -1.921123892565652,
                2.3287641418306553,
                -0.1914568756159225,
                0.48682637799906736,
                -2.813406342335328
            ]
        },
        {
            "positions": [
                0.5011766170767742,
                -1.916742565854429,
                2.3497196196808923,
                -0.280908045501143,
                0.5577392599884301,
                -2.9215702478934436
            ]
        },
        {
            "positions": [
                0.6025377364038942,
                -1.912361239143206,
                2.3706750975311293,
                -0.37035921538636396,
                0.6286521419777933,
                -3.02973415345156
            ]
        },
        {
            "positions": [
                0.7038988557310142,
                -1.9079799124319832,
                2.3916305753813663,
                -0.4598103852715845,
                0.699565023967156,
                -3.1378980590096748
            ]
        }
    ]
}