{
    "goal": {
        "global_pose": {
            "orientation": {
                "w": -0.4816463035849501,
                "x": 0.5182115481033762,
                "y": 0.4908360881923453,
                "z": -0.5084816262002911
            },
            "position": {
                "x": -0.8240239810943604,
                "y": 0.19912469901144506,
                "z": 0.16403168439865112
            }
        },
        "name": "move_to_storage_D"
    },
    "id": "SBL_move_to_storage_D_120",
    "joint_names": [
        "shoulder_pan_joint",
        "shoulder_lift_joint",
        "elbow_joint",
        "wrist_1_joint",
        "wrist_2_joint",
        "wrist_3_joint"
    ],
    "metrics": {
        "cart_traj_len": 0.6847921047463402,
        "distance_elbow_joint": 0.5562155479558291,
        "distance_shoulder_lift_joint": 0.2272216157927236,
        "distance_shoulder_pan_joint": 0.594733475891401,
        "distance_wrist_1_joint": 3.829542662528921,
        "distance_wrist_2_joint": 1.7763393456511576,
        "distance_wrist_3_joint": 3.11801869341859,
        "smoothness": 0.03601895824012526,
        "time": 0.244754679,
        "traj_len": 3.178375582154919,
        "weighted_distance": 4.684441347295948
    },
    "planner": "SBL",
    "start": {
        "state": {
            "elbow_joint": -2.384821988534728,
            "shoulder_lift_joint": -2.2788054721415256,
            "shoulder_pan_joint": -0.1854694642142757,
            "wrist_1_joint": 1.4845938289331202,
            "wrist_2_joint": 0.17898776772866878,
            "wrist_3_joint": 0.037105688729662994
        }
    },
    "waypoints": [
        {
            "positions": [
                -0.1854694642142757,
                -2.2788054721415256,
                -2.384821988534728,
                1.4845938289331202,
                0.17898776772866878,
                0.037105688729662994
            ]
        },
        {
            "positions": [
                -0.11758774196205218,
                -2.2471497752950986,
                -2.382380147560464,
                1.4302268177980195,
                0.13068325623735114,
                -0.05676953331262108
            ]
        },
        {
            "positions": [
                -0.04970601970982866,
                -2.2154940784486716,
                -2.379938306586199,
                1.3758598066629188,
                0.0823787447460335,
                -0.15064475535490515
            ]
        },
        {
            "positions": [
                0.029478489787120837,
                -2.1734392594436867,
                -2.3074301890699433,
                1.2785684051905806,
                0.049585682097273376,
                -0.19689999311641923
            ]
        },
        {
            "positions": [
                0.10866299928407033,
                -2.1313844404387017,
                -2.234922071553688,
                1.1812770037182425,
                0.01679261944851325,
                -0.24315523087793334
            ]
        },
        {
            "positions": [
                0.18784750878101986,
                -2.0893296214337167,
                -2.162413954037432,
                1.0839856022459042,
                -0.016000443200246885,
                -0.2894104686394474
            ]
        },
        {
            "positions": [
                0.17778312228574236,
                -2.0910453380284855,
                -2.1472408852438623,
                0.9281249460712813,
                -0.08788004023307605,
                -0.4162969475507874
            ]
        },
        {
            "positions": [
                0.16771873579046487,
                -2.0927610546232542,
                -2.132067816450293,
                0.7722642898966583,
                -0.15975963726590522,
                -0.5431834264621274
            ]
        },
        {
            "positions": [
                0.15765434929518737,
                -2.0944767712180234,
                -2.116894747656723,
                0.6164036337220354,
                -0.23163923429873437,
                -0.6700699053734673
            ]
        },
        {
            "positions": [
                0.14758996279990988,
                -2.096192487812792,
                -2.101721678863153,
                0.46054297754741247,
                -0.3035188313315636,
                -0.7969563842848073
            ]
        },
        {
            "positions": [
                0.13752557630463239,
                -2.097908204407561,
                -2.086548610069584,
                0.3046823213727895,
                -0.37539842836439274,
                -0.9238428631961473
            ]
        },
        {
            "positions": [
                0.1274611898093549,
                -2.0996239210023298,
                -2.071375541276014,
                0.14882166519816664,
                -0.4472780253972219,
                -1.0507293421074873
            ]
        },
        {
            "positions": [
                0.11739680331407738,
                -2.1013396375970985,
                -2.056202472482444,
                -0.007038990976456327,
                -0.519157622430051,
                -1.1776158210188272
            ]
        },
        {
            "positions": [
                0.10733241681879989,
                -2.1030553541918673,
                -2.0410294036888748,
                -0.1628996471510793,
                -0.5910372194628802,
                -1.3045022999301672
            ]
        },
        {
            "positions": [
                0.0972680303235224,
                -2.1047710707866365,
                -2.025856334895305,
                -0.3187603033257025,
                -0.6629168164957094,
                -1.4313887788415072
            ]
        },
        {
            "positions": [
                0.0872036438282449,
                -2.1064867873814053,
                -2.010683266101735,
                -0.47462095950032523,
                -0.7347964135285385,
                -1.5582752577528471
            ]
        },
        {
            "positions": [
                0.0771392573329674,
                -2.108202503976174,
                -1.9955101973081655,
                -0.6304816156749482,
                -0.8066760105613677,
                -1.6851617366641871
            ]
        },
        {
            "positions": [
                0.06707487083768993,
                -2.109918220570943,
                -1.9803371285145959,
                -0.786342271849571,
                -0.8785556075941968,
                -1.8120482155755269
            ]
        },
        {
            "positions": [
                0.057010484342412404,
                -2.1116339371657116,
                -1.965164059721026,
                -0.9422029280241941,
                -0.9504352046270261,
                -1.938934694486867
            ]
        },
        {
            "positions": [
                0.04694609784713491,
                -2.113349653760481,
                -1.9499909909274564,
                -1.0980635841988169,
                -1.0223148016598553,
                -2.065821173398207
            ]
        },
        {
            "positions": [
                0.036881711351857444,
                -2.1150653703552496,
                -1.9348179221338868,
                -1.2539242403734396,
                -1.0941943986926845,
                -2.192707652309547
            ]
        },
        {
            "positions": [
                0.02681732485657992,
                -2.1167810869500183,
                -1.919644853340317,
                -1.4097848965480628,
                -1.1660739957255137,
                -2.319594131220887
            ]
        },
        {
            "positions": [
                0.016752938361302427,
                -2.118496803544787,
                -1.9044717845467474,
                -1.565645552722686,
                -1.237953592758343,
                -2.4464806101322267
            ]
        },
        {
            "positions": [
                0.006688551866024933,
                -2.120212520139556,
                -1.8892987157531778,
                -1.7215062088973092,
                -1.3098331897911721,
                -2.573367089043567
            ]
        },
        {
            "positions": [
                -0.003375834629252561,
                -2.1219282367343246,
                -1.874125646959608,
                -1.877366865071932,
                -1.3817127868240011,
                -2.700253567954907
            ]
        },
        {
            "positions": [
                -0.013440221124530055,
                -2.123643953329094,
                -1.8589525781660383,
                -2.0332275212465545,
                -1.4535923838568303,
                -2.827140046866247
            ]
        },
        {
            "positions": [
                -0.02350460761980755,
                -2.1253596699238626,
                -1.8437795093724685,
                -2.189088177421178,
                -1.5254719808896595,
                -2.954026525777587
            ]
        },
        {
            "positions": [
                -0.03356899411508504,
                -2.1270753865186314,
                -1.8286064405788989,
                -2.3449488335958004,
                -1.5973515779224887,
                -3.080913004688927
            ]
        }
    ]
}