{
    "goal": {
        "global_pose": {
            "orientation": {
                "w": -0.00223480608172531,
                "x": 0.0024358444001904467,
                "y": 0.7094548369677653,
                "z": -0.704743149386269
            },
            "position": {
                "x": 0.6205249238014221,
                "y": -0.6371506643295288,
                "z": 0.19426114857196808
            }
        },
        "name": "move_to_magneteinheit_B"
    },
    "id": "SBL_move_to_magneteinheit_B_59",
    "joint_names": [
        "shoulder_pan_joint",
        "shoulder_lift_joint",
        "elbow_joint",
        "wrist_1_joint",
        "wrist_2_joint",
        "wrist_3_joint"
    ],
    "metrics": {
        "cart_traj_len": 6.989310460609584,
        "distance_elbow_joint": 4.662189312709673,
        "distance_shoulder_lift_joint": 4.90787360338218,
        "distance_shoulder_pan_joint": 3.8340210306689033,
        "distance_wrist_1_joint": 7.0226830098214945,
        "distance_wrist_2_joint": 1.6643675505592457,
        "distance_wrist_3_joint": 2.02284196386762,
        "smoothness": 0.5939949637318429,
        "time": 1.676525415,
        "traj_len": 4.910598382173923,
        "weighted_distance": 6.070149171076861
    },
    "planner": "SBL",
    "start": {
        "state": {
            "elbow_joint": 2.6216224122426386,
            "shoulder_lift_joint": -1.4174107377796124,
            "shoulder_pan_joint": 0.7066234856936794,
            "wrist_1_joint": 1.9546482284002225,
            "wrist_2_joint": -0.7096286983471962,
            "wrist_3_joint": 0.005740856962016249
        }
    },
    "waypoints": [
        {
            "positions": [
                0.7066234856936794,
                -1.4174107377796124,
                2.6216224122426386,
                1.9546482284002225,
                -0.7096286983471962,
                0.005740856962016249
            ]
        },
        {
            "positions": [
                0.5683953503123689,
                -1.4040136090640067,
                2.622925811404789,
                1.9488133728386854,
                -0.6445738740797934,
                -0.08523907551353525
            ]
        },
        {
            "positions": [
                0.4301672149310583,
                -1.3906164803484011,
                2.624229210566939,
                1.942978517277148,
                -0.5795190498123906,
                -0.17621900798908674
            ]
        },
        {
            "positions": [
                0.29193907954974774,
                -1.3772193516327955,
                2.6255326097290896,
                1.937143661715611,
                -0.5144642255449877,
                -0.26719894046463827
            ]
        },
        {
            "positions": [
                0.30734889805958215,
                -1.4112036706301556,
                2.536141191035325,
                1.7156752884430937,
                -0.49525426365681213,
                -0.2744032882833304
            ]
        },
        {
            "positions": [
                0.3227587165694166,
                -1.4451879896275157,
                2.44674977234156,
                1.4942069151705764,
                -0.47604430176863655,
                -0.2816076361020225
            ]
        },
        {
            "positions": [
                0.33816853507925104,
                -1.4791723086248758,
                2.3573583536477956,
                1.2727385418980588,
                -0.456834339880461,
                -0.2888119839207146
            ]
        },
        {
            "positions": [
                0.35357835358908546,
                -1.513156627622236,
                2.267966934954031,
                1.0512701686255415,
                -0.43762437799228543,
                -0.2960163317394067
            ]
        },
        {
            "positions": [
                0.3689881720989199,
                -1.547140946619596,
                2.178575516260266,
                0.8298017953530241,
                -0.4184144161041099,
                -0.30322067955809884
            ]
        },
        {
            "positions": [
                0.38439799060875435,
                -1.581125265616956,
                2.0891840975665015,
                0.6083334220805068,
                -0.3992044542159343,
                -0.310425027376791
            ]
        },
        {
            "positions": [
                0.39980780911858876,
                -1.6151095846143164,
                1.9997926788727367,
                0.3868650488079892,
                -0.3799944923277587,
                -0.3176293751954831
            ]
        },
        {
            "positions": [
                0.4152176276284232,
                -1.6490939036116765,
                1.910401260178972,
                0.16539667553547188,
                -0.36078453043958314,
                -0.32483372301417524
            ]
        },
        {
            "positions": [
                0.43062744613825765,
                -1.6830782226090366,
                1.8210098414852072,
                -0.05607169773704568,
                -0.34157456855140755,
                -0.33203807083286735
            ]
        },
        {
            "positions": [
                0.446037264648092,
                -1.7170625416063967,
                1.7316184227914426,
                -0.2775400710095628,
                -0.322364606663232,
                -0.33924241865155946
            ]
        },
        {
            "positions": [
                0.4614470831579265,
                -1.7510468606037568,
                1.6422270040976779,
                -0.4990084442820804,
                -0.30315464477505644,
                -0.3464467664702516
            ]
        },
        {
            "positions": [
                0.6023883816610155,
                -1.7863137773844824,
                1.482220852795818,
                -0.4852003150098016,
                -0.31826274325634385,
                -0.31908602471717873
            ]
        },
        {
            "positions": [
                0.7433296801641045,
                -1.821580694165208,
                1.3222147014939583,
                -0.4713921857375228,
                -0.33337084173763126,
                -0.2917252829641059
            ]
        },
        {
            "positions": [
                0.8842709786671936,
                -1.8568476109459335,
                1.1622085501920987,
                -0.457584056465244,
                -0.3484789402189187,
                -0.26436454121103303
            ]
        },
        {
            "positions": [
                1.0252122771702825,
                -1.8921145277266591,
                1.0022023988902387,
                -0.4437759271929652,
                -0.3635870387002061,
                -0.23700379945796018
            ]
        },
        {
            "positions": [
                1.1661535756733716,
                -1.9273814445073847,
                0.842196247588379,
                -0.4299677979206864,
                -0.3786951371814935,
                -0.2096430577048873
            ]
        },
        {
            "positions": [
                1.3070948741764608,
                -1.9626483612881103,
                0.6821900962865193,
                -0.4161596686484076,
                -0.39380323566278086,
                -0.18228231595181446
            ]
        },
        {
            "positions": [
                1.4480361726795499,
                -1.9979152780688358,
                0.5221839449846595,
                -0.4023515393761288,
                -0.40891133414406833,
                -0.1549215741987416
            ]
        },
        {
            "positions": [
                1.5889774711826388,
                -2.0331821948495614,
                0.3621777936827997,
                -0.38854341010384996,
                -0.4240194326253557,
                -0.12756083244566876
            ]
        },
        {
            "positions": [
                1.7299187696857279,
                -2.068449111630287,
                0.20217164238093988,
                -0.3747352808315712,
                -0.43912753110664315,
                -0.10020009069259592
            ]
        },
        {
            "positions": [
                1.8708600681888168,
                -2.1037160284110126,
                0.042165491079080075,
                -0.3609271515592924,
                -0.4542356295879305,
                -0.07283934893952304
            ]
        },
        {
            "positions": [
                2.011801366691906,
                -2.138982945191738,
                -0.11784066022277973,
                -0.3471190222870136,
                -0.469343728069218,
                -0.04547860718645019
            ]
        },
        {
            "positions": [
                2.152742665194995,
                -2.1742498619724637,
                -0.2778468115246393,
                -0.33331089301473477,
                -0.48445182655050534,
                -0.018117865433377345
            ]
        },
        {
            "positions": [
                2.2936839636980837,
                -2.2095167787531893,
                -0.4378529628264993,
                -0.319502763742456,
                -0.49955992503179275,
                0.009242876319695503
            ]
        },
        {
            "positions": [
                2.4346252622011733,
                -2.244783695533915,
                -0.5978591141283589,
                -0.3056946344701772,
                -0.5146680235130802,
                0.03660361807276835
            ]
        },
        {
            "positions": [
                2.575566560704262,
                -2.2800506123146405,
                -0.7578652654302189,
                -0.2918865051978984,
                -0.5297761219943675,
                0.0639643598258412
            ]
        },
        {
            "positions": [
                2.716507859207351,
                -2.315317529095366,
                -0.9178714167320785,
                -0.27807837592561957,
                -0.544884220475655,
                0.09132510157891403
            ]
        },
        {
            "positions": [
                2.7458443636826324,
                -2.1976063329928177,
                -0.9065083154808831,
                -0.10272613920130297,
                -0.5381517269479622,
                0.1276203614668175
            ]
        },
        {
            "positions": [
                2.7751808681579138,
                -2.079895136890269,
                -0.8951452142296877,
                0.07262609752301363,
                -0.5314192334202694,
                0.16391562135472093
            ]
        },
        {
            "positions": [
                2.8045173726331956,
                -1.9621839407877206,
                -0.8837821129784924,
                0.2479783342473303,
                -0.5246867398925766,
                0.20021088124262437
            ]
        },
        {
            "positions": [
                2.833853877108477,
                -1.8444727446851719,
                -0.872419011727297,
                0.42333057097164684,
                -0.5179542463648839,
                0.2365061411305278
            ]
        },
        {
            "positions": [
                2.8631903815837583,
                -1.7267615485826235,
                -0.8610559104761015,
                0.5986828076959634,
                -0.5112217528371912,
                0.27280140101843126
            ]
        },
        {
            "positions": [
                2.8925268860590396,
                -1.609050352480075,
                -0.8496928092249062,
                0.7740350444202801,
                -0.5044892593094984,
                0.3090966609063347
            ]
        },
        {
            "positions": [
                2.921863390534321,
                -1.4913391563775265,
                -0.8383297079737109,
                0.9493872811445967,
                -0.4977567657818056,
                0.34539192079423814
            ]
        },
        {
            "positions": [
                2.9511998950096023,
                -1.373627960274978,
                -0.8269666067225154,
                1.1247395178689132,
                -0.4910242722541128,
                0.3816871806821416
            ]
        },
        {
            "positions": [
                2.980536399484884,
                -1.2559167641724294,
                -0.81560350547132,
                1.3000917545932298,
                -0.48429177872642004,
                0.417982440570045
            ]
        },
        {
            "positions": [
                3.0098729039601655,
                -1.1382055680698808,
                -0.8042404042201247,
                1.4754439913175463,
                -0.47755928519872726,
                0.45427770045794846
            ]
        },
        {
            "positions": [
                3.039209408435447,
                -1.0204943719673323,
                -0.7928773029689293,
                1.650796228041863,
                -0.47082679167103453,
                0.4905729603458519
            ]
        },
        {
            "positions": [
                3.068545912910728,
                -0.902783175864784,
                -0.7815142017177339,
                1.8261484647661799,
                -0.46409429814334174,
                0.5268682202337553
            ]
        },
        {
            "positions": [
                3.0978824173860096,
                -0.7850719797622354,
                -0.7701511004665385,
                2.001500701490496,
                -0.45736180461564896,
                0.5631634801216587
            ]
        },
        {
            "positions": [
                3.1272189218612914,
                -0.6673607836596869,
                -0.7587879992153431,
                2.1768529382148127,
                -0.45062931108795623,
                0.5994587400095622
            ]
        },
        {
            "positions": [
                3.1565554263365727,
                -0.5496495875571383,
                -0.7474248979641478,
                2.3522051749391295,
                -0.44389681756026345,
                0.6357539998974657
            ]
        },
        {
            "positions": [
                3.185891930811854,
                -0.4319383914545898,
                -0.7360617967129524,
                2.527557411663446,
                -0.43716432403257066,
                0.6720492597853691
            ]
        },
        {
            "positions": [
                3.154987002972862,
                -0.5523033856976497,
                -0.7909480007566542,
                2.4368244421814653,
                -0.3837264402182517,
                0.6336870060100906
            ]
        },
        {
            "positions": [
                3.12408207513387,
                -0.6726683799407096,
                -0.8458342048003559,
                2.346091472699485,
                -0.33028855640393273,
                0.5953247522348122
            ]
        },
        {
            "positions": [
                3.093177147294878,
                -0.7930333741837695,
                -0.9007204088440577,
                2.2553585032175043,
                -0.2768506725896137,
                0.5569624984595338
            ]
        },
        {
            "positions": [
                3.0622722194558856,
                -0.9133983684268294,
                -0.9556066128877595,
                2.1646255337355234,
                -0.22341278877529475,
                0.5186002446842554
            ]
        },
        {
            "positions": [
                3.0313672916168937,
                -1.0337633626698892,
                -1.0104928169314613,
                2.073892564253543,
                -0.16997490496097573,
                0.4802379909089769
            ]
        },
        {
            "positions": [
                3.0004623637779018,
                -1.1541283569129492,
                -1.065379020975163,
                1.9831595947715623,
                -0.11653702114665676,
                0.44187573713369843
            ]
        },
        {
            "positions": [
                2.9695574359389094,
                -1.274493351156009,
                -1.1202652250188647,
                1.8924266252895818,
                -0.0630991373323378,
                0.40351348335842
            ]
        },
        {
            "positions": [
                2.9386525080999175,
                -1.394858345399069,
                -1.1751514290625666,
                1.8016936558076013,
                -0.00966125351801883,
                0.36515122958314156
            ]
        },
        {
            "positions": [
                2.907747580260925,
                -1.5152233396421289,
                -1.2300376331062683,
                1.7109606863256208,
                0.04377663029630019,
                0.3267889758078631
            ]
        },
        {
            "positions": [
                2.8768426524219333,
                -1.6355883338851889,
                -1.2849238371499703,
                1.6202277168436403,
                0.09721451411061921,
                0.2884267220325846
            ]
        },
        {
            "positions": [
                2.845937724582941,
                -1.7559533281282487,
                -1.339810041193672,
                1.5294947473616596,
                0.15065239792493812,
                0.25006446825730616
            ]
        },
        {
            "positions": [
                2.815032796743949,
                -1.8763183223713087,
                -1.3946962452373737,
                1.438761777879679,
                0.20409028173925714,
                0.21170221448202775
            ]
        },
        {
            "positions": [
                2.784127868904957,
                -1.9966833166143685,
                -1.4495824492810754,
                1.3480288083976986,
                0.25752816555357605,
                0.17333996070674934
            ]
        },
        {
            "positions": [
                2.7532229410659648,
                -2.1170483108574283,
                -1.5044686533247773,
                1.257295838915718,
                0.31096604936789507,
                0.13497770693147093
            ]
        },
        {
            "positions": [
                2.722318013226973,
                -2.237413305100488,
                -1.559354857368479,
                1.1665628694337375,
                0.364403933182214,
                0.09661545315619247
            ]
        },
        {
            "positions": [
                2.6914130853879805,
                -2.357778299343548,
                -1.614241061412181,
                1.0758298999517568,
                0.417841816996533,
                0.058253199380914
            ]
        },
        {
            "positions": [
                2.6605081575489886,
                -2.478143293586608,
                -1.6691272654558826,
                0.9850969304697764,
                0.4712797008108521,
                0.01989094560563555
            ]
        }
    ]
}