{
    "goal": {
        "global_pose": {
            "orientation": {
                "w": 0.5084816262002911,
                "x": -0.4908360881923452,
                "y": 0.5182115481033761,
                "z": -0.48164630358495003
            },
            "position": {
                "x": 0.5540239810943604,
                "y": -0.46912469901144505,
                "z": 0.16403168439865112
            }
        },
        "name": "move_to_storage_B"
    },
    "id": "SBL_move_to_storage_B_54",
    "joint_names": [
        "shoulder_pan_joint",
        "shoulder_lift_joint",
        "elbow_joint",
        "wrist_1_joint",
        "wrist_2_joint",
        "wrist_3_joint"
    ],
    "metrics": {
        "cart_traj_len": 4.752873011494944,
        "distance_elbow_joint": 3.6918900508676664,
        "distance_shoulder_lift_joint": 1.3550074448254967,
        "distance_shoulder_pan_joint": 4.088656398272192,
        "distance_wrist_1_joint": 2.1522633614587,
        "distance_wrist_2_joint": 1.1345974885623817,
        "distance_wrist_3_joint": 3.11494370965654,
        "smoothness": 0.2100284405551144,
        "time": 0.6892962509999999,
        "traj_len": 3.9417456099605124,
        "weighted_distance": 5.005407747923954
    },
    "planner": "SBL",
    "start": {
        "state": {
            "elbow_joint": -1.6666013991110213,
            "shoulder_lift_joint": -2.479295265494141,
            "shoulder_pan_joint": 2.6606783912885628,
            "wrist_1_joint": 0.9897123657714939,
            "wrist_2_joint": 0.474351758749468,
            "wrist_3_joint": 0.013243222496468381
        }
    },
    "waypoints": [
        {
            "positions": [
                2.6606783912885628,
                -2.479295265494141,
                -1.6666013991110213,
                0.9897123657714939,
                0.474351758749468,
                0.013243222496468381
            ]
        },
        {
            "positions": [
                2.702399728648629,
                -2.427740831902356,
                -1.583555362979033,
                1.0250220358915048,
                0.3690295433740695,
                0.010179142959529121
            ]
        },
        {
            "positions": [
                2.744121066008695,
                -2.3761863983105713,
                -1.5005093268470446,
                1.0603317060115156,
                0.263707327998671,
                0.007115063422589861
            ]
        },
        {
            "positions": [
                2.7858424033687617,
                -2.3246319647187867,
                -1.4174632907150564,
                1.0956413761315265,
                0.15838511262327254,
                0.004050983885650601
            ]
        },
        {
            "positions": [
                2.827563740728828,
                -2.2730775311270017,
                -1.3344172545830681,
                1.1309510462515373,
                0.05306289724787405,
                0.0009869043487113413
            ]
        },
        {
            "positions": [
                2.792618155722983,
                -2.2245605901349315,
                -1.2742466694126078,
                1.1049859003387632,
                -0.019123164109662527,
                -0.013145138727058145
            ]
        },
        {
            "positions": [
                2.757672570717138,
                -2.176043649142861,
                -1.2140760842421472,
                1.079020754425989,
                -0.0913092254671991,
                -0.027277181802827632
            ]
        },
        {
            "positions": [
                2.6476188598937025,
                -2.1459934826150264,
                -1.1215228060707532,
                1.0230466290216145,
                -0.07505389677160725,
                -0.11511784767017745
            ]
        },
        {
            "positions": [
                2.537565149070267,
                -2.1159433160871917,
                -1.0289695278993591,
                0.9670725036172401,
                -0.05879856807601538,
                -0.20295851353752725
            ]
        },
        {
            "positions": [
                2.4275114382468317,
                -2.085893149559357,
                -0.9364162497279651,
                0.9110983782128655,
                -0.04254323938042351,
                -0.2907991794048771
            ]
        },
        {
            "positions": [
                2.3174577274233967,
                -2.055842983031522,
                -0.843862971556571,
                0.855124252808491,
                -0.026287910684831647,
                -0.3786398452722269
            ]
        },
        {
            "positions": [
                2.2074040165999613,
                -2.0257928165036874,
                -0.751309693385177,
                0.7991501274041164,
                -0.010032581989239786,
                -0.4664805111395767
            ]
        },
        {
            "positions": [
                2.097350305776526,
                -1.9957426499758526,
                -0.6587564152137829,
                0.743176001999742,
                0.006222746706352089,
                -0.5543211770069266
            ]
        },
        {
            "positions": [
                1.9872965949530905,
                -1.9656924834480178,
                -0.5662031370423888,
                0.6872018765953674,
                0.022478075401943964,
                -0.6421618428742765
            ]
        },
        {
            "positions": [
                1.8772428841296553,
                -1.935642316920183,
                -0.47364985887099476,
                0.631227751190993,
                0.03873340409753581,
                -0.7300025087416262
            ]
        },
        {
            "positions": [
                1.7671891733062202,
                -1.9055921503923483,
                -0.38109658069960084,
                0.5752536257866184,
                0.05498873279312766,
                -0.817843174608976
            ]
        },
        {
            "positions": [
                1.6571354624827848,
                -1.8755419838645135,
                -0.2885433025282067,
                0.5192795003822438,
                0.07124406148871953,
                -0.9056838404763259
            ]
        },
        {
            "positions": [
                1.5470817516593494,
                -1.8454918173366788,
                -0.19599002435681268,
                0.4633053749778693,
                0.08749939018431141,
                -0.9935245063436757
            ]
        },
        {
            "positions": [
                1.437028040835914,
                -1.815441650808844,
                -0.10343674618541865,
                0.40733124957349476,
                0.10375471887990328,
                -1.0813651722110256
            ]
        },
        {
            "positions": [
                1.3269743300124786,
                -1.7853914842810092,
                -0.0108834680140244,
                0.35135712416912024,
                0.12001004757549516,
                -1.1692058380783754
            ]
        },
        {
            "positions": [
                1.2169206191890432,
                -1.7553413177531745,
                0.08166981015736963,
                0.2953829987647456,
                0.13626537627108704,
                -1.2570465039457253
            ]
        },
        {
            "positions": [
                1.1068669083656082,
                -1.7252911512253397,
                0.17422308832876343,
                0.2394088733603712,
                0.15252070496667886,
                -1.3448871698130749
            ]
        },
        {
            "positions": [
                0.9968131975421728,
                -1.695240984697505,
                0.2667763665001577,
                0.18343474795599668,
                0.16877603366227073,
                -1.4327278356804247
            ]
        },
        {
            "positions": [
                0.8867594867187374,
                -1.6651908181696702,
                0.3593296446715517,
                0.12746062255162216,
                0.1850313623578626,
                -1.5205685015477746
            ]
        },
        {
            "positions": [
                0.7767057758953022,
                -1.6351406516418354,
                0.4518829228429455,
                0.07148649714724775,
                0.20128669105345443,
                -1.6084091674151244
            ]
        },
        {
            "positions": [
                0.666652065071867,
                -1.6050904851140007,
                0.5444362010143398,
                0.015512371742873121,
                0.2175420197490463,
                -1.6962498332824743
            ]
        },
        {
            "positions": [
                0.5565983542484316,
                -1.5750403185861659,
                0.6369894791857338,
                -0.04046175366150151,
                0.23379734844463818,
                -1.784090499149824
            ]
        },
        {
            "positions": [
                0.4465446434249962,
                -1.5449901520583311,
                0.7295427573571278,
                -0.09643587906587592,
                0.25005267714023005,
                -1.871931165017174
            ]
        },
        {
            "positions": [
                0.3364909326015608,
                -1.5149399855304964,
                0.8220960355285218,
                -0.15241000447025055,
                0.2663080058358219,
                -1.9597718308845238
            ]
        },
        {
            "positions": [
                0.22643722177812542,
                -1.4848898190026616,
                0.9146493136999159,
                -0.20838412987462496,
                0.2825633345314138,
                -2.0476124967518734
            ]
        },
        {
            "positions": [
                0.11638351095469002,
                -1.4548396524748268,
                1.00720259187131,
                -0.2643582552789996,
                0.2988186632270057,
                -2.1354531626192235
            ]
        },
        {
            "positions": [
                0.006329800131254615,
                -1.4247894859469918,
                1.0997558700427044,
                -0.3203323806833742,
                0.31507399192259755,
                -2.2232938284865735
            ]
        },
        {
            "positions": [
                -0.10372391069218079,
                -1.394739319419157,
                1.1923091482140984,
                -0.3763065060877486,
                0.3313293206181894,
                -2.311134494353923
            ]
        },
        {
            "positions": [
                -0.2137776215156162,
                -1.3646891528913223,
                1.2848624263854924,
                -0.43228063149212326,
                0.3475846493137813,
                -2.398975160221273
            ]
        },
        {
            "positions": [
                -0.3238313323390516,
                -1.3346389863634875,
                1.3774157045568864,
                -0.4882547568964979,
                0.3638399780093732,
                -2.486815826088623
            ]
        },
        {
            "positions": [
                -0.43388504316248655,
                -1.3045888198356528,
                1.4699689827282805,
                -0.5442288823008723,
                0.38009530670496505,
                -2.574656491955973
            ]
        },
        {
            "positions": [
                -0.5439387539859215,
                -1.2745386533078182,
                1.562522260899674,
                -0.6002030077052467,
                0.3963506354005568,
                -2.662497157823322
            ]
        },
        {
            "positions": [
                -0.6539924648093569,
                -1.2444884867799835,
                1.655075539071068,
                -0.6561771331096211,
                0.4126059640961487,
                -2.750337823690672
            ]
        },
        {
            "positions": [
                -0.7640461756327923,
                -1.2144383202521485,
                1.7476288172424626,
                -0.7121512585139957,
                0.42886129279174057,
                -2.8381784895580218
            ]
        },
        {
            "positions": [
                -0.8740998864562277,
                -1.1843881537243137,
                1.8401820954138566,
                -0.7681253839183704,
                0.44511662148733244,
                -2.926019155425372
            ]
        },
        {
            "positions": [
                -0.9841535972796631,
                -1.154337987196479,
                1.9327353735852506,
                -0.8240995093227448,
                0.4613719501829243,
                -3.0138598212927215
            ]
        },
        {
            "positions": [
                -1.0942073081030987,
                -1.1242878206686442,
                2.025288651756645,
                -0.8800736347271194,
                0.47762727887851625,
                -3.1017004871600715
            ]
        }
    ]
}