{
    "goal": {
        "global_pose": {
            "orientation": {
                "w": -0.00223480608172531,
                "x": 0.0024358444001904467,
                "y": 0.7094548369677653,
                "z": -0.704743149386269
            },
            "position": {
                "x": -0.37947507619857795,
                "y": -0.6371506643295288,
                "z": 0.19426114857196808
            }
        },
        "name": "move_to_magneteinheit_C"
    },
    "id": "SBL_move_to_magneteinheit_C_46",
    "joint_names": [
        "shoulder_pan_joint",
        "shoulder_lift_joint",
        "elbow_joint",
        "wrist_1_joint",
        "wrist_2_joint",
        "wrist_3_joint"
    ],
    "metrics": {
        "cart_traj_len": 2.029489980210858,
        "distance_elbow_joint": 1.8720406143828598,
        "distance_shoulder_lift_joint": 0.5915638091320881,
        "distance_shoulder_pan_joint": 1.4760384997524405,
        "distance_wrist_1_joint": 2.364478482623225,
        "distance_wrist_2_joint": 0.9266611266714992,
        "distance_wrist_3_joint": 3.698233269570696,
        "smoothness": 0.897144890410818,
        "time": 0.432808378,
        "traj_len": 3.305906199838829,
        "weighted_distance": 4.649367908712853
    },
    "planner": "SBL",
    "start": {
        "state": {
            "elbow_joint": 1.9565354010623817,
            "shoulder_lift_joint": -1.4165861575791021,
            "shoulder_pan_joint": -1.6717766225146293,
            "wrist_1_joint": -0.5286633292919765,
            "wrist_2_joint": 1.472756589071564,
            "wrist_3_joint": -3.1238370188695823
        }
    },
    "waypoints": [
        {
            "positions": [
                -1.6717766225146293,
                -1.4165861575791021,
                1.9565354010623817,
                -0.5286633292919765,
                1.472756589071564,
                -3.1238370188695823
            ]
        },
        {
            "positions": [
                -1.5969823927677664,
                -1.4229898774014091,
                1.955269936227417,
                -0.4794369952378691,
                1.464105048730738,
                -3.063193434664021
            ]
        },
        {
            "positions": [
                -1.5221881630209033,
                -1.429393597223716,
                1.9540044713924525,
                -0.4302106611837617,
                1.4554535083899125,
                -3.0025498504584593
            ]
        },
        {
            "positions": [
                -1.4957217455292395,
                -1.4116192421683218,
                1.828139838864717,
                -0.4847052337117611,
                1.4689731771106826,
                -2.8626680133028355
            ]
        },
        {
            "positions": [
                -1.4692553280375757,
                -1.3938448871129276,
                1.7022752063369813,
                -0.5391998062397605,
                1.482492845831453,
                -2.722786176147211
            ]
        },
        {
            "positions": [
                -1.442788910545912,
                -1.3760705320575337,
                1.5764105738092455,
                -0.5936943787677599,
                1.4960125145522234,
                -2.582904338991587
            ]
        },
        {
            "positions": [
                -1.4163224930542482,
                -1.3582961770021396,
                1.45054594128151,
                -0.6481889512957593,
                1.5095321832729935,
                -2.443022501835963
            ]
        },
        {
            "positions": [
                -1.4824599638246538,
                -1.3453645745428782,
                1.373371630197897,
                -0.6001745533100573,
                1.4960002938447547,
                -2.328724364143808
            ]
        },
        {
            "positions": [
                -1.5485974345950595,
                -1.3324329720836166,
                1.2961973191142844,
                -0.5521601553243553,
                1.482468404416516,
                -2.2144262264516525
            ]
        },
        {
            "positions": [
                -1.614734905365465,
                -1.3195013696243552,
                1.2190230080306714,
                -0.5041457573386532,
                1.468936514988277,
                -2.1001280887594973
            ]
        },
        {
            "positions": [
                -1.6808723761358706,
                -1.3065697671650935,
                1.1418486969470587,
                -0.45613135935295124,
                1.4554046255600381,
                -1.9858299510673418
            ]
        },
        {
            "positions": [
                -1.7470098469062763,
                -1.2936381647058321,
                1.0646743858634458,
                -0.40811696136724923,
                1.4418727361317993,
                -1.8715318133751866
            ]
        },
        {
            "positions": [
                -1.8566050723555882,
                -1.302622772108399,
                1.0616527923052084,
                -0.2927996478650066,
                1.3857732368455609,
                -1.7742748920712248
            ]
        },
        {
            "positions": [
                -1.9662002978049002,
                -1.3116073795109657,
                1.0586311987469712,
                -0.177482334362764,
                1.3296737375593224,
                -1.677017970767263
            ]
        },
        {
            "positions": [
                -2.0757955232542122,
                -1.3205919869135325,
                1.0556096051887338,
                -0.06216502086052139,
                1.273574238273084,
                -1.5797610494633014
            ]
        },
        {
            "positions": [
                -2.1853907487035245,
                -1.3295765943160993,
                1.0525880116304964,
                0.05315229264172122,
                1.2174747389868457,
                -1.4825041281593396
            ]
        },
        {
            "positions": [
                -2.2949859741528362,
                -1.338561201718666,
                1.0495664180722593,
                0.16846960614396383,
                1.1613752397006072,
                -1.3852472068553778
            ]
        },
        {
            "positions": [
                -2.4045811996021484,
                -1.347545809121233,
                1.0465448245140219,
                0.28378691964620645,
                1.1052757404143687,
                -1.287990285551416
            ]
        },
        {
            "positions": [
                -2.434796840681935,
                -1.3679854171820183,
                1.175843855397843,
                0.2819250525034785,
                1.032399858566007,
                -1.3834126331466081
            ]
        },
        {
            "positions": [
                -2.465012481761722,
                -1.3884250252428039,
                1.305142886281664,
                0.28006318536075053,
                0.9595239767176452,
                -1.4788349807418
            ]
        },
        {
            "positions": [
                -2.4952281228415085,
                -1.4088646333035892,
                1.4344419171654854,
                0.27820131821802263,
                0.8866480948692835,
                -1.574257328336992
            ]
        },
        {
            "positions": [
                -2.525443763921295,
                -1.4293042413643748,
                1.5637409480493065,
                0.2763394510752947,
                0.8137722130209217,
                -1.669679675932184
            ]
        },
        {
            "positions": [
                -2.555659405001082,
                -1.4497438494251602,
                1.6930399789331276,
                0.2744775839325667,
                0.74089633117256,
                -1.765102023527376
            ]
        },
        {
            "positions": [
                -2.5536953165139304,
                -1.428909676888141,
                1.7548627800737897,
                0.17061261245050763,
                0.7173909247137112,
                -1.9157283441012054
            ]
        },
        {
            "positions": [
                -2.5517312280267794,
                -1.408075504351122,
                1.8166855812144518,
                0.06674764096844854,
                0.6938855182548626,
                -2.0663546646750346
            ]
        },
        {
            "positions": [
                -2.549767139539628,
                -1.3872413318141028,
                1.8785083823551139,
                -0.03711733051361056,
                0.6703801117960138,
                -2.2169809852488642
            ]
        },
        {
            "positions": [
                -2.5398027409234696,
                -1.354286488930472,
                1.9096469468656703,
                -0.1609467320600908,
                0.6647446261426571,
                -2.3710579823865534
            ]
        },
        {
            "positions": [
                -2.529838342307311,
                -1.3213316460468412,
                1.9407855113762267,
                -0.28477613360657106,
                0.6591091404893004,
                -2.5251349795242426
            ]
        },
        {
            "positions": [
                -2.5159817433944474,
                -1.2817108838288553,
                1.9577378491193005,
                -0.4216532836586384,
                0.6603232225700688,
                -2.6814454400941683
            ]
        },
        {
            "positions": [
                -2.5021251444815835,
                -1.2420901216108695,
                1.9746901868623743,
                -0.5585304337107058,
                0.6615373046508372,
                -2.8377559006640944
            ]
        },
        {
            "positions": [
                -2.48826854556872,
                -1.2024693593928837,
                1.991642524605448,
                -0.6954075837627731,
                0.6627513867316055,
                -2.9940663612340206
            ]
        },
        {
            "positions": [
                -2.4744119466558563,
                -1.1628485971748979,
                2.008594862348522,
                -0.8322847338148405,
                0.663965468812374,
                -3.1503768218039463
            ]
        }
    ]
}