{
    "goal": {
        "global_pose": {
            "orientation": {
                "w": 0.7031023502349854,
                "x": -0.7110244035720825,
                "y": 0.007748599164187908,
                "z": 0.005598929710686207
            },
            "position": {
                "x": 0.11585023208521307,
                "y": 0.44412534475326537,
                "z": 0.3711530566215515
            }
        },
        "name": "move_to_auspresseinheit_A"
    },
    "id": "SBL_move_to_auspresseinheit_A_119",
    "joint_names": [
        "shoulder_pan_joint",
        "shoulder_lift_joint",
        "elbow_joint",
        "wrist_1_joint",
        "wrist_2_joint",
        "wrist_3_joint"
    ],
    "metrics": {
        "cart_traj_len": 0.7688426767912654,
        "distance_elbow_joint": 0.15938965647294578,
        "distance_shoulder_lift_joint": 0.7903925780547938,
        "distance_shoulder_pan_joint": 1.0435205022288458,
        "distance_wrist_1_joint": 0.5738128555644679,
        "distance_wrist_2_joint": 0.7337683506715701,
        "distance_wrist_3_joint": 0.04444264315746427,
        "smoothness": 1.5006268663184885,
        "time": 0.22543532500000002,
        "traj_len": 1.8290233968295997,
        "weighted_distance": 2.1775658609330404
    },
    "planner": "SBL",
    "start": {
        "state": {
            "elbow_joint": 2.4225746658250005,
            "shoulder_lift_joint": -1.3736534386056498,
            "shoulder_pan_joint": -0.3378633547517467,
            "wrist_1_joint": -1.0288598680537169,
            "wrist_2_joint": 1.233022673432363,
            "wrist_3_joint": -3.0940220416140027
        }
    },
    "waypoints": [
        {
            "positions": [
                -0.3378633547517467,
                -1.3736534386056498,
                2.4225746658250005,
                -1.0288598680537169,
                1.233022673432363,
                -3.0940220416140027
            ]
        },
        {
            "positions": [
                -0.2077741243536236,
                -1.4563054739446628,
                2.430593276046136,
                -0.9673268245390342,
                1.1544221115207731,
                -3.0970787203936405
            ]
        },
        {
            "positions": [
                -0.07768489395550049,
                -1.538957509283676,
                2.4386118862672714,
                -0.9057937810243516,
                1.0758215496091834,
                -3.1001353991732787
            ]
        },
        {
            "positions": [
                0.0524043364426226,
                -1.621609544622689,
                2.4466304964884067,
                -0.8442607375096689,
                0.9972209876975935,
                -3.1031920779529165
            ]
        },
        {
            "positions": [
                0.18249356684074575,
                -1.704261579961702,
                2.4546491067095424,
                -0.7827276939949863,
                0.9186204257860038,
                -3.1062487567325547
            ]
        },
        {
            "positions": [
                0.3125827972388689,
                -1.7869136153007152,
                2.462667716930678,
                -0.7211946504803036,
                0.8400198638744139,
                -3.1093054355121925
            ]
        },
        {
            "positions": [
                0.4426720276369919,
                -1.8695656506397282,
                2.4706863271518134,
                -0.6596616069656209,
                0.761419301962824,
                -3.1123621142918303
            ]
        },
        {
            "positions": [
                0.5727612580351151,
                -1.9522176859787415,
                2.4787049373729486,
                -0.5981285634509383,
                0.6828187400512342,
                -3.1154187930714685
            ]
        },
        {
            "positions": [
                0.7028504884332383,
                -2.0348697213177545,
                2.4867235475940843,
                -0.5365955199362556,
                0.6042181781396444,
                -3.1184754718511063
            ]
        },
        {
            "positions": [
                0.7042538179551687,
                -1.9702815736464099,
                2.439103160242153,
                -0.49582126621275235,
                0.6567001058290701,
                -3.1284700783112864
            ]
        },
        {
            "positions": [
                0.7056571474770992,
                -1.9056934259750653,
                2.3914827728902224,
                -0.455047012489249,
                0.7091820335184958,
                -3.138464684771467
            ]
        }
    ]
}