{
    "goal": {
        "global_pose": {
            "orientation": {
                "w": 0.005598929693374612,
                "x": 0.007748599140229565,
                "y": 0.7110244013736278,
                "z": -0.7031023480610252
            },
            "position": {
                "x": -0.8858502320852131,
                "y": -0.7141253447532654,
                "z": 0.3711530566215515
            }
        },
        "name": "move_to_auspresseinheit_C"
    },
    "id": "SBL_move_to_auspresseinheit_C_88",
    "joint_names": [
        "shoulder_pan_joint",
        "shoulder_lift_joint",
        "elbow_joint",
        "wrist_1_joint",
        "wrist_2_joint",
        "wrist_3_joint"
    ],
    "metrics": {
        "cart_traj_len": 0.4942368359720452,
        "distance_elbow_joint": 1.0147534187033067,
        "distance_shoulder_lift_joint": 0.3321263876835613,
        "distance_shoulder_pan_joint": 0.2559856691764555,
        "distance_wrist_1_joint": 0.7006492222882398,
        "distance_wrist_2_joint": 1.3173669227521623,
        "distance_wrist_3_joint": 0.06921829377257716,
        "smoothness": 0.0,
        "time": 0.426276053,
        "traj_len": 1.9209632777271675,
        "weighted_distance": 2.4179645669367984
    },
    "planner": "SBL",
    "start": {
        "state": {
            "elbow_joint": 1.7527959577737207,
            "shoulder_lift_joint": -0.9740617694225068,
            "shoulder_pan_joint": -2.967991417825858,
            "wrist_1_joint": -0.759517768980727,
            "wrist_2_joint": 1.7443932448377408,
            "wrist_3_joint": -3.0840537646736568
        }
    },
    "waypoints": [
        {
            "positions": [
                -2.967991417825858,
                -0.9740617694225068,
                1.7527959577737207,
                -0.759517768980727,
                1.7443932448377408,
                -3.0840537646736568
            ]
        },
        {
            "positions": [
                -2.9423928509082122,
                -0.9408491306541507,
                1.65132061590339,
                -0.689452846751903,
                1.6126565525625245,
                -3.0909755940509145
            ]
        },
        {
            "positions": [
                -2.916794283990567,
                -0.9076364918857945,
                1.5498452740330593,
                -0.619387924523079,
                1.4809198602873084,
                -3.097897423428172
            ]
        },
        {
            "positions": [
                -2.8911957170729212,
                -0.8744238531174384,
                1.4483699321627286,
                -0.549323002294255,
                1.3491831680120923,
                -3.10481925280543
            ]
        },
        {
            "positions": [
                -2.865597150155276,
                -0.8412112143490822,
                1.3468945902923979,
                -0.4792580800654311,
                1.217446475736876,
                -3.1117410821826876
            ]
        },
        {
            "positions": [
                -2.83999858323763,
                -0.8079985755807262,
                1.2454192484220674,
                -0.4091931578366071,
                1.0857097834616596,
                -3.1186629115599453
            ]
        },
        {
            "positions": [
                -2.8144000163199845,
                -0.77478593681237,
                1.1439439065517365,
                -0.3391282356077831,
                0.9539730911864435,
                -3.125584740937203
            ]
        },
        {
            "positions": [
                -2.788801449402339,
                -0.741573298044014,
                1.042468564681406,
                -0.26906331337895917,
                0.8222363989112274,
                -3.132506570314461
            ]
        },
        {
            "positions": [
                -2.7632028824846935,
                -0.7083606592756577,
                0.9409932228110752,
                -0.19899839115013518,
                0.690499706636011,
                -3.1394283996917185
            ]
        },
        {
            "positions": [
                -2.737604315567048,
                -0.6751480205073016,
                0.8395178809407446,
                -0.1289334689213112,
                0.5587630143607947,
                -3.146350229068976
            ]
        },
        {
            "positions": [
                -2.7120057486494025,
                -0.6419353817389455,
                0.738042539070414,
                -0.058868546692487214,
                0.4270263220855786,
                -3.153272058446234
            ]
        }
    ]
}