{
    "goal": {
        "global_pose": {
            "orientation": {
                "w": -0.4816463035849501,
                "x": 0.5182115481033762,
                "y": 0.4908360881923453,
                "z": -0.5084816262002911
            },
            "position": {
                "x": -0.8240239810943604,
                "y": 0.19912469901144506,
                "z": 0.16403168439865112
            }
        },
        "name": "move_to_storage_D"
    },
    "id": "SBL_move_to_storage_D_54",
    "joint_names": [
        "shoulder_pan_joint",
        "shoulder_lift_joint",
        "elbow_joint",
        "wrist_1_joint",
        "wrist_2_joint",
        "wrist_3_joint"
    ],
    "metrics": {
        "cart_traj_len": 3.6064215402043986,
        "distance_elbow_joint": 4.210414843543835,
        "distance_shoulder_lift_joint": 1.2646825874746086,
        "distance_shoulder_pan_joint": 2.8122994421127685,
        "distance_wrist_1_joint": 2.269750480697687,
        "distance_wrist_2_joint": 0.8696998527615033,
        "distance_wrist_3_joint": 3.1345756372061953,
        "smoothness": 4.3270230627485507e-16,
        "time": 0.166725873,
        "traj_len": 3.815943244310193,
        "weighted_distance": 4.895919163105963
    },
    "planner": "SBL",
    "start": {
        "state": {
            "elbow_joint": -2.384821988534728,
            "shoulder_lift_joint": -2.2788054721415256,
            "shoulder_pan_joint": -0.1854694642142757,
            "wrist_1_joint": 1.4845938289331202,
            "wrist_2_joint": 0.17898776772866878,
            "wrist_3_joint": 0.037105688729662994
        }
    },
    "waypoints": [
        {
            "positions": [
                -0.1854694642142757,
                -2.2788054721415256,
                -2.384821988534728,
                1.4845938289331202,
                0.17898776772866878,
                0.037105688729662994
            ]
        },
        {
            "positions": [
                -0.08427104176106569,
                -2.236366823825749,
                -2.2677550654375818,
                1.4393119580583906,
                0.19537479369485505,
                -0.026802738654059202
            ]
        },
        {
            "positions": [
                0.016927380692144334,
                -2.193928175509972,
                -2.150688142340436,
                1.394030087183661,
                0.21176181966104135,
                -0.0907111660377814
            ]
        },
        {
            "positions": [
                0.11812580314535434,
                -2.151489527194195,
                -2.03362121924329,
                1.3487482163089317,
                0.22814884562722762,
                -0.1546195934215036
            ]
        },
        {
            "positions": [
                0.21932422559856438,
                -2.109050878878419,
                -1.9165542961461437,
                1.3034663454342021,
                0.2445358715934139,
                -0.2185280208052258
            ]
        },
        {
            "positions": [
                0.32052264805177444,
                -2.066612230562642,
                -1.7994873730489975,
                1.2581844745594726,
                0.2609228975596002,
                -0.282436448188948
            ]
        },
        {
            "positions": [
                0.4217210705049844,
                -2.024173582246865,
                -1.6824204499518516,
                1.212902603684743,
                0.27730992352578643,
                -0.34634487557267024
            ]
        },
        {
            "positions": [
                0.5229194929581945,
                -1.9817349339310883,
                -1.5653535268547056,
                1.1676207328100134,
                0.2936969494919728,
                -0.4102533029563924
            ]
        },
        {
            "positions": [
                0.6241179154114045,
                -1.9392962856153115,
                -1.4482866037575595,
                1.122338861935284,
                0.310083975458159,
                -0.47416173034011455
            ]
        },
        {
            "positions": [
                0.7253163378646146,
                -1.8968576372995347,
                -1.3312196806604133,
                1.0770569910605545,
                0.3264710014243453,
                -0.5380701577238368
            ]
        },
        {
            "positions": [
                0.8265147603178246,
                -1.8544189889837581,
                -1.2141527575632673,
                1.031775120185825,
                0.3428580273905316,
                -0.601978585107559
            ]
        },
        {
            "positions": [
                0.9277131827710347,
                -1.8119803406679813,
                -1.0970858344661214,
                0.9864932493110954,
                0.35924505335671786,
                -0.6658870124912811
            ]
        },
        {
            "positions": [
                1.0289116052242444,
                -1.7695416923522045,
                -0.9800189113689752,
                0.9412113784363659,
                0.3756320793229041,
                -0.7297954398750034
            ]
        },
        {
            "positions": [
                1.1301100276774545,
                -1.727103044036428,
                -0.8629519882718293,
                0.8959295075616365,
                0.3920191052890904,
                -0.7937038672587255
            ]
        },
        {
            "positions": [
                1.2313084501306646,
                -1.684664395720651,
                -0.7458850651746831,
                0.8506476366869069,
                0.4084061312552767,
                -0.8576122946424478
            ]
        },
        {
            "positions": [
                1.3325068725838747,
                -1.6422257474048743,
                -0.6288181420775372,
                0.8053657658121773,
                0.424793157221463,
                -0.92152072202617
            ]
        },
        {
            "positions": [
                1.4337052950370845,
                -1.5997870990890974,
                -0.5117512189803912,
                0.7600838949374479,
                0.4411801831876493,
                -0.9854291494098921
            ]
        },
        {
            "positions": [
                1.5349037174902944,
                -1.5573484507733206,
                -0.39468429588324505,
                0.7148020240627184,
                0.45756720915383553,
                -1.0493375767936144
            ]
        },
        {
            "positions": [
                1.6361021399435047,
                -1.5149098024575438,
                -0.27761737278609866,
                0.6695201531879889,
                0.4739542351200219,
                -1.1132460041773367
            ]
        },
        {
            "positions": [
                1.7373005623967146,
                -1.4724711541417672,
                -0.16055044968895293,
                0.6242382823132593,
                0.4903412610862081,
                -1.1771544315610587
            ]
        },
        {
            "positions": [
                1.8384989848499247,
                -1.4300325058259906,
                -0.043483526591806765,
                0.5789564114385298,
                0.5067282870523944,
                -1.241062858944781
            ]
        },
        {
            "positions": [
                1.9396974073031346,
                -1.3875938575102138,
                0.07358339650533896,
                0.5336745405638004,
                0.5231153130185806,
                -1.304971286328503
            ]
        },
        {
            "positions": [
                2.040895829756345,
                -1.345155209194437,
                0.19065031960248513,
                0.4883926696890707,
                0.539502338984767,
                -1.3688797137122253
            ]
        },
        {
            "positions": [
                2.1420942522095547,
                -1.3027165608786602,
                0.3077172426996314,
                0.4431107988143412,
                0.5558893649509532,
                -1.4327881410959475
            ]
        },
        {
            "positions": [
                2.174409967255484,
                -1.283476982464544,
                0.4089089501869298,
                0.3612263021090806,
                0.5887425819869011,
                -1.5437669282546531
            ]
        },
        {
            "positions": [
                2.206725682301413,
                -1.2642374040504278,
                0.5101006576742282,
                0.27934180540382003,
                0.621595799022849,
                -1.654745715413359
            ]
        },
        {
            "positions": [
                2.2390413973473424,
                -1.2449978256363115,
                0.6112923651615265,
                0.19745730869855943,
                0.654449016058797,
                -1.7657245025720645
            ]
        },
        {
            "positions": [
                2.2713571123932716,
                -1.2257582472221953,
                0.7124840726488249,
                0.11557281199329889,
                0.6873022330947449,
                -1.8767032897307703
            ]
        },
        {
            "positions": [
                2.303672827439201,
                -1.2065186688080791,
                0.8136757801361233,
                0.03368831528803834,
                0.7201554501306928,
                -1.9876820768894758
            ]
        },
        {
            "positions": [
                2.33598854248513,
                -1.187279090393963,
                0.9148674876234217,
                -0.04819618141722232,
                0.7530086671666407,
                -2.0986608640481816
            ]
        },
        {
            "positions": [
                2.3683042575310593,
                -1.1680395119798468,
                1.01605919511072,
                -0.13008067812248286,
                0.7858618842025886,
                -2.209639651206887
            ]
        },
        {
            "positions": [
                2.4006199725769886,
                -1.1487999335657304,
                1.1172509025980184,
                -0.2119651748277434,
                0.8187151012385365,
                -2.320618438365593
            ]
        },
        {
            "positions": [
                2.4329356876229173,
                -1.1295603551516142,
                1.2184426100853167,
                -0.29384967153300395,
                0.8515683182744844,
                -2.431597225524299
            ]
        },
        {
            "positions": [
                2.4652514026688466,
                -1.110320776737498,
                1.319634317572615,
                -0.3757341682382645,
                0.8844215353104324,
                -2.5425760126830044
            ]
        },
        {
            "positions": [
                2.497567117714776,
                -1.091081198323382,
                1.4208260250599136,
                -0.45761866494352504,
                0.9172747523463803,
                -2.65355479984171
            ]
        },
        {
            "positions": [
                2.529882832760705,
                -1.0718416199092657,
                1.5220177325472122,
                -0.5395031616487858,
                0.9501279693823284,
                -2.7645335870004155
            ]
        },
        {
            "positions": [
                2.5621985478066343,
                -1.0526020414951494,
                1.6232094400345103,
                -0.6213876583540463,
                0.9829811864182763,
                -2.875512374159121
            ]
        },
        {
            "positions": [
                2.5945142628525635,
                -1.0333624630810332,
                1.7244011475218088,
                -0.7032721550593068,
                1.0158344034542242,
                -2.986491161317827
            ]
        },
        {
            "positions": [
                2.6268299778984927,
                -1.014122884666917,
                1.8255928550091072,
                -0.7851566517645675,
                1.048687620490172,
                -3.0974699484765327
            ]
        }
    ]
}