{
    "goal": {
        "global_pose": {
            "orientation": {
                "w": -0.4816463035849501,
                "x": 0.5182115481033762,
                "y": 0.4908360881923453,
                "z": -0.5084816262002911
            },
            "position": {
                "x": -0.8240239810943604,
                "y": 0.19912469901144506,
                "z": 0.16403168439865112
            }
        },
        "name": "move_to_storage_D"
    },
    "id": "SBL_move_to_storage_D_73",
    "joint_names": [
        "shoulder_pan_joint",
        "shoulder_lift_joint",
        "elbow_joint",
        "wrist_1_joint",
        "wrist_2_joint",
        "wrist_3_joint"
    ],
    "metrics": {
        "cart_traj_len": 4.035291941544251,
        "distance_elbow_joint": 4.210580708515059,
        "distance_shoulder_lift_joint": 1.2656714391043684,
        "distance_shoulder_pan_joint": 2.8140929405698545,
        "distance_wrist_1_joint": 2.2741638164571287,
        "distance_wrist_2_joint": 1.3497735872359131,
        "distance_wrist_3_joint": 3.1315368533276744,
        "smoothness": 0.04138056222377481,
        "time": 0.346946965,
        "traj_len": 3.8788940879083045,
        "weighted_distance": 4.9932785277369005
    },
    "planner": "SBL",
    "start": {
        "state": {
            "elbow_joint": -2.384821988534728,
            "shoulder_lift_joint": -2.2788054721415256,
            "shoulder_pan_joint": -0.1854694642142757,
            "wrist_1_joint": 1.4845938289331202,
            "wrist_2_joint": 0.17898776772866878,
            "wrist_3_joint": 0.037105688729662994
        }
    },
    "waypoints": [
        {
            "positions": [
                -0.1854694642142757,
                -2.2788054721415256,
                -2.384821988534728,
                1.4845938289331202,
                0.17898776772866878,
                0.037105688729662994
            ]
        },
        {
            "positions": [
                -0.09731512584377718,
                -2.253452943083895,
                -2.263088759608983,
                1.4105533390417284,
                0.22029253440657226,
                -0.0049969193225187225
            ]
        },
        {
            "positions": [
                -0.009160787473278642,
                -2.2281004140262652,
                -2.1413555306832377,
                1.3365128491503369,
                0.2615973010844757,
                -0.04709952737470044
            ]
        },
        {
            "positions": [
                0.0789935508972199,
                -2.202747884968635,
                -2.019622301757493,
                1.262472359258945,
                0.30290206776237916,
                -0.08920213542688216
            ]
        },
        {
            "positions": [
                0.16714788926771842,
                -2.177395355911005,
                -1.8978890728317475,
                1.1884318693675533,
                0.34420683444028266,
                -0.13130474347906387
            ]
        },
        {
            "positions": [
                0.25530222763821697,
                -2.1520428268533744,
                -1.7761558439060026,
                1.1143913794761615,
                0.3855116011181861,
                -0.1734073515312456
            ]
        },
        {
            "positions": [
                0.34345656600871555,
                -2.1266902977957445,
                -1.6544226149802574,
                1.04035088958477,
                0.42681636779608956,
                -0.2155099595834273
            ]
        },
        {
            "positions": [
                0.4316109043792141,
                -2.101337768738114,
                -1.5326893860545123,
                0.9663103996933782,
                0.46812113447399306,
                -0.257612567635609
            ]
        },
        {
            "positions": [
                0.5197652427497126,
                -2.075985239680484,
                -1.4109561571287672,
                0.8922699098019865,
                0.5094259011518965,
                -0.2997151756877907
            ]
        },
        {
            "positions": [
                0.6079195811202112,
                -2.0506327106228537,
                -1.289222928203022,
                0.8182294199105948,
                0.5507306678298,
                -0.3418177837399724
            ]
        },
        {
            "positions": [
                0.6960739194907097,
                -2.0252801815652237,
                -1.167489699277277,
                0.744188930019203,
                0.5920354345077035,
                -0.3839203917921542
            ]
        },
        {
            "positions": [
                0.7842282578612082,
                -1.9999276525075933,
                -1.045756470351532,
                0.6701484401278114,
                0.6333402011856069,
                -0.4260229998443359
            ]
        },
        {
            "positions": [
                0.8723825962317068,
                -1.974575123449963,
                -0.924023241425787,
                0.5961079502364197,
                0.6746449678635104,
                -0.4681256078965176
            ]
        },
        {
            "positions": [
                0.9605369346022054,
                -1.949222594392333,
                -0.8022900125000418,
                0.5220674603450279,
                0.7159497345414138,
                -0.5102282159486993
            ]
        },
        {
            "positions": [
                1.0486912729727038,
                -1.9238700653347025,
                -0.6805567835742967,
                0.44802697045363615,
                0.7572545012193173,
                -0.552330824000881
            ]
        },
        {
            "positions": [
                1.1368456113432024,
                -1.8985175362770723,
                -0.5588235546485514,
                0.37398648056224437,
                0.7985592678972208,
                -0.5944334320530628
            ]
        },
        {
            "positions": [
                1.2249999497137007,
                -1.8731650072194421,
                -0.4370903257228065,
                0.2999459906708528,
                0.8398640345751242,
                -0.6365360401052444
            ]
        },
        {
            "positions": [
                1.3131542880841995,
                -1.847812478161812,
                -0.31535709679706114,
                0.22590550077946103,
                0.8811688012530278,
                -0.6786386481574262
            ]
        },
        {
            "positions": [
                1.401308626454698,
                -1.8224599491041817,
                -0.19362386787131625,
                0.15186501088806947,
                0.9224735679309312,
                -0.7207412562096078
            ]
        },
        {
            "positions": [
                1.4894629648251965,
                -1.7971074200465516,
                -0.0718906389455709,
                0.07782452099667747,
                0.9637783346088347,
                -0.7628438642617896
            ]
        },
        {
            "positions": [
                1.577617303195695,
                -1.7717548909889214,
                0.04984258998017399,
                0.003784031105285912,
                1.005083101286738,
                -0.8049464723139713
            ]
        },
        {
            "positions": [
                1.6657716415661936,
                -1.746402361931291,
                0.1715758189059189,
                -0.07025645878610587,
                1.0463878679646417,
                -0.8470490803661531
            ]
        },
        {
            "positions": [
                1.753925979936692,
                -1.721049832873661,
                0.2933090478316638,
                -0.14429694867749743,
                1.087692634642545,
                -0.8891516884183347
            ]
        },
        {
            "positions": [
                1.8420803183071905,
                -1.6956973038160306,
                0.4150422767574091,
                -0.2183374385688892,
                1.1289974013204485,
                -0.9312542964705165
            ]
        },
        {
            "positions": [
                1.9302346566776891,
                -1.6703447747584006,
                0.536775505683154,
                -0.29237792846028077,
                1.170302167998352,
                -0.9733569045226982
            ]
        },
        {
            "positions": [
                2.0183889950481877,
                -1.6449922457007702,
                0.6585087346088994,
                -0.36641841835167277,
                1.2116069346762555,
                -1.01545951257488
            ]
        },
        {
            "positions": [
                2.1065433334186863,
                -1.6196397166431402,
                0.7802419635346443,
                -0.44045890824306433,
                1.2529117013541589,
                -1.0575621206270616
            ]
        },
        {
            "positions": [
                2.194697671789185,
                -1.5942871875855098,
                0.9019751924603898,
                -0.5144993981344561,
                1.2942164680320625,
                -1.0996647286792434
            ]
        },
        {
            "positions": [
                2.230858155503051,
                -1.5458577580398138,
                0.9789571530870518,
                -0.5374219472502522,
                1.2746710607876859,
                -1.2658952650058073
            ]
        },
        {
            "positions": [
                2.267018639216917,
                -1.4974283284941177,
                1.0559391137137137,
                -0.5603444963660482,
                1.2551256535433093,
                -1.4321258013323712
            ]
        },
        {
            "positions": [
                2.3031791229307834,
                -1.4489988989484217,
                1.1329210743403757,
                -0.5832670454818444,
                1.2355802462989327,
                -1.5983563376589354
            ]
        },
        {
            "positions": [
                2.3393396066446495,
                -1.4005694694027255,
                1.2099030349670374,
                -0.6061895945976404,
                1.2160348390545561,
                -1.7645868739854993
            ]
        },
        {
            "positions": [
                2.3755000903585155,
                -1.3521400398570296,
                1.2868849955936996,
                -0.6291121437134365,
                1.1964894318101795,
                -1.9308174103120634
            ]
        },
        {
            "positions": [
                2.411660574072382,
                -1.3037106103113336,
                1.3638669562203614,
                -0.6520346928292327,
                1.176944024565803,
                -2.0970479466386274
            ]
        },
        {
            "positions": [
                2.447821057786248,
                -1.2552811807656374,
                1.4408489168470235,
                -0.6749572419450287,
                1.1573986173214261,
                -2.2632784829651915
            ]
        },
        {
            "positions": [
                2.483981541500114,
                -1.2068517512199415,
                1.5178308774736853,
                -0.6978797910608248,
                1.1378532100770495,
                -2.4295090192917552
            ]
        },
        {
            "positions": [
                2.52014202521398,
                -1.1584223216742453,
                1.5948128381003472,
                -0.7208023401766208,
                1.118307802832673,
                -2.5957395556183194
            ]
        },
        {
            "positions": [
                2.556302508927846,
                -1.1099928921285493,
                1.6717947987270092,
                -0.7437248892924169,
                1.0987623955882964,
                -2.7619700919448835
            ]
        },
        {
            "positions": [
                2.5924629926417126,
                -1.0615634625828534,
                1.7487767593536712,
                -0.7666474384082129,
                1.0792169883439198,
                -2.9282006282714472
            ]
        },
        {
            "positions": [
                2.6286234763555787,
                -1.0131340330371572,
                1.8257587199803331,
                -0.7895699875240091,
                1.0596715810995432,
                -3.0944311645980114
            ]
        }
    ]
}