{
    "goal": {
        "global_pose": {
            "orientation": {
                "w": 0.7047431468963623,
                "x": -0.7094548344612122,
                "y": 0.0024358443915843964,
                "z": -0.0022348060738295317
            },
            "position": {
                "x": 0.6094750761985779,
                "y": 0.3671506643295288,
                "z": 0.19426114857196808
            }
        },
        "name": "move_to_magneteinheit_A"
    },
    "id": "SBL_move_to_magneteinheit_A_132",
    "joint_names": [
        "shoulder_pan_joint",
        "shoulder_lift_joint",
        "elbow_joint",
        "wrist_1_joint",
        "wrist_2_joint",
        "wrist_3_joint"
    ],
    "metrics": {
        "cart_traj_len": 3.1571749872967008,
        "distance_elbow_joint": 4.322899981151668,
        "distance_shoulder_lift_joint": 2.418085305933044,
        "distance_shoulder_pan_joint": 4.196291527790171,
        "distance_wrist_1_joint": 2.7580631929318855,
        "distance_wrist_2_joint": 3.0930641429567403,
        "distance_wrist_3_joint": 3.644909993624375,
        "smoothness": 0.3731215078234756,
        "time": 0.284810792,
        "traj_len": 4.520322349610466,
        "weighted_distance": 5.794330113785825
    },
    "planner": "SBL",
    "start": {
        "state": {
            "elbow_joint": -1.9196185241190666,
            "shoulder_lift_joint": -1.2443396400964142,
            "shoulder_pan_joint": 2.6996025414629847,
            "wrist_1_joint": -1.5485510000780065,
            "wrist_2_joint": -1.5709468930060704,
            "wrist_3_joint": 0.4420197071253992
        }
    },
    "waypoints": [
        {
            "positions": [
                2.6996025414629847,
                -1.2443396400964142,
                -1.9196185241190666,
                -1.5485510000780065,
                -1.5709468930060704,
                0.4420197071253992
            ]
        },
        {
            "positions": [
                2.6149449140112337,
                -1.273238260378471,
                -1.816992950381023,
                -1.5042199849618145,
                -1.5110645837136791,
                0.36681522068350814
            ]
        },
        {
            "positions": [
                2.530287286559483,
                -1.3021368806605278,
                -1.7143673766429792,
                -1.4598889698456226,
                -1.4511822744212879,
                0.2916107342416171
            ]
        },
        {
            "positions": [
                2.4456296591077322,
                -1.3310355009425847,
                -1.6117418029049355,
                -1.4155579547294306,
                -1.3912999651288966,
                0.21640624779972603
            ]
        },
        {
            "positions": [
                2.3609720316559812,
                -1.3599341212246414,
                -1.5091162291668918,
                -1.3712269396132386,
                -1.3314176558365052,
                0.14120176135783497
            ]
        },
        {
            "positions": [
                2.2763144042042307,
                -1.3888327415066983,
                -1.406490655428848,
                -1.3268959244970466,
                -1.271535346544114,
                0.06599727491594393
            ]
        },
        {
            "positions": [
                2.19165677675248,
                -1.417731361788755,
                -1.3038650816908044,
                -1.2825649093808549,
                -1.2116530372517227,
                -0.009207211525947112
            ]
        },
        {
            "positions": [
                2.106999149300729,
                -1.446629982070812,
                -1.2012395079527607,
                -1.238233894264663,
                -1.1517707279593314,
                -0.0844116979678381
            ]
        },
        {
            "positions": [
                2.022341521848978,
                -1.4755286023528686,
                -1.098613934214717,
                -1.193902879148471,
                -1.0918884186669402,
                -0.15961618440972924
            ]
        },
        {
            "positions": [
                1.9376838943972274,
                -1.5044272226349256,
                -0.9959883604766733,
                -1.149571864032279,
                -1.032006109374549,
                -0.23482067085162028
            ]
        },
        {
            "positions": [
                1.8530262669454767,
                -1.5333258429169825,
                -0.8933627867386296,
                -1.105240848916087,
                -0.9721238000821576,
                -0.3100251572935113
            ]
        },
        {
            "positions": [
                1.7683686394937257,
                -1.5622244631990392,
                -0.7907372130005859,
                -1.060909833799895,
                -0.9122414907897662,
                -0.38522964373540247
            ]
        },
        {
            "positions": [
                1.6837110120419752,
                -1.5911230834810959,
                -0.6881116392625422,
                -1.016578818683703,
                -0.8523591814973751,
                -0.4604341301772934
            ]
        },
        {
            "positions": [
                1.5990533845902242,
                -1.6200217037631528,
                -0.5854860655244984,
                -0.9722478035675111,
                -0.7924768722049838,
                -0.5356386166191845
            ]
        },
        {
            "positions": [
                1.5143957571384736,
                -1.6489203240452097,
                -0.48286049178645474,
                -0.9279167884513191,
                -0.7325945629125925,
                -0.6108431030610754
            ]
        },
        {
            "positions": [
                1.4297381296867226,
                -1.6778189443272664,
                -0.38023491804841103,
                -0.8835857733351271,
                -0.6727122536202013,
                -0.6860475895029666
            ]
        },
        {
            "positions": [
                1.3450805022349717,
                -1.7067175646093233,
                -0.2776093443103673,
                -0.8392547582189351,
                -0.6128299443278099,
                -0.7612520759448577
            ]
        },
        {
            "positions": [
                1.2604228747832211,
                -1.73561618489138,
                -0.17498377057232362,
                -0.7949237431027433,
                -0.5529476350354188,
                -0.8364565623867487
            ]
        },
        {
            "positions": [
                1.1757652473314701,
                -1.764514805173437,
                -0.07235819683427991,
                -0.7505927279865513,
                -0.4930653257430273,
                -0.9116610488286397
            ]
        },
        {
            "positions": [
                1.0911076198797196,
                -1.7934134254554936,
                0.0302673769037638,
                -0.7062617128703593,
                -0.43318301645063606,
                -0.9868655352705308
            ]
        },
        {
            "positions": [
                1.0064499924279686,
                -1.8223120457375506,
                0.1328929506418075,
                -0.6619306977541674,
                -0.3733007071582448,
                -1.062070021712422
            ]
        },
        {
            "positions": [
                0.9217923649762176,
                -1.8512106660196075,
                0.23551852437985143,
                -0.6175996826379754,
                -0.31341839786585357,
                -1.137274508154313
            ]
        },
        {
            "positions": [
                0.8371347375244669,
                -1.8801092863016642,
                0.3381440981178949,
                -0.5732686675217834,
                -0.2535360885734621,
                -1.212478994596204
            ]
        },
        {
            "positions": [
                0.7524771100727163,
                -1.9090079065837209,
                0.4407696718559384,
                -0.5289376524055915,
                -0.19365377928107108,
                -1.287683481038095
            ]
        },
        {
            "positions": [
                0.6678194826209656,
                -1.9379065268657778,
                0.5433952455939823,
                -0.48460663728939957,
                -0.13377146998867984,
                -1.362887967479986
            ]
        },
        {
            "positions": [
                0.5831618551692146,
                -1.9668051471478347,
                0.6460208193320258,
                -0.4402756221732076,
                -0.07388916069628837,
                -1.4380924539218771
            ]
        },
        {
            "positions": [
                0.4985042277174636,
                -1.9957037674298914,
                0.7486463930700697,
                -0.3959446070570156,
                -0.014006851403897125,
                -1.5132969403637682
            ]
        },
        {
            "positions": [
                0.4138466002657126,
                -2.0246023877119486,
                0.8512719668081137,
                -0.35161359194082364,
                0.04587545788849434,
                -1.5885014268056592
            ]
        },
        {
            "positions": [
                0.32918897281396253,
                -2.0535010079940053,
                0.9538975405461572,
                -0.30728257682463167,
                0.10575776718088536,
                -1.6637059132475498
            ]
        },
        {
            "positions": [
                0.24453134536221155,
                -2.082399628276062,
                1.0565231142842006,
                -0.2629515617084397,
                0.1656400764732766,
                -1.7389103996894413
            ]
        },
        {
            "positions": [
                0.15987371791046057,
                -2.1112982485581187,
                1.1591486880222446,
                -0.21862054659224772,
                0.22552238576566785,
                -1.8141148861313323
            ]
        },
        {
            "positions": [
                0.07521609045870958,
                -2.1401968688401753,
                1.2617742617602885,
                -0.17428953147605575,
                0.2854046950580593,
                -1.8893193725732234
            ]
        },
        {
            "positions": [
                -0.0094415369930414,
                -2.1690954891222325,
                1.364399835498332,
                -0.12995851635986377,
                0.34528700435045057,
                -1.9645238590151144
            ]
        },
        {
            "positions": [
                -0.0940991644447915,
                -2.197994109404289,
                1.4670254092363755,
                -0.08562750124367202,
                0.4051693136428416,
                -2.0397283454570054
            ]
        },
        {
            "positions": [
                -0.17875679189654248,
                -2.226892729686346,
                1.5696509829744194,
                -0.04129648612748005,
                0.46505162293523283,
                -2.1149328318988965
            ]
        },
        {
            "positions": [
                -0.26341441934829346,
                -2.255791349968403,
                1.6722765567124633,
                0.0030345289887119264,
                0.5249339322276245,
                -2.1901373183407875
            ]
        },
        {
            "positions": [
                -0.34807204680004444,
                -2.2846899702504597,
                1.7749021304505068,
                0.0473655441049039,
                0.5848162415200158,
                -2.2653418047826785
            ]
        },
        {
            "positions": [
                -0.4327296742517954,
                -2.3135885905325164,
                1.8775277041885508,
                0.0916965592210961,
                0.644698550812407,
                -2.3405462912245696
            ]
        },
        {
            "positions": [
                -0.5173873017035455,
                -2.342487210814573,
                1.9801532779265942,
                0.13602757433728785,
                0.7045808601047983,
                -2.4157507776664606
            ]
        },
        {
            "positions": [
                -0.6020449291552965,
                -2.37138583109663,
                2.082778851664638,
                0.18035858945347982,
                0.7644631693971895,
                -2.4909552641083517
            ]
        },
        {
            "positions": [
                -0.6867025566070473,
                -2.400284451378687,
                2.185404425402681,
                0.2246896045696718,
                0.8243454786895807,
                -2.5661597505502427
            ]
        },
        {
            "positions": [
                -0.6192036874637024,
                -2.2951060768244558,
                2.1672480061001878,
                0.1426210555459878,
                0.7661978310844901,
                -2.6192206285459703
            ]
        },
        {
            "positions": [
                -0.5517048183203574,
                -2.189927702270225,
                2.1490915867976943,
                0.06055250652230379,
                0.7080501834793994,
                -2.6722815065416983
            ]
        },
        {
            "positions": [
                -0.48420594917701243,
                -2.0847493277159943,
                2.1309351674952013,
                -0.021516042501380228,
                0.6499025358743088,
                -2.725342384537426
            ]
        },
        {
            "positions": [
                -0.4167070800336675,
                -1.9795709531617631,
                2.112778748192708,
                -0.10358459152506422,
                0.5917548882692181,
                -2.778403262533154
            ]
        },
        {
            "positions": [
                -0.34920821089032256,
                -1.8743925786075322,
                2.0946223288902144,
                -0.18565314054874826,
                0.5336072406641275,
                -2.8314641405288814
            ]
        },
        {
            "positions": [
                -0.28170934174697765,
                -1.7692142040533012,
                2.076465909587721,
                -0.26772168957243225,
                0.4754595930590368,
                -2.8845250185246094
            ]
        },
        {
            "positions": [
                -0.21421047260363268,
                -1.6640358294990703,
                2.0583094902852275,
                -0.34979023859611624,
                0.4173119454539461,
                -2.937585896520337
            ]
        },
        {
            "positions": [
                -0.14671160346028778,
                -1.5588574549448393,
                2.0401530709827345,
                -0.43185878761980023,
                0.3591642978488555,
                -2.9906467745160645
            ]
        },
        {
            "positions": [
                -0.07921273431694287,
                -1.4536790803906083,
                2.021996651680241,
                -0.5139273366434842,
                0.3010166502437648,
                -3.0437076525117925
            ]
        },
        {
            "positions": [
                -0.011713865173597848,
                -1.3485007058363774,
                2.0038402323777476,
                -0.5959958856671683,
                0.24286900263867417,
                -3.09676853050752
            ]
        },
        {
            "positions": [
                0.05578500396974695,
                -1.2433223312821464,
                1.9856838130752543,
                -0.6780644346908523,
                0.18472135503358356,
                -3.1498294085032477
            ]
        },
        {
            "positions": [
                0.12328387311309194,
                -1.1381439567279155,
                1.9675273937727609,
                -0.7601329837145363,
                0.12657370742849283,
                -3.2028902864989757
            ]
        }
    ]
}