{
    "goal": {
        "global_pose": {
            "orientation": {
                "w": -0.00223480608172531,
                "x": 0.0024358444001904467,
                "y": 0.7094548369677653,
                "z": -0.704743149386269
            },
            "position": {
                "x": 0.6205249238014221,
                "y": -0.6371506643295288,
                "z": 0.19426114857196808
            }
        },
        "name": "move_to_magneteinheit_B"
    },
    "id": "SBL_move_to_magneteinheit_B_94",
    "joint_names": [
        "shoulder_pan_joint",
        "shoulder_lift_joint",
        "elbow_joint",
        "wrist_1_joint",
        "wrist_2_joint",
        "wrist_3_joint"
    ],
    "metrics": {
        "cart_traj_len": 2.2241032942479517,
        "distance_elbow_joint": 2.0050216578913034,
        "distance_shoulder_lift_joint": 1.5788843559642736,
        "distance_shoulder_pan_joint": 1.6213621241685199,
        "distance_wrist_1_joint": 3.854064929791637,
        "distance_wrist_2_joint": 1.674260477943021,
        "distance_wrist_3_joint": 3.0710930902280884,
        "smoothness": 0.6406866102320095,
        "time": 0.311590163,
        "traj_len": 3.7154658706529444,
        "weighted_distance": 5.04729613002622
    },
    "planner": "SBL",
    "start": {
        "state": {
            "elbow_joint": 2.6216224122426386,
            "shoulder_lift_joint": -1.4174107377796124,
            "shoulder_pan_joint": 0.7066234856936794,
            "wrist_1_joint": 1.9546482284002225,
            "wrist_2_joint": -0.7096286983471962,
            "wrist_3_joint": 0.005740856962016249
        }
    },
    "waypoints": [
        {
            "positions": [
                0.7066234856936794,
                -1.4174107377796124,
                2.6216224122426386,
                1.9546482284002225,
                -0.7096286983471962,
                0.005740856962016249
            ]
        },
        {
            "positions": [
                0.6786614003587826,
                -1.4636101287800698,
                2.569253501258926,
                1.7989567592242768,
                -0.6836441564912692,
                0.015988333759272076
            ]
        },
        {
            "positions": [
                0.650699315023886,
                -1.5098095197805272,
                2.516884590275214,
                1.643265290048331,
                -0.6576596146353421,
                0.026235810556527905
            ]
        },
        {
            "positions": [
                0.6227372296889893,
                -1.5560089107809847,
                2.4645156792915017,
                1.4875738208723852,
                -0.631675072779415,
                0.036483287353783735
            ]
        },
        {
            "positions": [
                0.6163779470175048,
                -1.5768684976184804,
                2.3625494542666474,
                1.3822105448318969,
                -0.6731343259705493,
                -0.08182359451495089
            ]
        },
        {
            "positions": [
                0.6100186643460204,
                -1.597728084455976,
                2.260583229241793,
                1.2768472687914085,
                -0.7145935791616836,
                -0.20013047638368553
            ]
        },
        {
            "positions": [
                0.6036593816745359,
                -1.6185876712934717,
                2.1586170042169384,
                1.1714839927509202,
                -0.756052832352818,
                -0.31843735825242014
            ]
        },
        {
            "positions": [
                0.5973000990030514,
                -1.6394472581309674,
                2.056650779192084,
                1.0661207167104318,
                -0.7975120855439523,
                -0.43674424012115476
            ]
        },
        {
            "positions": [
                0.5909408163315669,
                -1.660306844968463,
                1.9546845541672297,
                0.9607574406699436,
                -0.8389713387350866,
                -0.5550511219898895
            ]
        },
        {
            "positions": [
                0.5845815336600825,
                -1.6811664318059587,
                1.8527183291423752,
                0.8553941646294553,
                -0.8804305919262209,
                -0.6733580038586241
            ]
        },
        {
            "positions": [
                0.578222250988598,
                -1.7020260186434544,
                1.750752104117521,
                0.7500308885889669,
                -0.9218898451173552,
                -0.7916648857273586
            ]
        },
        {
            "positions": [
                0.5718629683171136,
                -1.7228856054809503,
                1.6487858790926664,
                0.6446676125484786,
                -0.9633490983084895,
                -0.9099717675960933
            ]
        },
        {
            "positions": [
                0.5655036856456291,
                -1.743745192318446,
                1.546819654067812,
                0.5393043365079904,
                -1.0048083514996238,
                -1.028278649464828
            ]
        },
        {
            "positions": [
                0.5591444029741446,
                -1.7646047791559416,
                1.4448534290429575,
                0.433941060467502,
                -1.0462676046907582,
                -1.1465855313335627
            ]
        },
        {
            "positions": [
                0.5527851203026601,
                -1.7854643659934373,
                1.3428872040181032,
                0.3285777844270137,
                -1.0877268578818924,
                -1.2648924132022972
            ]
        },
        {
            "positions": [
                0.5464258376311757,
                -1.806323952830933,
                1.2409209789932487,
                0.22321450838652535,
                -1.1291861110730266,
                -1.383199295071032
            ]
        },
        {
            "positions": [
                0.5400665549596912,
                -1.8271835396684286,
                1.1389547539683944,
                0.1178512323460371,
                -1.170645364264161,
                -1.5015061769397664
            ]
        },
        {
            "positions": [
                0.46732629528796465,
                -1.7687279619646556,
                1.1650724539492474,
                0.2187146290329096,
                -1.2235121923086858,
                -1.426388117162628
            ]
        },
        {
            "positions": [
                0.39458603561623806,
                -1.710272384260883,
                1.1911901539301004,
                0.3195780257197821,
                -1.2763790203532104,
                -1.3512700573854894
            ]
        },
        {
            "positions": [
                0.32184577594451147,
                -1.65181680655711,
                1.2173078539109532,
                0.4204414224066546,
                -1.329245848397735,
                -1.276151997608351
            ]
        },
        {
            "positions": [
                0.24910551627278488,
                -1.593361228853337,
                1.2434255538918062,
                0.5213048190935271,
                -1.3821126764422598,
                -1.2010339378312125
            ]
        },
        {
            "positions": [
                0.17636525660105828,
                -1.5349056511495642,
                1.2695432538726592,
                0.6221682157803996,
                -1.4349795044867846,
                -1.1259158780540741
            ]
        },
        {
            "positions": [
                0.10362499692933169,
                -1.4764500734457915,
                1.295660953853512,
                0.7230316124672721,
                -1.4878463325313092,
                -1.0507978182769357
            ]
        },
        {
            "positions": [
                0.0308847372576051,
                -1.4179944957420185,
                1.321778653834365,
                0.8238950091541446,
                -1.5407131605758337,
                -0.9756797584997973
            ]
        },
        {
            "positions": [
                -0.04185552241412149,
                -1.3595389180382456,
                1.347896353815218,
                0.9247584058410171,
                -1.5935799886203585,
                -0.9005616987226588
            ]
        },
        {
            "positions": [
                -0.11459578208584809,
                -1.3010833403344728,
                1.374014053796071,
                1.0256218025278896,
                -1.6464468166648834,
                -0.8254436389455204
            ]
        },
        {
            "positions": [
                -0.18733604175757468,
                -1.2426277626306999,
                1.400131753776924,
                1.126485199214762,
                -1.699313644709408,
                -0.7503255791683819
            ]
        },
        {
            "positions": [
                -0.2600763014293014,
                -1.1841721849269269,
                1.4262494537577768,
                1.2273485959016346,
                -1.7521804727539325,
                -0.6752075193912435
            ]
        },
        {
            "positions": [
                -0.33281656110102786,
                -1.1257166072231541,
                1.4523671537386298,
                1.328211992588507,
                -1.8050473007984573,
                -0.6000894596141051
            ]
        },
        {
            "positions": [
                -0.40555682077275446,
                -1.0672610295193812,
                1.4784848537194828,
                1.4290753892753796,
                -1.8579141288429821,
                -0.5249713998369666
            ]
        },
        {
            "positions": [
                -0.47829708044448105,
                -1.0088054518156084,
                1.5046025537003356,
                1.529938785962252,
                -1.9107809568875067,
                -0.44985334005982813
            ]
        },
        {
            "positions": [
                -0.5510373401162076,
                -0.9503498741118355,
                1.5307202536811886,
                1.6308021826491244,
                -1.9636477849320313,
                -0.37473528028268976
            ]
        },
        {
            "positions": [
                -0.6237775997879342,
                -0.8918942964080625,
                1.5568379536620416,
                1.731665579335997,
                -2.016514612976556,
                -0.2996172205055512
            ]
        },
        {
            "positions": [
                -0.6965178594596608,
                -0.8334387187042898,
                1.5829556536428946,
                1.8325289760228693,
                -2.069381441021081,
                -0.2244991607284128
            ]
        },
        {
            "positions": [
                -0.7692581191313874,
                -0.7749831410005168,
                1.6090733536237476,
                1.933392372709742,
                -2.1222482690656053,
                -0.14938110095127444
            ]
        },
        {
            "positions": [
                -0.841998378803114,
                -0.716527563296744,
                1.6351910536046004,
                2.0342557693966143,
                -2.17511509711013,
                -0.07426304117413607
            ]
        },
        {
            "positions": [
                -0.9147386384748406,
                -0.6580719855929712,
                1.6613087535854534,
                2.135119166083487,
                -2.227981925154655,
                0.0008550186030025056
            ]
        }
    ]
}