{
    "goal": {
        "global_pose": {
            "orientation": {
                "w": -0.00223480608172531,
                "x": 0.0024358444001904467,
                "y": 0.7094548369677653,
                "z": -0.704743149386269
            },
            "position": {
                "x": -0.37947507619857795,
                "y": -0.6371506643295288,
                "z": 0.19426114857196808
            }
        },
        "name": "move_to_magneteinheit_C"
    },
    "id": "SBL_move_to_magneteinheit_C_43",
    "joint_names": [
        "shoulder_pan_joint",
        "shoulder_lift_joint",
        "elbow_joint",
        "wrist_1_joint",
        "wrist_2_joint",
        "wrist_3_joint"
    ],
    "metrics": {
        "cart_traj_len": 1.7918588641864435,
        "distance_elbow_joint": 0.3667816145369187,
        "distance_shoulder_lift_joint": 0.5806566933207176,
        "distance_shoulder_pan_joint": 2.2884533505147573,
        "distance_wrist_1_joint": 1.8975494111175624,
        "distance_wrist_2_joint": 1.0563882227327284,
        "distance_wrist_3_joint": 4.821446507758146,
        "smoothness": 0.7198631321781023,
        "time": 0.31115918,
        "traj_len": 3.3183242457573114,
        "weighted_distance": 4.858817392056159
    },
    "planner": "SBL",
    "start": {
        "state": {
            "elbow_joint": 1.9565354010623817,
            "shoulder_lift_joint": -1.4165861575791021,
            "shoulder_pan_joint": -1.6717766225146293,
            "wrist_1_joint": -0.5286633292919765,
            "wrist_2_joint": 1.472756589071564,
            "wrist_3_joint": -3.1238370188695823
        }
    },
    "waypoints": [
        {
            "positions": [
                -1.6717766225146293,
                -1.4165861575791021,
                1.9565354010623817,
                -0.5286633292919765,
                1.472756589071564,
                -3.1238370188695823
            ]
        },
        {
            "positions": [
                -1.6159547302690762,
                -1.4292136707681042,
                1.9476404496930206,
                -0.46786161734400544,
                1.4082839361636021,
                -2.9389462477018338
            ]
        },
        {
            "positions": [
                -1.560132838023523,
                -1.4418411839571066,
                1.9387454983236596,
                -0.4070599053960345,
                1.3438112832556404,
                -2.7540554765340857
            ]
        },
        {
            "positions": [
                -1.50431094577797,
                -1.4544686971461087,
                1.9298505469542988,
                -0.34625819344806347,
                1.2793386303476786,
                -2.5691647053663376
            ]
        },
        {
            "positions": [
                -1.4484890535324169,
                -1.467096210335111,
                1.9209555955849378,
                -0.2854564815000925,
                1.214865977439717,
                -2.384273934198589
            ]
        },
        {
            "positions": [
                -1.3926671612868637,
                -1.4797237235241132,
                1.9120606442155768,
                -0.2246547695521215,
                1.1503933245317552,
                -2.1993831630308405
            ]
        },
        {
            "positions": [
                -1.3368452690413108,
                -1.4923512367131153,
                1.9031656928462157,
                -0.16385305760415048,
                1.0859206716237935,
                -2.0144923918630924
            ]
        },
        {
            "positions": [
                -1.2810233767957577,
                -1.5049787499021177,
                1.894270741476855,
                -0.10305134565617957,
                1.021448018715832,
                -1.8296016206953443
            ]
        },
        {
            "positions": [
                -1.2252014845502046,
                -1.5176062630911198,
                1.885375790107494,
                -0.0422496337082085,
                0.95697536580787,
                -1.6447108495275957
            ]
        },
        {
            "positions": [
                -1.1693795923046515,
                -1.530233776280122,
                1.8764808387381329,
                0.01855207823976246,
                0.8925027128999083,
                -1.4598200783598476
            ]
        },
        {
            "positions": [
                -1.1135577000590984,
                -1.5428612894691243,
                1.8675858873687718,
                0.07935379018773348,
                0.8280300599919466,
                -1.274929307192099
            ]
        },
        {
            "positions": [
                -1.0577358078135455,
                -1.5554888026581264,
                1.858690935999411,
                0.14015550213570438,
                0.7635574070839848,
                -1.090038536024351
            ]
        },
        {
            "positions": [
                -1.0019139155679921,
                -1.5681163158471287,
                1.84979598463005,
                0.2009572140836755,
                0.699084754176023,
                -0.9051477648566024
            ]
        },
        {
            "positions": [
                -0.9460920233224391,
                -1.5807438290361309,
                1.840901033260689,
                0.2617589260316464,
                0.6346121012680613,
                -0.7202569936888542
            ]
        },
        {
            "positions": [
                -1.1129756019579913,
                -1.5384356137506388,
                1.8644487205591815,
                0.24039347523253923,
                0.624654613138272,
                -0.8468123789289727
            ]
        },
        {
            "positions": [
                -1.2798591805935433,
                -1.4961273984651469,
                1.887996407857674,
                0.21902802443343203,
                0.6146971250084826,
                -0.973367764169091
            ]
        },
        {
            "positions": [
                -1.4467427592290956,
                -1.4538191831796548,
                1.9115440951561664,
                0.19766257363432485,
                0.6047396368786933,
                -1.0999231494092094
            ]
        },
        {
            "positions": [
                -1.6136263378646478,
                -1.4115109678941629,
                1.935091782454659,
                0.17629712283521765,
                0.5947821487489039,
                -1.2264785346493279
            ]
        },
        {
            "positions": [
                -1.7805099165002,
                -1.3692027526086707,
                1.9586394697531515,
                0.15493167203611047,
                0.5848246606191146,
                -1.3530339198894463
            ]
        },
        {
            "positions": [
                -1.9473934951357519,
                -1.3268945373231789,
                1.982187157051644,
                0.1335662212370033,
                0.5748671724893253,
                -1.4795893051295645
            ]
        },
        {
            "positions": [
                -2.114277073771304,
                -1.2845863220376867,
                2.0057348443501364,
                0.11220077043789609,
                0.5649096843595359,
                -1.6061446903696832
            ]
        },
        {
            "positions": [
                -2.2811606524068564,
                -1.2422781067521949,
                2.029282531648629,
                0.09083531963878891,
                0.5549521962297466,
                -1.7327000756098014
            ]
        },
        {
            "positions": [
                -2.4480442310424086,
                -1.1999698914667027,
                2.0528302189471215,
                0.06946986883968169,
                0.5449947080999572,
                -1.85925546084992
            ]
        },
        {
            "positions": [
                -2.467772926611801,
                -1.1898333908967365,
                2.0463698222014646,
                -0.05591300441782833,
                0.5630896464897872,
                -2.031377748770054
            ]
        },
        {
            "positions": [
                -2.4875016221811936,
                -1.17969689032677,
                2.0399094254558072,
                -0.18129587767533836,
                0.5811845848796173,
                -2.203500036690188
            ]
        },
        {
            "positions": [
                -2.4895092889911554,
                -1.1759383179048384,
                2.0351201963546997,
                -0.27615276029774455,
                0.5948350922791279,
                -2.3416401804658427
            ]
        },
        {
            "positions": [
                -2.491516955801117,
                -1.1721797454829068,
                2.030330967253592,
                -0.3710096429201507,
                0.6084855996786385,
                -2.4797803242414975
            ]
        },
        {
            "positions": [
                -2.487181001090145,
                -1.1701960109052907,
                2.026151264914776,
                -0.4895992896306863,
                0.6247694622242486,
                -2.644366112247691
            ]
        },
        {
            "positions": [
                -2.4828450463791727,
                -1.1682122763276745,
                2.02197156257596,
                -0.6081889363412218,
                0.6410533247698587,
                -2.8089519002538847
            ]
        },
        {
            "positions": [
                -2.4785090916682004,
                -1.1662285417500582,
                2.017791860237144,
                -0.7267785830517575,
                0.6573371873154688,
                -2.9735376882600786
            ]
        },
        {
            "positions": [
                -2.474173136957228,
                -1.164244807172442,
                2.013612157898328,
                -0.845368229762293,
                0.6736210498610788,
                -3.138123476266272
            ]
        }
    ]
}