{
    "goal": {
        "global_pose": {
            "orientation": {
                "w": -0.4816463035849501,
                "x": 0.5182115481033762,
                "y": 0.4908360881923453,
                "z": -0.5084816262002911
            },
            "position": {
                "x": -0.8240239810943604,
                "y": -0.300875300988555,
                "z": 0.16403168439865112
            }
        },
        "name": "move_to_storage_C"
    },
    "id": "SBL_move_to_storage_C_125",
    "joint_names": [
        "shoulder_pan_joint",
        "shoulder_lift_joint",
        "elbow_joint",
        "wrist_1_joint",
        "wrist_2_joint",
        "wrist_3_joint"
    ],
    "metrics": {
        "cart_traj_len": 0.5771215842947561,
        "distance_elbow_joint": 0.2578442466358408,
        "distance_shoulder_lift_joint": 0.18898775596703554,
        "distance_shoulder_pan_joint": 0.4962687389363549,
        "distance_wrist_1_joint": 0.07857885362873684,
        "distance_wrist_2_joint": 1.0604428727464121,
        "distance_wrist_3_joint": 0.07386414825046428,
        "smoothness": 5.075305295617109e-16,
        "time": 0.35038891499999997,
        "traj_len": 1.4683278299360958,
        "weighted_distance": 1.855461300873969
    },
    "planner": "SBL",
    "start": {
        "state": {
            "elbow_joint": 2.010868314990456,
            "shoulder_lift_joint": -1.1634956873337592,
            "shoulder_pan_joint": -2.4736205022346125,
            "wrist_1_joint": -0.8367026794202681,
            "wrist_2_joint": 0.6746043897044499,
            "wrist_3_joint": -3.1496632123970403
        }
    },
    "waypoints": [
        {
            "positions": [
                -2.4736205022346125,
                -1.1634956873337592,
                2.010868314990456,
                -0.8367026794202681,
                0.6746043897044499,
                -3.1496632123970403
            ]
        },
        {
            "positions": [
                -2.556331958724005,
                -1.13199772800592,
                1.9678942738844825,
                -0.8236062038154787,
                0.8513448684955186,
                -3.137352521021963
            ]
        },
        {
            "positions": [
                -2.6390434152133975,
                -1.1004997686780806,
                1.9249202327785089,
                -0.8105097282106891,
                1.0280853472865874,
                -3.1250418296468854
            ]
        },
        {
            "positions": [
                -2.7217548717027897,
                -1.0690018093502414,
                1.8819461916725353,
                -0.7974132526058997,
                1.204825826077656,
                -3.1127311382718084
            ]
        },
        {
            "positions": [
                -2.8044663281921824,
                -1.037503850022402,
                1.838972150566562,
                -0.7843167770011102,
                1.3815663048687248,
                -3.100420446896731
            ]
        },
        {
            "positions": [
                -2.887177784681575,
                -1.0060058906945628,
                1.7959981094605886,
                -0.7712203013963207,
                1.5583067836597935,
                -3.0881097555216535
            ]
        },
        {
            "positions": [
                -2.9698892411709674,
                -0.9745079313667236,
                1.753024068354615,
                -0.7581238257915313,
                1.735047262450862,
                -3.075799064146576
            ]
        }
    ]
}