{
    "goal": {
        "global_pose": {
            "orientation": {
                "w": -0.4816463035849501,
                "x": 0.5182115481033762,
                "y": 0.4908360881923453,
                "z": -0.5084816262002911
            },
            "position": {
                "x": -0.8240239810943604,
                "y": -0.300875300988555,
                "z": 0.16403168439865112
            }
        },
        "name": "move_to_storage_C"
    },
    "id": "SBL_move_to_storage_C_100",
    "joint_names": [
        "shoulder_pan_joint",
        "shoulder_lift_joint",
        "elbow_joint",
        "wrist_1_joint",
        "wrist_2_joint",
        "wrist_3_joint"
    ],
    "metrics": {
        "cart_traj_len": 0.5764577498866679,
        "distance_elbow_joint": 0.2601992743887105,
        "distance_shoulder_lift_joint": 0.18900496541409362,
        "distance_shoulder_pan_joint": 0.49435652802241137,
        "distance_wrist_1_joint": 0.08952566460659317,
        "distance_wrist_2_joint": 1.0706205245954634,
        "distance_wrist_3_joint": 0.06994952247077979,
        "smoothness": 0.0,
        "time": 0.398247377,
        "traj_len": 1.4743325539029695,
        "weighted_distance": 1.8637869281765198
    },
    "planner": "SBL",
    "start": {
        "state": {
            "elbow_joint": 2.010868314990456,
            "shoulder_lift_joint": -1.1634956873337592,
            "shoulder_pan_joint": -2.4736205022346125,
            "wrist_1_joint": -0.8367026794202681,
            "wrist_2_joint": 0.6746043897044499,
            "wrist_3_joint": -3.1496632123970403
        }
    },
    "waypoints": [
        {
            "positions": [
                -2.4736205022346125,
                -1.1634956873337592,
                2.010868314990456,
                -0.8367026794202681,
                0.6746043897044499,
                -3.1496632123970403
            ]
        },
        {
            "positions": [
                -2.5560132569050142,
                -1.1319948597647436,
                1.967501769259004,
                -0.8217817353191692,
                0.8530411438036938,
                -3.1380049586519103
            ]
        },
        {
            "positions": [
                -2.6384060115754164,
                -1.100494032195728,
                1.9241352235275524,
                -0.8068607912180704,
                1.0314778979029378,
                -3.1263467049067803
            ]
        },
        {
            "positions": [
                -2.720798766245818,
                -1.0689932046267123,
                1.8807686777961006,
                -0.7919398471169715,
                1.2099146520021815,
                -3.1146884511616504
            ]
        },
        {
            "positions": [
                -2.80319152091622,
                -1.0374923770576967,
                1.8374021320646488,
                -0.7770189030158726,
                1.3883514061014255,
                -3.1030301974165204
            ]
        },
        {
            "positions": [
                -2.885584275586622,
                -1.005991549488681,
                1.7940355863331972,
                -0.7620979589147738,
                1.5667881602006695,
                -3.0913719436713905
            ]
        },
        {
            "positions": [
                -2.967977030257024,
                -0.9744907219196656,
                1.7506690406017453,
                -0.7471770148136749,
                1.7452249142999134,
                -3.0797136899262605
            ]
        }
    ]
}