{
    "goal": {
        "global_pose": {
            "orientation": {
                "w": 0.005598929693374612,
                "x": 0.007748599140229565,
                "y": 0.7110244013736278,
                "z": -0.7031023480610252
            },
            "position": {
                "x": -0.8858502320852131,
                "y": -0.7141253447532654,
                "z": 0.3711530566215515
            }
        },
        "name": "move_to_auspresseinheit_C"
    },
    "id": "SBL_move_to_auspresseinheit_C_112",
    "joint_names": [
        "shoulder_pan_joint",
        "shoulder_lift_joint",
        "elbow_joint",
        "wrist_1_joint",
        "wrist_2_joint",
        "wrist_3_joint"
    ],
    "metrics": {
        "cart_traj_len": 0.49215413560585664,
        "distance_elbow_joint": 0.9919628487615896,
        "distance_shoulder_lift_joint": 0.3214270337434405,
        "distance_shoulder_pan_joint": 0.25596300566194063,
        "distance_wrist_1_joint": 0.6623659175302858,
        "distance_wrist_2_joint": 1.310717638503884,
        "distance_wrist_3_joint": 0.03926642970087979,
        "smoothness": 0.0,
        "time": 0.28535612099999996,
        "traj_len": 1.8925387377546647,
        "weighted_distance": 2.373461457310388
    },
    "planner": "SBL",
    "start": {
        "state": {
            "elbow_joint": 1.7527959577737207,
            "shoulder_lift_joint": -0.9740617694225068,
            "shoulder_pan_joint": -2.967991417825858,
            "wrist_1_joint": -0.759517768980727,
            "wrist_2_joint": 1.7443932448377408,
            "wrist_3_joint": -3.0840537646736568
        }
    },
    "waypoints": [
        {
            "positions": [
                -2.967991417825858,
                -0.9740617694225068,
                1.7527959577737207,
                -0.759517768980727,
                1.7443932448377408,
                -3.0840537646736568
            ]
        },
        {
            "positions": [
                -2.942395117259664,
                -0.9419190660481627,
                1.6535996728975617,
                -0.6932811772276984,
                1.6133214809873524,
                -3.087980407643745
            ]
        },
        {
            "positions": [
                -2.9167988166934697,
                -0.9097763626738187,
                1.5544033880214028,
                -0.6270445854746698,
                1.482249717136964,
                -3.0919070506138326
            ]
        },
        {
            "positions": [
                -2.891202516127276,
                -0.8776336592994747,
                1.4552071031452438,
                -0.5608079937216413,
                1.3511779532865758,
                -3.095833693583921
            ]
        },
        {
            "positions": [
                -2.8656062155610815,
                -0.8454909559251306,
                1.3560108182690849,
                -0.49457140196861266,
                1.220106189436187,
                -3.0997603365540085
            ]
        },
        {
            "positions": [
                -2.8400099149948876,
                -0.8133482525507865,
                1.256814533392926,
                -0.42833481021558406,
                1.0890344255857989,
                -3.1036869795240967
            ]
        },
        {
            "positions": [
                -2.8144136144286938,
                -0.7812055491764425,
                1.157618248516767,
                -0.36209821846255547,
                0.9579626617354106,
                -3.107613622494185
            ]
        },
        {
            "positions": [
                -2.7888173138624994,
                -0.7490628458020985,
                1.058421963640608,
                -0.2958616267095269,
                0.8268908978850221,
                -3.1115402654642725
            ]
        },
        {
            "positions": [
                -2.7632210132963055,
                -0.7169201424277544,
                0.959225678764449,
                -0.22962503495649833,
                0.6958191340346336,
                -3.1154669084343607
            ]
        },
        {
            "positions": [
                -2.737624712730111,
                -0.6847774390534103,
                0.86002939388829,
                -0.16338844320346968,
                0.5647473701842454,
                -3.1193935514044484
            ]
        },
        {
            "positions": [
                -2.7120284121639173,
                -0.6526347356790663,
                0.7608331090121311,
                -0.09715185145044108,
                0.433675606333857,
                -3.1233201943745366
            ]
        }
    ]
}