{
    "goal": {
        "global_pose": {
            "orientation": {
                "w": 0.7047431468963623,
                "x": -0.7094548344612122,
                "y": 0.0024358443915843964,
                "z": -0.0022348060738295317
            },
            "position": {
                "x": 0.6094750761985779,
                "y": 0.3671506643295288,
                "z": 0.19426114857196808
            }
        },
        "name": "move_to_magneteinheit_A"
    },
    "id": "SBL_move_to_magneteinheit_A_140",
    "joint_names": [
        "shoulder_pan_joint",
        "shoulder_lift_joint",
        "elbow_joint",
        "wrist_1_joint",
        "wrist_2_joint",
        "wrist_3_joint"
    ],
    "metrics": {
        "cart_traj_len": 3.667421992433747,
        "distance_elbow_joint": 3.9205881336849453,
        "distance_shoulder_lift_joint": 1.4010441020802915,
        "distance_shoulder_pan_joint": 3.8583494614224647,
        "distance_wrist_1_joint": 4.308761562802308,
        "distance_wrist_2_joint": 4.39589842704953,
        "distance_wrist_3_joint": 1.4542562613081507,
        "smoothness": 0.5223748173038796,
        "time": 0.22639963800000001,
        "traj_len": 4.39760138579518,
        "weighted_distance": 5.563458498166033
    },
    "planner": "SBL",
    "start": {
        "state": {
            "elbow_joint": -1.9196185241190666,
            "shoulder_lift_joint": -1.2443396400964142,
            "shoulder_pan_joint": 2.6996025414629847,
            "wrist_1_joint": -1.5485510000780065,
            "wrist_2_joint": -1.5709468930060704,
            "wrist_3_joint": 0.4420197071253992
        }
    },
    "waypoints": [
        {
            "positions": [
                2.6996025414629847,
                -1.2443396400964142,
                -1.9196185241190666,
                -1.5485510000780065,
                -1.5709468930060704,
                0.4420197071253992
            ]
        },
        {
            "positions": [
                2.6220459911266314,
                -1.2593861633044219,
                -1.8053223907550573,
                -1.478520034871901,
                -1.4766580610597788,
                0.4183198405230781
            ]
        },
        {
            "positions": [
                2.5444894407902776,
                -1.2744326865124296,
                -1.691026257391048,
                -1.4084890696657957,
                -1.3823692291134875,
                0.394619973920757
            ]
        },
        {
            "positions": [
                2.4669328904539243,
                -1.289479209720437,
                -1.5767301240270386,
                -1.3384581044596902,
                -1.288080397167196,
                0.3709201073184359
            ]
        },
        {
            "positions": [
                2.389376340117571,
                -1.3045257329284448,
                -1.4624339906630293,
                -1.2684271392535846,
                -1.1937915652209043,
                0.3472202407161148
            ]
        },
        {
            "positions": [
                2.3118197897812176,
                -1.3195722561364525,
                -1.3481378572990201,
                -1.1983961740474793,
                -1.099502733274613,
                0.3235203741137937
            ]
        },
        {
            "positions": [
                2.2342632394448643,
                -1.3346187793444602,
                -1.2338417239350106,
                -1.1283652088413738,
                -1.0052139013283214,
                0.2998205075114726
            ]
        },
        {
            "positions": [
                2.1567066891085105,
                -1.3496653025524679,
                -1.1195455905710014,
                -1.0583342436352683,
                -0.91092506938203,
                0.27612064090915156
            ]
        },
        {
            "positions": [
                2.079150138772157,
                -1.3647118257604753,
                -1.005249457206992,
                -0.988303278429163,
                -0.8166362374357384,
                0.2524207743068304
            ]
        },
        {
            "positions": [
                2.001593588435804,
                -1.379758348968483,
                -0.8909533238429828,
                -0.9182723132230575,
                -0.7223474054894469,
                0.2287209077045093
            ]
        },
        {
            "positions": [
                1.9240370380994503,
                -1.3948048721764907,
                -0.7766571904789734,
                -0.8482413480169521,
                -0.6280585735431555,
                0.20502104110218825
            ]
        },
        {
            "positions": [
                1.8464804877630967,
                -1.4098513953844984,
                -0.6623610571149641,
                -0.7782103828108465,
                -0.5337697415968639,
                0.18132117449986712
            ]
        },
        {
            "positions": [
                1.7689239374267434,
                -1.4248979185925061,
                -0.5480649237509547,
                -0.7081794176047412,
                -0.4394809096505725,
                0.15762130789754608
            ]
        },
        {
            "positions": [
                1.6913673870903898,
                -1.4399444418005136,
                -0.4337687903869454,
                -0.6381484523986357,
                -0.34519207770428095,
                0.13392144129522493
            ]
        },
        {
            "positions": [
                1.6138108367540365,
                -1.4549909650085213,
                -0.31947265702293626,
                -0.5681174871925303,
                -0.2509032457579896,
                0.11022157469290389
            ]
        },
        {
            "positions": [
                1.536254286417683,
                -1.470037488216529,
                -0.2051765236589267,
                -0.4980865219864248,
                -0.15661441381169805,
                0.08652170809058274
            ]
        },
        {
            "positions": [
                1.4586977360813296,
                -1.4850840114245367,
                -0.09088039029491757,
                -0.4280555567803195,
                -0.06232558186540649,
                0.0628218414882617
            ]
        },
        {
            "positions": [
                1.3811411857449762,
                -1.5001305346325444,
                0.023415743069091777,
                -0.35802459157421396,
                0.03196325008088485,
                0.0391219748859406
            ]
        },
        {
            "positions": [
                1.3035846354086225,
                -1.515177057840552,
                0.13771187643310112,
                -0.28799362636810844,
                0.12625208202717664,
                0.015422108283619451
            ]
        },
        {
            "positions": [
                1.2260280850722691,
                -1.5302235810485596,
                0.2520080097971107,
                -0.21796266116200314,
                0.22054091397346798,
                -0.008277758318701645
            ]
        },
        {
            "positions": [
                1.1484715347359158,
                -1.5452701042565673,
                0.3663041431611198,
                -0.1479316959558976,
                0.3148297459197593,
                -0.031977624921022685
            ]
        },
        {
            "positions": [
                1.0709149843995625,
                -1.560316627464575,
                0.48060027652512893,
                -0.07790073074979231,
                0.4091185778660509,
                -0.05567749152334378
            ]
        },
        {
            "positions": [
                0.9933584340632087,
                -1.5753631506725827,
                0.5948964098891385,
                -0.007869765543686569,
                0.5034074098123427,
                -0.07937735812566493
            ]
        },
        {
            "positions": [
                0.9158018837268553,
                -1.5904096738805902,
                0.7091925432531476,
                0.06216119966241873,
                0.5976962417586338,
                -0.10307722472798597
            ]
        },
        {
            "positions": [
                0.838245333390502,
                -1.6054561970885979,
                0.8234886766171572,
                0.13219216486852403,
                0.6919850737049253,
                -0.126777091330307
            ]
        },
        {
            "positions": [
                0.7606887830541487,
                -1.6205027202966056,
                0.9377848099811663,
                0.20222313007462955,
                0.7862739056512169,
                -0.15047695793262816
            ]
        },
        {
            "positions": [
                0.6831322327177949,
                -1.6355492435046133,
                1.0520809433451759,
                0.2722540952807351,
                0.8805627375975085,
                -0.17417682453494931
            ]
        },
        {
            "positions": [
                0.6055756823814415,
                -1.650595766712621,
                1.166377076709185,
                0.3422850604868404,
                0.9748515695438,
                -0.19787669113727036
            ]
        },
        {
            "positions": [
                0.5280191320450882,
                -1.6656422899206285,
                1.2806732100731941,
                0.4123160256929459,
                1.0691404014900912,
                -0.2215765577395914
            ]
        },
        {
            "positions": [
                0.4504625817087349,
                -1.6806888131286362,
                1.3949693434372037,
                0.4823469908990512,
                1.1634292334363827,
                -0.24527642434191255
            ]
        },
        {
            "positions": [
                0.3729060313723811,
                -1.6957353363366439,
                1.5092654768012133,
                0.5523779561051569,
                1.2577180653826743,
                -0.2689762909442337
            ]
        },
        {
            "positions": [
                0.29534948103602787,
                -1.7107818595446516,
                1.6235616101652224,
                0.6224089213112622,
                1.3520068973289656,
                -0.29267615754655474
            ]
        },
        {
            "positions": [
                0.23723105775188436,
                -1.6523909753887238,
                1.6500503753016609,
                0.7446141415243637,
                1.281162812584511,
                -0.25559449511970084
            ]
        },
        {
            "positions": [
                0.17911263446774087,
                -1.594000091232796,
                1.6765391404380994,
                0.866819361737465,
                1.210318727840056,
                -0.21851283269284694
            ]
        },
        {
            "positions": [
                0.12099421118359735,
                -1.5356092070768683,
                1.7030279055745379,
                0.9890245819505663,
                1.139474643095601,
                -0.18143117026599304
            ]
        },
        {
            "positions": [
                0.06287578789945386,
                -1.4772183229209404,
                1.7295166707109764,
                1.1112298021636677,
                1.0686305583511464,
                -0.14434950783913914
            ]
        },
        {
            "positions": [
                0.004757364615310344,
                -1.4188274387650126,
                1.7560054358474149,
                1.2334350223767692,
                0.9977864736066916,
                -0.10726784541228523
            ]
        },
        {
            "positions": [
                -0.05336105866883317,
                -1.3604365546090849,
                1.7824942009838534,
                1.3556402425898706,
                0.9269423888622368,
                -0.07018618298543133
            ]
        },
        {
            "positions": [
                -0.11147948195297669,
                -1.3020456704531571,
                1.8089829661202919,
                1.4778454628029718,
                0.856098304117782,
                -0.03310452055857743
            ]
        },
        {
            "positions": [
                -0.16959790523712015,
                -1.2436547862972294,
                1.8354717312567304,
                1.6000506830160732,
                0.7852542193733272,
                0.003977141868276468
            ]
        },
        {
            "positions": [
                -0.22771632852126378,
                -1.1852639021413016,
                1.8619604963931689,
                1.7222559032291747,
                0.7144101346288724,
                0.04105880429513037
            ]
        },
        {
            "positions": [
                -0.2858347518054072,
                -1.1268730179853739,
                1.8884492615296073,
                1.844461123442276,
                0.6435660498844176,
                0.07814046672198427
            ]
        },
        {
            "positions": [
                -0.3439531750895507,
                -1.0684821338294461,
                1.9149380266660458,
                1.9666663436553775,
                0.5727219651399628,
                0.11522212914883817
            ]
        },
        {
            "positions": [
                -0.4020715983736942,
                -1.0100912496735184,
                1.9414267918024843,
                2.0888715638684787,
                0.501877880395508,
                0.15230379157569207
            ]
        },
        {
            "positions": [
                -0.46019002165783773,
                -0.9517003655175904,
                1.9679155569389228,
                2.2110767840815804,
                0.43103379565105315,
                0.18938545400254597
            ]
        },
        {
            "positions": [
                -0.5183084449419813,
                -0.8933094813616627,
                1.9944043220753613,
                2.3332820042946816,
                0.36018971090659835,
                0.22646711642939987
            ]
        },
        {
            "positions": [
                -0.3902207499384816,
                -0.8698835804718495,
                1.9930912645772572,
                2.247896292608757,
                0.2639642208481725,
                0.18638369189735168
            ]
        },
        {
            "positions": [
                -0.26213305493498196,
                -0.8464576795820365,
                1.991778207079153,
                2.1625105809228327,
                0.1677387307897467,
                0.1463002673653035
            ]
        },
        {
            "positions": [
                -0.13404535993148237,
                -0.8230317786922234,
                1.990465149581049,
                2.077124869236908,
                0.07151324073132087,
                0.10621684283325533
            ]
        },
        {
            "positions": [
                -0.005957664927982664,
                -0.7996058778024104,
                1.9891520920829449,
                1.991739157550984,
                -0.024712249327104974,
                0.06613341830120711
            ]
        },
        {
            "positions": [
                0.12213003007551688,
                -0.7761799769125973,
                1.9878390345848407,
                1.9063534458650595,
                -0.12093773938553078,
                0.026049993769158952
            ]
        }
    ]
}