{
    "goal": {
        "global_pose": {
            "orientation": {
                "w": 0.7047431468963623,
                "x": -0.7094548344612122,
                "y": 0.0024358443915843964,
                "z": -0.0022348060738295317
            },
            "position": {
                "x": 0.6094750761985779,
                "y": 0.3671506643295288,
                "z": 0.19426114857196808
            }
        },
        "name": "move_to_magneteinheit_A"
    },
    "id": "SBL_move_to_magneteinheit_A_118",
    "joint_names": [
        "shoulder_pan_joint",
        "shoulder_lift_joint",
        "elbow_joint",
        "wrist_1_joint",
        "wrist_2_joint",
        "wrist_3_joint"
    ],
    "metrics": {
        "cart_traj_len": 3.376905055521035,
        "distance_elbow_joint": 3.8759165463241905,
        "distance_shoulder_lift_joint": 0.60613544794515,
        "distance_shoulder_pan_joint": 2.7622903081694212,
        "distance_wrist_1_joint": 0.8401754450903791,
        "distance_wrist_2_joint": 1.700231995004414,
        "distance_wrist_3_joint": 2.5821204029368596,
        "smoothness": 0.17724260870830494,
        "time": 0.153135271,
        "traj_len": 3.5166561028156305,
        "weighted_distance": 4.4801248187342875
    },
    "planner": "SBL",
    "start": {
        "state": {
            "elbow_joint": -1.9196185241190666,
            "shoulder_lift_joint": -1.2443396400964142,
            "shoulder_pan_joint": 2.6996025414629847,
            "wrist_1_joint": -1.5485510000780065,
            "wrist_2_joint": -1.5709468930060704,
            "wrist_3_joint": 0.4420197071253992
        }
    },
    "waypoints": [
        {
            "positions": [
                2.6996025414629847,
                -1.2443396400964142,
                -1.9196185241190666,
                -1.5485510000780065,
                -1.5709468930060704,
                0.4420197071253992
            ]
        },
        {
            "positions": [
                2.5960294489274736,
                -1.250628913895973,
                -1.789838401451508,
                -1.525693582841901,
                -1.519998771555694,
                0.5141245563835691
            ]
        },
        {
            "positions": [
                2.4924563563919624,
                -1.2569181876955315,
                -1.6600582787839497,
                -1.5028361656057954,
                -1.4690506501053175,
                0.586229405641739
            ]
        },
        {
            "positions": [
                2.3888832638564512,
                -1.2632074614950903,
                -1.5302781561163914,
                -1.47997874836969,
                -1.418102528654941,
                0.6583342548999089
            ]
        },
        {
            "positions": [
                2.2853101713209396,
                -1.269496735294649,
                -1.4004980334488328,
                -1.4571213311335844,
                -1.3671544072045645,
                0.7304391041580789
            ]
        },
        {
            "positions": [
                2.1817370787854284,
                -1.2757860090942077,
                -1.2707179107812743,
                -1.4342639138974789,
                -1.316206285754188,
                0.8025439534162488
            ]
        },
        {
            "positions": [
                2.0781639862499173,
                -1.2820752828937663,
                -1.140937788113716,
                -1.4114064966613733,
                -1.2652581643038117,
                0.8746488026744187
            ]
        },
        {
            "positions": [
                1.974590893714406,
                -1.288364556693325,
                -1.0111576654461574,
                -1.3885490794252677,
                -1.2143100428534352,
                0.9467536519325886
            ]
        },
        {
            "positions": [
                1.871017801178895,
                -1.2946538304928836,
                -0.881377542778599,
                -1.3656916621891624,
                -1.1633619214030588,
                1.0188585011907585
            ]
        },
        {
            "positions": [
                1.7674447086433835,
                -1.3009431042924424,
                -0.7515974201110405,
                -1.3428342449530568,
                -1.1124137999526824,
                1.0909633504489284
            ]
        },
        {
            "positions": [
                1.6638716161078722,
                -1.307232378092001,
                -0.6218172974434821,
                -1.3199768277169512,
                -1.0614656785023058,
                1.1630681997070984
            ]
        },
        {
            "positions": [
                1.5602985235723612,
                -1.3135216518915598,
                -0.4920371747759238,
                -1.2971194104808457,
                -1.0105175570519296,
                1.2351730489652684
            ]
        },
        {
            "positions": [
                1.4567254310368498,
                -1.3198109256911184,
                -0.36225705210836523,
                -1.2742619932447403,
                -0.959569435601553,
                1.3072778982234383
            ]
        },
        {
            "positions": [
                1.3531523385013386,
                -1.3261001994906771,
                -0.2324769294408069,
                -1.2514045760086348,
                -0.9086213141511765,
                1.379382747481608
            ]
        },
        {
            "positions": [
                1.2495792459658273,
                -1.332389473290236,
                -0.1026968067732481,
                -1.2285471587725292,
                -0.8576731927008,
                1.4514875967397782
            ]
        },
        {
            "positions": [
                1.146006153430316,
                -1.3386787470897945,
                0.02708331589431001,
                -1.2056897415364236,
                -0.8067250712504236,
                1.5235924459979482
            ]
        },
        {
            "positions": [
                1.042433060894805,
                -1.3449680208893533,
                0.15686343856186857,
                -1.182832324300318,
                -0.7557769498000472,
                1.5956972952561177
            ]
        },
        {
            "positions": [
                0.9388599683592935,
                -1.3512572946889119,
                0.28664356122942714,
                -1.1599749070642127,
                -0.7048288283496706,
                1.6678021445142877
            ]
        },
        {
            "positions": [
                0.8352868758237824,
                -1.3575465684884707,
                0.4164236838969857,
                -1.1371174898281071,
                -0.6538807068992942,
                1.7399069937724576
            ]
        },
        {
            "positions": [
                0.7317137832882712,
                -1.3638358422880292,
                0.5462038065645438,
                -1.1142600725920015,
                -0.6029325854489178,
                1.8120118430306276
            ]
        },
        {
            "positions": [
                0.6281406907527596,
                -1.370125116087588,
                0.6759839292321024,
                -1.091402655355896,
                -0.5519844639985412,
                1.8841166922887975
            ]
        },
        {
            "positions": [
                0.5245675982172489,
                -1.3764143898871466,
                0.8057640518996609,
                -1.0685452381197904,
                -0.5010363425481648,
                1.9562215415469675
            ]
        },
        {
            "positions": [
                0.4209945056817377,
                -1.3827036636867054,
                0.9355441745672191,
                -1.045687820883685,
                -0.45008822109778857,
                2.0283263908051374
            ]
        },
        {
            "positions": [
                0.3174214131462261,
                -1.3889929374862642,
                1.065324297234778,
                -1.0228304036475793,
                -0.39914009964741193,
                2.1004312400633074
            ]
        },
        {
            "positions": [
                0.2138483206107148,
                -1.3952822112858227,
                1.1951044199023362,
                -0.9999729864114739,
                -0.3481919781970354,
                2.1725360893214773
            ]
        },
        {
            "positions": [
                0.17706275163700247,
                -1.36197441070134,
                1.2861240370532236,
                -0.9575297700880987,
                -0.2999809275887763,
                2.2791413643447997
            ]
        },
        {
            "positions": [
                0.14027718266329015,
                -1.3286666101168574,
                1.3771436542041111,
                -0.9150865537647234,
                -0.2517698769805172,
                2.3857466393681226
            ]
        },
        {
            "positions": [
                0.10349161368957784,
                -1.2953588095323745,
                1.4681632713549984,
                -0.8726433374413481,
                -0.2035588263722582,
                2.492351914391445
            ]
        },
        {
            "positions": [
                0.06670604471586553,
                -1.2620510089478918,
                1.5591828885058858,
                -0.8302001211179728,
                -0.1553477757639991,
                2.598957189414768
            ]
        },
        {
            "positions": [
                0.029920475742153205,
                -1.2287432083634091,
                1.6502025056567733,
                -0.7877569047945976,
                -0.10713672515574005,
                2.7055624644380902
            ]
        },
        {
            "positions": [
                0.037938222929306695,
                -1.131752385240592,
                1.6846589617768375,
                -0.7708010358582718,
                -0.10058906992313135,
                2.855785303473991
            ]
        },
        {
            "positions": [
                0.04595597011646019,
                -1.0347615621177748,
                1.719115417896902,
                -0.7538451669219458,
                -0.09404141469052264,
                3.0060081425098915
            ]
        },
        {
            "positions": [
                0.0842423441536019,
                -1.0820976759116214,
                1.8377067200510129,
                -0.7311103609547867,
                0.0176218436539103,
                3.015074126286075
            ]
        },
        {
            "positions": [
                0.12252871819074362,
                -1.1294337897054683,
                1.956298022205124,
                -0.7083755549876274,
                0.12928510199834323,
                3.024140110062259
            ]
        }
    ]
}