{
    "goal": {
        "global_pose": {
            "orientation": {
                "w": 0.5084816217422485,
                "x": -0.49083608388900757,
                "y": 0.5182115435600281,
                "z": -0.4816462993621826
            },
            "position": {
                "x": 0.5540239810943604,
                "y": 0.030875300988554955,
                "z": 0.16403168439865112
            }
        },
        "name": "move_to_storage_A"
    },
    "id": "SBL_move_to_storage_A_45",
    "joint_names": [
        "shoulder_pan_joint",
        "shoulder_lift_joint",
        "elbow_joint",
        "wrist_1_joint",
        "wrist_2_joint",
        "wrist_3_joint"
    ],
    "metrics": {
        "cart_traj_len": 0.3527974461671156,
        "distance_elbow_joint": 0.452581957256446,
        "distance_shoulder_lift_joint": 0.23505240184409049,
        "distance_shoulder_pan_joint": 0.4631243543091831,
        "distance_wrist_1_joint": 0.2478037711951402,
        "distance_wrist_2_joint": 1.0916348977752761,
        "distance_wrist_3_joint": 0.10685646764267176,
        "smoothness": 0.0,
        "time": 0.144375194,
        "traj_len": 1.6115377283895056,
        "weighted_distance": 2.0372053048916223
    },
    "planner": "SBL",
    "start": {
        "state": {
            "elbow_joint": 1.9715481507254546,
            "shoulder_lift_joint": -1.1394850672790213,
            "shoulder_pan_joint": 0.12281154597544902,
            "wrist_1_joint": -0.7804720171073349,
            "wrist_2_joint": 0.12958658322886563,
            "wrist_3_joint": -3.1924895760937617
        }
    },
    "waypoints": [
        {
            "positions": [
                0.12281154597544902,
                -1.1394850672790213,
                1.9715481507254546,
                -0.7804720171073349,
                0.12958658322886563,
                -3.1924895760937617
            ]
        },
        {
            "positions": [
                0.05665092393128002,
                -1.1730639818281772,
                2.036202716047804,
                -0.8158725558494978,
                0.28553442576819077,
                -3.177224366430523
            ]
        },
        {
            "positions": [
                -0.009509698112888987,
                -1.2066428963773328,
                2.1008572813701534,
                -0.8512730945916607,
                0.4414822683075159,
                -3.161959156767284
            ]
        },
        {
            "positions": [
                -0.07567032015705799,
                -1.2402218109264886,
                2.1655118466925027,
                -0.8866736333338235,
                0.5974301108468411,
                -3.1466939471040454
            ]
        },
        {
            "positions": [
                -0.141830942201227,
                -1.2738007254756445,
                2.230166412014852,
                -0.9220741720759864,
                0.7533779533861662,
                -3.1314287374408063
            ]
        },
        {
            "positions": [
                -0.20799156424539605,
                -1.3073796400248003,
                2.294820977337202,
                -0.9574747108181494,
                0.9093257959254915,
                -3.1161635277775677
            ]
        },
        {
            "positions": [
                -0.274152186289565,
                -1.340958554573956,
                2.3594755426595513,
                -0.9928752495603123,
                1.0652736384648165,
                -3.1008983181143286
            ]
        },
        {
            "positions": [
                -0.34031280833373406,
                -1.3745374691231118,
                2.4241301079819007,
                -1.0282757883024751,
                1.2212214810041417,
                -3.08563310845109
            ]
        }
    ]
}