{
    "goal": {
        "global_pose": {
            "orientation": {
                "w": 0.5084816262002911,
                "x": -0.4908360881923452,
                "y": 0.5182115481033761,
                "z": -0.48164630358495003
            },
            "position": {
                "x": 0.5540239810943604,
                "y": -0.46912469901144505,
                "z": 0.16403168439865112
            }
        },
        "name": "move_to_storage_B"
    },
    "id": "SBL_move_to_storage_B_129",
    "joint_names": [
        "shoulder_pan_joint",
        "shoulder_lift_joint",
        "elbow_joint",
        "wrist_1_joint",
        "wrist_2_joint",
        "wrist_3_joint"
    ],
    "metrics": {
        "cart_traj_len": 4.634463302126696,
        "distance_elbow_joint": 3.980944376604723,
        "distance_shoulder_lift_joint": 1.3601078165314426,
        "distance_shoulder_pan_joint": 3.756808721161069,
        "distance_wrist_1_joint": 3.2979893713580353,
        "distance_wrist_2_joint": 0.6434965085450908,
        "distance_wrist_3_joint": 3.52052393885557,
        "smoothness": 0.3135955414392836,
        "time": 0.533501892,
        "traj_len": 4.069382107034915,
        "weighted_distance": 5.248085792998263
    },
    "planner": "SBL",
    "start": {
        "state": {
            "elbow_joint": -1.6666013991110213,
            "shoulder_lift_joint": -2.479295265494141,
            "shoulder_pan_joint": 2.6606783912885628,
            "wrist_1_joint": 0.9897123657714939,
            "wrist_2_joint": 0.474351758749468,
            "wrist_3_joint": 0.013243222496468381
        }
    },
    "waypoints": [
        {
            "positions": [
                2.6606783912885628,
                -2.479295265494141,
                -1.6666013991110213,
                0.9897123657714939,
                0.474351758749468,
                0.013243222496468381
            ]
        },
        {
            "positions": [
                2.6597694813702173,
                -2.419400104982618,
                -1.6968225289885623,
                1.1374179186583997,
                0.5384265454338041,
                -0.026986962613498748
            ]
        },
        {
            "positions": [
                2.658860571451872,
                -2.3595049444710954,
                -1.7270436588661031,
                1.2851234715453053,
                0.6025013321181402,
                -0.06721714772346588
            ]
        },
        {
            "positions": [
                2.657951661533526,
                -2.299609783959573,
                -1.7572647887436441,
                1.432829024432211,
                0.6665761188024761,
                -0.107447332833433
            ]
        },
        {
            "positions": [
                2.6570427516151804,
                -2.2397146234480503,
                -1.7874859186211849,
                1.5805345773191166,
                0.7306509054868122,
                -0.14767751794340012
            ]
        },
        {
            "positions": [
                2.656133841696835,
                -2.1798194629365275,
                -1.8177070484987259,
                1.7282401302060224,
                0.7947256921711483,
                -0.18790770305336724
            ]
        },
        {
            "positions": [
                2.557390047708168,
                -2.1519080941477426,
                -1.71692181883512,
                1.660885877392246,
                0.7862224665100059,
                -0.10055578165058476
            ]
        },
        {
            "positions": [
                2.4586462537195013,
                -2.1239967253589573,
                -1.6161365891715145,
                1.5935316245784694,
                0.7777192408488636,
                -0.01320386024780229
            ]
        },
        {
            "positions": [
                2.3599024597308342,
                -2.0960853565701725,
                -1.5153513595079087,
                1.526177371764693,
                0.7692160151877212,
                0.07414806115498018
            ]
        },
        {
            "positions": [
                2.2611586657421676,
                -2.0681739877813876,
                -1.4145661298443029,
                1.4588231189509164,
                0.7607127895265787,
                0.16149998255776266
            ]
        },
        {
            "positions": [
                2.1624148717535006,
                -2.0402626189926028,
                -1.313780900180697,
                1.39146886613714,
                0.7522095638654364,
                0.24885190396054518
            ]
        },
        {
            "positions": [
                2.063671077764834,
                -2.0123512502038174,
                -1.2129956705170915,
                1.3241146133233634,
                0.743706338204294,
                0.3362038253633276
            ]
        },
        {
            "positions": [
                1.9649272837761669,
                -1.9844398814150326,
                -1.1122104408534856,
                1.256760360509587,
                0.7352031125431516,
                0.4235557467661101
            ]
        },
        {
            "positions": [
                1.8661834897875,
                -1.9565285126262477,
                -1.0114252111898798,
                1.1894061076958105,
                0.7266998868820093,
                0.5109076681688925
            ]
        },
        {
            "positions": [
                1.7674396957988332,
                -1.9286171438374626,
                -0.9106399815262741,
                1.122051854882034,
                0.7181966612208669,
                0.5982595895716751
            ]
        },
        {
            "positions": [
                1.6686959018101661,
                -1.9007057750486778,
                -0.8098547518626684,
                1.0546976020682575,
                0.7096934355597245,
                0.6856115109744576
            ]
        },
        {
            "positions": [
                1.5699521078214993,
                -1.8727944062598927,
                -0.7090695221990626,
                0.987343349254481,
                0.701190209898582,
                0.7729634323772402
            ]
        },
        {
            "positions": [
                1.4712083138328325,
                -1.8448830374711078,
                -0.6082842925354568,
                0.9199890964407045,
                0.6926869842374397,
                0.8603153537800224
            ]
        },
        {
            "positions": [
                1.3724645198441656,
                -1.8169716686823227,
                -0.507499062871851,
                0.852634843626928,
                0.6841837585762973,
                0.9476672751828051
            ]
        },
        {
            "positions": [
                1.2737207258554988,
                -1.7890602998935379,
                -0.4067138332082454,
                0.7852805908131515,
                0.675680532915155,
                1.0350191965855875
            ]
        },
        {
            "positions": [
                1.174976931866832,
                -1.7611489311047528,
                -0.3059286035446396,
                0.717926337999375,
                0.6671773072540126,
                1.12237111798837
            ]
        },
        {
            "positions": [
                1.076233137878165,
                -1.733237562315968,
                -0.20514337388103399,
                0.6505720851855985,
                0.6586740815928702,
                1.2097230393911524
            ]
        },
        {
            "positions": [
                0.977489343889498,
                -1.7053261935271828,
                -0.10435814421742795,
                0.583217832371822,
                0.6501708559317279,
                1.297074960793935
            ]
        },
        {
            "positions": [
                0.8787455499008314,
                -1.6774148247383978,
                -0.0035729145538223595,
                0.5158635795580455,
                0.6416676302705855,
                1.3844268821967174
            ]
        },
        {
            "positions": [
                0.7800017559121644,
                -1.649503455949613,
                0.09721231510978345,
                0.448509326744269,
                0.633164404609443,
                1.4717788035994999
            ]
        },
        {
            "positions": [
                0.6812579619234975,
                -1.621592087160828,
                0.19799754477338904,
                0.3811550739304925,
                0.6246611789483006,
                1.5591307250022823
            ]
        },
        {
            "positions": [
                0.5825141679348302,
                -1.5936807183720427,
                0.2987827744369951,
                0.3138008211167158,
                0.6161579532871583,
                1.6464826464050653
            ]
        },
        {
            "positions": [
                0.4837703739461636,
                -1.5657693495832579,
                0.39956800410060067,
                0.24644656830293954,
                0.6076547276260159,
                1.7338345678078477
            ]
        },
        {
            "positions": [
                0.385026579957497,
                -1.537857980794473,
                0.5003532337642063,
                0.17909231548916305,
                0.5991515019648735,
                1.8211864892106302
            ]
        },
        {
            "positions": [
                0.28628278596882994,
                -1.5099466120056881,
                0.6011384634278123,
                0.11173806267538655,
                0.5906482763037312,
                1.9085384106134122
            ]
        },
        {
            "positions": [
                0.18753899198016288,
                -1.4820352432169028,
                0.7019236930914183,
                0.044383809861609835,
                0.5821450506425887,
                1.9958903320161951
            ]
        },
        {
            "positions": [
                0.08879519799149627,
                -1.454123874428118,
                0.8027089227550239,
                -0.022970442952166437,
                0.5736418249814463,
                2.0832422534189776
            ]
        },
        {
            "positions": [
                -0.009948595997170795,
                -1.426212505639333,
                0.9034941524186295,
                -0.09032469576594293,
                0.565138599320304,
                2.17059417482176
            ]
        },
        {
            "positions": [
                -0.10869238998583741,
                -1.3983011368505482,
                1.004279382082235,
                -0.15767894857971942,
                0.5566353736591616,
                2.257946096224542
            ]
        },
        {
            "positions": [
                -0.20743618397450447,
                -1.370389768061763,
                1.1050646117458411,
                -0.22503320139349592,
                0.5481321479980192,
                2.345298017627325
            ]
        },
        {
            "positions": [
                -0.3061799779631711,
                -1.342478399272978,
                1.2058498414094467,
                -0.2923874542072724,
                0.5396289223368769,
                2.4326499390301075
            ]
        },
        {
            "positions": [
                -0.40492377195183815,
                -1.3145670304841932,
                1.3066350710730523,
                -0.3597417070210489,
                0.5311256966757345,
                2.52000186043289
            ]
        },
        {
            "positions": [
                -0.5036675659405048,
                -1.2866556616954083,
                1.407420300736658,
                -0.4270959598348254,
                0.5226224710145921,
                2.607353781835672
            ]
        },
        {
            "positions": [
                -0.6024113599291718,
                -1.258744292906623,
                1.508205530400264,
                -0.4944502126486019,
                0.5141192453534497,
                2.694705703238455
            ]
        },
        {
            "positions": [
                -0.7011551539178389,
                -1.2308329241178382,
                1.60899076006387,
                -0.5618044654623784,
                0.5056160196923073,
                2.7820576246412374
            ]
        },
        {
            "positions": [
                -0.7998989479065055,
                -1.2029215553290533,
                1.7097759897274756,
                -0.6291587182761549,
                0.49711279403116493,
                2.86940954604402
            ]
        },
        {
            "positions": [
                -0.8986427418951721,
                -1.1750101865402682,
                1.8105612193910812,
                -0.6965129710899314,
                0.48860956837002256,
                2.9567614674468023
            ]
        },
        {
            "positions": [
                -0.9973865358838396,
                -1.1470988177514831,
                1.9113464490546872,
                -0.7638672239037079,
                0.48010634270888014,
                3.044113388849585
            ]
        },
        {
            "positions": [
                -1.0961303298725062,
                -1.1191874489626983,
                2.012131678718293,
                -0.8312214767174846,
                0.4716031170477378,
                3.1314653102523673
            ]
        }
    ]
}