{
    "goal": {
        "global_pose": {
            "orientation": {
                "w": 0.005598929693374612,
                "x": 0.007748599140229565,
                "y": 0.7110244013736278,
                "z": -0.7031023480610252
            },
            "position": {
                "x": 0.1141497679147869,
                "y": -0.7141253447532654,
                "z": 0.3711530566215515
            }
        },
        "name": "move_to_auspresseinheit_B"
    },
    "id": "SBL_move_to_auspresseinheit_B_129",
    "joint_names": [
        "shoulder_pan_joint",
        "shoulder_lift_joint",
        "elbow_joint",
        "wrist_1_joint",
        "wrist_2_joint",
        "wrist_3_joint"
    ],
    "metrics": {
        "cart_traj_len": 0.5643721276579043,
        "distance_elbow_joint": 0.06521076597048237,
        "distance_shoulder_lift_joint": 0.2943723230370481,
        "distance_shoulder_pan_joint": 0.5763995363156353,
        "distance_wrist_1_joint": 0.33854117101590775,
        "distance_wrist_2_joint": 0.9957583376660644,
        "distance_wrist_3_joint": 0.0064230863310079656,
        "smoothness": 7.612957943425664e-16,
        "time": 0.271081222,
        "traj_len": 1.5088754820514998,
        "weighted_distance": 1.9036414845448537
    },
    "planner": "SBL",
    "start": {
        "state": {
            "elbow_joint": 2.0193083361928714,
            "shoulder_lift_joint": -1.1220246554650708,
            "shoulder_pan_joint": -1.0952077554168747,
            "wrist_1_joint": -0.8559753972642168,
            "wrist_2_joint": 0.4759566250798843,
            "wrist_3_joint": -3.1240929996934557
        }
    },
    "waypoints": [
        {
            "positions": [
                -1.0952077554168747,
                -1.1220246554650708,
                2.0193083361928714,
                -0.8559753972642168,
                0.4759566250798843,
                -3.1240929996934557
            ]
        },
        {
            "positions": [
                -1.1912743448028138,
                -1.171086709304579,
                2.008439875197791,
                -0.7995518687615655,
                0.6419163480242284,
                -3.125163514081957
            ]
        },
        {
            "positions": [
                -1.2873409341887532,
                -1.2201487631440868,
                1.9975714142027106,
                -0.7431283402589142,
                0.8078760709685724,
                -3.126234028470458
            ]
        },
        {
            "positions": [
                -1.3834075235746923,
                -1.2692108169835947,
                1.9867029532076304,
                -0.6867048117562629,
                0.9738357939129165,
                -3.1273045428589596
            ]
        },
        {
            "positions": [
                -1.4794741129606315,
                -1.3182728708231028,
                1.97583449221255,
                -0.6302812832536117,
                1.1397955168572604,
                -3.128375057247461
            ]
        },
        {
            "positions": [
                -1.5755407023465708,
                -1.367334924662611,
                1.9649660312174695,
                -0.5738577547509602,
                1.3057552398016046,
                -3.129445571635962
            ]
        },
        {
            "positions": [
                -1.67160729173251,
                -1.4163969785021189,
                1.954097570222389,
                -0.517434226248309,
                1.4717149627459487,
                -3.1305160860244636
            ]
        }
    ]
}