{
    "goal": {
        "global_pose": {
            "orientation": {
                "w": 0.7047431468963623,
                "x": -0.7094548344612122,
                "y": 0.0024358443915843964,
                "z": -0.0022348060738295317
            },
            "position": {
                "x": 0.6094750761985779,
                "y": 0.3671506643295288,
                "z": 0.19426114857196808
            }
        },
        "name": "move_to_magneteinheit_A"
    },
    "id": "SBL_move_to_magneteinheit_A_24",
    "joint_names": [
        "shoulder_pan_joint",
        "shoulder_lift_joint",
        "elbow_joint",
        "wrist_1_joint",
        "wrist_2_joint",
        "wrist_3_joint"
    ],
    "metrics": {
        "cart_traj_len": 3.5300694628090943,
        "distance_elbow_joint": 3.908629167465662,
        "distance_shoulder_lift_joint": 1.3792702209590562,
        "distance_shoulder_pan_joint": 4.300899056325132,
        "distance_wrist_1_joint": 3.4510673632932543,
        "distance_wrist_2_joint": 1.4413689962582894,
        "distance_wrist_3_joint": 1.818871285598826,
        "smoothness": 0.20390699452214606,
        "time": 0.182589483,
        "traj_len": 4.037338986250749,
        "weighted_distance": 4.982999600707331
    },
    "planner": "SBL",
    "start": {
        "state": {
            "elbow_joint": -1.9196185241190666,
            "shoulder_lift_joint": -1.2443396400964142,
            "shoulder_pan_joint": 2.6996025414629847,
            "wrist_1_joint": -1.5485510000780065,
            "wrist_2_joint": -1.5709468930060704,
            "wrist_3_joint": 0.4420197071253992
        }
    },
    "waypoints": [
        {
            "positions": [
                2.6996025414629847,
                -1.2443396400964142,
                -1.9196185241190666,
                -1.5485510000780065,
                -1.5709468930060704,
                0.4420197071253992
            ]
        },
        {
            "positions": [
                2.556306304672286,
                -1.2632873557905506,
                -1.849459841684965,
                -1.4883528558852,
                -1.5225455936700085,
                0.3953596886218423
            ]
        },
        {
            "positions": [
                2.413010067881587,
                -1.282235071484687,
                -1.7793011592508634,
                -1.4281547116923934,
                -1.4741442943339464,
                0.3486996701182854
            ]
        },
        {
            "positions": [
                2.269713831090888,
                -1.3011827871788235,
                -1.709142476816762,
                -1.3679565674995868,
                -1.4257429949978846,
                0.30203965161472845
            ]
        },
        {
            "positions": [
                2.126417594300189,
                -1.32013050287296,
                -1.6389837943826604,
                -1.3077584233067803,
                -1.3773416956618227,
                0.25537963311117157
            ]
        },
        {
            "positions": [
                1.9831213575094901,
                -1.3390782185670964,
                -1.5688251119485588,
                -1.2475602791139737,
                -1.3289403963257609,
                0.20871961460761462
            ]
        },
        {
            "positions": [
                1.8398251207187912,
                -1.3580259342612329,
                -1.4986664295144572,
                -1.1873621349211672,
                -1.280539096989699,
                0.16205959610405773
            ]
        },
        {
            "positions": [
                1.696528883928092,
                -1.3769736499553693,
                -1.4285077470803555,
                -1.1271639907283606,
                -1.232137797653637,
                0.11539957760050079
            ]
        },
        {
            "positions": [
                1.5532326471373934,
                -1.3959213656495058,
                -1.3583490646462542,
                -1.0669658465355543,
                -1.183736498317575,
                0.06873955909694396
            ]
        },
        {
            "positions": [
                1.4099364103466943,
                -1.4148690813436422,
                -1.2881903822121523,
                -1.0067677023427475,
                -1.1353351989815132,
                0.022079540593387015
            ]
        },
        {
            "positions": [
                1.2666401735559953,
                -1.4338167970377786,
                -1.218031699778051,
                -0.946569558149941,
                -1.0869338996454512,
                -0.02458047791016993
            ]
        },
        {
            "positions": [
                1.1233439367652964,
                -1.452764512731915,
                -1.1478730173439493,
                -0.8863714139571345,
                -1.0385326003093893,
                -0.07124049641372676
            ]
        },
        {
            "positions": [
                0.9800476999745975,
                -1.4717122284260515,
                -1.0777143349098477,
                -0.8261732697643279,
                -0.9901313009733275,
                -0.1179005149172837
            ]
        },
        {
            "positions": [
                0.8367514631838986,
                -1.490659944120188,
                -1.0075556524757463,
                -0.7659751255715215,
                -0.9417300016372656,
                -0.16456053342084054
            ]
        },
        {
            "positions": [
                0.6934552263931995,
                -1.5096076598143244,
                -0.9373969700416445,
                -0.7057769813787148,
                -0.8933287023012036,
                -0.2112205519243976
            ]
        },
        {
            "positions": [
                0.5501589896025005,
                -1.5285553755084609,
                -0.8672382876075431,
                -0.6455788371859082,
                -0.8449274029651417,
                -0.2578805704279544
            ]
        },
        {
            "positions": [
                0.40686275281180206,
                -1.5475030912025973,
                -0.7970796051734415,
                -0.5853806929931018,
                -0.7965261036290798,
                -0.30454058893151126
            ]
        },
        {
            "positions": [
                0.2635665160211027,
                -1.5664508068967338,
                -0.7269209227393398,
                -0.525182548800295,
                -0.7481248042930179,
                -0.3512006074350683
            ]
        },
        {
            "positions": [
                0.12027027923040379,
                -1.5853985225908702,
                -0.6567622403052382,
                -0.4649844046074887,
                -0.699723504956956,
                -0.39786062593862515
            ]
        },
        {
            "positions": [
                -0.02302595756029513,
                -1.6043462382850067,
                -0.5866035578711366,
                -0.40478626041468213,
                -0.6513222056208942,
                -0.444520644442182
            ]
        },
        {
            "positions": [
                -0.16632219435099405,
                -1.6232939539791431,
                -0.516444875437035,
                -0.3445881162218756,
                -0.6029209062848322,
                -0.49118066294573903
            ]
        },
        {
            "positions": [
                -0.30961843114169296,
                -1.6422416696732796,
                -0.4462861930029334,
                -0.284389972029069,
                -0.5545196069487703,
                -0.5378406814492959
            ]
        },
        {
            "positions": [
                -0.4529146679323919,
                -1.661189385367416,
                -0.376127510568832,
                -0.22419182783626246,
                -0.5061183076127085,
                -0.5845006999528527
            ]
        },
        {
            "positions": [
                -0.5962109047230908,
                -1.6801371010615525,
                -0.30596882813473036,
                -0.1639936836434559,
                -0.4577170082766464,
                -0.6311607184564098
            ]
        },
        {
            "positions": [
                -0.7395071415137898,
                -1.699084816755689,
                -0.23581014570062875,
                -0.1037955394506494,
                -0.40931570894058444,
                -0.6778207369599667
            ]
        },
        {
            "positions": [
                -0.6926605924016515,
                -1.6486746073131755,
                -0.11362026773765299,
                0.00685836119061764,
                -0.3939958043515858,
                -0.6405850177381899
            ]
        },
        {
            "positions": [
                -0.6458140432895131,
                -1.5982643978706623,
                0.008569610225322766,
                0.11751226183188468,
                -0.37867589976258714,
                -0.6033492985164132
            ]
        },
        {
            "positions": [
                -0.5989674941773747,
                -1.5478541884281491,
                0.13075948818829852,
                0.22816616247315175,
                -0.3633559951735885,
                -0.5661135792946363
            ]
        },
        {
            "positions": [
                -0.5521209450652363,
                -1.4974439789856357,
                0.2529493661512743,
                0.33882006311441876,
                -0.34803609058458984,
                -0.5288778600728596
            ]
        },
        {
            "positions": [
                -0.5052743959530979,
                -1.4470337695431224,
                0.37513924411425004,
                0.4494739637556859,
                -0.3327161859955912,
                -0.49164214085108277
            ]
        },
        {
            "positions": [
                -0.45842784684095955,
                -1.3966235601006092,
                0.4973291220772258,
                0.560127864396953,
                -0.3173962814065926,
                -0.454406421629306
            ]
        },
        {
            "positions": [
                -0.4115812977288211,
                -1.346213350658096,
                0.6195190000402016,
                0.67078176503822,
                -0.3020763768175939,
                -0.41717070240752924
            ]
        },
        {
            "positions": [
                -0.3647347486166828,
                -1.2958031412155826,
                0.7417088780031773,
                0.781435665679487,
                -0.2867564722285953,
                -0.3799349831857525
            ]
        },
        {
            "positions": [
                -0.3178881995045444,
                -1.2453929317730692,
                0.8638987559661531,
                0.892089566320754,
                -0.27143656763959667,
                -0.34269926396397565
            ]
        },
        {
            "positions": [
                -0.27104165039240596,
                -1.194982722330556,
                0.9860886339291288,
                1.0027434669620212,
                -0.256116663050598,
                -0.30546354474219883
            ]
        },
        {
            "positions": [
                -0.22419510128026754,
                -1.1445725128880428,
                1.1082785118921046,
                1.1133973676032882,
                -0.24079675846159934,
                -0.26822782552042207
            ]
        },
        {
            "positions": [
                -0.17734855216812928,
                -1.0941623034455294,
                1.2304683898550803,
                1.2240512682445552,
                -0.22547685387260072,
                -0.2309921062986453
            ]
        },
        {
            "positions": [
                -0.1305020030559909,
                -1.043752094003016,
                1.352658267818056,
                1.3347051688858222,
                -0.21015694928360207,
                -0.19375638707686854
            ]
        },
        {
            "positions": [
                -0.08365545394385243,
                -0.9933418845605029,
                1.4748481457810318,
                1.4453590695270893,
                -0.19483704469460342,
                -0.15652066785509178
            ]
        },
        {
            "positions": [
                -0.03680890483171406,
                -0.9429316751179896,
                1.5970380237440076,
                1.5560129701683565,
                -0.17951714010560477,
                -0.11928494863331496
            ]
        },
        {
            "positions": [
                0.010037644280424196,
                -0.8925214656754763,
                1.7192279017069834,
                1.6666668708096233,
                -0.16419723551660614,
                -0.08204922941153825
            ]
        },
        {
            "positions": [
                0.056884193392562676,
                -0.842111256232963,
                1.8414177796699591,
                1.7773207714508905,
                -0.14887733092760752,
                -0.04481351018976143
            ]
        },
        {
            "positions": [
                0.10373074250470107,
                -0.7917010467904497,
                1.963607657632935,
                1.8879746720921575,
                -0.13355742633860884,
                -0.007577790967984603
            ]
        },
        {
            "positions": [
                0.12228223183456886,
                -0.7745597724559077,
                1.9890106433465957,
                1.902516363215248,
                -0.12957789674778156,
                0.021210104553494192
            ]
        }
    ]
}