{
    "goal": {
        "global_pose": {
            "orientation": {
                "w": 0.005598929693374612,
                "x": 0.007748599140229565,
                "y": 0.7110244013736278,
                "z": -0.7031023480610252
            },
            "position": {
                "x": 0.1141497679147869,
                "y": -0.7141253447532654,
                "z": 0.3711530566215515
            }
        },
        "name": "move_to_auspresseinheit_B"
    },
    "id": "SBL_move_to_auspresseinheit_B_42",
    "joint_names": [
        "shoulder_pan_joint",
        "shoulder_lift_joint",
        "elbow_joint",
        "wrist_1_joint",
        "wrist_2_joint",
        "wrist_3_joint"
    ],
    "metrics": {
        "cart_traj_len": 0.5649025391528597,
        "distance_elbow_joint": 0.06637585836839355,
        "distance_shoulder_lift_joint": 0.29343769730239244,
        "distance_shoulder_pan_joint": 0.5769170420123908,
        "distance_wrist_1_joint": 0.3393836592319128,
        "distance_wrist_2_joint": 0.9947930323437697,
        "distance_wrist_3_joint": 0.0008666418405098852,
        "smoothness": 5.075305295617109e-16,
        "time": 0.147848212,
        "traj_len": 1.5072405020763506,
        "weighted_distance": 1.8993904038812217
    },
    "planner": "SBL",
    "start": {
        "state": {
            "elbow_joint": 2.0193083361928714,
            "shoulder_lift_joint": -1.1220246554650708,
            "shoulder_pan_joint": -1.0952077554168747,
            "wrist_1_joint": -0.8559753972642168,
            "wrist_2_joint": 0.4759566250798843,
            "wrist_3_joint": -3.1240929996934557
        }
    },
    "waypoints": [
        {
            "positions": [
                -1.0952077554168747,
                -1.1220246554650708,
                2.0193083361928714,
                -0.8559753972642168,
                0.4759566250798843,
                -3.1240929996934557
            ]
        },
        {
            "positions": [
                -1.191360595752273,
                -1.170930938348803,
                2.0082456931314727,
                -0.799411454058898,
                0.6417554638038458,
                -3.123948559386704
            ]
        },
        {
            "positions": [
                -1.2875134360876717,
                -1.219837221232535,
                1.9971830500700736,
                -0.7428475108535791,
                0.8075543025278076,
                -3.1238041190799524
            ]
        },
        {
            "positions": [
                -1.38366627642307,
                -1.2687435041162671,
                1.9861204070086746,
                -0.6862835676482604,
                0.9733531412517691,
                -3.1236596787732007
            ]
        },
        {
            "positions": [
                -1.4798191167584684,
                -1.317649786999999,
                1.9750577639472757,
                -0.6297196244429416,
                1.1391519799757308,
                -3.123515238466449
            ]
        },
        {
            "positions": [
                -1.575971957093867,
                -1.3665560698837311,
                1.9639951208858768,
                -0.5731556812376227,
                1.3049508186996923,
                -3.1233707981596974
            ]
        },
        {
            "positions": [
                -1.6721247974292655,
                -1.4154623527674632,
                1.9529324778244779,
                -0.516591738032304,
                1.470749657423654,
                -3.1232263578529458
            ]
        }
    ]
}