{
    "goal": {
        "global_pose": {
            "orientation": {
                "w": 0.7031023502349854,
                "x": -0.7110244035720825,
                "y": 0.007748599164187908,
                "z": 0.005598929710686207
            },
            "position": {
                "x": 0.11585023208521307,
                "y": 0.44412534475326537,
                "z": 0.3711530566215515
            }
        },
        "name": "move_to_auspresseinheit_A"
    },
    "id": "SBL_move_to_auspresseinheit_A_113",
    "joint_names": [
        "shoulder_pan_joint",
        "shoulder_lift_joint",
        "elbow_joint",
        "wrist_1_joint",
        "wrist_2_joint",
        "wrist_3_joint"
    ],
    "metrics": {
        "cart_traj_len": 0.9245667426350431,
        "distance_elbow_joint": 0.5027125283647336,
        "distance_shoulder_lift_joint": 1.2941458635561012,
        "distance_shoulder_pan_joint": 1.2018226922577844,
        "distance_wrist_1_joint": 0.9632351479802266,
        "distance_wrist_2_joint": 0.7114672612406833,
        "distance_wrist_3_joint": 1.6561473329150465,
        "smoothness": 1.5866436702620204,
        "time": 0.30153792,
        "traj_len": 2.515855883454888,
        "weighted_distance": 3.3640047415789387
    },
    "planner": "SBL",
    "start": {
        "state": {
            "elbow_joint": 2.4225746658250005,
            "shoulder_lift_joint": -1.3736534386056498,
            "shoulder_pan_joint": -0.3378633547517467,
            "wrist_1_joint": -1.0288598680537169,
            "wrist_2_joint": 1.233022673432363,
            "wrist_3_joint": -3.0940220416140027
        }
    },
    "waypoints": [
        {
            "positions": [
                -0.3378633547517467,
                -1.3736534386056498,
                2.4225746658250005,
                -1.0288598680537169,
                1.233022673432363,
                -3.0940220416140027
            ]
        },
        {
            "positions": [
                -0.2554176945514227,
                -1.4733307217529508,
                2.4346728637376955,
                -0.9797070631747689,
                1.191099576544186,
                -3.003846388760967
            ]
        },
        {
            "positions": [
                -0.1729720343510987,
                -1.5730080049002517,
                2.44677106165039,
                -0.9305542582958207,
                1.1491764796560093,
                -2.913670735907932
            ]
        },
        {
            "positions": [
                -0.09052637415077469,
                -1.6726852880475527,
                2.458869259563085,
                -0.8814014534168727,
                1.1072533827678324,
                -2.8234950830548966
            ]
        },
        {
            "positions": [
                -0.00808071395045068,
                -1.7723625711948536,
                2.47096745747578,
                -0.8322486485379247,
                1.0653302858796554,
                -2.7333194302018615
            ]
        },
        {
            "positions": [
                0.07436494624987339,
                -1.8720398543421548,
                2.483065655388475,
                -0.7830958436589766,
                1.0234071889914784,
                -2.643143777348826
            ]
        },
        {
            "positions": [
                0.15681060645019734,
                -1.9717171374894558,
                2.4951638533011695,
                -0.7339430387800285,
                0.9814840921033017,
                -2.552968124495791
            ]
        },
        {
            "positions": [
                0.2392562666505214,
                -2.0713944206367567,
                2.5072620512138646,
                -0.6847902339010805,
                0.9395609952151247,
                -2.4627924716427554
            ]
        },
        {
            "positions": [
                0.32170192685084537,
                -2.1710717037840577,
                2.519360249126559,
                -0.6356374290221325,
                0.8976378983269477,
                -2.3726168187897203
            ]
        },
        {
            "positions": [
                0.4041475870511695,
                -2.2707489869313586,
                2.5314584470392543,
                -0.5864846241431844,
                0.8557148014387709,
                -2.282441165936685
            ]
        },
        {
            "positions": [
                0.38426706060483934,
                -2.175688409631961,
                2.4648600303674013,
                -0.5068696915832838,
                0.7943140838684924,
                -2.334387598267102
            ]
        },
        {
            "positions": [
                0.3643865341585092,
                -2.0806278323325635,
                2.3982616136955484,
                -0.42725475902338317,
                0.7329133662982141,
                -2.38633403059752
            ]
        },
        {
            "positions": [
                0.344506007712179,
                -1.9855672550331658,
                2.3316631970236954,
                -0.34763982646348257,
                0.6715126487279357,
                -2.438280462927937
            ]
        },
        {
            "positions": [
                0.32462548126584884,
                -1.890506677733768,
                2.2650647803518424,
                -0.268024893903582,
                0.6101119311576573,
                -2.4902268952583544
            ]
        },
        {
            "positions": [
                0.41969789243323574,
                -1.8947086792419685,
                2.2969235504676093,
                -0.3186249373611049,
                0.6322510608991516,
                -2.649422077237369
            ]
        },
        {
            "positions": [
                0.5147703036006227,
                -1.898910680750169,
                2.328782320583376,
                -0.36922498081862787,
                0.654390190640646,
                -2.808617259216384
            ]
        },
        {
            "positions": [
                0.6098427147680097,
                -1.9031126822583693,
                2.3606410906991435,
                -0.41982502427615076,
                0.6765293203821404,
                -2.9678124411953988
            ]
        },
        {
            "positions": [
                0.7049151259353965,
                -1.9073146837665698,
                2.3924998608149104,
                -0.4704250677336737,
                0.6986684501236348,
                -3.1270076231744133
            ]
        }
    ]
}