{
    "goal": {
        "global_pose": {
            "orientation": {
                "w": 0.7031023480610252,
                "x": -0.7110244013736278,
                "y": 0.0077485991402295624,
                "z": 0.005598929693374583
            },
            "position": {
                "x": -0.8841497679147869,
                "y": 0.44412534475326537,
                "z": 0.3711530566215515
            }
        },
        "name": "move_to_auspresseinheit_D"
    },
    "id": "SBL_move_to_auspresseinheit_D_41",
    "joint_names": [
        "shoulder_pan_joint",
        "shoulder_lift_joint",
        "elbow_joint",
        "wrist_1_joint",
        "wrist_2_joint",
        "wrist_3_joint"
    ],
    "metrics": {
        "cart_traj_len": 0.34374118212477806,
        "distance_elbow_joint": 0.6538603919471913,
        "distance_shoulder_lift_joint": 0.12958581750883935,
        "distance_shoulder_pan_joint": 0.1330288740650317,
        "distance_wrist_1_joint": 0.5768592343286327,
        "distance_wrist_2_joint": 1.4484597727818862,
        "distance_wrist_3_joint": 0.04322909675394637,
        "smoothness": 1.9737298371844314e-16,
        "time": 0.33466803500000003,
        "traj_len": 1.7277219647227755,
        "weighted_distance": 2.2576094409804233
    },
    "planner": "SBL",
    "start": {
        "state": {
            "elbow_joint": -1.8275523626775212,
            "shoulder_lift_joint": -2.126789852344167,
            "shoulder_pan_joint": -0.03513704404078235,
            "wrist_1_joint": -2.347782403156801,
            "wrist_2_joint": -1.6058999987535132,
            "wrist_3_joint": -3.0880379163319196
        }
    },
    "waypoints": [
        {
            "positions": [
                -0.03513704404078235,
                -2.126789852344167,
                -1.8275523626775212,
                -2.347782403156801,
                -1.6058999987535132,
                -3.0880379163319196
            ]
        },
        {
            "positions": [
                -0.05176565329891131,
                -2.142988079532772,
                -1.7458198136841223,
                -2.41988980744788,
                -1.4248425271557774,
                -3.082634279237676
            ]
        },
        {
            "positions": [
                -0.06839426255704027,
                -2.159186306721377,
                -1.6640872646907234,
                -2.4919972117389593,
                -1.2437850555580416,
                -3.077230642143433
            ]
        },
        {
            "positions": [
                -0.08502287181516924,
                -2.1753845339099818,
                -1.5823547156973246,
                -2.564104616030038,
                -1.0627275839603059,
                -3.07182700504919
            ]
        },
        {
            "positions": [
                -0.10165148107329819,
                -2.1915827610985863,
                -1.5006221667039257,
                -2.6362120203211172,
                -0.8816701123625701,
                -3.0664233679549464
            ]
        },
        {
            "positions": [
                -0.11828009033142717,
                -2.2077809882871913,
                -1.4188896177105268,
                -2.7083194246121964,
                -0.7006126407648343,
                -3.061019730860703
            ]
        },
        {
            "positions": [
                -0.13490869958955612,
                -2.2239792154757962,
                -1.3371570687171277,
                -2.780426828903275,
                -0.5195551691670985,
                -3.05561609376646
            ]
        },
        {
            "positions": [
                -0.15153730884768507,
                -2.240177442664401,
                -1.2554245197237288,
                -2.8525342331943544,
                -0.33849769756936277,
                -3.0502124566722166
            ]
        },
        {
            "positions": [
                -0.16816591810581405,
                -2.256375669853006,
                -1.17369197073033,
                -2.9246416374854336,
                -0.15744022597162705,
                -3.0448088195779732
            ]
        }
    ]
}