{
    "goal": {
        "global_pose": {
            "orientation": {
                "w": -0.00223480608172531,
                "x": 0.0024358444001904467,
                "y": 0.7094548369677653,
                "z": -0.704743149386269
            },
            "position": {
                "x": 0.6205249238014221,
                "y": -0.6371506643295288,
                "z": 0.19426114857196808
            }
        },
        "name": "move_to_magneteinheit_B"
    },
    "id": "SBL_move_to_magneteinheit_B_87",
    "joint_names": [
        "shoulder_pan_joint",
        "shoulder_lift_joint",
        "elbow_joint",
        "wrist_1_joint",
        "wrist_2_joint",
        "wrist_3_joint"
    ],
    "metrics": {
        "cart_traj_len": 3.4681319761282445,
        "distance_elbow_joint": 5.084912599220399,
        "distance_shoulder_lift_joint": 1.0607619354126285,
        "distance_shoulder_pan_joint": 2.077121471473039,
        "distance_wrist_1_joint": 3.811009395127954,
        "distance_wrist_2_joint": 3.55539356104806,
        "distance_wrist_3_joint": 0.7162081458419433,
        "smoothness": 0.5127781487869538,
        "time": 0.554546704,
        "traj_len": 4.037995431909751,
        "weighted_distance": 5.010411795050773
    },
    "planner": "SBL",
    "start": {
        "state": {
            "elbow_joint": 2.6216224122426386,
            "shoulder_lift_joint": -1.4174107377796124,
            "shoulder_pan_joint": 0.7066234856936794,
            "wrist_1_joint": 1.9546482284002225,
            "wrist_2_joint": -0.7096286983471962,
            "wrist_3_joint": 0.005740856962016249
        }
    },
    "waypoints": [
        {
            "positions": [
                0.7066234856936794,
                -1.4174107377796124,
                2.6216224122426386,
                1.9546482284002225,
                -0.7096286983471962,
                0.005740856962016249
            ]
        },
        {
            "positions": [
                0.6862913324255533,
                -1.4668555386100448,
                2.5836174407972248,
                1.8122076303728443,
                -0.7163104886726659,
                -0.05058809456129231
            ]
        },
        {
            "positions": [
                0.6659591791574271,
                -1.5163003394404775,
                2.5456124693518114,
                1.6697670323454663,
                -0.7229922789981357,
                -0.10691704608460087
            ]
        },
        {
            "positions": [
                0.645627025889301,
                -1.56574514027091,
                2.5076074979063976,
                1.5273264343180881,
                -0.7296740693236053,
                -0.16324599760790942
            ]
        },
        {
            "positions": [
                0.706821058189656,
                -1.5685546797545749,
                2.3442692449699067,
                1.457165489513486,
                -0.645062843953652,
                -0.15008345742635942
            ]
        },
        {
            "positions": [
                0.7680150904900109,
                -1.5713642192382398,
                2.1809309920334163,
                1.387004544708884,
                -0.5604516185836985,
                -0.13692091724480943
            ]
        },
        {
            "positions": [
                0.829209122790366,
                -1.5741737587219047,
                2.0175927390969255,
                1.3168435999042818,
                -0.47584039321374516,
                -0.12375837706325946
            ]
        },
        {
            "positions": [
                0.8904031550907209,
                -1.5769832982055696,
                1.854254486160435,
                1.2466826550996797,
                -0.39122916784379175,
                -0.11059583688170946
            ]
        },
        {
            "positions": [
                0.9515971873910759,
                -1.5797928376892343,
                1.6909162332239442,
                1.1765217102950776,
                -0.30661794247383833,
                -0.09743329670015946
            ]
        },
        {
            "positions": [
                1.0127912196914308,
                -1.5826023771728992,
                1.5275779802874538,
                1.1063607654904755,
                -0.22200671710388498,
                -0.08427075651860948
            ]
        },
        {
            "positions": [
                1.0739852519917858,
                -1.5854119166565641,
                1.364239727350963,
                1.0361998206858734,
                -0.1373954917339315,
                -0.07110821633705948
            ]
        },
        {
            "positions": [
                1.1351792842921409,
                -1.588221456140229,
                1.2009014744144724,
                0.9660388758812714,
                -0.05278426636397815,
                -0.057945676155509496
            ]
        },
        {
            "positions": [
                1.196373316592496,
                -1.591030995623894,
                1.0375632214779815,
                0.8958779310766692,
                0.03182695900597532,
                -0.044783135973959484
            ]
        },
        {
            "positions": [
                1.257567348892851,
                -1.5938405351075589,
                0.8742249685414909,
                0.8257169862720671,
                0.11643818437592868,
                -0.0316205957924095
            ]
        },
        {
            "positions": [
                1.3187613811932057,
                -1.5966500745912238,
                0.7108867156050005,
                0.7555560414674651,
                0.20104940974588215,
                -0.018458055610859503
            ]
        },
        {
            "positions": [
                1.3799554134935605,
                -1.5994596140748887,
                0.5475484626685099,
                0.685395096662863,
                0.2856606351158354,
                -0.005295515429309533
            ]
        },
        {
            "positions": [
                1.4411494457939158,
                -1.6022691535585536,
                0.3842102097320188,
                0.6152341518582609,
                0.370271860485789,
                0.007867024752240465
            ]
        },
        {
            "positions": [
                1.5023434780942706,
                -1.6050786930422185,
                0.2208719567955284,
                0.5450732070536588,
                0.45488308585574233,
                0.021029564933790462
            ]
        },
        {
            "positions": [
                1.5635375103946256,
                -1.6078882325258832,
                0.057533703859038,
                0.4749122622490567,
                0.5394943112256957,
                0.03419210511534046
            ]
        },
        {
            "positions": [
                1.6247315426949807,
                -1.6106977720095481,
                -0.10580454907745285,
                0.4047513174444546,
                0.624105536595649,
                0.04735464529689043
            ]
        },
        {
            "positions": [
                1.6859255749953355,
                -1.613507311493213,
                -0.26914280201394325,
                0.3345903726398527,
                0.7087167619656024,
                0.06051718547844043
            ]
        },
        {
            "positions": [
                1.7471196072956907,
                -1.616316850976878,
                -0.43248105495043454,
                0.26442942783525036,
                0.793327987335556,
                0.07367972565999045
            ]
        },
        {
            "positions": [
                1.8083136395960455,
                -1.6191263904605429,
                -0.5958193078869249,
                0.19426848303064825,
                0.8779392127055093,
                0.08684226584154042
            ]
        },
        {
            "positions": [
                1.8695076718964008,
                -1.6219359299442078,
                -0.7591575608234158,
                0.12410753822604614,
                0.9625504380754627,
                0.10000480602309042
            ]
        },
        {
            "positions": [
                1.9307017041967556,
                -1.6247454694278727,
                -0.9224958137599062,
                0.053946593421444256,
                1.0471616634454164,
                0.11316734620464042
            ]
        },
        {
            "positions": [
                1.9918957364971104,
                -1.6275550089115376,
                -1.0858340666963966,
                -0.016214351383157855,
                1.1317728888153695,
                0.12632988638619042
            ]
        },
        {
            "positions": [
                2.0530897687974656,
                -1.6303645483952023,
                -1.2491723196328874,
                -0.08637529618775996,
                1.216384114185323,
                0.13949242656774036
            ]
        },
        {
            "positions": [
                2.1142838010978204,
                -1.6331740878788672,
                -1.4125105725693778,
                -0.15653624099236207,
                1.3009953395552762,
                0.15265496674929036
            ]
        },
        {
            "positions": [
                2.1754778333981757,
                -1.6359836273625321,
                -1.5758488255058691,
                -0.2266971857969644,
                1.3856065649252298,
                0.1658175069308404
            ]
        },
        {
            "positions": [
                2.2366718656985305,
                -1.638793166846197,
                -1.73918707844236,
                -0.2968581306015663,
                1.4702177902951834,
                0.17898004711239035
            ]
        },
        {
            "positions": [
                2.2978658979988853,
                -1.641602706329862,
                -1.90252533137885,
                -0.3670190754061684,
                1.5548290156651365,
                0.19214258729394035
            ]
        },
        {
            "positions": [
                2.3590599302992405,
                -1.6444122458135269,
                -2.065863584315341,
                -0.4371800202107705,
                1.6394402410350901,
                0.20530512747549035
            ]
        },
        {
            "positions": [
                2.386577394595488,
                -1.7202086483025008,
                -2.0297338931642117,
                -0.30816355234559223,
                1.533418979243003,
                0.1890623850947069
            ]
        },
        {
            "positions": [
                2.4140948588917355,
                -1.7960050507914749,
                -1.9936042020130829,
                -0.17914708448041394,
                1.4273977174509163,
                0.17281964271392347
            ]
        },
        {
            "positions": [
                2.4416123231879827,
                -1.8718014532804488,
                -1.9574745108619538,
                -0.05013061661523571,
                1.3213764556588292,
                0.15657690033314003
            ]
        },
        {
            "positions": [
                2.46912978748423,
                -1.947597855769423,
                -1.9213448197108247,
                0.07888585124994263,
                1.2153551938667424,
                0.14033415795235657
            ]
        },
        {
            "positions": [
                2.496647251780477,
                -2.023394258258397,
                -1.8852151285596959,
                0.2079023191151208,
                1.1093339320746554,
                0.12409141557157313
            ]
        },
        {
            "positions": [
                2.524164716076725,
                -2.0991906607473707,
                -1.8490854374085668,
                0.3369187869802991,
                1.0033126702825683,
                0.1078486731907897
            ]
        },
        {
            "positions": [
                2.551682180372972,
                -2.174987063236345,
                -1.8129557462574377,
                0.4659352548454774,
                0.8972914084904814,
                0.09160593081000626
            ]
        },
        {
            "positions": [
                2.5791996446692194,
                -2.250783465725319,
                -1.7768260551063089,
                0.5949517227106558,
                0.7912701466983945,
                0.0753631884292228
            ]
        },
        {
            "positions": [
                2.6067171089654666,
                -2.326579868214293,
                -1.7406963639551798,
                0.723968190575834,
                0.6852488849063074,
                0.05912044604843936
            ]
        },
        {
            "positions": [
                2.6342345732617143,
                -2.4023762707032668,
                -1.704566672804051,
                0.8529846584410121,
                0.5792276231142206,
                0.04287770366765592
            ]
        },
        {
            "positions": [
                2.6617520375579615,
                -2.478172673192241,
                -1.6684369816529219,
                0.9820011263061905,
                0.4732063613221336,
                0.02663496128687248
            ]
        }
    ]
}