{
    "goal": {
        "global_pose": {
            "orientation": {
                "w": 0.7031023502349854,
                "x": -0.7110244035720825,
                "y": 0.007748599164187908,
                "z": 0.005598929710686207
            },
            "position": {
                "x": 0.11585023208521307,
                "y": 0.44412534475326537,
                "z": 0.3711530566215515
            }
        },
        "name": "move_to_auspresseinheit_A"
    },
    "id": "SBL_move_to_auspresseinheit_A_55",
    "joint_names": [
        "shoulder_pan_joint",
        "shoulder_lift_joint",
        "elbow_joint",
        "wrist_1_joint",
        "wrist_2_joint",
        "wrist_3_joint"
    ],
    "metrics": {
        "cart_traj_len": 1.2117183684921744,
        "distance_elbow_joint": 1.5449598202228407,
        "distance_shoulder_lift_joint": 0.5332628755536126,
        "distance_shoulder_pan_joint": 1.0420735173407216,
        "distance_wrist_1_joint": 2.370886173969674,
        "distance_wrist_2_joint": 1.6879182376248845,
        "distance_wrist_3_joint": 2.9015306011471735,
        "smoothness": 0.8743942447998937,
        "time": 0.317107233,
        "traj_len": 3.1750009804500703,
        "weighted_distance": 4.465702278449362
    },
    "planner": "SBL",
    "start": {
        "state": {
            "elbow_joint": 2.4225746658250005,
            "shoulder_lift_joint": -1.3736534386056498,
            "shoulder_pan_joint": -0.3378633547517467,
            "wrist_1_joint": -1.0288598680537169,
            "wrist_2_joint": 1.233022673432363,
            "wrist_3_joint": -3.0940220416140027
        }
    },
    "waypoints": [
        {
            "positions": [
                -0.3378633547517467,
                -1.3736534386056498,
                2.4225746658250005,
                -1.0288598680537169,
                1.233022673432363,
                -3.0940220416140027
            ]
        },
        {
            "positions": [
                -0.3368468246983822,
                -1.3932659813237538,
                2.361862826219946,
                -0.9154571607637056,
                1.1475293069425607,
                -2.9840580514684047
            ]
        },
        {
            "positions": [
                -0.3358302946450176,
                -1.4128785240418575,
                2.3011509866148914,
                -0.8020544534736943,
                1.0620359404527584,
                -2.8740940613228063
            ]
        },
        {
            "positions": [
                -0.3348137645916531,
                -1.4324910667599615,
                2.240439147009837,
                -0.6886517461836831,
                0.976542573962956,
                -2.7641300711772083
            ]
        },
        {
            "positions": [
                -0.3337972345382885,
                -1.4521036094780653,
                2.1797273074047823,
                -0.5752490388936717,
                0.8910492074731535,
                -2.65416608103161
            ]
        },
        {
            "positions": [
                -0.332780704484924,
                -1.4717161521961692,
                2.119015467799728,
                -0.4618463316036605,
                0.8055558409833512,
                -2.544202090886012
            ]
        },
        {
            "positions": [
                -0.3317641744315594,
                -1.491328694914273,
                2.058303628194673,
                -0.3484436243136493,
                0.7200624744935489,
                -2.434238100740414
            ]
        },
        {
            "positions": [
                -0.33074764437819487,
                -1.510941237632377,
                1.9975917885896188,
                -0.23504091702363805,
                0.6345691080037466,
                -2.3242741105948155
            ]
        },
        {
            "positions": [
                -0.3297311143248303,
                -1.5305537803504807,
                1.936879948984564,
                -0.12163820973362671,
                0.5490757415139441,
                -2.214310120449217
            ]
        },
        {
            "positions": [
                -0.32871458427146577,
                -1.5501663230685847,
                1.8761681093795097,
                -0.008235502443615594,
                0.4635823750241418,
                -2.104346130303619
            ]
        },
        {
            "positions": [
                -0.3276980542181012,
                -1.5697788657866885,
                1.815456269774455,
                0.10516720484639586,
                0.37808900853433935,
                -1.9943821401580208
            ]
        },
        {
            "positions": [
                -0.32668152416473667,
                -1.5893914085047924,
                1.7547444301694006,
                0.21856991213640709,
                0.29259564204453714,
                -1.8844181500124229
            ]
        },
        {
            "positions": [
                -0.3256649941113721,
                -1.6090039512228964,
                1.6940325905643459,
                0.3319726194264183,
                0.2071022755547347,
                -1.7744541598668246
            ]
        },
        {
            "positions": [
                -0.32464846405800757,
                -1.6286164939410002,
                1.6333207509592915,
                0.44537532671642954,
                0.12160890906493228,
                -1.6644901697212264
            ]
        },
        {
            "positions": [
                -0.24954514536022604,
                -1.6514739252468302,
                1.7023309108272418,
                0.39150791937567453,
                0.1538474852342503,
                -1.785688341287979
            ]
        },
        {
            "positions": [
                -0.1744418266624445,
                -1.6743313565526603,
                1.771341070695192,
                0.3376405120349195,
                0.18608606140356826,
                -1.9068865128547317
            ]
        },
        {
            "positions": [
                -0.09933850796466298,
                -1.6971887878584901,
                1.8403512305631424,
                0.2837731046941645,
                0.21832463757288628,
                -2.028084684421484
            ]
        },
        {
            "positions": [
                -0.02423518926688145,
                -1.7200462191643202,
                1.9093613904310927,
                0.2299056973534095,
                0.25056321374220425,
                -2.1492828559882367
            ]
        },
        {
            "positions": [
                0.05086812943090008,
                -1.7429036504701503,
                1.9783715502990429,
                0.17603829001265447,
                0.28280178991152227,
                -2.270481027554989
            ]
        },
        {
            "positions": [
                0.1259714481286816,
                -1.7657610817759803,
                2.0473817101669933,
                0.12217088267189946,
                0.31504036608084024,
                -2.3916791991217417
            ]
        },
        {
            "positions": [
                0.20107476682646314,
                -1.7886185130818104,
                2.1163918700349433,
                0.06830347533114445,
                0.3472789422501582,
                -2.5128773706884946
            ]
        },
        {
            "positions": [
                0.27617808552424467,
                -1.8114759443876403,
                2.185402029902894,
                0.014436067990389434,
                0.37951751841947623,
                -2.634075542255247
            ]
        },
        {
            "positions": [
                0.3512814042220262,
                -1.8343333756934703,
                2.254412189770844,
                -0.03943133935036558,
                0.41175609458879425,
                -2.7552737138219996
            ]
        },
        {
            "positions": [
                0.4263847229198077,
                -1.8571908069993004,
                2.3234223496387942,
                -0.09329874669112054,
                0.4439946707581122,
                -2.876471885388752
            ]
        },
        {
            "positions": [
                0.4958410828370995,
                -1.869622183789291,
                2.3398234263082016,
                -0.18279297313911502,
                0.5075243486491806,
                -2.94147613878547
            ]
        },
        {
            "positions": [
                0.5652974427543913,
                -1.8820535605792814,
                2.356224502977609,
                -0.27228719958710945,
                0.5710540265402491,
                -3.006480392182188
            ]
        },
        {
            "positions": [
                0.634753802671683,
                -1.8944849373692718,
                2.372625579647016,
                -0.36178142603510394,
                0.6345837044313174,
                -3.0714846455789058
            ]
        },
        {
            "positions": [
                0.7042101625889748,
                -1.9069163141592624,
                2.3890266563164233,
                -0.4512756524830984,
                0.6981133823223858,
                -3.1364888989756237
            ]
        }
    ]
}