{
    "goal": {
        "global_pose": {
            "orientation": {
                "w": -0.00223480608172531,
                "x": 0.0024358444001904467,
                "y": 0.7094548369677653,
                "z": -0.704743149386269
            },
            "position": {
                "x": 0.6205249238014221,
                "y": -0.6371506643295288,
                "z": 0.19426114857196808
            }
        },
        "name": "move_to_magneteinheit_B"
    },
    "id": "SBL_move_to_magneteinheit_B_84",
    "joint_names": [
        "shoulder_pan_joint",
        "shoulder_lift_joint",
        "elbow_joint",
        "wrist_1_joint",
        "wrist_2_joint",
        "wrist_3_joint"
    ],
    "metrics": {
        "cart_traj_len": 2.0546054895676846,
        "distance_elbow_joint": 2.193229306967614,
        "distance_shoulder_lift_joint": 0.7578841042093133,
        "distance_shoulder_pan_joint": 1.620940184853733,
        "distance_wrist_1_joint": 2.774905651016022,
        "distance_wrist_2_joint": 1.7708621348993312,
        "distance_wrist_3_joint": 1.8976569239596197,
        "smoothness": 0.5635803262281028,
        "time": 0.454724621,
        "traj_len": 3.3189574124874865,
        "weighted_distance": 4.399609066694475
    },
    "planner": "SBL",
    "start": {
        "state": {
            "elbow_joint": 2.6216224122426386,
            "shoulder_lift_joint": -1.4174107377796124,
            "shoulder_pan_joint": 0.7066234856936794,
            "wrist_1_joint": 1.9546482284002225,
            "wrist_2_joint": -0.7096286983471962,
            "wrist_3_joint": 0.005740856962016249
        }
    },
    "waypoints": [
        {
            "positions": [
                0.7066234856936794,
                -1.4174107377796124,
                2.6216224122426386,
                1.9546482284002225,
                -0.7096286983471962,
                0.005740856962016249
            ]
        },
        {
            "positions": [
                0.5509694367470603,
                -1.4139443276511727,
                2.593691570081066,
                1.9528421537976053,
                -0.6457255532780249,
                -0.07827857247417536
            ]
        },
        {
            "positions": [
                0.3953153878004412,
                -1.410477917522733,
                2.5657607279194936,
                1.951036079194988,
                -0.5818224082088537,
                -0.16229800191036695
            ]
        },
        {
            "positions": [
                0.37346087455889865,
                -1.4073654146572876,
                2.4137569342314107,
                1.8218748456157774,
                -0.5898938271538324,
                -0.2409181751550657
            ]
        },
        {
            "positions": [
                0.3516063613173562,
                -1.404252911791842,
                2.261753140543328,
                1.692713612036567,
                -0.5979652460988112,
                -0.31953834839976447
            ]
        },
        {
            "positions": [
                0.32975184807581365,
                -1.4011404089263968,
                2.1097493468552453,
                1.5635523784573564,
                -0.60603666504379,
                -0.3981585216444632
            ]
        },
        {
            "positions": [
                0.3078973348342712,
                -1.3980279060609513,
                1.9577455531671624,
                1.4343911448781457,
                -0.6141080839887687,
                -0.476778694889162
            ]
        },
        {
            "positions": [
                0.28604282159272865,
                -1.3949154031955058,
                1.8057417594790799,
                1.3052299112989352,
                -0.6221795029337475,
                -0.5553988681338607
            ]
        },
        {
            "positions": [
                0.2641883083511861,
                -1.3918029003300603,
                1.653737965790997,
                1.1760686777197247,
                -0.6302509218787262,
                -0.6340190413785595
            ]
        },
        {
            "positions": [
                0.24233379510964365,
                -1.3886903974646148,
                1.5017341721029143,
                1.0469074441405142,
                -0.638322340823705,
                -0.7126392146232582
            ]
        },
        {
            "positions": [
                0.22047928186810112,
                -1.3855778945991695,
                1.3497303784148313,
                0.9177462105613037,
                -0.6463937597686837,
                -0.791259387867957
            ]
        },
        {
            "positions": [
                0.19862476862655862,
                -1.382465391733724,
                1.1977265847267486,
                0.7885849769820932,
                -0.6544651787136625,
                -0.8698795611126557
            ]
        },
        {
            "positions": [
                0.17677025538501612,
                -1.3793528888682784,
                1.045722791038666,
                0.6594237434028827,
                -0.6625365976586413,
                -0.9484997343573545
            ]
        },
        {
            "positions": [
                0.11258866982354139,
                -1.3370101679683972,
                1.082036301965939,
                0.746463811992217,
                -0.7544390479710649,
                -0.8930046559667516
            ]
        },
        {
            "positions": [
                0.04840708426206666,
                -1.2946674470685162,
                1.1183498128932121,
                0.8335038805815513,
                -0.8463414982834885,
                -0.8375095775761487
            ]
        },
        {
            "positions": [
                -0.015774501299408078,
                -1.252324726168635,
                1.154663323820485,
                0.9205439491708857,
                -0.938243948595912,
                -0.7820144991855459
            ]
        },
        {
            "positions": [
                -0.07995608686088279,
                -1.209982005268754,
                1.190976834747758,
                1.00758401776022,
                -1.0301463989083355,
                -0.726519420794943
            ]
        },
        {
            "positions": [
                -0.14413767242235753,
                -1.1676392843688728,
                1.2272903456750313,
                1.0946240863495542,
                -1.1220488492207592,
                -0.6710243424043402
            ]
        },
        {
            "positions": [
                -0.20831925798383227,
                -1.1252965634689915,
                1.2636038566023042,
                1.1816641549388887,
                -1.213951299533183,
                -0.6155292640137373
            ]
        },
        {
            "positions": [
                -0.27250084354530696,
                -1.0829538425691105,
                1.2999173675295772,
                1.2687042235282229,
                -1.3058537498456064,
                -0.5600341856231346
            ]
        },
        {
            "positions": [
                -0.3366824291067817,
                -1.0406111216692293,
                1.3362308784568504,
                1.3557442921175573,
                -1.39775620015803,
                -0.5045391072325316
            ]
        },
        {
            "positions": [
                -0.4008640146682564,
                -0.9982684007693482,
                1.3725443893841234,
                1.4427843607068915,
                -1.4896586504704536,
                -0.4490440288419288
            ]
        },
        {
            "positions": [
                -0.4650456002297312,
                -0.9559256798694671,
                1.4088579003113963,
                1.529824429296226,
                -1.5815611007828774,
                -0.3935489504513259
            ]
        },
        {
            "positions": [
                -0.5292271857912059,
                -0.9135829589695859,
                1.4451714112386695,
                1.6168644978855604,
                -1.6734635510953009,
                -0.338053872060723
            ]
        },
        {
            "positions": [
                -0.5934087713526807,
                -0.8712402380697047,
                1.4814849221659425,
                1.7039045664748946,
                -1.7653660014077244,
                -0.28255879367012016
            ]
        },
        {
            "positions": [
                -0.6575903569141552,
                -0.8288975171698236,
                1.5177984330932155,
                1.7909446350642289,
                -1.8572684517201479,
                -0.2270637152795174
            ]
        },
        {
            "positions": [
                -0.72177194247563,
                -0.7865547962699425,
                1.5541119440204887,
                1.877984703653563,
                -1.9491709020325714,
                -0.17156863688891455
            ]
        },
        {
            "positions": [
                -0.7859535280371047,
                -0.7442120753700614,
                1.5904254549477617,
                1.9650247722428975,
                -2.041073352344995,
                -0.11607355849831169
            ]
        },
        {
            "positions": [
                -0.8501351135985795,
                -0.7018693544701802,
                1.6267389658750346,
                2.052064840832232,
                -2.132975802657419,
                -0.06057848010770883
            ]
        },
        {
            "positions": [
                -0.9143166991600542,
                -0.6595266335702991,
                1.6630524768023078,
                2.139104909421566,
                -2.2248782529698423,
                -0.005083401717105992
            ]
        }
    ]
}