{
    "goal": {
        "global_pose": {
            "orientation": {
                "w": 0.7047431468963623,
                "x": -0.7094548344612122,
                "y": 0.0024358443915843964,
                "z": -0.0022348060738295317
            },
            "position": {
                "x": 0.6094750761985779,
                "y": 0.3671506643295288,
                "z": 0.19426114857196808
            }
        },
        "name": "move_to_magneteinheit_A"
    },
    "id": "SBL_move_to_magneteinheit_A_130",
    "joint_names": [
        "shoulder_pan_joint",
        "shoulder_lift_joint",
        "elbow_joint",
        "wrist_1_joint",
        "wrist_2_joint",
        "wrist_3_joint"
    ],
    "metrics": {
        "cart_traj_len": 3.04636016399809,
        "distance_elbow_joint": 3.9173154533883174,
        "distance_shoulder_lift_joint": 1.801977301581945,
        "distance_shoulder_pan_joint": 2.8803746256823333,
        "distance_wrist_1_joint": 3.4831018178465563,
        "distance_wrist_2_joint": 1.4388326029804535,
        "distance_wrist_3_joint": 1.470809945370719,
        "smoothness": 0.18040165758042148,
        "time": 0.262684497,
        "traj_len": 3.8720035830110384,
        "weighted_distance": 4.780791363196973
    },
    "planner": "SBL",
    "start": {
        "state": {
            "elbow_joint": -1.9196185241190666,
            "shoulder_lift_joint": -1.2443396400964142,
            "shoulder_pan_joint": 2.6996025414629847,
            "wrist_1_joint": -1.5485510000780065,
            "wrist_2_joint": -1.5709468930060704,
            "wrist_3_joint": 0.4420197071253992
        }
    },
    "waypoints": [
        {
            "positions": [
                2.6996025414629847,
                -1.2443396400964142,
                -1.9196185241190666,
                -1.5485510000780065,
                -1.5709468930060704,
                0.4420197071253992
            ]
        },
        {
            "positions": [
                2.5877793359988766,
                -1.2761652639272878,
                -1.7975395254465427,
                -1.5045117299562758,
                -1.5131055940473805,
                0.4660751459302917
            ]
        },
        {
            "positions": [
                2.4759561305347684,
                -1.3079908877581612,
                -1.675460526774019,
                -1.460472459834545,
                -1.4552642950886907,
                0.4901305847351843
            ]
        },
        {
            "positions": [
                2.3641329250706606,
                -1.3398165115890348,
                -1.553381528101495,
                -1.4164331897128142,
                -1.3974229961300009,
                0.5141860235400768
            ]
        },
        {
            "positions": [
                2.2523097196065525,
                -1.3716421354199084,
                -1.4313025294289712,
                -1.3723939195910835,
                -1.339581697171311,
                0.5382414623449694
            ]
        },
        {
            "positions": [
                2.1404865141424443,
                -1.4034677592507818,
                -1.3092235307564475,
                -1.3283546494693528,
                -1.2817403982126212,
                0.5622969011498619
            ]
        },
        {
            "positions": [
                2.028663308678336,
                -1.4352933830816554,
                -1.1871445320839236,
                -1.284315379347622,
                -1.2238990992539314,
                0.5863523399547544
            ]
        },
        {
            "positions": [
                1.916840103214228,
                -1.467119006912529,
                -1.0650655334113996,
                -1.2402761092258912,
                -1.1660578002952415,
                0.6104077787596469
            ]
        },
        {
            "positions": [
                1.8050168977501198,
                -1.4989446307434027,
                -0.9429865347388758,
                -1.1962368391041605,
                -1.108216501336552,
                0.6344632175645395
            ]
        },
        {
            "positions": [
                1.6931936922860118,
                -1.530770254574276,
                -0.820907536066352,
                -1.1521975689824298,
                -1.0503752023778619,
                0.6585186563694321
            ]
        },
        {
            "positions": [
                1.5813704868219036,
                -1.5625958784051497,
                -0.6988285373938281,
                -1.108158298860699,
                -0.9925339034191721,
                0.6825740951743247
            ]
        },
        {
            "positions": [
                1.4695472813577954,
                -1.5944215022360233,
                -0.5767495387213042,
                -1.0641190287389681,
                -0.9346926044604823,
                0.7066295339792172
            ]
        },
        {
            "positions": [
                1.3577240758936875,
                -1.6262471260668967,
                -0.4546705400487805,
                -1.0200797586172374,
                -0.8768513055017925,
                0.7306849727841097
            ]
        },
        {
            "positions": [
                1.245900870429579,
                -1.6580727498977703,
                -0.33259154137625635,
                -0.9760404884955067,
                -0.8190100065431026,
                0.7547404115890023
            ]
        },
        {
            "positions": [
                1.1340776649654711,
                -1.689898373728644,
                -0.21051254270373265,
                -0.932001218373776,
                -0.7611687075844129,
                0.7787958503938948
            ]
        },
        {
            "positions": [
                1.022254459501363,
                -1.7217239975595175,
                -0.08843354403120873,
                -0.8879619482520452,
                -0.703327408625723,
                0.8028512891987873
            ]
        },
        {
            "positions": [
                0.910431254037255,
                -1.7535496213903912,
                0.033645454641314965,
                -0.8439226781303145,
                -0.6454861096670332,
                0.8269067280036799
            ]
        },
        {
            "positions": [
                0.7986080485731468,
                -1.7853752452212646,
                0.1557244533138391,
                -0.7998834080085837,
                -0.5876448107083434,
                0.8509621668085725
            ]
        },
        {
            "positions": [
                0.6867848431090389,
                -1.817200869052138,
                0.2778034519863626,
                -0.755844137886853,
                -0.5298035117496536,
                0.875017605613465
            ]
        },
        {
            "positions": [
                0.5749616376449307,
                -1.8490264928830116,
                0.3998824506588865,
                -0.7118048677651222,
                -0.47196221279096373,
                0.8990730444183574
            ]
        },
        {
            "positions": [
                0.4631384321808225,
                -1.8808521167138852,
                0.5219614493314104,
                -0.6677655976433915,
                -0.4141209138322739,
                0.92312848322325
            ]
        },
        {
            "positions": [
                0.3513152267167142,
                -1.9126777405447588,
                0.6440404480039346,
                -0.6237263275216607,
                -0.35627961487358417,
                0.9471839220281426
            ]
        },
        {
            "positions": [
                0.32416998952401177,
                -1.8548940216965675,
                0.7308973653176722,
                -0.48213913173354933,
                -0.3411218322052697,
                0.9056206087444756
            ]
        },
        {
            "positions": [
                0.29702475233130926,
                -1.7971103028483761,
                0.8177542826314099,
                -0.340551935945438,
                -0.32596404953695524,
                0.8640572954608087
            ]
        },
        {
            "positions": [
                0.26987951513860675,
                -1.7393265840001848,
                0.9046111999451476,
                -0.19896474015732662,
                -0.31080626686864077,
                0.8224939821771416
            ]
        },
        {
            "positions": [
                0.2427342779459043,
                -1.6815428651519937,
                0.9914681172588854,
                -0.05737754436921527,
                -0.29564848420032636,
                0.7809306688934747
            ]
        },
        {
            "positions": [
                0.21558904075320182,
                -1.6237591463038024,
                1.0783250345726232,
                0.08420965141889614,
                -0.2804907015320119,
                0.7393673556098077
            ]
        },
        {
            "positions": [
                0.18844380356049933,
                -1.565975427455611,
                1.1651819518863609,
                0.22579684720700743,
                -0.2653329188636974,
                0.6978040423261408
            ]
        },
        {
            "positions": [
                0.16129856636779685,
                -1.5081917086074197,
                1.2520388692000985,
                0.36738404299511884,
                -0.25017513619538295,
                0.6562407290424738
            ]
        },
        {
            "positions": [
                0.13415332917509437,
                -1.4504079897592284,
                1.3388957865138362,
                0.5089712387832301,
                -0.23501735352706848,
                0.6146774157588069
            ]
        },
        {
            "positions": [
                0.10700809198239186,
                -1.392624270911037,
                1.4257527038275741,
                0.6505584345713415,
                -0.21985957085875402,
                0.5731141024751398
            ]
        },
        {
            "positions": [
                0.07986285478968941,
                -1.334840552062846,
                1.5126096211413116,
                0.792145630359453,
                -0.20470178819043958,
                0.5315507891914728
            ]
        },
        {
            "positions": [
                0.052717617596986954,
                -1.2770568332146546,
                1.5994665384550495,
                0.9337328261475644,
                -0.1895440055221251,
                0.4899874759078059
            ]
        },
        {
            "positions": [
                0.025572380404284445,
                -1.2192731143664632,
                1.686323455768787,
                1.0753200219356756,
                -0.17438622285381067,
                0.4484241626241389
            ]
        },
        {
            "positions": [
                -0.0015728567884180644,
                -1.161489395518272,
                1.7731803730825249,
                1.216907217723787,
                -0.15922844018549617,
                0.40686084934047184
            ]
        },
        {
            "positions": [
                -0.028718093981120518,
                -1.1037056766700806,
                1.8600372903962625,
                1.3584944135118984,
                -0.14407065751718173,
                0.365297536056805
            ]
        },
        {
            "positions": [
                0.0016927040665252815,
                -1.0387722492182963,
                1.88756921817086,
                1.4737056943632285,
                -0.1416793840188688,
                0.2885456671574774
            ]
        },
        {
            "positions": [
                0.03210350211417108,
                -0.9738388217665117,
                1.9151011459454577,
                1.5889169752145589,
                -0.1392881105205558,
                0.21179379825814987
            ]
        },
        {
            "positions": [
                0.06251430016181687,
                -0.9089053943147274,
                1.9426330737200552,
                1.704128256065889,
                -0.13689683702224287,
                0.1350419293588223
            ]
        },
        {
            "positions": [
                0.09292509820946268,
                -0.8439719668629428,
                1.9701650014946528,
                1.8193395369172194,
                -0.1345055635239299,
                0.05829006045949475
            ]
        },
        {
            "positions": [
                0.12333589625710847,
                -0.7790385394111585,
                1.9976969292692504,
                1.9345508177685495,
                -0.13211429002561695,
                -0.018461808439832795
            ]
        }
    ]
}