{
    "goal": {
        "global_pose": {
            "orientation": {
                "w": 0.005598929693374612,
                "x": 0.007748599140229565,
                "y": 0.7110244013736278,
                "z": -0.7031023480610252
            },
            "position": {
                "x": 0.1141497679147869,
                "y": -0.7141253447532654,
                "z": 0.3711530566215515
            }
        },
        "name": "move_to_auspresseinheit_B"
    },
    "id": "SBL_move_to_auspresseinheit_B_43",
    "joint_names": [
        "shoulder_pan_joint",
        "shoulder_lift_joint",
        "elbow_joint",
        "wrist_1_joint",
        "wrist_2_joint",
        "wrist_3_joint"
    ],
    "metrics": {
        "cart_traj_len": 0.5655069779323477,
        "distance_elbow_joint": 0.06312719157711233,
        "distance_shoulder_lift_joint": 0.2950712782407776,
        "distance_shoulder_pan_joint": 0.579833944126388,
        "distance_wrist_1_joint": 0.33013604607451574,
        "distance_wrist_2_joint": 0.9850363574318928,
        "distance_wrist_3_joint": 0.002561444429117987,
        "smoothness": 0.0,
        "time": 0.184119617,
        "traj_len": 1.5019208573955567,
        "weighted_distance": 1.8910477398110415
    },
    "planner": "SBL",
    "start": {
        "state": {
            "elbow_joint": 2.0193083361928714,
            "shoulder_lift_joint": -1.1220246554650708,
            "shoulder_pan_joint": -1.0952077554168747,
            "wrist_1_joint": -0.8559753972642168,
            "wrist_2_joint": 0.4759566250798843,
            "wrist_3_joint": -3.1240929996934557
        }
    },
    "waypoints": [
        {
            "positions": [
                -1.0952077554168747,
                -1.1220246554650708,
                2.0193083361928714,
                -0.8559753972642168,
                0.4759566250798843,
                -3.1240929996934557
            ]
        },
        {
            "positions": [
                -1.191846746104606,
                -1.1712032018385337,
                2.008787137596686,
                -0.8009527229184642,
                0.6401293513185331,
                -3.1236660922886026
            ]
        },
        {
            "positions": [
                -1.2884857367923372,
                -1.2203817482119967,
                1.9982659390005006,
                -0.7459300485727115,
                0.8043020775571819,
                -3.1232391848837495
            ]
        },
        {
            "positions": [
                -1.3851247274800687,
                -1.2695602945854596,
                1.9877447404043154,
                -0.6909073742269589,
                0.9684748037958306,
                -3.1228122774788964
            ]
        },
        {
            "positions": [
                -1.4817637181677998,
                -1.3187388409589225,
                1.9772235418081299,
                -0.6358846998812063,
                1.1326475300344794,
                -3.122385370074044
            ]
        },
        {
            "positions": [
                -1.5784027088555312,
                -1.3679173873323855,
                1.9667023432119444,
                -0.5808620255354536,
                1.2968202562731284,
                -3.1219584626691907
            ]
        },
        {
            "positions": [
                -1.6750416995432627,
                -1.4170959337058484,
                1.956181144615759,
                -0.525839351189701,
                1.4609929825117771,
                -3.1215315552643377
            ]
        }
    ]
}