{
    "goal": {
        "global_pose": {
            "orientation": {
                "w": 0.005598929693374612,
                "x": 0.007748599140229565,
                "y": 0.7110244013736278,
                "z": -0.7031023480610252
            },
            "position": {
                "x": -0.8858502320852131,
                "y": -0.7141253447532654,
                "z": 0.3711530566215515
            }
        },
        "name": "move_to_auspresseinheit_C"
    },
    "id": "SBL_move_to_auspresseinheit_C_19",
    "joint_names": [
        "shoulder_pan_joint",
        "shoulder_lift_joint",
        "elbow_joint",
        "wrist_1_joint",
        "wrist_2_joint",
        "wrist_3_joint"
    ],
    "metrics": {
        "cart_traj_len": 0.49352489909285485,
        "distance_elbow_joint": 1.0071415700684643,
        "distance_shoulder_lift_joint": 0.3276516474561624,
        "distance_shoulder_pan_joint": 0.2561709206102676,
        "distance_wrist_1_joint": 0.6954797219050826,
        "distance_wrist_2_joint": 1.310128439063045,
        "distance_wrist_3_joint": 0.06990070422418437,
        "smoothness": 1.1304089041936764e-15,
        "time": 0.543176694,
        "traj_len": 1.9148036461546667,
        "weighted_distance": 2.4107846383996443
    },
    "planner": "SBL",
    "start": {
        "state": {
            "elbow_joint": 1.7527959577737207,
            "shoulder_lift_joint": -0.9740617694225068,
            "shoulder_pan_joint": -2.967991417825858,
            "wrist_1_joint": -0.759517768980727,
            "wrist_2_joint": 1.7443932448377408,
            "wrist_3_joint": -3.0840537646736568
        }
    },
    "waypoints": [
        {
            "positions": [
                -2.967991417825858,
                -0.9740617694225068,
                1.7527959577737207,
                -0.759517768980727,
                1.7443932448377408,
                -3.0840537646736568
            ]
        },
        {
            "positions": [
                -2.942374325764831,
                -0.9412966046768906,
                1.6520818007668743,
                -0.6899697967902187,
                1.6133804009314363,
                -3.0910438350960754
            ]
        },
        {
            "positions": [
                -2.9167572337038044,
                -0.9085314399312743,
                1.551367643760028,
                -0.6204218245997104,
                1.4823675570251318,
                -3.0980339055184936
            ]
        },
        {
            "positions": [
                -2.8911401416427776,
                -0.8757662751856581,
                1.4506534867531813,
                -0.5508738524092023,
                1.3513547131188273,
                -3.105023975940912
            ]
        },
        {
            "positions": [
                -2.8655230495817507,
                -0.8430011104400418,
                1.349939329746335,
                -0.48132588021869394,
                1.2203418692125227,
                -3.1120140463633303
            ]
        },
        {
            "positions": [
                -2.839905957520724,
                -0.8102359456944256,
                1.2492251727394885,
                -0.4117779080281857,
                1.0893290253062182,
                -3.119004116785749
            ]
        },
        {
            "positions": [
                -2.8142888654596976,
                -0.7774707809488094,
                1.1485110157326421,
                -0.34222993583767747,
                0.9583161813999138,
                -3.1259941872081676
            ]
        },
        {
            "positions": [
                -2.788671773398671,
                -0.7447056162031931,
                1.0477968587257958,
                -0.27268196364716923,
                0.8273033374936094,
                -3.1329842576305857
            ]
        },
        {
            "positions": [
                -2.763054681337644,
                -0.7119404514575769,
                0.9470827017189491,
                -0.2031339914566609,
                0.6962904935873049,
                -3.1399743280530044
            ]
        },
        {
            "positions": [
                -2.737437589276617,
                -0.6791752867119607,
                0.8463685447121028,
                -0.13358601926615266,
                0.5652776496810004,
                -3.1469643984754225
            ]
        },
        {
            "positions": [
                -2.7118204972155904,
                -0.6464101219663444,
                0.7456543877052565,
                -0.06403804707564438,
                0.43426480577469584,
                -3.153954468897841
            ]
        }
    ]
}