{
    "goal": {
        "global_pose": {
            "orientation": {
                "w": -0.00223480608172531,
                "x": 0.0024358444001904467,
                "y": 0.7094548369677653,
                "z": -0.704743149386269
            },
            "position": {
                "x": 0.6205249238014221,
                "y": -0.6371506643295288,
                "z": 0.19426114857196808
            }
        },
        "name": "move_to_magneteinheit_B"
    },
    "id": "SBL_move_to_magneteinheit_B_91",
    "joint_names": [
        "shoulder_pan_joint",
        "shoulder_lift_joint",
        "elbow_joint",
        "wrist_1_joint",
        "wrist_2_joint",
        "wrist_3_joint"
    ],
    "metrics": {
        "cart_traj_len": 1.9476668084594568,
        "distance_elbow_joint": 1.5478224337943878,
        "distance_shoulder_lift_joint": 1.2646968007775246,
        "distance_shoulder_pan_joint": 1.6212685645446778,
        "distance_wrist_1_joint": 2.0550399732095825,
        "distance_wrist_2_joint": 2.2716293015910747,
        "distance_wrist_3_joint": 0.9200034395891882,
        "smoothness": 1.0134949200923802,
        "time": 0.572786381,
        "traj_len": 3.1113438436640903,
        "weighted_distance": 3.9808462250488237
    },
    "planner": "SBL",
    "start": {
        "state": {
            "elbow_joint": 2.6216224122426386,
            "shoulder_lift_joint": -1.4174107377796124,
            "shoulder_pan_joint": 0.7066234856936794,
            "wrist_1_joint": 1.9546482284002225,
            "wrist_2_joint": -0.7096286983471962,
            "wrist_3_joint": 0.005740856962016249
        }
    },
    "waypoints": [
        {
            "positions": [
                0.7066234856936794,
                -1.4174107377796124,
                2.6216224122426386,
                1.9546482284002225,
                -0.7096286983471962,
                0.005740856962016249
            ]
        },
        {
            "positions": [
                0.6087236757952159,
                -1.4663498260837153,
                2.613273778263098,
                1.9946098273808013,
                -0.7506304102844295,
                0.04098174628122176
            ]
        },
        {
            "positions": [
                0.5306478501144118,
                -1.4867711929467964,
                2.4887707106120627,
                1.9009952426200243,
                -0.7131046535304582,
                0.07674734130914085
            ]
        },
        {
            "positions": [
                0.4525720244336078,
                -1.5071925598098774,
                2.3642676429610274,
                1.8073806578592473,
                -0.6755788967764869,
                0.11251293633705994
            ]
        },
        {
            "positions": [
                0.3744961987528037,
                -1.5276139266729583,
                2.2397645753099917,
                1.7137660730984703,
                -0.6380531400225156,
                0.14827853136497904
            ]
        },
        {
            "positions": [
                0.29642037307199964,
                -1.5480352935360393,
                2.1152615076589565,
                1.6201514883376933,
                -0.6005273832685443,
                0.1840441263928981
            ]
        },
        {
            "positions": [
                0.21834454739119558,
                -1.5684566603991204,
                1.9907584400079212,
                1.5265369035769165,
                -0.563001626514573,
                0.2198097214208172
            ]
        },
        {
            "positions": [
                0.1402687217103915,
                -1.5888780272622014,
                1.866255372356886,
                1.4329223188161393,
                -0.5254758697606018,
                0.2555753164487363
            ]
        },
        {
            "positions": [
                0.06219289602958744,
                -1.6092993941252822,
                1.7417523047058507,
                1.3393077340553625,
                -0.4879501130066305,
                0.29134091147665536
            ]
        },
        {
            "positions": [
                -0.015882929651216626,
                -1.6297207609883633,
                1.617249237054815,
                1.2456931492945853,
                -0.45042435625265914,
                0.32710650650457446
            ]
        },
        {
            "positions": [
                -0.0939587553320207,
                -1.6501421278514443,
                1.4927461694037798,
                1.1520785645338085,
                -0.4128985994986879,
                0.36287210153249355
            ]
        },
        {
            "positions": [
                -0.17203458101282482,
                -1.6705634947145254,
                1.3682431017527446,
                1.0584639797730315,
                -0.3753728427447166,
                0.39863769656041265
            ]
        },
        {
            "positions": [
                -0.21981229922164933,
                -1.6007028013513591,
                1.386104757117688,
                1.1248346164439433,
                -0.5059395921175924,
                0.3630375531497554
            ]
        },
        {
            "positions": [
                -0.26759001743047384,
                -1.5308421079881926,
                1.4039664124826317,
                1.1912052531148551,
                -0.6365063414904684,
                0.32743740973909813
            ]
        },
        {
            "positions": [
                -0.3153677356392983,
                -1.4609814146250264,
                1.4218280678475752,
                1.257575889785767,
                -0.7670730908633442,
                0.29183726632844087
            ]
        },
        {
            "positions": [
                -0.36314545384812286,
                -1.39112072126186,
                1.439689723212519,
                1.3239465264566788,
                -0.89763984023622,
                0.2562371229177836
            ]
        },
        {
            "positions": [
                -0.4109231720569474,
                -1.3212600278986937,
                1.4575513785774625,
                1.3903171631275906,
                -1.0282065896090957,
                0.22063697950712635
            ]
        },
        {
            "positions": [
                -0.4587008902657719,
                -1.2513993345355274,
                1.475413033942406,
                1.4566877997985024,
                -1.1587733389819719,
                0.1850368360964691
            ]
        },
        {
            "positions": [
                -0.5064786084745964,
                -1.1815386411723612,
                1.4932746893073496,
                1.5230584364694142,
                -1.2893400883548476,
                0.1494366926858119
            ]
        },
        {
            "positions": [
                -0.5542563266834208,
                -1.1116779478091947,
                1.5111363446722932,
                1.589429073140326,
                -1.4199068377277233,
                0.11383654927515457
            ]
        },
        {
            "positions": [
                -0.6020340448922454,
                -1.0418172544460282,
                1.5289980000372367,
                1.6557997098112378,
                -1.550473587100599,
                0.07823640586449737
            ]
        },
        {
            "positions": [
                -0.6498117631010699,
                -0.971956561082862,
                1.5468596554021805,
                1.7221703464821496,
                -1.6810403364734752,
                0.04263626245384006
            ]
        },
        {
            "positions": [
                -0.6975894813098944,
                -0.9020958677196957,
                1.564721310767124,
                1.7885409831530614,
                -1.8116070858463509,
                0.0070361190431828535
            ]
        },
        {
            "positions": [
                -0.745367199518719,
                -0.8322351743565293,
                1.5825829661320676,
                1.8549116198239732,
                -1.942173835219227,
                -0.02856402436747446
            ]
        },
        {
            "positions": [
                -0.7931449177275434,
                -0.762374480993363,
                1.6004446214970112,
                1.921282256494885,
                -2.0727405845921028,
                -0.06416416777813169
            ]
        },
        {
            "positions": [
                -0.8538949982892712,
                -0.7106969659326383,
                1.6315654232771246,
                2.0293393814445753,
                -2.1517417247254738,
                -0.03201179995200792
            ]
        },
        {
            "positions": [
                -0.9146450788509989,
                -0.6590194508719137,
                1.6626862250572383,
                2.1373965063942655,
                -2.230742864858845,
                0.00014056787411586197
            ]
        }
    ]
}