{
    "goal": {
        "global_pose": {
            "orientation": {
                "w": -0.00223480608172531,
                "x": 0.0024358444001904467,
                "y": 0.7094548369677653,
                "z": -0.704743149386269
            },
            "position": {
                "x": -0.37947507619857795,
                "y": -0.6371506643295288,
                "z": 0.19426114857196808
            }
        },
        "name": "move_to_magneteinheit_C"
    },
    "id": "SBL_move_to_magneteinheit_C_1",
    "joint_names": [
        "shoulder_pan_joint",
        "shoulder_lift_joint",
        "elbow_joint",
        "wrist_1_joint",
        "wrist_2_joint",
        "wrist_3_joint"
    ],
    "metrics": {
        "cart_traj_len": 0.9417892549069886,
        "distance_elbow_joint": 0.8293778500850526,
        "distance_shoulder_lift_joint": 0.7860495210392815,
        "distance_shoulder_pan_joint": 1.1119059245285123,
        "distance_wrist_1_joint": 0.7443820264094889,
        "distance_wrist_2_joint": 1.9949943609661667,
        "distance_wrist_3_joint": 1.0032890310005693,
        "smoothness": 1.9103491368494683,
        "time": 0.496837323,
        "traj_len": 2.543619215611698,
        "weighted_distance": 3.349022717660462
    },
    "planner": "SBL",
    "start": {
        "state": {
            "elbow_joint": 1.9565354010623817,
            "shoulder_lift_joint": -1.4165861575791021,
            "shoulder_pan_joint": -1.6717766225146293,
            "wrist_1_joint": -0.5286633292919765,
            "wrist_2_joint": 1.472756589071564,
            "wrist_3_joint": -3.1238370188695823
        }
    },
    "waypoints": [
        {
            "positions": [
                -1.6717766225146293,
                -1.4165861575791021,
                1.9565354010623817,
                -0.5286633292919765,
                1.472756589071564,
                -3.1238370188695823
            ]
        },
        {
            "positions": [
                -1.649444537433791,
                -1.4832392725297647,
                2.0669032206035887,
                -0.4983401677990129,
                1.5074387968128184,
                -3.1692243776488676
            ]
        },
        {
            "positions": [
                -1.6271124523529523,
                -1.5498923874804273,
                2.1772710401447952,
                -0.46801700630604937,
                1.5421210045540727,
                -3.2146117364281523
            ]
        },
        {
            "positions": [
                -1.604780367272114,
                -1.61654550243109,
                2.2876388596860022,
                -0.4376938448130858,
                1.576803212295327,
                -3.259999095207437
            ]
        },
        {
            "positions": [
                -1.5824482821912755,
                -1.6831986173817526,
                2.3980066792272092,
                -0.4073706833201223,
                1.6114854200365816,
                -3.3053864539867224
            ]
        },
        {
            "positions": [
                -1.6781742932684796,
                -1.643114866194514,
                2.3634221407157843,
                -0.39718245861592044,
                1.4716569333307865,
                -3.2568439153479636
            ]
        },
        {
            "positions": [
                -1.7739003043456836,
                -1.6030311150072754,
                2.328837602204359,
                -0.3869942339117186,
                1.3318284466249917,
                -3.208301376709205
            ]
        },
        {
            "positions": [
                -1.8696263154228874,
                -1.5629473638200369,
                2.294253063692934,
                -0.3768060092075167,
                1.1919999599191966,
                -3.159758838070446
            ]
        },
        {
            "positions": [
                -1.9653523265000914,
                -1.5228636126327983,
                2.259668525181509,
                -0.3666177845033149,
                1.0521714732134018,
                -3.111216299431687
            ]
        },
        {
            "positions": [
                -2.061078337577295,
                -1.4827798614455596,
                2.225083986670084,
                -0.35642955979911306,
                0.9123429865076067,
                -3.0626737607929284
            ]
        },
        {
            "positions": [
                -2.156804348654499,
                -1.4426961102583211,
                2.1904994481586586,
                -0.34624133509491123,
                0.7725144998018117,
                -3.01413122215417
            ]
        },
        {
            "positions": [
                -2.2525303597317032,
                -1.4026123590710826,
                2.1559149096472336,
                -0.3360531103907094,
                0.6326860130960168,
                -2.9655886835154113
            ]
        },
        {
            "positions": [
                -2.3482563708089073,
                -1.362528607883844,
                2.1213303711358087,
                -0.3258648856865075,
                0.49285752639022173,
                -2.9170461448766525
            ]
        },
        {
            "positions": [
                -2.4439823818861113,
                -1.3224448566966054,
                2.0867458326243833,
                -0.3156766609823057,
                0.35302903968442667,
                -2.8685036062378937
            ]
        },
        {
            "positions": [
                -2.5397083929633153,
                -1.2823611055093669,
                2.0521612941129583,
                -0.30548843627810385,
                0.21320055297863183,
                -2.819961067599135
            ]
        },
        {
            "positions": [
                -2.5233790246050356,
                -1.2527112181683056,
                2.041645997411465,
                -0.4357902196270079,
                0.32769571871443165,
                -2.904039619973095
            ]
        },
        {
            "positions": [
                -2.507049656246756,
                -1.2230613308272442,
                2.031130700709971,
                -0.566092002975912,
                0.44219088445023147,
                -2.988118172347056
            ]
        },
        {
            "positions": [
                -2.490720287888476,
                -1.1934114434861829,
                2.0206154040084776,
                -0.6963937863248161,
                0.5566860501860313,
                -3.0721967247210165
            ]
        },
        {
            "positions": [
                -2.4743909195301965,
                -1.1637615561451216,
                2.010100107306984,
                -0.8266955696737202,
                0.6711812159218311,
                -3.1562752770949767
            ]
        }
    ]
}