{
    "goal": {
        "global_pose": {
            "orientation": {
                "w": 0.7031023480610252,
                "x": -0.7110244013736278,
                "y": 0.0077485991402295624,
                "z": 0.005598929693374583
            },
            "position": {
                "x": -0.8841497679147869,
                "y": 0.44412534475326537,
                "z": 0.3711530566215515
            }
        },
        "name": "move_to_auspresseinheit_D"
    },
    "id": "SBL_move_to_auspresseinheit_D_124",
    "joint_names": [
        "shoulder_pan_joint",
        "shoulder_lift_joint",
        "elbow_joint",
        "wrist_1_joint",
        "wrist_2_joint",
        "wrist_3_joint"
    ],
    "metrics": {
        "cart_traj_len": 0.34278512330251043,
        "distance_elbow_joint": 0.6365385277160223,
        "distance_shoulder_lift_joint": 0.12056555807413538,
        "distance_shoulder_pan_joint": 0.13309964875717387,
        "distance_wrist_1_joint": 0.5140767927895555,
        "distance_wrist_2_joint": 1.4482542917367733,
        "distance_wrist_3_joint": 0.010282070515742703,
        "smoothness": 5.921189511553294e-16,
        "time": 0.270737919,
        "traj_len": 1.6919860784265934,
        "weighted_distance": 2.20129782518114
    },
    "planner": "SBL",
    "start": {
        "state": {
            "elbow_joint": -1.8275523626775212,
            "shoulder_lift_joint": -2.126789852344167,
            "shoulder_pan_joint": -0.03513704404078235,
            "wrist_1_joint": -2.347782403156801,
            "wrist_2_joint": -1.6058999987535132,
            "wrist_3_joint": -3.0880379163319196
        }
    },
    "waypoints": [
        {
            "positions": [
                -0.03513704404078235,
                -2.126789852344167,
                -1.8275523626775212,
                -2.347782403156801,
                -1.6058999987535132,
                -3.0880379163319196
            ]
        },
        {
            "positions": [
                -0.051774500135429086,
                -2.141860547103434,
                -1.7479850467130185,
                -2.4120420022554954,
                -1.4248682122864165,
                -3.0893231751463874
            ]
        },
        {
            "positions": [
                -0.06841195623007582,
                -2.1569312418627007,
                -1.6684177307485157,
                -2.47630160135419,
                -1.2438364258193197,
                -3.0906084339608553
            ]
        },
        {
            "positions": [
                -0.08504941232472255,
                -2.1720019366219674,
                -1.5888504147840128,
                -2.5405612004528844,
                -1.0628046393522232,
                -3.091893692775323
            ]
        },
        {
            "positions": [
                -0.10168686841936928,
                -2.1870726313812345,
                -1.50928309881951,
                -2.604820799551579,
                -0.8817728528851265,
                -3.093178951589791
            ]
        },
        {
            "positions": [
                -0.118324324514016,
                -2.2021433261405017,
                -1.4297157828550073,
                -2.669080398650273,
                -0.7007410664180298,
                -3.094464210404259
            ]
        },
        {
            "positions": [
                -0.13496178060866276,
                -2.2172140208997684,
                -1.3501484668905044,
                -2.7333399977489674,
                -0.5197092799509333,
                -3.0957494692187266
            ]
        },
        {
            "positions": [
                -0.1515992367033095,
                -2.232284715659035,
                -1.2705811509260017,
                -2.797599596847662,
                -0.3386774934838366,
                -3.0970347280331945
            ]
        },
        {
            "positions": [
                -0.16823669279795622,
                -2.2473554104183022,
                -1.191013834961499,
                -2.8618591959463564,
                -0.15764570701673994,
                -3.0983199868476623
            ]
        }
    ]
}