{
    "goal": {
        "global_pose": {
            "orientation": {
                "w": -0.4816463035849501,
                "x": 0.5182115481033762,
                "y": 0.4908360881923453,
                "z": -0.5084816262002911
            },
            "position": {
                "x": -0.8240239810943604,
                "y": 0.19912469901144506,
                "z": 0.16403168439865112
            }
        },
        "name": "move_to_storage_D"
    },
    "id": "SBL_move_to_storage_D_17",
    "joint_names": [
        "shoulder_pan_joint",
        "shoulder_lift_joint",
        "elbow_joint",
        "wrist_1_joint",
        "wrist_2_joint",
        "wrist_3_joint"
    ],
    "metrics": {
        "cart_traj_len": 4.01506801802425,
        "distance_elbow_joint": 4.210919200694612,
        "distance_shoulder_lift_joint": 1.2646722080361463,
        "distance_shoulder_pan_joint": 2.813735030463236,
        "distance_wrist_1_joint": 2.272961519191081,
        "distance_wrist_2_joint": 1.1471463566921196,
        "distance_wrist_3_joint": 3.142778437549433,
        "smoothness": 0.02329178288620178,
        "time": 0.21435806200000002,
        "traj_len": 3.853856867169125,
        "weighted_distance": 4.955590530260615
    },
    "planner": "SBL",
    "start": {
        "state": {
            "elbow_joint": -2.384821988534728,
            "shoulder_lift_joint": -2.2788054721415256,
            "shoulder_pan_joint": -0.1854694642142757,
            "wrist_1_joint": 1.4845938289331202,
            "wrist_2_joint": 0.17898776772866878,
            "wrist_3_joint": 0.037105688729662994
        }
    },
    "waypoints": [
        {
            "positions": [
                -0.1854694642142757,
                -2.2788054721415256,
                -2.384821988534728,
                1.4845938289331202,
                0.17898776772866878,
                0.037105688729662994
            ]
        },
        {
            "positions": [
                -0.08370933489223222,
                -2.2521044760967124,
                -2.2506787552083374,
                1.3882332934440196,
                0.16794099691211023,
                0.058498652272996
            ]
        },
        {
            "positions": [
                0.01805079442981128,
                -2.225403480051899,
                -2.116535521881947,
                1.291872757954919,
                0.1568942260955517,
                0.079891615816329
            ]
        },
        {
            "positions": [
                0.11981092375185479,
                -2.198702484007086,
                -1.9823922885555563,
                1.1955122224658183,
                0.14584745527899318,
                0.10128457935966201
            ]
        },
        {
            "positions": [
                0.22157105307389827,
                -2.172001487962273,
                -1.848249055229166,
                1.0991516869767177,
                0.13480068446243462,
                0.12267754290299501
            ]
        },
        {
            "positions": [
                0.32333118239594183,
                -2.14530049191746,
                -1.7141058219027752,
                1.002791151487617,
                0.12375391364587608,
                0.14407050644632802
            ]
        },
        {
            "positions": [
                0.4250913117179853,
                -2.1185994958726466,
                -1.5799625885763848,
                0.9064306159985165,
                0.11270714282931754,
                0.16546346998966102
            ]
        },
        {
            "positions": [
                0.5268514410400289,
                -2.0918984998278334,
                -1.4458193552499943,
                0.8100700805094159,
                0.101660372012759,
                0.18685643353299403
            ]
        },
        {
            "positions": [
                0.6286115703620723,
                -2.06519750378302,
                -1.311676121923604,
                0.7137095450203153,
                0.09061360119620046,
                0.20824939707632703
            ]
        },
        {
            "positions": [
                0.7303716996841157,
                -2.038496507738207,
                -1.1775328885972134,
                0.6173490095312146,
                0.07956683037964192,
                0.22964236061966004
            ]
        },
        {
            "positions": [
                0.8321318290061593,
                -2.0117955116933937,
                -1.0433896552708226,
                0.520988474042114,
                0.06852005956308338,
                0.251035324162993
            ]
        },
        {
            "positions": [
                0.9338919583282027,
                -1.9850945156485806,
                -0.9092464219444323,
                0.4246279385530134,
                0.05747328874652484,
                0.27242828770632604
            ]
        },
        {
            "positions": [
                1.0356520876502462,
                -1.9583935196037674,
                -0.7751031886180417,
                0.32826740306391283,
                0.046426517929966306,
                0.2938212512496591
            ]
        },
        {
            "positions": [
                1.096906452211735,
                -1.922075817469214,
                -0.6750570193573523,
                0.28531989947461,
                0.08544902204125157,
                0.404823669520022
            ]
        },
        {
            "positions": [
                1.1581608167732242,
                -1.8857581153346605,
                -0.5750108500966629,
                0.24237239588530718,
                0.12447152615253684,
                0.515826087790385
            ]
        },
        {
            "positions": [
                1.2194151813347132,
                -1.8494404132001072,
                -0.47496468083597343,
                0.19942489229600432,
                0.16349403026382212,
                0.6268285060607479
            ]
        },
        {
            "positions": [
                1.2806695458962023,
                -1.813122711065554,
                -0.374918511575284,
                0.1564773887067015,
                0.2025165343751074,
                0.737830924331111
            ]
        },
        {
            "positions": [
                1.3419239104576912,
                -1.7768050089310004,
                -0.27487234231459456,
                0.11352988511739867,
                0.24153903848639266,
                0.8488333426014739
            ]
        },
        {
            "positions": [
                1.4031782750191804,
                -1.740487306796447,
                -0.17482617305390513,
                0.07058238152809582,
                0.28056154259767796,
                0.9598357608718369
            ]
        },
        {
            "positions": [
                1.4644326395806693,
                -1.7041696046618937,
                -0.07478000379321581,
                0.027634877938793045,
                0.31958404670896323,
                1.0708381791421997
            ]
        },
        {
            "positions": [
                1.5256870041421582,
                -1.6678519025273402,
                0.025266165467473733,
                -0.015312625650509837,
                0.3586065508202485,
                1.1818405974125628
            ]
        },
        {
            "positions": [
                1.586941368703647,
                -1.6315342003927868,
                0.12531233472816306,
                -0.058260129239812664,
                0.3976290549315338,
                1.2928430156829256
            ]
        },
        {
            "positions": [
                1.6481957332651365,
                -1.5952164982582335,
                0.2253585039888526,
                -0.10120763282911549,
                0.43665155904281905,
                1.4038454339532889
            ]
        },
        {
            "positions": [
                1.7094500978266254,
                -1.5588987961236802,
                0.3254046732495419,
                -0.14415513641841832,
                0.4756740631541043,
                1.5148478522236517
            ]
        },
        {
            "positions": [
                1.7707044623881143,
                -1.5225810939891267,
                0.42545084251023146,
                -0.1871026400077212,
                0.5146965672653896,
                1.6258502704940145
            ]
        },
        {
            "positions": [
                1.8319588269496032,
                -1.4862633918545733,
                0.5254970117709208,
                -0.23005014359702397,
                0.5537190713766749,
                1.7368526887643774
            ]
        },
        {
            "positions": [
                1.8932131915110921,
                -1.44994568972002,
                0.6255431810316101,
                -0.27299764718632674,
                0.5927415754879601,
                1.8478551070347402
            ]
        },
        {
            "positions": [
                1.9544675560725813,
                -1.4136279875854667,
                0.7255893502922994,
                -0.3159451507756296,
                0.6317640795992454,
                1.958857525305103
            ]
        },
        {
            "positions": [
                2.0157219206340704,
                -1.3773102854509132,
                0.8256355195529892,
                -0.3588926543649325,
                0.6707865837105307,
                2.0698599435754663
            ]
        },
        {
            "positions": [
                2.0769762851955593,
                -1.3409925833163596,
                0.9256816888136785,
                -0.4018401579542353,
                0.709809087821816,
                2.180862361845829
            ]
        },
        {
            "positions": [
                2.1382306497570482,
                -1.3046748811818065,
                1.0257278580743678,
                -0.44478766154353816,
                0.7488315919331012,
                2.291864780116192
            ]
        },
        {
            "positions": [
                2.1994850143185376,
                -1.268357179047253,
                1.1257740273350572,
                -0.48773516513284093,
                0.7878540960443865,
                2.4028671983865553
            ]
        },
        {
            "positions": [
                2.2607393788800265,
                -1.2320394769126994,
                1.225820196595747,
                -0.5306826687221438,
                0.8268766001556718,
                2.5138696166569185
            ]
        },
        {
            "positions": [
                2.3219937434415154,
                -1.1957217747781463,
                1.3258663658564362,
                -0.5736301723114465,
                0.865899104266957,
                2.6248720349272814
            ]
        },
        {
            "positions": [
                2.3832481080030044,
                -1.1594040726435928,
                1.4259125351171256,
                -0.6165776759007495,
                0.9049216083782423,
                2.735874453197644
            ]
        },
        {
            "positions": [
                2.4445024725644933,
                -1.1230863705090395,
                1.525958704377815,
                -0.6595251794900523,
                0.9439441124895276,
                2.846876871468007
            ]
        },
        {
            "positions": [
                2.5057568371259826,
                -1.0867686683744862,
                1.6260048736385047,
                -0.7024726830793553,
                0.9829666166008129,
                2.9578792897383703
            ]
        },
        {
            "positions": [
                2.5670112016874715,
                -1.0504509662399326,
                1.726051042899194,
                -0.7454201866686581,
                1.0219891207120981,
                3.068881708008733
            ]
        },
        {
            "positions": [
                2.6282655662489605,
                -1.0141332641053793,
                1.8260972121598833,
                -0.7883676902579608,
                1.0610116248233834,
                3.179884126279096
            ]
        }
    ]
}