{
    "goal": {
        "global_pose": {
            "orientation": {
                "w": 0.005598929693374612,
                "x": 0.007748599140229565,
                "y": 0.7110244013736278,
                "z": -0.7031023480610252
            },
            "position": {
                "x": 0.1141497679147869,
                "y": -0.7141253447532654,
                "z": 0.3711530566215515
            }
        },
        "name": "move_to_auspresseinheit_B"
    },
    "id": "SBL_move_to_auspresseinheit_B_98",
    "joint_names": [
        "shoulder_pan_joint",
        "shoulder_lift_joint",
        "elbow_joint",
        "wrist_1_joint",
        "wrist_2_joint",
        "wrist_3_joint"
    ],
    "metrics": {
        "cart_traj_len": 0.5650130814293192,
        "distance_elbow_joint": 0.06339312058066682,
        "distance_shoulder_lift_joint": 0.2945206420188504,
        "distance_shoulder_pan_joint": 0.5793126931612091,
        "distance_wrist_1_joint": 0.33090157031352885,
        "distance_wrist_2_joint": 0.9843474464483959,
        "distance_wrist_3_joint": 0.0031304164424126313,
        "smoothness": 5.075305255429287e-16,
        "time": 0.242683286,
        "traj_len": 1.5018674671771355,
        "weighted_distance": 1.8913264495088662
    },
    "planner": "SBL",
    "start": {
        "state": {
            "elbow_joint": 2.0193083361928714,
            "shoulder_lift_joint": -1.1220246554650708,
            "shoulder_pan_joint": -1.0952077554168747,
            "wrist_1_joint": -0.8559753972642168,
            "wrist_2_joint": 0.4759566250798843,
            "wrist_3_joint": -3.1240929996934557
        }
    },
    "waypoints": [
        {
            "positions": [
                -1.0952077554168747,
                -1.1220246554650708,
                2.0193083361928714,
                -0.8559753972642168,
                0.4759566250798843,
                -3.1240929996934557
            ]
        },
        {
            "positions": [
                -1.191759870943743,
                -1.1711114291348792,
                2.0087428160960936,
                -0.8008251355452953,
                0.6400145328212836,
                -3.1235712636197204
            ]
        },
        {
            "positions": [
                -1.288311986470611,
                -1.2201982028046876,
                1.9981772959993158,
                -0.7456748738263739,
                0.8040724405626829,
                -3.1230495275459846
            ]
        },
        {
            "positions": [
                -1.3848641019974792,
                -1.269284976474496,
                1.987611775902538,
                -0.6905246121074524,
                0.9681303483040822,
                -3.1225277914722493
            ]
        },
        {
            "positions": [
                -1.4814162175243473,
                -1.3183717501443044,
                1.9770462558057602,
                -0.635374350388531,
                1.1321882560454815,
                -3.122006055398514
            ]
        },
        {
            "positions": [
                -1.5779683330512158,
                -1.3674585238141128,
                1.9664807357089824,
                -0.5802240886696094,
                1.296246163786881,
                -3.1214843193247783
            ]
        },
        {
            "positions": [
                -1.6745204485780838,
                -1.4165452974839212,
                1.9559152156122046,
                -0.5250738269506879,
                1.4603040715282802,
                -3.120962583251043
            ]
        }
    ]
}