{
    "goal": {
        "global_pose": {
            "orientation": {
                "w": -0.00223480608172531,
                "x": 0.0024358444001904467,
                "y": 0.7094548369677653,
                "z": -0.704743149386269
            },
            "position": {
                "x": 0.6205249238014221,
                "y": -0.6371506643295288,
                "z": 0.19426114857196808
            }
        },
        "name": "move_to_magneteinheit_B"
    },
    "id": "SBL_move_to_magneteinheit_B_74",
    "joint_names": [
        "shoulder_pan_joint",
        "shoulder_lift_joint",
        "elbow_joint",
        "wrist_1_joint",
        "wrist_2_joint",
        "wrist_3_joint"
    ],
    "metrics": {
        "cart_traj_len": 3.0942772849292943,
        "distance_elbow_joint": 4.483060155397425,
        "distance_shoulder_lift_joint": 1.057914968857677,
        "distance_shoulder_pan_joint": 2.330984230686374,
        "distance_wrist_1_joint": 2.582031232783006,
        "distance_wrist_2_joint": 1.1781088843686325,
        "distance_wrist_3_joint": 0.15790965937082743,
        "smoothness": 0.37088951980199214,
        "time": 0.78643686,
        "traj_len": 3.4336582723771367,
        "weighted_distance": 3.983210836417932
    },
    "planner": "SBL",
    "start": {
        "state": {
            "elbow_joint": 2.6216224122426386,
            "shoulder_lift_joint": -1.4174107377796124,
            "shoulder_pan_joint": 0.7066234856936794,
            "wrist_1_joint": 1.9546482284002225,
            "wrist_2_joint": -0.7096286983471962,
            "wrist_3_joint": 0.005740856962016249
        }
    },
    "waypoints": [
        {
            "positions": [
                0.7066234856936794,
                -1.4174107377796124,
                2.6216224122426386,
                1.9546482284002225,
                -0.7096286983471962,
                0.005740856962016249
            ]
        },
        {
            "positions": [
                0.6594398836887988,
                -1.472965379937408,
                2.573170507137431,
                1.8227160849889925,
                -0.665980785235323,
                -0.010848917910177216
            ]
        },
        {
            "positions": [
                0.6122562816839183,
                -1.5285200220952035,
                2.524718602032223,
                1.6907839415777624,
                -0.6223328721234497,
                -0.027438692782370683
            ]
        },
        {
            "positions": [
                0.5650726796790377,
                -1.584074664252999,
                2.476266696927015,
                1.5588517981665322,
                -0.5786849590115763,
                -0.04402846765456415
            ]
        },
        {
            "positions": [
                0.5178890776741571,
                -1.6396293064107947,
                2.4278147918218074,
                1.4269196547553022,
                -0.5350370458997031,
                -0.06061824252675761
            ]
        },
        {
            "positions": [
                0.6190546825713976,
                -1.6532308816305734,
                2.223983556841608,
                1.3641352738279722,
                -0.5306950418192269,
                -0.05992180888095777
            ]
        },
        {
            "positions": [
                0.7202202874686381,
                -1.666832456850352,
                2.020152321861408,
                1.301350892900642,
                -0.5263530377387505,
                -0.059225375235157925
            ]
        },
        {
            "positions": [
                0.8213858923658786,
                -1.6804340320701308,
                1.816321086881209,
                1.238566511973312,
                -0.5220110336582743,
                -0.058528941589358084
            ]
        },
        {
            "positions": [
                0.922551497263119,
                -1.6940356072899094,
                1.6124898519010094,
                1.175782131045982,
                -0.517669029577798,
                -0.057832507943558244
            ]
        },
        {
            "positions": [
                1.0237171021603595,
                -1.707637182509688,
                1.40865861692081,
                1.1129977501186519,
                -0.5133270254973217,
                -0.057136074297758396
            ]
        },
        {
            "positions": [
                1.1248827070576,
                -1.7212387577294668,
                1.2048273819406106,
                1.0502133691913218,
                -0.5089850214168454,
                -0.056439640651958556
            ]
        },
        {
            "positions": [
                1.2260483119548404,
                -1.7348403329492454,
                1.0009961469604112,
                0.9874289882639918,
                -0.5046430173363692,
                -0.055743207006158715
            ]
        },
        {
            "positions": [
                1.327213916852081,
                -1.7484419081690241,
                0.7971649119802113,
                0.9246446073366618,
                -0.5003010132558928,
                -0.055046773360358875
            ]
        },
        {
            "positions": [
                1.4283795217493214,
                -1.7620434833888028,
                0.5933336770000119,
                0.8618602264093317,
                -0.4959590091754166,
                -0.05435033971455903
            ]
        },
        {
            "positions": [
                1.5295451266465618,
                -1.7756450586085815,
                0.38950244201981254,
                0.7990758454820016,
                -0.4916170050949403,
                -0.05365390606875919
            ]
        },
        {
            "positions": [
                1.6307107315438023,
                -1.78924663382836,
                0.1856712070396127,
                0.7362914645546715,
                -0.48727500101446397,
                -0.05295747242295935
            ]
        },
        {
            "positions": [
                1.7318763364410428,
                -1.8028482090481386,
                -0.018160027940586243,
                0.6735070836273415,
                -0.4829329969339877,
                -0.0522610387771595
            ]
        },
        {
            "positions": [
                1.8330419413382832,
                -1.8164497842679173,
                -0.22199126292078608,
                0.6107227027000114,
                -0.4785909928535114,
                -0.05156460513135966
            ]
        },
        {
            "positions": [
                1.9342075462355237,
                -1.830051359487696,
                -0.42582249790098503,
                0.5479383217726814,
                -0.4742489887730351,
                -0.05086817148555982
            ]
        },
        {
            "positions": [
                2.035373151132764,
                -1.8436529347074746,
                -0.6296537328811849,
                0.48515394084535135,
                -0.46990698469255887,
                -0.05017173783975998
            ]
        },
        {
            "positions": [
                2.1365387560300046,
                -1.8572545099272533,
                -0.8334849678613847,
                0.4223695599180213,
                -0.46556498061208257,
                -0.04947530419396013
            ]
        },
        {
            "positions": [
                2.2377043609272453,
                -1.870856085147032,
                -1.0373162028415837,
                0.3595851789906912,
                -0.46122297653160627,
                -0.04877887054816029
            ]
        },
        {
            "positions": [
                2.3388699658244856,
                -1.8844576603668106,
                -1.2411474378217835,
                0.2968007980633611,
                -0.45688097245112996,
                -0.04808243690236044
            ]
        },
        {
            "positions": [
                2.440035570721726,
                -1.8980592355865893,
                -1.4449786728019824,
                0.23401641713603105,
                -0.4525389683706537,
                -0.0473860032565606
            ]
        },
        {
            "positions": [
                2.5412011756189665,
                -1.911660810806368,
                -1.6488099077821818,
                0.17123203620870095,
                -0.4481969642901774,
                -0.04668956961076076
            ]
        },
        {
            "positions": [
                2.5481778898218703,
                -2.000791502087847,
                -1.672438755212735,
                0.2884116659139953,
                -0.3331258896136401,
                -0.04402052825071201
            ]
        },
        {
            "positions": [
                2.555154604024774,
                -2.089922193369326,
                -1.6960676026432884,
                0.40559129561928964,
                -0.21805481493710277,
                -0.04135148689066325
            ]
        },
        {
            "positions": [
                2.562131318227678,
                -2.179052884650805,
                -1.7196964500738416,
                0.5227709253245839,
                -0.10298374026056545,
                -0.0386824455306145
            ]
        },
        {
            "positions": [
                2.5691080324305817,
                -2.268183575932284,
                -1.743325297504395,
                0.6399505550298783,
                0.012087334415971873,
                -0.03601340417056574
            ]
        },
        {
            "positions": [
                2.5760847466334855,
                -2.3573142672137632,
                -1.7669541449349482,
                0.7571301847351727,
                0.12715840909250914,
                -0.03334436281051699
            ]
        },
        {
            "positions": [
                2.6041027978693267,
                -2.396651413688272,
                -1.7354596121950017,
                0.8280358154235103,
                0.2409323347354848,
                -0.01191880275524599
            ]
        },
        {
            "positions": [
                2.632120849105168,
                -2.4359885601627806,
                -1.703965079455055,
                0.8989414461118479,
                0.35470626037846054,
                0.00950675730002501
            ]
        },
        {
            "positions": [
                2.660138900341009,
                -2.4753257066372893,
                -1.6724705467151084,
                0.9698470768001856,
                0.4684801860214362,
                0.030932317355296012
            ]
        }
    ]
}