{
    "goal": {
        "global_pose": {
            "orientation": {
                "w": 0.005598929693374612,
                "x": 0.007748599140229565,
                "y": 0.7110244013736278,
                "z": -0.7031023480610252
            },
            "position": {
                "x": 0.1141497679147869,
                "y": -0.7141253447532654,
                "z": 0.3711530566215515
            }
        },
        "name": "move_to_auspresseinheit_B"
    },
    "id": "SBL_move_to_auspresseinheit_B_124",
    "joint_names": [
        "shoulder_pan_joint",
        "shoulder_lift_joint",
        "elbow_joint",
        "wrist_1_joint",
        "wrist_2_joint",
        "wrist_3_joint"
    ],
    "metrics": {
        "cart_traj_len": 0.5642931144222564,
        "distance_elbow_joint": 0.06438630857503869,
        "distance_shoulder_lift_joint": 0.2947253086766286,
        "distance_shoulder_pan_joint": 0.5773409791413566,
        "distance_wrist_1_joint": 0.3383790086511165,
        "distance_wrist_2_joint": 0.9922581925087204,
        "distance_wrist_3_joint": 0.005800757793879452,
        "smoothness": 7.612957943425664e-16,
        "time": 0.19370774699999999,
        "traj_len": 1.5076108766345315,
        "weighted_distance": 1.9013493293170343
    },
    "planner": "SBL",
    "start": {
        "state": {
            "elbow_joint": 2.0193083361928714,
            "shoulder_lift_joint": -1.1220246554650708,
            "shoulder_pan_joint": -1.0952077554168747,
            "wrist_1_joint": -0.8559753972642168,
            "wrist_2_joint": 0.4759566250798843,
            "wrist_3_joint": -3.1240929996934557
        }
    },
    "waypoints": [
        {
            "positions": [
                -1.0952077554168747,
                -1.1220246554650708,
                2.0193083361928714,
                -0.8559753972642168,
                0.4759566250798843,
                -3.1240929996934557
            ]
        },
        {
            "positions": [
                -1.191431251940434,
                -1.1711455402445088,
                2.0085772847636982,
                -0.7995788958223641,
                0.6413329904980043,
                -3.123126206727809
            ]
        },
        {
            "positions": [
                -1.2876547484639935,
                -1.220266425023947,
                1.9978462333345253,
                -0.7431823943805113,
                0.8067093559161245,
                -3.1221594137621627
            ]
        },
        {
            "positions": [
                -1.383878244987553,
                -1.2693873098033852,
                1.987115181905352,
                -0.6867858929386585,
                0.9720857213342444,
                -3.121192620796516
            ]
        },
        {
            "positions": [
                -1.4801017415111124,
                -1.3185081945828232,
                1.976384130476179,
                -0.6303893914968058,
                1.1374620867523646,
                -3.120225827830869
            ]
        },
        {
            "positions": [
                -1.5763252380346717,
                -1.3676290793622612,
                1.965653079047006,
                -0.573992890054953,
                1.3028384521704846,
                -3.1192590348652227
            ]
        },
        {
            "positions": [
                -1.6725487345582313,
                -1.4167499641416994,
                1.9549220276178327,
                -0.5175963886131003,
                1.4682148175886047,
                -3.118292241899576
            ]
        }
    ]
}