{
    "goal": {
        "global_pose": {
            "orientation": {
                "w": 0.7031023480610252,
                "x": -0.7110244013736278,
                "y": 0.0077485991402295624,
                "z": 0.005598929693374583
            },
            "position": {
                "x": -0.8841497679147869,
                "y": 0.44412534475326537,
                "z": 0.3711530566215515
            }
        },
        "name": "move_to_auspresseinheit_D"
    },
    "id": "SBL_move_to_auspresseinheit_D_33",
    "joint_names": [
        "shoulder_pan_joint",
        "shoulder_lift_joint",
        "elbow_joint",
        "wrist_1_joint",
        "wrist_2_joint",
        "wrist_3_joint"
    ],
    "metrics": {
        "cart_traj_len": 0.3434114278515037,
        "distance_elbow_joint": 0.6601508734509258,
        "distance_shoulder_lift_joint": 0.13387135068273626,
        "distance_shoulder_pan_joint": 0.13305312763428867,
        "distance_wrist_1_joint": 0.60404656889704,
        "distance_wrist_2_joint": 1.4388501613524907,
        "distance_wrist_3_joint": 0.06655888220081163,
        "smoothness": 0.0,
        "time": 0.339074894,
        "traj_len": 1.7425644792139812,
        "weighted_distance": 2.283099966902336
    },
    "planner": "SBL",
    "start": {
        "state": {
            "elbow_joint": -1.8275523626775212,
            "shoulder_lift_joint": -2.126789852344167,
            "shoulder_pan_joint": -0.03513704404078235,
            "wrist_1_joint": -2.347782403156801,
            "wrist_2_joint": -1.6058999987535132,
            "wrist_3_joint": -3.0880379163319196
        }
    },
    "waypoints": [
        {
            "positions": [
                -0.03513704404078235,
                -2.126789852344167,
                -1.8275523626775212,
                -2.347782403156801,
                -1.6058999987535132,
                -3.0880379163319196
            ]
        },
        {
            "positions": [
                -0.05176868499506843,
                -2.1435237711795088,
                -1.7450335034961555,
                -2.423288224268931,
                -1.4260437285844518,
                -3.079718056056818
            ]
        },
        {
            "positions": [
                -0.06840032594935452,
                -2.160257690014851,
                -1.6625146443147898,
                -2.498794045381061,
                -1.2461874584153905,
                -3.0713981957817165
            ]
        },
        {
            "positions": [
                -0.0850319669036406,
                -2.176991608850193,
                -1.579995785133424,
                -2.574299866493191,
                -1.066331188246329,
                -3.0630783355066153
            ]
        },
        {
            "positions": [
                -0.10166360785792669,
                -2.193725527685535,
                -1.4974769259520584,
                -2.649805687605321,
                -0.8864749180772679,
                -3.054758475231514
            ]
        },
        {
            "positions": [
                -0.11829524881221276,
                -2.210459446520877,
                -1.4149580667706925,
                -2.725311508717451,
                -0.7066186479082065,
                -3.046438614956412
            ]
        },
        {
            "positions": [
                -0.13492688976649886,
                -2.227193365356219,
                -1.3324392075893268,
                -2.800817329829581,
                -0.5267623777391452,
                -3.038118754681311
            ]
        },
        {
            "positions": [
                -0.15155853072078493,
                -2.243927284191561,
                -1.249920348407961,
                -2.876323150941711,
                -0.3469061075700839,
                -3.0297988944062095
            ]
        },
        {
            "positions": [
                -0.16819017167507103,
                -2.260661203026903,
                -1.1674014892265954,
                -2.951828972053841,
                -0.16704983740102253,
                -3.021479034131108
            ]
        }
    ]
}