{
    "goal": {
        "global_pose": {
            "orientation": {
                "w": -0.4816463035849501,
                "x": 0.5182115481033762,
                "y": 0.4908360881923453,
                "z": -0.5084816262002911
            },
            "position": {
                "x": -0.8240239810943604,
                "y": -0.300875300988555,
                "z": 0.16403168439865112
            }
        },
        "name": "move_to_storage_C"
    },
    "id": "SBL_move_to_storage_C_9",
    "joint_names": [
        "shoulder_pan_joint",
        "shoulder_lift_joint",
        "elbow_joint",
        "wrist_1_joint",
        "wrist_2_joint",
        "wrist_3_joint"
    ],
    "metrics": {
        "cart_traj_len": 0.5774610932556041,
        "distance_elbow_joint": 0.26084438641635366,
        "distance_shoulder_lift_joint": 0.19031873721429016,
        "distance_shoulder_pan_joint": 0.49547448208974787,
        "distance_wrist_1_joint": 0.0841827851202217,
        "distance_wrist_2_joint": 1.064135476010326,
        "distance_wrist_3_joint": 0.06554760715697716,
        "smoothness": 0.0,
        "time": 0.6528636250000001,
        "traj_len": 1.4698651210257072,
        "weighted_distance": 1.854701310036853
    },
    "planner": "SBL",
    "start": {
        "state": {
            "elbow_joint": 2.010868314990456,
            "shoulder_lift_joint": -1.1634956873337592,
            "shoulder_pan_joint": -2.4736205022346125,
            "wrist_1_joint": -0.8367026794202681,
            "wrist_2_joint": 0.6746043897044499,
            "wrist_3_joint": -3.1496632123970403
        }
    },
    "waypoints": [
        {
            "positions": [
                -2.4736205022346125,
                -1.1634956873337592,
                2.010868314990456,
                -0.8367026794202681,
                0.6746043897044499,
                -3.1496632123970403
            ]
        },
        {
            "positions": [
                -2.556199582582904,
                -1.131775897798044,
                1.9673942505877302,
                -0.8226722152335645,
                0.8519603023728376,
                -3.138738611204211
            ]
        },
        {
            "positions": [
                -2.638778662931195,
                -1.1000561082623292,
                1.9239201861850046,
                -0.8086417510468609,
                1.0293162150412254,
                -3.1278140100113814
            ]
        },
        {
            "positions": [
                -2.721357743279486,
                -1.0683363187266142,
                1.880446121782279,
                -0.7946112868601573,
                1.2066721277096129,
                -3.116889408818552
            ]
        },
        {
            "positions": [
                -2.8039368236277777,
                -1.036616529190899,
                1.8369720573795534,
                -0.7805808226734536,
                1.3840280403780008,
                -3.105964807625722
            ]
        },
        {
            "positions": [
                -2.8865159039760693,
                -1.004896739655184,
                1.7934979929768278,
                -0.76655035848675,
                1.5613839530463882,
                -3.0950402064328926
            ]
        },
        {
            "positions": [
                -2.9690949843243604,
                -0.973176950119469,
                1.7500239285741022,
                -0.7525198943000464,
                1.738739865714776,
                -3.084115605240063
            ]
        }
    ]
}