{
    "goal": {
        "global_pose": {
            "orientation": {
                "w": -0.4816463035849501,
                "x": 0.5182115481033762,
                "y": 0.4908360881923453,
                "z": -0.5084816262002911
            },
            "position": {
                "x": -0.8240239810943604,
                "y": 0.19912469901144506,
                "z": 0.16403168439865112
            }
        },
        "name": "move_to_storage_D"
    },
    "id": "SBL_move_to_storage_D_86",
    "joint_names": [
        "shoulder_pan_joint",
        "shoulder_lift_joint",
        "elbow_joint",
        "wrist_1_joint",
        "wrist_2_joint",
        "wrist_3_joint"
    ],
    "metrics": {
        "cart_traj_len": 3.5848862388402654,
        "distance_elbow_joint": 4.68476239241263,
        "distance_shoulder_lift_joint": 1.2653151407445509,
        "distance_shoulder_pan_joint": 3.0949955873380115,
        "distance_wrist_1_joint": 3.8564148382533654,
        "distance_wrist_2_joint": 2.153954036082687,
        "distance_wrist_3_joint": 4.272661013001775,
        "smoothness": 0.4916757639811291,
        "time": 0.209599004,
        "traj_len": 4.396373847596792,
        "weighted_distance": 5.82097877578785
    },
    "planner": "SBL",
    "start": {
        "state": {
            "elbow_joint": -2.384821988534728,
            "shoulder_lift_joint": -2.2788054721415256,
            "shoulder_pan_joint": -0.1854694642142757,
            "wrist_1_joint": 1.4845938289331202,
            "wrist_2_joint": 0.17898776772866878,
            "wrist_3_joint": 0.037105688729662994
        }
    },
    "waypoints": [
        {
            "positions": [
                -0.1854694642142757,
                -2.2788054721415256,
                -2.384821988534728,
                1.4845938289331202,
                0.17898776772866878,
                0.037105688729662994
            ]
        },
        {
            "positions": [
                -0.25556867954974677,
                -2.278455628310676,
                -2.5023659459815732,
                1.4717332067320366,
                0.18947404769186454,
                -0.1191351643106088
            ]
        },
        {
            "positions": [
                -0.32566789488521786,
                -2.2781057844798265,
                -2.6199099034284186,
                1.458872584530953,
                0.19996032765506033,
                -0.2753760173508806
            ]
        },
        {
            "positions": [
                -0.20020830800920075,
                -2.209922361716836,
                -2.5697837127944396,
                1.5301378327386843,
                0.14247724994065286,
                -0.29812687035494073
            ]
        },
        {
            "positions": [
                -0.07474872113318365,
                -2.141738938953846,
                -2.5196575221604602,
                1.6014030809464157,
                0.08499417222624538,
                -0.3208777233590009
            ]
        },
        {
            "positions": [
                0.0507108657428334,
                -2.073555516190856,
                -2.4695313315264813,
                1.6726683291541469,
                0.02751109451183792,
                -0.34362857636306104
            ]
        },
        {
            "positions": [
                0.17617045261885056,
                -2.005372093427866,
                -2.4194051408925024,
                1.7439335773618783,
                -0.02997198320256958,
                -0.3663794293671212
            ]
        },
        {
            "positions": [
                0.30163003949486766,
                -1.9371886706648755,
                -2.369278950258523,
                1.8151988255696097,
                -0.08745506091697702,
                -0.3891302823711813
            ]
        },
        {
            "positions": [
                0.42708962637088466,
                -1.8690052479018855,
                -2.319152759624544,
                1.8864640737773408,
                -0.1449381386313845,
                -0.4118811353752415
            ]
        },
        {
            "positions": [
                0.5525492132469019,
                -1.8008218251388952,
                -2.269026568990565,
                1.9577293219850722,
                -0.20242121634579202,
                -0.4346319883793016
            ]
        },
        {
            "positions": [
                0.678008800122919,
                -1.7326384023759052,
                -2.2189003783565857,
                2.0289945701928036,
                -0.2599042940601995,
                -0.4573828413833618
            ]
        },
        {
            "positions": [
                0.8034683869989361,
                -1.6644549796129149,
                -2.1687741877226068,
                2.1002598184005348,
                -0.31738737177460696,
                -0.4801336943874219
            ]
        },
        {
            "positions": [
                0.9289279738749532,
                -1.5962715568499246,
                -2.118647997088628,
                2.1715250666082664,
                -0.3748704494890144,
                -0.502884547391482
            ]
        },
        {
            "positions": [
                1.0543875607509703,
                -1.5280881340869346,
                -2.0685218064546484,
                2.2427903148159976,
                -0.4323535272034219,
                -0.5256354003955422
            ]
        },
        {
            "positions": [
                1.0981303857796059,
                -1.5137937506788801,
                -1.960236073661727,
                2.15815765193916,
                -0.39066831550070485,
                -0.4225820691767487
            ]
        },
        {
            "positions": [
                1.1418732108082414,
                -1.4994993672708257,
                -1.8519503408688058,
                2.073524989062322,
                -0.3489831037979878,
                -0.31952873795795506
            ]
        },
        {
            "positions": [
                1.185616035836877,
                -1.4852049838627712,
                -1.7436646080758844,
                1.9888923261854847,
                -0.3072978920952708,
                -0.21647540673916144
            ]
        },
        {
            "positions": [
                1.2293588608655126,
                -1.4709106004547168,
                -1.6353788752829632,
                1.9042596633086473,
                -0.2656126803925537,
                -0.11342207552036787
            ]
        },
        {
            "positions": [
                1.2731016858941484,
                -1.4566162170466623,
                -1.5270931424900418,
                1.8196270004318096,
                -0.22392746868983668,
                -0.010368744301574195
            ]
        },
        {
            "positions": [
                1.3168445109227838,
                -1.4423218336386079,
                -1.4188074096971204,
                1.734994337554972,
                -0.18224225698711966,
                0.09268458691721937
            ]
        },
        {
            "positions": [
                1.3605873359514196,
                -1.4280274502305534,
                -1.310521676904199,
                1.6503616746781344,
                -0.1405570452844026,
                0.19573791813601293
            ]
        },
        {
            "positions": [
                1.4043301609800551,
                -1.413733066822499,
                -1.2022359441112778,
                1.565729011801297,
                -0.09887183358168555,
                0.2987912493548065
            ]
        },
        {
            "positions": [
                1.4480729860086907,
                -1.3994386834144446,
                -1.0939502113183563,
                1.481096348924459,
                -0.0571866218789685,
                0.4018445805736002
            ]
        },
        {
            "positions": [
                1.4918158110373263,
                -1.38514430000639,
                -0.9856644785254349,
                1.3964636860476216,
                -0.015501410176251451,
                0.5048979117923938
            ]
        },
        {
            "positions": [
                1.535558636065962,
                -1.3708499165983357,
                -0.8773787457325135,
                1.311831023170784,
                0.0261838015264656,
                0.6079512430111874
            ]
        },
        {
            "positions": [
                1.5793014610945975,
                -1.3565555331902812,
                -0.7690930129395923,
                1.2271983602939465,
                0.0678690132291826,
                0.711004574229981
            ]
        },
        {
            "positions": [
                1.6230442861232333,
                -1.3422611497822268,
                -0.6608072801466709,
                1.1425656974171088,
                0.1095542249318997,
                0.8140579054487745
            ]
        },
        {
            "positions": [
                1.6667871111518688,
                -1.3279667663741723,
                -0.5525215473537497,
                1.057933034540271,
                0.1512394366346167,
                0.9171112366675681
            ]
        },
        {
            "positions": [
                1.7105299361805044,
                -1.3136723829661179,
                -0.4442358145608283,
                0.9733003716634336,
                0.1929246483373338,
                1.0201645678863618
            ]
        },
        {
            "positions": [
                1.75427276120914,
                -1.2993779995580637,
                -0.3359500817679071,
                0.8886677087865962,
                0.2346098600400508,
                1.1232178991051551
            ]
        },
        {
            "positions": [
                1.7980155862377756,
                -1.285083616150009,
                -0.22766434897498566,
                0.8040350459097585,
                0.2762950717427678,
                1.226271230323949
            ]
        },
        {
            "positions": [
                1.8417584112664112,
                -1.2707892327419548,
                -0.11937861618206425,
                0.7194023830329208,
                0.3179802834454849,
                1.3293245615427427
            ]
        },
        {
            "positions": [
                1.8855012362950467,
                -1.2564948493339,
                -0.011092883389142827,
                0.6347697201560831,
                0.359665495148202,
                1.432377892761536
            ]
        },
        {
            "positions": [
                1.9292440613236823,
                -1.2422004659258459,
                0.09719284940377859,
                0.5501370572792454,
                0.401350706850919,
                1.5354312239803298
            ]
        },
        {
            "positions": [
                1.972986886352318,
                -1.2279060825177912,
                0.2054785821967,
                0.465504394402408,
                0.4430359185536361,
                1.6384845551991236
            ]
        },
        {
            "positions": [
                2.016729711380954,
                -1.213611699109737,
                0.31376431498962143,
                0.3808717315255703,
                0.4847211302563531,
                1.741537886417917
            ]
        },
        {
            "positions": [
                2.060472536409589,
                -1.1993173157016825,
                0.4220500477825424,
                0.29623906864873306,
                0.5264063419590701,
                1.8445912176367103
            ]
        },
        {
            "positions": [
                2.1042153614382246,
                -1.185022932293628,
                0.5303357805754638,
                0.21160640577189538,
                0.5680915536617871,
                1.947644548855504
            ]
        },
        {
            "positions": [
                2.1479581864668607,
                -1.1707285488855736,
                0.6386215133683852,
                0.12697374289505792,
                0.6097767653645042,
                2.0506978800742974
            ]
        },
        {
            "positions": [
                2.1917010114954962,
                -1.1564341654775192,
                0.7469072461613067,
                0.04234108001822001,
                0.6514619770672213,
                2.153751211293091
            ]
        },
        {
            "positions": [
                2.235443836524132,
                -1.1421397820694648,
                0.8551929789542276,
                -0.04229158285861745,
                0.6931471887699384,
                2.256804542511885
            ]
        },
        {
            "positions": [
                2.2791866615527674,
                -1.1278453986614103,
                0.963478711747149,
                -0.12692424573545535,
                0.7348324004726553,
                2.3598578737306783
            ]
        },
        {
            "positions": [
                2.322929486581403,
                -1.1135510152533559,
                1.0717644445400705,
                -0.21155690861229282,
                0.7765176121753724,
                2.462911204949472
            ]
        },
        {
            "positions": [
                2.3666723116100385,
                -1.0992566318453014,
                1.180050177332992,
                -0.2961895714891303,
                0.8182028238780895,
                2.565964536168266
            ]
        },
        {
            "positions": [
                2.410415136638674,
                -1.084962248437247,
                1.2883359101259133,
                -0.3808222343659682,
                0.8598880355808066,
                2.6690178673870593
            ]
        },
        {
            "positions": [
                2.4541579616673097,
                -1.0706678650291925,
                1.3966216429188343,
                -0.4654548972428052,
                0.9015732472835235,
                2.7720711986058526
            ]
        },
        {
            "positions": [
                2.4979007866959453,
                -1.056373481621138,
                1.5049073757117557,
                -0.5500875601196431,
                0.9432584589862406,
                2.8751245298246464
            ]
        },
        {
            "positions": [
                2.541643611724581,
                -1.0420790982130836,
                1.6131931085046771,
                -0.6347202229964806,
                0.9849436706889575,
                2.97817786104344
            ]
        },
        {
            "positions": [
                2.5853864367532164,
                -1.0277847148050292,
                1.7214788412975985,
                -0.7193528858733185,
                1.0266288823916745,
                3.0812311922622335
            ]
        },
        {
            "positions": [
                2.629129261781852,
                -1.0134903313969748,
                1.8297645740905202,
                -0.8039855487501559,
                1.0683140940943918,
                3.1842845234810273
            ]
        }
    ]
}