{
    "goal": {
        "global_pose": {
            "orientation": {
                "w": 0.7031023502349854,
                "x": -0.7110244035720825,
                "y": 0.007748599164187908,
                "z": 0.005598929710686207
            },
            "position": {
                "x": 0.11585023208521307,
                "y": 0.44412534475326537,
                "z": 0.3711530566215515
            }
        },
        "name": "move_to_auspresseinheit_A"
    },
    "id": "SBL_move_to_auspresseinheit_A_75",
    "joint_names": [
        "shoulder_pan_joint",
        "shoulder_lift_joint",
        "elbow_joint",
        "wrist_1_joint",
        "wrist_2_joint",
        "wrist_3_joint"
    ],
    "metrics": {
        "cart_traj_len": 2.5303872164374477,
        "distance_elbow_joint": 3.14178140773193,
        "distance_shoulder_lift_joint": 0.9864341434438506,
        "distance_shoulder_pan_joint": 2.0511750140937774,
        "distance_wrist_1_joint": 0.5632452124993556,
        "distance_wrist_2_joint": 0.947260430612267,
        "distance_wrist_3_joint": 1.7295898183662008,
        "smoothness": 0.906752465373072,
        "time": 0.33122255300000003,
        "traj_len": 3.0691181187349867,
        "weighted_distance": 3.793306118228715
    },
    "planner": "SBL",
    "start": {
        "state": {
            "elbow_joint": 2.4225746658250005,
            "shoulder_lift_joint": -1.3736534386056498,
            "shoulder_pan_joint": -0.3378633547517467,
            "wrist_1_joint": -1.0288598680537169,
            "wrist_2_joint": 1.233022673432363,
            "wrist_3_joint": -3.0940220416140027
        }
    },
    "waypoints": [
        {
            "positions": [
                -0.3378633547517467,
                -1.3736534386056498,
                2.4225746658250005,
                -1.0288598680537169,
                1.233022673432363,
                -3.0940220416140027
            ]
        },
        {
            "positions": [
                -0.2900805612828307,
                -1.3793523385212902,
                2.2641746725152014,
                -1.0046966576106515,
                1.1621538803295475,
                -3.0090057104037937
            ]
        },
        {
            "positions": [
                -0.2422977678139147,
                -1.3850512384369307,
                2.1057746792054024,
                -0.9805334471675861,
                1.091285087226732,
                -2.923989379193585
            ]
        },
        {
            "positions": [
                -0.1945149743449987,
                -1.390750138352571,
                1.9473746858956038,
                -0.9563702367245206,
                1.0204162941239163,
                -2.838973047983376
            ]
        },
        {
            "positions": [
                -0.1467321808760827,
                -1.3964490382682115,
                1.7889746925858048,
                -0.9322070262814551,
                0.9495475010211006,
                -2.7539567167731676
            ]
        },
        {
            "positions": [
                -0.09894938740716669,
                -1.4021479381838517,
                1.6305746992760057,
                -0.9080438158383897,
                0.8786787079182851,
                -2.6689403855629585
            ]
        },
        {
            "positions": [
                -0.05116659393825068,
                -1.4078468380994922,
                1.472174705966207,
                -0.8838806053953243,
                0.8078099148154695,
                -2.5839240543527495
            ]
        },
        {
            "positions": [
                -0.0033838004693346746,
                -1.4135457380151326,
                1.313774712656408,
                -0.8597173949522589,
                0.7369411217126539,
                -2.498907723142541
            ]
        },
        {
            "positions": [
                0.04439899299958133,
                -1.419244637930773,
                1.155374719346609,
                -0.8355541845091934,
                0.6660723286098382,
                -2.413891391932332
            ]
        },
        {
            "positions": [
                0.09218178646849734,
                -1.4249435378464135,
                0.99697472603681,
                -0.811390974066128,
                0.5952035355070227,
                -2.3288750607221234
            ]
        },
        {
            "positions": [
                0.13996457993741335,
                -1.430642437762054,
                0.8385747327270112,
                -0.7872277636230626,
                0.5243347424042071,
                -2.2438587295119143
            ]
        },
        {
            "positions": [
                0.24704270420969054,
                -1.5011741067434605,
                0.9848079200860823,
                -0.7618421855467461,
                0.5429007000050763,
                -2.2457391267152684
            ]
        },
        {
            "positions": [
                0.3541208284819678,
                -1.5717057757248671,
                1.1310411074451534,
                -0.7364566074704295,
                0.5614666576059455,
                -2.2476195239186225
            ]
        },
        {
            "positions": [
                0.46119895275424494,
                -1.642237444706274,
                1.2772742948042244,
                -0.711071029394113,
                0.5800326152068146,
                -2.249499921121976
            ]
        },
        {
            "positions": [
                0.5682770770265222,
                -1.7127691136876806,
                1.4235074821632954,
                -0.6856854513177966,
                0.5985985728076838,
                -2.2513803183253303
            ]
        },
        {
            "positions": [
                0.6753552012987993,
                -1.7833007826690872,
                1.5697406695223663,
                -0.66029987324148,
                0.617164530408553,
                -2.2532607155286843
            ]
        },
        {
            "positions": [
                0.7824333255710765,
                -1.8538324516504938,
                1.7159738568814373,
                -0.6349142951651635,
                0.6357304880094222,
                -2.2551411127320384
            ]
        },
        {
            "positions": [
                0.8895114498433538,
                -1.9243641206319004,
                1.8622070442405085,
                -0.609528717088847,
                0.6542964456102913,
                -2.2570215099353925
            ]
        },
        {
            "positions": [
                0.996589574115631,
                -1.9948957896133073,
                2.0084402315995797,
                -0.5841431390125305,
                0.6728624032111605,
                -2.258901907138746
            ]
        },
        {
            "positions": [
                1.1036676983879083,
                -2.065427458594714,
                2.1546734189586507,
                -0.558757560936214,
                0.6914283608120297,
                -2.2607823043421003
            ]
        },
        {
            "positions": [
                1.2107458226601855,
                -2.1359591275761205,
                2.3009066063177217,
                -0.5333719828598975,
                0.709994318412899,
                -2.2626627015454543
            ]
        },
        {
            "positions": [
                1.1526811156868995,
                -2.118727846892406,
                2.3484984166949197,
                -0.535564094581608,
                0.7254172137313554,
                -2.3872499390368898
            ]
        },
        {
            "positions": [
                1.0946164087136134,
                -2.1014965662086915,
                2.3960902270721176,
                -0.5377562063033186,
                0.7408401090498118,
                -2.5118371765283247
            ]
        },
        {
            "positions": [
                0.9980073030297951,
                -2.0540800929322036,
                2.396023731999909,
                -0.5219129303377897,
                0.7353233258151852,
                -2.66469919134025
            ]
        },
        {
            "positions": [
                0.9013981973459769,
                -2.006663619655716,
                2.3959572369277002,
                -0.5060696543722609,
                0.7298065425805587,
                -2.8175612061521758
            ]
        },
        {
            "positions": [
                0.8047890916621587,
                -1.9592471463792283,
                2.3958907418554913,
                -0.4902263784067322,
                0.7242897593459321,
                -2.9704232209641015
            ]
        },
        {
            "positions": [
                0.7081799859783404,
                -1.9118306731027406,
                2.395824246783283,
                -0.4743831024412034,
                0.7187729761113055,
                -3.123285235776027
            ]
        }
    ]
}