{
    "goal": {
        "global_pose": {
            "orientation": {
                "w": 0.5084816217422485,
                "x": -0.49083608388900757,
                "y": 0.5182115435600281,
                "z": -0.4816462993621826
            },
            "position": {
                "x": 0.5540239810943604,
                "y": 0.030875300988554955,
                "z": 0.16403168439865112
            }
        },
        "name": "move_to_storage_A"
    },
    "id": "SBL_move_to_storage_A_145",
    "joint_names": [
        "shoulder_pan_joint",
        "shoulder_lift_joint",
        "elbow_joint",
        "wrist_1_joint",
        "wrist_2_joint",
        "wrist_3_joint"
    ],
    "metrics": {
        "cart_traj_len": 0.35301977616987434,
        "distance_elbow_joint": 0.44944013514055303,
        "distance_shoulder_lift_joint": 0.23450689040415806,
        "distance_shoulder_pan_joint": 0.46116895592162566,
        "distance_wrist_1_joint": 0.2413836865838419,
        "distance_wrist_2_joint": 1.1005795977080342,
        "distance_wrist_3_joint": 0.10227567745922661,
        "smoothness": 0.0,
        "time": 0.254647376,
        "traj_len": 1.6091472720722113,
        "weighted_distance": 2.033683746905543
    },
    "planner": "SBL",
    "start": {
        "state": {
            "elbow_joint": 1.9715481507254546,
            "shoulder_lift_joint": -1.1394850672790213,
            "shoulder_pan_joint": 0.12281154597544902,
            "wrist_1_joint": -0.7804720171073349,
            "wrist_2_joint": 0.12958658322886563,
            "wrist_3_joint": -3.1924895760937617
        }
    },
    "waypoints": [
        {
            "positions": [
                0.12281154597544902,
                -1.1394850672790213,
                1.9715481507254546,
                -0.7804720171073349,
                0.12958658322886563,
                -3.1924895760937617
            ]
        },
        {
            "positions": [
                0.05693026655807393,
                -1.1729860516224724,
                2.035753884316962,
                -0.8149554009050266,
                0.28681224004429906,
                -3.177878765028158
            ]
        },
        {
            "positions": [
                -0.008951012859301166,
                -1.2064870359659237,
                2.09995961790847,
                -0.8494387847027183,
                0.4440378968597325,
                -3.163267953962554
            ]
        },
        {
            "positions": [
                -0.07483229227667626,
                -1.2399880203093747,
                2.1641653514999772,
                -0.88392216850041,
                0.6012635536751659,
                -3.1486571428969503
            ]
        },
        {
            "positions": [
                -0.14071357169405135,
                -1.273489004652826,
                2.228371085091485,
                -0.9184055522981017,
                0.7584892104905994,
                -3.1340463318313465
            ]
        },
        {
            "positions": [
                -0.20659485111142645,
                -1.306989988996277,
                2.2925768186829925,
                -0.9528889360957935,
                0.9157148673060329,
                -3.1194355207657427
            ]
        },
        {
            "positions": [
                -0.27247613052880154,
                -1.3404909733397283,
                2.3567825522745,
                -0.9873723198934852,
                1.0729405241214662,
                -3.104824709700139
            ]
        },
        {
            "positions": [
                -0.33835740994617663,
                -1.3739919576831794,
                2.4209882858660077,
                -1.0218557036911768,
                1.2301661809368998,
                -3.090213898634535
            ]
        }
    ]
}