{
    "goal": {
        "global_pose": {
            "orientation": {
                "w": -0.4816463035849501,
                "x": 0.5182115481033762,
                "y": 0.4908360881923453,
                "z": -0.5084816262002911
            },
            "position": {
                "x": -0.8240239810943604,
                "y": -0.300875300988555,
                "z": 0.16403168439865112
            }
        },
        "name": "move_to_storage_C"
    },
    "id": "SBL_move_to_storage_C_5",
    "joint_names": [
        "shoulder_pan_joint",
        "shoulder_lift_joint",
        "elbow_joint",
        "wrist_1_joint",
        "wrist_2_joint",
        "wrist_3_joint"
    ],
    "metrics": {
        "cart_traj_len": 0.5761160529111481,
        "distance_elbow_joint": 0.25617711433437296,
        "distance_shoulder_lift_joint": 0.18931893136941036,
        "distance_shoulder_pan_joint": 0.4937515159504784,
        "distance_wrist_1_joint": 0.06710787411972974,
        "distance_wrist_2_joint": 1.0675119701199143,
        "distance_wrist_3_joint": 0.0724047829387433,
        "smoothness": 2.5376526478085547e-16,
        "time": 0.438561136,
        "traj_len": 1.4650161053151085,
        "weighted_distance": 1.8508650947461782
    },
    "planner": "SBL",
    "start": {
        "state": {
            "elbow_joint": 2.010868314990456,
            "shoulder_lift_joint": -1.1634956873337592,
            "shoulder_pan_joint": -2.4736205022346125,
            "wrist_1_joint": -0.8367026794202681,
            "wrist_2_joint": 0.6746043897044499,
            "wrist_3_joint": -3.1496632123970403
        }
    },
    "waypoints": [
        {
            "positions": [
                -2.4736205022346125,
                -1.1634956873337592,
                2.010868314990456,
                -0.8367026794202681,
                0.6746043897044499,
                -3.1496632123970403
            ]
        },
        {
            "positions": [
                -2.5559124215596922,
                -1.131942532105524,
                1.9681721292680603,
                -0.8255180337336465,
                0.8525230513911023,
                -3.1375957485739163
            ]
        },
        {
            "positions": [
                -2.638204340884772,
                -1.100389376877289,
                1.9254759435456648,
                -0.8143333880470248,
                1.0304417130777548,
                -3.1255282847507924
            ]
        },
        {
            "positions": [
                -2.7204962602098517,
                -1.068836221649054,
                1.8827797578232692,
                -0.8031487423604032,
                1.208360374764407,
                -3.113460820927669
            ]
        },
        {
            "positions": [
                -2.8027881795349314,
                -1.037283066420819,
                1.840083572100874,
                -0.7919640966737816,
                1.3862790364510595,
                -3.101393357104545
            ]
        },
        {
            "positions": [
                -2.885080098860011,
                -1.005729911192584,
                1.7973873863784784,
                -0.78077945098716,
                1.5641976981377117,
                -3.089325893281421
            ]
        },
        {
            "positions": [
                -2.967372018185091,
                -0.9741767559643488,
                1.7546912006560829,
                -0.7695948053005384,
                1.742116359824364,
                -3.077258429458297
            ]
        }
    ]
}