{
    "goal": {
        "global_pose": {
            "orientation": {
                "w": 0.005598929693374612,
                "x": 0.007748599140229565,
                "y": 0.7110244013736278,
                "z": -0.7031023480610252
            },
            "position": {
                "x": 0.1141497679147869,
                "y": -0.7141253447532654,
                "z": 0.3711530566215515
            }
        },
        "name": "move_to_auspresseinheit_B"
    },
    "id": "SBL_move_to_auspresseinheit_B_117",
    "joint_names": [
        "shoulder_pan_joint",
        "shoulder_lift_joint",
        "elbow_joint",
        "wrist_1_joint",
        "wrist_2_joint",
        "wrist_3_joint"
    ],
    "metrics": {
        "cart_traj_len": 0.5656001772100032,
        "distance_elbow_joint": 0.06589498792030657,
        "distance_shoulder_lift_joint": 0.29438455769400496,
        "distance_shoulder_pan_joint": 0.579145807691662,
        "distance_wrist_1_joint": 0.33697266961619576,
        "distance_wrist_2_joint": 0.9860442926549151,
        "distance_wrist_3_joint": 0.008869152848802297,
        "smoothness": 2.5376526478085547e-16,
        "time": 0.1215483,
        "traj_len": 1.5070870805716194,
        "weighted_distance": 1.9005438001778865
    },
    "planner": "SBL",
    "start": {
        "state": {
            "elbow_joint": 2.0193083361928714,
            "shoulder_lift_joint": -1.1220246554650708,
            "shoulder_pan_joint": -1.0952077554168747,
            "wrist_1_joint": -0.8559753972642168,
            "wrist_2_joint": 0.4759566250798843,
            "wrist_3_joint": -3.1240929996934557
        }
    },
    "waypoints": [
        {
            "positions": [
                -1.0952077554168747,
                -1.1220246554650708,
                2.0193083361928714,
                -0.8559753972642168,
                0.4759566250798843,
                -3.1240929996934557
            ]
        },
        {
            "positions": [
                -1.1917320566988183,
                -1.1710887484140717,
                2.0083258382061535,
                -0.7998132856615174,
                0.6402973405223702,
                -3.1226148075519884
            ]
        },
        {
            "positions": [
                -1.288256357980762,
                -1.2201528413630724,
                1.9973433402194358,
                -0.7436511740588182,
                0.804638055964856,
                -3.1211366154105216
            ]
        },
        {
            "positions": [
                -1.3847806592627057,
                -1.2692169343120732,
                1.9863608422327181,
                -0.687489062456119,
                0.9689787714073419,
                -3.1196584232690547
            ]
        },
        {
            "positions": [
                -1.4813049605446493,
                -1.318281027261074,
                1.9753783442460005,
                -0.6313269508534196,
                1.1333194868498278,
                -3.1181802311275875
            ]
        },
        {
            "positions": [
                -1.577829261826593,
                -1.367345120210075,
                1.9643958462592825,
                -0.5751648392507203,
                1.2976602022923136,
                -3.11670203898612
            ]
        },
        {
            "positions": [
                -1.6743535631085367,
                -1.4164092131590758,
                1.9534133482725649,
                -0.519002727648021,
                1.4620009177347995,
                -3.1152238468446534
            ]
        }
    ]
}