{
    "goal": {
        "global_pose": {
            "orientation": {
                "w": 0.5084816217422485,
                "x": -0.49083608388900757,
                "y": 0.5182115435600281,
                "z": -0.4816462993621826
            },
            "position": {
                "x": 0.5540239810943604,
                "y": 0.030875300988554955,
                "z": 0.16403168439865112
            }
        },
        "name": "move_to_storage_A"
    },
    "id": "SBL_move_to_storage_A_33",
    "joint_names": [
        "shoulder_pan_joint",
        "shoulder_lift_joint",
        "elbow_joint",
        "wrist_1_joint",
        "wrist_2_joint",
        "wrist_3_joint"
    ],
    "metrics": {
        "cart_traj_len": 0.3537368271528407,
        "distance_elbow_joint": 0.45034713913762037,
        "distance_shoulder_lift_joint": 0.23286394753566508,
        "distance_shoulder_pan_joint": 0.4605776487863563,
        "distance_wrist_1_joint": 0.24620054325867113,
        "distance_wrist_2_joint": 1.1079487878901326,
        "distance_wrist_3_joint": 0.1044264631918268,
        "smoothness": 0.0,
        "time": 0.28945308399999997,
        "traj_len": 1.613184592599456,
        "weighted_distance": 2.040923023372692
    },
    "planner": "SBL",
    "start": {
        "state": {
            "elbow_joint": 1.9715481507254546,
            "shoulder_lift_joint": -1.1394850672790213,
            "shoulder_pan_joint": 0.12281154597544902,
            "wrist_1_joint": -0.7804720171073349,
            "wrist_2_joint": 0.12958658322886563,
            "wrist_3_joint": -3.1924895760937617
        }
    },
    "waypoints": [
        {
            "positions": [
                0.12281154597544902,
                -1.1394850672790213,
                1.9715481507254546,
                -0.7804720171073349,
                0.12958658322886563,
                -3.1924895760937617
            ]
        },
        {
            "positions": [
                0.05701473900596955,
                -1.172751345498402,
                2.0358834563165433,
                -0.8156435232871451,
                0.28786498149888456,
                -3.1775715099235007
            ]
        },
        {
            "positions": [
                -0.008782067963509915,
                -1.2060176237177829,
                2.100218761907632,
                -0.8508150294669552,
                0.4461433797689035,
                -3.1626534437532396
            ]
        },
        {
            "positions": [
                -0.0745788749329894,
                -1.2392839019371635,
                2.1645540674987207,
                -0.8859865356467654,
                0.6044217780389225,
                -3.1477353775829786
            ]
        },
        {
            "positions": [
                -0.14037568190246885,
                -1.2725501801565442,
                2.228889373089809,
                -0.9211580418265756,
                0.7627001763089414,
                -3.132817311412718
            ]
        },
        {
            "positions": [
                -0.20617248887194833,
                -1.3058164583759249,
                2.2932246786808976,
                -0.9563295480063858,
                0.9209785745789604,
                -3.117899245242457
            ]
        },
        {
            "positions": [
                -0.2719692958414278,
                -1.3390827365953057,
                2.3575599842719863,
                -0.9915010541861959,
                1.0792569728489791,
                -3.102981179072196
            ]
        },
        {
            "positions": [
                -0.3377661028109073,
                -1.3723490148146864,
                2.421895289863075,
                -1.026672560366006,
                1.2375353711189983,
                -3.088063112901935
            ]
        }
    ]
}