{
    "goal": {
        "global_pose": {
            "orientation": {
                "w": 0.7047431468963623,
                "x": -0.7094548344612122,
                "y": 0.0024358443915843964,
                "z": -0.0022348060738295317
            },
            "position": {
                "x": 0.6094750761985779,
                "y": 0.3671506643295288,
                "z": 0.19426114857196808
            }
        },
        "name": "move_to_magneteinheit_A"
    },
    "id": "SBL_move_to_magneteinheit_A_3",
    "joint_names": [
        "shoulder_pan_joint",
        "shoulder_lift_joint",
        "elbow_joint",
        "wrist_1_joint",
        "wrist_2_joint",
        "wrist_3_joint"
    ],
    "metrics": {
        "cart_traj_len": 3.9016295738307356,
        "distance_elbow_joint": 3.881576067416814,
        "distance_shoulder_lift_joint": 0.3174516593887946,
        "distance_shoulder_pan_joint": 3.9425000681730493,
        "distance_wrist_1_joint": 0.8082023373761432,
        "distance_wrist_2_joint": 1.970373399286812,
        "distance_wrist_3_joint": 3.6694337485925477,
        "smoothness": 0.21553758805284987,
        "time": 0.112183477,
        "traj_len": 3.8196252800810395,
        "weighted_distance": 4.970611684097059
    },
    "planner": "SBL",
    "start": {
        "state": {
            "elbow_joint": -1.9196185241190666,
            "shoulder_lift_joint": -1.2443396400964142,
            "shoulder_pan_joint": 2.6996025414629847,
            "wrist_1_joint": -1.5485510000780065,
            "wrist_2_joint": -1.5709468930060704,
            "wrist_3_joint": 0.4420197071253992
        }
    },
    "waypoints": [
        {
            "positions": [
                2.6996025414629847,
                -1.2443396400964142,
                -1.9196185241190666,
                -1.5485510000780065,
                -1.5709468930060704,
                0.4420197071253992
            ]
        },
        {
            "positions": [
                2.5872001167340857,
                -1.2479070839035722,
                -1.8211099267274389,
                -1.5222655342028686,
                -1.5076937480548438,
                0.355597675801691
            ]
        },
        {
            "positions": [
                2.474797692005186,
                -1.2514745277107304,
                -1.7226013293358111,
                -1.4959800683277305,
                -1.444440603103617,
                0.26917564447798287
            ]
        },
        {
            "positions": [
                2.362395267276287,
                -1.2550419715178884,
                -1.6240927319441834,
                -1.4696946024525925,
                -1.3811874581523904,
                0.18275361315427474
            ]
        },
        {
            "positions": [
                2.249992842547388,
                -1.2586094153250464,
                -1.5255841345525556,
                -1.4434091365774546,
                -1.3179343132011638,
                0.09633158183056656
            ]
        },
        {
            "positions": [
                2.1375904178184886,
                -1.2621768591322045,
                -1.4270755371609278,
                -1.4171236707023165,
                -1.254681168249937,
                0.009909550506858378
            ]
        },
        {
            "positions": [
                2.0251879930895895,
                -1.2657443029393627,
                -1.3285669397693,
                -1.3908382048271786,
                -1.1914280232987104,
                -0.07651248081684969
            ]
        },
        {
            "positions": [
                1.9127855683606902,
                -1.2693117467465207,
                -1.230058342377672,
                -1.3645527389520407,
                -1.1281748783474836,
                -0.16293451214055799
            ]
        },
        {
            "positions": [
                1.800383143631791,
                -1.2728791905536787,
                -1.1315497449860445,
                -1.3382672730769025,
                -1.064921733396257,
                -0.24935654346426606
            ]
        },
        {
            "positions": [
                1.687980718902892,
                -1.2764466343608367,
                -1.0330411475944166,
                -1.3119818072017646,
                -1.0016685884450305,
                -0.33577857478797424
            ]
        },
        {
            "positions": [
                1.5755782941739926,
                -1.280014078167995,
                -0.9345325502027889,
                -1.2856963413266267,
                -0.9384154434938038,
                -0.4222006061116824
            ]
        },
        {
            "positions": [
                1.4631758694450936,
                -1.283581521975153,
                -0.8360239528111613,
                -1.2594108754514888,
                -0.8751622985425772,
                -0.5086226374353905
            ]
        },
        {
            "positions": [
                1.3507734447161943,
                -1.287148965782311,
                -0.7375153554195335,
                -1.2331254095763506,
                -0.8119091535913505,
                -0.5950446687590986
            ]
        },
        {
            "positions": [
                1.238371019987295,
                -1.2907164095894692,
                -0.6390067580279055,
                -1.2068399437012127,
                -0.7486560086401238,
                -0.6814667000828069
            ]
        },
        {
            "positions": [
                1.1259685952583958,
                -1.2942838533966272,
                -0.5404981606362778,
                -1.1805544778260746,
                -0.6854028636888971,
                -0.7678887314065151
            ]
        },
        {
            "positions": [
                1.0135661705294965,
                -1.2978512972037852,
                -0.44198956324465,
                -1.1542690119509367,
                -0.6221497187376704,
                -0.8543107627302232
            ]
        },
        {
            "positions": [
                0.9011637458005974,
                -1.3014187410109432,
                -0.34348096585302246,
                -1.1279835460757988,
                -0.558896573786444,
                -0.9407327940539313
            ]
        },
        {
            "positions": [
                0.7887613210716984,
                -1.3049861848181015,
                -0.2449723684613947,
                -1.1016980802006608,
                -0.4956434288352174,
                -1.0271548253776395
            ]
        },
        {
            "positions": [
                0.6763588963427991,
                -1.3085536286252595,
                -0.1464637710697667,
                -1.0754126143255227,
                -0.4323902838839906,
                -1.1135768567013478
            ]
        },
        {
            "positions": [
                0.5639564716139001,
                -1.3121210724324175,
                -0.047955173678139174,
                -1.0491271484503848,
                -0.369137138932764,
                -1.1999988880250556
            ]
        },
        {
            "positions": [
                0.45155404688500056,
                -1.3156885162395757,
                0.05055342371348881,
                -1.0228416825752467,
                -0.3058839939815372,
                -1.286420919348764
            ]
        },
        {
            "positions": [
                0.3391516221561015,
                -1.3192559600467337,
                0.14906202110511657,
                -0.9965562167001089,
                -0.24263084903031062,
                -1.3728429506724722
            ]
        },
        {
            "positions": [
                0.22674919742720245,
                -1.3228234038538917,
                0.2475706184967441,
                -0.9702707508249709,
                -0.17937770407908404,
                -1.45926498199618
            ]
        },
        {
            "positions": [
                0.11434677269830296,
                -1.3263908476610498,
                0.3460792158883721,
                -0.9439852849498329,
                -0.11612455912785724,
                -1.5456870133198883
            ]
        },
        {
            "positions": [
                0.0019443479694039034,
                -1.329958291468208,
                0.44458781327999963,
                -0.9176998190746949,
                -0.05287141417663066,
                -1.6321090446435962
            ]
        },
        {
            "positions": [
                -0.11045807675949515,
                -1.333525735275366,
                0.5430964106716276,
                -0.891414353199557,
                0.01038173077459592,
                -1.7185310759673045
            ]
        },
        {
            "positions": [
                -0.22286050148839465,
                -1.337093179082524,
                0.6416050080632556,
                -0.865128887324419,
                0.07363487572582272,
                -1.8049531072910128
            ]
        },
        {
            "positions": [
                -0.3352629262172937,
                -1.340660622889682,
                0.7401136054548831,
                -0.8388434214492809,
                0.1368880206770493,
                -1.8913751386147206
            ]
        },
        {
            "positions": [
                -0.4476653509461932,
                -1.3442280666968403,
                0.8386222028465111,
                -0.8125579555741429,
                0.2001411656282761,
                -1.9777971699384294
            ]
        },
        {
            "positions": [
                -0.5600677756750922,
                -1.3477955105039983,
                0.9371308002381388,
                -0.786272489699005,
                0.2633943105795027,
                -2.064219201262137
            ]
        },
        {
            "positions": [
                -0.48419780333787305,
                -1.324018200617197,
                1.051000438355873,
                -0.7811698422548782,
                0.24827962216825386,
                -2.1934630723960273
            ]
        },
        {
            "positions": [
                -0.40832783100065384,
                -1.300240890730396,
                1.1648700764736073,
                -0.7760671948107513,
                0.23316493375700503,
                -2.3227069435299175
            ]
        },
        {
            "positions": [
                -0.3324578586634346,
                -1.2764635808435947,
                1.2787397145913415,
                -0.7709645473666245,
                0.2180502453457562,
                -2.4519508146638076
            ]
        },
        {
            "positions": [
                -0.2565878863262154,
                -1.2526862709567936,
                1.392609352709076,
                -0.7658618999224975,
                0.20293555693450738,
                -2.5811946857976977
            ]
        },
        {
            "positions": [
                -0.18071791398899612,
                -1.2289089610699924,
                1.5064789908268104,
                -0.7607592524783707,
                0.18782086852325852,
                -2.710438556931588
            ]
        },
        {
            "positions": [
                -0.10484794165177691,
                -1.2051316511831913,
                1.6203486289445443,
                -0.7556566050342438,
                0.17270618011200972,
                -2.839682428065478
            ]
        },
        {
            "positions": [
                -0.02897796931455765,
                -1.18135434129639,
                1.7342182670622788,
                -0.750553957590117,
                0.15759149170076087,
                -2.968926299199368
            ]
        },
        {
            "positions": [
                0.0468920030226615,
                -1.157577031409589,
                1.848087905180013,
                -0.7454513101459901,
                0.14247680328951207,
                -3.0981701703332583
            ]
        },
        {
            "positions": [
                0.1227619753598808,
                -1.1337997215227877,
                1.9619575432977474,
                -0.7403486627018633,
                0.1273621148782632,
                -3.2274140414671484
            ]
        }
    ]
}