{
    "goal": {
        "global_pose": {
            "orientation": {
                "w": -0.00223480608172531,
                "x": 0.0024358444001904467,
                "y": 0.7094548369677653,
                "z": -0.704743149386269
            },
            "position": {
                "x": 0.6205249238014221,
                "y": -0.6371506643295288,
                "z": 0.19426114857196808
            }
        },
        "name": "move_to_magneteinheit_B"
    },
    "id": "SBL_move_to_magneteinheit_B_85",
    "joint_names": [
        "shoulder_pan_joint",
        "shoulder_lift_joint",
        "elbow_joint",
        "wrist_1_joint",
        "wrist_2_joint",
        "wrist_3_joint"
    ],
    "metrics": {
        "cart_traj_len": 1.6371598199586461,
        "distance_elbow_joint": 0.9540332612778064,
        "distance_shoulder_lift_joint": 1.0030644918854512,
        "distance_shoulder_pan_joint": 1.6216497755784307,
        "distance_wrist_1_joint": 1.5407732645877115,
        "distance_wrist_2_joint": 2.22324199299323,
        "distance_wrist_3_joint": 0.8768371847909624,
        "smoothness": 0.6415545610292207,
        "time": 0.459143738,
        "traj_len": 2.8669844734692225,
        "weighted_distance": 3.706384977073545
    },
    "planner": "SBL",
    "start": {
        "state": {
            "elbow_joint": 2.6216224122426386,
            "shoulder_lift_joint": -1.4174107377796124,
            "shoulder_pan_joint": 0.7066234856936794,
            "wrist_1_joint": 1.9546482284002225,
            "wrist_2_joint": -0.7096286983471962,
            "wrist_3_joint": 0.005740856962016249
        }
    },
    "waypoints": [
        {
            "positions": [
                0.7066234856936794,
                -1.4174107377796124,
                2.6216224122426386,
                1.9546482284002225,
                -0.7096286983471962,
                0.005740856962016249
            ]
        },
        {
            "positions": [
                0.5129242334303123,
                -1.446452760025875,
                2.574796759066513,
                1.9582166405544195,
                -0.6453503348510162,
                0.0442249949559508
            ]
        },
        {
            "positions": [
                0.45952340218308557,
                -1.462364097965012,
                2.4828932422993337,
                1.8462430483224406,
                -0.5969894664599955,
                0.11159255862478704
            ]
        },
        {
            "positions": [
                0.4061225709358588,
                -1.4782754359041494,
                2.3909897255321546,
                1.7342694560904617,
                -0.5486285980689748,
                0.1789601222936233
            ]
        },
        {
            "positions": [
                0.35272173968863196,
                -1.4941867738432866,
                2.2990862087649755,
                1.6222958638584828,
                -0.5002677296779541,
                0.24632768596245955
            ]
        },
        {
            "positions": [
                0.29932090844140524,
                -1.5100981117824237,
                2.2071826919977964,
                1.510322271626504,
                -0.4519068612869333,
                0.31369524963129575
            ]
        },
        {
            "positions": [
                0.2459200771941784,
                -1.526009449721561,
                2.1152791752306173,
                1.398348679394525,
                -0.40354599289591253,
                0.38106281330013203
            ]
        },
        {
            "positions": [
                0.19251924594695163,
                -1.5419207876606982,
                2.023375658463438,
                1.2863750871625461,
                -0.3551851245048918,
                0.44843037696896826
            ]
        },
        {
            "positions": [
                0.11340885053040141,
                -1.4791668989461007,
                1.997962336499252,
                1.3481867513798063,
                -0.4886707258728151,
                0.4174198294843961
            ]
        },
        {
            "positions": [
                0.034298455113851184,
                -1.4164130102315031,
                1.972549014535066,
                1.4099984155970662,
                -0.6221563272407384,
                0.38640928199982394
            ]
        },
        {
            "positions": [
                -0.044811940302699055,
                -1.3536591215169056,
                1.9471356925708798,
                1.4718100798143263,
                -0.7556419286086616,
                0.3553987345152517
            ]
        },
        {
            "positions": [
                -0.12392233571924927,
                -1.290905232802308,
                1.9217223706066935,
                1.5336217440315865,
                -0.889127529976585,
                0.32438818703067956
            ]
        },
        {
            "positions": [
                -0.2030327311357995,
                -1.2281513440877105,
                1.8963090486425074,
                1.5954334082488466,
                -1.0226131313445084,
                0.2933776395461074
            ]
        },
        {
            "positions": [
                -0.28214312655234974,
                -1.165397455373113,
                1.8708957266783213,
                1.6572450724661065,
                -1.1560987327124315,
                0.2623670920615352
            ]
        },
        {
            "positions": [
                -0.3612535219689,
                -1.1026435666585155,
                1.8454824047141352,
                1.7190567366833667,
                -1.2895843340803548,
                0.23135654457696303
            ]
        },
        {
            "positions": [
                -0.44036391738545017,
                -1.039889677943918,
                1.820069082749949,
                1.7808684009006268,
                -1.423069935448278,
                0.20034599709239087
            ]
        },
        {
            "positions": [
                -0.5194743128020005,
                -0.9771357892293204,
                1.794655760785763,
                1.8426800651178867,
                -1.5565555368162014,
                0.16933544960781866
            ]
        },
        {
            "positions": [
                -0.5985847082185507,
                -0.9143819005147229,
                1.7692424388215766,
                1.9044917293351469,
                -1.6900411381841247,
                0.1383249021232465
            ]
        },
        {
            "positions": [
                -0.6776951036351009,
                -0.8516280118001254,
                1.7438291168573907,
                1.966303393552407,
                -1.8235267395520478,
                0.10731435463867434
            ]
        },
        {
            "positions": [
                -0.7568054990516511,
                -0.7888741230855278,
                1.7184157948932044,
                2.028115057769667,
                -1.9570123409199711,
                0.07630380715410218
            ]
        },
        {
            "positions": [
                -0.8359158944682015,
                -0.7261202343709303,
                1.6930024729290183,
                2.0899267219869273,
                -2.0904979422878944,
                0.04529325966952996
            ]
        },
        {
            "positions": [
                -0.9150262898847517,
                -0.6633663456563328,
                1.6675891509648322,
                2.1517383862041872,
                -2.2239835436558177,
                0.014282712184957797
            ]
        }
    ]
}