{
    "goal": {
        "global_pose": {
            "orientation": {
                "w": -0.4816463035849501,
                "x": 0.5182115481033762,
                "y": 0.4908360881923453,
                "z": -0.5084816262002911
            },
            "position": {
                "x": -0.8240239810943604,
                "y": 0.19912469901144506,
                "z": 0.16403168439865112
            }
        },
        "name": "move_to_storage_D"
    },
    "id": "SBL_move_to_storage_D_69",
    "joint_names": [
        "shoulder_pan_joint",
        "shoulder_lift_joint",
        "elbow_joint",
        "wrist_1_joint",
        "wrist_2_joint",
        "wrist_3_joint"
    ],
    "metrics": {
        "cart_traj_len": 1.7920795056611287,
        "distance_elbow_joint": 1.4494448215738722,
        "distance_shoulder_lift_joint": 0.5104792393321027,
        "distance_shoulder_pan_joint": 1.528042028321871,
        "distance_wrist_1_joint": 3.9002121314355596,
        "distance_wrist_2_joint": 1.77329891883093,
        "distance_wrist_3_joint": 4.245383418149984,
        "smoothness": 0.37264632025408734,
        "time": 0.148468354,
        "traj_len": 3.6615380043971038,
        "weighted_distance": 5.250822644520645
    },
    "planner": "SBL",
    "start": {
        "state": {
            "elbow_joint": -2.384821988534728,
            "shoulder_lift_joint": -2.2788054721415256,
            "shoulder_pan_joint": -0.1854694642142757,
            "wrist_1_joint": 1.4845938289331202,
            "wrist_2_joint": 0.17898776772866878,
            "wrist_3_joint": 0.037105688729662994
        }
    },
    "waypoints": [
        {
            "positions": [
                -0.1854694642142757,
                -2.2788054721415256,
                -2.384821988534728,
                1.4845938289331202,
                0.17898776772866878,
                0.037105688729662994
            ]
        },
        {
            "positions": [
                -0.13461294774190388,
                -2.2497316658943,
                -2.3614538589101026,
                1.524240149370545,
                0.1551167484699855,
                0.11606470908069438
            ]
        },
        {
            "positions": [
                -0.05568986442707562,
                -2.2195060671394273,
                -2.2636688137614356,
                1.420662953887132,
                0.1405490556273224,
                0.16417854621963568
            ]
        },
        {
            "positions": [
                0.02323321888775265,
                -2.1892804683845553,
                -2.165883768612769,
                1.317085758403719,
                0.12598136278465927,
                0.21229238335857697
            ]
        },
        {
            "positions": [
                0.10215630220258087,
                -2.1590548696296827,
                -2.068098723464102,
                1.2135085629203062,
                0.11141366994199617,
                0.26040622049751827
            ]
        },
        {
            "positions": [
                0.18107938551740918,
                -2.1288292708748107,
                -1.970313678315435,
                1.1099313674368931,
                0.09684597709933304,
                0.3085200576364596
            ]
        },
        {
            "positions": [
                0.26000246883223743,
                -2.098603672119938,
                -1.872528633166768,
                1.00635417195348,
                0.08227828425666994,
                0.35663389477540086
            ]
        },
        {
            "positions": [
                0.33892555214706566,
                -2.0683780733650656,
                -1.7747435880181013,
                0.9027769764700672,
                0.06771059141400683,
                0.40474773191434216
            ]
        },
        {
            "positions": [
                0.4178486354618939,
                -2.0381524746101936,
                -1.6769585428694342,
                0.7991997809866541,
                0.05314289857134373,
                0.45286156905328345
            ]
        },
        {
            "positions": [
                0.4967717187767222,
                -2.007926875855321,
                -1.5791734977207672,
                0.6956225855032411,
                0.0385752057286806,
                0.5009754061922248
            ]
        },
        {
            "positions": [
                0.5756948020915504,
                -1.9777012771004487,
                -1.4813884525721006,
                0.592045390019828,
                0.02400751288601749,
                0.549089243331166
            ]
        },
        {
            "positions": [
                0.6546178854063787,
                -1.9474756783455764,
                -1.3836034074234336,
                0.4884681945364151,
                0.009439820043354377,
                0.5972030804701074
            ]
        },
        {
            "positions": [
                0.6259531071271613,
                -1.9549402385762495,
                -1.402279500776041,
                0.3707684505295815,
                -0.057383137087712935,
                0.44364949603637654
            ]
        },
        {
            "positions": [
                0.5972883288479439,
                -1.9624047988069226,
                -1.4209555941286485,
                0.25306870652274793,
                -0.12420609421878025,
                0.2900959116026457
            ]
        },
        {
            "positions": [
                0.5686235505687266,
                -1.9698693590375957,
                -1.4396316874812558,
                0.13536896251591435,
                -0.1910290513498476,
                0.1365423271689148
            ]
        },
        {
            "positions": [
                0.5399587722895092,
                -1.9773339192682686,
                -1.4583077808338631,
                0.017669218509080764,
                -0.2578520084809149,
                -0.017011257264816004
            ]
        },
        {
            "positions": [
                0.5112939940102919,
                -1.9847984794989417,
                -1.4769838741864707,
                -0.10003052549775282,
                -0.3246749656119823,
                -0.17056484169854702
            ]
        },
        {
            "positions": [
                0.4826292157310744,
                -1.9922630397296148,
                -1.495659967539078,
                -0.2177302695045864,
                -0.39149792274304956,
                -0.3241184261322778
            ]
        },
        {
            "positions": [
                0.4539644374518571,
                -1.999727599960288,
                -1.5143360608916854,
                -0.33543001351142,
                -0.4583208798741169,
                -0.47767201056600883
            ]
        },
        {
            "positions": [
                0.42529965917263973,
                -2.007192160190961,
                -1.533012154244293,
                -0.4531297575182536,
                -0.5251438370051841,
                -0.6312255949997394
            ]
        },
        {
            "positions": [
                0.39663488089342236,
                -2.014656720421634,
                -1.5516882475969003,
                -0.570829501525087,
                -0.5919667941362515,
                -0.7847791794334704
            ]
        },
        {
            "positions": [
                0.367970102614205,
                -2.022121280652307,
                -1.5703643409495076,
                -0.6885292455319207,
                -0.6587897512673189,
                -0.9383327638672014
            ]
        },
        {
            "positions": [
                0.3393053243349876,
                -2.02958584088298,
                -1.5890404343021152,
                -0.8062289895387542,
                -0.7256127083983861,
                -1.091886348300932
            ]
        },
        {
            "positions": [
                0.31064054605577024,
                -2.037050401113653,
                -1.6077165276547225,
                -0.9239287335455879,
                -0.7924356655294534,
                -1.245439932734663
            ]
        },
        {
            "positions": [
                0.2819757677765529,
                -2.0445149613443263,
                -1.6263926210073298,
                -1.0416284775524214,
                -0.8592586226605207,
                -1.3989935171683938
            ]
        },
        {
            "positions": [
                0.2533109894973355,
                -2.0519795215749994,
                -1.6450687143599374,
                -1.159328221559255,
                -0.9260815797915881,
                -1.552547101602125
            ]
        },
        {
            "positions": [
                0.22464621121811812,
                -2.0594440818056725,
                -1.6637448077125447,
                -1.2770279655660888,
                -0.9929045369226553,
                -1.7061006860358559
            ]
        },
        {
            "positions": [
                0.1959814329389008,
                -2.0669086420363456,
                -1.682420901065152,
                -1.3947277095729222,
                -1.0597274940537227,
                -1.8596542704695862
            ]
        },
        {
            "positions": [
                0.16731665465968337,
                -2.0743732022670187,
                -1.7010969944177596,
                -1.5124274535797557,
                -1.1265504511847901,
                -2.0132078549033174
            ]
        },
        {
            "positions": [
                0.13865187638046605,
                -2.081837762497692,
                -1.719773087770367,
                -1.6301271975865892,
                -1.1933734083158576,
                -2.1667614393370482
            ]
        },
        {
            "positions": [
                0.10998709810124874,
                -2.0893023227283645,
                -1.7384491811229743,
                -1.7478269415934231,
                -1.2601963654469248,
                -2.320315023770779
            ]
        },
        {
            "positions": [
                0.08132231982203131,
                -2.0967668829590376,
                -1.7571252744755819,
                -1.8655266856002566,
                -1.3270193225779923,
                -2.4738686082045103
            ]
        },
        {
            "positions": [
                0.05265754154281388,
                -2.1042314431897107,
                -1.7758013678281892,
                -1.98322642960709,
                -1.3938422797090595,
                -2.6274221926382406
            ]
        },
        {
            "positions": [
                0.02399276326359656,
                -2.1116960034203838,
                -1.7944774611807965,
                -2.1009261736139235,
                -1.4606652368401267,
                -2.7809757770719714
            ]
        },
        {
            "positions": [
                -0.004672015015620867,
                -2.119160563651057,
                -1.813153554533404,
                -2.2186259176207574,
                -1.5274881939711942,
                -2.9345293615057026
            ]
        },
        {
            "positions": [
                -0.03333679329483819,
                -2.12662512388173,
                -1.8318296478860114,
                -2.336325661627591,
                -1.5943111511022614,
                -3.0880829459394334
            ]
        }
    ]
}