{
    "goal": {
        "global_pose": {
            "orientation": {
                "w": 0.7047431493862688,
                "x": -0.7094548369677653,
                "y": 0.0024358444001904,
                "z": -0.0022348060817251984
            },
            "position": {
                "x": -0.39052492380142206,
                "y": 0.3671506643295288,
                "z": 0.19426114857196808
            }
        },
        "name": "move_to_magneteinheit_D"
    },
    "id": "SBL_move_to_magneteinheit_D_98",
    "joint_names": [
        "shoulder_pan_joint",
        "shoulder_lift_joint",
        "elbow_joint",
        "wrist_1_joint",
        "wrist_2_joint",
        "wrist_3_joint"
    ],
    "metrics": {
        "cart_traj_len": 4.473851020400085,
        "distance_elbow_joint": 3.130202590430725,
        "distance_shoulder_lift_joint": 1.6334768323305642,
        "distance_shoulder_pan_joint": 3.532363597537868,
        "distance_wrist_1_joint": 1.5750571731475016,
        "distance_wrist_2_joint": 0.8930176564775514,
        "distance_wrist_3_joint": 3.16317652873739,
        "smoothness": 0.3062803796177179,
        "time": 0.520137494,
        "traj_len": 3.731929042554481,
        "weighted_distance": 4.766730773366735
    },
    "planner": "SBL",
    "start": {
        "state": {
            "elbow_joint": 0.749534889911806,
            "shoulder_lift_joint": -0.6476975780787326,
            "shoulder_pan_joint": -2.711696901376241,
            "wrist_1_joint": -0.07506478083263063,
            "wrist_2_joint": 0.43296659715538205,
            "wrist_3_joint": -3.14703540197715
        }
    },
    "waypoints": [
        {
            "positions": [
                -2.711696901376241,
                -0.6476975780787326,
                0.749534889911806,
                -0.07506478083263063,
                0.43296659715538205,
                -3.14703540197715
            ]
        },
        {
            "positions": [
                -2.7836114527323295,
                -0.6494280978677145,
                0.7485723168415197,
                -0.0571947555674267,
                0.40370516706606374,
                -3.0017311434778513
            ]
        },
        {
            "positions": [
                -2.8555260040884183,
                -0.6511586176566964,
                0.7476097437712333,
                -0.03932473030222278,
                0.3744437369767455,
                -2.856426884978552
            ]
        },
        {
            "positions": [
                -2.7979022155766575,
                -0.7092501246387841,
                0.7317971295979697,
                0.047274052875448835,
                0.3709788771870464,
                -2.8020826681086337
            ]
        },
        {
            "positions": [
                -2.740278427064897,
                -0.7673416316208719,
                0.7159845154247062,
                0.13387283605312045,
                0.36751401739734735,
                -2.747738451238715
            ]
        },
        {
            "positions": [
                -2.623722972668219,
                -0.8073007888587227,
                0.6243921010698371,
                0.16418204257611546,
                0.3470006700851863,
                -2.661190220210213
            ]
        },
        {
            "positions": [
                -2.507167518271541,
                -0.8472599460965734,
                0.532799686714968,
                0.19449124909911045,
                0.3264873227730253,
                -2.574641989181711
            ]
        },
        {
            "positions": [
                -2.390612063874863,
                -0.8872191033344242,
                0.4412072723600989,
                0.22480045562210543,
                0.30597397546086424,
                -2.488093758153209
            ]
        },
        {
            "positions": [
                -2.274056609478185,
                -0.9271782605722749,
                0.34961485800522973,
                0.25510966214510045,
                0.28546062814870315,
                -2.401545527124707
            ]
        },
        {
            "positions": [
                -2.1575011550815075,
                -0.9671374178101257,
                0.2580224436503606,
                0.28541886866809546,
                0.2649472808365421,
                -2.3149972960962053
            ]
        },
        {
            "positions": [
                -2.0409457006848295,
                -1.0070965750479766,
                0.16643002929549155,
                0.3157280751910904,
                0.2444339335243811,
                -2.2284490650677036
            ]
        },
        {
            "positions": [
                -1.9243902462881515,
                -1.0470557322858274,
                0.07483761494062224,
                0.34603728171408543,
                0.22392058621222002,
                -2.1419008340392014
            ]
        },
        {
            "positions": [
                -1.8078347918914734,
                -1.0870148895236782,
                -0.016754799414246735,
                0.37634648823708045,
                0.203407238900059,
                -2.055352603010699
            ]
        },
        {
            "positions": [
                -1.6912793374947954,
                -1.1269740467615288,
                -0.10834721376911582,
                0.4066556947600754,
                0.18289389158789796,
                -1.9688043719821975
            ]
        },
        {
            "positions": [
                -1.5747238830981174,
                -1.1669332039993796,
                -0.19993962812398502,
                0.4369649012830705,
                0.1623805442757369,
                -1.8822561409536955
            ]
        },
        {
            "positions": [
                -1.4581684287014396,
                -1.2068923612372304,
                -0.2915320424788541,
                0.46727410780606543,
                0.14186719696357586,
                -1.7957079099251936
            ]
        },
        {
            "positions": [
                -1.3416129743047616,
                -1.246851518475081,
                -0.3831244568337231,
                0.4975833143290604,
                0.12135384965141482,
                -1.7091596788966918
            ]
        },
        {
            "positions": [
                -1.2250575199080835,
                -1.2868106757129318,
                -0.4747168711885925,
                0.5278925208520555,
                0.10084050233925379,
                -1.6226114478681897
            ]
        },
        {
            "positions": [
                -1.1085020655114055,
                -1.3267698329507827,
                -0.5663092855434617,
                0.5582017273750505,
                0.0803271550270927,
                -1.5360632168396877
            ]
        },
        {
            "positions": [
                -0.9919466111147277,
                -1.3667289901886335,
                -0.6579016998983305,
                0.5885109338980454,
                0.05981380771493172,
                -1.449514985811186
            ]
        },
        {
            "positions": [
                -0.8753911567180497,
                -1.4066881474264843,
                -0.7494941142531997,
                0.6188201404210405,
                0.03930046040277063,
                -1.362966754782684
            ]
        },
        {
            "positions": [
                -0.7588357023213714,
                -1.446647304664335,
                -0.8410865286080689,
                0.6491293469440353,
                0.018787113090609597,
                -1.276418523754182
            ]
        },
        {
            "positions": [
                -0.6422802479246936,
                -1.486606461902186,
                -0.9326789429629379,
                0.6794385534670304,
                -0.001726234221551437,
                -1.1898702927256801
            ]
        },
        {
            "positions": [
                -0.5257247935280156,
                -1.5265656191400365,
                -1.024271357317807,
                0.7097477599900255,
                -0.02223958153371247,
                -1.1033220616971782
            ]
        },
        {
            "positions": [
                -0.4091693391313376,
                -1.5665247763778873,
                -1.1158637716726763,
                0.7400569665130206,
                -0.04275292884587356,
                -1.0167738306686762
            ]
        },
        {
            "positions": [
                -0.29261388473466,
                -1.606483933615738,
                -1.2074561860275452,
                0.7703661730360154,
                -0.06326627615803454,
                -0.9302255996401745
            ]
        },
        {
            "positions": [
                -0.17605843033798196,
                -1.6464430908535888,
                -1.2990486003824144,
                0.8006753795590105,
                -0.08377962347019563,
                -0.8436773686116725
            ]
        },
        {
            "positions": [
                -0.05950297594130349,
                -1.6864022480914396,
                -1.3906410147372839,
                0.8309845860820055,
                -0.10429297078235666,
                -0.7571291375831704
            ]
        },
        {
            "positions": [
                0.05705247845537409,
                -1.7263614053292904,
                -1.4822334290921524,
                0.8612937926050004,
                -0.1248063180945177,
                -0.6705809065546688
            ]
        },
        {
            "positions": [
                0.17360793285205212,
                -1.7663205625671412,
                -1.573825843447022,
                0.8916029991279955,
                -0.1453196654066787,
                -0.5840326755261667
            ]
        },
        {
            "positions": [
                0.14183412335183931,
                -1.8304329479887749,
                -1.6848670266047447,
                0.9581451120670491,
                -0.11000973451845175,
                -0.504952608616138
            ]
        },
        {
            "positions": [
                0.11006031385162653,
                -1.8945453334104088,
                -1.7959082097624672,
                1.0246872250061028,
                -0.07469980363022478,
                -0.42587254170610944
            ]
        },
        {
            "positions": [
                0.07828650435141374,
                -1.9586577188320424,
                -1.90694939292019,
                1.0912293379451563,
                -0.03938987274199782,
                -0.3467924747960808
            ]
        },
        {
            "positions": [
                0.046512694851200936,
                -2.0227701042536763,
                -2.0179905760779127,
                1.15777145088421,
                -0.004079941853770863,
                -0.26771240788605216
            ]
        },
        {
            "positions": [
                0.014738885350988135,
                -2.08688248967531,
                -2.129031759235635,
                1.2243135638232636,
                0.031229989034456118,
                -0.1886323409760235
            ]
        },
        {
            "positions": [
                -0.01703492414922464,
                -2.1509948750969436,
                -2.2400729423933576,
                1.2908556767623174,
                0.06653991992268307,
                -0.10955227406599488
            ]
        },
        {
            "positions": [
                -0.04880873364943744,
                -2.2151072605185775,
                -2.3511141255510806,
                1.357397789701371,
                0.10184985081091005,
                -0.030472207155966158
            ]
        },
        {
            "positions": [
                -0.14437806105929535,
                -2.252990466174351,
                -2.3492771365482135,
                1.4810045386596915,
                0.16413907902608205,
                0.00846949612980671
            ]
        },
        {
            "positions": [
                -0.18579262503316782,
                -2.281174410409297,
                -2.3769937225131845,
                1.4999923923148708,
                0.16941172850881187,
                0.016141126760241528
            ]
        }
    ]
}