{
    "goal": {
        "global_pose": {
            "orientation": {
                "w": -0.00223480608172531,
                "x": 0.0024358444001904467,
                "y": 0.7094548369677653,
                "z": -0.704743149386269
            },
            "position": {
                "x": -0.37947507619857795,
                "y": -0.6371506643295288,
                "z": 0.19426114857196808
            }
        },
        "name": "move_to_magneteinheit_C"
    },
    "id": "SBL_move_to_magneteinheit_C_48",
    "joint_names": [
        "shoulder_pan_joint",
        "shoulder_lift_joint",
        "elbow_joint",
        "wrist_1_joint",
        "wrist_2_joint",
        "wrist_3_joint"
    ],
    "metrics": {
        "cart_traj_len": 2.104250980130249,
        "distance_elbow_joint": 2.7890631617657657,
        "distance_shoulder_lift_joint": 0.6642829465323166,
        "distance_shoulder_pan_joint": 1.9324951616558332,
        "distance_wrist_1_joint": 2.191867622461279,
        "distance_wrist_2_joint": 2.7338764184064464,
        "distance_wrist_3_joint": 2.940076151147551,
        "smoothness": 1.444693637139482,
        "time": 0.46022049,
        "traj_len": 3.6402831568394776,
        "weighted_distance": 4.904850436571131
    },
    "planner": "SBL",
    "start": {
        "state": {
            "elbow_joint": 1.9565354010623817,
            "shoulder_lift_joint": -1.4165861575791021,
            "shoulder_pan_joint": -1.6717766225146293,
            "wrist_1_joint": -0.5286633292919765,
            "wrist_2_joint": 1.472756589071564,
            "wrist_3_joint": -3.1238370188695823
        }
    },
    "waypoints": [
        {
            "positions": [
                -1.6717766225146293,
                -1.4165861575791021,
                1.9565354010623817,
                -0.5286633292919765,
                1.472756589071564,
                -3.1238370188695823
            ]
        },
        {
            "positions": [
                -1.5149959428240125,
                -1.4275011230873227,
                1.9650421363373898,
                -0.5818430826002559,
                1.5005085189650156,
                -3.0267278305900724
            ]
        },
        {
            "positions": [
                -1.358215263133396,
                -1.4384160885955433,
                1.9735488716123981,
                -0.6350228359085354,
                1.5282604488584672,
                -2.929618642310562
            ]
        },
        {
            "positions": [
                -1.404939637172531,
                -1.4529411812909387,
                1.891003908183987,
                -0.6350861704190369,
                1.4186166979336556,
                -3.0175163978514936
            ]
        },
        {
            "positions": [
                -1.4516640112116659,
                -1.4674662739863344,
                1.808458944755576,
                -0.6351495049295385,
                1.308972947008844,
                -3.1054141533924247
            ]
        },
        {
            "positions": [
                -1.4983883852508009,
                -1.4819913666817301,
                1.7259139813271647,
                -0.63521283944004,
                1.1993291960840322,
                -3.193311908933356
            ]
        },
        {
            "positions": [
                -1.5451127592899359,
                -1.4965164593771256,
                1.6433690178987534,
                -0.6352761739505416,
                1.0896854451592206,
                -3.2812096644742876
            ]
        },
        {
            "positions": [
                -1.5701831391569956,
                -1.4797672440475762,
                1.5712387052605274,
                -0.5624943764013483,
                0.9885645247036144,
                -3.1839364554625345
            ]
        },
        {
            "positions": [
                -1.5952535190240555,
                -1.4630180287180268,
                1.4991083926223014,
                -0.4897125788521549,
                0.8874436042480082,
                -3.0866632464507817
            ]
        },
        {
            "positions": [
                -1.6203238988911153,
                -1.4462688133884773,
                1.4269780799840757,
                -0.4169307813029616,
                0.786322683792402,
                -2.9893900374390285
            ]
        },
        {
            "positions": [
                -1.6453942787581752,
                -1.429519598058928,
                1.3548477673458497,
                -0.34414898375376823,
                0.6852017633367957,
                -2.8921168284272754
            ]
        },
        {
            "positions": [
                -1.670464658625235,
                -1.4127703827293785,
                1.2827174547076237,
                -0.2713671862045749,
                0.5840808428811896,
                -2.7948436194155226
            ]
        },
        {
            "positions": [
                -1.6955350384922947,
                -1.396021167399829,
                1.2105871420693979,
                -0.19858538865538156,
                0.4829599224255833,
                -2.6975704104037694
            ]
        },
        {
            "positions": [
                -1.7206054183593547,
                -1.3792719520702796,
                1.1384568294311719,
                -0.12580359110618822,
                0.3818390019699772,
                -2.6002972013920163
            ]
        },
        {
            "positions": [
                -1.7456757982264144,
                -1.3625227367407302,
                1.0663265167929459,
                -0.05302179355699488,
                0.28071808151437094,
                -2.503023992380263
            ]
        },
        {
            "positions": [
                -1.7707461780934741,
                -1.3457735214111808,
                0.99419620415472,
                0.01976000399219846,
                0.17959716105876478,
                -2.4057507833685103
            ]
        },
        {
            "positions": [
                -1.795816557960534,
                -1.3290243060816314,
                0.922065891516494,
                0.0925418015413918,
                0.0784762406031585,
                -2.308477574356757
            ]
        },
        {
            "positions": [
                -1.8208869378275938,
                -1.312275090752082,
                0.8499355788782681,
                0.16532359909058514,
                -0.02264467985244778,
                -2.2112043653450044
            ]
        },
        {
            "positions": [
                -1.8459573176946538,
                -1.2955258754225325,
                0.7778052662400421,
                0.23810539663977848,
                -0.12376560030805406,
                -2.1139311563332512
            ]
        },
        {
            "positions": [
                -1.8710276975617135,
                -1.278776660092983,
                0.7056749536018162,
                0.3108871941889718,
                -0.2248865207636601,
                -2.016657947321498
            ]
        },
        {
            "positions": [
                -1.9525830523587975,
                -1.2931957069281905,
                0.8174502430519992,
                0.2527771490951094,
                -0.22851670526671422,
                -2.0749159856292563
            ]
        },
        {
            "positions": [
                -2.0341384071558815,
                -1.3076147537633978,
                0.9292255325021822,
                0.19466710400124693,
                -0.23214688976976833,
                -2.1331740239370145
            ]
        },
        {
            "positions": [
                -2.1156937619529654,
                -1.3220338005986052,
                1.0410008219523652,
                0.1365570589073845,
                -0.23577707427282246,
                -2.191432062244773
            ]
        },
        {
            "positions": [
                -2.1972491167500494,
                -1.3364528474338124,
                1.1527761114025483,
                0.07844701381352204,
                -0.23940725877587657,
                -2.2496901005525314
            ]
        },
        {
            "positions": [
                -2.2788044715471334,
                -1.3508718942690199,
                1.2645514008527312,
                0.02033696871965962,
                -0.24303744327893068,
                -2.3079481388602896
            ]
        },
        {
            "positions": [
                -2.3662830556947094,
                -1.3600440785754935,
                1.385508049273343,
                -0.051852334487030804,
                -0.22962966013546193,
                -2.381369674953783
            ]
        },
        {
            "positions": [
                -2.453761639842286,
                -1.3692162628819673,
                1.5064646976939544,
                -0.12404163769372123,
                -0.2162218769919932,
                -2.454791211047276
            ]
        },
        {
            "positions": [
                -2.541240223989862,
                -1.3783884471884411,
                1.6274213461145661,
                -0.19623094090041165,
                -0.20281409384852445,
                -2.528212747140769
            ]
        },
        {
            "positions": [
                -2.628718808137438,
                -1.3875606314949147,
                1.7483779945351778,
                -0.2684202441071021,
                -0.1894063107050557,
                -2.6016342832342625
            ]
        },
        {
            "positions": [
                -2.6481524502616898,
                -1.3391833312741819,
                1.8203294626975355,
                -0.34066224028221737,
                -0.11808884483917584,
                -2.6888784836767936
            ]
        },
        {
            "positions": [
                -2.6675860923859416,
                -1.290806031053449,
                1.892280930859893,
                -0.41290423645733265,
                -0.046771378973295974,
                -2.7761226841193243
            ]
        },
        {
            "positions": [
                -2.6870197345101934,
                -1.2424287308327164,
                1.9642323990222506,
                -0.48514623263244794,
                0.024546086892583863,
                -2.8633668845618554
            ]
        },
        {
            "positions": [
                -2.706453376634445,
                -1.1940514306119836,
                2.036183867184608,
                -0.5573882288075632,
                0.09586355275846375,
                -2.950611085004386
            ]
        },
        {
            "positions": [
                -2.725887018758697,
                -1.1456741303912508,
                2.1081353353469656,
                -0.6296302249826785,
                0.1671810186243436,
                -3.037855285446917
            ]
        },
        {
            "positions": [
                -2.6421330032089307,
                -1.1509882547061023,
                2.0742302048602936,
                -0.6958215551465283,
                0.3327997534839672,
                -3.0740278511624495
            ]
        },
        {
            "positions": [
                -2.5583789876591645,
                -1.1563023790209541,
                2.040325074373621,
                -0.7620128853103781,
                0.49841848834359076,
                -3.1102004168779813
            ]
        },
        {
            "positions": [
                -2.4746249721093982,
                -1.1616165033358057,
                2.006419943886949,
                -0.828204215474228,
                0.6640372232032143,
                -3.1463729825935136
            ]
        }
    ]
}