{
    "goal": {
        "global_pose": {
            "orientation": {
                "w": 0.005598929693374612,
                "x": 0.007748599140229565,
                "y": 0.7110244013736278,
                "z": -0.7031023480610252
            },
            "position": {
                "x": 0.1141497679147869,
                "y": -0.7141253447532654,
                "z": 0.3711530566215515
            }
        },
        "name": "move_to_auspresseinheit_B"
    },
    "id": "SBL_move_to_auspresseinheit_B_72",
    "joint_names": [
        "shoulder_pan_joint",
        "shoulder_lift_joint",
        "elbow_joint",
        "wrist_1_joint",
        "wrist_2_joint",
        "wrist_3_joint"
    ],
    "metrics": {
        "cart_traj_len": 0.5650459665661848,
        "distance_elbow_joint": 0.06028131682417559,
        "distance_shoulder_lift_joint": 0.2945822918986576,
        "distance_shoulder_pan_joint": 0.5753104842136254,
        "distance_wrist_1_joint": 0.315001113464907,
        "distance_wrist_2_joint": 1.0055526563650525,
        "distance_wrist_3_joint": 0.006672053436523662,
        "smoothness": 5.075305255429287e-16,
        "time": 0.190623334,
        "traj_len": 1.5024646139603226,
        "weighted_distance": 1.8950719756531542
    },
    "planner": "SBL",
    "start": {
        "state": {
            "elbow_joint": 2.0193083361928714,
            "shoulder_lift_joint": -1.1220246554650708,
            "shoulder_pan_joint": -1.0952077554168747,
            "wrist_1_joint": -0.8559753972642168,
            "wrist_2_joint": 0.4759566250798843,
            "wrist_3_joint": -3.1240929996934557
        }
    },
    "waypoints": [
        {
            "positions": [
                -1.0952077554168747,
                -1.1220246554650708,
                2.0193083361928714,
                -0.8559753972642168,
                0.4759566250798843,
                -3.1240929996934557
            ]
        },
        {
            "positions": [
                -1.1910928361191455,
                -1.1711217041148472,
                2.009261450055509,
                -0.8034752116867323,
                0.6435487344740597,
                -3.1229809907873682
            ]
        },
        {
            "positions": [
                -1.2869779168214164,
                -1.2202187527646233,
                1.9992145639181462,
                -0.7509750261092478,
                0.811140843868235,
                -3.1218689818812813
            ]
        },
        {
            "positions": [
                -1.3828629975236875,
                -1.2693158014143995,
                1.9891676777807836,
                -0.6984748405317633,
                0.9787329532624105,
                -3.120756972975194
            ]
        },
        {
            "positions": [
                -1.478748078225958,
                -1.3184128500641759,
                1.979120791643421,
                -0.6459746549542789,
                1.146325062656586,
                -3.1196449640691064
            ]
        },
        {
            "positions": [
                -1.5746331589282292,
                -1.3675098987139522,
                1.9690739055060584,
                -0.5934744693767943,
                1.3139171720507614,
                -3.1185329551630194
            ]
        },
        {
            "positions": [
                -1.6705182396305,
                -1.4166069473637284,
                1.9590270193686958,
                -0.5409742837993098,
                1.4815092814449369,
                -3.117420946256932
            ]
        }
    ]
}