{
    "goal": {
        "global_pose": {
            "orientation": {
                "w": 0.7031023480610252,
                "x": -0.7110244013736278,
                "y": 0.0077485991402295624,
                "z": 0.005598929693374583
            },
            "position": {
                "x": -0.8841497679147869,
                "y": 0.44412534475326537,
                "z": 0.3711530566215515
            }
        },
        "name": "move_to_auspresseinheit_D"
    },
    "id": "SBL_move_to_auspresseinheit_D_121",
    "joint_names": [
        "shoulder_pan_joint",
        "shoulder_lift_joint",
        "elbow_joint",
        "wrist_1_joint",
        "wrist_2_joint",
        "wrist_3_joint"
    ],
    "metrics": {
        "cart_traj_len": 0.3440245877148667,
        "distance_elbow_joint": 0.6628837074477376,
        "distance_shoulder_lift_joint": 0.13580999284810513,
        "distance_shoulder_pan_joint": 0.1336919269193982,
        "distance_wrist_1_joint": 0.6021808274471017,
        "distance_wrist_2_joint": 1.4440861793230968,
        "distance_wrist_3_joint": 0.06556050386361223,
        "smoothness": 0.0,
        "time": 0.171752907,
        "traj_len": 1.744767359234191,
        "weighted_distance": 2.2850823075649758
    },
    "planner": "SBL",
    "start": {
        "state": {
            "elbow_joint": -1.8275523626775212,
            "shoulder_lift_joint": -2.126789852344167,
            "shoulder_pan_joint": -0.03513704404078235,
            "wrist_1_joint": -2.347782403156801,
            "wrist_2_joint": -1.6058999987535132,
            "wrist_3_joint": -3.0880379163319196
        }
    },
    "waypoints": [
        {
            "positions": [
                -0.03513704404078235,
                -2.126789852344167,
                -1.8275523626775212,
                -2.347782403156801,
                -1.6058999987535132,
                -3.0880379163319196
            ]
        },
        {
            "positions": [
                -0.05184853490570712,
                -2.14376610145018,
                -1.744691899246554,
                -2.4230550065876884,
                -1.425389226338126,
                -3.079842853348968
            ]
        },
        {
            "positions": [
                -0.0685600257706319,
                -2.160742350556193,
                -1.6618314358155868,
                -2.4983276100185763,
                -1.2448784539227389,
                -3.0716477903660167
            ]
        },
        {
            "positions": [
                -0.08527151663555668,
                -2.177718599662206,
                -1.5789709723846195,
                -2.573600213449464,
                -1.064367681507352,
                -3.063452727383065
            ]
        },
        {
            "positions": [
                -0.10198300750048145,
                -2.1946948487682194,
                -1.4961105089536524,
                -2.6488728168803517,
                -0.8838569090919648,
                -3.0552576644001137
            ]
        },
        {
            "positions": [
                -0.11869449836540624,
                -2.2116710978742327,
                -1.4132500455226853,
                -2.724145420311239,
                -0.7033461366765776,
                -3.047062601417162
            ]
        },
        {
            "positions": [
                -0.135405989230331,
                -2.228647346980246,
                -1.330389582091718,
                -2.799418023742127,
                -0.5228353642611907,
                -3.0388675384342103
            ]
        },
        {
            "positions": [
                -0.15211748009525577,
                -2.2456235960862587,
                -1.2475291186607507,
                -2.874690627173015,
                -0.34232459184580355,
                -3.030672475451259
            ]
        },
        {
            "positions": [
                -0.16882897096018057,
                -2.262599845192272,
                -1.1646686552297836,
                -2.9499632306039025,
                -0.16181381943041634,
                -3.0224774124683074
            ]
        }
    ]
}