{
    "goal": {
        "global_pose": {
            "orientation": {
                "w": 0.5084816217422485,
                "x": -0.49083608388900757,
                "y": 0.5182115435600281,
                "z": -0.4816462993621826
            },
            "position": {
                "x": 0.5540239810943604,
                "y": 0.030875300988554955,
                "z": 0.16403168439865112
            }
        },
        "name": "move_to_storage_A"
    },
    "id": "SBL_move_to_storage_A_131",
    "joint_names": [
        "shoulder_pan_joint",
        "shoulder_lift_joint",
        "elbow_joint",
        "wrist_1_joint",
        "wrist_2_joint",
        "wrist_3_joint"
    ],
    "metrics": {
        "cart_traj_len": 0.3526598793831568,
        "distance_elbow_joint": 0.44884407197101783,
        "distance_shoulder_lift_joint": 0.23654641526435594,
        "distance_shoulder_pan_joint": 0.4629117991479062,
        "distance_wrist_1_joint": 0.23551589147816077,
        "distance_wrist_2_joint": 1.0912950396380705,
        "distance_wrist_3_joint": 0.10488716726826253,
        "smoothness": 0.0,
        "time": 0.242294137,
        "traj_len": 1.606237960193873,
        "weighted_distance": 2.02893707404161
    },
    "planner": "SBL",
    "start": {
        "state": {
            "elbow_joint": 1.9715481507254546,
            "shoulder_lift_joint": -1.1394850672790213,
            "shoulder_pan_joint": 0.12281154597544902,
            "wrist_1_joint": -0.7804720171073349,
            "wrist_2_joint": 0.12958658322886563,
            "wrist_3_joint": -3.1924895760937617
        }
    },
    "waypoints": [
        {
            "positions": [
                0.12281154597544902,
                -1.1394850672790213,
                1.9715481507254546,
                -0.7804720171073349,
                0.12958658322886563,
                -3.1924895760937617
            ]
        },
        {
            "positions": [
                0.056681288954319564,
                -1.1732774123167864,
                2.0356687324356,
                -0.8141171444613579,
                0.2854858746057328,
                -3.1775056950554386
            ]
        },
        {
            "positions": [
                -0.009448968066809893,
                -1.2070697573545517,
                2.0997893141457453,
                -0.8477622718153809,
                0.4413851659826,
                -3.1625218140171154
            ]
        },
        {
            "positions": [
                -0.07557922508793935,
                -1.2408621023923168,
                2.1639098958558907,
                -0.8814073991694038,
                0.5972844573594672,
                -3.1475379329787923
            ]
        },
        {
            "positions": [
                -0.1417094821090688,
                -1.2746544474300818,
                2.228030477566036,
                -0.9150525265234268,
                0.7531837487363344,
                -3.1325540519404687
            ]
        },
        {
            "positions": [
                -0.20783973913019826,
                -1.308446792467847,
                2.292151059276182,
                -0.9486976538774498,
                0.9090830401132017,
                -3.1175701709021455
            ]
        },
        {
            "positions": [
                -0.2739699961513277,
                -1.3422391375056122,
                2.356271640986327,
                -0.9823427812314727,
                1.0649823314900688,
                -3.1025862898638223
            ]
        },
        {
            "positions": [
                -0.3401002531724572,
                -1.3760314825433773,
                2.4203922226964725,
                -1.0159879085854957,
                1.2208816228669361,
                -3.087602408825499
            ]
        }
    ]
}