{
    "goal": {
        "global_pose": {
            "orientation": {
                "w": 0.5084816262002911,
                "x": -0.4908360881923452,
                "y": 0.5182115481033761,
                "z": -0.48164630358495003
            },
            "position": {
                "x": 0.5540239810943604,
                "y": -0.46912469901144505,
                "z": 0.16403168439865112
            }
        },
        "name": "move_to_storage_B"
    },
    "id": "SBL_move_to_storage_B_63",
    "joint_names": [
        "shoulder_pan_joint",
        "shoulder_lift_joint",
        "elbow_joint",
        "wrist_1_joint",
        "wrist_2_joint",
        "wrist_3_joint"
    ],
    "metrics": {
        "cart_traj_len": 4.746186568245435,
        "distance_elbow_joint": 3.6835471226876946,
        "distance_shoulder_lift_joint": 1.361669675300852,
        "distance_shoulder_pan_joint": 3.825951300892978,
        "distance_wrist_1_joint": 1.841288193001004,
        "distance_wrist_2_joint": 2.857556228857004,
        "distance_wrist_3_joint": 3.1442250005023813,
        "smoothness": 0.10007538210857281,
        "time": 0.42148554499999996,
        "traj_len": 4.08830496920691,
        "weighted_distance": 5.263224481637153
    },
    "planner": "SBL",
    "start": {
        "state": {
            "elbow_joint": -1.6666013991110213,
            "shoulder_lift_joint": -2.479295265494141,
            "shoulder_pan_joint": 2.6606783912885628,
            "wrist_1_joint": 0.9897123657714939,
            "wrist_2_joint": 0.474351758749468,
            "wrist_3_joint": 0.013243222496468381
        }
    },
    "waypoints": [
        {
            "positions": [
                2.6606783912885628,
                -2.479295265494141,
                -1.6666013991110213,
                0.9897123657714939,
                0.474351758749468,
                0.013243222496468381
            ]
        },
        {
            "positions": [
                2.667776667858203,
                -2.4796411711050506,
                -1.6502704802939598,
                0.8776674297136446,
                0.3803666197228874,
                -0.09982564558763633
            ]
        },
        {
            "positions": [
                2.674874944427843,
                -2.47998707671596,
                -1.6339395614768981,
                0.7656224936557955,
                0.28638148069630676,
                -0.21289451367174103
            ]
        },
        {
            "positions": [
                2.6819732209974836,
                -2.4803329823268703,
                -1.6176086426598366,
                0.6535775575979463,
                0.19239634166972613,
                -0.3259633817558457
            ]
        },
        {
            "positions": [
                2.6890714975671237,
                -2.48067888793778,
                -1.601277723842775,
                0.5415326215400971,
                0.09841120264314546,
                -0.4390322498399505
            ]
        },
        {
            "positions": [
                2.696169774136764,
                -2.4810247935486895,
                -1.5849468050257134,
                0.42948768548224775,
                0.004426063616564821,
                -0.5521011179240551
            ]
        },
        {
            "positions": [
                2.6931570637418534,
                -2.4361257813148214,
                -1.5695795563312314,
                0.33257803456802243,
                -0.11591110483950957,
                -0.5901226445182336
            ]
        },
        {
            "positions": [
                2.690144353346943,
                -2.391226769080953,
                -1.5542123076367491,
                0.23566838365379708,
                -0.23624827329558395,
                -0.628144171112412
            ]
        },
        {
            "positions": [
                2.675724551504952,
                -2.3326050744184412,
                -1.538139913155127,
                0.1621534362867843,
                -0.3442807043958045,
                -0.6284216666873172
            ]
        },
        {
            "positions": [
                2.661304749662961,
                -2.273983379755929,
                -1.5220675186735049,
                0.08863848891977152,
                -0.45231313549602503,
                -0.6286991622622224
            ]
        },
        {
            "positions": [
                2.64688494782097,
                -2.215361685093417,
                -1.5059951241918828,
                0.015123541552758746,
                -0.5603455665962456,
                -0.6289766578371276
            ]
        },
        {
            "positions": [
                2.586281761891346,
                -2.154897139829097,
                -1.4642600681916158,
                -0.05709383162259092,
                -0.6396562707588244,
                -0.6515807658050078
            ]
        },
        {
            "positions": [
                2.525678575961722,
                -2.0944325945647764,
                -1.4225250121913486,
                -0.1293112047979406,
                -0.7189669749214032,
                -0.6741848737728879
            ]
        },
        {
            "positions": [
                2.465075390032098,
                -2.0339680493004564,
                -1.3807899561910817,
                -0.20152857797329024,
                -0.7982776790839821,
                -0.6967889817407682
            ]
        },
        {
            "positions": [
                2.4044722041024738,
                -1.9735035040361364,
                -1.3390549001908145,
                -0.2737459511486399,
                -0.8775883832465609,
                -0.7193930897086483
            ]
        },
        {
            "positions": [
                2.3438690181728496,
                -1.9130389587718162,
                -1.2973198441905476,
                -0.3459633243239896,
                -0.9568990874091396,
                -0.7419971976765285
            ]
        },
        {
            "positions": [
                2.229263712770154,
                -1.886640481689502,
                -1.1868443252649736,
                -0.3628170744208403,
                -0.9093555746525266,
                -0.8216300170208413
            ]
        },
        {
            "positions": [
                2.114658407367459,
                -1.8602420046071875,
                -1.0763688063393995,
                -0.3796708245176911,
                -0.8618120618959134,
                -0.9012628363651541
            ]
        },
        {
            "positions": [
                2.000053101964763,
                -1.8338435275248732,
                -0.9658932874138255,
                -0.3965245746145418,
                -0.8142685491393002,
                -0.980895655709467
            ]
        },
        {
            "positions": [
                1.885447796562068,
                -1.8074450504425588,
                -0.8554177684882515,
                -0.4133783247113926,
                -0.7667250363826872,
                -1.0605284750537798
            ]
        },
        {
            "positions": [
                1.7708424911593725,
                -1.7810465733602445,
                -0.7449422495626774,
                -0.4302320748082433,
                -0.7191815236260741,
                -1.1401612943980926
            ]
        },
        {
            "positions": [
                1.656237185756677,
                -1.75464809627793,
                -0.6344667306371033,
                -0.4470858249050941,
                -0.671638010869461,
                -1.2197941137424055
            ]
        },
        {
            "positions": [
                1.5416318803539815,
                -1.7282496191956158,
                -0.5239912117115293,
                -0.4639395750019448,
                -0.6240944981128478,
                -1.2994269330867183
            ]
        },
        {
            "positions": [
                1.4270265749512863,
                -1.7018511421133016,
                -0.41351569278595535,
                -0.4807933250987956,
                -0.5765509853562347,
                -1.379059752431031
            ]
        },
        {
            "positions": [
                1.3124212695485908,
                -1.675452665030987,
                -0.3030401738603813,
                -0.4976470751956463,
                -0.5290074725996217,
                -1.458692571775344
            ]
        },
        {
            "positions": [
                1.1978159641458954,
                -1.6490541879486729,
                -0.19256465493480723,
                -0.514500825292497,
                -0.48146395984300855,
                -1.5383253911196566
            ]
        },
        {
            "positions": [
                1.0832106587432,
                -1.6226557108663586,
                -0.08208913600923329,
                -0.5313545753893478,
                -0.43392044708639543,
                -1.6179582104639696
            ]
        },
        {
            "positions": [
                0.9686053533405043,
                -1.5962572337840442,
                0.02838638291634088,
                -0.5482083254861986,
                -0.38637693432978226,
                -1.6975910298082826
            ]
        },
        {
            "positions": [
                0.8540000479378089,
                -1.56985875670173,
                0.13886190184191483,
                -0.5650620755830493,
                -0.3388334215731692,
                -1.7772238491525953
            ]
        },
        {
            "positions": [
                0.7393947425351135,
                -1.5434602796194155,
                0.249337420767489,
                -0.5819158256799,
                -0.29128990881655603,
                -1.8568566684969081
            ]
        },
        {
            "positions": [
                0.6247894371324181,
                -1.5170618025371012,
                0.35981293969306294,
                -0.5987695757767508,
                -0.24374639605994297,
                -1.9364894878412209
            ]
        },
        {
            "positions": [
                0.5101841317297227,
                -1.490663325454787,
                0.4702884586186369,
                -0.6156233258736015,
                -0.1962028833033299,
                -2.0161223071855336
            ]
        },
        {
            "positions": [
                0.39557882632702723,
                -1.4642648483724725,
                0.580763977544211,
                -0.6324770759704523,
                -0.14865937054671674,
                -2.0957551265298466
            ]
        },
        {
            "positions": [
                0.28097352092433203,
                -1.4378663712901583,
                0.691239496469785,
                -0.649330826067303,
                -0.10111585779010368,
                -2.175387945874159
            ]
        },
        {
            "positions": [
                0.1663682155216364,
                -1.4114678942078438,
                0.8017150153953589,
                -0.6661845761641537,
                -0.05357234503349062,
                -2.255020765218472
            ]
        },
        {
            "positions": [
                0.051762910118941186,
                -1.3850694171255296,
                0.9121905343209331,
                -0.6830383262610045,
                -0.006028832276877449,
                -2.334653584562785
            ]
        },
        {
            "positions": [
                -0.06284239528375446,
                -1.3586709400432153,
                1.0226660532465068,
                -0.6998920763578552,
                0.04151468047973561,
                -2.4142864039070977
            ]
        },
        {
            "positions": [
                -0.17744770068644966,
                -1.3322724629609008,
                1.133141572172081,
                -0.716745826454706,
                0.08905819323634878,
                -2.4939192232514102
            ]
        },
        {
            "positions": [
                -0.29205300608914575,
                -1.3058739858785864,
                1.2436170910976552,
                -0.7335995765515568,
                0.13660170599296206,
                -2.5735520425957237
            ]
        },
        {
            "positions": [
                -0.40665831149184095,
                -1.2794755087962721,
                1.3540926100232293,
                -0.7504533266484075,
                0.18414521874957512,
                -2.653184861940036
            ]
        },
        {
            "positions": [
                -0.5212636168945366,
                -1.253077031713958,
                1.4645681289488035,
                -0.7673070767452583,
                0.23168873150618818,
                -2.732817681284349
            ]
        },
        {
            "positions": [
                -0.6358689222972318,
                -1.2266785546316434,
                1.5750436478743772,
                -0.784160826842109,
                0.27923224426280124,
                -2.812450500628662
            ]
        },
        {
            "positions": [
                -0.7504742276999274,
                -1.2002800775493292,
                1.6855191667999514,
                -0.8010145769389597,
                0.3267757570194143,
                -2.8920833199729747
            ]
        },
        {
            "positions": [
                -0.8650795331026226,
                -1.173881600467015,
                1.7959946857255256,
                -0.8178683270358105,
                0.3743192697760276,
                -2.9717161393172877
            ]
        },
        {
            "positions": [
                -0.9796848385053183,
                -1.1474831233847005,
                1.9064702046510993,
                -0.8347220771326612,
                0.42186278253264065,
                -3.0513489586616003
            ]
        },
        {
            "positions": [
                -1.0942901439080133,
                -1.1210846463023862,
                2.0169457235766735,
                -0.851575827229512,
                0.4694062952892537,
                -3.1309817780059133
            ]
        }
    ]
}