{
    "goal": {
        "global_pose": {
            "orientation": {
                "w": 0.7031023502349854,
                "x": -0.7110244035720825,
                "y": 0.007748599164187908,
                "z": 0.005598929710686207
            },
            "position": {
                "x": 0.11585023208521307,
                "y": 0.44412534475326537,
                "z": 0.3711530566215515
            }
        },
        "name": "move_to_auspresseinheit_A"
    },
    "id": "SBL_move_to_auspresseinheit_A_45",
    "joint_names": [
        "shoulder_pan_joint",
        "shoulder_lift_joint",
        "elbow_joint",
        "wrist_1_joint",
        "wrist_2_joint",
        "wrist_3_joint"
    ],
    "metrics": {
        "cart_traj_len": 1.6573484101962983,
        "distance_elbow_joint": 2.1261103687968776,
        "distance_shoulder_lift_joint": 0.5340390856463124,
        "distance_shoulder_pan_joint": 1.2026032488923235,
        "distance_wrist_1_joint": 0.6666603430539917,
        "distance_wrist_2_joint": 0.5167828700523328,
        "distance_wrist_3_joint": 2.740005926669269,
        "smoothness": 1.4074734651134475,
        "time": 0.426055274,
        "traj_len": 2.7903766489689357,
        "weighted_distance": 3.801270433625575
    },
    "planner": "SBL",
    "start": {
        "state": {
            "elbow_joint": 2.4225746658250005,
            "shoulder_lift_joint": -1.3736534386056498,
            "shoulder_pan_joint": -0.3378633547517467,
            "wrist_1_joint": -1.0288598680537169,
            "wrist_2_joint": 1.233022673432363,
            "wrist_3_joint": -3.0940220416140027
        }
    },
    "waypoints": [
        {
            "positions": [
                -0.3378633547517467,
                -1.3736534386056498,
                2.4225746658250005,
                -1.0288598680537169,
                1.233022673432363,
                -3.0940220416140027
            ]
        },
        {
            "positions": [
                -0.265196947636092,
                -1.3852680826067492,
                2.324667817262437,
                -0.9870994477389254,
                1.210864946800164,
                -2.9710032035413967
            ]
        },
        {
            "positions": [
                -0.19253054052043725,
                -1.3968827266078487,
                2.2267609686998737,
                -0.9453390274241339,
                1.1887072201679652,
                -2.8479843654687906
            ]
        },
        {
            "positions": [
                -0.11986413340478252,
                -1.408497370608948,
                2.1288541201373103,
                -0.9035786071093425,
                1.1665494935357663,
                -2.724965527396185
            ]
        },
        {
            "positions": [
                -0.04719772628912777,
                -1.4201120146100477,
                2.030947271574747,
                -0.8618181867945509,
                1.1443917669035673,
                -2.601946689323579
            ]
        },
        {
            "positions": [
                0.02546868082652698,
                -1.431726658611147,
                1.9330404230121834,
                -0.8200577664797595,
                1.1222340402713682,
                -2.478927851250973
            ]
        },
        {
            "positions": [
                0.09813508794218168,
                -1.4433413026122466,
                1.83513357444962,
                -0.778297346164968,
                1.1000763136391694,
                -2.355909013178367
            ]
        },
        {
            "positions": [
                0.17080149505783643,
                -1.454955946613346,
                1.7372267258870566,
                -0.7365369258501765,
                1.0779185870069705,
                -2.232890175105761
            ]
        },
        {
            "positions": [
                0.24346790217349118,
                -1.4665705906144455,
                1.639319877324493,
                -0.694776505535385,
                1.0557608603747715,
                -2.109871337033155
            ]
        },
        {
            "positions": [
                0.31613430928914604,
                -1.4781852346155449,
                1.5414130287619296,
                -0.6530160852205935,
                1.0336031337425724,
                -1.986852498960549
            ]
        },
        {
            "positions": [
                0.3888007164048007,
                -1.4897998786166444,
                1.4435061801993663,
                -0.6112556649058021,
                1.0114454071103736,
                -1.8638336608879431
            ]
        },
        {
            "positions": [
                0.4614671235204554,
                -1.5014145226177438,
                1.345599331636803,
                -0.5694952445910105,
                0.9892876804781746,
                -1.740814822815337
            ]
        },
        {
            "positions": [
                0.48883254631391077,
                -1.5460386124342531,
                1.4597158022650178,
                -0.5553113248294427,
                0.9658460368689449,
                -1.8585591333118983
            ]
        },
        {
            "positions": [
                0.5161979691073662,
                -1.5906627022507625,
                1.573832272893233,
                -0.5411274050678748,
                0.942404393259715,
                -1.9763034438084595
            ]
        },
        {
            "positions": [
                0.5435633919008216,
                -1.6352867920672716,
                1.687948743521448,
                -0.526943485306307,
                0.9189627496504853,
                -2.094047754305021
            ]
        },
        {
            "positions": [
                0.570928814694277,
                -1.679910881883781,
                1.8020652141496631,
                -0.5127595655447391,
                0.8955211060412555,
                -2.211792064801582
            ]
        },
        {
            "positions": [
                0.5982942374877325,
                -1.7245349717002902,
                1.916181684777878,
                -0.49857564578317126,
                0.8720794624320257,
                -2.3295363752981433
            ]
        },
        {
            "positions": [
                0.6256596602811878,
                -1.7691590615167996,
                2.030298155406093,
                -0.4843917260216034,
                0.8486378188227959,
                -2.4472806857947043
            ]
        },
        {
            "positions": [
                0.6530250830746432,
                -1.813783151333309,
                2.144414626034308,
                -0.47020780626003555,
                0.8251961752135661,
                -2.5650249962912657
            ]
        },
        {
            "positions": [
                0.6137460127447865,
                -1.839906395806734,
                2.2328885233259386,
                -0.49751701508793506,
                0.8088760999852587,
                -2.7093482415747108
            ]
        },
        {
            "positions": [
                0.5744669424149298,
                -1.866029640280159,
                2.321362420617569,
                -0.5248262239158346,
                0.7925560247569511,
                -2.853671486858156
            ]
        },
        {
            "positions": [
                0.6410452776180398,
                -1.8868610822660608,
                2.3580483934315257,
                -0.49813129211357887,
                0.7543979140684907,
                -2.990642508772048
            ]
        },
        {
            "positions": [
                0.7076236128211498,
                -1.9076925242519622,
                2.394734366245483,
                -0.47143636031132313,
                0.7162398033800302,
                -3.1276135306859403
            ]
        }
    ]
}