{
    "goal": {
        "global_pose": {
            "orientation": {
                "w": -0.4816463035849501,
                "x": 0.5182115481033762,
                "y": 0.4908360881923453,
                "z": -0.5084816262002911
            },
            "position": {
                "x": -0.8240239810943604,
                "y": -0.300875300988555,
                "z": 0.16403168439865112
            }
        },
        "name": "move_to_storage_C"
    },
    "id": "SBL_move_to_storage_C_41",
    "joint_names": [
        "shoulder_pan_joint",
        "shoulder_lift_joint",
        "elbow_joint",
        "wrist_1_joint",
        "wrist_2_joint",
        "wrist_3_joint"
    ],
    "metrics": {
        "cart_traj_len": 0.5769945365034552,
        "distance_elbow_joint": 0.2614463957808293,
        "distance_shoulder_lift_joint": 0.1911323538238182,
        "distance_shoulder_pan_joint": 0.4942591068325739,
        "distance_wrist_1_joint": 0.08735325104165526,
        "distance_wrist_2_joint": 1.0698305503492458,
        "distance_wrist_3_joint": 0.07468503367617707,
        "smoothness": 2.5376526478085547e-16,
        "time": 0.534103966,
        "traj_len": 1.4760442715258575,
        "weighted_distance": 1.8668852563153298
    },
    "planner": "SBL",
    "start": {
        "state": {
            "elbow_joint": 2.010868314990456,
            "shoulder_lift_joint": -1.1634956873337592,
            "shoulder_pan_joint": -2.4736205022346125,
            "wrist_1_joint": -0.8367026794202681,
            "wrist_2_joint": 0.6746043897044499,
            "wrist_3_joint": -3.1496632123970403
        }
    },
    "waypoints": [
        {
            "positions": [
                -2.4736205022346125,
                -1.1634956873337592,
                2.010868314990456,
                -0.8367026794202681,
                0.6746043897044499,
                -3.1496632123970403
            ]
        },
        {
            "positions": [
                -2.5559970200400413,
                -1.1316402950297895,
                1.9672939156936509,
                -0.8221438042466589,
                0.8529094814293242,
                -3.1372157067843442
            ]
        },
        {
            "positions": [
                -2.6383735378454705,
                -1.0997849027258197,
                1.9237195163968461,
                -0.8075849290730497,
                1.0312145731541986,
                -3.1247682011716478
            ]
        },
        {
            "positions": [
                -2.7207500556508997,
                -1.06792951042185,
                1.8801451171000412,
                -0.7930260538994405,
                1.209519664879073,
                -3.1123206955589517
            ]
        },
        {
            "positions": [
                -2.8031265734563284,
                -1.0360741181178803,
                1.8365707178032362,
                -0.7784671787258313,
                1.3878247566039472,
                -3.0998731899462557
            ]
        },
        {
            "positions": [
                -2.885503091261757,
                -1.0042187258139106,
                1.7929963185064315,
                -0.7639083035522221,
                1.5661298483288215,
                -3.0874256843335592
            ]
        },
        {
            "positions": [
                -2.9678796090671864,
                -0.972363333509941,
                1.7494219192096265,
                -0.7493494283786128,
                1.7444349400536958,
                -3.074978178720863
            ]
        }
    ]
}