{
    "goal": {
        "global_pose": {
            "orientation": {
                "w": 0.005598929693374612,
                "x": 0.007748599140229565,
                "y": 0.7110244013736278,
                "z": -0.7031023480610252
            },
            "position": {
                "x": -0.8858502320852131,
                "y": -0.7141253447532654,
                "z": 0.3711530566215515
            }
        },
        "name": "move_to_auspresseinheit_C"
    },
    "id": "SBL_move_to_auspresseinheit_C_81",
    "joint_names": [
        "shoulder_pan_joint",
        "shoulder_lift_joint",
        "elbow_joint",
        "wrist_1_joint",
        "wrist_2_joint",
        "wrist_3_joint"
    ],
    "metrics": {
        "cart_traj_len": 0.49286263397417857,
        "distance_elbow_joint": 0.997993755288056,
        "distance_shoulder_lift_joint": 0.32417813920405103,
        "distance_shoulder_pan_joint": 0.25591049721440795,
        "distance_wrist_1_joint": 0.6699248951995397,
        "distance_wrist_2_joint": 1.3086065668943268,
        "distance_wrist_3_joint": 0.06253499213155456,
        "smoothness": 1.1304089016362698e-15,
        "time": 0.36364685900000004,
        "traj_len": 1.9024060675712575,
        "weighted_distance": 2.3922270570096207
    },
    "planner": "SBL",
    "start": {
        "state": {
            "elbow_joint": 1.7527959577737207,
            "shoulder_lift_joint": -0.9740617694225068,
            "shoulder_pan_joint": -2.967991417825858,
            "wrist_1_joint": -0.759517768980727,
            "wrist_2_joint": 1.7443932448377408,
            "wrist_3_joint": -3.0840537646736568
        }
    },
    "waypoints": [
        {
            "positions": [
                -2.967991417825858,
                -0.9740617694225068,
                1.7527959577737207,
                -0.759517768980727,
                1.7443932448377408,
                -3.0840537646736568
            ]
        },
        {
            "positions": [
                -2.9424003681044173,
                -0.9416439555021017,
                1.652996582244915,
                -0.692525279460773,
                1.6135325881483082,
                -3.090307263886812
            ]
        },
        {
            "positions": [
                -2.916809318382976,
                -0.9092261415816966,
                1.5531972067161095,
                -0.6255327899408191,
                1.4826719314588754,
                -3.096560763099968
            ]
        },
        {
            "positions": [
                -2.8912182686615355,
                -0.8768083276612915,
                1.453397831187304,
                -0.5585403004208651,
                1.3518112747694428,
                -3.102814262313123
            ]
        },
        {
            "positions": [
                -2.865627218940095,
                -0.8443905137408864,
                1.3535984556584983,
                -0.4915478109009111,
                1.22095061808001,
                -3.1090677615262785
            ]
        },
        {
            "positions": [
                -2.8400361692186538,
                -0.8119726998204813,
                1.2537990801296925,
                -0.42455532138095714,
                1.0900899613905775,
                -3.1153212607394343
            ]
        },
        {
            "positions": [
                -2.814445119497213,
                -0.7795548859000762,
                1.1539997046008872,
                -0.3575628318610032,
                0.9592293047011448,
                -3.1215747599525896
            ]
        },
        {
            "positions": [
                -2.7888540697757724,
                -0.747137071979671,
                1.0542003290720814,
                -0.2905703423410492,
                0.8283686480117122,
                -3.127828259165745
            ]
        },
        {
            "positions": [
                -2.7632630200543318,
                -0.714719258059266,
                0.9544009535432758,
                -0.2235778528210952,
                0.6975079913222795,
                -3.1340817583789002
            ]
        },
        {
            "positions": [
                -2.7376719703328907,
                -0.6823014441388608,
                0.8546015780144702,
                -0.15658536330114126,
                0.5666473346328467,
                -3.140335257592056
            ]
        },
        {
            "positions": [
                -2.71208092061145,
                -0.6498836302184557,
                0.7548022024856647,
                -0.08959287378118733,
                0.4357866779434141,
                -3.1465887568052113
            ]
        }
    ]
}