{
    "goal": {
        "global_pose": {
            "orientation": {
                "w": 0.5084816262002911,
                "x": -0.4908360881923452,
                "y": 0.5182115481033761,
                "z": -0.48164630358495003
            },
            "position": {
                "x": 0.5540239810943604,
                "y": -0.46912469901144505,
                "z": 0.16403168439865112
            }
        },
        "name": "move_to_storage_B"
    },
    "id": "SBL_move_to_storage_B_61",
    "joint_names": [
        "shoulder_pan_joint",
        "shoulder_lift_joint",
        "elbow_joint",
        "wrist_1_joint",
        "wrist_2_joint",
        "wrist_3_joint"
    ],
    "metrics": {
        "cart_traj_len": 4.91408774235763,
        "distance_elbow_joint": 4.014925222558202,
        "distance_shoulder_lift_joint": 1.3597960053906273,
        "distance_shoulder_pan_joint": 3.9067516336225214,
        "distance_wrist_1_joint": 1.8344638458366536,
        "distance_wrist_2_joint": 1.7870408996278884,
        "distance_wrist_3_joint": 3.1330319201312564,
        "smoothness": 0.08653084641487853,
        "time": 0.3612758,
        "traj_len": 4.0044986611518745,
        "weighted_distance": 5.091520216290436
    },
    "planner": "SBL",
    "start": {
        "state": {
            "elbow_joint": -1.6666013991110213,
            "shoulder_lift_joint": -2.479295265494141,
            "shoulder_pan_joint": 2.6606783912885628,
            "wrist_1_joint": 0.9897123657714939,
            "wrist_2_joint": 0.474351758749468,
            "wrist_3_joint": 0.013243222496468381
        }
    },
    "waypoints": [
        {
            "positions": [
                2.6606783912885628,
                -2.479295265494141,
                -1.6666013991110213,
                0.9897123657714939,
                0.474351758749468,
                0.013243222496468381
            ]
        },
        {
            "positions": [
                2.6795340186171552,
                -2.450260209830576,
                -1.695401447226875,
                0.8751720573819504,
                0.3817515032467006,
                0.046625512667923495
            ]
        },
        {
            "positions": [
                2.6983896459457473,
                -2.4212251541670113,
                -1.7242014953427285,
                0.7606317489924069,
                0.2891512477439332,
                0.08000780283937861
            ]
        },
        {
            "positions": [
                2.7172452732743397,
                -2.3921900985034465,
                -1.753001543458582,
                0.6460914406028635,
                0.1965509922411658,
                0.11339009301083373
            ]
        },
        {
            "positions": [
                2.736100900602932,
                -2.3631550428398818,
                -1.7818015915744356,
                0.53155113221332,
                0.10395073673839839,
                0.14677238318228886
            ]
        },
        {
            "positions": [
                2.734387833902309,
                -2.3217073501428067,
                -1.7946537949949004,
                0.38518749270457586,
                0.006824972077971697,
                0.19178840831956462
            ]
        },
        {
            "positions": [
                2.732674767201686,
                -2.2802596574457317,
                -1.807505998415365,
                0.23882385319583177,
                -0.09030079258245499,
                0.23680443345684035
            ]
        },
        {
            "positions": [
                2.730961700501063,
                -2.2388119647486566,
                -1.8203582018358297,
                0.09246021368708768,
                -0.1874265572428817,
                0.2818204585941161
            ]
        },
        {
            "positions": [
                2.72924863380044,
                -2.1973642720515816,
                -1.8332104052562945,
                -0.05390342582165639,
                -0.28455232190330837,
                0.32683648373139185
            ]
        },
        {
            "positions": [
                2.676838328530331,
                -2.1525785186417643,
                -1.7960843221063991,
                -0.1794636233921025,
                -0.330154518473124,
                0.3735487015808289
            ]
        },
        {
            "positions": [
                2.624428023260222,
                -2.1077927652319475,
                -1.758958238956504,
                -0.30502382096254865,
                -0.3757567150429396,
                0.420260919430266
            ]
        },
        {
            "positions": [
                2.5720177179901134,
                -2.06300701182213,
                -1.7218321558066085,
                -0.4305840185329947,
                -0.4213589116127553,
                0.4669731372797031
            ]
        },
        {
            "positions": [
                2.4574162823121344,
                -2.0335223945809235,
                -1.6050528443390073,
                -0.44352675170587486,
                -0.39350484194820323,
                0.5507013249468288
            ]
        },
        {
            "positions": [
                2.342814846634155,
                -2.0040377773397164,
                -1.4882735328714058,
                -0.456469484878755,
                -0.36565077228365117,
                0.6344295126139544
            ]
        },
        {
            "positions": [
                2.228213410956176,
                -1.9745531600985098,
                -1.3714942214038044,
                -0.46941221805163513,
                -0.33779670261909905,
                0.7181577002810802
            ]
        },
        {
            "positions": [
                2.1136119752781966,
                -1.9450685428573031,
                -1.2547149099362032,
                -0.48235495122451527,
                -0.309942632954547,
                0.8018858879482058
            ]
        },
        {
            "positions": [
                1.9990105396002176,
                -1.9155839256160965,
                -1.137935598468602,
                -0.4952976843973954,
                -0.28208856328999493,
                0.8856140756153315
            ]
        },
        {
            "positions": [
                1.8844091039222386,
                -1.8860993083748896,
                -1.0211562870010005,
                -0.5082404175702756,
                -0.2542344936254428,
                0.9693422632824571
            ]
        },
        {
            "positions": [
                1.7698076682442594,
                -1.8566146911336827,
                -0.9043769755333991,
                -0.5211831507431557,
                -0.22638042396089075,
                1.0530704509495827
            ]
        },
        {
            "positions": [
                1.6552062325662802,
                -1.827130073892476,
                -0.7875976640657978,
                -0.5341258839160359,
                -0.1985263542963387,
                1.1367986386167084
            ]
        },
        {
            "positions": [
                1.540604796888301,
                -1.7976454566512694,
                -0.6708183525981966,
                -0.547068617088916,
                -0.17067228463178663,
                1.220526826283834
            ]
        },
        {
            "positions": [
                1.4260033612103218,
                -1.7681608394100625,
                -0.5540390411305951,
                -0.5600113502617962,
                -0.14281821496723457,
                1.3042550139509597
            ]
        },
        {
            "positions": [
                1.3114019255323428,
                -1.7386762221688556,
                -0.43725972966299365,
                -0.5729540834346762,
                -0.11496414530268245,
                1.3879832016180855
            ]
        },
        {
            "positions": [
                1.1968004898543636,
                -1.709191604927649,
                -0.3204804181953924,
                -0.5858968166075564,
                -0.08711007563813039,
                1.4717113892852112
            ]
        },
        {
            "positions": [
                1.0821990541763844,
                -1.6797069876864423,
                -0.20370110672779118,
                -0.5988395497804366,
                -0.05925600597357833,
                1.5554395769523368
            ]
        },
        {
            "positions": [
                0.9675976184984054,
                -1.6502223704452355,
                -0.08692179526018973,
                -0.6117822829533167,
                -0.03140193630902621,
                1.6391677646194625
            ]
        },
        {
            "positions": [
                0.8529961828204262,
                -1.6207377532040286,
                0.029857516207411727,
                -0.6247250161261969,
                -0.0035478666444741513,
                1.722895952286588
            ]
        },
        {
            "positions": [
                0.738394747142447,
                -1.591253135962822,
                0.14663682767501296,
                -0.637667749299077,
                0.02430620302007791,
                1.8066241399537137
            ]
        },
        {
            "positions": [
                0.6237933114644678,
                -1.5617685187216153,
                0.2634161391426142,
                -0.6506104824719572,
                0.05216027268462997,
                1.8903523276208394
            ]
        },
        {
            "positions": [
                0.5091918757864886,
                -1.5322839014804084,
                0.3801954506102154,
                -0.6635532156448373,
                0.08001434234918203,
                1.974080515287965
            ]
        },
        {
            "positions": [
                0.39459044010850963,
                -1.5027992842392015,
                0.4969747620778171,
                -0.6764959488177175,
                0.1078684120137341,
                2.0578087029550907
            ]
        },
        {
            "positions": [
                0.2799890044305302,
                -1.4733146669979948,
                0.6137540735454183,
                -0.6894386819905975,
                0.13572248167828616,
                2.1415368906222163
            ]
        },
        {
            "positions": [
                0.16538756875255123,
                -1.4438300497567882,
                0.7305333850130196,
                -0.7023814151634777,
                0.16357655134283833,
                2.2252650782893424
            ]
        },
        {
            "positions": [
                0.05078613307457225,
                -1.4143454325155813,
                0.8473126964806212,
                -0.7153241483363579,
                0.1914306210073904,
                2.308993265956468
            ]
        },
        {
            "positions": [
                -0.06381530260340718,
                -1.3848608152743744,
                0.9640920079482225,
                -0.728266881509238,
                0.21928469067194245,
                2.3927214536235937
            ]
        },
        {
            "positions": [
                -0.17841673828138616,
                -1.3553761980331678,
                1.0808713194158237,
                -0.7412096146821181,
                0.2471387603364945,
                2.4764496412907193
            ]
        },
        {
            "positions": [
                -0.29301817395936514,
                -1.3258915807919611,
                1.197650630883425,
                -0.7541523478549983,
                0.2749928300010466,
                2.560177828957845
            ]
        },
        {
            "positions": [
                -0.40761960963734456,
                -1.2964069635507542,
                1.3144299423510262,
                -0.7670950810278785,
                0.30284689966559863,
                2.6439060166249706
            ]
        },
        {
            "positions": [
                -0.5222210453153235,
                -1.2669223463095474,
                1.4312092538186278,
                -0.7800378142007587,
                0.3307009693301507,
                2.7276342042920962
            ]
        },
        {
            "positions": [
                -0.6368224809933025,
                -1.2374377290683407,
                1.547988565286229,
                -0.7929805473736388,
                0.35855503899470287,
                2.811362391959222
            ]
        },
        {
            "positions": [
                -0.7514239166712819,
                -1.207953111827134,
                1.6647678767538303,
                -0.8059232805465188,
                0.38640910865925493,
                2.8950905796263475
            ]
        },
        {
            "positions": [
                -0.8660253523492609,
                -1.1784684945859272,
                1.781547188221432,
                -0.818866013719399,
                0.414263178323807,
                2.978818767293473
            ]
        },
        {
            "positions": [
                -0.9806267880272403,
                -1.1489838773447203,
                1.8983264996890332,
                -0.8318087468922792,
                0.44211724798835905,
                3.062546954960599
            ]
        },
        {
            "positions": [
                -1.0952282237052196,
                -1.1194992601035136,
                2.0151058111566345,
                -0.8447514800651593,
                0.4699713176529111,
                3.1462751426277245
            ]
        }
    ]
}