{
    "goal": {
        "global_pose": {
            "orientation": {
                "w": 0.7031023502349854,
                "x": -0.7110244035720825,
                "y": 0.007748599164187908,
                "z": 0.005598929710686207
            },
            "position": {
                "x": 0.11585023208521307,
                "y": 0.44412534475326537,
                "z": 0.3711530566215515
            }
        },
        "name": "move_to_auspresseinheit_A"
    },
    "id": "SBL_move_to_auspresseinheit_A_49",
    "joint_names": [
        "shoulder_pan_joint",
        "shoulder_lift_joint",
        "elbow_joint",
        "wrist_1_joint",
        "wrist_2_joint",
        "wrist_3_joint"
    ],
    "metrics": {
        "cart_traj_len": 0.7209186153883277,
        "distance_elbow_joint": 0.078791744051109,
        "distance_shoulder_lift_joint": 0.5322346734622405,
        "distance_shoulder_pan_joint": 1.0419385608387173,
        "distance_wrist_1_joint": 1.5270182253070024,
        "distance_wrist_2_joint": 1.3711895985629687,
        "distance_wrist_3_joint": 0.41472859783736205,
        "smoothness": 1.5508430152798087,
        "time": 0.15776141,
        "traj_len": 2.2284302546993477,
        "weighted_distance": 2.948485445038536
    },
    "planner": "SBL",
    "start": {
        "state": {
            "elbow_joint": 2.4225746658250005,
            "shoulder_lift_joint": -1.3736534386056498,
            "shoulder_pan_joint": -0.3378633547517467,
            "wrist_1_joint": -1.0288598680537169,
            "wrist_2_joint": 1.233022673432363,
            "wrist_3_joint": -3.0940220416140027
        }
    },
    "waypoints": [
        {
            "positions": [
                -0.3378633547517467,
                -1.3736534386056498,
                2.4225746658250005,
                -1.0288598680537169,
                1.233022673432363,
                -3.0940220416140027
            ]
        },
        {
            "positions": [
                -0.2530689044731911,
                -1.4262731275901446,
                2.417097417830711,
                -0.9245215971490348,
                1.137713796632109,
                -3.0749159001559976
            ]
        },
        {
            "positions": [
                -0.16827445419463544,
                -1.4788928165746393,
                2.411620169836422,
                -0.8201833262443528,
                1.0424049198318546,
                -3.0558097586979924
            ]
        },
        {
            "positions": [
                -0.08348000391607985,
                -1.531512505559134,
                2.4061429218421324,
                -0.7158450553396707,
                0.9470960430316004,
                -3.0367036172399873
            ]
        },
        {
            "positions": [
                0.0013144463624758518,
                -1.5841321945436289,
                2.4006656738478434,
                -0.6115067844349886,
                0.8517871662313461,
                -3.017597475781982
            ]
        },
        {
            "positions": [
                0.08610889664103144,
                -1.6367518835281236,
                2.395188425853554,
                -0.5071685135303066,
                0.756478289431092,
                -2.998491334323977
            ]
        },
        {
            "positions": [
                0.17090334691958703,
                -1.6893715725126184,
                2.3897111778592643,
                -0.4028302426256245,
                0.6611694126308377,
                -2.979385192865972
            ]
        },
        {
            "positions": [
                0.2556977971981426,
                -1.7419912614971131,
                2.3842339298649753,
                -0.29849197172094244,
                0.5658605358305836,
                -2.9602790514079667
            ]
        },
        {
            "positions": [
                0.34049224747669843,
                -1.794610950481608,
                2.378756681870686,
                -0.19415370081626038,
                0.47055165903032925,
                -2.9411729099499615
            ]
        },
        {
            "positions": [
                0.425286697755254,
                -1.8472306394661027,
                2.3732794338763967,
                -0.08981542991157832,
                0.3752427822300751,
                -2.9220667684919563
            ]
        },
        {
            "positions": [
                0.5100811480338096,
                -1.8998503284505974,
                2.3678021858821072,
                0.014522840993103803,
                0.2799339054298209,
                -2.902960627033951
            ]
        },
        {
            "positions": [
                0.5585796625470998,
                -1.9013597743549207,
                2.373807001909161,
                -0.1063860380719416,
                0.3844591130699275,
                -2.958877422848279
            ]
        },
        {
            "positions": [
                0.6070781770603901,
                -1.9028692202592439,
                2.379811817936215,
                -0.227294917136987,
                0.48898432071003417,
                -3.0147942186626064
            ]
        },
        {
            "positions": [
                0.6555766915736804,
                -1.904378666163567,
                2.385816633963269,
                -0.3482037962020324,
                0.5935095283501408,
                -3.070711014476934
            ]
        },
        {
            "positions": [
                0.7040752060869706,
                -1.9058881120678903,
                2.391821449990323,
                -0.4691126752670778,
                0.6980347359902475,
                -3.1266278102912617
            ]
        }
    ]
}