{
    "goal": {
        "global_pose": {
            "orientation": {
                "w": -0.00223480608172531,
                "x": 0.0024358444001904467,
                "y": 0.7094548369677653,
                "z": -0.704743149386269
            },
            "position": {
                "x": 0.6205249238014221,
                "y": -0.6371506643295288,
                "z": 0.19426114857196808
            }
        },
        "name": "move_to_magneteinheit_B"
    },
    "id": "SBL_move_to_magneteinheit_B_135",
    "joint_names": [
        "shoulder_pan_joint",
        "shoulder_lift_joint",
        "elbow_joint",
        "wrist_1_joint",
        "wrist_2_joint",
        "wrist_3_joint"
    ],
    "metrics": {
        "cart_traj_len": 3.2779195054359755,
        "distance_elbow_joint": 2.1848973602156203,
        "distance_shoulder_lift_joint": 1.3984073074241714,
        "distance_shoulder_pan_joint": 4.177278205945152,
        "distance_wrist_1_joint": 3.6365081470435694,
        "distance_wrist_2_joint": 3.714603510537123,
        "distance_wrist_3_joint": 0.7446892247108741,
        "smoothness": 0.934745172435145,
        "time": 0.720458651,
        "traj_len": 3.9820075032421167,
        "weighted_distance": 4.969594939517603
    },
    "planner": "SBL",
    "start": {
        "state": {
            "elbow_joint": 2.6216224122426386,
            "shoulder_lift_joint": -1.4174107377796124,
            "shoulder_pan_joint": 0.7066234856936794,
            "wrist_1_joint": 1.9546482284002225,
            "wrist_2_joint": -0.7096286983471962,
            "wrist_3_joint": 0.005740856962016249
        }
    },
    "waypoints": [
        {
            "positions": [
                0.7066234856936794,
                -1.4174107377796124,
                2.6216224122426386,
                1.9546482284002225,
                -0.7096286983471962,
                0.005740856962016249
            ]
        },
        {
            "positions": [
                0.6868370395597339,
                -1.48378397668917,
                2.624585472785434,
                1.9502171558106869,
                -0.7351526472994103,
                0.16365398014519691
            ]
        },
        {
            "positions": [
                0.7691999175679471,
                -1.4627348631546044,
                2.6098816623969245,
                1.930865264533872,
                -0.6423839840270645,
                0.1223677639648941
            ]
        },
        {
            "positions": [
                0.8515627955761604,
                -1.4416857496200386,
                2.5951778520084154,
                1.911513373257057,
                -0.5496153207547188,
                0.0810815477845913
            ]
        },
        {
            "positions": [
                0.8998758988703208,
                -1.449777420233514,
                2.5863629985970076,
                1.8971350882093354,
                -0.496277528223893,
                0.10619511139211632
            ]
        },
        {
            "positions": [
                0.9818694606172581,
                -1.4687472535464687,
                2.5065709546089776,
                1.7754729264210383,
                -0.43068914186744567,
                0.0919571321921602
            ]
        },
        {
            "positions": [
                1.0638630223641954,
                -1.4877170868594234,
                2.426778910620947,
                1.6538107646327411,
                -0.36510075551099835,
                0.07771915299220408
            ]
        },
        {
            "positions": [
                1.1458565841111326,
                -1.5066869201723778,
                2.3469868666329172,
                1.532148602844444,
                -0.29951236915455104,
                0.06348117379224796
            ]
        },
        {
            "positions": [
                1.2278501458580697,
                -1.5256567534853325,
                2.267194822644887,
                1.4104864410561468,
                -0.23392398279810372,
                0.04924319459229183
            ]
        },
        {
            "positions": [
                1.3098437076050071,
                -1.5446265867982871,
                2.187402778656857,
                1.2888242792678497,
                -0.1683355964416564,
                0.03500521539233571
            ]
        },
        {
            "positions": [
                1.3918372693519445,
                -1.5635964201112418,
                2.1076107346688264,
                1.1671621174795526,
                -0.1027472100852091,
                0.020767236192379593
            ]
        },
        {
            "positions": [
                1.4738308310988817,
                -1.5825662534241962,
                2.0278186906807965,
                1.0454999556912554,
                -0.037158823728761836,
                0.006529256992423474
            ]
        },
        {
            "positions": [
                1.5558243928458189,
                -1.6015360867371509,
                1.9480266466927663,
                0.9238377939029583,
                0.028429562627685534,
                -0.007708722207532659
            ]
        },
        {
            "positions": [
                1.637817954592756,
                -1.6205059200501055,
                1.868234602704736,
                0.8021756321146611,
                0.0940179489841328,
                -0.021946701407488778
            ]
        },
        {
            "positions": [
                1.7198115163396934,
                -1.6394757533630602,
                1.788442558716706,
                0.680513470326364,
                0.15960633534058016,
                -0.0361846806074449
            ]
        },
        {
            "positions": [
                1.8018050780866306,
                -1.6584455866760148,
                1.7086505147286757,
                0.5588513085380669,
                0.22519472169702742,
                -0.050422659807401016
            ]
        },
        {
            "positions": [
                1.883798639833568,
                -1.6774154199889693,
                1.6288584707406457,
                0.4371891467497697,
                0.2907831080534748,
                -0.06466063900735713
            ]
        },
        {
            "positions": [
                1.9657922015805052,
                -1.696385253301924,
                1.5490664267526155,
                0.3155269849614725,
                0.35637149440992205,
                -0.07889861820731325
            ]
        },
        {
            "positions": [
                1.8452284713917046,
                -1.6717584506908403,
                1.4789225921814753,
                0.2948876805702758,
                0.3030930911580403,
                -0.0941113009835516
            ]
        },
        {
            "positions": [
                1.7246647412029041,
                -1.6471316480797564,
                1.4087787576103352,
                0.27424837617907905,
                0.24981468790615846,
                -0.10932398375978994
            ]
        },
        {
            "positions": [
                1.6041010110141039,
                -1.6225048454686726,
                1.338634923039195,
                0.25360907178788233,
                0.19653628465427667,
                -0.12453666653602828
            ]
        },
        {
            "positions": [
                1.4835372808253033,
                -1.597878042857589,
                1.2684910884680547,
                0.2329697673966856,
                0.14325788140239487,
                -0.13974934931226662
            ]
        },
        {
            "positions": [
                1.3364164061450294,
                -1.556408612227837,
                1.2415603344605064,
                0.29496567118497885,
                0.03430545124120071,
                -0.14487524897811738
            ]
        },
        {
            "positions": [
                1.1892955314647558,
                -1.514939181598085,
                1.214629580452958,
                0.3569615749732721,
                -0.07464697891999345,
                -0.1500011486439681
            ]
        },
        {
            "positions": [
                1.0421746567844818,
                -1.4734697509683332,
                1.1876988264454096,
                0.4189574787615653,
                -0.1835994090811876,
                -0.15512704830981883
            ]
        },
        {
            "positions": [
                0.8950537821042079,
                -1.4320003203385814,
                1.1607680724378613,
                0.48095338254985853,
                -0.29255183924238176,
                -0.16025294797566958
            ]
        },
        {
            "positions": [
                0.747932907423934,
                -1.3905308897088293,
                1.133837318430313,
                0.5429492863381518,
                -0.4015042694035759,
                -0.16537884764152033
            ]
        },
        {
            "positions": [
                0.6008120327436602,
                -1.3490614590790775,
                1.1069065644227645,
                0.604945190126445,
                -0.5104566995647701,
                -0.17050474730737106
            ]
        },
        {
            "positions": [
                0.45369115806338645,
                -1.3075920284493256,
                1.0799758104152162,
                0.6669410939147382,
                -0.6194091297259643,
                -0.17563064697322178
            ]
        },
        {
            "positions": [
                0.30657028338311254,
                -1.2661225978195736,
                1.0530450564076679,
                0.7289369977030314,
                -0.7283615598871584,
                -0.18075654663907254
            ]
        },
        {
            "positions": [
                0.22528263807690968,
                -1.2257910190008239,
                1.0937379819606718,
                0.8235278280852774,
                -0.8292163842590583,
                -0.16794731680384764
            ]
        },
        {
            "positions": [
                0.1439949927707068,
                -1.1854594401820742,
                1.1344309075136756,
                0.9181186584675232,
                -0.9300712086309582,
                -0.15513808696862272
            ]
        },
        {
            "positions": [
                0.0627073474645039,
                -1.1451278613633242,
                1.1751238330666796,
                1.012709488849769,
                -1.030926033002858,
                -0.14232885713339782
            ]
        },
        {
            "positions": [
                -0.018580297841698956,
                -1.1047962825445745,
                1.2158167586196835,
                1.107300319232015,
                -1.1317808573747579,
                -0.1295196272981729
            ]
        },
        {
            "positions": [
                -0.09986794314790182,
                -1.0644647037258248,
                1.2565096841726875,
                1.2018911496142608,
                -1.2326356817466575,
                -0.116710397462948
            ]
        },
        {
            "positions": [
                -0.18115558845410473,
                -1.0241331249070749,
                1.2972026097256912,
                1.2964819799965066,
                -1.3334905061185576,
                -0.1039011676277231
            ]
        },
        {
            "positions": [
                -0.26244323376030765,
                -0.9838015460883252,
                1.3378955352786952,
                1.3910728103787524,
                -1.4343453304904572,
                -0.09109193779249819
            ]
        },
        {
            "positions": [
                -0.34373087906651045,
                -0.9434699672695754,
                1.3785884608316992,
                1.4856636407609982,
                -1.5352001548623573,
                -0.0782827079572733
            ]
        },
        {
            "positions": [
                -0.42501852437271337,
                -0.9031383884508257,
                1.4192813863847031,
                1.5802544711432442,
                -1.636054979234257,
                -0.06547347812204839
            ]
        },
        {
            "positions": [
                -0.5063061696789162,
                -0.862806809632076,
                1.4599743119377069,
                1.67484530152549,
                -1.7369098036061568,
                -0.05266424828682348
            ]
        },
        {
            "positions": [
                -0.5875938149851191,
                -0.8224752308133262,
                1.5006672374907108,
                1.769436131907736,
                -1.8377646279780566,
                -0.039855018451598584
            ]
        },
        {
            "positions": [
                -0.668881460291322,
                -0.7821436519945764,
                1.5413601630437148,
                1.8640269622899819,
                -1.9386194523499567,
                -0.02704578861637366
            ]
        },
        {
            "positions": [
                -0.7501691055975248,
                -0.7418120731758266,
                1.5820530885967186,
                1.9586177926722277,
                -2.0394742767218563,
                -0.014236558781148767
            ]
        },
        {
            "positions": [
                -0.8314567509037278,
                -0.7014804943570768,
                1.6227460141497225,
                2.0532086230544735,
                -2.140329101093756,
                -0.0014273289459238447
            ]
        },
        {
            "positions": [
                -0.9127443962099306,
                -0.6611489155383271,
                1.6634389397027265,
                2.1477994534367193,
                -2.241183925465656,
                0.01138190088930106
            ]
        }
    ]
}