{
    "goal": {
        "global_pose": {
            "orientation": {
                "w": -0.4816463035849501,
                "x": 0.5182115481033762,
                "y": 0.4908360881923453,
                "z": -0.5084816262002911
            },
            "position": {
                "x": -0.8240239810943604,
                "y": -0.300875300988555,
                "z": 0.16403168439865112
            }
        },
        "name": "move_to_storage_C"
    },
    "id": "SBL_move_to_storage_C_16",
    "joint_names": [
        "shoulder_pan_joint",
        "shoulder_lift_joint",
        "elbow_joint",
        "wrist_1_joint",
        "wrist_2_joint",
        "wrist_3_joint"
    ],
    "metrics": {
        "cart_traj_len": 0.5759873262401107,
        "distance_elbow_joint": 0.2541185624295066,
        "distance_shoulder_lift_joint": 0.18847964987063526,
        "distance_shoulder_pan_joint": 0.494494928430389,
        "distance_wrist_1_joint": 0.06491357844734558,
        "distance_wrist_2_joint": 1.0658330072132833,
        "distance_wrist_3_joint": 0.06444022207986677,
        "smoothness": 0.0,
        "time": 0.35516559400000003,
        "traj_len": 1.4602328404987428,
        "weighted_distance": 1.8417130553621508
    },
    "planner": "SBL",
    "start": {
        "state": {
            "elbow_joint": 2.010868314990456,
            "shoulder_lift_joint": -1.1634956873337592,
            "shoulder_pan_joint": -2.4736205022346125,
            "wrist_1_joint": -0.8367026794202681,
            "wrist_2_joint": 0.6746043897044499,
            "wrist_3_joint": -3.1496632123970403
        }
    },
    "waypoints": [
        {
            "positions": [
                -2.4736205022346125,
                -1.1634956873337592,
                2.010868314990456,
                -0.8367026794202681,
                0.6746043897044499,
                -3.1496632123970403
            ]
        },
        {
            "positions": [
                -2.5560363236396775,
                -1.13208241235532,
                1.9685152212522048,
                -0.8258837496790439,
                0.8522432242399971,
                -3.138923175383729
            ]
        },
        {
            "positions": [
                -2.638452145044742,
                -1.1006691373768809,
                1.9261621275139535,
                -0.8150648199378195,
                1.0298820587755444,
                -3.128183138370418
            ]
        },
        {
            "positions": [
                -2.720867966449807,
                -1.0692558623984416,
                1.8838090337757025,
                -0.8042458901965953,
                1.2075208933110915,
                -3.117443101357107
            ]
        },
        {
            "positions": [
                -2.803283787854872,
                -1.0378425874200023,
                1.8414559400374515,
                -0.7934269604553711,
                1.3851597278466388,
                -3.1067030643437956
            ]
        },
        {
            "positions": [
                -2.8856996092599365,
                -1.006429312441563,
                1.7991028462992003,
                -0.7826080307141468,
                1.562798562382186,
                -3.095963027330485
            ]
        },
        {
            "positions": [
                -2.9681154306650015,
                -0.9750160374631239,
                1.7567497525609492,
                -0.7717891009729225,
                1.7404373969177334,
                -3.0852229903171735
            ]
        }
    ]
}