{
    "goal": {
        "global_pose": {
            "orientation": {
                "w": 0.7047431493862688,
                "x": -0.7094548369677653,
                "y": 0.0024358444001904,
                "z": -0.0022348060817251984
            },
            "position": {
                "x": -0.39052492380142206,
                "y": 0.3671506643295288,
                "z": 0.19426114857196808
            }
        },
        "name": "move_to_magneteinheit_D"
    },
    "id": "SBL_move_to_magneteinheit_D_108",
    "joint_names": [
        "shoulder_pan_joint",
        "shoulder_lift_joint",
        "elbow_joint",
        "wrist_1_joint",
        "wrist_2_joint",
        "wrist_3_joint"
    ],
    "metrics": {
        "cart_traj_len": 4.247527709749229,
        "distance_elbow_joint": 4.450227674688504,
        "distance_shoulder_lift_joint": 1.6288983702813924,
        "distance_shoulder_pan_joint": 2.9607440066513773,
        "distance_wrist_1_joint": 1.5253656335137151,
        "distance_wrist_2_joint": 1.2887562302286488,
        "distance_wrist_3_joint": 3.381319483513485,
        "smoothness": 0.350044700885592,
        "time": 0.525103291,
        "traj_len": 3.9032437022144952,
        "weighted_distance": 4.9811717727505105
    },
    "planner": "SBL",
    "start": {
        "state": {
            "elbow_joint": 0.749534889911806,
            "shoulder_lift_joint": -0.6476975780787326,
            "shoulder_pan_joint": -2.711696901376241,
            "wrist_1_joint": -0.07506478083263063,
            "wrist_2_joint": 0.43296659715538205,
            "wrist_3_joint": -3.14703540197715
        }
    },
    "waypoints": [
        {
            "positions": [
                -2.711696901376241,
                -0.6476975780787326,
                0.749534889911806,
                -0.07506478083263063,
                0.43296659715538205,
                -3.14703540197715
            ]
        },
        {
            "positions": [
                -2.7060846536571943,
                -0.7161935830030575,
                0.8251731293516364,
                0.00405459105793711,
                0.35443948387340285,
                -3.0718742624022966
            ]
        },
        {
            "positions": [
                -2.7004724059381475,
                -0.7846895879273823,
                0.9008113687914671,
                0.08317396294850485,
                0.2759123705914237,
                -2.996713122827443
            ]
        },
        {
            "positions": [
                -2.6948601582191007,
                -0.8531855928517071,
                0.9764496082312977,
                0.16229333483907257,
                0.19738525730944453,
                -2.9215519832525896
            ]
        },
        {
            "positions": [
                -2.6892479105000544,
                -0.921681597776032,
                1.0520878476711282,
                0.24141270672964033,
                0.11885814402746536,
                -2.8463908436777365
            ]
        },
        {
            "positions": [
                -2.6836356627810076,
                -0.9901776027003568,
                1.127726087110959,
                0.3205320786202081,
                0.04033103074548616,
                -2.771229704102883
            ]
        },
        {
            "positions": [
                -2.678023415061961,
                -1.0586736076246817,
                1.2033643265507892,
                0.3996514505107758,
                -0.03819608253649298,
                -2.6960685645280296
            ]
        },
        {
            "positions": [
                -2.672411167342914,
                -1.1271696125490065,
                1.27900256599062,
                0.4787708224013435,
                -0.11672319581847213,
                -2.620907424953176
            ]
        },
        {
            "positions": [
                -2.6260929302359406,
                -1.1777284213000798,
                1.320553115897478,
                0.5248960969502231,
                -0.15149068879457858,
                -2.527417768457557
            ]
        },
        {
            "positions": [
                -2.579774693128967,
                -1.2282872300511531,
                1.3621036658043357,
                0.5710213714991027,
                -0.18625818177068504,
                -2.433928111961938
            ]
        },
        {
            "positions": [
                -2.5334564560219937,
                -1.2788460388022265,
                1.4036542157111938,
                0.6171466460479823,
                -0.22102567474679152,
                -2.3404384554663187
            ]
        },
        {
            "positions": [
                -2.4067027074989182,
                -1.3133150908997293,
                1.3783698236202044,
                0.622538600026991,
                -0.1941941927352026,
                -2.194831712566243
            ]
        },
        {
            "positions": [
                -2.279948958975843,
                -1.3477841429972321,
                1.3530854315292151,
                0.6279305540059997,
                -0.16736271072361372,
                -2.0492249696661675
            ]
        },
        {
            "positions": [
                -2.1531952104527674,
                -1.3822531950947352,
                1.3278010394382256,
                0.6333225079850084,
                -0.14053122871202484,
                -1.9036182267660922
            ]
        },
        {
            "positions": [
                -2.026441461929692,
                -1.416722247192238,
                1.3025166473472363,
                0.6387144619640172,
                -0.11369974670043591,
                -1.7580114838660166
            ]
        },
        {
            "positions": [
                -1.8996877134066166,
                -1.4511912992897409,
                1.277232255256247,
                0.6441064159430259,
                -0.08686826468884701,
                -1.6124047409659412
            ]
        },
        {
            "positions": [
                -1.7729339648835412,
                -1.4856603513872437,
                1.2519478631652576,
                0.6494983699220345,
                -0.06003678267725812,
                -1.4667979980658656
            ]
        },
        {
            "positions": [
                -1.6461802163604657,
                -1.5201294034847466,
                1.2266634710742683,
                0.6548903239010432,
                -0.03320530066566921,
                -1.32119125516579
            ]
        },
        {
            "positions": [
                -1.5194264678373903,
                -1.5545984555822496,
                1.2013790789832788,
                0.6602822778800519,
                -0.006373818654080293,
                -1.1755845122657145
            ]
        },
        {
            "positions": [
                -1.392672719314315,
                -1.5890675076797525,
                1.1760946868922895,
                0.6656742318590606,
                0.02045766335750862,
                -1.0299777693656391
            ]
        },
        {
            "positions": [
                -1.2659189707912395,
                -1.6235365597772553,
                1.1508102948013001,
                0.6710661858380693,
                0.04728914536909752,
                -0.8843710264655635
            ]
        },
        {
            "positions": [
                -1.1938328302523644,
                -1.652647130466965,
                0.9787709886541274,
                0.7019726677988997,
                0.06116253463147764,
                -0.8267987997001709
            ]
        },
        {
            "positions": [
                -1.1217466897134896,
                -1.6817577011566744,
                0.8067316825069546,
                0.73287914975973,
                0.07503592389385777,
                -0.7692265729347781
            ]
        },
        {
            "positions": [
                -1.0496605491746145,
                -1.7108682718463841,
                0.6346923763597817,
                0.7637856317205604,
                0.08890931315623789,
                -0.7116543461693854
            ]
        },
        {
            "positions": [
                -0.9775744086357396,
                -1.7399788425360936,
                0.46265307021260893,
                0.7946921136813907,
                0.102782702418618,
                -0.6540821194039927
            ]
        },
        {
            "positions": [
                -0.9054882680968646,
                -1.7690894132258033,
                0.29061376406543593,
                0.825598595642221,
                0.11665609168099814,
                -0.5965098926386
            ]
        },
        {
            "positions": [
                -0.8334021275579897,
                -1.7981999839155127,
                0.11857445791826327,
                0.8565050776030514,
                0.13052948094337824,
                -0.5389376658732073
            ]
        },
        {
            "positions": [
                -0.7613159870191146,
                -1.8273105546052224,
                -0.053464848228909734,
                0.8874115595638817,
                0.14440287020575837,
                -0.4813654391078146
            ]
        },
        {
            "positions": [
                -0.6892298464802397,
                -1.8564211252949319,
                -0.2255041543760823,
                0.9183180415247121,
                0.1582762594681385,
                -0.42379321234242195
            ]
        },
        {
            "positions": [
                -0.6171437059413647,
                -1.8855316959846415,
                -0.3975434605232553,
                0.9492245234855424,
                0.17214964873051863,
                -0.3662209855770292
            ]
        },
        {
            "positions": [
                -0.5450575654024897,
                -1.9146422666743512,
                -0.5695827666704283,
                0.9801310054463728,
                0.18602303799289877,
                -0.30864875881163645
            ]
        },
        {
            "positions": [
                -0.47297142486361465,
                -1.9437528373640607,
                -0.7416220728176011,
                1.011037487407203,
                0.1998964272552789,
                -0.2510765320462437
            ]
        },
        {
            "positions": [
                -0.4008852843247398,
                -1.9728634080537701,
                -0.9136613789647736,
                1.0419439693680335,
                0.21376981651765897,
                -0.19350430528085116
            ]
        },
        {
            "positions": [
                -0.32879914378586483,
                -2.00197397874348,
                -1.0857006851119464,
                1.072850451328864,
                0.2276432057800391,
                -0.1359320785154584
            ]
        },
        {
            "positions": [
                -0.25671300324698976,
                -2.0310845494331895,
                -1.2577399912591196,
                1.1037569332896942,
                0.24151659504241924,
                -0.07835985175006566
            ]
        },
        {
            "positions": [
                -0.18462686270811468,
                -2.060195120122899,
                -1.4297792974062924,
                1.1346634152505244,
                0.25538998430479937,
                -0.020787624984672903
            ]
        },
        {
            "positions": [
                -0.11254072216923983,
                -2.0893056908126084,
                -1.6018186035534647,
                1.1655698972113548,
                0.26926337356717944,
                0.03678460178071963
            ]
        },
        {
            "positions": [
                -0.04045458163036497,
                -2.1184162615023183,
                -1.773857909700638,
                1.1964763791721853,
                0.2831367628295596,
                0.09435682854611238
            ]
        },
        {
            "positions": [
                0.031631558908510216,
                -2.147526832192028,
                -1.9458972158478105,
                1.2273828611330155,
                0.2970101520919397,
                0.15192905531150508
            ]
        },
        {
            "positions": [
                -0.034809902579226226,
                -2.1880374750281764,
                -2.087690501722043,
                1.2992083453366639,
                0.2597572561705717,
                0.12499036710257765
            ]
        },
        {
            "positions": [
                -0.10125136406696267,
                -2.2285481178643254,
                -2.229483787596275,
                1.371033829540312,
                0.2225043602492037,
                0.09805167889365021
            ]
        },
        {
            "positions": [
                -0.1676928255546991,
                -2.269058760700474,
                -2.371277073470507,
                1.4428593137439603,
                0.18525146432783568,
                0.07111299068472277
            ]
        },
        {
            "positions": [
                -0.18578398745811622,
                -2.276595948360125,
                -2.392454133177921,
                1.4503008526810843,
                0.18028202060419615,
                0.07265195228277137
            ]
        }
    ]
}