{
    "goal": {
        "global_pose": {
            "orientation": {
                "w": 0.005598929693374612,
                "x": 0.007748599140229565,
                "y": 0.7110244013736278,
                "z": -0.7031023480610252
            },
            "position": {
                "x": -0.8858502320852131,
                "y": -0.7141253447532654,
                "z": 0.3711530566215515
            }
        },
        "name": "move_to_auspresseinheit_C"
    },
    "id": "SBL_move_to_auspresseinheit_C_76",
    "joint_names": [
        "shoulder_pan_joint",
        "shoulder_lift_joint",
        "elbow_joint",
        "wrist_1_joint",
        "wrist_2_joint",
        "wrist_3_joint"
    ],
    "metrics": {
        "cart_traj_len": 0.4945409610032717,
        "distance_elbow_joint": 1.0172043340609829,
        "distance_shoulder_lift_joint": 0.33346714937328426,
        "distance_shoulder_pan_joint": 0.2565877693809697,
        "distance_wrist_1_joint": 0.7089704592289183,
        "distance_wrist_2_joint": 1.3186009492396555,
        "distance_wrist_3_joint": 0.082516732832556,
        "smoothness": 1.6148698667872622e-16,
        "time": 0.472064508,
        "traj_len": 1.9280423735271914,
        "weighted_distance": 2.431039339099648
    },
    "planner": "SBL",
    "start": {
        "state": {
            "elbow_joint": 1.7527959577737207,
            "shoulder_lift_joint": -0.9740617694225068,
            "shoulder_pan_joint": -2.967991417825858,
            "wrist_1_joint": -0.759517768980727,
            "wrist_2_joint": 1.7443932448377408,
            "wrist_3_joint": -3.0840537646736568
        }
    },
    "waypoints": [
        {
            "positions": [
                -2.967991417825858,
                -0.9740617694225068,
                1.7527959577737207,
                -0.759517768980727,
                1.7443932448377408,
                -3.0840537646736568
            ]
        },
        {
            "positions": [
                -2.942332640887761,
                -0.9407150544851783,
                1.6510755243676223,
                -0.6886207230578352,
                1.6125331499137752,
                -3.092305437956912
            ]
        },
        {
            "positions": [
                -2.916673863949664,
                -0.9073683395478499,
                1.5493550909615241,
                -0.6177236771349432,
                1.4806730549898097,
                -3.100557111240168
            ]
        },
        {
            "positions": [
                -2.891015087011567,
                -0.8740216246105215,
                1.4476346575554258,
                -0.5468266312120516,
                1.3488129600658443,
                -3.108808784523424
            ]
        },
        {
            "positions": [
                -2.8653563100734702,
                -0.840674909673193,
                1.3459142241493276,
                -0.47592958528915963,
                1.2169528651418786,
                -3.117060457806679
            ]
        },
        {
            "positions": [
                -2.8396975331353733,
                -0.8073281947358646,
                1.2441937907432292,
                -0.4050325393662678,
                1.085092770217913,
                -3.1253121310899346
            ]
        },
        {
            "positions": [
                -2.814038756197276,
                -0.7739814797985363,
                1.1424733573371308,
                -0.334135493443376,
                0.9532326752939475,
                -3.1335638043731904
            ]
        },
        {
            "positions": [
                -2.788379979259179,
                -0.7406347648612078,
                1.0407529239310327,
                -0.2632384475204842,
                0.8213725803699821,
                -3.1418154776564458
            ]
        },
        {
            "positions": [
                -2.762721202321082,
                -0.7072880499238794,
                0.9390324905249343,
                -0.19234140159759228,
                0.6895124854460164,
                -3.1500671509397016
            ]
        },
        {
            "positions": [
                -2.737062425382985,
                -0.673941334986551,
                0.837312057118836,
                -0.12144435567470047,
                0.5576523905220507,
                -3.158318824222957
            ]
        },
        {
            "positions": [
                -2.7114036484448882,
                -0.6405946200492225,
                0.7355916237127378,
                -0.050547309751808676,
                0.42579229559808524,
                -3.1665704975062128
            ]
        }
    ]
}