{
    "goal": {
        "global_pose": {
            "orientation": {
                "w": 0.005598929693374612,
                "x": 0.007748599140229565,
                "y": 0.7110244013736278,
                "z": -0.7031023480610252
            },
            "position": {
                "x": 0.1141497679147869,
                "y": -0.7141253447532654,
                "z": 0.3711530566215515
            }
        },
        "name": "move_to_auspresseinheit_B"
    },
    "id": "SBL_move_to_auspresseinheit_B_61",
    "joint_names": [
        "shoulder_pan_joint",
        "shoulder_lift_joint",
        "elbow_joint",
        "wrist_1_joint",
        "wrist_2_joint",
        "wrist_3_joint"
    ],
    "metrics": {
        "cart_traj_len": 0.5643678692145251,
        "distance_elbow_joint": 0.06250775988393498,
        "distance_shoulder_lift_joint": 0.29481165546595123,
        "distance_shoulder_pan_joint": 0.5772591714892776,
        "distance_wrist_1_joint": 0.32541702265752037,
        "distance_wrist_2_joint": 0.9888012200750134,
        "distance_wrist_3_joint": 0.006696511247304304,
        "smoothness": 0.0,
        "time": 0.265363941,
        "traj_len": 1.5018299973096163,
        "weighted_distance": 1.8929090326917837
    },
    "planner": "SBL",
    "start": {
        "state": {
            "elbow_joint": 2.0193083361928714,
            "shoulder_lift_joint": -1.1220246554650708,
            "shoulder_pan_joint": -1.0952077554168747,
            "wrist_1_joint": -0.8559753972642168,
            "wrist_2_joint": 0.4759566250798843,
            "wrist_3_joint": -3.1240929996934557
        }
    },
    "waypoints": [
        {
            "positions": [
                -1.0952077554168747,
                -1.1220246554650708,
                2.0193083361928714,
                -0.8559753972642168,
                0.4759566250798843,
                -3.1240929996934557
            ]
        },
        {
            "positions": [
                -1.1914176173317543,
                -1.1711599313760628,
                2.0088903762122157,
                -0.8017392268212967,
                0.6407568284257199,
                -3.1229769144855717
            ]
        },
        {
            "positions": [
                -1.2876274792466338,
                -1.2202952072870545,
                1.9984724162315597,
                -0.7475030563783767,
                0.8055570317715555,
                -3.1218608292776877
            ]
        },
        {
            "positions": [
                -1.3838373411615135,
                -1.2694304831980463,
                1.988054456250904,
                -0.6932668859354566,
                0.970357235117391,
                -3.1207447440698033
            ]
        },
        {
            "positions": [
                -1.480047203076393,
                -1.3185657591090383,
                1.9776364962702482,
                -0.6390307154925365,
                1.1351574384632266,
                -3.1196286588619193
            ]
        },
        {
            "positions": [
                -1.5762570649912728,
                -1.3677010350200303,
                1.9672185362895922,
                -0.5847945450496165,
                1.2999576418090621,
                -3.1185125736540353
            ]
        },
        {
            "positions": [
                -1.6724669269061523,
                -1.416836310931022,
                1.9568005763089364,
                -0.5305583746066964,
                1.4647578451548977,
                -3.1173964884461514
            ]
        }
    ]
}