{
    "goal": {
        "global_pose": {
            "orientation": {
                "w": 0.7031023480610252,
                "x": -0.7110244013736278,
                "y": 0.0077485991402295624,
                "z": 0.005598929693374583
            },
            "position": {
                "x": -0.8841497679147869,
                "y": 0.44412534475326537,
                "z": 0.3711530566215515
            }
        },
        "name": "move_to_auspresseinheit_D"
    },
    "id": "SBL_move_to_auspresseinheit_D_79",
    "joint_names": [
        "shoulder_pan_joint",
        "shoulder_lift_joint",
        "elbow_joint",
        "wrist_1_joint",
        "wrist_2_joint",
        "wrist_3_joint"
    ],
    "metrics": {
        "cart_traj_len": 0.34304644238017323,
        "distance_elbow_joint": 0.6514432277251578,
        "distance_shoulder_lift_joint": 0.12891844857307744,
        "distance_shoulder_pan_joint": 0.13297322941583112,
        "distance_wrist_1_joint": 0.5733297170309228,
        "distance_wrist_2_joint": 1.4431649044650046,
        "distance_wrist_3_joint": 0.04209515054803603,
        "smoothness": 3.9474596431116675e-16,
        "time": 0.176354062,
        "traj_len": 1.723927109177772,
        "weighted_distance": 2.252245457393583
    },
    "planner": "SBL",
    "start": {
        "state": {
            "elbow_joint": -1.8275523626775212,
            "shoulder_lift_joint": -2.126789852344167,
            "shoulder_pan_joint": -0.03513704404078235,
            "wrist_1_joint": -2.347782403156801,
            "wrist_2_joint": -1.6058999987535132,
            "wrist_3_joint": -3.0880379163319196
        }
    },
    "waypoints": [
        {
            "positions": [
                -0.03513704404078235,
                -2.126789852344167,
                -1.8275523626775212,
                -2.347782403156801,
                -1.6058999987535132,
                -3.0880379163319196
            ]
        },
        {
            "positions": [
                -0.05175869771776124,
                -2.1429046584158016,
                -1.7461219592118764,
                -2.4194486177856662,
                -1.4255043856953877,
                -3.082776022513415
            ]
        },
        {
            "positions": [
                -0.06838035139474014,
                -2.1590194644874363,
                -1.6646915557462316,
                -2.4911148324145316,
                -1.245108772637262,
                -3.0775141286949106
            ]
        },
        {
            "positions": [
                -0.08500200507171901,
                -2.175134270559071,
                -1.583261152280587,
                -2.562781047043397,
                -1.0647131595791364,
                -3.072252234876406
            ]
        },
        {
            "positions": [
                -0.10162365874869791,
                -2.1912490766307053,
                -1.5018307488149423,
                -2.6344472616722623,
                -0.8843175465210109,
                -3.0669903410579016
            ]
        },
        {
            "positions": [
                -0.11824531242567679,
                -2.20736388270234,
                -1.4204003453492975,
                -2.7061134763011276,
                -0.7039219334628853,
                -3.061728447239397
            ]
        },
        {
            "positions": [
                -0.1348669661026557,
                -2.223478688773975,
                -1.338969941883653,
                -2.777779690929993,
                -0.5235263204047598,
                -3.0564665534208926
            ]
        },
        {
            "positions": [
                -0.15148861977963457,
                -2.2395934948456095,
                -1.2575395384180081,
                -2.8494459055588583,
                -0.3431307073466341,
                -3.051204659602388
            ]
        },
        {
            "positions": [
                -0.16811027345661347,
                -2.2557083009172443,
                -1.1761091349523634,
                -2.9211121201877237,
                -0.1627350942885086,
                -3.0459427657838836
            ]
        }
    ]
}