{
    "goal": {
        "global_pose": {
            "orientation": {
                "w": 0.005598929693374612,
                "x": 0.007748599140229565,
                "y": 0.7110244013736278,
                "z": -0.7031023480610252
            },
            "position": {
                "x": 0.1141497679147869,
                "y": -0.7141253447532654,
                "z": 0.3711530566215515
            }
        },
        "name": "move_to_auspresseinheit_B"
    },
    "id": "SBL_move_to_auspresseinheit_B_108",
    "joint_names": [
        "shoulder_pan_joint",
        "shoulder_lift_joint",
        "elbow_joint",
        "wrist_1_joint",
        "wrist_2_joint",
        "wrist_3_joint"
    ],
    "metrics": {
        "cart_traj_len": 0.5642948754421877,
        "distance_elbow_joint": 0.06343045359687438,
        "distance_shoulder_lift_joint": 0.293799887486065,
        "distance_shoulder_pan_joint": 0.5765632903682716,
        "distance_wrist_1_joint": 0.32892664634020774,
        "distance_wrist_2_joint": 0.9933068938494636,
        "distance_wrist_3_joint": 0.001325357670121985,
        "smoothness": 0.0,
        "time": 0.22625528499999997,
        "traj_len": 1.502448844157765,
        "weighted_distance": 1.8926797893042868
    },
    "planner": "SBL",
    "start": {
        "state": {
            "elbow_joint": 2.0193083361928714,
            "shoulder_lift_joint": -1.1220246554650708,
            "shoulder_pan_joint": -1.0952077554168747,
            "wrist_1_joint": -0.8559753972642168,
            "wrist_2_joint": 0.4759566250798843,
            "wrist_3_joint": -3.1240929996934557
        }
    },
    "waypoints": [
        {
            "positions": [
                -1.0952077554168747,
                -1.1220246554650708,
                2.0193083361928714,
                -0.8559753972642168,
                0.4759566250798843,
                -3.1240929996934557
            ]
        },
        {
            "positions": [
                -1.1913016371449199,
                -1.170991303379415,
                2.008736593926726,
                -0.8011542895408488,
                0.6415077740547949,
                -3.124313892638476
            ]
        },
        {
            "positions": [
                -1.287395518872965,
                -1.219957951293759,
                1.9981648516605799,
                -0.7463331818174809,
                0.8070589230297054,
                -3.124534785583496
            ]
        },
        {
            "positions": [
                -1.3834894006010106,
                -1.2689245992081033,
                1.9875931093944343,
                -0.691512074094113,
                0.972610072004616,
                -3.1247556785285164
            ]
        },
        {
            "positions": [
                -1.4795832823290556,
                -1.3178912471224475,
                1.9770213671282886,
                -0.636690966370745,
                1.1381612209795267,
                -3.124976571473537
            ]
        },
        {
            "positions": [
                -1.575677164057101,
                -1.3668578950367916,
                1.9664496248621428,
                -0.581869858647377,
                1.3037123699544373,
                -3.1251974644185574
            ]
        },
        {
            "positions": [
                -1.6717710457851462,
                -1.4158245429511358,
                1.955877882595997,
                -0.527048750924009,
                1.469263518929348,
                -3.1254183573635776
            ]
        }
    ]
}