{
    "goal": {
        "global_pose": {
            "orientation": {
                "w": -0.00223480608172531,
                "x": 0.0024358444001904467,
                "y": 0.7094548369677653,
                "z": -0.704743149386269
            },
            "position": {
                "x": -0.37947507619857795,
                "y": -0.6371506643295288,
                "z": 0.19426114857196808
            }
        },
        "name": "move_to_magneteinheit_C"
    },
    "id": "SBL_move_to_magneteinheit_C_127",
    "joint_names": [
        "shoulder_pan_joint",
        "shoulder_lift_joint",
        "elbow_joint",
        "wrist_1_joint",
        "wrist_2_joint",
        "wrist_3_joint"
    ],
    "metrics": {
        "cart_traj_len": 1.3261157837604105,
        "distance_elbow_joint": 0.22865457961870206,
        "distance_shoulder_lift_joint": 1.720436157047402,
        "distance_shoulder_pan_joint": 1.0060264669339187,
        "distance_wrist_1_joint": 3.355277143368614,
        "distance_wrist_2_joint": 0.8093486852700658,
        "distance_wrist_3_joint": 0.2532971410749867,
        "smoothness": 1.2113776183419993,
        "time": 0.806881715,
        "traj_len": 2.7153342654843966,
        "weighted_distance": 3.470484157016473
    },
    "planner": "SBL",
    "start": {
        "state": {
            "elbow_joint": 1.9565354010623817,
            "shoulder_lift_joint": -1.4165861575791021,
            "shoulder_pan_joint": -1.6717766225146293,
            "wrist_1_joint": -0.5286633292919765,
            "wrist_2_joint": 1.472756589071564,
            "wrist_3_joint": -3.1238370188695823
        }
    },
    "waypoints": [
        {
            "positions": [
                -1.6717766225146293,
                -1.4165861575791021,
                1.9565354010623817,
                -0.5286633292919765,
                1.472756589071564,
                -3.1238370188695823
            ]
        },
        {
            "positions": [
                -1.762276514356382,
                -1.489986676027437,
                1.947835212509805,
                -0.376457539373013,
                1.4414834578830074,
                -3.137342615595784
            ]
        },
        {
            "positions": [
                -1.8527764061981349,
                -1.5633871944757718,
                1.9391350239572285,
                -0.22425174945404958,
                1.4102103266944508,
                -3.150848212321985
            ]
        },
        {
            "positions": [
                -1.9432762980398877,
                -1.6367877129241066,
                1.9304348354046519,
                -0.07204595953508619,
                1.3789371955058942,
                -3.164353809048187
            ]
        },
        {
            "positions": [
                -2.0337761898816407,
                -1.7101882313724417,
                1.9217346468520753,
                0.0801598303838773,
                1.3476640643173377,
                -3.177859405774388
            ]
        },
        {
            "positions": [
                -2.1242760817233934,
                -1.7835887498207765,
                1.9130344582994987,
                0.2323656203028407,
                1.316390933128781,
                -3.1913650025005897
            ]
        },
        {
            "positions": [
                -2.214775973565146,
                -1.8569892682691114,
                1.904334269746922,
                0.3845714102218041,
                1.2851178019402245,
                -3.2048705992267914
            ]
        },
        {
            "positions": [
                -2.305275865406899,
                -1.9303897867174462,
                1.8956340811943455,
                0.5367772001407676,
                1.253844670751668,
                -3.2183761959529926
            ]
        },
        {
            "positions": [
                -2.3957757572486518,
                -2.003790305165781,
                1.886933892641769,
                0.6889829900597311,
                1.2225715395631114,
                -3.2318817926791943
            ]
        },
        {
            "positions": [
                -2.4862756490904045,
                -2.077190823614116,
                1.8782337040891923,
                0.8411887799786943,
                1.1912984083745548,
                -3.2453873894053955
            ]
        },
        {
            "positions": [
                -2.5767755409321573,
                -2.1505913420624507,
                1.8695335155366157,
                0.9933945698976578,
                1.1600252771859982,
                -3.258892986131597
            ]
        },
        {
            "positions": [
                -2.566672786080518,
                -2.0519482448060455,
                1.8836987849459093,
                0.81007264547976,
                1.1103635398475482,
                -3.2470688687502998
            ]
        },
        {
            "positions": [
                -2.5565700312288793,
                -1.95330514754964,
                1.897864054355203,
                0.6267507210618621,
                1.0607018025090982,
                -3.235244751369003
            ]
        },
        {
            "positions": [
                -2.54646727637724,
                -1.8546620502932347,
                1.9120293237644965,
                0.4434287966439643,
                1.0110400651706482,
                -3.223420633987706
            ]
        },
        {
            "positions": [
                -2.536364521525601,
                -1.7560189530368293,
                1.9261945931737903,
                0.26010687222606643,
                0.9613783278321982,
                -3.2115965166064084
            ]
        },
        {
            "positions": [
                -2.526261766673962,
                -1.657375855780424,
                1.9403598625830838,
                0.07678494780816858,
                0.9117165904937482,
                -3.199772399225111
            ]
        },
        {
            "positions": [
                -2.5161590118223227,
                -1.5587327585240187,
                1.9545251319923773,
                -0.10653697660972927,
                0.8620548531552983,
                -3.187948281843814
            ]
        },
        {
            "positions": [
                -2.506056256970684,
                -1.4600896612676135,
                1.968690401401671,
                -0.2898589010276271,
                0.8123931158168483,
                -3.176124164462517
            ]
        },
        {
            "positions": [
                -2.4959535021190447,
                -1.361446564011208,
                1.9828556708109646,
                -0.473180825445525,
                0.7627313784783982,
                -3.1643000470812197
            ]
        },
        {
            "positions": [
                -2.485850747267406,
                -1.2628034667548027,
                1.9970209402202583,
                -0.6565027498634228,
                0.7130696411399482,
                -3.1524759296999223
            ]
        },
        {
            "positions": [
                -2.4757479924157666,
                -1.1641603694983973,
                2.011186209629552,
                -0.8398246742813207,
                0.6634079038014982,
                -3.1406518123186253
            ]
        }
    ]
}