{
    "goal": {
        "global_pose": {
            "orientation": {
                "w": 0.7031023502349854,
                "x": -0.7110244035720825,
                "y": 0.007748599164187908,
                "z": 0.005598929710686207
            },
            "position": {
                "x": 0.11585023208521307,
                "y": 0.44412534475326537,
                "z": 0.3711530566215515
            }
        },
        "name": "move_to_auspresseinheit_A"
    },
    "id": "SBL_move_to_auspresseinheit_A_85",
    "joint_names": [
        "shoulder_pan_joint",
        "shoulder_lift_joint",
        "elbow_joint",
        "wrist_1_joint",
        "wrist_2_joint",
        "wrist_3_joint"
    ],
    "metrics": {
        "cart_traj_len": 5.021231027243306,
        "distance_elbow_joint": 6.493923453302946,
        "distance_shoulder_lift_joint": 2.1900174330771254,
        "distance_shoulder_pan_joint": 4.815974271276183,
        "distance_wrist_1_joint": 5.46524229677869,
        "distance_wrist_2_joint": 4.863451951125293,
        "distance_wrist_3_joint": 4.592596259821671,
        "smoothness": 0.5069306554798898,
        "time": 0.39547729,
        "traj_len": 5.3311542526344065,
        "weighted_distance": 6.923517345463162
    },
    "planner": "SBL",
    "start": {
        "state": {
            "elbow_joint": 2.4225746658250005,
            "shoulder_lift_joint": -1.3736534386056498,
            "shoulder_pan_joint": -0.3378633547517467,
            "wrist_1_joint": -1.0288598680537169,
            "wrist_2_joint": 1.233022673432363,
            "wrist_3_joint": -3.0940220416140027
        }
    },
    "waypoints": [
        {
            "positions": [
                -0.3378633547517467,
                -1.3736534386056498,
                2.4225746658250005,
                -1.0288598680537169,
                1.233022673432363,
                -3.0940220416140027
            ]
        },
        {
            "positions": [
                -0.28901021277006944,
                -1.4057162188746375,
                2.287770142035808,
                -0.8977471775976134,
                1.207833809703428,
                -3.103665119413525
            ]
        },
        {
            "positions": [
                -0.2401570707883922,
                -1.437778999143625,
                2.152965618246616,
                -0.7666344871415097,
                1.1826449459744932,
                -3.1133081972130476
            ]
        },
        {
            "positions": [
                -0.19130392880671493,
                -1.4698417794126126,
                2.0181610944574238,
                -0.6355217966854061,
                1.1574560822455582,
                -3.12295127501257
            ]
        },
        {
            "positions": [
                -0.14245078682503767,
                -1.5019045596816003,
                1.8833565706682316,
                -0.5044091062293026,
                1.1322672185166234,
                -3.1325943528120925
            ]
        },
        {
            "positions": [
                -0.09359764484336042,
                -1.5339673399505878,
                1.7485520468790394,
                -0.37329641577319894,
                1.1070783547876883,
                -3.142237430611615
            ]
        },
        {
            "positions": [
                -0.04474450286168313,
                -1.5660301202195754,
                1.6137475230898473,
                -0.24218372531709542,
                1.0818894910587535,
                -3.151880508411137
            ]
        },
        {
            "positions": [
                0.004108639119994151,
                -1.5980929004885631,
                1.4789429993006549,
                -0.11107103486099168,
                1.0567006273298185,
                -3.1615235862106594
            ]
        },
        {
            "positions": [
                0.05296178110167138,
                -1.6301556807575506,
                1.3441384755114627,
                0.02004165559511173,
                1.0315117636008837,
                -3.171166664010182
            ]
        },
        {
            "positions": [
                0.10181492308334866,
                -1.6622184610265383,
                1.2093339517222705,
                0.15115434605121547,
                1.0063228998719487,
                -3.1808097418097043
            ]
        },
        {
            "positions": [
                0.1506680650650259,
                -1.694281241295526,
                1.0745294279330784,
                0.282267036507319,
                0.9811340361430139,
                -3.1904528196092268
            ]
        },
        {
            "positions": [
                0.19952120704670312,
                -1.7263440215645134,
                0.939724904143886,
                0.41337972696342273,
                0.9559451724140788,
                -3.2000958974087492
            ]
        },
        {
            "positions": [
                0.24837434902838046,
                -1.758406801833501,
                0.804920380354694,
                0.544492417419526,
                0.930756308685144,
                -3.2097389752082717
            ]
        },
        {
            "positions": [
                0.2972274910100577,
                -1.7904695821024885,
                0.6701158565655019,
                0.6756051078756296,
                0.905567444956209,
                -3.219382053007794
            ]
        },
        {
            "positions": [
                0.346080632991735,
                -1.8225323623714762,
                0.5353113327763093,
                0.8067177983317335,
                0.8803785812272741,
                -3.2290251308073166
            ]
        },
        {
            "positions": [
                0.39493377497341225,
                -1.8545951426404639,
                0.4005068089871173,
                0.937830488787837,
                0.8551897174983392,
                -3.238668208606839
            ]
        },
        {
            "positions": [
                0.4437869169550895,
                -1.8866579229094516,
                0.26570228519792494,
                1.0689431792439403,
                0.8300008537694044,
                -3.2483112864063615
            ]
        },
        {
            "positions": [
                0.4926400589367667,
                -1.918720703178439,
                0.130897761408733,
                1.200055869700044,
                0.8048119900404693,
                -3.257954364205884
            ]
        },
        {
            "positions": [
                0.5414932009184441,
                -1.9507834834474267,
                -0.003906762380459394,
                1.3311685601561478,
                0.7796231263115344,
                -3.267597442005406
            ]
        },
        {
            "positions": [
                0.5903463429001212,
                -1.9828462637164144,
                -0.13871128616965178,
                1.4622812506122511,
                0.7544342625825995,
                -3.2772405198049284
            ]
        },
        {
            "positions": [
                0.6391994848817986,
                -2.014909043985402,
                -0.2735158099588437,
                1.5933939410683549,
                0.7292453988536646,
                -3.286883597604451
            ]
        },
        {
            "positions": [
                0.6880526268634757,
                -2.0469718242543893,
                -0.40832033374803567,
                1.7245066315244582,
                0.7040565351247297,
                -3.2965266754039733
            ]
        },
        {
            "positions": [
                0.736905768845153,
                -2.079034604523377,
                -0.5431248575372285,
                1.8556193219805623,
                0.6788676713957947,
                -3.3061697532034957
            ]
        },
        {
            "positions": [
                0.7857589108268304,
                -2.1110973847923646,
                -0.6779293813264204,
                1.9867320124366654,
                0.6536788076668598,
                -3.315812831003018
            ]
        },
        {
            "positions": [
                0.852599708549792,
                -2.134257826466902,
                -0.5582237038009583,
                1.9637298236132887,
                0.5751879697702865,
                -3.2314917619278396
            ]
        },
        {
            "positions": [
                0.9194405062727535,
                -2.157418268141439,
                -0.4385180262754962,
                1.9407276347899118,
                0.4966971318737133,
                -3.147170692852661
            ]
        },
        {
            "positions": [
                0.986281303995715,
                -2.180578709815977,
                -0.318812348750034,
                1.9177254459665352,
                0.41820629397714004,
                -3.0628496237774825
            ]
        },
        {
            "positions": [
                1.0531221017186767,
                -2.203739151490514,
                -0.19910667122457187,
                1.8947232571431585,
                0.33971545608056675,
                -2.978528554702304
            ]
        },
        {
            "positions": [
                1.1199628994416382,
                -2.2268995931650513,
                -0.0794009936991098,
                1.8717210683197816,
                0.26122461818399345,
                -2.8942074856271254
            ]
        },
        {
            "positions": [
                1.1868036971645997,
                -2.2500600348395885,
                0.04030468382635244,
                1.848718879496405,
                0.1827337802874202,
                -2.809886416551947
            ]
        },
        {
            "positions": [
                1.2536444948875614,
                -2.2732204765141257,
                0.16001036135181457,
                1.8257166906730282,
                0.10424294239084697,
                -2.7255653474767683
            ]
        },
        {
            "positions": [
                1.320485292610523,
                -2.296380918188663,
                0.2797160388772767,
                1.8027145018496513,
                0.025752104494273675,
                -2.64124427840159
            ]
        },
        {
            "positions": [
                1.3873260903334845,
                -2.3195413598632006,
                0.3994217164027387,
                1.7797123130262746,
                -0.05273873340229962,
                -2.5569232093264116
            ]
        },
        {
            "positions": [
                1.454166888056446,
                -2.342701801537738,
                0.5191273939282008,
                1.756710124202898,
                -0.13122957129887292,
                -2.472602140251233
            ]
        },
        {
            "positions": [
                1.5210076857794075,
                -2.365862243212275,
                0.638833071453663,
                1.7337079353795213,
                -0.2097204091954462,
                -2.3882810711760545
            ]
        },
        {
            "positions": [
                1.5878484835023692,
                -2.3890226848868124,
                0.7585387489791253,
                1.7107057465561444,
                -0.2882112470920194,
                -2.303960002100876
            ]
        },
        {
            "positions": [
                1.6546892812253309,
                -2.4121831265613496,
                0.8782444265045874,
                1.6877035577327677,
                -0.3667020849885927,
                -2.2196389330256974
            ]
        },
        {
            "positions": [
                1.7215300789482924,
                -2.4353435682358873,
                0.9979501040300496,
                1.664701368909391,
                -0.4451929228851659,
                -2.135317863950519
            ]
        },
        {
            "positions": [
                1.788370876671254,
                -2.4585040099104245,
                1.1176557815555117,
                1.6416991800860141,
                -0.5236837607817393,
                -2.0509967948753403
            ]
        },
        {
            "positions": [
                1.8552116743942155,
                -2.4816644515849617,
                1.2373614590809738,
                1.6186969912626374,
                -0.6021745986783125,
                -1.9666757258001617
            ]
        },
        {
            "positions": [
                1.9220524721171772,
                -2.504824893259499,
                1.3570671366064362,
                1.5956948024392605,
                -0.6806654365748859,
                -1.882354656724983
            ]
        },
        {
            "positions": [
                1.9888932698401387,
                -2.527985334934036,
                1.4767728141318979,
                1.5726926136158839,
                -0.7591562744714591,
                -1.7980335876498046
            ]
        },
        {
            "positions": [
                2.0557340675631,
                -2.551145776608574,
                1.5964784916573604,
                1.549690424792507,
                -0.8376471123680325,
                -1.7137125185746258
            ]
        },
        {
            "positions": [
                2.1225748652860617,
                -2.574306218283111,
                1.7161841691828221,
                1.5266882359691305,
                -0.9161379502646056,
                -1.6293914494994475
            ]
        },
        {
            "positions": [
                2.189415663009023,
                -2.5974666599576484,
                1.8358898467082847,
                1.5036860471457536,
                -0.9946287881611791,
                -1.5450703804242687
            ]
        },
        {
            "positions": [
                2.2562564607319846,
                -2.6206271016321856,
                1.9555955242337464,
                1.480683858322377,
                -1.0731196260577522,
                -1.4607493113490904
            ]
        },
        {
            "positions": [
                2.3230972584549465,
                -2.643787543306723,
                2.075301201759209,
                1.4576816694990002,
                -1.1516104639543254,
                -1.3764282422739118
            ]
        },
        {
            "positions": [
                2.389938056177908,
                -2.66694798498126,
                2.195006879284671,
                1.4346794806756233,
                -1.2301013018508986,
                -1.2921071731987332
            ]
        },
        {
            "positions": [
                2.45677885390087,
                -2.6901084266557977,
                2.314712556810133,
                1.4116772918522464,
                -1.308592139747472,
                -1.2077861041235547
            ]
        },
        {
            "positions": [
                2.5236196516238314,
                -2.713268868330335,
                2.4344182343355953,
                1.38867510302887,
                -1.3870829776440452,
                -1.1234650350483761
            ]
        },
        {
            "positions": [
                2.590460449346793,
                -2.736429310004872,
                2.5541239118610575,
                1.365672914205493,
                -1.4655738155406186,
                -1.0391439659731976
            ]
        },
        {
            "positions": [
                2.5083886899042867,
                -2.7004622855840936,
                2.5471079939060988,
                1.2861689438551827,
                -1.3714496650122572,
                -1.1301933835994078
            ]
        },
        {
            "positions": [
                2.4263169304617804,
                -2.6644952611633155,
                2.5400920759511405,
                1.2066649735048722,
                -1.2773255144838958,
                -1.221242801225618
            ]
        },
        {
            "positions": [
                2.344245171019274,
                -2.628528236742537,
                2.533076157996182,
                1.1271610031545618,
                -1.1832013639555343,
                -1.3122922188518285
            ]
        },
        {
            "positions": [
                2.2621734115767675,
                -2.5925612123217587,
                2.526060240041223,
                1.0476570328042514,
                -1.089077213427173,
                -1.4033416364780387
            ]
        },
        {
            "positions": [
                2.1801016521342613,
                -2.55659418790098,
                2.519044322086265,
                0.9681530624539412,
                -0.9949530628988115,
                -1.4943910541042489
            ]
        },
        {
            "positions": [
                2.098029892691755,
                -2.520627163480202,
                2.512028404131306,
                0.8886490921036307,
                -0.9008289123704502,
                -1.585440471730459
            ]
        },
        {
            "positions": [
                2.015958133249249,
                -2.4846601390594234,
                2.5050124861763474,
                0.8091451217533203,
                -0.8067047618420886,
                -1.6764898893566693
            ]
        },
        {
            "positions": [
                1.9338863738067427,
                -2.4486931146386453,
                2.497996568221389,
                0.7296411514030099,
                -0.7125806113137273,
                -1.7675393069828798
            ]
        },
        {
            "positions": [
                1.851814614364236,
                -2.4127260902178667,
                2.4909806502664305,
                0.6501371810526995,
                -0.6184564607853658,
                -1.85858872460909
            ]
        },
        {
            "positions": [
                1.7697428549217298,
                -2.3767590657970885,
                2.4839647323114717,
                0.5706332107023891,
                -0.5243323102570044,
                -1.9496381422353002
            ]
        },
        {
            "positions": [
                1.6876710954792236,
                -2.34079204137631,
                2.4769488143565135,
                0.4911292403520787,
                -0.4302081597286429,
                -2.0406875598615106
            ]
        },
        {
            "positions": [
                1.6055993360367173,
                -2.3048250169555318,
                2.4699328964015548,
                0.4116252700017683,
                -0.3360840092002817,
                -2.1317369774877206
            ]
        },
        {
            "positions": [
                1.5235275765942111,
                -2.268857992534753,
                2.4629169784465965,
                0.332121299651458,
                -0.24195985867192027,
                -2.222786395113931
            ]
        },
        {
            "positions": [
                1.4414558171517047,
                -2.232890968113975,
                2.455901060491638,
                0.25261732930114755,
                -0.14783570814355862,
                -2.313835812740141
            ]
        },
        {
            "positions": [
                1.3593840577091985,
                -2.1969239436931964,
                2.448885142536679,
                0.17311335895083713,
                -0.053711557615197414,
                -2.4048852303663515
            ]
        },
        {
            "positions": [
                1.2773122982666922,
                -2.1609569192724183,
                2.441869224581721,
                0.0936093886005267,
                0.040412592913164014,
                -2.495934647992562
            ]
        },
        {
            "positions": [
                1.1952405388241858,
                -2.1249898948516397,
                2.434853306626762,
                0.014105418250216495,
                0.13453674344152544,
                -2.586984065618772
            ]
        },
        {
            "positions": [
                1.1131687793816794,
                -2.0890228704308615,
                2.4278373886718034,
                -0.06539855210009415,
                0.2286608939698871,
                -2.6780334832449824
            ]
        },
        {
            "positions": [
                1.0310970199391731,
                -2.053055846010083,
                2.420821470716845,
                -0.14490252245040458,
                0.3227850444982483,
                -2.769082900871193
            ]
        },
        {
            "positions": [
                0.9490252604966669,
                -2.0170888215893044,
                2.4138055527618865,
                -0.22440649280071479,
                0.4169091950266097,
                -2.860132318497403
            ]
        },
        {
            "positions": [
                0.8669535010541607,
                -1.9811217971685262,
                2.4067896348069278,
                -0.3039104631510252,
                0.5110333455549712,
                -2.951181736123613
            ]
        },
        {
            "positions": [
                0.7848817416116542,
                -1.9451547727477478,
                2.3997737168519695,
                -0.38341443350133564,
                0.6051574960833328,
                -3.0422311537498237
            ]
        },
        {
            "positions": [
                0.7028099821691481,
                -1.9091877483269695,
                2.392757798897011,
                -0.46291840385164595,
                0.699281646611694,
                -3.1332805713760337
            ]
        }
    ]
}