{
    "goal": {
        "global_pose": {
            "orientation": {
                "w": 0.7047431493862688,
                "x": -0.7094548369677653,
                "y": 0.0024358444001904,
                "z": -0.0022348060817251984
            },
            "position": {
                "x": -0.39052492380142206,
                "y": 0.3671506643295288,
                "z": 0.19426114857196808
            }
        },
        "name": "move_to_magneteinheit_D"
    },
    "id": "SBL_move_to_magneteinheit_D_107",
    "joint_names": [
        "shoulder_pan_joint",
        "shoulder_lift_joint",
        "elbow_joint",
        "wrist_1_joint",
        "wrist_2_joint",
        "wrist_3_joint"
    ],
    "metrics": {
        "cart_traj_len": 4.769134520973177,
        "distance_elbow_joint": 3.438614418084435,
        "distance_shoulder_lift_joint": 1.6343203435505436,
        "distance_shoulder_pan_joint": 3.648500023137694,
        "distance_wrist_1_joint": 1.5798753621513812,
        "distance_wrist_2_joint": 1.1483391535914733,
        "distance_wrist_3_joint": 3.1581211106922864,
        "smoothness": 0.6963946343790743,
        "time": 0.349565316,
        "traj_len": 3.822011304432237,
        "weighted_distance": 4.863355544100723
    },
    "planner": "SBL",
    "start": {
        "state": {
            "elbow_joint": 0.749534889911806,
            "shoulder_lift_joint": -0.6476975780787326,
            "shoulder_pan_joint": -2.711696901376241,
            "wrist_1_joint": -0.07506478083263063,
            "wrist_2_joint": 0.43296659715538205,
            "wrist_3_joint": -3.14703540197715
        }
    },
    "waypoints": [
        {
            "positions": [
                -2.711696901376241,
                -0.6476975780787326,
                0.749534889911806,
                -0.07506478083263063,
                0.43296659715538205,
                -3.14703540197715
            ]
        },
        {
            "positions": [
                -2.815083519685679,
                -0.6487439818837517,
                0.8013139004874194,
                -0.05962269310243938,
                0.33978438857729715,
                -3.1168620878199005
            ]
        },
        {
            "positions": [
                -2.9184701379951163,
                -0.6497903856887708,
                0.8530929110630328,
                -0.044180605372248126,
                0.24660217999921225,
                -3.0866887736626505
            ]
        },
        {
            "positions": [
                -3.021856756304554,
                -0.6508367894937899,
                0.9048719216386462,
                -0.02873851764205687,
                0.15341997142112732,
                -3.056515459505401
            ]
        },
        {
            "positions": [
                -2.9105037995670218,
                -0.696950646233869,
                0.8133243764973573,
                -0.005112057535993947,
                0.15447684801390302,
                -2.9406973821807787
            ]
        },
        {
            "positions": [
                -2.7991508428294893,
                -0.7430645029739482,
                0.7217768313560684,
                0.018514402570068977,
                0.15553372460667872,
                -2.824879304856157
            ]
        },
        {
            "positions": [
                -2.687797886091957,
                -0.7891783597140274,
                0.6302292862147796,
                0.0421408626761319,
                0.15659060119945442,
                -2.7090612275315347
            ]
        },
        {
            "positions": [
                -2.576444929354425,
                -0.8352922164541066,
                0.5386817410734908,
                0.06576732278219483,
                0.15764747779223012,
                -2.5932431502069124
            ]
        },
        {
            "positions": [
                -2.465091972616892,
                -0.8814060731941857,
                0.44713419593220183,
                0.08939378288825776,
                0.1587043543850058,
                -2.4774250728822906
            ]
        },
        {
            "positions": [
                -2.35373901587936,
                -0.9275199299342649,
                0.355586650790913,
                0.11302024299432067,
                0.1597612309777815,
                -2.3616069955576684
            ]
        },
        {
            "positions": [
                -2.2423860591418276,
                -0.9736337866743441,
                0.2640391056496241,
                0.13664670310038363,
                0.1608181075705572,
                -2.245788918233046
            ]
        },
        {
            "positions": [
                -2.131033102404295,
                -1.0197476434144233,
                0.17249156050833525,
                0.16027316320644652,
                0.1618749841633329,
                -2.129970840908424
            ]
        },
        {
            "positions": [
                -2.019680145666763,
                -1.0658615001545022,
                0.08094401536704643,
                0.18389962331250945,
                0.1629318607561086,
                -2.014152763583802
            ]
        },
        {
            "positions": [
                -1.9083271889292304,
                -1.1119753568945816,
                -0.010603529774242504,
                0.2075260834185724,
                0.1639887373488843,
                -1.89833468625918
            ]
        },
        {
            "positions": [
                -1.7969742321916982,
                -1.1580892136346606,
                -0.10215107491553133,
                0.23115254352463532,
                0.16504561394166,
                -1.7825166089345579
            ]
        },
        {
            "positions": [
                -1.6856212754541657,
                -1.20420307037474,
                -0.19369862005682015,
                0.2547790036306982,
                0.1661024905344357,
                -1.6666985316099359
            ]
        },
        {
            "positions": [
                -1.5742683187166333,
                -1.250316927114819,
                -0.28524616519810897,
                0.27840546373676117,
                0.16715936712721138,
                -1.5508804542853136
            ]
        },
        {
            "positions": [
                -1.4629153619791009,
                -1.2964307838548983,
                -0.376793710339398,
                0.3020319238428241,
                0.16821624371998709,
                -1.4350623769606914
            ]
        },
        {
            "positions": [
                -1.3515624052415687,
                -1.3425446405949772,
                -0.4683412554806866,
                0.325658383948887,
                0.1692731203127628,
                -1.3192442996360696
            ]
        },
        {
            "positions": [
                -1.2402094485040362,
                -1.3886584973350566,
                -0.5598888006219757,
                0.3492848440549499,
                0.1703299969055385,
                -1.2034262223114474
            ]
        },
        {
            "positions": [
                -1.1288564917665036,
                -1.4347723540751356,
                -0.6514363457632645,
                0.37291130416101287,
                0.1713868734983142,
                -1.0876081449868251
            ]
        },
        {
            "positions": [
                -1.0175035350289714,
                -1.4808862108152148,
                -0.7429838909045533,
                0.39653776426707577,
                0.1724437500910899,
                -0.9717900676622033
            ]
        },
        {
            "positions": [
                -0.906150578291439,
                -1.527000067555294,
                -0.8345314360458421,
                0.4201642243731387,
                0.1735006266838656,
                -0.8559719903375811
            ]
        },
        {
            "positions": [
                -0.7947976215539065,
                -1.5731139242953733,
                -0.9260789811871312,
                0.44379068447920167,
                0.1745575032766413,
                -0.7401539130129589
            ]
        },
        {
            "positions": [
                -0.6834446648163746,
                -1.6192277810354523,
                -1.0176265263284199,
                0.46741714458526457,
                0.17561437986941697,
                -0.6243358356883371
            ]
        },
        {
            "positions": [
                -0.5720917080788421,
                -1.6653416377755315,
                -1.1091740714697087,
                0.4910436046913275,
                0.17667125646219267,
                -0.5085177583637148
            ]
        },
        {
            "positions": [
                -0.4607387513413097,
                -1.7114554945156106,
                -1.2007216166109975,
                0.5146700647973905,
                0.17772813305496837,
                -0.3926996810390926
            ]
        },
        {
            "positions": [
                -0.3493857946037773,
                -1.7575693512556898,
                -1.2922691617522863,
                0.5382965249034533,
                0.17878500964774408,
                -0.2768816037144708
            ]
        },
        {
            "positions": [
                -0.23803283786624502,
                -1.803683207995769,
                -1.3838167068935752,
                0.5619229850095162,
                0.17984188624051978,
                -0.16106352638984842
            ]
        },
        {
            "positions": [
                -0.18751400872779583,
                -1.823779244096011,
                -1.533372575025142,
                0.6378483627357483,
                0.10942322787316419,
                -0.14885500042945135
            ]
        },
        {
            "positions": [
                -0.13699517958934665,
                -1.8438752801962532,
                -1.6829284431567084,
                0.7137737404619804,
                0.039004569505808606,
                -0.13664647446905429
            ]
        },
        {
            "positions": [
                -0.08647635045089744,
                -1.8639713162964953,
                -1.8324843112882752,
                0.7896991181882125,
                -0.03141408886154698,
                -0.12443794850865722
            ]
        },
        {
            "positions": [
                -0.035957521312448254,
                -1.8840673523967373,
                -1.9820401794198417,
                0.8656244959144446,
                -0.10183274722890256,
                -0.11222942254826015
            ]
        },
        {
            "positions": [
                0.014561307826000958,
                -1.9041633884969795,
                -2.1315960475514086,
                0.9415498736406767,
                -0.17225140559625818,
                -0.10002089658786309
            ]
        },
        {
            "positions": [
                0.06508013696445014,
                -1.9242594245972215,
                -2.281151915682975,
                1.0174752513669088,
                -0.24267006396361374,
                -0.08781237062746602
            ]
        },
        {
            "positions": [
                0.01479948197637506,
                -1.9958111240036325,
                -2.30060262549017,
                1.1149423173572772,
                -0.15869833139687523,
                -0.06803275475894585
            ]
        },
        {
            "positions": [
                -0.03548117301170002,
                -2.0673628234100434,
                -2.3200533352973647,
                1.2124093833476455,
                -0.07472659883013671,
                -0.048253138890425665
            ]
        },
        {
            "positions": [
                -0.08576182799977508,
                -2.1389145228164543,
                -2.339504045104559,
                1.309876449338014,
                0.009245133736601796,
                -0.028473523021905492
            ]
        },
        {
            "positions": [
                -0.13604248298785018,
                -2.2104662222228653,
                -2.3589547549117538,
                1.4073435153283822,
                0.0932168663033403,
                -0.008693907153385305
            ]
        },
        {
            "positions": [
                -0.18632313797592528,
                -2.282017921629276,
                -2.3784054647189485,
                1.5048105813187507,
                0.17718859887007882,
                0.01108570871513486
            ]
        }
    ]
}