{
    "goal": {
        "global_pose": {
            "orientation": {
                "w": 0.5084816262002911,
                "x": -0.4908360881923452,
                "y": 0.5182115481033761,
                "z": -0.48164630358495003
            },
            "position": {
                "x": 0.5540239810943604,
                "y": -0.46912469901144505,
                "z": 0.16403168439865112
            }
        },
        "name": "move_to_storage_B"
    },
    "id": "SBL_move_to_storage_B_62",
    "joint_names": [
        "shoulder_pan_joint",
        "shoulder_lift_joint",
        "elbow_joint",
        "wrist_1_joint",
        "wrist_2_joint",
        "wrist_3_joint"
    ],
    "metrics": {
        "cart_traj_len": 5.025640503362675,
        "distance_elbow_joint": 3.686286029010653,
        "distance_shoulder_lift_joint": 1.582903481439266,
        "distance_shoulder_pan_joint": 4.0811043572472645,
        "distance_wrist_1_joint": 1.847157023076187,
        "distance_wrist_2_joint": 1.7537924635479802,
        "distance_wrist_3_joint": 3.1537506018691386,
        "smoothness": 0.051941868569305535,
        "time": 0.282636333,
        "traj_len": 4.013102784154735,
        "weighted_distance": 5.100337699265896
    },
    "planner": "SBL",
    "start": {
        "state": {
            "elbow_joint": -1.6666013991110213,
            "shoulder_lift_joint": -2.479295265494141,
            "shoulder_pan_joint": 2.6606783912885628,
            "wrist_1_joint": 0.9897123657714939,
            "wrist_2_joint": 0.474351758749468,
            "wrist_3_joint": 0.013243222496468381
        }
    },
    "waypoints": [
        {
            "positions": [
                2.6606783912885628,
                -2.479295265494141,
                -1.6666013991110213,
                0.9897123657714939,
                0.474351758749468,
                0.013243222496468381
            ]
        },
        {
            "positions": [
                2.681863920139481,
                -2.4869649906792373,
                -1.6230679430198416,
                0.9228107744978258,
                0.3747114867611988,
                0.09609524907865245
            ]
        },
        {
            "positions": [
                2.7030494489903987,
                -2.4946347158643336,
                -1.5795344869286616,
                0.8559091832241577,
                0.2750712147729296,
                0.17894727566083654
            ]
        },
        {
            "positions": [
                2.724234977841317,
                -2.5023044410494295,
                -1.5360010308374819,
                0.7890075919504896,
                0.17543094278466037,
                0.2617993022430206
            ]
        },
        {
            "positions": [
                2.745420506692235,
                -2.509974166234526,
                -1.492467574746302,
                0.7221060006768215,
                0.07579067079639118,
                0.34465132882520466
            ]
        },
        {
            "positions": [
                2.764138521050471,
                -2.517679979252352,
                -1.4417159313882706,
                0.6550045326325656,
                -0.016217951501102293,
                0.4279851130342833
            ]
        },
        {
            "positions": [
                2.7828565354087074,
                -2.525385792270178,
                -1.3909642880302389,
                0.5879030645883097,
                -0.10822657379859577,
                0.511318897243362
            ]
        },
        {
            "positions": [
                2.8015745497669435,
                -2.533091605288004,
                -1.3402126446722074,
                0.5208015965440538,
                -0.20023519609608925,
                0.5946526814524408
            ]
        },
        {
            "positions": [
                2.808758233174989,
                -2.542852137797824,
                -1.2307823939425535,
                0.4365475276648618,
                -0.264633584643036,
                0.7007987343019768
            ]
        },
        {
            "positions": [
                2.8159419165830353,
                -2.552612670307644,
                -1.1213521432128999,
                0.35229345878566987,
                -0.32903197318998273,
                0.8069447871515129
            ]
        },
        {
            "positions": [
                2.823125599991081,
                -2.562373202817464,
                -1.011921892483246,
                0.26803938990647785,
                -0.39343036173692947,
                0.9130908400010489
            ]
        },
        {
            "positions": [
                2.817357442494215,
                -2.569297730042549,
                -0.9046065229876407,
                0.20875236369138517,
                -0.4048354473960371,
                0.9887842698215429
            ]
        },
        {
            "positions": [
                2.7900575140175565,
                -2.5749742660418633,
                -0.7549694439146675,
                0.16116081822249945,
                -0.3429638520761598,
                1.0516438286093797
            ]
        },
        {
            "positions": [
                2.7627575855408977,
                -2.5806508020411774,
                -0.6053323648416942,
                0.11356927275361375,
                -0.2810922567562826,
                1.1145033873972163
            ]
        },
        {
            "positions": [
                2.735457657064239,
                -2.5863273380404914,
                -0.4556952857687209,
                0.06597772728472806,
                -0.21922066143640528,
                1.177362946185053
            ]
        },
        {
            "positions": [
                2.7081577285875804,
                -2.592003874039806,
                -0.3060582066957477,
                0.01838618181584234,
                -0.157349066116528,
                1.2402225049728897
            ]
        },
        {
            "positions": [
                2.572311682975393,
                -2.539496914293606,
                -0.222995962531627,
                -0.012893491009891074,
                -0.13495196339785062,
                1.3090357663797725
            ]
        },
        {
            "positions": [
                2.436465637363206,
                -2.486989954547406,
                -0.13993371836750637,
                -0.04417316383562449,
                -0.11255486067917327,
                1.377849027786655
            ]
        },
        {
            "positions": [
                2.3006195917510186,
                -2.434482994801206,
                -0.05687147420338573,
                -0.0754528366613579,
                -0.0901577579604959,
                1.446662289193538
            ]
        },
        {
            "positions": [
                2.1647735461388313,
                -2.381976035055006,
                0.02619076996073494,
                -0.10673250948709131,
                -0.06776065524181854,
                1.5154755506004207
            ]
        },
        {
            "positions": [
                2.0289275005266436,
                -2.329469075308806,
                0.10925301412485561,
                -0.13801218231282475,
                -0.04536355252314116,
                1.5842888120073035
            ]
        },
        {
            "positions": [
                1.8930814549144563,
                -2.276962115562606,
                0.19231525828897622,
                -0.16929185513855813,
                -0.0229664498044638,
                1.6531020734141864
            ]
        },
        {
            "positions": [
                1.757235409302269,
                -2.224455155816406,
                0.2753775024530969,
                -0.20057152796429156,
                -0.0005693470857864313,
                1.721915334821069
            ]
        },
        {
            "positions": [
                1.6213893636900818,
                -2.171948196070206,
                0.35843974661721756,
                -0.23185120079002497,
                0.02182775563289091,
                1.7907285962279518
            ]
        },
        {
            "positions": [
                1.4855433180778943,
                -2.119441236324006,
                0.4415019907813382,
                -0.26313087361575843,
                0.04422485835156831,
                1.8595418576348346
            ]
        },
        {
            "positions": [
                1.349697272465707,
                -2.066934276577806,
                0.5245642349454589,
                -0.29441054644149184,
                0.06662196107024568,
                1.9283551190417172
            ]
        },
        {
            "positions": [
                1.2138512268535198,
                -2.014427316831606,
                0.6076264791095795,
                -0.3256902192672252,
                0.08901906378892302,
                1.9971683804486
            ]
        },
        {
            "positions": [
                1.0780051812413325,
                -1.9619203570854056,
                0.6906887232737001,
                -0.3569698920929586,
                0.11141616650760039,
                2.065981641855483
            ]
        },
        {
            "positions": [
                0.942159135629145,
                -1.9094133973392053,
                0.7737509674378208,
                -0.38824956491869206,
                0.1338132692262778,
                2.1347949032623657
            ]
        },
        {
            "positions": [
                0.8063130900169577,
                -1.8569064375930053,
                0.8568132116019415,
                -0.41952923774442547,
                0.15621037194495513,
                2.2036081646692485
            ]
        },
        {
            "positions": [
                0.6704670444047705,
                -1.8043994778468053,
                0.9398754557660621,
                -0.45080891057015887,
                0.17860747466363247,
                2.2724214260761313
            ]
        },
        {
            "positions": [
                0.5346209987925832,
                -1.7518925181006053,
                1.022937699930183,
                -0.4820885833958923,
                0.2010045773823098,
                2.3412346874830137
            ]
        },
        {
            "positions": [
                0.3987749531803959,
                -1.6993855583544053,
                1.1059999440943034,
                -0.5133682562216257,
                0.2234016801009872,
                2.4100479488898965
            ]
        },
        {
            "positions": [
                0.2629289075682082,
                -1.6468785986082053,
                1.1890621882584242,
                -0.5446479290473591,
                0.2457987828196646,
                2.4788612102967793
            ]
        },
        {
            "positions": [
                0.12708286195602092,
                -1.5943716388620053,
                1.2721244324225447,
                -0.5759276018730926,
                0.268195885538342,
                2.5476744717036626
            ]
        },
        {
            "positions": [
                -0.008763183656166351,
                -1.5418646791158053,
                1.3551866765866656,
                -0.607207274698826,
                0.29059298825701935,
                2.616487733110545
            ]
        },
        {
            "positions": [
                -0.14460922926835362,
                -1.4893577193696053,
                1.438248920750786,
                -0.6384869475245594,
                0.3129900909756967,
                2.6853009945174278
            ]
        },
        {
            "positions": [
                -0.2804552748805409,
                -1.4368507596234052,
                1.5213111649149065,
                -0.6697666203502928,
                0.33538719369437403,
                2.7541142559243106
            ]
        },
        {
            "positions": [
                -0.41630132049272817,
                -1.3843437998772052,
                1.6043734090790274,
                -0.7010462931760262,
                0.35778429641305143,
                2.822927517331193
            ]
        },
        {
            "positions": [
                -0.5521473661049154,
                -1.3318368401310052,
                1.6874356532431478,
                -0.7323259660017596,
                0.38018139913172877,
                2.8917407787380762
            ]
        },
        {
            "positions": [
                -0.6879934117171032,
                -1.279329880384805,
                1.7704978974072687,
                -0.763605638827493,
                0.4025785018504062,
                2.9605540401449586
            ]
        },
        {
            "positions": [
                -0.8238394573292904,
                -1.226822920638605,
                1.8535601415713892,
                -0.7948853116532264,
                0.42497560456908356,
                3.029367301551842
            ]
        },
        {
            "positions": [
                -0.9596855029414777,
                -1.174315960892405,
                1.93662238573551,
                -0.8261649844789598,
                0.4473727072877609,
                3.0981805629587242
            ]
        },
        {
            "positions": [
                -1.0955315485536652,
                -1.121809001146205,
                2.0196846298996305,
                -0.8574446573046933,
                0.4697698100064382,
                3.166993824365607
            ]
        }
    ]
}