{
    "goal": {
        "global_pose": {
            "orientation": {
                "w": 0.7031023502349854,
                "x": -0.7110244035720825,
                "y": 0.007748599164187908,
                "z": 0.005598929710686207
            },
            "position": {
                "x": 0.11585023208521307,
                "y": 0.44412534475326537,
                "z": 0.3711530566215515
            }
        },
        "name": "move_to_auspresseinheit_A"
    },
    "id": "SBL_move_to_auspresseinheit_A_16",
    "joint_names": [
        "shoulder_pan_joint",
        "shoulder_lift_joint",
        "elbow_joint",
        "wrist_1_joint",
        "wrist_2_joint",
        "wrist_3_joint"
    ],
    "metrics": {
        "cart_traj_len": 0.6825579573053528,
        "distance_elbow_joint": 0.18354239233613923,
        "distance_shoulder_lift_joint": 0.5333528504246681,
        "distance_shoulder_pan_joint": 1.041886906641401,
        "distance_wrist_1_joint": 1.0314361082279058,
        "distance_wrist_2_joint": 0.7474624532942733,
        "distance_wrist_3_joint": 0.5907195631669362,
        "smoothness": 1.0366469752549032,
        "time": 0.297847761,
        "traj_len": 2.0318465183402323,
        "weighted_distance": 2.66246839642227
    },
    "planner": "SBL",
    "start": {
        "state": {
            "elbow_joint": 2.4225746658250005,
            "shoulder_lift_joint": -1.3736534386056498,
            "shoulder_pan_joint": -0.3378633547517467,
            "wrist_1_joint": -1.0288598680537169,
            "wrist_2_joint": 1.233022673432363,
            "wrist_3_joint": -3.0940220416140027
        }
    },
    "waypoints": [
        {
            "positions": [
                -0.3378633547517467,
                -1.3736534386056498,
                2.4225746658250005,
                -1.0288598680537169,
                1.233022673432363,
                -3.0940220416140027
            ]
        },
        {
            "positions": [
                -0.2598077032520094,
                -1.4218345216499448,
                2.4091755057986246,
                -0.9289089034368513,
                1.1530880519387947,
                -3.059647266166265
            ]
        },
        {
            "positions": [
                -0.18175205175227216,
                -1.4700156046942399,
                2.3957763457722487,
                -0.8289579388199857,
                1.0731534304452262,
                -3.0252724907185273
            ]
        },
        {
            "positions": [
                -0.10369640025253488,
                -1.5181966877385349,
                2.382377185745873,
                -0.7290069742031202,
                0.9932188089516578,
                -2.99089771527079
            ]
        },
        {
            "positions": [
                -0.025640748752797593,
                -1.56637777078283,
                2.368978025719497,
                -0.6290560095862546,
                0.9132841874580893,
                -2.9565229398230524
            ]
        },
        {
            "positions": [
                0.05241490274693966,
                -1.614558853827125,
                2.355578865693121,
                -0.529105044969389,
                0.8333495659645209,
                -2.9221481643753147
            ]
        },
        {
            "positions": [
                0.13047055424667697,
                -1.66273993687142,
                2.3421797056667453,
                -0.42915408035252356,
                0.7534149444709525,
                -2.8877733889275774
            ]
        },
        {
            "positions": [
                0.20852620574641428,
                -1.710921019915715,
                2.3287805456403694,
                -0.32920311573565797,
                0.673480322977384,
                -2.8533986134798397
            ]
        },
        {
            "positions": [
                0.2865818572461515,
                -1.75910210296001,
                2.3153813856139935,
                -0.2292521511187924,
                0.5935457014838156,
                -2.819023838032102
            ]
        },
        {
            "positions": [
                0.3909422809070271,
                -1.796078149477587,
                2.3344686636452767,
                -0.28720924894203775,
                0.620542071820247,
                -2.897954177928361
            ]
        },
        {
            "positions": [
                0.49530270456790276,
                -1.8330541959951638,
                2.35355594167656,
                -0.3451663467652831,
                0.6475384421566786,
                -2.9768845178246197
            ]
        },
        {
            "positions": [
                0.5996631282287784,
                -1.8700302425127409,
                2.3726432197078426,
                -0.40312344458852845,
                0.67453481249311,
                -3.0558148577208786
            ]
        },
        {
            "positions": [
                0.704023551889654,
                -1.9070062890303179,
                2.391730497739126,
                -0.4610805424117738,
                0.7015311828295414,
                -3.1347451976171374
            ]
        }
    ]
}