{
    "goal": {
        "global_pose": {
            "orientation": {
                "w": -0.4816463035849501,
                "x": 0.5182115481033762,
                "y": 0.4908360881923453,
                "z": -0.5084816262002911
            },
            "position": {
                "x": -0.8240239810943604,
                "y": 0.19912469901144506,
                "z": 0.16403168439865112
            }
        },
        "name": "move_to_storage_D"
    },
    "id": "SBL_move_to_storage_D_84",
    "joint_names": [
        "shoulder_pan_joint",
        "shoulder_lift_joint",
        "elbow_joint",
        "wrist_1_joint",
        "wrist_2_joint",
        "wrist_3_joint"
    ],
    "metrics": {
        "cart_traj_len": 2.2258979006468875,
        "distance_elbow_joint": 1.1092124960616443,
        "distance_shoulder_lift_joint": 1.8341272948221974,
        "distance_shoulder_pan_joint": 1.8661767788731098,
        "distance_wrist_1_joint": 3.8221888660781023,
        "distance_wrist_2_joint": 2.1753633560561454,
        "distance_wrist_3_joint": 4.311659038555817,
        "smoothness": 0.22770582944109585,
        "time": 0.18134407,
        "traj_len": 3.8882808322505475,
        "weighted_distance": 5.453402436066212
    },
    "planner": "SBL",
    "start": {
        "state": {
            "elbow_joint": -2.384821988534728,
            "shoulder_lift_joint": -2.2788054721415256,
            "shoulder_pan_joint": -0.1854694642142757,
            "wrist_1_joint": 1.4845938289331202,
            "wrist_2_joint": 0.17898776772866878,
            "wrist_3_joint": 0.037105688729662994
        }
    },
    "waypoints": [
        {
            "positions": [
                -0.1854694642142757,
                -2.2788054721415256,
                -2.384821988534728,
                1.4845938289331202,
                0.17898776772866878,
                0.037105688729662994
            ]
        },
        {
            "positions": [
                -0.25021800992610355,
                -2.2532250670226572,
                -2.3951421445084375,
                1.377200697985385,
                0.05919534409017449,
                0.08525203130119696
            ]
        },
        {
            "positions": [
                -0.3149665556379314,
                -2.2276446619037893,
                -2.405462300482147,
                1.2698075670376499,
                -0.0605970795483198,
                0.13339837387273093
            ]
        },
        {
            "positions": [
                -0.37560324595645866,
                -2.194419834260801,
                -2.4094028416709516,
                1.1478515379962462,
                -0.175711768407583,
                0.17840602927197763
            ]
        },
        {
            "positions": [
                -0.4362399362749859,
                -2.161195006617812,
                -2.413343382859756,
                1.0258955089548425,
                -0.2908264572668462,
                0.2234136846712243
            ]
        },
        {
            "positions": [
                -0.49687662659351317,
                -2.127970178974823,
                -2.4172839240485606,
                0.9039394799134386,
                -0.40594114612610943,
                0.268421340070471
            ]
        },
        {
            "positions": [
                -0.5575133169120404,
                -2.0947453513318344,
                -2.4212244652373647,
                0.7819834508720349,
                -0.5210558349853727,
                0.3134289954697177
            ]
        },
        {
            "positions": [
                -0.6181500072305677,
                -2.061520523688846,
                -2.425165006426169,
                0.6600274218306311,
                -0.6361705238446359,
                0.35843665086896437
            ]
        },
        {
            "positions": [
                -0.6787866975490949,
                -2.028295696045857,
                -2.4291055476149737,
                0.5380713927892274,
                -0.7512852127038991,
                0.40344430626821104
            ]
        },
        {
            "positions": [
                -0.724661941005164,
                -1.9834362287146232,
                -2.4155107925105117,
                0.39523322785020587,
                -0.853458165100852,
                0.43649447487984316
            ]
        },
        {
            "positions": [
                -0.7705371844612332,
                -1.9385767613833895,
                -2.4019160374060498,
                0.25239506291118424,
                -0.9556311174978049,
                0.4695446434914753
            ]
        },
        {
            "positions": [
                -0.8164124279173023,
                -1.893717294052156,
                -2.388321282301588,
                0.10955689797216261,
                -1.0578040698947577,
                0.5025948121031074
            ]
        },
        {
            "positions": [
                -0.8622876713733714,
                -1.8488578267209224,
                -2.3747265271971254,
                -0.03328126696685896,
                -1.1599770222917107,
                0.5356449807147395
            ]
        },
        {
            "positions": [
                -0.9081629148294406,
                -1.8039983593896887,
                -2.3611317720926635,
                -0.17611943190588064,
                -1.2621499746886635,
                0.5686951493263717
            ]
        },
        {
            "positions": [
                -0.9540381582855095,
                -1.759138892058455,
                -2.3475370169882015,
                -0.3189575968449022,
                -1.3643229270856163,
                0.6017453179380038
            ]
        },
        {
            "positions": [
                -0.9999134017415787,
                -1.7142794247272213,
                -2.3339422618837395,
                -0.4617957617839239,
                -1.4664958794825693,
                0.6347954865496359
            ]
        },
        {
            "positions": [
                -1.0219525675816472,
                -1.595571316280009,
                -2.2142212455989867,
                -0.48364663059619406,
                -1.4991298893072407,
                0.6080350020880281
            ]
        },
        {
            "positions": [
                -1.0439917334217157,
                -1.4768632078327963,
                -2.0945002293142334,
                -0.5054974994084642,
                -1.5317638991319118,
                0.5812745176264201
            ]
        },
        {
            "positions": [
                -1.0012290670818595,
                -1.452931598816982,
                -2.0323334379862517,
                -0.666315316026331,
                -1.5657059797788861,
                0.5426628636466019
            ]
        },
        {
            "positions": [
                -0.9584664007420034,
                -1.4289999898011674,
                -1.97016664665827,
                -0.8271331326441977,
                -1.5996480604258605,
                0.5040512096667836
            ]
        },
        {
            "positions": [
                -0.9157037344021471,
                -1.405068380785353,
                -1.9079998553302882,
                -0.9879509492620646,
                -1.6335901410728348,
                0.46543955568696543
            ]
        },
        {
            "positions": [
                -0.872941068062291,
                -1.3811367717695386,
                -1.8458330640023064,
                -1.1487687658799315,
                -1.6675322217198092,
                0.4268279017071472
            ]
        },
        {
            "positions": [
                -0.8301784017224348,
                -1.3572051627537243,
                -1.7836662726743246,
                -1.3095865824977981,
                -1.7014743023667833,
                0.38821624772732893
            ]
        },
        {
            "positions": [
                -0.7874157353825786,
                -1.33327355373791,
                -1.7214994813463427,
                -1.470404399115665,
                -1.7354163830137577,
                0.34960459374751074
            ]
        },
        {
            "positions": [
                -0.7446530690427224,
                -1.3093419447220953,
                -1.659332690018361,
                -1.6312222157335317,
                -1.769358463660732,
                0.3109929397676925
            ]
        },
        {
            "positions": [
                -0.7018904027028663,
                -1.285410335706281,
                -1.5971658986903792,
                -1.7920400323513985,
                -1.8033005443077064,
                0.27238128578787424
            ]
        },
        {
            "positions": [
                -0.6575201907730782,
                -1.341459146265411,
                -1.6126985178941662,
                -1.828410366004304,
                -1.7904288747063883,
                0.048944283122935445
            ]
        },
        {
            "positions": [
                -0.6131499788432901,
                -1.3975079568245412,
                -1.628231137097953,
                -1.8647806996572096,
                -1.77755720510507,
                -0.17449271954200335
            ]
        },
        {
            "positions": [
                -0.5687797669135022,
                -1.4535567673836716,
                -1.64376375630174,
                -1.9011510333101151,
                -1.764685535503752,
                -0.3979297222069422
            ]
        },
        {
            "positions": [
                -0.5244095549837141,
                -1.5096055779428017,
                -1.659296375505527,
                -1.9375213669630207,
                -1.751813865902434,
                -0.6213667248718809
            ]
        },
        {
            "positions": [
                -0.48003934305392604,
                -1.5656543885019318,
                -1.6748289947093138,
                -1.973891700615926,
                -1.738942196301116,
                -0.8448037275368196
            ]
        },
        {
            "positions": [
                -0.43566913112413796,
                -1.621703199061062,
                -1.6903616139131008,
                -2.0102620342688318,
                -1.7260705266997978,
                -1.0682407302017587
            ]
        },
        {
            "positions": [
                -0.39129891919434995,
                -1.677752009620192,
                -1.7058942331168878,
                -2.0466323679217373,
                -1.7131988570984797,
                -1.2916777328666975
            ]
        },
        {
            "positions": [
                -0.3469287072645619,
                -1.7338008201793222,
                -1.7214268523206746,
                -2.0830027015746424,
                -1.7003271874971617,
                -1.5151147355316361
            ]
        },
        {
            "positions": [
                -0.30255849533477386,
                -1.7898496307384524,
                -1.7369594715244616,
                -2.119373035227548,
                -1.6874555178958437,
                -1.738551738196575
            ]
        },
        {
            "positions": [
                -0.2581882834049858,
                -1.8458984412975827,
                -1.7524920907282486,
                -2.1557433688804535,
                -1.6745838482945254,
                -1.9619887408615135
            ]
        },
        {
            "positions": [
                -0.21381807147519777,
                -1.9019472518567129,
                -1.7680247099320354,
                -2.192113702533359,
                -1.6617121786932074,
                -2.1854257435264524
            ]
        },
        {
            "positions": [
                -0.16944785954540964,
                -1.9579960624158432,
                -1.7835573291358224,
                -2.2284840361862646,
                -1.6488405090918894,
                -2.4088627461913914
            ]
        },
        {
            "positions": [
                -0.12507764761562157,
                -2.0140448729749734,
                -1.7990899483396094,
                -2.26485436983917,
                -1.6359688394905714,
                -2.6322997488563304
            ]
        },
        {
            "positions": [
                -0.0807074356858336,
                -2.0700936835341035,
                -1.8146225675433962,
                -2.3012247034920756,
                -1.6230971698892531,
                -2.8557367515212695
            ]
        },
        {
            "positions": [
                -0.036337223756045534,
                -2.1261424940932336,
                -1.8301551867471832,
                -2.337595037144981,
                -1.610225500287935,
                -3.079173754186208
            ]
        }
    ]
}