{
    "goal": {
        "global_pose": {
            "orientation": {
                "w": -0.4816463035849501,
                "x": 0.5182115481033762,
                "y": 0.4908360881923453,
                "z": -0.5084816262002911
            },
            "position": {
                "x": -0.8240239810943604,
                "y": -0.300875300988555,
                "z": 0.16403168439865112
            }
        },
        "name": "move_to_storage_C"
    },
    "id": "SBL_move_to_storage_C_32",
    "joint_names": [
        "shoulder_pan_joint",
        "shoulder_lift_joint",
        "elbow_joint",
        "wrist_1_joint",
        "wrist_2_joint",
        "wrist_3_joint"
    ],
    "metrics": {
        "cart_traj_len": 0.5759851938370283,
        "distance_elbow_joint": 0.25898290551297154,
        "distance_shoulder_lift_joint": 0.18884405968995988,
        "distance_shoulder_pan_joint": 0.49444598552794394,
        "distance_wrist_1_joint": 0.0833787132311854,
        "distance_wrist_2_joint": 1.0638153547158917,
        "distance_wrist_3_joint": 0.07231133899306386,
        "smoothness": 0.0,
        "time": 0.6524254399999999,
        "traj_len": 1.4702987307588264,
        "weighted_distance": 1.8583850794720187
    },
    "planner": "SBL",
    "start": {
        "state": {
            "elbow_joint": 2.010868314990456,
            "shoulder_lift_joint": -1.1634956873337592,
            "shoulder_pan_joint": -2.4736205022346125,
            "wrist_1_joint": -0.8367026794202681,
            "wrist_2_joint": 0.6746043897044499,
            "wrist_3_joint": -3.1496632123970403
        }
    },
    "waypoints": [
        {
            "positions": [
                -2.4736205022346125,
                -1.1634956873337592,
                2.010868314990456,
                -0.8367026794202681,
                0.6746043897044499,
                -3.1496632123970403
            ]
        },
        {
            "positions": [
                -2.55602816648927,
                -1.1320216773854326,
                1.9677044974049607,
                -0.8228062272150706,
                0.8519069488237652,
                -3.137611322564863
            ]
        },
        {
            "positions": [
                -2.6384358307439273,
                -1.100547667437106,
                1.9245406798194653,
                -0.8089097750098729,
                1.0292095079430805,
                -3.1255594327326857
            ]
        },
        {
            "positions": [
                -2.7208434949985847,
                -1.0690736574887794,
                1.88137686223397,
                -0.7950133228046754,
                1.2065120670623957,
                -3.1135075429005084
            ]
        },
        {
            "positions": [
                -2.8032511592532416,
                -1.0375996475404525,
                1.8382130446484748,
                -0.7811168705994779,
                1.383814626181711,
                -3.101455653068331
            ]
        },
        {
            "positions": [
                -2.885658823507899,
                -1.006125637592126,
                1.7950492270629796,
                -0.7672204183942802,
                1.5611171853010264,
                -3.0894037632361537
            ]
        },
        {
            "positions": [
                -2.9680664877625564,
                -0.9746516276437993,
                1.7518854094774843,
                -0.7533239661890827,
                1.7384197444203415,
                -3.0773518734039764
            ]
        }
    ]
}