{
    "goal": {
        "global_pose": {
            "orientation": {
                "w": 0.5084816262002911,
                "x": -0.4908360881923452,
                "y": 0.5182115481033761,
                "z": -0.48164630358495003
            },
            "position": {
                "x": 0.5540239810943604,
                "y": -0.46912469901144505,
                "z": 0.16403168439865112
            }
        },
        "name": "move_to_storage_B"
    },
    "id": "SBL_move_to_storage_B_32",
    "joint_names": [
        "shoulder_pan_joint",
        "shoulder_lift_joint",
        "elbow_joint",
        "wrist_1_joint",
        "wrist_2_joint",
        "wrist_3_joint"
    ],
    "metrics": {
        "cart_traj_len": 4.710243573830117,
        "distance_elbow_joint": 4.024101537372433,
        "distance_shoulder_lift_joint": 1.3586421677524672,
        "distance_shoulder_pan_joint": 3.955432614463635,
        "distance_wrist_1_joint": 1.871261852031151,
        "distance_wrist_2_joint": 0.39142878424981004,
        "distance_wrist_3_joint": 3.1263913778264794,
        "smoothness": 0.1655600136408944,
        "time": 0.526255972,
        "traj_len": 3.8376110190711055,
        "weighted_distance": 4.821071636641578
    },
    "planner": "SBL",
    "start": {
        "state": {
            "elbow_joint": -1.6666013991110213,
            "shoulder_lift_joint": -2.479295265494141,
            "shoulder_pan_joint": 2.6606783912885628,
            "wrist_1_joint": 0.9897123657714939,
            "wrist_2_joint": 0.474351758749468,
            "wrist_3_joint": 0.013243222496468381
        }
    },
    "waypoints": [
        {
            "positions": [
                2.6606783912885628,
                -2.479295265494141,
                -1.6666013991110213,
                0.9897123657714939,
                0.474351758749468,
                0.013243222496468381
            ]
        },
        {
            "positions": [
                2.6938414589751276,
                -2.391142893095069,
                -1.701849636136931,
                0.9966653830047321,
                0.4412144267346934,
                0.1205084422565985
            ]
        },
        {
            "positions": [
                2.727004526661693,
                -2.3029905206959964,
                -1.737097873162841,
                1.0036184002379702,
                0.4080770947199188,
                0.22777366201672863
            ]
        },
        {
            "positions": [
                2.7601675943482578,
                -2.2148381482969244,
                -1.7723461101887508,
                1.0105714174712084,
                0.37493976270514423,
                0.33503888177685875
            ]
        },
        {
            "positions": [
                2.6630127209734824,
                -2.1024619417767734,
                -1.7942406122807406,
                0.9757465978879047,
                0.3415482622683259,
                0.36957467053717136
            ]
        },
        {
            "positions": [
                2.5658578475987075,
                -1.9900857352566226,
                -1.8161351143727305,
                0.9409217783046011,
                0.3081567618315076,
                0.40411045929748396
            ]
        },
        {
            "positions": [
                2.468702974223932,
                -1.8777095287364718,
                -1.8380296164647203,
                0.9060969587212975,
                0.27476526139468926,
                0.43864624805779656
            ]
        },
        {
            "positions": [
                2.3606884653972773,
                -1.8547684247669325,
                -1.7212819401005162,
                0.853190039279433,
                0.280578664027872,
                0.5204943799446193
            ]
        },
        {
            "positions": [
                2.2526739565706224,
                -1.8318273207973932,
                -1.6045342637363122,
                0.8002831198375686,
                0.2863920666610548,
                0.602342511831442
            ]
        },
        {
            "positions": [
                2.144659447743967,
                -1.8088862168278539,
                -1.4877865873721081,
                0.7473762003957043,
                0.2922054692942376,
                0.6841906437182649
            ]
        },
        {
            "positions": [
                2.0366449389173122,
                -1.7859451128583144,
                -1.371038911007904,
                0.6944692809538399,
                0.2980188719274203,
                0.7660387756050877
            ]
        },
        {
            "positions": [
                1.9286304300906574,
                -1.763004008888775,
                -1.2542912346436998,
                0.6415623615119754,
                0.3038322745606031,
                0.8478869074919104
            ]
        },
        {
            "positions": [
                1.8206159212640023,
                -1.7400629049192358,
                -1.137543558279496,
                0.588655442070111,
                0.3096456771937859,
                0.9297350393787331
            ]
        },
        {
            "positions": [
                1.7126014124373472,
                -1.7171218009496965,
                -1.0207958819152918,
                0.5357485226282466,
                0.31545907982696864,
                1.011583171265556
            ]
        },
        {
            "positions": [
                1.6045869036106923,
                -1.6941806969801572,
                -0.9040482055510878,
                0.4828416031863822,
                0.3212724824601514,
                1.0934313031523788
            ]
        },
        {
            "positions": [
                1.4965723947840375,
                -1.6712395930106179,
                -0.7873005291868838,
                0.4299346837445178,
                0.32708588509333414,
                1.1752794350392015
            ]
        },
        {
            "positions": [
                1.3885578859573824,
                -1.6482984890410783,
                -0.6705528528226796,
                0.3770277643026534,
                0.33289928772651695,
                1.2571275669260242
            ]
        },
        {
            "positions": [
                1.2805433771307275,
                -1.6253573850715393,
                -0.5538051764584757,
                0.32412084486078907,
                0.3387126903596997,
                1.338975698812847
            ]
        },
        {
            "positions": [
                1.1725288683040724,
                -1.6024162811019997,
                -0.4370575000942716,
                0.27121392541892453,
                0.34452609299288245,
                1.4208238306996699
            ]
        },
        {
            "positions": [
                1.0645143594774176,
                -1.5794751771324604,
                -0.32030982373006767,
                0.2183070059770602,
                0.35033949562606526,
                1.5026719625864926
            ]
        },
        {
            "positions": [
                0.9564998506507625,
                -1.5565340731629211,
                -0.2035621473658633,
                0.16540008653519578,
                0.356152898259248,
                1.5845200944733155
            ]
        },
        {
            "positions": [
                0.8484853418241076,
                -1.5335929691933818,
                -0.0868144710016594,
                0.11249316709333135,
                0.36196630089243076,
                1.666368226360138
            ]
        },
        {
            "positions": [
                0.7404708329974525,
                -1.5106518652238425,
                0.029933205362544735,
                0.05958624765146692,
                0.3677797035256135,
                1.748216358246961
            ]
        },
        {
            "positions": [
                0.6324563241707977,
                -1.487710761254303,
                0.14668088172674865,
                0.006679328209602597,
                0.37359310615879626,
                1.8300644901337837
            ]
        },
        {
            "positions": [
                0.5244418153441428,
                -1.464769657284764,
                0.2634285580909528,
                -0.04622759123226183,
                0.37940650879197907,
                1.9119126220206064
            ]
        },
        {
            "positions": [
                0.4164273065174875,
                -1.4418285533152244,
                0.38017623445515714,
                -0.09913451067412637,
                0.3852199114251618,
                1.9937607539074294
            ]
        },
        {
            "positions": [
                0.30841279769083263,
                -1.4188874493456851,
                0.49692391081936105,
                -0.1520414301159907,
                0.3910333140583446,
                2.075608885794252
            ]
        },
        {
            "positions": [
                0.20039828886417776,
                -1.3959463453761458,
                0.613671587183565,
                -0.20494834955785501,
                0.3968467166915274,
                2.157457017681075
            ]
        },
        {
            "positions": [
                0.0923837800375229,
                -1.3730052414066065,
                0.7304192635477689,
                -0.25785526899971933,
                0.40266011932471013,
                2.2393051495678975
            ]
        },
        {
            "positions": [
                -0.01563072878913241,
                -1.3500641374370672,
                0.8471669399119732,
                -0.3107621884415839,
                0.4084735219578929,
                2.32115328145472
            ]
        },
        {
            "positions": [
                -0.12364523761578727,
                -1.3271230334675277,
                0.9639146162761771,
                -0.3636691078834484,
                0.41428692459107563,
                2.403001413341543
            ]
        },
        {
            "positions": [
                -0.23165974644244214,
                -1.3041819294979884,
                1.080662292640381,
                -0.41657602732531274,
                0.42010032722425844,
                2.4848495452283657
            ]
        },
        {
            "positions": [
                -0.339674255269097,
                -1.281240825528449,
                1.197409969004585,
                -0.46948294676717706,
                0.4259137298574412,
                2.5666976771151884
            ]
        },
        {
            "positions": [
                -0.4476887640957523,
                -1.2582997215589096,
                1.3141576453687893,
                -0.5223898662090416,
                0.431727132490624,
                2.6485458090020115
            ]
        },
        {
            "positions": [
                -0.5557032729224072,
                -1.2353586175893705,
                1.4309053217329937,
                -0.5752967856509059,
                0.43754053512380675,
                2.7303939408888342
            ]
        },
        {
            "positions": [
                -0.663717781749062,
                -1.212417513619831,
                1.5476529980971976,
                -0.6282037050927702,
                0.4433539377569895,
                2.8122420727756565
            ]
        },
        {
            "positions": [
                -0.7717322905757169,
                -1.1894764096502919,
                1.6644006744614015,
                -0.6811106245346348,
                0.44916734039017225,
                2.8940902046624792
            ]
        },
        {
            "positions": [
                -0.8797467994023722,
                -1.1665353056807524,
                1.7811483508256059,
                -0.7340175439764993,
                0.454980743023355,
                2.9759383365493024
            ]
        },
        {
            "positions": [
                -0.9877613082290271,
                -1.143594201711213,
                1.8978960271898098,
                -0.7869244634183636,
                0.4607941456565378,
                3.057786468436125
            ]
        },
        {
            "positions": [
                -1.095775817055682,
                -1.1206530977416738,
                2.0146437035540137,
                -0.8398313828602281,
                0.46660754828972056,
                3.139634600322948
            ]
        }
    ]
}