{
    "goal": {
        "global_pose": {
            "orientation": {
                "w": 0.5084816262002911,
                "x": -0.4908360881923452,
                "y": 0.5182115481033761,
                "z": -0.48164630358495003
            },
            "position": {
                "x": 0.5540239810943604,
                "y": -0.46912469901144505,
                "z": 0.16403168439865112
            }
        },
        "name": "move_to_storage_B"
    },
    "id": "SBL_move_to_storage_B_17",
    "joint_names": [
        "shoulder_pan_joint",
        "shoulder_lift_joint",
        "elbow_joint",
        "wrist_1_joint",
        "wrist_2_joint",
        "wrist_3_joint"
    ],
    "metrics": {
        "cart_traj_len": 4.94009046702443,
        "distance_elbow_joint": 3.90846659912404,
        "distance_shoulder_lift_joint": 1.3577758037438186,
        "distance_shoulder_pan_joint": 4.30969951863047,
        "distance_wrist_1_joint": 2.946757556495742,
        "distance_wrist_2_joint": 0.0256295105796846,
        "distance_wrist_3_joint": 3.3134846769113393,
        "smoothness": 0.5408055172052905,
        "time": 0.667578611,
        "traj_len": 3.9826892504292997,
        "weighted_distance": 5.0459062700751005
    },
    "planner": "SBL",
    "start": {
        "state": {
            "elbow_joint": -1.6666013991110213,
            "shoulder_lift_joint": -2.479295265494141,
            "shoulder_pan_joint": 2.6606783912885628,
            "wrist_1_joint": 0.9897123657714939,
            "wrist_2_joint": 0.474351758749468,
            "wrist_3_joint": 0.013243222496468381
        }
    },
    "waypoints": [
        {
            "positions": [
                2.6606783912885628,
                -2.479295265494141,
                -1.6666013991110213,
                0.9897123657714939,
                0.474351758749468,
                0.013243222496468381
            ]
        },
        {
            "positions": [
                2.7529500762444234,
                -2.442876695041736,
                -1.5452839466812769,
                1.0151191886766588,
                0.4788986596517294,
                0.01711319243695243
            ]
        },
        {
            "positions": [
                2.8452217612002846,
                -2.4064581245893315,
                -1.4239664942515324,
                1.040526011581824,
                0.48344556055399085,
                0.020983162377436478
            ]
        },
        {
            "positions": [
                2.9374934461561453,
                -2.370039554136927,
                -1.302649041821788,
                1.065932834486989,
                0.48799246145625225,
                0.024853132317920523
            ]
        },
        {
            "positions": [
                2.8718872512132796,
                -2.3028063742028415,
                -1.3310132045967888,
                1.1876230933706382,
                0.48790976416772947,
                0.00031485201663951357
            ]
        },
        {
            "positions": [
                2.8062810562704135,
                -2.2355731942687562,
                -1.35937736737179,
                1.3093133522542875,
                0.4878270668792067,
                -0.024223428284641496
            ]
        },
        {
            "positions": [
                2.740674861327548,
                -2.1683400143346714,
                -1.387741530146791,
                1.4310036111379365,
                0.4877443695906839,
                -0.048761708585922506
            ]
        },
        {
            "positions": [
                2.675068666384682,
                -2.101106834400586,
                -1.416105692921792,
                1.5526938700215858,
                0.4876616723021611,
                -0.07329998888720352
            ]
        },
        {
            "positions": [
                2.5673412468420698,
                -2.0731186237534356,
                -1.3180754760436546,
                1.484585982814567,
                0.4873285860530523,
                0.01823491528093256
            ]
        },
        {
            "positions": [
                2.459613827299458,
                -2.0451304131062855,
                -1.2200452591655175,
                1.4164780956075484,
                0.48699549980394347,
                0.10976981944906863
            ]
        },
        {
            "positions": [
                2.3518864077568455,
                -2.017142202459135,
                -1.1220150422873802,
                1.34837020840053,
                0.48666241355483464,
                0.20130472361720475
            ]
        },
        {
            "positions": [
                2.2441589882142337,
                -1.9891539918119845,
                -1.0239848254092432,
                1.2802623211935114,
                0.48632932730572576,
                0.2928396277853408
            ]
        },
        {
            "positions": [
                2.1364315686716213,
                -1.9611657811648342,
                -0.9259546085311059,
                1.2121544339864927,
                0.48599624105661693,
                0.3843745319534769
            ]
        },
        {
            "positions": [
                2.028704149129009,
                -1.9331775705176837,
                -0.8279243916529686,
                1.144046546779474,
                0.4856631548075081,
                0.475909436121613
            ]
        },
        {
            "positions": [
                1.920976729586397,
                -1.9051893598705334,
                -0.7298941747748313,
                1.0759386595724554,
                0.4853300685583993,
                0.5674443402897491
            ]
        },
        {
            "positions": [
                1.813249310043785,
                -1.8772011492233829,
                -0.6318639578966943,
                1.0078307723654367,
                0.48499698230929045,
                0.658979244457885
            ]
        },
        {
            "positions": [
                1.7055218905011729,
                -1.8492129385762326,
                -0.5338337410185571,
                0.9397228851584183,
                0.4846638960601816,
                0.7505141486260212
            ]
        },
        {
            "positions": [
                1.5977944709585608,
                -1.8212247279290823,
                -0.4358035241404198,
                0.8716149979513996,
                0.4843308098110728,
                0.8420490527941573
            ]
        },
        {
            "positions": [
                1.4900670514159486,
                -1.7932365172819318,
                -0.3377733072622826,
                0.8035071107443811,
                0.4839977235619639,
                0.9335839569622935
            ]
        },
        {
            "positions": [
                1.3823396318733363,
                -1.7652483066347813,
                -0.23974309038414532,
                0.7353992235373624,
                0.4836646373128551,
                1.0251188611304296
            ]
        },
        {
            "positions": [
                1.2746122123307242,
                -1.737260095987631,
                -0.14171287350600803,
                0.6672913363303438,
                0.48333155106374626,
                1.1166537652985655
            ]
        },
        {
            "positions": [
                1.166884792788112,
                -1.7092718853404807,
                -0.04368265662787074,
                0.5991834491233251,
                0.48299846481463743,
                1.2081886694667017
            ]
        },
        {
            "positions": [
                1.0591573732455,
                -1.6812836746933302,
                0.0543475602502661,
                0.5310755619163066,
                0.4826653785655286,
                1.2997235736348376
            ]
        },
        {
            "positions": [
                0.9514299537028879,
                -1.6532954640461799,
                0.1523777771284034,
                0.4629676747092879,
                0.4823322923164198,
                1.3912584778029737
            ]
        },
        {
            "positions": [
                0.8437025341602757,
                -1.6253072533990294,
                0.2504079940065407,
                0.39485978750226924,
                0.48199920606731095,
                1.4827933819711099
            ]
        },
        {
            "positions": [
                0.7359751146176636,
                -1.597319042751879,
                0.34843821088467775,
                0.3267519002952508,
                0.48166611981820207,
                1.5743282861392458
            ]
        },
        {
            "positions": [
                0.6282476950750513,
                -1.5693308321047286,
                0.44646842776281503,
                0.25864401308823215,
                0.48133303356909324,
                1.665863190307382
            ]
        },
        {
            "positions": [
                0.5205202755324394,
                -1.5413426214575783,
                0.5444986446409523,
                0.1905361258812135,
                0.4809999473199844,
                1.757398094475518
            ]
        },
        {
            "positions": [
                0.41279285598982707,
                -1.513354410810428,
                0.6425288615190894,
                0.12242823867419483,
                0.4806668610708756,
                1.8489329986436542
            ]
        },
        {
            "positions": [
                0.3050654364472152,
                -1.4853662001632775,
                0.7405590783972267,
                0.0543203514671764,
                0.48033377482176676,
                1.9404679028117904
            ]
        },
        {
            "positions": [
                0.19733801690460284,
                -1.457377989516127,
                0.838589295275364,
                -0.01378753573984226,
                0.48000068857265793,
                2.0320028069799263
            ]
        },
        {
            "positions": [
                0.08961059736199051,
                -1.4293897788689767,
                0.9366195121535013,
                -0.08189542294686092,
                0.4796676023235491,
                2.1235377111480624
            ]
        },
        {
            "positions": [
                -0.018116822180621384,
                -1.4014015682218264,
                1.0346497290316385,
                -0.15000331015387958,
                0.4793345160744402,
                2.2150726153161986
            ]
        },
        {
            "positions": [
                -0.12584424172323372,
                -1.3734133575746759,
                1.1326799459097758,
                -0.21811119736089823,
                0.4790014298253314,
                2.3066075194843343
            ]
        },
        {
            "positions": [
                -0.23357166126584605,
                -1.3454251469275254,
                1.2307101627879131,
                -0.2862190845679169,
                0.47866834357622257,
                2.3981424236524704
            ]
        },
        {
            "positions": [
                -0.34129908080845794,
                -1.317436936280375,
                1.3287403796660504,
                -0.35432697177493555,
                0.47833525732711374,
                2.4896773278206066
            ]
        },
        {
            "positions": [
                -0.4490265003510703,
                -1.2894487256332248,
                1.4267705965441873,
                -0.4224348589819542,
                0.4780021710780049,
                2.5812122319887427
            ]
        },
        {
            "positions": [
                -0.5567539198936822,
                -1.2614605149860743,
                1.524800813422324,
                -0.49054274618897264,
                0.4776690848288961,
                2.6727471361568784
            ]
        },
        {
            "positions": [
                -0.6644813394362941,
                -1.233472304338924,
                1.6228310303004614,
                -0.5586506333959911,
                0.47733599857978726,
                2.7642820403250146
            ]
        },
        {
            "positions": [
                -0.7722087589789064,
                -1.2054840936917737,
                1.7208612471785987,
                -0.62675852060301,
                0.4770029123306784,
                2.8558169444931507
            ]
        },
        {
            "positions": [
                -0.8799361785215187,
                -1.1774958830446232,
                1.818891464056736,
                -0.6948664078100284,
                0.47666982608156955,
                2.947351848661287
            ]
        },
        {
            "positions": [
                -0.9876635980641306,
                -1.1495076723974726,
                1.9169216809348733,
                -0.7629742950170473,
                0.4763367398324607,
                3.038886752829423
            ]
        },
        {
            "positions": [
                -1.0953910176067427,
                -1.1215194617503224,
                2.0149518978130105,
                -0.8310821822240658,
                0.4760036535833519,
                3.130421656997559
            ]
        }
    ]
}