{
    "goal": {
        "global_pose": {
            "orientation": {
                "w": -0.4816463035849501,
                "x": 0.5182115481033762,
                "y": 0.4908360881923453,
                "z": -0.5084816262002911
            },
            "position": {
                "x": -0.8240239810943604,
                "y": 0.19912469901144506,
                "z": 0.16403168439865112
            }
        },
        "name": "move_to_storage_D"
    },
    "id": "SBL_move_to_storage_D_44",
    "joint_names": [
        "shoulder_pan_joint",
        "shoulder_lift_joint",
        "elbow_joint",
        "wrist_1_joint",
        "wrist_2_joint",
        "wrist_3_joint"
    ],
    "metrics": {
        "cart_traj_len": 3.8282605595548866,
        "distance_elbow_joint": 4.211025328972903,
        "distance_shoulder_lift_joint": 1.2636027221711763,
        "distance_shoulder_pan_joint": 2.813987196182171,
        "distance_wrist_1_joint": 2.280082223138434,
        "distance_wrist_2_joint": 0.9028088445495566,
        "distance_wrist_3_joint": 3.12814900915405,
        "smoothness": 0.21954985057176085,
        "time": 0.248555966,
        "traj_len": 3.8209495317483966,
        "weighted_distance": 4.9029424237048085
    },
    "planner": "SBL",
    "start": {
        "state": {
            "elbow_joint": -2.384821988534728,
            "shoulder_lift_joint": -2.2788054721415256,
            "shoulder_pan_joint": -0.1854694642142757,
            "wrist_1_joint": 1.4845938289331202,
            "wrist_2_joint": 0.17898776772866878,
            "wrist_3_joint": 0.037105688729662994
        }
    },
    "waypoints": [
        {
            "positions": [
                -0.1854694642142757,
                -2.2788054721415256,
                -2.384821988534728,
                1.4845938289331202,
                0.17898776772866878,
                0.037105688729662994
            ]
        },
        {
            "positions": [
                -0.17242087755821256,
                -2.271455986445555,
                -2.3812648081298855,
                1.4893556457632728,
                0.16530125465108614,
                0.03644101966734054
            ]
        },
        {
            "positions": [
                -0.09063815569820576,
                -2.2370735384620977,
                -2.2661283632792473,
                1.4225035160757824,
                0.18497108640152232,
                -0.03387703064158382
            ]
        },
        {
            "positions": [
                -0.00885543383819895,
                -2.20269109047864,
                -2.1509919184286086,
                1.355651386388292,
                0.20464091815195853,
                -0.1041950809505082
            ]
        },
        {
            "positions": [
                0.07292728802180787,
                -2.1683086424951825,
                -2.0358554735779704,
                1.2887992567008015,
                0.22431074990239472,
                -0.17451313125943257
            ]
        },
        {
            "positions": [
                0.15471000988181466,
                -2.133926194511725,
                -1.9207190287273317,
                1.221947127013311,
                0.24398058165283093,
                -0.24483118156835693
            ]
        },
        {
            "positions": [
                0.2364927317418215,
                -2.099543746528268,
                -1.8055825838766932,
                1.1550949973258204,
                0.2636504134032671,
                -0.31514923187728133
            ]
        },
        {
            "positions": [
                0.3182754536018283,
                -2.06516129854481,
                -1.6904461390260548,
                1.08824286763833,
                0.2833202451537033,
                -0.3854672821862057
            ]
        },
        {
            "positions": [
                0.4000581754618351,
                -2.0307788505613527,
                -1.5753096941754163,
                1.0213907379508396,
                0.3029900769041395,
                -0.4557853324951301
            ]
        },
        {
            "positions": [
                0.4818408973218419,
                -1.9963964025778953,
                -1.4601732493247779,
                0.9545386082633491,
                0.3226599086545757,
                -0.5261033828040543
            ]
        },
        {
            "positions": [
                0.5636236191818488,
                -1.9620139545944377,
                -1.3450368044741394,
                0.8876864785758586,
                0.34232974040501185,
                -0.5964214331129788
            ]
        },
        {
            "positions": [
                0.6454063410418556,
                -1.9276315066109801,
                -1.229900359623501,
                0.8208343488883681,
                0.3619995721554481,
                -0.6667394834219031
            ]
        },
        {
            "positions": [
                0.7271890629018622,
                -1.8932490586275228,
                -1.1147639147728627,
                0.7539822192008777,
                0.3816694039058842,
                -0.7370575337308275
            ]
        },
        {
            "positions": [
                0.8089717847618692,
                -1.8588666106440654,
                -0.9996274699222243,
                0.6871300895133873,
                0.40133923565632046,
                -0.8073755840397518
            ]
        },
        {
            "positions": [
                0.890754506621876,
                -1.8244841626606079,
                -0.8844910250715856,
                0.6202779598258967,
                0.42100906740675664,
                -0.8776936343486762
            ]
        },
        {
            "positions": [
                0.9725372284818827,
                -1.7901017146771503,
                -0.7693545802209472,
                0.5534258301384063,
                0.4406788991571929,
                -0.9480116846576007
            ]
        },
        {
            "positions": [
                1.0543199503418896,
                -1.755719266693693,
                -0.6542181353703087,
                0.48657370045091586,
                0.46034873090762907,
                -1.018329734966525
            ]
        },
        {
            "positions": [
                1.1361026722018963,
                -1.7213368187102354,
                -0.5390816905196705,
                0.4197215707634254,
                0.48001856265806525,
                -1.0886477852754493
            ]
        },
        {
            "positions": [
                1.217885394061903,
                -1.686954370726778,
                -0.423945245669032,
                0.352869441075935,
                0.4996883944085014,
                -1.1589658355843737
            ]
        },
        {
            "positions": [
                1.2996681159219101,
                -1.6525719227433204,
                -0.30880880081839335,
                0.28601731138844433,
                0.5193582261589376,
                -1.2292838858932982
            ]
        },
        {
            "positions": [
                1.3814508377819168,
                -1.618189474759863,
                -0.19367235596775512,
                0.21916518170095411,
                0.5390280579093738,
                -1.2996019362022224
            ]
        },
        {
            "positions": [
                1.4632335596419237,
                -1.5838070267764055,
                -0.07853591111711644,
                0.15231305201346346,
                0.55869788965981,
                -1.3699199865111469
            ]
        },
        {
            "positions": [
                1.5450162815019304,
                -1.549424578792948,
                0.03660053373352179,
                0.08546092232597302,
                0.5783677214102463,
                -1.4402380368200711
            ]
        },
        {
            "positions": [
                1.626799003361937,
                -1.5150421308094906,
                0.15173697858416002,
                0.018608792638482585,
                0.5980375531606823,
                -1.5105560871289956
            ]
        },
        {
            "positions": [
                1.7085817252219442,
                -1.480659682826033,
                0.2668734234347987,
                -0.04824333704900785,
                0.6177073849111185,
                -1.58087413743792
            ]
        },
        {
            "positions": [
                1.7903644470819509,
                -1.4462772348425756,
                0.3820098682854369,
                -0.11509546673649829,
                0.6373772166615548,
                -1.6511921877468443
            ]
        },
        {
            "positions": [
                1.8721471689419578,
                -1.411894786859118,
                0.4971463131360756,
                -0.18194759642398872,
                0.657047048411991,
                -1.7215102380557685
            ]
        },
        {
            "positions": [
                1.9539298908019647,
                -1.3775123388756607,
                0.6122827579867143,
                -0.24879972611147938,
                0.6767168801624271,
                -1.791828288364693
            ]
        },
        {
            "positions": [
                2.035712612661971,
                -1.3431298908922031,
                0.7274192028373525,
                -0.3156518557989696,
                0.6963867119128634,
                -1.8621463386736175
            ]
        },
        {
            "positions": [
                2.117495334521978,
                -1.3087474429087456,
                0.8425556476879912,
                -0.38250398548646025,
                0.7160565436632996,
                -1.932464388982542
            ]
        },
        {
            "positions": [
                2.199278056381985,
                -1.2743649949252882,
                0.9576920925386294,
                -0.44935611517395074,
                0.7357263754137358,
                -2.002782439291466
            ]
        },
        {
            "positions": [
                2.2469713536693083,
                -1.245569189930295,
                1.0541933423052456,
                -0.48675707577073496,
                0.7711371766036607,
                -2.123700314972902
            ]
        },
        {
            "positions": [
                2.2946646509566317,
                -1.2167733849353017,
                1.1506945920718616,
                -0.5241580363675192,
                0.8065479777935856,
                -2.2446181906543377
            ]
        },
        {
            "positions": [
                2.342357948243955,
                -1.1879775799403085,
                1.2471958418384779,
                -0.5615589969643034,
                0.8419587789835105,
                -2.365536066335773
            ]
        },
        {
            "positions": [
                2.3900512455312786,
                -1.1591817749453153,
                1.3436970916050939,
                -0.5989599575610877,
                0.8773695801734354,
                -2.4864539420172087
            ]
        },
        {
            "positions": [
                2.4377445428186015,
                -1.1303859699503223,
                1.44019834137171,
                -0.6363609181578719,
                0.9127803813633604,
                -2.6073718176986445
            ]
        },
        {
            "positions": [
                2.485437840105925,
                -1.101590164955329,
                1.5366995911383263,
                -0.6737618787546561,
                0.9481911825532852,
                -2.7282896933800798
            ]
        },
        {
            "positions": [
                2.5331311373932484,
                -1.0727943599603358,
                1.6332008409049426,
                -0.7111628393514403,
                0.9836019837432102,
                -2.849207569061516
            ]
        },
        {
            "positions": [
                2.5808244346805718,
                -1.0439985549653426,
                1.7297020906715586,
                -0.7485637999482245,
                1.019012784933135,
                -2.9701254447429513
            ]
        },
        {
            "positions": [
                2.628517731967895,
                -1.0152027499703493,
                1.8262033404381748,
                -0.7859647605450087,
                1.05442358612306,
                -3.091043320424387
            ]
        }
    ]
}