{
    "goal": {
        "global_pose": {
            "orientation": {
                "w": 0.7047431468963623,
                "x": -0.7094548344612122,
                "y": 0.0024358443915843964,
                "z": -0.0022348060738295317
            },
            "position": {
                "x": 0.6094750761985779,
                "y": 0.3671506643295288,
                "z": 0.19426114857196808
            }
        },
        "name": "move_to_magneteinheit_A"
    },
    "id": "SBL_move_to_magneteinheit_A_36",
    "joint_names": [
        "shoulder_pan_joint",
        "shoulder_lift_joint",
        "elbow_joint",
        "wrist_1_joint",
        "wrist_2_joint",
        "wrist_3_joint"
    ],
    "metrics": {
        "cart_traj_len": 3.447609686874424,
        "distance_elbow_joint": 3.9064927127121485,
        "distance_shoulder_lift_joint": 0.4411738341488829,
        "distance_shoulder_pan_joint": 2.8663322400463813,
        "distance_wrist_1_joint": 0.6907480747510012,
        "distance_wrist_2_joint": 1.7174525804842276,
        "distance_wrist_3_joint": 3.5581229553076157,
        "smoothness": 0.06428169023756954,
        "time": 0.16297491800000002,
        "traj_len": 3.6304713740023153,
        "weighted_distance": 4.764952147010579
    },
    "planner": "SBL",
    "start": {
        "state": {
            "elbow_joint": -1.9196185241190666,
            "shoulder_lift_joint": -1.2443396400964142,
            "shoulder_pan_joint": 2.6996025414629847,
            "wrist_1_joint": -1.5485510000780065,
            "wrist_2_joint": -1.5709468930060704,
            "wrist_3_joint": 0.4420197071253992
        }
    },
    "waypoints": [
        {
            "positions": [
                2.6996025414629847,
                -1.2443396400964142,
                -1.9196185241190666,
                -1.5485510000780065,
                -1.5709468930060704,
                0.4420197071253992
            ]
        },
        {
            "positions": [
                2.60240555427604,
                -1.2504863235922552,
                -1.7988401373796075,
                -1.5338384236507931,
                -1.5112359818810563,
                0.3549785020551811
            ]
        },
        {
            "positions": [
                2.5052085670890953,
                -1.2566330070880962,
                -1.678061750640148,
                -1.51912584722358,
                -1.4515250707560423,
                0.26793729698496305
            ]
        },
        {
            "positions": [
                2.4080115799021504,
                -1.2627796905839372,
                -1.5572833639006889,
                -1.5044132707963667,
                -1.3918141596310283,
                0.18089609191474493
            ]
        },
        {
            "positions": [
                2.3108145927152055,
                -1.2689263740797783,
                -1.4365049771612295,
                -1.4897006943691535,
                -1.332103248506014,
                0.09385488684452686
            ]
        },
        {
            "positions": [
                2.213617605528261,
                -1.2750730575756193,
                -1.3157265904217703,
                -1.4749881179419402,
                -1.272392337381,
                0.006813681774308744
            ]
        },
        {
            "positions": [
                2.116420618341316,
                -1.2812197410714603,
                -1.1949482036823111,
                -1.4602755415147268,
                -1.212681426255986,
                -0.08022752329590932
            ]
        },
        {
            "positions": [
                2.019223631154371,
                -1.2873664245673013,
                -1.0741698169428517,
                -1.4455629650875137,
                -1.152970515130972,
                -0.16726872836612738
            ]
        },
        {
            "positions": [
                1.9220266439674267,
                -1.2935131080631423,
                -0.9533914302033926,
                -1.4308503886603003,
                -1.093259604005958,
                -0.25430993343634545
            ]
        },
        {
            "positions": [
                1.8248296567804818,
                -1.2996597915589834,
                -0.8326130434639332,
                -1.416137812233087,
                -1.0335486928809439,
                -0.3413511385065636
            ]
        },
        {
            "positions": [
                1.727632669593537,
                -1.3058064750548244,
                -0.711834656724474,
                -1.4014252358058739,
                -0.9738377817559297,
                -0.4283923435767817
            ]
        },
        {
            "positions": [
                1.6304356824065922,
                -1.3119531585506654,
                -0.5910562699850146,
                -1.3867126593786605,
                -0.9141268706309157,
                -0.5154335486469996
            ]
        },
        {
            "positions": [
                1.5332386952196475,
                -1.3180998420465064,
                -0.4702778832455554,
                -1.3720000829514474,
                -0.8544159595059017,
                -0.6024747537172178
            ]
        },
        {
            "positions": [
                1.4360417080327026,
                -1.3242465255423475,
                -0.349499496506096,
                -1.357287506524234,
                -0.7947050483808875,
                -0.6895159587874359
            ]
        },
        {
            "positions": [
                1.338844720845758,
                -1.3303932090381885,
                -0.22872110976663684,
                -1.3425749300970207,
                -0.7349941372558735,
                -0.7765571638576539
            ]
        },
        {
            "positions": [
                1.2416477336588132,
                -1.3365398925340293,
                -0.10794272302717767,
                -1.3278623536698075,
                -0.6752832261308594,
                -0.863598368927872
            ]
        },
        {
            "positions": [
                1.1444507464718685,
                -1.3426865760298703,
                0.012835663712281509,
                -1.3131497772425942,
                -0.6155723150058454,
                -0.9506395739980901
            ]
        },
        {
            "positions": [
                1.0472537592849238,
                -1.3488332595257113,
                0.13361405045174068,
                -1.298437200815381,
                -0.5558614038808314,
                -1.037680779068308
            ]
        },
        {
            "positions": [
                0.9500567720979787,
                -1.3549799430215523,
                0.2543924371912003,
                -1.2837246243881677,
                -0.49615049275581713,
                -1.1247219841385263
            ]
        },
        {
            "positions": [
                0.852859784911034,
                -1.3611266265173934,
                0.3751708239306595,
                -1.2690120479609543,
                -0.4364395816308031,
                -1.2117631892087446
            ]
        },
        {
            "positions": [
                0.7556627977240893,
                -1.3672733100132344,
                0.49594921067011866,
                -1.2542994715337412,
                -0.37672867050578907,
                -1.2988043942789624
            ]
        },
        {
            "positions": [
                0.6584658105371446,
                -1.3734199935090754,
                0.6167275974095783,
                -1.2395868951065279,
                -0.31701775938077503,
                -1.3858455993491803
            ]
        },
        {
            "positions": [
                0.5612688233501997,
                -1.3795666770049164,
                0.7375059841490375,
                -1.2248743186793147,
                -0.257306848255761,
                -1.4728868044193986
            ]
        },
        {
            "positions": [
                0.4640718361632552,
                -1.3857133605007574,
                0.8582843708884966,
                -1.2101617422521014,
                -0.19759593713074697,
                -1.5599280094896164
            ]
        },
        {
            "positions": [
                0.3668748489763103,
                -1.3918600439965985,
                0.9790627576279558,
                -1.195449165824888,
                -0.13788502600573294,
                -1.6469692145598347
            ]
        },
        {
            "positions": [
                0.26967786178936537,
                -1.3980067274924395,
                1.0998411443674154,
                -1.180736589397675,
                -0.07817411488071868,
                -1.734010419630053
            ]
        },
        {
            "positions": [
                0.17248087460242045,
                -1.4041534109882805,
                1.2206195311068746,
                -1.1660240129704615,
                -0.01846320375570465,
                -1.8210516247002708
            ]
        },
        {
            "positions": [
                0.07528388741547598,
                -1.4103000944841215,
                1.3413979178463338,
                -1.1513114365432484,
                0.04124770736930938,
                -1.908092829770489
            ]
        },
        {
            "positions": [
                -0.021913099771468818,
                -1.4164467779799625,
                1.462176304585793,
                -1.136598860116035,
                0.10095861849432339,
                -1.995134034840707
            ]
        },
        {
            "positions": [
                -0.008334860941988653,
                -1.3800112960061282,
                1.5377203031086697,
                -1.0933300074184638,
                0.1068756703133316,
                -2.152463030133057
            ]
        },
        {
            "positions": [
                0.005243377887491511,
                -1.3435758140322938,
                1.6132643016315464,
                -1.0500611547208925,
                0.11279272213233982,
                -2.309792025425407
            ]
        },
        {
            "positions": [
                0.018821616716971676,
                -1.3071403320584594,
                1.6888083001544234,
                -1.006792302023321,
                0.11870977395134803,
                -2.467121020717757
            ]
        },
        {
            "positions": [
                0.03239985554645184,
                -1.2707048500846247,
                1.7643522986773,
                -0.9635234493257497,
                0.12462682577035625,
                -2.6244500160101074
            ]
        },
        {
            "positions": [
                0.04597809437593201,
                -1.2342693681107904,
                1.8398962972001769,
                -0.9202545966281783,
                0.13054387758936448,
                -2.7817790113024574
            ]
        },
        {
            "positions": [
                0.05955633320541217,
                -1.197833886136956,
                1.9154402957230536,
                -0.876985743930607,
                0.13646092940837268,
                -2.9391080065948074
            ]
        },
        {
            "positions": [
                0.12290349904045954,
                -1.147380081714628,
                1.9868741885930825,
                -0.8578029253270053,
                0.1264161713385877,
                -3.1161032481822164
            ]
        }
    ]
}