{
    "goal": {
        "global_pose": {
            "orientation": {
                "w": -0.4816463035849501,
                "x": 0.5182115481033762,
                "y": 0.4908360881923453,
                "z": -0.5084816262002911
            },
            "position": {
                "x": -0.8240239810943604,
                "y": -0.300875300988555,
                "z": 0.16403168439865112
            }
        },
        "name": "move_to_storage_C"
    },
    "id": "SBL_move_to_storage_C_52",
    "joint_names": [
        "shoulder_pan_joint",
        "shoulder_lift_joint",
        "elbow_joint",
        "wrist_1_joint",
        "wrist_2_joint",
        "wrist_3_joint"
    ],
    "metrics": {
        "cart_traj_len": 0.5765939117454177,
        "distance_elbow_joint": 0.26084951672184853,
        "distance_shoulder_lift_joint": 0.18939212079365597,
        "distance_shoulder_pan_joint": 0.4945248136241216,
        "distance_wrist_1_joint": 0.08923374699000308,
        "distance_wrist_2_joint": 1.0677383620436625,
        "distance_wrist_3_joint": 0.07167807559524686,
        "smoothness": 2.5376526478085547e-16,
        "time": 0.792570356,
        "traj_len": 1.4742512118931899,
        "weighted_distance": 1.8637985127134042
    },
    "planner": "SBL",
    "start": {
        "state": {
            "elbow_joint": 2.010868314990456,
            "shoulder_lift_joint": -1.1634956873337592,
            "shoulder_pan_joint": -2.4736205022346125,
            "wrist_1_joint": -0.8367026794202681,
            "wrist_2_joint": 0.6746043897044499,
            "wrist_3_joint": -3.1496632123970403
        }
    },
    "waypoints": [
        {
            "positions": [
                -2.4736205022346125,
                -1.1634956873337592,
                2.010868314990456,
                -0.8367026794202681,
                0.6746043897044499,
                -3.1496632123970403
            ]
        },
        {
            "positions": [
                -2.5560413045052996,
                -1.13193033386815,
                1.9673933955368144,
                -0.8218303882552676,
                0.8525607833783937,
                -3.137716866464499
            ]
        },
        {
            "positions": [
                -2.6384621067759864,
                -1.1003649804025406,
                1.923918476083173,
                -0.8069580970902671,
                1.0305171770523374,
                -3.125770520531958
            ]
        },
        {
            "positions": [
                -2.720882909046673,
                -1.068799626936931,
                1.8804435566295314,
                -0.7920858059252666,
                1.208473570726281,
                -3.113824174599417
            ]
        },
        {
            "positions": [
                -2.8033037113173602,
                -1.0372342734713218,
                1.8369686371758902,
                -0.777213514760266,
                1.3864299644002247,
                -3.1018778286668756
            ]
        },
        {
            "positions": [
                -2.8857245135880474,
                -1.0056689200057125,
                1.7934937177222487,
                -0.7623412235952656,
                1.5643863580741688,
                -3.0899314827343347
            ]
        },
        {
            "positions": [
                -2.968145315858734,
                -0.9741035665401032,
                1.7500187982686073,
                -0.747468932430265,
                1.7423427517481125,
                -3.0779851368017934
            ]
        }
    ]
}