{
    "goal": {
        "global_pose": {
            "orientation": {
                "w": 0.5084816262002911,
                "x": -0.4908360881923452,
                "y": 0.5182115481033761,
                "z": -0.48164630358495003
            },
            "position": {
                "x": 0.5540239810943604,
                "y": -0.46912469901144505,
                "z": 0.16403168439865112
            }
        },
        "name": "move_to_storage_B"
    },
    "id": "SBL_move_to_storage_B_75",
    "joint_names": [
        "shoulder_pan_joint",
        "shoulder_lift_joint",
        "elbow_joint",
        "wrist_1_joint",
        "wrist_2_joint",
        "wrist_3_joint"
    ],
    "metrics": {
        "cart_traj_len": 4.58462984999072,
        "distance_elbow_joint": 4.058330794572734,
        "distance_shoulder_lift_joint": 1.3596441085910818,
        "distance_shoulder_pan_joint": 3.7548571523539067,
        "distance_wrist_1_joint": 1.8265698678369255,
        "distance_wrist_2_joint": 2.1935993829626774,
        "distance_wrist_3_joint": 3.8309988892450053,
        "smoothness": 0.28920096861913636,
        "time": 0.736505909,
        "traj_len": 4.126015050331534,
        "weighted_distance": 5.357813660893026
    },
    "planner": "SBL",
    "start": {
        "state": {
            "elbow_joint": -1.6666013991110213,
            "shoulder_lift_joint": -2.479295265494141,
            "shoulder_pan_joint": 2.6606783912885628,
            "wrist_1_joint": 0.9897123657714939,
            "wrist_2_joint": 0.474351758749468,
            "wrist_3_joint": 0.013243222496468381
        }
    },
    "waypoints": [
        {
            "positions": [
                2.6606783912885628,
                -2.479295265494141,
                -1.6666013991110213,
                0.9897123657714939,
                0.474351758749468,
                0.013243222496468381
            ]
        },
        {
            "positions": [
                2.6135165470805664,
                -2.436947927691349,
                -1.7138165728957182,
                0.9161879476801147,
                0.408706281652714,
                0.09891367415599153
            ]
        },
        {
            "positions": [
                2.5663547028725704,
                -2.394600589888557,
                -1.7610317466804148,
                0.8426635295887356,
                0.34306080455596,
                0.1845841258155147
            ]
        },
        {
            "positions": [
                2.519192858664574,
                -2.352253252085765,
                -1.8082469204651117,
                0.7691391114973565,
                0.277415327459206,
                0.27025457747503784
            ]
        },
        {
            "positions": [
                2.4720310144565776,
                -2.309905914282973,
                -1.8554620942498086,
                0.6956146934059773,
                0.211769850362452,
                0.355925029134561
            ]
        },
        {
            "positions": [
                2.461859053824942,
                -2.209740923474602,
                -1.7986591001087504,
                0.6936479090585188,
                0.09243252839356352,
                0.292858603603681
            ]
        },
        {
            "positions": [
                2.451687093193306,
                -2.1095759326662313,
                -1.7418561059676922,
                0.6916811247110602,
                -0.026904793575324965,
                0.22979217807280103
            ]
        },
        {
            "positions": [
                2.4415151325616704,
                -2.009410941857861,
                -1.685053111826634,
                0.6897143403636018,
                -0.1462421155442134,
                0.16672575254192107
            ]
        },
        {
            "positions": [
                2.4313431719300347,
                -1.9092459510494901,
                -1.6282501176855761,
                0.6877475560161432,
                -0.2655794375131019,
                0.10365932701104108
            ]
        },
        {
            "positions": [
                2.421171211298399,
                -1.8090809602411193,
                -1.571447123544518,
                0.6857807716686848,
                -0.38491675948199044,
                0.04059290148016109
            ]
        },
        {
            "positions": [
                2.4109992506667632,
                -1.7089159694327485,
                -1.5146441294034598,
                0.6838139873212262,
                -0.5042540814508788,
                -0.02247352405071884
            ]
        },
        {
            "positions": [
                2.4008272900351275,
                -1.6087509786243779,
                -1.4578411352624017,
                0.6818472029737678,
                -0.6235914034197674,
                -0.08553994958159884
            ]
        },
        {
            "positions": [
                2.2980329944145255,
                -1.5943656897502214,
                -1.3557279252492682,
                0.6371794175314384,
                -0.5913662204552543,
                -0.17515324675485625
            ]
        },
        {
            "positions": [
                2.1952386987939234,
                -1.579980400876065,
                -1.2536147152361345,
                0.592511632089109,
                -0.5591410374907414,
                -0.26476654392811366
            ]
        },
        {
            "positions": [
                2.0924444031733214,
                -1.5655951120019085,
                -1.151501505223001,
                0.5478438466467795,
                -0.5269158545262284,
                -0.35437984110137105
            ]
        },
        {
            "positions": [
                1.989650107552719,
                -1.5512098231277522,
                -1.0493882952098676,
                0.5031760612044502,
                -0.4946906715617154,
                -0.44399313827462844
            ]
        },
        {
            "positions": [
                1.8868558119321168,
                -1.5368245342535958,
                -0.947275085196734,
                0.4585082757621208,
                -0.4624654885972024,
                -0.5336064354478859
            ]
        },
        {
            "positions": [
                1.7840615163115148,
                -1.5224392453794393,
                -0.8451618751836004,
                0.41384049031979137,
                -0.43024030563268945,
                -0.6232197326211433
            ]
        },
        {
            "positions": [
                1.6812672206909127,
                -1.5080539565052828,
                -0.743048665170467,
                0.369172704877462,
                -0.39801512266817646,
                -0.7128330297944007
            ]
        },
        {
            "positions": [
                1.5784729250703107,
                -1.4936686676311264,
                -0.6409354551573334,
                0.3245049194351326,
                -0.36578993970366347,
                -0.802446326967658
            ]
        },
        {
            "positions": [
                1.4756786294497086,
                -1.47928337875697,
                -0.5388222451441997,
                0.2798371339928032,
                -0.3335647567391504,
                -0.8920596241409156
            ]
        },
        {
            "positions": [
                1.3728843338291064,
                -1.4648980898828134,
                -0.4367090351310663,
                0.23516934855047378,
                -0.30133957377463744,
                -0.9816729213141729
            ]
        },
        {
            "positions": [
                1.2700900382085043,
                -1.4505128010086572,
                -0.3345958251179326,
                0.19050156310814437,
                -0.26911439081012445,
                -1.0712862184874303
            ]
        },
        {
            "positions": [
                1.1672957425879023,
                -1.4361275121345007,
                -0.23248261510479917,
                0.14583377766581496,
                -0.23688920784561146,
                -1.1608995156606878
            ]
        },
        {
            "positions": [
                1.0645014469673002,
                -1.4217422232603443,
                -0.13036940509166572,
                0.10116599222348566,
                -0.20466402488109853,
                -1.250512812833945
            ]
        },
        {
            "positions": [
                0.9617071513466982,
                -1.4073569343861878,
                -0.028256195078532276,
                0.056498206781156246,
                -0.17243884191658554,
                -1.3401261100072026
            ]
        },
        {
            "positions": [
                0.8589128557260961,
                -1.3929716455120313,
                0.0738570149346014,
                0.011830421338826835,
                -0.1402136589520725,
                -1.42973940718046
            ]
        },
        {
            "positions": [
                0.7561185601054938,
                -1.3785863566378749,
                0.17597022494773484,
                -0.032837364103502575,
                -0.10798847598755956,
                -1.5193527043537174
            ]
        },
        {
            "positions": [
                0.6533242644848918,
                -1.3642010677637186,
                0.2780834349608685,
                -0.07750514954583199,
                -0.07576329302304652,
                -1.6089660015269749
            ]
        },
        {
            "positions": [
                0.5505299688642897,
                -1.3498157788895622,
                0.3801966449740022,
                -0.1221729349881614,
                -0.043538110058533475,
                -1.6985792987002324
            ]
        },
        {
            "positions": [
                0.44773567324368746,
                -1.3354304900154057,
                0.48230985498713563,
                -0.1668407204304908,
                -0.011312927094020542,
                -1.7881925958734897
            ]
        },
        {
            "positions": [
                0.3449413776230852,
                -1.3210452011412492,
                0.5844230650002691,
                -0.21150850587282022,
                0.020912255870492502,
                -1.8778058930467472
            ]
        },
        {
            "positions": [
                0.24214708200248314,
                -1.3066599122670928,
                0.6865362750134028,
                -0.25617629131514963,
                0.053137438835005435,
                -1.9674191902200047
            ]
        },
        {
            "positions": [
                0.1393527863818811,
                -1.2922746233929363,
                0.7886494850265364,
                -0.30084407675747904,
                0.08536262179951848,
                -2.0570324873932617
            ]
        },
        {
            "positions": [
                0.03655849076127904,
                -1.2778893345187798,
                0.8907626950396701,
                -0.34551186219980845,
                0.11758780476403152,
                -2.1466457845665197
            ]
        },
        {
            "positions": [
                -0.06623580485932301,
                -1.2635040456446234,
                0.9928759050528033,
                -0.39017964764213786,
                0.14981298772854446,
                -2.2362590817397767
            ]
        },
        {
            "positions": [
                -0.16903010047992506,
                -1.249118756770467,
                1.094989115065937,
                -0.43484743308446727,
                0.1820381706930575,
                -2.3258723789130342
            ]
        },
        {
            "positions": [
                -0.2718243961005271,
                -1.2347334678963107,
                1.1971023250790702,
                -0.47951521852679646,
                0.21426335365757032,
                -2.4154856760862913
            ]
        },
        {
            "positions": [
                -0.37461869172112916,
                -1.2203481790221542,
                1.2992155350922039,
                -0.5241830039691259,
                0.24648853662208337,
                -2.5050989732595488
            ]
        },
        {
            "positions": [
                -0.4774129873417312,
                -1.2059628901479977,
                1.4013287451053371,
                -0.5688507894114553,
                0.2787137195865963,
                -2.5947122704328063
            ]
        },
        {
            "positions": [
                -0.5802072829623333,
                -1.1915776012738413,
                1.5034419551184708,
                -0.6135185748537847,
                0.31093890255110934,
                -2.6843255676060638
            ]
        },
        {
            "positions": [
                -0.6830015785829353,
                -1.177192312399685,
                1.6055551651316045,
                -0.6581863602961141,
                0.3431640855156224,
                -2.7739388647793213
            ]
        },
        {
            "positions": [
                -0.7857958742035374,
                -1.1628070235255286,
                1.7076683751447381,
                -0.7028541457384435,
                0.3753892684801353,
                -2.8635521619525783
            ]
        },
        {
            "positions": [
                -0.8885901698241399,
                -1.148421734651372,
                1.8097815851578714,
                -0.7475219311807729,
                0.40761445144464825,
                -2.953165459125836
            ]
        },
        {
            "positions": [
                -0.9913844654447419,
                -1.1340364457772156,
                1.911894795171005,
                -0.7921897166231023,
                0.4398396344091613,
                -3.0427787562990933
            ]
        },
        {
            "positions": [
                -1.0941787610653442,
                -1.1196511569030592,
                2.0140080051841385,
                -0.8368575020654316,
                0.47206481737367434,
                -3.132392053472351
            ]
        }
    ]
}