{
    "goal": {
        "global_pose": {
            "orientation": {
                "w": 0.5084816217422485,
                "x": -0.49083608388900757,
                "y": 0.5182115435600281,
                "z": -0.4816462993621826
            },
            "position": {
                "x": 0.5540239810943604,
                "y": 0.030875300988554955,
                "z": 0.16403168439865112
            }
        },
        "name": "move_to_storage_A"
    },
    "id": "SBL_move_to_storage_A_94",
    "joint_names": [
        "shoulder_pan_joint",
        "shoulder_lift_joint",
        "elbow_joint",
        "wrist_1_joint",
        "wrist_2_joint",
        "wrist_3_joint"
    ],
    "metrics": {
        "cart_traj_len": 0.3531388945593194,
        "distance_elbow_joint": 0.4489820887561291,
        "distance_shoulder_lift_joint": 0.2333201660083455,
        "distance_shoulder_pan_joint": 0.4631436794002819,
        "distance_wrist_1_joint": 0.23773039297746656,
        "distance_wrist_2_joint": 1.0926509248664817,
        "distance_wrist_3_joint": 0.08979192247451939,
        "smoothness": 0.0,
        "time": 0.101264525,
        "traj_len": 1.6017550294858527,
        "weighted_distance": 2.0188076523721152
    },
    "planner": "SBL",
    "start": {
        "state": {
            "elbow_joint": 1.9715481507254546,
            "shoulder_lift_joint": -1.1394850672790213,
            "shoulder_pan_joint": 0.12281154597544902,
            "wrist_1_joint": -0.7804720171073349,
            "wrist_2_joint": 0.12958658322886563,
            "wrist_3_joint": -3.1924895760937617
        }
    },
    "waypoints": [
        {
            "positions": [
                0.12281154597544902,
                -1.1394850672790213,
                1.9715481507254546,
                -0.7804720171073349,
                0.12958658322886563,
                -3.1924895760937617
            ]
        },
        {
            "positions": [
                0.05664816320398018,
                -1.172816519565928,
                2.0356884491191876,
                -0.8144335018184016,
                0.2856795724955059,
                -3.179662158597402
            ]
        },
        {
            "positions": [
                -0.009515219567488659,
                -1.2061479718528343,
                2.09982874751292,
                -0.8483949865294682,
                0.44177256176214613,
                -3.166834741101042
            ]
        },
        {
            "positions": [
                -0.07567860233895748,
                -1.2394794241397409,
                2.163969045906653,
                -0.8823564712405348,
                0.5978655510287864,
                -3.154007323604682
            ]
        },
        {
            "positions": [
                -0.14184198511042634,
                -1.2728108764266473,
                2.2281093443003854,
                -0.9163179559516015,
                0.7539585402954266,
                -3.141179906108322
            ]
        },
        {
            "positions": [
                -0.20800536788189522,
                -1.3061423287135538,
                2.2922496426941184,
                -0.9502794406626682,
                0.9100515295620669,
                -3.128352488611962
            ]
        },
        {
            "positions": [
                -0.274168750653364,
                -1.3394737810004602,
                2.356389941087851,
                -0.9842409253737349,
                1.066144518828707,
                -3.115525071115602
            ]
        },
        {
            "positions": [
                -0.34033213342483287,
                -1.3728052332873668,
                2.4205302394815837,
                -1.0182024100848015,
                1.2222375080953474,
                -3.1026976536192423
            ]
        }
    ]
}