{
    "goal": {
        "global_pose": {
            "orientation": {
                "w": 0.005598929693374612,
                "x": 0.007748599140229565,
                "y": 0.7110244013736278,
                "z": -0.7031023480610252
            },
            "position": {
                "x": 0.1141497679147869,
                "y": -0.7141253447532654,
                "z": 0.3711530566215515
            }
        },
        "name": "move_to_auspresseinheit_B"
    },
    "id": "SBL_move_to_auspresseinheit_B_145",
    "joint_names": [
        "shoulder_pan_joint",
        "shoulder_lift_joint",
        "elbow_joint",
        "wrist_1_joint",
        "wrist_2_joint",
        "wrist_3_joint"
    ],
    "metrics": {
        "cart_traj_len": 0.5644060265789574,
        "distance_elbow_joint": 0.06672632167616555,
        "distance_shoulder_lift_joint": 0.29256313998023686,
        "distance_shoulder_pan_joint": 0.5775287595534668,
        "distance_wrist_1_joint": 0.3380788567166523,
        "distance_wrist_2_joint": 0.9857556098129796,
        "distance_wrist_3_joint": 0.0035456946113812116,
        "smoothness": 2.5376526478085547e-16,
        "time": 0.158097586,
        "traj_len": 1.5047253511358418,
        "weighted_distance": 1.8960812846772357
    },
    "planner": "SBL",
    "start": {
        "state": {
            "elbow_joint": 2.0193083361928714,
            "shoulder_lift_joint": -1.1220246554650708,
            "shoulder_pan_joint": -1.0952077554168747,
            "wrist_1_joint": -0.8559753972642168,
            "wrist_2_joint": 0.4759566250798843,
            "wrist_3_joint": -3.1240929996934557
        }
    },
    "waypoints": [
        {
            "positions": [
                -1.0952077554168747,
                -1.1220246554650708,
                2.0193083361928714,
                -0.8559753972642168,
                0.4759566250798843,
                -3.1240929996934557
            ]
        },
        {
            "positions": [
                -1.1914625486757857,
                -1.1707851787951102,
                2.008187282580177,
                -0.7996289211447747,
                0.6402492267153809,
                -3.1235020505915587
            ]
        },
        {
            "positions": [
                -1.287717341934697,
                -1.2195457021251497,
                1.997066228967483,
                -0.7432824450253327,
                0.8045418283508774,
                -3.1229111014896618
            ]
        },
        {
            "positions": [
                -1.383972135193608,
                -1.2683062254551891,
                1.9859451753547885,
                -0.6869359689058907,
                0.968834429986374,
                -3.122320152387765
            ]
        },
        {
            "positions": [
                -1.4802269284525191,
                -1.3170667487852288,
                1.9748241217420943,
                -0.6305894927864486,
                1.1331270316218707,
                -3.1217292032858683
            ]
        },
        {
            "positions": [
                -1.5764817217114304,
                -1.3658272721152682,
                1.9637030681294,
                -0.5742430166670065,
                1.2974196332573673,
                -3.1211382541839714
            ]
        },
        {
            "positions": [
                -1.6727365149703415,
                -1.4145877954453077,
                1.9525820145167059,
                -0.5178965405475645,
                1.461712234892864,
                -3.1205473050820745
            ]
        }
    ]
}