{
    "goal": {
        "global_pose": {
            "orientation": {
                "w": 0.7031023480610252,
                "x": -0.7110244013736278,
                "y": 0.0077485991402295624,
                "z": 0.005598929693374583
            },
            "position": {
                "x": -0.8841497679147869,
                "y": 0.44412534475326537,
                "z": 0.3711530566215515
            }
        },
        "name": "move_to_auspresseinheit_D"
    },
    "id": "SBL_move_to_auspresseinheit_D_31",
    "joint_names": [
        "shoulder_pan_joint",
        "shoulder_lift_joint",
        "elbow_joint",
        "wrist_1_joint",
        "wrist_2_joint",
        "wrist_3_joint"
    ],
    "metrics": {
        "cart_traj_len": 0.3440854407352255,
        "distance_elbow_joint": 0.6583107425282575,
        "distance_shoulder_lift_joint": 0.13217508861208227,
        "distance_shoulder_pan_joint": 0.13328177302428731,
        "distance_wrist_1_joint": 0.5897846273167096,
        "distance_wrist_2_joint": 1.4441973013974558,
        "distance_wrist_3_joint": 0.052888017359658424,
        "smoothness": 0.0,
        "time": 0.252453692,
        "traj_len": 1.7351188864854334,
        "weighted_distance": 2.2694482839826806
    },
    "planner": "SBL",
    "start": {
        "state": {
            "elbow_joint": -1.8275523626775212,
            "shoulder_lift_joint": -2.126789852344167,
            "shoulder_pan_joint": -0.03513704404078235,
            "wrist_1_joint": -2.347782403156801,
            "wrist_2_joint": -1.6058999987535132,
            "wrist_3_joint": -3.0880379163319196
        }
    },
    "waypoints": [
        {
            "positions": [
                -0.03513704404078235,
                -2.126789852344167,
                -1.8275523626775212,
                -2.347782403156801,
                -1.6058999987535132,
                -3.0880379163319196
            ]
        },
        {
            "positions": [
                -0.05179726566881826,
                -2.1433117384206772,
                -1.745263519861489,
                -2.4215054815713897,
                -1.4253753360788313,
                -3.081426914161962
            ]
        },
        {
            "positions": [
                -0.06845748729685418,
                -2.159833624497187,
                -1.6629746770454568,
                -2.4952285599859785,
                -1.2448506734041493,
                -3.074815911992005
            ]
        },
        {
            "positions": [
                -0.0851177089248901,
                -2.1763555105736976,
                -1.5806858342294245,
                -2.568951638400567,
                -1.0643260107294672,
                -3.0682049098220476
            ]
        },
        {
            "positions": [
                -0.101777930552926,
                -2.192877396650208,
                -1.4983969914133923,
                -2.6426747168151556,
                -0.8838013480547853,
                -3.0615939076520906
            ]
        },
        {
            "positions": [
                -0.11843815218096193,
                -2.2093992827267184,
                -1.4161081485973601,
                -2.7163977952297444,
                -0.7032766853801034,
                -3.054982905482133
            ]
        },
        {
            "positions": [
                -0.13509837380899783,
                -2.2259211688032288,
                -1.3338193057813281,
                -2.790120873644333,
                -0.5227520227054212,
                -3.0483719033121757
            ]
        },
        {
            "positions": [
                -0.15175859543703374,
                -2.2424430548797387,
                -1.251530462965296,
                -2.8638439520589216,
                -0.3422273600307393,
                -3.0417609011422186
            ]
        },
        {
            "positions": [
                -0.16841881706506967,
                -2.258964940956249,
                -1.1692416201492637,
                -2.9375670304735104,
                -0.16170269735605744,
                -3.035149898972261
            ]
        }
    ]
}