{
    "goal": {
        "global_pose": {
            "orientation": {
                "w": 0.005598929693374612,
                "x": 0.007748599140229565,
                "y": 0.7110244013736278,
                "z": -0.7031023480610252
            },
            "position": {
                "x": -0.8858502320852131,
                "y": -0.7141253447532654,
                "z": 0.3711530566215515
            }
        },
        "name": "move_to_auspresseinheit_C"
    },
    "id": "SBL_move_to_auspresseinheit_C_69",
    "joint_names": [
        "shoulder_pan_joint",
        "shoulder_lift_joint",
        "elbow_joint",
        "wrist_1_joint",
        "wrist_2_joint",
        "wrist_3_joint"
    ],
    "metrics": {
        "cart_traj_len": 0.5422665041261414,
        "distance_elbow_joint": 0.9876181704466367,
        "distance_shoulder_lift_joint": 0.31859026537986057,
        "distance_shoulder_pan_joint": 0.2569140809760766,
        "distance_wrist_1_joint": 0.6546794879005908,
        "distance_wrist_2_joint": 1.3015413648094936,
        "distance_wrist_3_joint": 0.18870174448956512,
        "smoothness": 0.061887326978755056,
        "time": 0.620474481,
        "traj_len": 1.9256284984394636,
        "weighted_distance": 2.4579807679661445
    },
    "planner": "SBL",
    "start": {
        "state": {
            "elbow_joint": 1.7527959577737207,
            "shoulder_lift_joint": -0.9740617694225068,
            "shoulder_pan_joint": -2.967991417825858,
            "wrist_1_joint": -0.759517768980727,
            "wrist_2_joint": 1.7443932448377408,
            "wrist_3_joint": -3.0840537646736568
        }
    },
    "waypoints": [
        {
            "positions": [
                -2.967991417825858,
                -0.9740617694225068,
                1.7527959577737207,
                -0.759517768980727,
                1.7443932448377408,
                -3.0840537646736568
            ]
        },
        {
            "positions": [
                -2.9410132244377363,
                -0.9504072734359643,
                1.656173106352311,
                -0.6896453422022188,
                1.599779727561102,
                -3.0761009089108238
            ]
        },
        {
            "positions": [
                -2.914035031049615,
                -0.9267527774494219,
                1.5595502549309015,
                -0.6197729154237108,
                1.4551662102844634,
                -3.0681480531479908
            ]
        },
        {
            "positions": [
                -2.8870568376614933,
                -0.9030982814628793,
                1.462927403509492,
                -0.5499004886452027,
                1.3105526930078246,
                -3.060195197385158
            ]
        },
        {
            "positions": [
                -2.8600786442733717,
                -0.8794437854763368,
                1.3663045520880823,
                -0.48002806186669456,
                1.1659391757311859,
                -3.052242341622325
            ]
        },
        {
            "positions": [
                -2.8331004508852504,
                -0.8557892894897944,
                1.2696817006666725,
                -0.4101556350881864,
                1.021325658454547,
                -3.044289485859492
            ]
        },
        {
            "positions": [
                -2.8061222574971287,
                -0.8321347935032519,
                1.1730588492452632,
                -0.34028320830967834,
                0.8767121411779083,
                -3.036336630096659
            ]
        },
        {
            "positions": [
                -2.779144064109007,
                -0.8084802975167094,
                1.0764359978238534,
                -0.2704107815311702,
                0.7320986239012695,
                -3.0283837743338267
            ]
        },
        {
            "positions": [
                -2.752165870720886,
                -0.7848258015301669,
                0.9798131464024439,
                -0.20053835475266213,
                0.5874851066246307,
                -3.0204309185709937
            ]
        },
        {
            "positions": [
                -2.725187677332764,
                -0.7611713055436244,
                0.8831902949810342,
                -0.130665927974154,
                0.442871589347992,
                -3.0124780628081607
            ]
        },
        {
            "positions": [
                -2.7110773368497814,
                -0.6554715040426462,
                0.765177787327084,
                -0.10483828108013617,
                0.44285188002824727,
                -3.1296041054322297
            ]
        }
    ]
}