{
    "goal": {
        "global_pose": {
            "orientation": {
                "w": 0.005598929693374612,
                "x": 0.007748599140229565,
                "y": 0.7110244013736278,
                "z": -0.7031023480610252
            },
            "position": {
                "x": 0.1141497679147869,
                "y": -0.7141253447532654,
                "z": 0.3711530566215515
            }
        },
        "name": "move_to_auspresseinheit_B"
    },
    "id": "SBL_move_to_auspresseinheit_B_64",
    "joint_names": [
        "shoulder_pan_joint",
        "shoulder_lift_joint",
        "elbow_joint",
        "wrist_1_joint",
        "wrist_2_joint",
        "wrist_3_joint"
    ],
    "metrics": {
        "cart_traj_len": 0.5647368517845428,
        "distance_elbow_joint": 0.062139734252268486,
        "distance_shoulder_lift_joint": 0.2952601562172752,
        "distance_shoulder_pan_joint": 0.5782876382492952,
        "distance_wrist_1_joint": 0.32823962011447994,
        "distance_wrist_2_joint": 0.9893837776583143,
        "distance_wrist_3_joint": 0.003827578763380135,
        "smoothness": 0.0,
        "time": 0.260424695,
        "traj_len": 1.5023776173968424,
        "weighted_distance": 1.8927274131671914
    },
    "planner": "SBL",
    "start": {
        "state": {
            "elbow_joint": 2.0193083361928714,
            "shoulder_lift_joint": -1.1220246554650708,
            "shoulder_pan_joint": -1.0952077554168747,
            "wrist_1_joint": -0.8559753972642168,
            "wrist_2_joint": 0.4759566250798843,
            "wrist_3_joint": -3.1240929996934557
        }
    },
    "waypoints": [
        {
            "positions": [
                -1.0952077554168747,
                -1.1220246554650708,
                2.0193083361928714,
                -0.8559753972642168,
                0.4759566250798843,
                -3.1240929996934557
            ]
        },
        {
            "positions": [
                -1.1915890284584238,
                -1.1712346815012833,
                2.0089517138174933,
                -0.8012687939118035,
                0.6408539213562701,
                -3.1247309294873524
            ]
        },
        {
            "positions": [
                -1.287970301499973,
                -1.2204447075374958,
                1.9985950914421153,
                -0.7465621905593901,
                0.8057512176326558,
                -3.125368859281249
            ]
        },
        {
            "positions": [
                -1.3843515745415222,
                -1.2696547335737085,
                1.9882384690667372,
                -0.6918555872069768,
                0.9706485139090415,
                -3.126006789075146
            ]
        },
        {
            "positions": [
                -1.4807328475830714,
                -1.318864759609921,
                1.977881846691359,
                -0.6371489838545635,
                1.1355458101854272,
                -3.1266447188690423
            ]
        },
        {
            "positions": [
                -1.5771141206246206,
                -1.3680747856461335,
                1.967525224315981,
                -0.5824423805021501,
                1.300443106461813,
                -3.127282648662939
            ]
        },
        {
            "positions": [
                -1.6734953936661698,
                -1.417284811682346,
                1.957168601940603,
                -0.5277357771497369,
                1.4653404027381987,
                -3.127920578456836
            ]
        }
    ]
}