{
    "goal": {
        "global_pose": {
            "orientation": {
                "w": -0.4816463035849501,
                "x": 0.5182115481033762,
                "y": 0.4908360881923453,
                "z": -0.5084816262002911
            },
            "position": {
                "x": -0.8240239810943604,
                "y": -0.300875300988555,
                "z": 0.16403168439865112
            }
        },
        "name": "move_to_storage_C"
    },
    "id": "SBL_move_to_storage_C_131",
    "joint_names": [
        "shoulder_pan_joint",
        "shoulder_lift_joint",
        "elbow_joint",
        "wrist_1_joint",
        "wrist_2_joint",
        "wrist_3_joint"
    ],
    "metrics": {
        "cart_traj_len": 0.5767063386574641,
        "distance_elbow_joint": 0.2600109179963961,
        "distance_shoulder_lift_joint": 0.18976758986112807,
        "distance_shoulder_pan_joint": 0.4948438546588423,
        "distance_wrist_1_joint": 0.0828839054081969,
        "distance_wrist_2_joint": 1.063564942217825,
        "distance_wrist_3_joint": 0.0682817371838147,
        "smoothness": 2.5376526478085547e-16,
        "time": 0.400695109,
        "traj_len": 1.4694736973917577,
        "weighted_distance": 1.8553612234063357
    },
    "planner": "SBL",
    "start": {
        "state": {
            "elbow_joint": 2.010868314990456,
            "shoulder_lift_joint": -1.1634956873337592,
            "shoulder_pan_joint": -2.4736205022346125,
            "wrist_1_joint": -0.8367026794202681,
            "wrist_2_joint": 0.6746043897044499,
            "wrist_3_joint": -3.1496632123970403
        }
    },
    "waypoints": [
        {
            "positions": [
                -2.4736205022346125,
                -1.1634956873337592,
                2.010868314990456,
                -0.8367026794202681,
                0.6746043897044499,
                -3.1496632123970403
            ]
        },
        {
            "positions": [
                -2.556094478011086,
                -1.131867755690238,
                1.9675331619910565,
                -0.8228886951855686,
                0.8518652134074207,
                -3.1382829228664044
            ]
        },
        {
            "positions": [
                -2.6385684537875598,
                -1.1002398240467164,
                1.924198008991657,
                -0.8090747109508691,
                1.0291260371103916,
                -3.1269026333357686
            ]
        },
        {
            "positions": [
                -2.721042429564034,
                -1.068611892403195,
                1.8808628559922578,
                -0.7952607267161697,
                1.2063868608133625,
                -3.115522343805133
            ]
        },
        {
            "positions": [
                -2.8035164053405075,
                -1.0369839607596738,
                1.8375277029928585,
                -0.7814467424814702,
                1.3836476845163332,
                -3.1041420542744973
            ]
        },
        {
            "positions": [
                -2.885990381116981,
                -1.0053560291161525,
                1.794192549993459,
                -0.7676327582467707,
                1.5609085082193042,
                -3.0927617647438614
            ]
        },
        {
            "positions": [
                -2.968464356893455,
                -0.9737280974726311,
                1.7508573969940597,
                -0.7538187740120712,
                1.738169331922275,
                -3.0813814752132256
            ]
        }
    ]
}