{
    "goal": {
        "global_pose": {
            "orientation": {
                "w": 0.005598929693374612,
                "x": 0.007748599140229565,
                "y": 0.7110244013736278,
                "z": -0.7031023480610252
            },
            "position": {
                "x": 0.1141497679147869,
                "y": -0.7141253447532654,
                "z": 0.3711530566215515
            }
        },
        "name": "move_to_auspresseinheit_B"
    },
    "id": "SBL_move_to_auspresseinheit_B_21",
    "joint_names": [
        "shoulder_pan_joint",
        "shoulder_lift_joint",
        "elbow_joint",
        "wrist_1_joint",
        "wrist_2_joint",
        "wrist_3_joint"
    ],
    "metrics": {
        "cart_traj_len": 0.5648141564913752,
        "distance_elbow_joint": 0.06552528581580219,
        "distance_shoulder_lift_joint": 0.29319547863220996,
        "distance_shoulder_pan_joint": 0.5781917459629824,
        "distance_wrist_1_joint": 0.3345446748847838,
        "distance_wrist_2_joint": 0.9859699409881875,
        "distance_wrist_3_joint": 0.006749314710736698,
        "smoothness": 0.0,
        "time": 0.140706115,
        "traj_len": 1.5047180603005677,
        "weighted_distance": 1.896889476561338
    },
    "planner": "SBL",
    "start": {
        "state": {
            "elbow_joint": 2.0193083361928714,
            "shoulder_lift_joint": -1.1220246554650708,
            "shoulder_pan_joint": -1.0952077554168747,
            "wrist_1_joint": -0.8559753972642168,
            "wrist_2_joint": 0.4759566250798843,
            "wrist_3_joint": -3.1240929996934557
        }
    },
    "waypoints": [
        {
            "positions": [
                -1.0952077554168747,
                -1.1220246554650708,
                2.0193083361928714,
                -0.8559753972642168,
                0.4759566250798843,
                -3.1240929996934557
            ]
        },
        {
            "positions": [
                -1.191573046410705,
                -1.1708905685704392,
                2.008387455223571,
                -0.8002179514500861,
                0.6402849485779155,
                -3.1229681139083327
            ]
        },
        {
            "positions": [
                -1.2879383374045354,
                -1.2197564816758075,
                1.9974665742542708,
                -0.7444605056359556,
                0.8046132720759467,
                -3.1218432281232102
            ]
        },
        {
            "positions": [
                -1.3843036283983658,
                -1.2686223947811759,
                1.9865456932849703,
                -0.6887030598218249,
                0.968941595573978,
                -3.1207183423380873
            ]
        },
        {
            "positions": [
                -1.4806689193921962,
                -1.317488307886544,
                1.9756248123156699,
                -0.6329456140076943,
                1.1332699190720092,
                -3.1195934565529644
            ]
        },
        {
            "positions": [
                -1.5770342103860266,
                -1.3663542209919124,
                1.9647039313463697,
                -0.5771881681935636,
                1.2975982425700405,
                -3.118468570767842
            ]
        },
        {
            "positions": [
                -1.673399501379857,
                -1.4152201340972808,
                1.9537830503770692,
                -0.521430722379433,
                1.4619265660680718,
                -3.117343684982719
            ]
        }
    ]
}