{
    "goal": {
        "global_pose": {
            "orientation": {
                "w": 0.5084816217422485,
                "x": -0.49083608388900757,
                "y": 0.5182115435600281,
                "z": -0.4816462993621826
            },
            "position": {
                "x": 0.5540239810943604,
                "y": 0.030875300988554955,
                "z": 0.16403168439865112
            }
        },
        "name": "move_to_storage_A"
    },
    "id": "SBL_move_to_storage_A_36",
    "joint_names": [
        "shoulder_pan_joint",
        "shoulder_lift_joint",
        "elbow_joint",
        "wrist_1_joint",
        "wrist_2_joint",
        "wrist_3_joint"
    ],
    "metrics": {
        "cart_traj_len": 0.3534409487941168,
        "distance_elbow_joint": 0.4508074038979615,
        "distance_shoulder_lift_joint": 0.23618117515785841,
        "distance_shoulder_pan_joint": 0.46094306942089497,
        "distance_wrist_1_joint": 0.24473240431832055,
        "distance_wrist_2_joint": 1.1056673318385957,
        "distance_wrist_3_joint": 0.09101823470354287,
        "smoothness": 0.0,
        "time": 0.290427124,
        "traj_len": 1.6091456178162291,
        "weighted_distance": 2.030218171749326
    },
    "planner": "SBL",
    "start": {
        "state": {
            "elbow_joint": 1.9715481507254546,
            "shoulder_lift_joint": -1.1394850672790213,
            "shoulder_pan_joint": 0.12281154597544902,
            "wrist_1_joint": -0.7804720171073349,
            "wrist_2_joint": 0.12958658322886563,
            "wrist_3_joint": -3.1924895760937617
        }
    },
    "waypoints": [
        {
            "positions": [
                0.12281154597544902,
                -1.1394850672790213,
                1.9715481507254546,
                -0.7804720171073349,
                0.12958658322886563,
                -3.1924895760937617
            ]
        },
        {
            "positions": [
                0.05696253605817832,
                -1.1732252351587154,
                2.0359492084251634,
                -0.8154337891528093,
                0.28753905920580786,
                -3.1794869711361127
            ]
        },
        {
            "positions": [
                -0.008886473859092386,
                -1.2069654030384094,
                2.100350266124872,
                -0.8503955611982836,
                0.4454915351827501,
                -3.1664843661784636
            ]
        },
        {
            "positions": [
                -0.0747354837763631,
                -1.2407055709181034,
                2.164751323824581,
                -0.885357333243758,
                0.6034440111596924,
                -3.1534817612208146
            ]
        },
        {
            "positions": [
                -0.1405844936936338,
                -1.2744457387977977,
                2.2291523815242895,
                -0.9203191052892323,
                0.7613964871366345,
                -3.140479156263166
            ]
        },
        {
            "positions": [
                -0.2064335036109045,
                -1.3081859066774917,
                2.2935534392239987,
                -0.9552808773347068,
                0.9193489631135768,
                -3.127476551305517
            ]
        },
        {
            "positions": [
                -0.27228251352817523,
                -1.3419260745571857,
                2.3579544969237074,
                -0.9902426493801811,
                1.077301439090519,
                -3.114473946347868
            ]
        },
        {
            "positions": [
                -0.33813152344544595,
                -1.3756662424368797,
                2.422355554623416,
                -1.0252044214256555,
                1.2352539150674613,
                -3.101471341390219
            ]
        }
    ]
}