{
    "goal": {
        "global_pose": {
            "orientation": {
                "w": 0.7031023502349854,
                "x": -0.7110244035720825,
                "y": 0.007748599164187908,
                "z": 0.005598929710686207
            },
            "position": {
                "x": 0.11585023208521307,
                "y": 0.44412534475326537,
                "z": 0.3711530566215515
            }
        },
        "name": "move_to_auspresseinheit_A"
    },
    "id": "SBL_move_to_auspresseinheit_A_42",
    "joint_names": [
        "shoulder_pan_joint",
        "shoulder_lift_joint",
        "elbow_joint",
        "wrist_1_joint",
        "wrist_2_joint",
        "wrist_3_joint"
    ],
    "metrics": {
        "cart_traj_len": 2.669549417635764,
        "distance_elbow_joint": 2.2538646309238715,
        "distance_shoulder_lift_joint": 0.9476927143337446,
        "distance_shoulder_pan_joint": 6.148878332215562,
        "distance_wrist_1_joint": 7.397858348904542,
        "distance_wrist_2_joint": 0.5240066387342927,
        "distance_wrist_3_joint": 0.06546922783544362,
        "smoothness": 0.7104502662136017,
        "time": 0.47141701199999997,
        "traj_len": 4.163864778417696,
        "weighted_distance": 5.038905966205083
    },
    "planner": "SBL",
    "start": {
        "state": {
            "elbow_joint": 2.4225746658250005,
            "shoulder_lift_joint": -1.3736534386056498,
            "shoulder_pan_joint": -0.3378633547517467,
            "wrist_1_joint": -1.0288598680537169,
            "wrist_2_joint": 1.233022673432363,
            "wrist_3_joint": -3.0940220416140027
        }
    },
    "waypoints": [
        {
            "positions": [
                -0.3378633547517467,
                -1.3736534386056498,
                2.4225746658250005,
                -1.0288598680537169,
                1.233022673432363,
                -3.0940220416140027
            ]
        },
        {
            "positions": [
                -0.4539100878122776,
                -1.407428923549489,
                2.3707499479759484,
                -0.8481664850556524,
                1.22354999167669,
                -3.0962063750822284
            ]
        },
        {
            "positions": [
                -0.5699568208728085,
                -1.4412044084933282,
                2.3189252301268968,
                -0.6674731020575879,
                1.2140773099210174,
                -3.098390708550454
            ]
        },
        {
            "positions": [
                -0.6860035539333393,
                -1.4749798934371674,
                2.2671005122778447,
                -0.48677971905952344,
                1.2046046281653444,
                -3.1005750420186797
            ]
        },
        {
            "positions": [
                -0.8020502869938703,
                -1.5087553783810068,
                2.2152757944287926,
                -0.30608633606145885,
                1.1951319464096715,
                -3.1027593754869054
            ]
        },
        {
            "positions": [
                -0.9180970200544012,
                -1.542530863324846,
                2.163451076579741,
                -0.12539295306339437,
                1.1856592646539987,
                -3.104943708955131
            ]
        },
        {
            "positions": [
                -1.034143753114932,
                -1.5763063482686852,
                2.111626358730689,
                0.05530042993466999,
                1.1761865828983258,
                -3.107128042423357
            ]
        },
        {
            "positions": [
                -1.1501904861754628,
                -1.6100818332125244,
                2.059801640881637,
                0.23599381293273458,
                1.1667139011426528,
                -3.109312375891583
            ]
        },
        {
            "positions": [
                -1.2662372192359939,
                -1.6438573181563636,
                2.0079769230325852,
                0.41668719593079917,
                1.15724121938698,
                -3.1114967093598085
            ]
        },
        {
            "positions": [
                -1.3822839522965247,
                -1.6776328031002028,
                1.9561522051835332,
                0.5973805789288638,
                1.1477685376313072,
                -3.113681042828034
            ]
        },
        {
            "positions": [
                -1.4983306853570555,
                -1.711408288044042,
                1.9043274873344815,
                0.7780739619269281,
                1.1382958558756342,
                -3.11586537629626
            ]
        },
        {
            "positions": [
                -1.6143774184175863,
                -1.7451837729878812,
                1.8525027694854295,
                0.9587673449249927,
                1.1288231741199612,
                -3.1180497097644855
            ]
        },
        {
            "positions": [
                -1.7304241514781171,
                -1.7789592579317204,
                1.8006780516363776,
                1.1394607279230569,
                1.1193504923642885,
                -3.120234043232711
            ]
        },
        {
            "positions": [
                -1.8464708845386482,
                -1.8127347428755598,
                1.7488533337873258,
                1.320154110921122,
                1.1098778106086156,
                -3.122418376700937
            ]
        },
        {
            "positions": [
                -1.962517617599179,
                -1.846510227819399,
                1.6970286159382737,
                1.500847493919186,
                1.1004051288529428,
                -3.1246027101691625
            ]
        },
        {
            "positions": [
                -2.07856435065971,
                -1.8802857127632382,
                1.6452038980892219,
                1.6815408769172506,
                1.0909324470972699,
                -3.126787043637388
            ]
        },
        {
            "positions": [
                -2.194611083720241,
                -1.9140611977070774,
                1.59337918024017,
                1.8622342599153152,
                1.081459765341597,
                -3.128971377105614
            ]
        },
        {
            "positions": [
                -2.3106578167807714,
                -1.9478366826509168,
                1.541554462391118,
                2.04292764291338,
                1.071987083585924,
                -3.13115571057384
            ]
        },
        {
            "positions": [
                -2.4267045498413027,
                -1.981612167594756,
                1.489729744542066,
                2.223621025911444,
                1.0625144018302513,
                -3.1333400440420656
            ]
        },
        {
            "positions": [
                -2.5427512829018335,
                -2.015387652538595,
                1.4379050266930142,
                2.404314408909509,
                1.0530417200745783,
                -3.1355243775102912
            ]
        },
        {
            "positions": [
                -2.6587980159623643,
                -2.0491631374824344,
                1.3860803088439624,
                2.5850077919075733,
                1.0435690383189054,
                -3.137708710978517
            ]
        },
        {
            "positions": [
                -2.774844749022895,
                -2.0829386224262736,
                1.3342555909949103,
                2.7657011749056384,
                1.0340963565632326,
                -3.1398930444467426
            ]
        },
        {
            "positions": [
                -2.890891482083426,
                -2.116714107370113,
                1.2824308731458585,
                2.946394557903702,
                1.0246236748075597,
                -3.142077377914968
            ]
        },
        {
            "positions": [
                -2.727443745497795,
                -2.1074126507533273,
                1.333054547611528,
                2.7908216523151967,
                1.010277872984401,
                -3.1412858373906736
            ]
        },
        {
            "positions": [
                -2.5639960089121643,
                -2.098111194136542,
                1.3836782220771975,
                2.635248746726691,
                0.9959320711612425,
                -3.1404942968663794
            ]
        },
        {
            "positions": [
                -2.4005482723265334,
                -2.0888097375197563,
                1.434301896542867,
                2.4796758411381856,
                0.9815862693380839,
                -3.1397027563420847
            ]
        },
        {
            "positions": [
                -2.237100535740902,
                -2.079508280902971,
                1.4849255710085365,
                2.3241029355496803,
                0.9672404675149252,
                -3.1389112158177905
            ]
        },
        {
            "positions": [
                -2.073652799155272,
                -2.0702068242861853,
                1.5355492454742061,
                2.1685300299611745,
                0.9528946656917666,
                -3.138119675293496
            ]
        },
        {
            "positions": [
                -1.9102050625696407,
                -2.0609053676694,
                1.5861729199398755,
                2.012957124372669,
                0.938548863868608,
                -3.1373281347692012
            ]
        },
        {
            "positions": [
                -1.74675732598401,
                -2.0516039110526143,
                1.6367965944055451,
                1.8573842187841636,
                0.9242030620454494,
                -3.136536594244907
            ]
        },
        {
            "positions": [
                -1.5833095893983788,
                -2.0423024544358284,
                1.6874202688712145,
                1.701811313195658,
                0.9098572602222909,
                -3.1357450537206124
            ]
        },
        {
            "positions": [
                -1.419861852812748,
                -2.033000997819043,
                1.7380439433368842,
                1.5462384076071525,
                0.8955114583991323,
                -3.134953513196318
            ]
        },
        {
            "positions": [
                -1.2564141162271172,
                -2.0236995412022574,
                1.7886676178025538,
                1.3906655020186471,
                0.8811656565759737,
                -3.1341619726720236
            ]
        },
        {
            "positions": [
                -1.0929663796414864,
                -2.014398084585472,
                1.8392912922682232,
                1.2350925964301416,
                0.866819854752815,
                -3.1333704321477294
            ]
        },
        {
            "positions": [
                -0.9295186430558555,
                -2.0050966279686864,
                1.8899149667338926,
                1.0795196908416362,
                0.8524740529296564,
                -3.1325788916234347
            ]
        },
        {
            "positions": [
                -0.7660709064702247,
                -1.9957951713519009,
                1.9405386411995622,
                0.9239467852531305,
                0.8381282511064978,
                -3.13178735109914
            ]
        },
        {
            "positions": [
                -0.6026231698845939,
                -1.9864937147351154,
                1.9911623156652318,
                0.7683738796646251,
                0.8237824492833392,
                -3.130995810574846
            ]
        },
        {
            "positions": [
                -0.439175433298963,
                -1.9771922581183299,
                2.0417859901309012,
                0.6128009740761198,
                0.8094366474601806,
                -3.1302042700505512
            ]
        },
        {
            "positions": [
                -0.27572769671333175,
                -1.9678908015015444,
                2.0924096645965706,
                0.457228068487614,
                0.795090845637022,
                -3.129412729526257
            ]
        },
        {
            "positions": [
                -0.11227996012770136,
                -1.9585893448847589,
                2.1430333390622405,
                0.30165516289910865,
                0.7807450438138634,
                -3.1286211890019624
            ]
        },
        {
            "positions": [
                0.051167776457929914,
                -1.9492878882679734,
                2.19365701352791,
                0.14608225731060287,
                0.7663992419907049,
                -3.1278296484776678
            ]
        },
        {
            "positions": [
                0.21461551304356075,
                -1.9399864316511877,
                2.2442806879935793,
                -0.00949064827790247,
                0.7520534401675463,
                -3.1270381079533736
            ]
        },
        {
            "positions": [
                0.3780632496291916,
                -1.9306849750344022,
                2.294904362459249,
                -0.1650635538664078,
                0.7377076383443877,
                -3.126246567429079
            ]
        },
        {
            "positions": [
                0.5415109862148224,
                -1.9213835184176167,
                2.3455280369249185,
                -0.3206364594549136,
                0.723361836521229,
                -3.1254550269047847
            ]
        },
        {
            "positions": [
                0.7049587228004535,
                -1.9120820618008312,
                2.396151711390588,
                -0.476209365043419,
                0.7090160346980704,
                -3.12466348638049
            ]
        }
    ]
}