{
    "goal": {
        "global_pose": {
            "orientation": {
                "w": 0.7031023502349854,
                "x": -0.7110244035720825,
                "y": 0.007748599164187908,
                "z": 0.005598929710686207
            },
            "position": {
                "x": 0.11585023208521307,
                "y": 0.44412534475326537,
                "z": 0.3711530566215515
            }
        },
        "name": "move_to_auspresseinheit_A"
    },
    "id": "SBL_move_to_auspresseinheit_A_134",
    "joint_names": [
        "shoulder_pan_joint",
        "shoulder_lift_joint",
        "elbow_joint",
        "wrist_1_joint",
        "wrist_2_joint",
        "wrist_3_joint"
    ],
    "metrics": {
        "cart_traj_len": 0.9574891246771949,
        "distance_elbow_joint": 0.3244395219953953,
        "distance_shoulder_lift_joint": 0.9628767927809407,
        "distance_shoulder_pan_joint": 1.4094428865534896,
        "distance_wrist_1_joint": 1.5540174586479223,
        "distance_wrist_2_joint": 1.4517545082111076,
        "distance_wrist_3_joint": 1.6767912908357676,
        "smoothness": 1.8815533559935667,
        "time": 0.258964681,
        "traj_len": 2.7164908354391004,
        "weighted_distance": 3.706572137103929
    },
    "planner": "SBL",
    "start": {
        "state": {
            "elbow_joint": 2.4225746658250005,
            "shoulder_lift_joint": -1.3736534386056498,
            "shoulder_pan_joint": -0.3378633547517467,
            "wrist_1_joint": -1.0288598680537169,
            "wrist_2_joint": 1.233022673432363,
            "wrist_3_joint": -3.0940220416140027
        }
    },
    "waypoints": [
        {
            "positions": [
                -0.3378633547517467,
                -1.3736534386056498,
                2.4225746658250005,
                -1.0288598680537169,
                1.233022673432363,
                -3.0940220416140027
            ]
        },
        {
            "positions": [
                -0.2666173983439936,
                -1.4316982637314735,
                2.406544283984665,
                -0.9383779673748956,
                1.1704482735567048,
                -3.019654107994556
            ]
        },
        {
            "positions": [
                -0.19537144193624048,
                -1.4897430888572971,
                2.3905139021443294,
                -0.8478960666960744,
                1.1078738736810465,
                -2.9452861743751093
            ]
        },
        {
            "positions": [
                -0.12412548552848737,
                -1.5477879139831208,
                2.374483520303994,
                -0.7574141660172533,
                1.0452994738053882,
                -2.870918240755662
            ]
        },
        {
            "positions": [
                -0.05287952912073424,
                -1.6058327391089444,
                2.3584531384636582,
                -0.666932265338432,
                0.9827250739297297,
                -2.7965503071362154
            ]
        },
        {
            "positions": [
                0.01836642728701887,
                -1.663877564234768,
                2.3424227566233227,
                -0.5764503646596109,
                0.9201506740540715,
                -2.7221823735167687
            ]
        },
        {
            "positions": [
                0.08961238369477198,
                -1.7219223893605917,
                2.326392374782987,
                -0.48596846398078963,
                0.8575762741784132,
                -2.647814439897322
            ]
        },
        {
            "positions": [
                0.1608583401025251,
                -1.7799672144864154,
                2.3103619929426515,
                -0.3954865633019684,
                0.7950018743027549,
                -2.5734465062778753
            ]
        },
        {
            "positions": [
                0.23210429651027825,
                -1.838012039612239,
                2.294331611102316,
                -0.3050046626231472,
                0.7324274744270965,
                -2.499078572658428
            ]
        },
        {
            "positions": [
                0.30335025291803136,
                -1.8960568647380627,
                2.2783012292619804,
                -0.21452276194432585,
                0.6698530745514382,
                -2.4247106390389814
            ]
        },
        {
            "positions": [
                0.37459620932578447,
                -1.9541016898638863,
                2.262270847421645,
                -0.12404086126550473,
                0.60727867467578,
                -2.3503427054195347
            ]
        },
        {
            "positions": [
                0.4458421657335375,
                -2.01214651498971,
                2.2462404655813093,
                -0.033558960586683464,
                0.5447042748001216,
                -2.275974771800088
            ]
        },
        {
            "positions": [
                0.5067864206756677,
                -2.0138280015357557,
                2.2945004341335933,
                -0.08194821230156293,
                0.5494851445837997,
                -2.439858905015419
            ]
        },
        {
            "positions": [
                0.5902624754960893,
                -1.9697152715790445,
                2.3005570038149448,
                -0.16486531862427498,
                0.4735702730753063,
                -2.491016028721352
            ]
        },
        {
            "positions": [
                0.6737385303165109,
                -1.9256025416223335,
                2.3066135734962963,
                -0.24778242494698702,
                0.39765540156681284,
                -2.542173152427285
            ]
        },
        {
            "positions": [
                0.7572145851369325,
                -1.8814898116656225,
                2.3126701431776477,
                -0.3306995312696991,
                0.3217405300583194,
                -2.593330276133218
            ]
        },
        {
            "positions": [
                0.8406906399573542,
                -1.8373770817089112,
                2.3187267128589992,
                -0.4136166375924111,
                0.245825658549826,
                -2.644487399839151
            ]
        },
        {
            "positions": [
                0.7794339643327123,
                -1.8734934099006604,
                2.3380533481856163,
                -0.39345633895667687,
                0.38115587969644,
                -2.7461827243884405
            ]
        },
        {
            "positions": [
                0.7181772887080705,
                -1.9096097380924095,
                2.357379983512233,
                -0.37329604032094266,
                0.516486100843054,
                -2.84787804893773
            ]
        },
        {
            "positions": [
                0.6569206130834286,
                -1.9457260662841587,
                2.37670661883885,
                -0.35313574168520845,
                0.651816321989668,
                -2.9495733734870195
            ]
        },
        {
            "positions": [
                0.6804800455686604,
                -1.9267749035597872,
                2.3855262030859317,
                -0.41222473081918787,
                0.6763188671503542,
                -3.0421460831544804
            ]
        },
        {
            "positions": [
                0.704039478053892,
                -1.9078237408354157,
                2.3943457873330134,
                -0.47131371995316723,
                0.7008214123110403,
                -3.134718792821941
            ]
        }
    ]
}