{
    "goal": {
        "global_pose": {
            "orientation": {
                "w": 0.5084816217422485,
                "x": -0.49083608388900757,
                "y": 0.5182115435600281,
                "z": -0.4816462993621826
            },
            "position": {
                "x": 0.5540239810943604,
                "y": 0.030875300988554955,
                "z": 0.16403168439865112
            }
        },
        "name": "move_to_storage_A"
    },
    "id": "SBL_move_to_storage_A_40",
    "joint_names": [
        "shoulder_pan_joint",
        "shoulder_lift_joint",
        "elbow_joint",
        "wrist_1_joint",
        "wrist_2_joint",
        "wrist_3_joint"
    ],
    "metrics": {
        "cart_traj_len": 0.3529499743790021,
        "distance_elbow_joint": 0.4515140068735408,
        "distance_shoulder_lift_joint": 0.23266996462707779,
        "distance_shoulder_pan_joint": 0.4608403161643212,
        "distance_wrist_1_joint": 0.2558709353534865,
        "distance_wrist_2_joint": 1.1004780714218798,
        "distance_wrist_3_joint": 0.10283863661953774,
        "smoothness": 2.2204460668324854e-16,
        "time": 0.166274951,
        "traj_len": 1.6137570855180912,
        "weighted_distance": 2.04113649986332
    },
    "planner": "SBL",
    "start": {
        "state": {
            "elbow_joint": 1.9715481507254546,
            "shoulder_lift_joint": -1.1394850672790213,
            "shoulder_pan_joint": 0.12281154597544902,
            "wrist_1_joint": -0.7804720171073349,
            "wrist_2_joint": 0.12958658322886563,
            "wrist_3_joint": -3.1924895760937617
        }
    },
    "waypoints": [
        {
            "positions": [
                0.12281154597544902,
                -1.1394850672790213,
                1.9715481507254546,
                -0.7804720171073349,
                0.12958658322886563,
                -3.1924895760937617
            ]
        },
        {
            "positions": [
                0.05697721509483171,
                -1.172723633654318,
                2.0360501517073892,
                -0.8170250078721187,
                0.2867977362891342,
                -3.177798342290971
            ]
        },
        {
            "positions": [
                -0.008857115785785602,
                -1.205962200029615,
                2.1005521526893234,
                -0.8535779986369025,
                0.4440088893494027,
                -3.1631071084881794
            ]
        },
        {
            "positions": [
                -0.0746914466664029,
                -1.2392007664049118,
                2.165054153671258,
                -0.8901309894016862,
                0.6012200424096712,
                -3.1484158746853885
            ]
        },
        {
            "positions": [
                -0.14052577754702023,
                -1.2724393327802086,
                2.229556154653192,
                -0.92668398016647,
                0.7584311954699398,
                -3.133724640882597
            ]
        },
        {
            "positions": [
                -0.20636010842763758,
                -1.3056778991555054,
                2.2940581556351267,
                -0.9632369709312538,
                0.9156423485302083,
                -3.1190334070798063
            ]
        },
        {
            "positions": [
                -0.2721944393082548,
                -1.3389164655308023,
                2.358560156617061,
                -0.9997899616960376,
                1.072853501590477,
                -3.104342173277015
            ]
        },
        {
            "positions": [
                -0.3380287701888722,
                -1.372155031906099,
                2.4230621575989955,
                -1.0363429524608214,
                1.2300646546507454,
                -3.089650939474224
            ]
        }
    ]
}