{
    "goal": {
        "global_pose": {
            "orientation": {
                "w": -0.00223480608172531,
                "x": 0.0024358444001904467,
                "y": 0.7094548369677653,
                "z": -0.704743149386269
            },
            "position": {
                "x": -0.37947507619857795,
                "y": -0.6371506643295288,
                "z": 0.19426114857196808
            }
        },
        "name": "move_to_magneteinheit_C"
    },
    "id": "SBL_move_to_magneteinheit_C_14",
    "joint_names": [
        "shoulder_pan_joint",
        "shoulder_lift_joint",
        "elbow_joint",
        "wrist_1_joint",
        "wrist_2_joint",
        "wrist_3_joint"
    ],
    "metrics": {
        "cart_traj_len": 1.402127588029036,
        "distance_elbow_joint": 1.4730732108624913,
        "distance_shoulder_lift_joint": 0.27218087933636825,
        "distance_shoulder_pan_joint": 1.526185006408814,
        "distance_wrist_1_joint": 2.364977787905263,
        "distance_wrist_2_joint": 2.805492210747941,
        "distance_wrist_3_joint": 3.8063290127852563,
        "smoothness": 0.6816021851031799,
        "time": 0.413471492,
        "traj_len": 3.4997482920984666,
        "weighted_distance": 5.00313563000943
    },
    "planner": "SBL",
    "start": {
        "state": {
            "elbow_joint": 1.9565354010623817,
            "shoulder_lift_joint": -1.4165861575791021,
            "shoulder_pan_joint": -1.6717766225146293,
            "wrist_1_joint": -0.5286633292919765,
            "wrist_2_joint": 1.472756589071564,
            "wrist_3_joint": -3.1238370188695823
        }
    },
    "waypoints": [
        {
            "positions": [
                -1.6717766225146293,
                -1.4165861575791021,
                1.9565354010623817,
                -0.5286633292919765,
                1.472756589071564,
                -3.1238370188695823
            ]
        },
        {
            "positions": [
                -1.6402139268366773,
                -1.4186068120214035,
                1.9365406138715644,
                -0.5057940303324721,
                1.3816722630079252,
                -2.9712918771552963
            ]
        },
        {
            "positions": [
                -1.608651231158725,
                -1.4206274664637049,
                1.9165458266807474,
                -0.48292473137296765,
                1.2905879369442868,
                -2.8187467354410107
            ]
        },
        {
            "positions": [
                -1.577088535480773,
                -1.4226481209060065,
                1.89655103948993,
                -0.4600554324134633,
                1.199503610880648,
                -2.6662015937267247
            ]
        },
        {
            "positions": [
                -1.5455258398028209,
                -1.4246687753483078,
                1.876556252299113,
                -0.4371861334539589,
                1.1084192848170096,
                -2.513656452012439
            ]
        },
        {
            "positions": [
                -1.5139631441248689,
                -1.4266894297906092,
                1.8565614651082958,
                -0.4143168344944545,
                1.0173349587533709,
                -2.361111310298153
            ]
        },
        {
            "positions": [
                -1.4729944525604457,
                -1.4206577058536687,
                1.8331666227401586,
                -0.42724827483853417,
                0.9148343261668908,
                -2.1605643447541887
            ]
        },
        {
            "positions": [
                -1.4320257609960225,
                -1.4146259819167282,
                1.8097717803720217,
                -0.44017971518261384,
                0.8123336935804105,
                -1.9600173792102238
            ]
        },
        {
            "positions": [
                -1.3910570694315991,
                -1.4085942579797879,
                1.7863769380038845,
                -0.45311115552669357,
                0.7098330609939304,
                -1.7594704136662591
            ]
        },
        {
            "positions": [
                -1.350088377867176,
                -1.4025625340428474,
                1.7629820956357476,
                -0.46604259587077324,
                0.6073324284074502,
                -1.5589234481222944
            ]
        },
        {
            "positions": [
                -1.3091196863027528,
                -1.3965308101059069,
                1.7395872532676104,
                -0.4789740362148529,
                0.50483179582097,
                -1.3583764825783298
            ]
        },
        {
            "positions": [
                -1.3696732181943514,
                -1.3857099360636296,
                1.8168930496370672,
                -0.6212805235986336,
                0.5816816899831322,
                -1.3435324484675524
            ]
        },
        {
            "positions": [
                -1.43022675008595,
                -1.3748890620213525,
                1.8941988460065242,
                -0.7635870109824143,
                0.6585315841452943,
                -1.328688414356775
            ]
        },
        {
            "positions": [
                -1.4907802819775489,
                -1.3640681879790753,
                1.971504642375981,
                -0.905893498366195,
                0.7353814783074564,
                -1.3138443802459978
            ]
        },
        {
            "positions": [
                -1.5513338138691475,
                -1.353247313936798,
                2.048810438745438,
                -1.0481999857499757,
                0.8122313724696186,
                -1.2990003461352204
            ]
        },
        {
            "positions": [
                -1.611887345760746,
                -1.342426439894521,
                2.126116235114895,
                -1.1905064731337565,
                0.8890812666317807,
                -1.284156312024443
            ]
        },
        {
            "positions": [
                -1.6724408776523447,
                -1.3316055658522437,
                2.203422031484352,
                -1.3328129605175372,
                0.9659311607939428,
                -1.2693122779136656
            ]
        },
        {
            "positions": [
                -1.7329944095439433,
                -1.3207846918099664,
                2.2807278278538083,
                -1.4751194479013179,
                1.042781054956105,
                -1.2544682438028885
            ]
        },
        {
            "positions": [
                -1.7935479414355422,
                -1.3099638177676893,
                2.3580336242232653,
                -1.6174259352850986,
                1.119630949118267,
                -1.239624209692111
            ]
        },
        {
            "positions": [
                -1.8541014733271408,
                -1.299142943725412,
                2.4353394205927223,
                -1.7597324226688793,
                1.1964808432804293,
                -1.2247801755813337
            ]
        },
        {
            "positions": [
                -1.9300909407825297,
                -1.2744291200134972,
                2.4493878029768346,
                -1.74562473350591,
                1.2593355983184478,
                -1.4091608744399433
            ]
        },
        {
            "positions": [
                -2.0060804082379184,
                -1.249715296301582,
                2.4634361853609468,
                -1.731517044342941,
                1.322190353356466,
                -1.593541573298553
            ]
        },
        {
            "positions": [
                -2.0820698756933074,
                -1.2250014725896672,
                2.4774845677450594,
                -1.7174093551799718,
                1.3850451083944846,
                -1.7779222721571624
            ]
        },
        {
            "positions": [
                -2.1580593431486963,
                -1.200287648877752,
                2.4915329501291716,
                -1.7033016660170028,
                1.4478998634325029,
                -1.962302971015772
            ]
        },
        {
            "positions": [
                -2.2340488106040852,
                -1.1755738251658372,
                2.505581332513284,
                -1.6891939768540336,
                1.5107546184705214,
                -2.1466836698743816
            ]
        },
        {
            "positions": [
                -2.2605598045924857,
                -1.1743558248880495,
                2.4511223343108344,
                -1.5964520591742035,
                1.4183496634874329,
                -2.256169078230377
            ]
        },
        {
            "positions": [
                -2.2870707985808862,
                -1.1731378246102617,
                2.3966633361083844,
                -1.5037101414943734,
                1.3259447085043443,
                -2.3656544865863727
            ]
        },
        {
            "positions": [
                -2.3135817925692868,
                -1.1719198243324742,
                2.342204337905935,
                -1.4109682238145436,
                1.2335397535212558,
                -2.475139894942368
            ]
        },
        {
            "positions": [
                -2.3400927865576873,
                -1.1707018240546865,
                2.2877453397034855,
                -1.3182263061347135,
                1.1411347985381672,
                -2.5846253032983637
            ]
        },
        {
            "positions": [
                -2.366603780546088,
                -1.1694838237768987,
                2.2332863415010356,
                -1.2254843884548834,
                1.0487298435550787,
                -2.6941107116543592
            ]
        },
        {
            "positions": [
                -2.3931147745344887,
                -1.168265823499111,
                2.178827343298586,
                -1.1327424707750535,
                0.9563248885719903,
                -2.8035961200103547
            ]
        },
        {
            "positions": [
                -2.4196257685228892,
                -1.1670478232213235,
                2.1243683450961366,
                -1.0400005530952234,
                0.8639199335889017,
                -2.9130815283663503
            ]
        },
        {
            "positions": [
                -2.4461367625112898,
                -1.1658298229435358,
                2.0699093468936867,
                -0.9472586354153933,
                0.7715149786058132,
                -3.0225669367223458
            ]
        },
        {
            "positions": [
                -2.4726477564996903,
                -1.164611822665748,
                2.015450348691237,
                -0.8545167177355633,
                0.6791100236227247,
                -3.1320523450783413
            ]
        }
    ]
}