{
    "goal": {
        "global_pose": {
            "orientation": {
                "w": -0.4816463035849501,
                "x": 0.5182115481033762,
                "y": 0.4908360881923453,
                "z": -0.5084816262002911
            },
            "position": {
                "x": -0.8240239810943604,
                "y": 0.19912469901144506,
                "z": 0.16403168439865112
            }
        },
        "name": "move_to_storage_D"
    },
    "id": "SBL_move_to_storage_D_27",
    "joint_names": [
        "shoulder_pan_joint",
        "shoulder_lift_joint",
        "elbow_joint",
        "wrist_1_joint",
        "wrist_2_joint",
        "wrist_3_joint"
    ],
    "metrics": {
        "cart_traj_len": 1.1237298144634633,
        "distance_elbow_joint": 1.3834089676720434,
        "distance_shoulder_lift_joint": 1.756854337571704,
        "distance_shoulder_pan_joint": 1.5954612760437268,
        "distance_wrist_1_joint": 4.157867288901531,
        "distance_wrist_2_joint": 2.72632400509905,
        "distance_wrist_3_joint": 3.1342275139713722,
        "smoothness": 0.3465334601918981,
        "time": 0.22433557199999998,
        "traj_len": 3.841112259393029,
        "weighted_distance": 5.28268773553792
    },
    "planner": "SBL",
    "start": {
        "state": {
            "elbow_joint": -2.384821988534728,
            "shoulder_lift_joint": -2.2788054721415256,
            "shoulder_pan_joint": -0.1854694642142757,
            "wrist_1_joint": 1.4845938289331202,
            "wrist_2_joint": 0.17898776772866878,
            "wrist_3_joint": 0.037105688729662994
        }
    },
    "waypoints": [
        {
            "positions": [
                -0.1854694642142757,
                -2.2788054721415256,
                -2.384821988534728,
                1.4845938289331202,
                0.17898776772866878,
                0.037105688729662994
            ]
        },
        {
            "positions": [
                -0.09813602963029629,
                -2.183351099123982,
                -2.4262499760520977,
                1.5013147956024748,
                0.22604167537894784,
                -0.06375279281452863
            ]
        },
        {
            "positions": [
                -0.010802595046316865,
                -2.087896726106438,
                -2.4676779635694674,
                1.5180357622718292,
                0.2730955830292269,
                -0.16461127435872025
            ]
        },
        {
            "positions": [
                0.07653083953766252,
                -1.9924423530888942,
                -2.5091059510868368,
                1.5347567289411839,
                0.32014949067950593,
                -0.2654697559029119
            ]
        },
        {
            "positions": [
                0.16386427412164198,
                -1.8969879800713505,
                -2.5505339386042065,
                1.5514776956105383,
                0.367203398329785,
                -0.3663282374471035
            ]
        },
        {
            "positions": [
                0.2511977087056214,
                -1.8015336070538068,
                -2.5919619261215763,
                1.568198662279893,
                0.41425730598006405,
                -0.46718671899129505
            ]
        },
        {
            "positions": [
                0.33853114328960077,
                -1.706079234036263,
                -2.633389913638946,
                1.5849196289492475,
                0.4613112136303431,
                -0.5680452005354867
            ]
        },
        {
            "positions": [
                0.42586457787358023,
                -1.610624861018719,
                -2.674817901156316,
                1.601640595618602,
                0.5083651212806222,
                -0.6689036820796782
            ]
        },
        {
            "positions": [
                0.5131980124575597,
                -1.5151704880011754,
                -2.7162458886736855,
                1.6183615622879566,
                0.5554190289309012,
                -0.76976216362387
            ]
        },
        {
            "positions": [
                0.6005314470415392,
                -1.4197161149836317,
                -2.757673876191055,
                1.635082528957311,
                0.6024729365811803,
                -0.8706206451680615
            ]
        },
        {
            "positions": [
                0.6878648816255185,
                -1.3242617419660878,
                -2.7991018637084246,
                1.6518034956266656,
                0.6495268442314593,
                -0.9714791267122532
            ]
        },
        {
            "positions": [
                0.6620746341182353,
                -1.35291569223024,
                -2.764490110404912,
                1.5092800091192375,
                0.568963096781593,
                -1.0473949373740195
            ]
        },
        {
            "positions": [
                0.636284386610952,
                -1.3815696424943926,
                -2.7298783571014,
                1.3667565226118095,
                0.48839934933172646,
                -1.1233107480357858
            ]
        },
        {
            "positions": [
                0.6104941391036688,
                -1.410223592758545,
                -2.6952666037978874,
                1.2242330361043814,
                0.4078356018818601,
                -1.1992265586975521
            ]
        },
        {
            "positions": [
                0.5847038915963855,
                -1.4388775430226972,
                -2.660654850494375,
                1.0817095495969533,
                0.32727185443199364,
                -1.2751423693593185
            ]
        },
        {
            "positions": [
                0.5589136440891023,
                -1.4675314932868497,
                -2.6260430971908626,
                0.9391860630895252,
                0.2467081069821272,
                -1.3510581800210848
            ]
        },
        {
            "positions": [
                0.533123396581819,
                -1.496185443551002,
                -2.59143134388735,
                0.7966625765820972,
                0.16614435953226075,
                -1.426973990682851
            ]
        },
        {
            "positions": [
                0.5073331490745357,
                -1.5248393938151543,
                -2.556819590583838,
                0.6541390900746691,
                0.08558061208239431,
                -1.5028898013446172
            ]
        },
        {
            "positions": [
                0.48154290156725255,
                -1.5534933440793068,
                -2.522207837280326,
                0.511615603567241,
                0.005016864632527929,
                -1.5788056120063834
            ]
        },
        {
            "positions": [
                0.45575265405996923,
                -1.5821472943434591,
                -2.487596083976813,
                0.36909211705981293,
                -0.07554688281733857,
                -1.65472142266815
            ]
        },
        {
            "positions": [
                0.42996240655268597,
                -1.6108012446076114,
                -2.452984330673301,
                0.22656863055238485,
                -0.15611063026720495,
                -1.730637233329916
            ]
        },
        {
            "positions": [
                0.40417215904540277,
                -1.639455194871764,
                -2.4183725773697886,
                0.08404514404495678,
                -0.23667437771707145,
                -1.8065530439916824
            ]
        },
        {
            "positions": [
                0.3783819115381195,
                -1.6681091451359162,
                -2.383760824066276,
                -0.0584783424624713,
                -0.31723812516693783,
                -1.8824688546534487
            ]
        },
        {
            "positions": [
                0.35259166403083625,
                -1.6967630954000685,
                -2.349149070762764,
                -0.20100182896989938,
                -0.39780187261680433,
                -1.958384665315215
            ]
        },
        {
            "positions": [
                0.326801416523553,
                -1.725417045664221,
                -2.3145373174592514,
                -0.34352531547732745,
                -0.4783656200666707,
                -2.0343004759769814
            ]
        },
        {
            "positions": [
                0.30101116901626973,
                -1.7540709959283733,
                -2.279925564155739,
                -0.4860488019847553,
                -0.5589293675165371,
                -2.1102162866387477
            ]
        },
        {
            "positions": [
                0.2752209215089865,
                -1.7827249461925256,
                -2.2453138108522266,
                -0.6285722884921836,
                -0.6394931149664035,
                -2.1861320973005136
            ]
        },
        {
            "positions": [
                0.24943067400170327,
                -1.811378896456678,
                -2.210702057548714,
                -0.7710957749996115,
                -0.7200568624162699,
                -2.26204790796228
            ]
        },
        {
            "positions": [
                0.22364042649441995,
                -1.8400328467208305,
                -2.176090304245202,
                -0.9136192615070398,
                -0.8006206098661365,
                -2.3379637186240467
            ]
        },
        {
            "positions": [
                0.1978501789871367,
                -1.8686867969849827,
                -2.1414785509416894,
                -1.056142748014468,
                -0.8811843573160029,
                -2.4138795292858126
            ]
        },
        {
            "positions": [
                0.17205993147985343,
                -1.8973407472491353,
                -2.106866797638177,
                -1.198666234521896,
                -0.9617481047658692,
                -2.489795339947579
            ]
        },
        {
            "positions": [
                0.14626968397257023,
                -1.9259946975132876,
                -2.0722550443346646,
                -1.3411897210293238,
                -1.042311852215736,
                -2.5657111506093453
            ]
        },
        {
            "positions": [
                0.12047943646528703,
                -1.9546486477774399,
                -2.037643291031152,
                -1.483713207536752,
                -1.1228755996656021,
                -2.6416269612711116
            ]
        },
        {
            "positions": [
                0.09468918895800371,
                -1.9833025980415924,
                -2.0030315377276398,
                -1.62623669404418,
                -1.2034393471154687,
                -2.717542771932878
            ]
        },
        {
            "positions": [
                0.06889894145072051,
                -2.0119565483057444,
                -1.9684197844241276,
                -1.7687601805516082,
                -1.284003094565335,
                -2.793458582594644
            ]
        },
        {
            "positions": [
                0.04310869394343719,
                -2.040610498569897,
                -1.933808031120615,
                -1.9112836670590365,
                -1.3645668420152015,
                -2.8693743932564106
            ]
        },
        {
            "positions": [
                0.01731844643615399,
                -2.0692644488340495,
                -1.8991962778171025,
                -2.0538071535664644,
                -1.4451305894650681,
                -2.945290203918177
            ]
        },
        {
            "positions": [
                -0.008471801071129326,
                -2.0979183990982015,
                -1.8645845245135904,
                -2.1963306400738927,
                -1.5256943369149343,
                -3.021206014579943
            ]
        },
        {
            "positions": [
                -0.03426204857841258,
                -2.126572349362354,
                -1.829972771210078,
                -2.3388541265813205,
                -1.6062580843648007,
                -3.097121825241709
            ]
        }
    ]
}