{
    "goal": {
        "global_pose": {
            "orientation": {
                "w": -0.4816463035849501,
                "x": 0.5182115481033762,
                "y": 0.4908360881923453,
                "z": -0.5084816262002911
            },
            "position": {
                "x": -0.8240239810943604,
                "y": 0.19912469901144506,
                "z": 0.16403168439865112
            }
        },
        "name": "move_to_storage_D"
    },
    "id": "SBL_move_to_storage_D_52",
    "joint_names": [
        "shoulder_pan_joint",
        "shoulder_lift_joint",
        "elbow_joint",
        "wrist_1_joint",
        "wrist_2_joint",
        "wrist_3_joint"
    ],
    "metrics": {
        "cart_traj_len": 3.9272975815299205,
        "distance_elbow_joint": 4.207414282016001,
        "distance_shoulder_lift_joint": 1.283172538849624,
        "distance_shoulder_pan_joint": 2.8117682801930464,
        "distance_wrist_1_joint": 2.3371716025600615,
        "distance_wrist_2_joint": 0.8680462114353605,
        "distance_wrist_3_joint": 3.3011959811347014,
        "smoothness": 0.1052743614123991,
        "time": 0.3406347,
        "traj_len": 3.8482163265841485,
        "weighted_distance": 4.961489561860795
    },
    "planner": "SBL",
    "start": {
        "state": {
            "elbow_joint": -2.384821988534728,
            "shoulder_lift_joint": -2.2788054721415256,
            "shoulder_pan_joint": -0.1854694642142757,
            "wrist_1_joint": 1.4845938289331202,
            "wrist_2_joint": 0.17898776772866878,
            "wrist_3_joint": 0.037105688729662994
        }
    },
    "waypoints": [
        {
            "positions": [
                -0.1854694642142757,
                -2.2788054721415256,
                -2.384821988534728,
                1.4845938289331202,
                0.17898776772866878,
                0.037105688729662994
            ]
        },
        {
            "positions": [
                -0.13585858436930182,
                -2.2832228168138524,
                -2.2417698622424664,
                1.4339372875207352,
                0.2820870442742185,
                0.07676017468576204
            ]
        },
        {
            "positions": [
                -0.08624770452432792,
                -2.2876401614861797,
                -2.0987177359502054,
                1.3832807461083503,
                0.3851863208197682,
                0.1164146606418611
            ]
        },
        {
            "positions": [
                -0.002448329923900691,
                -2.258633013501595,
                -1.9831859201835254,
                1.3074652391137962,
                0.39920605451966606,
                0.03869397588693067
            ]
        },
        {
            "positions": [
                0.08135104467652654,
                -2.2296258655170105,
                -1.8676541044168455,
                1.2316497321192423,
                0.41322578821956385,
                -0.03902670886799975
            ]
        },
        {
            "positions": [
                0.16515041927695376,
                -2.200618717532426,
                -1.7521222886501655,
                1.1558342251246883,
                0.42724552191946163,
                -0.11674739362293016
            ]
        },
        {
            "positions": [
                0.248949793877381,
                -2.171611569547841,
                -1.6365904728834857,
                1.0800187181301344,
                0.4412652556193595,
                -0.1944680783778606
            ]
        },
        {
            "positions": [
                0.3327491684778082,
                -2.1426044215632563,
                -1.5210586571168054,
                1.0042032111355803,
                0.4552849893192573,
                -0.27218876313279106
            ]
        },
        {
            "positions": [
                0.4165485430782354,
                -2.1135972735786717,
                -1.4055268413501256,
                0.9283877041410262,
                0.4693047230191551,
                -0.3499094478877214
            ]
        },
        {
            "positions": [
                0.5003479176786627,
                -2.084590125594087,
                -1.2899950255834458,
                0.8525721971464723,
                0.48332445671905294,
                -0.4276301326426518
            ]
        },
        {
            "positions": [
                0.5841472922790899,
                -2.0555829776095025,
                -1.1744632098167658,
                0.7767566901519183,
                0.4973441904189507,
                -0.5053508173975823
            ]
        },
        {
            "positions": [
                0.6679466668795172,
                -2.026575829624918,
                -1.0589313940500857,
                0.7009411831573643,
                0.5113639241188486,
                -0.5830715021525127
            ]
        },
        {
            "positions": [
                0.7517460414799444,
                -1.997568681640333,
                -0.9433995782834057,
                0.6251256761628102,
                0.5253836578187464,
                -0.6607921869074431
            ]
        },
        {
            "positions": [
                0.8355454160803716,
                -1.9685615336557485,
                -0.8278677625167259,
                0.5493101691682564,
                0.5394033915186441,
                -0.7385128716623734
            ]
        },
        {
            "positions": [
                0.9193447906807988,
                -1.939554385671164,
                -0.7123359467500461,
                0.4734946621737023,
                0.553423125218542,
                -0.8162335564173039
            ]
        },
        {
            "positions": [
                1.003144165281226,
                -1.910547237686579,
                -0.596804130983366,
                0.3976791551791483,
                0.5674428589184398,
                -0.8939542411722342
            ]
        },
        {
            "positions": [
                1.0869435398816534,
                -1.8815400897019945,
                -0.481272315216686,
                0.32186364818459423,
                0.5814625926183377,
                -0.9716749259271648
            ]
        },
        {
            "positions": [
                1.1707429144820807,
                -1.85253294171741,
                -0.365740499450006,
                0.24604814119004015,
                0.5954823263182354,
                -1.0493956106820954
            ]
        },
        {
            "positions": [
                1.2545422890825078,
                -1.8235257937328253,
                -0.25020868368332616,
                0.1702326341954863,
                0.6095020600181332,
                -1.1271162954370257
            ]
        },
        {
            "positions": [
                1.3383416636829348,
                -1.7945186457482407,
                -0.13467686791664635,
                0.09441712720093243,
                0.6235217937180311,
                -1.204836980191956
            ]
        },
        {
            "positions": [
                1.4221410382833624,
                -1.765511497763656,
                -0.01914505214996609,
                0.018601620206378344,
                0.6375415274179288,
                -1.2825576649468866
            ]
        },
        {
            "positions": [
                1.5059404128837894,
                -1.7365043497790713,
                0.09638676361671372,
                -0.05721388678817574,
                0.6515612611178268,
                -1.360278349701817
            ]
        },
        {
            "positions": [
                1.5897397874842167,
                -1.7074972017944865,
                0.21191857938339398,
                -0.13302939378272982,
                0.6655809948177245,
                -1.4379990344567475
            ]
        },
        {
            "positions": [
                1.673539162084644,
                -1.678490053809902,
                0.3274503951500738,
                -0.20884490077728368,
                0.6796007285176223,
                -1.5157197192116778
            ]
        },
        {
            "positions": [
                1.7573385366850711,
                -1.6494829058253173,
                0.4429822109167536,
                -0.28466040777183754,
                0.6936204622175202,
                -1.5934404039666081
            ]
        },
        {
            "positions": [
                1.8411379112854984,
                -1.6204757578407327,
                0.5585140266834334,
                -0.36047591476639185,
                0.7076401959174179,
                -1.6711610887215387
            ]
        },
        {
            "positions": [
                1.9249372858859255,
                -1.5914686098561481,
                0.6740458424501132,
                -0.4362914217609457,
                0.7216599296173157,
                -1.748881773476469
            ]
        },
        {
            "positions": [
                2.0087366604863526,
                -1.5624614618715635,
                0.789577658216793,
                -0.5121069287554996,
                0.7356796633172136,
                -1.8266024582313993
            ]
        },
        {
            "positions": [
                2.09253603508678,
                -1.5334543138869787,
                0.9051094739834733,
                -0.5879224357500537,
                0.7496993970171114,
                -1.9043231429863297
            ]
        },
        {
            "positions": [
                2.176335409687207,
                -1.504447165902394,
                1.0206412897501531,
                -0.6637379427446075,
                0.7637191307170093,
                -1.98204382774126
            ]
        },
        {
            "positions": [
                2.2601347842876347,
                -1.4754400179178093,
                1.1361731055168334,
                -0.7395534497391618,
                0.777738864416907,
                -2.0597645124961907
            ]
        },
        {
            "positions": [
                2.343934158888062,
                -1.4464328699332247,
                1.2517049212835132,
                -0.8153689567337159,
                0.7917585981168048,
                -2.137485197251121
            ]
        },
        {
            "positions": [
                2.3842719670438774,
                -1.3845570759400798,
                1.3332602601689072,
                -0.810053411463255,
                0.8282265096949798,
                -2.275769076012481
            ]
        },
        {
            "positions": [
                2.4246097751996927,
                -1.3226812819469347,
                1.4148155990543012,
                -0.8047378661927941,
                0.8646944212731547,
                -2.414052954773841
            ]
        },
        {
            "positions": [
                2.4649475833555083,
                -1.2608054879537898,
                1.4963709379396952,
                -0.7994223209223332,
                0.9011623328513296,
                -2.5523368335352012
            ]
        },
        {
            "positions": [
                2.505285391511324,
                -1.1989296939606446,
                1.5779262768250892,
                -0.7941067756518724,
                0.9376302444295045,
                -2.6906207122965613
            ]
        },
        {
            "positions": [
                2.5456231996671397,
                -1.1370538999674997,
                1.6594816157104832,
                -0.7887912303814115,
                0.9740981560076795,
                -2.828904591057922
            ]
        },
        {
            "positions": [
                2.585961007822955,
                -1.0751781059743548,
                1.7410369545958773,
                -0.7834756851109506,
                1.0105660675858543,
                -2.967188469819282
            ]
        },
        {
            "positions": [
                2.6262988159787706,
                -1.0133023119812097,
                1.8225922934812713,
                -0.7781601398404897,
                1.0470339791640293,
                -3.105472348580642
            ]
        }
    ]
}