{
    "goal": {
        "global_pose": {
            "orientation": {
                "w": -0.4816463035849501,
                "x": 0.5182115481033762,
                "y": 0.4908360881923453,
                "z": -0.5084816262002911
            },
            "position": {
                "x": -0.8240239810943604,
                "y": 0.19912469901144506,
                "z": 0.16403168439865112
            }
        },
        "name": "move_to_storage_D"
    },
    "id": "SBL_move_to_storage_D_149",
    "joint_names": [
        "shoulder_pan_joint",
        "shoulder_lift_joint",
        "elbow_joint",
        "wrist_1_joint",
        "wrist_2_joint",
        "wrist_3_joint"
    ],
    "metrics": {
        "cart_traj_len": 3.818557214349335,
        "distance_elbow_joint": 4.2099436002993205,
        "distance_shoulder_lift_joint": 1.2652305778046662,
        "distance_shoulder_pan_joint": 2.8152244816412915,
        "distance_wrist_1_joint": 3.067936542094568,
        "distance_wrist_2_joint": 1.3962527457494156,
        "distance_wrist_3_joint": 3.1730681250409476,
        "smoothness": 0.06978787141917184,
        "time": 0.403376946,
        "traj_len": 3.9909467639433895,
        "weighted_distance": 5.170878224301562
    },
    "planner": "SBL",
    "start": {
        "state": {
            "elbow_joint": -2.384821988534728,
            "shoulder_lift_joint": -2.2788054721415256,
            "shoulder_pan_joint": -0.1854694642142757,
            "wrist_1_joint": 1.4845938289331202,
            "wrist_2_joint": 0.17898776772866878,
            "wrist_3_joint": 0.037105688729662994
        }
    },
    "waypoints": [
        {
            "positions": [
                -0.1854694642142757,
                -2.2788054721415256,
                -2.384821988534728,
                1.4845938289331202,
                0.17898776772866878,
                0.037105688729662994
            ]
        },
        {
            "positions": [
                -0.08577660538580309,
                -2.2369757992457493,
                -2.259852414431875,
                1.3734397350305019,
                0.16840756667883033,
                0.03801322463936802
            ]
        },
        {
            "positions": [
                0.01391625344266953,
                -2.1951461263499725,
                -2.1348828403290225,
                1.2622856411278836,
                0.1578273656289919,
                0.03892076054907306
            ]
        },
        {
            "positions": [
                0.11360911227114215,
                -2.153316453454196,
                -2.0099132662261696,
                1.1511315472252652,
                0.1472471645791535,
                0.039828296458778084
            ]
        },
        {
            "positions": [
                0.21330197109961477,
                -2.11148678055842,
                -1.8849436921233167,
                1.039977453322647,
                0.13666696352931504,
                0.04073583236848311
            ]
        },
        {
            "positions": [
                0.31299482992808736,
                -2.069657107662643,
                -1.759974118020464,
                0.9288233594200286,
                0.1260867624794766,
                0.041643368278188146
            ]
        },
        {
            "positions": [
                0.41268768875656003,
                -2.0278274347668668,
                -1.6350045439176113,
                0.8176692655174103,
                0.11550656142963817,
                0.042550904187893174
            ]
        },
        {
            "positions": [
                0.5123805475850327,
                -1.9859977618710902,
                -1.5100349698147584,
                0.7065151716147919,
                0.10492636037979973,
                0.0434584400975982
            ]
        },
        {
            "positions": [
                0.6120734064135053,
                -1.944168088975314,
                -1.3850653957119057,
                0.5953610777121736,
                0.0943461593299613,
                0.044365976007303236
            ]
        },
        {
            "positions": [
                0.711766265241978,
                -1.9023384160795374,
                -1.2600958216090528,
                0.4842069838095553,
                0.08376595828012286,
                0.04527351191700826
            ]
        },
        {
            "positions": [
                0.8114591240704505,
                -1.8605087431837608,
                -1.1351262475062,
                0.37305288990693697,
                0.07318575723028442,
                0.0461810478267133
            ]
        },
        {
            "positions": [
                0.9111519828989231,
                -1.8186790702879845,
                -1.0101566734033474,
                0.26189879600431865,
                0.06260555618044598,
                0.04708858373641832
            ]
        },
        {
            "positions": [
                1.0108448417273956,
                -1.776849397392208,
                -0.8851870993004944,
                0.15074470210170032,
                0.05202535513060755,
                0.04799611964612335
            ]
        },
        {
            "positions": [
                1.110537700555868,
                -1.7350197244964316,
                -0.7602175251976417,
                0.039590608199082,
                0.041445154080769125,
                0.04890365555582838
            ]
        },
        {
            "positions": [
                1.210230559384341,
                -1.6931900516006548,
                -0.6352479510947888,
                -0.07156348570353632,
                0.030864953030930675,
                0.049811191465533415
            ]
        },
        {
            "positions": [
                1.3099234182128134,
                -1.6513603787048785,
                -0.5102783769919361,
                -0.18271757960615465,
                0.020284751981092225,
                0.05071872737523844
            ]
        },
        {
            "positions": [
                1.4096162770412861,
                -1.6095307058091022,
                -0.3853088028890834,
                -0.29387167350877297,
                0.009704550931253803,
                0.05162626328494347
            ]
        },
        {
            "positions": [
                1.5093091358697588,
                -1.5677010329133254,
                -0.2603392287862305,
                -0.4050257674113913,
                -0.0008756501185846477,
                0.052533799194648505
            ]
        },
        {
            "positions": [
                1.6090019946982315,
                -1.525871360017549,
                -0.13536965468337758,
                -0.5161798613140096,
                -0.01145585116842307,
                0.05344133510435353
            ]
        },
        {
            "positions": [
                1.708694853526704,
                -1.4840416871217728,
                -0.010400080580525106,
                -0.6273339552166277,
                -0.022036052218261493,
                0.05434887101405856
            ]
        },
        {
            "positions": [
                1.8083877123551766,
                -1.442212014225996,
                0.11456949352232781,
                -0.7384880491192463,
                -0.03261625326809994,
                0.055256406923763594
            ]
        },
        {
            "positions": [
                1.9080805711836493,
                -1.4003823413302197,
                0.23953906762518073,
                -0.8496421430218644,
                -0.043196454317938365,
                0.05616394283346862
            ]
        },
        {
            "positions": [
                2.0077734300121217,
                -1.3585526684344433,
                0.3645086417280332,
                -0.9607962369244829,
                -0.053776655367776816,
                0.05707147874317365
            ]
        },
        {
            "positions": [
                2.1074662888405946,
                -1.3167229955386666,
                0.4894782158308866,
                -1.0719503308271014,
                -0.06435685641761527,
                0.057979014652878684
            ]
        },
        {
            "positions": [
                2.207159147669067,
                -1.2748933226428902,
                0.614447789933739,
                -1.1831044247297193,
                -0.07493705746745366,
                0.05888655056258371
            ]
        },
        {
            "positions": [
                2.232017728243064,
                -1.2595216503895943,
                0.6856638971002599,
                -1.1595609959984412,
                -0.007741297434907007,
                -0.12648328844965315
            ]
        },
        {
            "positions": [
                2.256876308817061,
                -1.2441499781362984,
                0.7568800042667807,
                -1.136017567267163,
                0.059454462597639646,
                -0.31185312746189
            ]
        },
        {
            "positions": [
                2.281734889391058,
                -1.2287783058830024,
                0.8280961114333016,
                -1.1124741385358852,
                0.1266502226301863,
                -0.4972229664741269
            ]
        },
        {
            "positions": [
                2.3065934699650548,
                -1.2134066336297065,
                0.8993122185998224,
                -1.088930709804607,
                0.19384598266273295,
                -0.6825928054863637
            ]
        },
        {
            "positions": [
                2.331452050539052,
                -1.1980349613764105,
                0.9705283257663433,
                -1.065387281073329,
                0.2610417426952796,
                -0.8679626444986007
            ]
        },
        {
            "positions": [
                2.356310631113049,
                -1.1826632891231146,
                1.0417444329328642,
                -1.0418438523420508,
                0.32823750272782626,
                -1.0533324835108375
            ]
        },
        {
            "positions": [
                2.381169211687046,
                -1.1672916168698186,
                1.112960540099385,
                -1.0183004236107729,
                0.39543326276037283,
                -1.2387023225230742
            ]
        },
        {
            "positions": [
                2.406027792261043,
                -1.1519199446165227,
                1.1841766472659057,
                -0.9947569948794948,
                0.46262902279291956,
                -1.4240721615353111
            ]
        },
        {
            "positions": [
                2.43088637283504,
                -1.136548272363227,
                1.2553927544324268,
                -0.9712135661482166,
                0.5298247828254661,
                -1.6094420005475483
            ]
        },
        {
            "positions": [
                2.4557449534090368,
                -1.121176600109931,
                1.3266088615989475,
                -0.9476701374169386,
                0.5970205428580129,
                -1.7948118395597852
            ]
        },
        {
            "positions": [
                2.4806035339830337,
                -1.105804927856635,
                1.3978249687654682,
                -0.9241267086856605,
                0.6642163028905594,
                -1.980181678572022
            ]
        },
        {
            "positions": [
                2.505462114557031,
                -1.0904332556033391,
                1.4690410759319894,
                -0.9005832799543825,
                0.7314120629231062,
                -2.165551517584259
            ]
        },
        {
            "positions": [
                2.530320695131028,
                -1.0750615833500432,
                1.5402571830985101,
                -0.8770398512231043,
                0.7986078229556528,
                -2.3509213565964955
            ]
        },
        {
            "positions": [
                2.555179275705025,
                -1.0596899110967473,
                1.6114732902650308,
                -0.8534964224918262,
                0.8658035829881994,
                -2.536291195608732
            ]
        },
        {
            "positions": [
                2.580037856279022,
                -1.0443182388434513,
                1.6826893974315518,
                -0.8299529937605482,
                0.9329993430207459,
                -2.7216610346209693
            ]
        },
        {
            "positions": [
                2.6048964368530187,
                -1.0289465665901554,
                1.7539055045980725,
                -0.8064095650292702,
                1.0001951030532927,
                -2.907030873633206
            ]
        },
        {
            "positions": [
                2.6297550174270157,
                -1.0135748943368594,
                1.8251216117645934,
                -0.7828661362979921,
                1.0673908630858393,
                -3.092400712645443
            ]
        }
    ]
}