{
    "goal": {
        "global_pose": {
            "orientation": {
                "w": -0.00223480608172531,
                "x": 0.0024358444001904467,
                "y": 0.7094548369677653,
                "z": -0.704743149386269
            },
            "position": {
                "x": 0.6205249238014221,
                "y": -0.6371506643295288,
                "z": 0.19426114857196808
            }
        },
        "name": "move_to_magneteinheit_B"
    },
    "id": "SBL_move_to_magneteinheit_B_79",
    "joint_names": [
        "shoulder_pan_joint",
        "shoulder_lift_joint",
        "elbow_joint",
        "wrist_1_joint",
        "wrist_2_joint",
        "wrist_3_joint"
    ],
    "metrics": {
        "cart_traj_len": 3.5503395539151117,
        "distance_elbow_joint": 4.281988426912482,
        "distance_shoulder_lift_joint": 1.0657427199739016,
        "distance_shoulder_pan_joint": 2.6686855375189396,
        "distance_wrist_1_joint": 4.172713256658181,
        "distance_wrist_2_joint": 1.4408537844589442,
        "distance_wrist_3_joint": 1.7703552317823803,
        "smoothness": 0.37482234182178115,
        "time": 0.975059598,
        "traj_len": 3.924326560991685,
        "weighted_distance": 4.9552614927959855
    },
    "planner": "SBL",
    "start": {
        "state": {
            "elbow_joint": 2.6216224122426386,
            "shoulder_lift_joint": -1.4174107377796124,
            "shoulder_pan_joint": 0.7066234856936794,
            "wrist_1_joint": 1.9546482284002225,
            "wrist_2_joint": -0.7096286983471962,
            "wrist_3_joint": 0.005740856962016249
        }
    },
    "waypoints": [
        {
            "positions": [
                0.7066234856936794,
                -1.4174107377796124,
                2.6216224122426386,
                1.9546482284002225,
                -0.7096286983471962,
                0.005740856962016249
            ]
        },
        {
            "positions": [
                0.6818241144946765,
                -1.4694273458961071,
                2.543610092232673,
                1.7590794704410637,
                -0.7018755732957817,
                -0.013902436232316509
            ]
        },
        {
            "positions": [
                0.6570247432956736,
                -1.5214439540126021,
                2.4655977722227083,
                1.5635107124819048,
                -0.6941224482443671,
                -0.03354572942664927
            ]
        },
        {
            "positions": [
                0.6322253720966707,
                -1.573460562129097,
                2.387585452212743,
                1.3679419545227458,
                -0.6863693231929524,
                -0.053189022620982025
            ]
        },
        {
            "positions": [
                0.6074260008976679,
                -1.625477170245592,
                2.309573132202778,
                1.172373196563587,
                -0.6786161981415378,
                -0.07283231581531478
            ]
        },
        {
            "positions": [
                0.582626629698665,
                -1.6774937783620867,
                2.2315608121928125,
                0.9768044386044282,
                -0.6708630730901233,
                -0.09247560900964753
            ]
        },
        {
            "positions": [
                0.5578272584996621,
                -1.7295103864785815,
                2.153548492182847,
                0.7812356806452694,
                -0.6631099480387086,
                -0.1121189022039803
            ]
        },
        {
            "positions": [
                0.5330278873006592,
                -1.7815269945950765,
                2.0755361721728818,
                0.5856669226861104,
                -0.655356822987294,
                -0.13176219539831305
            ]
        },
        {
            "positions": [
                0.5082285161016563,
                -1.8335436027115712,
                1.9975238521629168,
                0.3900981647269516,
                -0.6476036979358795,
                -0.1514054885926458
            ]
        },
        {
            "positions": [
                0.6183133114678743,
                -1.8531621815267285,
                1.847886944594926,
                0.342492350601375,
                -0.6244409717128434,
                -0.18632533874085183
            ]
        },
        {
            "positions": [
                0.7283981068340921,
                -1.8727807603418858,
                1.6982500370269349,
                0.2948865364757985,
                -0.6012782454898072,
                -0.22124518888905784
            ]
        },
        {
            "positions": [
                0.83848290220031,
                -1.892399339157043,
                1.548613129458944,
                0.24728072235022192,
                -0.5781155192667712,
                -0.25616503903726384
            ]
        },
        {
            "positions": [
                0.9485676975665279,
                -1.9120179179722003,
                1.398976221890953,
                0.19967490822464537,
                -0.5549527930437351,
                -0.2910848891854699
            ]
        },
        {
            "positions": [
                1.0586524929327459,
                -1.9316364967873576,
                1.249339314322962,
                0.15206909409906882,
                -0.531790066820699,
                -0.3260047393336759
            ]
        },
        {
            "positions": [
                1.1687372882989637,
                -1.9512550756025147,
                1.0997024067549712,
                0.10446327997349225,
                -0.5086273405976629,
                -0.3609245894818819
            ]
        },
        {
            "positions": [
                1.2788220836651818,
                -1.970873654417672,
                0.9500654991869801,
                0.056857465847915734,
                -0.48546461437462685,
                -0.3958444396300879
            ]
        },
        {
            "positions": [
                1.3889068790313996,
                -1.9904922332328292,
                0.8004285916189893,
                0.00925165172233916,
                -0.46230188815159073,
                -0.43076428977829395
            ]
        },
        {
            "positions": [
                1.4989916743976175,
                -2.0101108120479867,
                0.6507916840509982,
                -0.03835416240323741,
                -0.4391391619285546,
                -0.4656841399265
            ]
        },
        {
            "positions": [
                1.6090764697638353,
                -2.0297293908631437,
                0.5011547764830073,
                -0.08595997652881393,
                -0.41597643570551857,
                -0.5006039900747059
            ]
        },
        {
            "positions": [
                1.7191612651300532,
                -2.0493479696783012,
                0.35151786891501624,
                -0.13356579065439056,
                -0.3928137094824824,
                -0.5355238402229121
            ]
        },
        {
            "positions": [
                1.829246060496271,
                -2.0689665484934583,
                0.20188096134702538,
                -0.18117160477996708,
                -0.36965098325944634,
                -0.5704436903711181
            ]
        },
        {
            "positions": [
                1.9393308558624893,
                -2.0885851273086153,
                0.052244053779034294,
                -0.2287774189055437,
                -0.34648825703641023,
                -0.6053635405193241
            ]
        },
        {
            "positions": [
                2.049415651228707,
                -2.108203706123773,
                -0.09739285378895657,
                -0.2763832330311201,
                -0.3233255308133742,
                -0.64028339066753
            ]
        },
        {
            "positions": [
                2.159500446594925,
                -2.12782228493893,
                -0.24702976135694765,
                -0.32398904715669674,
                -0.30016280459033806,
                -0.6752032408157361
            ]
        },
        {
            "positions": [
                2.269585241961143,
                -2.1474408637540874,
                -0.3966666689249383,
                -0.37159486128227326,
                -0.277000078367302,
                -0.7101230909639421
            ]
        },
        {
            "positions": [
                2.3796700373273607,
                -2.1670594425692444,
                -0.5463035764929294,
                -0.4192006754078499,
                -0.2538373521442659,
                -0.7450429411121482
            ]
        },
        {
            "positions": [
                2.4897548326935786,
                -2.186678021384402,
                -0.6959404840609205,
                -0.4668064895334264,
                -0.23067462592122978,
                -0.7799627912603542
            ]
        },
        {
            "positions": [
                2.599839628059797,
                -2.206296600199559,
                -0.8455773916289115,
                -0.5144123036590029,
                -0.20751189969819367,
                -0.8148826414085601
            ]
        },
        {
            "positions": [
                2.7099244234260147,
                -2.2259151790147165,
                -0.9952142991969022,
                -0.5620181177845794,
                -0.1843491734751576,
                -0.8498024915567661
            ]
        },
        {
            "positions": [
                2.8200092187922325,
                -2.2455337578298735,
                -1.1448512067648933,
                -0.6096239319101561,
                -0.1611864472521215,
                -0.8847223417049722
            ]
        },
        {
            "positions": [
                2.817724532236025,
                -2.264197007416868,
                -1.2061861026287177,
                -0.4620229705005814,
                -0.19441681152675921,
                -0.8404606109941877
            ]
        },
        {
            "positions": [
                2.8154398456798178,
                -2.282860257003862,
                -1.2675209984925422,
                -0.31442200909100676,
                -0.22764717580139696,
                -0.7961988802834032
            ]
        },
        {
            "positions": [
                2.8131551591236104,
                -2.301523506590856,
                -1.3288558943563664,
                -0.16682104768143213,
                -0.2608775400760347,
                -0.7519371495726187
            ]
        },
        {
            "positions": [
                2.810870472567403,
                -2.32018675617785,
                -1.3901907902201909,
                -0.019220086271857423,
                -0.2941079043506724,
                -0.7076754188618342
            ]
        },
        {
            "positions": [
                2.794396295062572,
                -2.3394031350621374,
                -1.4245925615351605,
                0.10349463592743063,
                -0.21384120344307259,
                -0.6274077613527544
            ]
        },
        {
            "positions": [
                2.777922117557741,
                -2.3586195139464246,
                -1.45899433285013,
                0.2262093581267187,
                -0.13357450253547276,
                -0.5471401038436746
            ]
        },
        {
            "positions": [
                2.7614479400529106,
                -2.3778358928307117,
                -1.4933961041650998,
                0.34892408032600675,
                -0.053307801627872964,
                -0.4668724463345949
            ]
        },
        {
            "positions": [
                2.7449737625480797,
                -2.397052271714999,
                -1.5277978754800694,
                0.4716388025252948,
                0.02695889927972689,
                -0.3866047888255151
            ]
        },
        {
            "positions": [
                2.7284995850432487,
                -2.416268650599286,
                -1.562199646795039,
                0.5943535247245828,
                0.10722560018732669,
                -0.30633713131643536
            ]
        },
        {
            "positions": [
                2.71174952717141,
                -2.432989852387843,
                -1.5867412387637398,
                0.695469434652848,
                0.1967647431191567,
                -0.2309604256347215
            ]
        },
        {
            "positions": [
                2.6949994692995705,
                -2.4497110541764,
                -1.6112828307324407,
                0.7965853445811134,
                0.28630388605098667,
                -0.15558371995300763
            ]
        },
        {
            "positions": [
                2.678249411427731,
                -2.466432255964957,
                -1.6358244227011416,
                0.8977012545093788,
                0.3758430289828167,
                -0.08020701427129376
            ]
        },
        {
            "positions": [
                2.661499353555892,
                -2.483153457753514,
                -1.6603660146698425,
                0.998817164437644,
                0.4653821719146467,
                -0.004830308589579864
            ]
        }
    ]
}