{
    "goal": {
        "global_pose": {
            "orientation": {
                "w": 0.7047431468963623,
                "x": -0.7094548344612122,
                "y": 0.0024358443915843964,
                "z": -0.0022348060738295317
            },
            "position": {
                "x": 0.6094750761985779,
                "y": 0.3671506643295288,
                "z": 0.19426114857196808
            }
        },
        "name": "move_to_magneteinheit_A"
    },
    "id": "SBL_move_to_magneteinheit_A_99",
    "joint_names": [
        "shoulder_pan_joint",
        "shoulder_lift_joint",
        "elbow_joint",
        "wrist_1_joint",
        "wrist_2_joint",
        "wrist_3_joint"
    ],
    "metrics": {
        "cart_traj_len": 3.214833374285493,
        "distance_elbow_joint": 3.9163025946026444,
        "distance_shoulder_lift_joint": 0.6083766906174644,
        "distance_shoulder_pan_joint": 2.8597308341479297,
        "distance_wrist_1_joint": 3.4817457057465315,
        "distance_wrist_2_joint": 1.7506088000734505,
        "distance_wrist_3_joint": 1.2052640016080511,
        "smoothness": 0.18699851815468796,
        "time": 0.19583754,
        "traj_len": 3.7177988954213315,
        "weighted_distance": 4.633023973155346
    },
    "planner": "SBL",
    "start": {
        "state": {
            "elbow_joint": -1.9196185241190666,
            "shoulder_lift_joint": -1.2443396400964142,
            "shoulder_pan_joint": 2.6996025414629847,
            "wrist_1_joint": -1.5485510000780065,
            "wrist_2_joint": -1.5709468930060704,
            "wrist_3_joint": 0.4420197071253992
        }
    },
    "waypoints": [
        {
            "positions": [
                2.6996025414629847,
                -1.2443396400964142,
                -1.9196185241190666,
                -1.5485510000780065,
                -1.5709468930060704,
                0.4420197071253992
            ]
        },
        {
            "positions": [
                2.570469372376869,
                -1.231787277575396,
                -1.8897516736447395,
                -1.4631533145916398,
                -1.4623462900504434,
                0.41999125323783104
            ]
        },
        {
            "positions": [
                2.4413362032907537,
                -1.2192349150543775,
                -1.8598848231704121,
                -1.377755629105273,
                -1.3537456870948166,
                0.39796279935026296
            ]
        },
        {
            "positions": [
                2.312203034204638,
                -1.2066825525333593,
                -1.830017972696085,
                -1.2923579436189065,
                -1.2451450841391896,
                0.37593434546269483
            ]
        },
        {
            "positions": [
                2.1830698651185223,
                -1.1941301900123409,
                -1.8001511222217577,
                -1.2069602581325398,
                -1.1365444811835625,
                0.35390589157512675
            ]
        },
        {
            "positions": [
                2.053936696032407,
                -1.1815778274913227,
                -1.7702842717474305,
                -1.121562572646173,
                -1.0279438782279358,
                0.3318774376875586
            ]
        },
        {
            "positions": [
                1.9248035269462913,
                -1.1690254649703045,
                -1.7404174212731032,
                -1.0361648871598064,
                -0.9193432752723087,
                0.3098489837999905
            ]
        },
        {
            "positions": [
                1.7956703578601756,
                -1.156473102449286,
                -1.710550570798776,
                -0.9507672016734398,
                -0.810742672316682,
                0.2878205299124224
            ]
        },
        {
            "positions": [
                1.66653718877406,
                -1.1439207399282678,
                -1.6806837203244487,
                -0.865369516187073,
                -0.7021420693610549,
                0.2657920760248543
            ]
        },
        {
            "positions": [
                1.5374040196879446,
                -1.1313683774072496,
                -1.6508168698501215,
                -0.7799718307007064,
                -0.593541466405428,
                0.24376362213728617
            ]
        },
        {
            "positions": [
                1.4082708506018289,
                -1.1188160148862312,
                -1.6209500193757942,
                -0.6945741452143397,
                -0.48494086344980114,
                0.22173516824971803
            ]
        },
        {
            "positions": [
                1.2791376815157134,
                -1.106263652365213,
                -1.591083168901467,
                -0.6091764597279731,
                -0.37634026049417413,
                0.19970671436214996
            ]
        },
        {
            "positions": [
                1.1500045124295977,
                -1.0937112898441945,
                -1.5612163184271397,
                -0.5237787742416065,
                -0.2677396575385471,
                0.1776782604745818
            ]
        },
        {
            "positions": [
                1.0208713433434822,
                -1.0811589273231763,
                -1.5313494679528126,
                -0.43838108875523973,
                -0.15913905458292044,
                0.15564980658701372
            ]
        },
        {
            "positions": [
                0.9515688223765614,
                -1.0859351612666568,
                -1.348862566189204,
                -0.338095139428257,
                -0.1489014033876411,
                0.18087382720904133
            ]
        },
        {
            "positions": [
                0.8822663014096406,
                -1.0907113952101375,
                -1.1663756644255951,
                -0.23780919010127427,
                -0.13866375219236177,
                0.20609784783106896
            ]
        },
        {
            "positions": [
                0.8129637804427199,
                -1.095487629153618,
                -0.9838887626619864,
                -0.1375232407742915,
                -0.12842610099708243,
                0.2313218684530966
            ]
        },
        {
            "positions": [
                0.7436612594757991,
                -1.1002638630970984,
                -0.8014018608983778,
                -0.03723729144730881,
                -0.1181884498018031,
                0.2565458890751242
            ]
        },
        {
            "positions": [
                0.6743587385088783,
                -1.105040097040579,
                -0.6189149591347691,
                0.06304865787967384,
                -0.10795079860652376,
                0.2817699096971518
            ]
        },
        {
            "positions": [
                0.6050562175419575,
                -1.1098163309840596,
                -0.4364280573711603,
                0.1633346072066567,
                -0.09771314741124441,
                0.3069939303191795
            ]
        },
        {
            "positions": [
                0.5357536965750367,
                -1.11459256492754,
                -0.2539411556075517,
                0.26362055653363936,
                -0.08747549621596508,
                0.3322179509412071
            ]
        },
        {
            "positions": [
                0.466451175608116,
                -1.1193687988710206,
                -0.0714542538439431,
                0.3639065058606221,
                -0.07723784502068574,
                0.3574419715632347
            ]
        },
        {
            "positions": [
                0.3971486546411952,
                -1.124145032814501,
                0.1110326479196655,
                0.46419245518760477,
                -0.06700019382540641,
                0.3826659921852623
            ]
        },
        {
            "positions": [
                0.3278461336742744,
                -1.1289212667579818,
                0.2935195496832743,
                0.5644784045145874,
                -0.056762542630127075,
                0.4078900128072899
            ]
        },
        {
            "positions": [
                0.2585436127073537,
                -1.1336975007014622,
                0.4760064514468829,
                0.6647643538415702,
                -0.04652489143484774,
                0.4331140334293176
            ]
        },
        {
            "positions": [
                0.1892410917404328,
                -1.1384737346449427,
                0.658493353210492,
                0.7650503031685532,
                -0.03628724023956839,
                0.45833805405134526
            ]
        },
        {
            "positions": [
                0.119938570773512,
                -1.1432499685884232,
                0.8409802549741006,
                0.8653362524955357,
                -0.026049589044289057,
                0.48356207467337287
            ]
        },
        {
            "positions": [
                0.05063604980659131,
                -1.148026202531904,
                1.0234671567377092,
                0.9656222018225185,
                -0.015811937849009722,
                0.5087860952954004
            ]
        },
        {
            "positions": [
                -0.018666471160329417,
                -1.1528024364753844,
                1.2059540585013178,
                1.0659081511495012,
                -0.005574286653730401,
                0.5340101159174281
            ]
        },
        {
            "positions": [
                -0.015658247135371638,
                -1.118327136093252,
                1.3227806287708543,
                1.206202467405888,
                -0.03592485620851993,
                0.48647119187708243
            ]
        },
        {
            "positions": [
                -0.012650023110413858,
                -1.0838518357111195,
                1.4396071990403911,
                1.3464967836622748,
                -0.06627542576330947,
                0.4389322678367368
            ]
        },
        {
            "positions": [
                -0.00964179908545608,
                -1.049376535328987,
                1.5564337693099277,
                1.4867910999186615,
                -0.09662599531809898,
                0.3913933437963911
            ]
        },
        {
            "positions": [
                -0.0066335750604983,
                -1.0149012349468547,
                1.6732603395794645,
                1.6270854161750485,
                -0.12697656487288853,
                0.34385441975604547
            ]
        },
        {
            "positions": [
                -0.003625351035540521,
                -0.9804259345647223,
                1.790086909849001,
                1.7673797324314353,
                -0.15732713442767807,
                0.2963154957156998
            ]
        },
        {
            "positions": [
                0.038514882764402486,
                -0.9133672789709368,
                1.8589526300605266,
                1.822651390177132,
                -0.14616601911195692,
                0.19536910520319212
            ]
        },
        {
            "positions": [
                0.08065511656434549,
                -0.8463086233771514,
                1.9278183502720523,
                1.8779230479228284,
                -0.13500490379623575,
                0.09442271469068442
            ]
        },
        {
            "positions": [
                0.1227953503642885,
                -0.779249967783366,
                1.9966840704835778,
                1.933194705668525,
                -0.12384378848051461,
                -0.006523675821823291
            ]
        }
    ]
}