{
    "goal": {
        "global_pose": {
            "orientation": {
                "w": 0.7047431493862688,
                "x": -0.7094548369677653,
                "y": 0.0024358444001904,
                "z": -0.0022348060817251984
            },
            "position": {
                "x": -0.39052492380142206,
                "y": 0.3671506643295288,
                "z": 0.19426114857196808
            }
        },
        "name": "move_to_magneteinheit_D"
    },
    "id": "SBL_move_to_magneteinheit_D_104",
    "joint_names": [
        "shoulder_pan_joint",
        "shoulder_lift_joint",
        "elbow_joint",
        "wrist_1_joint",
        "wrist_2_joint",
        "wrist_3_joint"
    ],
    "metrics": {
        "cart_traj_len": 4.31868591264124,
        "distance_elbow_joint": 4.388400545514376,
        "distance_shoulder_lift_joint": 1.108056393023336,
        "distance_shoulder_pan_joint": 2.9723893707886937,
        "distance_wrist_1_joint": 4.698017437551972,
        "distance_wrist_2_joint": 1.6814282517596308,
        "distance_wrist_3_joint": 2.3761614970773204,
        "smoothness": 0.47372820402567195,
        "time": 0.41859311600000004,
        "traj_len": 4.150235354255868,
        "weighted_distance": 5.325056072867363
    },
    "planner": "SBL",
    "start": {
        "state": {
            "elbow_joint": 0.749534889911806,
            "shoulder_lift_joint": -0.6476975780787326,
            "shoulder_pan_joint": -2.711696901376241,
            "wrist_1_joint": -0.07506478083263063,
            "wrist_2_joint": 0.43296659715538205,
            "wrist_3_joint": -3.14703540197715
        }
    },
    "waypoints": [
        {
            "positions": [
                -2.711696901376241,
                -0.6476975780787326,
                0.749534889911806,
                -0.07506478083263063,
                0.43296659715538205,
                -3.14703540197715
            ]
        },
        {
            "positions": [
                -2.7062113150417164,
                -0.7186236003194546,
                0.8281910298848335,
                0.006832005522680429,
                0.3735204216860877,
                -3.084016586616983
            ]
        },
        {
            "positions": [
                -2.7007257287071917,
                -0.7895496225601767,
                0.9068471698578611,
                0.08872879187799149,
                0.31407424621679336,
                -3.020997771256816
            ]
        },
        {
            "positions": [
                -2.695240142372667,
                -0.8604756448008988,
                0.9855033098308887,
                0.17062557823330254,
                0.25462807074749905,
                -2.9579789558966487
            ]
        },
        {
            "positions": [
                -2.6897545560381424,
                -0.9314016670416208,
                1.0641594498039164,
                0.2525223645886136,
                0.19518189527820468,
                -2.8949601405364818
            ]
        },
        {
            "positions": [
                -2.6842689697036173,
                -1.0023276892823427,
                1.1428155897769439,
                0.33441915094392466,
                0.13573571980891036,
                -2.831941325176315
            ]
        },
        {
            "positions": [
                -2.6787833833690926,
                -1.0732537115230647,
                1.2214717297499715,
                0.4163159372992357,
                0.07628954433961599,
                -2.7689225098161474
            ]
        },
        {
            "positions": [
                -2.673297797034568,
                -1.144179733763787,
                1.3001278697229992,
                0.4982127236545468,
                0.016843368870321618,
                -2.7059036944559804
            ]
        },
        {
            "positions": [
                -2.6678122107000433,
                -1.2151057560045089,
                1.3787840096960267,
                0.5801095100098579,
                -0.04260280659897268,
                -2.6428848790958135
            ]
        },
        {
            "positions": [
                -2.6189959805880596,
                -1.2545814687766441,
                1.3962610246753773,
                0.5981443519588783,
                -0.063754144204137,
                -2.5718861094334744
            ]
        },
        {
            "positions": [
                -2.5077873236951005,
                -1.26279999189749,
                1.2687282063124965,
                0.48917200550116957,
                -0.05681632212796802,
                -2.5432112266570392
            ]
        },
        {
            "positions": [
                -2.396578666802141,
                -1.2710185150183357,
                1.1411953879496157,
                0.3801996590434608,
                -0.04987850005179904,
                -2.514536343880604
            ]
        },
        {
            "positions": [
                -2.285370009909182,
                -1.2792370381391815,
                1.0136625695867352,
                0.27122731258575206,
                -0.042940677975630066,
                -2.485861461104169
            ]
        },
        {
            "positions": [
                -2.1741613530162223,
                -1.2874555612600274,
                0.8861297512238544,
                0.16225496612804335,
                -0.03600285589946109,
                -2.457186578327734
            ]
        },
        {
            "positions": [
                -2.062952696123263,
                -1.2956740843808732,
                0.7585969328609736,
                0.05328261967033465,
                -0.029065033823292112,
                -2.4285116955512986
            ]
        },
        {
            "positions": [
                -1.9517440392303036,
                -1.303892607501719,
                0.631064114498093,
                -0.05568972678737416,
                -0.022127211747123135,
                -2.3998368127748635
            ]
        },
        {
            "positions": [
                -1.8405353823373443,
                -1.3121111306225648,
                0.5035312961352122,
                -0.16466207324508297,
                -0.015189389670954151,
                -2.3711619299984283
            ]
        },
        {
            "positions": [
                -1.729326725444385,
                -1.3203296537434106,
                0.37599847777233153,
                -0.27363441970279156,
                -0.00825156759478518,
                -2.342487047221993
            ]
        },
        {
            "positions": [
                -1.6181180685514256,
                -1.3285481768642564,
                0.24846565940945076,
                -0.3826067661605004,
                -0.0013137455186161967,
                -2.313812164445558
            ]
        },
        {
            "positions": [
                -1.5069094116584665,
                -1.3367666999851022,
                0.12093284104656998,
                -0.49157911261820897,
                0.0056240765575527735,
                -2.2851372816691233
            ]
        },
        {
            "positions": [
                -1.395700754765507,
                -1.344985223105948,
                -0.00659997731631079,
                -0.6005514590759178,
                0.012561898633721758,
                -2.2564623988926877
            ]
        },
        {
            "positions": [
                -1.2844920978725478,
                -1.3532037462267936,
                -0.13413279567919134,
                -0.7095238055336266,
                0.019499720709890728,
                -2.227787516116253
            ]
        },
        {
            "positions": [
                -1.1732834409795885,
                -1.3614222693476394,
                -0.2616656140420721,
                -0.8184961519913352,
                0.026437542786059698,
                -2.199112633339818
            ]
        },
        {
            "positions": [
                -1.062074784086629,
                -1.3696407924684852,
                -0.3891984324049529,
                -0.9274684984490442,
                0.033375364862228696,
                -2.1704377505633827
            ]
        },
        {
            "positions": [
                -0.9508661271936698,
                -1.377859315589331,
                -0.5167312507678337,
                -1.0364408449067528,
                0.040313186938397666,
                -2.1417628677869476
            ]
        },
        {
            "positions": [
                -0.8396574703007105,
                -1.3860778387101769,
                -0.6442640691307142,
                -1.1454131913644614,
                0.047251009014566636,
                -2.1130879850105124
            ]
        },
        {
            "positions": [
                -0.7284488134077511,
                -1.3942963618310227,
                -0.7717968874935948,
                -1.2543855378221702,
                0.054188831090735606,
                -2.0844131022340773
            ]
        },
        {
            "positions": [
                -0.6172401565147916,
                -1.4025148849518685,
                -0.8993297058564758,
                -1.363357884279879,
                0.061126653166904604,
                -2.055738219457642
            ]
        },
        {
            "positions": [
                -0.5060314996218325,
                -1.4107334080727143,
                -1.0268625242193563,
                -1.4723302307375878,
                0.06806447524307357,
                -2.027063336681207
            ]
        },
        {
            "positions": [
                -0.39482284272887336,
                -1.4189519311935601,
                -1.1543953425822373,
                -1.5813025771952962,
                0.07500229731924254,
                -1.9983884539047718
            ]
        },
        {
            "positions": [
                -0.2836141858359138,
                -1.427170454314406,
                -1.2819281609451179,
                -1.690274923653005,
                0.08194011939541151,
                -1.9697135711283367
            ]
        },
        {
            "positions": [
                -0.17240552894295424,
                -1.4353889774352517,
                -1.4094609793079989,
                -1.7992472701107138,
                0.08887794147158051,
                -1.9410386883519015
            ]
        },
        {
            "positions": [
                -0.061196872049995216,
                -1.4436075005560975,
                -1.5369937976708794,
                -1.9082196165684226,
                0.09581576354774948,
                -1.9123638055754664
            ]
        },
        {
            "positions": [
                -0.04700708692531908,
                -1.4716541346462078,
                -1.629342841283034,
                -2.042250748555324,
                0.14927564854216968,
                -1.9857884002525745
            ]
        },
        {
            "positions": [
                -0.03281730180064295,
                -1.4997007687363177,
                -1.7216918848951888,
                -2.1762818805422253,
                0.2027355335365899,
                -2.0592129949296827
            ]
        },
        {
            "positions": [
                -0.01862751667596682,
                -1.527747402826428,
                -1.8140409285073433,
                -2.310313012529127,
                0.25619541853101013,
                -2.132637589606791
            ]
        },
        {
            "positions": [
                -0.004437731551290687,
                -1.555794036916538,
                -1.9063899721194981,
                -2.4443441445160285,
                0.3096553035254303,
                -2.2060621842838986
            ]
        },
        {
            "positions": [
                0.009752053573385447,
                -1.5838406710066482,
                -1.9987390157316527,
                -2.5783752765029297,
                0.3631151885198506,
                -2.2794867789610067
            ]
        },
        {
            "positions": [
                0.023941838698061574,
                -1.6118873050967581,
                -2.0910880593438073,
                -2.712406408489831,
                0.4165750735142707,
                -2.352911373638115
            ]
        },
        {
            "positions": [
                0.038131623822737715,
                -1.6399339391868684,
                -2.183437102955962,
                -2.8464375404767326,
                0.4700349585086909,
                -2.426335968315223
            ]
        },
        {
            "positions": [
                0.001038149557784973,
                -1.6592372778394018,
                -2.2104331501425394,
                -2.7497331384225903,
                0.36154855722747703,
                -2.530922257971203
            ]
        },
        {
            "positions": [
                -0.03605532470716777,
                -1.6785406164919352,
                -2.237429197329117,
                -2.6530287363684484,
                0.25306215594626313,
                -2.635508547627183
            ]
        },
        {
            "positions": [
                -0.07314879897212051,
                -1.6978439551444686,
                -2.2644252445156945,
                -2.556324334314306,
                0.14457575466504918,
                -2.740094837283163
            ]
        },
        {
            "positions": [
                -0.11024227323707325,
                -1.7171472937970018,
                -2.291421291702272,
                -2.4596199322601637,
                0.03608935338383529,
                -2.844681126939143
            ]
        },
        {
            "positions": [
                -0.147335747502026,
                -1.7364506324495352,
                -2.3184173388888496,
                -2.362915530206022,
                -0.07239704789737866,
                -2.949267416595123
            ]
        },
        {
            "positions": [
                -0.18442922176697873,
                -1.7557539711020687,
                -2.345413386075427,
                -2.2662111281518795,
                -0.18088344917859256,
                -3.053853706251103
            ]
        }
    ]
}