{
    "goal": {
        "global_pose": {
            "orientation": {
                "w": 0.7031023480610252,
                "x": -0.7110244013736278,
                "y": 0.0077485991402295624,
                "z": 0.005598929693374583
            },
            "position": {
                "x": -0.8841497679147869,
                "y": 0.44412534475326537,
                "z": 0.3711530566215515
            }
        },
        "name": "move_to_auspresseinheit_D"
    },
    "id": "SBL_move_to_auspresseinheit_D_129",
    "joint_names": [
        "shoulder_pan_joint",
        "shoulder_lift_joint",
        "elbow_joint",
        "wrist_1_joint",
        "wrist_2_joint",
        "wrist_3_joint"
    ],
    "metrics": {
        "cart_traj_len": 0.34223727121408676,
        "distance_elbow_joint": 0.6262733994299043,
        "distance_shoulder_lift_joint": 0.1152169783171364,
        "distance_shoulder_pan_joint": 0.13425505704285692,
        "distance_wrist_1_joint": 0.4997372432887781,
        "distance_wrist_2_joint": 1.4339030471545444,
        "distance_wrist_3_joint": 0.024247098340375306,
        "smoothness": 9.868649123407766e-16,
        "time": 0.255999544,
        "traj_len": 1.6833397825672616,
        "weighted_distance": 2.1944856597156583
    },
    "planner": "SBL",
    "start": {
        "state": {
            "elbow_joint": -1.8275523626775212,
            "shoulder_lift_joint": -2.126789852344167,
            "shoulder_pan_joint": -0.03513704404078235,
            "wrist_1_joint": -2.347782403156801,
            "wrist_2_joint": -1.6058999987535132,
            "wrist_3_joint": -3.0880379163319196
        }
    },
    "waypoints": [
        {
            "positions": [
                -0.03513704404078235,
                -2.126789852344167,
                -1.8275523626775212,
                -2.347782403156801,
                -1.6058999987535132,
                -3.0880379163319196
            ]
        },
        {
            "positions": [
                -0.05191892617113947,
                -2.141191974633809,
                -1.7492681877487832,
                -2.410249558567898,
                -1.4266621178591952,
                -3.0910688036244665
            ]
        },
        {
            "positions": [
                -0.06870080830149658,
                -2.155594096923451,
                -1.670984012820045,
                -2.472716713978995,
                -1.2474242369648771,
                -3.0940996909170133
            ]
        },
        {
            "positions": [
                -0.08548269043185369,
                -2.169996219213093,
                -1.592699837891307,
                -2.5351838693900928,
                -1.0681863560705591,
                -3.09713057820956
            ]
        },
        {
            "positions": [
                -0.1022645725622108,
                -2.1843983415027353,
                -1.514415662962569,
                -2.59765102480119,
                -0.888948475176241,
                -3.100161465502107
            ]
        },
        {
            "positions": [
                -0.11904645469256792,
                -2.1988004637923773,
                -1.436131488033831,
                -2.660118180212287,
                -0.709710594281923,
                -3.1031923527946543
            ]
        },
        {
            "positions": [
                -0.13582833682292506,
                -2.2132025860820193,
                -1.357847313105093,
                -2.7225853356233847,
                -0.5304727133876048,
                -3.106223240087201
            ]
        },
        {
            "positions": [
                -0.15261021895328217,
                -2.2276047083716612,
                -1.2795631381763548,
                -2.785052491034482,
                -0.3512348324932868,
                -3.109254127379748
            ]
        },
        {
            "positions": [
                -0.16939210108363928,
                -2.2420068306613032,
                -1.2012789632476168,
                -2.847519646445579,
                -0.17199695159896872,
                -3.112285014672295
            ]
        }
    ]
}