{
    "goal": {
        "global_pose": {
            "orientation": {
                "w": 0.5084816262002911,
                "x": -0.4908360881923452,
                "y": 0.5182115481033761,
                "z": -0.48164630358495003
            },
            "position": {
                "x": 0.5540239810943604,
                "y": -0.46912469901144505,
                "z": 0.16403168439865112
            }
        },
        "name": "move_to_storage_B"
    },
    "id": "SBL_move_to_storage_B_132",
    "joint_names": [
        "shoulder_pan_joint",
        "shoulder_lift_joint",
        "elbow_joint",
        "wrist_1_joint",
        "wrist_2_joint",
        "wrist_3_joint"
    ],
    "metrics": {
        "cart_traj_len": 4.876919513115088,
        "distance_elbow_joint": 4.76702407602509,
        "distance_shoulder_lift_joint": 1.3572849519148134,
        "distance_shoulder_pan_joint": 4.873647181032744,
        "distance_wrist_1_joint": 2.892583263441299,
        "distance_wrist_2_joint": 1.7014610710152944,
        "distance_wrist_3_joint": 3.7844259931071256,
        "smoothness": 0.43115270590596366,
        "time": 0.7024416330000001,
        "traj_len": 4.4018662560937,
        "weighted_distance": 5.615988146106366
    },
    "planner": "SBL",
    "start": {
        "state": {
            "elbow_joint": -1.6666013991110213,
            "shoulder_lift_joint": -2.479295265494141,
            "shoulder_pan_joint": 2.6606783912885628,
            "wrist_1_joint": 0.9897123657714939,
            "wrist_2_joint": 0.474351758749468,
            "wrist_3_joint": 0.013243222496468381
        }
    },
    "waypoints": [
        {
            "positions": [
                2.6606783912885628,
                -2.479295265494141,
                -1.6666013991110213,
                0.9897123657714939,
                0.474351758749468,
                0.013243222496468381
            ]
        },
        {
            "positions": [
                2.722747206954433,
                -2.411993247073916,
                -1.7264762138992056,
                1.0466281988213748,
                0.37985844914190675,
                -0.02115147351088388
            ]
        },
        {
            "positions": [
                2.7848160226203036,
                -2.3446912286536907,
                -1.7863510286873898,
                1.1035440318712557,
                0.2853651395343455,
                -0.05554616951823614
            ]
        },
        {
            "positions": [
                2.846884838286174,
                -2.2773892102334656,
                -1.846225843475574,
                1.1604598649211366,
                0.1908718299267842,
                -0.0899408655255884
            ]
        },
        {
            "positions": [
                2.9089536539520444,
                -2.2100871918132405,
                -1.9061006582637583,
                1.2173756979710175,
                0.09637852031922295,
                -0.12433556153294066
            ]
        },
        {
            "positions": [
                2.971022469617915,
                -2.1427851733930154,
                -1.9659754730519428,
                1.2742915310208986,
                0.0018852107116616446,
                -0.15873025754029293
            ]
        },
        {
            "positions": [
                3.0330912852837852,
                -2.0754831549727903,
                -2.025850287840127,
                1.3312073640707793,
                -0.0926080988958996,
                -0.19312495354764517
            ]
        },
        {
            "positions": [
                3.0951601009496557,
                -2.0081811365525652,
                -2.0857251026283112,
                1.3881231971206605,
                -0.1871014085034609,
                -0.22751964955499746
            ]
        },
        {
            "positions": [
                3.157228916615526,
                -1.9408791181323404,
                -2.1455999174164955,
                1.4450390301705414,
                -0.2815947181110221,
                -0.2619143455623497
            ]
        },
        {
            "positions": [
                3.2192977322813965,
                -1.8735770997121153,
                -2.2054747322046797,
                1.5019548632204223,
                -0.3760880277185834,
                -0.296309041569702
            ]
        },
        {
            "positions": [
                3.1140531508170084,
                -1.8552462024893643,
                -2.102349104328303,
                1.4438977713669499,
                -0.3553314110223092,
                -0.21155602378821528
            ]
        },
        {
            "positions": [
                3.0088085693526203,
                -1.8369153052666134,
                -1.999223476451927,
                1.3858406795134772,
                -0.334574794326035,
                -0.12680300600672856
            ]
        },
        {
            "positions": [
                2.9035639878882322,
                -1.8185844080438625,
                -1.8960978485755504,
                1.3277835876600048,
                -0.3138181776297608,
                -0.04204998822524186
            ]
        },
        {
            "positions": [
                2.798319406423844,
                -1.8002535108211115,
                -1.792972220699174,
                1.2697264958065324,
                -0.29306156093348656,
                0.04270302955624489
            ]
        },
        {
            "positions": [
                2.6930748249594565,
                -1.7819226135983608,
                -1.6898465928227977,
                1.21166940395306,
                -0.27230494423721235,
                0.12745604733773158
            ]
        },
        {
            "positions": [
                2.5878302434950684,
                -1.7635917163756099,
                -1.5867209649464213,
                1.1536123120995874,
                -0.25154832754093814,
                0.21220906511921828
            ]
        },
        {
            "positions": [
                2.4825856620306803,
                -1.745260819152859,
                -1.483595337070045,
                1.095555220246115,
                -0.2307917108446639,
                0.2969620829007051
            ]
        },
        {
            "positions": [
                2.3773410805662922,
                -1.726929921930108,
                -1.3804697091936684,
                1.0374981283926425,
                -0.2100350941483897,
                0.3817151006821918
            ]
        },
        {
            "positions": [
                2.272096499101904,
                -1.708599024707357,
                -1.2773440813172923,
                0.97944103653917,
                -0.1892784774521155,
                0.46646811846367847
            ]
        },
        {
            "positions": [
                2.1668519176375165,
                -1.690268127484606,
                -1.1742184534409157,
                0.9213839446856976,
                -0.1685218607558413,
                0.5512211362451651
            ]
        },
        {
            "positions": [
                2.061607336173128,
                -1.6719372302618551,
                -1.0710928255645393,
                0.8633268528322251,
                -0.14776524405956706,
                0.6359741540266519
            ]
        },
        {
            "positions": [
                1.95636275470874,
                -1.6536063330391042,
                -0.967967197688163,
                0.8052697609787527,
                -0.12700862736329288,
                0.7207271718081385
            ]
        },
        {
            "positions": [
                1.851118173244352,
                -1.6352754358163533,
                -0.8648415698117866,
                0.7472126691252802,
                -0.10625201066701867,
                0.8054801895896253
            ]
        },
        {
            "positions": [
                1.745873591779964,
                -1.6169445385936023,
                -0.76171594193541,
                0.6891555772718077,
                -0.0854953939707444,
                0.8902332073711121
            ]
        },
        {
            "positions": [
                1.640629010315576,
                -1.5986136413708514,
                -0.6585903140590339,
                0.6310984854183352,
                -0.06473877727447025,
                0.9749862251525987
            ]
        },
        {
            "positions": [
                1.535384428851188,
                -1.5802827441481004,
                -0.5554646861826573,
                0.5730413935648627,
                -0.04398216057819598,
                1.0597392429340855
            ]
        },
        {
            "positions": [
                1.4301398473868001,
                -1.5619518469253497,
                -0.45233905830628096,
                0.5149843017113903,
                -0.02322554388192183,
                1.144492260715572
            ]
        },
        {
            "positions": [
                1.3248952659224118,
                -1.5436209497025988,
                -0.3492134304299046,
                0.4569272098579178,
                -0.002468927185647618,
                1.229245278497059
            ]
        },
        {
            "positions": [
                1.2196506844580237,
                -1.5252900524798478,
                -0.24608780255352802,
                0.3988701180044454,
                0.018287689510626648,
                1.3139982962785455
            ]
        },
        {
            "positions": [
                1.114406102993636,
                -1.506959155257097,
                -0.14296217467715167,
                0.340813026150973,
                0.0390443062069008,
                1.3987513140600323
            ]
        },
        {
            "positions": [
                1.0091615215292475,
                -1.488628258034346,
                -0.03983654680077553,
                0.28275593429750034,
                0.05980092290317507,
                1.4835043318415189
            ]
        },
        {
            "positions": [
                0.9039169400648595,
                -1.470297360811595,
                0.06328908107560105,
                0.22469884244402794,
                0.08055753959944928,
                1.5682573496230057
            ]
        },
        {
            "positions": [
                0.7986723586004714,
                -1.451966463588844,
                0.16641470895197763,
                0.1666417505905553,
                0.10131415629572349,
                1.6530103674044925
            ]
        },
        {
            "positions": [
                0.6934277771360837,
                -1.4336355663660934,
                0.26954033682835377,
                0.10858465873708312,
                0.12207077299199764,
                1.737763385185979
            ]
        },
        {
            "positions": [
                0.5881831956716956,
                -1.4153046691433424,
                0.37266596470473035,
                0.050527566883610486,
                0.1428273896882719,
                1.8225164029674656
            ]
        },
        {
            "positions": [
                0.48293861420730755,
                -1.3969737719205915,
                0.4757915925811065,
                -0.007529524969861923,
                0.16358400638454607,
                1.9072694207489527
            ]
        },
        {
            "positions": [
                0.37769403274291946,
                -1.3786428746978405,
                0.5789172204574831,
                -0.06558661682333455,
                0.18434062308082033,
                1.9920224385304393
            ]
        },
        {
            "positions": [
                0.2724494512785314,
                -1.3603119774750896,
                0.6820428483338596,
                -0.12364370867680696,
                0.2050972397770946,
                2.0767754563119265
            ]
        },
        {
            "positions": [
                0.16720486981414373,
                -1.3419810802523386,
                0.7851684762102358,
                -0.18170080053027915,
                0.22585385647336875,
                2.1615284740934126
            ]
        },
        {
            "positions": [
                0.06196028834975564,
                -1.3236501830295877,
                0.8882941040866119,
                -0.23975789238375178,
                0.2466104731696429,
                2.2462814918748997
            ]
        },
        {
            "positions": [
                -0.043284293114632444,
                -1.3053192858068368,
                0.9914197319629885,
                -0.2978149842372242,
                0.2673670898659172,
                2.3310345096563863
            ]
        },
        {
            "positions": [
                -0.14852887457902053,
                -1.2869883885840858,
                1.094545359839365,
                -0.3558720760906968,
                0.28812370656219144,
                2.4157875274378733
            ]
        },
        {
            "positions": [
                -0.2537734560434086,
                -1.2686574913613349,
                1.1976709877157417,
                -0.41392916794416923,
                0.3088803232584656,
                2.50054054521936
            ]
        },
        {
            "positions": [
                -0.35901803750779626,
                -1.250326594138584,
                1.3007966155921178,
                -0.47198625979764164,
                0.32963693995473975,
                2.5852935630008465
            ]
        },
        {
            "positions": [
                -0.4642626189721848,
                -1.231995696915833,
                1.403922243468494,
                -0.530043351651114,
                0.350393556651014,
                2.670046580782333
            ]
        },
        {
            "positions": [
                -0.5695072004365729,
                -1.213664799693082,
                1.5070478713448705,
                -0.5881004435045867,
                0.37115017334728817,
                2.75479959856382
            ]
        },
        {
            "positions": [
                -0.674751781900961,
                -1.1953339024703311,
                1.610173499221247,
                -0.6461575353580593,
                0.39190679004356244,
                2.8395526163453066
            ]
        },
        {
            "positions": [
                -0.779996363365349,
                -1.1770030052475802,
                1.7132991270976237,
                -0.7042146272115315,
                0.4126634067398367,
                2.9243056341267932
            ]
        },
        {
            "positions": [
                -0.8852409448297367,
                -1.1586721080248295,
                1.8164247549739994,
                -0.7622717190650037,
                0.43342002343611086,
                3.00905865190828
            ]
        },
        {
            "positions": [
                -0.9904855262941243,
                -1.1403412108020785,
                1.9195503828503764,
                -0.8203288109184763,
                0.454176640132385,
                3.093811669689767
            ]
        },
        {
            "positions": [
                -1.0957301077585129,
                -1.1220103135793276,
                2.0226760107267525,
                -0.8783859027719488,
                0.4749332568286592,
                3.1785646874712534
            ]
        }
    ]
}