{
    "goal": {
        "global_pose": {
            "orientation": {
                "w": 0.7031023480610252,
                "x": -0.7110244013736278,
                "y": 0.0077485991402295624,
                "z": 0.005598929693374583
            },
            "position": {
                "x": -0.8841497679147869,
                "y": 0.44412534475326537,
                "z": 0.3711530566215515
            }
        },
        "name": "move_to_auspresseinheit_D"
    },
    "id": "SBL_move_to_auspresseinheit_D_108",
    "joint_names": [
        "shoulder_pan_joint",
        "shoulder_lift_joint",
        "elbow_joint",
        "wrist_1_joint",
        "wrist_2_joint",
        "wrist_3_joint"
    ],
    "metrics": {
        "cart_traj_len": 0.3434216435634023,
        "distance_elbow_joint": 0.6434873376812966,
        "distance_shoulder_lift_joint": 0.12385755928864617,
        "distance_shoulder_pan_joint": 0.13355521231324818,
        "distance_wrist_1_joint": 0.5451349138034707,
        "distance_wrist_2_joint": 1.4404715587688164,
        "distance_wrist_3_joint": 0.014373057015677926,
        "smoothness": 0.0,
        "time": 0.171659375,
        "traj_len": 1.703196887876195,
        "weighted_distance": 2.217032301405372
    },
    "planner": "SBL",
    "start": {
        "state": {
            "elbow_joint": -1.8275523626775212,
            "shoulder_lift_joint": -2.126789852344167,
            "shoulder_pan_joint": -0.03513704404078235,
            "wrist_1_joint": -2.347782403156801,
            "wrist_2_joint": -1.6058999987535132,
            "wrist_3_joint": -3.0880379163319196
        }
    },
    "waypoints": [
        {
            "positions": [
                -0.03513704404078235,
                -2.126789852344167,
                -1.8275523626775212,
                -2.347782403156801,
                -1.6058999987535132,
                -3.0880379163319196
            ]
        },
        {
            "positions": [
                -0.05183144557993837,
                -2.1422720472552474,
                -1.7471164454673591,
                -2.4159242673822345,
                -1.4258410539074111,
                -3.08624128420496
            ]
        },
        {
            "positions": [
                -0.0685258471190944,
                -2.1577542421663285,
                -1.666680528257197,
                -2.4840661316076686,
                -1.245782109061309,
                -3.084444652078
            ]
        },
        {
            "positions": [
                -0.08522024865825042,
                -2.173236437077409,
                -1.586244611047035,
                -2.5522079958331023,
                -1.065723164215207,
                -3.08264801995104
            ]
        },
        {
            "positions": [
                -0.10191465019740645,
                -2.1887186319884897,
                -1.5058086938368729,
                -2.6203498600585364,
                -0.885664219369105,
                -3.0808513878240804
            ]
        },
        {
            "positions": [
                -0.11860905173656247,
                -2.2042008268995708,
                -1.4253727766267108,
                -2.68849172428397,
                -0.7056052745230029,
                -3.079054755697121
            ]
        },
        {
            "positions": [
                -0.1353034532757185,
                -2.2196830218106514,
                -1.3449368594165487,
                -2.7566335885094038,
                -0.525546329676901,
                -3.0772581235701613
            ]
        },
        {
            "positions": [
                -0.15199785481487452,
                -2.2351652167217324,
                -1.2645009422063866,
                -2.824775452734838,
                -0.3454873848307989,
                -3.0754614914432015
            ]
        },
        {
            "positions": [
                -0.16869225635403054,
                -2.250647411632813,
                -1.1840650249962246,
                -2.8929173169602715,
                -0.1654284399846968,
                -3.0736648593162417
            ]
        }
    ]
}