{
    "goal": {
        "global_pose": {
            "orientation": {
                "w": -0.4816463035849501,
                "x": 0.5182115481033762,
                "y": 0.4908360881923453,
                "z": -0.5084816262002911
            },
            "position": {
                "x": -0.8240239810943604,
                "y": 0.19912469901144506,
                "z": 0.16403168439865112
            }
        },
        "name": "move_to_storage_D"
    },
    "id": "SBL_move_to_storage_D_68",
    "joint_names": [
        "shoulder_pan_joint",
        "shoulder_lift_joint",
        "elbow_joint",
        "wrist_1_joint",
        "wrist_2_joint",
        "wrist_3_joint"
    ],
    "metrics": {
        "cart_traj_len": 4.440190810825995,
        "distance_elbow_joint": 4.209441956483699,
        "distance_shoulder_lift_joint": 1.2646035390045207,
        "distance_shoulder_pan_joint": 2.8118981993415124,
        "distance_wrist_1_joint": 2.264475994326543,
        "distance_wrist_2_joint": 0.8703195192807692,
        "distance_wrist_3_joint": 3.3474586120155485,
        "smoothness": 0.011951658450535382,
        "time": 0.210713194,
        "traj_len": 3.84294129807529,
        "weighted_distance": 4.95962806650771
    },
    "planner": "SBL",
    "start": {
        "state": {
            "elbow_joint": -2.384821988534728,
            "shoulder_lift_joint": -2.2788054721415256,
            "shoulder_pan_joint": -0.1854694642142757,
            "wrist_1_joint": 1.4845938289331202,
            "wrist_2_joint": 0.17898776772866878,
            "wrist_3_joint": 0.037105688729662994
        }
    },
    "waypoints": [
        {
            "positions": [
                -0.1854694642142757,
                -2.2788054721415256,
                -2.384821988534728,
                1.4845938289331202,
                0.17898776772866878,
                0.037105688729662994
            ]
        },
        {
            "positions": [
                -0.05575229195967166,
                -2.2324926807634804,
                -2.3124540785080456,
                1.403474947642002,
                0.22138213358073056,
                0.042747577211922835
            ]
        },
        {
            "positions": [
                0.0739648802949324,
                -2.186179889385435,
                -2.2400861684813633,
                1.322356066350884,
                0.2637764994327923,
                0.048389465694182676
            ]
        },
        {
            "positions": [
                0.2036820525495364,
                -2.13986709800739,
                -2.1677182584546806,
                1.2412371850597659,
                0.30617086528485404,
                0.05403135417644252
            ]
        },
        {
            "positions": [
                0.3333992248041405,
                -2.0935543066293447,
                -2.0953503484279983,
                1.1601183037686478,
                0.34856523113691584,
                0.05967324265870236
            ]
        },
        {
            "positions": [
                0.4631163970587445,
                -2.047241515251299,
                -2.022982438401316,
                1.0789994224775297,
                0.39095959698897764,
                0.0653151311409622
            ]
        },
        {
            "positions": [
                0.5928335693133485,
                -2.000928723873254,
                -1.9506145283746337,
                0.9978805411864116,
                0.43335396284103933,
                0.07095701962322204
            ]
        },
        {
            "positions": [
                0.7225507415679526,
                -1.9546159324952086,
                -1.8782466183479514,
                0.9167616598952933,
                0.47574832869310113,
                0.07659890810548188
            ]
        },
        {
            "positions": [
                0.8522679138225567,
                -1.9083031411171634,
                -1.805878708321269,
                0.8356427786041752,
                0.5181426945451629,
                0.08224079658774172
            ]
        },
        {
            "positions": [
                0.9819850860771607,
                -1.8619903497391181,
                -1.7335107982945865,
                0.7545238973130571,
                0.5605370603972247,
                0.08788268507000156
            ]
        },
        {
            "positions": [
                1.1117022583317646,
                -1.815677558361073,
                -1.661142888267904,
                0.673405016021939,
                0.6029314262492865,
                0.0935245735522614
            ]
        },
        {
            "positions": [
                1.2414194305863688,
                -1.7693647669830277,
                -1.5887749782412217,
                0.5922861347308208,
                0.6453257921013483,
                0.09916646203452126
            ]
        },
        {
            "positions": [
                1.3711366028409726,
                -1.7230519756049825,
                -1.5164070682145394,
                0.5111672534397028,
                0.6877201579534099,
                0.10480835051678108
            ]
        },
        {
            "positions": [
                1.5008537750955768,
                -1.676739184226937,
                -1.444039158187857,
                0.4300483721485846,
                0.7301145238054717,
                0.11045023899904093
            ]
        },
        {
            "positions": [
                1.6305709473501808,
                -1.6304263928488918,
                -1.3716712481611746,
                0.3489294908574665,
                0.7725088896575335,
                0.11609212748130077
            ]
        },
        {
            "positions": [
                1.760288119604785,
                -1.5841136014708463,
                -1.2993033381344923,
                0.2678106095663484,
                0.8149032555095953,
                0.12173401596356061
            ]
        },
        {
            "positions": [
                1.890005291859389,
                -1.5378008100928011,
                -1.22693542810781,
                0.18669172827523028,
                0.857297621361657,
                0.12737590444582045
            ]
        },
        {
            "positions": [
                2.019722464113993,
                -1.491488018714756,
                -1.1545675180811275,
                0.10557284698411218,
                0.8996919872137188,
                0.1330177929280803
            ]
        },
        {
            "positions": [
                2.149439636368597,
                -1.4451752273367107,
                -1.0821996080544452,
                0.02445396569299413,
                0.9420863530657806,
                0.13865968141034013
            ]
        },
        {
            "positions": [
                2.1721534029761513,
                -1.424652689517677,
                -0.9437796282447587,
                -0.013847754834930469,
                0.9471921118250024,
                -0.015907205224653748
            ]
        },
        {
            "positions": [
                2.1948671695837056,
                -1.4041301516986435,
                -0.8053596484350722,
                -0.052149475362855066,
                0.9522978705842241,
                -0.17047409185964763
            ]
        },
        {
            "positions": [
                2.21758093619126,
                -1.3836076138796098,
                -0.6669396686253859,
                -0.09045119589077966,
                0.9574036293434459,
                -0.32504097849464153
            ]
        },
        {
            "positions": [
                2.2402947027988143,
                -1.3630850760605762,
                -0.5285196888156994,
                -0.12875291641870426,
                0.9625093881026677,
                -0.4796078651296354
            ]
        },
        {
            "positions": [
                2.263008469406368,
                -1.3425625382415427,
                -0.390099709006013,
                -0.16705463694662884,
                0.9676151468618895,
                -0.6341747517646293
            ]
        },
        {
            "positions": [
                2.2857222360139224,
                -1.322040000422509,
                -0.25167972919632653,
                -0.20535635747455344,
                0.9727209056211112,
                -0.7887416383996232
            ]
        },
        {
            "positions": [
                2.3084360026214767,
                -1.3015174626034753,
                -0.11325974938664007,
                -0.24365807800247802,
                0.977826664380333,
                -0.943308525034617
            ]
        },
        {
            "positions": [
                2.331149769229031,
                -1.2809949247844419,
                0.02516023042304627,
                -0.28195979853040265,
                0.9829324231395549,
                -1.097875411669611
            ]
        },
        {
            "positions": [
                2.3538635358365854,
                -1.2604723869654082,
                0.16358021023273284,
                -0.3202615190583272,
                0.9880381818987766,
                -1.2524422983046049
            ]
        },
        {
            "positions": [
                2.3765773024441397,
                -1.2399498491463745,
                0.3020001900424192,
                -0.3585632395862518,
                0.9931439406579984,
                -1.4070091849395987
            ]
        },
        {
            "positions": [
                2.399291069051694,
                -1.219427311327341,
                0.44042016985210575,
                -0.3968649601141765,
                0.9982496994172202,
                -1.5615760715745926
            ]
        },
        {
            "positions": [
                2.4220048356592483,
                -1.1989047735083074,
                0.5788401496617921,
                -0.435166680642101,
                1.003355458176442,
                -1.7161429582095864
            ]
        },
        {
            "positions": [
                2.4447186022668026,
                -1.1783822356892737,
                0.7172601294714787,
                -0.47346840117002564,
                1.0084612169356637,
                -1.8707098448445802
            ]
        },
        {
            "positions": [
                2.467432368874357,
                -1.1578596978702402,
                0.855680109281165,
                -0.5117701216979502,
                1.0135669756948855,
                -2.025276731479574
            ]
        },
        {
            "positions": [
                2.490146135481911,
                -1.1373371600512066,
                0.9941000890908516,
                -0.5500718422258748,
                1.0186727344541073,
                -2.1798436181145684
            ]
        },
        {
            "positions": [
                2.512859902089465,
                -1.116814622232173,
                1.1325200689005377,
                -0.5883735627537994,
                1.0237784932133291,
                -2.334410504749562
            ]
        },
        {
            "positions": [
                2.5355736686970194,
                -1.0962920844131394,
                1.2709400487102243,
                -0.626675283281724,
                1.028884251972551,
                -2.488977391384556
            ]
        },
        {
            "positions": [
                2.5582874353045737,
                -1.0757695465941057,
                1.4093600285199108,
                -0.6649770038096485,
                1.0339900107317725,
                -2.6435442780195495
            ]
        },
        {
            "positions": [
                2.581001201912128,
                -1.055247008775072,
                1.5477800083295974,
                -0.7032787243375733,
                1.0390957694909944,
                -2.798111164654544
            ]
        },
        {
            "positions": [
                2.6037149685196823,
                -1.0347244709560386,
                1.6861999881392835,
                -0.7415804448654977,
                1.0442015282502162,
                -2.9526780512895376
            ]
        },
        {
            "positions": [
                2.6264287351272366,
                -1.014201933137005,
                1.8246199679489699,
                -0.7798821653934225,
                1.049307287009438,
                -3.1072449379245315
            ]
        }
    ]
}