{
    "goal": {
        "global_pose": {
            "orientation": {
                "w": 0.7047431493862688,
                "x": -0.7094548369677653,
                "y": 0.0024358444001904,
                "z": -0.0022348060817251984
            },
            "position": {
                "x": -0.39052492380142206,
                "y": 0.3671506643295288,
                "z": 0.19426114857196808
            }
        },
        "name": "move_to_magneteinheit_D"
    },
    "id": "SBL_move_to_magneteinheit_D_13",
    "joint_names": [
        "shoulder_pan_joint",
        "shoulder_lift_joint",
        "elbow_joint",
        "wrist_1_joint",
        "wrist_2_joint",
        "wrist_3_joint"
    ],
    "metrics": {
        "cart_traj_len": 4.761426247697199,
        "distance_elbow_joint": 4.283808479182207,
        "distance_shoulder_lift_joint": 1.434600038840062,
        "distance_shoulder_pan_joint": 3.9279079139187614,
        "distance_wrist_1_joint": 4.68483751444321,
        "distance_wrist_2_joint": 1.5411973866833673,
        "distance_wrist_3_joint": 6.278613222877777,
        "smoothness": 0.33396791438232737,
        "time": 0.785023437,
        "traj_len": 4.706481122446512,
        "weighted_distance": 6.3979860817938246
    },
    "planner": "SBL",
    "start": {
        "state": {
            "elbow_joint": 0.749534889911806,
            "shoulder_lift_joint": -0.6476975780787326,
            "shoulder_pan_joint": -2.711696901376241,
            "wrist_1_joint": -0.07506478083263063,
            "wrist_2_joint": 0.43296659715538205,
            "wrist_3_joint": -3.14703540197715
        }
    },
    "waypoints": [
        {
            "positions": [
                -2.711696901376241,
                -0.6476975780787326,
                0.749534889911806,
                -0.07506478083263063,
                0.43296659715538205,
                -3.14703540197715
            ]
        },
        {
            "positions": [
                -2.7080491452638458,
                -0.6787632519633284,
                0.7838558405064734,
                0.0006211950354903517,
                0.38101772965625136,
                -2.960838708245583
            ]
        },
        {
            "positions": [
                -2.70440138915145,
                -0.7098289258479243,
                0.8181767911011408,
                0.07630717090361133,
                0.3290688621571206,
                -2.7746420145140163
            ]
        },
        {
            "positions": [
                -2.7007536330390547,
                -0.7408945997325201,
                0.8524977416958083,
                0.15199314677173234,
                0.27711999465798987,
                -2.588445320782449
            ]
        },
        {
            "positions": [
                -2.697105876926659,
                -0.7719602736171159,
                0.8868186922904757,
                0.2276791226398533,
                0.2251711271588592,
                -2.4022486270508825
            ]
        },
        {
            "positions": [
                -2.6934581208142636,
                -0.8030259475017119,
                0.9211396428851432,
                0.3033650985079743,
                0.17322225965972848,
                -2.2160519333193154
            ]
        },
        {
            "positions": [
                -2.689810364701868,
                -0.8340916213863077,
                0.9554605934798106,
                0.3790510743760953,
                0.12127339216059774,
                -2.0298552395877483
            ]
        },
        {
            "positions": [
                -2.6861626085894725,
                -0.8651572952709035,
                0.9897815440744779,
                0.45473705024421623,
                0.06932452466146705,
                -1.8436585458561816
            ]
        },
        {
            "positions": [
                -2.6825148524770768,
                -0.8962229691554994,
                1.0241024946691455,
                0.5304230261123373,
                0.017375657162336355,
                -1.6574618521246147
            ]
        },
        {
            "positions": [
                -2.6788670963646815,
                -0.9272886430400952,
                1.0584234452638128,
                0.6061090019804583,
                -0.03457321033679439,
                -1.4712651583930476
            ]
        },
        {
            "positions": [
                -2.6752193402522857,
                -0.9583543169246911,
                1.0927443958584804,
                0.6817949778485792,
                -0.08652207783592508,
                -1.2850684646614807
            ]
        },
        {
            "positions": [
                -2.6715715841398904,
                -0.9894199908092869,
                1.1270653464531477,
                0.7574809537167002,
                -0.13847094533505583,
                -1.0988717709299136
            ]
        },
        {
            "positions": [
                -2.6679238280274946,
                -1.0204856646938827,
                1.1613862970478153,
                0.8331669295848212,
                -0.19041981283418657,
                -0.912675077198347
            ]
        },
        {
            "positions": [
                -2.6642760719150993,
                -1.0515513385784785,
                1.1957072476424826,
                0.908852905452942,
                -0.2423686803333172,
                -0.7264783834667803
            ]
        },
        {
            "positions": [
                -2.6606283158027035,
                -1.0826170124630745,
                1.2300281982371501,
                0.9845388813210632,
                -0.29431754783244796,
                -0.5402816897352132
            ]
        },
        {
            "positions": [
                -2.656980559690308,
                -1.11368268634767,
                1.2643491488318175,
                1.0602248571891841,
                -0.3462664153315786,
                -0.35408499600364607
            ]
        },
        {
            "positions": [
                -2.6533328035779125,
                -1.1447483602322661,
                1.2986700994264848,
                1.1359108330573051,
                -0.39821528283070934,
                -0.1678883022720794
            ]
        },
        {
            "positions": [
                -2.649685047465517,
                -1.175814034116862,
                1.3329910500211524,
                1.211596808925426,
                -0.45016415032984003,
                0.01830839145948758
            ]
        },
        {
            "positions": [
                -2.527934772408411,
                -1.2041598251753727,
                1.2511847186529088,
                1.1570305522791813,
                -0.43452624082588953,
                0.09852517374781945
            ]
        },
        {
            "positions": [
                -2.406184497351305,
                -1.2325056162338837,
                1.169378387284665,
                1.1024642956329365,
                -0.41888833132193903,
                0.17874195603615134
            ]
        },
        {
            "positions": [
                -2.284434222294199,
                -1.2608514072923944,
                1.0875720559164215,
                1.0478980389866916,
                -0.40325042181798854,
                0.2589587383244832
            ]
        },
        {
            "positions": [
                -2.162683947237093,
                -1.2891971983509054,
                1.005765724548178,
                0.9933317823404471,
                -0.38761251231403804,
                0.3391755206128151
            ]
        },
        {
            "positions": [
                -2.040933672179987,
                -1.3175429894094162,
                0.9239593931799341,
                0.9387655256942022,
                -0.37197460281008754,
                0.419392302901147
            ]
        },
        {
            "positions": [
                -1.919183397122881,
                -1.3458887804679271,
                0.8421530618116906,
                0.8841992690479574,
                -0.35633669330613704,
                0.49960908518947883
            ]
        },
        {
            "positions": [
                -1.797433122065775,
                -1.374234571526438,
                0.760346730443447,
                0.8296330124017127,
                -0.3406987838021866,
                0.5798258674778106
            ]
        },
        {
            "positions": [
                -1.675682847008669,
                -1.4025803625849487,
                0.6785403990752034,
                0.7750667557554679,
                -0.3250608742982361,
                0.6600426497661426
            ]
        },
        {
            "positions": [
                -1.553932571951563,
                -1.4309261536434597,
                0.5967340677069598,
                0.7205004991092232,
                -0.3094229647942856,
                0.7402594320544744
            ]
        },
        {
            "positions": [
                -1.432182296894457,
                -1.4592719447019704,
                0.514927736338716,
                0.6659342424629784,
                -0.2937850552903351,
                0.8204762143428064
            ]
        },
        {
            "positions": [
                -1.310432021837351,
                -1.4876177357604814,
                0.43312140497047247,
                0.6113679858167336,
                -0.27814714578638466,
                0.9006929966311381
            ]
        },
        {
            "positions": [
                -1.188681746780245,
                -1.5159635268189922,
                0.3513150736022288,
                0.5568017291704888,
                -0.2625092362824341,
                0.9809097789194701
            ]
        },
        {
            "positions": [
                -1.066931471723139,
                -1.5443093178775031,
                0.26950874223398524,
                0.502235472524244,
                -0.24687132677848364,
                1.0611265612078018
            ]
        },
        {
            "positions": [
                -0.9451811966660331,
                -1.572655108936014,
                0.1877024108657417,
                0.44766921587799935,
                -0.23123341727453317,
                1.1413433434961335
            ]
        },
        {
            "positions": [
                -0.8234309216089273,
                -1.6010008999945247,
                0.10589607949749813,
                0.39310295923175453,
                -0.21559550777058267,
                1.2215601257844655
            ]
        },
        {
            "positions": [
                -0.701680646551821,
                -1.6293466910530356,
                0.02408974812925435,
                0.3385367025855097,
                -0.19995759826663217,
                1.3017769080727974
            ]
        },
        {
            "positions": [
                -0.579930371494715,
                -1.6576924821115464,
                -0.057716583238989205,
                0.2839704459392649,
                -0.18431968876268168,
                1.3819936903611294
            ]
        },
        {
            "positions": [
                -0.45818009643760904,
                -1.6860382731700572,
                -0.13952291460723276,
                0.2294041892930202,
                -0.16868177925873118,
                1.4622104726494611
            ]
        },
        {
            "positions": [
                -0.33642982138050304,
                -1.7143840642285681,
                -0.22132924597547632,
                0.1748379326467755,
                -0.15304386975478074,
                1.5424272549377929
            ]
        },
        {
            "positions": [
                -0.21467954632339703,
                -1.7427298552870791,
                -0.3031355773437203,
                0.12027167600053068,
                -0.13740596025083018,
                1.622644037226125
            ]
        },
        {
            "positions": [
                -0.09292927126629102,
                -1.77107564634559,
                -0.3849419087119639,
                0.06570541935428587,
                -0.12176805074687969,
                1.7028608195144568
            ]
        },
        {
            "positions": [
                0.02882100379081498,
                -1.7994214374041007,
                -0.46674824008020743,
                0.01113916270804105,
                -0.10613014124292924,
                1.7830776018027885
            ]
        },
        {
            "positions": [
                0.150571278847921,
                -1.8277672284626116,
                -0.548554571448451,
                -0.04342709393820354,
                -0.09049223173897875,
                1.8632943840911205
            ]
        },
        {
            "positions": [
                0.272321553905027,
                -1.8561130195211226,
                -0.6303609028166948,
                -0.09799335058444858,
                -0.07485432223502819,
                1.9435111663794524
            ]
        },
        {
            "positions": [
                0.394071828962133,
                -1.8844588105796332,
                -0.7121672341849381,
                -0.15255960723069317,
                -0.05921641273107775,
                2.0237279486677844
            ]
        },
        {
            "positions": [
                0.5158221040192392,
                -1.9128046016381441,
                -0.7939735655531818,
                -0.20712586387693807,
                -0.043578503227127266,
                2.1039447309561163
            ]
        },
        {
            "positions": [
                0.4763212574790436,
                -1.9045018841642036,
                -0.903655561007398,
                -0.3489961254640544,
                -0.05767979076309656,
                2.180485833826217
            ]
        },
        {
            "positions": [
                0.436820410938848,
                -1.8961991666902633,
                -1.013337556461614,
                -0.4908663870511707,
                -0.07178107829906585,
                2.2570269366963176
            ]
        },
        {
            "positions": [
                0.39731956439865235,
                -1.8878964492163228,
                -1.1230195519158304,
                -0.632736648638287,
                -0.08588236583503514,
                2.3335680395664187
            ]
        },
        {
            "positions": [
                0.35781871785845676,
                -1.8795937317423825,
                -1.2327015473700467,
                -0.7746069102254034,
                -0.09998365337100443,
                2.4101091424365193
            ]
        },
        {
            "positions": [
                0.31831787131826106,
                -1.871291014268442,
                -1.3423835428242628,
                -0.9164771718125198,
                -0.11408494090697373,
                2.48665024530662
            ]
        },
        {
            "positions": [
                0.27881702477806547,
                -1.8629882967945017,
                -1.4520655382784788,
                -1.058347433399636,
                -0.12818622844294303,
                2.563191348176721
            ]
        },
        {
            "positions": [
                0.23931617823786988,
                -1.8546855793205612,
                -1.561747533732695,
                -1.2002176949867522,
                -0.14228751597891232,
                2.6397324510468216
            ]
        },
        {
            "positions": [
                0.19981533169767424,
                -1.846382861846621,
                -1.6714295291869115,
                -1.3420879565738686,
                -0.1563888035148816,
                2.7162735539169223
            ]
        },
        {
            "positions": [
                0.16031448515747865,
                -1.8380801443726804,
                -1.7811115246411275,
                -1.4839582181609847,
                -0.1704900910508509,
                2.792814656787023
            ]
        },
        {
            "positions": [
                0.12081363861728295,
                -1.8297774268987401,
                -1.8907935200953436,
                -1.6258284797481013,
                -0.18459137858682018,
                2.8693557596571235
            ]
        },
        {
            "positions": [
                0.08131279207708736,
                -1.8214747094247996,
                -2.0004755155495597,
                -1.7676987413352174,
                -0.19869266612278946,
                2.945896862527224
            ]
        },
        {
            "positions": [
                0.041811945536891715,
                -1.8131719919508593,
                -2.1101575110037762,
                -1.909569002922334,
                -0.21279395365875875,
                3.0224379653973252
            ]
        },
        {
            "positions": [
                0.0023110989966961537,
                -1.8048692744769188,
                -2.2198395064579923,
                -2.05143926450945,
                -0.22689524119472804,
                3.098979068267426
            ]
        },
        {
            "positions": [
                -0.09130624743854837,
                -1.7599426444706485,
                -2.2659162086337528,
                -2.040347710817208,
                -0.1725459143467683,
                3.1100004861537185
            ]
        },
        {
            "positions": [
                -0.18456680450404178,
                -1.7433115863574937,
                -2.3673612690517096,
                -2.164396008375242,
                -0.18636084162663855,
                3.131577820900627
            ]
        }
    ]
}