{
    "goal": {
        "global_pose": {
            "orientation": {
                "w": 0.7031023502349854,
                "x": -0.7110244035720825,
                "y": 0.007748599164187908,
                "z": 0.005598929710686207
            },
            "position": {
                "x": 0.11585023208521307,
                "y": 0.44412534475326537,
                "z": 0.3711530566215515
            }
        },
        "name": "move_to_auspresseinheit_A"
    },
    "id": "SBL_move_to_auspresseinheit_A_10",
    "joint_names": [
        "shoulder_pan_joint",
        "shoulder_lift_joint",
        "elbow_joint",
        "wrist_1_joint",
        "wrist_2_joint",
        "wrist_3_joint"
    ],
    "metrics": {
        "cart_traj_len": 0.6848822891469606,
        "distance_elbow_joint": 0.03560311829021323,
        "distance_shoulder_lift_joint": 0.5341549051049479,
        "distance_shoulder_pan_joint": 1.0436145441874083,
        "distance_wrist_1_joint": 0.5512059249525472,
        "distance_wrist_2_joint": 1.5396989644826002,
        "distance_wrist_3_joint": 1.401632549789305,
        "smoothness": 1.1408096494984767,
        "time": 0.150712956,
        "traj_len": 2.2596260767673537,
        "weighted_distance": 3.1622903085929317
    },
    "planner": "SBL",
    "start": {
        "state": {
            "elbow_joint": 2.4225746658250005,
            "shoulder_lift_joint": -1.3736534386056498,
            "shoulder_pan_joint": -0.3378633547517467,
            "wrist_1_joint": -1.0288598680537169,
            "wrist_2_joint": 1.233022673432363,
            "wrist_3_joint": -3.0940220416140027
        }
    },
    "waypoints": [
        {
            "positions": [
                -0.3378633547517467,
                -1.3736534386056498,
                2.4225746658250005,
                -1.0288598680537169,
                1.233022673432363,
                -3.0940220416140027
            ]
        },
        {
            "positions": [
                -0.2762108999572948,
                -1.4325739442693488,
                2.4190364769836283,
                -0.9784271054818434,
                1.117970385594724,
                -3.017622747841208
            ]
        },
        {
            "positions": [
                -0.21455844516284284,
                -1.4914944499330476,
                2.415498288142256,
                -0.92799434290997,
                1.002918097757085,
                -2.9412234540684135
            ]
        },
        {
            "positions": [
                -0.15290599036839092,
                -1.5504149555967466,
                2.411960099300884,
                -0.8775615803380965,
                0.8878658099194461,
                -2.8648241602956186
            ]
        },
        {
            "positions": [
                -0.09125353557393898,
                -1.6093354612604454,
                2.408421910459512,
                -0.8271288177662229,
                0.7728135220818071,
                -2.7884248665228237
            ]
        },
        {
            "positions": [
                -0.029601080779487032,
                -1.6682559669241444,
                2.4048837216181402,
                -0.7766960551943495,
                0.657761234244168,
                -2.7120255727500293
            ]
        },
        {
            "positions": [
                0.032051374014964884,
                -1.7271764725878431,
                2.401345532776768,
                -0.726263292622476,
                0.542708946406529,
                -2.6356262789772344
            ]
        },
        {
            "positions": [
                0.09370382880941686,
                -1.7860969782515421,
                2.397807343935396,
                -0.6758305300506025,
                0.4276566585688899,
                -2.5592269852044396
            ]
        },
        {
            "positions": [
                0.15535628360386877,
                -1.845017483915241,
                2.394269155094024,
                -0.625397767478729,
                0.312604370731251,
                -2.482827691431645
            ]
        },
        {
            "positions": [
                0.21700873839832072,
                -1.90393798957894,
                2.3907309662526517,
                -0.5749650049068555,
                0.19755208289361184,
                -2.4064283976588503
            ]
        },
        {
            "positions": [
                0.3147572286057889,
                -1.9047120604052714,
                2.3914828499962244,
                -0.5555027925457183,
                0.2983977576823817,
                -2.549236178825681
            ]
        },
        {
            "positions": [
                0.4125057188132571,
                -1.905486131231603,
                2.3922347337397976,
                -0.5360405801845812,
                0.39924343247115157,
                -2.6920439599925112
            ]
        },
        {
            "positions": [
                0.5102542090207253,
                -1.9062602020579347,
                2.3929866174833703,
                -0.5165783678234441,
                0.5000891072599214,
                -2.834851741159342
            ]
        },
        {
            "positions": [
                0.6080026992281935,
                -1.9070342728842662,
                2.3937385012269434,
                -0.4971161554623069,
                0.6009347820486912,
                -2.9776595223261726
            ]
        },
        {
            "positions": [
                0.7057511894356616,
                -1.9078083437105977,
                2.394490384970516,
                -0.47765394310116976,
                0.701780456837461,
                -3.120467303493003
            ]
        }
    ]
}