{
    "goal": {
        "global_pose": {
            "orientation": {
                "w": 0.7047431468963623,
                "x": -0.7094548344612122,
                "y": 0.0024358443915843964,
                "z": -0.0022348060738295317
            },
            "position": {
                "x": 0.6094750761985779,
                "y": 0.3671506643295288,
                "z": 0.19426114857196808
            }
        },
        "name": "move_to_magneteinheit_A"
    },
    "id": "SBL_move_to_magneteinheit_A_112",
    "joint_names": [
        "shoulder_pan_joint",
        "shoulder_lift_joint",
        "elbow_joint",
        "wrist_1_joint",
        "wrist_2_joint",
        "wrist_3_joint"
    ],
    "metrics": {
        "cart_traj_len": 3.839587487817398,
        "distance_elbow_joint": 4.089161846927164,
        "distance_shoulder_lift_joint": 0.43675696895283633,
        "distance_shoulder_pan_joint": 3.6210218911660266,
        "distance_wrist_1_joint": 1.4082683559174427,
        "distance_wrist_2_joint": 1.7206113940436905,
        "distance_wrist_3_joint": 2.998801018213087,
        "smoothness": 0.5204580460569381,
        "time": 0.190605195,
        "traj_len": 3.7781770042204537,
        "weighted_distance": 4.837468683268922
    },
    "planner": "SBL",
    "start": {
        "state": {
            "elbow_joint": -1.9196185241190666,
            "shoulder_lift_joint": -1.2443396400964142,
            "shoulder_pan_joint": 2.6996025414629847,
            "wrist_1_joint": -1.5485510000780065,
            "wrist_2_joint": -1.5709468930060704,
            "wrist_3_joint": 0.4420197071253992
        }
    },
    "waypoints": [
        {
            "positions": [
                2.6996025414629847,
                -1.2443396400964142,
                -1.9196185241190666,
                -1.5485510000780065,
                -1.5709468930060704,
                0.4420197071253992
            ]
        },
        {
            "positions": [
                2.6002053557859464,
                -1.2463980508299728,
                -1.8058841974045596,
                -1.5070826576201046,
                -1.5146327279852263,
                0.5227542778041235
            ]
        },
        {
            "positions": [
                2.500808170108908,
                -1.2484564615635314,
                -1.6921498706900528,
                -1.4656143151622028,
                -1.458318562964382,
                0.603488848482848
            ]
        },
        {
            "positions": [
                2.4014109844318696,
                -1.2505148722970898,
                -1.578415543975546,
                -1.4241459727043009,
                -1.402004397943538,
                0.6842234191615724
            ]
        },
        {
            "positions": [
                2.3020137987548313,
                -1.2525732830306484,
                -1.464681217261039,
                -1.3826776302463992,
                -1.3456902329226939,
                0.7649579898402967
            ]
        },
        {
            "positions": [
                2.202616613077793,
                -1.254631693764207,
                -1.350946890546532,
                -1.3412092877884971,
                -1.2893760679018496,
                0.8456925605190212
            ]
        },
        {
            "positions": [
                2.1032194274007545,
                -1.2566901044977656,
                -1.2372125638320253,
                -1.2997409453305955,
                -1.2330619028810055,
                0.9264271311977456
            ]
        },
        {
            "positions": [
                2.003822241723716,
                -1.258748515231324,
                -1.1234782371175183,
                -1.2582726028726936,
                -1.1767477378601612,
                1.00716170187647
            ]
        },
        {
            "positions": [
                1.9044250560466778,
                -1.2608069259648826,
                -1.0097439104030115,
                -1.2168042604147917,
                -1.120433572839317,
                1.0878962725551944
            ]
        },
        {
            "positions": [
                1.8050278703696394,
                -1.2628653366984413,
                -0.8960095836885045,
                -1.1753359179568899,
                -1.064119407818473,
                1.1686308432339187
            ]
        },
        {
            "positions": [
                1.705630684692601,
                -1.2649237474319999,
                -0.7822752569739977,
                -1.133867575498988,
                -1.007805242797629,
                1.2493654139126433
            ]
        },
        {
            "positions": [
                1.6062334990155627,
                -1.2669821581655583,
                -0.6685409302594907,
                -1.092399233041086,
                -0.9514910777767848,
                1.3300999845913677
            ]
        },
        {
            "positions": [
                1.5068363133385243,
                -1.2690405688991169,
                -0.5548066035449839,
                -1.0509308905831842,
                -0.8951769127559407,
                1.410834555270092
            ]
        },
        {
            "positions": [
                1.407439127661486,
                -1.2710989796326755,
                -0.4410722768304769,
                -1.0094625481252826,
                -0.8388627477350964,
                1.4915691259488164
            ]
        },
        {
            "positions": [
                1.3080419419844473,
                -1.273157390366234,
                -0.3273379501159699,
                -0.9679942056673806,
                -0.7825485827142522,
                1.5723036966275408
            ]
        },
        {
            "positions": [
                1.2086447563074092,
                -1.2752158010997925,
                -0.2136036234014631,
                -0.9265258632094788,
                -0.7262344176934082,
                1.6530382673062651
            ]
        },
        {
            "positions": [
                1.1092475706303708,
                -1.277274211833351,
                -0.09986929668695632,
                -0.885057520751577,
                -0.669920252672564,
                1.7337728379849895
            ]
        },
        {
            "positions": [
                1.0098503849533322,
                -1.2793326225669097,
                0.013865030027550684,
                -0.8435891782936751,
                -0.6136060876517199,
                1.8145074086637138
            ]
        },
        {
            "positions": [
                0.9104531992762941,
                -1.2813910333004683,
                0.1275993567420577,
                -0.8021208358357733,
                -0.5572919226308757,
                1.8952419793424382
            ]
        },
        {
            "positions": [
                0.8110560135992557,
                -1.2834494440340267,
                0.24133368345656425,
                -0.7606524933778713,
                -0.5009777576100316,
                1.9759765500211626
            ]
        },
        {
            "positions": [
                0.7116588279222174,
                -1.2855078547675853,
                0.35506801017107126,
                -0.7191841509199695,
                -0.4446635925891873,
                2.0567111206998874
            ]
        },
        {
            "positions": [
                0.612261642245179,
                -1.287566265501144,
                0.46880233688557826,
                -0.6777158084620677,
                -0.38834942756834323,
                2.1374456913786113
            ]
        },
        {
            "positions": [
                0.5128644565681406,
                -1.2896246762347026,
                0.5825366636000853,
                -0.6362474660041658,
                -0.33203526254749915,
                2.218180262057336
            ]
        },
        {
            "positions": [
                0.41346727089110225,
                -1.291683086968261,
                0.6962709903145923,
                -0.5947791235462639,
                -0.27572109752665486,
                2.2989148327360605
            ]
        },
        {
            "positions": [
                0.3140700852140639,
                -1.2937414977018196,
                0.8100053170290988,
                -0.5533107810883622,
                -0.219406932505811,
                2.379649403414785
            ]
        },
        {
            "positions": [
                0.21467289953702545,
                -1.2957999084353782,
                0.9237396437436061,
                -0.5118424386304602,
                -0.16309276748496665,
                2.460383974093509
            ]
        },
        {
            "positions": [
                0.14639543650820352,
                -1.2652840949260995,
                1.0503733688315404,
                -0.5018543946307508,
                -0.1291539713296827,
                2.546211905498965
            ]
        },
        {
            "positions": [
                0.07811797347938162,
                -1.2347682814168208,
                1.1770070939194746,
                -0.4918663506310412,
                -0.09521517517439873,
                2.6320398369044207
            ]
        },
        {
            "positions": [
                0.009840510450559697,
                -1.2042524679075424,
                1.3036408190074087,
                -0.48187830663133174,
                -0.06127637901911476,
                2.7178677683098766
            ]
        },
        {
            "positions": [
                -0.0584369525782622,
                -1.1737366543982637,
                1.430274544095343,
                -0.47189026263162226,
                -0.02733758286383081,
                2.803695699715332
            ]
        },
        {
            "positions": [
                -0.12671441560708419,
                -1.143220840888985,
                1.5569082691832774,
                -0.46190221863191283,
                0.00660121329145319,
                2.889523631120788
            ]
        },
        {
            "positions": [
                -0.19499187863590606,
                -1.1127050273797063,
                1.6835419942712115,
                -0.45191417463220335,
                0.040540009446737135,
                2.9753515625262437
            ]
        },
        {
            "positions": [
                -0.263269341664728,
                -1.0821892138704277,
                1.810175719359146,
                -0.44192613063249386,
                0.07447880560202111,
                3.0611794939316996
            ]
        },
        {
            "positions": [
                -0.33154680469354986,
                -1.0516734003611492,
                1.93680944444708,
                -0.4319380866327844,
                0.10841760175730503,
                3.147007425337155
            ]
        },
        {
            "positions": [
                -0.3998242677223719,
                -1.0211575868518705,
                2.0634431695350144,
                -0.4219500426330749,
                0.14235639791258903,
                3.232835356742611
            ]
        },
        {
            "positions": [
                -0.26942549722720477,
                -1.0488211816094617,
                2.0369181312167437,
                -0.49236689225120267,
                0.14052937213133115,
                3.1808390145936425
            ]
        },
        {
            "positions": [
                -0.13902672673203764,
                -1.0764847763670529,
                2.010393092898473,
                -0.5627837418693304,
                0.13870234635007328,
                3.128842672444674
            ]
        },
        {
            "positions": [
                -0.008627956236870515,
                -1.104148371124644,
                1.9838680545802023,
                -0.6332005914874581,
                0.13687532056881538,
                3.0768463302957048
            ]
        },
        {
            "positions": [
                0.1217708142582966,
                -1.1318119658822352,
                1.9573430162619316,
                -0.7036174411055859,
                0.1350482947875575,
                3.024849988146736
            ]
        }
    ]
}