{
    "goal": {
        "global_pose": {
            "orientation": {
                "w": 0.7047431493862688,
                "x": -0.7094548369677653,
                "y": 0.0024358444001904,
                "z": -0.0022348060817251984
            },
            "position": {
                "x": -0.39052492380142206,
                "y": 0.3671506643295288,
                "z": 0.19426114857196808
            }
        },
        "name": "move_to_magneteinheit_D"
    },
    "id": "SBL_move_to_magneteinheit_D_65",
    "joint_names": [
        "shoulder_pan_joint",
        "shoulder_lift_joint",
        "elbow_joint",
        "wrist_1_joint",
        "wrist_2_joint",
        "wrist_3_joint"
    ],
    "metrics": {
        "cart_traj_len": 4.3750866939273125,
        "distance_elbow_joint": 4.270483440152972,
        "distance_shoulder_lift_joint": 1.1048299752448447,
        "distance_shoulder_pan_joint": 3.0657767669666947,
        "distance_wrist_1_joint": 2.1657933537699745,
        "distance_wrist_2_joint": 0.8676754172822813,
        "distance_wrist_3_joint": 5.019061264730913,
        "smoothness": 0.33170691818741954,
        "time": 0.377003838,
        "traj_len": 4.061233829533543,
        "weighted_distance": 5.437390138537216
    },
    "planner": "SBL",
    "start": {
        "state": {
            "elbow_joint": 0.749534889911806,
            "shoulder_lift_joint": -0.6476975780787326,
            "shoulder_pan_joint": -2.711696901376241,
            "wrist_1_joint": -0.07506478083263063,
            "wrist_2_joint": 0.43296659715538205,
            "wrist_3_joint": -3.14703540197715
        }
    },
    "waypoints": [
        {
            "positions": [
                -2.711696901376241,
                -0.6476975780787326,
                0.749534889911806,
                -0.07506478083263063,
                0.43296659715538205,
                -3.14703540197715
            ]
        },
        {
            "positions": [
                -2.709881987625445,
                -0.693426066573957,
                0.8331862034278251,
                -0.16280737196533673,
                0.45199581657825755,
                -3.035590353737238
            ]
        },
        {
            "positions": [
                -2.7080670738746497,
                -0.7391545550691814,
                0.9168375169438444,
                -0.25054996309804284,
                0.47102503600113305,
                -2.9241453054973263
            ]
        },
        {
            "positions": [
                -2.706252160123854,
                -0.7848830435644057,
                1.0004888304598636,
                -0.33829255423074894,
                0.4900542554240085,
                -2.812700257257415
            ]
        },
        {
            "positions": [
                -2.7044372463730584,
                -0.8306115320596301,
                1.0841401439758829,
                -0.42603514536345505,
                0.509083474846884,
                -2.701255209017503
            ]
        },
        {
            "positions": [
                -2.7026223326222625,
                -0.8763400205548546,
                1.167791457491902,
                -0.5137777364961611,
                0.5281126942697595,
                -2.589810160777591
            ]
        },
        {
            "positions": [
                -2.700807418871467,
                -0.9220685090500789,
                1.2514427710079212,
                -0.6015203276288672,
                0.547141913692635,
                -2.4783651125376793
            ]
        },
        {
            "positions": [
                -2.698992505120671,
                -0.9677969975453034,
                1.3350940845239405,
                -0.6892629187615733,
                0.5661711331155105,
                -2.3669200642977675
            ]
        },
        {
            "positions": [
                -2.582972788173341,
                -0.9859701350103892,
                1.201913971811718,
                -0.7382582298538065,
                0.5638212988626446,
                -2.2933784841977554
            ]
        },
        {
            "positions": [
                -2.466953071226011,
                -1.004143272475475,
                1.0687338590994955,
                -0.7872535409460398,
                0.5614714646097788,
                -2.219836904097743
            ]
        },
        {
            "positions": [
                -2.350933354278681,
                -1.022316409940561,
                0.9355537463872727,
                -0.836248852038273,
                0.559121630356913,
                -2.1462953239977303
            ]
        },
        {
            "positions": [
                -2.234913637331351,
                -1.0404895474056468,
                0.8023736336750502,
                -0.8852441631305062,
                0.556771796104047,
                -2.072753743897718
            ]
        },
        {
            "positions": [
                -2.1188939203840205,
                -1.0586626848707328,
                0.6691935209628275,
                -0.9342394742227396,
                0.5544219618511812,
                -1.9992121637977058
            ]
        },
        {
            "positions": [
                -2.0028742034366904,
                -1.0768358223358185,
                0.536013408250605,
                -0.9832347853149728,
                0.5520721275983154,
                -1.9256705836976935
            ]
        },
        {
            "positions": [
                -1.8868544864893604,
                -1.0950089598009045,
                0.4028332955383823,
                -1.032230096407206,
                0.5497222933454495,
                -1.8521290035976812
            ]
        },
        {
            "positions": [
                -1.7708347695420303,
                -1.1131820972659905,
                0.2696531828261599,
                -1.0812254074994392,
                0.5473724590925837,
                -1.7785874234976689
            ]
        },
        {
            "positions": [
                -1.6548150525947003,
                -1.1313552347310762,
                0.13647307011393717,
                -1.1302207185916724,
                0.5450226248397179,
                -1.7050458433976565
            ]
        },
        {
            "positions": [
                -1.53879533564737,
                -1.1495283721961622,
                0.0032929574017144247,
                -1.1792160296839058,
                0.542672790586852,
                -1.6315042632976442
            ]
        },
        {
            "positions": [
                -1.42277561870004,
                -1.167701509661248,
                -0.12988715531050787,
                -1.2282113407761388,
                0.5403229563339862,
                -1.5579626831976319
            ]
        },
        {
            "positions": [
                -1.30675590175271,
                -1.185874647126334,
                -0.2630672680227306,
                -1.2772066518683722,
                0.5379731220811204,
                -1.4844211030976195
            ]
        },
        {
            "positions": [
                -1.19073618480538,
                -1.20404778459142,
                -0.39624738073495314,
                -1.3262019629606054,
                0.5356232878282544,
                -1.4108795229976074
            ]
        },
        {
            "positions": [
                -1.0747164678580496,
                -1.2222209220565057,
                -0.5294274934471759,
                -1.3751972740528386,
                0.5332734535753886,
                -1.3373379428975949
            ]
        },
        {
            "positions": [
                -0.9586967509107196,
                -1.2403940595215917,
                -0.6626076061593984,
                -1.424192585145072,
                0.5309236193225227,
                -1.2637963627975826
            ]
        },
        {
            "positions": [
                -0.8426770339633896,
                -1.2585671969866774,
                -0.7957877188716207,
                -1.473187896237305,
                0.5285737850696569,
                -1.1902547826975702
            ]
        },
        {
            "positions": [
                -0.7266573170160593,
                -1.2767403344517634,
                -0.9289678315838437,
                -1.5221832073295385,
                0.5262239508167911,
                -1.116713202597558
            ]
        },
        {
            "positions": [
                -0.6106376000687295,
                -1.2949134719168494,
                -1.0621479442960662,
                -1.5711785184217717,
                0.5238741165639252,
                -1.0431716224975456
            ]
        },
        {
            "positions": [
                -0.4946178831213994,
                -1.313086609381935,
                -1.1953280570082887,
                -1.620173829514005,
                0.5215242823110594,
                -0.9696300423975333
            ]
        },
        {
            "positions": [
                -0.37859816617406894,
                -1.331259746847021,
                -1.3285081697205117,
                -1.6691691406062383,
                0.5191744480581935,
                -0.8960884622975209
            ]
        },
        {
            "positions": [
                -0.2625784492267389,
                -1.3494328843121068,
                -1.4616882824327337,
                -1.7181644516984713,
                0.5168246138053276,
                -0.8225468821975086
            ]
        },
        {
            "positions": [
                -0.14655873227940885,
                -1.3676060217771928,
                -1.5948683951449563,
                -1.7671597627907045,
                0.5144747795524618,
                -0.7490053020974963
            ]
        },
        {
            "positions": [
                -0.03053901533207881,
                -1.3857791592422788,
                -1.7280485078571792,
                -1.816155073882938,
                0.512124945299596,
                -0.675463721997484
            ]
        },
        {
            "positions": [
                0.08548070161525129,
                -1.4039522967073645,
                -1.8612286205694017,
                -1.8651503849751712,
                0.5097751110467301,
                -0.6019221418974716
            ]
        },
        {
            "positions": [
                0.07928008938425285,
                -1.4106457060422053,
                -1.9639901836462828,
                -1.9295453009008574,
                0.45570313410955,
                -0.7493371881686508
            ]
        },
        {
            "positions": [
                0.0730794771532544,
                -1.417339115377046,
                -2.0667517467231638,
                -1.9939402168265437,
                0.40163115717236986,
                -0.8967522344398299
            ]
        },
        {
            "positions": [
                0.0474596832019339,
                -1.4508579591716992,
                -2.0950595881525373,
                -2.0186320086041496,
                0.34463806663446866,
                -1.1146640256507176
            ]
        },
        {
            "positions": [
                0.021839889250613406,
                -1.4843768029663522,
                -2.1233674295819105,
                -2.043323800381756,
                0.2876449760965675,
                -1.3325758168616053
            ]
        },
        {
            "positions": [
                -0.00377990470070709,
                -1.5178956467610054,
                -2.151675271011284,
                -2.0680155921593624,
                0.23065188555866625,
                -1.5504876080724932
            ]
        },
        {
            "positions": [
                -0.029399698652027587,
                -1.5514144905556586,
                -2.1799831124406572,
                -2.0927073839369683,
                0.17365879502076503,
                -1.768399399283381
            ]
        },
        {
            "positions": [
                -0.05501949260334808,
                -1.5849333343503118,
                -2.208290953870031,
                -2.1173991757145743,
                0.11666570448286384,
                -1.9863111904942685
            ]
        },
        {
            "positions": [
                -0.08063928655466858,
                -1.6184521781449648,
                -2.2365987952994044,
                -2.1420909674921806,
                0.05967261394496265,
                -2.2042229817051564
            ]
        },
        {
            "positions": [
                -0.10625908050598908,
                -1.651971021939618,
                -2.2649066367287776,
                -2.166782759269787,
                0.002679523407061457,
                -2.422134772916044
            ]
        },
        {
            "positions": [
                -0.13187887445730956,
                -1.6854898657342712,
                -2.293214478158151,
                -2.191474551047393,
                -0.05431356713083979,
                -2.640046564126932
            ]
        },
        {
            "positions": [
                -0.15749866840863008,
                -1.7190087095289242,
                -2.3215223195875243,
                -2.216166342824999,
                -0.11130665766874104,
                -2.8579583553378196
            ]
        },
        {
            "positions": [
                -0.18311846235995055,
                -1.7525275533235773,
                -2.349830161016898,
                -2.2408581346026053,
                -0.1682997482066422,
                -3.0758701465487075
            ]
        }
    ]
}