{
    "goal": {
        "global_pose": {
            "orientation": {
                "w": -0.4816463035849501,
                "x": 0.5182115481033762,
                "y": 0.4908360881923453,
                "z": -0.5084816262002911
            },
            "position": {
                "x": -0.8240239810943604,
                "y": -0.300875300988555,
                "z": 0.16403168439865112
            }
        },
        "name": "move_to_storage_C"
    },
    "id": "SBL_move_to_storage_C_60",
    "joint_names": [
        "shoulder_pan_joint",
        "shoulder_lift_joint",
        "elbow_joint",
        "wrist_1_joint",
        "wrist_2_joint",
        "wrist_3_joint"
    ],
    "metrics": {
        "cart_traj_len": 0.5764250310981732,
        "distance_elbow_joint": 0.2600666553065447,
        "distance_shoulder_lift_joint": 0.19022228255447904,
        "distance_shoulder_pan_joint": 0.49433010132831123,
        "distance_wrist_1_joint": 0.08781111231076211,
        "distance_wrist_2_joint": 1.068939149152,
        "distance_wrist_3_joint": 0.06747175754881196,
        "smoothness": 2.5376526478085547e-16,
        "time": 0.575047727,
        "traj_len": 1.4726985632507792,
        "weighted_distance": 1.8602512826930921
    },
    "planner": "SBL",
    "start": {
        "state": {
            "elbow_joint": 2.010868314990456,
            "shoulder_lift_joint": -1.1634956873337592,
            "shoulder_pan_joint": -2.4736205022346125,
            "wrist_1_joint": -0.8367026794202681,
            "wrist_2_joint": 0.6746043897044499,
            "wrist_3_joint": -3.1496632123970403
        }
    },
    "waypoints": [
        {
            "positions": [
                -2.4736205022346125,
                -1.1634956873337592,
                2.010868314990456,
                -0.8367026794202681,
                0.6746043897044499,
                -3.1496632123970403
            ]
        },
        {
            "positions": [
                -2.5560088524559976,
                -1.1317919735746793,
                1.967523872439365,
                -0.8220674940351411,
                0.8527609145631165,
                -3.1384179194722384
            ]
        },
        {
            "positions": [
                -2.6383972026773828,
                -1.1000882598155994,
                1.9241794298882742,
                -0.807432308650014,
                1.0309174394217833,
                -3.1271726265474364
            ]
        },
        {
            "positions": [
                -2.720785552898768,
                -1.0683845460565196,
                1.8808349873371835,
                -0.792797123264887,
                1.2090739642804498,
                -3.1159273336226345
            ]
        },
        {
            "positions": [
                -2.8031739031201535,
                -1.03668083229744,
                1.8374905447860927,
                -0.7781619378797601,
                1.3872304891391165,
                -3.104682040697832
            ]
        },
        {
            "positions": [
                -2.8855622533415386,
                -1.00497711853836,
                1.7941461022350018,
                -0.763526752494633,
                1.5653870139977832,
                -3.0934367477730302
            ]
        },
        {
            "positions": [
                -2.9679506035629237,
                -0.9732734047792801,
                1.750801659683911,
                -0.748891567109506,
                1.74354353885645,
                -3.0821914548482283
            ]
        }
    ]
}