{
    "goal": {
        "global_pose": {
            "orientation": {
                "w": -0.00223480608172531,
                "x": 0.0024358444001904467,
                "y": 0.7094548369677653,
                "z": -0.704743149386269
            },
            "position": {
                "x": 0.6205249238014221,
                "y": -0.6371506643295288,
                "z": 0.19426114857196808
            }
        },
        "name": "move_to_magneteinheit_B"
    },
    "id": "SBL_move_to_magneteinheit_B_27",
    "joint_names": [
        "shoulder_pan_joint",
        "shoulder_lift_joint",
        "elbow_joint",
        "wrist_1_joint",
        "wrist_2_joint",
        "wrist_3_joint"
    ],
    "metrics": {
        "cart_traj_len": 1.6613369916637137,
        "distance_elbow_joint": 1.3437158540737,
        "distance_shoulder_lift_joint": 0.9172708974920478,
        "distance_shoulder_pan_joint": 1.7472452933770288,
        "distance_wrist_1_joint": 0.18314036046488535,
        "distance_wrist_2_joint": 1.5259137606676239,
        "distance_wrist_3_joint": 0.2544219604451861,
        "smoothness": 1.0864834474112666,
        "time": 0.9183999519999999,
        "traj_len": 2.443707864397967,
        "weighted_distance": 2.86174879549959
    },
    "planner": "SBL",
    "start": {
        "state": {
            "elbow_joint": 2.6216224122426386,
            "shoulder_lift_joint": -1.4174107377796124,
            "shoulder_pan_joint": 0.7066234856936794,
            "wrist_1_joint": 1.9546482284002225,
            "wrist_2_joint": -0.7096286983471962,
            "wrist_3_joint": 0.005740856962016249
        }
    },
    "waypoints": [
        {
            "positions": [
                0.7066234856936794,
                -1.4174107377796124,
                2.6216224122426386,
                1.9546482284002225,
                -0.7096286983471962,
                0.005740856962016249
            ]
        },
        {
            "positions": [
                0.7384272467807962,
                -1.457315901356802,
                2.7177814672055365,
                1.9576429088758482,
                -0.7464744418544433,
                0.06668495508360658
            ]
        },
        {
            "positions": [
                0.7702310078679131,
                -1.4972210649339917,
                2.8139405221684344,
                1.9606375893514738,
                -0.7833201853616903,
                0.1276290532051969
            ]
        },
        {
            "positions": [
                0.6499711670677135,
                -1.4374024527670153,
                2.7316978261578697,
                1.9732912321738763,
                -0.8870503477654853,
                0.11816235576219651
            ]
        },
        {
            "positions": [
                0.5297113262675138,
                -1.377583840600039,
                2.649455130147305,
                1.9859448749962787,
                -0.9907805101692804,
                0.10869565831919611
            ]
        },
        {
            "positions": [
                0.4094514854673142,
                -1.3177652284330628,
                2.567212434136741,
                1.9985985178186811,
                -1.0945106725730753,
                0.09922896087619573
            ]
        },
        {
            "positions": [
                0.28919164466711456,
                -1.2579466162660864,
                2.484969738126176,
                2.0112521606410834,
                -1.1982408349768703,
                0.08976226343319532
            ]
        },
        {
            "positions": [
                0.16893180386691486,
                -1.19812800409911,
                2.4027270421156115,
                2.023905803463486,
                -1.3019709973806655,
                0.08029556599019494
            ]
        },
        {
            "positions": [
                0.048671963066715285,
                -1.1383093919321339,
                2.320484346105047,
                2.0365594462858883,
                -1.4057011597844602,
                0.07082886854719454
            ]
        },
        {
            "positions": [
                -0.0715878777334844,
                -1.0784907797651573,
                2.238241650094482,
                2.049213089108291,
                -1.5094313221882554,
                0.061362171104194146
            ]
        },
        {
            "positions": [
                -0.191847718533684,
                -1.0186721675981811,
                2.155998954083918,
                2.061866731930693,
                -1.6131614845920503,
                0.05189547366119375
            ]
        },
        {
            "positions": [
                -0.3121075593338838,
                -0.9588535554312047,
                2.0737562580733533,
                2.074520374753096,
                -1.7168916469958453,
                0.042428776218193354
            ]
        },
        {
            "positions": [
                -0.43236740013408337,
                -0.8990349432642284,
                1.9915135620627886,
                2.087174017575498,
                -1.8206218093996402,
                0.03296207877519296
            ]
        },
        {
            "positions": [
                -0.552627240934283,
                -0.8392163310972521,
                1.909270866052224,
                2.0998276603979007,
                -1.9243519718034352,
                0.023495381332192575
            ]
        },
        {
            "positions": [
                -0.6728870817344825,
                -0.7793977189302759,
                1.8270281700416593,
                2.112481303220303,
                -2.02808213420723,
                0.014028683889192178
            ]
        },
        {
            "positions": [
                -0.7931469225346823,
                -0.7195791067632994,
                1.7447854740310946,
                2.1251349460427056,
                -2.131812296611025,
                0.004561986446191782
            ]
        },
        {
            "positions": [
                -0.913406763334882,
                -0.6597604945963231,
                1.6625427780205302,
                2.137788588865108,
                -2.23554245901482,
                -0.00490471099680862
            ]
        }
    ]
}