{
    "goal": {
        "global_pose": {
            "orientation": {
                "w": 0.005598929693374612,
                "x": 0.007748599140229565,
                "y": 0.7110244013736278,
                "z": -0.7031023480610252
            },
            "position": {
                "x": -0.8858502320852131,
                "y": -0.7141253447532654,
                "z": 0.3711530566215515
            }
        },
        "name": "move_to_auspresseinheit_C"
    },
    "id": "SBL_move_to_auspresseinheit_C_77",
    "joint_names": [
        "shoulder_pan_joint",
        "shoulder_lift_joint",
        "elbow_joint",
        "wrist_1_joint",
        "wrist_2_joint",
        "wrist_3_joint"
    ],
    "metrics": {
        "cart_traj_len": 0.49317258155101884,
        "distance_elbow_joint": 0.9941649977374806,
        "distance_shoulder_lift_joint": 0.32181247693710635,
        "distance_shoulder_pan_joint": 0.2568538211378577,
        "distance_wrist_1_joint": 0.6677246698152337,
        "distance_wrist_2_joint": 1.3093191301283313,
        "distance_wrist_3_joint": 0.05437473018038741,
        "smoothness": 6.459479416000911e-16,
        "time": 0.453195475,
        "traj_len": 1.8984861932435528,
        "weighted_distance": 2.38538111970409
    },
    "planner": "SBL",
    "start": {
        "state": {
            "elbow_joint": 1.7527959577737207,
            "shoulder_lift_joint": -0.9740617694225068,
            "shoulder_pan_joint": -2.967991417825858,
            "wrist_1_joint": -0.759517768980727,
            "wrist_2_joint": 1.7443932448377408,
            "wrist_3_joint": -3.0840537646736568
        }
    },
    "waypoints": [
        {
            "positions": [
                -2.967991417825858,
                -0.9740617694225068,
                1.7527959577737207,
                -0.759517768980727,
                1.7443932448377408,
                -3.0840537646736568
            ]
        },
        {
            "positions": [
                -2.9423060357120723,
                -0.9418805217287961,
                1.6533794579999725,
                -0.6927453019992036,
                1.6134613318249076,
                -3.0894912376916954
            ]
        },
        {
            "positions": [
                -2.9166206535982866,
                -0.9096992740350855,
                1.5539629582262244,
                -0.6259728350176802,
                1.4825294188120746,
                -3.094928710709734
            ]
        },
        {
            "positions": [
                -2.8909352714845005,
                -0.8775180263413749,
                1.4545464584524765,
                -0.5592003680361569,
                1.3515975057992415,
                -3.100366183727773
            ]
        },
        {
            "positions": [
                -2.865249889370715,
                -0.8453367786476642,
                1.3551299586787284,
                -0.49242790105463347,
                1.2206655927864083,
                -3.105803656745812
            ]
        },
        {
            "positions": [
                -2.839564507256929,
                -0.8131555309539535,
                1.2557134589049803,
                -0.42565543407311013,
                1.089733679773575,
                -3.1112411297638505
            ]
        },
        {
            "positions": [
                -2.8138791251431434,
                -0.780974283260243,
                1.1562969591312324,
                -0.3588829670915868,
                0.958801766760742,
                -3.116678602781889
            ]
        },
        {
            "positions": [
                -2.7881937430293577,
                -0.7487930355665323,
                1.0568804593574843,
                -0.2921105001100634,
                0.827869853747909,
                -3.122116075799928
            ]
        },
        {
            "positions": [
                -2.7625083609155716,
                -0.7166117878728218,
                0.9574639595837362,
                -0.22533803312853995,
                0.6969379407350758,
                -3.127553548817967
            ]
        },
        {
            "positions": [
                -2.736822978801786,
                -0.6844305401791111,
                0.8580474598099881,
                -0.15856556614701667,
                0.5660060277222425,
                -3.1329910218360055
            ]
        },
        {
            "positions": [
                -2.7111375966880003,
                -0.6522492924854004,
                0.7586309600362401,
                -0.09179309916549329,
                0.4350741147094095,
                -3.138428494854044
            ]
        }
    ]
}