{
    "goal": {
        "global_pose": {
            "orientation": {
                "w": -0.4816463035849501,
                "x": 0.5182115481033762,
                "y": 0.4908360881923453,
                "z": -0.5084816262002911
            },
            "position": {
                "x": -0.8240239810943604,
                "y": 0.19912469901144506,
                "z": 0.16403168439865112
            }
        },
        "name": "move_to_storage_D"
    },
    "id": "SBL_move_to_storage_D_74",
    "joint_names": [
        "shoulder_pan_joint",
        "shoulder_lift_joint",
        "elbow_joint",
        "wrist_1_joint",
        "wrist_2_joint",
        "wrist_3_joint"
    ],
    "metrics": {
        "cart_traj_len": 3.8868526795405827,
        "distance_elbow_joint": 4.20948628386513,
        "distance_shoulder_lift_joint": 1.2831460483561932,
        "distance_shoulder_pan_joint": 2.812566408931672,
        "distance_wrist_1_joint": 2.2664738046742423,
        "distance_wrist_2_joint": 0.9018549918043615,
        "distance_wrist_3_joint": 3.130672261088726,
        "smoothness": 0.05284008144860026,
        "time": 0.44664350199999997,
        "traj_len": 3.8215441641724253,
        "weighted_distance": 4.9024354271501
    },
    "planner": "SBL",
    "start": {
        "state": {
            "elbow_joint": -2.384821988534728,
            "shoulder_lift_joint": -2.2788054721415256,
            "shoulder_pan_joint": -0.1854694642142757,
            "wrist_1_joint": 1.4845938289331202,
            "wrist_2_joint": 0.17898776772866878,
            "wrist_3_joint": 0.037105688729662994
        }
    },
    "waypoints": [
        {
            "positions": [
                -0.1854694642142757,
                -2.2788054721415256,
                -2.384821988534728,
                1.4845938289331202,
                0.17898776772866878,
                0.037105688729662994
            ]
        },
        {
            "positions": [
                -0.12008242789060143,
                -2.24028185139026,
                -2.375303859373127,
                1.4652122029696208,
                0.16298005525659115,
                -0.029683363596509874
            ]
        },
        {
            "positions": [
                -0.04019646319399986,
                -2.202845948838565,
                -2.2653768987574137,
                1.4042983017063955,
                0.18691238969843926,
                -0.11063870108179238
            ]
        },
        {
            "positions": [
                0.03968950150260171,
                -2.16541004628687,
                -2.1554499381417003,
                1.34338440044317,
                0.21084472414028735,
                -0.1915940385670749
            ]
        },
        {
            "positions": [
                0.1195754661992033,
                -2.127974143735175,
                -2.045522977525987,
                1.2824704991799445,
                0.23477705858213543,
                -0.2725493760523574
            ]
        },
        {
            "positions": [
                0.19946143089580487,
                -2.0905382411834794,
                -1.9355960169102737,
                1.2215565979167191,
                0.25870939302398355,
                -0.3535047135376399
            ]
        },
        {
            "positions": [
                0.27934739559240646,
                -2.0531023386317844,
                -1.8256690562945603,
                1.1606426966534937,
                0.28264172746583166,
                -0.4344600510229224
            ]
        },
        {
            "positions": [
                0.35923336028900804,
                -2.0156664360800893,
                -1.715742095678847,
                1.0997287953902684,
                0.3065740619076798,
                -0.5154153885082049
            ]
        },
        {
            "positions": [
                0.4391193249856097,
                -1.9782305335283943,
                -1.6058151350631336,
                1.038814894127043,
                0.33050639634952783,
                -0.5963707259934875
            ]
        },
        {
            "positions": [
                0.5190052896822112,
                -1.9407946309766992,
                -1.4958881744474204,
                0.9779009928638174,
                0.35443873079137594,
                -0.67732606347877
            ]
        },
        {
            "positions": [
                0.5988912543788127,
                -1.9033587284250042,
                -1.385961213831707,
                0.9169870916005921,
                0.37837106523322406,
                -0.7582814009640524
            ]
        },
        {
            "positions": [
                0.6787772190754143,
                -1.865922825873309,
                -1.2760342532159936,
                0.8560731903373666,
                0.4023033996750721,
                -0.839236738449335
            ]
        },
        {
            "positions": [
                0.7586631837720159,
                -1.8284869233216139,
                -1.1661072926002802,
                0.7951592890741412,
                0.42623573411692023,
                -0.9201920759346174
            ]
        },
        {
            "positions": [
                0.8385491484686175,
                -1.7910510207699186,
                -1.0561803319845668,
                0.7342453878109158,
                0.45016806855876834,
                -1.0011474134198999
            ]
        },
        {
            "positions": [
                0.9184351131652191,
                -1.7536151182182236,
                -0.9462533713688537,
                0.6733314865476904,
                0.4741004030006164,
                -1.0821027509051824
            ]
        },
        {
            "positions": [
                0.9983210778618208,
                -1.7161792156665285,
                -0.8363264107531401,
                0.6124175852844649,
                0.4980327374424645,
                -1.163058088390465
            ]
        },
        {
            "positions": [
                1.0782070425584223,
                -1.6787433131148335,
                -0.7263994501374269,
                0.5515036840212395,
                0.5219650718843126,
                -1.2440134258757474
            ]
        },
        {
            "positions": [
                1.1580930072550237,
                -1.6413074105631382,
                -0.6164724895217135,
                0.490589782758014,
                0.5458974063261608,
                -1.32496876336103
            ]
        },
        {
            "positions": [
                1.2379789719516254,
                -1.6038715080114432,
                -0.5065455289060001,
                0.42967588149478875,
                0.5698297407680089,
                -1.4059241008463124
            ]
        },
        {
            "positions": [
                1.317864936648227,
                -1.5664356054597481,
                -0.39661856829028697,
                0.36876198023156337,
                0.5937620752098569,
                -1.4868794383315949
            ]
        },
        {
            "positions": [
                1.3977509013448286,
                -1.5289997029080529,
                -0.28669160767457313,
                0.30784807896833777,
                0.617694409651705,
                -1.5678347758168776
            ]
        },
        {
            "positions": [
                1.47763686604143,
                -1.4915638003563578,
                -0.1767646470588602,
                0.2469341777051124,
                0.6416267440935531,
                -1.64879011330216
            ]
        },
        {
            "positions": [
                1.5575228307380315,
                -1.4541278978046628,
                -0.0668376864431468,
                0.186020276441887,
                0.6655590785354013,
                -1.7297454507874426
            ]
        },
        {
            "positions": [
                1.6374087954346332,
                -1.4166919952529677,
                0.04308927417256658,
                0.12510637517866163,
                0.6894914129772494,
                -1.8107007882727248
            ]
        },
        {
            "positions": [
                1.717294760131235,
                -1.3792560927012725,
                0.15301623478827997,
                0.06419247391543603,
                0.7134237474190974,
                -1.8916561257580076
            ]
        },
        {
            "positions": [
                1.7971807248278364,
                -1.3418201901495772,
                0.26294319540399336,
                0.003278572652210654,
                0.7373560818609455,
                -1.97261146324329
            ]
        },
        {
            "positions": [
                1.877066689524438,
                -1.3043842875978822,
                0.37287015601970674,
                -0.057635328611014724,
                0.7612884163027935,
                -2.0535668007285723
            ]
        },
        {
            "positions": [
                1.9569526542210396,
                -1.2669483850461871,
                0.4827971166354197,
                -0.1185492298742401,
                0.7852207507446416,
                -2.1345221382138546
            ]
        },
        {
            "positions": [
                2.036838618917641,
                -1.229512482494492,
                0.5927240772511335,
                -0.1794631311374657,
                0.8091530851864899,
                -2.2154774756991373
            ]
        },
        {
            "positions": [
                2.1167245836142428,
                -1.1920765799427968,
                0.7026510378668469,
                -0.24037703240069108,
                0.8330854196283379,
                -2.29643281318442
            ]
        },
        {
            "positions": [
                2.196610548310844,
                -1.1546406773911018,
                0.8125779984825598,
                -0.30129093366391646,
                0.857017754070186,
                -2.3773881506697023
            ]
        },
        {
            "positions": [
                2.2764965130074457,
                -1.1172047748394067,
                0.9225049590982732,
                -0.36220483492714184,
                0.880950088512034,
                -2.4583434881549846
            ]
        },
        {
            "positions": [
                2.3563824777040474,
                -1.0797688722877115,
                1.032431919713987,
                -0.42311873619036744,
                0.9048824229538823,
                -2.5392988256402673
            ]
        },
        {
            "positions": [
                2.4362684424006487,
                -1.0423329697360164,
                1.1423588803297,
                -0.4840326374535928,
                0.9288147573957304,
                -2.62025416312555
            ]
        },
        {
            "positions": [
                2.5161544070972504,
                -1.0048970671843214,
                1.2522858409454132,
                -0.5449465387168184,
                0.9527470918375784,
                -2.7012095006108323
            ]
        },
        {
            "positions": [
                2.5438900415022867,
                -1.0072064780340686,
                1.3953804545416602,
                -0.6041798979728943,
                0.9767671525254026,
                -2.79929876854789
            ]
        },
        {
            "positions": [
                2.571625675907323,
                -1.0095158888838158,
                1.5384750681379074,
                -0.66341325722897,
                1.0007872132132267,
                -2.897388036484948
            ]
        },
        {
            "positions": [
                2.5993613103123594,
                -1.011825299733563,
                1.6815696817341543,
                -0.7226466164850458,
                1.0248072739010508,
                -2.995477304422005
            ]
        },
        {
            "positions": [
                2.6270969447173957,
                -1.0141347105833103,
                1.8246642953304013,
                -0.7818799757411217,
                1.048827334588875,
                -3.093566572359063
            ]
        }
    ]
}