{
    "goal": {
        "global_pose": {
            "orientation": {
                "w": -0.00223480608172531,
                "x": 0.0024358444001904467,
                "y": 0.7094548369677653,
                "z": -0.704743149386269
            },
            "position": {
                "x": 0.6205249238014221,
                "y": -0.6371506643295288,
                "z": 0.19426114857196808
            }
        },
        "name": "move_to_magneteinheit_B"
    },
    "id": "SBL_move_to_magneteinheit_B_115",
    "joint_names": [
        "shoulder_pan_joint",
        "shoulder_lift_joint",
        "elbow_joint",
        "wrist_1_joint",
        "wrist_2_joint",
        "wrist_3_joint"
    ],
    "metrics": {
        "cart_traj_len": 1.8611464120493668,
        "distance_elbow_joint": 1.3571911691325047,
        "distance_shoulder_lift_joint": 1.333009228061059,
        "distance_shoulder_pan_joint": 2.1844684734901376,
        "distance_wrist_1_joint": 1.913912999645337,
        "distance_wrist_2_joint": 1.909397539928219,
        "distance_wrist_3_joint": 1.9802170958068566,
        "smoothness": 0.8373370529964399,
        "time": 0.233290977,
        "traj_len": 3.2677509859326968,
        "weighted_distance": 4.296736114453782
    },
    "planner": "SBL",
    "start": {
        "state": {
            "elbow_joint": 2.6216224122426386,
            "shoulder_lift_joint": -1.4174107377796124,
            "shoulder_pan_joint": 0.7066234856936794,
            "wrist_1_joint": 1.9546482284002225,
            "wrist_2_joint": -0.7096286983471962,
            "wrist_3_joint": 0.005740856962016249
        }
    },
    "waypoints": [
        {
            "positions": [
                0.7066234856936794,
                -1.4174107377796124,
                2.6216224122426386,
                1.9546482284002225,
                -0.7096286983471962,
                0.005740856962016249
            ]
        },
        {
            "positions": [
                0.5543154867653823,
                -1.4536116895107387,
                2.5905704617591763,
                1.9356091489758112,
                -0.6852958452545157,
                -0.11735510720035022
            ]
        },
        {
            "positions": [
                0.4020074878370854,
                -1.4898126412418649,
                2.559518511275714,
                1.9165700695513999,
                -0.6609629921618351,
                -0.24045107136271668
            ]
        },
        {
            "positions": [
                0.2496994889087884,
                -1.5260135929729912,
                2.528466560792252,
                1.8975309901269886,
                -0.6366301390691544,
                -0.36354703552508316
            ]
        },
        {
            "positions": [
                0.09739148998049141,
                -1.5622145447041174,
                2.4974146103087898,
                1.8784919107025773,
                -0.6122972859764739,
                -0.4866429996874496
            ]
        },
        {
            "positions": [
                -0.05491650894780553,
                -1.5984154964352437,
                2.4663626598253274,
                1.8594528312781657,
                -0.5879644328837934,
                -0.6097389638498162
            ]
        },
        {
            "positions": [
                -0.20722450787610258,
                -1.63461644816637,
                2.4353107093418656,
                1.8404137518537544,
                -0.5636315797911128,
                -0.7328349280121826
            ]
        },
        {
            "positions": [
                -0.35953250680439963,
                -1.6708173998974964,
                2.4042587588584032,
                1.8213746724293431,
                -0.5392987266984322,
                -0.8559308921745491
            ]
        },
        {
            "positions": [
                -0.5118405057326965,
                -1.7070183516286226,
                2.373206808374941,
                1.8023355930049318,
                -0.5149658736057516,
                -0.9790268563369156
            ]
        },
        {
            "positions": [
                -0.47663775274134323,
                -1.6694009331830006,
                2.2597592161995834,
                1.714028920661946,
                -0.5731837484278204,
                -0.9471265464170744
            ]
        },
        {
            "positions": [
                -0.44143499974999,
                -1.631783514737379,
                2.146311624024226,
                1.6257222483189602,
                -0.631401623249889,
                -0.9152262364972332
            ]
        },
        {
            "positions": [
                -0.40623224675863673,
                -1.594166096291757,
                2.0328640318488684,
                1.5374155759759742,
                -0.6896194980719578,
                -0.8833259265773921
            ]
        },
        {
            "positions": [
                -0.3710294937672835,
                -1.556548677846135,
                1.9194164396735112,
                1.4491089036329883,
                -0.7478373728940264,
                -0.8514256166575509
            ]
        },
        {
            "positions": [
                -0.3358267407759303,
                -1.5189312594005133,
                1.8059688474981537,
                1.3608022312900026,
                -0.8060552477160952,
                -0.8195253067377097
            ]
        },
        {
            "positions": [
                -0.300623987784577,
                -1.4813138409548914,
                1.6925212553227964,
                1.2724955589470166,
                -0.8642731225381639,
                -0.7876249968178686
            ]
        },
        {
            "positions": [
                -0.26542123479322377,
                -1.4436964225092694,
                1.579073663147439,
                1.1841888866040309,
                -0.9224909973602327,
                -0.7557246868980274
            ]
        },
        {
            "positions": [
                -0.23021848180187054,
                -1.4060790040636477,
                1.4656260709720814,
                1.095882214261045,
                -0.9807088721823013,
                -0.7238243769781862
            ]
        },
        {
            "positions": [
                -0.2872503533129485,
                -1.344207148509725,
                1.4823923066272437,
                1.1838111297198917,
                -1.0847915152331533,
                -0.6621371350490867
            ]
        },
        {
            "positions": [
                -0.34428222482402643,
                -1.282335292955802,
                1.499158542282406,
                1.2717400451787382,
                -1.1888741582840054,
                -0.600449893119987
            ]
        },
        {
            "positions": [
                -0.4013140963351044,
                -1.2204634374018792,
                1.5159247779375682,
                1.3596689606375847,
                -1.2929568013348574,
                -0.5387626511908874
            ]
        },
        {
            "positions": [
                -0.4583459678461823,
                -1.1585915818479564,
                1.5326910135927305,
                1.4475978760964314,
                -1.3970394443857095,
                -0.4770754092617878
            ]
        },
        {
            "positions": [
                -0.5153778393572603,
                -1.0967197262940336,
                1.5494572492478929,
                1.5355267915552782,
                -1.5011220874365616,
                -0.41538816733268813
            ]
        },
        {
            "positions": [
                -0.5724097108683383,
                -1.0348478707401108,
                1.5662234849030552,
                1.6234557070141247,
                -1.6052047304874137,
                -0.35370092540358855
            ]
        },
        {
            "positions": [
                -0.6294415823794162,
                -0.9729760151861879,
                1.5829897205582175,
                1.7113846224729712,
                -1.7092873735382659,
                -0.2920136834744889
            ]
        },
        {
            "positions": [
                -0.6864734538904942,
                -0.9111041596322651,
                1.5997559562133798,
                1.799313537931818,
                -1.8133700165891176,
                -0.23032644154538934
            ]
        },
        {
            "positions": [
                -0.7435053254015721,
                -0.8492323040783423,
                1.6165221918685422,
                1.8872424533906647,
                -1.9174526596399697,
                -0.1686391996162897
            ]
        },
        {
            "positions": [
                -0.8005371969126501,
                -0.7873604485244194,
                1.6332884275237043,
                1.9751713688495112,
                -2.021535302690822,
                -0.10695195768719001
            ]
        },
        {
            "positions": [
                -0.8575690684237279,
                -0.7254885929704966,
                1.6500546631788666,
                2.0631002843083577,
                -2.125617945741674,
                -0.045264715758090546
            ]
        },
        {
            "positions": [
                -0.914600939934806,
                -0.6636167374165738,
                1.666820898834029,
                2.1510291997672044,
                -2.229700588792526,
                0.01642252617100913
            ]
        }
    ]
}