{
    "goal": {
        "global_pose": {
            "orientation": {
                "w": 0.5084816262002911,
                "x": -0.4908360881923452,
                "y": 0.5182115481033761,
                "z": -0.48164630358495003
            },
            "position": {
                "x": 0.5540239810943604,
                "y": -0.46912469901144505,
                "z": 0.16403168439865112
            }
        },
        "name": "move_to_storage_B"
    },
    "id": "SBL_move_to_storage_B_1",
    "joint_names": [
        "shoulder_pan_joint",
        "shoulder_lift_joint",
        "elbow_joint",
        "wrist_1_joint",
        "wrist_2_joint",
        "wrist_3_joint"
    ],
    "metrics": {
        "cart_traj_len": 4.97212522071299,
        "distance_elbow_joint": 3.8036602153539976,
        "distance_shoulder_lift_joint": 1.3594209876500252,
        "distance_shoulder_pan_joint": 3.755599695677296,
        "distance_wrist_1_joint": 2.915358038253922,
        "distance_wrist_2_joint": 3.128802896910131,
        "distance_wrist_3_joint": 4.117827633108108,
        "smoothness": 0.4499862430686638,
        "time": 0.717348474,
        "traj_len": 4.3681425648613486,
        "weighted_distance": 5.775853674421969
    },
    "planner": "SBL",
    "start": {
        "state": {
            "elbow_joint": -1.6666013991110213,
            "shoulder_lift_joint": -2.479295265494141,
            "shoulder_pan_joint": 2.6606783912885628,
            "wrist_1_joint": 0.9897123657714939,
            "wrist_2_joint": 0.474351758749468,
            "wrist_3_joint": 0.013243222496468381
        }
    },
    "waypoints": [
        {
            "positions": [
                2.6606783912885628,
                -2.479295265494141,
                -1.6666013991110213,
                0.9897123657714939,
                0.474351758749468,
                0.013243222496468381
            ]
        },
        {
            "positions": [
                2.6398550422988722,
                -2.461366302818334,
                -1.6820128591087207,
                0.899610319930733,
                0.3961284232201777,
                0.10338126981804992
            ]
        },
        {
            "positions": [
                2.619031693309182,
                -2.443437340142527,
                -1.6974243191064202,
                0.8095082740899721,
                0.3179050876908874,
                0.19351931713963147
            ]
        },
        {
            "positions": [
                2.5982083443194917,
                -2.4255083774667203,
                -1.7128357791041195,
                0.7194062282492111,
                0.23968175216159707,
                0.283657364461213
            ]
        },
        {
            "positions": [
                2.577384995329801,
                -2.4075794147909133,
                -1.7282472391018189,
                0.6293041824084502,
                0.16145841663230676,
                0.3737954117827945
            ]
        },
        {
            "positions": [
                2.5476131130765607,
                -2.381789859958388,
                -1.723238813955861,
                0.4921996433837903,
                0.07183103757088846,
                0.4665525672303963
            ]
        },
        {
            "positions": [
                2.5178412308233202,
                -2.356000305125863,
                -1.7182303888099029,
                0.35509510435913044,
                -0.017796341490529832,
                0.559309722677998
            ]
        },
        {
            "positions": [
                2.4880693485700798,
                -2.330210750293338,
                -1.713221963663945,
                0.21799056533447053,
                -0.1074237205519481,
                0.6520668781255998
            ]
        },
        {
            "positions": [
                2.4582974663168398,
                -2.3044211954608125,
                -1.7082135385179869,
                0.08088602630981068,
                -0.19705109961336642,
                0.7448240335732015
            ]
        },
        {
            "positions": [
                2.4285255840635993,
                -2.278631640628287,
                -1.703205113372029,
                -0.056218512714849234,
                -0.28667847867478474,
                0.8375811890208034
            ]
        },
        {
            "positions": [
                2.398753701810359,
                -2.2528420857957623,
                -1.6981966882260708,
                -0.19332305173950914,
                -0.37630585773620295,
                0.930338344468405
            ]
        },
        {
            "positions": [
                2.3689818195571184,
                -2.227052530963237,
                -1.693188263080113,
                -0.33042759076416905,
                -0.46593323679762133,
                1.023095499916007
            ]
        },
        {
            "positions": [
                2.339209937303878,
                -2.2012629761307116,
                -1.688179837934155,
                -0.46753212978882885,
                -0.5555606158590396,
                1.1158526553636086
            ]
        },
        {
            "positions": [
                2.3094380550506375,
                -2.1754734212981868,
                -1.683171412788197,
                -0.604636668813489,
                -0.645187994920458,
                1.2086098108112102
            ]
        },
        {
            "positions": [
                2.279666172797397,
                -2.1496838664656615,
                -1.678162987642239,
                -0.7417412078381487,
                -0.7348153739818762,
                1.301366966258812
            ]
        },
        {
            "positions": [
                2.249894290544157,
                -2.123894311633136,
                -1.673154562496281,
                -0.8788457468628086,
                -0.8244427530432945,
                1.394124121706414
            ]
        },
        {
            "positions": [
                2.2201224082909166,
                -2.098104756800611,
                -1.668146137350323,
                -1.0159502858874685,
                -0.9140701321047127,
                1.4868812771540156
            ]
        },
        {
            "positions": [
                2.190350526037676,
                -2.072315201968086,
                -1.663137712204365,
                -1.1530548249121284,
                -1.0036975111661313,
                1.5796384326016173
            ]
        },
        {
            "positions": [
                2.1605786437844356,
                -2.0465256471355606,
                -1.658129287058407,
                -1.2901593639367883,
                -1.0933248902275494,
                1.6723955880492192
            ]
        },
        {
            "positions": [
                2.134530959704094,
                -2.033910438793079,
                -1.5590561136623053,
                -1.3133971622441973,
                -1.0287490581186987,
                1.5500829992012348
            ]
        },
        {
            "positions": [
                2.108483275623752,
                -2.021295230450597,
                -1.4599829402662035,
                -1.3366349605516064,
                -0.9641732260098479,
                1.4277704103532503
            ]
        },
        {
            "positions": [
                2.08243559154341,
                -2.0086800221081154,
                -1.3609097668701016,
                -1.3598727588590156,
                -0.8995973939009971,
                1.305457821505266
            ]
        },
        {
            "positions": [
                2.056387907463068,
                -1.9960648137656338,
                -1.261836593474,
                -1.3831105571664246,
                -0.8350215617921464,
                1.1831452326572816
            ]
        },
        {
            "positions": [
                1.9477220725716269,
                -1.9658513470097194,
                -1.148884740724504,
                -1.3644024497417349,
                -0.7900966335336046,
                1.2510564365249857
            ]
        },
        {
            "positions": [
                1.8390562376801853,
                -1.935637880253805,
                -1.035932887975008,
                -1.345694342317045,
                -0.7451717052750629,
                1.3189676403926898
            ]
        },
        {
            "positions": [
                1.730390402788744,
                -1.9054244134978906,
                -0.9229810352255121,
                -1.3269862348923553,
                -0.7002467770165212,
                1.3868788442603939
            ]
        },
        {
            "positions": [
                1.6217245678973025,
                -1.8752109467419762,
                -0.8100291824760162,
                -1.3082781274676654,
                -0.6553218487579795,
                1.454790048128098
            ]
        },
        {
            "positions": [
                1.5130587330058611,
                -1.8449974799860618,
                -0.6970773297265201,
                -1.2895700200429756,
                -0.6103969204994377,
                1.522701251995802
            ]
        },
        {
            "positions": [
                1.4043928981144198,
                -1.8147840132301474,
                -0.5841254769770243,
                -1.2708619126182858,
                -0.565471992240896,
                1.5906124558635062
            ]
        },
        {
            "positions": [
                1.2957270632229783,
                -1.784570546474233,
                -0.4711736242275283,
                -1.252153805193596,
                -0.5205470639823542,
                1.6585236597312103
            ]
        },
        {
            "positions": [
                1.187061228331537,
                -1.7543570797183186,
                -0.35822177147803247,
                -1.2334456977689063,
                -0.4756221357238125,
                1.7264348635989144
            ]
        },
        {
            "positions": [
                1.0783953934400956,
                -1.7241436129624041,
                -0.24526991872853654,
                -1.2147375903442166,
                -0.43069720746527074,
                1.7943460674666185
            ]
        },
        {
            "positions": [
                0.9697295585486541,
                -1.6939301462064895,
                -0.1323180659790404,
                -1.1960294829195268,
                -0.38577227920672896,
                1.8622572713343228
            ]
        },
        {
            "positions": [
                0.8610637236572127,
                -1.6637166794505753,
                -0.019366213229544682,
                -1.177321375494837,
                -0.3408473509481873,
                1.9301684752020267
            ]
        },
        {
            "positions": [
                0.7523978887657714,
                -1.6335032126946607,
                0.09358563951995125,
                -1.1586132680701473,
                -0.2959224226896455,
                1.998079679069731
            ]
        },
        {
            "positions": [
                0.6437320538743299,
                -1.6032897459387465,
                0.2065374922694474,
                -1.1399051606454573,
                -0.25099749443110375,
                2.0659908829374354
            ]
        },
        {
            "positions": [
                0.5350662189828883,
                -1.5730762791828319,
                0.3194893450189433,
                -1.1211970532207676,
                -0.2060725661725621,
                2.133902086805139
            ]
        },
        {
            "positions": [
                0.426400384091447,
                -1.5428628124269175,
                0.43244119776843926,
                -1.1024889457960778,
                -0.16114763791402031,
                2.2018132906728436
            ]
        },
        {
            "positions": [
                0.31773454920000566,
                -1.512649345671003,
                0.545393050517935,
                -1.083780838371388,
                -0.11622270965547865,
                2.2697244945405473
            ]
        },
        {
            "positions": [
                0.20906871430856433,
                -1.4824358789150889,
                0.6583449032674309,
                -1.0650727309466983,
                -0.07129778139693688,
                2.337635698408252
            ]
        },
        {
            "positions": [
                0.10040287941712278,
                -1.4522224121591742,
                0.7712967560169268,
                -1.0463646235220085,
                -0.026372853138395103,
                2.4055469022759555
            ]
        },
        {
            "positions": [
                -0.008262955474318545,
                -1.42200894540326,
                0.884248608766423,
                -1.0276565160973188,
                0.01855207512014656,
                2.47345810614366
            ]
        },
        {
            "positions": [
                -0.1169287903657601,
                -1.3917954786473454,
                0.9972004615159191,
                -1.0089484086726288,
                0.06347700337868845,
                2.541369310011364
            ]
        },
        {
            "positions": [
                -0.22559462525720164,
                -1.3615820118914312,
                1.1101523142654148,
                -0.9902403012479392,
                0.10840193163723011,
                2.6092805138790682
            ]
        },
        {
            "positions": [
                -0.33426046014864275,
                -1.3313685451355166,
                1.2231041670149105,
                -0.9715321938232494,
                0.15332685989577177,
                2.677191717746772
            ]
        },
        {
            "positions": [
                -0.4429262950400843,
                -1.3011550783796022,
                1.3360560197644067,
                -0.9528240863985595,
                0.19825178815431355,
                2.7451029216144764
            ]
        },
        {
            "positions": [
                -0.5515921299315254,
                -1.2709416116236878,
                1.4490078725139024,
                -0.9341159789738698,
                0.24317671641285532,
                2.8130141254821805
            ]
        },
        {
            "positions": [
                -0.660257964822967,
                -1.2407281448677736,
                1.5619597252633985,
                -0.91540787154918,
                0.2881016446713969,
                2.8809253293498847
            ]
        },
        {
            "positions": [
                -0.7689237997144085,
                -1.210514678111859,
                1.6749115780128947,
                -0.8966997641244903,
                0.33302657292993887,
                2.9488365332175888
            ]
        },
        {
            "positions": [
                -0.8775896346058496,
                -1.1803012113559446,
                1.7878634307623904,
                -0.8779916566998005,
                0.3779515011884804,
                3.016747737085293
            ]
        },
        {
            "positions": [
                -0.9862554694972916,
                -1.1500877446000302,
                1.9008152835118866,
                -0.8592835492751106,
                0.4228764294470222,
                3.084658940952997
            ]
        },
        {
            "positions": [
                -1.0949213043887327,
                -1.1198742778441158,
                2.0137671362613823,
                -0.8405754418504209,
                0.4678013577055639,
                3.152570144820701
            ]
        }
    ]
}