{
    "goal": {
        "global_pose": {
            "orientation": {
                "w": 0.005598929693374612,
                "x": 0.007748599140229565,
                "y": 0.7110244013736278,
                "z": -0.7031023480610252
            },
            "position": {
                "x": 0.1141497679147869,
                "y": -0.7141253447532654,
                "z": 0.3711530566215515
            }
        },
        "name": "move_to_auspresseinheit_B"
    },
    "id": "SBL_move_to_auspresseinheit_B_29",
    "joint_names": [
        "shoulder_pan_joint",
        "shoulder_lift_joint",
        "elbow_joint",
        "wrist_1_joint",
        "wrist_2_joint",
        "wrist_3_joint"
    ],
    "metrics": {
        "cart_traj_len": 0.5645890252653885,
        "distance_elbow_joint": 0.06512220128495017,
        "distance_shoulder_lift_joint": 0.2945151934708201,
        "distance_shoulder_pan_joint": 0.5761010372781867,
        "distance_wrist_1_joint": 0.3361681280904233,
        "distance_wrist_2_joint": 0.9972699230319548,
        "distance_wrist_3_joint": 0.006440273027914056,
        "smoothness": 3.806478935924272e-16,
        "time": 0.24377795600000002,
        "traj_len": 1.5085147517290804,
        "weighted_distance": 1.9031382906563714
    },
    "planner": "SBL",
    "start": {
        "state": {
            "elbow_joint": 2.0193083361928714,
            "shoulder_lift_joint": -1.1220246554650708,
            "shoulder_pan_joint": -1.0952077554168747,
            "wrist_1_joint": -0.8559753972642168,
            "wrist_2_joint": 0.4759566250798843,
            "wrist_3_joint": -3.1240929996934557
        }
    },
    "waypoints": [
        {
            "positions": [
                -1.0952077554168747,
                -1.1220246554650708,
                2.0193083361928714,
                -0.8559753972642168,
                0.4759566250798843,
                -3.1240929996934557
            ]
        },
        {
            "positions": [
                -1.1912245949632392,
                -1.1711105210435409,
                2.008454635978713,
                -0.7999473759158129,
                0.6421682789185434,
                -3.12301962085547
            ]
        },
        {
            "positions": [
                -1.2872414345096035,
                -1.220196386622011,
                1.9976009357645548,
                -0.743919354567409,
                0.8083799327572025,
                -3.121946242017484
            ]
        },
        {
            "positions": [
                -1.383258274055968,
                -1.269282252200481,
                1.9867472355503963,
                -0.6878913332190051,
                0.9745915865958616,
                -3.120872863179499
            ]
        },
        {
            "positions": [
                -1.4792751136023323,
                -1.3183681177789508,
                1.975893535336238,
                -0.6318633118706013,
                1.1408032404345207,
                -3.119799484341513
            ]
        },
        {
            "positions": [
                -1.5752919531486969,
                -1.3674539833574209,
                1.9650398351220797,
                -0.5758352905221973,
                1.30701489427318,
                -3.1187261055035274
            ]
        },
        {
            "positions": [
                -1.6713087926950614,
                -1.416539848935891,
                1.9541861349079213,
                -0.5198072691737935,
                1.4732265481118392,
                -3.1176527266655416
            ]
        }
    ]
}