{
    "goal": {
        "global_pose": {
            "orientation": {
                "w": 0.7031023502349854,
                "x": -0.7110244035720825,
                "y": 0.007748599164187908,
                "z": 0.005598929710686207
            },
            "position": {
                "x": 0.11585023208521307,
                "y": 0.44412534475326537,
                "z": 0.3711530566215515
            }
        },
        "name": "move_to_auspresseinheit_A"
    },
    "id": "SBL_move_to_auspresseinheit_A_87",
    "joint_names": [
        "shoulder_pan_joint",
        "shoulder_lift_joint",
        "elbow_joint",
        "wrist_1_joint",
        "wrist_2_joint",
        "wrist_3_joint"
    ],
    "metrics": {
        "cart_traj_len": 1.5626977799023267,
        "distance_elbow_joint": 1.4668195192429732,
        "distance_shoulder_lift_joint": 0.9296868462487031,
        "distance_shoulder_pan_joint": 1.5365460162053086,
        "distance_wrist_1_joint": 1.7228655443704963,
        "distance_wrist_2_joint": 1.2341185635082432,
        "distance_wrist_3_joint": 3.00456568391918,
        "smoothness": 0.5526343072729423,
        "time": 0.232485518,
        "traj_len": 3.1455686566175767,
        "weighted_distance": 4.342892774316677
    },
    "planner": "SBL",
    "start": {
        "state": {
            "elbow_joint": 2.4225746658250005,
            "shoulder_lift_joint": -1.3736534386056498,
            "shoulder_pan_joint": -0.3378633547517467,
            "wrist_1_joint": -1.0288598680537169,
            "wrist_2_joint": 1.233022673432363,
            "wrist_3_joint": -3.0940220416140027
        }
    },
    "waypoints": [
        {
            "positions": [
                -0.3378633547517467,
                -1.3736534386056498,
                2.4225746658250005,
                -1.0288598680537169,
                1.233022673432363,
                -3.0940220416140027
            ]
        },
        {
            "positions": [
                -0.2871915310749774,
                -1.4158498453936972,
                2.3727663726075505,
                -0.9539701133641896,
                1.176250491086313,
                -2.9951286827030787
            ]
        },
        {
            "positions": [
                -0.23651970739820805,
                -1.4580462521817446,
                2.3229580793901006,
                -0.8790803586746623,
                1.119478308740263,
                -2.896235323792155
            ]
        },
        {
            "positions": [
                -0.18584788372143873,
                -1.5002426589697921,
                2.2731497861726506,
                -0.804190603985135,
                1.062706126394213,
                -2.797341964881231
            ]
        },
        {
            "positions": [
                -0.1351760600446694,
                -1.5424390657578395,
                2.2233414929552007,
                -0.7293008492956077,
                1.005933944048163,
                -2.6984486059703077
            ]
        },
        {
            "positions": [
                -0.08450423636790011,
                -1.5846354725458869,
                2.1735331997377507,
                -0.6544110946060804,
                0.9491617617021129,
                -2.5995552470593837
            ]
        },
        {
            "positions": [
                -0.03383241269113074,
                -1.6268318793339342,
                2.1237249065203008,
                -0.579521339916553,
                0.8923895793560628,
                -2.5006618881484597
            ]
        },
        {
            "positions": [
                0.01683941098563857,
                -1.6690282861219816,
                2.073916613302851,
                -0.5046315852270257,
                0.8356173970100128,
                -2.401768529237536
            ]
        },
        {
            "positions": [
                0.06751123466240794,
                -1.711224692910029,
                2.024108320085401,
                -0.42974183053749837,
                0.7788452146639628,
                -2.302875170326612
            ]
        },
        {
            "positions": [
                0.11818305833917725,
                -1.7534210996980766,
                1.9743000268679507,
                -0.35485207584797107,
                0.7220730323179128,
                -2.203981811415688
            ]
        },
        {
            "positions": [
                0.1688548820159465,
                -1.795617506486124,
                1.9244917336505007,
                -0.27996232115844377,
                0.6653008499718628,
                -2.1050884525047646
            ]
        },
        {
            "positions": [
                0.21952670569271587,
                -1.8378139132741713,
                1.8746834404330506,
                -0.20507256646891647,
                0.6085286676258128,
                -2.0061950935938406
            ]
        },
        {
            "positions": [
                0.27019852936948524,
                -1.880010320062219,
                1.8248751472156006,
                -0.13018281177938906,
                0.5517564852797626,
                -1.9073017346829169
            ]
        },
        {
            "positions": [
                0.3208703530462546,
                -1.9222067268502663,
                1.7750668539981507,
                -0.055293057089861763,
                0.49498430293371265,
                -1.8084083757719929
            ]
        },
        {
            "positions": [
                0.37154217672302386,
                -1.9644031336383136,
                1.7252585607807007,
                0.019596697599665536,
                0.43821212058766257,
                -1.709515016861069
            ]
        },
        {
            "positions": [
                0.42221400039979323,
                -2.006599540426361,
                1.6754502675632508,
                0.09448645228919281,
                0.3814399382416126,
                -1.6106216579501453
            ]
        },
        {
            "positions": [
                0.5396007942952628,
                -2.046443186132884,
                1.718817759137874,
                0.10543959985952314,
                0.36561329987239877,
                -1.6275418104342818
            ]
        },
        {
            "positions": [
                0.6569875881907322,
                -2.0862868318394066,
                1.762185250712497,
                0.11639274742985348,
                0.34978666150318494,
                -1.6444619629184185
            ]
        },
        {
            "positions": [
                0.7139358238318698,
                -2.0902383601638306,
                1.8382287359784895,
                0.075388825947247,
                0.39021668023771217,
                -1.765429204090243
            ]
        },
        {
            "positions": [
                0.7708840594730074,
                -2.0941898884882546,
                1.9142722212444818,
                0.034384904464640514,
                0.43064669897223934,
                -1.8863964452620676
            ]
        },
        {
            "positions": [
                0.827832295114145,
                -2.0981414168126786,
                1.990315706510474,
                -0.006619017017965967,
                0.47107671770676657,
                -2.007363686433892
            ]
        },
        {
            "positions": [
                0.8847805307552826,
                -2.1020929451371027,
                2.0663591917764665,
                -0.04762293850057245,
                0.5115067364412937,
                -2.1283309276057167
            ]
        },
        {
            "positions": [
                0.9417287663964202,
                -2.1060444734615267,
                2.1424026770424587,
                -0.08862685998317893,
                0.551936755175821,
                -2.2492981687775413
            ]
        },
        {
            "positions": [
                0.8799685329579316,
                -2.0767663695116614,
                2.205178098430313,
                -0.13420662535760547,
                0.5886594721421365,
                -2.3944705518592175
            ]
        },
        {
            "positions": [
                0.818208299519443,
                -2.047488265561796,
                2.267953519818167,
                -0.17978639073203198,
                0.6253821891084522,
                -2.5396429349408938
            ]
        },
        {
            "positions": [
                0.7564480660809543,
                -2.0182101616119312,
                2.3307289412060213,
                -0.2253661561064585,
                0.6621049060747679,
                -2.68481531802257
            ]
        },
        {
            "positions": [
                0.6946878326424657,
                -1.988932057662066,
                2.3935043625938754,
                -0.27094592148088503,
                0.6988276230410835,
                -2.8299877011042462
            ]
        },
        {
            "positions": [
                0.6996443132940595,
                -1.9488403598653832,
                2.3926838496185763,
                -0.36608305146897857,
                0.6997484180616667,
                -2.9808873296548573
            ]
        },
        {
            "positions": [
                0.7046007939456533,
                -1.9087486620687004,
                2.3918633366432767,
                -0.46122018145707205,
                0.7006692130822499,
                -3.131786958205468
            ]
        }
    ]
}