{
    "goal": {
        "global_pose": {
            "orientation": {
                "w": 0.7047431493862688,
                "x": -0.7094548369677653,
                "y": 0.0024358444001904,
                "z": -0.0022348060817251984
            },
            "position": {
                "x": -0.39052492380142206,
                "y": 0.3671506643295288,
                "z": 0.19426114857196808
            }
        },
        "name": "move_to_magneteinheit_D"
    },
    "id": "SBL_move_to_magneteinheit_D_114",
    "joint_names": [
        "shoulder_pan_joint",
        "shoulder_lift_joint",
        "elbow_joint",
        "wrist_1_joint",
        "wrist_2_joint",
        "wrist_3_joint"
    ],
    "metrics": {
        "cart_traj_len": 5.280158648114768,
        "distance_elbow_joint": 3.1457313252540584,
        "distance_shoulder_lift_joint": 2.184493977629964,
        "distance_shoulder_pan_joint": 3.4191924657309394,
        "distance_wrist_1_joint": 2.117655123477128,
        "distance_wrist_2_joint": 0.5623641256141279,
        "distance_wrist_3_joint": 4.568914753698547,
        "smoothness": 0.6179865887341486,
        "time": 0.333539821,
        "traj_len": 3.9997939661193516,
        "weighted_distance": 5.27410660945464
    },
    "planner": "SBL",
    "start": {
        "state": {
            "elbow_joint": 0.749534889911806,
            "shoulder_lift_joint": -0.6476975780787326,
            "shoulder_pan_joint": -2.711696901376241,
            "wrist_1_joint": -0.07506478083263063,
            "wrist_2_joint": 0.43296659715538205,
            "wrist_3_joint": -3.14703540197715
        }
    },
    "waypoints": [
        {
            "positions": [
                -2.711696901376241,
                -0.6476975780787326,
                0.749534889911806,
                -0.07506478083263063,
                0.43296659715538205,
                -3.14703540197715
            ]
        },
        {
            "positions": [
                -2.768616566885542,
                -0.5547728383391842,
                0.6878332618869306,
                -0.13433277637125665,
                0.43462781595248945,
                -3.05236018320849
            ]
        },
        {
            "positions": [
                -2.825536232394843,
                -0.46184809859963577,
                0.6261316338620553,
                -0.19360077190988267,
                0.43628903474959685,
                -2.9576849644398298
            ]
        },
        {
            "positions": [
                -2.8824558979041437,
                -0.3689233588600873,
                0.56443000583718,
                -0.2528687674485087,
                0.43795025354670425,
                -2.8630097456711696
            ]
        },
        {
            "positions": [
                -2.851215697774146,
                -0.4456659502917484,
                0.5142600435553324,
                -0.28340728408255655,
                0.3787704545931439,
                -2.7615591046280867
            ]
        },
        {
            "positions": [
                -2.8199754976441485,
                -0.5224085417234094,
                0.46409008127348483,
                -0.3139458007166044,
                0.31959065563958355,
                -2.6601084635850043
            ]
        },
        {
            "positions": [
                -2.7887352975141506,
                -0.5991511331550706,
                0.4139201189916372,
                -0.34448431735065227,
                0.26041085668602326,
                -2.5586578225419214
            ]
        },
        {
            "positions": [
                -2.7574950973841528,
                -0.6758937245867317,
                0.36375015670978966,
                -0.3750228339847001,
                0.20123105773246291,
                -2.4572071814988385
            ]
        },
        {
            "positions": [
                -2.6446339355842166,
                -0.7274070759450961,
                0.30132548116318153,
                -0.3589151940824305,
                0.20821082701793248,
                -2.3190916401676867
            ]
        },
        {
            "positions": [
                -2.53177277378428,
                -0.7789204273034606,
                0.23890080561657337,
                -0.3428075541801609,
                0.215190596303402,
                -2.1809760988365348
            ]
        },
        {
            "positions": [
                -2.4189116119843437,
                -0.830433778661825,
                0.17647613006996524,
                -0.32669991427789136,
                0.22217036558887157,
                -2.042860557505383
            ]
        },
        {
            "positions": [
                -2.306050450184407,
                -0.8819471300201895,
                0.11405145452335708,
                -0.31059227437562176,
                0.2291501348743411,
                -1.9047450161742308
            ]
        },
        {
            "positions": [
                -2.193189288384471,
                -0.9334604813785539,
                0.051626778976748944,
                -0.29448463447335216,
                0.23612990415981067,
                -1.7666294748430789
            ]
        },
        {
            "positions": [
                -2.0803281265845346,
                -0.9849738327369184,
                -0.010797896569859189,
                -0.27837699457108256,
                0.2431096734452802,
                -1.628513933511927
            ]
        },
        {
            "positions": [
                -1.967466964784598,
                -1.0364871840952827,
                -0.07322257211646732,
                -0.26226935466881296,
                0.25008944273074973,
                -1.490398392180775
            ]
        },
        {
            "positions": [
                -1.8546058029846613,
                -1.0880005354536473,
                -0.1356472476630755,
                -0.2461617147665434,
                0.2570692120162193,
                -1.352282850849623
            ]
        },
        {
            "positions": [
                -1.741744641184725,
                -1.1395138868120118,
                -0.19807192320968364,
                -0.2300540748642738,
                0.26404898130168886,
                -1.214167309518471
            ]
        },
        {
            "positions": [
                -1.6288834793847886,
                -1.1910272381703761,
                -0.2604965987562918,
                -0.21394643496200422,
                0.2710287505871584,
                -1.0760517681873192
            ]
        },
        {
            "positions": [
                -1.5160223175848522,
                -1.2425405895287405,
                -0.3229212743028999,
                -0.19783879505973462,
                0.278008519872628,
                -0.9379362268561673
            ]
        },
        {
            "positions": [
                -1.403161155784916,
                -1.294053940887105,
                -0.38534594984950804,
                -0.18173115515746505,
                0.2849882891580975,
                -0.7998206855250154
            ]
        },
        {
            "positions": [
                -1.2902999939849793,
                -1.3455672922454696,
                -0.4477706253961163,
                -0.16562351525519542,
                0.29196805844356705,
                -0.6617051441938633
            ]
        },
        {
            "positions": [
                -1.1774388321850429,
                -1.3970806436038339,
                -0.5101953009427243,
                -0.14951587535292585,
                0.2989478277290366,
                -0.5235896028627116
            ]
        },
        {
            "positions": [
                -1.0645776703851066,
                -1.4485939949621982,
                -0.5726199764893325,
                -0.13340823545065628,
                0.3059275970145061,
                -0.3854740615315597
            ]
        },
        {
            "positions": [
                -0.95171650858517,
                -1.5001073463205628,
                -0.6350446520359407,
                -0.11730059554838668,
                0.31290736629997573,
                -0.24735852020040738
            ]
        },
        {
            "positions": [
                -0.8388553467852338,
                -1.5516206976789273,
                -0.6974693275825488,
                -0.10119295564611708,
                0.31988713558544524,
                -0.10924297886925594
            ]
        },
        {
            "positions": [
                -0.7259941849852973,
                -1.6031340490372918,
                -0.759894003129157,
                -0.08508531574384748,
                0.3268669048709148,
                0.0288725624618964
            ]
        },
        {
            "positions": [
                -0.6131330231853607,
                -1.6546474003956562,
                -0.822318678675765,
                -0.06897767584157788,
                0.33384667415638436,
                0.1669881037930483
            ]
        },
        {
            "positions": [
                -0.5002718613854245,
                -1.7061607517540205,
                -0.8847433542223733,
                -0.052870035939308335,
                0.34082644344185387,
                0.3051036451242002
            ]
        },
        {
            "positions": [
                -0.3874106995854878,
                -1.757674103112385,
                -0.9471680297689815,
                -0.036762396037038736,
                0.3478062127273235,
                0.4432191864553521
            ]
        },
        {
            "positions": [
                -0.2745495377855514,
                -1.8091874544707494,
                -1.0095927053155895,
                -0.020654756134769137,
                0.354785982012793,
                0.581334727786504
            ]
        },
        {
            "positions": [
                -0.24139742387530175,
                -1.8487423920056592,
                -1.097625595421563,
                0.10967702671412624,
                0.3441976898004642,
                0.5205505972752791
            ]
        },
        {
            "positions": [
                -0.20824530996505208,
                -1.888297329540569,
                -1.1856584855275365,
                0.24000880956302162,
                0.33360939758813546,
                0.4597664667640541
            ]
        },
        {
            "positions": [
                -0.17509319605480245,
                -1.9278522670754787,
                -1.27369137563351,
                0.37034059241191697,
                0.3230211053758067,
                0.3989823362528292
            ]
        },
        {
            "positions": [
                -0.14194108214455278,
                -1.9674072046103885,
                -1.3617242657394835,
                0.5006723752608124,
                0.31243281316347793,
                0.33819820574160425
            ]
        },
        {
            "positions": [
                -0.10878896823430315,
                -2.0069621421452983,
                -1.449757155845457,
                0.6310041581097077,
                0.30184452095114916,
                0.27741407523037936
            ]
        },
        {
            "positions": [
                -0.07563685432405348,
                -2.046517079680208,
                -1.5377900459514304,
                0.7613359409586031,
                0.2912562287388204,
                0.21662994471915442
            ]
        },
        {
            "positions": [
                -0.04248474041380382,
                -2.086072017215118,
                -1.625822936057404,
                0.8916677238074986,
                0.2806679365264916,
                0.15584581420792948
            ]
        },
        {
            "positions": [
                -0.009332626503554153,
                -2.125626954750028,
                -1.7138558261633776,
                1.0219995066563938,
                0.2700796443141628,
                0.09506168369670454
            ]
        },
        {
            "positions": [
                0.02381948740669554,
                -2.1651818922849375,
                -1.801888716269351,
                1.1523312895052893,
                0.25949135210183405,
                0.03427755318547954
            ]
        },
        {
            "positions": [
                0.05697160131694512,
                -2.204736829819847,
                -1.8899216063753246,
                1.2826630723541845,
                0.24890305988950528,
                -0.02650657732574524
            ]
        },
        {
            "positions": [
                0.09012371522719481,
                -2.244291767354757,
                -1.977954496481298,
                1.41299485520308,
                0.23831476767717652,
                -0.08729070783697027
            ]
        },
        {
            "positions": [
                -0.001827570130038439,
                -2.25440888399364,
                -2.1173684761016163,
                1.4228879822488398,
                0.22143638941297059,
                -0.02998431173316373
            ]
        },
        {
            "positions": [
                -0.09377885548727169,
                -2.264526000632523,
                -2.2567824557219343,
                1.4327811092945995,
                0.20455801114876468,
                0.027322084370642805
            ]
        },
        {
            "positions": [
                -0.18573014084450495,
                -2.2746431172714057,
                -2.3961964353422527,
                1.4426742363403593,
                0.18767963288455874,
                0.08462848047444935
            ]
        }
    ]
}