{
    "goal": {
        "global_pose": {
            "orientation": {
                "w": -0.4816463035849501,
                "x": 0.5182115481033762,
                "y": 0.4908360881923453,
                "z": -0.5084816262002911
            },
            "position": {
                "x": -0.8240239810943604,
                "y": -0.300875300988555,
                "z": 0.16403168439865112
            }
        },
        "name": "move_to_storage_C"
    },
    "id": "SBL_move_to_storage_C_122",
    "joint_names": [
        "shoulder_pan_joint",
        "shoulder_lift_joint",
        "elbow_joint",
        "wrist_1_joint",
        "wrist_2_joint",
        "wrist_3_joint"
    ],
    "metrics": {
        "cart_traj_len": 0.5769862916713266,
        "distance_elbow_joint": 0.26209331152555015,
        "distance_shoulder_lift_joint": 0.1899725388254484,
        "distance_shoulder_pan_joint": 0.4930067925240005,
        "distance_wrist_1_joint": 0.08815517582009857,
        "distance_wrist_2_joint": 1.0795776412354159,
        "distance_wrist_3_joint": 0.060562783905440565,
        "smoothness": 0.0,
        "time": 0.636347278,
        "traj_len": 1.4742347994250964,
        "weighted_distance": 1.860705949015682
    },
    "planner": "SBL",
    "start": {
        "state": {
            "elbow_joint": 2.010868314990456,
            "shoulder_lift_joint": -1.1634956873337592,
            "shoulder_pan_joint": -2.4736205022346125,
            "wrist_1_joint": -0.8367026794202681,
            "wrist_2_joint": 0.6746043897044499,
            "wrist_3_joint": -3.1496632123970403
        }
    },
    "waypoints": [
        {
            "positions": [
                -2.4736205022346125,
                -1.1634956873337592,
                2.010868314990456,
                -0.8367026794202681,
                0.6746043897044499,
                -3.1496632123970403
            ]
        },
        {
            "positions": [
                -2.5557883009886124,
                -1.1318335975295177,
                1.9671860964028642,
                -0.8220101501169184,
                0.8545339965770192,
                -3.1395694150794666
            ]
        },
        {
            "positions": [
                -2.637956099742613,
                -1.1001715077252765,
                1.9235038778152724,
                -0.8073176208135686,
                1.0344636034495887,
                -3.1294756177618934
            ]
        },
        {
            "positions": [
                -2.7201238984966127,
                -1.068509417921035,
                1.8798216592276806,
                -0.7926250915102189,
                1.2143932103221577,
                -3.11938182044432
            ]
        },
        {
            "positions": [
                -2.8022916972506127,
                -1.0368473281167936,
                1.836139440640089,
                -0.777932562206869,
                1.3943228171947273,
                -3.1092880231267466
            ]
        },
        {
            "positions": [
                -2.884459496004613,
                -1.0051852383125521,
                1.7924572220524975,
                -0.7632400329035193,
                1.5742524240672964,
                -3.099194225809173
            ]
        },
        {
            "positions": [
                -2.966627294758613,
                -0.9735231485083108,
                1.7487750034649057,
                -0.7485475036001695,
                1.754182030939866,
                -3.0891004284915997
            ]
        }
    ]
}