{
    "goal": {
        "global_pose": {
            "orientation": {
                "w": 0.7031023480610252,
                "x": -0.7110244013736278,
                "y": 0.0077485991402295624,
                "z": 0.005598929693374583
            },
            "position": {
                "x": -0.8841497679147869,
                "y": 0.44412534475326537,
                "z": 0.3711530566215515
            }
        },
        "name": "move_to_auspresseinheit_D"
    },
    "id": "SBL_move_to_auspresseinheit_D_60",
    "joint_names": [
        "shoulder_pan_joint",
        "shoulder_lift_joint",
        "elbow_joint",
        "wrist_1_joint",
        "wrist_2_joint",
        "wrist_3_joint"
    ],
    "metrics": {
        "cart_traj_len": 0.3438033772326072,
        "distance_elbow_joint": 0.6453981294301736,
        "distance_shoulder_lift_joint": 0.12429650699174699,
        "distance_shoulder_pan_joint": 0.134032387670834,
        "distance_wrist_1_joint": 0.5615789072992521,
        "distance_wrist_2_joint": 1.4300761166378713,
        "distance_wrist_3_joint": 0.029734969610952344,
        "smoothness": 0.0,
        "time": 0.261465069,
        "traj_len": 1.710297347726655,
        "weighted_distance": 2.2307491971980755
    },
    "planner": "SBL",
    "start": {
        "state": {
            "elbow_joint": -1.8275523626775212,
            "shoulder_lift_joint": -2.126789852344167,
            "shoulder_pan_joint": -0.03513704404078235,
            "wrist_1_joint": -2.347782403156801,
            "wrist_2_joint": -1.6058999987535132,
            "wrist_3_joint": -3.0880379163319196
        }
    },
    "waypoints": [
        {
            "positions": [
                -0.03513704404078235,
                -2.126789852344167,
                -1.8275523626775212,
                -2.347782403156801,
                -1.6058999987535132,
                -3.0880379163319196
            ]
        },
        {
            "positions": [
                -0.051891092499636596,
                -2.1423269157181353,
                -1.7468775964987495,
                -2.4179797665692075,
                -1.4271404841737794,
                -3.0843210451305505
            ]
        },
        {
            "positions": [
                -0.06864514095849085,
                -2.1578639790921037,
                -1.6662028303199778,
                -2.4881771299816138,
                -1.2483809695940453,
                -3.0806041739291814
            ]
        },
        {
            "positions": [
                -0.08539918941734509,
                -2.173401042466072,
                -1.5855280641412062,
                -2.5583744933940205,
                -1.0696214550143115,
                -3.0768873027278123
            ]
        },
        {
            "positions": [
                -0.10215323787619934,
                -2.18893810584004,
                -1.5048532979624345,
                -2.6285718568064267,
                -0.8908619404345776,
                -3.073170431526443
            ]
        },
        {
            "positions": [
                -0.1189072863350536,
                -2.2044751692140085,
                -1.4241785317836628,
                -2.6987692202188334,
                -0.7121024258548436,
                -3.0694535603250745
            ]
        },
        {
            "positions": [
                -0.13566133479390785,
                -2.220012232587977,
                -1.343503765604891,
                -2.76896658363124,
                -0.5333429112751098,
                -3.0657366891237054
            ]
        },
        {
            "positions": [
                -0.1524153832527621,
                -2.2355492959619454,
                -1.2628289994261193,
                -2.8391639470436463,
                -0.35458339669537575,
                -3.0620198179223364
            ]
        },
        {
            "positions": [
                -0.16916943171161636,
                -2.251086359335914,
                -1.1821542332473476,
                -2.909361310456053,
                -0.17582388211564196,
                -3.0583029467209673
            ]
        }
    ]
}