{
    "goal": {
        "global_pose": {
            "orientation": {
                "w": 0.7047431493862688,
                "x": -0.7094548369677653,
                "y": 0.0024358444001904,
                "z": -0.0022348060817251984
            },
            "position": {
                "x": -0.39052492380142206,
                "y": 0.3671506643295288,
                "z": 0.19426114857196808
            }
        },
        "name": "move_to_magneteinheit_D"
    },
    "id": "SBL_move_to_magneteinheit_D_141",
    "joint_names": [
        "shoulder_pan_joint",
        "shoulder_lift_joint",
        "elbow_joint",
        "wrist_1_joint",
        "wrist_2_joint",
        "wrist_3_joint"
    ],
    "metrics": {
        "cart_traj_len": 4.612305861381209,
        "distance_elbow_joint": 3.8886158416753336,
        "distance_shoulder_lift_joint": 1.9403932598514062,
        "distance_shoulder_pan_joint": 3.1082378082020305,
        "distance_wrist_1_joint": 2.1313429999174915,
        "distance_wrist_2_joint": 1.8412224346973898,
        "distance_wrist_3_joint": 4.885037450838164,
        "smoothness": 0.5817799036820589,
        "time": 0.432135435,
        "traj_len": 4.218394219982507,
        "weighted_distance": 5.615824973365269
    },
    "planner": "SBL",
    "start": {
        "state": {
            "elbow_joint": 0.749534889911806,
            "shoulder_lift_joint": -0.6476975780787326,
            "shoulder_pan_joint": -2.711696901376241,
            "wrist_1_joint": -0.07506478083263063,
            "wrist_2_joint": 0.43296659715538205,
            "wrist_3_joint": -3.14703540197715
        }
    },
    "waypoints": [
        {
            "positions": [
                -2.711696901376241,
                -0.6476975780787326,
                0.749534889911806,
                -0.07506478083263063,
                0.43296659715538205,
                -3.14703540197715
            ]
        },
        {
            "positions": [
                -2.7184471782894692,
                -0.6220829933556872,
                0.678684827720681,
                -0.1498176882890634,
                0.3612819153341976,
                -3.020168337552346
            ]
        },
        {
            "positions": [
                -2.7251974552026974,
                -0.5964684086326416,
                0.607834765529556,
                -0.22457059574549615,
                0.28959723351301314,
                -2.893301273127542
            ]
        },
        {
            "positions": [
                -2.7319477321159256,
                -0.5708538239095962,
                0.536984703338431,
                -0.2993235032019289,
                0.21791255169182872,
                -2.766434208702738
            ]
        },
        {
            "positions": [
                -2.7386980090291537,
                -0.5452392391865507,
                0.4661346411473059,
                -0.37407641065836167,
                0.1462278698706443,
                -2.6395671442779345
            ]
        },
        {
            "positions": [
                -2.745448285942382,
                -0.5196246544635051,
                0.39528457895618085,
                -0.4488293181147945,
                0.07454318804945981,
                -2.5127000798531305
            ]
        },
        {
            "positions": [
                -2.75219856285561,
                -0.4940100697404597,
                0.32443451676505586,
                -0.5235822255712272,
                0.0028585062282753815,
                -2.3858330154283265
            ]
        },
        {
            "positions": [
                -2.754966201941812,
                -0.46967520704489596,
                0.23917119348814125,
                -0.5994476532922329,
                -0.06523655359828491,
                -2.2487363194399825
            ]
        },
        {
            "positions": [
                -2.7577338410280148,
                -0.44534034434933223,
                0.15390787021122662,
                -0.6753130810132386,
                -0.1333316134248452,
                -2.111639623451638
            ]
        },
        {
            "positions": [
                -2.760501480114217,
                -0.42100548165376855,
                0.06864454693431205,
                -0.7511785087342442,
                -0.20142667325140548,
                -1.9745429274632942
            ]
        },
        {
            "positions": [
                -2.763269119200419,
                -0.3966706189582048,
                -0.016618776342602615,
                -0.8270439364552499,
                -0.2695217330779658,
                -1.8374462314749502
            ]
        },
        {
            "positions": [
                -2.7660367582866217,
                -0.3723357562626411,
                -0.10188209961951722,
                -0.9029093641762556,
                -0.33761679290452606,
                -1.7003495354866063
            ]
        },
        {
            "positions": [
                -2.768804397372824,
                -0.3480008935670774,
                -0.18714542289643177,
                -0.9787747918972611,
                -0.40571185273108634,
                -1.563252839498262
            ]
        },
        {
            "positions": [
                -2.7715720364590264,
                -0.3236660308715137,
                -0.2724087461733464,
                -1.0546402196182667,
                -0.4738069125576466,
                -1.426156143509918
            ]
        },
        {
            "positions": [
                -2.7743396755452285,
                -0.29933116817594996,
                -0.3576720694502611,
                -1.1305056473392725,
                -0.5419019723842069,
                -1.2890594475215738
            ]
        },
        {
            "positions": [
                -2.7771073146314307,
                -0.2749963054803862,
                -0.44293539272717575,
                -1.2063710750602783,
                -0.6099970322107673,
                -1.1519627515332298
            ]
        },
        {
            "positions": [
                -2.7798749537176333,
                -0.2506614427848225,
                -0.5281987160040903,
                -1.2822365027812839,
                -0.6780920920373275,
                -1.0148660555448858
            ]
        },
        {
            "positions": [
                -2.7826425928038354,
                -0.22632658008925877,
                -0.613462039281005,
                -1.3581019305022894,
                -0.7461871518638878,
                -0.8777693595565417
            ]
        },
        {
            "positions": [
                -2.645703084781287,
                -0.2941795147297476,
                -0.6800643960166151,
                -1.3883934403068883,
                -0.7356269860237094,
                -0.9533963434569891
            ]
        },
        {
            "positions": [
                -2.508763576758739,
                -0.3620324493702365,
                -0.7466667527522253,
                -1.4186849501114869,
                -0.725066820183531,
                -1.0290233273574365
            ]
        },
        {
            "positions": [
                -2.3718240687361907,
                -0.4298853840107254,
                -0.8132691094878354,
                -1.4489764599160857,
                -0.7145066543433525,
                -1.1046503112578838
            ]
        },
        {
            "positions": [
                -2.2348845607136423,
                -0.49773831865121426,
                -0.8798714662234455,
                -1.4792679697206843,
                -0.7039464885031741,
                -1.1802772951583314
            ]
        },
        {
            "positions": [
                -2.0979450526910943,
                -0.5655912532917031,
                -0.9464738229590557,
                -1.5095594795252831,
                -0.6933863226629956,
                -1.2559042790587789
            ]
        },
        {
            "positions": [
                -1.961005544668546,
                -0.6334441879321919,
                -1.013076179694666,
                -1.5398509893298817,
                -0.6828261568228172,
                -1.3315312629592262
            ]
        },
        {
            "positions": [
                -1.8240660366459975,
                -0.7012971225726808,
                -1.079678536430276,
                -1.5701424991344806,
                -0.6722659909826387,
                -1.4071582468596735
            ]
        },
        {
            "positions": [
                -1.6871265286234494,
                -0.7691500572131698,
                -1.146280893165886,
                -1.6004340089390792,
                -0.6617058251424603,
                -1.482785230760121
            ]
        },
        {
            "positions": [
                -1.550187020600901,
                -0.8370029918536587,
                -1.2128832499014963,
                -1.630725518743678,
                -0.6511456593022819,
                -1.5584122146605686
            ]
        },
        {
            "positions": [
                -1.4132475125783528,
                -0.9048559264941475,
                -1.2794856066371065,
                -1.6610170285482768,
                -0.6405854934621034,
                -1.6340391985610159
            ]
        },
        {
            "positions": [
                -1.2763080045558044,
                -0.9727088611346364,
                -1.3460879633727165,
                -1.6913085383528754,
                -0.630025327621925,
                -1.7096661824614634
            ]
        },
        {
            "positions": [
                -1.1393684965332562,
                -1.0405617957751252,
                -1.4126903201083267,
                -1.721600048157474,
                -0.6194651617817466,
                -1.7852931663619107
            ]
        },
        {
            "positions": [
                -1.002428988510708,
                -1.108414730415614,
                -1.479292676843937,
                -1.7518915579620729,
                -0.6089049959415681,
                -1.8609201502623582
            ]
        },
        {
            "positions": [
                -0.8654894804881599,
                -1.1762676650561028,
                -1.545895033579547,
                -1.7821830677666717,
                -0.5983448301013896,
                -1.9365471341628056
            ]
        },
        {
            "positions": [
                -0.7285499724656113,
                -1.2441205996965916,
                -1.6124973903151572,
                -1.8124745775712703,
                -0.5877846642612112,
                -2.012174118063253
            ]
        },
        {
            "positions": [
                -0.5916104644430633,
                -1.3119735343370809,
                -1.6790997470507674,
                -1.842766087375869,
                -0.5772244984210327,
                -2.0878011019637004
            ]
        },
        {
            "positions": [
                -0.4546709564205149,
                -1.3798264689775697,
                -1.7457021037863774,
                -1.873057597180468,
                -0.5666643325808544,
                -2.1634280858641475
            ]
        },
        {
            "positions": [
                -0.3177314483979665,
                -1.4476794036180585,
                -1.8123044605219878,
                -1.9033491069850665,
                -0.5561041667406759,
                -2.2390550697645955
            ]
        },
        {
            "positions": [
                -0.18079194037541857,
                -1.5155323382585473,
                -1.8789068172575978,
                -1.9336406167896651,
                -0.5455440009004975,
                -2.3146820536650425
            ]
        },
        {
            "positions": [
                -0.04385243235287034,
                -1.583385272899036,
                -1.9455091739932078,
                -1.963932126594264,
                -0.534983835060319,
                -2.39030903756549
            ]
        },
        {
            "positions": [
                -0.030764382335446143,
                -1.6063008378079655,
                -2.07932508322149,
                -2.000403813225893,
                -0.543574898000188,
                -2.542329661038451
            ]
        },
        {
            "positions": [
                -0.01767633231802194,
                -1.6292164027168952,
                -2.213140992449772,
                -2.0368754998575214,
                -0.552165960940057,
                -2.6943502845114127
            ]
        },
        {
            "positions": [
                -0.00458828230059774,
                -1.6521319676258246,
                -2.346956901678054,
                -2.07334718648915,
                -0.560757023879926,
                -2.8463709079843738
            ]
        },
        {
            "positions": [
                0.008499767716826458,
                -1.675047532534754,
                -2.480772810906336,
                -2.109818873120779,
                -0.5693480868197951,
                -2.998391531457335
            ]
        },
        {
            "positions": [
                0.02158781773425067,
                -1.6979630974436837,
                -2.614588720134618,
                -2.1462905597524076,
                -0.5779391497596641,
                -3.1504121549302964
            ]
        },
        {
            "positions": [
                0.03467586775167486,
                -1.720878662352613,
                -2.7484046293629003,
                -2.182762246384036,
                -0.5865302126995331,
                -3.3024327784032574
            ]
        },
        {
            "positions": [
                -0.02031754630305671,
                -1.7269962072522576,
                -2.6507355487627433,
                -2.1886736299755576,
                -0.4867004648906986,
                -3.2546557810105474
            ]
        },
        {
            "positions": [
                -0.07531096035778828,
                -1.733113752151902,
                -2.5530664681625863,
                -2.194585013567079,
                -0.3868707170818641,
                -3.206878783617837
            ]
        },
        {
            "positions": [
                -0.13030437441251985,
                -1.7392312970515467,
                -2.4553973875624298,
                -2.200496397158601,
                -0.2870409692730296,
                -3.159101786225127
            ]
        },
        {
            "positions": [
                -0.18529778846725142,
                -1.745348841951191,
                -2.3577283069622728,
                -2.2064077807501223,
                -0.1872112214641951,
                -3.111324788832417
            ]
        }
    ]
}