{
    "goal": {
        "global_pose": {
            "orientation": {
                "w": -0.00223480608172531,
                "x": 0.0024358444001904467,
                "y": 0.7094548369677653,
                "z": -0.704743149386269
            },
            "position": {
                "x": -0.37947507619857795,
                "y": -0.6371506643295288,
                "z": 0.19426114857196808
            }
        },
        "name": "move_to_magneteinheit_C"
    },
    "id": "SBL_move_to_magneteinheit_C_8",
    "joint_names": [
        "shoulder_pan_joint",
        "shoulder_lift_joint",
        "elbow_joint",
        "wrist_1_joint",
        "wrist_2_joint",
        "wrist_3_joint"
    ],
    "metrics": {
        "cart_traj_len": 5.572069100243222,
        "distance_elbow_joint": 0.35929762765551265,
        "distance_shoulder_lift_joint": 3.082055782967686,
        "distance_shoulder_pan_joint": 8.589440800501322,
        "distance_wrist_1_joint": 0.6032228229967305,
        "distance_wrist_2_joint": 4.847314192342912,
        "distance_wrist_3_joint": 6.518407050862065,
        "smoothness": 0.5578661447670785,
        "time": 0.67141768,
        "traj_len": 4.898952773534995,
        "weighted_distance": 6.518212131742107
    },
    "planner": "SBL",
    "start": {
        "state": {
            "elbow_joint": 1.9565354010623817,
            "shoulder_lift_joint": -1.4165861575791021,
            "shoulder_pan_joint": -1.6717766225146293,
            "wrist_1_joint": -0.5286633292919765,
            "wrist_2_joint": 1.472756589071564,
            "wrist_3_joint": -3.1238370188695823
        }
    },
    "waypoints": [
        {
            "positions": [
                -1.6717766225146293,
                -1.4165861575791021,
                1.9565354010623817,
                -0.5286633292919765,
                1.472756589071564,
                -3.1238370188695823
            ]
        },
        {
            "positions": [
                -1.5420213450204636,
                -1.4637262333167698,
                1.9513795244075995,
                -0.5234349555116266,
                1.37851782729921,
                -3.015759952186067
            ]
        },
        {
            "positions": [
                -1.412266067526298,
                -1.5108663090544372,
                1.9462236477528174,
                -0.5182065817312765,
                1.2842790655268561,
                -2.9076828855025516
            ]
        },
        {
            "positions": [
                -1.2825107900321322,
                -1.5580063847921048,
                1.9410677710980353,
                -0.5129782079509266,
                1.1900403037545022,
                -2.7996058188190363
            ]
        },
        {
            "positions": [
                -1.1527555125379665,
                -1.6051464605297723,
                1.9359118944432534,
                -0.5077498341705766,
                1.0958015419821483,
                -2.691528752135521
            ]
        },
        {
            "positions": [
                -1.0230002350438008,
                -1.65228653626744,
                1.9307560177884713,
                -0.5025214603902267,
                1.0015627802097944,
                -2.5834516854520055
            ]
        },
        {
            "positions": [
                -0.8932449575496351,
                -1.6994266120051074,
                1.9256001411336892,
                -0.49729308660987676,
                0.9073240184374404,
                -2.47537461876849
            ]
        },
        {
            "positions": [
                -0.7634896800554694,
                -1.746566687742775,
                1.920444264478907,
                -0.4920647128295268,
                0.8130852566650865,
                -2.367297552084975
            ]
        },
        {
            "positions": [
                -0.6337344025613036,
                -1.7937067634804427,
                1.915288387824125,
                -0.4868363390491769,
                0.7188464948927326,
                -2.2592204854014595
            ]
        },
        {
            "positions": [
                -0.5039791250671379,
                -1.84084683921811,
                1.9101325111693428,
                -0.48160796526882693,
                0.6246077331203786,
                -2.1511434187179446
            ]
        },
        {
            "positions": [
                -0.3742238475729722,
                -1.8879869149557775,
                1.9049766345145607,
                -0.47637959148847697,
                0.5303689713480247,
                -2.043066352034429
            ]
        },
        {
            "positions": [
                -0.2444685700788065,
                -1.9351269906934452,
                1.8998207578597786,
                -0.471151217708127,
                0.43613020957567095,
                -1.9349892853509139
            ]
        },
        {
            "positions": [
                -0.1147132925846408,
                -1.9822670664311128,
                1.8946648812049967,
                -0.46592284392777705,
                0.3418914478033168,
                -1.8269122186673983
            ]
        },
        {
            "positions": [
                0.015041984909524908,
                -2.0294071421687803,
                1.8895090045502145,
                -0.46069447014742715,
                0.2476526860309629,
                -1.7188351519838831
            ]
        },
        {
            "positions": [
                0.14479726240369062,
                -2.076547217906448,
                1.8843531278954324,
                -0.4554660963670772,
                0.153413924258609,
                -1.6107580853003678
            ]
        },
        {
            "positions": [
                0.27455253989785633,
                -2.1236872936441156,
                1.8791972512406503,
                -0.45023772258672723,
                0.059175162486255095,
                -1.5026810186168524
            ]
        },
        {
            "positions": [
                0.40430781739202204,
                -2.170827369381783,
                1.8740413745858682,
                -0.44500934880637727,
                -0.03506359928609881,
                -1.394603951933337
            ]
        },
        {
            "positions": [
                0.5340630948861878,
                -2.2179674451194504,
                1.868885497931086,
                -0.4397809750260273,
                -0.12930236105845272,
                -1.2865268852498217
            ]
        },
        {
            "positions": [
                0.6638183723803535,
                -2.265107520857118,
                1.863729621276304,
                -0.4345526012456774,
                -0.22354112283080663,
                -1.1784498185663066
            ]
        },
        {
            "positions": [
                0.7935736498745192,
                -2.3122475965947857,
                1.858573744621522,
                -0.42932422746532745,
                -0.31777988460316053,
                -1.070372751882791
            ]
        },
        {
            "positions": [
                0.9233289273686849,
                -2.359387672332453,
                1.85341786796674,
                -0.4240958536849775,
                -0.41201864637551444,
                -0.9622956851992761
            ]
        },
        {
            "positions": [
                1.0530842048628506,
                -2.4065277480701206,
                1.8482619913119578,
                -0.4188674799046275,
                -0.5062574081478683,
                -0.8542186185157608
            ]
        },
        {
            "positions": [
                1.1828394823570163,
                -2.4536678238077885,
                1.8431061146571757,
                -0.41363910612427757,
                -0.600496169920222,
                -0.7461415518322454
            ]
        },
        {
            "positions": [
                1.312594759851182,
                -2.500807899545456,
                1.8379502380023935,
                -0.40841073234392766,
                -0.6947349316925764,
                -0.6380644851487296
            ]
        },
        {
            "positions": [
                1.4423500373453477,
                -2.5479479752831233,
                1.8327943613476114,
                -0.40318235856357765,
                -0.7889736934649303,
                -0.5299874184652142
            ]
        },
        {
            "positions": [
                1.5721053148395134,
                -2.5950880510207908,
                1.8276384846928293,
                -0.39795398478322774,
                -0.8832124552372842,
                -0.4219103517816989
            ]
        },
        {
            "positions": [
                1.7018605923336791,
                -2.6422281267584586,
                1.8224826080380474,
                -0.3927256110028778,
                -0.9774512170096381,
                -0.313833285098184
            ]
        },
        {
            "positions": [
                1.8316158698278449,
                -2.689368202496126,
                1.8173267313832653,
                -0.3874972372225278,
                -1.071689978781992,
                -0.20575621841466862
            ]
        },
        {
            "positions": [
                1.9613711473220106,
                -2.736508278233794,
                1.8121708547284832,
                -0.3822688634421779,
                -1.165928740554346,
                -0.09767915173115327
            ]
        },
        {
            "positions": [
                2.091126424816176,
                -2.7836483539714614,
                1.807014978073701,
                -0.37704048966182796,
                -1.2601675023266998,
                0.010397914952362086
            ]
        },
        {
            "positions": [
                2.2208817023103418,
                -2.830788429709129,
                1.801859101418919,
                -0.371812115881478,
                -1.3544062640990537,
                0.11847498163587744
            ]
        },
        {
            "positions": [
                2.0741072499454556,
                -2.778668007495452,
                1.8082535179192956,
                -0.38576122868104773,
                -1.2912765347499193,
                0.016097011312233678
            ]
        },
        {
            "positions": [
                1.9273327975805694,
                -2.726547585281775,
                1.814647934419672,
                -0.3997103414806175,
                -1.2281468054007851,
                -0.08628095901141009
            ]
        },
        {
            "positions": [
                1.7805583452156832,
                -2.6744271630680982,
                1.8210423509200486,
                -0.41365945428018724,
                -1.165017076051651,
                -0.18865892933505385
            ]
        },
        {
            "positions": [
                1.633783892850797,
                -2.6223067408544214,
                1.827436767420425,
                -0.42760856707975703,
                -1.1018873467025165,
                -0.2910368996586976
            ]
        },
        {
            "positions": [
                1.4870094404859109,
                -2.5701863186407445,
                1.8338311839208017,
                -0.44155767987932676,
                -1.0387576173533821,
                -0.39341486998234143
            ]
        },
        {
            "positions": [
                1.3402349881210245,
                -2.5180658964270677,
                1.8402256004211783,
                -0.4555067926788965,
                -0.9756278880042479,
                -0.49579284030598514
            ]
        },
        {
            "positions": [
                1.1934605357561383,
                -2.465945474213391,
                1.8466200169215548,
                -0.4694559054784663,
                -0.9124981586551136,
                -0.5981708106296288
            ]
        },
        {
            "positions": [
                1.0466860833912521,
                -2.413825051999714,
                1.8530144334219314,
                -0.483405018278036,
                -0.8493684293059793,
                -0.7005487809532727
            ]
        },
        {
            "positions": [
                0.899911631026366,
                -2.361704629786037,
                1.859408849922308,
                -0.49735413107760573,
                -0.786238699956845,
                -0.8029267512769165
            ]
        },
        {
            "positions": [
                0.7531371786614798,
                -2.3095842075723603,
                1.8658032664226845,
                -0.5113032438771755,
                -0.7231089706077107,
                -0.9053047216005603
            ]
        },
        {
            "positions": [
                0.6063627262965936,
                -2.257463785358684,
                1.872197682923061,
                -0.5252523566767453,
                -0.6599792412585764,
                -1.007682691924204
            ]
        },
        {
            "positions": [
                0.4595882739317072,
                -2.205343363145007,
                1.8785920994234377,
                -0.539201469476315,
                -0.5968495119094421,
                -1.1100606622478477
            ]
        },
        {
            "positions": [
                0.312813821566821,
                -2.15322294093133,
                1.8849865159238142,
                -0.5531505822758848,
                -0.5337197825603078,
                -1.2124386325714915
            ]
        },
        {
            "positions": [
                0.16603936920193485,
                -2.1011025187176533,
                1.8913809324241908,
                -0.5670996950754545,
                -0.47059005321117353,
                -1.3148166028951351
            ]
        },
        {
            "positions": [
                0.019264916837048673,
                -2.0489820965039764,
                1.8977753489245672,
                -0.5810488078750242,
                -0.40746032386203923,
                -1.417194573218779
            ]
        },
        {
            "positions": [
                -0.1275095355278375,
                -1.9968616742902996,
                1.9041697654249439,
                -0.594997920674594,
                -0.34433059451290493,
                -1.5195725435424228
            ]
        },
        {
            "positions": [
                -0.2742839878927237,
                -1.9447412520766227,
                1.9105641819253205,
                -0.6089470334741638,
                -0.2812008651637705,
                -1.6219505138660666
            ]
        },
        {
            "positions": [
                -0.42105844025760986,
                -1.8926208298629459,
                1.916958598425697,
                -0.6228961462737335,
                -0.21807113581463633,
                -1.7243284841897104
            ]
        },
        {
            "positions": [
                -0.567832892622496,
                -1.840500407649269,
                1.9233530149260736,
                -0.6368452590733032,
                -0.15494140646550214,
                -1.826706454513354
            ]
        },
        {
            "positions": [
                -0.7146073449873822,
                -1.7883799854355922,
                1.92974743142645,
                -0.650794371872873,
                -0.09181167711636773,
                -1.929084424836998
            ]
        },
        {
            "positions": [
                -0.8613817973522684,
                -1.7362595632219155,
                1.9361418479268266,
                -0.6647434846724427,
                -0.028681947767233318,
                -2.0314623951606414
            ]
        },
        {
            "positions": [
                -1.0081562497171546,
                -1.6841391410082387,
                1.9425362644272033,
                -0.6786925974720125,
                0.03444778158190087,
                -2.1338403654842852
            ]
        },
        {
            "positions": [
                -1.1549307020820407,
                -1.6320187187945618,
                1.9489306809275797,
                -0.6926417102715823,
                0.09757751093103506,
                -2.236218335807929
            ]
        },
        {
            "positions": [
                -1.3017051544469274,
                -1.579898296580885,
                1.9553250974279563,
                -0.706590823071152,
                0.16070724028016947,
                -2.338596306131573
            ]
        },
        {
            "positions": [
                -1.4484796068118135,
                -1.5277778743672081,
                1.961719513928333,
                -0.7205399358707217,
                0.22383696962930388,
                -2.4409742764552167
            ]
        },
        {
            "positions": [
                -1.5952540591766997,
                -1.4756574521535313,
                1.9681139304287094,
                -0.7344890486702915,
                0.2869666989784381,
                -2.5433522467788605
            ]
        },
        {
            "positions": [
                -1.7420285115415859,
                -1.4235370299398544,
                1.974508346929086,
                -0.7484381614698612,
                0.35009642832757226,
                -2.6457302171025043
            ]
        },
        {
            "positions": [
                -1.888802963906472,
                -1.3714166077261778,
                1.9809027634294627,
                -0.762387274269431,
                0.4132261576767067,
                -2.7481081874261477
            ]
        },
        {
            "positions": [
                -2.035577416271358,
                -1.319296185512501,
                1.9872971799298391,
                -0.7763363870690008,
                0.4763558870258411,
                -2.8504861577497915
            ]
        },
        {
            "positions": [
                -2.1823518686362444,
                -1.267175763298824,
                1.9936915964302158,
                -0.7902854998685704,
                0.5394856163749753,
                -2.9528641280734353
            ]
        },
        {
            "positions": [
                -2.32912632100113,
                -1.2150553410851472,
                2.000086012930592,
                -0.8042346126681403,
                0.6026153457241095,
                -3.055242098397079
            ]
        },
        {
            "positions": [
                -2.4759007733660168,
                -1.1629349188714704,
                2.006480429430969,
                -0.81818372546771,
                0.6657450750732437,
                -3.157620068720723
            ]
        }
    ]
}