{
    "goal": {
        "global_pose": {
            "orientation": {
                "w": 0.7047431468963623,
                "x": -0.7094548344612122,
                "y": 0.0024358443915843964,
                "z": -0.0022348060738295317
            },
            "position": {
                "x": 0.6094750761985779,
                "y": 0.3671506643295288,
                "z": 0.19426114857196808
            }
        },
        "name": "move_to_magneteinheit_A"
    },
    "id": "SBL_move_to_magneteinheit_A_100",
    "joint_names": [
        "shoulder_pan_joint",
        "shoulder_lift_joint",
        "elbow_joint",
        "wrist_1_joint",
        "wrist_2_joint",
        "wrist_3_joint"
    ],
    "metrics": {
        "cart_traj_len": 3.8524586206117015,
        "distance_elbow_joint": 3.875701852398043,
        "distance_shoulder_lift_joint": 0.8802252485364506,
        "distance_shoulder_pan_joint": 3.1059651189757913,
        "distance_wrist_1_joint": 1.712672718927528,
        "distance_wrist_2_joint": 2.5653773896793255,
        "distance_wrist_3_joint": 2.6120222437706455,
        "smoothness": 0.3189342514838589,
        "time": 0.283277871,
        "traj_len": 3.840828630945122,
        "weighted_distance": 4.924841029762883
    },
    "planner": "SBL",
    "start": {
        "state": {
            "elbow_joint": -1.9196185241190666,
            "shoulder_lift_joint": -1.2443396400964142,
            "shoulder_pan_joint": 2.6996025414629847,
            "wrist_1_joint": -1.5485510000780065,
            "wrist_2_joint": -1.5709468930060704,
            "wrist_3_joint": 0.4420197071253992
        }
    },
    "waypoints": [
        {
            "positions": [
                2.6996025414629847,
                -1.2443396400964142,
                -1.9196185241190666,
                -1.5485510000780065,
                -1.5709468930060704,
                0.4420197071253992
            ]
        },
        {
            "positions": [
                2.599095725484632,
                -1.2387595815528814,
                -1.8133577068119746,
                -1.502978862609135,
                -1.4962837250460448,
                0.49211195932786733
            ]
        },
        {
            "positions": [
                2.498588909506279,
                -1.2331795230093483,
                -1.7070968895048826,
                -1.4574067251402631,
                -1.4216205570860192,
                0.5422042115303355
            ]
        },
        {
            "positions": [
                2.3980820935279263,
                -1.2275994644658155,
                -1.6008360721977906,
                -1.4118345876713916,
                -1.3469573891259936,
                0.5922964637328036
            ]
        },
        {
            "positions": [
                2.2975752775495732,
                -1.2220194059222826,
                -1.4945752548906985,
                -1.36626245020252,
                -1.2722942211659678,
                0.6423887159352717
            ]
        },
        {
            "positions": [
                2.1970684615712206,
                -1.2164393473787498,
                -1.3883144375836065,
                -1.3206903127336482,
                -1.1976310532059422,
                0.69248096813774
            ]
        },
        {
            "positions": [
                2.0965616455928675,
                -1.2108592888352168,
                -1.2820536202765145,
                -1.2751181752647767,
                -1.1229678852459166,
                0.742573220340208
            ]
        },
        {
            "positions": [
                1.9960548296145149,
                -1.205279230291684,
                -1.1757928029694225,
                -1.229546037795905,
                -1.048304717285891,
                0.7926654725426762
            ]
        },
        {
            "positions": [
                1.8955480136361622,
                -1.199699171748151,
                -1.0695319856623304,
                -1.1839739003270333,
                -0.9736415493258654,
                0.8427577247451443
            ]
        },
        {
            "positions": [
                1.7950411976578091,
                -1.194119113204618,
                -0.9632711683552383,
                -1.1384017628581617,
                -0.8989783813658397,
                0.8928499769476125
            ]
        },
        {
            "positions": [
                1.6945343816794562,
                -1.1885390546610852,
                -0.8570103510481464,
                -1.0928296253892902,
                -0.8243152134058142,
                0.9429422291500806
            ]
        },
        {
            "positions": [
                1.5940275657011036,
                -1.1829589961175524,
                -0.7507495337410544,
                -1.0472574879204184,
                -0.7496520454457886,
                0.9930344813525487
            ]
        },
        {
            "positions": [
                1.4935207497227507,
                -1.1773789375740196,
                -0.6444887164339623,
                -1.001685350451547,
                -0.674988877485763,
                1.0431267335550167
            ]
        },
        {
            "positions": [
                1.3930139337443979,
                -1.1717988790304865,
                -0.5382278991268703,
                -0.9561132129826752,
                -0.6003257095257373,
                1.093218985757485
            ]
        },
        {
            "positions": [
                1.292507117766045,
                -1.1662188204869537,
                -0.4319670818197783,
                -0.9105410755138036,
                -0.5256625415657117,
                1.1433112379599533
            ]
        },
        {
            "positions": [
                1.1920003017876921,
                -1.1606387619434209,
                -0.32570626451268625,
                -0.864968938044932,
                -0.4509993736056861,
                1.1934034901624213
            ]
        },
        {
            "positions": [
                1.0914934858093395,
                -1.1550587033998878,
                -0.21944544720559422,
                -0.8193968005760603,
                -0.3763362056456605,
                1.2434957423648894
            ]
        },
        {
            "positions": [
                0.9909866698309866,
                -1.149478644856355,
                -0.11318462989850242,
                -0.7738246631071888,
                -0.3016730376856349,
                1.2935879945673574
            ]
        },
        {
            "positions": [
                0.8904798538526335,
                -1.1438985863128222,
                -0.00692381259140995,
                -0.728252525638317,
                -0.2270098697256091,
                1.343680246769826
            ]
        },
        {
            "positions": [
                0.7899730378742806,
                -1.1383185277692893,
                0.09933700471568185,
                -0.6826803881694453,
                -0.15234670176558351,
                1.393772498972294
            ]
        },
        {
            "positions": [
                0.6894662218959278,
                -1.1327384692257563,
                0.20559782202277388,
                -0.6371082507005738,
                -0.07768353380555792,
                1.443864751174762
            ]
        },
        {
            "positions": [
                0.5889594059175751,
                -1.1271584106822234,
                0.3118586393298659,
                -0.5915361132317021,
                -0.0030203658455323357,
                1.49395700337723
            ]
        },
        {
            "positions": [
                0.48845258993922247,
                -1.1215783521386906,
                0.41811945663695793,
                -0.5459639757628305,
                0.07164280211449325,
                1.544049255579698
            ]
        },
        {
            "positions": [
                0.3879457739608694,
                -1.1159982935951578,
                0.52438027394405,
                -0.500391838293959,
                0.14630597007451884,
                1.5941415077821666
            ]
        },
        {
            "positions": [
                0.28743895798251673,
                -1.1104182350516247,
                0.630641091251142,
                -0.4548197008250874,
                0.22096913803454443,
                1.6442337599846346
            ]
        },
        {
            "positions": [
                0.18693214200416364,
                -1.104838176508092,
                0.736901908558234,
                -0.4092475633562156,
                0.29563230599457024,
                1.6943260121871027
            ]
        },
        {
            "positions": [
                0.08642532602581099,
                -1.0992581179645589,
                0.843162725865326,
                -0.3636754258873438,
                0.37029547395459583,
                1.7444182643895707
            ]
        },
        {
            "positions": [
                -0.014081489952542103,
                -1.093678059421026,
                0.9494235431724181,
                -0.31810328841847224,
                0.4449586419146214,
                1.7945105165920392
            ]
        },
        {
            "positions": [
                -0.11458830593089478,
                -1.0880980008774932,
                1.0556843604795099,
                -0.2725311509496007,
                0.5196218098746471,
                1.844602768794507
            ]
        },
        {
            "positions": [
                -0.11855956194517547,
                -1.1428276539282827,
                1.138635647085814,
                -0.2749547341344525,
                0.45740342845292803,
                2.0149415110372204
            ]
        },
        {
            "positions": [
                -0.12253081795945615,
                -1.1975573069790721,
                1.2215869336921183,
                -0.27737831731930424,
                0.3951850470312089,
                2.1852802532799336
            ]
        },
        {
            "positions": [
                -0.12650207397373686,
                -1.2522869600298616,
                1.3045382202984226,
                -0.27980190050415604,
                0.33296666560948973,
                2.355618995522647
            ]
        },
        {
            "positions": [
                -0.13047332998801753,
                -1.307016613080651,
                1.3874895069047268,
                -0.28222548368900785,
                0.27074828418777064,
                2.525957737765361
            ]
        },
        {
            "positions": [
                -0.13444458600229822,
                -1.3617462661314406,
                1.470440793511031,
                -0.28464906687385966,
                0.2085299027660515,
                2.696296480008074
            ]
        },
        {
            "positions": [
                -0.13841584201657892,
                -1.41647591918223,
                1.5533920801173353,
                -0.2870726500587114,
                0.1463115213443324,
                2.866635222250787
            ]
        },
        {
            "positions": [
                -0.1423870980308596,
                -1.4712055722330195,
                1.6363433667236396,
                -0.2894962332435632,
                0.08409313992261325,
                3.0369739644935008
            ]
        },
        {
            "positions": [
                -0.07639322816037317,
                -1.3859865627425187,
                1.7162783571124733,
                -0.3944181801198531,
                0.09391314413425676,
                3.0327069678928646
            ]
        },
        {
            "positions": [
                -0.010399358289886723,
                -1.300767553252018,
                1.7962133475013073,
                -0.49934012699614294,
                0.10373314834590028,
                3.0284399712922285
            ]
        },
        {
            "positions": [
                0.05559451158059972,
                -1.215548543761517,
                1.8761483378901413,
                -0.6042620738724328,
                0.11355315255754378,
                3.024172974691593
            ]
        },
        {
            "positions": [
                0.12158838145108616,
                -1.1303295342710162,
                1.9560833282789751,
                -0.7091840207487227,
                0.1233731567691873,
                3.0199059780909567
            ]
        }
    ]
}