{
    "goal": {
        "global_pose": {
            "orientation": {
                "w": 0.7031023502349854,
                "x": -0.7110244035720825,
                "y": 0.007748599164187908,
                "z": 0.005598929710686207
            },
            "position": {
                "x": 0.11585023208521307,
                "y": 0.44412534475326537,
                "z": 0.3711530566215515
            }
        },
        "name": "move_to_auspresseinheit_A"
    },
    "id": "SBL_move_to_auspresseinheit_A_15",
    "joint_names": [
        "shoulder_pan_joint",
        "shoulder_lift_joint",
        "elbow_joint",
        "wrist_1_joint",
        "wrist_2_joint",
        "wrist_3_joint"
    ],
    "metrics": {
        "cart_traj_len": 1.6939687796806413,
        "distance_elbow_joint": 1.4622390863064645,
        "distance_shoulder_lift_joint": 1.487495419292492,
        "distance_shoulder_pan_joint": 1.0474596094656552,
        "distance_wrist_1_joint": 1.7032991635364079,
        "distance_wrist_2_joint": 0.5836169861714611,
        "distance_wrist_3_joint": 0.5088785499760089,
        "smoothness": 1.2215371381622226,
        "time": 0.370791088,
        "traj_len": 2.6063362819767693,
        "weighted_distance": 3.1776818696037488
    },
    "planner": "SBL",
    "start": {
        "state": {
            "elbow_joint": 2.4225746658250005,
            "shoulder_lift_joint": -1.3736534386056498,
            "shoulder_pan_joint": -0.3378633547517467,
            "wrist_1_joint": -1.0288598680537169,
            "wrist_2_joint": 1.233022673432363,
            "wrist_3_joint": -3.0940220416140027
        }
    },
    "waypoints": [
        {
            "positions": [
                -0.3378633547517467,
                -1.3736534386056498,
                2.4225746658250005,
                -1.0288598680537169,
                1.233022673432363,
                -3.0940220416140027
            ]
        },
        {
            "positions": [
                -0.3016823888052609,
                -1.4720607442580729,
                2.3479364399766136,
                -0.9154175641123447,
                1.198484427763622,
                -3.0705645402064343
            ]
        },
        {
            "positions": [
                -0.26550142285877504,
                -1.5704680499104957,
                2.2732982141282267,
                -0.8019752601709724,
                1.1639461820948809,
                -3.0471070387988655
            ]
        },
        {
            "positions": [
                -0.2293204569122892,
                -1.6688753555629188,
                2.19865998827984,
                -0.6885329562296001,
                1.1294079364261396,
                -3.0236495373912966
            ]
        },
        {
            "positions": [
                -0.19313949096580335,
                -1.7672826612153418,
                2.124021762431453,
                -0.5750906522882279,
                1.0948696907573985,
                -3.000192035983728
            ]
        },
        {
            "positions": [
                -0.1569585250193175,
                -1.8656899668677647,
                2.049383536583066,
                -0.46164834834685564,
                1.0603314450886574,
                -2.9767345345761598
            ]
        },
        {
            "positions": [
                -0.12077755907283166,
                -1.9640972725201877,
                1.9747453107346793,
                -0.3482060444054834,
                1.0257931994199163,
                -2.953277033168591
            ]
        },
        {
            "positions": [
                -0.08459659312634582,
                -2.062504578172611,
                1.9001070848862924,
                -0.2347637404641112,
                0.9912549537511751,
                -2.929819531761022
            ]
        },
        {
            "positions": [
                -0.04841562717985998,
                -2.160911883825034,
                1.8254688590379053,
                -0.12132143652273886,
                0.9567167080824339,
                -2.9063620303534536
            ]
        },
        {
            "positions": [
                -0.012234661233374133,
                -2.259319189477457,
                1.7508306331895185,
                -0.007879132581366521,
                0.9221784624136928,
                -2.8829045289458852
            ]
        },
        {
            "positions": [
                0.02394630471311171,
                -2.3577264951298798,
                1.6761924073411316,
                0.10556317136000548,
                0.8876402167449517,
                -2.8594470275383164
            ]
        },
        {
            "positions": [
                0.10864283546322794,
                -2.262199609872471,
                1.785430570554933,
                0.06265919746305221,
                0.8465185518963616,
                -2.8779471051204184
            ]
        },
        {
            "positions": [
                0.19333936621334416,
                -2.166672724615062,
                1.894668733768734,
                0.019755223566098934,
                0.8053968870477713,
                -2.8964471827025204
            ]
        },
        {
            "positions": [
                0.27803589696346037,
                -2.071145839357653,
                2.003906896982535,
                -0.023148750330854312,
                0.7642752221991812,
                -2.914947260284622
            ]
        },
        {
            "positions": [
                0.3627324277135766,
                -1.9756189541002442,
                2.1131450601963366,
                -0.06605272422780761,
                0.723153557350591,
                -2.933447337866724
            ]
        },
        {
            "positions": [
                0.4474289584636928,
                -1.8800920688428353,
                2.2223832234101377,
                -0.10895669812476086,
                0.6820318925020008,
                -2.951947415448826
            ]
        },
        {
            "positions": [
                0.5348180572137647,
                -1.888688047669908,
                2.2789385606613344,
                -0.22707544967073395,
                0.6929072942490337,
                -3.0125484647787637
            ]
        },
        {
            "positions": [
                0.6222071559638367,
                -1.8972840264969804,
                2.3354938979125306,
                -0.3451942012167071,
                0.7037826959960667,
                -3.0731495141087013
            ]
        },
        {
            "positions": [
                0.7095962547139086,
                -1.905880005324053,
                2.3920492351637272,
                -0.46331295276268014,
                0.7146580977430996,
                -3.133750563438639
            ]
        }
    ]
}