{
    "goal": {
        "global_pose": {
            "orientation": {
                "w": 0.7031023480610252,
                "x": -0.7110244013736278,
                "y": 0.0077485991402295624,
                "z": 0.005598929693374583
            },
            "position": {
                "x": -0.8841497679147869,
                "y": 0.44412534475326537,
                "z": 0.3711530566215515
            }
        },
        "name": "move_to_auspresseinheit_D"
    },
    "id": "SBL_move_to_auspresseinheit_D_132",
    "joint_names": [
        "shoulder_pan_joint",
        "shoulder_lift_joint",
        "elbow_joint",
        "wrist_1_joint",
        "wrist_2_joint",
        "wrist_3_joint"
    ],
    "metrics": {
        "cart_traj_len": 0.3431523508767106,
        "distance_elbow_joint": 0.6415885058051407,
        "distance_shoulder_lift_joint": 0.1228056013083405,
        "distance_shoulder_pan_joint": 0.13289281558176327,
        "distance_wrist_1_joint": 0.532427249354519,
        "distance_wrist_2_joint": 1.4484664838833772,
        "distance_wrist_3_joint": 0.0017238677536752789,
        "smoothness": 0.0,
        "time": 0.169319958,
        "traj_len": 1.6970281446360327,
        "weighted_distance": 2.205503568900323
    },
    "planner": "SBL",
    "start": {
        "state": {
            "elbow_joint": -1.8275523626775212,
            "shoulder_lift_joint": -2.126789852344167,
            "shoulder_pan_joint": -0.03513704404078235,
            "wrist_1_joint": -2.347782403156801,
            "wrist_2_joint": -1.6058999987535132,
            "wrist_3_joint": -3.0880379163319196
        }
    },
    "waypoints": [
        {
            "positions": [
                -0.03513704404078235,
                -2.126789852344167,
                -1.8275523626775212,
                -2.347782403156801,
                -1.6058999987535132,
                -3.0880379163319196
            ]
        },
        {
            "positions": [
                -0.05174864598850276,
                -2.1421405525077093,
                -1.7473537994518786,
                -2.414335809326116,
                -1.424841688268091,
                -3.088253399801129
            ]
        },
        {
            "positions": [
                -0.06836024793622317,
                -2.157491252671252,
                -1.667155236226236,
                -2.4808892154954307,
                -1.2437833777826688,
                -3.0884688832703384
            ]
        },
        {
            "positions": [
                -0.08497184988394357,
                -2.1728419528347946,
                -1.5869566730005935,
                -2.5474426216647457,
                -1.0627250672972468,
                -3.088684366739548
            ]
        },
        {
            "positions": [
                -0.10158345183166398,
                -2.188192652998337,
                -1.506758109774951,
                -2.6139960278340606,
                -0.8816667568118246,
                -3.0888998502087572
            ]
        },
        {
            "positions": [
                -0.11819505377938438,
                -2.2035433531618795,
                -1.4265595465493082,
                -2.680549434003375,
                -0.7006084463264024,
                -3.0891153336779666
            ]
        },
        {
            "positions": [
                -0.13480665572710482,
                -2.218894053325422,
                -1.3463609833236656,
                -2.74710284017269,
                -0.5195501358409804,
                -3.089330817147176
            ]
        },
        {
            "positions": [
                -0.15141825767482522,
                -2.234244753488965,
                -1.266162420098023,
                -2.813656246342005,
                -0.3384918253555582,
                -3.0895463006163855
            ]
        },
        {
            "positions": [
                -0.16802985962254563,
                -2.2495954536525073,
                -1.1859638568723805,
                -2.88020965251132,
                -0.15743351487013607,
                -3.089761784085595
            ]
        }
    ]
}