{
    "goal": {
        "global_pose": {
            "orientation": {
                "w": -0.00223480608172531,
                "x": 0.0024358444001904467,
                "y": 0.7094548369677653,
                "z": -0.704743149386269
            },
            "position": {
                "x": 0.6205249238014221,
                "y": -0.6371506643295288,
                "z": 0.19426114857196808
            }
        },
        "name": "move_to_magneteinheit_B"
    },
    "id": "SBL_move_to_magneteinheit_B_73",
    "joint_names": [
        "shoulder_pan_joint",
        "shoulder_lift_joint",
        "elbow_joint",
        "wrist_1_joint",
        "wrist_2_joint",
        "wrist_3_joint"
    ],
    "metrics": {
        "cart_traj_len": 3.1253036896150364,
        "distance_elbow_joint": 4.725790989759688,
        "distance_shoulder_lift_joint": 1.0574483067959894,
        "distance_shoulder_pan_joint": 2.0821189140865526,
        "distance_wrist_1_joint": 2.5462090760500056,
        "distance_wrist_2_joint": 1.4027489473019106,
        "distance_wrist_3_joint": 1.9356258046013086,
        "smoothness": 0.3425214802777898,
        "time": 1.0321008470000002,
        "traj_len": 3.7080914280254005,
        "weighted_distance": 4.644367736425486
    },
    "planner": "SBL",
    "start": {
        "state": {
            "elbow_joint": 2.6216224122426386,
            "shoulder_lift_joint": -1.4174107377796124,
            "shoulder_pan_joint": 0.7066234856936794,
            "wrist_1_joint": 1.9546482284002225,
            "wrist_2_joint": -0.7096286983471962,
            "wrist_3_joint": 0.005740856962016249
        }
    },
    "waypoints": [
        {
            "positions": [
                0.7066234856936794,
                -1.4174107377796124,
                2.6216224122426386,
                1.9546482284002225,
                -0.7096286983471962,
                0.005740856962016249
            ]
        },
        {
            "positions": [
                0.7056188355612646,
                -1.4903078924912472,
                2.542306325447352,
                1.763267875508942,
                -0.7455512682184765,
                0.006585532652694734
            ]
        },
        {
            "positions": [
                0.7046141854288499,
                -1.563205047202882,
                2.462990238652066,
                1.5718875226176616,
                -0.7814738380897569,
                0.007430208343373219
            ]
        },
        {
            "positions": [
                0.7036095352964351,
                -1.6361022019145168,
                2.3836741518567797,
                1.380507169726381,
                -0.8173964079610372,
                0.008274884034051706
            ]
        },
        {
            "positions": [
                0.7806176039272941,
                -1.6417945097187199,
                2.2127838646756604,
                1.332881349553925,
                -0.7721214794343916,
                0.04731293322932871
            ]
        },
        {
            "positions": [
                0.8576256725581529,
                -1.647486817522923,
                2.041893577494541,
                1.285255529381469,
                -0.7268465509077461,
                0.0863509824246057
            ]
        },
        {
            "positions": [
                0.9346337411890119,
                -1.653179125327126,
                1.8710032903134215,
                1.2376297092090127,
                -0.6815716223811006,
                0.1253890316198827
            ]
        },
        {
            "positions": [
                1.0116418098198707,
                -1.658871433131329,
                1.700113003132302,
                1.1900038890365567,
                -0.636296693854455,
                0.16442708081515972
            ]
        },
        {
            "positions": [
                1.0886498784507297,
                -1.664563740935532,
                1.5292227159511826,
                1.1423780688641005,
                -0.5910217653278094,
                0.20346513001043673
            ]
        },
        {
            "positions": [
                1.1656579470815887,
                -1.670256048739735,
                1.3583324287700633,
                1.0947522486916443,
                -0.5457468368011639,
                0.2425031792057137
            ]
        },
        {
            "positions": [
                1.2426660157124476,
                -1.6759483565439381,
                1.1874421415889438,
                1.0471264285191884,
                -0.5004719082745183,
                0.2815412284009907
            ]
        },
        {
            "positions": [
                1.3196740843433066,
                -1.6816406643481412,
                1.0165518544078245,
                0.9995006083467322,
                -0.45519697974787277,
                0.3205792775962677
            ]
        },
        {
            "positions": [
                1.3966821529741653,
                -1.6873329721523442,
                0.8456615672267052,
                0.9518747881742762,
                -0.4099220512212272,
                0.3596173267915447
            ]
        },
        {
            "positions": [
                1.4736902216050243,
                -1.6930252799565473,
                0.6747712800455856,
                0.90424896800182,
                -0.3646471226945816,
                0.3986553759868217
            ]
        },
        {
            "positions": [
                1.5506982902358832,
                -1.6987175877607503,
                0.5038809928644663,
                0.8566231478293639,
                -0.3193721941679361,
                0.4376934251820987
            ]
        },
        {
            "positions": [
                1.627706358866742,
                -1.7044098955649534,
                0.332990705683347,
                0.8089973276569078,
                -0.27409726564129056,
                0.4767314743773757
            ]
        },
        {
            "positions": [
                1.7047144274976012,
                -1.7101022033691562,
                0.16210041850222723,
                0.7613715074844516,
                -0.22882233711464495,
                0.5157695235726527
            ]
        },
        {
            "positions": [
                1.7817224961284601,
                -1.7157945111733595,
                -0.008789868678892088,
                0.7137456873119955,
                -0.18354740858799934,
                0.5548075727679298
            ]
        },
        {
            "positions": [
                1.8587305647593189,
                -1.7214868189775623,
                -0.1796801558600114,
                0.6661198671395394,
                -0.13827248006135384,
                0.5938456219632067
            ]
        },
        {
            "positions": [
                1.9357386333901778,
                -1.7271791267817653,
                -0.3505704430411307,
                0.6184940469670833,
                -0.09299755153470834,
                0.6328836711584838
            ]
        },
        {
            "positions": [
                2.012746702021037,
                -1.7328714345859684,
                -0.5214607302222505,
                0.5708682267946271,
                -0.04772262300806274,
                0.6719217203537607
            ]
        },
        {
            "positions": [
                2.0897547706518953,
                -1.7385637423901714,
                -0.6923510174033694,
                0.5232424066221711,
                -0.0024476944814172397,
                0.7109597695490377
            ]
        },
        {
            "positions": [
                2.1667628392827547,
                -1.7442560501943745,
                -0.8632413045844891,
                0.47561658644971494,
                0.04282723404522837,
                0.7499978187443147
            ]
        },
        {
            "positions": [
                2.2437709079136132,
                -1.7499483579985775,
                -1.0341315917656084,
                0.42799076627725885,
                0.08810216257187398,
                0.7890358679395918
            ]
        },
        {
            "positions": [
                2.3207789765444726,
                -1.7556406658027806,
                -1.2050218789467277,
                0.38036494610480287,
                0.13337709109851947,
                0.8280739171348687
            ]
        },
        {
            "positions": [
                2.397787045175331,
                -1.7613329736069836,
                -1.375912166127847,
                0.33273912593234667,
                0.17865201962516497,
                0.8671119663301458
            ]
        },
        {
            "positions": [
                2.4747951138061905,
                -1.7670252814111866,
                -1.5468024533089668,
                0.28511330575989047,
                0.2239269481518107,
                0.9061500155254227
            ]
        },
        {
            "positions": [
                2.551803182437049,
                -1.7727175892153897,
                -1.7176927404900857,
                0.2374874855874345,
                0.2692018766784561,
                0.9451880647206997
            ]
        },
        {
            "positions": [
                2.628811251067908,
                -1.7784098970195927,
                -1.888583027671205,
                0.1898616654149782,
                0.3144768052051017,
                0.9842261139159767
            ]
        },
        {
            "positions": [
                2.6575958853030257,
                -1.845231945485069,
                -1.8775099894747844,
                0.2791424804622031,
                0.33529524510318603,
                0.8889987922752892
            ]
        },
        {
            "positions": [
                2.686380519538144,
                -1.9120539939505452,
                -1.8664369512783636,
                0.368423295509428,
                0.35611368500127044,
                0.7937714706346019
            ]
        },
        {
            "positions": [
                2.7151651537732615,
                -1.9788760424160214,
                -1.855363913081943,
                0.4577041105566529,
                0.3769321248993548,
                0.6985441489939144
            ]
        },
        {
            "positions": [
                2.7184400538712534,
                -2.047929902060574,
                -1.8337904692325404,
                0.5351225427983386,
                0.39276398707337085,
                0.6031731888189411
            ]
        },
        {
            "positions": [
                2.721714953969246,
                -2.116983761705127,
                -1.812217025383138,
                0.6125409750400242,
                0.4085958492473869,
                0.5078022286439677
            ]
        },
        {
            "positions": [
                2.706465067715121,
                -2.2064525824227457,
                -1.7774121384936938,
                0.702226775899953,
                0.4258430943672983,
                0.38762306305013294
            ]
        },
        {
            "positions": [
                2.691215181460997,
                -2.2959214031403645,
                -1.7426072516042495,
                0.7919125767598816,
                0.44309033948720966,
                0.26744389745629815
            ]
        },
        {
            "positions": [
                2.6759652952068724,
                -2.385390223857983,
                -1.707802364714805,
                0.8815983776198103,
                0.460337584607121,
                0.14726473186246336
            ]
        },
        {
            "positions": [
                2.660715408952748,
                -2.474859044575602,
                -1.672997477825361,
                0.971284178479739,
                0.47758482972703237,
                0.02708556626862855
            ]
        }
    ]
}