{
    "goal": {
        "global_pose": {
            "orientation": {
                "w": 0.5084816217422485,
                "x": -0.49083608388900757,
                "y": 0.5182115435600281,
                "z": -0.4816462993621826
            },
            "position": {
                "x": 0.5540239810943604,
                "y": 0.030875300988554955,
                "z": 0.16403168439865112
            }
        },
        "name": "move_to_storage_A"
    },
    "id": "SBL_move_to_storage_A_84",
    "joint_names": [
        "shoulder_pan_joint",
        "shoulder_lift_joint",
        "elbow_joint",
        "wrist_1_joint",
        "wrist_2_joint",
        "wrist_3_joint"
    ],
    "metrics": {
        "cart_traj_len": 0.35289132916029076,
        "distance_elbow_joint": 0.45240559170415473,
        "distance_shoulder_lift_joint": 0.23443282126986142,
        "distance_shoulder_pan_joint": 0.4628038130353555,
        "distance_wrist_1_joint": 0.2571954881699199,
        "distance_wrist_2_joint": 1.09247781527428,
        "distance_wrist_3_joint": 0.10837501745786726,
        "smoothness": 4.440892133664971e-16,
        "time": 0.191255313,
        "traj_len": 1.6148345261702324,
        "weighted_distance": 2.0430648264975275
    },
    "planner": "SBL",
    "start": {
        "state": {
            "elbow_joint": 1.9715481507254546,
            "shoulder_lift_joint": -1.1394850672790213,
            "shoulder_pan_joint": 0.12281154597544902,
            "wrist_1_joint": -0.7804720171073349,
            "wrist_2_joint": 0.12958658322886563,
            "wrist_3_joint": -3.1924895760937617
        }
    },
    "waypoints": [
        {
            "positions": [
                0.12281154597544902,
                -1.1394850672790213,
                1.9715481507254546,
                -0.7804720171073349,
                0.12958658322886563,
                -3.1924895760937617
            ]
        },
        {
            "positions": [
                0.056696715541826814,
                -1.172975470317573,
                2.0361775209689053,
                -0.8172142297030378,
                0.2856548425537627,
                -3.1770074307426377
            ]
        },
        {
            "positions": [
                -0.009418114891795393,
                -1.2064658733561247,
                2.100806891212356,
                -0.8539564422987406,
                0.4417231018786599,
                -3.161525285391514
            ]
        },
        {
            "positions": [
                -0.0755329453254176,
                -1.2399562763946763,
                2.1654362614558065,
                -0.8906986548944434,
                0.597791361203557,
                -3.14604314004039
            ]
        },
        {
            "positions": [
                -0.1416477757590398,
                -1.2734466794332278,
                2.230065631699257,
                -0.9274408674901463,
                0.7538596205284541,
                -3.130560994689266
            ]
        },
        {
            "positions": [
                -0.20776260619266207,
                -1.3069370824717794,
                2.294695001942708,
                -0.9641830800858491,
                0.9099278798533513,
                -3.115078849338142
            ]
        },
        {
            "positions": [
                -0.2738774366262842,
                -1.340427485510331,
                2.3593243721861588,
                -1.000925292681552,
                1.0659961391782484,
                -3.0995967039870185
            ]
        },
        {
            "positions": [
                -0.3399922670599065,
                -1.3739178885488827,
                2.4239537424296094,
                -1.0376675052772548,
                1.2220643985031456,
                -3.0841145586358945
            ]
        }
    ]
}