{
    "goal": {
        "global_pose": {
            "orientation": {
                "w": 0.7047431493862688,
                "x": -0.7094548369677653,
                "y": 0.0024358444001904,
                "z": -0.0022348060817251984
            },
            "position": {
                "x": -0.39052492380142206,
                "y": 0.3671506643295288,
                "z": 0.19426114857196808
            }
        },
        "name": "move_to_magneteinheit_D"
    },
    "id": "SBL_move_to_magneteinheit_D_66",
    "joint_names": [
        "shoulder_pan_joint",
        "shoulder_lift_joint",
        "elbow_joint",
        "wrist_1_joint",
        "wrist_2_joint",
        "wrist_3_joint"
    ],
    "metrics": {
        "cart_traj_len": 4.44858278635111,
        "distance_elbow_joint": 3.3702317121109715,
        "distance_shoulder_lift_joint": 1.633045283688096,
        "distance_shoulder_pan_joint": 2.9785213738835306,
        "distance_wrist_1_joint": 1.735796596868195,
        "distance_wrist_2_joint": 0.8067902304947331,
        "distance_wrist_3_joint": 3.1575267925823622,
        "smoothness": 0.2954690093272849,
        "time": 0.35812056600000003,
        "traj_len": 3.6989068641462017,
        "weighted_distance": 4.7475838488809785
    },
    "planner": "SBL",
    "start": {
        "state": {
            "elbow_joint": 0.749534889911806,
            "shoulder_lift_joint": -0.6476975780787326,
            "shoulder_pan_joint": -2.711696901376241,
            "wrist_1_joint": -0.07506478083263063,
            "wrist_2_joint": 0.43296659715538205,
            "wrist_3_joint": -3.14703540197715
        }
    },
    "waypoints": [
        {
            "positions": [
                -2.711696901376241,
                -0.6476975780787326,
                0.749534889911806,
                -0.07506478083263063,
                0.43296659715538205,
                -3.14703540197715
            ]
        },
        {
            "positions": [
                -2.7166387672196834,
                -0.667463065508686,
                0.6838270397941801,
                -0.10149565829626828,
                0.4234590276988188,
                -3.129111180615939
            ]
        },
        {
            "positions": [
                -2.7265224989065677,
                -0.7069940403685924,
                0.5524113395589283,
                -0.15435741322354357,
                0.40444388878569226,
                -3.093262737893518
            ]
        },
        {
            "positions": [
                -2.594032158379281,
                -0.7620536087331903,
                0.4541229090600193,
                -0.13424394814055945,
                0.3890895264887234,
                -3.021896780185993
            ]
        },
        {
            "positions": [
                -2.4615418178519946,
                -0.8171131770977882,
                0.3558344785611103,
                -0.11413048305757531,
                0.37373516419175457,
                -2.950530822478468
            ]
        },
        {
            "positions": [
                -2.329051477324708,
                -0.8721727454623861,
                0.2575460480622013,
                -0.0940170179745912,
                0.3583808018947857,
                -2.879164864770943
            ]
        },
        {
            "positions": [
                -2.1965611367974214,
                -0.927232313826984,
                0.15925761756329232,
                -0.07390355289160706,
                0.34302643959781687,
                -2.8077989070634177
            ]
        },
        {
            "positions": [
                -2.0640707962701343,
                -0.9822918821915819,
                0.06096918706438331,
                -0.05379008780862293,
                0.327672077300848,
                -2.7364329493558928
            ]
        },
        {
            "positions": [
                -1.9315804557428478,
                -1.0373514505561798,
                -0.03731924343452564,
                -0.033676622725638816,
                0.31231771500387917,
                -2.665066991648368
            ]
        },
        {
            "positions": [
                -1.7990901152155612,
                -1.0924110189207776,
                -0.13560767393343465,
                -0.013563157642654672,
                0.2969633527069103,
                -2.593701033940843
            ]
        },
        {
            "positions": [
                -1.6665997746882746,
                -1.1474705872853757,
                -0.23389610443234365,
                0.006550307440329445,
                0.2816089904099415,
                -2.522335076233318
            ]
        },
        {
            "positions": [
                -1.534109434160988,
                -1.2025301556499737,
                -0.33218453493125266,
                0.02666377252331356,
                0.2662546281129726,
                -2.4509691185257925
            ]
        },
        {
            "positions": [
                -1.4016190936337014,
                -1.2575897240145715,
                -0.43047296543016167,
                0.046777237606297706,
                0.2509002658160038,
                -2.3796031608182675
            ]
        },
        {
            "positions": [
                -1.2691287531064146,
                -1.3126492923791693,
                -0.5287613959290707,
                0.06689070268928182,
                0.23554590351903495,
                -2.3082372031107425
            ]
        },
        {
            "positions": [
                -1.136638412579128,
                -1.3677088607437673,
                -0.6270498264279796,
                0.08700416777226594,
                0.2201915412220661,
                -2.2368712454032176
            ]
        },
        {
            "positions": [
                -1.0041480720518414,
                -1.4227684291083653,
                -0.7253382569268887,
                0.10711763285525006,
                0.20483717892509726,
                -2.1655052876956926
            ]
        },
        {
            "positions": [
                -0.8716577315245546,
                -1.4778279974729631,
                -0.8236266874257976,
                0.12723109793823423,
                0.1894828166281284,
                -2.0941393299881677
            ]
        },
        {
            "positions": [
                -0.739167390997268,
                -1.532887565837561,
                -0.9219151179247067,
                0.14734456302121834,
                0.17412845433115956,
                -2.0227733722806427
            ]
        },
        {
            "positions": [
                -0.6066770504699817,
                -1.587947134202159,
                -1.0202035484236156,
                0.16745802810420246,
                0.1587740920341907,
                -1.9514074145731175
            ]
        },
        {
            "positions": [
                -0.5434084500299414,
                -1.6394543822739196,
                -1.1176131319836722,
                0.24393180773626005,
                0.14892007615632968,
                -1.8550816482699535
            ]
        },
        {
            "positions": [
                -0.48013984958990125,
                -1.6909616303456803,
                -1.2150227155437288,
                0.3204055873683176,
                0.13906606027846863,
                -1.7587558819667897
            ]
        },
        {
            "positions": [
                -0.41687124914986107,
                -1.742468878417441,
                -1.3124322991037853,
                0.3968793670003752,
                0.12921204440060763,
                -1.6624301156636259
            ]
        },
        {
            "positions": [
                -0.35360264870982083,
                -1.7939761264892016,
                -1.409841882663842,
                0.4733531466324328,
                0.11935802852274657,
                -1.5661043493604618
            ]
        },
        {
            "positions": [
                -0.29033404826978065,
                -1.8454833745609622,
                -1.5072514662238983,
                0.5498269262644904,
                0.10950401264488555,
                -1.469778583057298
            ]
        },
        {
            "positions": [
                -0.22706544782974047,
                -1.896990622632723,
                -1.6046610497839549,
                0.6263007058965478,
                0.09964999676702452,
                -1.373452816754134
            ]
        },
        {
            "positions": [
                -0.1637968473897003,
                -1.9484978707044835,
                -1.7020706333440114,
                0.7027744855286053,
                0.08979598088916349,
                -1.2771270504509702
            ]
        },
        {
            "positions": [
                -0.10052824694966,
                -2.000005118776244,
                -1.799480216904068,
                0.7792482651606631,
                0.07994196501130243,
                -1.1808012841478062
            ]
        },
        {
            "positions": [
                -0.03725964650961988,
                -2.051512366848005,
                -1.8968898004641246,
                0.8557220447927205,
                0.07008794913344141,
                -1.0844755178446424
            ]
        },
        {
            "positions": [
                0.026008953930420395,
                -2.1030196149197655,
                -1.9942993840241812,
                0.9321958244247781,
                0.06023393325558037,
                -0.9881497515414784
            ]
        },
        {
            "positions": [
                0.02081439800661732,
                -2.1137693401143016,
                -2.0954015908862442,
                1.0068966128186716,
                0.11502713933551958,
                -0.8940343731392024
            ]
        },
        {
            "positions": [
                0.015619842082814242,
                -2.1245190653088377,
                -2.1965037977483073,
                1.081597401212565,
                0.16982034541545882,
                -0.7999189947369265
            ]
        },
        {
            "positions": [
                0.010425286159011166,
                -2.1352687905033743,
                -2.297606004610371,
                1.1562981896064588,
                0.22461355149539802,
                -0.7058036163346506
            ]
        },
        {
            "positions": [
                0.0052307302352080885,
                -2.1460185156979104,
                -2.398708211472434,
                1.2309989780003523,
                0.27940675757533723,
                -0.6116882379323746
            ]
        },
        {
            "positions": [
                3.6174311405012816e-05,
                -2.1567682408924465,
                -2.499810418334497,
                1.3056997663942458,
                0.33419996365527643,
                -0.5175728595300987
            ]
        },
        {
            "positions": [
                -0.0462617116628952,
                -2.187761896111042,
                -2.46958881736833,
                1.354811462609119,
                0.2941770796064676,
                -0.3855567969962712
            ]
        },
        {
            "positions": [
                -0.09255959763719541,
                -2.2187555513296378,
                -2.4393672164021627,
                1.403923158823992,
                0.2541541955576588,
                -0.25354073446244374
            ]
        },
        {
            "positions": [
                -0.13885748361149564,
                -2.249749206548233,
                -2.409145615435996,
                1.4530348550388652,
                0.21413131150884998,
                -0.12152467192861627
            ]
        },
        {
            "positions": [
                -0.18515536958579584,
                -2.2807428617668286,
                -2.378924014469829,
                1.5021465512537384,
                0.17410842746004115,
                0.010491390605211218
            ]
        }
    ]
}