{
    "goal": {
        "global_pose": {
            "orientation": {
                "w": 0.7031023480610252,
                "x": -0.7110244013736278,
                "y": 0.0077485991402295624,
                "z": 0.005598929693374583
            },
            "position": {
                "x": -0.8841497679147869,
                "y": 0.44412534475326537,
                "z": 0.3711530566215515
            }
        },
        "name": "move_to_auspresseinheit_D"
    },
    "id": "SBL_move_to_auspresseinheit_D_115",
    "joint_names": [
        "shoulder_pan_joint",
        "shoulder_lift_joint",
        "elbow_joint",
        "wrist_1_joint",
        "wrist_2_joint",
        "wrist_3_joint"
    ],
    "metrics": {
        "cart_traj_len": 0.3429507224023347,
        "distance_elbow_joint": 0.6376168062086702,
        "distance_shoulder_lift_joint": 0.12053627745403173,
        "distance_shoulder_pan_joint": 0.1329920975831981,
        "distance_wrist_1_joint": 0.5233340115029659,
        "distance_wrist_2_joint": 1.449987081562478,
        "distance_wrist_3_joint": 0.009623069469585133,
        "smoothness": 1.9737298371844314e-16,
        "time": 0.199925004,
        "traj_len": 1.6953139366444578,
        "weighted_distance": 2.206049993945183
    },
    "planner": "SBL",
    "start": {
        "state": {
            "elbow_joint": -1.8275523626775212,
            "shoulder_lift_joint": -2.126789852344167,
            "shoulder_pan_joint": -0.03513704404078235,
            "wrist_1_joint": -2.347782403156801,
            "wrist_2_joint": -1.6058999987535132,
            "wrist_3_joint": -3.0880379163319196
        }
    },
    "waypoints": [
        {
            "positions": [
                -0.03513704404078235,
                -2.126789852344167,
                -1.8275523626775212,
                -2.347782403156801,
                -1.6058999987535132,
                -3.0880379163319196
            ]
        },
        {
            "positions": [
                -0.051761056238682115,
                -2.141856887025921,
                -1.7478502619014373,
                -2.413199154594672,
                -1.4246516135582035,
                -3.0892408000156175
            ]
        },
        {
            "positions": [
                -0.06838506843658188,
                -2.1569239217076746,
                -1.6681481611253537,
                -2.4786159060325423,
                -1.2434032283628937,
                -3.090443683699316
            ]
        },
        {
            "positions": [
                -0.08500908063448165,
                -2.1719909563894286,
                -1.5884460603492698,
                -2.544032657470413,
                -1.0621548431675838,
                -3.0916465673830142
            ]
        },
        {
            "positions": [
                -0.1016330928323814,
                -2.1870579910711827,
                -1.5087439595731862,
                -2.609449408908284,
                -0.8809064579722742,
                -3.092849451066712
            ]
        },
        {
            "positions": [
                -0.11825710503028117,
                -2.202125025752937,
                -1.4290418587971023,
                -2.6748661603461548,
                -0.6996580727769645,
                -3.09405233475041
            ]
        },
        {
            "positions": [
                -0.13488111722818094,
                -2.217192060434691,
                -1.3493397580210185,
                -2.7402829117840253,
                -0.5184096875816546,
                -3.0952552184341084
            ]
        },
        {
            "positions": [
                -0.1515051294260807,
                -2.2322590951164445,
                -1.2696376572449348,
                -2.805699663221896,
                -0.3371613023863449,
                -3.096458102117807
            ]
        },
        {
            "positions": [
                -0.16812914162398046,
                -2.2473261297981986,
                -1.189935556468851,
                -2.8711164146597667,
                -0.1559129171910352,
                -3.0976609858015047
            ]
        }
    ]
}