{
    "goal": {
        "global_pose": {
            "orientation": {
                "w": 0.7031023480610252,
                "x": -0.7110244013736278,
                "y": 0.0077485991402295624,
                "z": 0.005598929693374583
            },
            "position": {
                "x": -0.8841497679147869,
                "y": 0.44412534475326537,
                "z": 0.3711530566215515
            }
        },
        "name": "move_to_auspresseinheit_D"
    },
    "id": "SBL_move_to_auspresseinheit_D_127",
    "joint_names": [
        "shoulder_pan_joint",
        "shoulder_lift_joint",
        "elbow_joint",
        "wrist_1_joint",
        "wrist_2_joint",
        "wrist_3_joint"
    ],
    "metrics": {
        "cart_traj_len": 0.34365366838321776,
        "distance_elbow_joint": 0.6492589479081927,
        "distance_shoulder_lift_joint": 0.1276012129752382,
        "distance_shoulder_pan_joint": 0.13452667366647367,
        "distance_wrist_1_joint": 0.573172005434317,
        "distance_wrist_2_joint": 1.4309305123424032,
        "distance_wrist_3_joint": 0.043584193177881314,
        "smoothness": 0.0,
        "time": 0.284308018,
        "traj_len": 1.7201957869685955,
        "weighted_distance": 2.247297143155971
    },
    "planner": "SBL",
    "start": {
        "state": {
            "elbow_joint": -1.8275523626775212,
            "shoulder_lift_joint": -2.126789852344167,
            "shoulder_pan_joint": -0.03513704404078235,
            "wrist_1_joint": -2.347782403156801,
            "wrist_2_joint": -1.6058999987535132,
            "wrist_3_joint": -3.0880379163319196
        }
    },
    "waypoints": [
        {
            "positions": [
                -0.03513704404078235,
                -2.126789852344167,
                -1.8275523626775212,
                -2.347782403156801,
                -1.6058999987535132,
                -3.0880379163319196
            ]
        },
        {
            "positions": [
                -0.05195287824909156,
                -2.142740003966072,
                -1.7463949941889971,
                -2.4194289038360903,
                -1.4270336847107128,
                -3.0825898921846844
            ]
        },
        {
            "positions": [
                -0.06876871245740077,
                -2.1586901555879763,
                -1.665237625700473,
                -2.4910754045153802,
                -1.2481673706679124,
                -3.077141868037449
            ]
        },
        {
            "positions": [
                -0.08558454666570997,
                -2.174640307209881,
                -1.584080257211949,
                -2.5627219051946697,
                -1.069301056625112,
                -3.071693843890214
            ]
        },
        {
            "positions": [
                -0.10240038087401918,
                -2.190590458831786,
                -1.502922888723425,
                -2.6343684058739596,
                -0.8904347425823116,
                -3.0662458197429787
            ]
        },
        {
            "positions": [
                -0.11921621508232838,
                -2.2065406104536907,
                -1.4217655202349007,
                -2.706014906553249,
                -0.7115684285395112,
                -3.060797795595744
            ]
        },
        {
            "positions": [
                -0.1360320492906376,
                -2.2224907620755956,
                -1.3406081517463766,
                -2.7776614072325385,
                -0.5327021144967108,
                -3.0553497714485087
            ]
        },
        {
            "positions": [
                -0.15284788349894682,
                -2.2384409136975,
                -1.2594507832578525,
                -2.849307907911828,
                -0.3538358004539104,
                -3.0499017473012735
            ]
        },
        {
            "positions": [
                -0.16966371770725602,
                -2.254391065319405,
                -1.1782934147693285,
                -2.920954408591118,
                -0.17496948641111,
                -3.0444537231540383
            ]
        }
    ]
}