{
    "goal": {
        "global_pose": {
            "orientation": {
                "w": -0.00223480608172531,
                "x": 0.0024358444001904467,
                "y": 0.7094548369677653,
                "z": -0.704743149386269
            },
            "position": {
                "x": 0.6205249238014221,
                "y": -0.6371506643295288,
                "z": 0.19426114857196808
            }
        },
        "name": "move_to_magneteinheit_B"
    },
    "id": "SBL_move_to_magneteinheit_B_129",
    "joint_names": [
        "shoulder_pan_joint",
        "shoulder_lift_joint",
        "elbow_joint",
        "wrist_1_joint",
        "wrist_2_joint",
        "wrist_3_joint"
    ],
    "metrics": {
        "cart_traj_len": 1.4526560655638507,
        "distance_elbow_joint": 0.953675621066354,
        "distance_shoulder_lift_joint": 0.8517452875475853,
        "distance_shoulder_pan_joint": 1.6202683994504847,
        "distance_wrist_1_joint": 1.1991998278284952,
        "distance_wrist_2_joint": 3.503741268989358,
        "distance_wrist_3_joint": 0.18400783485075634,
        "smoothness": 0.7882490274228249,
        "time": 0.443344685,
        "traj_len": 2.883164622378166,
        "weighted_distance": 3.658359605923452
    },
    "planner": "SBL",
    "start": {
        "state": {
            "elbow_joint": 2.6216224122426386,
            "shoulder_lift_joint": -1.4174107377796124,
            "shoulder_pan_joint": 0.7066234856936794,
            "wrist_1_joint": 1.9546482284002225,
            "wrist_2_joint": -0.7096286983471962,
            "wrist_3_joint": 0.005740856962016249
        }
    },
    "waypoints": [
        {
            "positions": [
                0.7066234856936794,
                -1.4174107377796124,
                2.6216224122426386,
                1.9546482284002225,
                -0.7096286983471962,
                0.005740856962016249
            ]
        },
        {
            "positions": [
                0.6495223025770396,
                -1.4028730711571324,
                2.593056962735522,
                1.9554333762271279,
                -0.6120792256502842,
                -0.00471750385257603
            ]
        },
        {
            "positions": [
                0.5924211194603997,
                -1.3883354045346525,
                2.564491513228406,
                1.9562185240540335,
                -0.5145297529533721,
                -0.015175864667168311
            ]
        },
        {
            "positions": [
                0.48865880957354235,
                -1.3953376525221959,
                2.526703583770124,
                1.8847499781696486,
                -0.40089530303196064,
                -0.0010377768459437255
            ]
        },
        {
            "positions": [
                0.38489649968668505,
                -1.402339900509739,
                2.4889156543118425,
                1.8132814322852635,
                -0.2872608531105491,
                0.01310031097528086
            ]
        },
        {
            "positions": [
                0.2811341897998277,
                -1.4093421484972823,
                2.451127724853561,
                1.7418128864008786,
                -0.17362640318913763,
                0.027238398796505442
            ]
        },
        {
            "positions": [
                0.17737187991297038,
                -1.4163443964848257,
                2.413339795395279,
                1.6703443405164937,
                -0.059991953267726106,
                0.04137648661773003
            ]
        },
        {
            "positions": [
                0.07360957002611301,
                -1.423346644472369,
                2.3755518659369974,
                1.5988757946321086,
                0.05364249665368548,
                0.05551457443895463
            ]
        },
        {
            "positions": [
                -0.030152739860744293,
                -1.4303488924599121,
                2.3377639364787157,
                1.527407248747724,
                0.16727694657509684,
                0.06965266226017919
            ]
        },
        {
            "positions": [
                -0.13391504974760166,
                -1.4373511404474555,
                2.299976007020434,
                1.4559387028633388,
                0.2809113964965084,
                0.08379075008140378
            ]
        },
        {
            "positions": [
                -0.18961004003397333,
                -1.3820901248481825,
                2.254831063031566,
                1.5057493965050524,
                0.101397026914676,
                0.0792104287619038
            ]
        },
        {
            "positions": [
                -0.245305030320345,
                -1.3268291092489095,
                2.2096861190426984,
                1.5555600901467659,
                -0.07811734266715642,
                0.07463010744240384
            ]
        },
        {
            "positions": [
                -0.30100002060671666,
                -1.2715680936496363,
                2.164541175053831,
                1.6053707837884794,
                -0.25763171224898884,
                0.07004978612290386
            ]
        },
        {
            "positions": [
                -0.3566950108930883,
                -1.2163070780503633,
                2.1193962310649628,
                1.655181477430193,
                -0.43714608183082126,
                0.06546946480340389
            ]
        },
        {
            "positions": [
                -0.41239000117946,
                -1.1610460624510903,
                2.0742512870760947,
                1.7049921710719065,
                -0.6166604514126537,
                0.06088914348390391
            ]
        },
        {
            "positions": [
                -0.46808499146583166,
                -1.1057850468518173,
                2.029106343087227,
                1.75480286471362,
                -0.7961748209944861,
                0.05630882216440394
            ]
        },
        {
            "positions": [
                -0.5237799817522033,
                -1.0505240312525443,
                1.9839613990983593,
                1.8046135583553335,
                -0.9756891905763185,
                0.05172850084490396
            ]
        },
        {
            "positions": [
                -0.579474972038575,
                -0.9952630156532712,
                1.9388164551094915,
                1.854424251997047,
                -1.155203560158151,
                0.04714817952540399
            ]
        },
        {
            "positions": [
                -0.6351699623249467,
                -0.9400020000539981,
                1.8936715111206237,
                1.9042349456387606,
                -1.3347179297399836,
                0.04256785820590401
            ]
        },
        {
            "positions": [
                -0.6908649526113184,
                -0.8847409844547252,
                1.848526567131756,
                1.9540456392804741,
                -1.5142322993218158,
                0.037987536886404036
            ]
        },
        {
            "positions": [
                -0.7465599428976901,
                -0.829479968855452,
                1.803381623142888,
                2.0038563329221875,
                -1.6937466689036482,
                0.03340721556690407
            ]
        },
        {
            "positions": [
                -0.8022549331840616,
                -0.7742189532561791,
                1.7582366791540203,
                2.053667026563901,
                -1.8732610384854806,
                0.028826894247404096
            ]
        },
        {
            "positions": [
                -0.8579499234704335,
                -0.718957937656906,
                1.7130917351651525,
                2.103477720205615,
                -2.052775408067313,
                0.024246572927904116
            ]
        },
        {
            "positions": [
                -0.913644913756805,
                -0.663696922057633,
                1.6679467911762846,
                2.1532884138473283,
                -2.2322897776491453,
                0.01966625160840414
            ]
        }
    ]
}