{
    "goal": {
        "global_pose": {
            "orientation": {
                "w": 0.7047431468963623,
                "x": -0.7094548344612122,
                "y": 0.0024358443915843964,
                "z": -0.0022348060738295317
            },
            "position": {
                "x": 0.6094750761985779,
                "y": 0.3671506643295288,
                "z": 0.19426114857196808
            }
        },
        "name": "move_to_magneteinheit_A"
    },
    "id": "SBL_move_to_magneteinheit_A_64",
    "joint_names": [
        "shoulder_pan_joint",
        "shoulder_lift_joint",
        "elbow_joint",
        "wrist_1_joint",
        "wrist_2_joint",
        "wrist_3_joint"
    ],
    "metrics": {
        "cart_traj_len": 3.40295832523416,
        "distance_elbow_joint": 3.8780833097331278,
        "distance_shoulder_lift_joint": 0.5631072735380538,
        "distance_shoulder_pan_joint": 2.7654843272852,
        "distance_wrist_1_joint": 1.7316164374988392,
        "distance_wrist_2_joint": 1.8565166786120182,
        "distance_wrist_3_joint": 4.118059427525283,
        "smoothness": 0.3067361991663858,
        "time": 0.475959335,
        "traj_len": 3.8617181997386245,
        "weighted_distance": 5.170794854309532
    },
    "planner": "SBL",
    "start": {
        "state": {
            "elbow_joint": -1.9196185241190666,
            "shoulder_lift_joint": -1.2443396400964142,
            "shoulder_pan_joint": 2.6996025414629847,
            "wrist_1_joint": -1.5485510000780065,
            "wrist_2_joint": -1.5709468930060704,
            "wrist_3_joint": 0.4420197071253992
        }
    },
    "waypoints": [
        {
            "positions": [
                2.6996025414629847,
                -1.2443396400964142,
                -1.9196185241190666,
                -1.5485510000780065,
                -1.5709468930060704,
                0.4420197071253992
            ]
        },
        {
            "positions": [
                2.6125555391934907,
                -1.2631092069172172,
                -1.8483563729867352,
                -1.4909085779055373,
                -1.4972255421219423,
                0.37803935257942656
            ]
        },
        {
            "positions": [
                2.5255085369239962,
                -1.2818787737380202,
                -1.7770942218544035,
                -1.4332661557330684,
                -1.4235041912378141,
                0.3140589980334539
            ]
        },
        {
            "positions": [
                2.438461534654502,
                -1.3006483405588232,
                -1.705832070722072,
                -1.3756237335605992,
                -1.349782840353686,
                0.2500786434874812
            ]
        },
        {
            "positions": [
                2.351414532385008,
                -1.3194179073796262,
                -1.6345699195897403,
                -1.3179813113881302,
                -1.2760614894695579,
                0.1860982889415086
            ]
        },
        {
            "positions": [
                2.264367530115514,
                -1.3381874742004292,
                -1.5633077684574088,
                -1.260338889215661,
                -1.2023401385854298,
                0.12211793439553592
            ]
        },
        {
            "positions": [
                2.1773205278460197,
                -1.3569570410212322,
                -1.4920456173250773,
                -1.202696467043192,
                -1.1286187877013016,
                0.0581375798495633
            ]
        },
        {
            "positions": [
                2.0902735255765257,
                -1.3757266078420352,
                -1.4207834661927456,
                -1.145054044870723,
                -1.0548974368171735,
                -0.00584277469640937
            ]
        },
        {
            "positions": [
                2.0032265233070317,
                -1.3944961746628382,
                -1.3495213150604142,
                -1.087411622698254,
                -0.9811760859330454,
                -0.06982312924238199
            ]
        },
        {
            "positions": [
                1.9161795210375374,
                -1.4132657414836411,
                -1.2782591639280825,
                -1.0297692005257848,
                -0.9074547350489173,
                -0.1338034837883546
            ]
        },
        {
            "positions": [
                1.8291325187680432,
                -1.4320353083044441,
                -1.206997012795751,
                -0.9721267783533157,
                -0.8337333841647891,
                -0.19778383833432733
            ]
        },
        {
            "positions": [
                1.7420855164985491,
                -1.4508048751252471,
                -1.1357348616634195,
                -0.9144843561808467,
                -0.760012033280661,
                -0.26176419288029984
            ]
        },
        {
            "positions": [
                1.655038514229055,
                -1.4695744419460501,
                -1.0644727105310878,
                -0.8568419340083776,
                -0.6862906823965329,
                -0.32574454742627257
            ]
        },
        {
            "positions": [
                1.575642632059109,
                -1.4607416857810878,
                -0.9386343653891602,
                -0.8272091136024928,
                -0.6439727455239493,
                -0.22579334616292912
            ]
        },
        {
            "positions": [
                1.4962467498891634,
                -1.4519089296161254,
                -0.8127960202472326,
                -0.7975762931966079,
                -0.6016548086513658,
                -0.12584214489958567
            ]
        },
        {
            "positions": [
                1.4168508677192175,
                -1.443076173451163,
                -0.6869576751053053,
                -0.7679434727907231,
                -0.5593368717787823,
                -0.025890943636242225
            ]
        },
        {
            "positions": [
                1.3374549855492717,
                -1.4342434172862006,
                -0.5611193299633775,
                -0.7383106523848383,
                -0.5170189349061987,
                0.07406025762710122
            ]
        },
        {
            "positions": [
                1.258059103379326,
                -1.4254106611212385,
                -0.43528098482145006,
                -0.7086778319789535,
                -0.4747009980336152,
                0.17401145889044467
            ]
        },
        {
            "positions": [
                1.1786632212093804,
                -1.4165779049562761,
                -0.30944263967952257,
                -0.6790450115730686,
                -0.43238306116103165,
                0.2739626601537881
            ]
        },
        {
            "positions": [
                1.0992673390394345,
                -1.4077451487913137,
                -0.18360429453759497,
                -0.6494121911671837,
                -0.3900651242884481,
                0.37391386141713157
            ]
        },
        {
            "positions": [
                1.0198714568694887,
                -1.3989123926263514,
                -0.05776594939566726,
                -0.619779370761299,
                -0.3477471874158645,
                0.473865062680475
            ]
        },
        {
            "positions": [
                0.9404755746995429,
                -1.390079636461389,
                0.06807239574626012,
                -0.5901465503554142,
                -0.305429250543281,
                0.5738162639438185
            ]
        },
        {
            "positions": [
                0.8610796925295972,
                -1.3812468802964266,
                0.19391074088818772,
                -0.5605137299495293,
                -0.26311131367069746,
                0.6737674652071619
            ]
        },
        {
            "positions": [
                0.7816838103596513,
                -1.3724141241314642,
                0.3197490860301153,
                -0.5308809095436444,
                -0.2207933767981139,
                0.7737186664705054
            ]
        },
        {
            "positions": [
                0.7022879281897056,
                -1.3635813679665019,
                0.4455874311720427,
                -0.5012480891377596,
                -0.1784754399255304,
                0.8736698677338488
            ]
        },
        {
            "positions": [
                0.6228920460197598,
                -1.3547486118015395,
                0.5714257763139705,
                -0.4716152687318748,
                -0.13615750305294683,
                0.9736210689971923
            ]
        },
        {
            "positions": [
                0.5434961638498141,
                -1.3459158556365771,
                0.6972641214558979,
                -0.44198244832599,
                -0.09383956618036327,
                1.0735722702605357
            ]
        },
        {
            "positions": [
                0.4641002816798683,
                -1.3370830994716147,
                0.8231024665978255,
                -0.41234962792010516,
                -0.051521629307779704,
                1.1735234715238791
            ]
        },
        {
            "positions": [
                0.3847043995099224,
                -1.3282503433066526,
                0.9489408117397533,
                -0.3827168075142203,
                -0.009203692435196142,
                1.2734746727872226
            ]
        },
        {
            "positions": [
                0.30530851733997677,
                -1.3194175871416902,
                1.0747791568816807,
                -0.35308398710833555,
                0.03311424443738731,
                1.373425874050566
            ]
        },
        {
            "positions": [
                0.2259126351700309,
                -1.3105848309767278,
                1.200617502023608,
                -0.32345116670245067,
                0.07543218130997087,
                1.4733770753139095
            ]
        },
        {
            "positions": [
                0.14651675300008526,
                -1.3017520748117655,
                1.3264558471655354,
                -0.2938183462965659,
                0.11775011818255443,
                1.573328276577253
            ]
        },
        {
            "positions": [
                0.06712087083013943,
                -1.292919318646803,
                1.4522941923074633,
                -0.264185525890681,
                0.16006805505513802,
                1.6732794778405964
            ]
        },
        {
            "positions": [
                0.05935181938932448,
                -1.273903627858769,
                1.5140515023834482,
                -0.33003849390292495,
                0.14500427610943153,
                1.8413186018938728
            ]
        },
        {
            "positions": [
                0.051582767948509536,
                -1.2548879370707349,
                1.5758088124594332,
                -0.39589146191516894,
                0.12994049716372505,
                2.009357725947149
            ]
        },
        {
            "positions": [
                0.0438137165076946,
                -1.2358722462827008,
                1.6375661225354183,
                -0.4617444299274129,
                0.11487671821801856,
                2.177396850000425
            ]
        },
        {
            "positions": [
                0.036044665066879644,
                -1.2168565554946666,
                1.6993234326114033,
                -0.5275973979396569,
                0.09981293927231208,
                2.3454359740537014
            ]
        },
        {
            "positions": [
                0.0282756136260647,
                -1.1978408647066325,
                1.7610807426873882,
                -0.5934503659519008,
                0.0847491603266056,
                2.513475098106978
            ]
        },
        {
            "positions": [
                0.05966141344215771,
                -1.1757945665569658,
                1.8268754236629459,
                -0.6327790737019986,
                0.10147677226736479,
                2.6838336072537645
            ]
        },
        {
            "positions": [
                0.09104721325825071,
                -1.153748268407299,
                1.8926701046385033,
                -0.6721077814520965,
                0.118204384208124,
                2.854192116400551
            ]
        },
        {
            "positions": [
                0.12243301307434373,
                -1.1317019702576323,
                1.958464785614061,
                -0.7114364892021943,
                0.1349319961488832,
                3.0245506255473376
            ]
        }
    ]
}