{
    "goal": {
        "global_pose": {
            "orientation": {
                "w": 0.5084816262002911,
                "x": -0.4908360881923452,
                "y": 0.5182115481033761,
                "z": -0.48164630358495003
            },
            "position": {
                "x": 0.5540239810943604,
                "y": -0.46912469901144505,
                "z": 0.16403168439865112
            }
        },
        "name": "move_to_storage_B"
    },
    "id": "SBL_move_to_storage_B_83",
    "joint_names": [
        "shoulder_pan_joint",
        "shoulder_lift_joint",
        "elbow_joint",
        "wrist_1_joint",
        "wrist_2_joint",
        "wrist_3_joint"
    ],
    "metrics": {
        "cart_traj_len": 4.829971479056868,
        "distance_elbow_joint": 3.702236141282655,
        "distance_shoulder_lift_joint": 1.3580666793217637,
        "distance_shoulder_pan_joint": 3.8820333549044266,
        "distance_wrist_1_joint": 1.8405998233099834,
        "distance_wrist_2_joint": 2.3299372170913224,
        "distance_wrist_3_joint": 3.2894420099968937,
        "smoothness": 0.1746680879306104,
        "time": 0.707463676,
        "traj_len": 4.0499771883193425,
        "weighted_distance": 5.210732797438585
    },
    "planner": "SBL",
    "start": {
        "state": {
            "elbow_joint": -1.6666013991110213,
            "shoulder_lift_joint": -2.479295265494141,
            "shoulder_pan_joint": 2.6606783912885628,
            "wrist_1_joint": 0.9897123657714939,
            "wrist_2_joint": 0.474351758749468,
            "wrist_3_joint": 0.013243222496468381
        }
    },
    "waypoints": [
        {
            "positions": [
                2.6606783912885628,
                -2.479295265494141,
                -1.6666013991110213,
                0.9897123657714939,
                0.474351758749468,
                0.013243222496468381
            ]
        },
        {
            "positions": [
                2.6696271147072412,
                -2.458133710756477,
                -1.664392677821262,
                0.8817862941738304,
                0.3709499791221901,
                -0.11740638486800893
            ]
        },
        {
            "positions": [
                2.6785758381259197,
                -2.4369721560188125,
                -1.6621839565315029,
                0.7738602225761667,
                0.2675481994949121,
                -0.24805599223248623
            ]
        },
        {
            "positions": [
                2.687524561544598,
                -2.4158106012811484,
                -1.6599752352417436,
                0.6659341509785031,
                0.16414641986763417,
                -0.37870559959696354
            ]
        },
        {
            "positions": [
                2.6964732849632767,
                -2.394649046543484,
                -1.6577665139519844,
                0.5580080793808395,
                0.060744640240356196,
                -0.5093552069614409
            ]
        },
        {
            "positions": [
                2.705422008381955,
                -2.37348749180582,
                -1.6555577926622251,
                0.45008200778317586,
                -0.04265713938692184,
                -0.6400048143259183
            ]
        },
        {
            "positions": [
                2.7143707318006336,
                -2.3523259370681555,
                -1.653349071372466,
                0.3421559361855123,
                -0.14605891901419965,
                -0.7706544216903954
            ]
        },
        {
            "positions": [
                2.723319455219312,
                -2.3311643823304915,
                -1.6511403500827067,
                0.23422986458784872,
                -0.2494606986414777,
                -0.9013040290548728
            ]
        },
        {
            "positions": [
                2.694757794720311,
                -2.2598424322661503,
                -1.6534970414669605,
                0.08847021174526043,
                -0.3605321092059621,
                -0.8828306076576401
            ]
        },
        {
            "positions": [
                2.6661961342213094,
                -2.1885204822018087,
                -1.6558537328512144,
                -0.057289441097327864,
                -0.47160351977044657,
                -0.8643571862604074
            ]
        },
        {
            "positions": [
                2.637634473722308,
                -2.1171985321374676,
                -1.658210424235468,
                -0.20304909393991616,
                -0.5826749303349309,
                -0.8458837648631746
            ]
        },
        {
            "positions": [
                2.6090728132233068,
                -2.0458765820731264,
                -1.660567115619722,
                -0.3488087467825044,
                -0.6937463408994153,
                -0.8274103434659419
            ]
        },
        {
            "positions": [
                2.4895519858369304,
                -2.0160492273666506,
                -1.5419429760481953,
                -0.36500483422624586,
                -0.6562676596915947,
                -0.9016361845258329
            ]
        },
        {
            "positions": [
                2.3700311584505536,
                -1.9862218726601748,
                -1.4233188364766687,
                -0.3812009216699873,
                -0.6187889784837741,
                -0.9758620255857239
            ]
        },
        {
            "positions": [
                2.250510331064177,
                -1.956394517953699,
                -1.304694696905142,
                -0.39739700911372877,
                -0.5813102972759534,
                -1.0500878666456148
            ]
        },
        {
            "positions": [
                2.130989503677801,
                -1.9265671632472232,
                -1.1860705573336157,
                -0.41359309655747023,
                -0.5438316160681329,
                -1.1243137077055059
            ]
        },
        {
            "positions": [
                2.0114686762914245,
                -1.8967398085407474,
                -1.0674464177620888,
                -0.42978918400121163,
                -0.5063529348603122,
                -1.198539548765397
            ]
        },
        {
            "positions": [
                1.8919478489050476,
                -1.8669124538342716,
                -0.9488222781905623,
                -0.4459852714449531,
                -0.4688742536524916,
                -1.272765389825288
            ]
        },
        {
            "positions": [
                1.7724270215186713,
                -1.8370850991277958,
                -0.8301981386190358,
                -0.46218135888869455,
                -0.43139557244467097,
                -1.346991230885179
            ]
        },
        {
            "positions": [
                1.652906194132295,
                -1.80725774442132,
                -0.7115739990475092,
                -0.478377446332436,
                -0.39391689123685036,
                -1.4212170719450699
            ]
        },
        {
            "positions": [
                1.533385366745918,
                -1.7774303897148442,
                -0.5929498594759826,
                -0.49457353377617747,
                -0.3564382100290297,
                -1.4954429130049611
            ]
        },
        {
            "positions": [
                1.4138645393595417,
                -1.7476030350083687,
                -0.47432571990445593,
                -0.5107696212199189,
                -0.3189595288212091,
                -1.569668754064852
            ]
        },
        {
            "positions": [
                1.2943437119731651,
                -1.7177756803018929,
                -0.3557015803329293,
                -0.5269657086636603,
                -0.28148084761338843,
                -1.6438945951247432
            ]
        },
        {
            "positions": [
                1.1748228845867887,
                -1.687948325595417,
                -0.2370774407614027,
                -0.5431617961074018,
                -0.24400216640556782,
                -1.718120436184634
            ]
        },
        {
            "positions": [
                1.0553020572004121,
                -1.6581209708889413,
                -0.11845330118987607,
                -0.5593578835511432,
                -0.20652348519774716,
                -1.792346277244525
            ]
        },
        {
            "positions": [
                0.9357812298140358,
                -1.6282936161824655,
                0.00017083838165032894,
                -0.5755539709948847,
                -0.1690448039899266,
                -1.8665721183044162
            ]
        },
        {
            "positions": [
                0.8162604024276592,
                -1.5984662614759897,
                0.11879497795317717,
                -0.5917500584386262,
                -0.1315661227821059,
                -1.9407979593643072
            ]
        },
        {
            "positions": [
                0.6967395750412828,
                -1.568638906769514,
                0.23741911752470357,
                -0.6079461458823676,
                -0.09408744157428539,
                -2.0150238004241983
            ]
        },
        {
            "positions": [
                0.5772187476549062,
                -1.5388115520630383,
                0.35604325709622997,
                -0.6241422333261091,
                -0.05660876036646478,
                -2.089249641484089
            ]
        },
        {
            "positions": [
                0.4576979202685294,
                -1.5089841973565623,
                0.4746673966677568,
                -0.6403383207698505,
                -0.019130079158644064,
                -2.1634754825439804
            ]
        },
        {
            "positions": [
                0.33817709288215303,
                -1.4791568426500865,
                0.5932915362392837,
                -0.656534408213592,
                0.018348602049176543,
                -2.237701323603871
            ]
        },
        {
            "positions": [
                0.21865626549577666,
                -1.449329487943611,
                0.7119156758108101,
                -0.6727304956573334,
                0.05582728325699715,
                -2.3119271646637625
            ]
        },
        {
            "positions": [
                0.09913543810940029,
                -1.4195021332371351,
                0.8305398153823365,
                -0.6889265831010749,
                0.09330596446481776,
                -2.386153005723653
            ]
        },
        {
            "positions": [
                -0.02038538927697653,
                -1.3896747785306593,
                0.9491639549538633,
                -0.7051226705448164,
                0.13078464567263848,
                -2.460378846783544
            ]
        },
        {
            "positions": [
                -0.1399062166633529,
                -1.3598474238241836,
                1.0677880945253897,
                -0.7213187579885578,
                0.16826332688045909,
                -2.5346046878434354
            ]
        },
        {
            "positions": [
                -0.25942704404972927,
                -1.3300200691177078,
                1.1864122340969165,
                -0.7375148454322993,
                0.2057420080882797,
                -2.6088305289033262
            ]
        },
        {
            "positions": [
                -0.37894787143610564,
                -1.300192714411232,
                1.305036373668443,
                -0.7537109328760406,
                0.2432206892961003,
                -2.683056369963217
            ]
        },
        {
            "positions": [
                -0.49846869882248246,
                -1.2703653597047562,
                1.4236605132399698,
                -0.7699070203197822,
                0.280699370503921,
                -2.7572822110231083
            ]
        },
        {
            "positions": [
                -0.6179895262088588,
                -1.2405380049982804,
                1.5422846528114962,
                -0.7861031077635237,
                0.3181780517117416,
                -2.831508052082999
            ]
        },
        {
            "positions": [
                -0.7375103535952352,
                -1.2107106502918046,
                1.6609087923830226,
                -0.802299195207265,
                0.3556567329195621,
                -2.9057338931428904
            ]
        },
        {
            "positions": [
                -0.8570311809816116,
                -1.1808832955853288,
                1.7795329319545494,
                -0.8184952826510065,
                0.39313541412738284,
                -2.9799597342027813
            ]
        },
        {
            "positions": [
                -0.9765520083679884,
                -1.151055940878853,
                1.8981570715260763,
                -0.8346913700947479,
                0.43061409533520356,
                -3.0541855752626725
            ]
        },
        {
            "positions": [
                -1.096072835754365,
                -1.1212285861723772,
                2.016781211097603,
                -0.8508874575384894,
                0.468092776543024,
                -3.1284114163225634
            ]
        }
    ]
}