{
    "goal": {
        "global_pose": {
            "orientation": {
                "w": 0.5084816217422485,
                "x": -0.49083608388900757,
                "y": 0.5182115435600281,
                "z": -0.4816462993621826
            },
            "position": {
                "x": 0.5540239810943604,
                "y": 0.030875300988554955,
                "z": 0.16403168439865112
            }
        },
        "name": "move_to_storage_A"
    },
    "id": "SBL_move_to_storage_A_3",
    "joint_names": [
        "shoulder_pan_joint",
        "shoulder_lift_joint",
        "elbow_joint",
        "wrist_1_joint",
        "wrist_2_joint",
        "wrist_3_joint"
    ],
    "metrics": {
        "cart_traj_len": 0.35347172639634206,
        "distance_elbow_joint": 0.4521828054520407,
        "distance_shoulder_lift_joint": 0.23635605223981782,
        "distance_shoulder_pan_joint": 0.46424908561159745,
        "distance_wrist_1_joint": 0.24657323888237337,
        "distance_wrist_2_joint": 1.0922185138896001,
        "distance_wrist_3_joint": 0.09573856126791913,
        "smoothness": 4.440892133664971e-16,
        "time": 0.154434907,
        "traj_len": 1.6085143012554624,
        "weighted_distance": 2.0291838587597626
    },
    "planner": "SBL",
    "start": {
        "state": {
            "elbow_joint": 1.9715481507254546,
            "shoulder_lift_joint": -1.1394850672790213,
            "shoulder_pan_joint": 0.12281154597544902,
            "wrist_1_joint": -0.7804720171073349,
            "wrist_2_joint": 0.12958658322886563,
            "wrist_3_joint": -3.1924895760937617
        }
    },
    "waypoints": [
        {
            "positions": [
                0.12281154597544902,
                -1.1394850672790213,
                1.9715481507254546,
                -0.7804720171073349,
                0.12958658322886563,
                -3.1924895760937617
            ]
        },
        {
            "positions": [
                0.05649024803093511,
                -1.1732502175989954,
                2.0361456943614606,
                -0.8156967655191025,
                0.2856177994988085,
                -3.1788126387697733
            ]
        },
        {
            "positions": [
                -0.009831049913578804,
                -1.2070153679189692,
                2.100743237997466,
                -0.8509215139308701,
                0.4416490157687514,
                -3.165135701445785
            ]
        },
        {
            "positions": [
                -0.07615234785809272,
                -1.2407805182389433,
                2.165340781633472,
                -0.8861462623426378,
                0.5976802320386942,
                -3.1514587641217964
            ]
        },
        {
            "positions": [
                -0.14247364580260663,
                -1.2745456685589172,
                2.2299383252694778,
                -0.9213710107544054,
                0.7537114483086371,
                -3.137781826797808
            ]
        },
        {
            "positions": [
                -0.2087949437471206,
                -1.3083108188788912,
                2.2945358689054838,
                -0.9565957591661731,
                0.90974266457858,
                -3.1241048894738195
            ]
        },
        {
            "positions": [
                -0.27511624169163446,
                -1.342075969198865,
                2.3591334125414893,
                -0.9918205075779407,
                1.0657738808485229,
                -3.110427952149831
            ]
        },
        {
            "positions": [
                -0.3414375396361484,
                -1.3758411195188391,
                2.4237309561774953,
                -1.0270452559897083,
                1.2218050971184657,
                -3.0967510148258426
            ]
        }
    ]
}