{
    "goal": {
        "global_pose": {
            "orientation": {
                "w": 0.005598929693374612,
                "x": 0.007748599140229565,
                "y": 0.7110244013736278,
                "z": -0.7031023480610252
            },
            "position": {
                "x": -0.8858502320852131,
                "y": -0.7141253447532654,
                "z": 0.3711530566215515
            }
        },
        "name": "move_to_auspresseinheit_C"
    },
    "id": "SBL_move_to_auspresseinheit_C_118",
    "joint_names": [
        "shoulder_pan_joint",
        "shoulder_lift_joint",
        "elbow_joint",
        "wrist_1_joint",
        "wrist_2_joint",
        "wrist_3_joint"
    ],
    "metrics": {
        "cart_traj_len": 0.922054443522731,
        "distance_elbow_joint": 1.4162489349421095,
        "distance_shoulder_lift_joint": 0.34538678958147995,
        "distance_shoulder_pan_joint": 0.5765491303524377,
        "distance_wrist_1_joint": 0.6562940571447669,
        "distance_wrist_2_joint": 2.1285299132024047,
        "distance_wrist_3_joint": 0.04391937808476376,
        "smoothness": 1.4824165034592023,
        "time": 0.38130965800000005,
        "traj_len": 2.273087812493825,
        "weighted_distance": 2.8354172408703207
    },
    "planner": "SBL",
    "start": {
        "state": {
            "elbow_joint": 1.7527959577737207,
            "shoulder_lift_joint": -0.9740617694225068,
            "shoulder_pan_joint": -2.967991417825858,
            "wrist_1_joint": -0.759517768980727,
            "wrist_2_joint": 1.7443932448377408,
            "wrist_3_joint": -3.0840537646736568
        }
    },
    "waypoints": [
        {
            "positions": [
                -2.967991417825858,
                -0.9740617694225068,
                1.7527959577737207,
                -0.759517768980727,
                1.7443932448377408,
                -3.0840537646736568
            ]
        },
        {
            "positions": [
                -2.9825343134636646,
                -0.9438716713113394,
                1.6435164794890476,
                -0.7011270568400639,
                1.5884598783355641,
                -3.083737632583388
            ]
        },
        {
            "positions": [
                -2.9970772091014712,
                -0.9136815732001721,
                1.5342370012043745,
                -0.6427363446994009,
                1.4325265118333876,
                -3.083421500493119
            ]
        },
        {
            "positions": [
                -3.0116201047392783,
                -0.8834914750890048,
                1.4249575229197013,
                -0.5843456325587377,
                1.2765931453312112,
                -3.08310536840285
            ]
        },
        {
            "positions": [
                -3.026163000377085,
                -0.8533013769778375,
                1.3156780446350282,
                -0.5259549204180747,
                1.1206597788290344,
                -3.082789236312581
            ]
        },
        {
            "positions": [
                -3.0407058960148916,
                -0.8231112788666701,
                1.2063985663503551,
                -0.46756420827741163,
                0.964726412326858,
                -3.0824731042223124
            ]
        },
        {
            "positions": [
                -3.0552487916526982,
                -0.7929211807555028,
                1.097119088065682,
                -0.4091734961367486,
                0.8087930458246814,
                -3.082156972132043
            ]
        },
        {
            "positions": [
                -3.069791687290505,
                -0.7627310826443354,
                0.9878396097810088,
                -0.35078278399608553,
                0.6528596793225048,
                -3.0818408400417745
            ]
        },
        {
            "positions": [
                -3.0843345829283115,
                -0.7325409845331681,
                0.8785601314963356,
                -0.29239207185542243,
                0.49692631282032806,
                -3.0815247079515053
            ]
        },
        {
            "positions": [
                -3.0988774785661186,
                -0.7023508864220007,
                0.7692806532116625,
                -0.23400135971475933,
                0.3409929463181516,
                -3.0812085758612366
            ]
        },
        {
            "positions": [
                -3.1134203742039253,
                -0.6721607883108335,
                0.6600011749269894,
                -0.17561064757409628,
                0.1850595798159751,
                -3.0808924437709675
            ]
        },
        {
            "positions": [
                -3.127963269841732,
                -0.6419706901996661,
                0.5507216966423163,
                -0.11721993543343323,
                0.029126213313798277,
                -3.080576311680699
            ]
        },
        {
            "positions": [
                -2.9891041770628775,
                -0.6464025936525459,
                0.622113254579218,
                -0.11255452756760881,
                0.16688050720661898,
                -3.0940569533779674
            ]
        },
        {
            "positions": [
                -2.8502450842840226,
                -0.6508344971054256,
                0.6935048125161196,
                -0.10788911970178439,
                0.3046348010994397,
                -3.107537595075236
            ]
        },
        {
            "positions": [
                -2.711385991505168,
                -0.6552664005583054,
                0.7648963704530213,
                -0.10322371183595996,
                0.4423890949922604,
                -3.1210182367725046
            ]
        }
    ]
}