{
    "goal": {
        "global_pose": {
            "orientation": {
                "w": 0.5084816262002911,
                "x": -0.4908360881923452,
                "y": 0.5182115481033761,
                "z": -0.48164630358495003
            },
            "position": {
                "x": 0.5540239810943604,
                "y": -0.46912469901144505,
                "z": 0.16403168439865112
            }
        },
        "name": "move_to_storage_B"
    },
    "id": "SBL_move_to_storage_B_72",
    "joint_names": [
        "shoulder_pan_joint",
        "shoulder_lift_joint",
        "elbow_joint",
        "wrist_1_joint",
        "wrist_2_joint",
        "wrist_3_joint"
    ],
    "metrics": {
        "cart_traj_len": 5.039246380560472,
        "distance_elbow_joint": 4.071897994117013,
        "distance_shoulder_lift_joint": 1.3563689307286635,
        "distance_shoulder_pan_joint": 3.9864837928273147,
        "distance_wrist_1_joint": 3.8687936724910585,
        "distance_wrist_2_joint": 1.9266401139944693,
        "distance_wrist_3_joint": 6.821977948581615,
        "smoothness": 0.2623232611052982,
        "time": 0.47548278,
        "traj_len": 4.693843036653456,
        "weighted_distance": 6.4398410024152675
    },
    "planner": "SBL",
    "start": {
        "state": {
            "elbow_joint": -1.6666013991110213,
            "shoulder_lift_joint": -2.479295265494141,
            "shoulder_pan_joint": 2.6606783912885628,
            "wrist_1_joint": 0.9897123657714939,
            "wrist_2_joint": 0.474351758749468,
            "wrist_3_joint": 0.013243222496468381
        }
    },
    "waypoints": [
        {
            "positions": [
                2.6606783912885628,
                -2.479295265494141,
                -1.6666013991110213,
                0.9897123657714939,
                0.474351758749468,
                0.013243222496468381
            ]
        },
        {
            "positions": [
                2.6750420550667933,
                -2.439601602517268,
                -1.69044887173844,
                0.8280142242551295,
                0.42370235381228005,
                -0.08133318822534798
            ]
        },
        {
            "positions": [
                2.6894057188450233,
                -2.3999079395403955,
                -1.7142963443658588,
                0.6663160827387651,
                0.3730529488750921,
                -0.17590959894716432
            ]
        },
        {
            "positions": [
                2.7037693826232534,
                -2.3602142765635232,
                -1.7381438169932775,
                0.5046179412224006,
                0.32240354393790416,
                -0.27048600966898073
            ]
        },
        {
            "positions": [
                2.718133046401484,
                -2.3205206135866505,
                -1.7619912896206964,
                0.34291979970603614,
                0.2717541390007162,
                -0.36506242039079706
            ]
        },
        {
            "positions": [
                2.7324967101797144,
                -2.280826950609778,
                -1.785838762248115,
                0.18122165818967173,
                0.22110473406352826,
                -0.4596388311126134
            ]
        },
        {
            "positions": [
                2.7468603739579445,
                -2.2411332876329055,
                -1.8096862348755338,
                0.019523516673307206,
                0.17045532912634032,
                -0.5542152418344298
            ]
        },
        {
            "positions": [
                2.7612240377361745,
                -2.201439624656033,
                -1.8335337075029525,
                -0.1421746248430571,
                0.11980592418915237,
                -0.6487916525562462
            ]
        },
        {
            "positions": [
                2.775587701514405,
                -2.16174596167916,
                -1.8573811801303712,
                -0.3038727663594216,
                0.06915651925196444,
                -0.7433680632780625
            ]
        },
        {
            "positions": [
                2.77444331988751,
                -2.1184444471618953,
                -1.8465301095788127,
                -0.4612521850145018,
                0.013332464196130614,
                -0.850534164586211
            ]
        },
        {
            "positions": [
                2.7732989382606155,
                -2.0751429326446305,
                -1.8356790390272544,
                -0.618631603669582,
                -0.04249159085970321,
                -0.9577002658943594
            ]
        },
        {
            "positions": [
                2.772154556633721,
                -2.0318414181273656,
                -1.8248279684756958,
                -0.7760110223246622,
                -0.09831564591553703,
                -1.0648663672025078
            ]
        },
        {
            "positions": [
                2.771010175006826,
                -1.9885399036101008,
                -1.8139768979241375,
                -0.9333904409797424,
                -0.15413970097137086,
                -1.1720324685106562
            ]
        },
        {
            "positions": [
                2.769865793379931,
                -1.945238389092836,
                -1.803125827372579,
                -1.0907698596348228,
                -0.20996375602720468,
                -1.2791985698188046
            ]
        },
        {
            "positions": [
                2.7687214117530363,
                -1.9019368745755711,
                -1.7922747568210204,
                -1.2481492782899029,
                -0.2657878110830385,
                -1.386364671126953
            ]
        },
        {
            "positions": [
                2.7675770301261418,
                -1.8586353600583063,
                -1.7814236862694621,
                -1.405528696944983,
                -0.3216118661388723,
                -1.4935307724351015
            ]
        },
        {
            "positions": [
                2.7664326484992467,
                -1.8153338455410415,
                -1.7705726157179036,
                -1.5629081156000633,
                -0.37743592119470615,
                -1.6006968737432503
            ]
        },
        {
            "positions": [
                2.7652882668723517,
                -1.7720323310237767,
                -1.7597215451663453,
                -1.7202875342551436,
                -0.43325997625054,
                -1.7078629750513987
            ]
        },
        {
            "positions": [
                2.764143885245457,
                -1.7287308165065118,
                -1.7488704746147867,
                -1.8776669529102237,
                -0.4890840313063738,
                -1.815029076359547
            ]
        },
        {
            "positions": [
                2.6651661758523155,
                -1.7131973682567416,
                -1.652136948779349,
                -1.8519896617869074,
                -0.4643864845387167,
                -1.6869853417511982
            ]
        },
        {
            "positions": [
                2.566188466459174,
                -1.6976639200069716,
                -1.5554034229439109,
                -1.826312370663591,
                -0.43968893777105966,
                -1.5589416071428497
            ]
        },
        {
            "positions": [
                2.467210757066032,
                -1.6821304717572014,
                -1.458669897108473,
                -1.8006350795402746,
                -0.41499139100340265,
                -1.430897872534501
            ]
        },
        {
            "positions": [
                2.3682330476728906,
                -1.6665970235074314,
                -1.3619363712730352,
                -1.7749577884169583,
                -0.3902938442357456,
                -1.3028541379261522
            ]
        },
        {
            "positions": [
                2.269255338279749,
                -1.6510635752576612,
                -1.2652028454375974,
                -1.749280497293642,
                -0.3655962974680885,
                -1.1748104033178037
            ]
        },
        {
            "positions": [
                2.1702776288866072,
                -1.6355301270078912,
                -1.1684693196021594,
                -1.7236032061703257,
                -0.34089875070043146,
                -1.046766668709455
            ]
        },
        {
            "positions": [
                2.0712999194934656,
                -1.619996678758121,
                -1.0717357937667216,
                -1.6979259150470094,
                -0.3162012039327744,
                -0.9187229341011064
            ]
        },
        {
            "positions": [
                1.972322210100324,
                -1.604463230508351,
                -0.9750022679312836,
                -1.6722486239236931,
                -0.2915036571651174,
                -0.7906791994927578
            ]
        },
        {
            "positions": [
                1.8733445007071823,
                -1.5889297822585808,
                -0.8782687420958457,
                -1.6465713328003766,
                -0.2668061103974603,
                -0.662635464884409
            ]
        },
        {
            "positions": [
                1.7743667913140406,
                -1.5733963340088106,
                -0.781535216260408,
                -1.6208940416770603,
                -0.2421085636298033,
                -0.5345917302760606
            ]
        },
        {
            "positions": [
                1.675389081920899,
                -1.5578628857590406,
                -0.6848016904249701,
                -1.595216750553744,
                -0.21741101686214626,
                -0.4065479956677118
            ]
        },
        {
            "positions": [
                1.5764113725277573,
                -1.5423294375092704,
                -0.588068164589532,
                -1.5695394594304277,
                -0.19271347009448914,
                -0.2785042610593631
            ]
        },
        {
            "positions": [
                1.4774336631346157,
                -1.5267959892595004,
                -0.4913346387540942,
                -1.5438621683071114,
                -0.16801592332683213,
                -0.1504605264510146
            ]
        },
        {
            "positions": [
                1.378455953741474,
                -1.5112625410097302,
                -0.3946011129186564,
                -1.5181848771837951,
                -0.14331837655917506,
                -0.022416791842665873
            ]
        },
        {
            "positions": [
                1.2794782443483323,
                -1.49572909275996,
                -0.29786758708321837,
                -1.4925075860604786,
                -0.118620829791518,
                0.10562694276568285
            ]
        },
        {
            "positions": [
                1.1805005349551907,
                -1.48019564451019,
                -0.20113406124778055,
                -1.4668302949371623,
                -0.09392328302386099,
                0.23367067737403135
            ]
        },
        {
            "positions": [
                1.081522825562049,
                -1.46466219626042,
                -0.10440053541234273,
                -1.441153003813846,
                -0.06922573625620393,
                0.3617144119823801
            ]
        },
        {
            "positions": [
                0.9825451161689074,
                -1.4491287480106498,
                -0.007667009576904693,
                -1.4154757126905297,
                -0.044528189488546865,
                0.4897581465907288
            ]
        },
        {
            "positions": [
                0.8835674067757657,
                -1.4335952997608796,
                0.08906651625853312,
                -1.3897984215672134,
                -0.019830642720889857,
                0.6178018811990771
            ]
        },
        {
            "positions": [
                0.7845896973826243,
                -1.4180618515111096,
                0.18580004209397072,
                -1.364121130443897,
                0.0048669040467672064,
                0.7458456158074258
            ]
        },
        {
            "positions": [
                0.6856119879894824,
                -1.4025284032613394,
                0.28253356792940876,
                -1.3384438393205809,
                0.02956445081442427,
                0.8738893504157745
            ]
        },
        {
            "positions": [
                0.5866342785963408,
                -1.3869949550115694,
                0.3792670937648466,
                -1.3127665481972643,
                0.05426199758208128,
                1.0019330850241233
            ]
        },
        {
            "positions": [
                0.4876565692031991,
                -1.3714615067617992,
                0.47600061960028484,
                -1.287089257073948,
                0.0789595443497384,
                1.129976819632472
            ]
        },
        {
            "positions": [
                0.38867885981005745,
                -1.355928058512029,
                0.5727341454357227,
                -1.2614119659506318,
                0.10365709111739552,
                1.2580205542408207
            ]
        },
        {
            "positions": [
                0.2897011504169158,
                -1.340394610262259,
                0.6694676712711605,
                -1.2357346748273152,
                0.12835463788505252,
                1.3860642888491694
            ]
        },
        {
            "positions": [
                0.19072344102377414,
                -1.324861162012489,
                0.7662011971065983,
                -1.2100573837039992,
                0.15305218465270953,
                1.5141080234575177
            ]
        },
        {
            "positions": [
                0.09174573163063249,
                -1.3093277137627188,
                0.8629347229420361,
                -1.1843800925806827,
                0.17774973142036654,
                1.6421517580658664
            ]
        },
        {
            "positions": [
                -0.0072319777625091675,
                -1.2937942655129486,
                0.9596682487774739,
                -1.1587028014573664,
                0.20244727818802366,
                1.7701954926742152
            ]
        },
        {
            "positions": [
                -0.10620968715565082,
                -1.2782608172631784,
                1.0564017746129122,
                -1.13302551033405,
                0.22714482495568067,
                1.898239227282564
            ]
        },
        {
            "positions": [
                -0.20518739654879248,
                -1.2627273690134084,
                1.15313530044835,
                -1.1073482192107336,
                0.2518423717233378,
                2.026282961890913
            ]
        },
        {
            "positions": [
                -0.30416510594193413,
                -1.2471939207636384,
                1.2498688262837874,
                -1.0816709280874175,
                0.2765399184909948,
                2.154326696499261
            ]
        },
        {
            "positions": [
                -0.4031428153350758,
                -1.2316604725138682,
                1.3466023521192256,
                -1.055993636964101,
                0.3012374652586518,
                2.2823704311076094
            ]
        },
        {
            "positions": [
                -0.5021205247282174,
                -1.216127024264098,
                1.4433358779546634,
                -1.0303163458407847,
                0.3259350120263089,
                2.4104141657159577
            ]
        },
        {
            "positions": [
                -0.6010982341213591,
                -1.200593576014328,
                1.5400694037901013,
                -1.0046390547174684,
                0.35063255879396593,
                2.538457900324307
            ]
        },
        {
            "positions": [
                -0.7000759435145008,
                -1.1850601277645578,
                1.6368029296255395,
                -0.978961763594152,
                0.37533010556162305,
                2.666501634932656
            ]
        },
        {
            "positions": [
                -0.7990536529076424,
                -1.1695266795147878,
                1.7335364554609773,
                -0.9532844724708357,
                0.40002765232928006,
                2.7945453695410043
            ]
        },
        {
            "positions": [
                -0.8980313623007841,
                -1.1539932312650176,
                1.8302699812964147,
                -0.9276071813475194,
                0.42472519909693707,
                2.9225891041493526
            ]
        },
        {
            "positions": [
                -0.9970090716939257,
                -1.1384597830152474,
                1.927003507131853,
                -0.9019298902242031,
                0.4494227458645941,
                3.050632838757701
            ]
        },
        {
            "positions": [
                -1.0959867810870674,
                -1.1229263347654774,
                2.023737032967291,
                -0.8762525991008868,
                0.47412029263225125,
                3.17867657336605
            ]
        }
    ]
}