{
    "goal": {
        "global_pose": {
            "orientation": {
                "w": 0.5084816262002911,
                "x": -0.4908360881923452,
                "y": 0.5182115481033761,
                "z": -0.48164630358495003
            },
            "position": {
                "x": 0.5540239810943604,
                "y": -0.46912469901144505,
                "z": 0.16403168439865112
            }
        },
        "name": "move_to_storage_B"
    },
    "id": "SBL_move_to_storage_B_96",
    "joint_names": [
        "shoulder_pan_joint",
        "shoulder_lift_joint",
        "elbow_joint",
        "wrist_1_joint",
        "wrist_2_joint",
        "wrist_3_joint"
    ],
    "metrics": {
        "cart_traj_len": 4.715689379854026,
        "distance_elbow_joint": 4.629682315760028,
        "distance_shoulder_lift_joint": 1.3593596719070271,
        "distance_shoulder_pan_joint": 3.757152055760425,
        "distance_wrist_1_joint": 1.843381291504607,
        "distance_wrist_2_joint": 2.0823461743408433,
        "distance_wrist_3_joint": 4.385073005171497,
        "smoothness": 0.2254090306170962,
        "time": 0.384306149,
        "traj_len": 4.24935224645409,
        "weighted_distance": 5.545526845181877
    },
    "planner": "SBL",
    "start": {
        "state": {
            "elbow_joint": -1.6666013991110213,
            "shoulder_lift_joint": -2.479295265494141,
            "shoulder_pan_joint": 2.6606783912885628,
            "wrist_1_joint": 0.9897123657714939,
            "wrist_2_joint": 0.474351758749468,
            "wrist_3_joint": 0.013243222496468381
        }
    },
    "waypoints": [
        {
            "positions": [
                2.6606783912885628,
                -2.479295265494141,
                -1.6666013991110213,
                0.9897123657714939,
                0.474351758749468,
                0.013243222496468381
            ]
        },
        {
            "positions": [
                2.6324008094286784,
                -2.4096379011643974,
                -1.7232304619160217,
                0.9501169941829685,
                0.6004078383773853,
                -0.05025451134897599
            ]
        },
        {
            "positions": [
                2.604123227568794,
                -2.3399805368346533,
                -1.779859524721022,
                0.9105216225944431,
                0.7264639180053026,
                -0.11375224519442036
            ]
        },
        {
            "positions": [
                2.5758456457089096,
                -2.27032317250491,
                -1.8364885875260224,
                0.8709262510059177,
                0.85251999763322,
                -0.1772499790398647
            ]
        },
        {
            "positions": [
                2.5475680638490252,
                -2.200665808175166,
                -1.893117650331023,
                0.8313308794173923,
                0.9785760772611373,
                -0.24074771288530908
            ]
        },
        {
            "positions": [
                2.519290481989141,
                -2.131008443845422,
                -1.9497467131360233,
                0.7917355078288668,
                1.1046321568890547,
                -0.3042454467307535
            ]
        },
        {
            "positions": [
                2.4910129001292565,
                -2.0613510795156786,
                -2.0063757759410237,
                0.7521401362403415,
                1.230688236516972,
                -0.3677431805761978
            ]
        },
        {
            "positions": [
                2.462735318269372,
                -1.9916937151859349,
                -2.063004838746024,
                0.712544764651816,
                1.3567443161448893,
                -0.4312409144216422
            ]
        },
        {
            "positions": [
                2.3105470158870673,
                -1.9027657699188463,
                -2.088908473645093,
                0.7155682589870714,
                1.4096534987833989,
                -0.4926564148097821
            ]
        },
        {
            "positions": [
                2.158358713504762,
                -1.813837824651758,
                -2.1148121085441622,
                0.7185917533223267,
                1.4625626814219084,
                -0.554071915197922
            ]
        },
        {
            "positions": [
                2.0061704111224574,
                -1.7249098793846693,
                -2.140715743443231,
                0.7216152476575821,
                1.515471864060418,
                -0.6154874155860619
            ]
        },
        {
            "positions": [
                1.9199858534670597,
                -1.708105038112515,
                -2.0252832997924584,
                0.6783612696748276,
                1.4865489176984763,
                -0.5111445720558129
            ]
        },
        {
            "positions": [
                1.8338012958116618,
                -1.6913001968403607,
                -1.9098508561416856,
                0.635107291692073,
                1.457625971336535,
                -0.40680172852556384
            ]
        },
        {
            "positions": [
                1.7476167381562642,
                -1.6744953555682063,
                -1.7944184124909128,
                0.5918533137093185,
                1.4287030249745933,
                -0.30245888499531476
            ]
        },
        {
            "positions": [
                1.6614321805008663,
                -1.657690514296052,
                -1.67898596884014,
                0.5485993357265639,
                1.399780078612652,
                -0.19811604146506573
            ]
        },
        {
            "positions": [
                1.5752476228454686,
                -1.6408856730238977,
                -1.5635535251893673,
                0.5053453577438094,
                1.3708571322507104,
                -0.09377319793481664
            ]
        },
        {
            "positions": [
                1.489063065190071,
                -1.6240808317517434,
                -1.4481210815385948,
                0.46209137976105497,
                1.341934185888769,
                0.010569645595432386
            ]
        },
        {
            "positions": [
                1.402878507534673,
                -1.607275990479589,
                -1.3326886378878218,
                0.41883740177830037,
                1.3130112395268274,
                0.11491248912568153
            ]
        },
        {
            "positions": [
                1.3166939498792751,
                -1.5904711492074348,
                -1.2172561942370492,
                0.3755834237955459,
                1.284088293164886,
                0.21925533265593045
            ]
        },
        {
            "positions": [
                1.2305093922238775,
                -1.5736663079352804,
                -1.1018237505862765,
                0.33232944581279134,
                1.2551653468029444,
                0.3235981761861796
            ]
        },
        {
            "positions": [
                1.1443248345684798,
                -1.5568614666631262,
                -0.9863913069355037,
                0.2890754678300368,
                1.226242400441003,
                0.4279410197164286
            ]
        },
        {
            "positions": [
                1.0581402769130819,
                -1.5400566253909718,
                -0.8709588632847309,
                0.24582148984728225,
                1.1973194540790615,
                0.5322838632466778
            ]
        },
        {
            "positions": [
                0.9719557192576842,
                -1.5232517841188176,
                -0.7555264196339584,
                0.20256751186452782,
                1.16839650771712,
                0.6366267067769267
            ]
        },
        {
            "positions": [
                0.8857711616022863,
                -1.5064469428466631,
                -0.6400939759831856,
                0.15931353388177327,
                1.1394735613551785,
                0.7409695503071758
            ]
        },
        {
            "positions": [
                0.7995866039468886,
                -1.489642101574509,
                -0.5246615323324126,
                0.11605955589901862,
                1.110550614993237,
                0.845312393837425
            ]
        },
        {
            "positions": [
                0.7134020462914907,
                -1.4728372603023545,
                -0.4092290886816399,
                0.07280557791626407,
                1.0816276686312953,
                0.9496552373676739
            ]
        },
        {
            "positions": [
                0.6272174886360931,
                -1.4560324190302003,
                -0.29379664503086733,
                0.029551599933509642,
                1.052704722269354,
                1.0539980808979228
            ]
        },
        {
            "positions": [
                0.5410329309806954,
                -1.4392275777580459,
                -0.17836420138009457,
                -0.013702378049244901,
                1.0237817759074126,
                1.158340924428172
            ]
        },
        {
            "positions": [
                0.4548483733252975,
                -1.4224227364858915,
                -0.0629317577293218,
                -0.056956356031999444,
                0.994858829545471,
                1.262683767958421
            ]
        },
        {
            "positions": [
                0.3686638156698996,
                -1.4056178952137373,
                0.05250068592145096,
                -0.10021033401475399,
                0.9659358831835295,
                1.3670266114886702
            ]
        },
        {
            "positions": [
                0.2824792580145019,
                -1.388813053941583,
                0.16793312957222373,
                -0.14346431199750853,
                0.937012936821588,
                1.4713694550189191
            ]
        },
        {
            "positions": [
                0.196294700359104,
                -1.3720082126694286,
                0.2833655732229965,
                -0.18671828998026307,
                0.9080899904596464,
                1.5757122985491683
            ]
        },
        {
            "positions": [
                0.11011014270370634,
                -1.3552033713972742,
                0.39879801687376926,
                -0.22997226796301762,
                0.879167044097705,
                1.6800551420794174
            ]
        },
        {
            "positions": [
                0.023925585048308662,
                -1.33839853012512,
                0.5142304605245416,
                -0.27322624594577205,
                0.8502440977357636,
                1.7843979856096661
            ]
        },
        {
            "positions": [
                -0.062258972607089014,
                -1.3215936888529658,
                0.6296629041753143,
                -0.3164802239285265,
                0.8213211513738221,
                1.8887408291399153
            ]
        },
        {
            "positions": [
                -0.1484435302624867,
                -1.3047888475808114,
                0.7450953478260871,
                -0.359734201911281,
                0.7923982050118805,
                1.9930836726701644
            ]
        },
        {
            "positions": [
                -0.2346280879178848,
                -1.287984006308657,
                0.8605277914768599,
                -0.40298817989403557,
                0.763475258649939,
                2.0974265162004135
            ]
        },
        {
            "positions": [
                -0.3208126455732825,
                -1.2711791650365027,
                0.9759602351276331,
                -0.44624215787679034,
                0.7345523122879976,
                2.2017693597306627
            ]
        },
        {
            "positions": [
                -0.40699720322868016,
                -1.2543743237643483,
                1.0913926787784058,
                -0.4894961358595449,
                0.7056293659260561,
                2.306112203260912
            ]
        },
        {
            "positions": [
                -0.4931817608840783,
                -1.2375694824921941,
                1.2068251224291786,
                -0.5327501138422994,
                0.6767064195641146,
                2.410455046791161
            ]
        },
        {
            "positions": [
                -0.579366318539476,
                -1.2207646412200397,
                1.3222575660799514,
                -0.576004091825054,
                0.647783473202173,
                2.5147978903214097
            ]
        },
        {
            "positions": [
                -0.6655508761948736,
                -1.2039597999478855,
                1.4376900097307241,
                -0.6192580698078085,
                0.6188605268402315,
                2.619140733851659
            ]
        },
        {
            "positions": [
                -0.7517354338502713,
                -1.187154958675731,
                1.5531224533814965,
                -0.6625120477905628,
                0.5899375804782901,
                2.7234835773819075
            ]
        },
        {
            "positions": [
                -0.837919991505669,
                -1.1703501174035766,
                1.6685548970322692,
                -0.7057660257733174,
                0.5610146341163487,
                2.8278264209121566
            ]
        },
        {
            "positions": [
                -0.9241045491610667,
                -1.1535452761314224,
                1.783987340683042,
                -0.7490200037560719,
                0.5320916877544071,
                2.9321692644424058
            ]
        },
        {
            "positions": [
                -1.0102891068164648,
                -1.1367404348592682,
                1.8994197843338143,
                -0.7922739817388265,
                0.5031687413924657,
                3.036512107972655
            ]
        },
        {
            "positions": [
                -1.0964736644718627,
                -1.1199355935871138,
                2.0148522279845875,
                -0.8355279597215809,
                0.4742457950305242,
                3.140854951502904
            ]
        }
    ]
}