{
    "goal": {
        "global_pose": {
            "orientation": {
                "w": 0.7031023480610252,
                "x": -0.7110244013736278,
                "y": 0.0077485991402295624,
                "z": 0.005598929693374583
            },
            "position": {
                "x": -0.8841497679147869,
                "y": 0.44412534475326537,
                "z": 0.3711530566215515
            }
        },
        "name": "move_to_auspresseinheit_D"
    },
    "id": "SBL_move_to_auspresseinheit_D_110",
    "joint_names": [
        "shoulder_pan_joint",
        "shoulder_lift_joint",
        "elbow_joint",
        "wrist_1_joint",
        "wrist_2_joint",
        "wrist_3_joint"
    ],
    "metrics": {
        "cart_traj_len": 0.344320926006473,
        "distance_elbow_joint": 0.6697800668043601,
        "distance_shoulder_lift_joint": 0.13870930243492285,
        "distance_shoulder_pan_joint": 0.13285131502293623,
        "distance_wrist_1_joint": 0.6296912581480254,
        "distance_wrist_2_joint": 1.4414612973237273,
        "distance_wrist_3_joint": 0.08722240120405633,
        "smoothness": 0.0,
        "time": 0.167589726,
        "traj_len": 1.7606009317667728,
        "weighted_distance": 2.311993295582384
    },
    "planner": "SBL",
    "start": {
        "state": {
            "elbow_joint": -1.8275523626775212,
            "shoulder_lift_joint": -2.126789852344167,
            "shoulder_pan_joint": -0.03513704404078235,
            "wrist_1_joint": -2.347782403156801,
            "wrist_2_joint": -1.6058999987535132,
            "wrist_3_joint": -3.0880379163319196
        }
    },
    "waypoints": [
        {
            "positions": [
                -0.03513704404078235,
                -2.126789852344167,
                -1.8275523626775212,
                -2.347782403156801,
                -1.6058999987535132,
                -3.0880379163319196
            ]
        },
        {
            "positions": [
                -0.05174345841864938,
                -2.144128515148532,
                -1.7438298543269761,
                -2.426493810425304,
                -1.4257173365880473,
                -3.0771351161814127
            ]
        },
        {
            "positions": [
                -0.06834987279651641,
                -2.1614671779528978,
                -1.660107345976431,
                -2.505205217693807,
                -1.2455346744225815,
                -3.0662323160309057
            ]
        },
        {
            "positions": [
                -0.08495628717438344,
                -2.178805840757263,
                -1.5763848376258862,
                -2.5839166249623102,
                -1.0653520122571154,
                -3.0553295158803984
            ]
        },
        {
            "positions": [
                -0.10156270155225047,
                -2.1961445035616283,
                -1.4926623292753411,
                -2.6626280322308133,
                -0.8851693500916495,
                -3.0444267157298914
            ]
        },
        {
            "positions": [
                -0.1181691159301175,
                -2.2134831663659935,
                -1.408939820924796,
                -2.741339439499317,
                -0.7049866879261837,
                -3.0335239155793845
            ]
        },
        {
            "positions": [
                -0.13477553030798453,
                -2.2308218291703588,
                -1.3252173125742512,
                -2.82005084676782,
                -0.5248040257607176,
                -3.022621115428877
            ]
        },
        {
            "positions": [
                -0.15138194468585156,
                -2.2481604919747245,
                -1.2414948042237062,
                -2.898762254036323,
                -0.34462136359525175,
                -3.01171831527837
            ]
        },
        {
            "positions": [
                -0.1679883590637186,
                -2.2654991547790897,
                -1.157772295873161,
                -2.9774736613048263,
                -0.16443870142978598,
                -3.0008155151278633
            ]
        }
    ]
}