{
    "goal": {
        "global_pose": {
            "orientation": {
                "w": 0.7031023502349854,
                "x": -0.7110244035720825,
                "y": 0.007748599164187908,
                "z": 0.005598929710686207
            },
            "position": {
                "x": 0.11585023208521307,
                "y": 0.44412534475326537,
                "z": 0.3711530566215515
            }
        },
        "name": "move_to_auspresseinheit_A"
    },
    "id": "SBL_move_to_auspresseinheit_A_77",
    "joint_names": [
        "shoulder_pan_joint",
        "shoulder_lift_joint",
        "elbow_joint",
        "wrist_1_joint",
        "wrist_2_joint",
        "wrist_3_joint"
    ],
    "metrics": {
        "cart_traj_len": 2.6963438470526473,
        "distance_elbow_joint": 3.2026112790189267,
        "distance_shoulder_lift_joint": 1.293140885533536,
        "distance_shoulder_pan_joint": 1.735675989897238,
        "distance_wrist_1_joint": 1.5823831492370473,
        "distance_wrist_2_joint": 2.9063963860742943,
        "distance_wrist_3_joint": 2.6953016935387164,
        "smoothness": 0.7023806798671319,
        "time": 0.292144153,
        "traj_len": 3.662718851249678,
        "weighted_distance": 4.8264782508251844
    },
    "planner": "SBL",
    "start": {
        "state": {
            "elbow_joint": 2.4225746658250005,
            "shoulder_lift_joint": -1.3736534386056498,
            "shoulder_pan_joint": -0.3378633547517467,
            "wrist_1_joint": -1.0288598680537169,
            "wrist_2_joint": 1.233022673432363,
            "wrist_3_joint": -3.0940220416140027
        }
    },
    "waypoints": [
        {
            "positions": [
                -0.3378633547517467,
                -1.3736534386056498,
                2.4225746658250005,
                -1.0288598680537169,
                1.233022673432363,
                -3.0940220416140027
            ]
        },
        {
            "positions": [
                -0.3093740523060269,
                -1.3771041757400229,
                2.298292226623138,
                -0.9768863110788713,
                1.1565626163620246,
                -2.9921560145025006
            ]
        },
        {
            "positions": [
                -0.28088474986030704,
                -1.380554912874396,
                2.1740097874212756,
                -0.9249127541040257,
                1.0801025592916862,
                -2.890289987390999
            ]
        },
        {
            "positions": [
                -0.2523954474145872,
                -1.3840056500087692,
                2.0497273482194136,
                -0.8729391971291801,
                1.0036425022213478,
                -2.7884239602794967
            ]
        },
        {
            "positions": [
                -0.22390614496886738,
                -1.3874563871431422,
                1.9254449090175512,
                -0.8209656401543345,
                0.9271824451510093,
                -2.686557933167995
            ]
        },
        {
            "positions": [
                -0.19541684252314753,
                -1.3909071242775153,
                1.8011624698156887,
                -0.768992083179489,
                0.8507223880806709,
                -2.584691906056493
            ]
        },
        {
            "positions": [
                -0.16692754007742772,
                -1.3943578614118883,
                1.6768800306138265,
                -0.7170185262046433,
                0.7742623310103325,
                -2.482825878944991
            ]
        },
        {
            "positions": [
                -0.13843823763170787,
                -1.3978085985462616,
                1.5525975914119643,
                -0.6650449692297977,
                0.6978022739399941,
                -2.380959851833489
            ]
        },
        {
            "positions": [
                -0.10994893518598803,
                -1.4012593356806347,
                1.4283151522101019,
                -0.6130714122549521,
                0.6213422168696556,
                -2.279093824721987
            ]
        },
        {
            "positions": [
                -0.08145963274026818,
                -1.4047100728150077,
                1.3040327130082396,
                -0.5610978552801066,
                0.5448821597993172,
                -2.177227797610485
            ]
        },
        {
            "positions": [
                -0.05297033029454834,
                -1.4081608099493808,
                1.1797502738063772,
                -0.509124298305261,
                0.4684221027289788,
                -2.075361770498983
            ]
        },
        {
            "positions": [
                -0.02448102784882855,
                -1.411611547083754,
                1.055467834604515,
                -0.45715074133041533,
                0.39196204565864035,
                -1.9734957433874811
            ]
        },
        {
            "positions": [
                0.0040082745968912925,
                -1.415062284218127,
                0.9311853954026525,
                -0.4051771843555697,
                0.3155019885883019,
                -1.8716297162759792
            ]
        },
        {
            "positions": [
                0.03249757704261112,
                -1.4185130213525001,
                0.8069029562007903,
                -0.3532036273807242,
                0.23904193151796344,
                -1.7697636891644772
            ]
        },
        {
            "positions": [
                0.13466633939409917,
                -1.5054386702522145,
                0.88950941767714,
                -0.36230644538314427,
                0.16760136416430116,
                -1.7746268586004375
            ]
        },
        {
            "positions": [
                0.2368351017455872,
                -1.5923643191519288,
                0.9721158791534896,
                -0.37140926338556435,
                0.09616079681063885,
                -1.7794900280363977
            ]
        },
        {
            "positions": [
                0.3390038640970752,
                -1.679289968051643,
                1.0547223406298394,
                -0.38051208138798437,
                0.024720229456976578,
                -1.7843531974723577
            ]
        },
        {
            "positions": [
                0.4411726264485633,
                -1.7662156169513576,
                1.137328802106189,
                -0.38961489939040445,
                -0.046720337896685726,
                -1.7892163669083179
            ]
        },
        {
            "positions": [
                0.5433413888000513,
                -1.853141265851072,
                1.2199352635825385,
                -0.3987177173928245,
                -0.118160905250348,
                -1.794079536344278
            ]
        },
        {
            "positions": [
                0.6455101511515393,
                -1.9400669147507863,
                1.3025417250588882,
                -0.4078205353952446,
                -0.18960147260401028,
                -1.7989427057802383
            ]
        },
        {
            "positions": [
                0.7476789135030274,
                -2.0269925636505004,
                1.385148186535238,
                -0.4169233533976646,
                -0.26104203995767256,
                -1.8038058752161985
            ]
        },
        {
            "positions": [
                0.8498476758545155,
                -2.113918212550215,
                1.4677546480115875,
                -0.4260261714000847,
                -0.3324826073113349,
                -1.8086690446521585
            ]
        },
        {
            "positions": [
                0.9520164382060036,
                -2.2008438614499295,
                1.550361109487937,
                -0.4351289894025048,
                -0.4039231746649972,
                -1.8135322140881187
            ]
        },
        {
            "positions": [
                1.0541852005574914,
                -2.287769510349644,
                1.6329675709642868,
                -0.44423180740492485,
                -0.4753637420186595,
                -1.818395383524079
            ]
        },
        {
            "positions": [
                1.024046699593995,
                -2.2564573784870774,
                1.7057085166162906,
                -0.4001424796439683,
                -0.3968976235558668,
                -1.933350935031088
            ]
        },
        {
            "positions": [
                0.9939081986304986,
                -2.2251452466245105,
                1.7784494622682945,
                -0.35605315188301173,
                -0.31843150509307405,
                -2.048306486538097
            ]
        },
        {
            "positions": [
                0.9637696976670022,
                -2.193833114761944,
                1.8511904079202985,
                -0.31196382412205514,
                -0.2399653866302813,
                -2.1632620380451066
            ]
        },
        {
            "positions": [
                0.9336311967035058,
                -2.162520982899377,
                1.9239313535723024,
                -0.2678744963610986,
                -0.16149926816748855,
                -2.2782175895521157
            ]
        },
        {
            "positions": [
                0.9034926957400093,
                -2.131208851036811,
                1.9966722992243062,
                -0.22378516860014203,
                -0.08303314970469583,
                -2.393173141059125
            ]
        },
        {
            "positions": [
                0.873354194776513,
                -2.099896719174244,
                2.0694132448763103,
                -0.1796958408391855,
                -0.004567031241903108,
                -2.508128692566134
            ]
        },
        {
            "positions": [
                0.8432156938130165,
                -2.0685845873116775,
                2.142154190528314,
                -0.1356065130782289,
                0.07389908722088967,
                -2.6230842440731434
            ]
        },
        {
            "positions": [
                0.8130771928495202,
                -2.037272455449111,
                2.214895136180318,
                -0.09151718531727238,
                0.1523652056836824,
                -2.7380397955801525
            ]
        },
        {
            "positions": [
                0.7829386918860237,
                -2.005960323586544,
                2.287636081832322,
                -0.047427857556315775,
                0.23083132414647517,
                -2.8529953470871616
            ]
        },
        {
            "positions": [
                0.7648434604068908,
                -1.9816564168299335,
                2.314187692773118,
                -0.1521515522291269,
                0.35378505026100987,
                -2.924948267878788
            ]
        },
        {
            "positions": [
                0.7467482289277578,
                -1.957352510073323,
                2.340739303713914,
                -0.256875246901938,
                0.4767387763755446,
                -2.9969011886704147
            ]
        },
        {
            "positions": [
                0.7286529974486248,
                -1.9330486033167125,
                2.3672909146547103,
                -0.36159894157474914,
                0.5996925024900793,
                -3.0688541094620416
            ]
        },
        {
            "positions": [
                0.7105577659694918,
                -1.9087446965601018,
                2.3938425255955065,
                -0.46632263624756026,
                0.722646228604614,
                -3.140807030253668
            ]
        }
    ]
}