{
    "goal": {
        "global_pose": {
            "orientation": {
                "w": 0.005598929693374612,
                "x": 0.007748599140229565,
                "y": 0.7110244013736278,
                "z": -0.7031023480610252
            },
            "position": {
                "x": 0.1141497679147869,
                "y": -0.7141253447532654,
                "z": 0.3711530566215515
            }
        },
        "name": "move_to_auspresseinheit_B"
    },
    "id": "SBL_move_to_auspresseinheit_B_106",
    "joint_names": [
        "shoulder_pan_joint",
        "shoulder_lift_joint",
        "elbow_joint",
        "wrist_1_joint",
        "wrist_2_joint",
        "wrist_3_joint"
    ],
    "metrics": {
        "cart_traj_len": 0.5642816896643013,
        "distance_elbow_joint": 0.05909806539889528,
        "distance_shoulder_lift_joint": 0.2949196047046514,
        "distance_shoulder_pan_joint": 0.5786200575051443,
        "distance_wrist_1_joint": 0.3158825221852184,
        "distance_wrist_2_joint": 0.9849370656084957,
        "distance_wrist_3_joint": 0.00901635282722335,
        "smoothness": 7.612957903237841e-16,
        "time": 0.163331901,
        "traj_len": 1.497489121239159,
        "weighted_distance": 1.8871475728404996
    },
    "planner": "SBL",
    "start": {
        "state": {
            "elbow_joint": 2.0193083361928714,
            "shoulder_lift_joint": -1.1220246554650708,
            "shoulder_pan_joint": -1.0952077554168747,
            "wrist_1_joint": -0.8559753972642168,
            "wrist_2_joint": 0.4759566250798843,
            "wrist_3_joint": -3.1240929996934557
        }
    },
    "waypoints": [
        {
            "positions": [
                -1.0952077554168747,
                -1.1220246554650708,
                2.0193083361928714,
                -0.8559753972642168,
                0.4759566250798843,
                -3.1240929996934557
            ]
        },
        {
            "positions": [
                -1.191644431667732,
                -1.171177922915846,
                2.009458658626389,
                -0.803328310233347,
                0.6401128026813002,
                -3.1225902742222518
            ]
        },
        {
            "positions": [
                -1.2880811079185894,
                -1.2203311903666212,
                1.9996089810599063,
                -0.7506812232024773,
                0.8042689802827161,
                -3.121087548751048
            ]
        },
        {
            "positions": [
                -1.384517784169447,
                -1.2694844578173965,
                1.9897593034934238,
                -0.6980341361716076,
                0.9684251578841321,
                -3.119584823279844
            ]
        },
        {
            "positions": [
                -1.4809544604203042,
                -1.3186377252681718,
                1.9799096259269413,
                -0.6453870491407379,
                1.132581335485548,
                -3.11808209780864
            ]
        },
        {
            "positions": [
                -1.5773911366711615,
                -1.3677909927189469,
                1.9700599483604586,
                -0.5927399621098681,
                1.296737513086964,
                -3.116579372337436
            ]
        },
        {
            "positions": [
                -1.673827812922019,
                -1.4169442601697222,
                1.9602102707939761,
                -0.5400928750789984,
                1.46089369068838,
                -3.1150766468662323
            ]
        }
    ]
}