{
    "goal": {
        "global_pose": {
            "orientation": {
                "w": -0.00223480608172531,
                "x": 0.0024358444001904467,
                "y": 0.7094548369677653,
                "z": -0.704743149386269
            },
            "position": {
                "x": -0.37947507619857795,
                "y": -0.6371506643295288,
                "z": 0.19426114857196808
            }
        },
        "name": "move_to_magneteinheit_C"
    },
    "id": "SBL_move_to_magneteinheit_C_150",
    "joint_names": [
        "shoulder_pan_joint",
        "shoulder_lift_joint",
        "elbow_joint",
        "wrist_1_joint",
        "wrist_2_joint",
        "wrist_3_joint"
    ],
    "metrics": {
        "cart_traj_len": 0.7104444620289669,
        "distance_elbow_joint": 0.1740620901048593,
        "distance_shoulder_lift_joint": 0.29348180889905207,
        "distance_shoulder_pan_joint": 0.893677103761793,
        "distance_wrist_1_joint": 0.4632514449891735,
        "distance_wrist_2_joint": 1.4053772802132745,
        "distance_wrist_3_joint": 0.45749182939538047,
        "smoothness": 1.2932381377985598,
        "time": 0.48792812999999996,
        "traj_len": 1.9202451815753978,
        "weighted_distance": 2.5438069780069283
    },
    "planner": "SBL",
    "start": {
        "state": {
            "elbow_joint": 1.9565354010623817,
            "shoulder_lift_joint": -1.4165861575791021,
            "shoulder_pan_joint": -1.6717766225146293,
            "wrist_1_joint": -0.5286633292919765,
            "wrist_2_joint": 1.472756589071564,
            "wrist_3_joint": -3.1238370188695823
        }
    },
    "waypoints": [
        {
            "positions": [
                -1.6717766225146293,
                -1.4165861575791021,
                1.9565354010623817,
                -0.5286633292919765,
                1.472756589071564,
                -3.1238370188695823
            ]
        },
        {
            "positions": [
                -1.6264644236684025,
                -1.4360765547545038,
                1.9295619273767473,
                -0.45064308986542334,
                1.4231710002184714,
                -3.0087375032006047
            ]
        },
        {
            "positions": [
                -1.6483690864410616,
                -1.4162383545588755,
                1.9213017707163051,
                -0.46918181329038877,
                1.1591911809998647,
                -2.9826263193014437
            ]
        },
        {
            "positions": [
                -1.6702737492137207,
                -1.3964001543632474,
                1.9130416140558633,
                -0.48772053671535415,
                0.895211361781258,
                -2.9565151354022827
            ]
        },
        {
            "positions": [
                -1.6921784119863796,
                -1.3765619541676193,
                1.9047814573954214,
                -0.5062592601403195,
                0.6312315425626513,
                -2.930403951503122
            ]
        },
        {
            "positions": [
                -1.7140830747590388,
                -1.356723753971991,
                1.8965213007349793,
                -0.524797983565285,
                0.36725172334404454,
                -2.904292767603961
            ]
        },
        {
            "positions": [
                -1.8662323255240247,
                -1.3177960317837634,
                1.9193308986904707,
                -0.5870132459378367,
                0.42722620624119556,
                -2.951882283229913
            ]
        },
        {
            "positions": [
                -2.018381576289011,
                -1.278868309595536,
                1.9421404966459621,
                -0.6492285083103885,
                0.4872006891383465,
                -2.999471798855865
            ]
        },
        {
            "positions": [
                -2.1705308270539967,
                -1.2399405874073084,
                1.9649500946014533,
                -0.7114437706829402,
                0.5471751720354975,
                -3.047061314481817
            ]
        },
        {
            "positions": [
                -2.3226800778189824,
                -1.2010128652190808,
                1.9877596925569447,
                -0.773659033055492,
                0.6071496549326485,
                -3.0946508301077684
            ]
        },
        {
            "positions": [
                -2.4748293285839686,
                -1.1620851430308534,
                2.010569290512436,
                -0.8358742954280437,
                0.6671241378297995,
                -3.1422403457337205
            ]
        }
    ]
}