{
    "goal": {
        "global_pose": {
            "orientation": {
                "w": 0.5084816217422485,
                "x": -0.49083608388900757,
                "y": 0.5182115435600281,
                "z": -0.4816462993621826
            },
            "position": {
                "x": 0.5540239810943604,
                "y": 0.030875300988554955,
                "z": 0.16403168439865112
            }
        },
        "name": "move_to_storage_A"
    },
    "id": "SBL_move_to_storage_A_83",
    "joint_names": [
        "shoulder_pan_joint",
        "shoulder_lift_joint",
        "elbow_joint",
        "wrist_1_joint",
        "wrist_2_joint",
        "wrist_3_joint"
    ],
    "metrics": {
        "cart_traj_len": 0.35288018875601573,
        "distance_elbow_joint": 0.4543365310172818,
        "distance_shoulder_lift_joint": 0.2322023910233475,
        "distance_shoulder_pan_joint": 0.46203012662628024,
        "distance_wrist_1_joint": 0.2639895508291745,
        "distance_wrist_2_joint": 1.0953109575765936,
        "distance_wrist_3_joint": 0.10160473329024411,
        "smoothness": 4.440892098500626e-16,
        "time": 0.099002913,
        "traj_len": 1.6153867308984935,
        "weighted_distance": 2.0425435773439884
    },
    "planner": "SBL",
    "start": {
        "state": {
            "elbow_joint": 1.9715481507254546,
            "shoulder_lift_joint": -1.1394850672790213,
            "shoulder_pan_joint": 0.12281154597544902,
            "wrist_1_joint": -0.7804720171073349,
            "wrist_2_joint": 0.12958658322886563,
            "wrist_3_joint": -3.1924895760937617
        }
    },
    "waypoints": [
        {
            "positions": [
                0.12281154597544902,
                -1.1394850672790213,
                1.9715481507254546,
                -0.7804720171073349,
                0.12958658322886563,
                -3.1924895760937617
            ]
        },
        {
            "positions": [
                0.05680724217169471,
                -1.1726568374252138,
                2.036453369442209,
                -0.8181848100829313,
                0.286059577168379,
                -3.1779746141951555
            ]
        },
        {
            "positions": [
                -0.009197061632059605,
                -1.2058286075714064,
                2.1013585881589636,
                -0.8558976030585277,
                0.44253257110789235,
                -3.1634596522965492
            ]
        },
        {
            "positions": [
                -0.07520136543581393,
                -1.2390003777175989,
                2.166263806875718,
                -0.893610396034124,
                0.5990055650474058,
                -3.148944690397943
            ]
        },
        {
            "positions": [
                -0.14120566923956823,
                -1.2721721478637913,
                2.2311690255924725,
                -0.9313231890097203,
                0.7554785589869191,
                -3.1344297284993363
            ]
        },
        {
            "positions": [
                -0.20720997304332256,
                -1.3053439180099837,
                2.2960742443092275,
                -0.9690359819853167,
                0.9119515529264325,
                -3.11991476660073
            ]
        },
        {
            "positions": [
                -0.2732142768470769,
                -1.3385156881561764,
                2.360979463025982,
                -1.0067487749609132,
                1.0684245468659457,
                -3.105399804702124
            ]
        },
        {
            "positions": [
                -0.3392185806508312,
                -1.3716874583023688,
                2.4258846817427364,
                -1.0444615679365095,
                1.2248975408054592,
                -3.0908848428035176
            ]
        }
    ]
}