{
    "goal": {
        "global_pose": {
            "orientation": {
                "w": -0.4816463035849501,
                "x": 0.5182115481033762,
                "y": 0.4908360881923453,
                "z": -0.5084816262002911
            },
            "position": {
                "x": -0.8240239810943604,
                "y": 0.19912469901144506,
                "z": 0.16403168439865112
            }
        },
        "name": "move_to_storage_D"
    },
    "id": "SBL_move_to_storage_D_90",
    "joint_names": [
        "shoulder_pan_joint",
        "shoulder_lift_joint",
        "elbow_joint",
        "wrist_1_joint",
        "wrist_2_joint",
        "wrist_3_joint"
    ],
    "metrics": {
        "cart_traj_len": 1.5769344040318816,
        "distance_elbow_joint": 0.5574273956666194,
        "distance_shoulder_lift_joint": 0.5149909418422185,
        "distance_shoulder_pan_joint": 2.0423533770222675,
        "distance_wrist_1_joint": 3.8329099690272033,
        "distance_wrist_2_joint": 1.7957028402330844,
        "distance_wrist_3_joint": 4.515652235346374,
        "smoothness": 0.32811401946066987,
        "time": 0.457745965,
        "traj_len": 3.6412960273970816,
        "weighted_distance": 5.283838949011486
    },
    "planner": "SBL",
    "start": {
        "state": {
            "elbow_joint": -2.384821988534728,
            "shoulder_lift_joint": -2.2788054721415256,
            "shoulder_pan_joint": -0.1854694642142757,
            "wrist_1_joint": 1.4845938289331202,
            "wrist_2_joint": 0.17898776772866878,
            "wrist_3_joint": 0.037105688729662994
        }
    },
    "waypoints": [
        {
            "positions": [
                -0.1854694642142757,
                -2.2788054721415256,
                -2.384821988534728,
                1.4845938289331202,
                0.17898776772866878,
                0.037105688729662994
            ]
        },
        {
            "positions": [
                -0.14918538975756732,
                -2.2522459246921054,
                -2.382199059447929,
                1.365956907135316,
                0.11363055124141178,
                0.022662735393454387
            ]
        },
        {
            "positions": [
                -0.11290131530085892,
                -2.225686377242685,
                -2.37957613036113,
                1.2473199853375114,
                0.04827333475415477,
                0.00821978205724578
            ]
        },
        {
            "positions": [
                -0.010576787048886843,
                -2.197604247761505,
                -2.342836693964109,
                1.138306462330746,
                -0.0011359122610641315,
                0.07806303004109433
            ]
        },
        {
            "positions": [
                0.09174774120308524,
                -2.169522118280325,
                -2.306097257567088,
                1.0292929393239805,
                -0.05054515927628303,
                0.14790627802494286
            ]
        },
        {
            "positions": [
                0.19407226945505726,
                -2.141439988799145,
                -2.2693578211700665,
                0.920279416317215,
                -0.0999544062915019,
                0.2177495260087914
            ]
        },
        {
            "positions": [
                0.2963967977070294,
                -2.113357859317965,
                -2.2326183847730454,
                0.8112658933104495,
                -0.14936365330672083,
                0.28759277399263994
            ]
        },
        {
            "positions": [
                0.39872132595900145,
                -2.085275729836785,
                -2.1958789483760244,
                0.702252370303684,
                -0.1987729003219397,
                0.3574360219764885
            ]
        },
        {
            "positions": [
                0.5010458542109735,
                -2.0571936003556046,
                -2.1591395119790033,
                0.5932388472969186,
                -0.24818214733715857,
                0.42727926996033705
            ]
        },
        {
            "positions": [
                0.6033703824629455,
                -2.0291114708744247,
                -2.1224000755819823,
                0.4842253242901531,
                -0.29759139435237747,
                0.49712251794418555
            ]
        },
        {
            "positions": [
                0.7056949107149177,
                -2.0010293413932447,
                -2.085660639184961,
                0.3752118012833876,
                -0.34700064136759645,
                0.5669657659280342
            ]
        },
        {
            "positions": [
                0.8080194389668898,
                -1.9729472119120643,
                -2.0489212027879398,
                0.2661982782766221,
                -0.3964098883828153,
                0.6368090139118827
            ]
        },
        {
            "positions": [
                0.9103439672188617,
                -1.9448650824308844,
                -2.0121817663909187,
                0.15718475526985656,
                -0.44581913539803414,
                0.7066522618957313
            ]
        },
        {
            "positions": [
                0.8691900565410735,
                -1.95273684556704,
                -2.0041475414551444,
                0.048249933732293984,
                -0.4967276544026594,
                0.5419420945550586
            ]
        },
        {
            "positions": [
                0.8280361458632852,
                -1.9606086087031955,
                -1.99611331651937,
                -0.060684887805268595,
                -0.5476361734072848,
                0.3772319272143859
            ]
        },
        {
            "positions": [
                0.786882235185497,
                -1.968480371839351,
                -1.9880790915835957,
                -0.1696197093428312,
                -0.59854469241191,
                0.2125217598737133
            ]
        },
        {
            "positions": [
                0.7457283245077088,
                -1.9763521349755064,
                -1.9800448666478212,
                -0.2785545308803937,
                -0.6494532114165352,
                0.04781159253304057
            ]
        },
        {
            "positions": [
                0.7045744138299206,
                -1.984223898111662,
                -1.9720106417120469,
                -0.38748935241795635,
                -0.7003617304211606,
                -0.1168985748076321
            ]
        },
        {
            "positions": [
                0.6634205031521323,
                -1.9920956612478176,
                -1.9639764167762725,
                -0.49642417395551897,
                -0.7512702494257859,
                -0.28160874214830467
            ]
        },
        {
            "positions": [
                0.622266592474344,
                -1.9999674243839731,
                -1.9559421918404982,
                -0.6053589954930816,
                -0.8021787684304111,
                -0.44631890948897757
            ]
        },
        {
            "positions": [
                0.581112681796556,
                -2.0078391875201285,
                -1.947907966904724,
                -0.7142938170306441,
                -0.8530872874350364,
                -0.6110290768296501
            ]
        },
        {
            "positions": [
                0.5399587711187677,
                -2.0157109506562843,
                -1.9398737419689496,
                -0.8232286385682068,
                -0.9039958064396618,
                -0.7757392441703229
            ]
        },
        {
            "positions": [
                0.49880486044097944,
                -2.0235827137924396,
                -1.9318395170331752,
                -0.9321634601057692,
                -0.954904325444287,
                -0.9404494115109955
            ]
        },
        {
            "positions": [
                0.45765094976319115,
                -2.0314544769285954,
                -1.923805292097401,
                -1.0410982816433318,
                -1.0058128444489123,
                -1.1051595788516684
            ]
        },
        {
            "positions": [
                0.416497039085403,
                -2.0393262400647507,
                -1.9157710671616264,
                -1.1500331031808944,
                -1.0567213634535375,
                -1.2698697461923407
            ]
        },
        {
            "positions": [
                0.37534312840761475,
                -2.0471980032009065,
                -1.907736842225852,
                -1.2589679247184569,
                -1.1076298824581627,
                -1.434579913533013
            ]
        },
        {
            "positions": [
                0.33418921772982646,
                -2.055069766337062,
                -1.8997026172900777,
                -1.3679027462560196,
                -1.1585384014627882,
                -1.5992900808736863
            ]
        },
        {
            "positions": [
                0.2930353070520383,
                -2.0629415294732176,
                -1.8916683923543034,
                -1.476837567793582,
                -1.2094469204674134,
                -1.7640002482143586
            ]
        },
        {
            "positions": [
                0.2518813963742501,
                -2.070813292609373,
                -1.883634167418529,
                -1.5857723893311446,
                -1.2603554394720387,
                -1.9287104155550314
            ]
        },
        {
            "positions": [
                0.21072748569646182,
                -2.0786850557455283,
                -1.8755999424827547,
                -1.6947072108687071,
                -1.3112639584766639,
                -2.0934205828957038
            ]
        },
        {
            "positions": [
                0.16957357501867354,
                -2.086556818881684,
                -1.8675657175469804,
                -1.80364203240627,
                -1.3621724774812893,
                -2.258130750236377
            ]
        },
        {
            "positions": [
                0.12841966434088536,
                -2.0944285820178394,
                -1.859531492611206,
                -1.9125768539438324,
                -1.4130809964859146,
                -2.4228409175770493
            ]
        },
        {
            "positions": [
                0.08726575366309719,
                -2.102300345153995,
                -1.8514972676754315,
                -2.021511675481395,
                -1.4639895154905398,
                -2.587551084917722
            ]
        },
        {
            "positions": [
                0.046111842985308904,
                -2.1101721082901506,
                -1.8434630427396572,
                -2.1304464970189576,
                -1.514898034495165,
                -2.7522612522583945
            ]
        },
        {
            "positions": [
                0.004957932307520618,
                -2.1180438714263063,
                -1.835428817803883,
                -2.2393813185565206,
                -1.5658065534997905,
                -2.9169714195990677
            ]
        },
        {
            "positions": [
                -0.03619597837026754,
                -2.1259156345624617,
                -1.8273945928681086,
                -2.348316140094083,
                -1.6167150725044157,
                -3.08168158693974
            ]
        }
    ]
}