{
    "goal": {
        "global_pose": {
            "orientation": {
                "w": -0.4816463035849501,
                "x": 0.5182115481033762,
                "y": 0.4908360881923453,
                "z": -0.5084816262002911
            },
            "position": {
                "x": -0.8240239810943604,
                "y": 0.19912469901144506,
                "z": 0.16403168439865112
            }
        },
        "name": "move_to_storage_D"
    },
    "id": "SBL_move_to_storage_D_60",
    "joint_names": [
        "shoulder_pan_joint",
        "shoulder_lift_joint",
        "elbow_joint",
        "wrist_1_joint",
        "wrist_2_joint",
        "wrist_3_joint"
    ],
    "metrics": {
        "cart_traj_len": 3.465862233176827,
        "distance_elbow_joint": 5.056458224682242,
        "distance_shoulder_lift_joint": 1.2636147932985307,
        "distance_shoulder_pan_joint": 2.8150631985746775,
        "distance_wrist_1_joint": 2.280527415215606,
        "distance_wrist_2_joint": 1.527794284138432,
        "distance_wrist_3_joint": 3.1398904615129095,
        "smoothness": 0.09571524564468982,
        "time": 0.24927733,
        "traj_len": 4.010405014137898,
        "weighted_distance": 5.115804042357589
    },
    "planner": "SBL",
    "start": {
        "state": {
            "elbow_joint": -2.384821988534728,
            "shoulder_lift_joint": -2.2788054721415256,
            "shoulder_pan_joint": -0.1854694642142757,
            "wrist_1_joint": 1.4845938289331202,
            "wrist_2_joint": 0.17898776772866878,
            "wrist_3_joint": 0.037105688729662994
        }
    },
    "waypoints": [
        {
            "positions": [
                -0.1854694642142757,
                -2.2788054721415256,
                -2.384821988534728,
                1.4845938289331202,
                0.17898776772866878,
                0.037105688729662994
            ]
        },
        {
            "positions": [
                -0.09580460886289982,
                -2.2389330388220388,
                -2.4244292999669574,
                1.3991761814680448,
                0.09867162958566755,
                0.026793910170288794
            ]
        },
        {
            "positions": [
                -0.006139753511523932,
                -2.1990606055025523,
                -2.4640366113991874,
                1.3137585340029694,
                0.018355491442666322,
                0.016482131610914594
            ]
        },
        {
            "positions": [
                0.08352510183985193,
                -2.1591881721830655,
                -2.503643922831417,
                1.228340886537894,
                -0.06196064670033491,
                0.006170353051540393
            ]
        },
        {
            "positions": [
                0.17318995719122782,
                -2.1193157388635786,
                -2.5432512342636464,
                1.1429232390728186,
                -0.1422767848433361,
                -0.004141425507833807
            ]
        },
        {
            "positions": [
                0.2212331054890807,
                -2.112610172397812,
                -2.3417180415720145,
                1.0983781084115813,
                -0.14230518231150505,
                -0.0961944370288339
            ]
        },
        {
            "positions": [
                0.2692762537869336,
                -2.1059046059320456,
                -2.1401848488803825,
                1.0538329777503441,
                -0.142333579779674,
                -0.188247448549834
            ]
        },
        {
            "positions": [
                0.3173194020847865,
                -2.099199039466279,
                -1.9386516561887506,
                1.009287847089107,
                -0.14236197724784294,
                -0.2803004600708341
            ]
        },
        {
            "positions": [
                0.36536255038263943,
                -2.0924934730005127,
                -1.7371184634971188,
                0.9647427164278696,
                -0.1423903747160119,
                -0.3723534715918342
            ]
        },
        {
            "positions": [
                0.41340569868049226,
                -2.085787906534746,
                -1.535585270805487,
                0.9201975857666324,
                -0.14241877218418084,
                -0.4644064831128343
            ]
        },
        {
            "positions": [
                0.4614488469783452,
                -2.0790823400689797,
                -1.334052078113855,
                0.8756524551053951,
                -0.1424471696523498,
                -0.5564594946338344
            ]
        },
        {
            "positions": [
                0.509491995276198,
                -2.0723767736032133,
                -1.132518885422223,
                0.8311073244441578,
                -0.14247556712051873,
                -0.6485125061548345
            ]
        },
        {
            "positions": [
                0.557535143574051,
                -2.065671207137447,
                -0.9309856927305913,
                0.7865621937829206,
                -0.1425039645886877,
                -0.7405655176758346
            ]
        },
        {
            "positions": [
                0.6055782918719039,
                -2.0589656406716803,
                -0.7294525000389591,
                0.7420170631216834,
                -0.14253236205685663,
                -0.8326185291968347
            ]
        },
        {
            "positions": [
                0.6536214401697568,
                -2.052260074205914,
                -0.5279193073473274,
                0.6974719324604461,
                -0.1425607595250256,
                -0.9246715407178348
            ]
        },
        {
            "positions": [
                0.7016645884676096,
                -2.0455545077401474,
                -0.32638611465569545,
                0.6529268017992089,
                -0.14258915699319452,
                -1.0167245522388348
            ]
        },
        {
            "positions": [
                0.7497077367654625,
                -2.0388489412743813,
                -0.1248529219640635,
                0.6083816711379717,
                -0.14261755446136348,
                -1.108777563759835
            ]
        },
        {
            "positions": [
                0.7977508850633155,
                -2.032143374808615,
                0.076680270727568,
                0.5638365404767345,
                -0.14264595192953242,
                -1.200830575280835
            ]
        },
        {
            "positions": [
                0.8457940333611684,
                -2.0254378083428484,
                0.2782134634192004,
                0.5192914098154972,
                -0.14267434939770138,
                -1.2928835868018351
            ]
        },
        {
            "positions": [
                0.8938371816590214,
                -2.018732241877082,
                0.47974665611083234,
                0.47474627915425993,
                -0.1427027468658703,
                -1.3849365983228352
            ]
        },
        {
            "positions": [
                0.9418803299568741,
                -2.0120266754113154,
                0.6812798488024638,
                0.4302011484930227,
                -0.14273114433403927,
                -1.4769896098438353
            ]
        },
        {
            "positions": [
                0.989923478254727,
                -2.005321108945549,
                0.8828130414940958,
                0.3856560178317855,
                -0.1427595418022082,
                -1.5690426213648354
            ]
        },
        {
            "positions": [
                1.03796662655258,
                -1.9986155424797825,
                1.0843462341857282,
                0.34111088717054827,
                -0.14278793927037717,
                -1.6610956328858355
            ]
        },
        {
            "positions": [
                1.086009774850433,
                -1.991909976014016,
                1.2858794268773597,
                0.29656575650931105,
                -0.1428163367385461,
                -1.7531486444068356
            ]
        },
        {
            "positions": [
                1.1340529231482857,
                -1.9852044095482495,
                1.4874126195689916,
                0.25202062584807383,
                -0.14284473420671506,
                -1.8452016559278357
            ]
        },
        {
            "positions": [
                1.1820960714461386,
                -1.978498843082483,
                1.6889458122606236,
                0.2074754951868366,
                -0.142873131674884,
                -1.9372546674488356
            ]
        },
        {
            "positions": [
                1.2301392197439915,
                -1.9717932766167166,
                1.8904790049522555,
                0.16293036452559928,
                -0.14290152914305296,
                -2.029307678969836
            ]
        },
        {
            "positions": [
                1.2781823680418445,
                -1.96508771015095,
                2.0920121976438875,
                0.11838523386436216,
                -0.1429299266112219,
                -2.121360690490836
            ]
        },
        {
            "positions": [
                1.3635478095334141,
                -1.906925213727617,
                2.084205198532045,
                0.07027007400302981,
                -0.07192882198874653,
                -2.1839930956719495
            ]
        },
        {
            "positions": [
                1.4489132510249836,
                -1.8487627173042835,
                2.0763981994202028,
                0.02215491414169747,
                -0.0009277173662711746,
                -2.2466255008530633
            ]
        },
        {
            "positions": [
                1.5342786925165532,
                -1.7906002208809504,
                2.06859120030836,
                -0.02596024571963486,
                0.07007338725620416,
                -2.3092579060341767
            ]
        },
        {
            "positions": [
                1.619644134008123,
                -1.732437724457617,
                2.060784201196518,
                -0.07407540558096722,
                0.14107449187867954,
                -2.3718903112152905
            ]
        },
        {
            "positions": [
                1.7050095754996923,
                -1.6742752280342839,
                2.0529772020846755,
                -0.12219056544229955,
                0.2120755965011549,
                -2.434522716396404
            ]
        },
        {
            "positions": [
                1.7697846985621535,
                -1.6285809671091553,
                2.039597529842208,
                -0.1668759343911189,
                0.27033674375621286,
                -2.4815068274851835
            ]
        },
        {
            "positions": [
                1.8345598216246146,
                -1.5828867061840266,
                2.026217857599741,
                -0.21156130333993822,
                0.32859789101127085,
                -2.528490938573963
            ]
        },
        {
            "positions": [
                1.9228969230397022,
                -1.5198093698128008,
                2.0043321679328914,
                -0.2764915570002213,
                0.41019219903083176,
                -2.592301364597217
            ]
        },
        {
            "positions": [
                2.0112340244547897,
                -1.4567320334415752,
                1.9824464782660418,
                -0.3414218106605044,
                0.4917865070503927,
                -2.6561117906204705
            ]
        },
        {
            "positions": [
                2.099571125869877,
                -1.3936546970703494,
                1.9605607885991925,
                -0.4063520643207875,
                0.5733808150699535,
                -2.7199222166437242
            ]
        },
        {
            "positions": [
                2.1879082272849644,
                -1.3305773606991238,
                1.938675098932343,
                -0.4712823179810706,
                0.6549751230895144,
                -2.783732642666978
            ]
        },
        {
            "positions": [
                2.276245328700052,
                -1.267500024327898,
                1.9167894092654933,
                -0.5362125716413537,
                0.7365694311090754,
                -2.8475430686902317
            ]
        },
        {
            "positions": [
                2.3645824301151395,
                -1.2044226879566722,
                1.8949037195986438,
                -0.6011428253016369,
                0.8181637391286363,
                -2.9113534947134854
            ]
        },
        {
            "positions": [
                2.4529195315302266,
                -1.1413453515854464,
                1.8730180299317944,
                -0.66607307896192,
                0.8997580471481972,
                -2.975163920736739
            ]
        },
        {
            "positions": [
                2.541256632945314,
                -1.0782680152142208,
                1.8511323402649449,
                -0.731003332622203,
                0.9813523551677581,
                -3.038974346759993
            ]
        },
        {
            "positions": [
                2.6295937343604017,
                -1.015190678842995,
                1.8292466505980953,
                -0.7959335862824861,
                1.062946663187319,
                -3.1027847727832465
            ]
        }
    ]
}