{
    "goal": {
        "global_pose": {
            "orientation": {
                "w": 0.7031023502349854,
                "x": -0.7110244035720825,
                "y": 0.007748599164187908,
                "z": 0.005598929710686207
            },
            "position": {
                "x": 0.11585023208521307,
                "y": 0.44412534475326537,
                "z": 0.3711530566215515
            }
        },
        "name": "move_to_auspresseinheit_A"
    },
    "id": "SBL_move_to_auspresseinheit_A_139",
    "joint_names": [
        "shoulder_pan_joint",
        "shoulder_lift_joint",
        "elbow_joint",
        "wrist_1_joint",
        "wrist_2_joint",
        "wrist_3_joint"
    ],
    "metrics": {
        "cart_traj_len": 2.558312544398869,
        "distance_elbow_joint": 3.0689376245585205,
        "distance_shoulder_lift_joint": 1.4962498832690287,
        "distance_shoulder_pan_joint": 1.6839640485747758,
        "distance_wrist_1_joint": 1.8731169789366315,
        "distance_wrist_2_joint": 3.0113332721102237,
        "distance_wrist_3_joint": 5.539658647736827,
        "smoothness": 1.183595452146967,
        "time": 0.543604687,
        "traj_len": 4.0832903956473645,
        "weighted_distance": 5.712882635036933
    },
    "planner": "SBL",
    "start": {
        "state": {
            "elbow_joint": 2.4225746658250005,
            "shoulder_lift_joint": -1.3736534386056498,
            "shoulder_pan_joint": -0.3378633547517467,
            "wrist_1_joint": -1.0288598680537169,
            "wrist_2_joint": 1.233022673432363,
            "wrist_3_joint": -3.0940220416140027
        }
    },
    "waypoints": [
        {
            "positions": [
                -0.3378633547517467,
                -1.3736534386056498,
                2.4225746658250005,
                -1.0288598680537169,
                1.233022673432363,
                -3.0940220416140027
            ]
        },
        {
            "positions": [
                -0.32766607960247385,
                -1.3937141811220177,
                2.3322326696594478,
                -1.022425200334167,
                1.128917486596813,
                -2.9397593712485266
            ]
        },
        {
            "positions": [
                -0.317468804453201,
                -1.4137749236383859,
                2.241890673493895,
                -1.0159905326146168,
                1.024812299761263,
                -2.7854967008830505
            ]
        },
        {
            "positions": [
                -0.30727152930392815,
                -1.4338356661547538,
                2.1515486773283423,
                -1.0095558648950669,
                0.920707112925713,
                -2.6312340305175743
            ]
        },
        {
            "positions": [
                -0.29707425415465527,
                -1.4538964086711217,
                2.0612066811627896,
                -1.003121197175517,
                0.816601926090163,
                -2.476971360152098
            ]
        },
        {
            "positions": [
                -0.28687697900538245,
                -1.4739571511874896,
                1.9708646849972367,
                -0.9966865294559669,
                0.712496739254613,
                -2.322708689786622
            ]
        },
        {
            "positions": [
                -0.27667970385610957,
                -1.4940178937038577,
                1.8805226888316837,
                -0.9902518617364169,
                0.608391552419063,
                -2.168446019421146
            ]
        },
        {
            "positions": [
                -0.2664824287068367,
                -1.5140786362202256,
                1.790180692666131,
                -0.983817194016867,
                0.504286365583513,
                -2.0141833490556698
            ]
        },
        {
            "positions": [
                -0.25628515355756387,
                -1.5341393787365936,
                1.6998386965005783,
                -0.9773825262973169,
                0.400181178747963,
                -1.8599206786901936
            ]
        },
        {
            "positions": [
                -0.246087878408291,
                -1.5542001212529617,
                1.6094967003350256,
                -0.970947858577767,
                0.29607599191241296,
                -1.7056580083247175
            ]
        },
        {
            "positions": [
                -0.23589060325901812,
                -1.5742608637693296,
                1.5191547041694728,
                -0.964513190858217,
                0.19197080507686293,
                -1.5513953379592413
            ]
        },
        {
            "positions": [
                -0.22569332810974527,
                -1.5943216062856975,
                1.42881270800392,
                -0.958078523138667,
                0.08786561824131289,
                -1.3971326675937652
            ]
        },
        {
            "positions": [
                -0.21549605296047242,
                -1.6143823488020657,
                1.3384707118383672,
                -0.951643855419117,
                -0.01623956859423714,
                -1.2428699972282888
            ]
        },
        {
            "positions": [
                -0.20529877781119957,
                -1.6344430913184336,
                1.2481287156728145,
                -0.945209187699567,
                -0.12034475542978695,
                -1.088607326862813
            ]
        },
        {
            "positions": [
                -0.1951015026619267,
                -1.6545038338348015,
                1.1577867195072618,
                -0.938774519980017,
                -0.224449942265337,
                -0.9343446564973368
            ]
        },
        {
            "positions": [
                -0.18490422751265384,
                -1.6745645763511694,
                1.067444723341709,
                -0.932339852260467,
                -0.328555129100887,
                -0.7800819861318606
            ]
        },
        {
            "positions": [
                -0.17470695236338096,
                -1.6946253188675375,
                0.9771027271761561,
                -0.9259051845409171,
                -0.43266031593643706,
                -0.6258193157663845
            ]
        },
        {
            "positions": [
                -0.1645096772141081,
                -1.7146860613839054,
                0.8867607310106034,
                -0.919470516821367,
                -0.5367655027719871,
                -0.47155664540090836
            ]
        },
        {
            "positions": [
                -0.11548738092082891,
                -1.7310329932089221,
                0.9551083685692298,
                -0.8649224724849712,
                -0.4734250238170177,
                -0.6086403267326249
            ]
        },
        {
            "positions": [
                -0.0664650846275497,
                -1.7473799250339388,
                1.0234560061278561,
                -0.8103744281485754,
                -0.41008454486204826,
                -0.7457240080643415
            ]
        },
        {
            "positions": [
                -0.017442788334270487,
                -1.7637268568589555,
                1.0918036436864826,
                -0.7558263838121796,
                -0.34674406590707885,
                -0.882807689396058
            ]
        },
        {
            "positions": [
                0.03157950795900871,
                -1.7800737886839724,
                1.1601512812451091,
                -0.7012783394757838,
                -0.28340358695210943,
                -1.0198913707277746
            ]
        },
        {
            "positions": [
                0.08060180425228794,
                -1.796420720508989,
                1.2284989188037354,
                -0.6467302951393878,
                -0.22006310799713996,
                -1.1569750520594912
            ]
        },
        {
            "positions": [
                0.12962410054556714,
                -1.8127676523340057,
                1.296846556362362,
                -0.5921822508029921,
                -0.1567226290421706,
                -1.2940587333912077
            ]
        },
        {
            "positions": [
                0.17864639683884634,
                -1.8291145841590224,
                1.3651941939209884,
                -0.5376342064665962,
                -0.09338215008720113,
                -1.4311424147229244
            ]
        },
        {
            "positions": [
                0.22766869313212554,
                -1.845461515984039,
                1.433541831479615,
                -0.4830861621302004,
                -0.030041671132231773,
                -1.5682260960546408
            ]
        },
        {
            "positions": [
                0.2766909894254048,
                -1.8618084478090557,
                1.5018894690382414,
                -0.4285381177938045,
                0.03329880782273775,
                -1.7053097773863577
            ]
        },
        {
            "positions": [
                0.32571328571868396,
                -1.8781553796340726,
                1.5702371065968677,
                -0.37399007345740864,
                0.09663928677770717,
                -1.8423934587180741
            ]
        },
        {
            "positions": [
                0.3747355820119631,
                -1.8945023114590893,
                1.6385847441554942,
                -0.31944202912101294,
                0.15997976573267658,
                -1.9794771400497906
            ]
        },
        {
            "positions": [
                0.42375787830524236,
                -1.910849243284106,
                1.7069323817141204,
                -0.2648939847846171,
                0.22332024468764589,
                -2.116560821381507
            ]
        },
        {
            "positions": [
                0.4727801745985216,
                -1.9271961751091227,
                1.775280019272747,
                -0.2103459404482212,
                0.2866607236426154,
                -2.253644502713224
            ]
        },
        {
            "positions": [
                0.5218024708918008,
                -1.9435431069341393,
                1.8436276568313734,
                -0.15579789611182543,
                0.3500012025975848,
                -2.3907281840449404
            ]
        },
        {
            "positions": [
                0.46861762222221365,
                -1.863189152948949,
                1.9289780799854177,
                -0.09728324962926926,
                0.38291269634215896,
                -2.3704330392633057
            ]
        },
        {
            "positions": [
                0.41543277355262653,
                -1.7828351989637585,
                2.014328503139462,
                -0.038768603146713085,
                0.41582419008673305,
                -2.3501378944816707
            ]
        },
        {
            "positions": [
                0.3622479248830395,
                -1.7024812449785682,
                2.0996789262935063,
                0.019746043335843094,
                0.4487356838313072,
                -2.3298427497000356
            ]
        },
        {
            "positions": [
                0.30906307621345236,
                -1.622127290993378,
                2.1850293494475506,
                0.07826068981839926,
                0.48164717757588127,
                -2.309547604918401
            ]
        },
        {
            "positions": [
                0.25587822754386524,
                -1.5417733370081874,
                2.270379772601595,
                0.13677533630095545,
                0.5145586713204554,
                -2.2892524601367663
            ]
        },
        {
            "positions": [
                0.20269337887427813,
                -1.4614193830229971,
                2.355730195755639,
                0.19528998278351162,
                0.5474701650650295,
                -2.2689573153551312
            ]
        },
        {
            "positions": [
                0.26344738038297955,
                -1.523647216607478,
                2.3535893476922896,
                0.11605585790196869,
                0.5670513651078507,
                -2.388804325490825
            ]
        },
        {
            "positions": [
                0.324201381891681,
                -1.5858750501919587,
                2.3514484996289395,
                0.03682173302042577,
                0.5866325651506719,
                -2.5086513356265185
            ]
        },
        {
            "positions": [
                0.3849553834003825,
                -1.6481028837764393,
                2.34930765156559,
                -0.042412391861117144,
                0.606213765193493,
                -2.628498345762212
            ]
        },
        {
            "positions": [
                0.4457093849090839,
                -1.7103307173609201,
                2.3471668035022404,
                -0.12164651674266008,
                0.6257949652363142,
                -2.7483453558979063
            ]
        },
        {
            "positions": [
                0.5064633864177854,
                -1.772558550945401,
                2.345025955438891,
                -0.20088064162420305,
                0.6453761652791354,
                -2.8681923660336
            ]
        },
        {
            "positions": [
                0.5672173879264868,
                -1.8347863845298817,
                2.342885107375541,
                -0.2801147665057459,
                0.6649573653219566,
                -2.9880393761692936
            ]
        },
        {
            "positions": [
                0.6279713894351883,
                -1.8970142181143625,
                2.340744259312191,
                -0.35934889138728887,
                0.6845385653647778,
                -3.1078863863049873
            ]
        },
        {
            "positions": [
                0.7078825097879837,
                -1.9056558740523941,
                2.3899125478678305,
                -0.4536771453158917,
                0.704779593133888,
                -3.145208159545025
            ]
        }
    ]
}