{
    "goal": {
        "global_pose": {
            "orientation": {
                "w": 0.7031023480610252,
                "x": -0.7110244013736278,
                "y": 0.0077485991402295624,
                "z": 0.005598929693374583
            },
            "position": {
                "x": -0.8841497679147869,
                "y": 0.44412534475326537,
                "z": 0.3711530566215515
            }
        },
        "name": "move_to_auspresseinheit_D"
    },
    "id": "SBL_move_to_auspresseinheit_D_84",
    "joint_names": [
        "shoulder_pan_joint",
        "shoulder_lift_joint",
        "elbow_joint",
        "wrist_1_joint",
        "wrist_2_joint",
        "wrist_3_joint"
    ],
    "metrics": {
        "cart_traj_len": 0.34251832322806264,
        "distance_elbow_joint": 0.6367031284619378,
        "distance_shoulder_lift_joint": 0.12135450156837724,
        "distance_shoulder_pan_joint": 0.1336720295346742,
        "distance_wrist_1_joint": 0.521498136150782,
        "distance_wrist_2_joint": 1.4485648601610464,
        "distance_wrist_3_joint": 0.002279709696182408,
        "smoothness": 0.0,
        "time": 0.192544381,
        "traj_len": 1.6923570443535254,
        "weighted_distance": 2.1997033393794703
    },
    "planner": "SBL",
    "start": {
        "state": {
            "elbow_joint": -1.8275523626775212,
            "shoulder_lift_joint": -2.126789852344167,
            "shoulder_pan_joint": -0.03513704404078235,
            "wrist_1_joint": -2.347782403156801,
            "wrist_2_joint": -1.6058999987535132,
            "wrist_3_joint": -3.0880379163319196
        }
    },
    "waypoints": [
        {
            "positions": [
                -0.03513704404078235,
                -2.126789852344167,
                -1.8275523626775212,
                -2.347782403156801,
                -1.6058999987535132,
                -3.0880379163319196
            ]
        },
        {
            "positions": [
                -0.051846047732616626,
                -2.141959165040214,
                -1.7479644716197789,
                -2.4129696701756487,
                -1.4248293912333825,
                -3.0883228800439424
            ]
        },
        {
            "positions": [
                -0.0685550514244509,
                -2.1571284777362614,
                -1.6683765805620367,
                -2.4781569371944965,
                -1.2437587837132515,
                -3.088607843755965
            ]
        },
        {
            "positions": [
                -0.08526405511628518,
                -2.1722977904323084,
                -1.5887886895042946,
                -2.5433442042133443,
                -1.0626881761931208,
                -3.088892807467988
            ]
        },
        {
            "positions": [
                -0.10197305880811944,
                -2.1874671031283555,
                -1.5092007984465523,
                -2.608531471232192,
                -0.88161756867299,
                -3.089177771180011
            ]
        },
        {
            "positions": [
                -0.11868206249995372,
                -2.2026364158244025,
                -1.42961290738881,
                -2.6737187382510395,
                -0.7005469611528592,
                -3.0894627348920336
            ]
        },
        {
            "positions": [
                -0.135391066191788,
                -2.2178057285204495,
                -1.3500250163310679,
                -2.7389060052698873,
                -0.5194763536327285,
                -3.0897476986040564
            ]
        },
        {
            "positions": [
                -0.15210006988362226,
                -2.232975041216497,
                -1.2704371252733258,
                -2.804093272288735,
                -0.33840574611259755,
                -3.090032662316079
            ]
        },
        {
            "positions": [
                -0.16880907357545655,
                -2.248144353912544,
                -1.1908492342155834,
                -2.869280539307583,
                -0.1573351385924669,
                -3.090317626028102
            ]
        }
    ]
}