{
    "goal": {
        "global_pose": {
            "orientation": {
                "w": 0.7047431493862688,
                "x": -0.7094548369677653,
                "y": 0.0024358444001904,
                "z": -0.0022348060817251984
            },
            "position": {
                "x": -0.39052492380142206,
                "y": 0.3671506643295288,
                "z": 0.19426114857196808
            }
        },
        "name": "move_to_magneteinheit_D"
    },
    "id": "SBL_move_to_magneteinheit_D_10",
    "joint_names": [
        "shoulder_pan_joint",
        "shoulder_lift_joint",
        "elbow_joint",
        "wrist_1_joint",
        "wrist_2_joint",
        "wrist_3_joint"
    ],
    "metrics": {
        "cart_traj_len": 4.490412751349941,
        "distance_elbow_joint": 3.1447278404028207,
        "distance_shoulder_lift_joint": 1.6288145638789422,
        "distance_shoulder_pan_joint": 3.167844753495692,
        "distance_wrist_1_joint": 2.0318001184002643,
        "distance_wrist_2_joint": 0.9495308941175055,
        "distance_wrist_3_joint": 3.4834414671013443,
        "smoothness": 0.3153353769105111,
        "time": 0.50839176,
        "traj_len": 3.795544708918151,
        "weighted_distance": 4.935015054092238
    },
    "planner": "SBL",
    "start": {
        "state": {
            "elbow_joint": 0.749534889911806,
            "shoulder_lift_joint": -0.6476975780787326,
            "shoulder_pan_joint": -2.711696901376241,
            "wrist_1_joint": -0.07506478083263063,
            "wrist_2_joint": 0.43296659715538205,
            "wrist_3_joint": -3.14703540197715
        }
    },
    "waypoints": [
        {
            "positions": [
                -2.711696901376241,
                -0.6476975780787326,
                0.749534889911806,
                -0.07506478083263063,
                0.43296659715538205,
                -3.14703540197715
            ]
        },
        {
            "positions": [
                -2.6951742364504527,
                -0.7482000930981285,
                0.6908281568926529,
                -0.15063282953568452,
                0.5108049398809296,
                -3.145483342455067
            ]
        },
        {
            "positions": [
                -2.678651571524664,
                -0.8487026081175244,
                0.6321214238734997,
                -0.22620087823873838,
                0.5886432826064771,
                -3.143931282932984
            ]
        },
        {
            "positions": [
                -2.5638825296776426,
                -0.8978152875219922,
                0.5746745723089755,
                -0.23502432129944947,
                0.6044584443665632,
                -2.995477929324238
            ]
        },
        {
            "positions": [
                -2.4491134878306213,
                -0.94692796692646,
                0.5172277207444513,
                -0.24384776436016053,
                0.6202736061266491,
                -2.847024575715493
            ]
        },
        {
            "positions": [
                -2.3343444459836005,
                -0.9960406463309278,
                0.45978086917992717,
                -0.2526712074208716,
                0.6360887678867351,
                -2.698571222106747
            ]
        },
        {
            "positions": [
                -2.219575404136579,
                -1.0451533257353955,
                0.402334017615403,
                -0.2614946504815827,
                0.651903929646821,
                -2.5501178684980017
            ]
        },
        {
            "positions": [
                -2.104806362289558,
                -1.0942660051398634,
                0.3448871660508788,
                -0.27031809354229375,
                0.667719091406907,
                -2.401664514889256
            ]
        },
        {
            "positions": [
                -1.9900373204425366,
                -1.1433786845443312,
                0.28744031448635465,
                -0.27914153660300484,
                0.683534253166993,
                -2.25321116128051
            ]
        },
        {
            "positions": [
                -1.8752682785955153,
                -1.192491363948799,
                0.22999346292183048,
                -0.2879649796637159,
                0.6993494149270789,
                -2.104757807671765
            ]
        },
        {
            "positions": [
                -1.7604992367484944,
                -1.241604043353267,
                0.1725466113573063,
                -0.296788422724427,
                0.7151645766871648,
                -1.9563044540630192
            ]
        },
        {
            "positions": [
                -1.645730194901473,
                -1.2907167227577347,
                0.1150997597927822,
                -0.3056118657851381,
                0.7309797384472508,
                -1.8078511004542737
            ]
        },
        {
            "positions": [
                -1.5309611530544518,
                -1.3398294021622026,
                0.05765290822825797,
                -0.31443530884584914,
                0.7467949002073369,
                -1.6593977468455279
            ]
        },
        {
            "positions": [
                -1.4161921112074307,
                -1.3889420815666702,
                0.00020605666373385567,
                -0.3232587519065602,
                0.7626100619674228,
                -1.5109443932367823
            ]
        },
        {
            "positions": [
                -1.3014230693604094,
                -1.438054760971138,
                -0.0572407949007904,
                -0.3320821949672713,
                0.7784252237275088,
                -1.3624910396280367
            ]
        },
        {
            "positions": [
                -1.2295732074132217,
                -1.4674461062405726,
                -0.16631213876421996,
                -0.2500071139187713,
                0.7546836352920293,
                -1.2837329948381737
            ]
        },
        {
            "positions": [
                -1.1577233454660338,
                -1.496837451510007,
                -0.27538348262764956,
                -0.16793203287027125,
                0.7309420468565497,
                -1.204974950048311
            ]
        },
        {
            "positions": [
                -1.0858734835188462,
                -1.5262287967794415,
                -0.3844548264910791,
                -0.08585695182177122,
                0.7072004584210703,
                -1.1262169052584479
            ]
        },
        {
            "positions": [
                -1.0140236215716583,
                -1.5556201420488758,
                -0.49352617035450863,
                -0.00378187077327119,
                0.6834588699855908,
                -1.047458860468585
            ]
        },
        {
            "positions": [
                -0.9421737596244706,
                -1.5850114873183103,
                -0.6025975142179382,
                0.07829321027522884,
                0.6597172815501113,
                -0.968700815678722
            ]
        },
        {
            "positions": [
                -0.8703238976772829,
                -1.6144028325877446,
                -0.7116688580813677,
                0.16036829132372887,
                0.6359756931146319,
                -0.8899427708888591
            ]
        },
        {
            "positions": [
                -0.7984740357300951,
                -1.6437941778571792,
                -0.8207402019447972,
                0.2424433723722289,
                0.6122341046791523,
                -0.8111847260989962
            ]
        },
        {
            "positions": [
                -0.7266241737829072,
                -1.6731855231266137,
                -0.9298115458082269,
                0.32451845342072894,
                0.5884925162436728,
                -0.7324266813091331
            ]
        },
        {
            "positions": [
                -0.6547743118357195,
                -1.702576868396048,
                -1.0388828896716564,
                0.40659353446922897,
                0.5647509278081934,
                -0.6536686365192702
            ]
        },
        {
            "positions": [
                -0.5829244498885318,
                -1.7319682136654824,
                -1.147954233535086,
                0.488668615517729,
                0.5410093393727138,
                -0.5749105917294073
            ]
        },
        {
            "positions": [
                -0.511074587941344,
                -1.761359558934917,
                -1.2570255773985157,
                0.5707436965662291,
                0.5172677509372343,
                -0.49615254693954425
            ]
        },
        {
            "positions": [
                -0.4392247259941563,
                -1.7907509042043515,
                -1.3660969212619452,
                0.6528187776147291,
                0.49352616250175485,
                -0.41739450214968143
            ]
        },
        {
            "positions": [
                -0.3673748640469684,
                -1.8201422494737858,
                -1.4751682651253748,
                0.7348938586632291,
                0.46978457406627533,
                -0.3386364573598184
            ]
        },
        {
            "positions": [
                -0.29552500209978083,
                -1.84953359474322,
                -1.5842396089888042,
                0.8169689397117291,
                0.44604298563079586,
                -0.2598784125699556
            ]
        },
        {
            "positions": [
                -0.22367514015259293,
                -1.8789249400126546,
                -1.6933109528522339,
                0.8990440207602292,
                0.42230139719531634,
                -0.18112036778009255
            ]
        },
        {
            "positions": [
                -0.15182527820540503,
                -1.9083162852820892,
                -1.8023822967156635,
                0.9811191018087292,
                0.3985598087598369,
                -0.10236232299022952
            ]
        },
        {
            "positions": [
                -0.07997541625821736,
                -1.9377076305515235,
                -1.911453640579093,
                1.063194182857229,
                0.3748182203243574,
                -0.023604278200366702
            ]
        },
        {
            "positions": [
                -0.008125554311029681,
                -1.967098975820958,
                -2.0205249844425226,
                1.1452692639057291,
                0.3510766318888779,
                0.055153766589496334
            ]
        },
        {
            "positions": [
                0.063724307636158,
                -1.9964903210903926,
                -2.1295963283059516,
                1.2273443449542292,
                0.3273350434533984,
                0.13391181137935915
            ]
        },
        {
            "positions": [
                0.135574169583346,
                -2.025881666359827,
                -2.2386676721693815,
                1.3094194260027294,
                0.3035934550179189,
                0.21266985616922215
            ]
        },
        {
            "positions": [
                0.028716275404643915,
                -2.1094251582257764,
                -2.2908427649432594,
                1.353846453767937,
                0.26051328873932256,
                0.17142445318423188
            ]
        },
        {
            "positions": [
                -0.07814161877405817,
                -2.1929686500917254,
                -2.343017857717138,
                1.3982734815331446,
                0.21743312246072619,
                0.13017905019924164
            ]
        },
        {
            "positions": [
                -0.18499951295276026,
                -2.276512141957675,
                -2.395192950491016,
                1.4427005092983523,
                0.17435295618212981,
                0.08893364721425137
            ]
        }
    ]
}