{
    "goal": {
        "global_pose": {
            "orientation": {
                "w": -0.4816463035849501,
                "x": 0.5182115481033762,
                "y": 0.4908360881923453,
                "z": -0.5084816262002911
            },
            "position": {
                "x": -0.8240239810943604,
                "y": 0.19912469901144506,
                "z": 0.16403168439865112
            }
        },
        "name": "move_to_storage_D"
    },
    "id": "SBL_move_to_storage_D_10",
    "joint_names": [
        "shoulder_pan_joint",
        "shoulder_lift_joint",
        "elbow_joint",
        "wrist_1_joint",
        "wrist_2_joint",
        "wrist_3_joint"
    ],
    "metrics": {
        "cart_traj_len": 3.8277472772868406,
        "distance_elbow_joint": 4.216109636205418,
        "distance_shoulder_lift_joint": 1.2639675321679773,
        "distance_shoulder_pan_joint": 2.813098565668572,
        "distance_wrist_1_joint": 2.4494351432412644,
        "distance_wrist_2_joint": 1.03950901716982,
        "distance_wrist_3_joint": 3.14414339478869,
        "smoothness": 0.09019311806148393,
        "time": 0.480518682,
        "traj_len": 3.8634522501568127,
        "weighted_distance": 4.970260983009866
    },
    "planner": "SBL",
    "start": {
        "state": {
            "elbow_joint": -2.384821988534728,
            "shoulder_lift_joint": -2.2788054721415256,
            "shoulder_pan_joint": -0.1854694642142757,
            "wrist_1_joint": 1.4845938289331202,
            "wrist_2_joint": 0.17898776772866878,
            "wrist_3_joint": 0.037105688729662994
        }
    },
    "waypoints": [
        {
            "positions": [
                -0.1854694642142757,
                -2.2788054721415256,
                -2.384821988534728,
                1.4845938289331202,
                0.17898776772866878,
                0.037105688729662994
            ]
        },
        {
            "positions": [
                -0.10880324292949224,
                -2.1835421132044783,
                -2.36337904273397,
                1.3978994982634785,
                0.09658917992546401,
                0.062331113291823045
            ]
        },
        {
            "positions": [
                -0.03279849358430055,
                -2.1516341901271354,
                -2.249345007849796,
                1.3307602906228173,
                0.11803772620935006,
                0.14118202513234424
            ]
        },
        {
            "positions": [
                0.04320625576089114,
                -2.1197262670497925,
                -2.1353109729656223,
                1.2636210829821561,
                0.1394862724932361,
                0.22003293697286547
            ]
        },
        {
            "positions": [
                0.11921100510608283,
                -2.0878183439724496,
                -2.0212769380814484,
                1.196481875341495,
                0.16093481877712218,
                0.29888384881338664
            ]
        },
        {
            "positions": [
                0.19521575445127454,
                -2.0559104208951067,
                -1.9072429031972749,
                1.1293426677008338,
                0.18238336506100822,
                0.3777347606539079
            ]
        },
        {
            "positions": [
                0.27122050379646623,
                -2.0240024978177638,
                -1.793208868313101,
                1.0622034600601726,
                0.20383191134489428,
                0.4565856724944291
            ]
        },
        {
            "positions": [
                0.3472252531416579,
                -1.992094574740421,
                -1.6791748334289271,
                0.9950642524195115,
                0.22528045762878035,
                0.5354365843349502
            ]
        },
        {
            "positions": [
                0.42323000248684955,
                -1.9601866516630782,
                -1.5651407985447534,
                0.9279250447788503,
                0.2467290039126664,
                0.6142874961754714
            ]
        },
        {
            "positions": [
                0.4992347518320413,
                -1.9282787285857355,
                -1.4511067636605797,
                0.8607858371381891,
                0.26817755019655243,
                0.6931384080159927
            ]
        },
        {
            "positions": [
                0.5752395011772329,
                -1.8963708055083925,
                -1.337072728776406,
                0.793646629497528,
                0.28962609648043847,
                0.7719893198565139
            ]
        },
        {
            "positions": [
                0.6512442505224246,
                -1.8644628824310496,
                -1.2230386938922322,
                0.7265074218568668,
                0.31107464276432456,
                0.8508402316970352
            ]
        },
        {
            "positions": [
                0.7272489998676164,
                -1.8325549593537067,
                -1.1090046590080582,
                0.6593682142162056,
                0.33252318904821065,
                0.9296911435375563
            ]
        },
        {
            "positions": [
                0.803253749212808,
                -1.8006470362763638,
                -0.9949706241238845,
                0.5922290065755444,
                0.3539717353320967,
                1.0085420553780775
            ]
        },
        {
            "positions": [
                0.8792584985579996,
                -1.7687391131990209,
                -0.880936589239711,
                0.5250897989348834,
                0.3754202816159827,
                1.0873929672185985
            ]
        },
        {
            "positions": [
                0.9552632479031913,
                -1.736831190121678,
                -0.7669025543555372,
                0.4579505912942221,
                0.39686882789986877,
                1.1662438790591196
            ]
        },
        {
            "positions": [
                1.031267997248383,
                -1.7049232670443353,
                -0.6528685194713633,
                0.39081138365356094,
                0.4183173741837548,
                1.245094790899641
            ]
        },
        {
            "positions": [
                1.1072727465935748,
                -1.6730153439669924,
                -0.5388344845871895,
                0.32367217601289977,
                0.4397659204676409,
                1.3239457027401622
            ]
        },
        {
            "positions": [
                1.1832774959387664,
                -1.6411074208896494,
                -0.4248004497030158,
                0.2565329683722386,
                0.46121446675152694,
                1.4027966145806834
            ]
        },
        {
            "positions": [
                1.259282245283958,
                -1.6091994978123065,
                -0.31076641481884204,
                0.18939376073157743,
                0.482663013035413,
                1.4816475264212046
            ]
        },
        {
            "positions": [
                1.33528699462915,
                -1.5772915747349638,
                -0.19673237993466808,
                0.12225455309091626,
                0.5041115593192991,
                1.5604984382617257
            ]
        },
        {
            "positions": [
                1.4112917439743415,
                -1.545383651657621,
                -0.08269834505049456,
                0.05511534545025509,
                0.5255601056031851,
                1.6393493501022471
            ]
        },
        {
            "positions": [
                1.4872964933195332,
                -1.513475728580278,
                0.0313356898336794,
                -0.012023862190406076,
                0.5470086518870712,
                1.7182002619427683
            ]
        },
        {
            "positions": [
                1.563301242664725,
                -1.481567805502935,
                0.14536972471785337,
                -0.07916306983106725,
                0.5684571981709572,
                1.7970511737832895
            ]
        },
        {
            "positions": [
                1.6393059920099167,
                -1.4496598824255922,
                0.2594037596020269,
                -0.14630227747172841,
                0.5899057444548432,
                1.8759020856238107
            ]
        },
        {
            "positions": [
                1.7153107413551083,
                -1.4177519593482493,
                0.37343779448620085,
                -0.21344148511238958,
                0.6113542907387294,
                1.9547529974643318
            ]
        },
        {
            "positions": [
                1.7913154907003,
                -1.3858440362709064,
                0.48747182937037437,
                -0.280580692753051,
                0.6328028370226154,
                2.0336039093048535
            ]
        },
        {
            "positions": [
                1.8673202400454916,
                -1.3539361131935637,
                0.6015058642545479,
                -0.3477199003937117,
                0.6542513833065013,
                2.112454821145374
            ]
        },
        {
            "positions": [
                1.943324989390683,
                -1.3220281901162207,
                0.7155398991387218,
                -0.4148591080343731,
                0.6756999295903875,
                2.1913057329858954
            ]
        },
        {
            "positions": [
                2.019329738735875,
                -1.2901202670388778,
                0.8295739340228954,
                -0.48199831567503426,
                0.6971484758742735,
                2.2701566448264163
            ]
        },
        {
            "positions": [
                2.095334488081067,
                -1.2582123439615351,
                0.9436079689070693,
                -0.5491375233156954,
                0.7185970221581596,
                2.3490075566669377
            ]
        },
        {
            "positions": [
                2.1713392374262583,
                -1.2263044208841922,
                1.0576420037912433,
                -0.6162767309563566,
                0.7400455684420456,
                2.427858468507459
            ]
        },
        {
            "positions": [
                2.24734398677145,
                -1.1943964978068493,
                1.1716760386754168,
                -0.6834159385970178,
                0.7614941147259316,
                2.50670938034798
            ]
        },
        {
            "positions": [
                2.323348736116642,
                -1.1624885747295064,
                1.2857100735595908,
                -0.7505551462376789,
                0.7829426610098178,
                2.5855602921885015
            ]
        },
        {
            "positions": [
                2.3993534854618335,
                -1.1305806516521635,
                1.3997441084437643,
                -0.8176943538783401,
                0.8043912072937038,
                2.6644112040290224
            ]
        },
        {
            "positions": [
                2.4753582348070253,
                -1.0986727285748206,
                1.5137781433279383,
                -0.8848335615190015,
                0.8258397535775899,
                2.743262115869544
            ]
        },
        {
            "positions": [
                2.513425951468843,
                -1.0777140314245024,
                1.5931555194136262,
                -0.8648316233217158,
                0.8828047175062121,
                2.852758857781746
            ]
        },
        {
            "positions": [
                2.551493668130661,
                -1.0567553342741844,
                1.672532895499314,
                -0.8448296851244301,
                0.9397696814348345,
                2.9622555996939486
            ]
        },
        {
            "positions": [
                2.589561384792479,
                -1.0357966371238665,
                1.7519102715850017,
                -0.8248277469271446,
                0.9967346453634569,
                3.0717523416061505
            ]
        },
        {
            "positions": [
                2.6276291014542967,
                -1.0148379399735483,
                1.8312876476706896,
                -0.8048258087298589,
                1.0536996092920792,
                3.181249083518353
            ]
        }
    ]
}