{
    "goal": {
        "global_pose": {
            "orientation": {
                "w": 0.7031023502349854,
                "x": -0.7110244035720825,
                "y": 0.007748599164187908,
                "z": 0.005598929710686207
            },
            "position": {
                "x": 0.11585023208521307,
                "y": 0.44412534475326537,
                "z": 0.3711530566215515
            }
        },
        "name": "move_to_auspresseinheit_A"
    },
    "id": "SBL_move_to_auspresseinheit_A_72",
    "joint_names": [
        "shoulder_pan_joint",
        "shoulder_lift_joint",
        "elbow_joint",
        "wrist_1_joint",
        "wrist_2_joint",
        "wrist_3_joint"
    ],
    "metrics": {
        "cart_traj_len": 0.8993384096379581,
        "distance_elbow_joint": 0.8418474297506422,
        "distance_shoulder_lift_joint": 0.534180292977096,
        "distance_shoulder_pan_joint": 1.0396622401824298,
        "distance_wrist_1_joint": 2.024180927096735,
        "distance_wrist_2_joint": 1.2176802838202476,
        "distance_wrist_3_joint": 0.7937414508028211,
        "smoothness": 1.1295661284258767,
        "time": 0.22681695200000002,
        "traj_len": 2.5399394923166914,
        "weighted_distance": 3.3586659162757755
    },
    "planner": "SBL",
    "start": {
        "state": {
            "elbow_joint": 2.4225746658250005,
            "shoulder_lift_joint": -1.3736534386056498,
            "shoulder_pan_joint": -0.3378633547517467,
            "wrist_1_joint": -1.0288598680537169,
            "wrist_2_joint": 1.233022673432363,
            "wrist_3_joint": -3.0940220416140027
        }
    },
    "waypoints": [
        {
            "positions": [
                -0.3378633547517467,
                -1.3736534386056498,
                2.4225746658250005,
                -1.0288598680537169,
                1.233022673432363,
                -3.0940220416140027
            ]
        },
        {
            "positions": [
                -0.31689756886723675,
                -1.4159448849284533,
                2.378958855608649,
                -0.8992834712300827,
                1.1452612424897906,
                -3.056781595085265
            ]
        },
        {
            "positions": [
                -0.2959317829827268,
                -1.4582363312512565,
                2.3353430453922974,
                -0.7697070744064485,
                1.0574998115472178,
                -3.0195411485565273
            ]
        },
        {
            "positions": [
                -0.27496599709821684,
                -1.50052777757406,
                2.291727235175946,
                -0.6401306775828144,
                0.9697383806046452,
                -2.9823007020277896
            ]
        },
        {
            "positions": [
                -0.25400021121370686,
                -1.5428192238968634,
                2.248111424959595,
                -0.5105542807591802,
                0.8819769496620726,
                -2.945060255499052
            ]
        },
        {
            "positions": [
                -0.23303442532919688,
                -1.5851106702196667,
                2.2044956147432435,
                -0.380977883935546,
                0.7942155187195,
                -2.9078198089703147
            ]
        },
        {
            "positions": [
                -0.21206863944468693,
                -1.6274021165424701,
                2.1608798045268918,
                -0.2514014871119118,
                0.7064540877769274,
                -2.870579362441577
            ]
        },
        {
            "positions": [
                -0.19110285356017698,
                -1.6696935628652736,
                2.1172639943105405,
                -0.1218250902882777,
                0.6186926568343548,
                -2.8333389159128393
            ]
        },
        {
            "positions": [
                -0.170137067675667,
                -1.711985009188077,
                2.073648184094189,
                0.007751306535356495,
                0.5309312258917822,
                -2.7960984693841016
            ]
        },
        {
            "positions": [
                -0.14917128179115702,
                -1.7542764555108803,
                2.0300323738778374,
                0.1373277033589908,
                0.4431697949492096,
                -2.758858022855364
            ]
        },
        {
            "positions": [
                -0.12820549590664707,
                -1.7965679018336838,
                1.9864165636614861,
                0.266904100182625,
                0.355408364006637,
                -2.721617576326626
            ]
        },
        {
            "positions": [
                -0.024454948239480814,
                -1.8104761305523165,
                2.0371277296098773,
                0.17585198032507587,
                0.3979166108059522,
                -2.774284699516057
            ]
        },
        {
            "positions": [
                0.07929559942768544,
                -1.8243843592709492,
                2.087838895558268,
                0.08479986046752674,
                0.4404248576052674,
                -2.826951822705487
            ]
        },
        {
            "positions": [
                0.1830461470948517,
                -1.838292587989582,
                2.138550061506659,
                -0.0062522593900223855,
                0.4829331044045826,
                -2.8796189458949177
            ]
        },
        {
            "positions": [
                0.28679669476201797,
                -1.8522008167082147,
                2.18926122745505,
                -0.09730437924757152,
                0.5254413512038978,
                -2.9322860690843484
            ]
        },
        {
            "positions": [
                0.39054724242918415,
                -1.8661090454268476,
                2.2399723934034412,
                -0.18835649910512064,
                0.567949598003213,
                -2.984953192273779
            ]
        },
        {
            "positions": [
                0.49429779009635044,
                -1.8800172741454804,
                2.290683559351832,
                -0.2794086189626698,
                0.6104578448025282,
                -3.0376203154632098
            ]
        },
        {
            "positions": [
                0.5980483377635166,
                -1.893925502864113,
                2.3413947253002227,
                -0.3704607388202189,
                0.6529660916018434,
                -3.09028743865264
            ]
        },
        {
            "positions": [
                0.7017988854306829,
                -1.9078337315827458,
                2.392105891248614,
                -0.46151285867776803,
                0.6954743384011586,
                -3.1429545618420707
            ]
        }
    ]
}