{
    "goal": {
        "global_pose": {
            "orientation": {
                "w": 0.7031023502349854,
                "x": -0.7110244035720825,
                "y": 0.007748599164187908,
                "z": 0.005598929710686207
            },
            "position": {
                "x": 0.11585023208521307,
                "y": 0.44412534475326537,
                "z": 0.3711530566215515
            }
        },
        "name": "move_to_auspresseinheit_A"
    },
    "id": "SBL_move_to_auspresseinheit_A_26",
    "joint_names": [
        "shoulder_pan_joint",
        "shoulder_lift_joint",
        "elbow_joint",
        "wrist_1_joint",
        "wrist_2_joint",
        "wrist_3_joint"
    ],
    "metrics": {
        "cart_traj_len": 0.6919711365947081,
        "distance_elbow_joint": 0.09947553265333076,
        "distance_shoulder_lift_joint": 0.5491172602112129,
        "distance_shoulder_pan_joint": 1.041768697574335,
        "distance_wrist_1_joint": 1.0387435514955823,
        "distance_wrist_2_joint": 0.6817518976891574,
        "distance_wrist_3_joint": 0.330863158652265,
        "smoothness": 1.5399409738664505,
        "time": 0.305436832,
        "traj_len": 1.9343526302812224,
        "weighted_distance": 2.474659949319331
    },
    "planner": "SBL",
    "start": {
        "state": {
            "elbow_joint": 2.4225746658250005,
            "shoulder_lift_joint": -1.3736534386056498,
            "shoulder_pan_joint": -0.3378633547517467,
            "wrist_1_joint": -1.0288598680537169,
            "wrist_2_joint": 1.233022673432363,
            "wrist_3_joint": -3.0940220416140027
        }
    },
    "waypoints": [
        {
            "positions": [
                -0.3378633547517467,
                -1.3736534386056498,
                2.4225746658250005,
                -1.0288598680537169,
                1.233022673432363,
                -3.0940220416140027
            ]
        },
        {
            "positions": [
                -0.21858429352039535,
                -1.4411465815402413,
                2.4142538956832094,
                -0.9280881775489711,
                1.1569059051441095,
                -3.076735716382447
            ]
        },
        {
            "positions": [
                -0.09930523228904398,
                -1.5086397244748329,
                2.405933125541418,
                -0.8273164870442254,
                1.080789136855856,
                -3.059449391150891
            ]
        },
        {
            "positions": [
                0.019973828942307426,
                -1.5761328674094244,
                2.3976123553996267,
                -0.7265447965394798,
                1.0046723685676024,
                -3.0421630659193353
            ]
        },
        {
            "positions": [
                0.13925289017365877,
                -1.6436260103440157,
                2.389291585257835,
                -0.625773106034734,
                0.9285556002793491,
                -3.0248767406877795
            ]
        },
        {
            "positions": [
                0.2585319514050101,
                -1.7111191532786072,
                2.380970815116044,
                -0.5250014155299882,
                0.8524388319910956,
                -3.007590415456224
            ]
        },
        {
            "positions": [
                0.3778110126363616,
                -1.7786122962131987,
                2.372650044974253,
                -0.4242297250252426,
                0.7763220637028421,
                -2.9903040902246683
            ]
        },
        {
            "positions": [
                0.4970900738677129,
                -1.8461054391477902,
                2.3643292748324614,
                -0.32345803452049693,
                0.7002052954145886,
                -2.9730177649931124
            ]
        },
        {
            "positions": [
                0.6163691350990643,
                -1.9135985820823818,
                2.3560085046906702,
                -0.22268634401575121,
                0.6240885271263351,
                -2.9557314397615566
            ]
        },
        {
            "positions": [
                0.6601372389608262,
                -1.9090125237151412,
                2.3724631904501705,
                -0.33897135774455955,
                0.6604974028178998,
                -3.052017718161466
            ]
        },
        {
            "positions": [
                0.7039053428225882,
                -1.9044264653479008,
                2.3889178762096708,
                -0.45525637147336795,
                0.6969062785094646,
                -3.1483039965613755
            ]
        }
    ]
}