{
    "goal": {
        "global_pose": {
            "orientation": {
                "w": -0.00223480608172531,
                "x": 0.0024358444001904467,
                "y": 0.7094548369677653,
                "z": -0.704743149386269
            },
            "position": {
                "x": 0.6205249238014221,
                "y": -0.6371506643295288,
                "z": 0.19426114857196808
            }
        },
        "name": "move_to_magneteinheit_B"
    },
    "id": "SBL_move_to_magneteinheit_B_52",
    "joint_names": [
        "shoulder_pan_joint",
        "shoulder_lift_joint",
        "elbow_joint",
        "wrist_1_joint",
        "wrist_2_joint",
        "wrist_3_joint"
    ],
    "metrics": {
        "cart_traj_len": 2.5401974238074634,
        "distance_elbow_joint": 3.22550919538127,
        "distance_shoulder_lift_joint": 0.758212472357445,
        "distance_shoulder_pan_joint": 1.6203834653631994,
        "distance_wrist_1_joint": 2.5844955646396786,
        "distance_wrist_2_joint": 1.5201918241471029,
        "distance_wrist_3_joint": 1.0079676802017792,
        "smoothness": 0.5491622371210992,
        "time": 0.194019356,
        "traj_len": 3.2736463159740508,
        "weighted_distance": 4.103338025471557
    },
    "planner": "SBL",
    "start": {
        "state": {
            "elbow_joint": 2.6216224122426386,
            "shoulder_lift_joint": -1.4174107377796124,
            "shoulder_pan_joint": 0.7066234856936794,
            "wrist_1_joint": 1.9546482284002225,
            "wrist_2_joint": -0.7096286983471962,
            "wrist_3_joint": 0.005740856962016249
        }
    },
    "waypoints": [
        {
            "positions": [
                0.7066234856936794,
                -1.4174107377796124,
                2.6216224122426386,
                1.9546482284002225,
                -0.7096286983471962,
                0.005740856962016249
            ]
        },
        {
            "positions": [
                0.6127252877376924,
                -1.4030476871338182,
                2.596119622498701,
                1.846522003444041,
                -0.7276422505131767,
                -0.001461413866257393
            ]
        },
        {
            "positions": [
                0.5188270897817054,
                -1.388684636488024,
                2.570616832754763,
                1.7383957784878596,
                -0.7456558026791571,
                -0.008663684694531035
            ]
        },
        {
            "positions": [
                0.5177190349023173,
                -1.383570424037038,
                2.366486198638977,
                1.6399071951108224,
                -0.7598808065681137,
                -0.05782512260073339
            ]
        },
        {
            "positions": [
                0.516610980022929,
                -1.3784562115860515,
                2.1623555645231907,
                1.5414186117337851,
                -0.7741058104570704,
                -0.10698656050693575
            ]
        },
        {
            "positions": [
                0.5155029251435409,
                -1.3733419991350653,
                1.9582249304074049,
                1.4429300283567479,
                -0.7883308143460271,
                -0.1561479984131381
            ]
        },
        {
            "positions": [
                0.5143948702641526,
                -1.368227786684079,
                1.7540942962916186,
                1.3444414449797106,
                -0.8025558182349838,
                -0.20530943631934045
            ]
        },
        {
            "positions": [
                0.5132868153847645,
                -1.3631135742330929,
                1.5499636621758324,
                1.2459528616026732,
                -0.8167808221239404,
                -0.2544708742255428
            ]
        },
        {
            "positions": [
                0.5121787605053764,
                -1.3579993617821065,
                1.3458330280600463,
                1.1474642782256361,
                -0.8310058260128971,
                -0.3036323121317452
            ]
        },
        {
            "positions": [
                0.5110707056259881,
                -1.3528851493311203,
                1.14170239394426,
                1.0489756948485986,
                -0.8452308299018537,
                -0.3527937500379475
            ]
        },
        {
            "positions": [
                0.5099626507466,
                -1.347770936880134,
                0.9375717598284738,
                0.9504871114715614,
                -0.8594558337908105,
                -0.4019551879441499
            ]
        },
        {
            "positions": [
                0.5088545958672117,
                -1.3426567244291476,
                0.7334411257126876,
                0.8519985280945241,
                -0.8736808376797671,
                -0.4511166258503522
            ]
        },
        {
            "positions": [
                0.5077465409878236,
                -1.3375425119781614,
                0.5293104915969017,
                0.7535099447174869,
                -0.8879058415687238,
                -0.5002780637565546
            ]
        },
        {
            "positions": [
                0.424128510360921,
                -1.2976399092395736,
                0.5959691548166389,
                0.8348839024208363,
                -0.9668419992702282,
                -0.4707516661398952
            ]
        },
        {
            "positions": [
                0.3405104797340184,
                -1.2577373065009856,
                0.6626278180363762,
                0.9162578601241859,
                -1.0457781569717326,
                -0.4412252685232359
            ]
        },
        {
            "positions": [
                0.25689244910711584,
                -1.2178347037623978,
                0.7292864812561134,
                0.9976318178275354,
                -1.124714314673237,
                -0.41169887090657653
            ]
        },
        {
            "positions": [
                0.17327441848021324,
                -1.17793210102381,
                0.7959451444758506,
                1.0790057755308848,
                -1.2036504723747414,
                -0.38217247328991716
            ]
        },
        {
            "positions": [
                0.08965638785331065,
                -1.138029498285222,
                0.8626038076955879,
                1.1603797332342343,
                -1.2825866300762458,
                -0.3526460756732578
            ]
        },
        {
            "positions": [
                0.006038357226408109,
                -1.0981268955466341,
                0.9292624709153251,
                1.2417536909375837,
                -1.3615227877777505,
                -0.32311967805659847
            ]
        },
        {
            "positions": [
                -0.07757967340049443,
                -1.0582242928080463,
                0.9959211341350623,
                1.3231276486409334,
                -1.440458945479255,
                -0.2935932804399391
            ]
        },
        {
            "positions": [
                -0.16119770402739708,
                -1.0183216900694583,
                1.0625797973547995,
                1.4045016063442828,
                -1.5193951031807593,
                -0.2640668828232797
            ]
        },
        {
            "positions": [
                -0.24481573465429962,
                -0.9784190873308705,
                1.1292384605745367,
                1.4858755640476322,
                -1.5983312608822637,
                -0.2345404852066204
            ]
        },
        {
            "positions": [
                -0.3284337652812023,
                -0.9385164845922825,
                1.195897123794274,
                1.5672495217509819,
                -1.6772674185837682,
                -0.20501408758996104
            ]
        },
        {
            "positions": [
                -0.4120517959081048,
                -0.8986138818536946,
                1.2625557870140112,
                1.6486234794543313,
                -1.7562035762852726,
                -0.17548768997330166
            ]
        },
        {
            "positions": [
                -0.49566982653500735,
                -0.8587112791151068,
                1.3292144502337484,
                1.7299974371576807,
                -1.835139733986777,
                -0.1459612923566423
            ]
        },
        {
            "positions": [
                -0.5792878571619099,
                -0.8188086763765189,
                1.3958731134534856,
                1.8113713948610302,
                -1.9140758916882812,
                -0.11643489473998297
            ]
        },
        {
            "positions": [
                -0.6629058877888124,
                -0.778906073637931,
                1.4625317766732229,
                1.8927453525643796,
                -1.9930120493897858,
                -0.0869084971233236
            ]
        },
        {
            "positions": [
                -0.746523918415715,
                -0.7390034708993432,
                1.52919043989296,
                1.974119310267729,
                -2.0719482070912902,
                -0.057382099506664286
            ]
        },
        {
            "positions": [
                -0.8301419490426177,
                -0.6991008681607552,
                1.5958491031126973,
                2.0554932679710785,
                -2.1508843647927947,
                -0.027855701890004914
            ]
        },
        {
            "positions": [
                -0.9137599796695202,
                -0.6591982654221673,
                1.6625077663324346,
                2.136867225674428,
                -2.229820522494299,
                0.0016706957266544539
            ]
        }
    ]
}