{
    "goal": {
        "global_pose": {
            "orientation": {
                "w": 0.5084816262002911,
                "x": -0.4908360881923452,
                "y": 0.5182115481033761,
                "z": -0.48164630358495003
            },
            "position": {
                "x": 0.5540239810943604,
                "y": -0.46912469901144505,
                "z": 0.16403168439865112
            }
        },
        "name": "move_to_storage_B"
    },
    "id": "SBL_move_to_storage_B_40",
    "joint_names": [
        "shoulder_pan_joint",
        "shoulder_lift_joint",
        "elbow_joint",
        "wrist_1_joint",
        "wrist_2_joint",
        "wrist_3_joint"
    ],
    "metrics": {
        "cart_traj_len": 4.797314085991721,
        "distance_elbow_joint": 5.069558766634016,
        "distance_shoulder_lift_joint": 1.359915368325554,
        "distance_shoulder_pan_joint": 3.755570066059575,
        "distance_wrist_1_joint": 1.8195942336403843,
        "distance_wrist_2_joint": 4.030514004409298,
        "distance_wrist_3_joint": 5.887947918744505,
        "smoothness": 0.26134989870844005,
        "time": 0.72345126,
        "traj_len": 4.6822110543858795,
        "weighted_distance": 6.288807870602506
    },
    "planner": "SBL",
    "start": {
        "state": {
            "elbow_joint": -1.6666013991110213,
            "shoulder_lift_joint": -2.479295265494141,
            "shoulder_pan_joint": 2.6606783912885628,
            "wrist_1_joint": 0.9897123657714939,
            "wrist_2_joint": 0.474351758749468,
            "wrist_3_joint": 0.013243222496468381
        }
    },
    "waypoints": [
        {
            "positions": [
                2.6606783912885628,
                -2.479295265494141,
                -1.6666013991110213,
                0.9897123657714939,
                0.474351758749468,
                0.013243222496468381
            ]
        },
        {
            "positions": [
                2.6240504034256222,
                -2.4482717701855785,
                -1.7052284493408338,
                0.9016383252005438,
                0.36218799549938074,
                0.08912067718420306
            ]
        },
        {
            "positions": [
                2.5874224155626813,
                -2.417248274877016,
                -1.7438554995706466,
                0.8135642846295937,
                0.25002423224929343,
                0.16499813187193776
            ]
        },
        {
            "positions": [
                2.5507944276997407,
                -2.3862247795684537,
                -1.782482549800459,
                0.7254902440586437,
                0.13786046899920612,
                0.24087558655967248
            ]
        },
        {
            "positions": [
                2.5141664398368,
                -2.3552012842598913,
                -1.8211096000302716,
                0.6374162034876936,
                0.025696705749118864,
                0.3167530412474071
            ]
        },
        {
            "positions": [
                2.4775384519738597,
                -2.324177788951329,
                -1.8597366502600843,
                0.5493421629167434,
                -0.0864670575009685,
                0.3926304959351419
            ]
        },
        {
            "positions": [
                2.4409104641109187,
                -2.2931542936427665,
                -1.8983637004898968,
                0.4612681223457934,
                -0.19863082075105576,
                0.46850795062287653
            ]
        },
        {
            "positions": [
                2.404282476247978,
                -2.262130798334204,
                -1.9369907507197095,
                0.37319408177484326,
                -0.310794584001143,
                0.5443854053106112
            ]
        },
        {
            "positions": [
                2.3676544883850377,
                -2.2311073030256416,
                -1.975617800949522,
                0.2851200412038932,
                -0.42295834725123027,
                0.6202628599983459
            ]
        },
        {
            "positions": [
                2.331026500522097,
                -2.2000838077170792,
                -2.0142448511793347,
                0.19704600063294309,
                -0.5351221105013176,
                0.6961403146860806
            ]
        },
        {
            "positions": [
                2.294398512659156,
                -2.169060312408517,
                -2.052871901409147,
                0.10897196006199295,
                -0.647285873751405,
                0.7720177693738154
            ]
        },
        {
            "positions": [
                2.2577705247962156,
                -2.1380368170999544,
                -2.0914989516389597,
                0.020897919491042805,
                -0.7594496370014924,
                0.84789522406155
            ]
        },
        {
            "positions": [
                2.221142536933275,
                -2.107013321791392,
                -2.1301260018687724,
                -0.06717612107990711,
                -0.8716134002515795,
                0.9237726787492847
            ]
        },
        {
            "positions": [
                2.184514549070334,
                -2.0759898264828296,
                -2.1687530520985847,
                -0.15525016165085725,
                -0.9837771635016669,
                0.9996501334370194
            ]
        },
        {
            "positions": [
                2.1478865612073936,
                -2.044966331174267,
                -2.2073801023283974,
                -0.2433242022218074,
                -1.0959409267517541,
                1.0755275881247541
            ]
        },
        {
            "positions": [
                2.111258573344453,
                -2.0139428358657048,
                -2.24600715255821,
                -0.33139824279275754,
                -1.2081046900018415,
                1.151405042812489
            ]
        },
        {
            "positions": [
                2.0746305854815126,
                -1.9829193405571424,
                -2.2846342027880224,
                -0.41947228336370745,
                -1.3202684532519284,
                1.2272824975002234
            ]
        },
        {
            "positions": [
                2.0380025976185716,
                -1.95189584524858,
                -2.323261253017835,
                -0.5075463239346576,
                -1.4324322165020158,
                1.3031599521879582
            ]
        },
        {
            "positions": [
                2.001374609755631,
                -1.9208723499400175,
                -2.361888303247648,
                -0.5956203645056076,
                -1.5445959797521034,
                1.379037406875693
            ]
        },
        {
            "positions": [
                1.9198939180575616,
                -1.8997804432881378,
                -2.246775885813506,
                -0.6017851409099045,
                -1.4916600253861105,
                1.2600333612345014
            ]
        },
        {
            "positions": [
                1.838413226359492,
                -1.878688536636258,
                -2.1316634683793643,
                -0.6079499173142013,
                -1.438724071020118,
                1.1410293155933098
            ]
        },
        {
            "positions": [
                1.7569325346614224,
                -1.8575966299843782,
                -2.0165510509452225,
                -0.6141146937184983,
                -1.385788116654125,
                1.0220252699521182
            ]
        },
        {
            "positions": [
                1.6754518429633527,
                -1.8365047233324985,
                -1.9014386335110807,
                -0.6202794701227952,
                -1.3328521622881322,
                0.9030212243109267
            ]
        },
        {
            "positions": [
                1.5939711512652832,
                -1.8154128166806187,
                -1.7863262160769389,
                -0.6264442465270921,
                -1.2799162079221396,
                0.7840171786697351
            ]
        },
        {
            "positions": [
                1.5124904595672137,
                -1.794320910028739,
                -1.671213798642797,
                -0.6326090229313889,
                -1.2269802535561467,
                0.6650131330285436
            ]
        },
        {
            "positions": [
                1.431009767869144,
                -1.7732290033768592,
                -1.5561013812086553,
                -0.6387737993356858,
                -1.1740442991901539,
                0.546009087387352
            ]
        },
        {
            "positions": [
                1.3495290761710745,
                -1.7521370967249794,
                -1.4409889637745135,
                -0.6449385757399827,
                -1.121108344824161,
                0.4270050417461604
            ]
        },
        {
            "positions": [
                1.2680483844730048,
                -1.7310451900730999,
                -1.3258765463403714,
                -0.6511033521442796,
                -1.0681723904581681,
                0.3080009961049688
            ]
        },
        {
            "positions": [
                1.1865676927749353,
                -1.70995328342122,
                -1.2107641289062296,
                -0.6572681285485764,
                -1.0152364360921755,
                0.18899695046377718
            ]
        },
        {
            "positions": [
                1.1050870010768656,
                -1.6888613767693403,
                -1.0956517114720878,
                -0.6634329049528733,
                -0.9623004817261827,
                0.06999290482258558
            ]
        },
        {
            "positions": [
                1.0236063093787962,
                -1.6677694701174606,
                -0.980539294037946,
                -0.6695976813571702,
                -0.9093645273601899,
                -0.0490111408186058
            ]
        },
        {
            "positions": [
                0.9421256176807264,
                -1.6466775634655808,
                -0.865426876603804,
                -0.6757624577614672,
                -0.8564285729941971,
                -0.16801518645979763
            ]
        },
        {
            "positions": [
                0.860644925982657,
                -1.625585656813701,
                -0.7503144591696624,
                -0.681927234165764,
                -0.8034926186282043,
                -0.287019232100989
            ]
        },
        {
            "positions": [
                0.7791642342845875,
                -1.6044937501618213,
                -0.6352020417355204,
                -0.6880920105700609,
                -0.7505566642622115,
                -0.40602327774218083
            ]
        },
        {
            "positions": [
                0.697683542586518,
                -1.5834018435099415,
                -0.5200896243013788,
                -0.6942567869743578,
                -0.6976207098962187,
                -0.5250273233833722
            ]
        },
        {
            "positions": [
                0.6162028508884483,
                -1.5623099368580617,
                -0.4049772068672368,
                -0.7004215633786546,
                -0.6446847555302259,
                -0.6440313690245638
            ]
        },
        {
            "positions": [
                0.5347221591903788,
                -1.541218030206182,
                -0.289864789433095,
                -0.7065863397829515,
                -0.5917488011642331,
                -0.7630354146657554
            ]
        },
        {
            "positions": [
                0.4532414674923091,
                -1.5201261235543022,
                -0.17475237199895322,
                -0.7127511161872484,
                -0.5388128467982403,
                -0.882039460306947
            ]
        },
        {
            "positions": [
                0.3717607757942396,
                -1.4990342169024224,
                -0.059639954564811415,
                -0.7189158925915453,
                -0.48587689243224763,
                -1.0010435059481386
            ]
        },
        {
            "positions": [
                0.2902800840961697,
                -1.4779423102505427,
                0.05547246286933083,
                -0.7250806689958422,
                -0.43294093806625455,
                -1.1200475515893302
            ]
        },
        {
            "positions": [
                0.2087993923981002,
                -1.456850403598663,
                0.17058488030347219,
                -0.731245445400139,
                -0.3800049837002619,
                -1.2390515972305218
            ]
        },
        {
            "positions": [
                0.1273187007000307,
                -1.4357584969467831,
                0.285697297737614,
                -0.7374102218044359,
                -0.32706902933426907,
                -1.3580556428717134
            ]
        },
        {
            "positions": [
                0.04583800900196122,
                -1.4146665902949036,
                0.4008097151717558,
                -0.7435749982087327,
                -0.27413307496827644,
                -1.4770596885129046
            ]
        },
        {
            "positions": [
                -0.03564268269610871,
                -1.3935746836430236,
                0.515922132605898,
                -0.7497397746130297,
                -0.22119712060228336,
                -1.5960637341540966
            ]
        },
        {
            "positions": [
                -0.11712337439417819,
                -1.372482776991144,
                0.6310345500400398,
                -0.7559045510173266,
                -0.16826116623629073,
                -1.7150677797952882
            ]
        },
        {
            "positions": [
                -0.19860406609224768,
                -1.351390870339264,
                0.7461469674741812,
                -0.7620693274216235,
                -0.11532521187029787,
                -1.8340718254364794
            ]
        },
        {
            "positions": [
                -0.28008475779031716,
                -1.3302989636873845,
                0.861259384908323,
                -0.7682341038259204,
                -0.06238925750430524,
                -1.953075871077671
            ]
        },
        {
            "positions": [
                -0.36156544948838665,
                -1.3092070570355046,
                0.9763718023424652,
                -0.7743988802302173,
                -0.009453303138312164,
                -2.072079916718863
            ]
        },
        {
            "positions": [
                -0.44304614118645613,
                -1.288115150383625,
                1.091484219776607,
                -0.7805636566345141,
                0.04348265122768047,
                -2.1910839623600546
            ]
        },
        {
            "positions": [
                -0.5245268328845256,
                -1.267023243731745,
                1.2065966372107484,
                -0.786728433038811,
                0.09641860559367332,
                -2.310088008001246
            ]
        },
        {
            "positions": [
                -0.6060075245825951,
                -1.2459313370798655,
                1.3217090546448902,
                -0.7928932094431078,
                0.14935455995966596,
                -2.4290920536424374
            ]
        },
        {
            "positions": [
                -0.687488216280665,
                -1.2248394304279855,
                1.4368214720790324,
                -0.7990579858474047,
                0.20229051432565903,
                -2.5480960992836295
            ]
        },
        {
            "positions": [
                -0.7689689079787345,
                -1.203747523776106,
                1.5519338895131742,
                -0.8052227622517016,
                0.25522646869165166,
                -2.6671001449248206
            ]
        },
        {
            "positions": [
                -0.850449599676804,
                -1.1826556171242262,
                1.6670463069473156,
                -0.8113875386559986,
                0.3081624230576445,
                -2.786104190566012
            ]
        },
        {
            "positions": [
                -0.9319302913748735,
                -1.1615637104723464,
                1.7821587243814578,
                -0.8175523150602955,
                0.36109837742363715,
                -2.905108236207204
            ]
        },
        {
            "positions": [
                -1.0134109830729434,
                -1.1404718038204666,
                1.8972711418156,
                -0.8237170914645923,
                0.41403433178963023,
                -3.0241122818483954
            ]
        },
        {
            "positions": [
                -1.094891674771013,
                -1.1193798971685869,
                2.0123835592497414,
                -0.8298818678688892,
                0.4669702861556227,
                -3.143116327489587
            ]
        }
    ]
}