{
    "goal": {
        "global_pose": {
            "orientation": {
                "w": -0.4816463035849501,
                "x": 0.5182115481033762,
                "y": 0.4908360881923453,
                "z": -0.5084816262002911
            },
            "position": {
                "x": -0.8240239810943604,
                "y": -0.300875300988555,
                "z": 0.16403168439865112
            }
        },
        "name": "move_to_storage_C"
    },
    "id": "SBL_move_to_storage_C_105",
    "joint_names": [
        "shoulder_pan_joint",
        "shoulder_lift_joint",
        "elbow_joint",
        "wrist_1_joint",
        "wrist_2_joint",
        "wrist_3_joint"
    ],
    "metrics": {
        "cart_traj_len": 0.5760460861208802,
        "distance_elbow_joint": 0.2558431657042155,
        "distance_shoulder_lift_joint": 0.1900096143725798,
        "distance_shoulder_pan_joint": 0.49277785911845173,
        "distance_wrist_1_joint": 0.06687255807807957,
        "distance_wrist_2_joint": 1.0761135243742266,
        "distance_wrist_3_joint": 0.07159025350332593,
        "smoothness": 5.075305295617109e-16,
        "time": 0.582336812,
        "traj_len": 1.4673809918187162,
        "weighted_distance": 1.8545548157468512
    },
    "planner": "SBL",
    "start": {
        "state": {
            "elbow_joint": 2.010868314990456,
            "shoulder_lift_joint": -1.1634956873337592,
            "shoulder_pan_joint": -2.4736205022346125,
            "wrist_1_joint": -0.8367026794202681,
            "wrist_2_joint": 0.6746043897044499,
            "wrist_3_joint": -3.1496632123970403
        }
    },
    "waypoints": [
        {
            "positions": [
                -2.4736205022346125,
                -1.1634956873337592,
                2.010868314990456,
                -0.8367026794202681,
                0.6746043897044499,
                -3.1496632123970403
            ]
        },
        {
            "positions": [
                -2.555750145421021,
                -1.1318274182716626,
                1.9682277873730865,
                -0.8255572530739215,
                0.853956643766821,
                -3.137731503479819
            ]
        },
        {
            "positions": [
                -2.63787978860743,
                -1.100159149209566,
                1.9255872597557173,
                -0.814411826727575,
                1.0333088978291922,
                -3.125799794562598
            ]
        },
        {
            "positions": [
                -2.720009431793838,
                -1.0684908801474693,
                1.8829467321383482,
                -0.8032664003812283,
                1.212661151891563,
                -3.113868085645377
            ]
        },
        {
            "positions": [
                -2.802139074980247,
                -1.0368226110853727,
                1.8403062045209788,
                -0.7921209740348817,
                1.3920134059539344,
                -3.1019363767281565
            ]
        },
        {
            "positions": [
                -2.8842687181666555,
                -1.005154342023276,
                1.7976656769036095,
                -0.7809755476885352,
                1.5713656600163053,
                -3.0900046678109354
            ]
        },
        {
            "positions": [
                -2.9663983613530642,
                -0.9734860729611794,
                1.7550251492862403,
                -0.7698301213421885,
                1.7507179140786766,
                -3.0780729588937144
            ]
        }
    ]
}