{
    "goal": {
        "global_pose": {
            "orientation": {
                "w": 0.5084816217422485,
                "x": -0.49083608388900757,
                "y": 0.5182115435600281,
                "z": -0.4816462993621826
            },
            "position": {
                "x": 0.5540239810943604,
                "y": 0.030875300988554955,
                "z": 0.16403168439865112
            }
        },
        "name": "move_to_storage_A"
    },
    "id": "SBL_move_to_storage_A_121",
    "joint_names": [
        "shoulder_pan_joint",
        "shoulder_lift_joint",
        "elbow_joint",
        "wrist_1_joint",
        "wrist_2_joint",
        "wrist_3_joint"
    ],
    "metrics": {
        "cart_traj_len": 0.3535169605966907,
        "distance_elbow_joint": 0.44887441965038555,
        "distance_shoulder_lift_joint": 0.23294183254025125,
        "distance_shoulder_pan_joint": 0.4626159842032343,
        "distance_wrist_1_joint": 0.24313162240274955,
        "distance_wrist_2_joint": 1.0970474505693053,
        "distance_wrist_3_joint": 0.10584192073470877,
        "smoothness": 6.661338165333112e-16,
        "time": 0.302021081,
        "traj_len": 1.6094884995241918,
        "weighted_distance": 2.035268076824797
    },
    "planner": "SBL",
    "start": {
        "state": {
            "elbow_joint": 1.9715481507254546,
            "shoulder_lift_joint": -1.1394850672790213,
            "shoulder_pan_joint": 0.12281154597544902,
            "wrist_1_joint": -0.7804720171073349,
            "wrist_2_joint": 0.12958658322886563,
            "wrist_3_joint": -3.1924895760937617
        }
    },
    "waypoints": [
        {
            "positions": [
                0.12281154597544902,
                -1.1394850672790213,
                1.9715481507254546,
                -0.7804720171073349,
                0.12958658322886563,
                -3.1924895760937617
            ]
        },
        {
            "positions": [
                0.05672354823212984,
                -1.1727624719276286,
                2.035673067818367,
                -0.8152051060220135,
                0.2863076475959092,
                -3.177369301703089
            ]
        },
        {
            "positions": [
                -0.009364449511189338,
                -1.206039876576236,
                2.099797984911279,
                -0.849938194936692,
                0.44302871196295285,
                -3.1622490273124164
            ]
        },
        {
            "positions": [
                -0.07545244725450853,
                -1.2393172812248432,
                2.1639229020041912,
                -0.8846712838513704,
                0.5997497763299964,
                -3.1471287529217435
            ]
        },
        {
            "positions": [
                -0.1415404449978277,
                -1.2725946858734507,
                2.2280478190971036,
                -0.9194043727660489,
                0.7564708406970401,
                -3.132008478531071
            ]
        },
        {
            "positions": [
                -0.2076284427411469,
                -1.305872090522058,
                2.292172736190016,
                -0.9541374616807274,
                0.9131919050640838,
                -3.1168882041403982
            ]
        },
        {
            "positions": [
                -0.2737164404844661,
                -1.3391494951706653,
                2.356297653282928,
                -0.988870550595406,
                1.0699129694311273,
                -3.101767929749726
            ]
        },
        {
            "positions": [
                -0.3398044382277853,
                -1.3724268998192726,
                2.42042257037584,
                -1.0236036395100845,
                1.226634033798171,
                -3.086647655359053
            ]
        }
    ]
}