{
    "goal": {
        "global_pose": {
            "orientation": {
                "w": -0.4816463035849501,
                "x": 0.5182115481033762,
                "y": 0.4908360881923453,
                "z": -0.5084816262002911
            },
            "position": {
                "x": -0.8240239810943604,
                "y": -0.300875300988555,
                "z": 0.16403168439865112
            }
        },
        "name": "move_to_storage_C"
    },
    "id": "SBL_move_to_storage_C_110",
    "joint_names": [
        "shoulder_pan_joint",
        "shoulder_lift_joint",
        "elbow_joint",
        "wrist_1_joint",
        "wrist_2_joint",
        "wrist_3_joint"
    ],
    "metrics": {
        "cart_traj_len": 0.5764492343882884,
        "distance_elbow_joint": 0.2567653289635068,
        "distance_shoulder_lift_joint": 0.18786991482179027,
        "distance_shoulder_pan_joint": 0.4959146653172106,
        "distance_wrist_1_joint": 0.07687862760248465,
        "distance_wrist_2_joint": 1.0591860123804828,
        "distance_wrist_3_joint": 0.06522859792712188,
        "smoothness": 0.0,
        "time": 0.46839682099999996,
        "traj_len": 1.4635037229240644,
        "weighted_distance": 1.8461757724685395
    },
    "planner": "SBL",
    "start": {
        "state": {
            "elbow_joint": 2.010868314990456,
            "shoulder_lift_joint": -1.1634956873337592,
            "shoulder_pan_joint": -2.4736205022346125,
            "wrist_1_joint": -0.8367026794202681,
            "wrist_2_joint": 0.6746043897044499,
            "wrist_3_joint": -3.1496632123970403
        }
    },
    "waypoints": [
        {
            "positions": [
                -2.4736205022346125,
                -1.1634956873337592,
                2.010868314990456,
                -0.8367026794202681,
                0.6746043897044499,
                -3.1496632123970403
            ]
        },
        {
            "positions": [
                -2.556272946454148,
                -1.1321840348634609,
                1.968074093496538,
                -0.823889574819854,
                0.8511353917678637,
                -3.1387917794091864
            ]
        },
        {
            "positions": [
                -2.6389253906736827,
                -1.1008723823931623,
                1.9252798720026203,
                -0.8110764702194398,
                1.0276663938312776,
                -3.127920346421333
            ]
        },
        {
            "positions": [
                -2.7215778348932176,
                -1.069560729922864,
                1.8824856505087024,
                -0.7982633656190258,
                1.2041973958946914,
                -3.1170489134334796
            ]
        },
        {
            "positions": [
                -2.804230279112753,
                -1.0382490774525657,
                1.8396914290147846,
                -0.7854502610186117,
                1.380728397958105,
                -3.1061774804456257
            ]
        },
        {
            "positions": [
                -2.8868827233322882,
                -1.0069374249822673,
                1.796897207520867,
                -0.7726371564181975,
                1.557259400021519,
                -3.095306047457772
            ]
        },
        {
            "positions": [
                -2.969535167551823,
                -0.9756257725119689,
                1.754102986026949,
                -0.7598240518177835,
                1.7337904020849326,
                -3.0844346144699184
            ]
        }
    ]
}