{
    "goal": {
        "global_pose": {
            "orientation": {
                "w": 0.7047431493862688,
                "x": -0.7094548369677653,
                "y": 0.0024358444001904,
                "z": -0.0022348060817251984
            },
            "position": {
                "x": -0.39052492380142206,
                "y": 0.3671506643295288,
                "z": 0.19426114857196808
            }
        },
        "name": "move_to_magneteinheit_D"
    },
    "id": "SBL_move_to_magneteinheit_D_150",
    "joint_names": [
        "shoulder_pan_joint",
        "shoulder_lift_joint",
        "elbow_joint",
        "wrist_1_joint",
        "wrist_2_joint",
        "wrist_3_joint"
    ],
    "metrics": {
        "cart_traj_len": 4.554084442944151,
        "distance_elbow_joint": 3.5176725343421897,
        "distance_shoulder_lift_joint": 1.4405312545820397,
        "distance_shoulder_pan_joint": 4.677216585766723,
        "distance_wrist_1_joint": 2.4438522175390185,
        "distance_wrist_2_joint": 2.0220560285350064,
        "distance_wrist_3_joint": 6.369811241308108,
        "smoothness": 0.325777211070185,
        "time": 0.404270015,
        "traj_len": 4.524504377506234,
        "weighted_distance": 6.138132500261244
    },
    "planner": "SBL",
    "start": {
        "state": {
            "elbow_joint": 0.749534889911806,
            "shoulder_lift_joint": -0.6476975780787326,
            "shoulder_pan_joint": -2.711696901376241,
            "wrist_1_joint": -0.07506478083263063,
            "wrist_2_joint": 0.43296659715538205,
            "wrist_3_joint": -3.14703540197715
        }
    },
    "waypoints": [
        {
            "positions": [
                -2.711696901376241,
                -0.6476975780787326,
                0.749534889911806,
                -0.07506478083263063,
                0.43296659715538205,
                -3.14703540197715
            ]
        },
        {
            "positions": [
                -2.716868047871351,
                -0.6930214885228745,
                0.7746493056322673,
                -0.045374884032463175,
                0.4541236328726722,
                -3.032179595510874
            ]
        },
        {
            "positions": [
                -2.7220391943664612,
                -0.7383453989670165,
                0.7997637213527287,
                -0.015684987232295722,
                0.47528066858996243,
                -2.917323789044598
            ]
        },
        {
            "positions": [
                -2.725200709944449,
                -0.8220779679838134,
                0.8398690304938112,
                0.001414062789082099,
                0.47981706368029436,
                -2.7460468761302113
            ]
        },
        {
            "positions": [
                -2.728362225522437,
                -0.9058105370006104,
                0.8799743396348937,
                0.01851311281045992,
                0.4843534587706263,
                -2.5747699632158243
            ]
        },
        {
            "positions": [
                -2.731523741100425,
                -0.9895431060174074,
                0.9200796487759761,
                0.03561216283183774,
                0.48888985386095823,
                -2.4034930503014373
            ]
        },
        {
            "positions": [
                -2.734685256678413,
                -1.0732756750342043,
                0.9601849579170587,
                0.05271121285321556,
                0.49342624895129017,
                -2.2322161373870504
            ]
        },
        {
            "positions": [
                -2.6423590285385288,
                -1.068989758336423,
                0.8768109988755023,
                -0.0017846992327379824,
                0.4595424045655545,
                -2.110378963638266
            ]
        },
        {
            "positions": [
                -2.550032800398645,
                -1.0647038416386414,
                0.7934370398339458,
                -0.056280611318691526,
                0.42565856017981885,
                -1.9885417898894813
            ]
        },
        {
            "positions": [
                -2.4577065722587608,
                -1.06041792494086,
                0.7100630807923893,
                -0.11077652340464508,
                0.3917747157940832,
                -1.8667046161406968
            ]
        },
        {
            "positions": [
                -2.3653803441188765,
                -1.0561320082430787,
                0.6266891217508328,
                -0.1652724354905986,
                0.3578908714083475,
                -1.7448674423919124
            ]
        },
        {
            "positions": [
                -2.2730541159789923,
                -1.0518460915452972,
                0.5433151627092764,
                -0.21976834757655211,
                0.32400702702261186,
                -1.6230302686431277
            ]
        },
        {
            "positions": [
                -2.180727887839108,
                -1.0475601748475158,
                0.45994120366771984,
                -0.2742642596625057,
                0.29012318263687614,
                -1.5011930948943433
            ]
        },
        {
            "positions": [
                -2.0884016596992243,
                -1.0432742581497345,
                0.3765672446261634,
                -0.32876017174845923,
                0.25623933825114054,
                -1.3793559211455588
            ]
        },
        {
            "positions": [
                -1.99607543155934,
                -1.038988341451953,
                0.293193285584607,
                -0.3832560838344128,
                0.22235549386540482,
                -1.2575187473967744
            ]
        },
        {
            "positions": [
                -1.9037492034194559,
                -1.0347024247541716,
                0.20981932654305047,
                -0.43775199592036634,
                0.18847164947966916,
                -1.1356815736479897
            ]
        },
        {
            "positions": [
                -1.8114229752795719,
                -1.0304165080563903,
                0.12644536750149404,
                -0.4922479080063198,
                0.15458780509393355,
                -1.0138443998992053
            ]
        },
        {
            "positions": [
                -1.7190967471396876,
                -1.0261305913586087,
                0.04307140845993751,
                -0.5467438200922734,
                0.12070396070819783,
                -0.8920072261504208
            ]
        },
        {
            "positions": [
                -1.6267705189998034,
                -1.0218446746608274,
                -0.04030255058161902,
                -0.601239732178227,
                0.08682011632246212,
                -0.7701700524016362
            ]
        },
        {
            "positions": [
                -1.5344442908599194,
                -1.017558757963046,
                -0.12367650962317533,
                -0.6557356442641805,
                0.05293627193672651,
                -0.6483328786528517
            ]
        },
        {
            "positions": [
                -1.4421180627200352,
                -1.0132728412652645,
                -0.20705046866473187,
                -0.710231556350134,
                0.019052427550990847,
                -0.5264957049040673
            ]
        },
        {
            "positions": [
                -1.3497918345801512,
                -1.0089869245674832,
                -0.2904244277062884,
                -0.7647274684360876,
                -0.01483141683474487,
                -0.4046585311552826
            ]
        },
        {
            "positions": [
                -1.2574656064402672,
                -1.0047010078697018,
                -0.3737983867478447,
                -0.8192233805220411,
                -0.04871526122048053,
                -0.28282135740649816
            ]
        },
        {
            "positions": [
                -1.165139378300383,
                -1.0004150911719203,
                -0.45717234578940125,
                -0.8737192926079947,
                -0.0825991056062162,
                -0.1609841836577135
            ]
        },
        {
            "positions": [
                -1.0728131501604987,
                -0.996129174474139,
                -0.5405463048309578,
                -0.9282152046939482,
                -0.11648294999195186,
                -0.039147009908929054
            ]
        },
        {
            "positions": [
                -0.9804869220206147,
                -0.9918432577763575,
                -0.6239202638725141,
                -0.9827111167799017,
                -0.15036679437768752,
                0.08269016383985539
            ]
        },
        {
            "positions": [
                -0.8881606938807307,
                -0.9875573410785762,
                -0.7072942229140706,
                -1.037207028865855,
                -0.18425063876342307,
                0.20452733758863983
            ]
        },
        {
            "positions": [
                -0.7958344657408465,
                -0.9832714243807947,
                -0.7906681819556272,
                -1.0917029409518086,
                -0.21813448314915884,
                0.3263645113374243
            ]
        },
        {
            "positions": [
                -0.7035082376009623,
                -0.9789855076830133,
                -0.8740421409971837,
                -1.1461988530377623,
                -0.2520183275348945,
                0.4482016850862087
            ]
        },
        {
            "positions": [
                -0.611182009461078,
                -0.974699590985232,
                -0.9574161000387402,
                -1.2006947651237159,
                -0.28590217192063017,
                0.5700388588349936
            ]
        },
        {
            "positions": [
                -0.5188557813211938,
                -0.9704136742874505,
                -1.0407900590802968,
                -1.2551906772096695,
                -0.31978601630636594,
                0.6918760325837781
            ]
        },
        {
            "positions": [
                -0.4265295531813096,
                -0.9661277575896691,
                -1.124164018121853,
                -1.309686589295623,
                -0.3536698606921016,
                0.8137132063325625
            ]
        },
        {
            "positions": [
                -0.3342033250414258,
                -0.9618418408918877,
                -1.2075379771634094,
                -1.3641825013815767,
                -0.38755370507783715,
                0.9355503800813469
            ]
        },
        {
            "positions": [
                -0.24187709690154158,
                -0.9575559241941063,
                -1.2909119362049661,
                -1.4186784134675303,
                -0.4214375494635728,
                1.0573875538301314
            ]
        },
        {
            "positions": [
                -0.14955086876165735,
                -0.9532700074963248,
                -1.3742858952465224,
                -1.4731743255534835,
                -0.4553213938493085,
                1.1792247275789158
            ]
        },
        {
            "positions": [
                -0.05722464062177357,
                -0.9489840907985435,
                -1.4576598542880792,
                -1.527670237639437,
                -0.48920523823504425,
                1.3010619013277007
            ]
        },
        {
            "positions": [
                0.035101587518110655,
                -0.9446981741007621,
                -1.5410338133296355,
                -1.5821661497253907,
                -0.5230890826207799,
                1.4228990750764852
            ]
        },
        {
            "positions": [
                0.12742781565799444,
                -0.9404122574029807,
                -1.6244077723711918,
                -1.6366620618113443,
                -0.5569729270065156,
                1.5447362488252692
            ]
        },
        {
            "positions": [
                0.21975404379787866,
                -0.9361263407051993,
                -1.7077817314127481,
                -1.691157973897298,
                -0.5908567713922512,
                1.666573422574054
            ]
        },
        {
            "positions": [
                0.3120802719377629,
                -0.9318404240074178,
                -1.791155690454305,
                -1.7456538859832516,
                -0.6247406157779869,
                1.788410596322838
            ]
        },
        {
            "positions": [
                0.4044065000776471,
                -0.9275545073096364,
                -1.8745296494958612,
                -1.8001497980692052,
                -0.6586244601637226,
                1.9102477700716234
            ]
        },
        {
            "positions": [
                0.49673272821753134,
                -0.923268590611855,
                -1.957903608537418,
                -1.8546457101551588,
                -0.6925083045494582,
                2.032084943820408
            ]
        },
        {
            "positions": [
                0.5890589563574156,
                -0.9189826739140736,
                -2.041277567578974,
                -1.909141622241112,
                -0.7263921489351939,
                2.1539221175691923
            ]
        },
        {
            "positions": [
                0.6813851844972993,
                -0.9146967572162923,
                -2.1246515266205304,
                -1.9636375343270656,
                -0.7602759933209295,
                2.2757592913179767
            ]
        },
        {
            "positions": [
                0.7737114126371836,
                -0.9104108405185108,
                -2.2080254856620867,
                -2.018133446413019,
                -0.7941598377066652,
                2.397596465066761
            ]
        },
        {
            "positions": [
                0.8660376407770678,
                -0.9061249238207294,
                -2.291399444703644,
                -2.072629358498973,
                -0.8280436820924008,
                2.5194336388155456
            ]
        },
        {
            "positions": [
                0.7489814926649488,
                -1.000325191199962,
                -2.2975592295610032,
                -2.09382220877686,
                -0.7569185214595777,
                2.5975827722061466
            ]
        },
        {
            "positions": [
                0.6319253445528299,
                -1.0945254585791946,
                -2.3037190144183626,
                -2.115015059054747,
                -0.6857933608267547,
                2.675731905596748
            ]
        },
        {
            "positions": [
                0.5148691964407109,
                -1.188725725958427,
                -2.309878799275722,
                -2.1362079093326343,
                -0.6146682001939316,
                2.753881038987349
            ]
        },
        {
            "positions": [
                0.397813048328592,
                -1.2829259933376598,
                -2.3160385841330813,
                -2.157400759610521,
                -0.5435430395611085,
                2.8320301723779506
            ]
        },
        {
            "positions": [
                0.2807569002164729,
                -1.3771262607168921,
                -2.3221983689904406,
                -2.1785936098884084,
                -0.4724178789282855,
                2.9101793057685517
            ]
        },
        {
            "positions": [
                0.16370075210435409,
                -1.4713265280961247,
                -2.3283581538478,
                -2.1997864601662953,
                -0.4012927182954625,
                2.988328439159153
            ]
        },
        {
            "positions": [
                0.04664460399223502,
                -1.5655267954753573,
                -2.3345179387051593,
                -2.2209793104441826,
                -0.3301675576626394,
                3.066477572549754
            ]
        },
        {
            "positions": [
                -0.07041154411988382,
                -1.65972706285459,
                -2.3406777235625187,
                -2.2421721607220695,
                -0.25904239702981635,
                3.1446267059403556
            ]
        },
        {
            "positions": [
                -0.1874676922320029,
                -1.7539273302338225,
                -2.346837508419878,
                -2.263365010999957,
                -0.18791723639699326,
                3.2227758393309567
            ]
        }
    ]
}