{
    "goal": {
        "global_pose": {
            "orientation": {
                "w": -0.00223480608172531,
                "x": 0.0024358444001904467,
                "y": 0.7094548369677653,
                "z": -0.704743149386269
            },
            "position": {
                "x": -0.37947507619857795,
                "y": -0.6371506643295288,
                "z": 0.19426114857196808
            }
        },
        "name": "move_to_magneteinheit_C"
    },
    "id": "SBL_move_to_magneteinheit_C_128",
    "joint_names": [
        "shoulder_pan_joint",
        "shoulder_lift_joint",
        "elbow_joint",
        "wrist_1_joint",
        "wrist_2_joint",
        "wrist_3_joint"
    ],
    "metrics": {
        "cart_traj_len": 2.229813074556398,
        "distance_elbow_joint": 3.3574462638193907,
        "distance_shoulder_lift_joint": 0.9039819837976935,
        "distance_shoulder_pan_joint": 1.8084297250992554,
        "distance_wrist_1_joint": 3.5439523260008357,
        "distance_wrist_2_joint": 2.7579742443125803,
        "distance_wrist_3_joint": 4.882095579436884,
        "smoothness": 0.23401116753316928,
        "time": 0.28301967299999997,
        "traj_len": 4.153779017047807,
        "weighted_distance": 5.772347689775263
    },
    "planner": "SBL",
    "start": {
        "state": {
            "elbow_joint": 1.9565354010623817,
            "shoulder_lift_joint": -1.4165861575791021,
            "shoulder_pan_joint": -1.6717766225146293,
            "wrist_1_joint": -0.5286633292919765,
            "wrist_2_joint": 1.472756589071564,
            "wrist_3_joint": -3.1238370188695823
        }
    },
    "waypoints": [
        {
            "positions": [
                -1.6717766225146293,
                -1.4165861575791021,
                1.9565354010623817,
                -0.5286633292919765,
                1.472756589071564,
                -3.1238370188695823
            ]
        },
        {
            "positions": [
                -1.5930328893415067,
                -1.4329829171785238,
                1.9257555507258375,
                -0.4966509777186774,
                1.4444653153984588,
                -3.0348276786816673
            ]
        },
        {
            "positions": [
                -1.5142891561683842,
                -1.4493796767779457,
                1.894975700389293,
                -0.4646386261453784,
                1.4161740417253537,
                -2.9458183384937517
            ]
        },
        {
            "positions": [
                -1.4355454229952616,
                -1.4657764363773675,
                1.8641958500527487,
                -0.43262627457207936,
                1.3878827680522485,
                -2.8568089983058362
            ]
        },
        {
            "positions": [
                -1.356801689822139,
                -1.4821731959767892,
                1.8334159997162045,
                -0.4006139229987803,
                1.3595914943791434,
                -2.767799658117921
            ]
        },
        {
            "positions": [
                -1.3785211822560655,
                -1.454297815670323,
                1.7529499502389962,
                -0.3312972122169884,
                1.2810275980198207,
                -2.669237958230278
            ]
        },
        {
            "positions": [
                -1.400240674689992,
                -1.426422435363857,
                1.6724839007617878,
                -0.26198050143519647,
                1.202463701660498,
                -2.5706762583426346
            ]
        },
        {
            "positions": [
                -1.4219601671239184,
                -1.3985470550573909,
                1.5920178512845795,
                -0.19266379065340455,
                1.1238998053011753,
                -2.472114558454991
            ]
        },
        {
            "positions": [
                -1.443679659557845,
                -1.3706716747509247,
                1.511551801807371,
                -0.12334707987161264,
                1.0453359089418526,
                -2.373552858567348
            ]
        },
        {
            "positions": [
                -1.4653991519917715,
                -1.3427962944444585,
                1.4310857523301628,
                -0.05403036908982073,
                0.9667720125825298,
                -2.2749911586797045
            ]
        },
        {
            "positions": [
                -1.487118644425698,
                -1.3149209141379925,
                1.3506197028529543,
                0.015286341691971184,
                0.8882081162232071,
                -2.1764294587920614
            ]
        },
        {
            "positions": [
                -1.5088381368596244,
                -1.2870455338315263,
                1.270153653375746,
                0.0846030524737631,
                0.8096442198638844,
                -2.077867758904418
            ]
        },
        {
            "positions": [
                -1.530557629293551,
                -1.2591701535250601,
                1.1896876038985376,
                0.153919763255555,
                0.7310803235045616,
                -1.9793060590167748
            ]
        },
        {
            "positions": [
                -1.5522771217274776,
                -1.2312947732185942,
                1.1092215544213293,
                0.22323647403734692,
                0.6525164271452388,
                -1.8807443591291313
            ]
        },
        {
            "positions": [
                -1.5739966141614041,
                -1.203419392912128,
                1.028755504944121,
                0.29255318481913883,
                0.5739525307859161,
                -1.7821826592414882
            ]
        },
        {
            "positions": [
                -1.5957161065953307,
                -1.1755440126056618,
                0.9482894554669125,
                0.36186989560093086,
                0.4953886344265933,
                -1.6836209593538447
            ]
        },
        {
            "positions": [
                -1.6174355990292573,
                -1.1476686322991956,
                0.8678234059897042,
                0.43118660638272266,
                0.4168247380672707,
                -1.5850592594662016
            ]
        },
        {
            "positions": [
                -1.6391550914631836,
                -1.1197932519927294,
                0.7873573565124958,
                0.5005033171645147,
                0.338260841707948,
                -1.4864975595785581
            ]
        },
        {
            "positions": [
                -1.6608745838971102,
                -1.0919178716862634,
                0.7068913070352876,
                0.5698200279463065,
                0.2596969453486253,
                -1.387935859690915
            ]
        },
        {
            "positions": [
                -1.6825940763310367,
                -1.0640424913797972,
                0.6264252575580791,
                0.6391367387280985,
                0.18113304898930238,
                -1.2893741598032715
            ]
        },
        {
            "positions": [
                -1.704313568764963,
                -1.036167111073331,
                0.5459592080808708,
                0.7084534495098903,
                0.1025691526299799,
                -1.1908124599156285
            ]
        },
        {
            "positions": [
                -1.7260330611988897,
                -1.008291730766865,
                0.46549315860366236,
                0.7777701602916823,
                0.02400525627065697,
                -1.092250760027985
            ]
        },
        {
            "positions": [
                -1.7477525536328162,
                -0.9804163504603989,
                0.3850271091264541,
                0.8470868710734741,
                -0.05455864008866573,
                -0.9936890601403416
            ]
        },
        {
            "positions": [
                -1.7694720460667428,
                -0.9525409701539327,
                0.3045610596492456,
                0.916403581855266,
                -0.13312253644798847,
                -0.8951273602526985
            ]
        },
        {
            "positions": [
                -1.9107166780680511,
                -0.9361320771294783,
                0.3328566937433614,
                0.96577503237517,
                -0.18142439369348817,
                -0.8413283489141875
            ]
        },
        {
            "positions": [
                -2.0519613100693594,
                -0.919723184105024,
                0.36115232783747714,
                1.015146482895074,
                -0.2297262509389879,
                -0.7875293375756766
            ]
        },
        {
            "positions": [
                -2.193205942070668,
                -0.9033142910805696,
                0.3894479619315929,
                1.0645179334149781,
                -0.27802810818448764,
                -0.7337303262371656
            ]
        },
        {
            "positions": [
                -2.3550542678889093,
                -0.9034460990124029,
                0.49307295342432556,
                1.0784726335450425,
                -0.2929243989601631,
                -0.7144872523122685
            ]
        },
        {
            "positions": [
                -2.51690259370715,
                -0.9035779069442363,
                0.5966979449170582,
                1.092427333675107,
                -0.30782068973583854,
                -0.6952441783873713
            ]
        },
        {
            "positions": [
                -2.560164677529799,
                -0.9120636385007715,
                0.7253950970435858,
                1.006661825778901,
                -0.2654435922874233,
                -0.7686408109920111
            ]
        },
        {
            "positions": [
                -2.6034267613524475,
                -0.9205493700573069,
                0.8540922491701135,
                0.9208963178826951,
                -0.22306649483900806,
                -0.8420374435966509
            ]
        },
        {
            "positions": [
                -2.6466888451750963,
                -0.9290351016138421,
                0.9827894012966412,
                0.8351308099864891,
                -0.1806893973905928,
                -0.9154340762012907
            ]
        },
        {
            "positions": [
                -2.650622878900955,
                -0.9375080436350982,
                1.0715506171829263,
                0.7531171972978756,
                -0.13870308554585487,
                -0.9939653478243062
            ]
        },
        {
            "positions": [
                -2.6545569126268136,
                -0.9459809856563544,
                1.1603118330692113,
                0.6711035846092622,
                -0.09671677370111692,
                -1.072496619447322
            ]
        },
        {
            "positions": [
                -2.6584909463526722,
                -0.9544539276776105,
                1.2490730489554962,
                0.5890899719206488,
                -0.054730461856378976,
                -1.1510278910703375
            ]
        },
        {
            "positions": [
                -2.662424980078531,
                -0.9629268696988666,
                1.3378342648417814,
                0.5070763592320353,
                -0.012744150011641031,
                -1.229559162693353
            ]
        },
        {
            "positions": [
                -2.6551655119893502,
                -0.9765285530191459,
                1.4115068517756342,
                0.40367204857957023,
                0.03941640125887101,
                -1.3584682353489927
            ]
        },
        {
            "positions": [
                -2.6479060439001696,
                -0.9901302363394252,
                1.4851794387094868,
                0.30026773792710515,
                0.09157695252938305,
                -1.4873773080046324
            ]
        },
        {
            "positions": [
                -2.640646575810989,
                -1.0037319196597045,
                1.5588520256433394,
                0.19686342727464007,
                0.1437375037998951,
                -1.6162863806602723
            ]
        },
        {
            "positions": [
                -2.6333871077218083,
                -1.0173336029799838,
                1.6325246125771922,
                0.09345911662217499,
                0.19589805507040714,
                -1.745195453315912
            ]
        },
        {
            "positions": [
                -2.6261276396326276,
                -1.030935286300263,
                1.706197199511045,
                -0.00994519403029015,
                0.2480586063409192,
                -1.8741045259715519
            ]
        },
        {
            "positions": [
                -2.618868171543447,
                -1.0445369696205422,
                1.7798697864448976,
                -0.1133495046827552,
                0.30021915761143125,
                -2.0030135986271915
            ]
        },
        {
            "positions": [
                -2.602436925806405,
                -1.060685798108707,
                1.8277348046905975,
                -0.21985848566553018,
                0.3533767707841014,
                -2.1576987522561177
            ]
        },
        {
            "positions": [
                -2.5860056800693627,
                -1.076834626596872,
                1.8755998229362973,
                -0.3263674666483052,
                0.40653438395677155,
                -2.312383905885044
            ]
        },
        {
            "positions": [
                -2.5637232396411216,
                -1.0940377675943689,
                1.902486454760138,
                -0.4271808391903736,
                0.4591427623192851,
                -2.479656508176444
            ]
        },
        {
            "positions": [
                -2.541440799212881,
                -1.1112409085918658,
                1.9293730865839784,
                -0.527994211732442,
                0.5117511406817986,
                -2.646929110467844
            ]
        },
        {
            "positions": [
                -2.51915835878464,
                -1.1284440495893626,
                1.9562597184078192,
                -0.6288075842745104,
                0.5643595190443121,
                -2.8142017127592442
            ]
        },
        {
            "positions": [
                -2.496875918356399,
                -1.1456471905868595,
                1.9831463502316597,
                -0.7296209568165788,
                0.6169678974068257,
                -2.981474315050644
            ]
        },
        {
            "positions": [
                -2.474593477928158,
                -1.1628503315843564,
                2.0100329820555003,
                -0.8304343293586472,
                0.6695762757693392,
                -3.148746917342044
            ]
        }
    ]
}