{
    "goal": {
        "global_pose": {
            "orientation": {
                "w": -0.00223480608172531,
                "x": 0.0024358444001904467,
                "y": 0.7094548369677653,
                "z": -0.704743149386269
            },
            "position": {
                "x": 0.6205249238014221,
                "y": -0.6371506643295288,
                "z": 0.19426114857196808
            }
        },
        "name": "move_to_magneteinheit_B"
    },
    "id": "SBL_move_to_magneteinheit_B_117",
    "joint_names": [
        "shoulder_pan_joint",
        "shoulder_lift_joint",
        "elbow_joint",
        "wrist_1_joint",
        "wrist_2_joint",
        "wrist_3_joint"
    ],
    "metrics": {
        "cart_traj_len": 3.5666808846152027,
        "distance_elbow_joint": 4.351546262251459,
        "distance_shoulder_lift_joint": 1.0624926087102082,
        "distance_shoulder_pan_joint": 2.807548785549993,
        "distance_wrist_1_joint": 1.5109442436417684,
        "distance_wrist_2_joint": 1.4941207391906408,
        "distance_wrist_3_joint": 2.2038809897102283,
        "smoothness": 0.39568565081320245,
        "time": 1.252182512,
        "traj_len": 3.664769246358398,
        "weighted_distance": 4.5654529448135985
    },
    "planner": "SBL",
    "start": {
        "state": {
            "elbow_joint": 2.6216224122426386,
            "shoulder_lift_joint": -1.4174107377796124,
            "shoulder_pan_joint": 0.7066234856936794,
            "wrist_1_joint": 1.9546482284002225,
            "wrist_2_joint": -0.7096286983471962,
            "wrist_3_joint": 0.005740856962016249
        }
    },
    "waypoints": [
        {
            "positions": [
                0.7066234856936794,
                -1.4174107377796124,
                2.6216224122426386,
                1.9546482284002225,
                -0.7096286983471962,
                0.005740856962016249
            ]
        },
        {
            "positions": [
                0.5895121500301215,
                -1.4431926409788063,
                2.6164624263727014,
                1.934025068194393,
                -0.7215735811027342,
                0.03869769843154549
            ]
        },
        {
            "positions": [
                0.47240081436656356,
                -1.4689745441780002,
                2.6113024405027643,
                1.9134019079885634,
                -0.7335184638582722,
                0.07165453990107473
            ]
        },
        {
            "positions": [
                0.4580460216542149,
                -1.491228551753731,
                2.5096991085477014,
                1.8216702117098686,
                -0.6702942944928387,
                0.1466806889458494
            ]
        },
        {
            "positions": [
                0.4436912289418662,
                -1.5134825593294619,
                2.4080957765926385,
                1.7299385154311737,
                -0.6070701251274052,
                0.22170683799062404
            ]
        },
        {
            "positions": [
                0.42933643622951745,
                -1.5357365669051926,
                2.306492444637576,
                1.638206819152479,
                -0.5438459557619717,
                0.29673298703539874
            ]
        },
        {
            "positions": [
                0.41498164351716876,
                -1.5579905744809235,
                2.204889112682513,
                1.546475122873784,
                -0.48062178639653813,
                0.37175913608017336
            ]
        },
        {
            "positions": [
                0.4006268508048201,
                -1.5802445820566542,
                2.1032857807274503,
                1.4547434265950894,
                -0.41739761703110456,
                0.44678528512494803
            ]
        },
        {
            "positions": [
                0.38627205809247134,
                -1.602498589632385,
                2.0016824487723874,
                1.3630117303163947,
                -0.35417344766567105,
                0.5218114341697226
            ]
        },
        {
            "positions": [
                0.3719172653801227,
                -1.6247525972081158,
                1.900079116817325,
                1.2712800340376997,
                -0.29094927830023753,
                0.5968375832144973
            ]
        },
        {
            "positions": [
                0.35756247266777397,
                -1.6470066047838465,
                1.7984757848622621,
                1.1795483377590048,
                -0.22772510893480402,
                0.671863732259272
            ]
        },
        {
            "positions": [
                0.3432076799554253,
                -1.6692606123595772,
                1.6968724529071992,
                1.0878166414803103,
                -0.1645009395693705,
                0.7468898813040465
            ]
        },
        {
            "positions": [
                0.3288528872430766,
                -1.6915146199353082,
                1.5952691209521364,
                0.9960849452016154,
                -0.10127677020393688,
                0.8219160303488213
            ]
        },
        {
            "positions": [
                0.31449809453072786,
                -1.7137686275110389,
                1.4936657889970737,
                0.9043532489229207,
                -0.03805260083850337,
                0.8969421793935959
            ]
        },
        {
            "positions": [
                0.30014330181837917,
                -1.7360226350867698,
                1.3920624570420108,
                0.8126215526442258,
                0.025171568526930144,
                0.9719683284383707
            ]
        },
        {
            "positions": [
                0.2857885091060305,
                -1.7582766426625005,
                1.2904591250869482,
                0.720889856365531,
                0.0883957378923637,
                1.0469944774831452
            ]
        },
        {
            "positions": [
                0.4110935699450595,
                -1.7699560596432986,
                1.1331626314181913,
                0.7315228802956208,
                0.1158298226733177,
                0.989034051657927
            ]
        },
        {
            "positions": [
                0.5363986307840886,
                -1.781635476624097,
                0.9758661377494345,
                0.7421559042257105,
                0.14326390745427173,
                0.9310736258327089
            ]
        },
        {
            "positions": [
                0.6617036916231176,
                -1.793314893604895,
                0.8185696440806777,
                0.7527889281558003,
                0.17069799223522575,
                0.8731132000074907
            ]
        },
        {
            "positions": [
                0.7870087524621466,
                -1.8049943105856932,
                0.6612731504119209,
                0.76342195208589,
                0.19813207701617974,
                0.8151527741822726
            ]
        },
        {
            "positions": [
                0.9123138133011757,
                -1.8166737275664915,
                0.503976656743164,
                0.7740549760159798,
                0.2255661617971338,
                0.7571923483570544
            ]
        },
        {
            "positions": [
                1.0376188741402048,
                -1.8283531445472896,
                0.3466801630744072,
                0.7846879999460696,
                0.2530002465780878,
                0.6992319225318362
            ]
        },
        {
            "positions": [
                1.1629239349792337,
                -1.840032561528088,
                0.18938366940565032,
                0.7953210238761593,
                0.28043433135904183,
                0.6412714967066181
            ]
        },
        {
            "positions": [
                1.2882289958182627,
                -1.851711978508886,
                0.03208717573689368,
                0.8059540478062491,
                0.3078684161399958,
                0.5833110708814
            ]
        },
        {
            "positions": [
                1.4135340566572916,
                -1.8633913954896841,
                -0.12520931793186318,
                0.8165870717363389,
                0.3353025009209498,
                0.5253506450561818
            ]
        },
        {
            "positions": [
                1.538839117496321,
                -1.8750708124704825,
                -0.28250581160062005,
                0.8272200956664286,
                0.36273658570190387,
                0.4673902192309637
            ]
        },
        {
            "positions": [
                1.6641441783353499,
                -1.8867502294512806,
                -0.43980230526937714,
                0.8378531195965184,
                0.3901706704828579,
                0.40942979340574537
            ]
        },
        {
            "positions": [
                1.7894492391743788,
                -1.8984296464320787,
                -0.5970987989381338,
                0.8484861435266082,
                0.4176047552638119,
                0.35146936758052727
            ]
        },
        {
            "positions": [
                1.9147543000134082,
                -1.910109063412877,
                -0.7543952926068909,
                0.8591191674566979,
                0.44503884004476596,
                0.29350894175530906
            ]
        },
        {
            "positions": [
                2.040059360852437,
                -1.9217884803936751,
                -0.9116917862756475,
                0.8697521913867877,
                0.47247292482571995,
                0.23554851593009096
            ]
        },
        {
            "positions": [
                2.165364421691466,
                -1.9334678973744732,
                -1.0689882799444042,
                0.8803852153168774,
                0.49990700960667395,
                0.17758809010487275
            ]
        },
        {
            "positions": [
                2.290669482530495,
                -1.9451473143552716,
                -1.2262847736131608,
                0.8910182392469672,
                0.5273410943876279,
                0.11962766427965466
            ]
        },
        {
            "positions": [
                2.4159745433695243,
                -1.9568267313360697,
                -1.3835812672819179,
                0.901651263177057,
                0.554775179168582,
                0.061667238454436446
            ]
        },
        {
            "positions": [
                2.541279604208553,
                -1.968506148316868,
                -1.5408777609506745,
                0.9122842871071467,
                0.582209263949536,
                0.003706812629218348
            ]
        },
        {
            "positions": [
                2.666584665047582,
                -1.980185565297666,
                -1.6981742546194316,
                0.9229173110372365,
                0.60964334873049,
                -0.05425361319599985
            ]
        },
        {
            "positions": [
                2.6646121140406516,
                -2.1467581590283844,
                -1.6875910561563021,
                0.94797011668236,
                0.5672869617002222,
                -0.03379385369268192
            ]
        },
        {
            "positions": [
                2.6626395630337205,
                -2.3133307527591023,
                -1.6770078576931728,
                0.9730229223274834,
                0.5249305746699544,
                -0.013334094189363987
            ]
        },
        {
            "positions": [
                2.66066701202679,
                -2.4799033464898206,
                -1.6664246592300433,
                0.9980757279726069,
                0.4825741876396867,
                0.007125665313953941
            ]
        }
    ]
}