{
    "goal": {
        "global_pose": {
            "orientation": {
                "w": 0.005598929693374612,
                "x": 0.007748599140229565,
                "y": 0.7110244013736278,
                "z": -0.7031023480610252
            },
            "position": {
                "x": -0.8858502320852131,
                "y": -0.7141253447532654,
                "z": 0.3711530566215515
            }
        },
        "name": "move_to_auspresseinheit_C"
    },
    "id": "SBL_move_to_auspresseinheit_C_30",
    "joint_names": [
        "shoulder_pan_joint",
        "shoulder_lift_joint",
        "elbow_joint",
        "wrist_1_joint",
        "wrist_2_joint",
        "wrist_3_joint"
    ],
    "metrics": {
        "cart_traj_len": 0.492817616078328,
        "distance_elbow_joint": 0.9885892896496893,
        "distance_shoulder_lift_joint": 0.31882679603520314,
        "distance_shoulder_pan_joint": 0.25658072263298637,
        "distance_wrist_1_joint": 0.6557613813986839,
        "distance_wrist_2_joint": 1.311193237209833,
        "distance_wrist_3_joint": 0.03749521698668401,
        "smoothness": 1.6148698667872622e-16,
        "time": 0.341358436,
        "traj_len": 1.889033256433851,
        "weighted_distance": 2.3686265422170214
    },
    "planner": "SBL",
    "start": {
        "state": {
            "elbow_joint": 1.7527959577737207,
            "shoulder_lift_joint": -0.9740617694225068,
            "shoulder_pan_joint": -2.967991417825858,
            "wrist_1_joint": -0.759517768980727,
            "wrist_2_joint": 1.7443932448377408,
            "wrist_3_joint": -3.0840537646736568
        }
    },
    "waypoints": [
        {
            "positions": [
                -2.967991417825858,
                -0.9740617694225068,
                1.7527959577737207,
                -0.759517768980727,
                1.7443932448377408,
                -3.0840537646736568
            ]
        },
        {
            "positions": [
                -2.9423333455625595,
                -0.9421790898189865,
                1.6539370288087518,
                -0.6939416308408586,
                1.6132739211167575,
                -3.087803286372325
            ]
        },
        {
            "positions": [
                -2.9166752732992607,
                -0.9102964102154661,
                1.5550780998437828,
                -0.6283654927009902,
                1.4821545973957742,
                -3.0915528080709938
            ]
        },
        {
            "positions": [
                -2.891017201035962,
                -0.8784137306119458,
                1.456219170878814,
                -0.5627893545611218,
                1.351035273674791,
                -3.095302329769662
            ]
        },
        {
            "positions": [
                -2.8653591287726634,
                -0.8465310510084255,
                1.3573602419138449,
                -0.49721321642125343,
                1.2199159499538075,
                -3.0990518514683303
            ]
        },
        {
            "positions": [
                -2.839701056509365,
                -0.8146483714049052,
                1.258501312948876,
                -0.43163707828138503,
                1.0887966262328244,
                -3.102801373166999
            ]
        },
        {
            "positions": [
                -2.814042984246066,
                -0.7827656918013849,
                1.1596423839839072,
                -0.36606094014151663,
                0.9576773025118411,
                -3.1065508948656673
            ]
        },
        {
            "positions": [
                -2.7883849119827673,
                -0.7508830121978646,
                1.0607834550189383,
                -0.3004848020016483,
                0.8265579787908578,
                -3.1103004165643355
            ]
        },
        {
            "positions": [
                -2.762726839719469,
                -0.7190003325943443,
                0.9619245260539692,
                -0.2349086638617799,
                0.6954386550698743,
                -3.114049938263004
            ]
        },
        {
            "positions": [
                -2.7370687674561704,
                -0.687117652990824,
                0.8630655970890003,
                -0.1693325257219115,
                0.5643193313488912,
                -3.1177994599616725
            ]
        },
        {
            "positions": [
                -2.7114106951928716,
                -0.6552349733873036,
                0.7642066681240314,
                -0.1037563875820431,
                0.43320000762790795,
                -3.121548981660341
            ]
        }
    ]
}