{
    "goal": {
        "global_pose": {
            "orientation": {
                "w": -0.4816463035849501,
                "x": 0.5182115481033762,
                "y": 0.4908360881923453,
                "z": -0.5084816262002911
            },
            "position": {
                "x": -0.8240239810943604,
                "y": 0.19912469901144506,
                "z": 0.16403168439865112
            }
        },
        "name": "move_to_storage_D"
    },
    "id": "SBL_move_to_storage_D_75",
    "joint_names": [
        "shoulder_pan_joint",
        "shoulder_lift_joint",
        "elbow_joint",
        "wrist_1_joint",
        "wrist_2_joint",
        "wrist_3_joint"
    ],
    "metrics": {
        "cart_traj_len": 3.811150686469635,
        "distance_elbow_joint": 4.209428616091551,
        "distance_shoulder_lift_joint": 1.2645574845744791,
        "distance_shoulder_pan_joint": 2.81297328342955,
        "distance_wrist_1_joint": 2.2706895049355635,
        "distance_wrist_2_joint": 2.10876875866306,
        "distance_wrist_3_joint": 3.153985317206581,
        "smoothness": 0.06647108135790243,
        "time": 0.38314151900000004,
        "traj_len": 3.977487016308261,
        "weighted_distance": 5.148575712069561
    },
    "planner": "SBL",
    "start": {
        "state": {
            "elbow_joint": -2.384821988534728,
            "shoulder_lift_joint": -2.2788054721415256,
            "shoulder_pan_joint": -0.1854694642142757,
            "wrist_1_joint": 1.4845938289331202,
            "wrist_2_joint": 0.17898776772866878,
            "wrist_3_joint": 0.037105688729662994
        }
    },
    "waypoints": [
        {
            "positions": [
                -0.1854694642142757,
                -2.2788054721415256,
                -2.384821988534728,
                1.4845938289331202,
                0.17898776772866878,
                0.037105688729662994
            ]
        },
        {
            "positions": [
                -0.17232596122532617,
                -2.26711325975604,
                -2.3500998638126656,
                1.331346241871823,
                0.05490563106628146,
                0.0643794430079775
            ]
        },
        {
            "positions": [
                -0.15918245823637664,
                -2.2554210473705543,
                -2.315377739090603,
                1.178098654810526,
                -0.06917650559610586,
                0.09165319728629201
            ]
        },
        {
            "positions": [
                -0.14603895524742713,
                -2.2437288349850686,
                -2.280655614368541,
                1.0248510677492289,
                -0.19325864225849318,
                0.1189269515646065
            ]
        },
        {
            "positions": [
                -0.1328954522584776,
                -2.232036622599583,
                -2.2459334896464784,
                0.8716034806879316,
                -0.31734077892088053,
                0.14620070584292102
            ]
        },
        {
            "positions": [
                -0.11975194926952806,
                -2.2203444102140972,
                -2.211211364924416,
                0.7183558936266345,
                -0.44142291558326785,
                0.17347446012123552
            ]
        },
        {
            "positions": [
                -0.020047644836571593,
                -2.182353843508695,
                -2.095879347114867,
                0.6653295975188727,
                -0.4088736367423123,
                0.2290742600597
            ]
        },
        {
            "positions": [
                0.07965665959638488,
                -2.1443632768032925,
                -1.9805473293053182,
                0.6123033014111108,
                -0.37632435790135677,
                0.2846740599981645
            ]
        },
        {
            "positions": [
                0.17936096402934135,
                -2.10637271009789,
                -1.8652153114957692,
                0.5592770053033489,
                -0.3437750790604013,
                0.34027385993662895
            ]
        },
        {
            "positions": [
                0.27906526846229784,
                -2.068382143392488,
                -1.74988329368622,
                0.5062507091955869,
                -0.3112258002194457,
                0.39587365987509343
            ]
        },
        {
            "positions": [
                0.37876957289525426,
                -2.0303915766870855,
                -1.6345512758766712,
                0.453224413087825,
                -0.2786765213784902,
                0.4514734598135579
            ]
        },
        {
            "positions": [
                0.4784738773282108,
                -1.9924010099816831,
                -1.5192192580671222,
                0.40019811698006313,
                -0.24612724253753468,
                0.5070732597520224
            ]
        },
        {
            "positions": [
                0.5781781817611672,
                -1.9544104432762808,
                -1.4038872402575733,
                0.34717182087230125,
                -0.21357796369657914,
                0.5626730596904869
            ]
        },
        {
            "positions": [
                0.6778824861941237,
                -1.9164198765708782,
                -1.2885552224480241,
                0.29414552476453926,
                -0.18102868485562357,
                0.6182728596289513
            ]
        },
        {
            "positions": [
                0.7775867906270802,
                -1.8784293098654758,
                -1.1732232046384752,
                0.24111922865677737,
                -0.14847940601466808,
                0.6738726595674158
            ]
        },
        {
            "positions": [
                0.8772910950600367,
                -1.8404387431600735,
                -1.0578911868289262,
                0.1880929325490155,
                -0.11593012717371254,
                0.7294724595058804
            ]
        },
        {
            "positions": [
                0.9769953994929932,
                -1.8024481764546711,
                -0.9425591690193771,
                0.1350666364412535,
                -0.083380848332757,
                0.7850722594443449
            ]
        },
        {
            "positions": [
                1.0766997039259496,
                -1.7644576097492688,
                -0.8272271512098284,
                0.08204034033349172,
                -0.05083156949180151,
                0.8406720593828092
            ]
        },
        {
            "positions": [
                1.176404008358906,
                -1.7264670430438662,
                -0.7118951334002792,
                0.02901404422572973,
                -0.01828229065084591,
                0.8962718593212737
            ]
        },
        {
            "positions": [
                1.2761083127918624,
                -1.688476476338464,
                -0.5965631155907305,
                -0.024012251882032043,
                0.014266988190109575,
                0.9518716592597383
            ]
        },
        {
            "positions": [
                1.375812617224819,
                -1.6504859096330615,
                -0.48123109778118134,
                -0.07703854798979404,
                0.04681626703106512,
                1.0074714591982026
            ]
        },
        {
            "positions": [
                1.4755169216577755,
                -1.6124953429276592,
                -0.3658990799716322,
                -0.13006484409755603,
                0.07936554587202072,
                1.0630712591366671
            ]
        },
        {
            "positions": [
                1.575221226090732,
                -1.5745047762222568,
                -0.25056706216208346,
                -0.1830911402053178,
                0.1119148247129762,
                1.1186710590751316
            ]
        },
        {
            "positions": [
                1.6749255305236885,
                -1.5365142095168545,
                -0.1352350443525343,
                -0.2361174363130798,
                0.1444641035539317,
                1.1742708590135962
            ]
        },
        {
            "positions": [
                1.7746298349566447,
                -1.4985236428114521,
                -0.01990302654298537,
                -0.2891437324208417,
                0.17701338239488718,
                1.2298706589520605
            ]
        },
        {
            "positions": [
                1.8743341393896014,
                -1.4605330761060498,
                0.09542899126656351,
                -0.3421700285286035,
                0.20956266123584277,
                1.285470458890525
            ]
        },
        {
            "positions": [
                1.921407244378706,
                -1.432640258072362,
                0.2035025935347049,
                -0.36991538149571856,
                0.26189844239409343,
                1.4045717430808824
            ]
        },
        {
            "positions": [
                1.9684803493678105,
                -1.4047474400386744,
                0.31157619580284623,
                -0.3976607344628336,
                0.31423422355234415,
                1.52367302727124
            ]
        },
        {
            "positions": [
                2.015553454356915,
                -1.3768546220049867,
                0.4196497980709876,
                -0.4254060874299487,
                0.36657000471059487,
                1.6427743114615974
            ]
        },
        {
            "positions": [
                2.0626265593460196,
                -1.348961803971299,
                0.527723400339129,
                -0.45315144039706373,
                0.4189057858688455,
                1.7618755956519547
            ]
        },
        {
            "positions": [
                2.1096996643351242,
                -1.3210689859376112,
                0.6357970026072703,
                -0.4808967933641788,
                0.4712415670270962,
                1.8809768798423123
            ]
        },
        {
            "positions": [
                2.1567727693242285,
                -1.2931761679039235,
                0.7438706048754118,
                -0.5086421463312938,
                0.523577348185347,
                2.0000781640326695
            ]
        },
        {
            "positions": [
                2.203845874313333,
                -1.2652833498702358,
                0.8519442071435532,
                -0.5363874992984089,
                0.5759131293435976,
                2.119179448223027
            ]
        },
        {
            "positions": [
                2.250918979302438,
                -1.2373905318365481,
                0.9600178094116945,
                -0.5641328522655239,
                0.6282489105018483,
                2.2382807324133847
            ]
        },
        {
            "positions": [
                2.2979920842915424,
                -1.2094977138028604,
                1.068091411679836,
                -0.591878205232639,
                0.6805846916600989,
                2.357382016603742
            ]
        },
        {
            "positions": [
                2.345065189280647,
                -1.1816048957691727,
                1.1761650139479773,
                -0.619623558199754,
                0.7329204728183496,
                2.4764833007940994
            ]
        },
        {
            "positions": [
                2.3921382942697513,
                -1.153712077735485,
                1.2842386162161188,
                -0.647368911166869,
                0.7852562539766004,
                2.595584584984457
            ]
        },
        {
            "positions": [
                2.439211399258856,
                -1.1258192597017973,
                1.39231221848426,
                -0.6751142641339841,
                0.837592035134851,
                2.714685869174814
            ]
        },
        {
            "positions": [
                2.4862845042479607,
                -1.0979264416681096,
                1.5003858207524015,
                -0.7028596171010992,
                0.8899278162931017,
                2.8337871533651717
            ]
        },
        {
            "positions": [
                2.533357609237065,
                -1.070033623634422,
                1.608459423020543,
                -0.7306049700682142,
                0.9422635974513525,
                2.9528884375555293
            ]
        },
        {
            "positions": [
                2.5804307142261695,
                -1.0421408056007342,
                1.7165330252886841,
                -0.7583503230353292,
                0.9945993786096031,
                3.0719897217458865
            ]
        },
        {
            "positions": [
                2.627503819215274,
                -1.0142479875670465,
                1.8246066275568256,
                -0.7860956760024443,
                1.0469351597678538,
                3.191091005936244
            ]
        }
    ]
}