{
    "goal": {
        "global_pose": {
            "orientation": {
                "w": -0.00223480608172531,
                "x": 0.0024358444001904467,
                "y": 0.7094548369677653,
                "z": -0.704743149386269
            },
            "position": {
                "x": 0.6205249238014221,
                "y": -0.6371506643295288,
                "z": 0.19426114857196808
            }
        },
        "name": "move_to_magneteinheit_B"
    },
    "id": "SBL_move_to_magneteinheit_B_58",
    "joint_names": [
        "shoulder_pan_joint",
        "shoulder_lift_joint",
        "elbow_joint",
        "wrist_1_joint",
        "wrist_2_joint",
        "wrist_3_joint"
    ],
    "metrics": {
        "cart_traj_len": 4.543493233983228,
        "distance_elbow_joint": 4.564941401279333,
        "distance_shoulder_lift_joint": 1.0600951415679356,
        "distance_shoulder_pan_joint": 3.333019053020764,
        "distance_wrist_1_joint": 4.346093601891122,
        "distance_wrist_2_joint": 3.4400658903252066,
        "distance_wrist_3_joint": 2.3079447786805978,
        "smoothness": 0.480718268026052,
        "time": 0.716700975,
        "traj_len": 4.3648779899058985,
        "weighted_distance": 5.608405202581432
    },
    "planner": "SBL",
    "start": {
        "state": {
            "elbow_joint": 2.6216224122426386,
            "shoulder_lift_joint": -1.4174107377796124,
            "shoulder_pan_joint": 0.7066234856936794,
            "wrist_1_joint": 1.9546482284002225,
            "wrist_2_joint": -0.7096286983471962,
            "wrist_3_joint": 0.005740856962016249
        }
    },
    "waypoints": [
        {
            "positions": [
                0.7066234856936794,
                -1.4174107377796124,
                2.6216224122426386,
                1.9546482284002225,
                -0.7096286983471962,
                0.005740856962016249
            ]
        },
        {
            "positions": [
                0.6499584210986084,
                -1.422478486955792,
                2.573565932219895,
                1.8366098399937976,
                -0.5962471286552808,
                0.040652887068949
            ]
        },
        {
            "positions": [
                0.5932933565035372,
                -1.4275462361319717,
                2.525509452197151,
                1.7185714515873727,
                -0.4828655589633654,
                0.07556491717588175
            ]
        },
        {
            "positions": [
                0.5366282919084662,
                -1.4326139853081514,
                2.477452972174407,
                1.600533063180948,
                -0.36948398927145004,
                0.11047694728281449
            ]
        },
        {
            "positions": [
                0.47996322731339514,
                -1.4376817344843311,
                2.4293964921516635,
                1.4824946747745231,
                -0.2561024195795346,
                0.14538897738974726
            ]
        },
        {
            "positions": [
                0.42329816271832404,
                -1.4427494836605108,
                2.3813400121289194,
                1.3644562863680982,
                -0.14272084988761924,
                0.18030100749668
            ]
        },
        {
            "positions": [
                0.366633098123253,
                -1.4478172328366905,
                2.333283532106176,
                1.2464178979616736,
                -0.029339280195703865,
                0.21521303760361274
            ]
        },
        {
            "positions": [
                0.3099680335281819,
                -1.4528849820128702,
                2.2852270520834317,
                1.1283795095552485,
                0.08404228949621151,
                0.2501250677105455
            ]
        },
        {
            "positions": [
                0.25330296893311083,
                -1.4579527311890499,
                2.237170572060688,
                1.0103411211488238,
                0.197423859188127,
                0.28503709781747827
            ]
        },
        {
            "positions": [
                0.19663790433803974,
                -1.4630204803652296,
                2.1891140920379444,
                0.8923027327423987,
                0.31080542888004237,
                0.319949127924411
            ]
        },
        {
            "positions": [
                0.1399728397429687,
                -1.4680882295414093,
                2.1410576120152003,
                0.774264344335974,
                0.42418699857195774,
                0.3548611580313437
            ]
        },
        {
            "positions": [
                0.0833077751478977,
                -1.473155978717589,
                2.0930011319924566,
                0.6562259559295491,
                0.5375685682638731,
                0.3897731881382765
            ]
        },
        {
            "positions": [
                0.07618572118517429,
                -1.474580327643128,
                1.963232061600146,
                0.5596108322323001,
                0.6349877657637396,
                0.4443420925659706
            ]
        },
        {
            "positions": [
                0.06906366722245089,
                -1.4760046765686672,
                1.8334629912078353,
                0.4629957085350511,
                0.732406963263606,
                0.4989109969936647
            ]
        },
        {
            "positions": [
                0.06194161325972748,
                -1.4774290254942062,
                1.7036939208155246,
                0.3663805848378021,
                0.8298261607634725,
                0.5534799014213588
            ]
        },
        {
            "positions": [
                0.08323029737528519,
                -1.4787821021507241,
                1.5509349679134028,
                0.30138812843574825,
                0.9005200936644068,
                0.609313122440138
            ]
        },
        {
            "positions": [
                0.10451898149084288,
                -1.4801351788072423,
                1.398176015011281,
                0.2363956720336944,
                0.9712140265653411,
                0.6651463434589171
            ]
        },
        {
            "positions": [
                0.12580766560640058,
                -1.4814882554637603,
                1.2454170621091594,
                0.1714032156316406,
                1.0419079594662755,
                0.7209795644776963
            ]
        },
        {
            "positions": [
                0.14709634972195829,
                -1.4828413321202782,
                1.0926581092070373,
                0.1064107592295867,
                1.1126018923672096,
                0.7768127854964755
            ]
        },
        {
            "positions": [
                0.168385033837516,
                -1.4841944087767962,
                0.9398991563049157,
                0.041418302827532893,
                1.183295825268144,
                0.8326460065152546
            ]
        },
        {
            "positions": [
                0.1896737179530737,
                -1.4855474854333144,
                0.787140203402794,
                -0.023574153574520917,
                1.2539897581690782,
                0.8884792275340336
            ]
        },
        {
            "positions": [
                0.21096240206863137,
                -1.4869005620898323,
                0.6343812505006721,
                -0.08856660997657478,
                1.3246836910700126,
                0.9443124485528129
            ]
        },
        {
            "positions": [
                0.2322510861841891,
                -1.4882536387463503,
                0.48162229759855024,
                -0.1535590663786287,
                1.3953776239709468,
                1.000145669571592
            ]
        },
        {
            "positions": [
                0.25353977029974684,
                -1.4896067154028683,
                0.3288633446964284,
                -0.21855152278068257,
                1.4660715568718812,
                1.0559788905903713
            ]
        },
        {
            "positions": [
                0.2748284544153045,
                -1.4909597920593864,
                0.1761043917943068,
                -0.2835439791827363,
                1.5367654897728156,
                1.1118121116091504
            ]
        },
        {
            "positions": [
                0.2961171385308622,
                -1.4923128687159044,
                0.02334543889218499,
                -0.34853643558479014,
                1.6074594226737497,
                1.1676453326279295
            ]
        },
        {
            "positions": [
                0.4108413254949496,
                -1.5211399290189356,
                -0.06384127625878513,
                -0.26807898036221095,
                1.5547184104673313,
                1.1426892221996445
            ]
        },
        {
            "positions": [
                0.525565512459037,
                -1.5499669893219667,
                -0.15102799140975526,
                -0.18762152513963176,
                1.5019773982609126,
                1.1177331117713596
            ]
        },
        {
            "positions": [
                0.6402896994231244,
                -1.578794049624998,
                -0.2382147065607254,
                -0.10716406991705255,
                1.4492363860544941,
                1.0927770013430746
            ]
        },
        {
            "positions": [
                0.7550138863872118,
                -1.6076211099280293,
                -0.3254014217116955,
                -0.026706614694473385,
                1.3964953738480754,
                1.06782089091479
            ]
        },
        {
            "positions": [
                0.8697380733512993,
                -1.6364481702310605,
                -0.41258813686266566,
                0.05375084052810586,
                1.343754361641657,
                1.042864780486505
            ]
        },
        {
            "positions": [
                0.9844622603153868,
                -1.6652752305340917,
                -0.4997748520136358,
                0.13420829575068505,
                1.2910133494352385,
                1.01790867005822
            ]
        },
        {
            "positions": [
                1.0991864472794741,
                -1.6941022908371228,
                -0.5869615671646059,
                0.21466575097326418,
                1.2382723372288198,
                0.9929525596299351
            ]
        },
        {
            "positions": [
                1.2139106342435615,
                -1.722929351140154,
                -0.674148282315576,
                0.29512320619584337,
                1.1855313250224013,
                0.9679964492016502
            ]
        },
        {
            "positions": [
                1.328634821207649,
                -1.7517564114431852,
                -0.7613349974665462,
                0.37558066141842256,
                1.1327903128159829,
                0.9430403387733653
            ]
        },
        {
            "positions": [
                1.4433590081717362,
                -1.7805834717462163,
                -0.8485217126175163,
                0.45603811664100186,
                1.0800493006095642,
                0.9180842283450804
            ]
        },
        {
            "positions": [
                1.5580831951358238,
                -1.8094105320492477,
                -0.9357084277684865,
                0.5364955718635811,
                1.0273082884031455,
                0.8931281179167955
            ]
        },
        {
            "positions": [
                1.6728073820999114,
                -1.838237592352279,
                -1.0228951429194566,
                0.6169530270861603,
                0.9745672761967271,
                0.8681720074885106
            ]
        },
        {
            "positions": [
                1.7875315690639986,
                -1.86706465265531,
                -1.1100818580704268,
                0.6974104823087395,
                0.9218262639903085,
                0.8432158970602257
            ]
        },
        {
            "positions": [
                1.9022557560280862,
                -1.8958917129583412,
                -1.1972685732213968,
                0.7778679375313184,
                0.8690852517838901,
                0.8182597866319408
            ]
        },
        {
            "positions": [
                2.0169799429921738,
                -1.9247187732613724,
                -1.284455288372367,
                0.8583253927538979,
                0.8163442395774714,
                0.7933036762036558
            ]
        },
        {
            "positions": [
                2.131704129956261,
                -1.9535458335644036,
                -1.371642003523337,
                0.9387828479764768,
                0.7636032273710529,
                0.768347565775371
            ]
        },
        {
            "positions": [
                2.2464283169203485,
                -1.982372893867435,
                -1.4588287186743072,
                1.0192403031990562,
                0.7108622151646343,
                0.7433914553470861
            ]
        },
        {
            "positions": [
                2.3611525038844356,
                -2.011199954170466,
                -1.5460154338252774,
                1.0996977584216352,
                0.6581212029582159,
                0.7184353449188012
            ]
        },
        {
            "positions": [
                2.4758766908485232,
                -2.0400270144734973,
                -1.6332021489762476,
                1.1801552136442146,
                0.6053801907517973,
                0.6934792344905163
            ]
        },
        {
            "positions": [
                2.5906008778126104,
                -2.0688540747765285,
                -1.7203888641272176,
                1.2606126688667938,
                0.5526391785453788,
                0.6685231240622314
            ]
        },
        {
            "positions": [
                2.705325064776698,
                -2.0976811350795597,
                -1.8075755792781878,
                1.341070124089373,
                0.49989816633896017,
                0.6435670136339464
            ]
        },
        {
            "positions": [
                2.6940866325092374,
                -2.192637321146557,
                -1.773639726838561,
                1.2527445295313864,
                0.4960440380965928,
                0.488076517628771
            ]
        },
        {
            "positions": [
                2.6828482002417773,
                -2.287593507213554,
                -1.7397038743989341,
                1.1644189349734,
                0.4921899098542254,
                0.3325860216235957
            ]
        },
        {
            "positions": [
                2.671609767974317,
                -2.3825496932805508,
                -1.7057680219593072,
                1.0760933404154134,
                0.48833578161185803,
                0.17709552561842035
            ]
        },
        {
            "positions": [
                2.6603713357068566,
                -2.477505879347548,
                -1.6718321695196805,
                0.9877677458574268,
                0.4844816533694907,
                0.021605029613244963
            ]
        }
    ]
}