{
    "goal": {
        "global_pose": {
            "orientation": {
                "w": 0.5084816262002911,
                "x": -0.4908360881923452,
                "y": 0.5182115481033761,
                "z": -0.48164630358495003
            },
            "position": {
                "x": 0.5540239810943604,
                "y": -0.46912469901144505,
                "z": 0.16403168439865112
            }
        },
        "name": "move_to_storage_B"
    },
    "id": "SBL_move_to_storage_B_14",
    "joint_names": [
        "shoulder_pan_joint",
        "shoulder_lift_joint",
        "elbow_joint",
        "wrist_1_joint",
        "wrist_2_joint",
        "wrist_3_joint"
    ],
    "metrics": {
        "cart_traj_len": 4.77573430559824,
        "distance_elbow_joint": 3.841471853209046,
        "distance_shoulder_lift_joint": 1.3574389033725816,
        "distance_shoulder_pan_joint": 3.7559782224655125,
        "distance_wrist_1_joint": 1.822131642436815,
        "distance_wrist_2_joint": 3.1051651928325232,
        "distance_wrist_3_joint": 3.987081914308173,
        "smoothness": 0.16520719884704435,
        "time": 0.57492572,
        "traj_len": 4.227205664339582,
        "weighted_distance": 5.547136954547845
    },
    "planner": "SBL",
    "start": {
        "state": {
            "elbow_joint": -1.6666013991110213,
            "shoulder_lift_joint": -2.479295265494141,
            "shoulder_pan_joint": 2.6606783912885628,
            "wrist_1_joint": 0.9897123657714939,
            "wrist_2_joint": 0.474351758749468,
            "wrist_3_joint": 0.013243222496468381
        }
    },
    "waypoints": [
        {
            "positions": [
                2.6606783912885628,
                -2.479295265494141,
                -1.6666013991110213,
                0.9897123657714939,
                0.474351758749468,
                0.013243222496468381
            ]
        },
        {
            "positions": [
                2.648490850518934,
                -2.4452788397610052,
                -1.6826154097026313,
                0.866515132411569,
                0.3318092561553867,
                -0.01695868065435193
            ]
        },
        {
            "positions": [
                2.636303309749306,
                -2.411262414027869,
                -1.6986294202942414,
                0.7433178990516439,
                0.1892667535613054,
                -0.04716058380517224
            ]
        },
        {
            "positions": [
                2.6241157689796775,
                -2.3772459882947334,
                -1.7146434308858514,
                0.620120665691719,
                0.0467242509672241,
                -0.07736248695599254
            ]
        },
        {
            "positions": [
                2.6119282282100493,
                -2.3432295625615973,
                -1.7306574414774614,
                0.4969234323317939,
                -0.0958182516268572,
                -0.10756439010681286
            ]
        },
        {
            "positions": [
                2.5997406874404207,
                -2.3092131368284616,
                -1.7466714520690714,
                0.37372619897186893,
                -0.23836075422093853,
                -0.13776629325763315
            ]
        },
        {
            "positions": [
                2.5707333441602422,
                -2.270587139936168,
                -1.7378354703781458,
                0.22951418058358058,
                -0.34333446888673796,
                -0.17240462967874193
            ]
        },
        {
            "positions": [
                2.5417260008800637,
                -2.231961143043874,
                -1.7289994886872202,
                0.08530216219529224,
                -0.44830818355253743,
                -0.2070429660998507
            ]
        },
        {
            "positions": [
                2.5127186575998857,
                -2.1933351461515804,
                -1.7201635069962946,
                -0.0589098561929961,
                -0.5532818982183368,
                -0.24168130252095948
            ]
        },
        {
            "positions": [
                2.483711314319707,
                -2.1547091492592862,
                -1.711327525305369,
                -0.20312187458128445,
                -0.6582556128841363,
                -0.27631963894206824
            ]
        },
        {
            "positions": [
                2.4547039710395286,
                -2.1160831523669925,
                -1.7024915436144434,
                -0.3473338929695728,
                -0.7632293275499357,
                -0.31095797536317704
            ]
        },
        {
            "positions": [
                2.4256966277593506,
                -2.077457155474699,
                -1.6936555619235178,
                -0.49154591135786113,
                -0.8682030422157352,
                -0.34559631178428585
            ]
        },
        {
            "positions": [
                2.396689284479172,
                -2.038831158582405,
                -1.6848195802325923,
                -0.6357579297461495,
                -0.9731767568815346,
                -0.3802346482053946
            ]
        },
        {
            "positions": [
                2.3676819411989936,
                -2.0002051616901113,
                -1.6759835985416667,
                -0.7799699481344378,
                -1.078150471547334,
                -0.41487298462650335
            ]
        },
        {
            "positions": [
                2.2658295361291128,
                -1.9743713734675068,
                -1.567433188343914,
                -0.7815125754441697,
                -1.0324839138256952,
                -0.31019752265046807
            ]
        },
        {
            "positions": [
                2.1639771310592324,
                -1.9485375852449023,
                -1.4588827781461613,
                -0.7830552027539017,
                -0.9868173561040563,
                -0.20552206067443274
            ]
        },
        {
            "positions": [
                2.0621247259893516,
                -1.922703797022298,
                -1.3503323679484085,
                -0.7845978300636336,
                -0.9411507983824173,
                -0.1008465986983974
            ]
        },
        {
            "positions": [
                1.9602723209194708,
                -1.8968700087996935,
                -1.241781957750656,
                -0.7861404573733656,
                -0.8954842406607785,
                0.003828863277637873
            ]
        },
        {
            "positions": [
                1.8584199158495902,
                -1.871036220577089,
                -1.1332315475529033,
                -0.7876830846830976,
                -0.8498176829391396,
                0.10850432525367315
            ]
        },
        {
            "positions": [
                1.7565675107797096,
                -1.8452024323544844,
                -1.0246811373551505,
                -0.7892257119928295,
                -0.8041511252175007,
                0.21317978722970854
            ]
        },
        {
            "positions": [
                1.6547151057098288,
                -1.8193686441318802,
                -0.9161307271573979,
                -0.7907683393025615,
                -0.7584845674958618,
                0.3178552492057437
            ]
        },
        {
            "positions": [
                1.5528627006399482,
                -1.7935348559092756,
                -0.8075803169596452,
                -0.7923109666122935,
                -0.7128180097742229,
                0.4225307111817791
            ]
        },
        {
            "positions": [
                1.4510102955700674,
                -1.7677010676866711,
                -0.6990299067618924,
                -0.7938535939220254,
                -0.6671514520525841,
                0.5272061731578144
            ]
        },
        {
            "positions": [
                1.3491578905001869,
                -1.7418672794640666,
                -0.5904794965641398,
                -0.7953962212317573,
                -0.6214848943309452,
                0.6318816351338497
            ]
        },
        {
            "positions": [
                1.247305485430306,
                -1.716033491241462,
                -0.481929086366387,
                -0.7969388485414893,
                -0.5758183366093063,
                0.7365570971098852
            ]
        },
        {
            "positions": [
                1.1454530803604255,
                -1.6901997030188576,
                -0.3733786761686342,
                -0.7984814758512213,
                -0.5301517788876674,
                0.8412325590859204
            ]
        },
        {
            "positions": [
                1.043600675290545,
                -1.6643659147962533,
                -0.2648282659708818,
                -0.8000241031609533,
                -0.48448522116602855,
                0.9459080210619555
            ]
        },
        {
            "positions": [
                0.9417482702206643,
                -1.6385321265736488,
                -0.15627785577312903,
                -0.8015667304706853,
                -0.4388186634443897,
                1.0505834830379908
            ]
        },
        {
            "positions": [
                0.8398958651507835,
                -1.6126983383510443,
                -0.047727445575376226,
                -0.8031093577804171,
                -0.39315210572275083,
                1.1552589450140263
            ]
        },
        {
            "positions": [
                0.7380434600809029,
                -1.5868645501284397,
                0.06082296462237635,
                -0.8046519850901491,
                -0.34748554800111187,
                1.2599344069900615
            ]
        },
        {
            "positions": [
                0.6361910550110221,
                -1.5610307619058355,
                0.16937337482012915,
                -0.8061946123998811,
                -0.301818990279473,
                1.3646098689660968
            ]
        },
        {
            "positions": [
                0.5343386499411413,
                -1.535196973683231,
                0.27792378501788195,
                -0.8077372397096131,
                -0.25615243255783415,
                1.469285330942132
            ]
        },
        {
            "positions": [
                0.43248624487126075,
                -1.5093631854606264,
                0.38647419521563475,
                -0.8092798670193451,
                -0.21048587483619519,
                1.5739607929181674
            ]
        },
        {
            "positions": [
                0.33063383980138017,
                -1.483529397238022,
                0.4950246054133871,
                -0.8108224943290769,
                -0.16481931711455633,
                1.6786362548942027
            ]
        },
        {
            "positions": [
                0.22878143473149937,
                -1.4576956090154174,
                0.6035750156111399,
                -0.8123651216388089,
                -0.11915275939291747,
                1.7833117168702382
            ]
        },
        {
            "positions": [
                0.12692902966161856,
                -1.4318618207928129,
                0.7121254258088927,
                -0.8139077489485409,
                -0.0734862016712785,
                1.8879871788462737
            ]
        },
        {
            "positions": [
                0.02507662459173776,
                -1.4060280325702084,
                0.8206758360066455,
                -0.8154503762582729,
                -0.02781964394963965,
                1.9926626408223087
            ]
        },
        {
            "positions": [
                -0.0767757804781426,
                -1.380194244347604,
                0.9292262462043983,
                -0.8169930035680049,
                0.017846913771999207,
                2.097338102798344
            ]
        },
        {
            "positions": [
                -0.1786281855480234,
                -1.3543604561249996,
                1.037776656402151,
                -0.8185356308777368,
                0.06351347149363806,
                2.2020135647743793
            ]
        },
        {
            "positions": [
                -0.28048059061790376,
                -1.3285266679023953,
                1.146327066599903,
                -0.8200782581874687,
                0.10918002921527692,
                2.3066890267504143
            ]
        },
        {
            "positions": [
                -0.38233299568778456,
                -1.3026928796797907,
                1.2548774767976558,
                -0.8216208854972007,
                0.15484658693691578,
                2.41136448872645
            ]
        },
        {
            "positions": [
                -0.4841854007576649,
                -1.2768590914571862,
                1.3634278869954086,
                -0.8231635128069327,
                0.20051314465855463,
                2.516039950702485
            ]
        },
        {
            "positions": [
                -0.5860378058275457,
                -1.2510253032345817,
                1.4719782971931614,
                -0.8247061401166647,
                0.2461797023801935,
                2.6207154126785204
            ]
        },
        {
            "positions": [
                -0.6878902108974265,
                -1.2251915150119772,
                1.5805287073909142,
                -0.8262487674263966,
                0.29184626010183234,
                2.725390874654556
            ]
        },
        {
            "positions": [
                -0.7897426159673073,
                -1.1993577267893727,
                1.689079117588667,
                -0.8277913947361286,
                0.3375128178234714,
                2.830066336630591
            ]
        },
        {
            "positions": [
                -0.8915950210371877,
                -1.1735239385667682,
                1.7976295277864194,
                -0.8293340220458605,
                0.3831793755451103,
                2.9347417986066264
            ]
        },
        {
            "positions": [
                -0.9934474261070685,
                -1.1476901503441639,
                1.9061799379841722,
                -0.8308766493555925,
                0.42884593326674914,
                3.0394172605826615
            ]
        },
        {
            "positions": [
                -1.0952998311769493,
                -1.1218563621215594,
                2.0147303481819248,
                -0.8324192766653244,
                0.474512490988388,
                3.144092722558697
            ]
        }
    ]
}