{
    "goal": {
        "global_pose": {
            "orientation": {
                "w": -0.00223480608172531,
                "x": 0.0024358444001904467,
                "y": 0.7094548369677653,
                "z": -0.704743149386269
            },
            "position": {
                "x": -0.37947507619857795,
                "y": -0.6371506643295288,
                "z": 0.19426114857196808
            }
        },
        "name": "move_to_magneteinheit_C"
    },
    "id": "SBL_move_to_magneteinheit_C_134",
    "joint_names": [
        "shoulder_pan_joint",
        "shoulder_lift_joint",
        "elbow_joint",
        "wrist_1_joint",
        "wrist_2_joint",
        "wrist_3_joint"
    ],
    "metrics": {
        "cart_traj_len": 5.03305264510295,
        "distance_elbow_joint": 1.3239593027894596,
        "distance_shoulder_lift_joint": 1.6400796954751262,
        "distance_shoulder_pan_joint": 9.924148036147711,
        "distance_wrist_1_joint": 7.912304427328573,
        "distance_wrist_2_joint": 7.214910091164754,
        "distance_wrist_3_joint": 2.3436801257891795,
        "smoothness": 0.4654877914526719,
        "time": 0.631817063,
        "traj_len": 5.5099075925731125,
        "weighted_distance": 7.0833365336376986
    },
    "planner": "SBL",
    "start": {
        "state": {
            "elbow_joint": 1.9565354010623817,
            "shoulder_lift_joint": -1.4165861575791021,
            "shoulder_pan_joint": -1.6717766225146293,
            "wrist_1_joint": -0.5286633292919765,
            "wrist_2_joint": 1.472756589071564,
            "wrist_3_joint": -3.1238370188695823
        }
    },
    "waypoints": [
        {
            "positions": [
                -1.6717766225146293,
                -1.4165861575791021,
                1.9565354010623817,
                -0.5286633292919765,
                1.472756589071564,
                -3.1238370188695823
            ]
        },
        {
            "positions": [
                -1.6103905659558215,
                -1.4404648799917736,
                1.9251545192265305,
                -0.49962360721518095,
                1.3519741366137172,
                -3.0079951167046484
            ]
        },
        {
            "positions": [
                -1.5490045093970137,
                -1.464343602404445,
                1.8937736373906795,
                -0.4705838851383854,
                1.2311916841558705,
                -2.892153214539714
            ]
        },
        {
            "positions": [
                -1.4876184528382062,
                -1.4882223248171165,
                1.8623927555548283,
                -0.44154416306158983,
                1.1104092316980236,
                -2.77631131237478
            ]
        },
        {
            "positions": [
                -1.4262323962793984,
                -1.512101047229788,
                1.8310118737189773,
                -0.41250444098479433,
                0.989626779240177,
                -2.6604694102098456
            ]
        },
        {
            "positions": [
                -1.3648463397205906,
                -1.5359797696424593,
                1.7996309918831261,
                -0.3834647189079988,
                0.8688443267823303,
                -2.5446275080449117
            ]
        },
        {
            "positions": [
                -1.3034602831617828,
                -1.5598584920551308,
                1.768250110047275,
                -0.35442499683120327,
                0.7480618743244836,
                -2.4287856058799773
            ]
        },
        {
            "positions": [
                -1.2420742266029752,
                -1.5837372144678024,
                1.736869228211424,
                -0.3253852747544077,
                0.6272794218666369,
                -2.3129437037150433
            ]
        },
        {
            "positions": [
                -1.1806881700441672,
                -1.6076159368804739,
                1.7054883463755728,
                -0.2963455526776122,
                0.50649696940879,
                -2.197101801550109
            ]
        },
        {
            "positions": [
                -1.1193021134853596,
                -1.6314946592931452,
                1.6741074645397216,
                -0.26730583060081664,
                0.3857145169509433,
                -2.081259899385175
            ]
        },
        {
            "positions": [
                -1.0579160569265518,
                -1.6553733817058167,
                1.6427265827038706,
                -0.23826610852402114,
                0.26493206449309653,
                -1.9654179972202408
            ]
        },
        {
            "positions": [
                -0.9263175554419125,
                -1.6705242960105398,
                1.6656557881883753,
                -0.12101228157247852,
                0.1716760053344905,
                -1.9728411519749138
            ]
        },
        {
            "positions": [
                -0.7947190539572734,
                -1.6856752103152628,
                1.68858499367288,
                -0.003758454620935908,
                0.07841994617588446,
                -1.9802643067295869
            ]
        },
        {
            "positions": [
                -0.6631205524726341,
                -1.7008261246199858,
                1.7115141991573848,
                0.11349537233060675,
                -0.014836112982721583,
                -1.98768746148426
            ]
        },
        {
            "positions": [
                -0.531522050987995,
                -1.7159770389247089,
                1.7344434046418895,
                0.23074919928214932,
                -0.1080921721413276,
                -1.995110616238933
            ]
        },
        {
            "positions": [
                -0.39992354950335574,
                -1.731127953229432,
                1.7573726101263942,
                0.3480030262336919,
                -0.20134823129993362,
                -2.002533770993606
            ]
        },
        {
            "positions": [
                -0.2683250480187165,
                -1.746278867534155,
                1.780301815610899,
                0.46525685318523463,
                -0.2946042904585397,
                -2.0099569257482792
            ]
        },
        {
            "positions": [
                -0.13672654653407734,
                -1.7614297818388782,
                1.803231021095404,
                0.5825106801367772,
                -0.3878603496171457,
                -2.017380080502952
            ]
        },
        {
            "positions": [
                -0.005128045049438201,
                -1.776580696143601,
                1.8261602265799084,
                0.6997645070883198,
                -0.48111640877575174,
                -2.0248032352576253
            ]
        },
        {
            "positions": [
                0.12647045643520105,
                -1.7917316104483243,
                1.8490894320644133,
                0.8170183340398622,
                -0.5743724679343578,
                -2.032226390012298
            ]
        },
        {
            "positions": [
                0.2580689579198403,
                -1.8068825247530473,
                1.872018637548918,
                0.9342721609914049,
                -0.6676285270929638,
                -2.0396495447669714
            ]
        },
        {
            "positions": [
                0.38966745940447933,
                -1.8220334390577704,
                1.8949478430334228,
                1.0515259879429475,
                -0.7608845862515696,
                -2.0470726995216446
            ]
        },
        {
            "positions": [
                0.5212659608891188,
                -1.8371843533624934,
                1.9178770485179275,
                1.1687798148944903,
                -0.8541406454101759,
                -2.0544958542763174
            ]
        },
        {
            "positions": [
                0.6528644623737581,
                -1.8523352676672165,
                1.9408062540024322,
                1.2860336418460327,
                -0.9473967045687819,
                -2.0619190090309907
            ]
        },
        {
            "positions": [
                0.7844629638583971,
                -1.8674861819719395,
                1.963735459486937,
                1.4032874687975754,
                -1.040652763727388,
                -2.0693421637856635
            ]
        },
        {
            "positions": [
                0.9160614653430363,
                -1.8826370962766625,
                1.9866646649714417,
                1.520541295749118,
                -1.133908822885994,
                -2.0767653185403367
            ]
        },
        {
            "positions": [
                1.0476599668276754,
                -1.8977880105813856,
                2.009593870455946,
                1.6377951227006606,
                -1.2271648820446,
                -2.0841884732950096
            ]
        },
        {
            "positions": [
                1.1792584683123148,
                -1.9129389248861086,
                2.032523075940451,
                1.7550489496522033,
                -1.320420941203206,
                -2.091611628049683
            ]
        },
        {
            "positions": [
                1.3108569697969539,
                -1.9280898391908317,
                2.055452281424956,
                1.8723027766037457,
                -1.413677000361812,
                -2.0990347828043556
            ]
        },
        {
            "positions": [
                1.442455471281593,
                -1.9432407534955547,
                2.0783814869094606,
                1.9895566035552883,
                -1.506933059520418,
                -2.106457937559029
            ]
        },
        {
            "positions": [
                1.5740539727662324,
                -1.9583916678002777,
                2.1013106923939655,
                2.106810430506831,
                -1.600189118679024,
                -2.1138810923137017
            ]
        },
        {
            "positions": [
                1.7056524742508714,
                -1.9735425821050008,
                2.12423989787847,
                2.2240642574583736,
                -1.69344517783763,
                -2.121304247068375
            ]
        },
        {
            "positions": [
                1.8372509757355104,
                -1.9886934964097238,
                2.147169103362975,
                2.341318084409916,
                -1.7867012369962358,
                -2.128727401823048
            ]
        },
        {
            "positions": [
                1.9688494772201504,
                -2.003844410714447,
                2.1700983088474795,
                2.4585719113614593,
                -1.8799572961548425,
                -2.136150556577721
            ]
        },
        {
            "positions": [
                2.100447978704789,
                -2.01899532501917,
                2.1930275143319844,
                2.575825738313002,
                -1.9732133553134483,
                -2.1435737113323943
            ]
        },
        {
            "positions": [
                2.232046480189428,
                -2.034146239323893,
                2.2159567198164893,
                2.693079565264544,
                -2.0664694144720546,
                -2.150996866087067
            ]
        },
        {
            "positions": [
                2.363644981674068,
                -2.049297153628616,
                2.238885925300994,
                2.8103333922160867,
                -2.1597254736306604,
                -2.1584200208417403
            ]
        },
        {
            "positions": [
                2.495243483158707,
                -2.064448067933339,
                2.2618151307854983,
                2.9275872191676293,
                -2.2529815327892666,
                -2.165843175596413
            ]
        },
        {
            "positions": [
                2.626841984643346,
                -2.0795989822380623,
                2.2847443362700033,
                3.044841046119172,
                -2.3462375919478724,
                -2.1732663303510864
            ]
        },
        {
            "positions": [
                2.758440486127985,
                -2.094749896542785,
                2.3076735417545082,
                3.1620948730707146,
                -2.4394936511064786,
                -2.180689485105759
            ]
        },
        {
            "positions": [
                2.8900389876126242,
                -2.1099008108475084,
                2.3306027472390127,
                3.279348700022257,
                -2.5327497102650844,
                -2.1881126398604325
            ]
        },
        {
            "positions": [
                2.7489249764015597,
                -2.0849859413157525,
                2.32212184408386,
                3.1713410053376694,
                -2.4482917157432924,
                -2.2134433362156862
            ]
        },
        {
            "positions": [
                2.607810965190495,
                -2.0600710717839967,
                2.3136409409287073,
                3.063333310653081,
                -2.3638337212215,
                -2.23877403257094
            ]
        },
        {
            "positions": [
                2.4666969539794303,
                -2.035156202252241,
                2.3051600377735544,
                2.9553256159684933,
                -2.279375726699708,
                -2.264104728926194
            ]
        },
        {
            "positions": [
                2.3255829427683654,
                -2.010241332720485,
                2.2966791346184015,
                2.8473179212839055,
                -2.194917732177916,
                -2.289435425281448
            ]
        },
        {
            "positions": [
                2.184468931557301,
                -1.9853264631887295,
                2.2881982314632485,
                2.7393102265993177,
                -2.1104597376561234,
                -2.3147661216367017
            ]
        },
        {
            "positions": [
                2.043354920346236,
                -1.9604115936569737,
                2.279717328308096,
                2.6313025319147294,
                -2.0260017431343313,
                -2.3400968179919555
            ]
        },
        {
            "positions": [
                1.9022409091351715,
                -1.935496724125218,
                2.271236425152943,
                2.5232948372301416,
                -1.941543748612539,
                -2.365427514347209
            ]
        },
        {
            "positions": [
                1.7611268979241068,
                -1.910581854593462,
                2.26275552199779,
                2.4152871425455533,
                -1.8570857540907468,
                -2.3907582107024634
            ]
        },
        {
            "positions": [
                1.620012886713042,
                -1.8856669850617063,
                2.2542746188426377,
                2.3072794478609655,
                -1.7726277595689548,
                -2.416088907057717
            ]
        },
        {
            "positions": [
                1.4788988755019774,
                -1.8607521155299505,
                2.2457937156874848,
                2.1992717531763777,
                -1.6881697650471625,
                -2.441419603412971
            ]
        },
        {
            "positions": [
                1.3377848642909125,
                -1.8358372459981946,
                2.237312812532332,
                2.09126405849179,
                -1.6037117705253703,
                -2.4667502997682247
            ]
        },
        {
            "positions": [
                1.196670853079848,
                -1.8109223764664388,
                2.2288319093771793,
                1.9832563638072018,
                -1.519253776003578,
                -2.4920809961234784
            ]
        },
        {
            "positions": [
                1.055556841868783,
                -1.786007506934683,
                2.2203510062220264,
                1.8752486691226138,
                -1.4347957814817858,
                -2.5174116924787326
            ]
        },
        {
            "positions": [
                0.9144428306577186,
                -1.7610926374029274,
                2.2118701030668735,
                1.767240974438026,
                -1.3503377869599937,
                -2.5427423888339864
            ]
        },
        {
            "positions": [
                0.7733288194466539,
                -1.7361777678711716,
                2.2033891999117206,
                1.6592332797534377,
                -1.2658797924382015,
                -2.56807308518924
            ]
        },
        {
            "positions": [
                0.6322148082355894,
                -1.7112628983394158,
                2.194908296756568,
                1.5512255850688499,
                -1.1814217979164094,
                -2.593403781544494
            ]
        },
        {
            "positions": [
                0.49110079702452447,
                -1.68634802880766,
                2.186427393601415,
                1.4432178903842618,
                -1.096963803394617,
                -2.618734477899748
            ]
        },
        {
            "positions": [
                0.34998678581346,
                -1.6614331592759042,
                2.177946490446262,
                1.335210195699674,
                -1.012505808872825,
                -2.644065174255002
            ]
        },
        {
            "positions": [
                0.20887277460239506,
                -1.6365182897441484,
                2.1694655872911097,
                1.227202501015086,
                -0.9280478143510327,
                -2.6693958706102556
            ]
        },
        {
            "positions": [
                0.06775876339133058,
                -1.6116034202123926,
                2.160984684135957,
                1.1191948063304982,
                -0.8435898198292406,
                -2.6947265669655094
            ]
        },
        {
            "positions": [
                -0.07335524781973479,
                -1.5866885506806367,
                2.152503780980804,
                1.01118711164591,
                -0.7591318253074482,
                -2.720057263320763
            ]
        },
        {
            "positions": [
                -0.21446925903079928,
                -1.561773681148881,
                2.144022877825651,
                0.9031794169613221,
                -0.6746738307856559,
                -2.7453879596760173
            ]
        },
        {
            "positions": [
                -0.35558327024186376,
                -1.5368588116171251,
                2.1355419746704984,
                0.7951717222767343,
                -0.5902158362638639,
                -2.770718656031271
            ]
        },
        {
            "positions": [
                -0.49669728145292824,
                -1.5119439420853693,
                2.1270610715153455,
                0.6871640275921465,
                -0.5057578417420716,
                -2.796049352386525
            ]
        },
        {
            "positions": [
                -0.6378112926639932,
                -1.4870290725536135,
                2.1185801683601926,
                0.5791563329075582,
                -0.42129984722027913,
                -2.8213800487417786
            ]
        },
        {
            "positions": [
                -0.7789253038750581,
                -1.4621142030218577,
                2.11009926520504,
                0.4711486382229704,
                -0.3368418526984871,
                -2.846710745097033
            ]
        },
        {
            "positions": [
                -0.9200393150861226,
                -1.437199333490102,
                2.101618362049887,
                0.36314094353838255,
                -0.25238385817669506,
                -2.8720414414522866
            ]
        },
        {
            "positions": [
                -1.061153326297187,
                -1.4122844639583463,
                2.0931374588947342,
                0.25513324885379474,
                -0.16792586365490303,
                -2.8973721378075403
            ]
        },
        {
            "positions": [
                -1.2022673375082524,
                -1.3873695944265905,
                2.0846565557395813,
                0.14712555416920603,
                -0.08346786913311055,
                -2.922702834162794
            ]
        },
        {
            "positions": [
                -1.3433813487193165,
                -1.3624547248948347,
                2.076175652584429,
                0.03911785948461821,
                0.0009901253886814843,
                -2.948033530518048
            ]
        },
        {
            "positions": [
                -1.4844953599303814,
                -1.337539855363079,
                2.067694749429276,
                -0.0688898351999696,
                0.08544811991047352,
                -2.9733642268733016
            ]
        },
        {
            "positions": [
                -1.6256093711414454,
                -1.3126249858313233,
                2.059213846274123,
                -0.17689752988455743,
                0.16990611443226555,
                -2.998694923228556
            ]
        },
        {
            "positions": [
                -1.7667233823525113,
                -1.2877101162995674,
                2.0507329431189705,
                -0.2849052245691457,
                0.25436410895405803,
                -3.0240256195838096
            ]
        },
        {
            "positions": [
                -1.9078373935635753,
                -1.2627952467678116,
                2.0422520399638175,
                -0.3929129192537335,
                0.3388221034758505,
                -3.0493563159390633
            ]
        },
        {
            "positions": [
                -2.04895140477464,
                -1.2378803772360558,
                2.0337711368086646,
                -0.5009206139383213,
                0.42328009799764255,
                -3.074687012294317
            ]
        },
        {
            "positions": [
                -2.1900654159857043,
                -1.2129655077043,
                2.0252902336535117,
                -0.6089283086229091,
                0.5077380925194346,
                -3.1000177086495713
            ]
        },
        {
            "positions": [
                -2.331179427196769,
                -1.1880506381725442,
                2.016809330498359,
                -0.7169360033074974,
                0.5921960870412271,
                -3.125348405004825
            ]
        },
        {
            "positions": [
                -2.4722934384078337,
                -1.1631357686407884,
                2.0083284273432063,
                -0.8249436979920851,
                0.6766540815630193,
                -3.150679101360079
            ]
        }
    ]
}