{
    "goal": {
        "global_pose": {
            "orientation": {
                "w": 0.7047431468963623,
                "x": -0.7094548344612122,
                "y": 0.0024358443915843964,
                "z": -0.0022348060738295317
            },
            "position": {
                "x": 0.6094750761985779,
                "y": 0.3671506643295288,
                "z": 0.19426114857196808
            }
        },
        "name": "move_to_magneteinheit_A"
    },
    "id": "SBL_move_to_magneteinheit_A_63",
    "joint_names": [
        "shoulder_pan_joint",
        "shoulder_lift_joint",
        "elbow_joint",
        "wrist_1_joint",
        "wrist_2_joint",
        "wrist_3_joint"
    ],
    "metrics": {
        "cart_traj_len": 3.810614553161217,
        "distance_elbow_joint": 3.88019420198735,
        "distance_shoulder_lift_joint": 0.1390223423227155,
        "distance_shoulder_pan_joint": 3.3153949697202636,
        "distance_wrist_1_joint": 0.872720111673549,
        "distance_wrist_2_joint": 1.6951383993264841,
        "distance_wrist_3_joint": 3.6661094380406127,
        "smoothness": 0.25113326130005176,
        "time": 0.251276249,
        "traj_len": 3.6835552748765665,
        "weighted_distance": 4.84444597969182
    },
    "planner": "SBL",
    "start": {
        "state": {
            "elbow_joint": -1.9196185241190666,
            "shoulder_lift_joint": -1.2443396400964142,
            "shoulder_pan_joint": 2.6996025414629847,
            "wrist_1_joint": -1.5485510000780065,
            "wrist_2_joint": -1.5709468930060704,
            "wrist_3_joint": 0.4420197071253992
        }
    },
    "waypoints": [
        {
            "positions": [
                2.6996025414629847,
                -1.2443396400964142,
                -1.9196185241190666,
                -1.5485510000780065,
                -1.5709468930060704,
                0.4420197071253992
            ]
        },
        {
            "positions": [
                2.6045798676386216,
                -1.240309331601169,
                -1.813082188247249,
                -1.5213940376643869,
                -1.5189131960629274,
                0.33824986263211726
            ]
        },
        {
            "positions": [
                2.509557193814258,
                -1.236279023105924,
                -1.7065458523754313,
                -1.4942370752507672,
                -1.4668794991197847,
                0.23448001813883534
            ]
        },
        {
            "positions": [
                2.4145345199898944,
                -1.2322487146106786,
                -1.6000095165036137,
                -1.4670801128371473,
                -1.4148458021766417,
                0.13071017364555343
            ]
        },
        {
            "positions": [
                2.3195118461655313,
                -1.2282184061154335,
                -1.493473180631796,
                -1.4399231504235277,
                -1.3628121052334987,
                0.026940329152271514
            ]
        },
        {
            "positions": [
                2.224489172341168,
                -1.2241880976201884,
                -1.3869368447599784,
                -1.412766188009908,
                -1.310778408290356,
                -0.07682951534101046
            ]
        },
        {
            "positions": [
                2.1294664985168046,
                -1.2201577891249433,
                -1.2804005088881607,
                -1.3856092255962884,
                -1.258744711347213,
                -0.18059935983429232
            ]
        },
        {
            "positions": [
                2.034443824692441,
                -1.2161274806296982,
                -1.1738641730163428,
                -1.3584522631826688,
                -1.2067110144040702,
                -0.2843692043275743
            ]
        },
        {
            "positions": [
                1.9394211508680779,
                -1.212097172134453,
                -1.0673278371445252,
                -1.331295300769049,
                -1.1546773174609273,
                -0.38813904882085615
            ]
        },
        {
            "positions": [
                1.8443984770437143,
                -1.2080668636392078,
                -0.9607915012727074,
                -1.3041383383554292,
                -1.1026436205177843,
                -0.49190889331413823
            ]
        },
        {
            "positions": [
                1.7493758032193512,
                -1.2040365551439627,
                -0.8542551654008899,
                -1.2769813759418096,
                -1.0506099235746413,
                -0.5956787378074201
            ]
        },
        {
            "positions": [
                1.6543531293949876,
                -1.2000062466487176,
                -0.747718829529072,
                -1.2498244135281897,
                -0.9985762266314986,
                -0.6994485823007021
            ]
        },
        {
            "positions": [
                1.5593304555706244,
                -1.1959759381534725,
                -0.6411824936572545,
                -1.22266745111457,
                -0.9465425296883557,
                -0.8032184267939838
            ]
        },
        {
            "positions": [
                1.4643077817462609,
                -1.1919456296582271,
                -0.5346461577854367,
                -1.1955104887009504,
                -0.8945088327452128,
                -0.9069882712872658
            ]
        },
        {
            "positions": [
                1.3692851079218977,
                -1.187915321162982,
                -0.428109821913619,
                -1.1683535262873308,
                -0.8424751358020699,
                -1.0107581157805479
            ]
        },
        {
            "positions": [
                1.2742624340975341,
                -1.183885012667737,
                -0.32157348604180136,
                -1.1411965638737112,
                -0.7904414388589269,
                -1.1145279602738296
            ]
        },
        {
            "positions": [
                1.179239760273171,
                -1.1798547041724918,
                -0.2150371501699837,
                -1.1140396014600915,
                -0.7384077419157842,
                -1.2182978047671114
            ]
        },
        {
            "positions": [
                1.0842170864488077,
                -1.1758243956772467,
                -0.10850081429816605,
                -1.0868826390464716,
                -0.6863740449726413,
                -1.3220676492603936
            ]
        },
        {
            "positions": [
                0.9891944126244441,
                -1.1717940871820014,
                -0.0019644784263481707,
                -1.059725676632852,
                -0.6343403480294982,
                -1.4258374937536757
            ]
        },
        {
            "positions": [
                0.8941717388000807,
                -1.1677637786867563,
                0.10457185744546926,
                -1.0325687142192321,
                -0.5823066510863554,
                -1.5296073382469575
            ]
        },
        {
            "positions": [
                0.7991490649757176,
                -1.1637334701915112,
                0.21110819331728692,
                -1.0054117518056125,
                -0.5302729541432125,
                -1.6333771827402392
            ]
        },
        {
            "positions": [
                0.7041263911513542,
                -1.159703161696266,
                0.3176445291891046,
                -0.978254789391993,
                -0.47823925720006977,
                -1.737147027233521
            ]
        },
        {
            "positions": [
                0.6091037173269904,
                -1.155672853201021,
                0.4241808650609227,
                -0.9510978269783732,
                -0.4262055602569268,
                -1.8409168717268032
            ]
        },
        {
            "positions": [
                0.5140810435026273,
                -1.1516425447057759,
                0.5307172009327403,
                -0.9239408645647536,
                -0.3741718633137838,
                -1.944686716220085
            ]
        },
        {
            "positions": [
                0.41905836967826415,
                -1.1476122362105305,
                0.6372535368045575,
                -0.8967839021511338,
                -0.3221381663706411,
                -2.0484565607133667
            ]
        },
        {
            "positions": [
                0.3240356958539006,
                -1.1435819277152854,
                0.7437898726763752,
                -0.8696269397375141,
                -0.2701044694274981,
                -2.1522264052066484
            ]
        },
        {
            "positions": [
                0.229013022029537,
                -1.1395516192200403,
                0.8503262085481933,
                -0.8424699773238944,
                -0.21807077248435514,
                -2.2559962496999306
            ]
        },
        {
            "positions": [
                0.13399034820517386,
                -1.1355213107247952,
                0.956862544420011,
                -0.8153130149102747,
                -0.1660370755412124,
                -2.3597660941932124
            ]
        },
        {
            "positions": [
                0.038967674380810724,
                -1.1314910022295501,
                1.0633988802918286,
                -0.7881560524966551,
                -0.11400337859806942,
                -2.4635359386864946
            ]
        },
        {
            "positions": [
                -0.056054999443552855,
                -1.1274606937343048,
                1.1699352161636458,
                -0.7609990900830353,
                -0.06196968165492667,
                -2.5673057831797763
            ]
        },
        {
            "positions": [
                -0.15107767326791643,
                -1.1234303852390597,
                1.276471552035464,
                -0.7338421276694156,
                -0.009935984711783474,
                -2.6710756276730585
            ]
        },
        {
            "positions": [
                -0.24610034709227951,
                -1.1194000767438146,
                1.3830078879072816,
                -0.7066851652557959,
                0.04209771223135933,
                -2.7748454721663403
            ]
        },
        {
            "positions": [
                -0.1536773268010296,
                -1.1229207714863436,
                1.527399835397532,
                -0.7143987344686306,
                0.06262116075362294,
                -2.8871565368535586
            ]
        },
        {
            "positions": [
                -0.0612543065097797,
                -1.1264414662288726,
                1.6717917828877824,
                -0.7221123036814652,
                0.08314460927588654,
                -2.999467601540777
            ]
        },
        {
            "positions": [
                0.03116871378147018,
                -1.1299621609714015,
                1.8161837303780328,
                -0.7298258728942998,
                0.10366805779815016,
                -3.111778666227995
            ]
        },
        {
            "positions": [
                0.12359173407272013,
                -1.1334828557139305,
                1.9605756778682832,
                -0.7375394421071344,
                0.12419150632041377,
                -3.2240897309152134
            ]
        }
    ]
}