{
    "goal": {
        "global_pose": {
            "orientation": {
                "w": 0.5084816217422485,
                "x": -0.49083608388900757,
                "y": 0.5182115435600281,
                "z": -0.4816462993621826
            },
            "position": {
                "x": 0.5540239810943604,
                "y": 0.030875300988554955,
                "z": 0.16403168439865112
            }
        },
        "name": "move_to_storage_A"
    },
    "id": "SBL_move_to_storage_A_79",
    "joint_names": [
        "shoulder_pan_joint",
        "shoulder_lift_joint",
        "elbow_joint",
        "wrist_1_joint",
        "wrist_2_joint",
        "wrist_3_joint"
    ],
    "metrics": {
        "cart_traj_len": 0.3534209802561848,
        "distance_elbow_joint": 0.4488359078624402,
        "distance_shoulder_lift_joint": 0.23243232837344951,
        "distance_shoulder_pan_joint": 0.46076012611945777,
        "distance_wrist_1_joint": 0.24018049356593618,
        "distance_wrist_2_joint": 1.1044495612313945,
        "distance_wrist_3_joint": 0.09189190385908397,
        "smoothness": 4.440892133664971e-16,
        "time": 0.14005627,
        "traj_len": 1.6057865116545729,
        "weighted_distance": 2.026564626042619
    },
    "planner": "SBL",
    "start": {
        "state": {
            "elbow_joint": 1.9715481507254546,
            "shoulder_lift_joint": -1.1394850672790213,
            "shoulder_pan_joint": 0.12281154597544902,
            "wrist_1_joint": -0.7804720171073349,
            "wrist_2_joint": 0.12958658322886563,
            "wrist_3_joint": -3.1924895760937617
        }
    },
    "waypoints": [
        {
            "positions": [
                0.12281154597544902,
                -1.1394850672790213,
                1.9715481507254546,
                -0.7804720171073349,
                0.12958658322886563,
                -3.1924895760937617
            ]
        },
        {
            "positions": [
                0.056988670815526485,
                -1.1726896856180855,
                2.0356675661343746,
                -0.814783516188183,
                0.2873650919762077,
                -3.1793621612567495
            ]
        },
        {
            "positions": [
                -0.008834204344396052,
                -1.2058943039571497,
                2.0997869815432946,
                -0.849095015269031,
                0.44514360072354975,
                -3.166234746419738
            ]
        },
        {
            "positions": [
                -0.07465707950431857,
                -1.2390989222962139,
                2.1639063969522145,
                -0.883406514349879,
                0.6029221094708919,
                -3.1531073315827256
            ]
        },
        {
            "positions": [
                -0.14047995466424112,
                -1.2723035406352783,
                2.2280258123611345,
                -0.917718013430727,
                0.7607006182182339,
                -3.139979916745714
            ]
        },
        {
            "positions": [
                -0.2063028298241637,
                -1.3055081589743425,
                2.292145227770055,
                -0.9520295125115751,
                0.918479126965576,
                -3.1268525019087017
            ]
        },
        {
            "positions": [
                -0.27212570498408617,
                -1.3387127773134067,
                2.356264643178975,
                -0.986341011592423,
                1.0762576357129179,
                -3.11372508707169
            ]
        },
        {
            "positions": [
                -0.33794858014400875,
                -1.3719173956524708,
                2.420384058587895,
                -1.0206525106732711,
                1.23403614446026,
                -3.1005976722346777
            ]
        }
    ]
}