{
    "goal": {
        "global_pose": {
            "orientation": {
                "w": 0.5084816217422485,
                "x": -0.49083608388900757,
                "y": 0.5182115435600281,
                "z": -0.4816462993621826
            },
            "position": {
                "x": 0.5540239810943604,
                "y": 0.030875300988554955,
                "z": 0.16403168439865112
            }
        },
        "name": "move_to_storage_A"
    },
    "id": "SBL_move_to_storage_A_46",
    "joint_names": [
        "shoulder_pan_joint",
        "shoulder_lift_joint",
        "elbow_joint",
        "wrist_1_joint",
        "wrist_2_joint",
        "wrist_3_joint"
    ],
    "metrics": {
        "cart_traj_len": 0.3524626681586756,
        "distance_elbow_joint": 0.4476343283861701,
        "distance_shoulder_lift_joint": 0.2360460567094087,
        "distance_shoulder_pan_joint": 0.45922219150919524,
        "distance_wrist_1_joint": 0.23338542830646247,
        "distance_wrist_2_joint": 1.105177226162025,
        "distance_wrist_3_joint": 0.10096252377362847,
        "smoothness": 4.440892098500626e-16,
        "time": 0.107315172,
        "traj_len": 1.6069933897956425,
        "weighted_distance": 2.030496357264064
    },
    "planner": "SBL",
    "start": {
        "state": {
            "elbow_joint": 1.9715481507254546,
            "shoulder_lift_joint": -1.1394850672790213,
            "shoulder_pan_joint": 0.12281154597544902,
            "wrist_1_joint": -0.7804720171073349,
            "wrist_2_joint": 0.12958658322886563,
            "wrist_3_joint": -3.1924895760937617
        }
    },
    "waypoints": [
        {
            "positions": [
                0.12281154597544902,
                -1.1394850672790213,
                1.9715481507254546,
                -0.7804720171073349,
                0.12958658322886563,
                -3.1924895760937617
            ]
        },
        {
            "positions": [
                0.0572083757598497,
                -1.1732059325232225,
                2.035495911923479,
                -0.8138127925796868,
                0.28746904410915486,
                -3.1780663584118147
            ]
        },
        {
            "positions": [
                -0.008394794455749616,
                -1.2069267977674238,
                2.0994436731215034,
                -0.8471535680520385,
                0.44535150498944415,
                -3.1636431407298677
            ]
        },
        {
            "positions": [
                -0.07399796467134892,
                -1.240647663011625,
                2.1633914343195277,
                -0.8804943435243903,
                0.6032339658697334,
                -3.1492199230479208
            ]
        },
        {
            "positions": [
                -0.13960113488694825,
                -1.2743685282558264,
                2.2273391955175517,
                -0.9138351189967421,
                0.7611164267500227,
                -3.134796705365974
            ]
        },
        {
            "positions": [
                -0.2052043051025476,
                -1.3080893935000275,
                2.291286956715576,
                -0.9471758944690938,
                0.918998887630312,
                -3.1203734876840272
            ]
        },
        {
            "positions": [
                -0.27080747531814686,
                -1.3418102587442289,
                2.3552347179136004,
                -0.9805166699414456,
                1.0768813485106012,
                -3.1059502700020802
            ]
        },
        {
            "positions": [
                -0.3364106455337462,
                -1.37553112398843,
                2.4191824791116248,
                -1.0138574454137974,
                1.2347638093908906,
                -3.0915270523201333
            ]
        }
    ]
}