{
    "goal": {
        "global_pose": {
            "orientation": {
                "w": 0.5084816217422485,
                "x": -0.49083608388900757,
                "y": 0.5182115435600281,
                "z": -0.4816462993621826
            },
            "position": {
                "x": 0.5540239810943604,
                "y": 0.030875300988554955,
                "z": 0.16403168439865112
            }
        },
        "name": "move_to_storage_A"
    },
    "id": "SBL_move_to_storage_A_75",
    "joint_names": [
        "shoulder_pan_joint",
        "shoulder_lift_joint",
        "elbow_joint",
        "wrist_1_joint",
        "wrist_2_joint",
        "wrist_3_joint"
    ],
    "metrics": {
        "cart_traj_len": 0.353129413321484,
        "distance_elbow_joint": 0.4511542577032466,
        "distance_shoulder_lift_joint": 0.23540009329837663,
        "distance_shoulder_pan_joint": 0.4633442610177377,
        "distance_wrist_1_joint": 0.24855644337111316,
        "distance_wrist_2_joint": 1.0924769307368152,
        "distance_wrist_3_joint": 0.09648061507510164,
        "smoothness": 4.440892133664971e-16,
        "time": 0.123280327,
        "traj_len": 1.6085436273854654,
        "weighted_distance": 2.030124923609511
    },
    "planner": "SBL",
    "start": {
        "state": {
            "elbow_joint": 1.9715481507254546,
            "shoulder_lift_joint": -1.1394850672790213,
            "shoulder_pan_joint": 0.12281154597544902,
            "wrist_1_joint": -0.7804720171073349,
            "wrist_2_joint": 0.12958658322886563,
            "wrist_3_joint": -3.1924895760937617
        }
    },
    "waypoints": [
        {
            "positions": [
                0.12281154597544902,
                -1.1394850672790213,
                1.9715481507254546,
                -0.7804720171073349,
                0.12958658322886563,
                -3.1924895760937617
            ]
        },
        {
            "positions": [
                0.05661950868720078,
                -1.1731136520359322,
                2.0359987589687756,
                -0.8159800804460654,
                0.2856547161912678,
                -3.178706631083033
            ]
        },
        {
            "positions": [
                -0.009572528601047459,
                -1.2067422367928433,
                2.1004493672120965,
                -0.8514881437847959,
                0.44172284915366994,
                -3.1649236860723042
            ]
        },
        {
            "positions": [
                -0.0757645658892957,
                -1.2403708215497542,
                2.1648999754554175,
                -0.8869962071235262,
                0.5977909821160721,
                -3.1511407410615755
            ]
        },
        {
            "positions": [
                -0.14195660317754394,
                -1.273999406306665,
                2.2293505836987384,
                -0.9225042704622567,
                0.7538591150784743,
                -3.1373577960508463
            ]
        },
        {
            "positions": [
                -0.20814864046579218,
                -1.3076279910635762,
                2.2938011919420593,
                -0.9580123338009872,
                0.9099272480408764,
                -3.1235748510401176
            ]
        },
        {
            "positions": [
                -0.2743406777540404,
                -1.341256575820487,
                2.3582518001853803,
                -0.9935203971397176,
                1.0659953810032787,
                -3.109791906029389
            ]
        },
        {
            "positions": [
                -0.34053271504228866,
                -1.374885160577398,
                2.422702408428701,
                -1.029028460478448,
                1.2220635139656808,
                -3.09600896101866
            ]
        }
    ]
}