{
    "goal": {
        "global_pose": {
            "orientation": {
                "w": 0.5084816217422485,
                "x": -0.49083608388900757,
                "y": 0.5182115435600281,
                "z": -0.4816462993621826
            },
            "position": {
                "x": 0.5540239810943604,
                "y": 0.030875300988554955,
                "z": 0.16403168439865112
            }
        },
        "name": "move_to_storage_A"
    },
    "id": "SBL_move_to_storage_A_104",
    "joint_names": [
        "shoulder_pan_joint",
        "shoulder_lift_joint",
        "elbow_joint",
        "wrist_1_joint",
        "wrist_2_joint",
        "wrist_3_joint"
    ],
    "metrics": {
        "cart_traj_len": 0.3519898139244895,
        "distance_elbow_joint": 0.45027260202304786,
        "distance_shoulder_lift_joint": 0.23439034661024793,
        "distance_shoulder_pan_joint": 0.4601996109126634,
        "distance_wrist_1_joint": 0.24628720100978185,
        "distance_wrist_2_joint": 1.0969178050955088,
        "distance_wrist_3_joint": 0.1069349338580925,
        "smoothness": 8.881784197001252e-16,
        "time": 0.171054218,
        "traj_len": 1.6109011451697905,
        "weighted_distance": 2.037664686186326
    },
    "planner": "SBL",
    "start": {
        "state": {
            "elbow_joint": 1.9715481507254546,
            "shoulder_lift_joint": -1.1394850672790213,
            "shoulder_pan_joint": 0.12281154597544902,
            "wrist_1_joint": -0.7804720171073349,
            "wrist_2_joint": 0.12958658322886563,
            "wrist_3_joint": -3.1924895760937617
        }
    },
    "waypoints": [
        {
            "positions": [
                0.12281154597544902,
                -1.1394850672790213,
                1.9715481507254546,
                -0.7804720171073349,
                0.12958658322886563,
                -3.1924895760937617
            ]
        },
        {
            "positions": [
                0.057068744416497105,
                -1.1729694025090567,
                2.0358728081573187,
                -0.8156559029658752,
                0.2862891268139383,
                -3.177213156971177
            ]
        },
        {
            "positions": [
                -0.00867405714245481,
                -1.2064537377390923,
                2.1001974655891824,
                -0.8508397888244155,
                0.442991670399011,
                -3.1619367378485923
            ]
        },
        {
            "positions": [
                -0.07441685870140671,
                -1.2399380729691276,
                2.1645221230210465,
                -0.8860236746829557,
                0.5996942139840837,
                -3.1466603187260076
            ]
        },
        {
            "positions": [
                -0.14015966026035864,
                -1.273422408199163,
                2.2288467804529106,
                -0.921207560541496,
                0.7563967575691564,
                -3.1313838996034233
            ]
        },
        {
            "positions": [
                -0.2059024618193106,
                -1.3069067434291983,
                2.2931714378847747,
                -0.9563914464000363,
                0.9130993011542291,
                -3.1161074804808386
            ]
        },
        {
            "positions": [
                -0.27164526337826245,
                -1.340391078659234,
                2.3574960953166384,
                -0.9915753322585765,
                1.0698018447393016,
                -3.100831061358254
            ]
        },
        {
            "positions": [
                -0.3373880649372144,
                -1.3738754138892693,
                2.4218207527485025,
                -1.0267592181171168,
                1.2265043883243745,
                -3.085554642235669
            ]
        }
    ]
}