{
    "goal": {
        "global_pose": {
            "orientation": {
                "w": 0.005598929693374612,
                "x": 0.007748599140229565,
                "y": 0.7110244013736278,
                "z": -0.7031023480610252
            },
            "position": {
                "x": -0.8858502320852131,
                "y": -0.7141253447532654,
                "z": 0.3711530566215515
            }
        },
        "name": "move_to_auspresseinheit_C"
    },
    "id": "SBL_move_to_auspresseinheit_C_82",
    "joint_names": [
        "shoulder_pan_joint",
        "shoulder_lift_joint",
        "elbow_joint",
        "wrist_1_joint",
        "wrist_2_joint",
        "wrist_3_joint"
    ],
    "metrics": {
        "cart_traj_len": 0.49307040945895353,
        "distance_elbow_joint": 0.9900563178831103,
        "distance_shoulder_lift_joint": 0.32008035480414154,
        "distance_shoulder_pan_joint": 0.25680618793832277,
        "distance_wrist_1_joint": 0.6554024254306337,
        "distance_wrist_2_joint": 1.3107324316787705,
        "distance_wrist_3_joint": 0.033150677195890044,
        "smoothness": 1.6148698667872622e-16,
        "time": 0.691093524,
        "traj_len": 1.8884460264807328,
        "weighted_distance": 2.366149743028123
    },
    "planner": "SBL",
    "start": {
        "state": {
            "elbow_joint": 1.7527959577737207,
            "shoulder_lift_joint": -0.9740617694225068,
            "shoulder_pan_joint": -2.967991417825858,
            "wrist_1_joint": -0.759517768980727,
            "wrist_2_joint": 1.7443932448377408,
            "wrist_3_joint": -3.0840537646736568
        }
    },
    "waypoints": [
        {
            "positions": [
                -2.967991417825858,
                -0.9740617694225068,
                1.7527959577737207,
                -0.759517768980727,
                1.7443932448377408,
                -3.0840537646736568
            ]
        },
        {
            "positions": [
                -2.942310799032026,
                -0.9420537339420926,
                1.6537903259854096,
                -0.6939775264376636,
                1.6133200016698637,
                -3.0873688323932456
            ]
        },
        {
            "positions": [
                -2.9166301802381933,
                -0.9100456984616785,
                1.5547846941970986,
                -0.6284372838946002,
                1.4822467585019867,
                -3.090683900112835
            ]
        },
        {
            "positions": [
                -2.890949561444361,
                -0.8780376629812643,
                1.4557790624087876,
                -0.5628970413515368,
                1.3511735153341098,
                -3.093998967832424
            ]
        },
        {
            "positions": [
                -2.8652689426505287,
                -0.8460296275008501,
                1.3567734306204766,
                -0.4973567988084735,
                1.2201002721662326,
                -3.097314035552013
            ]
        },
        {
            "positions": [
                -2.8395883238566966,
                -0.814021592020436,
                1.2577677988321656,
                -0.43181655626541016,
                1.0890270289983555,
                -3.1006291032716016
            ]
        },
        {
            "positions": [
                -2.8139077050628645,
                -0.7820135565400219,
                1.1587621670438546,
                -0.3662763137223468,
                0.9579537858304785,
                -3.103944170991191
            ]
        },
        {
            "positions": [
                -2.788227086269032,
                -0.7500055210596077,
                1.0597565352555436,
                -0.30073607117928347,
                0.8268805426626016,
                -3.10725923871078
            ]
        },
        {
            "positions": [
                -2.7625464674752,
                -0.7179974855791935,
                0.9607509034672324,
                -0.23519582863622002,
                0.6958072994947244,
                -3.110574306430369
            ]
        },
        {
            "positions": [
                -2.7368658486813673,
                -0.6859894500987793,
                0.8617452716789213,
                -0.16965558609315667,
                0.5647340563268473,
                -3.1138893741499576
            ]
        },
        {
            "positions": [
                -2.711185229887535,
                -0.6539814146183652,
                0.7627396398906103,
                -0.10411534355009329,
                0.43366081315897037,
                -3.117204441869547
            ]
        }
    ]
}