{
    "goal": {
        "global_pose": {
            "orientation": {
                "w": 0.005598929693374612,
                "x": 0.007748599140229565,
                "y": 0.7110244013736278,
                "z": -0.7031023480610252
            },
            "position": {
                "x": -0.8858502320852131,
                "y": -0.7141253447532654,
                "z": 0.3711530566215515
            }
        },
        "name": "move_to_auspresseinheit_C"
    },
    "id": "SBL_move_to_auspresseinheit_C_51",
    "joint_names": [
        "shoulder_pan_joint",
        "shoulder_lift_joint",
        "elbow_joint",
        "wrist_1_joint",
        "wrist_2_joint",
        "wrist_3_joint"
    ],
    "metrics": {
        "cart_traj_len": 0.49244797034811433,
        "distance_elbow_joint": 0.9925413705760469,
        "distance_shoulder_lift_joint": 0.32114549474890597,
        "distance_shoulder_pan_joint": 0.25546688009429275,
        "distance_wrist_1_joint": 0.6581705616973362,
        "distance_wrist_2_joint": 1.3140121167049759,
        "distance_wrist_3_joint": 0.03971939748486886,
        "smoothness": 4.844609574787718e-16,
        "time": 0.23101568,
        "traj_len": 1.8923677817238451,
        "weighted_distance": 2.3733262090741922
    },
    "planner": "SBL",
    "start": {
        "state": {
            "elbow_joint": 1.7527959577737207,
            "shoulder_lift_joint": -0.9740617694225068,
            "shoulder_pan_joint": -2.967991417825858,
            "wrist_1_joint": -0.759517768980727,
            "wrist_2_joint": 1.7443932448377408,
            "wrist_3_joint": -3.0840537646736568
        }
    },
    "waypoints": [
        {
            "positions": [
                -2.967991417825858,
                -0.9740617694225068,
                1.7527959577737207,
                -0.759517768980727,
                1.7443932448377408,
                -3.0840537646736568
            ]
        },
        {
            "positions": [
                -2.9424447298164287,
                -0.9419472199476162,
                1.6535418207161159,
                -0.6937007128109933,
                1.6129920331672432,
                -3.0880257044221437
            ]
        },
        {
            "positions": [
                -2.9168980418069994,
                -0.9098326704727255,
                1.5542876836585113,
                -0.6278836566412598,
                1.4815908214967457,
                -3.0919976441706307
            ]
        },
        {
            "positions": [
                -2.89135135379757,
                -0.877718120997835,
                1.4550335466009066,
                -0.5620666004715261,
                1.350189609826248,
                -3.0959695839191173
            ]
        },
        {
            "positions": [
                -2.865804665788141,
                -0.8456035715229444,
                1.355779409543302,
                -0.49624954430179247,
                1.2187883981557506,
                -3.0999415236676042
            ]
        },
        {
            "positions": [
                -2.8402579777787116,
                -0.8134890220480537,
                1.2565252724856972,
                -0.43043248813205887,
                1.087387186485253,
                -3.103913463416091
            ]
        },
        {
            "positions": [
                -2.8147112897692823,
                -0.7813744725731632,
                1.1572711354280925,
                -0.36461543196232526,
                0.9559859748147553,
                -3.107885403164578
            ]
        },
        {
            "positions": [
                -2.789164601759853,
                -0.7492599230982726,
                1.058016998370488,
                -0.29879837579259166,
                0.8245847631442578,
                -3.111857342913065
            ]
        },
        {
            "positions": [
                -2.7636179137504238,
                -0.7171453736233819,
                0.9587628613128831,
                -0.23298131962285795,
                0.6931835514737601,
                -3.1158292826615517
            ]
        },
        {
            "positions": [
                -2.7380712257409945,
                -0.6850308241484914,
                0.8595087242552785,
                -0.1671642634531244,
                0.5617823398032624,
                -3.1198012224100387
            ]
        },
        {
            "positions": [
                -2.712524537731565,
                -0.6529162746736008,
                0.7602545871976738,
                -0.10134720728339076,
                0.4303811281327649,
                -3.1237731621585256
            ]
        }
    ]
}