{
    "goal": {
        "global_pose": {
            "orientation": {
                "w": 0.005598929693374612,
                "x": 0.007748599140229565,
                "y": 0.7110244013736278,
                "z": -0.7031023480610252
            },
            "position": {
                "x": -0.8858502320852131,
                "y": -0.7141253447532654,
                "z": 0.3711530566215515
            }
        },
        "name": "move_to_auspresseinheit_C"
    },
    "id": "SBL_move_to_auspresseinheit_C_16",
    "joint_names": [
        "shoulder_pan_joint",
        "shoulder_lift_joint",
        "elbow_joint",
        "wrist_1_joint",
        "wrist_2_joint",
        "wrist_3_joint"
    ],
    "metrics": {
        "cart_traj_len": 0.49215661418430096,
        "distance_elbow_joint": 0.9903247938285884,
        "distance_shoulder_lift_joint": 0.32044495642114723,
        "distance_shoulder_pan_joint": 0.2560212657995029,
        "distance_wrist_1_joint": 0.6594428669038433,
        "distance_wrist_2_joint": 1.311367392979221,
        "distance_wrist_3_joint": 0.03867300056119216,
        "smoothness": 0.0,
        "time": 0.46233351899999997,
        "traj_len": 1.89110398352219,
        "weighted_distance": 2.3715881888512906
    },
    "planner": "SBL",
    "start": {
        "state": {
            "elbow_joint": 1.7527959577737207,
            "shoulder_lift_joint": -0.9740617694225068,
            "shoulder_pan_joint": -2.967991417825858,
            "wrist_1_joint": -0.759517768980727,
            "wrist_2_joint": 1.7443932448377408,
            "wrist_3_joint": -3.0840537646736568
        }
    },
    "waypoints": [
        {
            "positions": [
                -2.967991417825858,
                -0.9740617694225068,
                1.7527959577737207,
                -0.759517768980727,
                1.7443932448377408,
                -3.0840537646736568
            ]
        },
        {
            "positions": [
                -2.9423892912459078,
                -0.942017273780392,
                1.653763478390862,
                -0.6935734822903427,
                1.6132565055398187,
                -3.087921064729776
            ]
        },
        {
            "positions": [
                -2.9167871646659576,
                -0.9099727781382774,
                1.554730999008003,
                -0.6276291955999583,
                1.4821197662418966,
                -3.091788364785895
            ]
        },
        {
            "positions": [
                -2.891185038086007,
                -0.8779282824961626,
                1.4556985196251442,
                -0.561684908909574,
                1.3509830269439747,
                -3.0956556648420146
            ]
        },
        {
            "positions": [
                -2.8655829115060567,
                -0.8458837868540479,
                1.3566660402422852,
                -0.49574062221918963,
                1.2198462876460523,
                -3.0995229648981337
            ]
        },
        {
            "positions": [
                -2.8399807849261065,
                -0.8138392912119332,
                1.2576335608594265,
                -0.4297963355288053,
                1.0887095483481304,
                -3.103390264954253
            ]
        },
        {
            "positions": [
                -2.8143786583461563,
                -0.7817947955698185,
                1.1586010814765677,
                -0.363852048838421,
                0.9575728090502084,
                -3.107257565010372
            ]
        },
        {
            "positions": [
                -2.788776531766206,
                -0.7497502999277037,
                1.0595686020937087,
                -0.29790776214803666,
                0.8264360697522862,
                -3.111124865066491
            ]
        },
        {
            "positions": [
                -2.7631744051862555,
                -0.717705804285589,
                0.9605361227108499,
                -0.23196347545765228,
                0.695299330454364,
                -3.1149921651226107
            ]
        },
        {
            "positions": [
                -2.7375722786063053,
                -0.6856613086434742,
                0.8615036433279911,
                -0.16601918876726796,
                0.5641625911564421,
                -3.11885946517873
            ]
        },
        {
            "positions": [
                -2.711970152026355,
                -0.6536168130013595,
                0.7624711639451323,
                -0.10007490207688366,
                0.4330258518585199,
                -3.122726765234849
            ]
        }
    ]
}