{
    "goal": {
        "global_pose": {
            "orientation": {
                "w": -0.4816463035849501,
                "x": 0.5182115481033762,
                "y": 0.4908360881923453,
                "z": -0.5084816262002911
            },
            "position": {
                "x": -0.8240239810943604,
                "y": -0.300875300988555,
                "z": 0.16403168439865112
            }
        },
        "name": "move_to_storage_C"
    },
    "id": "SBL_move_to_storage_C_113",
    "joint_names": [
        "shoulder_pan_joint",
        "shoulder_lift_joint",
        "elbow_joint",
        "wrist_1_joint",
        "wrist_2_joint",
        "wrist_3_joint"
    ],
    "metrics": {
        "cart_traj_len": 0.577215454716459,
        "distance_elbow_joint": 0.2599777576234543,
        "distance_shoulder_lift_joint": 0.18905536933223566,
        "distance_shoulder_pan_joint": 0.4954479926664934,
        "distance_wrist_1_joint": 0.08354439836559158,
        "distance_wrist_2_joint": 1.0649210679218934,
        "distance_wrist_3_joint": 0.07431386162082143,
        "smoothness": 0.0,
        "time": 0.320849632,
        "traj_len": 1.4721618279015694,
        "weighted_distance": 1.861277420767688
    },
    "planner": "SBL",
    "start": {
        "state": {
            "elbow_joint": 2.010868314990456,
            "shoulder_lift_joint": -1.1634956873337592,
            "shoulder_pan_joint": -2.4736205022346125,
            "wrist_1_joint": -0.8367026794202681,
            "wrist_2_joint": 0.6746043897044499,
            "wrist_3_joint": -3.1496632123970403
        }
    },
    "waypoints": [
        {
            "positions": [
                -2.4736205022346125,
                -1.1634956873337592,
                2.010868314990456,
                -0.8367026794202681,
                0.6746043897044499,
                -3.1496632123970403
            ]
        },
        {
            "positions": [
                -2.556195167679028,
                -1.13198645911172,
                1.96753868871988,
                -0.8227786130260029,
                0.8520912343580989,
                -3.13727756879357
            ]
        },
        {
            "positions": [
                -2.6387698331234435,
                -1.1004772308896806,
                1.9242090624493045,
                -0.8088545466317376,
                1.0295780790117477,
                -3.1248919251901
            ]
        },
        {
            "positions": [
                -2.721344498567859,
                -1.0689680026676414,
                1.8808794361787287,
                -0.7949304802374724,
                1.2070649236653965,
                -3.1125062815866293
            ]
        },
        {
            "positions": [
                -2.803919164012275,
                -1.037458774445602,
                1.8375498099081529,
                -0.781006413843207,
                1.3845517683190454,
                -3.100120637983159
            ]
        },
        {
            "positions": [
                -2.88649382945669,
                -1.0059495462235628,
                1.7942201836375773,
                -0.7670823474489418,
                1.5620386129726946,
                -3.087734994379689
            ]
        },
        {
            "positions": [
                -2.969068494901106,
                -0.9744403180015235,
                1.7508905573670015,
                -0.7531582810546765,
                1.7395254576263435,
                -3.075349350776219
            ]
        }
    ]
}