{
    "goal": {
        "global_pose": {
            "orientation": {
                "w": -0.4816463035849501,
                "x": 0.5182115481033762,
                "y": 0.4908360881923453,
                "z": -0.5084816262002911
            },
            "position": {
                "x": -0.8240239810943604,
                "y": -0.300875300988555,
                "z": 0.16403168439865112
            }
        },
        "name": "move_to_storage_C"
    },
    "id": "SBL_move_to_storage_C_150",
    "joint_names": [
        "shoulder_pan_joint",
        "shoulder_lift_joint",
        "elbow_joint",
        "wrist_1_joint",
        "wrist_2_joint",
        "wrist_3_joint"
    ],
    "metrics": {
        "cart_traj_len": 0.576167627371936,
        "distance_elbow_joint": 0.26097881086752195,
        "distance_shoulder_lift_joint": 0.18955667599963566,
        "distance_shoulder_pan_joint": 0.49476756164674285,
        "distance_wrist_1_joint": 0.08950312109964254,
        "distance_wrist_2_joint": 1.0605475485980809,
        "distance_wrist_3_joint": 0.07201527290055676,
        "smoothness": 0.0,
        "time": 0.385479487,
        "traj_len": 1.4721986928102404,
        "weighted_distance": 1.8604973008878614
    },
    "planner": "SBL",
    "start": {
        "state": {
            "elbow_joint": 2.010868314990456,
            "shoulder_lift_joint": -1.1634956873337592,
            "shoulder_pan_joint": -2.4736205022346125,
            "wrist_1_joint": -0.8367026794202681,
            "wrist_2_joint": 0.6746043897044499,
            "wrist_3_joint": -3.1496632123970403
        }
    },
    "waypoints": [
        {
            "positions": [
                -2.4736205022346125,
                -1.1634956873337592,
                2.010868314990456,
                -0.8367026794202681,
                0.6746043897044499,
                -3.1496632123970403
            ]
        },
        {
            "positions": [
                -2.5560817625090695,
                -1.1319029080004865,
                1.9673718465125356,
                -0.8217854925703276,
                0.8513623144707967,
                -3.137660666913614
            ]
        },
        {
            "positions": [
                -2.638543022783527,
                -1.100310128667214,
                1.9238753780346152,
                -0.8068683057203873,
                1.0281202392371436,
                -3.125658121430188
            ]
        },
        {
            "positions": [
                -2.721004283057984,
                -1.0687173493339412,
                1.8803789095566947,
                -0.7919511188704469,
                1.2048781640034902,
                -3.113655575946762
            ]
        },
        {
            "positions": [
                -2.803465543332441,
                -1.0371245700006688,
                1.8368824410787745,
                -0.7770339320205064,
                1.3816360887698371,
                -3.1016530304633356
            ]
        },
        {
            "positions": [
                -2.8859268036068983,
                -1.0055317906673962,
                1.7933859726008543,
                -0.7621167451705659,
                1.558394013536184,
                -3.08965048497991
            ]
        },
        {
            "positions": [
                -2.9683880638813553,
                -0.9739390113341235,
                1.7498895041229339,
                -0.7471995583206256,
                1.7351519383025307,
                -3.0776479394964835
            ]
        }
    ]
}