{
    "goal": {
        "global_pose": {
            "orientation": {
                "w": 0.5084816217422485,
                "x": -0.49083608388900757,
                "y": 0.5182115435600281,
                "z": -0.4816462993621826
            },
            "position": {
                "x": 0.5540239810943604,
                "y": 0.030875300988554955,
                "z": 0.16403168439865112
            }
        },
        "name": "move_to_storage_A"
    },
    "id": "SBL_move_to_storage_A_11",
    "joint_names": [
        "shoulder_pan_joint",
        "shoulder_lift_joint",
        "elbow_joint",
        "wrist_1_joint",
        "wrist_2_joint",
        "wrist_3_joint"
    ],
    "metrics": {
        "cart_traj_len": 0.353263071260387,
        "distance_elbow_joint": 0.4485826213600621,
        "distance_shoulder_lift_joint": 0.23609605460820537,
        "distance_shoulder_pan_joint": 0.4638543646035575,
        "distance_wrist_1_joint": 0.2359813818427665,
        "distance_wrist_2_joint": 1.0914247692998524,
        "distance_wrist_3_joint": 0.10142486121604533,
        "smoothness": 6.661338146305771e-16,
        "time": 0.152698959,
        "traj_len": 1.6054170962495975,
        "weighted_distance": 2.026726406426185
    },
    "planner": "SBL",
    "start": {
        "state": {
            "elbow_joint": 1.9715481507254546,
            "shoulder_lift_joint": -1.1394850672790213,
            "shoulder_pan_joint": 0.12281154597544902,
            "wrist_1_joint": -0.7804720171073349,
            "wrist_2_joint": 0.12958658322886563,
            "wrist_3_joint": -3.1924895760937617
        }
    },
    "waypoints": [
        {
            "positions": [
                0.12281154597544902,
                -1.1394850672790213,
                1.9715481507254546,
                -0.7804720171073349,
                0.12958658322886563,
                -3.1924895760937617
            ]
        },
        {
            "positions": [
                0.05654663674636938,
                -1.1732130750801935,
                2.0356313823483205,
                -0.814183643084873,
                0.28550440741455885,
                -3.1780003102057552
            ]
        },
        {
            "positions": [
                -0.00971827248271026,
                -1.2069410828813658,
                2.099714613971187,
                -0.8478952690624111,
                0.441422231600252,
                -3.1635110443177488
            ]
        },
        {
            "positions": [
                -0.07598318171178989,
                -1.240669090682538,
                2.1637978455940527,
                -0.8816068950399492,
                0.5973400557859452,
                -3.1490217784297423
            ]
        },
        {
            "positions": [
                -0.14224809094086954,
                -1.27439709848371,
                2.2278810772169186,
                -0.9153185210174872,
                0.7532578799716384,
                -3.134532512541736
            ]
        },
        {
            "positions": [
                -0.20851300016994923,
                -1.3081251062848822,
                2.291964308839785,
                -0.9490301469950253,
                0.9091757041573316,
                -3.1200432466537293
            ]
        },
        {
            "positions": [
                -0.2747779093990288,
                -1.3418531140860546,
                2.356047540462651,
                -0.9827417729725634,
                1.065093528343025,
                -3.105553980765723
            ]
        },
        {
            "positions": [
                -0.3410428186281085,
                -1.3755811218872267,
                2.4201307720855167,
                -1.0164533989501014,
                1.221011352528718,
                -3.0910647148777164
            ]
        }
    ]
}