{
    "goal": {
        "global_pose": {
            "orientation": {
                "w": 0.7031023502349854,
                "x": -0.7110244035720825,
                "y": 0.007748599164187908,
                "z": 0.005598929710686207
            },
            "position": {
                "x": 0.11585023208521307,
                "y": 0.44412534475326537,
                "z": 0.3711530566215515
            }
        },
        "name": "move_to_auspresseinheit_A"
    },
    "id": "SBL_move_to_auspresseinheit_A_144",
    "joint_names": [
        "shoulder_pan_joint",
        "shoulder_lift_joint",
        "elbow_joint",
        "wrist_1_joint",
        "wrist_2_joint",
        "wrist_3_joint"
    ],
    "metrics": {
        "cart_traj_len": 3.0887910860175616,
        "distance_elbow_joint": 5.439703404921314,
        "distance_shoulder_lift_joint": 0.808398098816097,
        "distance_shoulder_pan_joint": 1.2907848266485633,
        "distance_wrist_1_joint": 5.11468346687003,
        "distance_wrist_2_joint": 2.7520409259874725,
        "distance_wrist_3_joint": 7.684933731537998,
        "smoothness": 0.7540991335182672,
        "time": 0.271312359,
        "traj_len": 4.805262162960672,
        "weighted_distance": 6.806404066077401
    },
    "planner": "SBL",
    "start": {
        "state": {
            "elbow_joint": 2.4225746658250005,
            "shoulder_lift_joint": -1.3736534386056498,
            "shoulder_pan_joint": -0.3378633547517467,
            "wrist_1_joint": -1.0288598680537169,
            "wrist_2_joint": 1.233022673432363,
            "wrist_3_joint": -3.0940220416140027
        }
    },
    "waypoints": [
        {
            "positions": [
                -0.3378633547517467,
                -1.3736534386056498,
                2.4225746658250005,
                -1.0288598680537169,
                1.233022673432363,
                -3.0940220416140027
            ]
        },
        {
            "positions": [
                -0.3045441707431455,
                -1.3788275659383569,
                2.321346901625278,
                -0.9382200250287922,
                1.2498255778848755,
                -2.952290167468292
            ]
        },
        {
            "positions": [
                -0.2712249867345443,
                -1.3840016932710641,
                2.2201191374255553,
                -0.8475801820038675,
                1.266628482337388,
                -2.8105582933225817
            ]
        },
        {
            "positions": [
                -0.23790580272594308,
                -1.3891758206037712,
                2.118891373225833,
                -0.7569403389789429,
                1.2834313867899003,
                -2.668826419176871
            ]
        },
        {
            "positions": [
                -0.20458661871734188,
                -1.3943499479364783,
                2.0176636090261106,
                -0.6663004959540182,
                1.300234291242413,
                -2.5270945450311606
            ]
        },
        {
            "positions": [
                -0.17126743470874067,
                -1.3995240752691853,
                1.9164358448263878,
                -0.5756606529290935,
                1.3170371956949254,
                -2.3853626708854505
            ]
        },
        {
            "positions": [
                -0.13794825070013947,
                -1.4046982026018926,
                1.8152080806266655,
                -0.48502080990416896,
                1.3338401001474378,
                -2.24363079673974
            ]
        },
        {
            "positions": [
                -0.10462906669153826,
                -1.4098723299345997,
                1.713980316426943,
                -0.3943809668792443,
                1.3506430045999502,
                -2.1018989225940294
            ]
        },
        {
            "positions": [
                -0.07130988268293703,
                -1.4150464572673067,
                1.6127525522272204,
                -0.3037411238543196,
                1.3674459090524627,
                -1.960167048448319
            ]
        },
        {
            "positions": [
                -0.037990698674335854,
                -1.420220584600014,
                1.511524788027498,
                -0.21310128082939495,
                1.384248813504975,
                -1.8184351743026084
            ]
        },
        {
            "positions": [
                -0.004671514665734622,
                -1.425394711932721,
                1.4102970238277754,
                -0.12246143780447027,
                1.4010517179574875,
                -1.676703300156898
            ]
        },
        {
            "positions": [
                0.02864766934286661,
                -1.430568839265428,
                1.3090692596280529,
                -0.0318215947795456,
                1.4178546224100002,
                -1.5349714260111875
            ]
        },
        {
            "positions": [
                0.06196685335146779,
                -1.4357429665981354,
                1.2078414954283303,
                0.05881824824537896,
                1.4346575268625126,
                -1.393239551865477
            ]
        },
        {
            "positions": [
                0.09528603736006902,
                -1.4409170939308424,
                1.106613731228608,
                0.14945809127030363,
                1.451460431315025,
                -1.2515076777197665
            ]
        },
        {
            "positions": [
                0.1286052213686702,
                -1.4460912212635495,
                1.0053859670288854,
                0.2400979342952283,
                1.4682633357675374,
                -1.1097758035740561
            ]
        },
        {
            "positions": [
                0.16192440537727149,
                -1.4512653485962566,
                0.9041582028291628,
                0.3307377773201532,
                1.4850662402200498,
                -0.9680439294283452
            ]
        },
        {
            "positions": [
                0.19524358938587266,
                -1.4564394759289638,
                0.8029304386294405,
                0.42137762034507764,
                1.5018691446725623,
                -0.8263120552826351
            ]
        },
        {
            "positions": [
                0.2285627733944739,
                -1.461613603261671,
                0.7017026744297177,
                0.5120174633700025,
                1.5186720491250747,
                -0.6845801811369245
            ]
        },
        {
            "positions": [
                0.261881957403075,
                -1.466787730594378,
                0.6004749102299953,
                0.602657306394927,
                1.5354749535775873,
                -0.542848306991214
            ]
        },
        {
            "positions": [
                0.29520114141167636,
                -1.4719618579270852,
                0.49924714603027276,
                0.6932971494198517,
                1.5522778580300998,
                -0.40111643284550347
            ]
        },
        {
            "positions": [
                0.3285203254202775,
                -1.4771359852597923,
                0.3980193818305504,
                0.7839369924447763,
                1.5690807624826122,
                -0.2593845586997934
            ]
        },
        {
            "positions": [
                0.3618395094288787,
                -1.4823101125924993,
                0.2967916176308276,
                0.874576835469701,
                1.5858836669351246,
                -0.1176526845540824
            ]
        },
        {
            "positions": [
                0.39515869343747995,
                -1.4874842399252066,
                0.19556385343110527,
                0.9652166784946257,
                1.602686571387637,
                0.024079189591627692
            ]
        },
        {
            "positions": [
                0.4284778774460812,
                -1.4926583672579137,
                0.09433608923138248,
                1.0558565215195503,
                1.6194894758401497,
                0.16581106373733867
            ]
        },
        {
            "positions": [
                0.4617970614546823,
                -1.4978324945906207,
                -0.006891674968339867,
                1.1464963645444748,
                1.6362923802926619,
                0.30754293788304876
            ]
        },
        {
            "positions": [
                0.49511624546328353,
                -1.5030066219233278,
                -0.10811943916806221,
                1.2371362075693997,
                1.6530952847451745,
                0.4492748120287593
            ]
        },
        {
            "positions": [
                0.5284354294718847,
                -1.508180749256035,
                -0.20934720336778456,
                1.3277760505943241,
                1.669898189197687,
                0.5910066861744698
            ]
        },
        {
            "positions": [
                0.561754613480486,
                -1.5133548765887421,
                -0.31057496756750735,
                1.4184158936192488,
                1.6867010936501994,
                0.7327385603201804
            ]
        },
        {
            "positions": [
                0.5571868130031569,
                -1.5330458584231008,
                -0.21311701095491103,
                1.3338173126727844,
                1.6260054303682847,
                0.6084606547139102
            ]
        },
        {
            "positions": [
                0.5526190125258276,
                -1.5527368402574595,
                -0.11565905434231474,
                1.24921873172632,
                1.5653097670863698,
                0.48418274910764014
            ]
        },
        {
            "positions": [
                0.5480512120484984,
                -1.5724278220918182,
                -0.018201097729718396,
                1.1646201507798557,
                1.5046141038044551,
                0.35990484350137
            ]
        },
        {
            "positions": [
                0.5434834115711692,
                -1.5921188039261769,
                0.07925685888287787,
                1.0800215698333913,
                1.4439184405225403,
                0.23562693789509986
            ]
        },
        {
            "positions": [
                0.5389156110938399,
                -1.6118097857605356,
                0.1767148154954742,
                0.9954229888869268,
                1.3832227772406256,
                0.11134903228882975
            ]
        },
        {
            "positions": [
                0.5343478106165107,
                -1.6315007675948943,
                0.27417277210807056,
                0.9108244079404625,
                1.322527113958711,
                -0.012928873317440415
            ]
        },
        {
            "positions": [
                0.5297800101391814,
                -1.651191749429253,
                0.3716307287206668,
                0.826225826993998,
                1.261831450676796,
                -0.13720677892371047
            ]
        },
        {
            "positions": [
                0.5252122096618522,
                -1.6708827312636116,
                0.4690886853332631,
                0.7416272460475337,
                1.2011357873948814,
                -0.26148468452998064
            ]
        },
        {
            "positions": [
                0.520644409184523,
                -1.6905737130979703,
                0.5665466419458595,
                0.6570286651010693,
                1.1404401241129665,
                -0.3857625901362507
            ]
        },
        {
            "positions": [
                0.5160766087071937,
                -1.710264694932329,
                0.6640045985584557,
                0.572430084154605,
                1.0797444608310518,
                -0.5100404957425209
            ]
        },
        {
            "positions": [
                0.5115088082298646,
                -1.7299556767666875,
                0.7614625551710521,
                0.4878315032081405,
                1.0190487975491371,
                -0.634318401348791
            ]
        },
        {
            "positions": [
                0.5069410077525354,
                -1.7496466586010464,
                0.8589205117836485,
                0.4032329222616762,
                0.9583531342672224,
                -0.7585963069550612
            ]
        },
        {
            "positions": [
                0.5023732072752061,
                -1.7693376404354049,
                0.9563784683962446,
                0.31863434131521173,
                0.8976574709853076,
                -0.8828742125613314
            ]
        },
        {
            "positions": [
                0.4978054067978769,
                -1.7890286222697638,
                1.053836425008841,
                0.2340357603687473,
                0.8369618077033928,
                -1.0071521181676013
            ]
        },
        {
            "positions": [
                0.49323760632054764,
                -1.8087196041041222,
                1.1512943816214374,
                0.14943717942228285,
                0.7762661444214779,
                -1.1314300237738717
            ]
        },
        {
            "positions": [
                0.4886698058432184,
                -1.828410585938481,
                1.2487523382340335,
                0.06483859847581863,
                0.7155704811395632,
                -1.2557079293801416
            ]
        },
        {
            "positions": [
                0.48410200536588915,
                -1.8481015677728396,
                1.3462102948466301,
                -0.01975998247064581,
                0.6548748178576485,
                -1.379985834986412
            ]
        },
        {
            "positions": [
                0.47953420488855997,
                -1.8677925496071983,
                1.4436682514592263,
                -0.10435856341711025,
                0.5941791545757338,
                -1.5042637405926818
            ]
        },
        {
            "positions": [
                0.4749664044112307,
                -1.887483531441557,
                1.5411262080718227,
                -0.1889571443635747,
                0.5334834912938189,
                -1.6285416461989524
            ]
        },
        {
            "positions": [
                0.4703986039339015,
                -1.9071745132759157,
                1.6385841646844188,
                -0.2735557253100389,
                0.4727878280119042,
                -1.752819551805222
            ]
        },
        {
            "positions": [
                0.46583080345657224,
                -1.9268654951102744,
                1.7360421212970154,
                -0.35815430625650335,
                0.41209216472998933,
                -1.8770974574114927
            ]
        },
        {
            "positions": [
                0.46126300297924305,
                -1.946556476944633,
                1.8335000779096116,
                -0.4427528872029678,
                0.35139650144807466,
                -2.0013753630177624
            ]
        },
        {
            "positions": [
                0.4566952025019138,
                -1.9662474587789918,
                1.9309580345222082,
                -0.5273514681494322,
                0.29070083816616,
                -2.1256532686240326
            ]
        },
        {
            "positions": [
                0.45212740202458457,
                -1.9859384406133505,
                2.0284159911348043,
                -0.6119500490958965,
                0.23000517488424532,
                -2.2499311742303028
            ]
        },
        {
            "positions": [
                0.4475596015472554,
                -2.005629422447709,
                2.1258739477474005,
                -0.6965486300423609,
                0.16930951160233043,
                -2.374209079836573
            ]
        },
        {
            "positions": [
                0.44299180106992614,
                -2.025320404282068,
                2.2233319043599966,
                -0.7811472109888253,
                0.10861384832041576,
                -2.498486985442843
            ]
        },
        {
            "positions": [
                0.4384240005925969,
                -2.0450113861164265,
                2.320789860972593,
                -0.8657457919352898,
                0.04791818503850093,
                -2.6227648910491133
            ]
        },
        {
            "positions": [
                0.483063374847337,
                -2.022171360898873,
                2.333321351470711,
                -0.8018714553282018,
                0.15784811789815734,
                -2.7065431707548666
            ]
        },
        {
            "positions": [
                0.5277027491020772,
                -1.9993313356813198,
                2.3458528419688287,
                -0.7379971187211138,
                0.2677780507578138,
                -2.79032145046062
            ]
        },
        {
            "positions": [
                0.5723421233568173,
                -1.9764913104637665,
                2.3583843324669465,
                -0.6741227821140259,
                0.3777079836174702,
                -2.8740997301663738
            ]
        },
        {
            "positions": [
                0.6169814976115574,
                -1.953651285246213,
                2.3709158229650638,
                -0.6102484455069379,
                0.4876379164771266,
                -2.957878009872127
            ]
        },
        {
            "positions": [
                0.6616208718662975,
                -1.9308112600286595,
                2.3834473134631815,
                -0.5463741088998498,
                0.5975678493367831,
                -3.0416562895778805
            ]
        },
        {
            "positions": [
                0.7062602461210377,
                -1.9079712348111062,
                2.3959788039612993,
                -0.48249977229276186,
                0.7074977821964394,
                -3.125434569283634
            ]
        }
    ]
}