{
    "goal": {
        "global_pose": {
            "orientation": {
                "w": 0.005598929693374612,
                "x": 0.007748599140229565,
                "y": 0.7110244013736278,
                "z": -0.7031023480610252
            },
            "position": {
                "x": 0.1141497679147869,
                "y": -0.7141253447532654,
                "z": 0.3711530566215515
            }
        },
        "name": "move_to_auspresseinheit_B"
    },
    "id": "SBL_move_to_auspresseinheit_B_74",
    "joint_names": [
        "shoulder_pan_joint",
        "shoulder_lift_joint",
        "elbow_joint",
        "wrist_1_joint",
        "wrist_2_joint",
        "wrist_3_joint"
    ],
    "metrics": {
        "cart_traj_len": 0.5645368927837704,
        "distance_elbow_joint": 0.06258404711592536,
        "distance_shoulder_lift_joint": 0.2945652761281443,
        "distance_shoulder_pan_joint": 0.5757576655846546,
        "distance_wrist_1_joint": 0.32224713762448465,
        "distance_wrist_2_joint": 0.9960744443432505,
        "distance_wrist_3_joint": 0.0036501009518397076,
        "smoothness": 0.0,
        "time": 0.338315137,
        "traj_len": 1.50162534333578,
        "weighted_distance": 1.892221037727811
    },
    "planner": "SBL",
    "start": {
        "state": {
            "elbow_joint": 2.0193083361928714,
            "shoulder_lift_joint": -1.1220246554650708,
            "shoulder_pan_joint": -1.0952077554168747,
            "wrist_1_joint": -0.8559753972642168,
            "wrist_2_joint": 0.4759566250798843,
            "wrist_3_joint": -3.1240929996934557
        }
    },
    "waypoints": [
        {
            "positions": [
                -1.0952077554168747,
                -1.1220246554650708,
                2.0193083361928714,
                -0.8559753972642168,
                0.4759566250798843,
                -3.1240929996934557
            ]
        },
        {
            "positions": [
                -1.1911673663476505,
                -1.1711188681530948,
                2.0088776616735506,
                -0.8022675409934693,
                0.641969032470426,
                -3.1234846495348156
            ]
        },
        {
            "positions": [
                -1.2871269772784262,
                -1.220213080841119,
                1.9984469871542296,
                -0.7485596847227219,
                0.8079814398609677,
                -3.1228762993761756
            ]
        },
        {
            "positions": [
                -1.3830865882092018,
                -1.269307293529143,
                1.9880163126349086,
                -0.6948518284519745,
                0.9739938472515095,
                -3.1222679492175356
            ]
        },
        {
            "positions": [
                -1.4790461991399777,
                -1.318401506217167,
                1.9775856381155879,
                -0.6411439721812271,
                1.1400062546420513,
                -3.121659599058896
            ]
        },
        {
            "positions": [
                -1.5750058100707536,
                -1.367495718905191,
                1.967154963596267,
                -0.5874361159104795,
                1.306018662032593,
                -3.121051248900256
            ]
        },
        {
            "positions": [
                -1.6709654210015292,
                -1.4165899315932151,
                1.956724289076946,
                -0.5337282596397321,
                1.4720310694231349,
                -3.120442898741616
            ]
        }
    ]
}