{
    "goal": {
        "global_pose": {
            "orientation": {
                "w": -0.4816463035849501,
                "x": 0.5182115481033762,
                "y": 0.4908360881923453,
                "z": -0.5084816262002911
            },
            "position": {
                "x": -0.8240239810943604,
                "y": 0.19912469901144506,
                "z": 0.16403168439865112
            }
        },
        "name": "move_to_storage_D"
    },
    "id": "SBL_move_to_storage_D_43",
    "joint_names": [
        "shoulder_pan_joint",
        "shoulder_lift_joint",
        "elbow_joint",
        "wrist_1_joint",
        "wrist_2_joint",
        "wrist_3_joint"
    ],
    "metrics": {
        "cart_traj_len": 4.00435368741897,
        "distance_elbow_joint": 4.213004029479594,
        "distance_shoulder_lift_joint": 1.3122964091724145,
        "distance_shoulder_pan_joint": 2.8157145303757876,
        "distance_wrist_1_joint": 2.284460373744161,
        "distance_wrist_2_joint": 1.594931459223026,
        "distance_wrist_3_joint": 3.12412548922371,
        "smoothness": 0.08715381668783433,
        "time": 0.365076131,
        "traj_len": 3.9172097583890872,
        "weighted_distance": 5.0469966418290095
    },
    "planner": "SBL",
    "start": {
        "state": {
            "elbow_joint": -2.384821988534728,
            "shoulder_lift_joint": -2.2788054721415256,
            "shoulder_pan_joint": -0.1854694642142757,
            "wrist_1_joint": 1.4845938289331202,
            "wrist_2_joint": 0.17898776772866878,
            "wrist_3_joint": 0.037105688729662994
        }
    },
    "waypoints": [
        {
            "positions": [
                -0.1854694642142757,
                -2.2788054721415256,
                -2.384821988534728,
                1.4845938289331202,
                0.17898776772866878,
                0.037105688729662994
            ]
        },
        {
            "positions": [
                -0.1600645340663131,
                -2.2687331467383327,
                -2.374244395156876,
                1.4635926690113499,
                0.17873546527270462,
                0.0350503583316744
            ]
        },
        {
            "positions": [
                -0.07201990407255966,
                -2.2261276154194727,
                -2.2698425805705726,
                1.404712879821636,
                0.22015830207630702,
                -0.023876690629874908
            ]
        },
        {
            "positions": [
                0.016024725921193778,
                -2.183522084100612,
                -2.165440765984269,
                1.345833090631922,
                0.2615811388799094,
                -0.08280373959142422
            ]
        },
        {
            "positions": [
                0.10406935591494726,
                -2.140916552781752,
                -2.0610389513979657,
                1.286953301442208,
                0.30300397568351184,
                -0.14173078855297355
            ]
        },
        {
            "positions": [
                0.19211398590870066,
                -2.098311021462892,
                -1.9566371368116624,
                1.2280735122524942,
                0.34442681248711426,
                -0.20065783751452282
            ]
        },
        {
            "positions": [
                0.2801586159024541,
                -2.0557054901440317,
                -1.8522353222253591,
                1.1691937230627802,
                0.38584964929071663,
                -0.2595848864760721
            ]
        },
        {
            "positions": [
                0.3682032458962076,
                -2.0130999588251717,
                -1.7478335076390557,
                1.1103139338730663,
                0.42727248609431906,
                -0.31851193543762146
            ]
        },
        {
            "positions": [
                0.456247875889961,
                -1.9704944275063117,
                -1.6434316930527522,
                1.0514341446833524,
                0.4686953228979215,
                -0.37743898439917073
            ]
        },
        {
            "positions": [
                0.5442925058837145,
                -1.9278888961874514,
                -1.5390298784664487,
                0.9925543554936385,
                0.5101181597015239,
                -0.43636603336072005
            ]
        },
        {
            "positions": [
                0.6323371358774679,
                -1.8852833648685914,
                -1.4346280638801452,
                0.9336745663039245,
                0.5515409965051263,
                -0.4952930823222694
            ]
        },
        {
            "positions": [
                0.7203817658712213,
                -1.8426778335497311,
                -1.330226249293842,
                0.8747947771142106,
                0.5929638333087286,
                -0.5542201312838186
            ]
        },
        {
            "positions": [
                0.8084263958649747,
                -1.8000723022308711,
                -1.2258244347075384,
                0.8159149879244967,
                0.6343866701123311,
                -0.613147180245368
            ]
        },
        {
            "positions": [
                0.8964710258587283,
                -1.7574667709120106,
                -1.121422620121235,
                0.7570351987347828,
                0.6758095069159336,
                -0.6720742292069174
            ]
        },
        {
            "positions": [
                0.9845156558524817,
                -1.7148612395931506,
                -1.0170208055349315,
                0.6981554095450688,
                0.7172323437195358,
                -0.7310012781684667
            ]
        },
        {
            "positions": [
                1.072560285846235,
                -1.6722557082742906,
                -0.9126189909486282,
                0.6392756203553549,
                0.7586551805231383,
                -0.7899283271300159
            ]
        },
        {
            "positions": [
                1.1606049158399885,
                -1.6296501769554304,
                -0.8082171763623247,
                0.580395831165641,
                0.8000780173267408,
                -0.8488553760915653
            ]
        },
        {
            "positions": [
                1.2486495458337419,
                -1.58704464563657,
                -0.7038153617760212,
                0.521516041975927,
                0.841500854130343,
                -0.9077824250531146
            ]
        },
        {
            "positions": [
                1.3366941758274953,
                -1.54443911431771,
                -0.599413547189718,
                0.4626362527862131,
                0.8829236909339455,
                -0.9667094740146638
            ]
        },
        {
            "positions": [
                1.4247388058212487,
                -1.50183358299885,
                -0.49501173260341447,
                0.4037564635964992,
                0.924346527737548,
                -1.0256365229762132
            ]
        },
        {
            "positions": [
                1.512783435815002,
                -1.4592280516799898,
                -0.390609918017111,
                0.34487667440678527,
                0.9657693645411503,
                -1.0845635719377624
            ]
        },
        {
            "positions": [
                1.6008280658087557,
                -1.4166225203611296,
                -0.2862081034308077,
                0.28599688521707134,
                1.0071922013447527,
                -1.1434906208993116
            ]
        },
        {
            "positions": [
                1.688872695802509,
                -1.3740169890422695,
                -0.18180628884450423,
                0.2271170960273574,
                1.0486150381483552,
                -1.202417669860861
            ]
        },
        {
            "positions": [
                1.7769173257962625,
                -1.3314114577234093,
                -0.07740447425820074,
                0.16823730683764349,
                1.0900378749519575,
                -1.2613447188224103
            ]
        },
        {
            "positions": [
                1.8649619557900161,
                -1.288805926404549,
                0.026997340328102748,
                0.10935751764792956,
                1.13146071175556,
                -1.3202717677839597
            ]
        },
        {
            "positions": [
                1.9530065857837697,
                -1.2462003950856888,
                0.13139915491440624,
                0.05047772845821563,
                1.1728835485591624,
                -1.3791988167455091
            ]
        },
        {
            "positions": [
                2.041051215777523,
                -1.2035948637668288,
                0.23580096950070972,
                -0.008402060731498295,
                1.214306385362765,
                -1.4381258657070584
            ]
        },
        {
            "positions": [
                2.1290958457712765,
                -1.1609893324479685,
                0.3402027840870132,
                -0.06728184992121222,
                1.2557292221663672,
                -1.4970529146686078
            ]
        },
        {
            "positions": [
                2.2171404757650297,
                -1.1183838011291085,
                0.4446045986733167,
                -0.12616163911092615,
                1.2971520589699697,
                -1.555979963630157
            ]
        },
        {
            "positions": [
                2.3051851057587833,
                -1.0757782698102483,
                0.5490064132596197,
                -0.18504142830064008,
                1.3385748957735721,
                -1.6149070125917062
            ]
        },
        {
            "positions": [
                2.3932297357525365,
                -1.0331727384913882,
                0.6534082278459232,
                -0.243921217490354,
                1.3799977325771744,
                -1.6738340615532556
            ]
        },
        {
            "positions": [
                2.48127436574629,
                -0.9905672071725279,
                0.7578100424322267,
                -0.30280100668006804,
                1.4214205693807769,
                -1.7327611105148049
            ]
        },
        {
            "positions": [
                2.497826665792426,
                -0.9932403343062408,
                0.8767402644891866,
                -0.3580305109168429,
                1.3823101190853335,
                -1.883234298290276
            ]
        },
        {
            "positions": [
                2.514378965838562,
                -0.9959134614399537,
                0.9956704865461464,
                -0.41326001515361777,
                1.3431996687898904,
                -2.0337074860657474
            ]
        },
        {
            "positions": [
                2.5309312658846976,
                -0.9985865885736668,
                1.1146007086031062,
                -0.4684895193903926,
                1.304089218494447,
                -2.184180673841219
            ]
        },
        {
            "positions": [
                2.5474835659308335,
                -1.0012597157073797,
                1.2335309306600661,
                -0.5237190236271674,
                1.2649787681990037,
                -2.3346538616166903
            ]
        },
        {
            "positions": [
                2.564035865976969,
                -1.0039328428410927,
                1.352461152717026,
                -0.5789485278639424,
                1.2258683179035605,
                -2.485127049392162
            ]
        },
        {
            "positions": [
                2.5805881660231047,
                -1.0066059699748056,
                1.4713913747739857,
                -0.6341780321007171,
                1.1867578676081172,
                -2.635600237167633
            ]
        },
        {
            "positions": [
                2.5971404660692405,
                -1.0092790971085186,
                1.5903215968309459,
                -0.6894075363374921,
                1.1476474173126738,
                -2.786073424943104
            ]
        },
        {
            "positions": [
                2.6136927661153764,
                -1.0119522242422314,
                1.7092518188879056,
                -0.7446370405742668,
                1.1085369670172307,
                -2.9365466127185753
            ]
        },
        {
            "positions": [
                2.630245066161512,
                -1.0146253513759445,
                1.8281820409448655,
                -0.7998665448110417,
                1.0694265167217873,
                -3.087019800494047
            ]
        }
    ]
}