{
    "goal": {
        "global_pose": {
            "orientation": {
                "w": -0.4816463035849501,
                "x": 0.5182115481033762,
                "y": 0.4908360881923453,
                "z": -0.5084816262002911
            },
            "position": {
                "x": -0.8240239810943604,
                "y": 0.19912469901144506,
                "z": 0.16403168439865112
            }
        },
        "name": "move_to_storage_D"
    },
    "id": "SBL_move_to_storage_D_115",
    "joint_names": [
        "shoulder_pan_joint",
        "shoulder_lift_joint",
        "elbow_joint",
        "wrist_1_joint",
        "wrist_2_joint",
        "wrist_3_joint"
    ],
    "metrics": {
        "cart_traj_len": 0.6228548226160213,
        "distance_elbow_joint": 0.9019478582100828,
        "distance_shoulder_lift_joint": 0.47272299020867425,
        "distance_shoulder_pan_joint": 0.15117460842528307,
        "distance_wrist_1_joint": 3.825302942540047,
        "distance_wrist_2_joint": 1.8464424655439982,
        "distance_wrist_3_joint": 3.5327638782419903,
        "smoothness": 0.3252707506280946,
        "time": 0.224391183,
        "traj_len": 3.27572201860446,
        "weighted_distance": 4.844339780376486
    },
    "planner": "SBL",
    "start": {
        "state": {
            "elbow_joint": -2.384821988534728,
            "shoulder_lift_joint": -2.2788054721415256,
            "shoulder_pan_joint": -0.1854694642142757,
            "wrist_1_joint": 1.4845938289331202,
            "wrist_2_joint": 0.17898776772866878,
            "wrist_3_joint": 0.037105688729662994
        }
    },
    "waypoints": [
        {
            "positions": [
                -0.1854694642142757,
                -2.2788054721415256,
                -2.384821988534728,
                1.4845938289331202,
                0.17898776772866878,
                0.037105688729662994
            ]
        },
        {
            "positions": [
                -0.15435690805400695,
                -2.200715271177926,
                -2.4279895255122654,
                1.3825790040413133,
                0.18799458485857254,
                0.08915820609538161
            ]
        },
        {
            "positions": [
                -0.12324435189373818,
                -2.1226250702143266,
                -2.4711570624898034,
                1.2805641791495066,
                0.19700140198847627,
                0.14121072346110025
            ]
        },
        {
            "positions": [
                -0.09213179573346941,
                -2.044534869250727,
                -2.514324599467341,
                1.1785493542577,
                0.20600821911838002,
                0.19326324082681887
            ]
        },
        {
            "positions": [
                -0.061019239573200657,
                -1.9664446682871275,
                -2.5574921364448784,
                1.076534529365893,
                0.21501503624828378,
                0.24531575819253748
            ]
        },
        {
            "positions": [
                -0.059905723582192,
                -1.973126426051889,
                -2.527105565182381,
                0.9341493775753589,
                0.13958106970560116,
                0.10679268282674098
            ]
        },
        {
            "positions": [
                -0.05879220759118334,
                -1.9798081838166506,
                -2.496718993919884,
                0.7917642257848246,
                0.06414710316291855,
                -0.03173039253905552
            ]
        },
        {
            "positions": [
                -0.05767869160017468,
                -1.9864899415814121,
                -2.466332422657387,
                0.6493790739942904,
                -0.01128686337976409,
                -0.17025346790485202
            ]
        },
        {
            "positions": [
                -0.05656517560916602,
                -1.9931716993461734,
                -2.4359458513948895,
                0.5069939222037563,
                -0.08672082992244667,
                -0.3087765432706485
            ]
        },
        {
            "positions": [
                -0.05545165961815736,
                -1.999853457110935,
                -2.4055592801323926,
                0.36460877041322204,
                -0.16215479646512937,
                -0.4472996186364451
            ]
        },
        {
            "positions": [
                -0.0543381436271487,
                -2.0065352148756963,
                -2.3751727088698953,
                0.2222236186226879,
                -0.23758876300781195,
                -0.5858226940022415
            ]
        },
        {
            "positions": [
                -0.05322462763614004,
                -2.013216972640458,
                -2.344786137607398,
                0.07983846683215368,
                -0.3130227295504946,
                -0.7243457693680381
            ]
        },
        {
            "positions": [
                -0.05211111164513139,
                -2.0198987304052194,
                -2.314399566344901,
                -0.06254668495838045,
                -0.3884566960931771,
                -0.8628688447338345
            ]
        },
        {
            "positions": [
                -0.05099759565412273,
                -2.026580488169981,
                -2.2840129950824037,
                -0.20493183674891458,
                -0.46389066263585976,
                -1.001391920099631
            ]
        },
        {
            "positions": [
                -0.04988407966311407,
                -2.0332622459347425,
                -2.2536264238199064,
                -0.3473169885394489,
                -0.5393246291785425,
                -1.1399149954654275
            ]
        },
        {
            "positions": [
                -0.04877056367210541,
                -2.039944003699504,
                -2.2232398525574095,
                -0.4897021403299828,
                -0.614758595721225,
                -1.278438070831224
            ]
        },
        {
            "positions": [
                -0.04765704768109675,
                -2.0466257614642656,
                -2.192853281294912,
                -0.6320872921205172,
                -0.6901925622639077,
                -1.4169611461970204
            ]
        },
        {
            "positions": [
                -0.04654353169008809,
                -2.053307519229027,
                -2.162466710032415,
                -0.7744724439110513,
                -0.7656265288065902,
                -1.5554842215628168
            ]
        },
        {
            "positions": [
                -0.04543001569907943,
                -2.0599892769937886,
                -2.132080138769918,
                -0.9168575957015856,
                -0.841060495349273,
                -1.6940072969286137
            ]
        },
        {
            "positions": [
                -0.04431649970807077,
                -2.06667103475855,
                -2.1016935675074206,
                -1.0592427474921196,
                -0.9164944618919556,
                -1.8325303722944102
            ]
        },
        {
            "positions": [
                -0.04320298371706212,
                -2.0733527925233117,
                -2.0713069962449233,
                -1.201627899282654,
                -0.991928428434638,
                -1.9710534476602066
            ]
        },
        {
            "positions": [
                -0.04208946772605346,
                -2.0800345502880733,
                -2.040920424982426,
                -1.3440130510731882,
                -1.0673623949773208,
                -2.109576523026003
            ]
        },
        {
            "positions": [
                -0.0409759517350448,
                -2.086716308052835,
                -2.010533853719929,
                -1.4863982028637222,
                -1.1427963615200034,
                -2.2480995983917995
            ]
        },
        {
            "positions": [
                -0.03986243574403614,
                -2.093398065817596,
                -1.980147282457432,
                -1.6287833546542565,
                -1.218230328062686,
                -2.386622673757596
            ]
        },
        {
            "positions": [
                -0.03874891975302748,
                -2.1000798235823575,
                -1.9497607111949347,
                -1.7711685064447908,
                -1.2936642946053687,
                -2.525145749123393
            ]
        },
        {
            "positions": [
                -0.03763540376201882,
                -2.106761581347119,
                -1.9193741399324376,
                -1.9135536582353248,
                -1.3690982611480513,
                -2.6636688244891893
            ]
        },
        {
            "positions": [
                -0.03652188777101016,
                -2.1134433391118805,
                -1.8889875686699404,
                -2.0559388100258587,
                -1.444532227690734,
                -2.8021918998549853
            ]
        },
        {
            "positions": [
                -0.0354083717800015,
                -2.120125096876642,
                -1.8586009974074431,
                -2.1983239618163934,
                -1.5199661942334166,
                -2.940714975220782
            ]
        },
        {
            "positions": [
                -0.03429485578899284,
                -2.1268068546414036,
                -1.828214426144946,
                -2.3407091136069273,
                -1.5954001607760993,
                -3.0792380505865786
            ]
        }
    ]
}