{
    "goal": {
        "global_pose": {
            "orientation": {
                "w": -0.4816463035849501,
                "x": 0.5182115481033762,
                "y": 0.4908360881923453,
                "z": -0.5084816262002911
            },
            "position": {
                "x": -0.8240239810943604,
                "y": -0.300875300988555,
                "z": 0.16403168439865112
            }
        },
        "name": "move_to_storage_C"
    },
    "id": "SBL_move_to_storage_C_124",
    "joint_names": [
        "shoulder_pan_joint",
        "shoulder_lift_joint",
        "elbow_joint",
        "wrist_1_joint",
        "wrist_2_joint",
        "wrist_3_joint"
    ],
    "metrics": {
        "cart_traj_len": 0.5772519254924049,
        "distance_elbow_joint": 0.25756764198297666,
        "distance_shoulder_lift_joint": 0.18943415813806463,
        "distance_shoulder_pan_joint": 0.4941646366077532,
        "distance_wrist_1_joint": 0.07609052366213198,
        "distance_wrist_2_joint": 1.0791183151290134,
        "distance_wrist_3_joint": 0.05588057801605206,
        "smoothness": 5.075305295617109e-16,
        "time": 0.849749804,
        "traj_len": 1.467056867860272,
        "weighted_distance": 1.8491148824124588
    },
    "planner": "SBL",
    "start": {
        "state": {
            "elbow_joint": 2.010868314990456,
            "shoulder_lift_joint": -1.1634956873337592,
            "shoulder_pan_joint": -2.4736205022346125,
            "wrist_1_joint": -0.8367026794202681,
            "wrist_2_joint": 0.6746043897044499,
            "wrist_3_joint": -3.1496632123970403
        }
    },
    "waypoints": [
        {
            "positions": [
                -2.4736205022346125,
                -1.1634956873337592,
                2.010868314990456,
                -0.8367026794202681,
                0.6746043897044499,
                -3.1496632123970403
            ]
        },
        {
            "positions": [
                -2.5559812750025714,
                -1.1319233276440817,
                1.9679403746599597,
                -0.8240209254765795,
                0.8544574422259521,
                -3.1403497827276983
            ]
        },
        {
            "positions": [
                -2.6383420477705304,
                -1.1003509679544043,
                1.9250124343294637,
                -0.8113391715328908,
                1.0343104947474544,
                -3.1310363530583563
            ]
        },
        {
            "positions": [
                -2.720702820538489,
                -1.0687786082647268,
                1.8820844939989674,
                -0.7986574175892021,
                1.2141635472689565,
                -3.1217229233890142
            ]
        },
        {
            "positions": [
                -2.803063593306448,
                -1.0372062485750495,
                1.8391565536684713,
                -0.7859756636455134,
                1.3940165997904588,
                -3.1124094937196722
            ]
        },
        {
            "positions": [
                -2.8854243660744068,
                -1.005633888885372,
                1.7962286133379752,
                -0.7732939097018248,
                1.573869652311961,
                -3.1030960640503302
            ]
        },
        {
            "positions": [
                -2.9677851388423657,
                -0.9740615291956946,
                1.7533006730074792,
                -0.7606121557581361,
                1.7537227048334632,
                -3.093782634380988
            ]
        }
    ]
}