{
    "goal": {
        "global_pose": {
            "orientation": {
                "w": 0.005598929693374612,
                "x": 0.007748599140229565,
                "y": 0.7110244013736278,
                "z": -0.7031023480610252
            },
            "position": {
                "x": -0.8858502320852131,
                "y": -0.7141253447532654,
                "z": 0.3711530566215515
            }
        },
        "name": "move_to_auspresseinheit_C"
    },
    "id": "SBL_move_to_auspresseinheit_C_144",
    "joint_names": [
        "shoulder_pan_joint",
        "shoulder_lift_joint",
        "elbow_joint",
        "wrist_1_joint",
        "wrist_2_joint",
        "wrist_3_joint"
    ],
    "metrics": {
        "cart_traj_len": 0.4945727648354236,
        "distance_elbow_joint": 1.0199553041156717,
        "distance_shoulder_lift_joint": 0.3346663132967288,
        "distance_shoulder_pan_joint": 0.256516748006125,
        "distance_wrist_1_joint": 0.7158650033363559,
        "distance_wrist_2_joint": 1.309491933017151,
        "distance_wrist_3_joint": 0.08136283158338031,
        "smoothness": 1.6148698667872622e-16,
        "time": 0.288480659,
        "traj_len": 1.928174819189228,
        "weighted_distance": 2.4302141331322393
    },
    "planner": "SBL",
    "start": {
        "state": {
            "elbow_joint": 1.7527959577737207,
            "shoulder_lift_joint": -0.9740617694225068,
            "shoulder_pan_joint": -2.967991417825858,
            "wrist_1_joint": -0.759517768980727,
            "wrist_2_joint": 1.7443932448377408,
            "wrist_3_joint": -3.0840537646736568
        }
    },
    "waypoints": [
        {
            "positions": [
                -2.967991417825858,
                -0.9740617694225068,
                1.7527959577737207,
                -0.759517768980727,
                1.7443932448377408,
                -3.0840537646736568
            ]
        },
        {
            "positions": [
                -2.9423397430252454,
                -0.9405951380928339,
                1.6508004273621535,
                -0.6879312686470914,
                1.6134440515360258,
                -3.092190047831995
            ]
        },
        {
            "positions": [
                -2.916688068224633,
                -0.907128506763161,
                1.5488048969505863,
                -0.6163447683134557,
                1.4824948582343107,
                -3.100326330990333
            ]
        },
        {
            "positions": [
                -2.8910363934240206,
                -0.8736618754334882,
                1.4468093665390191,
                -0.5447582679798202,
                1.3515456649325954,
                -3.108462614148671
            ]
        },
        {
            "positions": [
                -2.865384718623408,
                -0.8401952441038152,
                1.344813836127452,
                -0.47317176764618457,
                1.2205964716308804,
                -3.116598897307009
            ]
        },
        {
            "positions": [
                -2.8397330438227955,
                -0.8067286127741424,
                1.2428183057158848,
                -0.401585267312549,
                1.0896472783291653,
                -3.124735180465347
            ]
        },
        {
            "positions": [
                -2.814081369022183,
                -0.7732619814444694,
                1.1408227753043176,
                -0.32999876697891345,
                0.9586980850274502,
                -3.132871463623685
            ]
        },
        {
            "positions": [
                -2.7884296942215703,
                -0.7397953501147967,
                1.0388272448927505,
                -0.25841226664527783,
                0.8277488917257352,
                -3.141007746782023
            ]
        },
        {
            "positions": [
                -2.762778019420958,
                -0.7063287187851237,
                0.9368317144811833,
                -0.18682576631164216,
                0.6967996984240199,
                -3.149144029940361
            ]
        },
        {
            "positions": [
                -2.7371263446203455,
                -0.6728620874554508,
                0.8348361840696161,
                -0.1152392659780066,
                0.5658505051223048,
                -3.157280313098699
            ]
        },
        {
            "positions": [
                -2.711474669819733,
                -0.639395456125778,
                0.732840653658049,
                -0.043652765644371073,
                0.4349013118205897,
                -3.165416596257037
            ]
        }
    ]
}