{
    "goal": {
        "global_pose": {
            "orientation": {
                "w": 0.7031023480610252,
                "x": -0.7110244013736278,
                "y": 0.0077485991402295624,
                "z": 0.005598929693374583
            },
            "position": {
                "x": -0.8841497679147869,
                "y": 0.44412534475326537,
                "z": 0.3711530566215515
            }
        },
        "name": "move_to_auspresseinheit_D"
    },
    "id": "SBL_move_to_auspresseinheit_D_145",
    "joint_names": [
        "shoulder_pan_joint",
        "shoulder_lift_joint",
        "elbow_joint",
        "wrist_1_joint",
        "wrist_2_joint",
        "wrist_3_joint"
    ],
    "metrics": {
        "cart_traj_len": 0.34382862359461835,
        "distance_elbow_joint": 0.6455545768819271,
        "distance_shoulder_lift_joint": 0.12529706726268852,
        "distance_shoulder_pan_joint": 0.13419575944931159,
        "distance_wrist_1_joint": 0.5482417561904955,
        "distance_wrist_2_joint": 1.4360511295882545,
        "distance_wrist_3_joint": 0.021041720004221887,
        "smoothness": 1.9737298371844314e-16,
        "time": 0.325960539,
        "traj_len": 1.7059841761801011,
        "weighted_distance": 2.2218817104346695
    },
    "planner": "SBL",
    "start": {
        "state": {
            "elbow_joint": -1.8275523626775212,
            "shoulder_lift_joint": -2.126789852344167,
            "shoulder_pan_joint": -0.03513704404078235,
            "wrist_1_joint": -2.347782403156801,
            "wrist_2_joint": -1.6058999987535132,
            "wrist_3_joint": -3.0880379163319196
        }
    },
    "waypoints": [
        {
            "positions": [
                -0.03513704404078235,
                -2.126789852344167,
                -1.8275523626775212,
                -2.347782403156801,
                -1.6058999987535132,
                -3.0880379163319196
            ]
        },
        {
            "positions": [
                -0.051911513971946294,
                -2.142451985752003,
                -1.7468580405672802,
                -2.416312622680613,
                -1.4263936075549815,
                -3.085407701331392
            ]
        },
        {
            "positions": [
                -0.06868598390311025,
                -2.1581141191598388,
                -1.6661637184570395,
                -2.484842842204425,
                -1.2468872163564495,
                -3.082777486330864
            ]
        },
        {
            "positions": [
                -0.0854604538342742,
                -2.173776252567675,
                -1.5854693963467985,
                -2.553373061728237,
                -1.0673808251579178,
                -3.080147271330336
            ]
        },
        {
            "positions": [
                -0.10223492376543813,
                -2.189438385975511,
                -1.5047750742365578,
                -2.621903281252049,
                -0.8878744339593859,
                -3.0775170563298087
            ]
        },
        {
            "positions": [
                -0.1190093936966021,
                -2.2051005193833473,
                -1.4240807521263168,
                -2.6904335007758604,
                -0.7083680427608541,
                -3.074886841329281
            ]
        },
        {
            "positions": [
                -0.13578386362776604,
                -2.2207626527911835,
                -1.3433864300160758,
                -2.7589637202996724,
                -0.5288616515623223,
                -3.072256626328753
            ]
        },
        {
            "positions": [
                -0.15255833355892998,
                -2.236424786199019,
                -1.2626921079058349,
                -2.8274939398234844,
                -0.3493552603637904,
                -3.0696264113282252
            ]
        },
        {
            "positions": [
                -0.16933280349009394,
                -2.2520869196068554,
                -1.1819977857955941,
                -2.8960241593472964,
                -0.16984886916525865,
                -3.0669961963276977
            ]
        }
    ]
}