{
    "goal": {
        "global_pose": {
            "orientation": {
                "w": 0.005598929693374612,
                "x": 0.007748599140229565,
                "y": 0.7110244013736278,
                "z": -0.7031023480610252
            },
            "position": {
                "x": 0.1141497679147869,
                "y": -0.7141253447532654,
                "z": 0.3711530566215515
            }
        },
        "name": "move_to_auspresseinheit_B"
    },
    "id": "SBL_move_to_auspresseinheit_B_58",
    "joint_names": [
        "shoulder_pan_joint",
        "shoulder_lift_joint",
        "elbow_joint",
        "wrist_1_joint",
        "wrist_2_joint",
        "wrist_3_joint"
    ],
    "metrics": {
        "cart_traj_len": 0.5647718413201087,
        "distance_elbow_joint": 0.06625583185603601,
        "distance_shoulder_lift_joint": 0.29451541737211806,
        "distance_shoulder_pan_joint": 0.5776321343200372,
        "distance_wrist_1_joint": 0.3397044441582072,
        "distance_wrist_2_joint": 0.9886548126418837,
        "distance_wrist_3_joint": 0.004435550997130111,
        "smoothness": 0.0,
        "time": 0.229214269,
        "traj_len": 1.507049498638121,
        "weighted_distance": 1.8995864155493858
    },
    "planner": "SBL",
    "start": {
        "state": {
            "elbow_joint": 2.0193083361928714,
            "shoulder_lift_joint": -1.1220246554650708,
            "shoulder_pan_joint": -1.0952077554168747,
            "wrist_1_joint": -0.8559753972642168,
            "wrist_2_joint": 0.4759566250798843,
            "wrist_3_joint": -3.1240929996934557
        }
    },
    "waypoints": [
        {
            "positions": [
                -1.0952077554168747,
                -1.1220246554650708,
                2.0193083361928714,
                -0.8559753972642168,
                0.4759566250798843,
                -3.1240929996934557
            ]
        },
        {
            "positions": [
                -1.1914797778035475,
                -1.1711105583604238,
                2.0082656975501987,
                -0.7993579899045156,
                0.6407324271868649,
                -3.123353741193934
            ]
        },
        {
            "positions": [
                -1.2877518001902204,
                -1.2201964612557767,
                1.9972230589075262,
                -0.7427405825448143,
                0.8055082292938456,
                -3.1226144826944124
            ]
        },
        {
            "positions": [
                -1.3840238225768933,
                -1.2692823641511297,
                1.9861804202648534,
                -0.6861231751851131,
                0.9702840314008261,
                -3.1218752241948904
            ]
        },
        {
            "positions": [
                -1.4802958449635661,
                -1.318368267046483,
                1.9751377816221807,
                -0.629505767825412,
                1.1350598335078068,
                -3.1211359656953688
            ]
        },
        {
            "positions": [
                -1.576567867350239,
                -1.3674541699418359,
                1.9640951429795082,
                -0.5728883604657107,
                1.2998356356147873,
                -3.120396707195847
            ]
        },
        {
            "positions": [
                -1.672839889736912,
                -1.4165400728371889,
                1.9530525043368354,
                -0.5162709531060096,
                1.464611437721768,
                -3.1196574486963256
            ]
        }
    ]
}