{
    "goal": {
        "global_pose": {
            "orientation": {
                "w": 0.005598929693374612,
                "x": 0.007748599140229565,
                "y": 0.7110244013736278,
                "z": -0.7031023480610252
            },
            "position": {
                "x": 0.1141497679147869,
                "y": -0.7141253447532654,
                "z": 0.3711530566215515
            }
        },
        "name": "move_to_auspresseinheit_B"
    },
    "id": "SBL_move_to_auspresseinheit_B_104",
    "joint_names": [
        "shoulder_pan_joint",
        "shoulder_lift_joint",
        "elbow_joint",
        "wrist_1_joint",
        "wrist_2_joint",
        "wrist_3_joint"
    ],
    "metrics": {
        "cart_traj_len": 0.5649119727456008,
        "distance_elbow_joint": 0.06350083559878983,
        "distance_shoulder_lift_joint": 0.29427122380534043,
        "distance_shoulder_pan_joint": 0.5789031652332819,
        "distance_wrist_1_joint": 0.3342381355529316,
        "distance_wrist_2_joint": 0.9888958597402653,
        "distance_wrist_3_joint": 0.007308256127191992,
        "smoothness": 2.5376526478085547e-16,
        "time": 0.299099062,
        "traj_len": 1.5056950142900125,
        "weighted_distance": 1.8986489890459957
    },
    "planner": "SBL",
    "start": {
        "state": {
            "elbow_joint": 2.0193083361928714,
            "shoulder_lift_joint": -1.1220246554650708,
            "shoulder_pan_joint": -1.0952077554168747,
            "wrist_1_joint": -0.8559753972642168,
            "wrist_2_joint": 0.4759566250798843,
            "wrist_3_joint": -3.1240929996934557
        }
    },
    "waypoints": [
        {
            "positions": [
                -1.0952077554168747,
                -1.1220246554650708,
                2.0193083361928714,
                -0.8559753972642168,
                0.4759566250798843,
                -3.1240929996934557
            ]
        },
        {
            "positions": [
                -1.1916916162890883,
                -1.1710698594326274,
                2.008724863593073,
                -0.8002690413387282,
                0.6407726017032618,
                -3.1228749570055903
            ]
        },
        {
            "positions": [
                -1.2881754771613019,
                -1.2201150634001843,
                1.9981413909932748,
                -0.7445626854132396,
                0.8055885783266394,
                -3.121656914317725
            ]
        },
        {
            "positions": [
                -1.3846593380335155,
                -1.2691602673677411,
                1.9875579183934766,
                -0.688856329487751,
                0.9704045549500169,
                -3.12043887162986
            ]
        },
        {
            "positions": [
                -1.481143198905729,
                -1.3182054713352978,
                1.9769744457936782,
                -0.6331499735622624,
                1.1352205315733945,
                -3.1192208289419945
            ]
        },
        {
            "positions": [
                -1.577627059777943,
                -1.3672506753028544,
                1.9663909731938798,
                -0.5774436176367738,
                1.300036508196772,
                -3.118002786254129
            ]
        },
        {
            "positions": [
                -1.6741109206501565,
                -1.4162958792704112,
                1.9558075005940816,
                -0.5217372617112852,
                1.4648524848201496,
                -3.1167847435662637
            ]
        }
    ]
}