{
    "goal": {
        "global_pose": {
            "orientation": {
                "w": 0.005598929693374612,
                "x": 0.007748599140229565,
                "y": 0.7110244013736278,
                "z": -0.7031023480610252
            },
            "position": {
                "x": -0.8858502320852131,
                "y": -0.7141253447532654,
                "z": 0.3711530566215515
            }
        },
        "name": "move_to_auspresseinheit_C"
    },
    "id": "SBL_move_to_auspresseinheit_C_85",
    "joint_names": [
        "shoulder_pan_joint",
        "shoulder_lift_joint",
        "elbow_joint",
        "wrist_1_joint",
        "wrist_2_joint",
        "wrist_3_joint"
    ],
    "metrics": {
        "cart_traj_len": 0.492859003904219,
        "distance_elbow_joint": 0.9944421970610348,
        "distance_shoulder_lift_joint": 0.3220393228054762,
        "distance_shoulder_pan_joint": 0.25586908985110224,
        "distance_wrist_1_joint": 0.6622774879877705,
        "distance_wrist_2_joint": 1.3166660487329749,
        "distance_wrist_3_joint": 0.04785466915328751,
        "smoothness": 9.689219124001365e-16,
        "time": 0.509272692,
        "traj_len": 1.8971422760540775,
        "weighted_distance": 2.3819743261880397
    },
    "planner": "SBL",
    "start": {
        "state": {
            "elbow_joint": 1.7527959577737207,
            "shoulder_lift_joint": -0.9740617694225068,
            "shoulder_pan_joint": -2.967991417825858,
            "wrist_1_joint": -0.759517768980727,
            "wrist_2_joint": 1.7443932448377408,
            "wrist_3_joint": -3.0840537646736568
        }
    },
    "waypoints": [
        {
            "positions": [
                -2.967991417825858,
                -0.9740617694225068,
                1.7527959577737207,
                -0.759517768980727,
                1.7443932448377408,
                -3.0840537646736568
            ]
        },
        {
            "positions": [
                -2.9424045088407476,
                -0.9418578371419591,
                1.6533517380676173,
                -0.69329002018195,
                1.6127266399644433,
                -3.0888392315889854
            ]
        },
        {
            "positions": [
                -2.9168175998556376,
                -0.9096539048614115,
                1.5539075183615136,
                -0.6270622713831728,
                1.4810600350911458,
                -3.093624698504314
            ]
        },
        {
            "positions": [
                -2.891230690870527,
                -0.8774499725808639,
                1.4544632986554102,
                -0.5608345225843958,
                1.3493934302178483,
                -3.098410165419643
            ]
        },
        {
            "positions": [
                -2.8656437818854172,
                -0.8452460403003162,
                1.3550190789493066,
                -0.49460677378561874,
                1.2177268253445508,
                -3.103195632334972
            ]
        },
        {
            "positions": [
                -2.840056872900307,
                -0.8130421080197687,
                1.2555748592432032,
                -0.4283790249868417,
                1.0860602204712535,
                -3.1079810992503005
            ]
        },
        {
            "positions": [
                -2.8144699639151964,
                -0.7808381757392211,
                1.1561306395370998,
                -0.3621512761880647,
                0.9543936155979559,
                -3.112766566165629
            ]
        },
        {
            "positions": [
                -2.7888830549300865,
                -0.7486342434586735,
                1.0566864198309962,
                -0.2959235273892876,
                0.8227270107246585,
                -3.117552033080958
            ]
        },
        {
            "positions": [
                -2.763296145944976,
                -0.7164303111781258,
                0.9572422001248928,
                -0.2296957785905105,
                0.691060405851361,
                -3.122337499996287
            ]
        },
        {
            "positions": [
                -2.737709236959866,
                -0.6842263788975782,
                0.8577979804187894,
                -0.16346802979173347,
                0.5593938009780635,
                -3.1271229669116156
            ]
        },
        {
            "positions": [
                -2.7121223279747557,
                -0.6520224466170306,
                0.7583537607126859,
                -0.09724028099295645,
                0.427727196104766,
                -3.1319084338269443
            ]
        }
    ]
}