{
    "goal": {
        "global_pose": {
            "orientation": {
                "w": -0.4816463035849501,
                "x": 0.5182115481033762,
                "y": 0.4908360881923453,
                "z": -0.5084816262002911
            },
            "position": {
                "x": -0.8240239810943604,
                "y": 0.19912469901144506,
                "z": 0.16403168439865112
            }
        },
        "name": "move_to_storage_D"
    },
    "id": "SBL_move_to_storage_D_103",
    "joint_names": [
        "shoulder_pan_joint",
        "shoulder_lift_joint",
        "elbow_joint",
        "wrist_1_joint",
        "wrist_2_joint",
        "wrist_3_joint"
    ],
    "metrics": {
        "cart_traj_len": 3.8991195914574757,
        "distance_elbow_joint": 4.212700758599121,
        "distance_shoulder_lift_joint": 1.2638833009166273,
        "distance_shoulder_pan_joint": 2.8123618271745254,
        "distance_wrist_1_joint": 2.285286933778919,
        "distance_wrist_2_joint": 1.1213290834585996,
        "distance_wrist_3_joint": 3.1565451882667874,
        "smoothness": 0.11510076630152284,
        "time": 0.33531770699999996,
        "traj_len": 3.8538431587435658,
        "weighted_distance": 4.956996417788263
    },
    "planner": "SBL",
    "start": {
        "state": {
            "elbow_joint": -2.384821988534728,
            "shoulder_lift_joint": -2.2788054721415256,
            "shoulder_pan_joint": -0.1854694642142757,
            "wrist_1_joint": 1.4845938289331202,
            "wrist_2_joint": 0.17898776772866878,
            "wrist_3_joint": 0.037105688729662994
        }
    },
    "waypoints": [
        {
            "positions": [
                -0.1854694642142757,
                -2.2788054721415256,
                -2.384821988534728,
                1.4845938289331202,
                0.17898776772866878,
                0.037105688729662994
            ]
        },
        {
            "positions": [
                -0.14569036753293302,
                -2.2706222020148585,
                -2.3659979377328746,
                1.4768526246419655,
                0.17844342870611912,
                0.04676878093640556
            ]
        },
        {
            "positions": [
                -0.0732042525671816,
                -2.245362248915505,
                -2.243916313737086,
                1.4079696813083493,
                0.20866870655650832,
                -0.026728580668399615
            ]
        },
        {
            "positions": [
                -0.000718137601430191,
                -2.2201022958161523,
                -2.1218346897412976,
                1.3390867379747329,
                0.23889398440689752,
                -0.10022594227320479
            ]
        },
        {
            "positions": [
                0.0717679773643212,
                -2.194842342716799,
                -1.9997530657455092,
                1.2702037946411164,
                0.2691192622572867,
                -0.17372330387800994
            ]
        },
        {
            "positions": [
                0.14425409233007264,
                -2.1695823896174455,
                -1.8776714417497207,
                1.2013208513075002,
                0.2993445401076759,
                -0.24722066548281513
            ]
        },
        {
            "positions": [
                0.21674020729582405,
                -2.1443224365180926,
                -1.7555898177539322,
                1.132437907973884,
                0.3295698179580651,
                -0.32071802708762026
            ]
        },
        {
            "positions": [
                0.2892263222615754,
                -2.1190624834187393,
                -1.6335081937581437,
                1.0635549646402676,
                0.35979509580845426,
                -0.39421538869242545
            ]
        },
        {
            "positions": [
                0.3617124372273269,
                -2.093802530319386,
                -1.5114265697623552,
                0.9946720213066511,
                0.39002037365884346,
                -0.4677127502972306
            ]
        },
        {
            "positions": [
                0.4341985521930783,
                -2.0685425772200325,
                -1.3893449457665668,
                0.9257890779730349,
                0.42024565150923265,
                -0.5412101119020358
            ]
        },
        {
            "positions": [
                0.5066846671588296,
                -2.0432826241206796,
                -1.2672633217707783,
                0.8569061346394186,
                0.45047092935962185,
                -0.6147074735068409
            ]
        },
        {
            "positions": [
                0.5791707821245811,
                -2.0180226710213263,
                -1.1451816977749896,
                0.7880231913058022,
                0.4806962072100111,
                -0.6882048351116461
            ]
        },
        {
            "positions": [
                0.6516568970903325,
                -1.9927627179219731,
                -1.0231000737792013,
                0.7191402479721859,
                0.5109214850604002,
                -0.7617021967164512
            ]
        },
        {
            "positions": [
                0.7241430120560839,
                -1.9675027648226198,
                -0.9010184497834126,
                0.6502573046385695,
                0.5411467629107894,
                -0.8351995583212565
            ]
        },
        {
            "positions": [
                0.7966291270218353,
                -1.9422428117232666,
                -0.7789368257876244,
                0.5813743613049532,
                0.5713720407611786,
                -0.9086969199260616
            ]
        },
        {
            "positions": [
                0.8691152419875867,
                -1.9169828586239133,
                -0.6568552017918357,
                0.5124914179713368,
                0.6015973186115678,
                -0.9821942815308667
            ]
        },
        {
            "positions": [
                0.9416013569533379,
                -1.8917229055245601,
                -0.5347735777960472,
                0.44360847463772046,
                0.631822596461957,
                -1.055691643135672
            ]
        },
        {
            "positions": [
                1.0140874719190895,
                -1.866462952425207,
                -0.4126919538002587,
                0.37472553130410424,
                0.6620478743123462,
                -1.1291890047404773
            ]
        },
        {
            "positions": [
                1.0865735868848407,
                -1.8412029993258536,
                -0.29061032980447044,
                0.3058425879704878,
                0.6922731521627354,
                -1.2026863663452823
            ]
        },
        {
            "positions": [
                1.1590597018505922,
                -1.8159430462265005,
                -0.16852870580868196,
                0.23695964463687158,
                0.7224984300131245,
                -1.2761837279500874
            ]
        },
        {
            "positions": [
                1.2315458168163438,
                -1.7906830931271471,
                -0.04644708181289303,
                0.16807670130325514,
                0.7527237078635138,
                -1.3496810895548927
            ]
        },
        {
            "positions": [
                1.3040319317820952,
                -1.765423140027794,
                0.07563454218289545,
                0.09919375796963892,
                0.7829489857139031,
                -1.4231784511596979
            ]
        },
        {
            "positions": [
                1.3765180467478464,
                -1.7401631869284409,
                0.19771616617868393,
                0.030310814636022476,
                0.8131742635642922,
                -1.496675812764503
            ]
        },
        {
            "positions": [
                1.4490041617135978,
                -1.7149032338290877,
                0.31979779017447196,
                -0.038572128697593744,
                0.8433995414146813,
                -1.5701731743693081
            ]
        },
        {
            "positions": [
                1.5214902766793494,
                -1.6896432807297344,
                0.4418794141702609,
                -0.10745507203121019,
                0.8736248192650706,
                -1.6436705359741135
            ]
        },
        {
            "positions": [
                1.5939763916451006,
                -1.664383327630381,
                0.5639610381660494,
                -0.17633801536482663,
                0.9038500971154597,
                -1.7171678975789186
            ]
        },
        {
            "positions": [
                1.666462506610852,
                -1.6391233745310279,
                0.6860426621618378,
                -0.24522095869844285,
                0.934075374965849,
                -1.7906652591837238
            ]
        },
        {
            "positions": [
                1.7389486215766035,
                -1.6138634214316747,
                0.8081242861576259,
                -0.31410390203205907,
                0.9643006528162381,
                -1.864162620788529
            ]
        },
        {
            "positions": [
                1.811434736542355,
                -1.5886034683323214,
                0.9302059101534148,
                -0.3829868453656755,
                0.9945259306666274,
                -1.9376599823933343
            ]
        },
        {
            "positions": [
                1.8839208515081065,
                -1.5633435152329682,
                1.0522875341492033,
                -0.45186978869929195,
                1.0247512085170165,
                -2.011157343998139
            ]
        },
        {
            "positions": [
                1.9564069664738577,
                -1.538083562133615,
                1.1743691581449918,
                -0.5207527320329082,
                1.0549764863674058,
                -2.0846547056029445
            ]
        },
        {
            "positions": [
                2.028893081439609,
                -1.5128236090342617,
                1.2964507821407802,
                -0.5896356753665246,
                1.085201764217795,
                -2.1581520672077494
            ]
        },
        {
            "positions": [
                2.1013791964053605,
                -1.4875636559349084,
                1.4185324061365687,
                -0.6585186187001411,
                1.1154270420681842,
                -2.231649428812555
            ]
        },
        {
            "positions": [
                2.173865311371112,
                -1.4623037028355554,
                1.5406140301323572,
                -0.727401562033757,
                1.1456523199185733,
                -2.30514679041736
            ]
        },
        {
            "positions": [
                2.2463514263368634,
                -1.437043749736202,
                1.662695654128146,
                -0.7962845053673734,
                1.1758775977689626,
                -2.378644152022165
            ]
        },
        {
            "positions": [
                2.3224596136615405,
                -1.3526194340339412,
                1.6957322773153956,
                -0.7954027854716885,
                1.1512074826943213,
                -2.5229379846424598
            ]
        },
        {
            "positions": [
                2.3985678009862177,
                -1.2681951183316806,
                1.7287689005026452,
                -0.7945210655760037,
                1.12653736761968,
                -2.667231817262755
            ]
        },
        {
            "positions": [
                2.4746759883108953,
                -1.1837708026294198,
                1.7618055236898946,
                -0.7936393456803188,
                1.1018672525450388,
                -2.8115256498830496
            ]
        },
        {
            "positions": [
                2.5507841756355725,
                -1.0993464869271592,
                1.7948421468771443,
                -0.7927576257846339,
                1.0771971374703975,
                -2.955819482503345
            ]
        },
        {
            "positions": [
                2.6268923629602496,
                -1.0149221712248984,
                1.827878770064394,
                -0.7918759058889491,
                1.0525270223957561,
                -3.1001133151236395
            ]
        }
    ]
}