{
    "goal": {
        "global_pose": {
            "orientation": {
                "w": 0.7047431493862688,
                "x": -0.7094548369677653,
                "y": 0.0024358444001904,
                "z": -0.0022348060817251984
            },
            "position": {
                "x": -0.39052492380142206,
                "y": 0.3671506643295288,
                "z": 0.19426114857196808
            }
        },
        "name": "move_to_magneteinheit_D"
    },
    "id": "SBL_move_to_magneteinheit_D_3",
    "joint_names": [
        "shoulder_pan_joint",
        "shoulder_lift_joint",
        "elbow_joint",
        "wrist_1_joint",
        "wrist_2_joint",
        "wrist_3_joint"
    ],
    "metrics": {
        "cart_traj_len": 5.416483766032602,
        "distance_elbow_joint": 3.605951301036296,
        "distance_shoulder_lift_joint": 3.5963876890770905,
        "distance_shoulder_pan_joint": 3.552027483289094,
        "distance_wrist_1_joint": 2.6533854354827255,
        "distance_wrist_2_joint": 0.4983159425977589,
        "distance_wrist_3_joint": 4.17920600945358,
        "smoothness": 0.6766428234542762,
        "time": 0.541002638,
        "traj_len": 4.252678433756372,
        "weighted_distance": 5.440164267549664
    },
    "planner": "SBL",
    "start": {
        "state": {
            "elbow_joint": 0.749534889911806,
            "shoulder_lift_joint": -0.6476975780787326,
            "shoulder_pan_joint": -2.711696901376241,
            "wrist_1_joint": -0.07506478083263063,
            "wrist_2_joint": 0.43296659715538205,
            "wrist_3_joint": -3.14703540197715
        }
    },
    "waypoints": [
        {
            "positions": [
                -2.711696901376241,
                -0.6476975780787326,
                0.749534889911806,
                -0.07506478083263063,
                0.43296659715538205,
                -3.14703540197715
            ]
        },
        {
            "positions": [
                -2.738159456469088,
                -0.774008727244268,
                0.6736949124434675,
                -0.04039753203192348,
                0.42834868344795884,
                -3.0426609612460678
            ]
        },
        {
            "positions": [
                -2.621282363407931,
                -0.8323453299678473,
                0.5963236646239737,
                -0.00968356935855597,
                0.4269115523467828,
                -2.9358606185962692
            ]
        },
        {
            "positions": [
                -2.5044052703467745,
                -0.8906819326914265,
                0.51895241680448,
                0.02103039331481154,
                0.42547442124560675,
                -2.829060275946471
            ]
        },
        {
            "positions": [
                -2.3875281772856174,
                -0.9490185354150058,
                0.4415811689849862,
                0.051744355988179044,
                0.42403729014443065,
                -2.7222599332966726
            ]
        },
        {
            "positions": [
                -2.2706510842244607,
                -1.007355138138585,
                0.3642099211654925,
                0.08245831866154656,
                0.4226001590432546,
                -2.6154595906468745
            ]
        },
        {
            "positions": [
                -2.153773991163304,
                -1.0656917408621642,
                0.2868386733459987,
                0.11317228133491408,
                0.42116302794207855,
                -2.508659247997076
            ]
        },
        {
            "positions": [
                -2.0368968981021474,
                -1.1240283435857437,
                0.209467425526505,
                0.14388624400828157,
                0.4197258968409025,
                -2.401858905347278
            ]
        },
        {
            "positions": [
                -1.9200198050409907,
                -1.1823649463093229,
                0.13209617770701132,
                0.17460020668164908,
                0.4182887657397264,
                -2.2950585626974793
            ]
        },
        {
            "positions": [
                -1.8031427119798336,
                -1.240701549032902,
                0.05472492988751754,
                0.2053141693550166,
                0.41685163463855035,
                -2.188258220047681
            ]
        },
        {
            "positions": [
                -1.686265618918677,
                -1.2990381517564815,
                -0.022646317931976134,
                0.23602813202838407,
                0.4154145035373743,
                -2.0814578773978827
            ]
        },
        {
            "positions": [
                -1.5693885258575202,
                -1.3573747544800607,
                -0.10001756575147003,
                0.26674209470175164,
                0.41397737243619825,
                -1.9746575347480844
            ]
        },
        {
            "positions": [
                -1.4525114327963635,
                -1.41571135720364,
                -0.1773888135709637,
                0.2974560573751191,
                0.41254024133502215,
                -1.867857192098286
            ]
        },
        {
            "positions": [
                -1.3356343397352066,
                -1.4740479599272192,
                -0.2547600613904575,
                0.3281700200484866,
                0.4111031102338461,
                -1.7610568494484877
            ]
        },
        {
            "positions": [
                -1.21875724667405,
                -1.5323845626507984,
                -0.33213130920995115,
                0.3588839827218541,
                0.40966597913267006,
                -1.6542565067986894
            ]
        },
        {
            "positions": [
                -1.1018801536128933,
                -1.5907211653743776,
                -0.4095025570294448,
                0.38959794539522163,
                0.408228848031494,
                -1.547456164148891
            ]
        },
        {
            "positions": [
                -0.9850030605517366,
                -1.6490577680979568,
                -0.4868738048489385,
                0.4203119080685891,
                0.40679171693031796,
                -1.4406558214990928
            ]
        },
        {
            "positions": [
                -0.8681259674905795,
                -1.7073943708215364,
                -0.5642450526684324,
                0.45102587074195666,
                0.40535458582914186,
                -1.3338554788492942
            ]
        },
        {
            "positions": [
                -0.7512488744294228,
                -1.7657309735451157,
                -0.6416163004879261,
                0.48173983341532417,
                0.4039174547279658,
                -1.2270551361994961
            ]
        },
        {
            "positions": [
                -0.6343717813682663,
                -1.8240675762686949,
                -0.7189875483074197,
                0.5124537960886917,
                0.40248032362678976,
                -1.1202547935496978
            ]
        },
        {
            "positions": [
                -0.5174946883071097,
                -1.882404178992274,
                -0.7963587961269134,
                0.5431677587620591,
                0.4010431925256137,
                -1.0134544508998995
            ]
        },
        {
            "positions": [
                -0.40061759524595253,
                -1.9407407817158535,
                -0.8737300439464075,
                0.5738817214354268,
                0.3996060614244376,
                -0.906654108250101
            ]
        },
        {
            "positions": [
                -0.28374050218479585,
                -1.9990773844394327,
                -0.9511012917659012,
                0.6045956841087943,
                0.39816893032326156,
                -0.7998537656003029
            ]
        },
        {
            "positions": [
                -0.16686340912363917,
                -2.057413987163012,
                -1.0284725395853949,
                0.6353096467821617,
                0.3967317992220855,
                -0.6930534229505043
            ]
        },
        {
            "positions": [
                -0.049986316062482494,
                -2.1157505898865914,
                -1.1058437874048885,
                0.6660236094555292,
                0.39529466812090946,
                -0.5862530803007062
            ]
        },
        {
            "positions": [
                0.06689077699867463,
                -2.1740871926101706,
                -1.1832150352243824,
                0.6967375721288966,
                0.39385753701973336,
                -0.4794527376509077
            ]
        },
        {
            "positions": [
                0.1837678700598313,
                -2.23242379533375,
                -1.260586283043876,
                0.7274515348022643,
                0.3924204059185573,
                -0.37265239500110914
            ]
        },
        {
            "positions": [
                0.30064496312098793,
                -2.290760398057329,
                -1.33795753086337,
                0.7581654974756318,
                0.39098327481738127,
                -0.26585205235131126
            ]
        },
        {
            "positions": [
                0.30052286405580775,
                -2.208936415807353,
                -1.4447819885073372,
                0.8645288732208659,
                0.36338795353856296,
                -0.19939345933522065
            ]
        },
        {
            "positions": [
                0.3004007649906276,
                -2.1271124335573766,
                -1.5516064461513044,
                0.9708922489661,
                0.3357926322597447,
                -0.13293486631913004
            ]
        },
        {
            "positions": [
                0.30027866592544744,
                -2.0452884513074006,
                -1.6584309037952716,
                1.0772556247113343,
                0.3081973109809264,
                -0.0664762733030394
            ]
        },
        {
            "positions": [
                0.3001565668602673,
                -1.9634644690574243,
                -1.7652553614392388,
                1.1836190004565683,
                0.28060198970210815,
                -1.7680286948817958e-05
            ]
        },
        {
            "positions": [
                0.30003446779508713,
                -1.881640486807448,
                -1.8720798190832062,
                1.2899823762018028,
                0.2530066684232898,
                0.06644091272914188
            ]
        },
        {
            "positions": [
                0.299912368729907,
                -1.7998165045574719,
                -1.9789042767271734,
                1.3963457519470368,
                0.22541134714447153,
                0.13289950574523246
            ]
        },
        {
            "positions": [
                0.2997902696647268,
                -1.7179925223074957,
                -2.085728734371141,
                1.502709127692271,
                0.19781602586565322,
                0.1993580987613231
            ]
        },
        {
            "positions": [
                0.29966817059954665,
                -1.6361685400575197,
                -2.192553192015108,
                1.609072503437505,
                0.17022070458683497,
                0.2658166917774136
            ]
        },
        {
            "positions": [
                0.2995460715343665,
                -1.5543445578075432,
                -2.299377649659075,
                1.7154358791827393,
                0.14262538330801666,
                0.3322752847935043
            ]
        },
        {
            "positions": [
                0.29942397246918634,
                -1.4725205755575672,
                -2.4062021073030424,
                1.8217992549279736,
                0.11503006202919835,
                0.398733877809595
            ]
        },
        {
            "positions": [
                0.2993018734040062,
                -1.390696593307591,
                -2.5130265649470096,
                1.9281626306732076,
                0.0874347407503801,
                0.4651924708256855
            ]
        },
        {
            "positions": [
                0.29917977433882603,
                -1.3088726110576148,
                -2.619851022590977,
                2.034526006418442,
                0.059839419471561794,
                0.5316510638417762
            ]
        },
        {
            "positions": [
                0.2385178593608251,
                -1.4303022463199622,
                -2.5902803490242876,
                1.966551675389485,
                0.07548801508580413,
                0.4690861208874446
            ]
        },
        {
            "positions": [
                0.17785594438282415,
                -1.5517318815823096,
                -2.5607096754575984,
                1.898577344360528,
                0.09113661070004647,
                0.40652117793311304
            ]
        },
        {
            "positions": [
                0.11719402940482318,
                -1.6731615168446567,
                -2.5311390018909092,
                1.8306030133315712,
                0.1067852063142888,
                0.3439562349787814
            ]
        },
        {
            "positions": [
                0.05653211442682224,
                -1.7945911521070042,
                -2.50156832832422,
                1.7626286823026143,
                0.12243380192853114,
                0.28139129202444985
            ]
        },
        {
            "positions": [
                -0.004129800551178731,
                -1.9160207873693516,
                -2.471997654757531,
                1.6946543512736574,
                0.13808239754277346,
                0.21882634907011828
            ]
        },
        {
            "positions": [
                -0.06479171552917967,
                -2.0374504226316987,
                -2.4424269811908417,
                1.6266800202447005,
                0.1537309931570158,
                0.15626140611578665
            ]
        },
        {
            "positions": [
                -0.1254536305071806,
                -2.158880057894046,
                -2.4128563076241525,
                1.5587056892157436,
                0.16937958877125814,
                0.09369646316145508
            ]
        },
        {
            "positions": [
                -0.18611554548518155,
                -2.2803096931563935,
                -2.3832856340574633,
                1.4907313581867867,
                0.18502818438550048,
                0.031131520207123533
            ]
        }
    ]
}