{
    "goal": {
        "global_pose": {
            "orientation": {
                "w": 0.7031023480610252,
                "x": -0.7110244013736278,
                "y": 0.0077485991402295624,
                "z": 0.005598929693374583
            },
            "position": {
                "x": -0.8841497679147869,
                "y": 0.44412534475326537,
                "z": 0.3711530566215515
            }
        },
        "name": "move_to_auspresseinheit_D"
    },
    "id": "SBL_move_to_auspresseinheit_D_48",
    "joint_names": [
        "shoulder_pan_joint",
        "shoulder_lift_joint",
        "elbow_joint",
        "wrist_1_joint",
        "wrist_2_joint",
        "wrist_3_joint"
    ],
    "metrics": {
        "cart_traj_len": 0.3442345917983895,
        "distance_elbow_joint": 0.6658589286433516,
        "distance_shoulder_lift_joint": 0.13711050275761316,
        "distance_shoulder_pan_joint": 0.13403857868778019,
        "distance_wrist_1_joint": 0.6223783822565543,
        "distance_wrist_2_joint": 1.4322474407940926,
        "distance_wrist_3_joint": 0.08410548976966759,
        "smoothness": 0.0,
        "time": 0.239998443,
        "traj_len": 1.7537785843455438,
        "weighted_distance": 2.30186362009113
    },
    "planner": "SBL",
    "start": {
        "state": {
            "elbow_joint": -1.8275523626775212,
            "shoulder_lift_joint": -2.126789852344167,
            "shoulder_pan_joint": -0.03513704404078235,
            "wrist_1_joint": -2.347782403156801,
            "wrist_2_joint": -1.6058999987535132,
            "wrist_3_joint": -3.0880379163319196
        }
    },
    "waypoints": [
        {
            "positions": [
                -0.03513704404078235,
                -2.126789852344167,
                -1.8275523626775212,
                -2.347782403156801,
                -1.6058999987535132,
                -3.0880379163319196
            ]
        },
        {
            "positions": [
                -0.05189186637675487,
                -2.1439286651888683,
                -1.7443199965971021,
                -2.42557970093887,
                -1.4268690686542516,
                -3.077524730110711
            ]
        },
        {
            "positions": [
                -0.06864668871272739,
                -2.16106747803357,
                -1.6610876305166833,
                -2.5033769987209396,
                -1.24783813855499,
                -3.0670115438895027
            ]
        },
        {
            "positions": [
                -0.08540151104869992,
                -2.178206290878272,
                -1.5778552644362644,
                -2.5811742965030087,
                -1.0688072084557285,
                -3.0564983576682945
            ]
        },
        {
            "positions": [
                -0.10215633338467245,
                -2.1953451037229734,
                -1.4946228983558454,
                -2.6589715942850782,
                -0.8897762783564669,
                -3.045985171447086
            ]
        },
        {
            "positions": [
                -0.11891115572064498,
                -2.212483916567675,
                -1.4113905322754263,
                -2.7367688920671474,
                -0.7107453482572053,
                -3.035471985225877
            ]
        },
        {
            "positions": [
                -0.13566597805661748,
                -2.2296227294123767,
                -1.3281581661950075,
                -2.8145661898492165,
                -0.5317144181579438,
                -3.024958799004669
            ]
        },
        {
            "positions": [
                -0.15242080039259,
                -2.2467615422570786,
                -1.2449258001145886,
                -2.892363487631286,
                -0.3526834880586822,
                -3.0144456127834607
            ]
        },
        {
            "positions": [
                -0.16917562272856254,
                -2.26390035510178,
                -1.1616934340341696,
                -2.970160785413355,
                -0.1736525579594206,
                -3.003932426562252
            ]
        }
    ]
}