{
    "goal": {
        "global_pose": {
            "orientation": {
                "w": -0.00223480608172531,
                "x": 0.0024358444001904467,
                "y": 0.7094548369677653,
                "z": -0.704743149386269
            },
            "position": {
                "x": -0.37947507619857795,
                "y": -0.6371506643295288,
                "z": 0.19426114857196808
            }
        },
        "name": "move_to_magneteinheit_C"
    },
    "id": "SBL_move_to_magneteinheit_C_57",
    "joint_names": [
        "shoulder_pan_joint",
        "shoulder_lift_joint",
        "elbow_joint",
        "wrist_1_joint",
        "wrist_2_joint",
        "wrist_3_joint"
    ],
    "metrics": {
        "cart_traj_len": 0.9755756788074268,
        "distance_elbow_joint": 1.5801547146430521,
        "distance_shoulder_lift_joint": 1.3145480625441741,
        "distance_shoulder_pan_joint": 1.5581834613817753,
        "distance_wrist_1_joint": 1.8896071496880515,
        "distance_wrist_2_joint": 0.7935499419259996,
        "distance_wrist_3_joint": 0.4726285075041705,
        "smoothness": 1.2646041363079286,
        "time": 0.5395795050000001,
        "traj_len": 2.758382105091175,
        "weighted_distance": 3.3521762997058513
    },
    "planner": "SBL",
    "start": {
        "state": {
            "elbow_joint": 1.9565354010623817,
            "shoulder_lift_joint": -1.4165861575791021,
            "shoulder_pan_joint": -1.6717766225146293,
            "wrist_1_joint": -0.5286633292919765,
            "wrist_2_joint": 1.472756589071564,
            "wrist_3_joint": -3.1238370188695823
        }
    },
    "waypoints": [
        {
            "positions": [
                -1.6717766225146293,
                -1.4165861575791021,
                1.9565354010623817,
                -0.5286633292919765,
                1.472756589071564,
                -3.1238370188695823
            ]
        },
        {
            "positions": [
                -1.779023900040998,
                -1.4649203553298655,
                2.031062729072879,
                -0.6294122567058482,
                1.4315978900717117,
                -3.1029959656404666
            ]
        },
        {
            "positions": [
                -1.8862711775673664,
                -1.513254553080629,
                2.105590057083376,
                -0.7301611841197199,
                1.3904391910718592,
                -3.0821549124113505
            ]
        },
        {
            "positions": [
                -1.993518455093735,
                -1.5615887508313924,
                2.180117385093873,
                -0.8309101115335915,
                1.349280492072007,
                -3.061313859182235
            ]
        },
        {
            "positions": [
                -2.1007657326201037,
                -1.6099229485821558,
                2.25464471310437,
                -0.9316590389474633,
                1.3081217930721547,
                -3.0404728059531188
            ]
        },
        {
            "positions": [
                -2.208013010146472,
                -1.658257146332919,
                2.3291720411148673,
                -1.032407966361335,
                1.2669630940723025,
                -3.019631752724003
            ]
        },
        {
            "positions": [
                -2.3152602876728405,
                -1.7065913440836824,
                2.4036993691253645,
                -1.1331568937752066,
                1.22580439507245,
                -2.998790699494887
            ]
        },
        {
            "positions": [
                -2.422507565199209,
                -1.7549255418344458,
                2.4782266971358617,
                -1.2339058211890783,
                1.1846456960725977,
                -2.9779496462657713
            ]
        },
        {
            "positions": [
                -2.529754842725578,
                -1.8032597395852092,
                2.552754025146359,
                -1.33465474860295,
                1.1434869970727455,
                -2.957108593036655
            ]
        },
        {
            "positions": [
                -2.637002120251946,
                -1.8515939373359727,
                2.6272813531568557,
                -1.4354036760168218,
                1.102328298072893,
                -2.9362675398075395
            ]
        },
        {
            "positions": [
                -2.7442493977783147,
                -1.899928135086736,
                2.701808681167353,
                -1.5361526034306934,
                1.0611695990730408,
                -2.915426486578424
            ]
        },
        {
            "positions": [
                -2.8514966753046833,
                -1.9482623328374995,
                2.77633600917785,
                -1.6369015308445651,
                1.0200109000731885,
                -2.8945854333493077
            ]
        },
        {
            "positions": [
                -2.8094451854611586,
                -1.8612765675835243,
                2.6918522195636743,
                -1.5500827588295136,
                0.982143760859008,
                -2.921627313569741
            ]
        },
        {
            "positions": [
                -2.767393695617634,
                -1.7742908023295492,
                2.6073684299494984,
                -1.4632639868144623,
                0.9442766216448276,
                -2.9486691937901734
            ]
        },
        {
            "positions": [
                -2.7253422057741097,
                -1.687305037075574,
                2.5228846403353224,
                -1.376445214799411,
                0.9064094824306471,
                -2.9757110740106065
            ]
        },
        {
            "positions": [
                -2.683290715930585,
                -1.6003192718215988,
                2.4384008507211465,
                -1.2896264427843596,
                0.8685423432164667,
                -3.002752954231039
            ]
        },
        {
            "positions": [
                -2.6412392260870603,
                -1.5133335065676234,
                2.35391706110697,
                -1.202807670769308,
                0.8306752040022862,
                -3.0297948344514722
            ]
        },
        {
            "positions": [
                -2.5991877362435356,
                -1.4263477413136485,
                2.2694332714927947,
                -1.1159888987542568,
                0.7928080647881057,
                -3.056836714671905
            ]
        },
        {
            "positions": [
                -2.5571362464000114,
                -1.339361976059673,
                2.1849494818786184,
                -1.0291701267392053,
                0.7549409255739252,
                -3.083878594892338
            ]
        },
        {
            "positions": [
                -2.5150847565564867,
                -1.2523762108056982,
                2.1004656922644425,
                -0.9423513547241539,
                0.7170737863597448,
                -3.1109204751127706
            ]
        },
        {
            "positions": [
                -2.473033266712962,
                -1.1653904455517228,
                2.0159819026502666,
                -0.8555325827091025,
                0.6792066471455643,
                -3.1379623553332037
            ]
        }
    ]
}