{
    "goal": {
        "global_pose": {
            "orientation": {
                "w": -0.00223480608172531,
                "x": 0.0024358444001904467,
                "y": 0.7094548369677653,
                "z": -0.704743149386269
            },
            "position": {
                "x": 0.6205249238014221,
                "y": -0.6371506643295288,
                "z": 0.19426114857196808
            }
        },
        "name": "move_to_magneteinheit_B"
    },
    "id": "SBL_move_to_magneteinheit_B_26",
    "joint_names": [
        "shoulder_pan_joint",
        "shoulder_lift_joint",
        "elbow_joint",
        "wrist_1_joint",
        "wrist_2_joint",
        "wrist_3_joint"
    ],
    "metrics": {
        "cart_traj_len": 3.4060721752524867,
        "distance_elbow_joint": 4.927808730147967,
        "distance_shoulder_lift_joint": 0.7681452802660496,
        "distance_shoulder_pan_joint": 2.675836859617259,
        "distance_wrist_1_joint": 4.400363360720387,
        "distance_wrist_2_joint": 0.3113910746924735,
        "distance_wrist_3_joint": 3.1377609996461557,
        "smoothness": 0.18264625904933665,
        "time": 1.722752639,
        "traj_len": 4.027568286831435,
        "weighted_distance": 5.216184691879254
    },
    "planner": "SBL",
    "start": {
        "state": {
            "elbow_joint": 2.6216224122426386,
            "shoulder_lift_joint": -1.4174107377796124,
            "shoulder_pan_joint": 0.7066234856936794,
            "wrist_1_joint": 1.9546482284002225,
            "wrist_2_joint": -0.7096286983471962,
            "wrist_3_joint": 0.005740856962016249
        }
    },
    "waypoints": [
        {
            "positions": [
                0.7066234856936794,
                -1.4174107377796124,
                2.6216224122426386,
                1.9546482284002225,
                -0.7096286983471962,
                0.005740856962016249
            ]
        },
        {
            "positions": [
                0.5790000352305451,
                -1.4340910228562498,
                2.6171392434509873,
                1.9508452883268037,
                -0.7504230407089441,
                -0.014740484476192037
            ]
        },
        {
            "positions": [
                0.5332738197160047,
                -1.4498741645517044,
                2.498663862377362,
                1.8287959000597727,
                -0.7321700690687463,
                -0.01746707318464295
            ]
        },
        {
            "positions": [
                0.48754760420146426,
                -1.4656573062471592,
                2.3801884813037373,
                1.7067465117927414,
                -0.7139170974285485,
                -0.02019366189309386
            ]
        },
        {
            "positions": [
                0.4418213886869239,
                -1.4814404479426138,
                2.261713100230112,
                1.5846971235257103,
                -0.6956641257883507,
                -0.022920250601544775
            ]
        },
        {
            "positions": [
                0.3960951731723834,
                -1.4972235896380686,
                2.1432377191564873,
                1.4626477352586793,
                -0.6774111541481529,
                -0.025646839309995687
            ]
        },
        {
            "positions": [
                0.35036895765784304,
                -1.5130067313335231,
                2.024762338082862,
                1.3405983469916483,
                -0.6591581825079551,
                -0.028373428018446598
            ]
        },
        {
            "positions": [
                0.42711110764176846,
                -1.5290575773358743,
                1.8866802882197315,
                1.269580871136064,
                -0.6584944070877862,
                -0.11433432895238675
            ]
        },
        {
            "positions": [
                0.5038532576256939,
                -1.5451084233382255,
                1.7485982383566012,
                1.1985633952804797,
                -0.6578306316676172,
                -0.20029522988632692
            ]
        },
        {
            "positions": [
                0.5805954076096194,
                -1.5611592693405767,
                1.6105161884934707,
                1.1275459194248956,
                -0.6571668562474483,
                -0.2862561308202671
            ]
        },
        {
            "positions": [
                0.6573375575935447,
                -1.5772101153429279,
                1.4724341386303403,
                1.0565284435693112,
                -0.6565030808272794,
                -0.37221703175420723
            ]
        },
        {
            "positions": [
                0.7340797075774701,
                -1.593260961345279,
                1.3343520887672096,
                0.9855109677137269,
                -0.6558393054071106,
                -0.45817793268814744
            ]
        },
        {
            "positions": [
                0.8108218575613956,
                -1.6093118073476302,
                1.1962700389040792,
                0.9144934918581427,
                -0.6551755299869416,
                -0.5441388336220875
            ]
        },
        {
            "positions": [
                0.887564007545321,
                -1.6253626533499816,
                1.0581879890409487,
                0.8434760160025584,
                -0.6545117545667727,
                -0.6300997345560277
            ]
        },
        {
            "positions": [
                0.9643061575292464,
                -1.6414134993523328,
                0.9201059391778184,
                0.7724585401469741,
                -0.6538479791466038,
                -0.7160606354899678
            ]
        },
        {
            "positions": [
                1.0410483075131718,
                -1.657464345354684,
                0.7820238893146878,
                0.7014410642913899,
                -0.6531842037264348,
                -0.802021536423908
            ]
        },
        {
            "positions": [
                1.1177904574970974,
                -1.6735151913570352,
                0.6439418394515573,
                0.6304235884358056,
                -0.6525204283062659,
                -0.8879824373578482
            ]
        },
        {
            "positions": [
                1.1945326074810225,
                -1.6895660373593864,
                0.5058597895884269,
                0.5594061125802214,
                -0.651856652886097,
                -0.9739433382917883
            ]
        },
        {
            "positions": [
                1.2712747574649481,
                -1.7056168833617376,
                0.36777773972529637,
                0.48838863672463717,
                -0.651192877465928,
                -1.0599042392257285
            ]
        },
        {
            "positions": [
                1.3480169074488735,
                -1.7216677293640887,
                0.22969568986216582,
                0.4173711608690528,
                -0.6505291020457591,
                -1.145865140159669
            ]
        },
        {
            "positions": [
                1.424759057432799,
                -1.73771857536644,
                0.09161363999903527,
                0.3463536850134685,
                -0.6498653266255902,
                -1.231826041093609
            ]
        },
        {
            "positions": [
                1.5015012074167244,
                -1.753769421368791,
                -0.04646840986409506,
                0.27533620915788415,
                -0.6492015512054213,
                -1.3177869420275492
            ]
        },
        {
            "positions": [
                1.5782433574006498,
                -1.7698202673711423,
                -0.1845504597272254,
                0.2043187333023,
                -0.6485377757852524,
                -1.4037478429614891
            ]
        },
        {
            "positions": [
                1.6549855073845752,
                -1.7858711133734935,
                -0.3226325095903557,
                0.13330125744671584,
                -0.6478740003650835,
                -1.4897087438954293
            ]
        },
        {
            "positions": [
                1.7317276573685008,
                -1.8019219593758447,
                -0.4607145594534865,
                0.06228378159113146,
                -0.6472102249449145,
                -1.5756696448293697
            ]
        },
        {
            "positions": [
                1.808469807352426,
                -1.8179728053781958,
                -0.5987966093166168,
                -0.008733694264452696,
                -0.6465464495247456,
                -1.6616305457633096
            ]
        },
        {
            "positions": [
                1.8852119573363515,
                -1.834023651380547,
                -0.7368786591797476,
                -0.07975117012003707,
                -0.6458826741045767,
                -1.74759144669725
            ]
        },
        {
            "positions": [
                1.9619541073202769,
                -1.8500744973828982,
                -0.8749607090428779,
                -0.15076864597562123,
                -0.6452188986844077,
                -1.8335523476311901
            ]
        },
        {
            "positions": [
                2.0386962573042022,
                -1.8661253433852494,
                -1.0130427589060083,
                -0.22178612183120539,
                -0.6445551232642388,
                -1.91951324856513
            ]
        },
        {
            "positions": [
                2.115438407288128,
                -1.8821761893876008,
                -1.151124808769139,
                -0.29280359768678976,
                -0.6438913478440699,
                -2.0054741494990704
            ]
        },
        {
            "positions": [
                2.192180557272053,
                -1.898227035389952,
                -1.2892068586322694,
                -0.3638210735423739,
                -0.6432275724239009,
                -2.0914350504330104
            ]
        },
        {
            "positions": [
                2.268922707255978,
                -1.914277881392303,
                -1.4272889084953997,
                -0.4348385493979583,
                -0.6425637970037321,
                -2.1773959513669507
            ]
        },
        {
            "positions": [
                2.345664857239904,
                -1.9303287273946543,
                -1.5653709583585305,
                -0.5058560252535427,
                -0.6419000215835632,
                -2.263356852300891
            ]
        },
        {
            "positions": [
                2.4224070072238293,
                -1.9463795733970055,
                -1.7034530082216608,
                -0.5768735011091268,
                -0.6412362461633943,
                -2.349317753234831
            ]
        },
        {
            "positions": [
                2.4991491572077553,
                -1.9624304193993567,
                -1.8415350580847916,
                -0.6478909769647112,
                -0.6405724707432253,
                -2.4352786541687714
            ]
        },
        {
            "positions": [
                2.5758913071916805,
                -1.9784812654017079,
                -1.979617107947922,
                -0.7189084528202951,
                -0.6399086953230564,
                -2.5212395551027114
            ]
        },
        {
            "positions": [
                2.5981286113997033,
                -2.0037755558029473,
                -1.9629484295068456,
                -0.9401945365845117,
                -0.6312096015456751,
                -2.6130900842989013
            ]
        },
        {
            "positions": [
                2.620365915607726,
                -2.029069846204187,
                -1.9462797510657692,
                -1.1614806203487282,
                -0.6225105077682938,
                -2.7049406134950917
            ]
        },
        {
            "positions": [
                2.642603219815749,
                -2.0543641366054266,
                -1.9296110726246931,
                -1.3827667041129448,
                -0.6138114139909125,
                -2.7967911426912817
            ]
        },
        {
            "positions": [
                2.664840524023772,
                -2.0796584270066663,
                -1.9129423941836168,
                -1.6040527878771613,
                -0.6051123202135312,
                -2.8886416718874717
            ]
        },
        {
            "positions": [
                2.663562832719898,
                -2.1061328247664153,
                -1.847968770135341,
                -1.8144683739879124,
                -0.573790817254703,
                -2.9494862895866385
            ]
        },
        {
            "positions": [
                2.662285141416025,
                -2.132607222526164,
                -1.7829951460870652,
                -2.0248839600986632,
                -0.5424693142958747,
                -3.0103309072858053
            ]
        },
        {
            "positions": [
                2.6610074501121517,
                -2.159081620285913,
                -1.7180215220387893,
                -2.235299546209414,
                -0.5111478113370466,
                -3.0711755249849726
            ]
        },
        {
            "positions": [
                2.659729758808278,
                -2.185556018045662,
                -1.6530478979905137,
                -2.4457151323201654,
                -0.4798263083782184,
                -3.1320201426841394
            ]
        }
    ]
}