{
    "goal": {
        "global_pose": {
            "orientation": {
                "w": -0.00223480608172531,
                "x": 0.0024358444001904467,
                "y": 0.7094548369677653,
                "z": -0.704743149386269
            },
            "position": {
                "x": 0.6205249238014221,
                "y": -0.6371506643295288,
                "z": 0.19426114857196808
            }
        },
        "name": "move_to_magneteinheit_B"
    },
    "id": "SBL_move_to_magneteinheit_B_16",
    "joint_names": [
        "shoulder_pan_joint",
        "shoulder_lift_joint",
        "elbow_joint",
        "wrist_1_joint",
        "wrist_2_joint",
        "wrist_3_joint"
    ],
    "metrics": {
        "cart_traj_len": 1.821264379073557,
        "distance_elbow_joint": 1.4140740487628298,
        "distance_shoulder_lift_joint": 0.8660925102138858,
        "distance_shoulder_pan_joint": 1.6208764045394737,
        "distance_wrist_1_joint": 1.8795636731816012,
        "distance_wrist_2_joint": 3.1467679223488294,
        "distance_wrist_3_joint": 0.3090973868555971,
        "smoothness": 0.7693028562826302,
        "time": 0.327720401,
        "traj_len": 3.0391564530149178,
        "weighted_distance": 3.8575897027993844
    },
    "planner": "SBL",
    "start": {
        "state": {
            "elbow_joint": 2.6216224122426386,
            "shoulder_lift_joint": -1.4174107377796124,
            "shoulder_pan_joint": 0.7066234856936794,
            "wrist_1_joint": 1.9546482284002225,
            "wrist_2_joint": -0.7096286983471962,
            "wrist_3_joint": 0.005740856962016249
        }
    },
    "waypoints": [
        {
            "positions": [
                0.7066234856936794,
                -1.4174107377796124,
                2.6216224122426386,
                1.9546482284002225,
                -0.7096286983471962,
                0.005740856962016249
            ]
        },
        {
            "positions": [
                0.5119016550013091,
                -1.4015699884425028,
                2.6084012135970474,
                1.8770586932066895,
                -0.7175030710509331,
                0.0015606828260869747
            ]
        },
        {
            "positions": [
                0.4577157107635269,
                -1.407612819857688,
                2.478120667962228,
                1.791354357392535,
                -0.6269604970276029,
                -0.015333686691742742
            ]
        },
        {
            "positions": [
                0.4035297665257447,
                -1.4136556512728733,
                2.3478401223274084,
                1.7056500215783803,
                -0.5364179230042727,
                -0.032228056209572455
            ]
        },
        {
            "positions": [
                0.34934382228796246,
                -1.4196984826880585,
                2.2175595766925884,
                1.6199456857642258,
                -0.4458753489809426,
                -0.04912242572740217
            ]
        },
        {
            "positions": [
                0.29515787805018023,
                -1.4257413141032438,
                2.087279031057769,
                1.5342413499500713,
                -0.3553327749576124,
                -0.0660167952452319
            ]
        },
        {
            "positions": [
                0.240971933812398,
                -1.4317841455184288,
                1.9569984854229494,
                1.4485370141359166,
                -0.2647902009342822,
                -0.08291116476306161
            ]
        },
        {
            "positions": [
                0.18678598957461584,
                -1.437826976933614,
                1.82671793978813,
                1.3628326783217621,
                -0.17424762691095208,
                -0.09980553428089133
            ]
        },
        {
            "positions": [
                0.13260004533683362,
                -1.4438698083487993,
                1.6964373941533102,
                1.2771283425076074,
                -0.08370505288762176,
                -0.11669990379872104
            ]
        },
        {
            "positions": [
                0.07841410109905139,
                -1.4499126397639845,
                1.5661568485184907,
                1.191424006693453,
                0.0068375211357083465,
                -0.13359427331655074
            ]
        },
        {
            "positions": [
                0.02422815686126918,
                -1.4559554711791698,
                1.435876302883671,
                1.1057196708792985,
                0.0973800951590386,
                -0.15048864283438046
            ]
        },
        {
            "positions": [
                -0.04280620568923536,
                -1.3991078798834478,
                1.4521854414125182,
                1.179336464855061,
                -0.06862064651489856,
                -0.13956950804443757
            ]
        },
        {
            "positions": [
                -0.10984056823973991,
                -1.3422602885877257,
                1.4684945799413656,
                1.2529532588308236,
                -0.2346213881888357,
                -0.1286503732544947
            ]
        },
        {
            "positions": [
                -0.17687493079024447,
                -1.2854126972920035,
                1.484803718470213,
                1.3265700528065865,
                -0.4006221298627729,
                -0.1177312384645518
            ]
        },
        {
            "positions": [
                -0.243909293340749,
                -1.2285651059962814,
                1.5011128569990602,
                1.400186846782349,
                -0.5666228715367101,
                -0.10681210367460892
            ]
        },
        {
            "positions": [
                -0.31094365589125356,
                -1.1717175147005594,
                1.5174219955279074,
                1.4738036407581117,
                -0.7326236132106473,
                -0.09589296888466602
            ]
        },
        {
            "positions": [
                -0.3779780184417581,
                -1.1148699234048371,
                1.5337311340567548,
                1.5474204347338745,
                -0.8986243548845845,
                -0.08497383409472313
            ]
        },
        {
            "positions": [
                -0.44501238099226265,
                -1.0580223321091151,
                1.5500402725856022,
                1.621037228709637,
                -1.0646250965585216,
                -0.07405469930478024
            ]
        },
        {
            "positions": [
                -0.5120467435427671,
                -1.001174740813393,
                1.5663494111144494,
                1.6946540226853997,
                -1.2306258382324586,
                -0.06313556451483736
            ]
        },
        {
            "positions": [
                -0.5790811060932717,
                -0.9443271495176709,
                1.5826585496432966,
                1.7682708166611625,
                -1.396626579906396,
                -0.05221642972489446
            ]
        },
        {
            "positions": [
                -0.6461154686437762,
                -0.8874795582219489,
                1.598967688172144,
                1.841887610636925,
                -1.562627321580333,
                -0.04129729493495157
            ]
        },
        {
            "positions": [
                -0.7131498311942808,
                -0.8306319669262269,
                1.6152768267009914,
                1.9155044046126877,
                -1.7286280632542703,
                -0.0303781601450087
            ]
        },
        {
            "positions": [
                -0.7801841937447853,
                -0.7737843756305047,
                1.6315859652298386,
                1.9891211985884503,
                -1.8946288049282074,
                -0.0194590253550658
            ]
        },
        {
            "positions": [
                -0.8472185562952899,
                -0.7169367843347826,
                1.6478951037586858,
                2.0627379925642133,
                -2.0606295466021445,
                -0.008539890565122915
            ]
        },
        {
            "positions": [
                -0.9142529188457944,
                -0.6600891930390606,
                1.6642042422875332,
                2.1363547865399757,
                -2.226630288276082,
                0.0023792442248199755
            ]
        }
    ]
}