{
    "goal": {
        "global_pose": {
            "orientation": {
                "w": 0.7031023480610252,
                "x": -0.7110244013736278,
                "y": 0.0077485991402295624,
                "z": 0.005598929693374583
            },
            "position": {
                "x": -0.8841497679147869,
                "y": 0.44412534475326537,
                "z": 0.3711530566215515
            }
        },
        "name": "move_to_auspresseinheit_D"
    },
    "id": "SBL_move_to_auspresseinheit_D_29",
    "joint_names": [
        "shoulder_pan_joint",
        "shoulder_lift_joint",
        "elbow_joint",
        "wrist_1_joint",
        "wrist_2_joint",
        "wrist_3_joint"
    ],
    "metrics": {
        "cart_traj_len": 0.3439653847279523,
        "distance_elbow_joint": 0.6611276948323737,
        "distance_shoulder_lift_joint": 0.13396407018833933,
        "distance_shoulder_pan_joint": 0.13293053029274157,
        "distance_wrist_1_joint": 0.5969810824916006,
        "distance_wrist_2_joint": 1.4452341401419262,
        "distance_wrist_3_joint": 0.057148573539451686,
        "smoothness": 2.9605947279411004e-16,
        "time": 0.18489457,
        "traj_len": 1.7399385309505715,
        "weighted_distance": 2.2768176170257606
    },
    "planner": "SBL",
    "start": {
        "state": {
            "elbow_joint": -1.8275523626775212,
            "shoulder_lift_joint": -2.126789852344167,
            "shoulder_pan_joint": -0.03513704404078235,
            "wrist_1_joint": -2.347782403156801,
            "wrist_2_joint": -1.6058999987535132,
            "wrist_3_joint": -3.0880379163319196
        }
    },
    "waypoints": [
        {
            "positions": [
                -0.03513704404078235,
                -2.126789852344167,
                -1.8275523626775212,
                -2.347782403156801,
                -1.6058999987535132,
                -3.0880379163319196
            ]
        },
        {
            "positions": [
                -0.05175336032737504,
                -2.143535361117709,
                -1.7449114008234745,
                -2.422405038468251,
                -1.4252457312357725,
                -3.0808943446394883
            ]
        },
        {
            "positions": [
                -0.06836967661396774,
                -2.1602808698912517,
                -1.6622704389694278,
                -2.497027673779701,
                -1.2445914637180318,
                -3.0737507729470566
            ]
        },
        {
            "positions": [
                -0.08498599290056044,
                -2.1770263786647943,
                -1.5796294771153812,
                -2.571650309091151,
                -1.0639371962002908,
                -3.0666072012546253
            ]
        },
        {
            "positions": [
                -0.10160230918715313,
                -2.1937718874383365,
                -1.4969885152613345,
                -2.646272944402601,
                -0.8832829286825501,
                -3.0594636295621935
            ]
        },
        {
            "positions": [
                -0.11821862547374584,
                -2.2105173962118787,
                -1.4143475534072878,
                -2.7208955797140515,
                -0.7026286611648094,
                -3.0523200578697622
            ]
        },
        {
            "positions": [
                -0.13483494176033853,
                -2.2272629049854213,
                -1.331706591553241,
                -2.7955182150255014,
                -0.5219743936470684,
                -3.045176486177331
            ]
        },
        {
            "positions": [
                -0.15145125804693121,
                -2.244008413758964,
                -1.2490656296991942,
                -2.870140850336951,
                -0.3413201261293277,
                -3.038032914484899
            ]
        },
        {
            "positions": [
                -0.16806757433352393,
                -2.260753922532506,
                -1.1664246678451475,
                -2.9447634856484015,
                -0.16066585861158697,
                -3.030889342792468
            ]
        }
    ]
}