{
    "goal": {
        "global_pose": {
            "orientation": {
                "w": 0.7047431468963623,
                "x": -0.7094548344612122,
                "y": 0.0024358443915843964,
                "z": -0.0022348060738295317
            },
            "position": {
                "x": 0.6094750761985779,
                "y": 0.3671506643295288,
                "z": 0.19426114857196808
            }
        },
        "name": "move_to_magneteinheit_A"
    },
    "id": "SBL_move_to_magneteinheit_A_75",
    "joint_names": [
        "shoulder_pan_joint",
        "shoulder_lift_joint",
        "elbow_joint",
        "wrist_1_joint",
        "wrist_2_joint",
        "wrist_3_joint"
    ],
    "metrics": {
        "cart_traj_len": 3.5307286846876575,
        "distance_elbow_joint": 3.8801609008204077,
        "distance_shoulder_lift_joint": 0.18717987446212736,
        "distance_shoulder_pan_joint": 2.9583715228209324,
        "distance_wrist_1_joint": 0.8513784705974172,
        "distance_wrist_2_joint": 2.0159138179133924,
        "distance_wrist_3_joint": 2.5994169923842496,
        "smoothness": 0.31949725163895126,
        "time": 0.168241755,
        "traj_len": 3.534461992863769,
        "weighted_distance": 4.534153487948752
    },
    "planner": "SBL",
    "start": {
        "state": {
            "elbow_joint": -1.9196185241190666,
            "shoulder_lift_joint": -1.2443396400964142,
            "shoulder_pan_joint": 2.6996025414629847,
            "wrist_1_joint": -1.5485510000780065,
            "wrist_2_joint": -1.5709468930060704,
            "wrist_3_joint": 0.4420197071253992
        }
    },
    "waypoints": [
        {
            "positions": [
                2.6996025414629847,
                -1.2443396400964142,
                -1.9196185241190666,
                -1.5485510000780065,
                -1.5709468930060704,
                0.4420197071253992
            ]
        },
        {
            "positions": [
                2.604195126879858,
                -1.2456577362754562,
                -1.7988746502347563,
                -1.5197488614505719,
                -1.506742674629051,
                0.5218155255946316
            ]
        },
        {
            "positions": [
                2.508787712296731,
                -1.2469758324544982,
                -1.678130776350446,
                -1.4909467228231372,
                -1.4425384562520318,
                0.6016113440638641
            ]
        },
        {
            "positions": [
                2.413380297713604,
                -1.2482939286335402,
                -1.557386902466136,
                -1.4621445841957024,
                -1.3783342378750125,
                0.6814071625330965
            ]
        },
        {
            "positions": [
                2.3179728831304773,
                -1.2496120248125822,
                -1.4366430285818257,
                -1.4333424455682677,
                -1.3141300194979932,
                0.7612029810023289
            ]
        },
        {
            "positions": [
                2.2225654685473506,
                -1.2509301209916242,
                -1.3158991546975154,
                -1.404540306940833,
                -1.249925801120974,
                0.8409987994715614
            ]
        },
        {
            "positions": [
                2.127158053964224,
                -1.2522482171706661,
                -1.1951552808132053,
                -1.3757381683133985,
                -1.185721582743955,
                0.9207946179407938
            ]
        },
        {
            "positions": [
                2.0317506393810967,
                -1.2535663133497081,
                -1.074411406928895,
                -1.3469360296859638,
                -1.1215173643669356,
                1.0005904364100262
            ]
        },
        {
            "positions": [
                1.93634322479797,
                -1.2548844095287504,
                -0.9536675330445846,
                -1.3181338910585292,
                -1.0573131459899163,
                1.0803862548792587
            ]
        },
        {
            "positions": [
                1.8409358102148432,
                -1.2562025057077923,
                -0.8329236591602744,
                -1.2893317524310945,
                -0.9931089276128969,
                1.160182073348491
            ]
        },
        {
            "positions": [
                1.7455283956317162,
                -1.2575206018868343,
                -0.7121797852759642,
                -1.2605296138036597,
                -0.9289047092358776,
                1.2399778918177238
            ]
        },
        {
            "positions": [
                1.6501209810485895,
                -1.2588386980658763,
                -0.5914359113916541,
                -1.231727475176225,
                -0.8647004908588585,
                1.319773710286956
            ]
        },
        {
            "positions": [
                1.5547135664654625,
                -1.2601567942449183,
                -0.4706920375073438,
                -1.2029253365487904,
                -0.8004962724818392,
                1.3995695287561885
            ]
        },
        {
            "positions": [
                1.4593061518823358,
                -1.2614748904239603,
                -0.3499481636230335,
                -1.1741231979213558,
                -0.7362920541048199,
                1.479365347225421
            ]
        },
        {
            "positions": [
                1.3638987372992089,
                -1.2627929866030023,
                -0.2292042897387232,
                -1.145321059293921,
                -0.6720878357278006,
                1.5591611656946536
            ]
        },
        {
            "positions": [
                1.268491322716082,
                -1.2641110827820443,
                -0.1084604158544129,
                -1.1165189206664863,
                -0.6078836173507812,
                1.6389569841638858
            ]
        },
        {
            "positions": [
                1.1730839081329552,
                -1.2654291789610863,
                0.012283458029897387,
                -1.0877167820390516,
                -0.543679398973762,
                1.718752802633118
            ]
        },
        {
            "positions": [
                1.0776764935498284,
                -1.2667472751401283,
                0.13302733191420746,
                -1.058914643411617,
                -0.479475180596743,
                1.7985486211023507
            ]
        },
        {
            "positions": [
                0.9822690789667015,
                -1.2680653713191703,
                0.25377120579851775,
                -1.0301125047841824,
                -0.4152709622197235,
                1.8783444395715834
            ]
        },
        {
            "positions": [
                0.8868616643835747,
                -1.2693834674982123,
                0.37451507968282804,
                -1.0013103661567477,
                -0.3510667438427044,
                1.9581402580408156
            ]
        },
        {
            "positions": [
                0.7914542498004478,
                -1.2707015636772543,
                0.49525895356713834,
                -0.972508227529313,
                -0.2868625254656849,
                2.0379360765100483
            ]
        },
        {
            "positions": [
                0.696046835217321,
                -1.2720196598562963,
                0.6160028274514486,
                -0.9437060889018783,
                -0.22265830708866563,
                2.1177318949792805
            ]
        },
        {
            "positions": [
                0.6006394206341943,
                -1.2733377560353385,
                0.7367467013357585,
                -0.9149039502744437,
                -0.15845408871164657,
                2.1975277134485127
            ]
        },
        {
            "positions": [
                0.5052320060510671,
                -1.2746558522143805,
                0.8574905752200692,
                -0.886101811647009,
                -0.09424987033462706,
                2.2773235319177454
            ]
        },
        {
            "positions": [
                0.40982459146794037,
                -1.2759739483934225,
                0.9782344491043791,
                -0.8572996730195743,
                -0.030045651957608,
                2.3571193503869776
            ]
        },
        {
            "positions": [
                0.31441717688481363,
                -1.2772920445724645,
                1.0989783229886894,
                -0.8284975343921397,
                0.034158566419411285,
                2.4369151688562103
            ]
        },
        {
            "positions": [
                0.2190097623016869,
                -1.2786101407515065,
                1.2197221968729997,
                -0.7996953957647049,
                0.09836278479643057,
                2.516710987325443
            ]
        },
        {
            "positions": [
                0.12360234771856016,
                -1.2799282369305485,
                1.34046607075731,
                -0.7708932571372703,
                0.16256700317344985,
                2.596506805794675
            ]
        },
        {
            "positions": [
                0.028194933135432976,
                -1.2812463331095905,
                1.4612099446416202,
                -0.7420911185098356,
                0.22677122155046914,
                2.676302624263908
            ]
        },
        {
            "positions": [
                -0.06721248144769384,
                -1.2825644292886325,
                1.5819538185259305,
                -0.7132889798824009,
                0.2909754399274884,
                2.75609844273314
            ]
        },
        {
            "positions": [
                -0.003360314810942705,
                -1.2329127341986628,
                1.7081500045844005,
                -0.7186611300163381,
                0.23964494493421062,
                2.8512111949919765
            ]
        },
        {
            "positions": [
                0.060491851825808435,
                -1.183261039108693,
                1.8343461906428704,
                -0.7240332801502753,
                0.1883144499409328,
                2.9463239472508125
            ]
        },
        {
            "positions": [
                0.12434401846255959,
                -1.1336093440187234,
                1.9605423767013406,
                -0.7294054302842126,
                0.13698395494765497,
                3.041436699509649
            ]
        }
    ]
}