{
    "goal": {
        "global_pose": {
            "orientation": {
                "w": 0.005598929693374612,
                "x": 0.007748599140229565,
                "y": 0.7110244013736278,
                "z": -0.7031023480610252
            },
            "position": {
                "x": 0.1141497679147869,
                "y": -0.7141253447532654,
                "z": 0.3711530566215515
            }
        },
        "name": "move_to_auspresseinheit_B"
    },
    "id": "SBL_move_to_auspresseinheit_B_123",
    "joint_names": [
        "shoulder_pan_joint",
        "shoulder_lift_joint",
        "elbow_joint",
        "wrist_1_joint",
        "wrist_2_joint",
        "wrist_3_joint"
    ],
    "metrics": {
        "cart_traj_len": 0.5656633466366978,
        "distance_elbow_joint": 0.06522536482247698,
        "distance_shoulder_lift_joint": 0.29355372772531485,
        "distance_shoulder_pan_joint": 0.576775220442475,
        "distance_wrist_1_joint": 0.332256493710018,
        "distance_wrist_2_joint": 0.9999368096252059,
        "distance_wrist_3_joint": 0.0007095866220865332,
        "smoothness": 6.344131583732827e-16,
        "time": 0.297705409,
        "traj_len": 1.5061398351240753,
        "weighted_distance": 1.897911926177549
    },
    "planner": "SBL",
    "start": {
        "state": {
            "elbow_joint": 2.0193083361928714,
            "shoulder_lift_joint": -1.1220246554650708,
            "shoulder_pan_joint": -1.0952077554168747,
            "wrist_1_joint": -0.8559753972642168,
            "wrist_2_joint": 0.4759566250798843,
            "wrist_3_joint": -3.1240929996934557
        }
    },
    "waypoints": [
        {
            "positions": [
                -1.0952077554168747,
                -1.1220246554650708,
                2.0193083361928714,
                -0.8559753972642168,
                0.4759566250798843,
                -3.1240929996934557
            ]
        },
        {
            "positions": [
                -1.1913369588239537,
                -1.1709502767526232,
                2.0084374420557918,
                -0.8005993149792138,
                0.6426127600174186,
                -3.123974735256441
            ]
        },
        {
            "positions": [
                -1.287466162231033,
                -1.2198758980401758,
                1.9975665479187124,
                -0.7452232326942108,
                0.8092688949549529,
                -3.123856470819427
            ]
        },
        {
            "positions": [
                -1.3835953656381121,
                -1.2688015193277282,
                1.986695653781633,
                -0.6898471504092079,
                0.9759250298924873,
                -3.1237382063824124
            ]
        },
        {
            "positions": [
                -1.4797245690451912,
                -1.3177271406152806,
                1.9758247596445535,
                -0.6344710681242048,
                1.1425811648300215,
                -3.123619941945398
            ]
        },
        {
            "positions": [
                -1.5758537724522705,
                -1.3666527619028332,
                1.9649538655074739,
                -0.5790949858392018,
                1.3092372997675559,
                -3.1235016775083837
            ]
        },
        {
            "positions": [
                -1.6719829758593496,
                -1.4155783831903856,
                1.9540829713703944,
                -0.5237189035541988,
                1.4758934347050903,
                -3.123383413071369
            ]
        }
    ]
}