{
    "goal": {
        "global_pose": {
            "orientation": {
                "w": 0.5084816217422485,
                "x": -0.49083608388900757,
                "y": 0.5182115435600281,
                "z": -0.4816462993621826
            },
            "position": {
                "x": 0.5540239810943604,
                "y": 0.030875300988554955,
                "z": 0.16403168439865112
            }
        },
        "name": "move_to_storage_A"
    },
    "id": "SBL_move_to_storage_A_26",
    "joint_names": [
        "shoulder_pan_joint",
        "shoulder_lift_joint",
        "elbow_joint",
        "wrist_1_joint",
        "wrist_2_joint",
        "wrist_3_joint"
    ],
    "metrics": {
        "cart_traj_len": 0.35294222948299114,
        "distance_elbow_joint": 0.4495772884258642,
        "distance_shoulder_lift_joint": 0.2323994252078685,
        "distance_shoulder_pan_joint": 0.46050138413718944,
        "distance_wrist_1_joint": 0.24752358323645818,
        "distance_wrist_2_joint": 1.1016118790893108,
        "distance_wrist_3_joint": 0.10202394600621201,
        "smoothness": 0.0,
        "time": 0.321794196,
        "traj_len": 1.6104774155830013,
        "weighted_distance": 2.0363744401364636
    },
    "planner": "SBL",
    "start": {
        "state": {
            "elbow_joint": 1.9715481507254546,
            "shoulder_lift_joint": -1.1394850672790213,
            "shoulder_pan_joint": 0.12281154597544902,
            "wrist_1_joint": -0.7804720171073349,
            "wrist_2_joint": 0.12958658322886563,
            "wrist_3_joint": -3.1924895760937617
        }
    },
    "waypoints": [
        {
            "positions": [
                0.12281154597544902,
                -1.1394850672790213,
                1.9715481507254546,
                -0.7804720171073349,
                0.12958658322886563,
                -3.1924895760937617
            ]
        },
        {
            "positions": [
                0.05702563395585053,
                -1.1726849851658596,
                2.0357734776434353,
                -0.8158325289982575,
                0.2869597088130529,
                -3.177914726664303
            ]
        },
        {
            "positions": [
                -0.008760278063747962,
                -1.2058849030526981,
                2.099998804561416,
                -0.8511930408891801,
                0.44433283439724014,
                -3.163339877234844
            ]
        },
        {
            "positions": [
                -0.07454619008334645,
                -1.2390848209395364,
                2.1642241314793966,
                -0.8865535527801027,
                0.6017059599814274,
                -3.148765027805385
            ]
        },
        {
            "positions": [
                -0.14033210210294494,
                -1.2722847388263747,
                2.228449458397377,
                -0.9219140646710253,
                0.7590790855656147,
                -3.1341901783759263
            ]
        },
        {
            "positions": [
                -0.20611801412254344,
                -1.305484656713213,
                2.2926747853153575,
                -0.9572745765619479,
                0.9164522111498019,
                -3.1196153289464674
            ]
        },
        {
            "positions": [
                -0.2719039261421419,
                -1.3386845746000515,
                2.356900112233338,
                -0.9926350884528705,
                1.0738253367339892,
                -3.1050404795170086
            ]
        },
        {
            "positions": [
                -0.3376898381617404,
                -1.3718844924868898,
                2.421125439151319,
                -1.0279956003437931,
                1.2311984623181764,
                -3.0904656300875497
            ]
        }
    ]
}