{
    "goal": {
        "global_pose": {
            "orientation": {
                "w": 0.5084816262002911,
                "x": -0.4908360881923452,
                "y": 0.5182115481033761,
                "z": -0.48164630358495003
            },
            "position": {
                "x": 0.5540239810943604,
                "y": -0.46912469901144505,
                "z": 0.16403168439865112
            }
        },
        "name": "move_to_storage_B"
    },
    "id": "SBL_move_to_storage_B_143",
    "joint_names": [
        "shoulder_pan_joint",
        "shoulder_lift_joint",
        "elbow_joint",
        "wrist_1_joint",
        "wrist_2_joint",
        "wrist_3_joint"
    ],
    "metrics": {
        "cart_traj_len": 4.883735508624935,
        "distance_elbow_joint": 4.197090441007409,
        "distance_shoulder_lift_joint": 1.3546784180183842,
        "distance_shoulder_pan_joint": 3.7550071370010096,
        "distance_wrist_1_joint": 2.8078043552482983,
        "distance_wrist_2_joint": 2.326789903272852,
        "distance_wrist_3_joint": 4.099569454141303,
        "smoothness": 0.16486973518256176,
        "time": 1.071948318,
        "traj_len": 4.3059191479507914,
        "weighted_distance": 5.645765924610497
    },
    "planner": "SBL",
    "start": {
        "state": {
            "elbow_joint": -1.6666013991110213,
            "shoulder_lift_joint": -2.479295265494141,
            "shoulder_pan_joint": 2.6606783912885628,
            "wrist_1_joint": 0.9897123657714939,
            "wrist_2_joint": 0.474351758749468,
            "wrist_3_joint": 0.013243222496468381
        }
    },
    "waypoints": [
        {
            "positions": [
                2.6606783912885628,
                -2.479295265494141,
                -1.6666013991110213,
                0.9897123657714939,
                0.474351758749468,
                0.013243222496468381
            ]
        },
        {
            "positions": [
                2.6259873135657257,
                -2.441997807305257,
                -1.6893283277004487,
                0.8635385847871164,
                0.3617397045009967,
                0.0011432892721443925
            ]
        },
        {
            "positions": [
                2.5933548654109773,
                -2.3947714845433636,
                -1.7139582106261972,
                0.7087510513980171,
                0.24157520840956453,
                -0.012427490005027696
            ]
        },
        {
            "positions": [
                2.5607224172562284,
                -2.34754516178147,
                -1.7385880935519455,
                0.5539635180089176,
                0.12141071231813236,
                -0.025998269282199785
            ]
        },
        {
            "positions": [
                2.534460929102467,
                -2.290151883295936,
                -1.7566034740258605,
                0.3867464609288015,
                0.04191860183427329,
                -0.0628586696611804
            ]
        },
        {
            "positions": [
                2.5081994409487063,
                -2.2327586048104022,
                -1.7746188544997756,
                0.2195294038486854,
                -0.03757350864958578,
                -0.09971907004016099
            ]
        },
        {
            "positions": [
                2.4819379527949454,
                -2.175365326324868,
                -1.7926342349736906,
                0.05231234676856933,
                -0.11706561913344479,
                -0.13657947041914162
            ]
        },
        {
            "positions": [
                2.455676464641184,
                -2.117972047839334,
                -1.8106496154476055,
                -0.11490471031154681,
                -0.19655772961730392,
                -0.1734398707981222
            ]
        },
        {
            "positions": [
                2.429414976487423,
                -2.0605787693538,
                -1.8286649959215207,
                -0.28212176739166284,
                -0.27604984010116296,
                -0.21030027117710282
            ]
        },
        {
            "positions": [
                2.403153488333662,
                -2.003185490868266,
                -1.8466803763954356,
                -0.449338824471779,
                -0.3555419505850219,
                -0.24716067155608343
            ]
        },
        {
            "positions": [
                2.376892000179901,
                -1.9457922123827316,
                -1.8646957568693505,
                -0.6165558815518949,
                -0.435034061068881,
                -0.28402107193506404
            ]
        },
        {
            "positions": [
                2.35063051202614,
                -1.8883989338971976,
                -1.8827111373432655,
                -0.7837729386320113,
                -0.5145261715527402,
                -0.3208814723140446
            ]
        },
        {
            "positions": [
                2.3243690238723786,
                -1.8310056554116634,
                -1.9007265178171806,
                -0.9509899957121272,
                -0.5940182820365991,
                -0.35774187269302526
            ]
        },
        {
            "positions": [
                2.298107535718618,
                -1.7736123769261294,
                -1.9187418982910955,
                -1.1182070527922432,
                -0.6735103925204582,
                -0.39460227307200585
            ]
        },
        {
            "positions": [
                2.2340714605125704,
                -1.7189877815679657,
                -1.8633524216006656,
                -1.2319498893987748,
                -0.6399104851711778,
                -0.42422139600610986
            ]
        },
        {
            "positions": [
                2.170035385306523,
                -1.6643631862098018,
                -1.8079629449102357,
                -1.3456927260053066,
                -0.6063105778218973,
                -0.45384051894021393
            ]
        },
        {
            "positions": [
                2.0690400435442995,
                -1.6468643934327534,
                -1.6905064475244447,
                -1.3355356983304367,
                -0.5639188162583564,
                -0.3579315712226965
            ]
        },
        {
            "positions": [
                1.9680447017820757,
                -1.629365600655705,
                -1.5730499501386535,
                -1.3253786706555668,
                -0.5215270546948154,
                -0.2620226235051791
            ]
        },
        {
            "positions": [
                1.8670493600198519,
                -1.6118668078786564,
                -1.4555934527528622,
                -1.3152216429806969,
                -0.47913529313127445,
                -0.16611367578766167
            ]
        },
        {
            "positions": [
                1.766054018257628,
                -1.594368015101608,
                -1.3381369553670712,
                -1.305064615305827,
                -0.4367435315677335,
                -0.07020472807014422
            ]
        },
        {
            "positions": [
                1.6650586764954043,
                -1.5768692223245595,
                -1.2206804579812802,
                -1.294907587630957,
                -0.3943517700041925,
                0.025704219647373183
            ]
        },
        {
            "positions": [
                1.5640633347331807,
                -1.559370429547511,
                -1.103223960595489,
                -1.2847505599560871,
                -0.3519600084406516,
                0.12161316736489058
            ]
        },
        {
            "positions": [
                1.4630679929709571,
                -1.5418716367704626,
                -0.985767463209698,
                -1.2745935322812174,
                -0.30956824687711065,
                0.21752211508240804
            ]
        },
        {
            "positions": [
                1.362072651208733,
                -1.524372843993414,
                -0.8683109658239068,
                -1.2644365046063475,
                -0.2671764853135697,
                0.3134310627999255
            ]
        },
        {
            "positions": [
                1.2610773094465095,
                -1.5068740512163656,
                -0.7508544684381158,
                -1.2542794769314776,
                -0.22478472375002878,
                0.40934001051744284
            ]
        },
        {
            "positions": [
                1.1600819676842857,
                -1.4893752584393172,
                -0.6333979710523245,
                -1.2441224492566076,
                -0.18239296218648776,
                0.5052489582349603
            ]
        },
        {
            "positions": [
                1.059086625922062,
                -1.4718764656622687,
                -0.5159414736665335,
                -1.2339654215817377,
                -0.14000120062294685,
                0.6011579059524776
            ]
        },
        {
            "positions": [
                0.9580912841598381,
                -1.4543776728852202,
                -0.3984849762807423,
                -1.2238083939068678,
                -0.09760943905940589,
                0.6970668536699951
            ]
        },
        {
            "positions": [
                0.8570959423976146,
                -1.4368788801081718,
                -0.2810284788949513,
                -1.2136513662319979,
                -0.055217677495864925,
                0.7929758013875126
            ]
        },
        {
            "positions": [
                0.756100600635391,
                -1.4193800873311233,
                -0.1635719815091603,
                -1.203494338557128,
                -0.012825915932323961,
                0.88888474910503
            ]
        },
        {
            "positions": [
                0.6551052588731672,
                -1.4018812945540748,
                -0.0461154841233693,
                -1.193337310882258,
                0.02956584563121689,
                0.9847936968225472
            ]
        },
        {
            "positions": [
                0.5541099171109434,
                -1.3843825017770264,
                0.07134101326242215,
                -1.183180283207388,
                0.07195760719475797,
                1.080702644540065
            ]
        },
        {
            "positions": [
                0.4531145753487196,
                -1.366883708999978,
                0.18879751064821315,
                -1.1730232555325182,
                0.11434936875829893,
                1.1766115922575822
            ]
        },
        {
            "positions": [
                0.352119233586496,
                -1.3493849162229294,
                0.30625400803400415,
                -1.1628662278576483,
                0.15674113032183978,
                1.2725205399750996
            ]
        },
        {
            "positions": [
                0.2511238918242722,
                -1.331886123445881,
                0.42371050541979516,
                -1.1527092001827786,
                0.19913289188538075,
                1.368429487692617
            ]
        },
        {
            "positions": [
                0.1501285500620484,
                -1.3143873306688325,
                0.5411670028055866,
                -1.1425521725079086,
                0.24152465344892182,
                1.4643384354101345
            ]
        },
        {
            "positions": [
                0.049133208299824815,
                -1.296888537891784,
                0.6586235001913776,
                -1.1323951448330387,
                0.2839164150124628,
                1.5602473831276518
            ]
        },
        {
            "positions": [
                -0.05186213346239921,
                -1.2793897451147356,
                0.7760799975771686,
                -1.1222381171581688,
                0.32630817657600364,
                1.6561563308451692
            ]
        },
        {
            "positions": [
                -0.15285747522462279,
                -1.261890952337687,
                0.8935364949629596,
                -1.1120810894832989,
                0.3686999381395446,
                1.7520652785626867
            ]
        },
        {
            "positions": [
                -0.2538528169868468,
                -1.2443921595606386,
                1.010992992348751,
                -1.101924061808429,
                0.41109169970308557,
                1.8479742262802041
            ]
        },
        {
            "positions": [
                -0.3548481587490704,
                -1.2268933667835902,
                1.128449489734542,
                -1.091767034133559,
                0.45348346126662653,
                1.9438831739977216
            ]
        },
        {
            "positions": [
                -0.45584350051129396,
                -1.2093945740065417,
                1.245905987120333,
                -1.081610006458689,
                0.4958752228301675,
                2.039792121715239
            ]
        },
        {
            "positions": [
                -0.5356541561614383,
                -1.1987973581901936,
                1.3434437441723215,
                -1.0555704384680793,
                0.49468245574862985,
                2.182148755721385
            ]
        },
        {
            "positions": [
                -0.6154648118115825,
                -1.1882001423738455,
                1.44098150122431,
                -1.0295308704774695,
                0.4934896886670922,
                2.324505389727531
            ]
        },
        {
            "positions": [
                -0.6952754674617267,
                -1.1776029265574974,
                1.5385192582762983,
                -1.0034913024868597,
                0.4922969215855546,
                2.4668620237336767
            ]
        },
        {
            "positions": [
                -0.7750861231118711,
                -1.1670057107411491,
                1.6360570153282867,
                -0.9774517344962499,
                0.49110415450401695,
                2.609218657739823
            ]
        },
        {
            "positions": [
                -0.8548967787620154,
                -1.156408494924801,
                1.7335947723802752,
                -0.9514121665056401,
                0.4899113874224793,
                2.7515752917459686
            ]
        },
        {
            "positions": [
                -0.9347074344121596,
                -1.145811279108453,
                1.8311325294322636,
                -0.9253725985150303,
                0.4887186203409417,
                2.8939319257521143
            ]
        },
        {
            "positions": [
                -1.0145180900623039,
                -1.1352140632921048,
                1.928670286484252,
                -0.8993330305244205,
                0.48752585325940406,
                3.03628855975826
            ]
        },
        {
            "positions": [
                -1.0943287457124482,
                -1.1246168474757567,
                2.0262080435362404,
                -0.8732934625338107,
                0.4863330861778664,
                3.1786451937644062
            ]
        }
    ]
}