{
    "goal": {
        "global_pose": {
            "orientation": {
                "w": -0.00223480608172531,
                "x": 0.0024358444001904467,
                "y": 0.7094548369677653,
                "z": -0.704743149386269
            },
            "position": {
                "x": -0.37947507619857795,
                "y": -0.6371506643295288,
                "z": 0.19426114857196808
            }
        },
        "name": "move_to_magneteinheit_C"
    },
    "id": "SBL_move_to_magneteinheit_C_24",
    "joint_names": [
        "shoulder_pan_joint",
        "shoulder_lift_joint",
        "elbow_joint",
        "wrist_1_joint",
        "wrist_2_joint",
        "wrist_3_joint"
    ],
    "metrics": {
        "cart_traj_len": 2.08119503145316,
        "distance_elbow_joint": 0.8239799634927798,
        "distance_shoulder_lift_joint": 1.3600820232774622,
        "distance_shoulder_pan_joint": 1.9409411434043935,
        "distance_wrist_1_joint": 0.9704441077605932,
        "distance_wrist_2_joint": 1.1491229719667193,
        "distance_wrist_3_joint": 0.8794083112457081,
        "smoothness": 1.56860375374039,
        "time": 0.543809628,
        "traj_len": 2.669078215629444,
        "weighted_distance": 3.316980889810248
    },
    "planner": "SBL",
    "start": {
        "state": {
            "elbow_joint": 1.9565354010623817,
            "shoulder_lift_joint": -1.4165861575791021,
            "shoulder_pan_joint": -1.6717766225146293,
            "wrist_1_joint": -0.5286633292919765,
            "wrist_2_joint": 1.472756589071564,
            "wrist_3_joint": -3.1238370188695823
        }
    },
    "waypoints": [
        {
            "positions": [
                -1.6717766225146293,
                -1.4165861575791021,
                1.9565354010623817,
                -0.5286633292919765,
                1.472756589071564,
                -3.1238370188695823
            ]
        },
        {
            "positions": [
                -1.6777595362415978,
                -1.4595841352960641,
                1.9583551600842923,
                -0.4889877905953156,
                1.4202118168341902,
                -2.910888063108413
            ]
        },
        {
            "positions": [
                -1.683742449968566,
                -1.5025821130130264,
                1.960174919106203,
                -0.44931225189865476,
                1.3676670445968167,
                -2.697939107347244
            ]
        },
        {
            "positions": [
                -1.8488147072749312,
                -1.5610602381581609,
                1.9217198933077355,
                -0.5288774255771592,
                1.3894086607899263,
                -2.6987097399737645
            ]
        },
        {
            "positions": [
                -2.0138869645812965,
                -1.6195383633032951,
                1.883264867509268,
                -0.6084425992556637,
                1.411150276983036,
                -2.699480372600285
            ]
        },
        {
            "positions": [
                -2.178959221887662,
                -1.6780164884484297,
                1.8448098417108003,
                -0.688007772934168,
                1.4328918931761456,
                -2.700251005226806
            ]
        },
        {
            "positions": [
                -2.344031479194027,
                -1.736494613593564,
                1.8063548159123328,
                -0.7675729466126725,
                1.454633509369255,
                -2.7010216378533265
            ]
        },
        {
            "positions": [
                -2.5091037365003923,
                -1.7949727387386984,
                1.7678997901138653,
                -0.847138120291177,
                1.4763751255623647,
                -2.7017922704798476
            ]
        },
        {
            "positions": [
                -2.6741759938067577,
                -1.853450863883833,
                1.7294447643153976,
                -0.9267032939696813,
                1.4981167417554744,
                -2.7025629031063683
            ]
        },
        {
            "positions": [
                -2.8392482511131227,
                -1.9119289890289672,
                1.6909897385169301,
                -1.006268467648186,
                1.519858357948584,
                -2.703333535732889
            ]
        },
        {
            "positions": [
                -3.004320508419488,
                -1.9704071141741017,
                1.6525347127184626,
                -1.0858336413266902,
                1.5415999741416937,
                -2.7041041683594096
            ]
        },
        {
            "positions": [
                -2.923000161238516,
                -1.903030272333945,
                1.7147115733016784,
                -1.0520605608829656,
                1.449108854062562,
                -2.7271312788956243
            ]
        },
        {
            "positions": [
                -2.841679814057544,
                -1.835653430493788,
                1.7768884338848943,
                -1.018287480439241,
                1.3566177339834302,
                -2.7501583894318387
            ]
        },
        {
            "positions": [
                -2.760359466876572,
                -1.7682765886536311,
                1.83906529446811,
                -0.9845143999955165,
                1.2641266139042986,
                -2.7731854999680534
            ]
        },
        {
            "positions": [
                -2.6790391196956,
                -1.7008997468134741,
                1.9012421550513259,
                -0.950741319551792,
                1.171635493825167,
                -2.7962126105042677
            ]
        },
        {
            "positions": [
                -2.597718772514628,
                -1.6335229049733173,
                1.9634190156345417,
                -0.9169682391080674,
                1.0791443737460351,
                -2.8192397210404825
            ]
        },
        {
            "positions": [
                -2.516398425333656,
                -1.5661460631331603,
                2.0255958762177575,
                -0.8831951586643428,
                0.9866532536669035,
                -2.842266831576697
            ]
        },
        {
            "positions": [
                -2.4350780781526837,
                -1.4987692212930035,
                2.0877727368009733,
                -0.8494220782206182,
                0.8941621335877717,
                -2.8652939421129116
            ]
        },
        {
            "positions": [
                -2.4481296872302605,
                -1.3872281633592154,
                2.0619519984747376,
                -0.8433687189428969,
                0.8199412477900474,
                -2.9606791304321454
            ]
        },
        {
            "positions": [
                -2.461181296307837,
                -1.2756871054254273,
                2.0361312601485015,
                -0.8373153596651756,
                0.7457203619923232,
                -3.0560643187513796
            ]
        },
        {
            "positions": [
                -2.474232905385414,
                -1.1641460474916392,
                2.010310521822266,
                -0.8312620003874542,
                0.6714994761945988,
                -3.1514495070706134
            ]
        }
    ]
}