{
    "goal": {
        "global_pose": {
            "orientation": {
                "w": 0.7031023502349854,
                "x": -0.7110244035720825,
                "y": 0.007748599164187908,
                "z": 0.005598929710686207
            },
            "position": {
                "x": 0.11585023208521307,
                "y": 0.44412534475326537,
                "z": 0.3711530566215515
            }
        },
        "name": "move_to_auspresseinheit_A"
    },
    "id": "SBL_move_to_auspresseinheit_A_121",
    "joint_names": [
        "shoulder_pan_joint",
        "shoulder_lift_joint",
        "elbow_joint",
        "wrist_1_joint",
        "wrist_2_joint",
        "wrist_3_joint"
    ],
    "metrics": {
        "cart_traj_len": 0.7102486159827323,
        "distance_elbow_joint": 0.1943779604179161,
        "distance_shoulder_lift_joint": 0.9413045816340151,
        "distance_shoulder_pan_joint": 1.0417675707352205,
        "distance_wrist_1_joint": 0.5490439299021131,
        "distance_wrist_2_joint": 0.8208222244631573,
        "distance_wrist_3_joint": 0.8628523786869722,
        "smoothness": 1.2321236003736127,
        "time": 0.354287911,
        "traj_len": 2.1000401533874045,
        "weighted_distance": 2.739660482172674
    },
    "planner": "SBL",
    "start": {
        "state": {
            "elbow_joint": 2.4225746658250005,
            "shoulder_lift_joint": -1.3736534386056498,
            "shoulder_pan_joint": -0.3378633547517467,
            "wrist_1_joint": -1.0288598680537169,
            "wrist_2_joint": 1.233022673432363,
            "wrist_3_joint": -3.0940220416140027
        }
    },
    "waypoints": [
        {
            "positions": [
                -0.3378633547517467,
                -1.3736534386056498,
                2.4225746658250005,
                -1.0288598680537169,
                1.233022673432363,
                -3.0940220416140027
            ]
        },
        {
            "positions": [
                -0.24281545749592237,
                -1.4557836166515516,
                2.4319402535257577,
                -0.9707988101467989,
                1.1577109315977265,
                -3.048428371489105
            ]
        },
        {
            "positions": [
                -0.14776756024009802,
                -1.5379137946974535,
                2.4413058412265154,
                -0.9127377522398811,
                1.08239918976309,
                -3.002834701364207
            ]
        },
        {
            "positions": [
                -0.05271966298427366,
                -1.6200439727433553,
                2.4506714289272726,
                -0.8546766943329631,
                1.0070874479284535,
                -2.9572410312393096
            ]
        },
        {
            "positions": [
                0.04232823427155069,
                -1.7021741507892572,
                2.4600370166280303,
                -0.7966156364260453,
                0.9317757060938171,
                -2.911647361114412
            ]
        },
        {
            "positions": [
                0.1373761315273751,
                -1.7843043288351592,
                2.4694026043287876,
                -0.7385545785191272,
                0.8564639642591806,
                -2.866053690989514
            ]
        },
        {
            "positions": [
                0.2324240287831994,
                -1.866434506881061,
                2.4787681920295452,
                -0.6804935206122094,
                0.7811522224245442,
                -2.8204600208646164
            ]
        },
        {
            "positions": [
                0.3274719260390238,
                -1.9485646849269629,
                2.4881337797303025,
                -0.6224324627052915,
                0.7058404805899076,
                -2.774866350739719
            ]
        },
        {
            "positions": [
                0.4225198232948481,
                -2.0306948629728647,
                2.49749936743106,
                -0.5643714047983736,
                0.6305287387552712,
                -2.729272680614821
            ]
        },
        {
            "positions": [
                0.5175677205506726,
                -2.1128250410187666,
                2.5068649551318174,
                -0.5063103468914556,
                0.5552169969206346,
                -2.6836790104899233
            ]
        },
        {
            "positions": [
                0.5796798856949397,
                -2.0454473812784673,
                2.470169064761451,
                -0.497478877311505,
                0.602889179571111,
                -2.8345154596775544
            ]
        },
        {
            "positions": [
                0.6417920508392067,
                -1.9780697215381677,
                2.4334731743910845,
                -0.48864740773155435,
                0.6505613622215872,
                -2.985351908865185
            ]
        },
        {
            "positions": [
                0.7039042159834737,
                -1.9106920617978682,
                2.396777284020718,
                -0.4798159381516037,
                0.6982335448720636,
                -3.136188358052816
            ]
        }
    ]
}