{
    "goal": {
        "global_pose": {
            "orientation": {
                "w": -0.4816463035849501,
                "x": 0.5182115481033762,
                "y": 0.4908360881923453,
                "z": -0.5084816262002911
            },
            "position": {
                "x": -0.8240239810943604,
                "y": -0.300875300988555,
                "z": 0.16403168439865112
            }
        },
        "name": "move_to_storage_C"
    },
    "id": "SBL_move_to_storage_C_115",
    "joint_names": [
        "shoulder_pan_joint",
        "shoulder_lift_joint",
        "elbow_joint",
        "wrist_1_joint",
        "wrist_2_joint",
        "wrist_3_joint"
    ],
    "metrics": {
        "cart_traj_len": 0.5761137659528263,
        "distance_elbow_joint": 0.2575126313346874,
        "distance_shoulder_lift_joint": 0.18855947847901122,
        "distance_shoulder_pan_joint": 0.4952398586353506,
        "distance_wrist_1_joint": 0.07861174557374939,
        "distance_wrist_2_joint": 1.05977911985482,
        "distance_wrist_3_joint": 0.07502142115368482,
        "smoothness": 5.075305295617109e-16,
        "time": 0.294992148,
        "traj_len": 1.4678979034767041,
        "weighted_distance": 1.85557483351312
    },
    "planner": "SBL",
    "start": {
        "state": {
            "elbow_joint": 2.010868314990456,
            "shoulder_lift_joint": -1.1634956873337592,
            "shoulder_pan_joint": -2.4736205022346125,
            "wrist_1_joint": -0.8367026794202681,
            "wrist_2_joint": 0.6746043897044499,
            "wrist_3_joint": -3.1496632123970403
        }
    },
    "waypoints": [
        {
            "positions": [
                -2.4736205022346125,
                -1.1634956873337592,
                2.010868314990456,
                -0.8367026794202681,
                0.6746043897044499,
                -3.1496632123970403
            ]
        },
        {
            "positions": [
                -2.5561604786738377,
                -1.1320691075872573,
                1.9679495431013412,
                -0.8236007218246432,
                0.8512342430135866,
                -3.1371596422047596
            ]
        },
        {
            "positions": [
                -2.638700455113063,
                -1.1006425278407554,
                1.9250307712122268,
                -0.8104987642290183,
                1.0278640963227232,
                -3.1246560720124785
            ]
        },
        {
            "positions": [
                -2.721240431552288,
                -1.0692159480942536,
                1.8821119993231121,
                -0.7973968066333934,
                1.20449394963186,
                -3.112152501820198
            ]
        },
        {
            "positions": [
                -2.8037804079915127,
                -1.0377893683477517,
                1.8391932274339975,
                -0.7842948490377685,
                1.3811238029409965,
                -3.099648931627917
            ]
        },
        {
            "positions": [
                -2.886320384430738,
                -1.0063627886012498,
                1.796274455544883,
                -0.7711928914421436,
                1.5577536562501333,
                -3.087145361435636
            ]
        },
        {
            "positions": [
                -2.968860360869963,
                -0.974936208854748,
                1.7533556836557684,
                -0.7580909338465187,
                1.73438350955927,
                -3.0746417912433555
            ]
        }
    ]
}