{
    "goal": {
        "global_pose": {
            "orientation": {
                "w": -0.4816463035849501,
                "x": 0.5182115481033762,
                "y": 0.4908360881923453,
                "z": -0.5084816262002911
            },
            "position": {
                "x": -0.8240239810943604,
                "y": 0.19912469901144506,
                "z": 0.16403168439865112
            }
        },
        "name": "move_to_storage_D"
    },
    "id": "SBL_move_to_storage_D_45",
    "joint_names": [
        "shoulder_pan_joint",
        "shoulder_lift_joint",
        "elbow_joint",
        "wrist_1_joint",
        "wrist_2_joint",
        "wrist_3_joint"
    ],
    "metrics": {
        "cart_traj_len": 1.9378453312590023,
        "distance_elbow_joint": 2.809358340910787,
        "distance_shoulder_lift_joint": 0.37213376655244534,
        "distance_shoulder_pan_joint": 0.19336761877451408,
        "distance_wrist_1_joint": 4.570744861626235,
        "distance_wrist_2_joint": 2.7224570873180003,
        "distance_wrist_3_joint": 3.152692422066547,
        "smoothness": 0.649579776575631,
        "time": 0.277179072,
        "traj_len": 3.71762748231295,
        "weighted_distance": 5.236348049005706
    },
    "planner": "SBL",
    "start": {
        "state": {
            "elbow_joint": -2.384821988534728,
            "shoulder_lift_joint": -2.2788054721415256,
            "shoulder_pan_joint": -0.1854694642142757,
            "wrist_1_joint": 1.4845938289331202,
            "wrist_2_joint": 0.17898776772866878,
            "wrist_3_joint": 0.037105688729662994
        }
    },
    "waypoints": [
        {
            "positions": [
                -0.1854694642142757,
                -2.2788054721415256,
                -2.384821988534728,
                1.4845938289331202,
                0.17898776772866878,
                0.037105688729662994
            ]
        },
        {
            "positions": [
                -0.15670103611481312,
                -2.259429458816164,
                -2.458145931916961,
                1.5584589072753663,
                0.27319957175849174,
                0.0806086138535411
            ]
        },
        {
            "positions": [
                -0.12793260801535053,
                -2.2400534454908025,
                -2.531469875299194,
                1.6323239856176126,
                0.36741137578831473,
                0.12411153897741921
            ]
        },
        {
            "positions": [
                -0.09916417991588794,
                -2.2206774321654414,
                -2.6047938186814275,
                1.7061890639598587,
                0.4616231798181377,
                0.1676144641012973
            ]
        },
        {
            "positions": [
                -0.07039575181642535,
                -2.20130141884008,
                -2.6781177620636605,
                1.780054142302105,
                0.5558349838479607,
                0.21111738922517542
            ]
        },
        {
            "positions": [
                -0.04162732371696276,
                -2.1819254055147184,
                -2.7514417054458935,
                1.853919220644351,
                0.6500467878777836,
                0.2546203143490535
            ]
        },
        {
            "positions": [
                -0.042972290920720864,
                -2.171568672866278,
                -2.646237960565483,
                1.6996401265371484,
                0.6056221807778038,
                0.3289185914019743
            ]
        },
        {
            "positions": [
                -0.04431725812447897,
                -2.1612119402178376,
                -2.5410342156850727,
                1.5453610324299458,
                0.5611975736778241,
                0.4032168684548951
            ]
        },
        {
            "positions": [
                -0.04566222532823706,
                -2.150855207569397,
                -2.435830470804662,
                1.391081938322743,
                0.5167729665778442,
                0.47751514550781593
            ]
        },
        {
            "positions": [
                -0.047007192531995166,
                -2.140498474920957,
                -2.330626725924252,
                1.2368028442155405,
                0.47234835947786447,
                0.5518134225607367
            ]
        },
        {
            "positions": [
                -0.04835215973575327,
                -2.130141742272516,
                -2.2254229810438413,
                1.0825237501083378,
                0.4279237523778847,
                0.6261116996136575
            ]
        },
        {
            "positions": [
                -0.049697126939511366,
                -2.1197850096240756,
                -2.1202192361634307,
                0.928244656001135,
                0.38349914527790496,
                0.7004099766665783
            ]
        },
        {
            "positions": [
                -0.05104209414326947,
                -2.109428276975635,
                -2.0150154912830205,
                0.7739655618939325,
                0.33907453817792516,
                0.7747082537194991
            ]
        },
        {
            "positions": [
                -0.05238706134702757,
                -2.099071544327195,
                -1.9098117464026099,
                0.6196864677867298,
                0.2946499310779454,
                0.8490065307724199
            ]
        },
        {
            "positions": [
                -0.053732028550785675,
                -2.0887148116787544,
                -1.8046080015221995,
                0.465407373679527,
                0.25022532397796565,
                0.9233048078253407
            ]
        },
        {
            "positions": [
                -0.05507699575454378,
                -2.078358079030314,
                -1.699404256641789,
                0.3111282795723245,
                0.20580071687798585,
                0.9976030848782615
            ]
        },
        {
            "positions": [
                -0.056421962958301874,
                -2.0680013463818736,
                -1.5942005117613784,
                0.15684918546512172,
                0.1613761097780061,
                1.0719013619311824
            ]
        },
        {
            "positions": [
                -0.05776693016205998,
                -2.0576446137334328,
                -1.488996766880968,
                0.002570091357918969,
                0.11695150267802634,
                1.1461996389841032
            ]
        },
        {
            "positions": [
                -0.05911189736581808,
                -2.0472878810849924,
                -1.3837930220005576,
                -0.15170900274928378,
                0.07252689557804659,
                1.220497916037024
            ]
        },
        {
            "positions": [
                -0.06045686456957618,
                -2.036931148436552,
                -1.278589277120147,
                -0.3059880968564861,
                0.028102288478066728,
                1.2947961930899448
            ]
        },
        {
            "positions": [
                -0.06180183177333428,
                -2.0265744157881116,
                -1.1733855322397366,
                -0.46026719096368884,
                -0.016322318621913023,
                1.3690944701428656
            ]
        },
        {
            "positions": [
                -0.06314679897709238,
                -2.016217683139671,
                -1.0681817873593262,
                -0.6145462850708915,
                -0.060746925721892824,
                1.4433927471957864
            ]
        },
        {
            "positions": [
                -0.06127973210928761,
                -2.0235207483097106,
                -1.118813701086863,
                -0.7300765493508755,
                -0.16345388262650676,
                1.5598197714358146
            ]
        },
        {
            "positions": [
                -0.05941266524148284,
                -2.03082381347975,
                -1.1694456148144001,
                -0.8456068136308594,
                -0.2661608395311207,
                1.676246795675843
            ]
        },
        {
            "positions": [
                -0.05754559837367806,
                -2.0381268786497895,
                -1.220077528541937,
                -0.9611370779108435,
                -0.36886779643573464,
                1.7926738199158712
            ]
        },
        {
            "positions": [
                -0.055678531505873284,
                -2.045429943819829,
                -1.270709442269474,
                -1.0766673421908275,
                -0.47157475334034854,
                1.9091008441558994
            ]
        },
        {
            "positions": [
                -0.05381146463806851,
                -2.0527330089898683,
                -1.3213413559970109,
                -1.1921976064708115,
                -0.5742817102449623,
                2.0255278683959275
            ]
        },
        {
            "positions": [
                -0.05194439777026374,
                -2.0600360741599077,
                -1.3719732697245477,
                -1.3077278707507953,
                -0.6769886671495764,
                2.141954892635956
            ]
        },
        {
            "positions": [
                -0.05007733090245896,
                -2.067339139329947,
                -1.4226051834520848,
                -1.4232581350307794,
                -0.7796956240541902,
                2.258381916875984
            ]
        },
        {
            "positions": [
                -0.048210264034654185,
                -2.074642204499986,
                -1.4732370971796216,
                -1.5387883993107634,
                -0.8824025809588042,
                2.3748089411160125
            ]
        },
        {
            "positions": [
                -0.04634319716684941,
                -2.0819452696700256,
                -1.5238690109071586,
                -1.6543186635907472,
                -0.985109537863418,
                2.4912359653560405
            ]
        },
        {
            "positions": [
                -0.04447613029904464,
                -2.089248334840065,
                -1.5745009246346955,
                -1.7698489278707314,
                -1.087816494768032,
                2.6076629895960686
            ]
        },
        {
            "positions": [
                -0.042609063431239866,
                -2.0965514000101044,
                -1.6251328383622323,
                -1.8853791921507153,
                -1.190523451672646,
                2.724090013836097
            ]
        },
        {
            "positions": [
                -0.04074199656343509,
                -2.103854465180144,
                -1.6757647520897694,
                -2.0009094564306995,
                -1.2932304085772601,
                2.8405170380761255
            ]
        },
        {
            "positions": [
                -0.03887492969563032,
                -2.1111575303501833,
                -1.7263966658173064,
                -2.1164397207106833,
                -1.3959373654818739,
                2.9569440623161536
            ]
        },
        {
            "positions": [
                -0.03700786282782554,
                -2.1184605955202227,
                -1.7770285795448433,
                -2.231969984990667,
                -1.4986443223864878,
                3.0733710865561816
            ]
        },
        {
            "positions": [
                -0.03514079596002077,
                -2.125763660690262,
                -1.8276604932723801,
                -2.3475002492706514,
                -1.6013512792911018,
                3.18979811079621
            ]
        }
    ]
}