{
    "goal": {
        "global_pose": {
            "orientation": {
                "w": 0.7047431493862688,
                "x": -0.7094548369677653,
                "y": 0.0024358444001904,
                "z": -0.0022348060817251984
            },
            "position": {
                "x": -0.39052492380142206,
                "y": 0.3671506643295288,
                "z": 0.19426114857196808
            }
        },
        "name": "move_to_magneteinheit_D"
    },
    "id": "SBL_move_to_magneteinheit_D_52",
    "joint_names": [
        "shoulder_pan_joint",
        "shoulder_lift_joint",
        "elbow_joint",
        "wrist_1_joint",
        "wrist_2_joint",
        "wrist_3_joint"
    ],
    "metrics": {
        "cart_traj_len": 5.9528484835290465,
        "distance_elbow_joint": 3.0977601150566456,
        "distance_shoulder_lift_joint": 1.301231190075676,
        "distance_shoulder_pan_joint": 5.330929898457108,
        "distance_wrist_1_joint": 2.171483982539756,
        "distance_wrist_2_joint": 2.330851255005399,
        "distance_wrist_3_joint": 0.8930408517329109,
        "smoothness": 0.6214512539283714,
        "time": 0.612185186,
        "traj_len": 3.889125517756851,
        "weighted_distance": 4.627495460168326
    },
    "planner": "SBL",
    "start": {
        "state": {
            "elbow_joint": 0.749534889911806,
            "shoulder_lift_joint": -0.6476975780787326,
            "shoulder_pan_joint": -2.711696901376241,
            "wrist_1_joint": -0.07506478083263063,
            "wrist_2_joint": 0.43296659715538205,
            "wrist_3_joint": -3.14703540197715
        }
    },
    "waypoints": [
        {
            "positions": [
                -2.711696901376241,
                -0.6476975780787326,
                0.749534889911806,
                -0.07506478083263063,
                0.43296659715538205,
                -3.14703540197715
            ]
        },
        {
            "positions": [
                -2.7065888964128932,
                -0.7515076144700474,
                0.6733979075711414,
                -0.154650937763762,
                0.48784578717349975,
                -3.1040691247519874
            ]
        },
        {
            "positions": [
                -2.701480891449545,
                -0.8553176508613622,
                0.5972609252304768,
                -0.23423709469489337,
                0.5427249771916175,
                -3.0611028475268247
            ]
        },
        {
            "positions": [
                -2.696372886486197,
                -0.959127687252677,
                0.5211239428898121,
                -0.31382325162602476,
                0.5976041672097352,
                -3.018136570301662
            ]
        },
        {
            "positions": [
                -2.551392549796894,
                -0.9921621735439463,
                0.4283624051554341,
                -0.360253810649315,
                0.543316244544338,
                -3.005001038530425
            ]
        },
        {
            "positions": [
                -2.406412213107591,
                -1.0251966598352156,
                0.3356008674210561,
                -0.4066843696726053,
                0.48902832187894096,
                -2.9918655067591886
            ]
        },
        {
            "positions": [
                -2.261431876418288,
                -1.0582311461264846,
                0.2428393296866781,
                -0.45311492869589554,
                0.43474039921354385,
                -2.9787299749879517
            ]
        },
        {
            "positions": [
                -2.116451539728985,
                -1.0912656324177539,
                0.1500777919523001,
                -0.49954548771918583,
                0.38045247654814673,
                -2.9655944432167147
            ]
        },
        {
            "positions": [
                -1.971471203039682,
                -1.1243001187090231,
                0.05731625421792208,
                -0.5459760467424761,
                0.3261645538827496,
                -2.9524589114454782
            ]
        },
        {
            "positions": [
                -1.826490866350379,
                -1.1573346050002924,
                -0.03544528351645593,
                -0.5924066057657663,
                0.2718766312173525,
                -2.9393233796742413
            ]
        },
        {
            "positions": [
                -1.681510529661076,
                -1.1903690912915614,
                -0.12820682125083394,
                -0.6388371647890566,
                0.2175887085519554,
                -2.926187847903005
            ]
        },
        {
            "positions": [
                -1.536530192971773,
                -1.2234035775828307,
                -0.22096835898521194,
                -0.6852677238123468,
                0.16330078588655828,
                -2.913052316131768
            ]
        },
        {
            "positions": [
                -1.3915498562824697,
                -1.2564380638741,
                -0.31372989671958995,
                -0.7316982828356371,
                0.1090128632211611,
                -2.899916784360531
            ]
        },
        {
            "positions": [
                -1.2465695195931668,
                -1.2894725501653692,
                -0.40649143445396796,
                -0.7781288418589274,
                0.054724940555764046,
                -2.8867812525892944
            ]
        },
        {
            "positions": [
                -1.1015891829038638,
                -1.3225070364566385,
                -0.49925297218834597,
                -0.8245594008822176,
                0.00043701789036687533,
                -2.8736457208180575
            ]
        },
        {
            "positions": [
                -0.9566088462145608,
                -1.3555415227479075,
                -0.592014509922724,
                -0.8709899599055079,
                -0.053850904775030184,
                -2.8605101890468205
            ]
        },
        {
            "positions": [
                -0.8116285095252578,
                -1.3885760090391768,
                -0.684776047657102,
                -0.9174205189287982,
                -0.10813882744042735,
                -2.847374657275584
            ]
        },
        {
            "positions": [
                -0.6666481728359548,
                -1.421610495330446,
                -0.77753758539148,
                -0.9638510779520885,
                -0.1624267501058244,
                -2.834239125504347
            ]
        },
        {
            "positions": [
                -0.5216678361466514,
                -1.4546449816217153,
                -0.8702991231258582,
                -1.0102816369753786,
                -0.2167146727712217,
                -2.8211035937331106
            ]
        },
        {
            "positions": [
                -0.3766874994573488,
                -1.4876794679129843,
                -0.963060660860236,
                -1.056712195998669,
                -0.27100259543661864,
                -2.8079680619618737
            ]
        },
        {
            "positions": [
                -0.23170716276804537,
                -1.5207139542042536,
                -1.0558221985946141,
                -1.1031427550219592,
                -0.3252905181020159,
                -2.7948325301906367
            ]
        },
        {
            "positions": [
                -0.08672682607874238,
                -1.5537484404955229,
                -1.148583736328992,
                -1.1495733140452495,
                -0.379578440767413,
                -2.7816969984194
            ]
        },
        {
            "positions": [
                0.05825351061056061,
                -1.5867829267867921,
                -1.2413452740633701,
                -1.1960038730685398,
                -0.43386636343281015,
                -2.7685614666481633
            ]
        },
        {
            "positions": [
                0.2032338472998636,
                -1.6198174130780614,
                -1.334106811797748,
                -1.2424344320918301,
                -0.4881542860982071,
                -2.7554259348769268
            ]
        },
        {
            "positions": [
                0.3482141839891666,
                -1.6528518993693306,
                -1.4268683495321262,
                -1.2888649911151204,
                -0.5424422087636043,
                -2.74229040310569
            ]
        },
        {
            "positions": [
                0.4931945206784696,
                -1.6858863856605997,
                -1.519629887266504,
                -1.3352955501384103,
                -0.5967301314290014,
                -2.729154871334453
            ]
        },
        {
            "positions": [
                0.638174857367773,
                -1.718920871951869,
                -1.6123914250008822,
                -1.381726109161701,
                -0.6510180540943986,
                -2.716019339563216
            ]
        },
        {
            "positions": [
                0.7831551940570756,
                -1.751955358243138,
                -1.70515296273526,
                -1.4281566681849909,
                -0.7053059767597956,
                -2.7028838077919795
            ]
        },
        {
            "positions": [
                0.928135530746379,
                -1.7849898445344072,
                -1.7979145004696382,
                -1.4745872272082812,
                -0.7595938994251927,
                -2.6897482760207425
            ]
        },
        {
            "positions": [
                1.0731158674356815,
                -1.8180243308256765,
                -1.890676038204016,
                -1.5210177862315715,
                -0.8138818220905899,
                -2.676612744249506
            ]
        },
        {
            "positions": [
                1.218096204124985,
                -1.8510588171169458,
                -1.9834375759383942,
                -1.567448345254862,
                -0.8681697447559871,
                -2.663477212478269
            ]
        },
        {
            "positions": [
                1.0779825248293966,
                -1.8412718220131994,
                -2.0199163408590386,
                -1.6353583870666144,
                -0.7981257674574547,
                -2.704425478701672
            ]
        },
        {
            "positions": [
                0.9378688455338083,
                -1.8314848269094532,
                -2.0563951057796834,
                -1.703268428878367,
                -0.7280817901589224,
                -2.7453737449250752
            ]
        },
        {
            "positions": [
                0.7977551662382201,
                -1.8216978318057069,
                -2.092873870700328,
                -1.7711784706901195,
                -0.65803781286039,
                -2.786322011148478
            ]
        },
        {
            "positions": [
                0.6576414869426317,
                -1.8119108367019607,
                -2.1293526356209727,
                -1.8390885125018719,
                -0.5879938355618577,
                -2.827270277371881
            ]
        },
        {
            "positions": [
                0.5175278076470434,
                -1.8021238415982144,
                -2.165831400541617,
                -1.9069985543136245,
                -0.5179498582633253,
                -2.868218543595284
            ]
        },
        {
            "positions": [
                0.37741412835145516,
                -1.792336846494468,
                -2.2023101654622614,
                -1.974908596125377,
                -0.44790588096479295,
                -2.909166809818687
            ]
        },
        {
            "positions": [
                0.2373004490558669,
                -1.7825498513907219,
                -2.2387889303829063,
                -2.0428186379371294,
                -0.3778619036662606,
                -2.9501150760420902
            ]
        },
        {
            "positions": [
                0.0971867697602784,
                -1.7727628562869755,
                -2.2752676953035507,
                -2.110728679748882,
                -0.3078179263677282,
                -2.991063342265493
            ]
        },
        {
            "positions": [
                -0.042926909535309754,
                -1.7629758611832294,
                -2.3117464602241955,
                -2.1786387215606347,
                -0.2377739490691958,
                -3.032011608488896
            ]
        },
        {
            "positions": [
                -0.1830405888308982,
                -1.753188866079483,
                -2.34822522514484,
                -2.246548763372387,
                -0.16772997177066346,
                -3.072959874712299
            ]
        }
    ]
}