{
    "goal": {
        "global_pose": {
            "orientation": {
                "w": -0.4816463035849501,
                "x": 0.5182115481033762,
                "y": 0.4908360881923453,
                "z": -0.5084816262002911
            },
            "position": {
                "x": -0.8240239810943604,
                "y": -0.300875300988555,
                "z": 0.16403168439865112
            }
        },
        "name": "move_to_storage_C"
    },
    "id": "SBL_move_to_storage_C_17",
    "joint_names": [
        "shoulder_pan_joint",
        "shoulder_lift_joint",
        "elbow_joint",
        "wrist_1_joint",
        "wrist_2_joint",
        "wrist_3_joint"
    ],
    "metrics": {
        "cart_traj_len": 0.5769426545502092,
        "distance_elbow_joint": 0.2555127037505611,
        "distance_shoulder_lift_joint": 0.18984272530959212,
        "distance_shoulder_pan_joint": 0.4949613548562617,
        "distance_wrist_1_joint": 0.06642519581709028,
        "distance_wrist_2_joint": 1.0677652692927988,
        "distance_wrist_3_joint": 0.06670814504312261,
        "smoothness": 2.5376526478085547e-16,
        "time": 0.6403991250000001,
        "traj_len": 1.4632892380077926,
        "weighted_distance": 1.8462995827507411
    },
    "planner": "SBL",
    "start": {
        "state": {
            "elbow_joint": 2.010868314990456,
            "shoulder_lift_joint": -1.1634956873337592,
            "shoulder_pan_joint": -2.4736205022346125,
            "wrist_1_joint": -0.8367026794202681,
            "wrist_2_joint": 0.6746043897044499,
            "wrist_3_joint": -3.1496632123970403
        }
    },
    "waypoints": [
        {
            "positions": [
                -2.4736205022346125,
                -1.1634956873337592,
                2.010868314990456,
                -0.8367026794202681,
                0.6746043897044499,
                -3.1496632123970403
            ]
        },
        {
            "positions": [
                -2.5561140613773228,
                -1.1318552331154939,
                1.9682828643653623,
                -0.8256318134507531,
                0.8525652679199164,
                -3.1385451882231865
            ]
        },
        {
            "positions": [
                -2.638607620520033,
                -1.1002147788972285,
                1.9256974137402687,
                -0.814560947481238,
                1.030526146135383,
                -3.1274271640493327
            ]
        },
        {
            "positions": [
                -2.7211011796627433,
                -1.0685743246789632,
                1.8831119631151751,
                -0.803490081511723,
                1.2084870243508492,
                -3.116309139875479
            ]
        },
        {
            "positions": [
                -2.8035947388054536,
                -1.0369338704606978,
                1.8405265124900818,
                -0.792419215542208,
                1.386447902566316,
                -3.105191115701625
            ]
        },
        {
            "positions": [
                -2.886088297948164,
                -1.0052934162424325,
                1.7979410618649883,
                -0.7813483495726928,
                1.5644087807817821,
                -3.0940730915277714
            ]
        },
        {
            "positions": [
                -2.968581857090874,
                -0.9736529620241671,
                1.7553556112398947,
                -0.7702774836031778,
                1.7423696589972486,
                -3.0829550673539177
            ]
        }
    ]
}