{
    "goal": {
        "global_pose": {
            "orientation": {
                "w": -0.4816463035849501,
                "x": 0.5182115481033762,
                "y": 0.4908360881923453,
                "z": -0.5084816262002911
            },
            "position": {
                "x": -0.8240239810943604,
                "y": -0.300875300988555,
                "z": 0.16403168439865112
            }
        },
        "name": "move_to_storage_C"
    },
    "id": "SBL_move_to_storage_C_121",
    "joint_names": [
        "shoulder_pan_joint",
        "shoulder_lift_joint",
        "elbow_joint",
        "wrist_1_joint",
        "wrist_2_joint",
        "wrist_3_joint"
    ],
    "metrics": {
        "cart_traj_len": 0.5760728332828572,
        "distance_elbow_joint": 0.2574661497349191,
        "distance_shoulder_lift_joint": 0.18828076300252705,
        "distance_shoulder_pan_joint": 0.4952020181708803,
        "distance_wrist_1_joint": 0.07997564504398558,
        "distance_wrist_2_joint": 1.0611580707878554,
        "distance_wrist_3_joint": 0.07386399662385168,
        "smoothness": 5.075305295617109e-16,
        "time": 0.16233805699999998,
        "traj_len": 1.46831421819855,
        "weighted_distance": 1.8560194913964572
    },
    "planner": "SBL",
    "start": {
        "state": {
            "elbow_joint": 2.010868314990456,
            "shoulder_lift_joint": -1.1634956873337592,
            "shoulder_pan_joint": -2.4736205022346125,
            "wrist_1_joint": -0.8367026794202681,
            "wrist_2_joint": 0.6746043897044499,
            "wrist_3_joint": -3.1496632123970403
        }
    },
    "waypoints": [
        {
            "positions": [
                -2.4736205022346125,
                -1.1634956873337592,
                2.010868314990456,
                -0.8367026794202681,
                0.6746043897044499,
                -3.1496632123970403
            ]
        },
        {
            "positions": [
                -2.556154171929759,
                -1.1321155601666713,
                1.967957290034636,
                -0.8233734052462705,
                0.8514640681690925,
                -3.137352546293065
            ]
        },
        {
            "positions": [
                -2.6386878416249058,
                -1.1007354329995835,
                1.925046265078816,
                -0.8100441310722729,
                1.0283237466337352,
                -3.1250418801890896
            ]
        },
        {
            "positions": [
                -2.721221511320053,
                -1.0693553058324956,
                1.8821352401229963,
                -0.7967148568982754,
                1.2051834250983777,
                -3.112731214085114
            ]
        },
        {
            "positions": [
                -2.8037551810151995,
                -1.037975178665408,
                1.8392242151671765,
                -0.7833855827242777,
                1.3820431035630203,
                -3.1004205479811393
            ]
        },
        {
            "positions": [
                -2.886288850710346,
                -1.00659505149832,
                1.7963131902113565,
                -0.7700563085502801,
                1.5589027820276629,
                -3.088109881877164
            ]
        },
        {
            "positions": [
                -2.9688225204054928,
                -0.9752149243312321,
                1.7534021652555367,
                -0.7567270343762825,
                1.7357624604923054,
                -3.0757992157731886
            ]
        }
    ]
}