{
    "goal": {
        "global_pose": {
            "orientation": {
                "w": 0.005598929693374612,
                "x": 0.007748599140229565,
                "y": 0.7110244013736278,
                "z": -0.7031023480610252
            },
            "position": {
                "x": -0.8858502320852131,
                "y": -0.7141253447532654,
                "z": 0.3711530566215515
            }
        },
        "name": "move_to_auspresseinheit_C"
    },
    "id": "SBL_move_to_auspresseinheit_C_68",
    "joint_names": [
        "shoulder_pan_joint",
        "shoulder_lift_joint",
        "elbow_joint",
        "wrist_1_joint",
        "wrist_2_joint",
        "wrist_3_joint"
    ],
    "metrics": {
        "cart_traj_len": 0.4932301080618796,
        "distance_elbow_joint": 1.008276957420701,
        "distance_shoulder_lift_joint": 0.3283659500827306,
        "distance_shoulder_pan_joint": 0.2555158610951853,
        "distance_wrist_1_joint": 0.6955001414985895,
        "distance_wrist_2_joint": 1.3188993400777762,
        "distance_wrist_3_joint": 0.06871787248993444,
        "smoothness": 3.2297397080004555e-16,
        "time": 0.262097107,
        "traj_len": 1.9171009683021176,
        "weighted_distance": 2.41394104095795
    },
    "planner": "SBL",
    "start": {
        "state": {
            "elbow_joint": 1.7527959577737207,
            "shoulder_lift_joint": -0.9740617694225068,
            "shoulder_pan_joint": -2.967991417825858,
            "wrist_1_joint": -0.759517768980727,
            "wrist_2_joint": 1.7443932448377408,
            "wrist_3_joint": -3.0840537646736568
        }
    },
    "waypoints": [
        {
            "positions": [
                -2.967991417825858,
                -0.9740617694225068,
                1.7527959577737207,
                -0.759517768980727,
                1.7443932448377408,
                -3.0840537646736568
            ]
        },
        {
            "positions": [
                -2.9424398317163396,
                -0.9412251744142337,
                1.6519682620316505,
                -0.689967754830868,
                1.6125033108299631,
                -3.09092555192265
            ]
        },
        {
            "positions": [
                -2.916888245606821,
                -0.9083885794059606,
                1.5511405662895805,
                -0.6204177406810091,
                1.4806133768221856,
                -3.0977973391716436
            ]
        },
        {
            "positions": [
                -2.8913366594973025,
                -0.8755519843976876,
                1.4503128705475103,
                -0.5508677265311501,
                1.348723442814408,
                -3.104669126420637
            ]
        },
        {
            "positions": [
                -2.8657850733877837,
                -0.8427153893894145,
                1.3494851748054404,
                -0.4813177123812912,
                1.2168335088066304,
                -3.1115409136696304
            ]
        },
        {
            "positions": [
                -2.8402334872782653,
                -0.8098787943811414,
                1.2486574790633702,
                -0.4117676982314322,
                1.0849435747988527,
                -3.1184127009186238
            ]
        },
        {
            "positions": [
                -2.814681901168747,
                -0.7770421993728684,
                1.1478297833213,
                -0.34221768408157327,
                0.9530536407910751,
                -3.1252844881676176
            ]
        },
        {
            "positions": [
                -2.789130315059228,
                -0.7442056043645954,
                1.04700208757923,
                -0.2726676699317144,
                0.8211637067832975,
                -3.132156275416611
            ]
        },
        {
            "positions": [
                -2.76357872894971,
                -0.7113690093563223,
                0.9461743918371599,
                -0.20311765578185537,
                0.6892737727755198,
                -3.1390280626656044
            ]
        },
        {
            "positions": [
                -2.738027142840191,
                -0.6785324143480492,
                0.8453466960950898,
                -0.13356764163199641,
                0.5573838387677421,
                -3.145899849914598
            ]
        },
        {
            "positions": [
                -2.7124755567306726,
                -0.6456958193397762,
                0.7445190003530198,
                -0.06401762748213749,
                0.42549390475996474,
                -3.152771637163591
            ]
        }
    ]
}