{
    "goal": {
        "global_pose": {
            "orientation": {
                "w": 0.005598929693374612,
                "x": 0.007748599140229565,
                "y": 0.7110244013736278,
                "z": -0.7031023480610252
            },
            "position": {
                "x": -0.8858502320852131,
                "y": -0.7141253447532654,
                "z": 0.3711530566215515
            }
        },
        "name": "move_to_auspresseinheit_C"
    },
    "id": "SBL_move_to_auspresseinheit_C_62",
    "joint_names": [
        "shoulder_pan_joint",
        "shoulder_lift_joint",
        "elbow_joint",
        "wrist_1_joint",
        "wrist_2_joint",
        "wrist_3_joint"
    ],
    "metrics": {
        "cart_traj_len": 0.4937658468955193,
        "distance_elbow_joint": 1.0112963348761137,
        "distance_shoulder_lift_joint": 0.33117963452944743,
        "distance_shoulder_pan_joint": 0.25606818319843017,
        "distance_wrist_1_joint": 0.6940012819739529,
        "distance_wrist_2_joint": 1.3205235984730146,
        "distance_wrist_3_joint": 0.06884531939699423,
        "smoothness": 0.0,
        "time": 0.390956725,
        "traj_len": 1.9188315070500466,
        "weighted_distance": 2.4153943511751677
    },
    "planner": "SBL",
    "start": {
        "state": {
            "elbow_joint": 1.7527959577737207,
            "shoulder_lift_joint": -0.9740617694225068,
            "shoulder_pan_joint": -2.967991417825858,
            "wrist_1_joint": -0.759517768980727,
            "wrist_2_joint": 1.7443932448377408,
            "wrist_3_joint": -3.0840537646736568
        }
    },
    "waypoints": [
        {
            "positions": [
                -2.967991417825858,
                -0.9740617694225068,
                1.7527959577737207,
                -0.759517768980727,
                1.7443932448377408,
                -3.0840537646736568
            ]
        },
        {
            "positions": [
                -2.942384599506015,
                -0.9409438059695621,
                1.6516663242861094,
                -0.6901176407833317,
                1.6123408849904393,
                -3.090938296613356
            ]
        },
        {
            "positions": [
                -2.916777781186172,
                -0.9078258425166172,
                1.5505366907984979,
                -0.6207175125859363,
                1.480288525143138,
                -3.097822828553056
            ]
        },
        {
            "positions": [
                -2.8911709628663287,
                -0.8747078790636725,
                1.4494070573108866,
                -0.551317384388541,
                1.3482361652958366,
                -3.104707360492755
            ]
        },
        {
            "positions": [
                -2.865564144546486,
                -0.8415899156107278,
                1.348277423823275,
                -0.4819172561911458,
                1.216183805448535,
                -3.1115918924324544
            ]
        },
        {
            "positions": [
                -2.839957326226643,
                -0.808471952157783,
                1.2471477903356638,
                -0.4125171279937505,
                1.0841314456012334,
                -3.1184764243721537
            ]
        },
        {
            "positions": [
                -2.8143505079068,
                -0.7753539887048383,
                1.1460181568480525,
                -0.34311699979635524,
                0.9520790857539321,
                -3.1253609563118534
            ]
        },
        {
            "positions": [
                -2.7887436895869566,
                -0.7422360252518936,
                1.044888523360441,
                -0.27371687159895997,
                0.8200267259066307,
                -3.1322454882515527
            ]
        },
        {
            "positions": [
                -2.763136871267114,
                -0.7091180617989488,
                0.9437588898728296,
                -0.20431674340156458,
                0.6879743660593292,
                -3.139130020191252
            ]
        },
        {
            "positions": [
                -2.737530052947271,
                -0.676000098346004,
                0.8426292563852184,
                -0.1349166152041693,
                0.5559220062120276,
                -3.1460145521309517
            ]
        },
        {
            "positions": [
                -2.711923234627428,
                -0.6428821348930593,
                0.741499622897607,
                -0.06551648700677407,
                0.4238696463647262,
                -3.152899084070651
            ]
        }
    ]
}