{
    "goal": {
        "global_pose": {
            "orientation": {
                "w": 0.7031023502349854,
                "x": -0.7110244035720825,
                "y": 0.007748599164187908,
                "z": 0.005598929710686207
            },
            "position": {
                "x": 0.11585023208521307,
                "y": 0.44412534475326537,
                "z": 0.3711530566215515
            }
        },
        "name": "move_to_auspresseinheit_A"
    },
    "id": "SBL_move_to_auspresseinheit_A_82",
    "joint_names": [
        "shoulder_pan_joint",
        "shoulder_lift_joint",
        "elbow_joint",
        "wrist_1_joint",
        "wrist_2_joint",
        "wrist_3_joint"
    ],
    "metrics": {
        "cart_traj_len": 0.664935861697038,
        "distance_elbow_joint": 0.07376127890723172,
        "distance_shoulder_lift_joint": 0.5386103504923432,
        "distance_shoulder_pan_joint": 1.0461869580055374,
        "distance_wrist_1_joint": 0.5539085654080137,
        "distance_wrist_2_joint": 0.5152300805120342,
        "distance_wrist_3_joint": 0.3380944423249086,
        "smoothness": 0.2947478458131126,
        "time": 0.208347013,
        "traj_len": 1.750940226178515,
        "weighted_distance": 2.193426362160338
    },
    "planner": "SBL",
    "start": {
        "state": {
            "elbow_joint": 2.4225746658250005,
            "shoulder_lift_joint": -1.3736534386056498,
            "shoulder_pan_joint": -0.3378633547517467,
            "wrist_1_joint": -1.0288598680537169,
            "wrist_2_joint": 1.233022673432363,
            "wrist_3_joint": -3.0940220416140027
        }
    },
    "waypoints": [
        {
            "positions": [
                -0.3378633547517467,
                -1.3736534386056498,
                2.4225746658250005,
                -1.0288598680537169,
                1.233022673432363,
                -3.0940220416140027
            ]
        },
        {
            "positions": [
                -0.24098820953742406,
                -1.4570202757573214,
                2.426602789544734,
                -0.9418482670186187,
                1.1686940699180517,
                -3.068363827147601
            ]
        },
        {
            "positions": [
                -0.14411306432310136,
                -1.540387112908993,
                2.4306309132644675,
                -0.8548366659835205,
                1.1043654664037403,
                -3.0427056126811993
            ]
        },
        {
            "positions": [
                -0.04723791910877867,
                -1.6237539500606646,
                2.434659036984201,
                -0.7678250649484222,
                1.040036862889429,
                -3.017047398214798
            ]
        },
        {
            "positions": [
                0.049637226105544,
                -1.7071207872123364,
                2.4386871607039344,
                -0.680813463913324,
                0.9757082593751176,
                -2.991389183748396
            ]
        },
        {
            "positions": [
                0.14651237131986672,
                -1.790487624364008,
                2.442715284423668,
                -0.5938018628782257,
                0.9113796558608063,
                -2.965730969281994
            ]
        },
        {
            "positions": [
                0.24338751653418939,
                -1.8738544615156796,
                2.4467434081434014,
                -0.5067902618431275,
                0.8470510523464949,
                -2.9400727548155925
            ]
        },
        {
            "positions": [
                0.3983662121073898,
                -1.8866575707097841,
                2.430212562613791,
                -0.49617727544398604,
                0.8039648992044396,
                -3.0014544733244253
            ]
        },
        {
            "positions": [
                0.5533449076805903,
                -1.8994606799038884,
                2.413681717084181,
                -0.48556428904484455,
                0.7608787460623841,
                -3.062836191833258
            ]
        },
        {
            "positions": [
                0.7083236032537907,
                -1.912263789097993,
                2.3971508715545706,
                -0.4749513026457031,
                0.7177925929203288,
                -3.124217910342091
            ]
        }
    ]
}