{
    "goal": {
        "global_pose": {
            "orientation": {
                "w": 0.7031023480610252,
                "x": -0.7110244013736278,
                "y": 0.0077485991402295624,
                "z": 0.005598929693374583
            },
            "position": {
                "x": -0.8841497679147869,
                "y": 0.44412534475326537,
                "z": 0.3711530566215515
            }
        },
        "name": "move_to_auspresseinheit_D"
    },
    "id": "SBL_move_to_auspresseinheit_D_135",
    "joint_names": [
        "shoulder_pan_joint",
        "shoulder_lift_joint",
        "elbow_joint",
        "wrist_1_joint",
        "wrist_2_joint",
        "wrist_3_joint"
    ],
    "metrics": {
        "cart_traj_len": 0.3455380244398494,
        "distance_elbow_joint": 0.6736950643314188,
        "distance_shoulder_lift_joint": 0.14098021094155522,
        "distance_shoulder_pan_joint": 0.13439027043787538,
        "distance_wrist_1_joint": 0.6396495368316475,
        "distance_wrist_2_joint": 1.446389730813302,
        "distance_wrist_3_joint": 0.09888969363469702,
        "smoothness": 2.9605947279411004e-16,
        "time": 0.133614665,
        "traj_len": 1.770309155766443,
        "weighted_distance": 2.3276196342840985
    },
    "planner": "SBL",
    "start": {
        "state": {
            "elbow_joint": -1.8275523626775212,
            "shoulder_lift_joint": -2.126789852344167,
            "shoulder_pan_joint": -0.03513704404078235,
            "wrist_1_joint": -2.347782403156801,
            "wrist_2_joint": -1.6058999987535132,
            "wrist_3_joint": -3.0880379163319196
        }
    },
    "waypoints": [
        {
            "positions": [
                -0.03513704404078235,
                -2.126789852344167,
                -1.8275523626775212,
                -2.347782403156801,
                -1.6058999987535132,
                -3.0880379163319196
            ]
        },
        {
            "positions": [
                -0.05193582784551677,
                -2.1444123787118614,
                -1.7433404796360938,
                -2.427738595260757,
                -1.4251012824018505,
                -3.0756767046275826
            ]
        },
        {
            "positions": [
                -0.06873461165025119,
                -2.1620349050795555,
                -1.6591285965946665,
                -2.507694787364713,
                -1.2443025660501876,
                -3.0633154929232456
            ]
        },
        {
            "positions": [
                -0.08553339545498562,
                -2.17965743144725,
                -1.5749167135532391,
                -2.587650979468669,
                -1.063503849698525,
                -3.050954281218908
            ]
        },
        {
            "positions": [
                -0.10233217925972005,
                -2.1972799578149447,
                -1.4907048305118118,
                -2.667607171572625,
                -0.8827051333468622,
                -3.038593069514571
            ]
        },
        {
            "positions": [
                -0.11913096306445448,
                -2.214902484182639,
                -1.4064929474703844,
                -2.7475633636765804,
                -0.7019064169951994,
                -3.026231857810234
            ]
        },
        {
            "positions": [
                -0.13592974686918888,
                -2.2325250105503334,
                -1.322281064428957,
                -2.8275195557805364,
                -0.5211077006435367,
                -3.0138706461058966
            ]
        },
        {
            "positions": [
                -0.1527285306739233,
                -2.2501475369180275,
                -1.2380691813875297,
                -2.9074757478844924,
                -0.34030898429187384,
                -3.0015094344015596
            ]
        },
        {
            "positions": [
                -0.16952731447865774,
                -2.267770063285722,
                -1.1538572983461024,
                -2.9874319399884484,
                -0.15951026794021111,
                -2.9891482226972226
            ]
        }
    ]
}