{
    "goal": {
        "global_pose": {
            "orientation": {
                "w": -0.00223480608172531,
                "x": 0.0024358444001904467,
                "y": 0.7094548369677653,
                "z": -0.704743149386269
            },
            "position": {
                "x": -0.37947507619857795,
                "y": -0.6371506643295288,
                "z": 0.19426114857196808
            }
        },
        "name": "move_to_magneteinheit_C"
    },
    "id": "SBL_move_to_magneteinheit_C_22",
    "joint_names": [
        "shoulder_pan_joint",
        "shoulder_lift_joint",
        "elbow_joint",
        "wrist_1_joint",
        "wrist_2_joint",
        "wrist_3_joint"
    ],
    "metrics": {
        "cart_traj_len": 3.8216211840734724,
        "distance_elbow_joint": 1.8747273680520982,
        "distance_shoulder_lift_joint": 0.3100406428933229,
        "distance_shoulder_pan_joint": 4.446359018041834,
        "distance_wrist_1_joint": 1.8448847434453275,
        "distance_wrist_2_joint": 1.1041764099023847,
        "distance_wrist_3_joint": 2.684478896762897,
        "smoothness": 0.8962878142361075,
        "time": 0.284182708,
        "traj_len": 3.5020946702077973,
        "weighted_distance": 4.536814524087509
    },
    "planner": "SBL",
    "start": {
        "state": {
            "elbow_joint": 1.9565354010623817,
            "shoulder_lift_joint": -1.4165861575791021,
            "shoulder_pan_joint": -1.6717766225146293,
            "wrist_1_joint": -0.5286633292919765,
            "wrist_2_joint": 1.472756589071564,
            "wrist_3_joint": -3.1238370188695823
        }
    },
    "waypoints": [
        {
            "positions": [
                -1.6717766225146293,
                -1.4165861575791021,
                1.9565354010623817,
                -0.5286633292919765,
                1.472756589071564,
                -3.1238370188695823
            ]
        },
        {
            "positions": [
                -1.5221574508470892,
                -1.418963917682584,
                1.8858454456773892,
                -0.5082643541340471,
                1.406914126814995,
                -3.066943121659027
            ]
        },
        {
            "positions": [
                -1.3725382791795488,
                -1.421341677786066,
                1.8151554902923968,
                -0.48786537897611787,
                1.3410716645584262,
                -3.0100492244484722
            ]
        },
        {
            "positions": [
                -1.2229191075120087,
                -1.4237194378895477,
                1.7444655349074045,
                -0.4674664038181886,
                1.2752292023018572,
                -2.953155327237917
            ]
        },
        {
            "positions": [
                -1.0732999358444686,
                -1.4260971979930295,
                1.673775579522412,
                -0.4470674286602593,
                1.2093867400452885,
                -2.8962614300273617
            ]
        },
        {
            "positions": [
                -0.9236807641769282,
                -1.4284749580965113,
                1.6030856241374196,
                -0.42666845350233,
                1.1435442777887195,
                -2.839367532816807
            ]
        },
        {
            "positions": [
                -0.774061592509388,
                -1.430852718199993,
                1.5323956687524272,
                -0.40626947834440075,
                1.0777018155321505,
                -2.7824736356062516
            ]
        },
        {
            "positions": [
                -0.6244424208418478,
                -1.433230478303475,
                1.4617057133674347,
                -0.3858705031864714,
                1.0118593532755815,
                -2.7255797383956963
            ]
        },
        {
            "positions": [
                -0.4748232491743076,
                -1.4356082384069568,
                1.3910157579824425,
                -0.36547152802854216,
                0.9460168910190128,
                -2.6686858411851415
            ]
        },
        {
            "positions": [
                -0.3252040775067673,
                -1.4379859985104386,
                1.3203258025974498,
                -0.34507255287061284,
                0.8801744287624438,
                -2.6117919439745862
            ]
        },
        {
            "positions": [
                -0.17558490583922715,
                -1.4403637586139206,
                1.2496358472124576,
                -0.32467357771268357,
                0.8143319665058748,
                -2.554898046764031
            ]
        },
        {
            "positions": [
                -0.025965734171687016,
                -1.4427415187174024,
                1.1789458918274651,
                -0.30427460255475425,
                0.748489504249306,
                -2.498004149553476
            ]
        },
        {
            "positions": [
                0.12365343749585324,
                -1.4451192788208842,
                1.1082559364424727,
                -0.283875627396825,
                0.6826470419927371,
                -2.441110252342921
            ]
        },
        {
            "positions": [
                -0.06380985401398247,
                -1.4264870029723553,
                1.177175452064978,
                -0.24662213289580256,
                0.6708349033891985,
                -2.394744301838995
            ]
        },
        {
            "positions": [
                -0.2512731455238182,
                -1.4078547271238264,
                1.2460949676874833,
                -0.20936863839478015,
                0.6590227647856598,
                -2.348378351335069
            ]
        },
        {
            "positions": [
                -0.43873643703365395,
                -1.3892224512752975,
                1.3150144833099886,
                -0.17211514389375776,
                0.6472106261821211,
                -2.302012400831143
            ]
        },
        {
            "positions": [
                -0.6261997285434896,
                -1.3705901754267684,
                1.3839339989324937,
                -0.13486164939273534,
                0.6353984875785825,
                -2.255646450327217
            ]
        },
        {
            "positions": [
                -0.8136630200533255,
                -1.3519578995782395,
                1.452853514554999,
                -0.09760815489171293,
                0.623586348975044,
                -2.209280499823291
            ]
        },
        {
            "positions": [
                -1.001126311563161,
                -1.3333256237297106,
                1.5217730301775043,
                -0.06035466039069051,
                0.6117742103715053,
                -2.162914549319365
            ]
        },
        {
            "positions": [
                -1.1885896030729968,
                -1.3146933478811818,
                1.5906925458000096,
                -0.023101165889668096,
                0.5999620717679666,
                -2.116548598815439
            ]
        },
        {
            "positions": [
                -1.3760528945828323,
                -1.2960610720326529,
                1.6596120614225147,
                0.014152328611354292,
                0.588149933164428,
                -2.070182648311513
            ]
        },
        {
            "positions": [
                -1.5635161860926683,
                -1.277428796184124,
                1.7285315770450203,
                0.051405823112376736,
                0.5763377945608893,
                -2.023816697807587
            ]
        },
        {
            "positions": [
                -1.750979477602504,
                -1.2587965203355949,
                1.7974510926675253,
                0.08865931761339912,
                0.5645256559573507,
                -1.9774507473036609
            ]
        },
        {
            "positions": [
                -1.9384427691123398,
                -1.2401642444870662,
                1.8663706082900307,
                0.12591281211442157,
                0.552713517353812,
                -1.9310847967997349
            ]
        },
        {
            "positions": [
                -2.1259060606221754,
                -1.221531968638537,
                1.935290123912536,
                0.16316630661544396,
                0.5409013787502734,
                -1.8847188462958089
            ]
        },
        {
            "positions": [
                -2.3133693521320113,
                -1.2028996927900082,
                2.0042096395350413,
                0.2004198011164664,
                0.5290892401467349,
                -1.8383528957918829
            ]
        },
        {
            "positions": [
                -2.500832643641847,
                -1.1842674169414793,
                2.0731291551575466,
                0.23767329561748873,
                0.5172771015431962,
                -1.7919869452879569
            ]
        },
        {
            "positions": [
                -2.497141591146384,
                -1.1813388852074762,
                2.0646366842346424,
                0.09203479428668157,
                0.5381831325636799,
                -1.975339646545181
            ]
        },
        {
            "positions": [
                -2.4934505386509214,
                -1.1784103534734731,
                2.0561442133117382,
                -0.05360370704412559,
                0.5590891635841636,
                -2.158692347802405
            ]
        },
        {
            "positions": [
                -2.4897594861554584,
                -1.1754818217394702,
                2.047651742388834,
                -0.19924220837493278,
                0.5799951946046473,
                -2.342045049059629
            ]
        },
        {
            "positions": [
                -2.4860684336599954,
                -1.1725532900054672,
                2.03915927146593,
                -0.3448807097057399,
                0.600901225625131,
                -2.525397750316853
            ]
        },
        {
            "positions": [
                -2.4831487669320462,
                -1.1703179067964362,
                2.0322580712095553,
                -0.4688792380088982,
                0.6171694251981514,
                -2.680202254854947
            ]
        },
        {
            "positions": [
                -2.480229100204097,
                -1.1680825235874053,
                2.0253568709531806,
                -0.5928777663120565,
                0.6334376247711718,
                -2.835006759393041
            ]
        },
        {
            "positions": [
                -2.477309433476148,
                -1.1658471403783743,
                2.018455670696806,
                -0.7168762946152147,
                0.6497058243441922,
                -2.9898112639311347
            ]
        },
        {
            "positions": [
                -2.4743897667481987,
                -1.1636117571693434,
                2.0115544704404313,
                -0.840874822918373,
                0.6659740239172126,
                -3.1446157684692286
            ]
        }
    ]
}