{
    "goal": {
        "global_pose": {
            "orientation": {
                "w": 0.7031023502349854,
                "x": -0.7110244035720825,
                "y": 0.007748599164187908,
                "z": 0.005598929710686207
            },
            "position": {
                "x": 0.11585023208521307,
                "y": 0.44412534475326537,
                "z": 0.3711530566215515
            }
        },
        "name": "move_to_auspresseinheit_A"
    },
    "id": "SBL_move_to_auspresseinheit_A_86",
    "joint_names": [
        "shoulder_pan_joint",
        "shoulder_lift_joint",
        "elbow_joint",
        "wrist_1_joint",
        "wrist_2_joint",
        "wrist_3_joint"
    ],
    "metrics": {
        "cart_traj_len": 1.0377964791590897,
        "distance_elbow_joint": 0.16601929132728754,
        "distance_shoulder_lift_joint": 0.9692149875615452,
        "distance_shoulder_pan_joint": 1.720564617534063,
        "distance_wrist_1_joint": 1.1530688446268993,
        "distance_wrist_2_joint": 0.5253188353057268,
        "distance_wrist_3_joint": 0.87834785895864,
        "smoothness": 1.4017001092040209,
        "time": 0.592931858,
        "traj_len": 2.326485425553782,
        "weighted_distance": 2.9744945508714697
    },
    "planner": "SBL",
    "start": {
        "state": {
            "elbow_joint": 2.4225746658250005,
            "shoulder_lift_joint": -1.3736534386056498,
            "shoulder_pan_joint": -0.3378633547517467,
            "wrist_1_joint": -1.0288598680537169,
            "wrist_2_joint": 1.233022673432363,
            "wrist_3_joint": -3.0940220416140027
        }
    },
    "waypoints": [
        {
            "positions": [
                -0.3378633547517467,
                -1.3736534386056498,
                2.4225746658250005,
                -1.0288598680537169,
                1.233022673432363,
                -3.0940220416140027
            ]
        },
        {
            "positions": [
                -0.19960685661418034,
                -1.448789688886995,
                2.429361843793976,
                -0.9430491513889326,
                1.205888463890577,
                -3.052133628268621
            ]
        },
        {
            "positions": [
                -0.061350358476613964,
                -1.5239259391683406,
                2.436149021762952,
                -0.8572384347241485,
                1.1787542543487906,
                -3.0102452149232395
            ]
        },
        {
            "positions": [
                0.07690613966095239,
                -1.5990621894496861,
                2.442936199731928,
                -0.7714277180593643,
                1.1516200448070044,
                -2.968356801577858
            ]
        },
        {
            "positions": [
                0.2151626377985188,
                -1.6741984397310314,
                2.4497233777009035,
                -0.6856170013945802,
                1.124485835265218,
                -2.9264683882324762
            ]
        },
        {
            "positions": [
                0.35341913593608515,
                -1.7493346900123767,
                2.456510555669879,
                -0.5998062847297959,
                1.097351625723432,
                -2.8845799748870946
            ]
        },
        {
            "positions": [
                0.4916756340736515,
                -1.8244709402937223,
                2.463297733638855,
                -0.5139955680650118,
                1.0702174161816456,
                -2.842691561541713
            ]
        },
        {
            "positions": [
                0.6299321322112179,
                -1.8996071905750678,
                2.4700849116078305,
                -0.42818485140022755,
                1.0430832066398594,
                -2.8008031481963314
            ]
        },
        {
            "positions": [
                0.7681886303487844,
                -1.974743440856413,
                2.4768720895768066,
                -0.3423741347354433,
                1.015948997098073,
                -2.7589147348509497
            ]
        },
        {
            "positions": [
                0.9064451284863508,
                -2.0498796911377584,
                2.4836592675457823,
                -0.2565634180706591,
                0.9888147875562869,
                -2.717026321505568
            ]
        },
        {
            "positions": [
                1.044701626623917,
                -2.125015941419104,
                2.490446445514758,
                -0.1707527014058749,
                0.9616805780145007,
                -2.6751379081601865
            ]
        },
        {
            "positions": [
                0.9771016993922372,
                -2.0814454444694857,
                2.470816943187252,
                -0.22974503700168633,
                0.9108852300369278,
                -2.767030653261151
            ]
        },
        {
            "positions": [
                0.9095017721605574,
                -2.0378749475198674,
                2.451187440859746,
                -0.28873737259749777,
                0.8600898820593549,
                -2.858923398362116
            ]
        },
        {
            "positions": [
                0.8419018449288775,
                -1.9943044505702492,
                2.4315579385322397,
                -0.3477297081933092,
                0.8092945340817821,
                -2.9508161434630806
            ]
        },
        {
            "positions": [
                0.7743019176971977,
                -1.950733953620631,
                2.4119284362047337,
                -0.40672204378912064,
                0.7584991861042092,
                -3.0427088885640456
            ]
        },
        {
            "positions": [
                0.7067019904655178,
                -1.9071634566710127,
                2.392298933877228,
                -0.46571437938493204,
                0.7077038381266363,
                -3.13460163366501
            ]
        }
    ]
}