{
    "goal": {
        "global_pose": {
            "orientation": {
                "w": 0.7047431468963623,
                "x": -0.7094548344612122,
                "y": 0.0024358443915843964,
                "z": -0.0022348060738295317
            },
            "position": {
                "x": 0.6094750761985779,
                "y": 0.3671506643295288,
                "z": 0.19426114857196808
            }
        },
        "name": "move_to_magneteinheit_A"
    },
    "id": "SBL_move_to_magneteinheit_A_114",
    "joint_names": [
        "shoulder_pan_joint",
        "shoulder_lift_joint",
        "elbow_joint",
        "wrist_1_joint",
        "wrist_2_joint",
        "wrist_3_joint"
    ],
    "metrics": {
        "cart_traj_len": 3.4842128022678556,
        "distance_elbow_joint": 4.363269211804658,
        "distance_shoulder_lift_joint": 1.1028042422024398,
        "distance_shoulder_pan_joint": 2.962205950789812,
        "distance_wrist_1_joint": 4.00930617024312,
        "distance_wrist_2_joint": 2.3854141666321587,
        "distance_wrist_3_joint": 0.9091248825456686,
        "smoothness": 0.5606480961332246,
        "time": 0.189282546,
        "traj_len": 3.9663742415735124,
        "weighted_distance": 4.893372530901818
    },
    "planner": "SBL",
    "start": {
        "state": {
            "elbow_joint": -1.9196185241190666,
            "shoulder_lift_joint": -1.2443396400964142,
            "shoulder_pan_joint": 2.6996025414629847,
            "wrist_1_joint": -1.5485510000780065,
            "wrist_2_joint": -1.5709468930060704,
            "wrist_3_joint": 0.4420197071253992
        }
    },
    "waypoints": [
        {
            "positions": [
                2.6996025414629847,
                -1.2443396400964142,
                -1.9196185241190666,
                -1.5485510000780065,
                -1.5709468930060704,
                0.4420197071253992
            ]
        },
        {
            "positions": [
                2.576174303938676,
                -1.2371887116697837,
                -1.829381534293836,
                -1.4875645119850487,
                -1.487419638856438,
                0.42182214599128365
            ]
        },
        {
            "positions": [
                2.452746066414367,
                -1.2300377832431533,
                -1.7391445444686053,
                -1.4265780238920907,
                -1.4038923847068059,
                0.4016245848571682
            ]
        },
        {
            "positions": [
                2.329317828890058,
                -1.2228868548165228,
                -1.6489075546433747,
                -1.3655915357991328,
                -1.3203651305571737,
                0.38142702372305265
            ]
        },
        {
            "positions": [
                2.2058895913657492,
                -1.2157359263898926,
                -1.558670564818144,
                -1.3046050477061748,
                -1.2368378764075414,
                0.3612294625889371
            ]
        },
        {
            "positions": [
                2.0824613538414405,
                -1.2085849979632621,
                -1.4684335749929134,
                -1.243618559613217,
                -1.153310622257909,
                0.34103190145482165
            ]
        },
        {
            "positions": [
                1.9590331163171317,
                -1.2014340695366317,
                -1.3781965851676827,
                -1.1826320715202592,
                -1.069783368108277,
                0.3208343403207061
            ]
        },
        {
            "positions": [
                1.835604878792823,
                -1.1942831411100012,
                -1.2879595953424523,
                -1.1216455834273011,
                -0.9862561139586447,
                0.3006367791865906
            ]
        },
        {
            "positions": [
                1.7121766412685138,
                -1.1871322126833708,
                -1.1977226055172214,
                -1.0606590953343433,
                -0.9027288598090124,
                0.28043921805247507
            ]
        },
        {
            "positions": [
                1.588748403744205,
                -1.1799812842567403,
                -1.107485615691991,
                -0.9996726072413854,
                -0.8192016056593802,
                0.2602416569183596
            ]
        },
        {
            "positions": [
                1.4653201662198962,
                -1.17283035583011,
                -1.0172486258667603,
                -0.9386861191484275,
                -0.7356743515097479,
                0.2400440957842441
            ]
        },
        {
            "positions": [
                1.3418919286955873,
                -1.1656794274034796,
                -0.9270116360415296,
                -0.8776996310554696,
                -0.6521470973601156,
                0.21984653465012857
            ]
        },
        {
            "positions": [
                1.2184636911712785,
                -1.1585284989768492,
                -0.836774646216299,
                -0.8167131429625117,
                -0.5686198432104834,
                0.1996489735160131
            ]
        },
        {
            "positions": [
                1.0950354536469697,
                -1.1513775705502187,
                -0.7465376563910684,
                -0.7557266548695537,
                -0.48509258906085106,
                0.17945141238189755
            ]
        },
        {
            "positions": [
                0.971607216122661,
                -1.1442266421235883,
                -0.656300666565838,
                -0.6947401667765959,
                -0.40156533491121893,
                0.15925385124778207
            ]
        },
        {
            "positions": [
                0.848178978598352,
                -1.1370757136969578,
                -0.5660636767406073,
                -0.633753678683638,
                -0.3180380807615866,
                0.13905629011366655
            ]
        },
        {
            "positions": [
                0.724750741074043,
                -1.1299247852703274,
                -0.47582668691537644,
                -0.57276719059068,
                -0.23451082661195444,
                0.11885872897955102
            ]
        },
        {
            "positions": [
                0.6013225035497345,
                -1.1227738568436971,
                -0.385589697090146,
                -0.5117807024977221,
                -0.1509835724623223,
                0.09866116784543555
            ]
        },
        {
            "positions": [
                0.4778942660254253,
                -1.1156229284170667,
                -0.29535270726491536,
                -0.4507942144047643,
                -0.06745631831268994,
                0.07846360671132002
            ]
        },
        {
            "positions": [
                0.3544660285011165,
                -1.1084719999904362,
                -0.2051157174396847,
                -0.3898077263118065,
                0.01607093583694219,
                0.05826604557720455
            ]
        },
        {
            "positions": [
                0.23103779097680788,
                -1.1013210715638058,
                -0.11487872761445395,
                -0.32882123821884846,
                0.0995981899865745,
                0.03806848444308902
            ]
        },
        {
            "positions": [
                0.19756300350904482,
                -1.0761867143807573,
                0.0029956902698353577,
                -0.17156998090806527,
                0.07946017725772299,
                0.02227517263548159
            ]
        },
        {
            "positions": [
                0.16408821604128176,
                -1.051052357197709,
                0.12087010815412466,
                -0.01431872359728209,
                0.059322164528871464,
                0.006481860827874157
            ]
        },
        {
            "positions": [
                0.13061342857351874,
                -1.0259180000146606,
                0.23874452603841395,
                0.14293253371350112,
                0.03918415180001994,
                -0.009311450979733273
            ]
        },
        {
            "positions": [
                0.09713864110575568,
                -1.0007836428316121,
                0.35661894392270327,
                0.3001837910242843,
                0.019046139071168422,
                -0.02510476278734071
            ]
        },
        {
            "positions": [
                0.06366385363799262,
                -0.9756492856485638,
                0.47449336180699264,
                0.45743504833506765,
                -0.0010918736576831234,
                -0.04089807459494814
            ]
        },
        {
            "positions": [
                0.030189066170229595,
                -0.9505149284655154,
                0.5923677796912818,
                0.6146863056458507,
                -0.021229886386534627,
                -0.05669138640255557
            ]
        },
        {
            "positions": [
                -0.0032857212975334893,
                -0.9253805712824671,
                0.7102421975755712,
                0.7719375629566341,
                -0.04136789911538617,
                -0.07248469821016301
            ]
        },
        {
            "positions": [
                -0.03676050876529652,
                -0.9002462140994187,
                0.8281166154598605,
                0.929188820267417,
                -0.06150591184423766,
                -0.08827801001777044
            ]
        },
        {
            "positions": [
                -0.0702352962330596,
                -0.8751118569163703,
                0.9459910333441498,
                1.0864400775782004,
                -0.0816439245730892,
                -0.10407132182537789
            ]
        },
        {
            "positions": [
                -0.06388130446810882,
                -0.9111365604895348,
                1.0888810744832194,
                1.21456211515256,
                -0.1141253679328936,
                -0.12482892476878965
            ]
        },
        {
            "positions": [
                -0.05752731270315803,
                -0.9471612640626995,
                1.2317711156222888,
                1.3426841527269195,
                -0.146606811292698,
                -0.14558652771220143
            ]
        },
        {
            "positions": [
                -0.05117332093820724,
                -0.9831859676358641,
                1.3746611567613582,
                1.4708061903012792,
                -0.17908825465250242,
                -0.16634413065561318
            ]
        },
        {
            "positions": [
                -0.044819329173256456,
                -1.0192106712090288,
                1.5175511979004277,
                1.5989282278756387,
                -0.21156969801230682,
                -0.18710173359902493
            ]
        },
        {
            "positions": [
                -0.03846533740830566,
                -1.0552353747821932,
                1.6604412390394974,
                1.7270502654499986,
                -0.24405114137211123,
                -0.2078593365424367
            ]
        },
        {
            "positions": [
                -0.032111345643354876,
                -1.0912600783553579,
                1.8033312801785666,
                1.855172303024358,
                -0.27653258473191566,
                -0.2286169394858485
            ]
        },
        {
            "positions": [
                -0.025757353878404082,
                -1.1272847819285226,
                1.9462213213176365,
                1.9832943405987176,
                -0.30901402809172007,
                -0.24937454242926027
            ]
        },
        {
            "positions": [
                -0.019403362113453303,
                -1.163309485501687,
                2.0891113624567055,
                2.111416378173077,
                -0.3414954714515245,
                -0.270132145372672
            ]
        },
        {
            "positions": [
                -0.01304937034850251,
                -1.1993341890748517,
                2.2320014035957754,
                2.239538415747437,
                -0.3739769148113289,
                -0.2908897483160838
            ]
        },
        {
            "positions": [
                0.02074617645380008,
                -1.096995657358873,
                2.1790890825733213,
                2.1842342271430177,
                -0.3136534201009266,
                -0.24683589154003746
            ]
        },
        {
            "positions": [
                0.05454172325610267,
                -0.9946571256428944,
                2.126176761550867,
                2.1289300385385985,
                -0.25332992539052435,
                -0.20278203476399115
            ]
        },
        {
            "positions": [
                0.08833727005840525,
                -0.8923185939269158,
                2.073264440528413,
                2.0736258499341798,
                -0.19300643068012213,
                -0.15872817798794484
            ]
        },
        {
            "positions": [
                0.12213281686070784,
                -0.7899800622109372,
                2.020352119505959,
                2.0183216613297605,
                -0.13268293596971986,
                -0.11467432121189852
            ]
        }
    ]
}