{
    "goal": {
        "global_pose": {
            "orientation": {
                "w": -0.00223480608172531,
                "x": 0.0024358444001904467,
                "y": 0.7094548369677653,
                "z": -0.704743149386269
            },
            "position": {
                "x": 0.6205249238014221,
                "y": -0.6371506643295288,
                "z": 0.19426114857196808
            }
        },
        "name": "move_to_magneteinheit_B"
    },
    "id": "SBL_move_to_magneteinheit_B_142",
    "joint_names": [
        "shoulder_pan_joint",
        "shoulder_lift_joint",
        "elbow_joint",
        "wrist_1_joint",
        "wrist_2_joint",
        "wrist_3_joint"
    ],
    "metrics": {
        "cart_traj_len": 4.338092057141404,
        "distance_elbow_joint": 5.570359984813796,
        "distance_shoulder_lift_joint": 0.7704012963321869,
        "distance_shoulder_pan_joint": 3.9282785414075567,
        "distance_wrist_1_joint": 4.455848623130128,
        "distance_wrist_2_joint": 2.205655286715712,
        "distance_wrist_3_joint": 4.411919707900972,
        "smoothness": 0.2922865001500142,
        "time": 0.863420379,
        "traj_len": 4.619790410862852,
        "weighted_distance": 6.068591827265047
    },
    "planner": "SBL",
    "start": {
        "state": {
            "elbow_joint": 2.6216224122426386,
            "shoulder_lift_joint": -1.4174107377796124,
            "shoulder_pan_joint": 0.7066234856936794,
            "wrist_1_joint": 1.9546482284002225,
            "wrist_2_joint": -0.7096286983471962,
            "wrist_3_joint": 0.005740856962016249
        }
    },
    "waypoints": [
        {
            "positions": [
                0.7066234856936794,
                -1.4174107377796124,
                2.6216224122426386,
                1.9546482284002225,
                -0.7096286983471962,
                0.005740856962016249
            ]
        },
        {
            "positions": [
                0.5892819886710186,
                -1.4273258035460121,
                2.610889694399403,
                1.9373902396368938,
                -0.7504471125195454,
                -0.06703586386952567
            ]
        },
        {
            "positions": [
                0.5523353253468359,
                -1.44868574873258,
                2.47887456014824,
                1.795304211346241,
                -0.7440480778251863,
                -0.10668354042858477
            ]
        },
        {
            "positions": [
                0.5153886620226533,
                -1.470045693919148,
                2.346859425897077,
                1.653218183055588,
                -0.7376490431308271,
                -0.14633121698764387
            ]
        },
        {
            "positions": [
                0.47844199869847065,
                -1.4914056391057158,
                2.2148442916459135,
                1.5111321547649352,
                -0.7312500084364679,
                -0.18597889354670297
            ]
        },
        {
            "positions": [
                0.441495335374288,
                -1.5127655842922838,
                2.0828291573947504,
                1.3690461264742821,
                -0.7248509737421088,
                -0.22562657010576206
            ]
        },
        {
            "positions": [
                0.40454867205010536,
                -1.5341255294788516,
                1.9508140231435873,
                1.2269600981836293,
                -0.7184519390477497,
                -0.26527424666482113
            ]
        },
        {
            "positions": [
                0.36760200872592275,
                -1.5554854746654194,
                1.818798888892424,
                1.0848740698929764,
                -0.7120529043533905,
                -0.30492192322388023
            ]
        },
        {
            "positions": [
                0.3306553454017401,
                -1.5768454198519875,
                1.6867837546412607,
                0.9427880416023235,
                -0.7056538696590313,
                -0.34456959978293933
            ]
        },
        {
            "positions": [
                0.29370868207755746,
                -1.5982053650385553,
                1.5547686203900977,
                0.8007020133116707,
                -0.6992548349646722,
                -0.3842172763419984
            ]
        },
        {
            "positions": [
                0.2567620187533748,
                -1.6195653102251233,
                1.4227534861389344,
                0.6586159850210176,
                -0.692855800270313,
                -0.4238649529010575
            ]
        },
        {
            "positions": [
                0.21981535542919217,
                -1.640925255411691,
                1.2907383518877713,
                0.5165299567303647,
                -0.6864567655759539,
                -0.4635126294601166
            ]
        },
        {
            "positions": [
                0.1828686921050095,
                -1.6622852005982591,
                1.1587232176366082,
                0.3744439284397121,
                -0.6800577308815947,
                -0.5031603060191757
            ]
        },
        {
            "positions": [
                0.14592202878082688,
                -1.683645145784827,
                1.026708083385445,
                0.23235790014905922,
                -0.6736586961872356,
                -0.5428079825782348
            ]
        },
        {
            "positions": [
                0.10897536545664421,
                -1.7050050909713947,
                0.8946929491342817,
                0.09027187185840613,
                -0.6672596614928765,
                -0.5824556591372939
            ]
        },
        {
            "positions": [
                0.0720287021324616,
                -1.7263650361579628,
                0.7626778148831186,
                -0.05181415643224674,
                -0.6608606267985173,
                -0.622103335696353
            ]
        },
        {
            "positions": [
                0.19871727757186922,
                -1.7276452475814645,
                0.6385157459420537,
                -0.14018145855927186,
                -0.6328604963457737,
                -0.6155828658842255
            ]
        },
        {
            "positions": [
                0.32540585301127684,
                -1.7289254590049663,
                0.5143536770009889,
                -0.22854876068629698,
                -0.6048603658930302,
                -0.609062396072098
            ]
        },
        {
            "positions": [
                0.4520944284506844,
                -1.730205670428468,
                0.39019160805992403,
                -0.3169160628133221,
                -0.5768602354402865,
                -0.6025419262599705
            ]
        },
        {
            "positions": [
                0.5787830038900921,
                -1.7314858818519698,
                0.2660295391188592,
                -0.4052833649403472,
                -0.5488601049875429,
                -0.596021456447843
            ]
        },
        {
            "positions": [
                0.7054715793294997,
                -1.7327660932754716,
                0.14186747017779422,
                -0.4936506670673724,
                -0.5208599745347993,
                -0.5895009866357154
            ]
        },
        {
            "positions": [
                0.8321601547689073,
                -1.7340463046989734,
                0.01770540123672948,
                -0.5820179691943974,
                -0.49285984408205574,
                -0.5829805168235879
            ]
        },
        {
            "positions": [
                0.958848730208315,
                -1.7353265161224751,
                -0.10645666770433548,
                -0.6703852713214227,
                -0.4648597136293121,
                -0.5764600470114604
            ]
        },
        {
            "positions": [
                1.0855373056477227,
                -1.736606727545977,
                -0.23061873664540022,
                -0.7587525734484477,
                -0.4368595831765685,
                -0.5699395771993329
            ]
        },
        {
            "positions": [
                1.21222588108713,
                -1.7378869389694787,
                -0.3547808055864652,
                -0.8471198755754729,
                -0.4088594527238249,
                -0.5634191073872054
            ]
        },
        {
            "positions": [
                1.3389144565265378,
                -1.7391671503929802,
                -0.47894287452753015,
                -0.935487177702498,
                -0.38085932227108127,
                -0.5568986375750778
            ]
        },
        {
            "positions": [
                1.4656030319659457,
                -1.740447361816482,
                -0.6031049434685951,
                -1.0238544798295233,
                -0.3528591918183377,
                -0.5503781677629503
            ]
        },
        {
            "positions": [
                1.592291607405353,
                -1.7417275732399837,
                -0.7272670124096596,
                -1.112221781956548,
                -0.3248590613655941,
                -0.5438576979508228
            ]
        },
        {
            "positions": [
                1.7189801828447604,
                -1.7430077846634855,
                -0.8514290813507246,
                -1.2005890840835733,
                -0.2968589309128505,
                -0.5373372281386953
            ]
        },
        {
            "positions": [
                1.8456687582841682,
                -1.7442879960869873,
                -0.9755911502917896,
                -1.2889563862105986,
                -0.2688588004601069,
                -0.5308167583265677
            ]
        },
        {
            "positions": [
                1.972357333723576,
                -1.745568207510489,
                -1.0997532192328545,
                -1.3773236883376236,
                -0.24085867000736327,
                -0.5242962885144402
            ]
        },
        {
            "positions": [
                2.0990459091629834,
                -1.7468484189339908,
                -1.223915288173919,
                -1.4656909904646487,
                -0.2128585395546197,
                -0.5177758187023127
            ]
        },
        {
            "positions": [
                2.2257344846023908,
                -1.7481286303574926,
                -1.348077357114984,
                -1.5540582925916737,
                -0.18485840910187612,
                -0.5112553488901852
            ]
        },
        {
            "positions": [
                2.3524230600417986,
                -1.7494088417809943,
                -1.4722394260560487,
                -1.642425594718699,
                -0.15685827864913246,
                -0.5047348790780577
            ]
        },
        {
            "positions": [
                2.4185082306897816,
                -1.7610376100802272,
                -1.554718962116058,
                -1.6410562386327883,
                -0.09417629064001279,
                -0.3670574152948225
            ]
        },
        {
            "positions": [
                2.484593401337764,
                -1.77266637837946,
                -1.6371984981760674,
                -1.6396868825468776,
                -0.03149430263089312,
                -0.22937995151158724
            ]
        },
        {
            "positions": [
                2.550678571985747,
                -1.784295146678693,
                -1.7196780342360767,
                -1.6383175264609668,
                0.031187685378226554,
                -0.09170248772835204
            ]
        },
        {
            "positions": [
                2.61676374263373,
                -1.7959239149779258,
                -1.8021575702960861,
                -1.6369481703750561,
                0.09386967338734623,
                0.04597497605488321
            ]
        },
        {
            "positions": [
                2.682848913281713,
                -1.8075526832771587,
                -1.8846371063560954,
                -1.6355788142891454,
                0.1565516613964659,
                0.1836524398381184
            ]
        },
        {
            "positions": [
                2.748934083929696,
                -1.8191814515763918,
                -1.9671166424161046,
                -1.6342094582032347,
                0.21923364940558557,
                0.3213299036213536
            ]
        },
        {
            "positions": [
                2.8150192545776784,
                -1.8308102198756246,
                -2.049596178476114,
                -1.632840102117324,
                0.28191563741470516,
                0.4590073674045888
            ]
        },
        {
            "positions": [
                2.8811044252256615,
                -1.8424389881748575,
                -2.1320757145361235,
                -1.6314707460314133,
                0.3445976254238249,
                0.5966848311878241
            ]
        },
        {
            "positions": [
                2.9471895958736445,
                -1.8540677564740904,
                -2.2145552505961326,
                -1.6301013899455026,
                0.4072796134329446,
                0.7343622949710593
            ]
        },
        {
            "positions": [
                3.013274766521627,
                -1.8656965247733233,
                -2.297034786656142,
                -1.6287320338595919,
                0.4699616014420642,
                0.8720397587542945
            ]
        },
        {
            "positions": [
                2.9881006455604004,
                -1.8887047754403572,
                -2.2504845876622124,
                -1.6890949795133134,
                0.4025024472576533,
                1.035606360239434
            ]
        },
        {
            "positions": [
                2.962926524599174,
                -1.9117130261073914,
                -2.2039343886682827,
                -1.7494579251670348,
                0.33504329307324227,
                1.1991729617245737
            ]
        },
        {
            "positions": [
                2.937752403637947,
                -1.9347212767744253,
                -2.157384189674353,
                -1.8098208708207564,
                0.26758413888883126,
                1.3627395632097132
            ]
        },
        {
            "positions": [
                2.91257828267672,
                -1.9577295274414592,
                -2.1108339906804234,
                -1.870183816474478,
                0.2001249847044203,
                1.5263061646948528
            ]
        },
        {
            "positions": [
                2.8874041617154935,
                -1.9807377781084932,
                -2.0642837916864933,
                -1.9305467621281993,
                0.1326658305200093,
                1.6898727661799926
            ]
        },
        {
            "positions": [
                2.862230040754267,
                -2.0037460287755273,
                -2.0177335926925637,
                -1.990909707781921,
                0.06520667633559835,
                1.853439367665132
            ]
        },
        {
            "positions": [
                2.8370559197930403,
                -2.026754279442561,
                -1.971183393698634,
                -2.0512726534356425,
                -0.0022524778488126618,
                2.0170059691502717
            ]
        },
        {
            "positions": [
                2.8118817988318137,
                -2.049762530109595,
                -1.9246331947047044,
                -2.111635599089364,
                -0.06971163203322361,
                2.1805725706354115
            ]
        },
        {
            "positions": [
                2.786707677870587,
                -2.0727707807766294,
                -1.8780829957107747,
                -2.1719985447430856,
                -0.13717078621763468,
                2.344139172120551
            ]
        },
        {
            "positions": [
                2.7615335569093604,
                -2.095779031443663,
                -1.831532796716845,
                -2.2323614903968068,
                -0.20462994040204563,
                2.5077057736056907
            ]
        },
        {
            "positions": [
                2.736359435948134,
                -2.1187872821106972,
                -1.7849825977229155,
                -2.292724436050529,
                -0.2720890945864566,
                2.67127237509083
            ]
        },
        {
            "positions": [
                2.7111853149869067,
                -2.1417955327777314,
                -1.7384323987289858,
                -2.35308738170425,
                -0.33954824877086753,
                2.83483897657597
            ]
        },
        {
            "positions": [
                2.68601119402568,
                -2.164803783444765,
                -1.691882199735056,
                -2.4134503273579715,
                -0.4070074029552786,
                2.9984055780611096
            ]
        },
        {
            "positions": [
                2.6608370730644535,
                -2.1878120341117993,
                -1.6453320007411263,
                -2.473813273011693,
                -0.4744665571396896,
                3.161972179546249
            ]
        }
    ]
}