{
    "goal": {
        "global_pose": {
            "orientation": {
                "w": 0.5084816217422485,
                "x": -0.49083608388900757,
                "y": 0.5182115435600281,
                "z": -0.4816462993621826
            },
            "position": {
                "x": 0.5540239810943604,
                "y": 0.030875300988554955,
                "z": 0.16403168439865112
            }
        },
        "name": "move_to_storage_A"
    },
    "id": "SBL_move_to_storage_A_44",
    "joint_names": [
        "shoulder_pan_joint",
        "shoulder_lift_joint",
        "elbow_joint",
        "wrist_1_joint",
        "wrist_2_joint",
        "wrist_3_joint"
    ],
    "metrics": {
        "cart_traj_len": 0.3535720704870677,
        "distance_elbow_joint": 0.4498545604614259,
        "distance_shoulder_lift_joint": 0.23656843209310474,
        "distance_shoulder_pan_joint": 0.46438332910868335,
        "distance_wrist_1_joint": 0.2379394714801515,
        "distance_wrist_2_joint": 1.0921068415082558,
        "distance_wrist_3_joint": 0.09221748632585935,
        "smoothness": 0.0,
        "time": 0.143932311,
        "traj_len": 1.604079212812597,
        "weighted_distance": 2.021769375229926
    },
    "planner": "SBL",
    "start": {
        "state": {
            "elbow_joint": 1.9715481507254546,
            "shoulder_lift_joint": -1.1394850672790213,
            "shoulder_pan_joint": 0.12281154597544902,
            "wrist_1_joint": -0.7804720171073349,
            "wrist_2_joint": 0.12958658322886563,
            "wrist_3_joint": -3.1924895760937617
        }
    },
    "waypoints": [
        {
            "positions": [
                0.12281154597544902,
                -1.1394850672790213,
                1.9715481507254546,
                -0.7804720171073349,
                0.12958658322886563,
                -3.1924895760937617
            ]
        },
        {
            "positions": [
                0.05647107038849426,
                -1.1732805575780363,
                2.0358130879342298,
                -0.814463370175928,
                0.28560184630147356,
                -3.179315649475782
            ]
        },
        {
            "positions": [
                -0.009869405198460496,
                -1.2070760478770513,
                2.100078025143005,
                -0.8484547232445211,
                0.44161710937408155,
                -3.1661417228578017
            ]
        },
        {
            "positions": [
                -0.07620988078541527,
                -1.2408715381760662,
                2.16434296235178,
                -0.8824460763131141,
                0.5976323724466894,
                -3.152967796239822
            ]
        },
        {
            "positions": [
                -0.14255035637237,
                -1.2746670284750812,
                2.228607899560555,
                -0.9164374293817072,
                0.7536476355192975,
                -3.139793869621842
            ]
        },
        {
            "positions": [
                -0.20889083195932479,
                -1.3084625187740961,
                2.2928728367693303,
                -0.9504287824503003,
                0.9096628985919055,
                -3.1266199430038624
            ]
        },
        {
            "positions": [
                -0.27523130754627956,
                -1.342258009073111,
                2.3571377739781054,
                -0.9844201355188933,
                1.0656781616645135,
                -3.113446016385882
            ]
        },
        {
            "positions": [
                -0.34157178313323433,
                -1.376053499372126,
                2.4214027111868806,
                -1.0184114885874864,
                1.2216934247371214,
                -3.1002720897679024
            ]
        }
    ]
}