{
    "goal": {
        "global_pose": {
            "orientation": {
                "w": 0.005598929693374612,
                "x": 0.007748599140229565,
                "y": 0.7110244013736278,
                "z": -0.7031023480610252
            },
            "position": {
                "x": -0.8858502320852131,
                "y": -0.7141253447532654,
                "z": 0.3711530566215515
            }
        },
        "name": "move_to_auspresseinheit_C"
    },
    "id": "SBL_move_to_auspresseinheit_C_122",
    "joint_names": [
        "shoulder_pan_joint",
        "shoulder_lift_joint",
        "elbow_joint",
        "wrist_1_joint",
        "wrist_2_joint",
        "wrist_3_joint"
    ],
    "metrics": {
        "cart_traj_len": 0.49473416672864723,
        "distance_elbow_joint": 1.0187014666096899,
        "distance_shoulder_lift_joint": 0.33375956257137385,
        "distance_shoulder_pan_joint": 0.25634614503648123,
        "distance_wrist_1_joint": 0.710706182045752,
        "distance_wrist_2_joint": 1.3203634854492903,
        "distance_wrist_3_joint": 0.08250782339501628,
        "smoothness": 9.689219124001365e-16,
        "time": 0.306543789,
        "traj_len": 1.9293482487896279,
        "weighted_distance": 2.4327905745034197
    },
    "planner": "SBL",
    "start": {
        "state": {
            "elbow_joint": 1.7527959577737207,
            "shoulder_lift_joint": -0.9740617694225068,
            "shoulder_pan_joint": -2.967991417825858,
            "wrist_1_joint": -0.759517768980727,
            "wrist_2_joint": 1.7443932448377408,
            "wrist_3_joint": -3.0840537646736568
        }
    },
    "waypoints": [
        {
            "positions": [
                -2.967991417825858,
                -0.9740617694225068,
                1.7527959577737207,
                -0.759517768980727,
                1.7443932448377408,
                -3.0840537646736568
            ]
        },
        {
            "positions": [
                -2.94235680332221,
                -0.9406858131653694,
                1.6509258111127516,
                -0.6884471507761518,
                1.6123568962928119,
                -3.0923045470131583
            ]
        },
        {
            "positions": [
                -2.9167221888185617,
                -0.907309856908232,
                1.5490556644517826,
                -0.6173765325715765,
                1.4803205477478827,
                -3.10055532935266
            ]
        },
        {
            "positions": [
                -2.8910875743149136,
                -0.8739339006510947,
                1.4471855177908137,
                -0.5463059143670014,
                1.3482841992029537,
                -3.1088061116921617
            ]
        },
        {
            "positions": [
                -2.8654529598112655,
                -0.8405579443939573,
                1.3453153711298447,
                -0.47523529616242616,
                1.2162478506580245,
                -3.117056894031663
            ]
        },
        {
            "positions": [
                -2.8398183453076173,
                -0.8071819881368199,
                1.2434452244688758,
                -0.404164677957851,
                1.0842115021130958,
                -3.1253076763711647
            ]
        },
        {
            "positions": [
                -2.814183730803969,
                -0.7738060318796824,
                1.1415750778079068,
                -0.33309405975327583,
                0.9521751535681667,
                -3.1335584587106666
            ]
        },
        {
            "positions": [
                -2.788549116300321,
                -0.740430075622545,
                1.0397049311469377,
                -0.2620234415487006,
                0.8201388050232377,
                -3.141809241050168
            ]
        },
        {
            "positions": [
                -2.762914501796673,
                -0.7070541193654076,
                0.9378347844859687,
                -0.19095282334412533,
                0.6881024564783085,
                -3.1500600233896696
            ]
        },
        {
            "positions": [
                -2.737279887293025,
                -0.6736781631082702,
                0.8359646378249997,
                -0.11988220513955017,
                0.5560661079333795,
                -3.1583108057291716
            ]
        },
        {
            "positions": [
                -2.7116452727893767,
                -0.6403022068511329,
                0.7340944911640308,
                -0.048811586934975,
                0.4240297593884505,
                -3.166561588068673
            ]
        }
    ]
}