{
    "goal": {
        "global_pose": {
            "orientation": {
                "w": 0.7031023502349854,
                "x": -0.7110244035720825,
                "y": 0.007748599164187908,
                "z": 0.005598929710686207
            },
            "position": {
                "x": 0.11585023208521307,
                "y": 0.44412534475326537,
                "z": 0.3711530566215515
            }
        },
        "name": "move_to_auspresseinheit_A"
    },
    "id": "SBL_move_to_auspresseinheit_A_71",
    "joint_names": [
        "shoulder_pan_joint",
        "shoulder_lift_joint",
        "elbow_joint",
        "wrist_1_joint",
        "wrist_2_joint",
        "wrist_3_joint"
    ],
    "metrics": {
        "cart_traj_len": 2.013246571799364,
        "distance_elbow_joint": 2.3583178843565573,
        "distance_shoulder_lift_joint": 0.7050613676453863,
        "distance_shoulder_pan_joint": 1.4660552372484013,
        "distance_wrist_1_joint": 1.807447747470471,
        "distance_wrist_2_joint": 1.187132641557762,
        "distance_wrist_3_joint": 2.7878467460033445,
        "smoothness": 0.7953497407989484,
        "time": 0.34810875799999996,
        "traj_len": 3.21120874816352,
        "weighted_distance": 4.345357926030586
    },
    "planner": "SBL",
    "start": {
        "state": {
            "elbow_joint": 2.4225746658250005,
            "shoulder_lift_joint": -1.3736534386056498,
            "shoulder_pan_joint": -0.3378633547517467,
            "wrist_1_joint": -1.0288598680537169,
            "wrist_2_joint": 1.233022673432363,
            "wrist_3_joint": -3.0940220416140027
        }
    },
    "waypoints": [
        {
            "positions": [
                -0.3378633547517467,
                -1.3736534386056498,
                2.4225746658250005,
                -1.0288598680537169,
                1.233022673432363,
                -3.0940220416140027
            ]
        },
        {
            "positions": [
                -0.29179289126066454,
                -1.4058404420440909,
                2.337240615611941,
                -0.964294671626636,
                1.1720996389550142,
                -2.9960155586273016
            ]
        },
        {
            "positions": [
                -0.24572242776958242,
                -1.438027445482532,
                2.251906565398882,
                -0.899729475199555,
                1.1111766044776654,
                -2.8980090756406
            ]
        },
        {
            "positions": [
                -0.19965196427850024,
                -1.470214448920973,
                2.1665725151858224,
                -0.8351642787724742,
                1.0502535700003166,
                -2.800002592653899
            ]
        },
        {
            "positions": [
                -0.15358150078741808,
                -1.502401452359414,
                2.0812384649727633,
                -0.7705990823453932,
                0.9893305355229679,
                -2.701996109667198
            ]
        },
        {
            "positions": [
                -0.1075110372963359,
                -1.534588455797855,
                1.9959044147597038,
                -0.7060338859183124,
                0.9284075010456191,
                -2.6039896266804963
            ]
        },
        {
            "positions": [
                -0.06144057380525375,
                -1.566775459236296,
                1.9105703645466443,
                -0.6414686894912315,
                0.8674844665682704,
                -2.505983143693795
            ]
        },
        {
            "positions": [
                -0.01537011031417157,
                -1.598962462674737,
                1.825236314333585,
                -0.5769034930641506,
                0.8065614320909216,
                -2.407976660707094
            ]
        },
        {
            "positions": [
                0.030700353176910555,
                -1.631149466113178,
                1.7399022641205257,
                -0.5123382966370696,
                0.7456383976135728,
                -2.309970177720393
            ]
        },
        {
            "positions": [
                0.07677081666799279,
                -1.663336469551619,
                1.6545682139074662,
                -0.44777310020998873,
                0.6847153631362239,
                -2.2119636947336914
            ]
        },
        {
            "positions": [
                0.12284128015907492,
                -1.6955234729900601,
                1.569234163694407,
                -0.3832079037829078,
                0.6237923286588751,
                -2.1139572117469903
            ]
        },
        {
            "positions": [
                0.1689117436501571,
                -1.7277104764285012,
                1.4839001134813476,
                -0.318642707355827,
                0.5628692941815263,
                -2.015950728760289
            ]
        },
        {
            "positions": [
                0.21498220714123922,
                -1.7598974798669422,
                1.3985660632682884,
                -0.2540775109287461,
                0.5019462597041776,
                -1.9179442457735878
            ]
        },
        {
            "positions": [
                0.26105267063232146,
                -1.7920844833053833,
                1.3132320130552289,
                -0.18951231450166517,
                0.4410232252268288,
                -1.8199377627868865
            ]
        },
        {
            "positions": [
                0.3071231341234036,
                -1.8242714867438243,
                1.2278979628421696,
                -0.12494711807458428,
                0.38010019074948,
                -1.7219312798001853
            ]
        },
        {
            "positions": [
                0.3966205242718897,
                -1.851463137675267,
                1.3080343773885739,
                -0.07701361809312265,
                0.3934351826415588,
                -1.8054901836960628
            ]
        },
        {
            "positions": [
                0.48611791442037583,
                -1.8786547886067098,
                1.3881707919349784,
                -0.02908011811166103,
                0.40677017453363756,
                -1.8890490875919401
            ]
        },
        {
            "positions": [
                0.5756153045688619,
                -1.9058464395381525,
                1.4683072064813827,
                0.018853381869800595,
                0.4201051664257164,
                -1.9726079914878176
            ]
        },
        {
            "positions": [
                0.665112694717348,
                -1.9330380904695952,
                1.548443621027787,
                0.06678688185126222,
                0.4334401583177952,
                -2.056166895383695
            ]
        },
        {
            "positions": [
                0.7546100848658341,
                -1.960229741401038,
                1.6285800355741915,
                0.11472038183272384,
                0.446775150209874,
                -2.1397257992795726
            ]
        },
        {
            "positions": [
                0.8441074750143203,
                -1.9874213923324806,
                1.7087164501205958,
                0.1626538818141855,
                0.4601101421019528,
                -2.22328470317545
            ]
        },
        {
            "positions": [
                0.8589001109901699,
                -1.9886435448548074,
                1.8329990887709848,
                0.10512690693644276,
                0.48545489624672633,
                -2.3562827696134008
            ]
        },
        {
            "positions": [
                0.8736927469660195,
                -1.9898656973771345,
                1.9572817274213739,
                0.04759993205870003,
                0.5107996503914999,
                -2.4892808360513516
            ]
        },
        {
            "positions": [
                0.8884853829418692,
                -1.9910878498994613,
                2.081564366071763,
                -0.009927042819042692,
                0.5361444045362735,
                -2.622278902489302
            ]
        },
        {
            "positions": [
                0.9032780189177188,
                -1.9923100024217884,
                2.205847004722152,
                -0.06745401769678544,
                0.5614891586810471,
                -2.755276968927253
            ]
        },
        {
            "positions": [
                0.9180706548935684,
                -1.9935321549441152,
                2.330129643372541,
                -0.12498099257452815,
                0.5868339128258206,
                -2.888275035365204
            ]
        },
        {
            "positions": [
                0.8480302456925396,
                -1.9651379378418081,
                2.3505994769869925,
                -0.2344140336458132,
                0.6293260584253334,
                -2.9714124449067065
            ]
        },
        {
            "positions": [
                0.7779898364915108,
                -1.9367437207395013,
                2.3710693106014444,
                -0.34384707471709824,
                0.6718182040248463,
                -3.0545498544482097
            ]
        },
        {
            "positions": [
                0.7079494272904819,
                -1.9083495036371942,
                2.391539144215896,
                -0.45328011578838334,
                0.714310349624359,
                -3.1376872639897124
            ]
        }
    ]
}