{
    "goal": {
        "global_pose": {
            "orientation": {
                "w": 0.7031023502349854,
                "x": -0.7110244035720825,
                "y": 0.007748599164187908,
                "z": 0.005598929710686207
            },
            "position": {
                "x": 0.11585023208521307,
                "y": 0.44412534475326537,
                "z": 0.3711530566215515
            }
        },
        "name": "move_to_auspresseinheit_A"
    },
    "id": "SBL_move_to_auspresseinheit_A_107",
    "joint_names": [
        "shoulder_pan_joint",
        "shoulder_lift_joint",
        "elbow_joint",
        "wrist_1_joint",
        "wrist_2_joint",
        "wrist_3_joint"
    ],
    "metrics": {
        "cart_traj_len": 0.689226155937068,
        "distance_elbow_joint": 0.056997539853146595,
        "distance_shoulder_lift_joint": 0.6016374436847838,
        "distance_shoulder_pan_joint": 1.044027385865554,
        "distance_wrist_1_joint": 0.9258444388292304,
        "distance_wrist_2_joint": 0.8014088542736502,
        "distance_wrist_3_joint": 0.5995952792114974,
        "smoothness": 1.339230369700029,
        "time": 0.261324343,
        "traj_len": 2.0073641776513456,
        "weighted_distance": 2.6374144143921976
    },
    "planner": "SBL",
    "start": {
        "state": {
            "elbow_joint": 2.4225746658250005,
            "shoulder_lift_joint": -1.3736534386056498,
            "shoulder_pan_joint": -0.3378633547517467,
            "wrist_1_joint": -1.0288598680537169,
            "wrist_2_joint": 1.233022673432363,
            "wrist_3_joint": -3.0940220416140027
        }
    },
    "waypoints": [
        {
            "positions": [
                -0.3378633547517467,
                -1.3736534386056498,
                2.4225746658250005,
                -1.0288598680537169,
                1.233022673432363,
                -3.0940220416140027
            ]
        },
        {
            "positions": [
                -0.238411640395429,
                -1.4368071119411048,
                2.4177358319601736,
                -0.9463742574516032,
                1.159054789563051,
                -3.0625438413596267
            ]
        },
        {
            "positions": [
                -0.1389599260391113,
                -1.49996078527656,
                2.4128969980953463,
                -0.8638886468494895,
                1.0850869056937387,
                -3.0310656411052506
            ]
        },
        {
            "positions": [
                -0.039508211682793615,
                -1.563114458612015,
                2.4080581642305194,
                -0.7814030362473758,
                1.0111190218244266,
                -2.9995874408508745
            ]
        },
        {
            "positions": [
                0.05994350267352411,
                -1.62626813194747,
                2.4032193303656926,
                -0.6989174256452622,
                0.9371511379551145,
                -2.9681092405964984
            ]
        },
        {
            "positions": [
                0.15939521702984183,
                -1.689421805282925,
                2.3983804965008653,
                -0.6164318150431485,
                0.8631832540858022,
                -2.936631040342122
            ]
        },
        {
            "positions": [
                0.2588469313861595,
                -1.7525754786183803,
                2.3935416626360384,
                -0.5339462044410349,
                0.7892153702164901,
                -2.9051528400877458
            ]
        },
        {
            "positions": [
                0.3582986457424772,
                -1.8157291519538352,
                2.3887028287712115,
                -0.45146059383892123,
                0.7152474863471779,
                -2.8736746398333697
            ]
        },
        {
            "positions": [
                0.45775036009879494,
                -1.8788828252892902,
                2.3838639949063842,
                -0.36897498323680755,
                0.6412796024778659,
                -2.8421964395789936
            ]
        },
        {
            "positions": [
                0.5572020744551127,
                -1.9420364986247454,
                2.3790251610415574,
                -0.2864893726346939,
                0.5673117186085537,
                -2.8107182393246175
            ]
        },
        {
            "positions": [
                0.606856060008011,
                -1.9309517040695159,
                2.383507839398125,
                -0.34764735377142963,
                0.6125443517585006,
                -2.916148731631988
            ]
        },
        {
            "positions": [
                0.6565100455609092,
                -1.9198669095142866,
                2.387990517754693,
                -0.4088053349081654,
                0.6577769849084475,
                -3.021579223939359
            ]
        },
        {
            "positions": [
                0.7061640311138074,
                -1.9087821149590571,
                2.392473196111261,
                -0.4699633160449012,
                0.7030096180583945,
                -3.1270097162467296
            ]
        }
    ]
}