{
    "goal": {
        "global_pose": {
            "orientation": {
                "w": 0.7047431493862688,
                "x": -0.7094548369677653,
                "y": 0.0024358444001904,
                "z": -0.0022348060817251984
            },
            "position": {
                "x": -0.39052492380142206,
                "y": 0.3671506643295288,
                "z": 0.19426114857196808
            }
        },
        "name": "move_to_magneteinheit_D"
    },
    "id": "SBL_move_to_magneteinheit_D_127",
    "joint_names": [
        "shoulder_pan_joint",
        "shoulder_lift_joint",
        "elbow_joint",
        "wrist_1_joint",
        "wrist_2_joint",
        "wrist_3_joint"
    ],
    "metrics": {
        "cart_traj_len": 4.280135807750085,
        "distance_elbow_joint": 3.402891020520639,
        "distance_shoulder_lift_joint": 1.7282183564647269,
        "distance_shoulder_pan_joint": 3.2572063717104522,
        "distance_wrist_1_joint": 1.5307699058768263,
        "distance_wrist_2_joint": 1.3454902640197757,
        "distance_wrist_3_joint": 3.236261406788577,
        "smoothness": 0.5340802188234745,
        "time": 0.260442424,
        "traj_len": 3.807996497553667,
        "weighted_distance": 4.8836073049391215
    },
    "planner": "SBL",
    "start": {
        "state": {
            "elbow_joint": 0.749534889911806,
            "shoulder_lift_joint": -0.6476975780787326,
            "shoulder_pan_joint": -2.711696901376241,
            "wrist_1_joint": -0.07506478083263063,
            "wrist_2_joint": 0.43296659715538205,
            "wrist_3_joint": -3.14703540197715
        }
    },
    "waypoints": [
        {
            "positions": [
                -2.711696901376241,
                -0.6476975780787326,
                0.749534889911806,
                -0.07506478083263063,
                0.43296659715538205,
                -3.14703540197715
            ]
        },
        {
            "positions": [
                -2.7295335180533,
                -0.7117723633692773,
                0.7689002563559917,
                0.11297190827885889,
                0.37635112755476885,
                -3.1097953286208706
            ]
        },
        {
            "positions": [
                -2.7473701347303585,
                -0.775847148659822,
                0.7882656228001773,
                0.3010085973903484,
                0.3197356579541556,
                -3.072555255264591
            ]
        },
        {
            "positions": [
                -2.7652067514074172,
                -0.8399219339503666,
                0.807630989244363,
                0.48904528650183793,
                0.26312018835354245,
                -3.035315181908312
            ]
        },
        {
            "positions": [
                -2.783043368084476,
                -0.9039967192409113,
                0.8269963556885487,
                0.6770819756133275,
                0.2065047187529292,
                -2.9980751085520327
            ]
        },
        {
            "positions": [
                -2.8008799847615347,
                -0.968071504531456,
                0.8463617221327344,
                0.865118664724817,
                0.149889249152316,
                -2.9608350351957533
            ]
        },
        {
            "positions": [
                -2.7364737307453306,
                -1.0148401650254677,
                0.8436256558285222,
                0.8665067238407799,
                0.08293528633211907,
                -2.821639164291545
            ]
        },
        {
            "positions": [
                -2.6720674767291266,
                -1.0616088255194795,
                0.8408895895243101,
                0.8678947829567427,
                0.015981323511922135,
                -2.6824432933873363
            ]
        },
        {
            "positions": [
                -2.607661222712922,
                -1.1083774860134912,
                0.8381535232200981,
                0.8692828420727055,
                -0.05097263930827478,
                -2.5432474224831276
            ]
        },
        {
            "positions": [
                -2.543254968696718,
                -1.155146146507503,
                0.8354174569158859,
                0.8706709011886683,
                -0.11792660212847171,
                -2.4040515515789194
            ]
        },
        {
            "positions": [
                -2.4373352276654225,
                -1.197947749486724,
                0.7234191985103514,
                0.8761767902847122,
                -0.10301301003574884,
                -2.302298894729697
            ]
        },
        {
            "positions": [
                -2.331415486634127,
                -1.2407493524659445,
                0.611420940104817,
                0.881682679380756,
                -0.08809941794302595,
                -2.200546237880475
            ]
        },
        {
            "positions": [
                -2.2254957456028315,
                -1.2835509554451654,
                0.49942268169928244,
                0.8871885684767998,
                -0.07318582585030306,
                -2.098793581031253
            ]
        },
        {
            "positions": [
                -2.1195760045715364,
                -1.3263525584243863,
                0.387424423293748,
                0.8926944575728437,
                -0.058272233757580186,
                -1.9970409241820306
            ]
        },
        {
            "positions": [
                -2.013656263540241,
                -1.3691541614036071,
                0.2754261648882135,
                0.8982003466688875,
                -0.0433586416648573,
                -1.8952882673328084
            ]
        },
        {
            "positions": [
                -1.9077365225089453,
                -1.411955764382828,
                0.16342790648267902,
                0.9037062357649314,
                -0.028445049572134423,
                -1.7935356104835862
            ]
        },
        {
            "positions": [
                -1.8018167814776498,
                -1.4547573673620486,
                0.05142964807714456,
                0.9092121248609752,
                -0.013531457479411535,
                -1.6917829536343638
            ]
        },
        {
            "positions": [
                -1.6958970404463545,
                -1.4975589703412695,
                -0.060568610328389894,
                0.914718013957019,
                0.0013821346133113394,
                -1.5900302967851419
            ]
        },
        {
            "positions": [
                -1.589977299415059,
                -1.5403605733204904,
                -0.17256686873392435,
                0.9202239030530629,
                0.016295726706034228,
                -1.4882776399359194
            ]
        },
        {
            "positions": [
                -1.4840575583837636,
                -1.583162176299711,
                -0.2845651271394589,
                0.9257297921491068,
                0.031209318798757116,
                -1.3865249830866975
            ]
        },
        {
            "positions": [
                -1.378137817352468,
                -1.6259637792789319,
                -0.39656338554499326,
                0.9312356812451505,
                0.046122910891480004,
                -1.284772326237475
            ]
        },
        {
            "positions": [
                -1.2722180763211726,
                -1.6687653822581527,
                -0.5085616439505278,
                0.9367415703411944,
                0.061036502984202864,
                -1.183019669388253
            ]
        },
        {
            "positions": [
                -1.1662983352898773,
                -1.7115669852373734,
                -0.6205599023560622,
                0.9422474594372382,
                0.07595009507692575,
                -1.081267012539031
            ]
        },
        {
            "positions": [
                -1.0603785942585815,
                -1.7543685882165945,
                -0.7325581607615967,
                0.9477533485332821,
                0.09086368716964864,
                -0.9795143556898085
            ]
        },
        {
            "positions": [
                -0.9544588532272862,
                -1.7971701911958151,
                -0.8445564191671313,
                0.953259237629326,
                0.10577727926237153,
                -0.8777616988405863
            ]
        },
        {
            "positions": [
                -0.8485391121959909,
                -1.8399717941750358,
                -0.9565546775726657,
                0.9587651267253697,
                0.12069087135509439,
                -0.7760090419913643
            ]
        },
        {
            "positions": [
                -0.7426193711646953,
                -1.8827733971542568,
                -1.0685529359782,
                0.9642710158214136,
                0.13560446344781724,
                -0.6742563851421421
            ]
        },
        {
            "positions": [
                -0.6366996301333998,
                -1.9255750001334775,
                -1.1805511943837346,
                0.9697769049174575,
                0.15051805554054015,
                -0.5725037282929197
            ]
        },
        {
            "positions": [
                -0.5307798891021043,
                -1.9683766031126984,
                -1.2925494527892691,
                0.9752827940135013,
                0.165431647633263,
                -0.47075107144369754
            ]
        },
        {
            "positions": [
                -0.4248601480708092,
                -2.011178206091919,
                -1.4045477111948037,
                0.9807886831095451,
                0.18034523972598593,
                -0.3689984145944756
            ]
        },
        {
            "positions": [
                -0.31894040703951365,
                -2.05397980907114,
                -1.5165459696003378,
                0.986294572205589,
                0.1952588318187088,
                -0.26724575774525317
            ]
        },
        {
            "positions": [
                -0.21302066600821812,
                -2.096781412050361,
                -1.6285442280058724,
                0.9918004613016328,
                0.2101724239114317,
                -0.16549310089603075
            ]
        },
        {
            "positions": [
                -0.10710092497692253,
                -2.1395830150295816,
                -1.7405424864114072,
                0.9973063503976767,
                0.22508601600415457,
                -0.06374044404680894
            ]
        },
        {
            "positions": [
                -0.05783857689625121,
                -2.1817142307259125,
                -1.8851887593059988,
                1.075511460544673,
                0.2758830987650905,
                -0.06710890194068289
            ]
        },
        {
            "positions": [
                -0.008576228815579887,
                -2.2238454464222435,
                -2.029835032200591,
                1.1537165706916692,
                0.3266801815260264,
                -0.07047735983455683
            ]
        },
        {
            "positions": [
                0.04068611926509144,
                -2.2659766621185744,
                -2.1744813050951826,
                1.2319216808386653,
                0.3774772642869623,
                -0.07384581772843077
            ]
        },
        {
            "positions": [
                0.08994846734576276,
                -2.3081078778149053,
                -2.319127577989774,
                1.3101267909856615,
                0.42827434704789824,
                -0.07721427562230472
            ]
        },
        {
            "positions": [
                -0.006931147143428323,
                -2.283026797083383,
                -2.3022001142605495,
                1.329223423184467,
                0.32904064257485044,
                -0.008325235474124615
            ]
        },
        {
            "positions": [
                -0.10381076163261939,
                -2.25794571635186,
                -2.2852726505313252,
                1.3483200553832726,
                0.2298069381018027,
                0.06056380467405549
            ]
        },
        {
            "positions": [
                -0.18724636887209772,
                -2.2755916116173687,
                -2.391992611250078,
                1.4557051250441964,
                0.17987823148834683,
                0.062278341660434
            ]
        }
    ]
}