{
    "goal": {
        "global_pose": {
            "orientation": {
                "w": 0.7031023502349854,
                "x": -0.7110244035720825,
                "y": 0.007748599164187908,
                "z": 0.005598929710686207
            },
            "position": {
                "x": 0.11585023208521307,
                "y": 0.44412534475326537,
                "z": 0.3711530566215515
            }
        },
        "name": "move_to_auspresseinheit_A"
    },
    "id": "SBL_move_to_auspresseinheit_A_8",
    "joint_names": [
        "shoulder_pan_joint",
        "shoulder_lift_joint",
        "elbow_joint",
        "wrist_1_joint",
        "wrist_2_joint",
        "wrist_3_joint"
    ],
    "metrics": {
        "cart_traj_len": 0.6810552874614105,
        "distance_elbow_joint": 0.2447357775991268,
        "distance_shoulder_lift_joint": 0.595502628803783,
        "distance_shoulder_pan_joint": 1.0428388925694438,
        "distance_wrist_1_joint": 1.0772619766488476,
        "distance_wrist_2_joint": 2.745816348089547,
        "distance_wrist_3_joint": 2.861992907801896,
        "smoothness": 1.0114448254839457,
        "time": 0.192700198,
        "traj_len": 2.9271399917859484,
        "weighted_distance": 4.256196972868482
    },
    "planner": "SBL",
    "start": {
        "state": {
            "elbow_joint": 2.4225746658250005,
            "shoulder_lift_joint": -1.3736534386056498,
            "shoulder_pan_joint": -0.3378633547517467,
            "wrist_1_joint": -1.0288598680537169,
            "wrist_2_joint": 1.233022673432363,
            "wrist_3_joint": -3.0940220416140027
        }
    },
    "waypoints": [
        {
            "positions": [
                -0.3378633547517467,
                -1.3736534386056498,
                2.4225746658250005,
                -1.0288598680537169,
                1.233022673432363,
                -3.0940220416140027
            ]
        },
        {
            "positions": [
                -0.31753406638801657,
                -1.4248816855218402,
                2.4322709948907506,
                -1.0516953958069846,
                1.0841675431788247,
                -2.9659023312535373
            ]
        },
        {
            "positions": [
                -0.29720477802428646,
                -1.4761099324380307,
                2.4419673239565007,
                -1.0745309235602523,
                0.9353124129252864,
                -2.8377826208930714
            ]
        },
        {
            "positions": [
                -0.2768754896605563,
                -1.5273381793542211,
                2.451663653022251,
                -1.09736645131352,
                0.7864572826717482,
                -2.709662910532606
            ]
        },
        {
            "positions": [
                -0.2565462012968262,
                -1.5785664262704115,
                2.461359982088001,
                -1.1202019790667879,
                0.6376021524182098,
                -2.58154320017214
            ]
        },
        {
            "positions": [
                -0.23621691293309605,
                -1.629794673186602,
                2.471056311153751,
                -1.1430375068200556,
                0.4887470221646716,
                -2.4534234898116747
            ]
        },
        {
            "positions": [
                -0.21588762456936594,
                -1.6810229201027922,
                2.4807526402195013,
                -1.1658730345733233,
                0.33989189191113334,
                -2.3253037794512093
            ]
        },
        {
            "positions": [
                -0.19555833620563579,
                -1.7322511670189826,
                2.4904489692852514,
                -1.188708562326591,
                0.19103676165759498,
                -2.1971840690907434
            ]
        },
        {
            "positions": [
                -0.17522904784190566,
                -1.783479413935173,
                2.5001452983510015,
                -1.2115440900798586,
                0.04218163140405662,
                -2.0690643587302775
            ]
        },
        {
            "positions": [
                -0.15489975947817552,
                -1.8347076608513635,
                2.5098416274167517,
                -1.2343796178331266,
                -0.10667349884948174,
                -1.940944648369812
            ]
        },
        {
            "positions": [
                -0.1345704711144454,
                -1.885935907767554,
                2.519537956482502,
                -1.2572151455863942,
                -0.2555286291030199,
                -1.8128249380093466
            ]
        },
        {
            "positions": [
                -0.11424118275071526,
                -1.9371641546837444,
                2.529234285548252,
                -1.280050673339662,
                -0.40438375935655824,
                -1.684705227648881
            ]
        },
        {
            "positions": [
                -0.04597312270334758,
                -1.9344981619566037,
                2.5177279390585956,
                -1.2112114090594202,
                -0.3120162664148395,
                -1.8057615688019455
            ]
        },
        {
            "positions": [
                0.022294937344020105,
                -1.9318321692294629,
                2.5062215925689393,
                -1.1423721447791781,
                -0.21964877347312067,
                -1.92681790995501
            ]
        },
        {
            "positions": [
                0.09056299739138779,
                -1.9291661765023222,
                2.494715246079283,
                -1.0735328804989364,
                -0.12728128053140186,
                -2.0478742511080745
            ]
        },
        {
            "positions": [
                0.15883105743875547,
                -1.9265001837751816,
                2.4832088995896267,
                -1.0046936162186944,
                -0.03491378758968311,
                -2.1689305922611393
            ]
        },
        {
            "positions": [
                0.22709911748612316,
                -1.9238341910480408,
                2.4717025530999703,
                -0.9358543519384526,
                0.057453705352035755,
                -2.2899869334142036
            ]
        },
        {
            "positions": [
                0.29536717753349084,
                -1.9211681983209001,
                2.4601962066103145,
                -0.8670150876582107,
                0.1498211982937545,
                -2.4110432745672683
            ]
        },
        {
            "positions": [
                0.3636352375808586,
                -1.9185022055937595,
                2.448689860120658,
                -0.7981758233779688,
                0.24218869123547337,
                -2.532099615720333
            ]
        },
        {
            "positions": [
                0.4319032976282262,
                -1.9158362128666186,
                2.437183513631002,
                -0.729336559097727,
                0.334556184177192,
                -2.6531559568733973
            ]
        },
        {
            "positions": [
                0.500171357675594,
                -1.913170220139478,
                2.4256771671413455,
                -0.660497294817485,
                0.4269236771189109,
                -2.7742122980264616
            ]
        },
        {
            "positions": [
                0.5684394177229616,
                -1.9105042274123374,
                2.414170820651689,
                -0.5916580305372431,
                0.5192911700606297,
                -2.8952686391795264
            ]
        },
        {
            "positions": [
                0.6367074777703292,
                -1.9078382346851965,
                2.402664474162033,
                -0.5228187662570013,
                0.6116586630023484,
                -3.016324980332591
            ]
        },
        {
            "positions": [
                0.704975537817697,
                -1.905172241958056,
                2.3911581276723766,
                -0.4539795019767594,
                0.7040261559440671,
                -3.1373813214856554
            ]
        }
    ]
}