{
    "goal": {
        "global_pose": {
            "orientation": {
                "w": 0.5084816262002911,
                "x": -0.4908360881923452,
                "y": 0.5182115481033761,
                "z": -0.48164630358495003
            },
            "position": {
                "x": 0.5540239810943604,
                "y": -0.46912469901144505,
                "z": 0.16403168439865112
            }
        },
        "name": "move_to_storage_B"
    },
    "id": "SBL_move_to_storage_B_104",
    "joint_names": [
        "shoulder_pan_joint",
        "shoulder_lift_joint",
        "elbow_joint",
        "wrist_1_joint",
        "wrist_2_joint",
        "wrist_3_joint"
    ],
    "metrics": {
        "cart_traj_len": 5.109448968561191,
        "distance_elbow_joint": 3.684191868481647,
        "distance_shoulder_lift_joint": 1.3583080488553951,
        "distance_shoulder_pan_joint": 4.731588452703798,
        "distance_wrist_1_joint": 2.0420876514498887,
        "distance_wrist_2_joint": 0.8104797109679942,
        "distance_wrist_3_joint": 3.129136880908644,
        "smoothness": 0.2357313809400592,
        "time": 0.344856179,
        "traj_len": 3.969356700193038,
        "weighted_distance": 4.986645539598993
    },
    "planner": "SBL",
    "start": {
        "state": {
            "elbow_joint": -1.6666013991110213,
            "shoulder_lift_joint": -2.479295265494141,
            "shoulder_pan_joint": 2.6606783912885628,
            "wrist_1_joint": 0.9897123657714939,
            "wrist_2_joint": 0.474351758749468,
            "wrist_3_joint": 0.013243222496468381
        }
    },
    "waypoints": [
        {
            "positions": [
                2.6606783912885628,
                -2.479295265494141,
                -1.6666013991110213,
                0.9897123657714939,
                0.474351758749468,
                0.013243222496468381
            ]
        },
        {
            "positions": [
                2.7419798342643125,
                -2.3951162805362074,
                -1.581184162528057,
                1.0069585171045115,
                0.5416072664113972,
                0.04099687564250457
            ]
        },
        {
            "positions": [
                2.823281277240062,
                -2.3109372955782743,
                -1.4957669259450923,
                1.0242046684375288,
                0.6088627740733263,
                0.06875052878854077
            ]
        },
        {
            "positions": [
                2.904582720215812,
                -2.226758310620341,
                -1.410349689362128,
                1.0414508197705463,
                0.6761182817352556,
                0.09650418193457697
            ]
        },
        {
            "positions": [
                2.9858841631915616,
                -2.1425793256624077,
                -1.3249324527791635,
                1.0586969711035639,
                0.7433737893971848,
                0.12425783508061315
            ]
        },
        {
            "positions": [
                3.0671856061673113,
                -2.058400340704474,
                -1.2395152161961989,
                1.0759431224365812,
                0.810629297059114,
                0.15201148822664937
            ]
        },
        {
            "positions": [
                3.148487049143061,
                -1.974221355746541,
                -1.1540979796132345,
                1.0931892737695987,
                0.8778848047210431,
                0.17976514137268557
            ]
        },
        {
            "positions": [
                3.0272361978616527,
                -1.9498432374863182,
                -1.063478309642267,
                1.0378003953852621,
                0.8662577571497169,
                0.2644112831450406
            ]
        },
        {
            "positions": [
                2.905985346580244,
                -1.9254651192260954,
                -0.9728586396712996,
                0.9824115170009253,
                0.8546307095783906,
                0.34905742491739566
            ]
        },
        {
            "positions": [
                2.784734495298835,
                -1.9010870009658727,
                -0.8822389697003322,
                0.9270226386165887,
                0.8430036620070643,
                0.43370356668975074
            ]
        },
        {
            "positions": [
                2.6634836440174268,
                -1.87670888270565,
                -0.7916192997293647,
                0.871633760232252,
                0.8313766144357381,
                0.5183497084621058
            ]
        },
        {
            "positions": [
                2.5422327927360184,
                -1.8523307644454272,
                -0.7009996297583974,
                0.8162448818479153,
                0.8197495668644118,
                0.6029958502344608
            ]
        },
        {
            "positions": [
                2.4209819414546097,
                -1.8279526461852047,
                -0.61037995978743,
                0.7608560034635786,
                0.8081225192930855,
                0.687641992006816
            ]
        },
        {
            "positions": [
                2.299731090173201,
                -1.8035745279249817,
                -0.5197602898164625,
                0.7054671250792419,
                0.7964954717217593,
                0.7722881337791709
            ]
        },
        {
            "positions": [
                2.1784802388917925,
                -1.7791964096647592,
                -0.4291406198454951,
                0.6500782466949053,
                0.7848684241504331,
                0.8569342755515259
            ]
        },
        {
            "positions": [
                2.057229387610384,
                -1.7548182914045365,
                -0.33852094987452785,
                0.5946893683105686,
                0.7732413765791069,
                0.9415804173238811
            ]
        },
        {
            "positions": [
                1.9359785363289757,
                -1.7304401731443138,
                -0.24790127990356037,
                0.5393004899262319,
                0.7616143290077806,
                1.026226559096236
            ]
        },
        {
            "positions": [
                1.8147276850475669,
                -1.706062054884091,
                -0.15728160993259288,
                0.4839116115418952,
                0.7499872814364543,
                1.1108727008685912
            ]
        },
        {
            "positions": [
                1.6934768337661583,
                -1.6816839366238683,
                -0.0666619399616255,
                0.4285227331575585,
                0.7383602338651281,
                1.1955188426409462
            ]
        },
        {
            "positions": [
                1.5722259824847498,
                -1.6573058183636455,
                0.02395773000934187,
                0.3731338547732218,
                0.7267331862938018,
                1.2801649844133012
            ]
        },
        {
            "positions": [
                1.4509751312033412,
                -1.6329277001034228,
                0.11457739998030947,
                0.3177449763888851,
                0.7151061387224755,
                1.3648111261856564
            ]
        },
        {
            "positions": [
                1.3297242799219329,
                -1.6085495818432003,
                0.20519706995127662,
                0.2623560980045485,
                0.7034790911511493,
                1.4494572679580113
            ]
        },
        {
            "positions": [
                1.2084734286405243,
                -1.5841714635829773,
                0.2958167399222442,
                0.2069672196202118,
                0.691852043579823,
                1.5341034097303663
            ]
        },
        {
            "positions": [
                1.0872225773591158,
                -1.5597933453227548,
                0.3864364098932116,
                0.1515783412358751,
                0.6802249960084967,
                1.6187495515027215
            ]
        },
        {
            "positions": [
                0.9659717260777074,
                -1.535415227062532,
                0.47705607986417875,
                0.09618946285153851,
                0.6685979484371705,
                1.7033956932750765
            ]
        },
        {
            "positions": [
                0.8447208747962986,
                -1.5110371088023093,
                0.5676757498351463,
                0.04080058446720192,
                0.6569709008658442,
                1.7880418350474314
            ]
        },
        {
            "positions": [
                0.7234700235148903,
                -1.4866589905420866,
                0.6582954198061137,
                -0.014588293917134898,
                0.6453438532945179,
                1.8726879768197866
            ]
        },
        {
            "positions": [
                0.6022191722334815,
                -1.4622808722818639,
                0.7489150897770811,
                -0.06997717230147149,
                0.6337168057231917,
                1.9573341185921416
            ]
        },
        {
            "positions": [
                0.48096832095207276,
                -1.4379027540216411,
                0.8395347597480487,
                -0.1253660506858083,
                0.6220897581518654,
                2.0419802603644968
            ]
        },
        {
            "positions": [
                0.3597174696706644,
                -1.4135246357614184,
                0.9301544297190161,
                -0.1807549290701449,
                0.6104627105805391,
                2.1266264021368517
            ]
        },
        {
            "positions": [
                0.23846661838925565,
                -1.3891465175011957,
                1.0207740996899834,
                -0.2361438074544817,
                0.5988356630092129,
                2.211272543909207
            ]
        },
        {
            "positions": [
                0.11721576710784731,
                -1.364768399240973,
                1.1113937696609508,
                -0.2915326858388183,
                0.5872086154378866,
                2.295918685681562
            ]
        },
        {
            "positions": [
                -0.004035084173561465,
                -1.3403902809807502,
                1.2020134396319182,
                -0.3469215642231551,
                0.5755815678665603,
                2.380564827453917
            ]
        },
        {
            "positions": [
                -0.1252859354549698,
                -1.3160121627205275,
                1.292633109602886,
                -0.4023104426074917,
                0.5639545202952341,
                2.4652109692262725
            ]
        },
        {
            "positions": [
                -0.24653678673637858,
                -1.2916340444603047,
                1.3832527795738534,
                -0.45769932099182853,
                0.5523274727239078,
                2.5498571109986274
            ]
        },
        {
            "positions": [
                -0.36778763801778735,
                -1.267255926200082,
                1.4738724495448208,
                -0.5130881993761651,
                0.5407004251525815,
                2.6345032527709824
            ]
        },
        {
            "positions": [
                -0.48903848929919524,
                -1.2428778079398595,
                1.5644921195157877,
                -0.5684770777605017,
                0.5290733775812554,
                2.7191493945433374
            ]
        },
        {
            "positions": [
                -0.610289340580604,
                -1.2184996896796367,
                1.655111789486755,
                -0.6238659561448383,
                0.5174463300099291,
                2.8037955363156923
            ]
        },
        {
            "positions": [
                -0.7315401918620124,
                -1.194121571419414,
                1.745731459457723,
                -0.6792548345291751,
                0.5058192824386029,
                2.8884416780880473
            ]
        },
        {
            "positions": [
                -0.8527910431434207,
                -1.1697434531591913,
                1.8363511294286903,
                -0.7346437129135117,
                0.4941922348672766,
                2.9730878198604023
            ]
        },
        {
            "positions": [
                -0.9740418944248295,
                -1.1453653348989685,
                1.9269707993996577,
                -0.7900325912978485,
                0.4825651872959503,
                3.0577339616327577
            ]
        },
        {
            "positions": [
                -1.0952927457062382,
                -1.1209872166387458,
                2.017590469370625,
                -0.8454214696821851,
                0.47093813972462406,
                3.1423801034051126
            ]
        }
    ]
}