{
    "goal": {
        "global_pose": {
            "orientation": {
                "w": -0.4816463035849501,
                "x": 0.5182115481033762,
                "y": 0.4908360881923453,
                "z": -0.5084816262002911
            },
            "position": {
                "x": -0.8240239810943604,
                "y": -0.300875300988555,
                "z": 0.16403168439865112
            }
        },
        "name": "move_to_storage_C"
    },
    "id": "SBL_move_to_storage_C_19",
    "joint_names": [
        "shoulder_pan_joint",
        "shoulder_lift_joint",
        "elbow_joint",
        "wrist_1_joint",
        "wrist_2_joint",
        "wrist_3_joint"
    ],
    "metrics": {
        "cart_traj_len": 0.5766814380511817,
        "distance_elbow_joint": 0.26097028349251206,
        "distance_shoulder_lift_joint": 0.18902052822560655,
        "distance_shoulder_pan_joint": 0.4941786645929733,
        "distance_wrist_1_joint": 0.09020962840163893,
        "distance_wrist_2_joint": 1.0723388490484247,
        "distance_wrist_3_joint": 0.06197374520919219,
        "smoothness": 0.0,
        "time": 0.14975074700000002,
        "traj_len": 1.4726478530084333,
        "weighted_distance": 1.858813510505773
    },
    "planner": "SBL",
    "start": {
        "state": {
            "elbow_joint": 2.010868314990456,
            "shoulder_lift_joint": -1.1634956873337592,
            "shoulder_pan_joint": -2.4736205022346125,
            "wrist_1_joint": -0.8367026794202681,
            "wrist_2_joint": 0.6746043897044499,
            "wrist_3_joint": -3.1496632123970403
        }
    },
    "waypoints": [
        {
            "positions": [
                -2.4736205022346125,
                -1.1634956873337592,
                2.010868314990456,
                -0.8367026794202681,
                0.6746043897044499,
                -3.1496632123970403
            ]
        },
        {
            "positions": [
                -2.555983613000108,
                -1.1319922659628248,
                1.9673732677417037,
                -0.8216677413533283,
                0.8533275312125207,
                -3.1393342548621748
            ]
        },
        {
            "positions": [
                -2.6383467237656038,
                -1.1004888445918903,
                1.9238782204929519,
                -0.8066328032863884,
                1.0320506727205916,
                -3.1290052973273097
            ]
        },
        {
            "positions": [
                -2.720709834531099,
                -1.068985423220956,
                1.8803831732441998,
                -0.7915978652194486,
                1.2107738142286624,
                -3.118676339792444
            ]
        },
        {
            "positions": [
                -2.8030729452965946,
                -1.0374820018500215,
                1.8368881259954477,
                -0.7765629271525089,
                1.3894969557367332,
                -3.1083473822575787
            ]
        },
        {
            "positions": [
                -2.8854360560620904,
                -1.005978580479087,
                1.7933930787466958,
                -0.761527989085569,
                1.568220097244804,
                -3.0980184247227136
            ]
        },
        {
            "positions": [
                -2.967799166827586,
                -0.9744751591081526,
                1.7498980314979438,
                -0.7464930510186292,
                1.7469432387528745,
                -3.087689467187848
            ]
        }
    ]
}