{
    "goal": {
        "global_pose": {
            "orientation": {
                "w": 0.7031023502349854,
                "x": -0.7110244035720825,
                "y": 0.007748599164187908,
                "z": 0.005598929710686207
            },
            "position": {
                "x": 0.11585023208521307,
                "y": 0.44412534475326537,
                "z": 0.3711530566215515
            }
        },
        "name": "move_to_auspresseinheit_A"
    },
    "id": "SBL_move_to_auspresseinheit_A_92",
    "joint_names": [
        "shoulder_pan_joint",
        "shoulder_lift_joint",
        "elbow_joint",
        "wrist_1_joint",
        "wrist_2_joint",
        "wrist_3_joint"
    ],
    "metrics": {
        "cart_traj_len": 0.7419165087968609,
        "distance_elbow_joint": 0.15500522852228427,
        "distance_shoulder_lift_joint": 0.5332044733001648,
        "distance_shoulder_pan_joint": 1.040944990673304,
        "distance_wrist_1_joint": 0.560899092327835,
        "distance_wrist_2_joint": 0.5788866490407562,
        "distance_wrist_3_joint": 0.7592741369683536,
        "smoothness": 0.5427303411500446,
        "time": 0.360002477,
        "traj_len": 1.9047872770555503,
        "weighted_distance": 2.507299061966481
    },
    "planner": "SBL",
    "start": {
        "state": {
            "elbow_joint": 2.4225746658250005,
            "shoulder_lift_joint": -1.3736534386056498,
            "shoulder_pan_joint": -0.3378633547517467,
            "wrist_1_joint": -1.0288598680537169,
            "wrist_2_joint": 1.233022673432363,
            "wrist_3_joint": -3.0940220416140027
        }
    },
    "waypoints": [
        {
            "positions": [
                -0.3378633547517467,
                -1.3736534386056498,
                2.4225746658250005,
                -1.0288598680537169,
                1.233022673432363,
                -3.0940220416140027
            ]
        },
        {
            "positions": [
                -0.26038036455449703,
                -1.4486735878987296,
                2.4093674782730012,
                -0.9830761613761737,
                1.1534972406279969,
                -3.042784894000033
            ]
        },
        {
            "positions": [
                -0.18289737435724732,
                -1.5236937371918096,
                2.3961602907210025,
                -0.9372924546986307,
                1.0739718078236307,
                -2.9915477463860634
            ]
        },
        {
            "positions": [
                -0.10541438415999763,
                -1.5987138864848893,
                2.382953103169003,
                -0.8915087480210875,
                0.9944463750192645,
                -2.9403105987720934
            ]
        },
        {
            "positions": [
                -0.027931393962747908,
                -1.673734035777969,
                2.369745915617004,
                -0.8457250413435444,
                0.9149209422148983,
                -2.889073451158124
            ]
        },
        {
            "positions": [
                0.04955159623450184,
                -1.748754185071049,
                2.3565387280650048,
                -0.7999413346660013,
                0.8353955094105321,
                -2.837836303544154
            ]
        },
        {
            "positions": [
                0.12703458643175147,
                -1.8237743343641286,
                2.343331540513006,
                -0.7541576279884581,
                0.7558700766061659,
                -2.7865991559301846
            ]
        },
        {
            "positions": [
                0.20451757662900116,
                -1.8987944836572086,
                2.3301243529610067,
                -0.708373921310915,
                0.6763446438017997,
                -2.7353620083162147
            ]
        },
        {
            "positions": [
                0.36193541767089144,
                -1.9014091156681683,
                2.3500936339858502,
                -0.6325087480939171,
                0.6835625705355574,
                -2.862081212407458
            ]
        },
        {
            "positions": [
                0.5193532587127818,
                -1.9040237476791277,
                2.3700629150106933,
                -0.5566435748769193,
                0.6907804972693151,
                -2.988800416498701
            ]
        },
        {
            "positions": [
                0.6767710997546721,
                -1.9066383796900874,
                2.390032196035537,
                -0.48077840165992136,
                0.6979984240030728,
                -3.1155196205899447
            ]
        },
        {
            "positions": [
                0.7030816359215571,
                -1.9068579119058147,
                2.3926792686192973,
                -0.4679607757258819,
                0.6985532632119925,
                -3.13597611198678
            ]
        }
    ]
}