{
    "goal": {
        "global_pose": {
            "orientation": {
                "w": 0.5084816262002911,
                "x": -0.4908360881923452,
                "y": 0.5182115481033761,
                "z": -0.48164630358495003
            },
            "position": {
                "x": 0.5540239810943604,
                "y": -0.46912469901144505,
                "z": 0.16403168439865112
            }
        },
        "name": "move_to_storage_B"
    },
    "id": "SBL_move_to_storage_B_133",
    "joint_names": [
        "shoulder_pan_joint",
        "shoulder_lift_joint",
        "elbow_joint",
        "wrist_1_joint",
        "wrist_2_joint",
        "wrist_3_joint"
    ],
    "metrics": {
        "cart_traj_len": 5.217627561189799,
        "distance_elbow_joint": 3.68368011589288,
        "distance_shoulder_lift_joint": 1.3568315943782834,
        "distance_shoulder_pan_joint": 4.0427563593808316,
        "distance_wrist_1_joint": 2.657793481632286,
        "distance_wrist_2_joint": 2.1875921325252277,
        "distance_wrist_3_joint": 5.428130619581413,
        "smoothness": 0.15893633725648984,
        "time": 0.507350662,
        "traj_len": 4.399634564755456,
        "weighted_distance": 5.921016057798802
    },
    "planner": "SBL",
    "start": {
        "state": {
            "elbow_joint": -1.6666013991110213,
            "shoulder_lift_joint": -2.479295265494141,
            "shoulder_pan_joint": 2.6606783912885628,
            "wrist_1_joint": 0.9897123657714939,
            "wrist_2_joint": 0.474351758749468,
            "wrist_3_joint": 0.013243222496468381
        }
    },
    "waypoints": [
        {
            "positions": [
                2.6606783912885628,
                -2.479295265494141,
                -1.6666013991110213,
                0.9897123657714939,
                0.474351758749468,
                0.013243222496468381
            ]
        },
        {
            "positions": [
                2.689349995045422,
                -2.4758576336266764,
                -1.645545753830757,
                0.8605905711001911,
                0.3660173620741167,
                0.06694645695875236
            ]
        },
        {
            "positions": [
                2.718021598802281,
                -2.472420001759212,
                -1.6244901085504926,
                0.7314687764288882,
                0.25768296539876545,
                0.12064969142103633
            ]
        },
        {
            "positions": [
                2.74669320255914,
                -2.468982369891748,
                -1.6034344632702284,
                0.6023469817575854,
                0.14934856872341418,
                0.17435292588332033
            ]
        },
        {
            "positions": [
                2.775364806315999,
                -2.4655447380242834,
                -1.582378817989964,
                0.4732251870862825,
                0.0410141720480629,
                0.2280561603456043
            ]
        },
        {
            "positions": [
                2.8040364100728583,
                -2.462107106156819,
                -1.5613231727096997,
                0.34410339241497967,
                -0.06732022462728837,
                0.28175939480788825
            ]
        },
        {
            "positions": [
                2.80158536925466,
                -2.438489652471544,
                -1.5280648482442434,
                0.20041183864514875,
                -0.14662946623760936,
                0.35246876282866973
            ]
        },
        {
            "positions": [
                2.7991343284364616,
                -2.414872198786269,
                -1.4948065237787873,
                0.05672028487531783,
                -0.22593870784793038,
                0.4231781308494512
            ]
        },
        {
            "positions": [
                2.7966832876182632,
                -2.3912547451009942,
                -1.461548199313331,
                -0.08697126889451312,
                -0.3052479494582514,
                0.49388749887023276
            ]
        },
        {
            "positions": [
                2.794232246800065,
                -2.3676372914157193,
                -1.4282898748478747,
                -0.230662822664344,
                -0.3845571910685724,
                0.5645968668910142
            ]
        },
        {
            "positions": [
                2.7917812059818665,
                -2.3440198377304444,
                -1.3950315503824187,
                -0.374354376434175,
                -0.46386643267889344,
                0.6353062349117957
            ]
        },
        {
            "positions": [
                2.789330165163668,
                -2.3204023840451695,
                -1.3617732259169624,
                -0.5180459302040059,
                -0.5431756742892144,
                0.7060156029325773
            ]
        },
        {
            "positions": [
                2.756246687934052,
                -2.2813285992791394,
                -1.3229638871594056,
                -0.6475689323183987,
                -0.5775979125124411,
                0.7795892309077
            ]
        },
        {
            "positions": [
                2.7231632107044352,
                -2.2422548145131094,
                -1.2841545484018488,
                -0.7770919344327916,
                -0.6120201507356676,
                0.8531628588828228
            ]
        },
        {
            "positions": [
                2.6671054061662556,
                -2.1915887814365127,
                -1.2411819489252165,
                -0.8959885228056058,
                -0.6127771364185733,
                0.9288846818237015
            ]
        },
        {
            "positions": [
                2.6110476016280755,
                -2.140922748359916,
                -1.1982093494485841,
                -1.01488511117842,
                -0.6135341221014791,
                1.0046065047645802
            ]
        },
        {
            "positions": [
                2.554989797089896,
                -2.0902567152833194,
                -1.155236749971952,
                -1.1337816995512342,
                -0.6142911077843848,
                1.0803283277054587
            ]
        },
        {
            "positions": [
                2.498931992551716,
                -2.0395906822067227,
                -1.1122641504953197,
                -1.2526782879240486,
                -0.6150480934672905,
                1.1560501506463374
            ]
        },
        {
            "positions": [
                2.39321746540244,
                -2.012616358351109,
                -1.0202246543989322,
                -1.240460557690615,
                -0.5827483205170414,
                1.0300112185454098
            ]
        },
        {
            "positions": [
                2.2875029382531635,
                -1.9856420344954953,
                -0.9281851583025444,
                -1.2282428274571813,
                -0.5504485475667924,
                0.9039722864444819
            ]
        },
        {
            "positions": [
                2.1817884111038874,
                -1.9586677106398815,
                -0.8361456622061569,
                -1.2160250972237474,
                -0.5181487746165433,
                0.777933354343554
            ]
        },
        {
            "positions": [
                2.076073883954611,
                -1.931693386784268,
                -0.7441061661097693,
                -1.2038073669903138,
                -0.48584900166629424,
                0.6518944222426264
            ]
        },
        {
            "positions": [
                1.9703593568053348,
                -1.9047190629286543,
                -0.6520666700133817,
                -1.1915896367568801,
                -0.4535492287160452,
                0.5258554901416986
            ]
        },
        {
            "positions": [
                1.8646448296560583,
                -1.8777447390730406,
                -0.5600271739169941,
                -1.1793719065234465,
                -0.4212494557657961,
                0.39981655804077076
            ]
        },
        {
            "positions": [
                1.7589303025067822,
                -1.850770415217427,
                -0.4679876778206066,
                -1.1671541762900128,
                -0.38894968281554704,
                0.2737776259398431
            ]
        },
        {
            "positions": [
                1.6532157753575059,
                -1.8237960913618132,
                -0.37594818172421895,
                -1.154936446056579,
                -0.356649909865298,
                0.14773869383891536
            ]
        },
        {
            "positions": [
                1.5475012482082295,
                -1.7968217675061995,
                -0.2839086856278312,
                -1.1427187158231453,
                -0.3243501369150489,
                0.02169976173798749
            ]
        },
        {
            "positions": [
                1.4417867210589532,
                -1.769847443650586,
                -0.1918691895314436,
                -1.1305009855897117,
                -0.29205036396479983,
                -0.10433917036294016
            ]
        },
        {
            "positions": [
                1.336072193909677,
                -1.742873119794972,
                -0.09982969343505599,
                -1.118283255356278,
                -0.2597505910145507,
                -0.23037810246386803
            ]
        },
        {
            "positions": [
                1.2303576667604006,
                -1.7158987959393586,
                -0.007790197338668481,
                -1.1060655251228444,
                -0.22745081806430167,
                -0.3564170345647959
            ]
        },
        {
            "positions": [
                1.1246431396111245,
                -1.6889244720837449,
                0.08424929875771903,
                -1.0938477948894105,
                -0.19515104511405268,
                -0.4824559666657233
            ]
        },
        {
            "positions": [
                1.0189286124618482,
                -1.6619501482281311,
                0.17628879485410653,
                -1.0816300646559769,
                -0.16285127216380357,
                -0.6084948987666512
            ]
        },
        {
            "positions": [
                0.9132140853125719,
                -1.6349758243725174,
                0.26832829095049426,
                -1.0694123344225432,
                -0.13055149921355452,
                -0.7345338308675791
            ]
        },
        {
            "positions": [
                0.8074995581632955,
                -1.6080015005169037,
                0.36036778704688177,
                -1.0571946041891096,
                -0.09825172626330547,
                -0.8605727629685067
            ]
        },
        {
            "positions": [
                0.7017850310140192,
                -1.5810271766612902,
                0.4524072831432695,
                -1.044976873955676,
                -0.06595195331305637,
                -0.9866116950694346
            ]
        },
        {
            "positions": [
                0.5960705038647429,
                -1.5540528528056763,
                0.5444467792396572,
                -1.032759143722242,
                -0.03365218036280726,
                -1.1126506271703624
            ]
        },
        {
            "positions": [
                0.4903559767154668,
                -1.5270785289500628,
                0.6364862753360447,
                -1.0205414134888084,
                -0.0013524074125582652,
                -1.2386895592712903
            ]
        },
        {
            "positions": [
                0.3846414495661903,
                -1.500104205094449,
                0.7285257714324325,
                -1.0083236832553748,
                0.03094736553769084,
                -1.3647284913722177
            ]
        },
        {
            "positions": [
                0.2789269224169142,
                -1.4731298812388354,
                0.82056526752882,
                -0.9961059530219412,
                0.06324713848793995,
                -1.4907674234731456
            ]
        },
        {
            "positions": [
                0.17321239526763765,
                -1.4461555573832217,
                0.9126047636252077,
                -0.9838882227885074,
                0.09554691143818905,
                -1.6168063555740735
            ]
        },
        {
            "positions": [
                0.06749786811836156,
                -1.419181233527608,
                1.0046442597215954,
                -0.9716704925550737,
                0.12784668438843805,
                -1.7428452876750014
            ]
        },
        {
            "positions": [
                -0.03821665903091498,
                -1.3922069096719945,
                1.0966837558179827,
                -0.95945276232164,
                0.16014645733868715,
                -1.8688842197759292
            ]
        },
        {
            "positions": [
                -0.14393118618019107,
                -1.3652325858163805,
                1.1887232519143704,
                -0.9472350320882064,
                0.19244623028893626,
                -1.994923151876857
            ]
        },
        {
            "positions": [
                -0.24964571332946717,
                -1.338258261960767,
                1.2807627480107577,
                -0.9350173018547727,
                0.22474600323918514,
                -2.1209620839777843
            ]
        },
        {
            "positions": [
                -0.3553602404787437,
                -1.3112839381051533,
                1.3728022441071455,
                -0.922799571621339,
                0.25704577618943425,
                -2.2470010160787117
            ]
        },
        {
            "positions": [
                -0.4610747676280198,
                -1.2843096142495396,
                1.4648417402035327,
                -0.9105818413879052,
                0.28934554913968336,
                -2.37303994817964
            ]
        },
        {
            "positions": [
                -0.5667892947772963,
                -1.257335290393926,
                1.5568812362999205,
                -0.8983641111544716,
                0.32164532208993235,
                -2.4990788802805675
            ]
        },
        {
            "positions": [
                -0.6725038219265724,
                -1.2303609665383122,
                1.6489207323963082,
                -0.8861463809210379,
                0.35394509504018146,
                -2.6251178123814958
            ]
        },
        {
            "positions": [
                -0.778218349075849,
                -1.2033866426826987,
                1.740960228492696,
                -0.8739286506876043,
                0.38624486799043056,
                -2.751156744482423
            ]
        },
        {
            "positions": [
                -0.8839328762251251,
                -1.176412318827085,
                1.8329997245890832,
                -0.8617109204541705,
                0.41854464094067956,
                -2.8771956765833506
            ]
        },
        {
            "positions": [
                -0.9896474033744016,
                -1.1494379949714713,
                1.925039220685471,
                -0.8494931902207368,
                0.4508444138909288,
                -3.003234608684279
            ]
        },
        {
            "positions": [
                -1.0953619305236777,
                -1.1224636711158575,
                2.017078716781859,
                -0.8372754599873031,
                0.48314418684117777,
                -3.129273540785207
            ]
        }
    ]
}