{
    "goal": {
        "global_pose": {
            "orientation": {
                "w": -0.00223480608172531,
                "x": 0.0024358444001904467,
                "y": 0.7094548369677653,
                "z": -0.704743149386269
            },
            "position": {
                "x": -0.37947507619857795,
                "y": -0.6371506643295288,
                "z": 0.19426114857196808
            }
        },
        "name": "move_to_magneteinheit_C"
    },
    "id": "SBL_move_to_magneteinheit_C_63",
    "joint_names": [
        "shoulder_pan_joint",
        "shoulder_lift_joint",
        "elbow_joint",
        "wrist_1_joint",
        "wrist_2_joint",
        "wrist_3_joint"
    ],
    "metrics": {
        "cart_traj_len": 1.9320068369937353,
        "distance_elbow_joint": 0.8297957524008961,
        "distance_shoulder_lift_joint": 0.9561700033681397,
        "distance_shoulder_pan_joint": 1.9848746037558487,
        "distance_wrist_1_joint": 1.3666244325207848,
        "distance_wrist_2_joint": 1.1640666432336562,
        "distance_wrist_3_joint": 2.649571947766028,
        "smoothness": 0.8410863143072169,
        "time": 0.531099517,
        "traj_len": 2.99183946478506,
        "weighted_distance": 4.096454363755545
    },
    "planner": "SBL",
    "start": {
        "state": {
            "elbow_joint": 1.9565354010623817,
            "shoulder_lift_joint": -1.4165861575791021,
            "shoulder_pan_joint": -1.6717766225146293,
            "wrist_1_joint": -0.5286633292919765,
            "wrist_2_joint": 1.472756589071564,
            "wrist_3_joint": -3.1238370188695823
        }
    },
    "waypoints": [
        {
            "positions": [
                -1.6717766225146293,
                -1.4165861575791021,
                1.9565354010623817,
                -0.5286633292919765,
                1.472756589071564,
                -3.1238370188695823
            ]
        },
        {
            "positions": [
                -1.6425411639614649,
                -1.4287024099572478,
                1.95746854974466,
                -0.5289183880483577,
                1.449656631632617,
                -3.095623882639466
            ]
        },
        {
            "positions": [
                -1.5507224591205864,
                -1.4730598877315662,
                1.9258063783015569,
                -0.5361365237614469,
                1.382103421071463,
                -2.9594176434443327
            ]
        },
        {
            "positions": [
                -1.4589037542797079,
                -1.5174173655058847,
                1.8941442068584535,
                -0.5433546594745362,
                1.3145502105103088,
                -2.823211404249199
            ]
        },
        {
            "positions": [
                -1.4028470735870395,
                -1.559139802129239,
                1.840098765018875,
                -0.5373003319904385,
                1.2566312096201064,
                -2.65396820259812
            ]
        },
        {
            "positions": [
                -1.3467903928943714,
                -1.6008622387525937,
                1.7860533231792963,
                -0.5312460045063406,
                1.198712208729904,
                -2.4847250009470407
            ]
        },
        {
            "positions": [
                -1.290733712201703,
                -1.642584675375948,
                1.732007881339718,
                -0.5251916770222429,
                1.1407932078397018,
                -2.315481799295962
            ]
        },
        {
            "positions": [
                -1.2346770315090347,
                -1.6843071119993025,
                1.6779624395001393,
                -0.5191373495381452,
                1.0828742069494994,
                -2.146238597644883
            ]
        },
        {
            "positions": [
                -1.1786203508163666,
                -1.7260295486226571,
                1.6239169976605607,
                -0.5130830220540473,
                1.024955206059297,
                -1.9769953959938036
            ]
        },
        {
            "positions": [
                -1.1225636701236983,
                -1.7677519852460115,
                1.5698715558209821,
                -0.5070286945699496,
                0.9670362051690946,
                -1.8077521943427244
            ]
        },
        {
            "positions": [
                -1.2945898021971352,
                -1.7310482773696407,
                1.6196784630007541,
                -0.44550354461012687,
                0.9071920961512551,
                -1.8148230519422657
            ]
        },
        {
            "positions": [
                -1.4666159342705722,
                -1.69434456949327,
                1.6694853701805261,
                -0.3839783946503041,
                0.8473479871334156,
                -1.821893909541807
            ]
        },
        {
            "positions": [
                -1.6386420663440093,
                -1.6576408616168994,
                1.7192922773602979,
                -0.3224532446904813,
                0.7875038781155761,
                -1.8289647671413483
            ]
        },
        {
            "positions": [
                -1.8106681984174462,
                -1.6209371537405286,
                1.7690991845400699,
                -0.2609280947306586,
                0.7276597690977367,
                -1.8360356247408895
            ]
        },
        {
            "positions": [
                -1.982694330490883,
                -1.5842334458641578,
                1.8189060917198419,
                -0.19940294477083587,
                0.6678156600798971,
                -1.8431064823404308
            ]
        },
        {
            "positions": [
                -2.1547204625643204,
                -1.5475297379877873,
                1.8687129988996136,
                -0.1378777948110131,
                0.6079715510620576,
                -1.8501773399399721
            ]
        },
        {
            "positions": [
                -2.3267465946377572,
                -1.5108260301114165,
                1.9185199060793856,
                -0.07635264485119031,
                0.5481274420442181,
                -1.8572481975395134
            ]
        },
        {
            "positions": [
                -2.498772726711194,
                -1.4741223222350457,
                1.9683268132591576,
                -0.014827494891367615,
                0.4882833330263786,
                -1.8643190551390547
            ]
        },
        {
            "positions": [
                -2.5045096316227085,
                -1.4326401064457528,
                1.9822906310329391,
                -0.11383527733940507,
                0.5073032987017212,
                -2.0326578575578265
            ]
        },
        {
            "positions": [
                -2.510246536534223,
                -1.39115789065646,
                1.9962544488067206,
                -0.21284305978744253,
                0.5263232643770638,
                -2.2009966599765987
            ]
        },
        {
            "positions": [
                -2.515983441445737,
                -1.349675674867167,
                2.010218266580502,
                -0.31185084223548,
                0.5453432300524064,
                -2.3693354623953704
            ]
        },
        {
            "positions": [
                -2.5075350654371613,
                -1.3122901018026898,
                2.0104020463875862,
                -0.41712736031766884,
                0.5698499280848951,
                -2.5237162334326753
            ]
        },
        {
            "positions": [
                -2.4990866894285855,
                -1.2749045287382126,
                2.0105858261946703,
                -0.5224038783998577,
                0.5943566261173837,
                -2.67809700446998
            ]
        },
        {
            "positions": [
                -2.49063831342001,
                -1.2375189556737356,
                2.010769606001754,
                -0.6276803964820465,
                0.6188633241498724,
                -2.8324777755072845
            ]
        },
        {
            "positions": [
                -2.4821899374114342,
                -1.2001333826092584,
                2.010953385808838,
                -0.7329569145642354,
                0.6433700221823611,
                -2.9868585465445894
            ]
        },
        {
            "positions": [
                -2.4737415614028584,
                -1.1627478095447812,
                2.011137165615922,
                -0.8382334326464241,
                0.6678767202148498,
                -3.1412393175818942
            ]
        }
    ]
}