{
    "goal": {
        "global_pose": {
            "orientation": {
                "w": 0.7047431493862688,
                "x": -0.7094548369677653,
                "y": 0.0024358444001904,
                "z": -0.0022348060817251984
            },
            "position": {
                "x": -0.39052492380142206,
                "y": 0.3671506643295288,
                "z": 0.19426114857196808
            }
        },
        "name": "move_to_magneteinheit_D"
    },
    "id": "SBL_move_to_magneteinheit_D_37",
    "joint_names": [
        "shoulder_pan_joint",
        "shoulder_lift_joint",
        "elbow_joint",
        "wrist_1_joint",
        "wrist_2_joint",
        "wrist_3_joint"
    ],
    "metrics": {
        "cart_traj_len": 4.6087273552494405,
        "distance_elbow_joint": 5.961078615433173,
        "distance_shoulder_lift_joint": 1.5392628653466023,
        "distance_shoulder_pan_joint": 3.045684022200097,
        "distance_wrist_1_joint": 4.810907097331761,
        "distance_wrist_2_joint": 2.3266614545039066,
        "distance_wrist_3_joint": 6.212668739495394,
        "smoothness": 0.47079505462933136,
        "time": 0.498122308,
        "traj_len": 4.888380385599196,
        "weighted_distance": 6.592356849044003
    },
    "planner": "SBL",
    "start": {
        "state": {
            "elbow_joint": 0.749534889911806,
            "shoulder_lift_joint": -0.6476975780787326,
            "shoulder_pan_joint": -2.711696901376241,
            "wrist_1_joint": -0.07506478083263063,
            "wrist_2_joint": 0.43296659715538205,
            "wrist_3_joint": -3.14703540197715
        }
    },
    "waypoints": [
        {
            "positions": [
                -2.711696901376241,
                -0.6476975780787326,
                0.749534889911806,
                -0.07506478083263063,
                0.43296659715538205,
                -3.14703540197715
            ]
        },
        {
            "positions": [
                -2.7210279116767153,
                -0.6713950152198944,
                0.8160208526824317,
                -0.014242687600184316,
                0.3657904137089638,
                -3.0165060312233325
            ]
        },
        {
            "positions": [
                -2.7303589219771895,
                -0.6950924523610562,
                0.8825068154530575,
                0.046579405632262,
                0.29861423026254563,
                -2.8859766604695145
            ]
        },
        {
            "positions": [
                -2.7396899322776638,
                -0.718789889502218,
                0.9489927782236833,
                0.10740149886470832,
                0.23143804681612742,
                -2.755447289715697
            ]
        },
        {
            "positions": [
                -2.7273981820755417,
                -0.7461724483781796,
                1.0023745462215945,
                0.17222869424390508,
                0.1609709481049355,
                -2.604019016586233
            ]
        },
        {
            "positions": [
                -2.7151064318734193,
                -0.7735550072541413,
                1.0557563142195057,
                0.23705588962310187,
                0.09050384939374356,
                -2.4525907434567684
            ]
        },
        {
            "positions": [
                -2.7028146816712972,
                -0.8009375661301028,
                1.1091380822174166,
                0.30188308500229866,
                0.020036750682551646,
                -2.3011624703273044
            ]
        },
        {
            "positions": [
                -2.6905229314691748,
                -0.8283201250060644,
                1.1625198502153278,
                0.36671028038149545,
                -0.0504303480286403,
                -2.14973419719784
            ]
        },
        {
            "positions": [
                -2.6782311812670527,
                -0.8557026838820261,
                1.215901618213239,
                0.43153747576069224,
                -0.12089744673983224,
                -1.9983059240683758
            ]
        },
        {
            "positions": [
                -2.6659394310649303,
                -0.8830852427579876,
                1.2692833862111499,
                0.4963646711398889,
                -0.19136454545102413,
                -1.8468776509389115
            ]
        },
        {
            "positions": [
                -2.6536476808628082,
                -0.9104678016339494,
                1.3226651542090613,
                0.5611918665190858,
                -0.26183164416221616,
                -1.6954493778094473
            ]
        },
        {
            "positions": [
                -2.6413559306606857,
                -0.9378503605099109,
                1.3760469222069722,
                0.6260190618982825,
                -0.332298742873408,
                -1.544021104679983
            ]
        },
        {
            "positions": [
                -2.6290641804585637,
                -0.9652329193858725,
                1.4294286902048834,
                0.6908462572774793,
                -0.40276584158459994,
                -1.3925928315505187
            ]
        },
        {
            "positions": [
                -2.6167724302564417,
                -0.9926154782618342,
                1.4828104582027946,
                0.7556734526566761,
                -0.4732329402957919,
                -1.2411645584210544
            ]
        },
        {
            "positions": [
                -2.604480680054319,
                -1.0199980371377957,
                1.5361922262007057,
                0.8205006480358729,
                -0.5437000390069838,
                -1.0897362852915902
            ]
        },
        {
            "positions": [
                -2.592188929852197,
                -1.0473805960137574,
                1.5895739941986167,
                0.8853278434150695,
                -0.6141671377181757,
                -0.9383080121621261
            ]
        },
        {
            "positions": [
                -2.5798971796500747,
                -1.074763154889719,
                1.6429557621965278,
                0.9501550387942663,
                -0.6846342364293676,
                -0.7868797390326618
            ]
        },
        {
            "positions": [
                -2.5676054294479527,
                -1.1021457137656805,
                1.696337530194439,
                1.0149822341734633,
                -0.7551013351405597,
                -0.6354514659031976
            ]
        },
        {
            "positions": [
                -2.55531367924583,
                -1.1295282726416422,
                1.7497192981923502,
                1.0798094295526601,
                -0.8255684338517515,
                -0.48402319277373307
            ]
        },
        {
            "positions": [
                -2.543021929043708,
                -1.1569108315176038,
                1.8031010661902611,
                1.1446366249318567,
                -0.8960355325629434,
                -0.332594919644269
            ]
        },
        {
            "positions": [
                -2.5307301788415857,
                -1.1842933903935653,
                1.8564828341881723,
                1.2094638203110535,
                -0.9665026312741354,
                -0.18116664651480496
            ]
        },
        {
            "positions": [
                -2.5184384286394637,
                -1.211675949269527,
                1.9098646021860834,
                1.2742910156902503,
                -1.0369697299853273,
                -0.029738373385340543
            ]
        },
        {
            "positions": [
                -2.406942964399282,
                -1.2156104085651969,
                1.7886206166972387,
                1.2283032450119182,
                -1.0194692942667207,
                -0.1124243573275562
            ]
        },
        {
            "positions": [
                -2.2954475001591,
                -1.2195448678608667,
                1.6673766312083937,
                1.1823154743335862,
                -1.0019688585481141,
                -0.1951103412697719
            ]
        },
        {
            "positions": [
                -2.1839520359189186,
                -1.2234793271565365,
                1.546132645719549,
                1.1363277036552542,
                -0.9844684228295074,
                -0.27779632521198755
            ]
        },
        {
            "positions": [
                -2.0724565716787366,
                -1.2274137864522061,
                1.424888660230704,
                1.090339932976922,
                -0.9669679871109008,
                -0.3604823091542032
            ]
        },
        {
            "positions": [
                -1.9609611074385551,
                -1.231348245747876,
                1.303644674741859,
                1.04435216229859,
                -0.9494675513922942,
                -0.44316829309641886
            ]
        },
        {
            "positions": [
                -1.8494656431983734,
                -1.2352827050435458,
                1.1824006892530143,
                0.9983643916202581,
                -0.9319671156736875,
                -0.5258542770386345
            ]
        },
        {
            "positions": [
                -1.7379701789581916,
                -1.2392171643392156,
                1.0611567037641696,
                0.9523766209419261,
                -0.9144666799550809,
                -0.6085402609808503
            ]
        },
        {
            "positions": [
                -1.6264747147180099,
                -1.2431516236348854,
                0.9399127182753247,
                0.9063888502635942,
                -0.8969662442364743,
                -0.691226244923066
            ]
        },
        {
            "positions": [
                -1.514979250477828,
                -1.2470860829305552,
                0.8186687327864797,
                0.8604010795852621,
                -0.8794658085178677,
                -0.7739122288652817
            ]
        },
        {
            "positions": [
                -1.4034837862376464,
                -1.251020542226225,
                0.6974247472976349,
                0.8144133089069301,
                -0.8619653727992611,
                -0.8565982128074973
            ]
        },
        {
            "positions": [
                -1.2919883219974646,
                -1.2549550015218949,
                0.5761807618087902,
                0.768425538228598,
                -0.8444649370806544,
                -0.939284196749713
            ]
        },
        {
            "positions": [
                -1.180492857757283,
                -1.2588894608175645,
                0.4549367763199452,
                0.722437767550266,
                -0.8269645013620478,
                -1.0219701806919286
            ]
        },
        {
            "positions": [
                -1.0689973935171013,
                -1.2628239201132343,
                0.3336927908311005,
                0.6764499968719341,
                -0.8094640656434412,
                -1.1046561646341442
            ]
        },
        {
            "positions": [
                -0.9575019292769194,
                -1.2667583794089041,
                0.21244880534225552,
                0.6304622261936019,
                -0.7919636299248345,
                -1.18734214857636
            ]
        },
        {
            "positions": [
                -0.8460064650367378,
                -1.270692838704574,
                0.09120481985341078,
                0.58447445551527,
                -0.7744631942062279,
                -1.2700281325185756
            ]
        },
        {
            "positions": [
                -0.7345110007965561,
                -1.2746272980002438,
                -0.030039165635433962,
                0.538486684836938,
                -0.7569627584876213,
                -1.3527141164607912
            ]
        },
        {
            "positions": [
                -0.6230155365563745,
                -1.2785617572959136,
                -0.1512831511242787,
                0.4924989141586059,
                -0.7394623227690147,
                -1.4354001004030068
            ]
        },
        {
            "positions": [
                -0.5115200723161926,
                -1.2824962165915834,
                -0.2725271366131241,
                0.4465111434802739,
                -0.721961887050408,
                -1.5180860843452226
            ]
        },
        {
            "positions": [
                -0.40002460807601103,
                -1.286430675887253,
                -0.39377112210196863,
                0.40052337280194183,
                -0.7044614513318014,
                -1.6007720682874382
            ]
        },
        {
            "positions": [
                -0.28852914383582906,
                -1.2903651351829228,
                -0.5150151075908136,
                0.3545356021236099,
                -0.6869610156131948,
                -1.6834580522296538
            ]
        },
        {
            "positions": [
                -0.17703367959564753,
                -1.2942995944785927,
                -0.6362590930796581,
                0.30854783144527786,
                -0.6694605798945881,
                -1.7661440361718694
            ]
        },
        {
            "positions": [
                -0.06553821535546556,
                -1.2982340537742625,
                -0.7575030785685031,
                0.2625600607669458,
                -0.6519601441759815,
                -1.8488300201140853
            ]
        },
        {
            "positions": [
                0.04595724888471586,
                -1.3021685130699323,
                -0.8787470640573481,
                0.21657229008861384,
                -0.6344597084573749,
                -1.9315160040563009
            ]
        },
        {
            "positions": [
                0.04053819691730748,
                -1.3464186390704331,
                -0.9952084223686078,
                0.07225461337643554,
                -0.6130755605882702,
                -1.9895608876014976
            ]
        },
        {
            "positions": [
                0.03511914494989909,
                -1.390668765070934,
                -1.1116697806798677,
                -0.07206306333574275,
                -0.5916914127191655,
                -2.0476057711466944
            ]
        },
        {
            "positions": [
                0.0297000929824907,
                -1.4349188910714346,
                -1.2281311389911274,
                -0.21638074004792107,
                -0.5703072648500609,
                -2.105650654691891
            ]
        },
        {
            "positions": [
                0.024281041015082314,
                -1.4791690170719354,
                -1.344592497302387,
                -0.36069841676009934,
                -0.5489231169809562,
                -2.1636955382370884
            ]
        },
        {
            "positions": [
                0.018861989047673926,
                -1.5234191430724362,
                -1.4610538556136468,
                -0.5050160934722776,
                -0.5275389691118515,
                -2.221740421782285
            ]
        },
        {
            "positions": [
                0.01344293708026554,
                -1.567669269072937,
                -1.5775152139249067,
                -0.6493337701844559,
                -0.5061548212427468,
                -2.279785305327482
            ]
        },
        {
            "positions": [
                0.008023885112857149,
                -1.6119193950734378,
                -1.6939765722361664,
                -0.7936514468966342,
                -0.48477067337364216,
                -2.3378301888726787
            ]
        },
        {
            "positions": [
                0.002604833145448765,
                -1.6561695210739384,
                -1.810437930547426,
                -0.9379691236088126,
                -0.46338652550453746,
                -2.3958750724178755
            ]
        },
        {
            "positions": [
                -0.0028142188219596256,
                -1.7004196470744393,
                -1.926899288858686,
                -1.082286800320991,
                -0.4420023776354328,
                -2.453919955963072
            ]
        },
        {
            "positions": [
                -0.00823327078936801,
                -1.74466977307494,
                -2.0433606471699455,
                -1.226604477033169,
                -0.4206182297663281,
                -2.511964839508269
            ]
        },
        {
            "positions": [
                -0.013652322756776393,
                -1.788919899075441,
                -2.1598220054812054,
                -1.3709221537453473,
                -0.3992340818972234,
                -2.5700097230534658
            ]
        },
        {
            "positions": [
                -0.019071374724184784,
                -1.8331700250759417,
                -2.2762833637924653,
                -1.5152398304575259,
                -0.3778499340281188,
                -2.628054606598663
            ]
        },
        {
            "positions": [
                -0.02449042669159318,
                -1.8774201510764423,
                -2.392744722103725,
                -1.6595575071697042,
                -0.3564657861590141,
                -2.6860994901438597
            ]
        },
        {
            "positions": [
                -0.029909478659001565,
                -1.9216702770769432,
                -2.5092060804149847,
                -1.8038751838818823,
                -0.33508163828990944,
                -2.7441443736890565
            ]
        },
        {
            "positions": [
                -0.03532853062640995,
                -1.965920403077444,
                -2.625667438726244,
                -1.9481928605940606,
                -0.31369749042080475,
                -2.8021892572342533
            ]
        },
        {
            "positions": [
                -0.07301803828270205,
                -1.9106603929904713,
                -2.5593632231646026,
                -2.007959716725203,
                -0.28033426847113624,
                -2.8829194639979216
            ]
        },
        {
            "positions": [
                -0.11070754593899415,
                -1.8554003829034986,
                -2.4930590076029615,
                -2.067726572856345,
                -0.24697104652146776,
                -2.9636496707615896
            ]
        },
        {
            "positions": [
                -0.14839705359528627,
                -1.8001403728165257,
                -2.42675479204132,
                -2.1274934289874867,
                -0.21360782457179928,
                -3.044379877525258
            ]
        },
        {
            "positions": [
                -0.18608656125157835,
                -1.744880362729553,
                -2.3604505764796784,
                -2.187260285118629,
                -0.18024460262213077,
                -3.1251100842889263
            ]
        }
    ]
}