{
    "goal": {
        "global_pose": {
            "orientation": {
                "w": -0.00223480608172531,
                "x": 0.0024358444001904467,
                "y": 0.7094548369677653,
                "z": -0.704743149386269
            },
            "position": {
                "x": -0.37947507619857795,
                "y": -0.6371506643295288,
                "z": 0.19426114857196808
            }
        },
        "name": "move_to_magneteinheit_C"
    },
    "id": "SBL_move_to_magneteinheit_C_119",
    "joint_names": [
        "shoulder_pan_joint",
        "shoulder_lift_joint",
        "elbow_joint",
        "wrist_1_joint",
        "wrist_2_joint",
        "wrist_3_joint"
    ],
    "metrics": {
        "cart_traj_len": 2.9554225524853086,
        "distance_elbow_joint": 0.5845370501592035,
        "distance_shoulder_lift_joint": 1.0959253522236776,
        "distance_shoulder_pan_joint": 4.343757909144464,
        "distance_wrist_1_joint": 3.1819467944819326,
        "distance_wrist_2_joint": 0.7960313316321267,
        "distance_wrist_3_joint": 1.0205168509955147,
        "smoothness": 1.0363962822493868,
        "time": 0.203404671,
        "traj_len": 3.3200474828888993,
        "weighted_distance": 4.128162680508366
    },
    "planner": "SBL",
    "start": {
        "state": {
            "elbow_joint": 1.9565354010623817,
            "shoulder_lift_joint": -1.4165861575791021,
            "shoulder_pan_joint": -1.6717766225146293,
            "wrist_1_joint": -0.5286633292919765,
            "wrist_2_joint": 1.472756589071564,
            "wrist_3_joint": -3.1238370188695823
        }
    },
    "waypoints": [
        {
            "positions": [
                -1.6717766225146293,
                -1.4165861575791021,
                1.9565354010623817,
                -0.5286633292919765,
                1.472756589071564,
                -3.1238370188695823
            ]
        },
        {
            "positions": [
                -1.545311089575634,
                -1.4466749819737088,
                1.9792440061902778,
                -0.4254164959623206,
                1.4193151644405053,
                -3.088361532095783
            ]
        },
        {
            "positions": [
                -1.4188455566366387,
                -1.4767638063683155,
                2.001952611318174,
                -0.3221696626326648,
                1.365873739809447,
                -3.0528860453219835
            ]
        },
        {
            "positions": [
                -1.2923800236976433,
                -1.506852630762922,
                2.0246612164460704,
                -0.21892282930300894,
                1.3124323151783883,
                -3.017410558548184
            ]
        },
        {
            "positions": [
                -1.1659144907586478,
                -1.5369414551575287,
                2.047369821573967,
                -0.1156759959733531,
                1.25899089054733,
                -2.981935071774384
            ]
        },
        {
            "positions": [
                -1.0394489578196524,
                -1.5670302795521354,
                2.070078426701863,
                -0.0124291626436972,
                1.2055494659162713,
                -2.946459585000585
            ]
        },
        {
            "positions": [
                -0.9129834248806571,
                -1.597119103946742,
                2.0927870318297592,
                0.09081767068595858,
                1.1521080412852127,
                -2.9109840982267854
            ]
        },
        {
            "positions": [
                -0.7865178919416617,
                -1.6272079283413485,
                2.1154956369576556,
                0.19406450401561448,
                1.098666616654154,
                -2.875508611452986
            ]
        },
        {
            "positions": [
                -0.6600523590026663,
                -1.6572967527359552,
                2.1382042420855516,
                0.29731133734527027,
                1.0452251920230957,
                -2.8400331246791866
            ]
        },
        {
            "positions": [
                -0.5335868260636709,
                -1.687385577130562,
                2.160912847213448,
                0.4005581706749263,
                0.9917837673920371,
                -2.804557637905387
            ]
        },
        {
            "positions": [
                -0.4071212931246755,
                -1.7174744015251686,
                2.183621452341344,
                0.5038050040045821,
                0.9383423427609786,
                -2.7690821511315873
            ]
        },
        {
            "positions": [
                -0.28065576018568006,
                -1.7475632259197753,
                2.2063300574692404,
                0.607051837334238,
                0.8849009181299201,
                -2.7336066643577883
            ]
        },
        {
            "positions": [
                -0.15419022724668485,
                -1.7776520503143818,
                2.229038662597137,
                0.7102986706638936,
                0.8314594934988616,
                -2.6981311775839885
            ]
        },
        {
            "positions": [
                -0.027724694307689424,
                -1.8077408747089885,
                2.2517472677250328,
                0.8135455039935495,
                0.778018068867803,
                -2.662655690810189
            ]
        },
        {
            "positions": [
                0.09874083863130595,
                -1.8378296991035952,
                2.274455872852929,
                0.9167923373232054,
                0.7245766442367445,
                -2.6271802040363896
            ]
        },
        {
            "positions": [
                -0.07280852456859593,
                -1.7928509117236495,
                2.2566814342950186,
                0.8010262621320887,
                0.7213865517835907,
                -2.662104206447211
            ]
        },
        {
            "positions": [
                -0.24435788776849782,
                -1.7478721243437039,
                2.2389069957371084,
                0.685260186940972,
                0.7181964593304369,
                -2.6970282088580326
            ]
        },
        {
            "positions": [
                -0.4159072509683997,
                -1.7028933369637582,
                2.2211325571791978,
                0.5694941117498553,
                0.715006366877283,
                -2.731952211268854
            ]
        },
        {
            "positions": [
                -0.5874566141683015,
                -1.6579145495838126,
                2.2033581186212876,
                0.4537280365587386,
                0.7118162744241292,
                -2.7668762136796756
            ]
        },
        {
            "positions": [
                -0.7590059773682034,
                -1.612935762203867,
                2.185583680063377,
                0.3379619613676219,
                0.7086261819709754,
                -2.801800216090497
            ]
        },
        {
            "positions": [
                -0.9305553405681053,
                -1.5679569748239213,
                2.167809241505467,
                0.2221958861765052,
                0.7054360895178216,
                -2.8367242185013186
            ]
        },
        {
            "positions": [
                -1.1021047037680072,
                -1.5229781874439756,
                2.1500348029475562,
                0.1064298109853885,
                0.7022459970646677,
                -2.87164822091214
            ]
        },
        {
            "positions": [
                -1.273654066967909,
                -1.47799940006403,
                2.132260364389646,
                -0.009336264205728195,
                0.699055904611514,
                -2.9065722233229616
            ]
        },
        {
            "positions": [
                -1.445203430167811,
                -1.4330206126840845,
                2.1144859258317354,
                -0.1251023393968449,
                0.6958658121583602,
                -2.9414962257337827
            ]
        },
        {
            "positions": [
                -1.6167527933677128,
                -1.3880418253041389,
                2.0967114872738253,
                -0.2408684145879616,
                0.6926757197052064,
                -2.976420228144604
            ]
        },
        {
            "positions": [
                -1.7883021565676145,
                -1.3430630379241932,
                2.0789370487159147,
                -0.3566344897790783,
                0.6894856272520525,
                -3.0113442305554257
            ]
        },
        {
            "positions": [
                -1.9598515197675166,
                -1.2980842505442474,
                2.0611626101580045,
                -0.472400564970195,
                0.6862955347988987,
                -3.046268232966247
            ]
        },
        {
            "positions": [
                -2.1314008829674185,
                -1.253105463164302,
                2.043388171600094,
                -0.5881666401613117,
                0.6831054423457449,
                -3.0811922353770687
            ]
        },
        {
            "positions": [
                -2.3029502461673204,
                -1.2081266757843563,
                2.0256137330421833,
                -0.7039327153524284,
                0.6799153498925911,
                -3.11611623778789
            ]
        },
        {
            "positions": [
                -2.4744996093672222,
                -1.1631478884044106,
                2.007839294484273,
                -0.8196987905435452,
                0.6767252574394372,
                -3.1510402401987117
            ]
        }
    ]
}