{
    "goal": {
        "global_pose": {
            "orientation": {
                "w": 0.7031023480610252,
                "x": -0.7110244013736278,
                "y": 0.0077485991402295624,
                "z": 0.005598929693374583
            },
            "position": {
                "x": -0.8841497679147869,
                "y": 0.44412534475326537,
                "z": 0.3711530566215515
            }
        },
        "name": "move_to_auspresseinheit_D"
    },
    "id": "SBL_move_to_auspresseinheit_D_15",
    "joint_names": [
        "shoulder_pan_joint",
        "shoulder_lift_joint",
        "elbow_joint",
        "wrist_1_joint",
        "wrist_2_joint",
        "wrist_3_joint"
    ],
    "metrics": {
        "cart_traj_len": 0.34440935769607883,
        "distance_elbow_joint": 0.6534285812394593,
        "distance_shoulder_lift_joint": 0.1299862154627025,
        "distance_shoulder_pan_joint": 0.13463101894841442,
        "distance_wrist_1_joint": 0.5713070998039695,
        "distance_wrist_2_joint": 1.4468769609378251,
        "distance_wrist_3_joint": 0.031232158746353544,
        "smoothness": 0.0,
        "time": 0.207248364,
        "traj_len": 1.7226322982977895,
        "weighted_distance": 2.2468000385822555
    },
    "planner": "SBL",
    "start": {
        "state": {
            "elbow_joint": -1.8275523626775212,
            "shoulder_lift_joint": -2.126789852344167,
            "shoulder_pan_joint": -0.03513704404078235,
            "wrist_1_joint": -2.347782403156801,
            "wrist_2_joint": -1.6058999987535132,
            "wrist_3_joint": -3.0880379163319196
        }
    },
    "waypoints": [
        {
            "positions": [
                -0.03513704404078235,
                -2.126789852344167,
                -1.8275523626775212,
                -2.347782403156801,
                -1.6058999987535132,
                -3.0880379163319196
            ]
        },
        {
            "positions": [
                -0.05196592140933415,
                -2.143038129277005,
                -1.7458737900225887,
                -2.419195790632297,
                -1.425040378636285,
                -3.0841338964886256
            ]
        },
        {
            "positions": [
                -0.06879479877788595,
                -2.1592864062098425,
                -1.6641952173676564,
                -2.4906091781077935,
                -1.244180758519057,
                -3.080229876645331
            ]
        },
        {
            "positions": [
                -0.08562367614643776,
                -2.17553468314268,
                -1.582516644712724,
                -2.5620225655832893,
                -1.0633211384018288,
                -3.076325856802037
            ]
        },
        {
            "positions": [
                -0.10245255351498955,
                -2.191782960075518,
                -1.5008380720577916,
                -2.6334359530587856,
                -0.8824615182846006,
                -3.0724218369587426
            ]
        },
        {
            "positions": [
                -0.11928143088354137,
                -2.208031237008356,
                -1.4191594994028591,
                -2.704849340534282,
                -0.7016018981673725,
                -3.0685178171154486
            ]
        },
        {
            "positions": [
                -0.13611030825209317,
                -2.2242795139411937,
                -1.3374809267479266,
                -2.776262728009778,
                -0.5207422780501443,
                -3.0646137972721545
            ]
        },
        {
            "positions": [
                -0.15293918562064496,
                -2.2405277908740313,
                -1.2558023540929941,
                -2.847676115485274,
                -0.33988265793291617,
                -3.06070977742886
            ]
        },
        {
            "positions": [
                -0.16976806298919678,
                -2.2567760678068693,
                -1.1741237814380618,
                -2.9190895029607704,
                -0.1590230378156881,
                -3.056805757585566
            ]
        }
    ]
}