{
    "goal": {
        "global_pose": {
            "orientation": {
                "w": 0.7047431493862688,
                "x": -0.7094548369677653,
                "y": 0.0024358444001904,
                "z": -0.0022348060817251984
            },
            "position": {
                "x": -0.39052492380142206,
                "y": 0.3671506643295288,
                "z": 0.19426114857196808
            }
        },
        "name": "move_to_magneteinheit_D"
    },
    "id": "SBL_move_to_magneteinheit_D_88",
    "joint_names": [
        "shoulder_pan_joint",
        "shoulder_lift_joint",
        "elbow_joint",
        "wrist_1_joint",
        "wrist_2_joint",
        "wrist_3_joint"
    ],
    "metrics": {
        "cart_traj_len": 5.16554279187642,
        "distance_elbow_joint": 3.579971912112221,
        "distance_shoulder_lift_joint": 1.5600253368242298,
        "distance_shoulder_pan_joint": 5.220086238475224,
        "distance_wrist_1_joint": 3.9221533530535253,
        "distance_wrist_2_joint": 2.934269887686466,
        "distance_wrist_3_joint": 6.267893764848518,
        "smoothness": 0.5931590516802548,
        "time": 0.388951831,
        "traj_len": 4.846070624021094,
        "weighted_distance": 6.548023462346266
    },
    "planner": "SBL",
    "start": {
        "state": {
            "elbow_joint": 0.749534889911806,
            "shoulder_lift_joint": -0.6476975780787326,
            "shoulder_pan_joint": -2.711696901376241,
            "wrist_1_joint": -0.07506478083263063,
            "wrist_2_joint": 0.43296659715538205,
            "wrist_3_joint": -3.14703540197715
        }
    },
    "waypoints": [
        {
            "positions": [
                -2.711696901376241,
                -0.6476975780787326,
                0.749534889911806,
                -0.07506478083263063,
                0.43296659715538205,
                -3.14703540197715
            ]
        },
        {
            "positions": [
                -2.78650222448906,
                -0.7040516022296655,
                0.7793875639700325,
                -0.11881439565862931,
                0.4686858021456031,
                -3.059824721027122
            ]
        },
        {
            "positions": [
                -2.8613075476018786,
                -0.7604056263805984,
                0.8092402380282592,
                -0.16256401048462799,
                0.5044050071358241,
                -2.9726140400770937
            ]
        },
        {
            "positions": [
                -2.936112870714697,
                -0.8167596505315313,
                0.8390929120864858,
                -0.20631362531062666,
                0.5401242121260452,
                -2.885403359127065
            ]
        },
        {
            "positions": [
                -3.0109181938275156,
                -0.8731136746824641,
                0.8689455861447124,
                -0.25006324013662534,
                0.5758434171162663,
                -2.798192678177037
            ]
        },
        {
            "positions": [
                -2.918705235490214,
                -0.8720970235670041,
                0.795846766826872,
                -0.31739171856086296,
                0.5370285957496473,
                -2.6760057049537203
            ]
        },
        {
            "positions": [
                -2.826492277152912,
                -0.871080372451544,
                0.7227479475090318,
                -0.38472019698510057,
                0.4982137743830284,
                -2.5538187317304035
            ]
        },
        {
            "positions": [
                -2.7342793188156103,
                -0.870063721336084,
                0.6496491281911915,
                -0.4520486754093382,
                0.45939895301640943,
                -2.431631758507087
            ]
        },
        {
            "positions": [
                -2.642066360478309,
                -0.869047070220624,
                0.5765503088733512,
                -0.5193771538335759,
                0.42058413164979047,
                -2.3094447852837696
            ]
        },
        {
            "positions": [
                -2.5498534021410073,
                -0.8680304191051639,
                0.5034514895555109,
                -0.5867056322578135,
                0.38176931028317146,
                -2.187257812060453
            ]
        },
        {
            "positions": [
                -2.4576404438037054,
                -0.8670137679897039,
                0.43035267023767054,
                -0.6540341106820511,
                0.3429544889165525,
                -2.065070838837136
            ]
        },
        {
            "positions": [
                -2.3654274854664035,
                -0.8659971168742439,
                0.3572538509198302,
                -0.7213625891062887,
                0.30413966754993355,
                -1.9428838656138194
            ]
        },
        {
            "positions": [
                -2.273214527129102,
                -0.8649804657587837,
                0.28415503160198996,
                -0.7886910675305263,
                0.2653248461833146,
                -1.8206968923905027
            ]
        },
        {
            "positions": [
                -2.1810015687918005,
                -0.8639638146433237,
                0.2110562122841496,
                -0.8560195459547639,
                0.22651002481669563,
                -1.698509919167186
            ]
        },
        {
            "positions": [
                -2.0887886104544986,
                -0.8629471635278637,
                0.13795739296630927,
                -0.9233480243790015,
                0.18769520345007662,
                -1.576322945943869
            ]
        },
        {
            "positions": [
                -1.9965756521171967,
                -0.8619305124124036,
                0.06485857364846892,
                -0.9906765028032392,
                0.14888038208345766,
                -1.4541359727205523
            ]
        },
        {
            "positions": [
                -1.9043626937798952,
                -0.8609138612969436,
                -0.008240245669371316,
                -1.0580049812274768,
                0.1100655607168387,
                -1.3319489994972356
            ]
        },
        {
            "positions": [
                -1.8121497354425933,
                -0.8598972101814836,
                -0.08133906498721177,
                -1.1253334596517144,
                0.07125073935021975,
                -1.2097620262739186
            ]
        },
        {
            "positions": [
                -1.7199367771052918,
                -0.8588805590660235,
                -0.154437884305052,
                -1.192661938075952,
                0.03243591798360079,
                -1.0875750530506019
            ]
        },
        {
            "positions": [
                -1.6277238187679899,
                -0.8578639079505634,
                -0.22753670362289236,
                -1.2599904165001896,
                -0.006378903383018275,
                -0.9653880798272851
            ]
        },
        {
            "positions": [
                -1.5355108604306884,
                -0.8568472568351034,
                -0.3006355229407325,
                -1.3273188949244272,
                -0.04519372474963712,
                -0.8432011066039684
            ]
        },
        {
            "positions": [
                -1.4432979020933865,
                -0.8558306057196433,
                -0.37373434225857305,
                -1.3946473733486648,
                -0.08400854611625619,
                -0.7210141333806517
            ]
        },
        {
            "positions": [
                -1.351084943756085,
                -0.8548139546041833,
                -0.4468331615764132,
                -1.4619758517729025,
                -0.12282336748287503,
                -0.598827160157335
            ]
        },
        {
            "positions": [
                -1.258871985418783,
                -0.8537973034887233,
                -0.5199319808942535,
                -1.52930433019714,
                -0.1616381888494941,
                -0.4766401869340178
            ]
        },
        {
            "positions": [
                -1.1666590270814816,
                -0.8527806523732632,
                -0.5930308002120939,
                -1.5966328086213777,
                -0.20045301021611306,
                -0.35445321371070104
            ]
        },
        {
            "positions": [
                -1.0744460687441797,
                -0.8517640012578032,
                -0.6661296195299342,
                -1.6639612870456153,
                -0.23926783158273202,
                -0.2322662404873843
            ]
        },
        {
            "positions": [
                -0.9822331104068778,
                -0.8507473501423432,
                -0.7392284388477746,
                -1.731289765469853,
                -0.278082652949351,
                -0.11007926726406758
            ]
        },
        {
            "positions": [
                -0.8900201520695759,
                -0.849730699026883,
                -0.8123272581656149,
                -1.7986182438940908,
                -0.31689747431597004,
                0.012107705959249593
            ]
        },
        {
            "positions": [
                -0.7978071937322748,
                -0.848714047911423,
                -0.885426077483455,
                -1.8659467223183281,
                -0.3557122956825889,
                0.13429467918256588
            ]
        },
        {
            "positions": [
                -0.7055942353949729,
                -0.847697396795963,
                -0.9585248968012954,
                -1.9332752007425658,
                -0.39452711704920784,
                0.25648165240588305
            ]
        },
        {
            "positions": [
                -0.613381277057671,
                -0.8466807456805029,
                -1.031623716119136,
                -2.000603679166803,
                -0.4333419384158268,
                0.3786686256291998
            ]
        },
        {
            "positions": [
                -0.5211683187203691,
                -0.8456640945650429,
                -1.1047225354369763,
                -2.067932157591041,
                -0.47215675978244587,
                0.5008555988525165
            ]
        },
        {
            "positions": [
                -0.42895536038306803,
                -0.8446474434495829,
                -1.1778213547548164,
                -2.1352606360152784,
                -0.5109715811490647,
                0.6230425720758332
            ]
        },
        {
            "positions": [
                -0.3367424020457661,
                -0.8436307923341227,
                -1.2509201740726565,
                -2.202589114439516,
                -0.5497864025156838,
                0.74522954529915
            ]
        },
        {
            "positions": [
                -0.2445294437084642,
                -0.8426141412186627,
                -1.3240189933904971,
                -2.2699175928637536,
                -0.5886012238823028,
                0.8674165185224667
            ]
        },
        {
            "positions": [
                -0.15231648537116227,
                -0.8415974901032027,
                -1.3971178127083377,
                -2.3372460712879914,
                -0.6274160452489217,
                0.9896034917457839
            ]
        },
        {
            "positions": [
                -0.06010352703386124,
                -0.8405808389877426,
                -1.4702166320261774,
                -2.404574549712229,
                -0.6662308666155405,
                1.1117904649691002
            ]
        },
        {
            "positions": [
                0.03210943130344068,
                -0.8395641878722826,
                -1.543315451344018,
                -2.4719030281364662,
                -0.7050456879821596,
                1.2339774381924173
            ]
        },
        {
            "positions": [
                0.1243223896407426,
                -0.8385475367568226,
                -1.6164142706618585,
                -2.539231506560704,
                -0.7438605093487787,
                1.3561644114157336
            ]
        },
        {
            "positions": [
                0.21653534797804452,
                -0.8375308856413625,
                -1.6895130899796986,
                -2.606559984984942,
                -0.7826753307153975,
                1.4783513846390508
            ]
        },
        {
            "positions": [
                0.30874830631534556,
                -0.8365142345259025,
                -1.7626119092975387,
                -2.6738884634091793,
                -0.8214901520820164,
                1.600538357862367
            ]
        },
        {
            "positions": [
                0.4009612646526475,
                -0.8354975834104424,
                -1.8357107286153793,
                -2.7412169418334167,
                -0.8603049734486354,
                1.7227253310856843
            ]
        },
        {
            "positions": [
                0.4931742229899494,
                -0.8344809322949823,
                -1.9088095479332194,
                -2.8085454202576545,
                -0.8991197948152545,
                1.8449123043090014
            ]
        },
        {
            "positions": [
                0.5853871813272513,
                -0.8334642811795223,
                -1.98190836725106,
                -2.8758738986818924,
                -0.9379346161818736,
                1.9670992775323177
            ]
        },
        {
            "positions": [
                0.6776001396645523,
                -0.8324476300640623,
                -2.0550071865689,
                -2.9432023771061298,
                -0.9767494375484924,
                2.089286250755635
            ]
        },
        {
            "positions": [
                0.7698130980018543,
                -0.8314309789486022,
                -2.1281060058867403,
                -3.010530855530367,
                -1.0155642589151113,
                2.211473223978951
            ]
        },
        {
            "positions": [
                0.8620260563391562,
                -0.8304143278331422,
                -2.201204825204581,
                -3.077859333954605,
                -1.0543790802817303,
                2.333660197202269
            ]
        },
        {
            "positions": [
                0.8200348634763812,
                -0.9306205002454817,
                -2.2264836009764033,
                -3.0016443770450203,
                -0.9619164326189001,
                2.3721963026131343
            ]
        },
        {
            "positions": [
                0.7780436706136064,
                -1.0308266726578212,
                -2.251762376748226,
                -2.925429420135435,
                -0.86945378495607,
                2.4107324080239994
            ]
        },
        {
            "positions": [
                0.7360524777508314,
                -1.1310328450701608,
                -2.2770411525200487,
                -2.8492144632258505,
                -0.7769911372932399,
                2.449268513434865
            ]
        },
        {
            "positions": [
                0.6940612848880565,
                -1.2312390174825005,
                -2.302319928291871,
                -2.7729995063162654,
                -0.6845284896304096,
                2.48780461884573
            ]
        },
        {
            "positions": [
                0.6520700920252815,
                -1.33144518989484,
                -2.3275987040636936,
                -2.6967845494066807,
                -0.5920658419675795,
                2.5263407242565954
            ]
        },
        {
            "positions": [
                0.6100788991625066,
                -1.4316513623071796,
                -2.3528774798355165,
                -2.6205695924970955,
                -0.4996031943047493,
                2.5648768296674604
            ]
        },
        {
            "positions": [
                0.5680877062997316,
                -1.5318575347195191,
                -2.378156255607339,
                -2.544354635587511,
                -0.4071405466419191,
                2.603412935078326
            ]
        },
        {
            "positions": [
                0.5260965134369567,
                -1.6320637071318589,
                -2.4034350313791615,
                -2.4681396786779257,
                -0.31467789897908893,
                2.641949040489191
            ]
        },
        {
            "positions": [
                0.48410532057418176,
                -1.7322698795441984,
                -2.4287138071509844,
                -2.391924721768341,
                -0.22221525131625863,
                2.6804851459000565
            ]
        },
        {
            "positions": [
                0.4421141277114069,
                -1.832476051956538,
                -2.453992582922807,
                -2.315709764858756,
                -0.12975260365342856,
                2.7190212513109215
            ]
        },
        {
            "positions": [
                0.40012293484863193,
                -1.9326822243688775,
                -2.4792713586946293,
                -2.239494807949171,
                -0.037289955990598256,
                2.757557356721787
            ]
        },
        {
            "positions": [
                0.2536185412569434,
                -1.8852717251600173,
                -2.451185290934636,
                -2.2192462394676418,
                -0.07331031749971126,
                2.8483826082591817
            ]
        },
        {
            "positions": [
                0.1071141476652549,
                -1.837861225951157,
                -2.423099223174643,
                -2.1989976709861123,
                -0.10933067900882427,
                2.939207859796576
            ]
        },
        {
            "positions": [
                -0.03939024592643359,
                -1.7904507267422967,
                -2.3950131554146497,
                -2.1787491025045833,
                -0.1453510405179373,
                3.0300331113339705
            ]
        },
        {
            "positions": [
                -0.18589463951812213,
                -1.7430402275334365,
                -2.3669270876546564,
                -2.158500534023054,
                -0.1813714020270503,
                3.120858362871365
            ]
        }
    ]
}