{
    "goal": {
        "global_pose": {
            "orientation": {
                "w": 0.005598929693374612,
                "x": 0.007748599140229565,
                "y": 0.7110244013736278,
                "z": -0.7031023480610252
            },
            "position": {
                "x": 0.1141497679147869,
                "y": -0.7141253447532654,
                "z": 0.3711530566215515
            }
        },
        "name": "move_to_auspresseinheit_B"
    },
    "id": "SBL_move_to_auspresseinheit_B_67",
    "joint_names": [
        "shoulder_pan_joint",
        "shoulder_lift_joint",
        "elbow_joint",
        "wrist_1_joint",
        "wrist_2_joint",
        "wrist_3_joint"
    ],
    "metrics": {
        "cart_traj_len": 0.5647126584949075,
        "distance_elbow_joint": 0.0599060881253346,
        "distance_shoulder_lift_joint": 0.2958995401856581,
        "distance_shoulder_pan_joint": 0.579088808411732,
        "distance_wrist_1_joint": 0.32041291631247304,
        "distance_wrist_2_joint": 0.9853136754664606,
        "distance_wrist_3_joint": 0.010722656700776767,
        "smoothness": 2.5376526478085547e-16,
        "time": 0.11459248400000001,
        "traj_len": 1.500447828217441,
        "weighted_distance": 1.8916964847413875
    },
    "planner": "SBL",
    "start": {
        "state": {
            "elbow_joint": 2.0193083361928714,
            "shoulder_lift_joint": -1.1220246554650708,
            "shoulder_pan_joint": -1.0952077554168747,
            "wrist_1_joint": -0.8559753972642168,
            "wrist_2_joint": 0.4759566250798843,
            "wrist_3_joint": -3.1240929996934557
        }
    },
    "waypoints": [
        {
            "positions": [
                -1.0952077554168747,
                -1.1220246554650708,
                2.0193083361928714,
                -0.8559753972642168,
                0.4759566250798843,
                -3.1240929996934557
            ]
        },
        {
            "positions": [
                -1.19172255681883,
                -1.1713412454960137,
                2.009323988171982,
                -0.8025732445454713,
                0.6401755709909611,
                -3.122305890243326
            ]
        },
        {
            "positions": [
                -1.2882373582207853,
                -1.2206578355269568,
                1.9993396401510932,
                -0.7491710918267258,
                0.8043945169020379,
                -3.120518780793197
            ]
        },
        {
            "positions": [
                -1.3847521596227406,
                -1.2699744255579,
                1.9893552921302042,
                -0.6957689391079802,
                0.9686134628131147,
                -3.1187316713430673
            ]
        },
        {
            "positions": [
                -1.481266961024696,
                -1.3192910155888429,
                1.979370944109315,
                -0.6423667863892348,
                1.1328324087241914,
                -3.1169445618929377
            ]
        },
        {
            "positions": [
                -1.5777817624266515,
                -1.3686076056197858,
                1.9693865960884258,
                -0.5889646336704892,
                1.2970513546352682,
                -3.1151574524428085
            ]
        },
        {
            "positions": [
                -1.6742965638286067,
                -1.417924195650729,
                1.9594022480675368,
                -0.5355624809517437,
                1.461270300546345,
                -3.113370342992679
            ]
        }
    ]
}