{
    "goal": {
        "global_pose": {
            "orientation": {
                "w": 0.7031023502349854,
                "x": -0.7110244035720825,
                "y": 0.007748599164187908,
                "z": 0.005598929710686207
            },
            "position": {
                "x": 0.11585023208521307,
                "y": 0.44412534475326537,
                "z": 0.3711530566215515
            }
        },
        "name": "move_to_auspresseinheit_A"
    },
    "id": "SBL_move_to_auspresseinheit_A_102",
    "joint_names": [
        "shoulder_pan_joint",
        "shoulder_lift_joint",
        "elbow_joint",
        "wrist_1_joint",
        "wrist_2_joint",
        "wrist_3_joint"
    ],
    "metrics": {
        "cart_traj_len": 3.230792453774645,
        "distance_elbow_joint": 3.0745479760684993,
        "distance_shoulder_lift_joint": 0.8605874457814622,
        "distance_shoulder_pan_joint": 3.1314584095753295,
        "distance_wrist_1_joint": 3.9584944568414233,
        "distance_wrist_2_joint": 1.1127636754143986,
        "distance_wrist_3_joint": 6.45457021596974,
        "smoothness": 0.5341437473233358,
        "time": 0.17369690699999998,
        "traj_len": 4.3118931085604215,
        "weighted_distance": 6.047546671489702
    },
    "planner": "SBL",
    "start": {
        "state": {
            "elbow_joint": 2.4225746658250005,
            "shoulder_lift_joint": -1.3736534386056498,
            "shoulder_pan_joint": -0.3378633547517467,
            "wrist_1_joint": -1.0288598680537169,
            "wrist_2_joint": 1.233022673432363,
            "wrist_3_joint": -3.0940220416140027
        }
    },
    "waypoints": [
        {
            "positions": [
                -0.3378633547517467,
                -1.3736534386056498,
                2.4225746658250005,
                -1.0288598680537169,
                1.233022673432363,
                -3.0940220416140027
            ]
        },
        {
            "positions": [
                -0.2776997824555407,
                -1.4035738724142337,
                2.35352827301198,
                -0.9914770452329639,
                1.2315497499215269,
                -2.9054261352042103
            ]
        },
        {
            "positions": [
                -0.21753621015933472,
                -1.4334943062228174,
                2.284481880198959,
                -0.9540942224122108,
                1.2300768264106905,
                -2.716830228794418
            ]
        },
        {
            "positions": [
                -0.15737263786312872,
                -1.4634147400314013,
                2.2154354873859385,
                -0.9167113995914578,
                1.2286039028998543,
                -2.528234322384626
            ]
        },
        {
            "positions": [
                -0.09720906556692269,
                -1.4933351738399852,
                2.146389094572918,
                -0.8793285767707048,
                1.227130979389018,
                -2.3396384159748336
            ]
        },
        {
            "positions": [
                -0.03704549327071671,
                -1.523255607648569,
                2.0773427017598975,
                -0.8419457539499517,
                1.2256580558781818,
                -2.151042509565041
            ]
        },
        {
            "positions": [
                0.02311807902548929,
                -1.5531760414571527,
                2.0082963089468766,
                -0.8045629311291986,
                1.2241851323673454,
                -1.962446603155249
            ]
        },
        {
            "positions": [
                0.08328165132169535,
                -1.5830964752657366,
                1.9392499161338561,
                -0.7671801083084456,
                1.2227122088565092,
                -1.7738506967454566
            ]
        },
        {
            "positions": [
                0.14344522361790135,
                -1.6130169090743205,
                1.8702035233208356,
                -0.7297972854876926,
                1.2212392853456728,
                -1.5852547903356642
            ]
        },
        {
            "positions": [
                0.20360879591410735,
                -1.6429373428829042,
                1.801157130507815,
                -0.6924144626669395,
                1.2197663618348367,
                -1.3966588839258718
            ]
        },
        {
            "positions": [
                0.2637723682103133,
                -1.672857776691488,
                1.7321107376947942,
                -0.6550316398461866,
                1.2182934383240003,
                -1.2080629775160796
            ]
        },
        {
            "positions": [
                0.3239359405065194,
                -1.702778210500072,
                1.6630643448817737,
                -0.6176488170254335,
                1.2168205148131641,
                -1.0194670711062872
            ]
        },
        {
            "positions": [
                0.4078387911198407,
                -1.7244684374216896,
                1.616387221243667,
                -0.5085322430123682,
                1.170428434775732,
                -0.9529298497616719
            ]
        },
        {
            "positions": [
                0.49174164173316204,
                -1.7461586643433074,
                1.5697100976055602,
                -0.39941566899930303,
                1.1240363547383,
                -0.8863926284170567
            ]
        },
        {
            "positions": [
                0.5756444923464833,
                -1.7678488912649248,
                1.5230329739674535,
                -0.29029909498623774,
                1.077644274700868,
                -0.8198554070724415
            ]
        },
        {
            "positions": [
                0.6595473429598047,
                -1.7895391181865425,
                1.4763558503293468,
                -0.1811825209731725,
                1.0312521946634363,
                -0.7533181857278262
            ]
        },
        {
            "positions": [
                0.7434501935731259,
                -1.8112293451081602,
                1.42967872669124,
                -0.07206594696010726,
                0.9848601146260043,
                -0.686780964383211
            ]
        },
        {
            "positions": [
                0.8273530441864472,
                -1.832919572029778,
                1.3830016030531334,
                0.03705062705295803,
                0.9384680345885723,
                -0.6202437430385958
            ]
        },
        {
            "positions": [
                0.9112558947997684,
                -1.8546097989513957,
                1.3363244794150266,
                0.1461672010660232,
                0.8920759545511403,
                -0.5537065216939805
            ]
        },
        {
            "positions": [
                0.9951587454130898,
                -1.8763000258730134,
                1.28964735577692,
                0.2552837750790885,
                0.8456838745137084,
                -0.48716930034936523
            ]
        },
        {
            "positions": [
                1.0790615960264112,
                -1.8979902527946308,
                1.2429702321388132,
                0.3644003490921538,
                0.7992917944762764,
                -0.4206320790047501
            ]
        },
        {
            "positions": [
                1.1629644466397324,
                -1.9196804797162486,
                1.1962931085007062,
                0.473516923105219,
                0.7528997144388445,
                -0.3540948576601348
            ]
        },
        {
            "positions": [
                1.2468672972530537,
                -1.9413707066378663,
                1.1496159848625995,
                0.5826334971182843,
                0.7065076344014125,
                -0.28755763631551956
            ]
        },
        {
            "positions": [
                1.330770147866375,
                -1.963060933559484,
                1.1029388612244928,
                0.6917500711313496,
                0.6601155543639805,
                -0.2210204149709043
            ]
        },
        {
            "positions": [
                1.4146729984796962,
                -1.9847511604811015,
                1.0562617375863863,
                0.8008666451444146,
                0.6137234743265486,
                -0.15448319362628915
            ]
        },
        {
            "positions": [
                1.4985758490930174,
                -2.0064413874027194,
                1.0095846139482796,
                0.9099832191574799,
                0.5673313942891166,
                -0.08794597228167389
            ]
        },
        {
            "positions": [
                1.5824786997063387,
                -2.028131614324337,
                0.9629074903101726,
                1.0190997931705452,
                0.5209393142516846,
                -0.02140875093705863
            ]
        },
        {
            "positions": [
                1.6663815503196602,
                -2.049821841245955,
                0.9162303666720659,
                1.1282163671836105,
                0.4745472342142527,
                0.04512847040755674
            ]
        },
        {
            "positions": [
                1.7502844009329814,
                -2.0715120681675723,
                0.8695532430339592,
                1.2373329411966758,
                0.4281551541768207,
                0.11166569175217189
            ]
        },
        {
            "positions": [
                1.6975759969702071,
                -2.069741673982968,
                0.9522586200230438,
                1.1504156916149357,
                0.444733461994325,
                -0.02830202351680372
            ]
        },
        {
            "positions": [
                1.6448675930074328,
                -2.0679712797983636,
                1.0349639970121285,
                1.0634984420331957,
                0.4613117698118293,
                -0.16826973878577933
            ]
        },
        {
            "positions": [
                1.5921591890446585,
                -2.0662008856137595,
                1.1176693740012131,
                0.9765811924514557,
                0.4778900776293336,
                -0.308237454054755
            ]
        },
        {
            "positions": [
                1.5394507850818844,
                -2.0644304914291554,
                1.2003747509902978,
                0.8896639428697156,
                0.4944683854468379,
                -0.44820516932373056
            ]
        },
        {
            "positions": [
                1.48674238111911,
                -2.062660097244551,
                1.2830801279793824,
                0.8027466932879755,
                0.5110466932643423,
                -0.5881728845927063
            ]
        },
        {
            "positions": [
                1.4340339771563357,
                -2.0608897030599467,
                1.3657855049684668,
                0.7158294437062356,
                0.5276250010818465,
                -0.7281405998616819
            ]
        },
        {
            "positions": [
                1.3813255731935614,
                -2.0591193088753426,
                1.4484908819575515,
                0.6289121941244954,
                0.5442033088993508,
                -0.8681083151306576
            ]
        },
        {
            "positions": [
                1.328617169230787,
                -2.057348914690738,
                1.5311962589466361,
                0.5419949445427554,
                0.5607816167168551,
                -1.008076030399633
            ]
        },
        {
            "positions": [
                1.2759087652680128,
                -2.055578520506134,
                1.6139016359357208,
                0.45507769496101536,
                0.5773599245343595,
                -1.1480437456686088
            ]
        },
        {
            "positions": [
                1.2232003613052385,
                -2.0538081263215298,
                1.6966070129248054,
                0.3681604453792753,
                0.5939382323518637,
                -1.2880114609375846
            ]
        },
        {
            "positions": [
                1.1704919573424641,
                -2.052037732136925,
                1.77931238991389,
                0.2812431957975352,
                0.6105165401693681,
                -1.4279791762065601
            ]
        },
        {
            "positions": [
                1.1177835533796898,
                -2.050267337952321,
                1.8620177669029747,
                0.19432594621579535,
                0.6270948479868723,
                -1.5679468914755357
            ]
        },
        {
            "positions": [
                1.0650751494169155,
                -2.048496943767717,
                1.9447231438920594,
                0.10740869663405528,
                0.6436731558043767,
                -1.7079146067445112
            ]
        },
        {
            "positions": [
                1.0123667454541412,
                -2.0467265495831124,
                2.027428520881144,
                0.02049144705231498,
                0.6602514636218809,
                -1.847882322013487
            ]
        },
        {
            "positions": [
                0.959658341491367,
                -2.0449561553985083,
                2.1101338978702286,
                -0.0664258025294251,
                0.6768297714393852,
                -1.9878500372824628
            ]
        },
        {
            "positions": [
                0.9069499375285928,
                -2.043185761213904,
                2.1928392748593133,
                -0.15334305211116495,
                0.6934080792568895,
                -2.127817752551438
            ]
        },
        {
            "positions": [
                0.8542415335658184,
                -2.0414153670292996,
                2.275544651848398,
                -0.24026030169290502,
                0.7099863870743939,
                -2.267785467820414
            ]
        },
        {
            "positions": [
                0.8015331296030441,
                -2.0396449728446955,
                2.3582500288374826,
                -0.327177551274645,
                0.7265646948918981,
                -2.4077531830893895
            ]
        },
        {
            "positions": [
                0.7700133354161562,
                -1.9960243992124744,
                2.3691932846621273,
                -0.3697746029812154,
                0.723402489743972,
                -2.6509077190100565
            ]
        },
        {
            "positions": [
                0.7384935412292682,
                -1.9524038255802536,
                2.3801365404867725,
                -0.41237165468778575,
                0.720240284596046,
                -2.894062254930724
            ]
        },
        {
            "positions": [
                0.7069737470423804,
                -1.9087832519480326,
                2.391079796311417,
                -0.45496870639435616,
                0.71707807944812,
                -3.137216790851391
            ]
        }
    ]
}