{
    "goal": {
        "global_pose": {
            "orientation": {
                "w": -0.00223480608172531,
                "x": 0.0024358444001904467,
                "y": 0.7094548369677653,
                "z": -0.704743149386269
            },
            "position": {
                "x": -0.37947507619857795,
                "y": -0.6371506643295288,
                "z": 0.19426114857196808
            }
        },
        "name": "move_to_magneteinheit_C"
    },
    "id": "SBL_move_to_magneteinheit_C_41",
    "joint_names": [
        "shoulder_pan_joint",
        "shoulder_lift_joint",
        "elbow_joint",
        "wrist_1_joint",
        "wrist_2_joint",
        "wrist_3_joint"
    ],
    "metrics": {
        "cart_traj_len": 1.2782560781349022,
        "distance_elbow_joint": 1.1388817870073686,
        "distance_shoulder_lift_joint": 1.9749158208392252,
        "distance_shoulder_pan_joint": 1.9464343249660978,
        "distance_wrist_1_joint": 6.386064191870992,
        "distance_wrist_2_joint": 2.0111340599611682,
        "distance_wrist_3_joint": 5.5132212973476165,
        "smoothness": 0.6464797894379822,
        "time": 0.49655913,
        "traj_len": 4.355531136611523,
        "weighted_distance": 6.196312801055146
    },
    "planner": "SBL",
    "start": {
        "state": {
            "elbow_joint": 1.9565354010623817,
            "shoulder_lift_joint": -1.4165861575791021,
            "shoulder_pan_joint": -1.6717766225146293,
            "wrist_1_joint": -0.5286633292919765,
            "wrist_2_joint": 1.472756589071564,
            "wrist_3_joint": -3.1238370188695823
        }
    },
    "waypoints": [
        {
            "positions": [
                -1.6717766225146293,
                -1.4165861575791021,
                1.9565354010623817,
                -0.5286633292919765,
                1.472756589071564,
                -3.1238370188695823
            ]
        },
        {
            "positions": [
                -1.7246596786680874,
                -1.4496913457082525,
                1.9795011320103946,
                -0.41198275814687657,
                1.418587084808767,
                -3.018063080286911
            ]
        },
        {
            "positions": [
                -1.7775427348215453,
                -1.4827965338374027,
                2.0024668629584075,
                -0.2953021870017767,
                1.3644175805459702,
                -2.91228914170424
            ]
        },
        {
            "positions": [
                -1.8304257909750035,
                -1.5159017219665532,
                2.025432593906421,
                -0.1786216158566768,
                1.3102480762831732,
                -2.8065152031215685
            ]
        },
        {
            "positions": [
                -1.8833088471284616,
                -1.5490069100957033,
                2.0483983248544337,
                -0.06194104471157691,
                1.2560785720203764,
                -2.7007412645388973
            ]
        },
        {
            "positions": [
                -1.9361919032819197,
                -1.5821120982248538,
                2.0713640558024466,
                0.05473952643352298,
                1.2019090677575794,
                -2.594967325956226
            ]
        },
        {
            "positions": [
                -1.9890749594353778,
                -1.615217286354004,
                2.0943297867504596,
                0.17142009757862287,
                1.1477395634947825,
                -2.4891933873735548
            ]
        },
        {
            "positions": [
                -2.0419580155888357,
                -1.6483224744831544,
                2.1172955176984725,
                0.28810066872372264,
                1.0935700592319857,
                -2.3834194487908835
            ]
        },
        {
            "positions": [
                -2.0948410717422936,
                -1.6814276626123048,
                2.140261248646486,
                0.40478123986882264,
                1.0394005549691887,
                -2.2776455102082123
            ]
        },
        {
            "positions": [
                -2.147724127895752,
                -1.714532850741455,
                2.1632269795944987,
                0.5214618110139224,
                0.9852310507063918,
                -2.171871571625541
            ]
        },
        {
            "positions": [
                -2.20060718404921,
                -1.7476380388706054,
                2.1861927105425116,
                0.6381423821590224,
                0.9310615464435948,
                -2.0660976330428698
            ]
        },
        {
            "positions": [
                -2.2534902402026677,
                -1.7807432269997556,
                2.2091584414905245,
                0.7548229533041222,
                0.8768920421807981,
                -1.9603236944601987
            ]
        },
        {
            "positions": [
                -2.306373296356126,
                -1.813848415128906,
                2.2321241724385374,
                0.8715035244492222,
                0.8227225379180011,
                -1.8545497558775275
            ]
        },
        {
            "positions": [
                -2.359256352509584,
                -1.8469536032580565,
                2.2550899033865504,
                0.988184095594322,
                0.7685530336552042,
                -1.7487758172948562
            ]
        },
        {
            "positions": [
                -2.412139408663042,
                -1.8800587913872067,
                2.2780556343345637,
                1.1048646667394217,
                0.7143835293924073,
                -1.643001878712185
            ]
        },
        {
            "positions": [
                -2.4650224648165002,
                -1.9131639795163569,
                2.3010213652825766,
                1.2215452378845215,
                0.6602140251296105,
                -1.537227940129514
            ]
        },
        {
            "positions": [
                -2.5179055209699586,
                -1.9462691676455073,
                2.3239870962305895,
                1.3382258090296217,
                0.6060445208668135,
                -1.4314540015468424
            ]
        },
        {
            "positions": [
                -2.5707885771234165,
                -1.9793743557746577,
                2.3469528271786024,
                1.4549063801747215,
                0.5518750166040166,
                -1.3256800629641712
            ]
        },
        {
            "positions": [
                -2.6236716332768744,
                -2.012479543903808,
                2.3699185581266153,
                1.5715869513198213,
                0.49770551234121974,
                -1.2199061243815001
            ]
        },
        {
            "positions": [
                -2.6765546894303327,
                -2.0455847320329585,
                2.3928842890746287,
                1.688267522464921,
                0.44353600807842297,
                -1.1141321857988289
            ]
        },
        {
            "positions": [
                -2.7294377455837906,
                -2.0786899201621085,
                2.4158500200226416,
                1.8049480936100213,
                0.38936650381562576,
                -1.0083582472161576
            ]
        },
        {
            "positions": [
                -2.7823208017372485,
                -2.111795108291259,
                2.4388157509706545,
                1.921628664755121,
                0.335196999552829,
                -0.9025843086334864
            ]
        },
        {
            "positions": [
                -2.835203857890707,
                -2.1449002964204094,
                2.4617814819186674,
                2.038309235900221,
                0.28102749529003224,
                -0.7968103700508151
            ]
        },
        {
            "positions": [
                -2.8880869140441647,
                -2.1780054845495593,
                2.4847472128666803,
                2.154989807045321,
                0.22685799102723525,
                -0.6910364314681439
            ]
        },
        {
            "positions": [
                -2.9409699701976226,
                -2.2111106726787098,
                2.5077129438146937,
                2.2716703781904206,
                0.17268848676443826,
                -0.5852624928854726
            ]
        },
        {
            "positions": [
                -2.993853026351081,
                -2.24421586080786,
                2.5306786747627066,
                2.3883509493355204,
                0.11851898250164128,
                -0.47948855430280135
            ]
        },
        {
            "positions": [
                -3.046736082504539,
                -2.2773210489370106,
                2.5536444057107195,
                2.5050315204806206,
                0.06434947823884452,
                -0.3737146157201301
            ]
        },
        {
            "positions": [
                -3.0218893492447045,
                -2.228878399829127,
                2.5300890673472836,
                2.3592763316937337,
                0.09055499776616842,
                -0.493849350250485
            ]
        },
        {
            "positions": [
                -2.99704261598487,
                -2.180435750721244,
                2.506533728983847,
                2.2135211429068473,
                0.11676051729349232,
                -0.6139840847808399
            ]
        },
        {
            "positions": [
                -2.972195882725036,
                -2.1319931016133604,
                2.4829783906204113,
                2.0677659541199604,
                0.1429660368208162,
                -0.7341188193111947
            ]
        },
        {
            "positions": [
                -2.947349149465202,
                -2.0835504525054773,
                2.459423052256975,
                1.922010765333074,
                0.16917155634814013,
                -0.8542535538415497
            ]
        },
        {
            "positions": [
                -2.9225024162053677,
                -2.035107803397594,
                2.435867713893539,
                1.7762555765461872,
                0.19537707587546405,
                -0.9743882883719045
            ]
        },
        {
            "positions": [
                -2.8976556829455333,
                -1.9866651542897107,
                2.4123123755301026,
                1.6305003877593007,
                0.22158259540278794,
                -1.0945230229022593
            ]
        },
        {
            "positions": [
                -2.872808949685699,
                -1.9382225051818271,
                2.3887570371666667,
                1.4847451989724139,
                0.24778811493011185,
                -1.2146577574326143
            ]
        },
        {
            "positions": [
                -2.8479622164258647,
                -1.8897798560739438,
                2.3652016988032307,
                1.3389900101855272,
                0.27399363445743574,
                -1.3347924919629692
            ]
        },
        {
            "positions": [
                -2.8231154831660303,
                -1.8413372069660605,
                2.3416463604397943,
                1.1932348213986406,
                0.30019915398475966,
                -1.4549272264933242
            ]
        },
        {
            "positions": [
                -2.798268749906196,
                -1.7928945578581772,
                2.3180910220763584,
                1.047479632611754,
                0.3264046735120836,
                -1.575061961023679
            ]
        },
        {
            "positions": [
                -2.7734220166463617,
                -1.7444519087502939,
                2.294535683712922,
                0.901724443824867,
                0.3526101930394075,
                -1.6951966955540338
            ]
        },
        {
            "positions": [
                -2.748575283386528,
                -1.6960092596424106,
                2.270980345349486,
                0.7559692550379806,
                0.37881571256673136,
                -1.8153314300843888
            ]
        },
        {
            "positions": [
                -2.7237285501266935,
                -1.6475666105345272,
                2.2474250069860497,
                0.610214066251094,
                0.4050212320940553,
                -1.9354661646147435
            ]
        },
        {
            "positions": [
                -2.698881816866859,
                -1.5991239614266437,
                2.223869668622614,
                0.4644588774642071,
                0.4312267516213792,
                -2.055600899145099
            ]
        },
        {
            "positions": [
                -2.674035083607025,
                -1.5506813123187606,
                2.200314330259178,
                0.31870368867732024,
                0.4574322711487031,
                -2.1757356336754534
            ]
        },
        {
            "positions": [
                -2.6491883503471905,
                -1.502238663210877,
                2.1767589918957415,
                0.17294849989043382,
                0.48363779067602697,
                -2.2958703682058084
            ]
        },
        {
            "positions": [
                -2.624341617087356,
                -1.453796014102994,
                2.1532036535323056,
                0.02719331110354739,
                0.5098433102033508,
                -2.416005102736163
            ]
        },
        {
            "positions": [
                -2.599494883827522,
                -1.4053533649951104,
                2.129648315168869,
                -0.11856187768333948,
                0.5360488297306748,
                -2.5361398372665183
            ]
        },
        {
            "positions": [
                -2.574648150567688,
                -1.3569107158872273,
                2.1060929768054333,
                -0.26431706647022635,
                0.5622543492579988,
                -2.656274571796873
            ]
        },
        {
            "positions": [
                -2.5498014173078536,
                -1.3084680667793438,
                2.082537638441997,
                -0.41007225525711277,
                0.5884598687853226,
                -2.7764093063272277
            ]
        },
        {
            "positions": [
                -2.5249546840480193,
                -1.2600254176714605,
                2.058982300078561,
                -0.5558274440439992,
                0.6146653883126465,
                -2.8965440408575827
            ]
        },
        {
            "positions": [
                -2.500107950788185,
                -1.2115827685635772,
                2.0354269617151246,
                -0.7015826328308865,
                0.6408709078399705,
                -3.0166787753879376
            ]
        },
        {
            "positions": [
                -2.4752612175283506,
                -1.1631401194556938,
                2.0118716233516887,
                -0.847337821617773,
                0.6670764273672943,
                -3.1368135099182926
            ]
        }
    ]
}