{
    "goal": {
        "global_pose": {
            "orientation": {
                "w": 0.7031023502349854,
                "x": -0.7110244035720825,
                "y": 0.007748599164187908,
                "z": 0.005598929710686207
            },
            "position": {
                "x": 0.11585023208521307,
                "y": 0.44412534475326537,
                "z": 0.3711530566215515
            }
        },
        "name": "move_to_auspresseinheit_A"
    },
    "id": "SBL_move_to_auspresseinheit_A_60",
    "joint_names": [
        "shoulder_pan_joint",
        "shoulder_lift_joint",
        "elbow_joint",
        "wrist_1_joint",
        "wrist_2_joint",
        "wrist_3_joint"
    ],
    "metrics": {
        "cart_traj_len": 0.7154402693303492,
        "distance_elbow_joint": 0.08733461747983773,
        "distance_shoulder_lift_joint": 0.6262017161965994,
        "distance_shoulder_pan_joint": 1.042935879598522,
        "distance_wrist_1_joint": 0.548667032559103,
        "distance_wrist_2_joint": 0.5356606696791251,
        "distance_wrist_3_joint": 0.030339461049990746,
        "smoothness": 0.5673660133628275,
        "time": 0.451405797,
        "traj_len": 1.6944436776013472,
        "weighted_distance": 2.004032435092154
    },
    "planner": "SBL",
    "start": {
        "state": {
            "elbow_joint": 2.4225746658250005,
            "shoulder_lift_joint": -1.3736534386056498,
            "shoulder_pan_joint": -0.3378633547517467,
            "wrist_1_joint": -1.0288598680537169,
            "wrist_2_joint": 1.233022673432363,
            "wrist_3_joint": -3.0940220416140027
        }
    },
    "waypoints": [
        {
            "positions": [
                -0.3378633547517467,
                -1.3736534386056498,
                2.4225746658250005,
                -1.0288598680537169,
                1.233022673432363,
                -3.0940220416140027
            ]
        },
        {
            "positions": [
                -0.21408326302221184,
                -1.4566623050846572,
                2.414435717133348,
                -0.960148853917055,
                1.1567027034245774,
                -3.0951552981168775
            ]
        },
        {
            "positions": [
                -0.09030317129267695,
                -1.5396711715636644,
                2.4062967684416954,
                -0.891437839780393,
                1.0803827334167917,
                -3.0962885546197523
            ]
        },
        {
            "positions": [
                0.033476920436857904,
                -1.6226800380426718,
                2.398157819750043,
                -0.8227268256437311,
                1.004062763409006,
                -3.097421811122627
            ]
        },
        {
            "positions": [
                0.15725701216639282,
                -1.705688904521679,
                2.39001887105839,
                -0.7540158115070692,
                0.9277427934012202,
                -3.098555067625502
            ]
        },
        {
            "positions": [
                0.2810371038959278,
                -1.7886977710006864,
                2.3818799223667373,
                -0.6853047973704073,
                0.8514228233934344,
                -3.0996883241283766
            ]
        },
        {
            "positions": [
                0.40481719562546253,
                -1.8717066374796936,
                2.3737409736750847,
                -0.6165937832337454,
                0.7751028533856488,
                -3.1008215806312514
            ]
        },
        {
            "positions": [
                0.5285972873549976,
                -1.954715503958701,
                2.365602024983432,
                -0.5478827690970834,
                0.6987828833778631,
                -3.101954837134126
            ]
        },
        {
            "positions": [
                0.7050725248467753,
                -1.9095758531151528,
                2.3959640016217016,
                -0.48019283549461383,
                0.7002037630024882,
                -3.1243615026639935
            ]
        }
    ]
}