{
    "goal": {
        "global_pose": {
            "orientation": {
                "w": 0.5084816262002911,
                "x": -0.4908360881923452,
                "y": 0.5182115481033761,
                "z": -0.48164630358495003
            },
            "position": {
                "x": 0.5540239810943604,
                "y": -0.46912469901144505,
                "z": 0.16403168439865112
            }
        },
        "name": "move_to_storage_B"
    },
    "id": "SBL_move_to_storage_B_146",
    "joint_names": [
        "shoulder_pan_joint",
        "shoulder_lift_joint",
        "elbow_joint",
        "wrist_1_joint",
        "wrist_2_joint",
        "wrist_3_joint"
    ],
    "metrics": {
        "cart_traj_len": 4.931390523045715,
        "distance_elbow_joint": 4.021435630703663,
        "distance_shoulder_lift_joint": 1.358486625298506,
        "distance_shoulder_pan_joint": 3.9835134761179845,
        "distance_wrist_1_joint": 1.8444135223097575,
        "distance_wrist_2_joint": 1.0035372128048226,
        "distance_wrist_3_joint": 3.150450718337912,
        "smoothness": 0.05643123985343911,
        "time": 0.452758407,
        "traj_len": 3.9194179651540932,
        "weighted_distance": 4.950827138707537
    },
    "planner": "SBL",
    "start": {
        "state": {
            "elbow_joint": -1.6666013991110213,
            "shoulder_lift_joint": -2.479295265494141,
            "shoulder_pan_joint": 2.6606783912885628,
            "wrist_1_joint": 0.9897123657714939,
            "wrist_2_joint": 0.474351758749468,
            "wrist_3_joint": 0.013243222496468381
        }
    },
    "waypoints": [
        {
            "positions": [
                2.6606783912885628,
                -2.479295265494141,
                -1.6666013991110213,
                0.9897123657714939,
                0.474351758749468,
                0.013243222496468381
            ]
        },
        {
            "positions": [
                2.6761511192728724,
                -2.418267990164739,
                -1.6887911214625915,
                0.8264692535074494,
                0.4172728225878644,
                0.0755403678963525
            ]
        },
        {
            "positions": [
                2.6916238472571825,
                -2.3572407148353363,
                -1.7109808438141616,
                0.6632261412434048,
                0.3601938864262608,
                0.1378375132962366
            ]
        },
        {
            "positions": [
                2.707096575241492,
                -2.296213439505934,
                -1.7331705661657315,
                0.4999830289793605,
                0.3031149502646573,
                0.20013465869612074
            ]
        },
        {
            "positions": [
                2.7225693032258023,
                -2.2351861641765316,
                -1.7553602885173016,
                0.3367399167153159,
                0.24603601410305367,
                0.26243180409600486
            ]
        },
        {
            "positions": [
                2.738042031210112,
                -2.1741588888471295,
                -1.7775500108688718,
                0.17349680445127147,
                0.1889570779414501,
                0.32472894949588893
            ]
        },
        {
            "positions": [
                2.7471251082697528,
                -2.1124893197984083,
                -1.7919377785021573,
                0.02081353398014596,
                0.13941118004132097,
                0.3836032690193999
            ]
        },
        {
            "positions": [
                2.7562081853293936,
                -2.050819750749687,
                -1.8063255461354428,
                -0.13186973649097955,
                0.0898652821411918,
                0.4424775885429108
            ]
        },
        {
            "positions": [
                2.765291262389035,
                -1.989150181700966,
                -1.8207133137687281,
                -0.28455300696210506,
                0.04031938424106263,
                0.5013519080664217
            ]
        },
        {
            "positions": [
                2.7743743394486757,
                -1.9274806126522448,
                -1.8351010814020137,
                -0.4372362774332305,
                -0.009226513659066515,
                0.5602262275899327
            ]
        },
        {
            "positions": [
                2.629386394025176,
                -1.8561602740899503,
                -1.7375175913934635,
                -0.48196708692592405,
                -0.012080484339648779,
                0.5854738787946365
            ]
        },
        {
            "positions": [
                2.4843984486016755,
                -1.7848399355276556,
                -1.6399341013849131,
                -0.5266978964186176,
                -0.014934455020231042,
                0.6107215299993404
            ]
        },
        {
            "positions": [
                2.3394105031781756,
                -1.7135195969653612,
                -1.542350611376363,
                -0.5714287059113112,
                -0.017788425700813307,
                0.6359691812040442
            ]
        },
        {
            "positions": [
                2.1944225577546757,
                -1.6421992584030667,
                -1.4447671213678128,
                -0.6161595154040047,
                -0.020642396381395568,
                0.6612168324087481
            ]
        },
        {
            "positions": [
                2.0494346123311753,
                -1.570878919840772,
                -1.3471836313592624,
                -0.6608903248966984,
                -0.023496367061977833,
                0.6864644836134519
            ]
        },
        {
            "positions": [
                1.9044466669076754,
                -1.4995585812784777,
                -1.2496001413507125,
                -0.7056211343893919,
                -0.026350337742560095,
                0.7117121348181558
            ]
        },
        {
            "positions": [
                1.7594587214841753,
                -1.428238242716183,
                -1.1520166513421621,
                -0.7503519438820855,
                -0.02920430842314236,
                0.7369597860228596
            ]
        },
        {
            "positions": [
                1.6405044752344513,
                -1.4154286759444936,
                -1.019939504744128,
                -0.7546998277427597,
                -0.008371760688466845,
                0.8380737091400063
            ]
        },
        {
            "positions": [
                1.5215502289847276,
                -1.402619109172804,
                -0.8878623581460938,
                -0.7590477116034339,
                0.01246078704620867,
                0.939187632257153
            ]
        },
        {
            "positions": [
                1.4025959827350039,
                -1.3898095424011145,
                -0.7557852115480597,
                -0.7633955954641081,
                0.033293334780884185,
                1.0403015553742998
            ]
        },
        {
            "positions": [
                1.28364173648528,
                -1.376999975629425,
                -0.6237080649500255,
                -0.7677434793247823,
                0.0541258825155597,
                1.1414154784914463
            ]
        },
        {
            "positions": [
                1.164687490235556,
                -1.3641904088577355,
                -0.49163091835199124,
                -0.7720913631854565,
                0.07495843025023521,
                1.2425294016085933
            ]
        },
        {
            "positions": [
                1.0457332439858322,
                -1.351380842086046,
                -0.3595537717539571,
                -0.7764392470461305,
                0.09579097798491074,
                1.3436433247257398
            ]
        },
        {
            "positions": [
                0.9267789977361084,
                -1.3385712753143566,
                -0.22747662515592282,
                -0.7807871309068047,
                0.11662352571958626,
                1.4447572478428865
            ]
        },
        {
            "positions": [
                0.8078247514863846,
                -1.325761708542667,
                -0.09539947855788888,
                -0.7851350147674789,
                0.13745607345426175,
                1.5458711709600332
            ]
        },
        {
            "positions": [
                0.6888705052366608,
                -1.3129521417709775,
                0.036677668040145495,
                -0.7894828986281531,
                0.15828862118893727,
                1.6469850940771797
            ]
        },
        {
            "positions": [
                0.5699162589869369,
                -1.300142574999288,
                0.16875481463817965,
                -0.7938307824888273,
                0.1791211689236128,
                1.7480990171943267
            ]
        },
        {
            "positions": [
                0.45096201273721315,
                -1.2873330082275984,
                0.3008319612362138,
                -0.7981786663495015,
                0.1999537166582883,
                1.8492129403114732
            ]
        },
        {
            "positions": [
                0.3320077664874892,
                -1.274523441455909,
                0.43290910783424796,
                -0.8025265502101757,
                0.2207862643929638,
                1.95032686342862
            ]
        },
        {
            "positions": [
                0.21305352023776547,
                -1.2617138746842196,
                0.5649862544322821,
                -0.8068744340708499,
                0.2416188121276393,
                2.0514407865457667
            ]
        },
        {
            "positions": [
                0.09409927398804152,
                -1.24890430791253,
                0.6970634010303165,
                -0.8112223179315241,
                0.2624513598623149,
                2.1525547096629136
            ]
        },
        {
            "positions": [
                -0.02485497226168243,
                -1.2360947411408405,
                0.8291405476283504,
                -0.8155702017921983,
                0.28328390759699035,
                2.2536686327800597
            ]
        },
        {
            "positions": [
                -0.14380921851140616,
                -1.223285174369151,
                0.9612176942263844,
                -0.8199180856528725,
                0.30411645533166587,
                2.3547825558972066
            ]
        },
        {
            "positions": [
                -0.2627634647611299,
                -1.2104756075974614,
                1.0932948408244187,
                -0.8242659695135467,
                0.3249490030663414,
                2.4558964790143536
            ]
        },
        {
            "positions": [
                -0.3817177110108536,
                -1.197666040825772,
                1.2253719874224531,
                -0.8286138533742209,
                0.3457815508010169,
                2.5570104021315
            ]
        },
        {
            "positions": [
                -0.5006719572605778,
                -1.1848564740540826,
                1.357449134020487,
                -0.832961737234895,
                0.3666140985356924,
                2.6581243252486466
            ]
        },
        {
            "positions": [
                -0.6196262035103015,
                -1.172046907282393,
                1.4895262806185214,
                -0.8373096210955692,
                0.38744664627036796,
                2.7592382483657936
            ]
        },
        {
            "positions": [
                -0.7385804497600252,
                -1.1592373405107035,
                1.6216034272165554,
                -0.8416575049562434,
                0.4082791940050434,
                2.8603521714829405
            ]
        },
        {
            "positions": [
                -0.857534696009749,
                -1.146427773739014,
                1.7536805738145897,
                -0.8460053888169176,
                0.42911174173971894,
                2.9614660946000866
            ]
        },
        {
            "positions": [
                -0.9764889422594731,
                -1.1336182069673244,
                1.8857577204126241,
                -0.8503532726775918,
                0.44994428947439447,
                3.0625800177172335
            ]
        },
        {
            "positions": [
                -1.0954431885091966,
                -1.120808640195635,
                2.017834867010658,
                -0.854701156538266,
                0.47077683720907,
                3.1636939408343805
            ]
        }
    ]
}