{
    "goal": {
        "global_pose": {
            "orientation": {
                "w": 0.7047431493862688,
                "x": -0.7094548369677653,
                "y": 0.0024358444001904,
                "z": -0.0022348060817251984
            },
            "position": {
                "x": -0.39052492380142206,
                "y": 0.3671506643295288,
                "z": 0.19426114857196808
            }
        },
        "name": "move_to_magneteinheit_D"
    },
    "id": "SBL_move_to_magneteinheit_D_97",
    "joint_names": [
        "shoulder_pan_joint",
        "shoulder_lift_joint",
        "elbow_joint",
        "wrist_1_joint",
        "wrist_2_joint",
        "wrist_3_joint"
    ],
    "metrics": {
        "cart_traj_len": 4.90151888370898,
        "distance_elbow_joint": 5.6619663467297014,
        "distance_shoulder_lift_joint": 1.105222035800719,
        "distance_shoulder_pan_joint": 3.7087868866808216,
        "distance_wrist_1_joint": 6.3171065227548535,
        "distance_wrist_2_joint": 3.129547119529205,
        "distance_wrist_3_joint": 7.1538668213777346,
        "smoothness": 0.4614888567550859,
        "time": 0.465608437,
        "traj_len": 5.20350802179386,
        "weighted_distance": 7.129578039260991
    },
    "planner": "SBL",
    "start": {
        "state": {
            "elbow_joint": 0.749534889911806,
            "shoulder_lift_joint": -0.6476975780787326,
            "shoulder_pan_joint": -2.711696901376241,
            "wrist_1_joint": -0.07506478083263063,
            "wrist_2_joint": 0.43296659715538205,
            "wrist_3_joint": -3.14703540197715
        }
    },
    "waypoints": [
        {
            "positions": [
                -2.711696901376241,
                -0.6476975780787326,
                0.749534889911806,
                -0.07506478083263063,
                0.43296659715538205,
                -3.14703540197715
            ]
        },
        {
            "positions": [
                -2.705763810195575,
                -0.6858051070861949,
                0.806221241124293,
                0.0014159724655395667,
                0.41256711926696077,
                -2.967382948987232
            ]
        },
        {
            "positions": [
                -2.6998307190149093,
                -0.7239126360936572,
                0.8629075923367803,
                0.07789672576370976,
                0.3921676413785395,
                -2.787730495997314
            ]
        },
        {
            "positions": [
                -2.6938976278342435,
                -0.7620201651011195,
                0.9195939435492674,
                0.15437747906187993,
                0.3717681634901182,
                -2.6080780430073958
            ]
        },
        {
            "positions": [
                -2.6879645366535776,
                -0.8001276941085818,
                0.9762802947617546,
                0.23085823236005015,
                0.3513686856016969,
                -2.428425590017478
            ]
        },
        {
            "positions": [
                -2.6820314454729117,
                -0.8382352231160439,
                1.0329666459742417,
                0.3073389856582203,
                0.33096920771327565,
                -2.24877313702756
            ]
        },
        {
            "positions": [
                -2.6760983542922454,
                -0.8763427521235062,
                1.0896529971867288,
                0.3838197389563905,
                0.3105697298248543,
                -2.069120684037642
            ]
        },
        {
            "positions": [
                -2.6701652631115795,
                -0.9144502811309685,
                1.146339348399216,
                0.46030049225456066,
                0.2901702519364331,
                -1.889468231047724
            ]
        },
        {
            "positions": [
                -2.6642321719309137,
                -0.9525578101384309,
                1.203025699611703,
                0.536781245552731,
                0.26977077404801175,
                -1.7098157780578058
            ]
        },
        {
            "positions": [
                -2.658299080750248,
                -0.990665339145893,
                1.2597120508241904,
                0.6132619988509012,
                0.24937129615959047,
                -1.5301633250678877
            ]
        },
        {
            "positions": [
                -2.652365989569582,
                -1.0287728681533554,
                1.3163984020366772,
                0.6897427521490713,
                0.2289718182711692,
                -1.35051087207797
            ]
        },
        {
            "positions": [
                -2.646432898388916,
                -1.0668803971608176,
                1.3730847532491646,
                0.7662235054472415,
                0.2085723403827479,
                -1.1708584190880518
            ]
        },
        {
            "positions": [
                -2.6576367254515105,
                -1.0930418252014737,
                1.4200662478369042,
                0.8544979355121404,
                0.29887181592634493,
                -1.0541844883870921
            ]
        },
        {
            "positions": [
                -2.6688405525141046,
                -1.1192032532421299,
                1.4670477424246438,
                0.9427723655770394,
                0.389171291469942,
                -0.9375105576861326
            ]
        },
        {
            "positions": [
                -2.680044379576699,
                -1.145364681282786,
                1.5140292370123836,
                1.0310467956419382,
                0.4794707670135391,
                -0.820836626985173
            ]
        },
        {
            "positions": [
                -2.691248206639293,
                -1.1715261093234424,
                1.5610107316001232,
                1.1193212257068372,
                0.569770242557136,
                -0.7041626962842134
            ]
        },
        {
            "positions": [
                -2.7024520337018876,
                -1.1976875373640985,
                1.6079922261878627,
                1.207595655771736,
                0.6600697181007332,
                -0.5874887655832538
            ]
        },
        {
            "positions": [
                -2.7136558607644816,
                -1.2238489654047546,
                1.6549737207756023,
                1.295870085836635,
                0.7503691936443302,
                -0.47081483488229425
            ]
        },
        {
            "positions": [
                -2.724859687827076,
                -1.2500103934454108,
                1.7019552153633422,
                1.384144515901534,
                0.8406686691879273,
                -0.3541409041813346
            ]
        },
        {
            "positions": [
                -2.7360635148896706,
                -1.276171821486067,
                1.7489367099510815,
                1.472418945966433,
                0.9309681447315243,
                -0.23746697348037504
            ]
        },
        {
            "positions": [
                -2.7472673419522646,
                -1.302333249526723,
                1.7959182045388213,
                1.560693376031332,
                1.0212676202751214,
                -0.12079304277941527
            ]
        },
        {
            "positions": [
                -2.758471169014859,
                -1.3284946775673792,
                1.842899699126561,
                1.6489678060962307,
                1.1115670958187185,
                -0.004119112078455833
            ]
        },
        {
            "positions": [
                -2.769674996077453,
                -1.3546561056080355,
                1.8898811937143005,
                1.7372422361611297,
                1.2018665713623156,
                0.11255481862250383
            ]
        },
        {
            "positions": [
                -2.7808788231400476,
                -1.3808175336486916,
                1.9368626883020403,
                1.8255166662260285,
                1.2921660469059126,
                0.22922874932346327
            ]
        },
        {
            "positions": [
                -2.7920826502026417,
                -1.4069789616893478,
                1.98384418288978,
                1.9137910962909275,
                1.3824655224495097,
                0.34590268002442315
            ]
        },
        {
            "positions": [
                -2.803286477265236,
                -1.433140389730004,
                2.0308256774775195,
                2.0020655263558265,
                1.4727649979931068,
                0.4625766107253826
            ]
        },
        {
            "positions": [
                -2.7269685065492717,
                -1.4408331840974655,
                1.936395851139935,
                1.908088666925786,
                1.4325243753096564,
                0.3877341427151257
            ]
        },
        {
            "positions": [
                -2.6506505358333072,
                -1.4485259784649271,
                1.8419660248023506,
                1.8141118074957454,
                1.392283752626206,
                0.3128916747048688
            ]
        },
        {
            "positions": [
                -2.5743325651173428,
                -1.456218772832389,
                1.7475361984647664,
                1.7201349480657049,
                1.3520431299427558,
                0.2380492066946119
            ]
        },
        {
            "positions": [
                -2.4980145944013783,
                -1.4639115671998506,
                1.653106372127182,
                1.6261580886356644,
                1.3118025072593054,
                0.16320673868435503
            ]
        },
        {
            "positions": [
                -2.4216966236854134,
                -1.4716043615673122,
                1.5586765457895977,
                1.5321812292056238,
                1.271561884575855,
                0.08836427067409813
            ]
        },
        {
            "positions": [
                -2.3453786529694494,
                -1.4792971559347738,
                1.4642467194520132,
                1.4382043697755833,
                1.2313212618924045,
                0.013521802663841231
            ]
        },
        {
            "positions": [
                -2.2690606822534845,
                -1.4869899503022355,
                1.3698168931144288,
                1.3442275103455428,
                1.1910806392089541,
                -0.06132066534641567
            ]
        },
        {
            "positions": [
                -2.19274271153752,
                -1.494682744669697,
                1.2753870667768443,
                1.2502506509155022,
                1.1508400165255037,
                -0.13616313335667252
            ]
        },
        {
            "positions": [
                -2.1164247408215555,
                -1.502375539037159,
                1.1809572404392599,
                1.1562737914854617,
                1.1105993938420535,
                -0.21100560136692947
            ]
        },
        {
            "positions": [
                -2.040106770105591,
                -1.5100683334046205,
                1.0865274141016756,
                1.0622969320554212,
                1.0703587711586031,
                -0.2858480693771863
            ]
        },
        {
            "positions": [
                -1.9637887993896266,
                -1.5177611277720822,
                0.9920975877640912,
                0.9683200726253804,
                1.0301181484751527,
                -0.3606905373874433
            ]
        },
        {
            "positions": [
                -1.8874708286736621,
                -1.5254539221395438,
                0.897667761426507,
                0.8743432131953401,
                0.9898775257917024,
                -0.4355330053977001
            ]
        },
        {
            "positions": [
                -1.8111528579576974,
                -1.5331467165070054,
                0.8032379350889225,
                0.7803663537652994,
                0.949636903108252,
                -0.510375473407957
            ]
        },
        {
            "positions": [
                -1.7348348872417332,
                -1.540839510874467,
                0.7088081087513383,
                0.6863894943352591,
                0.9093962804248017,
                -0.5852179414182139
            ]
        },
        {
            "positions": [
                -1.6585169165257685,
                -1.5485323052419289,
                0.6143782824137536,
                0.5924126349052183,
                0.8691556577413513,
                -0.6600604094284708
            ]
        },
        {
            "positions": [
                -1.5821989458098038,
                -1.5562250996093905,
                0.5199484560761691,
                0.4984357754751778,
                0.8289150350579009,
                -0.7349028774387276
            ]
        },
        {
            "positions": [
                -1.5058809750938396,
                -1.563917893976852,
                0.4255186297385849,
                0.4044589160451373,
                0.7886744123744506,
                -0.8097453454489845
            ]
        },
        {
            "positions": [
                -1.4295630043778749,
                -1.5716106883443137,
                0.33108880340100044,
                0.31048205661509676,
                0.7484337896910002,
                -0.8845878134592415
            ]
        },
        {
            "positions": [
                -1.3532450336619106,
                -1.5793034827117753,
                0.2366589770634162,
                0.21650519718505623,
                0.7081931670075499,
                -0.9594302814694984
            ]
        },
        {
            "positions": [
                -1.276927062945946,
                -1.586996277079237,
                0.14222915072583175,
                0.1225283377550157,
                0.6679525443240995,
                -1.0342727494797552
            ]
        },
        {
            "positions": [
                -1.2006090922299812,
                -1.5946890714466988,
                0.0477993243882473,
                0.028551478324975177,
                0.627711921640649,
                -1.109115217490012
            ]
        },
        {
            "positions": [
                -1.1242911215140168,
                -1.6023818658141604,
                -0.046630501949337155,
                -0.06542538110506557,
                0.5874712989571986,
                -1.1839576855002691
            ]
        },
        {
            "positions": [
                -1.0479731507980525,
                -1.610074660181622,
                -0.14106032828692117,
                -0.15940224053510565,
                0.5472306762737484,
                -1.2588001535105258
            ]
        },
        {
            "positions": [
                -0.9716551800820881,
                -1.6177674545490837,
                -0.23549015462450562,
                -0.2533790999651462,
                0.506990053590298,
                -1.3336426215207828
            ]
        },
        {
            "positions": [
                -0.8953372093661234,
                -1.6254602489165453,
                -0.3299199809620901,
                -0.34735595939518715,
                0.4667494309068476,
                -1.4084850895310397
            ]
        },
        {
            "positions": [
                -0.8190192386501587,
                -1.6331530432840071,
                -0.42434980729967453,
                -0.4413328188252277,
                0.4265088082233972,
                -1.4833275575412965
            ]
        },
        {
            "positions": [
                -0.7427012679341942,
                -1.6408458376514687,
                -0.518779633637259,
                -0.5353096782552682,
                0.3862681855399468,
                -1.5581700255515534
            ]
        },
        {
            "positions": [
                -0.6663832972182302,
                -1.6485386320189304,
                -0.613209459974843,
                -0.6292865376853083,
                0.3460275628564966,
                -1.6330124935618104
            ]
        },
        {
            "positions": [
                -0.5900653265022653,
                -1.656231426386392,
                -0.7076392863124275,
                -0.7232633971153493,
                0.3057869401730462,
                -1.707854961572067
            ]
        },
        {
            "positions": [
                -0.5137473557863008,
                -1.6639242207538536,
                -0.8020691126500124,
                -0.8172402565453898,
                0.2655463174895958,
                -1.7826974295823241
            ]
        },
        {
            "positions": [
                -0.43742938507033635,
                -1.6716170151213152,
                -0.8964989389875968,
                -0.9112171159754303,
                0.22530569480614537,
                -1.8575398975925812
            ]
        },
        {
            "positions": [
                -0.36111141435437144,
                -1.679309809488777,
                -0.9909287653251813,
                -1.0051939754054708,
                0.18506507212269496,
                -1.9323823656028378
            ]
        },
        {
            "positions": [
                -0.2847934436384074,
                -1.6870026038562387,
                -1.0853585916627653,
                -1.099170834835511,
                0.14482444943924477,
                -2.007224833613095
            ]
        },
        {
            "positions": [
                -0.20847547292244295,
                -1.6946953982237003,
                -1.1797884180003497,
                -1.193147694265552,
                0.10458382675579436,
                -2.0820673016233515
            ]
        },
        {
            "positions": [
                -0.13215750220647848,
                -1.702388192591162,
                -1.2742182443379342,
                -1.2871245536955924,
                0.06434320407234395,
                -2.1569097696336086
            ]
        },
        {
            "positions": [
                -0.05583953149051357,
                -1.7100809869586235,
                -1.3686480706755186,
                -1.381101413125633,
                0.02410258138889354,
                -2.2317522376438657
            ]
        },
        {
            "positions": [
                0.020478439225450895,
                -1.7177737813260854,
                -1.463077897013103,
                -1.4750782725556735,
                -0.01613804129455687,
                -2.3065947056541223
            ]
        },
        {
            "positions": [
                0.09679640994141492,
                -1.725466575693547,
                -1.557507723350687,
                -1.569055131985714,
                -0.05637866397800706,
                -2.3814371736643793
            ]
        },
        {
            "positions": [
                0.17311438065737983,
                -1.7331593700610086,
                -1.6519375496882716,
                -1.6630319914157545,
                -0.09661928666145747,
                -2.456279641674636
            ]
        },
        {
            "positions": [
                0.24943235137334446,
                -1.7408521644284702,
                -1.7463673760258562,
                -1.757008850845795,
                -0.13685990934490783,
                -2.531122109684893
            ]
        },
        {
            "positions": [
                0.1822168695779623,
                -1.742740841538194,
                -1.8455937090190457,
                -1.8365875929886353,
                -0.14169700118273015,
                -2.623438356888542
            ]
        },
        {
            "positions": [
                0.11500138778258015,
                -1.7446295186479177,
                -1.9448200420122355,
                -1.9161663351314753,
                -0.14653409302055245,
                -2.7157546040921905
            ]
        },
        {
            "positions": [
                0.047785905987198035,
                -1.7465181957576417,
                -2.044046375005425,
                -1.9957450772743155,
                -0.15137118485837478,
                -2.8080708512958394
            ]
        },
        {
            "positions": [
                -0.019429575808184163,
                -1.7484068728673654,
                -2.1432727079986145,
                -2.0753238194171555,
                -0.15620827669619708,
                -2.900387098499488
            ]
        },
        {
            "positions": [
                -0.08664505760356626,
                -1.7502955499770891,
                -2.242499040991804,
                -2.1549025615599957,
                -0.1610453685340194,
                -2.992703345703137
            ]
        },
        {
            "positions": [
                -0.1845181248052503,
                -1.7529196138794516,
                -2.349849881686466,
                -2.2379106892105685,
                -0.16819520715310357,
                -3.0816781979498273
            ]
        }
    ]
}