{
    "goal": {
        "global_pose": {
            "orientation": {
                "w": -0.4816463035849501,
                "x": 0.5182115481033762,
                "y": 0.4908360881923453,
                "z": -0.5084816262002911
            },
            "position": {
                "x": -0.8240239810943604,
                "y": -0.300875300988555,
                "z": 0.16403168439865112
            }
        },
        "name": "move_to_storage_C"
    },
    "id": "SBL_move_to_storage_C_109",
    "joint_names": [
        "shoulder_pan_joint",
        "shoulder_lift_joint",
        "elbow_joint",
        "wrist_1_joint",
        "wrist_2_joint",
        "wrist_3_joint"
    ],
    "metrics": {
        "cart_traj_len": 0.5762638983192985,
        "distance_elbow_joint": 0.2552199309489904,
        "distance_shoulder_lift_joint": 0.188991390671451,
        "distance_shoulder_pan_joint": 0.4941328605788784,
        "distance_wrist_1_joint": 0.06739147667213818,
        "distance_wrist_2_joint": 1.0698482043173638,
        "distance_wrist_3_joint": 0.06504735109979132,
        "smoothness": 2.5376526478085547e-16,
        "time": 0.322579742,
        "traj_len": 1.4630896125284374,
        "weighted_distance": 1.8460676037127401
    },
    "planner": "SBL",
    "start": {
        "state": {
            "elbow_joint": 2.010868314990456,
            "shoulder_lift_joint": -1.1634956873337592,
            "shoulder_pan_joint": -2.4736205022346125,
            "wrist_1_joint": -0.8367026794202681,
            "wrist_2_joint": 0.6746043897044499,
            "wrist_3_joint": -3.1496632123970403
        }
    },
    "waypoints": [
        {
            "positions": [
                -2.4736205022346125,
                -1.1634956873337592,
                2.010868314990456,
                -0.8367026794202681,
                0.6746043897044499,
                -3.1496632123970403
            ]
        },
        {
            "positions": [
                -2.555975978997759,
                -1.1319971222218508,
                1.9683316598322906,
                -0.8254707666415784,
                0.8529124237573439,
                -3.138821987213742
            ]
        },
        {
            "positions": [
                -2.6383314557609054,
                -1.1004985571099422,
                1.9257950046741257,
                -0.8142388538628887,
                1.031220457810238,
                -3.127980762030443
            ]
        },
        {
            "positions": [
                -2.7206869325240515,
                -1.0689999919980337,
                1.8832583495159607,
                -0.803006941084199,
                1.2095284918631317,
                -3.1171395368471444
            ]
        },
        {
            "positions": [
                -2.803042409287198,
                -1.0375014268861251,
                1.8407216943577955,
                -0.7917750283055093,
                1.387836525916026,
                -3.106298311663846
            ]
        },
        {
            "positions": [
                -2.8853978860503444,
                -1.0060028617742167,
                1.7981850391996304,
                -0.7805431155268197,
                1.5661445599689197,
                -3.0954570864805477
            ]
        },
        {
            "positions": [
                -2.967753362813491,
                -0.9745042966623082,
                1.7556483840414654,
                -0.7693112027481299,
                1.7444525940218139,
                -3.084615861297249
            ]
        }
    ]
}