{
    "goal": {
        "global_pose": {
            "orientation": {
                "w": 0.7031023502349854,
                "x": -0.7110244035720825,
                "y": 0.007748599164187908,
                "z": 0.005598929710686207
            },
            "position": {
                "x": 0.11585023208521307,
                "y": 0.44412534475326537,
                "z": 0.3711530566215515
            }
        },
        "name": "move_to_auspresseinheit_A"
    },
    "id": "SBL_move_to_auspresseinheit_A_67",
    "joint_names": [
        "shoulder_pan_joint",
        "shoulder_lift_joint",
        "elbow_joint",
        "wrist_1_joint",
        "wrist_2_joint",
        "wrist_3_joint"
    ],
    "metrics": {
        "cart_traj_len": 0.7268466336440986,
        "distance_elbow_joint": 0.30988564641701943,
        "distance_shoulder_lift_joint": 0.5309895870428598,
        "distance_shoulder_pan_joint": 1.045336963429445,
        "distance_wrist_1_joint": 1.1930877893050384,
        "distance_wrist_2_joint": 0.8155566616461282,
        "distance_wrist_3_joint": 2.0532987866301875,
        "smoothness": 1.0718108610155184,
        "time": 0.297717799,
        "traj_len": 2.438884055151183,
        "weighted_distance": 3.4732401959384007
    },
    "planner": "SBL",
    "start": {
        "state": {
            "elbow_joint": 2.4225746658250005,
            "shoulder_lift_joint": -1.3736534386056498,
            "shoulder_pan_joint": -0.3378633547517467,
            "wrist_1_joint": -1.0288598680537169,
            "wrist_2_joint": 1.233022673432363,
            "wrist_3_joint": -3.0940220416140027
        }
    },
    "waypoints": [
        {
            "positions": [
                -0.3378633547517467,
                -1.3736534386056498,
                2.4225746658250005,
                -1.0288598680537169,
                1.233022673432363,
                -3.0940220416140027
            ]
        },
        {
            "positions": [
                -0.2930501231476277,
                -1.4230544930285032,
                2.405373855164412,
                -0.9404134965161264,
                1.1657523282309654,
                -2.9934878646701537
            ]
        },
        {
            "positions": [
                -0.2482368915435087,
                -1.4724555474513565,
                2.3881730445038234,
                -0.8519671249785358,
                1.098481983029568,
                -2.8929536877263047
            ]
        },
        {
            "positions": [
                -0.20342365993938968,
                -1.5218566018742101,
                2.3709722338432346,
                -0.7635207534409453,
                1.0312116378281706,
                -2.792419510782455
            ]
        },
        {
            "positions": [
                -0.15861042833527064,
                -1.5712576562970635,
                2.3537714231826463,
                -0.6750743819033547,
                0.963941292626773,
                -2.691885333838606
            ]
        },
        {
            "positions": [
                -0.11379719673115163,
                -1.6206587107199169,
                2.336570612522058,
                -0.5866280103657642,
                0.8966709474253755,
                -2.591351156894757
            ]
        },
        {
            "positions": [
                -0.06898396512703264,
                -1.6700597651427702,
                2.3193698018614692,
                -0.4981816388281737,
                0.8294006022239779,
                -2.490816979950908
            ]
        },
        {
            "positions": [
                -0.0241707335229136,
                -1.7194608195656236,
                2.302168991200881,
                -0.4097352672905832,
                0.7621302570225805,
                -2.390282803007059
            ]
        },
        {
            "positions": [
                0.02064249808120544,
                -1.7688618739884772,
                2.284968180540292,
                -0.32128889575299246,
                0.6948599118211829,
                -2.2897486260632096
            ]
        },
        {
            "positions": [
                0.06545572968532448,
                -1.8182629284113305,
                2.267767369879704,
                -0.23284252421540197,
                0.6275895666197854,
                -2.1892144491193606
            ]
        },
        {
            "positions": [
                0.11026896128944344,
                -1.8676639828341839,
                2.250566559219115,
                -0.14439615267781142,
                0.5603192214183879,
                -2.0886802721755116
            ]
        },
        {
            "positions": [
                0.20980306918748592,
                -1.8738271566365716,
                2.2735461491876374,
                -0.19583349833266692,
                0.5841280896904133,
                -2.2633397750407944
            ]
        },
        {
            "positions": [
                0.3093371770855284,
                -1.8799903304389591,
                2.2965257391561598,
                -0.24727084398752242,
                0.6079369579624389,
                -2.437999277906077
            ]
        },
        {
            "positions": [
                0.40887128498357084,
                -1.8861535042413466,
                2.319505329124682,
                -0.29870818964237794,
                0.6317458262344644,
                -2.6126587807713597
            ]
        },
        {
            "positions": [
                0.5084053928816133,
                -1.8923166780437344,
                2.3424849190932044,
                -0.35014553529723347,
                0.6555546945064898,
                -2.787318283636642
            ]
        },
        {
            "positions": [
                0.6079395007796559,
                -1.8984798518461221,
                2.365464509061727,
                -0.401582880952089,
                0.6793635627785153,
                -2.961977786501925
            ]
        },
        {
            "positions": [
                0.7074736086776983,
                -1.9046430256485096,
                2.388444099030249,
                -0.45302022660694446,
                0.7031724310505408,
                -3.136637289367208
            ]
        }
    ]
}