{
    "goal": {
        "global_pose": {
            "orientation": {
                "w": -0.4816463035849501,
                "x": 0.5182115481033762,
                "y": 0.4908360881923453,
                "z": -0.5084816262002911
            },
            "position": {
                "x": -0.8240239810943604,
                "y": 0.19912469901144506,
                "z": 0.16403168439865112
            }
        },
        "name": "move_to_storage_D"
    },
    "id": "SBL_move_to_storage_D_61",
    "joint_names": [
        "shoulder_pan_joint",
        "shoulder_lift_joint",
        "elbow_joint",
        "wrist_1_joint",
        "wrist_2_joint",
        "wrist_3_joint"
    ],
    "metrics": {
        "cart_traj_len": 3.7214084183371368,
        "distance_elbow_joint": 4.208062201952915,
        "distance_shoulder_lift_joint": 1.2649617002320948,
        "distance_shoulder_pan_joint": 2.813026025336116,
        "distance_wrist_1_joint": 2.542396743698423,
        "distance_wrist_2_joint": 1.4583076605559446,
        "distance_wrist_3_joint": 3.217629863773045,
        "smoothness": 0.18890642587760192,
        "time": 0.285028847,
        "traj_len": 3.9375606910304928,
        "weighted_distance": 5.093166826970131
    },
    "planner": "SBL",
    "start": {
        "state": {
            "elbow_joint": -2.384821988534728,
            "shoulder_lift_joint": -2.2788054721415256,
            "shoulder_pan_joint": -0.1854694642142757,
            "wrist_1_joint": 1.4845938289331202,
            "wrist_2_joint": 0.17898776772866878,
            "wrist_3_joint": 0.037105688729662994
        }
    },
    "waypoints": [
        {
            "positions": [
                -0.1854694642142757,
                -2.2788054721415256,
                -2.384821988534728,
                1.4845938289331202,
                0.17898776772866878,
                0.037105688729662994
            ]
        },
        {
            "positions": [
                -0.14914046572919754,
                -2.208373596260417,
                -2.325526494535337,
                1.5305432961470067,
                0.08188848041037451,
                0.026148823527089887
            ]
        },
        {
            "positions": [
                -0.11281146724411938,
                -2.137941720379308,
                -2.2662310005359463,
                1.5764927633608932,
                -0.01521080690791976,
                0.015191958324516776
            ]
        },
        {
            "positions": [
                -0.0764824687590412,
                -2.067509844498199,
                -2.2069355065365555,
                1.6224422305747797,
                -0.11231009422621403,
                0.004235093121943664
            ]
        },
        {
            "positions": [
                -0.005949086256587244,
                -2.0343373116117887,
                -2.1178323397680825,
                1.5465781749167884,
                -0.0860081544458637,
                0.09611790935634333
            ]
        },
        {
            "positions": [
                0.06458429624586672,
                -2.0011647787253786,
                -2.02872917299961,
                1.4707141192587971,
                -0.05970621466551336,
                0.18800072559074302
            ]
        },
        {
            "positions": [
                0.1351176787483207,
                -1.967992245838968,
                -1.939626006231137,
                1.3948500636008059,
                -0.033404274885163024,
                0.27988354182514263
            ]
        },
        {
            "positions": [
                0.20565106125077465,
                -1.9348197129525575,
                -1.8505228394626643,
                1.3189860079428146,
                -0.007102335104812688,
                0.37176635805954233
            ]
        },
        {
            "positions": [
                0.2761844437532286,
                -1.9016471800661472,
                -1.7614196726941915,
                1.2431219522848236,
                0.01919960467553765,
                0.463649174293942
            ]
        },
        {
            "positions": [
                0.3467178262556826,
                -1.8684746471797367,
                -1.6723165059257186,
                1.1672578966268323,
                0.045501544455887985,
                0.5555319905283417
            ]
        },
        {
            "positions": [
                0.41725120875813654,
                -1.8353021142933263,
                -1.5832133391572458,
                1.091393840968841,
                0.07180348423623832,
                0.6474148067627414
            ]
        },
        {
            "positions": [
                0.4877845912605905,
                -1.8021295814069158,
                -1.494110172388773,
                1.0155297853108498,
                0.09810542401658866,
                0.7392976229971411
            ]
        },
        {
            "positions": [
                0.5583179737630445,
                -1.7689570485205053,
                -1.4050070056203001,
                0.9396657296528586,
                0.12440736379693902,
                0.8311804392315408
            ]
        },
        {
            "positions": [
                0.6288513562654984,
                -1.735784515634095,
                -1.3159038388518274,
                0.8638016739948674,
                0.15070930357728934,
                0.9230632554659404
            ]
        },
        {
            "positions": [
                0.6993847387679524,
                -1.7026119827476847,
                -1.2268006720833546,
                0.787937618336876,
                0.17701124335763968,
                1.0149460717003402
            ]
        },
        {
            "positions": [
                0.7699181212704064,
                -1.6694394498612741,
                -1.137697505314882,
                0.7120735626788849,
                0.20331318313799002,
                1.1068288879347397
            ]
        },
        {
            "positions": [
                0.8404515037728604,
                -1.6362669169748638,
                -1.048594338546409,
                0.6362095070208936,
                0.22961512291834035,
                1.1987117041691395
            ]
        },
        {
            "positions": [
                0.9109848862753143,
                -1.6030943840884533,
                -0.9594911717779362,
                0.5603454513629025,
                0.2559170626986907,
                1.2905945204035392
            ]
        },
        {
            "positions": [
                0.9815182687777683,
                -1.569921851202043,
                -0.8703880050094632,
                0.4844813957049112,
                0.282219002479041,
                1.3824773366379388
            ]
        },
        {
            "positions": [
                1.052051651280222,
                -1.5367493183156324,
                -0.7812848382409907,
                0.40861734004691996,
                0.30852094225939136,
                1.4743601528723385
            ]
        },
        {
            "positions": [
                1.122585033782676,
                -1.5035767854292221,
                -0.692181671472518,
                0.3327532843889289,
                0.33482288203974164,
                1.566242969106738
            ]
        },
        {
            "positions": [
                1.19311841628513,
                -1.4704042525428116,
                -0.6030785047040448,
                0.25688922873093745,
                0.3611248218200921,
                1.658125785341138
            ]
        },
        {
            "positions": [
                1.263651798787584,
                -1.4372317196564013,
                -0.513975337935572,
                0.1810251730729462,
                0.38742676160044237,
                1.7500086015755376
            ]
        },
        {
            "positions": [
                1.3341851812900378,
                -1.4040591867699908,
                -0.4248721711670993,
                0.10516111741495515,
                0.4137287013807927,
                1.841891417809937
            ]
        },
        {
            "positions": [
                1.4047185637924917,
                -1.3708866538835804,
                -0.33576900439862656,
                0.029297061756963894,
                0.44003064116114304,
                1.9337742340443367
            ]
        },
        {
            "positions": [
                1.4752519462949458,
                -1.33771412099717,
                -0.2466658376301536,
                -0.04656699390102759,
                0.4663325809414934,
                2.0256570502787365
            ]
        },
        {
            "positions": [
                1.5457853287973997,
                -1.3045415881107596,
                -0.15756267086168085,
                -0.12243104955901862,
                0.4926345207218437,
                2.117539866513136
            ]
        },
        {
            "positions": [
                1.6163187112998538,
                -1.271369055224349,
                -0.06845950409320833,
                -0.19829510521700988,
                0.518936460502194,
                2.2094226827475354
            ]
        },
        {
            "positions": [
                1.6868520938023077,
                -1.2381965223379388,
                0.02064366267526463,
                -0.2741591608750009,
                0.5452384002825443,
                2.301305498981935
            ]
        },
        {
            "positions": [
                1.7573854763047618,
                -1.2050239894515284,
                0.10974682944373759,
                -0.3500232165329924,
                0.5715403400628947,
                2.393188315216335
            ]
        },
        {
            "positions": [
                1.8279188588072157,
                -1.171851456565118,
                0.1988499962122101,
                -0.42588727219098343,
                0.597842279843245,
                2.4850711314507348
            ]
        },
        {
            "positions": [
                1.8984522413096696,
                -1.1386789236787074,
                0.2879531629806831,
                -0.5017513278489747,
                0.6241442196235953,
                2.5769539476851344
            ]
        },
        {
            "positions": [
                1.9689856238121233,
                -1.105506390792297,
                0.3770563297491556,
                -0.577615383506966,
                0.6504461594039457,
                2.668836763919534
            ]
        },
        {
            "positions": [
                2.0395190063145776,
                -1.0723338579058868,
                0.466159496517629,
                -0.6534794391649572,
                0.676748099184296,
                2.7607195801539337
            ]
        },
        {
            "positions": [
                2.1100523888170315,
                -1.0391613250194762,
                0.5552626632861016,
                -0.7293434948229482,
                0.7030500389646464,
                2.8526023963883334
            ]
        },
        {
            "positions": [
                2.1886347373817374,
                -1.0386354400196953,
                0.7158021877152491,
                -0.7376977183058641,
                0.7388588668948136,
                2.917853972154536
            ]
        },
        {
            "positions": [
                2.267217085946443,
                -1.0381095550199142,
                0.8763417121443966,
                -0.7460519417887798,
                0.7746676948249809,
                2.9831055479207382
            ]
        },
        {
            "positions": [
                2.345799434511149,
                -1.0375836700201333,
                1.036881236573544,
                -0.7544061652716956,
                0.8104765227551481,
                3.048357123686941
            ]
        },
        {
            "positions": [
                2.4162387161638215,
                -1.0316486954924577,
                1.2334709807847046,
                -0.7613311518242676,
                0.871532318160073,
                3.083516433087023
            ]
        },
        {
            "positions": [
                2.4866779978164946,
                -1.0257137209647822,
                1.4300607249958655,
                -0.7682561383768396,
                0.9325881135649978,
                3.118675742487105
            ]
        },
        {
            "positions": [
                2.5571172794691677,
                -1.0197787464371064,
                1.6266504692070263,
                -0.7751811249294115,
                0.9936439089699227,
                3.1538350518871874
            ]
        },
        {
            "positions": [
                2.6275565611218403,
                -1.0138437719094309,
                1.8232402134181869,
                -0.7821061114819835,
                1.0546997043748476,
                3.1889943612872695
            ]
        }
    ]
}