{
    "goal": {
        "global_pose": {
            "orientation": {
                "w": -0.4816463035849501,
                "x": 0.5182115481033762,
                "y": 0.4908360881923453,
                "z": -0.5084816262002911
            },
            "position": {
                "x": -0.8240239810943604,
                "y": -0.300875300988555,
                "z": 0.16403168439865112
            }
        },
        "name": "move_to_storage_C"
    },
    "id": "SBL_move_to_storage_C_50",
    "joint_names": [
        "shoulder_pan_joint",
        "shoulder_lift_joint",
        "elbow_joint",
        "wrist_1_joint",
        "wrist_2_joint",
        "wrist_3_joint"
    ],
    "metrics": {
        "cart_traj_len": 0.5772209483794621,
        "distance_elbow_joint": 0.2604178434203692,
        "distance_shoulder_lift_joint": 0.18942348902672457,
        "distance_shoulder_pan_joint": 0.49630485015627235,
        "distance_wrist_1_joint": 0.08722624169837268,
        "distance_wrist_2_joint": 1.0589002689479696,
        "distance_wrist_3_joint": 0.06752043180557266,
        "smoothness": 2.5376526478085547e-16,
        "time": 0.281304969,
        "traj_len": 1.4696234636992163,
        "weighted_distance": 1.8549826142885462
    },
    "planner": "SBL",
    "start": {
        "state": {
            "elbow_joint": 2.010868314990456,
            "shoulder_lift_joint": -1.1634956873337592,
            "shoulder_pan_joint": -2.4736205022346125,
            "wrist_1_joint": -0.8367026794202681,
            "wrist_2_joint": 0.6746043897044499,
            "wrist_3_joint": -3.1496632123970403
        }
    },
    "waypoints": [
        {
            "positions": [
                -2.4736205022346125,
                -1.1634956873337592,
                2.010868314990456,
                -0.8367026794202681,
                0.6746043897044499,
                -3.1496632123970403
            ]
        },
        {
            "positions": [
                -2.556337977260658,
                -1.1319251058293052,
                1.967465341087061,
                -0.8221649724705393,
                0.8510877678624449,
                -3.1384098070961115
            ]
        },
        {
            "positions": [
                -2.639055452286703,
                -1.100354524324851,
                1.924062367183666,
                -0.8076272655208105,
                1.0275711460204398,
                -3.1271564017951827
            ]
        },
        {
            "positions": [
                -2.721772927312749,
                -1.068783942820397,
                1.880659393280271,
                -0.7930895585710818,
                1.2040545241784346,
                -3.115902996494254
            ]
        },
        {
            "positions": [
                -2.804490402338794,
                -1.0372133613159429,
                1.8372564193768763,
                -0.778551851621353,
                1.3805379023364295,
                -3.104649591193325
            ]
        },
        {
            "positions": [
                -2.8872078773648395,
                -1.0056427798114886,
                1.7938534454734816,
                -0.7640141446716242,
                1.5570212804944248,
                -3.0933961858923964
            ]
        },
        {
            "positions": [
                -2.969925352390885,
                -0.9740721983070346,
                1.7504504715700866,
                -0.7494764377218954,
                1.7335046586524196,
                -3.0821427805914676
            ]
        }
    ]
}