{
    "goal": {
        "global_pose": {
            "orientation": {
                "w": 0.5084816262002911,
                "x": -0.4908360881923452,
                "y": 0.5182115481033761,
                "z": -0.48164630358495003
            },
            "position": {
                "x": 0.5540239810943604,
                "y": -0.46912469901144505,
                "z": 0.16403168439865112
            }
        },
        "name": "move_to_storage_B"
    },
    "id": "SBL_move_to_storage_B_103",
    "joint_names": [
        "shoulder_pan_joint",
        "shoulder_lift_joint",
        "elbow_joint",
        "wrist_1_joint",
        "wrist_2_joint",
        "wrist_3_joint"
    ],
    "metrics": {
        "cart_traj_len": 5.1096489514822,
        "distance_elbow_joint": 4.178421872443638,
        "distance_shoulder_lift_joint": 1.3567148766031958,
        "distance_shoulder_pan_joint": 3.9738572114664406,
        "distance_wrist_1_joint": 3.8736389204641495,
        "distance_wrist_2_joint": 2.3523485563416346,
        "distance_wrist_3_joint": 4.197635614134869,
        "smoothness": 0.3508336444034531,
        "time": 0.37465330599999996,
        "traj_len": 4.464595956125697,
        "weighted_distance": 5.878254482117073
    },
    "planner": "SBL",
    "start": {
        "state": {
            "elbow_joint": -1.6666013991110213,
            "shoulder_lift_joint": -2.479295265494141,
            "shoulder_pan_joint": 2.6606783912885628,
            "wrist_1_joint": 0.9897123657714939,
            "wrist_2_joint": 0.474351758749468,
            "wrist_3_joint": 0.013243222496468381
        }
    },
    "waypoints": [
        {
            "positions": [
                2.6606783912885628,
                -2.479295265494141,
                -1.6666013991110213,
                0.9897123657714939,
                0.474351758749468,
                0.013243222496468381
            ]
        },
        {
            "positions": [
                2.6690326807329017,
                -2.43312792697536,
                -1.6855865340368792,
                0.7889196709714557,
                0.4481322374206669,
                0.08313446588903436
            ]
        },
        {
            "positions": [
                2.6773869701772406,
                -2.3869605884565788,
                -1.704571668962737,
                0.5881269761714174,
                0.42191271609186576,
                0.15302570928160036
            ]
        },
        {
            "positions": [
                2.6857412596215795,
                -2.3407932499377977,
                -1.7235568038885947,
                0.38733428137137926,
                0.3956931947630646,
                0.22291695267416634
            ]
        },
        {
            "positions": [
                2.6940955490659184,
                -2.2946259114190166,
                -1.7425419388144525,
                0.186541586571341,
                0.36947367343426346,
                0.2928081960667323
            ]
        },
        {
            "positions": [
                2.7024498385102573,
                -2.2484585729002355,
                -1.7615270737403104,
                -0.014251108228697129,
                0.3432541521054623,
                0.3626994394592983
            ]
        },
        {
            "positions": [
                2.7108041279545962,
                -2.2022912343814545,
                -1.7805122086661682,
                -0.21504380302873538,
                0.31703463077666116,
                0.43259068285186425
            ]
        },
        {
            "positions": [
                2.719158417398935,
                -2.156123895862673,
                -1.7994973435920258,
                -0.41583649782877363,
                0.29081510944786004,
                0.5024819262444302
            ]
        },
        {
            "positions": [
                2.727512706843274,
                -2.109956557343892,
                -1.8184824785178837,
                -0.6166291926288119,
                0.2645955881190589,
                0.5723731696369962
            ]
        },
        {
            "positions": [
                2.735866996287613,
                -2.063789218825111,
                -1.8374676134437415,
                -0.8174218874288499,
                0.2383760667902578,
                0.6422644130295622
            ]
        },
        {
            "positions": [
                2.744221285731952,
                -2.0176218803063297,
                -1.8564527483695994,
                -1.0182145822288882,
                0.21215654546145662,
                0.7121556564221282
            ]
        },
        {
            "positions": [
                2.752575575176291,
                -1.9714545417875486,
                -1.875437883295457,
                -1.2190072770289264,
                0.18593702413265556,
                0.7820468998146941
            ]
        },
        {
            "positions": [
                2.7609298646206297,
                -1.9252872032687676,
                -1.8944230182213149,
                -1.4197999718289647,
                0.15971750280385438,
                0.8519381432072601
            ]
        },
        {
            "positions": [
                2.7692841540649686,
                -1.8791198647499865,
                -1.9134081531471727,
                -1.6205926666290027,
                0.13349798147505326,
                0.921829386599826
            ]
        },
        {
            "positions": [
                2.6677308532661406,
                -1.8681365171038224,
                -1.823681341474387,
                -1.6477136691595546,
                0.041068954241986796,
                0.8634733598734455
            ]
        },
        {
            "positions": [
                2.566177552467312,
                -1.8571531694576586,
                -1.7339545298016015,
                -1.6748346716901064,
                -0.05136007299107967,
                0.805117333147065
            ]
        },
        {
            "positions": [
                2.464624251668484,
                -1.8461698218114946,
                -1.6442277181288159,
                -1.7019556742206583,
                -0.1437891002241461,
                0.7467613064206846
            ]
        },
        {
            "positions": [
                2.363070950869656,
                -1.8351864741653308,
                -1.5545009064560302,
                -1.7290766767512102,
                -0.2362181274572126,
                0.6884052796943041
            ]
        },
        {
            "positions": [
                2.2615176500708274,
                -1.8242031265191667,
                -1.4647740947832446,
                -1.756197679281762,
                -0.32864715469027905,
                0.6300492529679236
            ]
        },
        {
            "positions": [
                2.1599643492719993,
                -1.813219778873003,
                -1.375047283110459,
                -1.783318681812314,
                -0.42107618192334545,
                0.5716932262415431
            ]
        },
        {
            "positions": [
                2.0584110484731712,
                -1.8022364312268389,
                -1.2853204714376734,
                -1.8104396843428658,
                -0.5135052091564121,
                0.5133371995151625
            ]
        },
        {
            "positions": [
                1.956857747674343,
                -1.791253083580675,
                -1.1955936597648877,
                -1.8375606868734176,
                -0.6059342363894784,
                0.45498117278878203
            ]
        },
        {
            "positions": [
                1.8553044468755147,
                -1.780269735934511,
                -1.1058668480921021,
                -1.8646816894039695,
                -0.6983632636225449,
                0.3966251460624015
            ]
        },
        {
            "positions": [
                1.7569287221588286,
                -1.7583467576997254,
                -1.0017310543136884,
                -1.8307068605610133,
                -0.6590421458235575,
                0.4887533197122045
            ]
        },
        {
            "positions": [
                1.6585529974421427,
                -1.73642377946494,
                -0.8975952605352745,
                -1.796732031718057,
                -0.6197210280245701,
                0.5808814933620075
            ]
        },
        {
            "positions": [
                1.5601772727254566,
                -1.7145008012301544,
                -0.7934594667568606,
                -1.762757202875101,
                -0.5803999102255828,
                0.6730096670118104
            ]
        },
        {
            "positions": [
                1.4618015480087707,
                -1.692577822995369,
                -0.6893236729784469,
                -1.7287823740321449,
                -0.5410787924265954,
                0.7651378406616134
            ]
        },
        {
            "positions": [
                1.3634258232920846,
                -1.6706548447605833,
                -0.585187879200033,
                -1.6948075451891886,
                -0.501757674627608,
                0.8572660143114164
            ]
        },
        {
            "positions": [
                1.2650500985753985,
                -1.6487318665257977,
                -0.48105208542161915,
                -1.6608327163462324,
                -0.4624365568286206,
                0.9493941879612193
            ]
        },
        {
            "positions": [
                1.1666743738587126,
                -1.6268088882910123,
                -0.3769162916432053,
                -1.6268578875032762,
                -0.4231154390296333,
                1.0415223616110223
            ]
        },
        {
            "positions": [
                1.0682986491420268,
                -1.6048859100562267,
                -0.2727804978647915,
                -1.5928830586603202,
                -0.3837943212306459,
                1.1336505352608253
            ]
        },
        {
            "positions": [
                0.9699229244253408,
                -1.5829629318214413,
                -0.16864470408637766,
                -1.558908229817364,
                -0.34447320343165855,
                1.2257787089106282
            ]
        },
        {
            "positions": [
                0.8715471997086548,
                -1.5610399535866557,
                -0.06450891030796391,
                -1.5249334009744078,
                -0.30515208563267116,
                1.3179068825604312
            ]
        },
        {
            "positions": [
                0.7731714749919687,
                -1.5391169753518703,
                0.03962688347044985,
                -1.4909585721314516,
                -0.2658309678336838,
                1.4100350562102342
            ]
        },
        {
            "positions": [
                0.6747957502752826,
                -1.5171939971170847,
                0.14376267724886382,
                -1.4569837432884953,
                -0.22650985003469637,
                1.5021632298600371
            ]
        },
        {
            "positions": [
                0.5764200255585967,
                -1.495271018882299,
                0.2478984710272778,
                -1.4230089144455391,
                -0.18718873223570898,
                1.59429140350984
            ]
        },
        {
            "positions": [
                0.47804430084191063,
                -1.4733480406475135,
                0.35203426480569155,
                -1.3890340856025831,
                -0.1478676144367217,
                1.686419577159643
            ]
        },
        {
            "positions": [
                0.37966857612522475,
                -1.451425062412728,
                0.4561700585841053,
                -1.355059256759627,
                -0.1085464966377343,
                1.778547750809446
            ]
        },
        {
            "positions": [
                0.2812928514085389,
                -1.4295020841779427,
                0.5603058523625191,
                -1.3210844279166707,
                -0.06922537883874691,
                1.870675924459249
            ]
        },
        {
            "positions": [
                0.18291712669185278,
                -1.407579105943157,
                0.6644416461409328,
                -1.2871095990737147,
                -0.029904261039759628,
                1.962804098109052
            ]
        },
        {
            "positions": [
                0.08454140197516691,
                -1.3856561277083714,
                0.7685774399193468,
                -1.2531347702307585,
                0.009416856759227765,
                2.054932271758855
            ]
        },
        {
            "positions": [
                -0.01383432274151919,
                -1.363733149473586,
                0.8727132336977605,
                -1.2191599413878023,
                0.04873797455821516,
                2.147060445408658
            ]
        },
        {
            "positions": [
                -0.11221004745820506,
                -1.3418101712388004,
                0.9768490274761743,
                -1.185185112544846,
                0.08805909235720255,
                2.239188619058461
            ]
        },
        {
            "positions": [
                -0.21058577217489116,
                -1.319887193004015,
                1.0809848212545883,
                -1.1512102837018898,
                0.12738021015618983,
                2.3313167927082636
            ]
        },
        {
            "positions": [
                -0.30896149689157726,
                -1.2979642147692294,
                1.1851206150330018,
                -1.1172354548589336,
                0.16670132795517723,
                2.423444966358067
            ]
        },
        {
            "positions": [
                -0.40733722160826336,
                -1.2760412365344438,
                1.2892564088114162,
                -1.0832606260159774,
                0.20602244575416473,
                2.51557314000787
            ]
        },
        {
            "positions": [
                -0.5057129463249495,
                -1.2541182582996582,
                1.3933922025898298,
                -1.0492857971730212,
                0.24534356355315212,
                2.6077013136576728
            ]
        },
        {
            "positions": [
                -0.6040886710416351,
                -1.2321952800648728,
                1.4975279963682437,
                -1.0153109683300652,
                0.2846646813521394,
                2.699829487307476
            ]
        },
        {
            "positions": [
                -0.7024643957583212,
                -1.2102723018300874,
                1.6016637901466577,
                -0.981336139487109,
                0.3239857991511269,
                2.7919576609572787
            ]
        },
        {
            "positions": [
                -0.8008401204750073,
                -1.1883493235953018,
                1.7057995839250712,
                -0.9473613106441529,
                0.3633069169501141,
                2.884085834607082
            ]
        },
        {
            "positions": [
                -0.8992158451916934,
                -1.1664263453605161,
                1.8099353777034852,
                -0.9133864818011966,
                0.40262803474910147,
                2.9762140082568846
            ]
        },
        {
            "positions": [
                -0.997591569908379,
                -1.1445033671257305,
                1.9140711714818988,
                -0.8794116529582405,
                0.44194915254808886,
                3.068342181906688
            ]
        },
        {
            "positions": [
                -1.0959672946250651,
                -1.1225803888909451,
                2.0182069652603127,
                -0.8454368241152843,
                0.4812702703470762,
                3.1604703555564906
            ]
        }
    ]
}