{
    "goal": {
        "global_pose": {
            "orientation": {
                "w": 0.7047431493862688,
                "x": -0.7094548369677653,
                "y": 0.0024358444001904,
                "z": -0.0022348060817251984
            },
            "position": {
                "x": -0.39052492380142206,
                "y": 0.3671506643295288,
                "z": 0.19426114857196808
            }
        },
        "name": "move_to_magneteinheit_D"
    },
    "id": "SBL_move_to_magneteinheit_D_67",
    "joint_names": [
        "shoulder_pan_joint",
        "shoulder_lift_joint",
        "elbow_joint",
        "wrist_1_joint",
        "wrist_2_joint",
        "wrist_3_joint"
    ],
    "metrics": {
        "cart_traj_len": 5.910130409700389,
        "distance_elbow_joint": 3.1395037298538955,
        "distance_shoulder_lift_joint": 4.008180546542331,
        "distance_shoulder_pan_joint": 5.705066974496683,
        "distance_wrist_1_joint": 2.7856069854575134,
        "distance_wrist_2_joint": 2.4576406849793107,
        "distance_wrist_3_joint": 5.246432001215012,
        "smoothness": 0.6624483138975436,
        "time": 0.630327581,
        "traj_len": 4.8314005135721,
        "weighted_distance": 6.251283275889166
    },
    "planner": "SBL",
    "start": {
        "state": {
            "elbow_joint": 0.749534889911806,
            "shoulder_lift_joint": -0.6476975780787326,
            "shoulder_pan_joint": -2.711696901376241,
            "wrist_1_joint": -0.07506478083263063,
            "wrist_2_joint": 0.43296659715538205,
            "wrist_3_joint": -3.14703540197715
        }
    },
    "waypoints": [
        {
            "positions": [
                -2.711696901376241,
                -0.6476975780787326,
                0.749534889911806,
                -0.07506478083263063,
                0.43296659715538205,
                -3.14703540197715
            ]
        },
        {
            "positions": [
                -2.7786183667128723,
                -0.7237228780139957,
                0.71691189804482,
                -0.11819383899186217,
                0.3695769247038171,
                -3.0335627431600214
            ]
        },
        {
            "positions": [
                -2.845539832049504,
                -0.7997481779492587,
                0.6842889061778341,
                -0.1613228971510937,
                0.3061872522522521,
                -2.9200900843428923
            ]
        },
        {
            "positions": [
                -2.745462491425402,
                -0.8437048339830688,
                0.630428980664754,
                -0.12569097021123982,
                0.33990427326808914,
                -2.8034720890255844
            ]
        },
        {
            "positions": [
                -2.6453851508013,
                -0.887661490016879,
                0.5765690551516738,
                -0.09005904327138592,
                0.3736212942839262,
                -2.6868540937082765
            ]
        },
        {
            "positions": [
                -2.5453078101771984,
                -0.931618146050689,
                0.5227091296385936,
                -0.05442711633153202,
                0.4073383152997633,
                -2.570236098390969
            ]
        },
        {
            "positions": [
                -2.4452304695530964,
                -0.9755748020844992,
                0.4688492041255134,
                -0.018795189391678124,
                0.44105533631560034,
                -2.4536181030736612
            ]
        },
        {
            "positions": [
                -2.3451531289289944,
                -1.0195314581183093,
                0.41498927861243323,
                0.016836737548175773,
                0.4747723573314374,
                -2.3370001077563534
            ]
        },
        {
            "positions": [
                -2.2450757883048924,
                -1.0634881141521195,
                0.36112935309935307,
                0.05246866448802967,
                0.5084893783472745,
                -2.2203821124390455
            ]
        },
        {
            "positions": [
                -2.144998447680791,
                -1.1074447701859296,
                0.3072694275862729,
                0.08810059142788357,
                0.5422063993631115,
                -2.103764117121738
            ]
        },
        {
            "positions": [
                -2.044921107056689,
                -1.1514014262197398,
                0.2534095020731927,
                0.12373251836773747,
                0.5759234203789487,
                -1.9871461218044302
            ]
        },
        {
            "positions": [
                -1.9448437664325868,
                -1.19535808225355,
                0.19954957656011257,
                0.15936444530759136,
                0.6096404413947858,
                -1.8705281264871223
            ]
        },
        {
            "positions": [
                -1.8447664258084848,
                -1.23931473828736,
                0.14568965104703235,
                0.19499637224744526,
                0.6433574624106229,
                -1.7539101311698144
            ]
        },
        {
            "positions": [
                -1.744689085184383,
                -1.2832713943211702,
                0.09182972553395219,
                0.23062829918729916,
                0.6770744834264599,
                -1.6372921358525068
            ]
        },
        {
            "positions": [
                -1.644611744560281,
                -1.3272280503549803,
                0.037969800020872024,
                0.26626022612715305,
                0.710791504442297,
                -1.520674140535199
            ]
        },
        {
            "positions": [
                -1.5445344039361792,
                -1.3711847063887905,
                -0.01589012549220814,
                0.30189215306700695,
                0.7445085254581341,
                -1.4040561452178912
            ]
        },
        {
            "positions": [
                -1.4444570633120775,
                -1.4151413624226006,
                -0.0697500510052883,
                0.33752408000686085,
                0.7782255464739711,
                -1.2874381499005836
            ]
        },
        {
            "positions": [
                -1.3443797226879757,
                -1.4590980184564106,
                -0.12360997651836847,
                0.3731560069467147,
                0.8119425674898081,
                -1.170820154583276
            ]
        },
        {
            "positions": [
                -1.2443023820638734,
                -1.503054674490221,
                -0.17746990203144875,
                0.40878793388656864,
                0.8456595885056453,
                -1.0542021592659678
            ]
        },
        {
            "positions": [
                -1.1442250414397717,
                -1.547011330524031,
                -0.2313298275445288,
                0.4444198608264226,
                0.8793766095214823,
                -0.9375841639486602
            ]
        },
        {
            "positions": [
                -1.0441477008156699,
                -1.5909679865578412,
                -0.28518975305760896,
                0.48005178776627644,
                0.9130936305373194,
                -0.8209661686313523
            ]
        },
        {
            "positions": [
                -0.9440703601915679,
                -1.6349246425916513,
                -0.33904967857068913,
                0.5156837147061303,
                0.9468106515531564,
                -0.7043481733140449
            ]
        },
        {
            "positions": [
                -0.8439930195674656,
                -1.6788812986254613,
                -0.3929096040837694,
                0.5513156416459842,
                0.9805276725689935,
                -0.5877301779967365
            ]
        },
        {
            "positions": [
                -0.7439156789433641,
                -1.7228379546592714,
                -0.44676952959684946,
                0.5869475685858382,
                1.0142446935848306,
                -0.4711121826794291
            ]
        },
        {
            "positions": [
                -0.6438383383192621,
                -1.7667946106930816,
                -0.5006294551099297,
                0.622579495525692,
                1.0479617146006677,
                -0.35449418736212124
            ]
        },
        {
            "positions": [
                -0.5437609976951605,
                -1.810751266726892,
                -0.5544893806230098,
                0.6582114224655459,
                1.0816787356165047,
                -0.2378761920448138
            ]
        },
        {
            "positions": [
                -0.44368365707105806,
                -1.854707922760702,
                -0.6083493061360901,
                0.6938433494053998,
                1.1153957566323418,
                -0.12125819672750549
            ]
        },
        {
            "positions": [
                -0.3436063164469565,
                -1.898664578794512,
                -0.6622092316491703,
                0.7294752763452538,
                1.1491127776481789,
                -0.004640201410198053
            ]
        },
        {
            "positions": [
                -0.2435289758228546,
                -1.9426212348283223,
                -0.7160691571622503,
                0.7651072032851076,
                1.182829798664016,
                0.1119777939071098
            ]
        },
        {
            "positions": [
                -0.1353635747696125,
                -1.8576453889344342,
                -0.7424083579746439,
                0.8536407414473928,
                1.199119216159879,
                0.18099973929589985
            ]
        },
        {
            "positions": [
                -0.0271981737163704,
                -1.7726695430405464,
                -0.7687475587870374,
                0.9421742796096779,
                1.2154086336557417,
                0.25002168468468994
            ]
        },
        {
            "positions": [
                0.08096722733687173,
                -1.6876936971466585,
                -0.795086759599431,
                1.030707817771963,
                1.2316980511516047,
                0.31904363007348
            ]
        },
        {
            "positions": [
                0.1891326283901138,
                -1.6027178512527704,
                -0.8214259604118246,
                1.1192413559342482,
                1.2479874686474677,
                0.38806557546227005
            ]
        },
        {
            "positions": [
                0.2972980294433559,
                -1.5177420053588824,
                -0.8477651612242181,
                1.2077748940965334,
                1.2642768861433304,
                0.4570875208510602
            ]
        },
        {
            "positions": [
                0.40546343049659805,
                -1.4327661594649945,
                -0.8741043620366117,
                1.2963084322588188,
                1.2805663036391934,
                0.5261094662398502
            ]
        },
        {
            "positions": [
                0.5136288315498402,
                -1.3477903135711067,
                -0.9004435628490053,
                1.3848419704211037,
                1.2968557211350564,
                0.5951314116286404
            ]
        },
        {
            "positions": [
                0.6217942326030822,
                -1.2628144676772186,
                -0.9267827636613988,
                1.473375508583389,
                1.3131451386309192,
                0.6641533570174304
            ]
        },
        {
            "positions": [
                0.7299596336563244,
                -1.1778386217833305,
                -0.9531219644737924,
                1.5619090467456742,
                1.3294345561267822,
                0.7331753024062205
            ]
        },
        {
            "positions": [
                0.8381250347095665,
                -1.0928627758894427,
                -0.979461165286186,
                1.6504425849079594,
                1.3457239736226452,
                0.8021972477950106
            ]
        },
        {
            "positions": [
                0.9462904357628087,
                -1.0078869299955548,
                -1.0058003660985795,
                1.7389761230702443,
                1.362013391118508,
                0.8712191931838007
            ]
        },
        {
            "positions": [
                1.0544558368160506,
                -0.9229110841016668,
                -1.032139566910973,
                1.8275096612325297,
                1.378302808614371,
                0.9402411385725907
            ]
        },
        {
            "positions": [
                1.1626212378692928,
                -0.8379352382077787,
                -1.0584787677233667,
                1.9160431993948148,
                1.3945922261102337,
                1.0092630839613808
            ]
        },
        {
            "positions": [
                1.270786638922535,
                -0.7529593923138909,
                -1.0848179685357602,
                2.0045767375571,
                1.4108816436060967,
                1.078285029350171
            ]
        },
        {
            "positions": [
                1.1905716260257029,
                -0.8375079404059694,
                -1.1561549892957799,
                1.9749536241584216,
                1.3434865670748546,
                1.0216246584076576
            ]
        },
        {
            "positions": [
                1.1103566131288707,
                -0.922056488498048,
                -1.2274920100557996,
                1.9453305107597432,
                1.2760914905436127,
                0.9649642874651442
            ]
        },
        {
            "positions": [
                1.0301416002320387,
                -1.0066050365901265,
                -1.2988290308158192,
                1.9157073973610648,
                1.2086964140123706,
                0.9083039165226308
            ]
        },
        {
            "positions": [
                0.9499265873352065,
                -1.0911535846822051,
                -1.370166051575839,
                1.8860842839623864,
                1.1413013374811287,
                0.8516435455801175
            ]
        },
        {
            "positions": [
                0.8697115744383743,
                -1.1757021327742836,
                -1.4415030723358586,
                1.856461170563708,
                1.0739062609498866,
                0.7949831746376039
            ]
        },
        {
            "positions": [
                0.7894965615415422,
                -1.260250680866362,
                -1.512840093095878,
                1.8268380571650296,
                1.0065111844186445,
                0.7383228036950906
            ]
        },
        {
            "positions": [
                0.70928154864471,
                -1.3447992289584407,
                -1.5841771138558978,
                1.7972149437663512,
                0.9391161078874026,
                0.6816624327525773
            ]
        },
        {
            "positions": [
                0.629066535747878,
                -1.4293477770505194,
                -1.6555141346159175,
                1.7675918303676728,
                0.8717210313561605,
                0.6250020618100639
            ]
        },
        {
            "positions": [
                0.5488515228510458,
                -1.5138963251425979,
                -1.7268511553759371,
                1.7379687169689944,
                0.8043259548249185,
                0.5683416908675505
            ]
        },
        {
            "positions": [
                0.4686365099542136,
                -1.5984448732346763,
                -1.7981881761359568,
                1.708345603570316,
                0.7369308782936765,
                0.5116813199250371
            ]
        },
        {
            "positions": [
                0.3884214970573814,
                -1.682993421326755,
                -1.8695251968959765,
                1.6787224901716375,
                0.6695358017624344,
                0.45502094898252365
            ]
        },
        {
            "positions": [
                0.3082064841605494,
                -1.7675419694188335,
                -1.940862217655996,
                1.6490993767729591,
                0.6021407252311926,
                0.39836057804001035
            ]
        },
        {
            "positions": [
                0.22799147126371722,
                -1.8520905175109121,
                -2.0121992384160157,
                1.6194762633742807,
                0.5347456486999504,
                0.34170020709749693
            ]
        },
        {
            "positions": [
                0.14777645836688502,
                -1.9366390656029906,
                -2.0835362591760354,
                1.5898531499756023,
                0.46735057216870846,
                0.28503983615498363
            ]
        },
        {
            "positions": [
                0.06756144547005283,
                -2.0211876136950693,
                -2.154873279936055,
                1.560230036576924,
                0.39995549563746646,
                0.2283794652124702
            ]
        },
        {
            "positions": [
                -0.012653567426779144,
                -2.1057361617871475,
                -2.2262103006960747,
                1.5306069231782455,
                0.33256041910622436,
                0.1717190942699569
            ]
        },
        {
            "positions": [
                -0.09286858032361134,
                -2.190284709879226,
                -2.2975473214560944,
                1.5009838097795671,
                0.2651653425749825,
                0.11505872332744349
            ]
        },
        {
            "positions": [
                -0.17308359322044353,
                -2.274833257971305,
                -2.368884342216114,
                1.4713606963808887,
                0.19777026604374043,
                0.05839835238493002
            ]
        },
        {
            "positions": [
                -0.18411093392884745,
                -2.276554439592199,
                -2.3899688399420898,
                1.4715938896355334,
                0.1847146948837616,
                0.05962324530738592
            ]
        }
    ]
}