{
    "goal": {
        "global_pose": {
            "orientation": {
                "w": -0.00223480608172531,
                "x": 0.0024358444001904467,
                "y": 0.7094548369677653,
                "z": -0.704743149386269
            },
            "position": {
                "x": -0.37947507619857795,
                "y": -0.6371506643295288,
                "z": 0.19426114857196808
            }
        },
        "name": "move_to_magneteinheit_C"
    },
    "id": "SBL_move_to_magneteinheit_C_102",
    "joint_names": [
        "shoulder_pan_joint",
        "shoulder_lift_joint",
        "elbow_joint",
        "wrist_1_joint",
        "wrist_2_joint",
        "wrist_3_joint"
    ],
    "metrics": {
        "cart_traj_len": 0.6061765352336876,
        "distance_elbow_joint": 0.1092501550737075,
        "distance_shoulder_lift_joint": 0.4869811590029882,
        "distance_shoulder_pan_joint": 0.800568445492732,
        "distance_wrist_1_joint": 1.5786590636708018,
        "distance_wrist_2_joint": 0.7910473283686533,
        "distance_wrist_3_joint": 5.513412648530629,
        "smoothness": 1.063514955647568,
        "time": 0.370176691,
        "traj_len": 3.046295914736373,
        "weighted_distance": 4.761979681733242
    },
    "planner": "SBL",
    "start": {
        "state": {
            "elbow_joint": 1.9565354010623817,
            "shoulder_lift_joint": -1.4165861575791021,
            "shoulder_pan_joint": -1.6717766225146293,
            "wrist_1_joint": -0.5286633292919765,
            "wrist_2_joint": 1.472756589071564,
            "wrist_3_joint": -3.1238370188695823
        }
    },
    "waypoints": [
        {
            "positions": [
                -1.6717766225146293,
                -1.4165861575791021,
                1.9565354010623817,
                -0.5286633292919765,
                1.472756589071564,
                -3.1238370188695823
            ]
        },
        {
            "positions": [
                -1.7190588902016215,
                -1.4264212779680925,
                1.9634975431813746,
                -0.47603660702190087,
                1.4465254435504362,
                -2.894832039977842
            ]
        },
        {
            "positions": [
                -1.7663411578886135,
                -1.4362563983570826,
                1.9704596853003677,
                -0.4234098847518253,
                1.4202942980293085,
                -2.6658270610861017
            ]
        },
        {
            "positions": [
                -1.8136234255756056,
                -1.446091518746073,
                1.9774218274193607,
                -0.37078316248174964,
                1.3940631525081808,
                -2.4368220821943614
            ]
        },
        {
            "positions": [
                -1.8609056932625976,
                -1.4559266391350634,
                1.9843839695383536,
                -0.31815644021167405,
                1.367832006987053,
                -2.207817103302621
            ]
        },
        {
            "positions": [
                -1.9081879609495898,
                -1.4657617595240537,
                1.9913461116573468,
                -0.2655297179415984,
                1.3416008614659254,
                -1.978812124410881
            ]
        },
        {
            "positions": [
                -1.9554702286365817,
                -1.4755968799130441,
                1.9983082537763397,
                -0.21290299567152282,
                1.3153697159447977,
                -1.7498071455191406
            ]
        },
        {
            "positions": [
                -2.002752496323574,
                -1.4854320003020343,
                2.005270395895333,
                -0.16027627340144718,
                1.28913857042367,
                -1.5208021666274003
            ]
        },
        {
            "positions": [
                -2.050034764010566,
                -1.4952671206910246,
                2.0122325380143256,
                -0.10764955113137165,
                1.2629074249025425,
                -1.2917971877356602
            ]
        },
        {
            "positions": [
                -2.0973170316975582,
                -1.505102241080015,
                2.0191946801333187,
                -0.055022828861296,
                1.2366762793814148,
                -1.06279220884392
            ]
        },
        {
            "positions": [
                -2.1445992993845504,
                -1.5149373614690052,
                2.026156822252312,
                -0.0023961065912203594,
                1.210445133860287,
                -0.8337872299521796
            ]
        },
        {
            "positions": [
                -2.191881567071542,
                -1.5247724818579955,
                2.0331189643713046,
                0.05023061567885523,
                1.1842139883391594,
                -0.6047822510604393
            ]
        },
        {
            "positions": [
                -2.2391638347585343,
                -1.534607602246986,
                2.0400811064902977,
                0.10285733794893079,
                1.1579828428180317,
                -0.37577727216869894
            ]
        },
        {
            "positions": [
                -2.2571008527007517,
                -1.50622608575967,
                2.038103841132929,
                0.03000053822355428,
                1.1213464134245608,
                -0.5884967261556026
            ]
        },
        {
            "positions": [
                -2.275037870642969,
                -1.4778445692723545,
                2.0361265757755604,
                -0.04285626150182223,
                1.0847099840310899,
                -0.8012161801425062
            ]
        },
        {
            "positions": [
                -2.292974888585187,
                -1.4494630527850387,
                2.034149310418192,
                -0.11571306122719874,
                1.0480735546376192,
                -1.0139356341294097
            ]
        },
        {
            "positions": [
                -2.310911906527404,
                -1.421081536297723,
                2.0321720450608236,
                -0.18856986095257525,
                1.0114371252441483,
                -1.2266550881163134
            ]
        },
        {
            "positions": [
                -2.3288489244696216,
                -1.3927000198104071,
                2.030194779703455,
                -0.2614266606779517,
                0.9748006958506774,
                -1.439374542103217
            ]
        },
        {
            "positions": [
                -2.346785942411839,
                -1.3643185033230916,
                2.0282175143460863,
                -0.33428346040332824,
                0.9381642664572065,
                -1.6520939960901204
            ]
        },
        {
            "positions": [
                -2.3647229603540567,
                -1.3359369868357758,
                2.0262402489887177,
                -0.40714026012870463,
                0.9015278370637357,
                -1.864813450077024
            ]
        },
        {
            "positions": [
                -2.382659978296274,
                -1.30755547034846,
                2.024262983631349,
                -0.47999705985408125,
                0.8648914076702648,
                -2.0775329040639274
            ]
        },
        {
            "positions": [
                -2.4005969962384914,
                -1.2791739538611444,
                2.0222857182739804,
                -0.5528538595794577,
                0.8282549782767941,
                -2.2902523580508314
            ]
        },
        {
            "positions": [
                -2.418534014180709,
                -1.2507924373738286,
                2.020308452916612,
                -0.6257106593048343,
                0.7916185488833232,
                -2.502971812037735
            ]
        },
        {
            "positions": [
                -2.4364710321229266,
                -1.2224109208865128,
                2.0183311875592436,
                -0.6985674590302107,
                0.7549821194898523,
                -2.7156912660246384
            ]
        },
        {
            "positions": [
                -2.454408050065144,
                -1.1940294043991972,
                2.016353922201875,
                -0.7714242587555873,
                0.7183456900963814,
                -2.928410720011542
            ]
        },
        {
            "positions": [
                -2.4723450680073613,
                -1.1656478879118815,
                2.0143766568445063,
                -0.8442810584809637,
                0.6817092607029106,
                -3.1411301739984454
            ]
        }
    ]
}