{
    "goal": {
        "global_pose": {
            "orientation": {
                "w": -0.00223480608172531,
                "x": 0.0024358444001904467,
                "y": 0.7094548369677653,
                "z": -0.704743149386269
            },
            "position": {
                "x": -0.37947507619857795,
                "y": -0.6371506643295288,
                "z": 0.19426114857196808
            }
        },
        "name": "move_to_magneteinheit_C"
    },
    "id": "SBL_move_to_magneteinheit_C_64",
    "joint_names": [
        "shoulder_pan_joint",
        "shoulder_lift_joint",
        "elbow_joint",
        "wrist_1_joint",
        "wrist_2_joint",
        "wrist_3_joint"
    ],
    "metrics": {
        "cart_traj_len": 2.8126772602121672,
        "distance_elbow_joint": 1.1030715393161197,
        "distance_shoulder_lift_joint": 1.1224810769973521,
        "distance_shoulder_pan_joint": 3.636019444532076,
        "distance_wrist_1_joint": 5.067074796481656,
        "distance_wrist_2_joint": 4.8480428053495555,
        "distance_wrist_3_joint": 3.86500684352841,
        "smoothness": 0.7295887346484003,
        "time": 0.641827891,
        "traj_len": 4.431895362731972,
        "weighted_distance": 6.106294113051973
    },
    "planner": "SBL",
    "start": {
        "state": {
            "elbow_joint": 1.9565354010623817,
            "shoulder_lift_joint": -1.4165861575791021,
            "shoulder_pan_joint": -1.6717766225146293,
            "wrist_1_joint": -0.5286633292919765,
            "wrist_2_joint": 1.472756589071564,
            "wrist_3_joint": -3.1238370188695823
        }
    },
    "waypoints": [
        {
            "positions": [
                -1.6717766225146293,
                -1.4165861575791021,
                1.9565354010623817,
                -0.5286633292919765,
                1.472756589071564,
                -3.1238370188695823
            ]
        },
        {
            "positions": [
                -1.6170830078174268,
                -1.4350592988395592,
                1.9558228908294324,
                -0.5530768863784048,
                1.4431343724338395,
                -3.1085204875770724
            ]
        },
        {
            "positions": [
                -1.5598121998809005,
                -1.4662844581469114,
                1.9120460542346018,
                -0.5360648047437413,
                1.354971537773266,
                -2.958594272625237
            ]
        },
        {
            "positions": [
                -1.5025413919443742,
                -1.4975096174542635,
                1.8682692176397713,
                -0.5190527231090777,
                1.2668087031126927,
                -2.808668057673402
            ]
        },
        {
            "positions": [
                -1.4452705840078481,
                -1.5287347767616155,
                1.8244923810449407,
                -0.5020406414744142,
                1.1786458684521195,
                -2.6587418427215663
            ]
        },
        {
            "positions": [
                -1.3879997760713219,
                -1.5599599360689678,
                1.7807155444501104,
                -0.4850285598397507,
                1.090483033791546,
                -2.508815627769731
            ]
        },
        {
            "positions": [
                -1.3307289681347956,
                -1.59118509537632,
                1.7369387078552798,
                -0.46801647820508707,
                1.0023201991309727,
                -2.358889412817896
            ]
        },
        {
            "positions": [
                -1.2734581601982695,
                -1.622410254683672,
                1.6931618712604493,
                -0.45100439657042357,
                0.9141573644703994,
                -2.20896319786606
            ]
        },
        {
            "positions": [
                -1.2161873522617432,
                -1.653635413991024,
                1.6493850346656187,
                -0.43399231493576,
                0.825994529809826,
                -2.059036982914225
            ]
        },
        {
            "positions": [
                -1.158916544325217,
                -1.6848605732983764,
                1.6056081980707884,
                -0.4169802333010965,
                0.7378316951492527,
                -1.9091107679623898
            ]
        },
        {
            "positions": [
                -1.1016457363886907,
                -1.7160857326057286,
                1.5618313614759578,
                -0.39996815166643296,
                0.6496688604886793,
                -1.7591845530105545
            ]
        },
        {
            "positions": [
                -1.0443749284521644,
                -1.7473108919130806,
                1.5180545248811272,
                -0.3829560700317694,
                0.561506025828106,
                -1.609258338058719
            ]
        },
        {
            "positions": [
                -0.9871041205156383,
                -1.7785360512204327,
                1.4742776882862967,
                -0.3659439883971059,
                0.47334319116753276,
                -1.4593321231068839
            ]
        },
        {
            "positions": [
                -0.9298333125791121,
                -1.809761210527785,
                1.4305008516914661,
                -0.34893190676244235,
                0.3851803565069594,
                -1.3094059081550484
            ]
        },
        {
            "positions": [
                -1.035539540710524,
                -1.8117046016764857,
                1.4366741651198727,
                -0.2451484443373601,
                0.3023497420182869,
                -1.4020056212988272
            ]
        },
        {
            "positions": [
                -1.1412457688419357,
                -1.8136479928251863,
                1.4428474785482792,
                -0.14136498191227787,
                0.21951912752961436,
                -1.494605334442606
            ]
        },
        {
            "positions": [
                -1.2469519969733476,
                -1.815591383973887,
                1.4490207919766855,
                -0.037581519487195625,
                0.13668851304094184,
                -1.5872050475863848
            ]
        },
        {
            "positions": [
                -1.3526582251047592,
                -1.8175347751225877,
                1.455194105405092,
                0.06620194293788662,
                0.0538578985522693,
                -1.6798047607301636
            ]
        },
        {
            "positions": [
                -1.458364453236171,
                -1.8194781662712884,
                1.4613674188334986,
                0.1699854053629689,
                -0.028972715936403215,
                -1.7724044738739424
            ]
        },
        {
            "positions": [
                -1.5640706813675829,
                -1.821421557419989,
                1.4675407322619052,
                0.2737688677880511,
                -0.11180333042507573,
                -1.8650041870177212
            ]
        },
        {
            "positions": [
                -1.6697769094989947,
                -1.8233649485686898,
                1.4737140456903115,
                0.3775523302131334,
                -0.19463394491374825,
                -1.9576039001615
            ]
        },
        {
            "positions": [
                -1.7754831376304065,
                -1.8253083397173904,
                1.479887359118718,
                0.4813357926382156,
                -0.2774645594024208,
                -2.050203613305279
            ]
        },
        {
            "positions": [
                -1.8811893657618182,
                -1.8272517308660912,
                1.4860606725471246,
                0.5851192550632979,
                -0.3602951738910933,
                -2.142803326449058
            ]
        },
        {
            "positions": [
                -1.98689559389323,
                -1.8291951220147917,
                1.4922339859755311,
                0.6889027174883802,
                -0.44312578837976585,
                -2.2354030395928364
            ]
        },
        {
            "positions": [
                -2.0926018220246423,
                -1.8311385131634925,
                1.4984072994039375,
                0.7926861799134624,
                -0.5259564028684385,
                -2.3280027527366154
            ]
        },
        {
            "positions": [
                -2.1983080501560535,
                -1.833081904312193,
                1.504580612832344,
                0.8964696423385445,
                -0.6087870173571108,
                -2.420602465880394
            ]
        },
        {
            "positions": [
                -2.3040142782874655,
                -1.8350252954608939,
                1.5107539262607506,
                1.000253104763627,
                -0.6916176318457836,
                -2.513202179024173
            ]
        },
        {
            "positions": [
                -2.4097205064188776,
                -1.8369686866095944,
                1.516927239689157,
                1.1040365671887091,
                -0.774448246334456,
                -2.6058018921679516
            ]
        },
        {
            "positions": [
                -2.515426734550289,
                -1.8389120777582952,
                1.5231005531175634,
                1.2078200296137913,
                -0.8572788608231285,
                -2.6984016053117306
            ]
        },
        {
            "positions": [
                -2.621132962681701,
                -1.8408554689069958,
                1.52927386654597,
                1.3116034920388735,
                -0.9401094753118011,
                -2.791001318455509
            ]
        },
        {
            "positions": [
                -2.726839190813113,
                -1.8427988600556966,
                1.5354471799743765,
                1.415386954463956,
                -1.0229400898004737,
                -2.883601031599288
            ]
        },
        {
            "positions": [
                -2.8325454189445245,
                -1.8447422512043972,
                1.541620493402783,
                1.519170416889038,
                -1.105770704289146,
                -2.9762007447430667
            ]
        },
        {
            "positions": [
                -2.938251647075936,
                -1.846685642353098,
                1.5477938068311894,
                1.6229538793141203,
                -1.1886013187778186,
                -3.0688004578868457
            ]
        },
        {
            "positions": [
                -3.043957875207348,
                -1.8486290335017985,
                1.553967120259596,
                1.7267373417392027,
                -1.2714319332664912,
                -3.1614001710306243
            ]
        },
        {
            "positions": [
                -3.1496641033387602,
                -1.8505724246504993,
                1.5601404336880025,
                1.8305208041642849,
                -1.3542625477551637,
                -3.2539998841744033
            ]
        },
        {
            "positions": [
                -3.1100026125248244,
                -1.8100727299489725,
                1.5864579282732183,
                1.6741053012906062,
                -1.2353788025479386,
                -3.2477656631864904
            ]
        },
        {
            "positions": [
                -3.0703411217108885,
                -1.7695730352474457,
                1.612775422858434,
                1.5176897984169275,
                -1.1164950573407135,
                -3.241531442198577
            ]
        },
        {
            "positions": [
                -3.0306796308969526,
                -1.729073340545919,
                1.6390929174436497,
                1.3612742955432489,
                -0.9976113121334884,
                -3.235297221210664
            ]
        },
        {
            "positions": [
                -2.9910181400830167,
                -1.6885736458443923,
                1.6654104120288655,
                1.2048587926695704,
                -0.8787275669262633,
                -3.229063000222751
            ]
        },
        {
            "positions": [
                -2.9513566492690804,
                -1.6480739511428655,
                1.6917279066140813,
                1.0484432897958917,
                -0.7598438217190382,
                -3.222828779234838
            ]
        },
        {
            "positions": [
                -2.9116951584551445,
                -1.6075742564413387,
                1.718045401199297,
                0.8920277869222131,
                -0.6409600765118131,
                -3.216594558246925
            ]
        },
        {
            "positions": [
                -2.8720336676412086,
                -1.567074561739812,
                1.7443628957845128,
                0.7356122840485346,
                -0.522076331304588,
                -3.210360337259012
            ]
        },
        {
            "positions": [
                -2.8323721768272727,
                -1.5265748670382853,
                1.7706803903697286,
                0.579196781174856,
                -0.40319258609736286,
                -3.2041261162710986
            ]
        },
        {
            "positions": [
                -2.792710686013337,
                -1.4860751723367585,
                1.7969978849549442,
                0.4227812783011773,
                -0.28430884089013775,
                -3.1978918952831856
            ]
        },
        {
            "positions": [
                -2.753049195199401,
                -1.4455754776352316,
                1.82331537954016,
                0.2663657754274986,
                -0.16542509568291264,
                -3.1916576742952723
            ]
        },
        {
            "positions": [
                -2.713387704385465,
                -1.405075782933705,
                1.8496328741253758,
                0.10995027255381995,
                -0.046541350475687526,
                -3.1854234533073593
            ]
        },
        {
            "positions": [
                -2.6737262135715287,
                -1.3645760882321782,
                1.8759503687105914,
                -0.04646523031985872,
                0.07234239473153758,
                -3.1791892323194464
            ]
        },
        {
            "positions": [
                -2.634064722757593,
                -1.3240763935306514,
                1.9022678632958072,
                -0.20288073319353694,
                0.1912261399387627,
                -3.172955011331533
            ]
        },
        {
            "positions": [
                -2.594403231943657,
                -1.2835766988291248,
                1.928585357881023,
                -0.3592962360672156,
                0.3101098851459878,
                -3.16672079034362
            ]
        },
        {
            "positions": [
                -2.554741741129721,
                -1.2430770041275978,
                1.9549028524662386,
                -0.5157117389408943,
                0.4289936303532129,
                -3.160486569355707
            ]
        },
        {
            "positions": [
                -2.515080250315785,
                -1.2025773094260712,
                1.9812203470514544,
                -0.672127241814573,
                0.547877375560438,
                -3.154252348367794
            ]
        },
        {
            "positions": [
                -2.4754187595018493,
                -1.1620776147245444,
                2.0075378416366703,
                -0.8285427446882515,
                0.6667611207676629,
                -3.148018127379881
            ]
        }
    ]
}