{
    "goal": {
        "global_pose": {
            "orientation": {
                "w": -0.00223480608172531,
                "x": 0.0024358444001904467,
                "y": 0.7094548369677653,
                "z": -0.704743149386269
            },
            "position": {
                "x": 0.6205249238014221,
                "y": -0.6371506643295288,
                "z": 0.19426114857196808
            }
        },
        "name": "move_to_magneteinheit_B"
    },
    "id": "SBL_move_to_magneteinheit_B_95",
    "joint_names": [
        "shoulder_pan_joint",
        "shoulder_lift_joint",
        "elbow_joint",
        "wrist_1_joint",
        "wrist_2_joint",
        "wrist_3_joint"
    ],
    "metrics": {
        "cart_traj_len": 2.972802688502414,
        "distance_elbow_joint": 4.443686404568311,
        "distance_shoulder_lift_joint": 1.0601792604639373,
        "distance_shoulder_pan_joint": 2.0878291112871015,
        "distance_wrist_1_joint": 3.4862208306226874,
        "distance_wrist_2_joint": 1.8077871536770553,
        "distance_wrist_3_joint": 0.33756752206333795,
        "smoothness": 0.29228162308686595,
        "time": 0.599616344,
        "traj_len": 3.636381482006863,
        "weighted_distance": 4.38091466603823
    },
    "planner": "SBL",
    "start": {
        "state": {
            "elbow_joint": 2.6216224122426386,
            "shoulder_lift_joint": -1.4174107377796124,
            "shoulder_pan_joint": 0.7066234856936794,
            "wrist_1_joint": 1.9546482284002225,
            "wrist_2_joint": -0.7096286983471962,
            "wrist_3_joint": 0.005740856962016249
        }
    },
    "waypoints": [
        {
            "positions": [
                0.7066234856936794,
                -1.4174107377796124,
                2.6216224122426386,
                1.9546482284002225,
                -0.7096286983471962,
                0.005740856962016249
            ]
        },
        {
            "positions": [
                0.6843130142590197,
                -1.4932431581970824,
                2.5634517721307066,
                1.8191887857173223,
                -0.7274746436202695,
                0.06261974661751132
            ]
        },
        {
            "positions": [
                0.6620025428243599,
                -1.5690755786145527,
                2.5052811320187747,
                1.6837293430344222,
                -0.7453205888933429,
                0.11949863627300639
            ]
        },
        {
            "positions": [
                0.6396920713897002,
                -1.6449079990320228,
                2.4471104919068427,
                1.5482699003515221,
                -0.7631665341664161,
                0.17637752592850148
            ]
        },
        {
            "positions": [
                0.7182308643491128,
                -1.6637041721717074,
                2.256641868209389,
                1.4655332305924507,
                -0.7748730219147233,
                0.1714870176688792
            ]
        },
        {
            "positions": [
                0.7967696573085253,
                -1.6825003453113923,
                2.0661732445119347,
                1.3827965608333792,
                -0.7865795096630305,
                0.1665965094092569
            ]
        },
        {
            "positions": [
                0.8753084502679379,
                -1.7012965184510769,
                1.875704620814481,
                1.300059891074308,
                -0.7982859974113377,
                0.1617060011496346
            ]
        },
        {
            "positions": [
                0.9538472432273505,
                -1.7200926915907617,
                1.6852359971170272,
                1.2173232213152365,
                -0.8099924851596448,
                0.15681549289001231
            ]
        },
        {
            "positions": [
                1.0323860361867632,
                -1.7388888647304463,
                1.4947673734195734,
                1.134586551556165,
                -0.821698972907952,
                0.15192498463039003
            ]
        },
        {
            "positions": [
                1.1109248291461755,
                -1.7576850378701312,
                1.3042987497221195,
                1.0518498817970936,
                -0.8334054606562592,
                0.14703447637076775
            ]
        },
        {
            "positions": [
                1.1894636221055883,
                -1.7764812110098158,
                1.1138301260246655,
                0.9691132120380223,
                -0.8451119484045664,
                0.14214396811114544
            ]
        },
        {
            "positions": [
                1.2680024150650007,
                -1.7952773841495007,
                0.9233615023272115,
                0.8863765422789508,
                -0.8568184361528736,
                0.13725345985152315
            ]
        },
        {
            "positions": [
                1.3465412080244135,
                -1.8140735572891853,
                0.7328928786297577,
                0.8036398725198793,
                -0.8685249239011807,
                0.13236295159190087
            ]
        },
        {
            "positions": [
                1.4250800009838258,
                -1.83286973042887,
                0.542424254932304,
                0.720903202760808,
                -0.8802314116494878,
                0.12747244333227858
            ]
        },
        {
            "positions": [
                1.5036187939432386,
                -1.8516659035685548,
                0.35195563123484996,
                0.6381665330017365,
                -0.8919378993977951,
                0.12258193507265629
            ]
        },
        {
            "positions": [
                1.582157586902651,
                -1.8704620767082394,
                0.1614870075373962,
                0.5554298632426652,
                -0.9036443871461022,
                0.117691426813034
            ]
        },
        {
            "positions": [
                1.6606963798620638,
                -1.8892582498479242,
                -0.02898161616005801,
                0.4726931934835936,
                -0.9153508748944095,
                0.1128009185534117
            ]
        },
        {
            "positions": [
                1.739235172821476,
                -1.9080544229876089,
                -0.21945023985751178,
                0.3899565237245224,
                -0.9270573626427165,
                0.10791041029378942
            ]
        },
        {
            "positions": [
                1.817773965780889,
                -1.9268505961272937,
                -0.40991886355496554,
                0.30721985396545093,
                -0.9387638503910237,
                0.10301990203416714
            ]
        },
        {
            "positions": [
                1.8963127587403013,
                -1.9456467692669783,
                -0.6003874872524197,
                0.22448318420637947,
                -0.9504703381393309,
                0.09812939377454484
            ]
        },
        {
            "positions": [
                1.974851551699714,
                -1.9644429424066632,
                -0.7908561109498731,
                0.14174651444730801,
                -0.9621768258876381,
                0.09323888551492254
            ]
        },
        {
            "positions": [
                2.0533903446591264,
                -1.9832391155463478,
                -0.9813247346473273,
                0.05900984468823656,
                -0.9738833136359453,
                0.08834837725530024
            ]
        },
        {
            "positions": [
                2.131929137618539,
                -2.0020352886860326,
                -1.171793358344781,
                -0.0237268250708349,
                -0.9855898013842525,
                0.08345786899567796
            ]
        },
        {
            "positions": [
                2.2104679305779515,
                -2.0208314618257175,
                -1.3622619820422348,
                -0.10646349482990614,
                -0.9972962891325596,
                0.07856736073605568
            ]
        },
        {
            "positions": [
                2.2890067235373643,
                -2.039627634965402,
                -1.552730605739689,
                -0.18920016458897781,
                -1.009002776880867,
                0.07367685247643338
            ]
        },
        {
            "positions": [
                2.3675455164967767,
                -2.0584238081050867,
                -1.7431992294371428,
                -0.271936834348049,
                -1.020709264629174,
                0.0687863442168111
            ]
        },
        {
            "positions": [
                2.4047374737067635,
                -2.1038377935538413,
                -1.7434952495486484,
                -0.1350188329400653,
                -0.8568924668124457,
                0.0659823831146454
            ]
        },
        {
            "positions": [
                2.44192943091675,
                -2.149251779002596,
                -1.743791269660154,
                0.0018991684679183773,
                -0.6930756689957174,
                0.06317842201247971
            ]
        },
        {
            "positions": [
                2.4791213881267367,
                -2.1946657644513503,
                -1.7440872897716597,
                0.1388171698759021,
                -0.529258871178989,
                0.060374460910314016
            ]
        },
        {
            "positions": [
                2.5163133453367235,
                -2.240079749900105,
                -1.7443833098831651,
                0.27573517128388575,
                -0.36544207336226064,
                0.05757049980814832
            ]
        },
        {
            "positions": [
                2.5535053025467103,
                -2.2854937353488594,
                -1.7446793299946708,
                0.41265317269186946,
                -0.20162527554553222,
                0.05476653870598262
            ]
        },
        {
            "positions": [
                2.5906972597566966,
                -2.330907720797614,
                -1.7449753501061764,
                0.5495711740998532,
                -0.03780847772880391,
                0.05196257760381694
            ]
        },
        {
            "positions": [
                2.6278892169666834,
                -2.3763217062463684,
                -1.745271370217682,
                0.686489175507837,
                0.1260083200879245,
                0.04915861650165124
            ]
        },
        {
            "positions": [
                2.63878940076873,
                -2.410077803578762,
                -1.7196738295150191,
                0.7868924281806805,
                0.2426713209805842,
                0.035921301944983705
            ]
        },
        {
            "positions": [
                2.649689584570776,
                -2.443833900911156,
                -1.694076288812356,
                0.8872956808535242,
                0.3593343218732439,
                0.022683987388316167
            ]
        },
        {
            "positions": [
                2.6605897683728226,
                -2.4775899982435496,
                -1.668478748109693,
                0.9876989335263677,
                0.47599732276590356,
                0.009446672831648632
            ]
        }
    ]
}