{
    "goal": {
        "global_pose": {
            "orientation": {
                "w": -0.00223480608172531,
                "x": 0.0024358444001904467,
                "y": 0.7094548369677653,
                "z": -0.704743149386269
            },
            "position": {
                "x": 0.6205249238014221,
                "y": -0.6371506643295288,
                "z": 0.19426114857196808
            }
        },
        "name": "move_to_magneteinheit_B"
    },
    "id": "SBL_move_to_magneteinheit_B_46",
    "joint_names": [
        "shoulder_pan_joint",
        "shoulder_lift_joint",
        "elbow_joint",
        "wrist_1_joint",
        "wrist_2_joint",
        "wrist_3_joint"
    ],
    "metrics": {
        "cart_traj_len": 4.726328742845777,
        "distance_elbow_joint": 4.939964506639464,
        "distance_shoulder_lift_joint": 0.8860929419017354,
        "distance_shoulder_pan_joint": 3.760415597737966,
        "distance_wrist_1_joint": 4.392033477505761,
        "distance_wrist_2_joint": 3.967358981327328,
        "distance_wrist_3_joint": 5.579573465580372,
        "smoothness": 0.40697729663695587,
        "time": 0.47799399,
        "traj_len": 4.850302977205921,
        "weighted_distance": 6.560790985901504
    },
    "planner": "SBL",
    "start": {
        "state": {
            "elbow_joint": 2.6216224122426386,
            "shoulder_lift_joint": -1.4174107377796124,
            "shoulder_pan_joint": 0.7066234856936794,
            "wrist_1_joint": 1.9546482284002225,
            "wrist_2_joint": -0.7096286983471962,
            "wrist_3_joint": 0.005740856962016249
        }
    },
    "waypoints": [
        {
            "positions": [
                0.7066234856936794,
                -1.4174107377796124,
                2.6216224122426386,
                1.9546482284002225,
                -0.7096286983471962,
                0.005740856962016249
            ]
        },
        {
            "positions": [
                0.6594108854233056,
                -1.4325363384663141,
                2.6092929607324042,
                1.7743270969619789,
                -0.6637907827909,
                -0.06653697578634013
            ]
        },
        {
            "positions": [
                0.6121982851529317,
                -1.447661939153016,
                2.59696350922217,
                1.5940059655237353,
                -0.6179528672346039,
                -0.1388148085346965
            ]
        },
        {
            "positions": [
                0.564985684882558,
                -1.4627875398397179,
                2.584634057711936,
                1.4136848340854917,
                -0.5721149516783076,
                -0.21109264128305288
            ]
        },
        {
            "positions": [
                0.5177730846121842,
                -1.4779131405264199,
                2.5723046062017016,
                1.2333637026472482,
                -0.5262770361220115,
                -0.28337047403140925
            ]
        },
        {
            "positions": [
                0.4705604843418103,
                -1.4930387412131216,
                2.5599751546914673,
                1.0530425712090046,
                -0.48043912056571525,
                -0.35564830677976567
            ]
        },
        {
            "positions": [
                0.4233478840714365,
                -1.5081643418998234,
                2.547645703181233,
                0.872721439770761,
                -0.434601205009419,
                -0.42792613952812203
            ]
        },
        {
            "positions": [
                0.3761352838010627,
                -1.5232899425865254,
                2.5353162516709986,
                0.6924003083325176,
                -0.38876328945312283,
                -0.5002039722764784
            ]
        },
        {
            "positions": [
                0.3289226835306889,
                -1.5384155432732272,
                2.5229868001607643,
                0.5120791768942741,
                -0.34292537389682665,
                -0.5724818050248348
            ]
        },
        {
            "positions": [
                0.281710083260315,
                -1.5535411439599291,
                2.5106573486505304,
                0.3317580454560305,
                -0.2970874583405304,
                -0.6447596377731912
            ]
        },
        {
            "positions": [
                0.23449748298994116,
                -1.568666744646631,
                2.498327897140296,
                0.15143691401778692,
                -0.2512495427842342,
                -0.7170374705215476
            ]
        },
        {
            "positions": [
                0.18728488271956734,
                -1.583792345333333,
                2.4859984456300617,
                -0.02888421742045666,
                -0.20541162722793804,
                -0.789315303269904
            ]
        },
        {
            "positions": [
                0.14007228244919356,
                -1.5989179460200347,
                2.4736689941198273,
                -0.20920534885870046,
                -0.1595737116716418,
                -0.8615931360182604
            ]
        },
        {
            "positions": [
                0.09285968217881979,
                -1.6140435467067364,
                2.461339542609593,
                -0.3895264802969436,
                -0.11373579611534568,
                -0.9338709687666167
            ]
        },
        {
            "positions": [
                0.04564708190844602,
                -1.6291691473934384,
                2.4490100910993586,
                -0.5698476117351872,
                -0.06789788055904944,
                -1.0061488015149729
            ]
        },
        {
            "positions": [
                -0.0015655183619278645,
                -1.6442947480801402,
                2.4366806395891247,
                -0.7501687431734307,
                -0.0220599650027532,
                -1.0784266342633293
            ]
        },
        {
            "positions": [
                -0.04877811863230164,
                -1.6594203487668422,
                2.4243511880788904,
                -0.9304898746116743,
                0.023777950553542926,
                -1.1507044670116857
            ]
        },
        {
            "positions": [
                -0.09599071890267558,
                -1.674545949453544,
                2.412021736568656,
                -1.110811006049918,
                0.06961586610983919,
                -1.2229822997600421
            ]
        },
        {
            "positions": [
                -0.0648012030087001,
                -1.6861673339495657,
                2.310422871879557,
                -1.1615003272263709,
                0.12422690650158218,
                -1.1415880386511825
            ]
        },
        {
            "positions": [
                -0.03361168711472463,
                -1.6977887184455875,
                2.2088240071904583,
                -1.2121896484028238,
                0.17883794689332516,
                -1.060193777542323
            ]
        },
        {
            "positions": [
                -0.002422171220749156,
                -1.7094101029416091,
                2.1072251425013593,
                -1.262878969579277,
                0.23344898728506813,
                -0.9787995164334633
            ]
        },
        {
            "positions": [
                0.028767344673226322,
                -1.721031487437631,
                2.0056262778122607,
                -1.31356829075573,
                0.28806002767681116,
                -0.8974052553246036
            ]
        },
        {
            "positions": [
                0.0599568605672018,
                -1.7326528719336527,
                1.9040274131231616,
                -1.364257611932183,
                0.3426710680685541,
                -0.816010994215744
            ]
        },
        {
            "positions": [
                0.1386419456692133,
                -1.7305619684267486,
                1.7747514230837464,
                -1.376792891977902,
                0.2760835278287404,
                -0.719839242140353
            ]
        },
        {
            "positions": [
                0.21732703077122484,
                -1.7284710649198445,
                1.6454754330443313,
                -1.3893281720236208,
                0.2094959875889267,
                -0.6236674900649621
            ]
        },
        {
            "positions": [
                0.29601211587323634,
                -1.7263801614129404,
                1.5161994430049162,
                -1.4018634520693398,
                0.14290844734911304,
                -0.5274957379895713
            ]
        },
        {
            "positions": [
                0.37469720097524783,
                -1.7242892579060363,
                1.386923452965501,
                -1.4143987321150586,
                0.07632090710929934,
                -0.4313239859141803
            ]
        },
        {
            "positions": [
                0.4533822860772594,
                -1.722198354399132,
                1.2576474629260859,
                -1.4269340121607776,
                0.009733366869485616,
                -0.33515223383878934
            ]
        },
        {
            "positions": [
                0.5320673711792709,
                -1.7201074508922278,
                1.1283714728866707,
                -1.4394692922064964,
                -0.056854173370328,
                -0.23898048176339848
            ]
        },
        {
            "positions": [
                0.6107524562812825,
                -1.7180165473853237,
                0.9990954828472556,
                -1.4520045722522155,
                -0.12344171361014172,
                -0.1428087296880075
            ]
        },
        {
            "positions": [
                0.6894375413832939,
                -1.7159256438784196,
                0.8698194928078404,
                -1.4645398522979345,
                -0.1900292538499554,
                -0.04663697761261665
            ]
        },
        {
            "positions": [
                0.7681226264853056,
                -1.7138347403715155,
                0.7405435027684253,
                -1.4770751323436533,
                -0.2566167940897691,
                0.049534774462774434
            ]
        },
        {
            "positions": [
                0.846807711587317,
                -1.7117438368646114,
                0.6112675127290101,
                -1.4896104123893723,
                -0.32320433432958284,
                0.1457065265381653
            ]
        },
        {
            "positions": [
                0.9254927966893286,
                -1.7096529333577073,
                0.481991522689595,
                -1.502145692435091,
                -0.38979187456939646,
                0.24187827861355615
            ]
        },
        {
            "positions": [
                1.00417788179134,
                -1.7075620298508032,
                0.35271553265017985,
                -1.5146809724808101,
                -0.45637941480921007,
                0.338050030688947
            ]
        },
        {
            "positions": [
                1.0828629668933516,
                -1.705471126343899,
                0.2234395426107647,
                -1.5272162525265291,
                -0.5229669550490239,
                0.4342217827643381
            ]
        },
        {
            "positions": [
                1.1615480519953632,
                -1.7033802228369948,
                0.09416355257134956,
                -1.539751532572248,
                -0.5895544952888375,
                0.530393534839729
            ]
        },
        {
            "positions": [
                1.2402331370973747,
                -1.7012893193300906,
                -0.03511243746806558,
                -1.5522868126179667,
                -0.6561420355286511,
                0.6265652869151198
            ]
        },
        {
            "positions": [
                1.318918222199386,
                -1.6991984158231865,
                -0.16438842750748073,
                -1.5648220926636858,
                -0.7227295757684649,
                0.7227370389905107
            ]
        },
        {
            "positions": [
                1.3976033073013976,
                -1.6971075123162824,
                -0.2936644175468959,
                -1.5773573727094048,
                -0.7893171160082786,
                0.8189087910659015
            ]
        },
        {
            "positions": [
                1.4762883924034094,
                -1.6950166088093783,
                -0.422940407586311,
                -1.5898926527551236,
                -0.8559046562480923,
                0.9150805431412928
            ]
        },
        {
            "positions": [
                1.554973477505421,
                -1.6929257053024742,
                -0.5522163976257262,
                -1.6024279328008426,
                -0.922492196487906,
                1.0112522952166838
            ]
        },
        {
            "positions": [
                1.6336585626074323,
                -1.69083480179557,
                -0.6814923876651413,
                -1.6149632128465616,
                -0.9890797367277198,
                1.1074240472920747
            ]
        },
        {
            "positions": [
                1.7123436477094438,
                -1.688743898288666,
                -0.8107683777045565,
                -1.6274984928922804,
                -1.0556672769675333,
                1.2035957993674655
            ]
        },
        {
            "positions": [
                1.7910287328114554,
                -1.686652994781762,
                -0.9400443677439716,
                -1.6400337729379992,
                -1.122254817207347,
                1.2997675514428564
            ]
        },
        {
            "positions": [
                1.8697138179134667,
                -1.6845620912748578,
                -1.0693203577833867,
                -1.6525690529837183,
                -1.1888423574471607,
                1.3959393035182472
            ]
        },
        {
            "positions": [
                1.9483989030154782,
                -1.6824711877679535,
                -1.1985963478228019,
                -1.6651043330294373,
                -1.2554298976869742,
                1.492111055593638
            ]
        },
        {
            "positions": [
                2.02708398811749,
                -1.6803802842610494,
                -1.327872337862217,
                -1.677639613075156,
                -1.3220174379267882,
                1.5882828076690294
            ]
        },
        {
            "positions": [
                2.105769073219501,
                -1.6782893807541452,
                -1.4571483279016322,
                -1.690174893120875,
                -1.3886049781666019,
                1.6844545597444203
            ]
        },
        {
            "positions": [
                2.184454158321513,
                -1.6761984772472411,
                -1.5864243179410473,
                -1.7027101731665941,
                -1.4551925184064154,
                1.7806263118198111
            ]
        },
        {
            "positions": [
                2.2631392434235242,
                -1.674107573740337,
                -1.7157003079804625,
                -1.715245453212313,
                -1.5217800586462291,
                1.876798063895202
            ]
        },
        {
            "positions": [
                2.2295843096454955,
                -1.7316350079584863,
                -1.8057202795162048,
                -1.7774159980375959,
                -1.4819892116762818,
                1.9860262308365977
            ]
        },
        {
            "positions": [
                2.1960293758674663,
                -1.7891624421766354,
                -1.8957402510519472,
                -1.8395865428628788,
                -1.4421983647063348,
                2.0952543977779934
            ]
        },
        {
            "positions": [
                2.1624744420894375,
                -1.8466898763947848,
                -1.9857602225876896,
                -1.9017570876881618,
                -1.4024075177363875,
                2.204482564719389
            ]
        },
        {
            "positions": [
                2.2132097593186684,
                -1.8846220319113431,
                -1.9656319386939998,
                -1.9867742578310887,
                -1.342106483393724,
                2.2895268647298685
            ]
        },
        {
            "positions": [
                2.263945076547899,
                -1.9225541874279015,
                -1.94550365480031,
                -2.0717914279740155,
                -1.2818054490510602,
                2.3745711647403476
            ]
        },
        {
            "positions": [
                2.314680393777129,
                -1.9604863429444601,
                -1.9253753709066204,
                -2.1568085981169425,
                -1.2215044147083967,
                2.4596154647508266
            ]
        },
        {
            "positions": [
                2.36541571100636,
                -1.9984184984610185,
                -1.9052470870129306,
                -2.2418257682598695,
                -1.1612033803657331,
                2.544659764761306
            ]
        },
        {
            "positions": [
                2.408582290103813,
                -2.0259532194537235,
                -1.868770282134371,
                -2.271349390379144,
                -1.0613048097688411,
                2.629917931721861
            ]
        },
        {
            "positions": [
                2.451748869201266,
                -2.0534879404464284,
                -1.8322934772558117,
                -2.3008730124984185,
                -0.9614062391719491,
                2.7151760986824156
            ]
        },
        {
            "positions": [
                2.4949154482987184,
                -2.081022661439133,
                -1.7958166723772522,
                -2.330396634617693,
                -0.8615076685750571,
                2.80043426564297
            ]
        },
        {
            "positions": [
                2.5380820273961713,
                -2.108557382431838,
                -1.7593398674986926,
                -2.3599202567369675,
                -0.7616090979781651,
                2.8856924326035247
            ]
        },
        {
            "positions": [
                2.5788817087877014,
                -2.1345092827194643,
                -1.723952695258646,
                -2.3857419208598256,
                -0.6647967221352558,
                2.9664176247684413
            ]
        },
        {
            "positions": [
                2.619681390179232,
                -2.16046118300709,
                -1.6885655230185994,
                -2.4115635849826838,
                -0.5679843462923464,
                3.0471428169333574
            ]
        },
        {
            "positions": [
                2.660481071570762,
                -2.1864130832947164,
                -1.6531783507785527,
                -2.437385249105542,
                -0.4711719704494369,
                3.127868009098274
            ]
        }
    ]
}