{
    "goal": {
        "global_pose": {
            "orientation": {
                "w": 0.7031023480610252,
                "x": -0.7110244013736278,
                "y": 0.0077485991402295624,
                "z": 0.005598929693374583
            },
            "position": {
                "x": -0.8841497679147869,
                "y": 0.44412534475326537,
                "z": 0.3711530566215515
            }
        },
        "name": "move_to_auspresseinheit_D"
    },
    "id": "SBL_move_to_auspresseinheit_D_137",
    "joint_names": [
        "shoulder_pan_joint",
        "shoulder_lift_joint",
        "elbow_joint",
        "wrist_1_joint",
        "wrist_2_joint",
        "wrist_3_joint"
    ],
    "metrics": {
        "cart_traj_len": 0.34414848745075133,
        "distance_elbow_joint": 0.6676879897085366,
        "distance_shoulder_lift_joint": 0.13791685279417543,
        "distance_shoulder_pan_joint": 0.13312854837200164,
        "distance_wrist_1_joint": 0.6243343217128539,
        "distance_wrist_2_joint": 1.4457054037013246,
        "distance_wrist_3_joint": 0.08361951294008962,
        "smoothness": 0.0,
        "time": 0.28578914,
        "traj_len": 1.7585200110402446,
        "weighted_distance": 2.3086081045780245
    },
    "planner": "SBL",
    "start": {
        "state": {
            "elbow_joint": -1.8275523626775212,
            "shoulder_lift_joint": -2.126789852344167,
            "shoulder_pan_joint": -0.03513704404078235,
            "wrist_1_joint": -2.347782403156801,
            "wrist_2_joint": -1.6058999987535132,
            "wrist_3_joint": -3.0880379163319196
        }
    },
    "waypoints": [
        {
            "positions": [
                -0.03513704404078235,
                -2.126789852344167,
                -1.8275523626775212,
                -2.347782403156801,
                -1.6058999987535132,
                -3.0880379163319196
            ]
        },
        {
            "positions": [
                -0.05177811258728256,
                -2.1440294589434385,
                -1.7440913639639541,
                -2.4258241933709077,
                -1.4251868232908476,
                -3.0775854772144084
            ]
        },
        {
            "positions": [
                -0.06841918113378276,
                -2.1612690655427107,
                -1.660630365250387,
                -2.5038659835850146,
                -1.244473647828182,
                -3.0671330380968973
            ]
        },
        {
            "positions": [
                -0.08506024968028297,
                -2.178508672141983,
                -1.57716936653682,
                -2.581907773799121,
                -1.0637604723655165,
                -3.056680598979386
            ]
        },
        {
            "positions": [
                -0.10170131822678316,
                -2.1957482787412546,
                -1.493708367823253,
                -2.659949564013228,
                -0.8830472969028509,
                -3.046228159861875
            ]
        },
        {
            "positions": [
                -0.11834238677328338,
                -2.2129878853405263,
                -1.410247369109686,
                -2.7379913542273346,
                -0.7023341214401853,
                -3.0357757207443634
            ]
        },
        {
            "positions": [
                -0.1349834553197836,
                -2.2302274919397984,
                -1.3267863703961187,
                -2.816033144441441,
                -0.5216209459775198,
                -3.0253232816268523
            ]
        },
        {
            "positions": [
                -0.15162452386628378,
                -2.2474670985390706,
                -1.2433253716825516,
                -2.894074934655548,
                -0.3409077705148542,
                -3.014870842509341
            ]
        },
        {
            "positions": [
                -0.168265592412784,
                -2.2647067051383423,
                -1.1598643729689846,
                -2.9721167248696547,
                -0.1601945950521886,
                -3.00441840339183
            ]
        }
    ]
}