{
    "goal": {
        "global_pose": {
            "orientation": {
                "w": 0.5084816217422485,
                "x": -0.49083608388900757,
                "y": 0.5182115435600281,
                "z": -0.4816462993621826
            },
            "position": {
                "x": 0.5540239810943604,
                "y": 0.030875300988554955,
                "z": 0.16403168439865112
            }
        },
        "name": "move_to_storage_A"
    },
    "id": "SBL_move_to_storage_A_74",
    "joint_names": [
        "shoulder_pan_joint",
        "shoulder_lift_joint",
        "elbow_joint",
        "wrist_1_joint",
        "wrist_2_joint",
        "wrist_3_joint"
    ],
    "metrics": {
        "cart_traj_len": 0.35258337888380553,
        "distance_elbow_joint": 0.4491807459530479,
        "distance_shoulder_lift_joint": 0.23325658545493178,
        "distance_shoulder_pan_joint": 0.45960068186129516,
        "distance_wrist_1_joint": 0.24087654255228164,
        "distance_wrist_2_joint": 1.1035560751870572,
        "distance_wrist_3_joint": 0.09601645761098254,
        "smoothness": 0.0,
        "time": 0.09149531400000001,
        "traj_len": 1.6070118508024749,
        "weighted_distance": 2.0295202934636793
    },
    "planner": "SBL",
    "start": {
        "state": {
            "elbow_joint": 1.9715481507254546,
            "shoulder_lift_joint": -1.1394850672790213,
            "shoulder_pan_joint": 0.12281154597544902,
            "wrist_1_joint": -0.7804720171073349,
            "wrist_2_joint": 0.12958658322886563,
            "wrist_3_joint": -3.1924895760937617
        }
    },
    "waypoints": [
        {
            "positions": [
                0.12281154597544902,
                -1.1394850672790213,
                1.9715481507254546,
                -0.7804720171073349,
                0.12958658322886563,
                -3.1924895760937617
            ]
        },
        {
            "positions": [
                0.05715430570954971,
                -1.1728074366297259,
                2.0357168287187473,
                -0.8148829517576609,
                0.2872374511127309,
                -3.178772939292193
            ]
        },
        {
            "positions": [
                -0.008502934556349595,
                -1.2061298059804304,
                2.09988550671204,
                -0.8492938864079869,
                0.44488831899659625,
                -3.165056302490624
            ]
        },
        {
            "positions": [
                -0.0741601748222489,
                -1.239452175331135,
                2.1640541847053325,
                -0.8837048210583127,
                0.6025391868804615,
                -3.151339665689055
            ]
        },
        {
            "positions": [
                -0.1398174150881482,
                -1.2727745446818395,
                2.2282228626986247,
                -0.9181157557086387,
                0.7601900547643269,
                -3.137623028887486
            ]
        },
        {
            "positions": [
                -0.20547465535404752,
                -1.306096914032544,
                2.2923915406919173,
                -0.9525266903589646,
                0.9178409226481923,
                -3.123906392085917
            ]
        },
        {
            "positions": [
                -0.27113189561994683,
                -1.3394192833832486,
                2.35656021868521,
                -0.9869376250092906,
                1.0754917905320576,
                -3.110189755284348
            ]
        },
        {
            "positions": [
                -0.33678913588584614,
                -1.372741652733953,
                2.4207288966785026,
                -1.0213485596596166,
                1.2331426584159229,
                -3.096473118482779
            ]
        }
    ]
}