{
    "goal": {
        "global_pose": {
            "orientation": {
                "w": 0.005598929693374612,
                "x": 0.007748599140229565,
                "y": 0.7110244013736278,
                "z": -0.7031023480610252
            },
            "position": {
                "x": -0.8858502320852131,
                "y": -0.7141253447532654,
                "z": 0.3711530566215515
            }
        },
        "name": "move_to_auspresseinheit_C"
    },
    "id": "SBL_move_to_auspresseinheit_C_40",
    "joint_names": [
        "shoulder_pan_joint",
        "shoulder_lift_joint",
        "elbow_joint",
        "wrist_1_joint",
        "wrist_2_joint",
        "wrist_3_joint"
    ],
    "metrics": {
        "cart_traj_len": 0.4937601291189328,
        "distance_elbow_joint": 0.9960511655993826,
        "distance_shoulder_lift_joint": 0.32316733358419125,
        "distance_shoulder_pan_joint": 0.25687933545872754,
        "distance_wrist_1_joint": 0.6623340051957407,
        "distance_wrist_2_joint": 1.3094967084140006,
        "distance_wrist_3_joint": 0.03828735843127795,
        "smoothness": 1.6148698667872622e-16,
        "time": 0.39078874599999996,
        "traj_len": 1.893730684834388,
        "weighted_distance": 2.373735734481751
    },
    "planner": "SBL",
    "start": {
        "state": {
            "elbow_joint": 1.7527959577737207,
            "shoulder_lift_joint": -0.9740617694225068,
            "shoulder_pan_joint": -2.967991417825858,
            "wrist_1_joint": -0.759517768980727,
            "wrist_2_joint": 1.7443932448377408,
            "wrist_3_joint": -3.0840537646736568
        }
    },
    "waypoints": [
        {
            "positions": [
                -2.967991417825858,
                -0.9740617694225068,
                1.7527959577737207,
                -0.759517768980727,
                1.7443932448377408,
                -3.0840537646736568
            ]
        },
        {
            "positions": [
                -2.9423034842799853,
                -0.9417450360640877,
                1.6531908412137823,
                -0.6932843684611529,
                1.6134435739963409,
                -3.0878825005167845
            ]
        },
        {
            "positions": [
                -2.9166155507341123,
                -0.9094283027056685,
                1.553585724653844,
                -0.6270509679415788,
                1.4824939031549407,
                -3.091711236359912
            ]
        },
        {
            "positions": [
                -2.8909276171882397,
                -0.8771115693472494,
                1.453980608093906,
                -0.5608175674220048,
                1.3515442323135407,
                -3.0955399722030403
            ]
        },
        {
            "positions": [
                -2.865239683642367,
                -0.8447948359888302,
                1.3543754915339676,
                -0.4945841669024307,
                1.2205945614721405,
                -3.099368708046168
            ]
        },
        {
            "positions": [
                -2.8395517500964944,
                -0.8124781026304111,
                1.2547703749740293,
                -0.42835076638285663,
                1.0896448906307405,
                -3.1031974438892957
            ]
        },
        {
            "positions": [
                -2.8138638165506213,
                -0.780161369271992,
                1.1551652584140912,
                -0.3621173658632826,
                0.9586952197893405,
                -3.1070261797324235
            ]
        },
        {
            "positions": [
                -2.7881758830047487,
                -0.7478446359135729,
                1.055560141854153,
                -0.29588396534370853,
                0.8277455489479405,
                -3.110854915575551
            ]
        },
        {
            "positions": [
                -2.762487949458876,
                -0.7155279025551537,
                0.9559550252942146,
                -0.22965056482413437,
                0.6967958781065404,
                -3.1146836514186793
            ]
        },
        {
            "positions": [
                -2.736800015913003,
                -0.6832111691967346,
                0.8563499087342763,
                -0.16341716430456033,
                0.5658462072651402,
                -3.118512387261807
            ]
        },
        {
            "positions": [
                -2.7111120823671304,
                -0.6508944358383155,
                0.7567447921743381,
                -0.09718376378498624,
                0.4348965364237404,
                -3.1223411231049347
            ]
        }
    ]
}