{
    "goal": {
        "global_pose": {
            "orientation": {
                "w": 0.7031023480610252,
                "x": -0.7110244013736278,
                "y": 0.0077485991402295624,
                "z": 0.005598929693374583
            },
            "position": {
                "x": -0.8841497679147869,
                "y": 0.44412534475326537,
                "z": 0.3711530566215515
            }
        },
        "name": "move_to_auspresseinheit_D"
    },
    "id": "SPARStwo_move_to_auspresseinheit_D_135",
    "joint_names": [
        "shoulder_pan_joint",
        "shoulder_lift_joint",
        "elbow_joint",
        "wrist_1_joint",
        "wrist_2_joint",
        "wrist_3_joint"
    ],
    "metrics": {
        "cart_traj_len": 0.34303917441695553,
        "distance_elbow_joint": 0.6394521116919507,
        "distance_shoulder_lift_joint": 0.12172511715358736,
        "distance_shoulder_pan_joint": 0.1334454533174855,
        "distance_wrist_1_joint": 0.5346708372869187,
        "distance_wrist_2_joint": 1.4461104118183359,
        "distance_wrist_3_joint": 0.008886170947720817,
        "smoothness": 1.77635684096311e-15,
        "time": 5.00713147,
        "traj_len": 1.6983197879716292,
        "weighted_distance": 2.209715749415905
    },
    "planner": "SPARStwo",
    "start": {
        "state": {
            "elbow_joint": -1.8275523626775212,
            "shoulder_lift_joint": -2.126789852344167,
            "shoulder_pan_joint": -0.03513704404078235,
            "wrist_1_joint": -2.347782403156801,
            "wrist_2_joint": -1.6058999987535132,
            "wrist_3_joint": -3.0880379163319196
        }
    },
    "waypoints": [
        {
            "positions": [
                -0.03513704404078235,
                -2.126789852344167,
                -1.8275523626775212,
                -2.347782403156801,
                -1.6058999987535132,
                -3.0880379163319196
            ]
        },
        {
            "positions": [
                -0.05181772570546804,
                -2.1420054919883653,
                -1.7476208487160274,
                -2.4146162578176655,
                -1.4251361972762213,
                -3.0869271449634543
            ]
        },
        {
            "positions": [
                -0.06849840737015372,
                -2.157221131632564,
                -1.6676893347545336,
                -2.4814501124785306,
                -1.2443723957989292,
                -3.0858163735949895
            ]
        },
        {
            "positions": [
                -0.08517908903483942,
                -2.1724367712767623,
                -1.5877578207930396,
                -2.5482839671393953,
                -1.0636085943216371,
                -3.0847056022265242
            ]
        },
        {
            "positions": [
                -0.10185977069952509,
                -2.1876524109209603,
                -1.5078263068315458,
                -2.6151178218002604,
                -0.8828447928443452,
                -3.0835948308580594
            ]
        },
        {
            "positions": [
                -0.11854045236421079,
                -2.2028680505651588,
                -1.427894792870052,
                -2.681951676461125,
                -0.7020809913670533,
                -3.082484059489594
            ]
        },
        {
            "positions": [
                -0.1352211340288965,
                -2.2180836902093573,
                -1.347963278908558,
                -2.7487855311219898,
                -0.5213171898897613,
                -3.081373288121129
            ]
        },
        {
            "positions": [
                -0.15190181569358216,
                -2.2332993298535557,
                -1.2680317649470643,
                -2.815619385782855,
                -0.3405533884124692,
                -3.080262516752664
            ]
        },
        {
            "positions": [
                -0.16858249735826786,
                -2.248514969497754,
                -1.1881002509855705,
                -2.8824532404437195,
                -0.1597895869351773,
                -3.079151745384199
            ]
        }
    ]
}