{
    "goal": {
        "global_pose": {
            "orientation": {
                "w": 0.7047431493862688,
                "x": -0.7094548369677653,
                "y": 0.0024358444001904,
                "z": -0.0022348060817251984
            },
            "position": {
                "x": -0.39052492380142206,
                "y": 0.3671506643295288,
                "z": 0.19426114857196808
            }
        },
        "name": "move_to_magneteinheit_D"
    },
    "id": "SPARS_move_to_magneteinheit_D_103",
    "joint_names": [
        "shoulder_pan_joint",
        "shoulder_lift_joint",
        "elbow_joint",
        "wrist_1_joint",
        "wrist_2_joint",
        "wrist_3_joint"
    ],
    "metrics": {
        "cart_traj_len": 4.389113821981805,
        "distance_elbow_joint": 3.1489322323173385,
        "distance_shoulder_lift_joint": 1.959512890982914,
        "distance_shoulder_pan_joint": 3.2392271976429168,
        "distance_wrist_1_joint": 2.176808447112169,
        "distance_wrist_2_joint": 1.0086608429772683,
        "distance_wrist_3_joint": 5.006568180479201,
        "smoothness": 0.6456885035794768,
        "time": 5.08518787,
        "traj_len": 4.0669042024016,
        "weighted_distance": 5.453284830499837
    },
    "planner": "SPARS",
    "start": {
        "state": {
            "elbow_joint": 0.749534889911806,
            "shoulder_lift_joint": -0.6476975780787326,
            "shoulder_pan_joint": -2.711696901376241,
            "wrist_1_joint": -0.07506478083263063,
            "wrist_2_joint": 0.43296659715538205,
            "wrist_3_joint": -3.14703540197715
        }
    },
    "waypoints": [
        {
            "positions": [
                -2.711696901376241,
                -0.6476975780787326,
                0.749534889911806,
                -0.07506478083263063,
                0.43296659715538205,
                -3.14703540197715
            ]
        },
        {
            "positions": [
                -2.719547862611688,
                -0.7339445879746598,
                0.7271920037347662,
                0.06944588904213994,
                0.44972815767028784,
                -3.0610218321749287
            ]
        },
        {
            "positions": [
                -2.7273988238471345,
                -0.8201915978705869,
                0.7048491175577265,
                0.21395655891691054,
                0.4664897181851936,
                -2.9750082623727074
            ]
        },
        {
            "positions": [
                -2.641015590983471,
                -0.8671163195245338,
                0.6376773618932402,
                0.266690743056981,
                0.4633287734209414,
                -2.840044743433885
            ]
        },
        {
            "positions": [
                -2.554632358119808,
                -0.9140410411784807,
                0.5705056062287539,
                0.3194249271970514,
                0.46016782865668926,
                -2.7050812244950624
            ]
        },
        {
            "positions": [
                -2.4682491252561443,
                -0.9609657628324275,
                0.5033338505642677,
                0.3721591113371218,
                0.45700688389243704,
                -2.57011770555624
            ]
        },
        {
            "positions": [
                -2.3818658923924807,
                -1.0078904844863743,
                0.4361620948997814,
                0.42489329547719223,
                0.4538459391281849,
                -2.4351541866174173
            ]
        },
        {
            "positions": [
                -2.2954826595288176,
                -1.0548152061403213,
                0.3689903392352951,
                0.4776274796172627,
                0.4506849943639327,
                -2.3001906676785944
            ]
        },
        {
            "positions": [
                -2.209099426665154,
                -1.101739927794268,
                0.3018185835708089,
                0.5303616637573331,
                0.44752404959968056,
                -2.165227148739772
            ]
        },
        {
            "positions": [
                -2.1227161938014905,
                -1.1486646494482151,
                0.23464682790632257,
                0.5830958478974035,
                0.4443631048354284,
                -2.0302636298009493
            ]
        },
        {
            "positions": [
                -2.0363329609378273,
                -1.195589371102162,
                0.16747507224183633,
                0.6358300320374739,
                0.4412021600711762,
                -1.8953001108621268
            ]
        },
        {
            "positions": [
                -1.9499497280741638,
                -1.242514092756109,
                0.10030331657735003,
                0.6885642161775444,
                0.438041215306924,
                -1.760336591923304
            ]
        },
        {
            "positions": [
                -1.8635664952105002,
                -1.2894388144100557,
                0.03313156091286373,
                0.7412984003176148,
                0.43488027054267187,
                -1.6253730729844815
            ]
        },
        {
            "positions": [
                -1.7771832623468369,
                -1.3363635360640025,
                -0.034040194751622566,
                0.7940325844576852,
                0.4317193257784197,
                -1.490409554045659
            ]
        },
        {
            "positions": [
                -1.6908000294831735,
                -1.3832882577179495,
                -0.10121195041610875,
                0.8467667685977557,
                0.42855838101416754,
                -1.3554460351068365
            ]
        },
        {
            "positions": [
                -1.60441679661951,
                -1.4302129793718963,
                -0.16838370608059505,
                0.8995009527378262,
                0.42539743624991533,
                -1.2204825161680137
            ]
        },
        {
            "positions": [
                -1.5180335637558466,
                -1.477137701025843,
                -0.23555546174508135,
                0.9522351368778965,
                0.42223649148566317,
                -1.0855189972291912
            ]
        },
        {
            "positions": [
                -1.4316503308921833,
                -1.52406242267979,
                -0.30272721740956765,
                1.0049693210179669,
                0.419075546721411,
                -0.9505554782903687
            ]
        },
        {
            "positions": [
                -1.34526709802852,
                -1.5709871443337369,
                -0.36989897307405384,
                1.0577035051580372,
                0.41591460195715885,
                -0.8155919593515462
            ]
        },
        {
            "positions": [
                -1.2588838651648564,
                -1.6179118659876837,
                -0.43707072873854,
                1.1104376892981076,
                0.41275365719290663,
                -0.6806284404127236
            ]
        },
        {
            "positions": [
                -1.1725006323011928,
                -1.6648365876416307,
                -0.5042424844030264,
                1.1631718734381782,
                0.40959271242865447,
                -0.5456649214739007
            ]
        },
        {
            "positions": [
                -1.0861173994375295,
                -1.7117613092955777,
                -0.5714142400675128,
                1.2159060575782488,
                0.4064317676644023,
                -0.41070140253507814
            ]
        },
        {
            "positions": [
                -0.9997341665738662,
                -1.7586860309495245,
                -0.638585995731999,
                1.2686402417183191,
                0.40327082290015015,
                -0.2757378835962556
            ]
        },
        {
            "positions": [
                -0.9133509337102028,
                -1.8056107526034713,
                -0.7057577513964852,
                1.3213744258583895,
                0.40010987813589793,
                -0.1407743646574331
            ]
        },
        {
            "positions": [
                -0.8269677008465393,
                -1.8525354742574183,
                -0.7729295070609716,
                1.3741086099984599,
                0.3969489333716458,
                -0.005810845718610569
            ]
        },
        {
            "positions": [
                -0.7405844679828759,
                -1.899460195911365,
                -0.8401012627254578,
                1.4268427941385302,
                0.3937879886073936,
                0.12915267322021196
            ]
        },
        {
            "positions": [
                -0.6542012351192126,
                -1.9463849175653118,
                -0.907273018389944,
                1.4795769782786008,
                0.39062704384314145,
                0.2641161921590345
            ]
        },
        {
            "positions": [
                -0.567818002255549,
                -1.9933096392192589,
                -0.9744447740544304,
                1.5323111624186712,
                0.3874660990788893,
                0.39907971109785745
            ]
        },
        {
            "positions": [
                -0.48143476939188545,
                -2.040234360873206,
                -1.0416165297189166,
                1.5850453465587417,
                0.3843051543146371,
                0.53404323003668
            ]
        },
        {
            "positions": [
                -0.39505153652822234,
                -2.087159082527153,
                -1.108788285383403,
                1.637779530698812,
                0.3811442095503849,
                0.6690067489755025
            ]
        },
        {
            "positions": [
                -0.30866830366455866,
                -2.1340838041810994,
                -1.1759600410478892,
                1.6905137148388825,
                0.37798326478613276,
                0.8039702679143248
            ]
        },
        {
            "positions": [
                -0.2423149631873936,
                -2.1447011571130314,
                -1.3241388119438484,
                1.7021606418679154,
                0.41677637000078877,
                0.7291465159305277
            ]
        },
        {
            "positions": [
                -0.17596162271022855,
                -2.155318510044963,
                -1.4723175828398076,
                1.7138075688969485,
                0.4555694752154448,
                0.6543227639467307
            ]
        },
        {
            "positions": [
                -0.10960828223306349,
                -2.165935862976895,
                -1.6204963537357666,
                1.7254544959259814,
                0.4943625804301008,
                0.5794990119629336
            ]
        },
        {
            "positions": [
                -0.043254941755898446,
                -2.176553215908827,
                -1.7686751246317258,
                1.7371014229550144,
                0.5331556856447568,
                0.5046752599791366
            ]
        },
        {
            "positions": [
                0.023098398721266622,
                -2.187170568840759,
                -1.916853895527685,
                1.7487483499840473,
                0.5719487908594129,
                0.4298515079953395
            ]
        },
        {
            "positions": [
                0.08945173919843169,
                -2.1977879217726906,
                -2.0650326664236442,
                1.7603952770130804,
                0.6107418960740688,
                0.35502775601154246
            ]
        },
        {
            "positions": [
                0.15580507967559676,
                -2.2084052747046226,
                -2.2132114373196035,
                1.7720422040421133,
                0.6495350012887249,
                0.2802040040277453
            ]
        },
        {
            "positions": [
                0.12952922907213724,
                -2.167039958026253,
                -2.259277342954601,
                1.7171885942704246,
                0.5139270683989674,
                0.1906764920967379
            ]
        },
        {
            "positions": [
                0.10325337846867771,
                -2.125674641347883,
                -2.3053432485895984,
                1.6623349844987358,
                0.37831913550921004,
                0.10114898016573048
            ]
        },
        {
            "positions": [
                0.07697752786521819,
                -2.084309324669513,
                -2.351409154224596,
                1.607481374727047,
                0.24271120261945262,
                0.011621468234723042
            ]
        },
        {
            "positions": [
                0.05070167726175867,
                -2.042944007991143,
                -2.3974750598595937,
                1.5526277649553584,
                0.10710326972969525,
                -0.07790604369628434
            ]
        },
        {
            "positions": [
                -0.027704312483392446,
                -2.120725317205658,
                -2.3968342990109472,
                1.5158654239051352,
                0.13131920322528665,
                -0.020010644037245943
            ]
        },
        {
            "positions": [
                -0.10611030222854356,
                -2.198506626420173,
                -2.396193538162301,
                1.4791030828549119,
                0.15553513672087804,
                0.03788475562179246
            ]
        },
        {
            "positions": [
                -0.1845162919736947,
                -2.276287935634688,
                -2.3955527773136547,
                1.4423407418046887,
                0.17975107021646944,
                0.09578015528083086
            ]
        }
    ]
}