{
    "goal": {
        "global_pose": {
            "orientation": {
                "w": -0.00223480608172531,
                "x": 0.0024358444001904467,
                "y": 0.7094548369677653,
                "z": -0.704743149386269
            },
            "position": {
                "x": 0.6205249238014221,
                "y": -0.6371506643295288,
                "z": 0.19426114857196808
            }
        },
        "name": "move_to_magneteinheit_B"
    },
    "id": "SPARS_move_to_magneteinheit_B_137",
    "joint_names": [
        "shoulder_pan_joint",
        "shoulder_lift_joint",
        "elbow_joint",
        "wrist_1_joint",
        "wrist_2_joint",
        "wrist_3_joint"
    ],
    "metrics": {
        "cart_traj_len": 1.4696133320763691,
        "distance_elbow_joint": 0.954877450058488,
        "distance_shoulder_lift_joint": 0.8575346157516793,
        "distance_shoulder_pan_joint": 1.620016043065832,
        "distance_wrist_1_joint": 0.20395527452345474,
        "distance_wrist_2_joint": 1.5328623835470803,
        "distance_wrist_3_joint": 0.20141329908452305,
        "smoothness": 0.15315273426803122,
        "time": 5.029289556,
        "traj_len": 2.3174682448808346,
        "weighted_distance": 2.7404932625844274
    },
    "planner": "SPARS",
    "start": {
        "state": {
            "elbow_joint": 2.6216224122426386,
            "shoulder_lift_joint": -1.4174107377796124,
            "shoulder_pan_joint": 0.7066234856936794,
            "wrist_1_joint": 1.9546482284002225,
            "wrist_2_joint": -0.7096286983471962,
            "wrist_3_joint": 0.005740856962016249
        }
    },
    "waypoints": [
        {
            "positions": [
                0.7066234856936794,
                -1.4174107377796124,
                2.6216224122426386,
                1.9546482284002225,
                -0.7096286983471962,
                0.005740856962016249
            ]
        },
        {
            "positions": [
                0.6248552957527221,
                -1.4346821597184192,
                2.6104321253170144,
                2.014062991901246,
                -0.8682946171678673,
                -0.027207870533731957
            ]
        },
        {
            "positions": [
                0.543087105811765,
                -1.4519535816572258,
                2.59924183839139,
                2.07347775540227,
                -1.0269605359885383,
                -0.06015659802948016
            ]
        },
        {
            "positions": [
                0.46131891587080776,
                -1.4692250035960326,
                2.5880515514657656,
                2.1328925189032937,
                -1.1856264548092095,
                -0.09310532552522838
            ]
        },
        {
            "positions": [
                0.3363451455759932,
                -1.3959776990564636,
                2.5042964069856186,
                2.135229881086965,
                -1.2817050572714883,
                -0.08378104219820307
            ]
        },
        {
            "positions": [
                0.21137137528117866,
                -1.3227303945168947,
                2.420541262505472,
                2.1375672432706363,
                -1.3777836597337672,
                -0.07445675887117775
            ]
        },
        {
            "positions": [
                0.08639760498636417,
                -1.2494830899773255,
                2.336786118025325,
                2.139904605454307,
                -1.473862262196046,
                -0.06513247554415244
            ]
        },
        {
            "positions": [
                -0.03857616530845043,
                -1.1762357854377565,
                2.253030973545178,
                2.1422419676379785,
                -1.5699408646583248,
                -0.05580819221712712
            ]
        },
        {
            "positions": [
                -0.16354993560326492,
                -1.1029884808981876,
                2.1692758290650316,
                2.14457932982165,
                -1.6660194671206034,
                -0.04648390889010181
            ]
        },
        {
            "positions": [
                -0.2885237058980794,
                -1.0297411763586186,
                2.0855206845848846,
                2.146916692005321,
                -1.7620980695828825,
                -0.037159625563076504
            ]
        },
        {
            "positions": [
                -0.413497476192894,
                -0.9564938718190495,
                2.0017655401047376,
                2.1492540541889924,
                -1.8581766720451611,
                -0.027835342236051178
            ]
        },
        {
            "positions": [
                -0.5384712464877086,
                -0.8832465672794805,
                1.918010395624591,
                2.1515914163726637,
                -1.9542552745074402,
                -0.018511058909025865
            ]
        },
        {
            "positions": [
                -0.6634450167825232,
                -0.8099992627399115,
                1.834255251144444,
                2.1539287785563346,
                -2.050333876969719,
                -0.009186775582000553
            ]
        },
        {
            "positions": [
                -0.7884187870773376,
                -0.7367519582003426,
                1.7505001066642976,
                2.156266140740006,
                -2.146412479431998,
                0.00013750774502475915
            ]
        },
        {
            "positions": [
                -0.9133925573721523,
                -0.6635046536607735,
                1.6667449621841506,
                2.158603502923677,
                -2.2424910818942765,
                0.009461791072050066
            ]
        }
    ]
}