{
    "goal": {
        "global_pose": {
            "orientation": {
                "w": 0.7047431468963623,
                "x": -0.7094548344612122,
                "y": 0.0024358443915843964,
                "z": -0.0022348060738295317
            },
            "position": {
                "x": 0.6094750761985779,
                "y": 0.3671506643295288,
                "z": 0.19426114857196808
            }
        },
        "name": "move_to_magneteinheit_A"
    },
    "id": "SPARStwo_move_to_magneteinheit_A_32",
    "joint_names": [
        "shoulder_pan_joint",
        "shoulder_lift_joint",
        "elbow_joint",
        "wrist_1_joint",
        "wrist_2_joint",
        "wrist_3_joint"
    ],
    "metrics": {
        "cart_traj_len": 4.007391485457425,
        "distance_elbow_joint": 3.907718937220312,
        "distance_shoulder_lift_joint": 0.3546820157178827,
        "distance_shoulder_pan_joint": 4.372476358678208,
        "distance_wrist_1_joint": 1.549400925874099,
        "distance_wrist_2_joint": 1.6934035069068856,
        "distance_wrist_3_joint": 2.715340856515166,
        "smoothness": 0.1965347627051362,
        "time": 5.0266567559999995,
        "traj_len": 3.82008149139682,
        "weighted_distance": 4.823536954012467
    },
    "planner": "SPARStwo",
    "start": {
        "state": {
            "elbow_joint": -1.9196185241190666,
            "shoulder_lift_joint": -1.2443396400964142,
            "shoulder_pan_joint": 2.6996025414629847,
            "wrist_1_joint": -1.5485510000780065,
            "wrist_2_joint": -1.5709468930060704,
            "wrist_3_joint": 0.4420197071253992
        }
    },
    "waypoints": [
        {
            "positions": [
                2.6996025414629847,
                -1.2443396400964142,
                -1.9196185241190666,
                -1.5485510000780065,
                -1.5709468930060704,
                0.4420197071253992
            ]
        },
        {
            "positions": [
                2.5485017714643705,
                -1.249947943308488,
                -1.8020531070479444,
                -1.5673052703453423,
                -1.5524760318234296,
                0.5259883218182285
            ]
        },
        {
            "positions": [
                2.397401001465756,
                -1.2555562465205616,
                -1.684487689976822,
                -1.5860595406126783,
                -1.5340051706407891,
                0.6099569365110578
            ]
        },
        {
            "positions": [
                2.2463002314671416,
                -1.2611645497326354,
                -1.5669222729056997,
                -1.604813810880014,
                -1.5155343094581484,
                0.6939255512038871
            ]
        },
        {
            "positions": [
                2.095199461468527,
                -1.266772852944709,
                -1.4493568558345773,
                -1.62356808114735,
                -1.4970634482755076,
                0.7778941658967164
            ]
        },
        {
            "positions": [
                1.9440986914699128,
                -1.2723811561567828,
                -1.3317914387634548,
                -1.6423223514146859,
                -1.4785925870928671,
                0.8618627805895458
            ]
        },
        {
            "positions": [
                1.7929979214712983,
                -1.2779894593688568,
                -1.2142260216923326,
                -1.6610766216820216,
                -1.4601217259102264,
                0.945831395282375
            ]
        },
        {
            "positions": [
                1.641897151472684,
                -1.2835977625809305,
                -1.0966606046212104,
                -1.6798308919493576,
                -1.4416508647275856,
                1.0298000099752045
            ]
        },
        {
            "positions": [
                1.4907963814740695,
                -1.2892060657930042,
                -0.9790951875500881,
                -1.6985851622166934,
                -1.4231800035449451,
                1.1137686246680336
            ]
        },
        {
            "positions": [
                1.339695611475455,
                -1.294814369005078,
                -0.8615297704789655,
                -1.7173394324840294,
                -1.4047091423623044,
                1.1977372393608632
            ]
        },
        {
            "positions": [
                1.1885948414768406,
                -1.3004226722171517,
                -0.7439643534078433,
                -1.7360937027513652,
                -1.3862382811796636,
                1.2817058540536923
            ]
        },
        {
            "positions": [
                1.0374940714782261,
                -1.3060309754292254,
                -0.6263989363367211,
                -1.754847973018701,
                -1.367767419997023,
                1.3656744687465217
            ]
        },
        {
            "positions": [
                0.8863933014796119,
                -1.3116392786412991,
                -0.5088335192655986,
                -1.773602243286037,
                -1.3492965588143824,
                1.449643083439351
            ]
        },
        {
            "positions": [
                0.7352925314809975,
                -1.3172475818533729,
                -0.3912681021944764,
                -1.7923565135533728,
                -1.3308256976317416,
                1.5336116981321801
            ]
        },
        {
            "positions": [
                0.584191761482383,
                -1.3228558850654466,
                -0.27370268512335394,
                -1.8111107838207086,
                -1.312354836449101,
                1.6175803128250097
            ]
        },
        {
            "positions": [
                0.4330909914837684,
                -1.3284641882775203,
                -0.15613726805223171,
                -1.8298650540880446,
                -1.2938839752664602,
                1.7015489275178388
            ]
        },
        {
            "positions": [
                0.2819902214851542,
                -1.334072491489594,
                -0.03857185098110949,
                -1.8486193243553803,
                -1.2754131140838196,
                1.7855175422106684
            ]
        },
        {
            "positions": [
                0.13088945148653996,
                -1.3396807947016678,
                0.07899356609001296,
                -1.8673735946227161,
                -1.256942252901179,
                1.8694861569034975
            ]
        },
        {
            "positions": [
                -0.020211318512074694,
                -1.3452890979137417,
                0.19655898316113563,
                -1.8861278648900521,
                -1.2384713917185382,
                1.953454771596327
            ]
        },
        {
            "positions": [
                -0.1713120885106889,
                -1.3508974011258155,
                0.31412440023225763,
                -1.9048821351573881,
                -1.2200005305358976,
                2.037423386289156
            ]
        },
        {
            "positions": [
                -0.32241285850930357,
                -1.3565057043378892,
                0.4316898173033801,
                -1.923636405424724,
                -1.201529669353257,
                2.1213920009819853
            ]
        },
        {
            "positions": [
                -0.4735136285079178,
                -1.362114007549963,
                0.5492552343745021,
                -1.9423906756920597,
                -1.1830588081706161,
                2.205360615674815
            ]
        },
        {
            "positions": [
                -0.6246143985065324,
                -1.3677223107620367,
                0.6668206514456245,
                -1.9611449459593957,
                -1.1645879469879756,
                2.289329230367644
            ]
        },
        {
            "positions": [
                -0.7757151685051468,
                -1.3733306139741104,
                0.784386068516747,
                -1.9798992162267315,
                -1.146117085805335,
                2.3732978450604736
            ]
        },
        {
            "positions": [
                -0.7116324078829986,
                -1.35720982527124,
                0.8703656645584968,
                -1.9000383083892047,
                -1.055504678683467,
                2.4293023249590515
            ]
        },
        {
            "positions": [
                -0.6475496472608504,
                -1.3410890365683694,
                0.9563452606002467,
                -1.820177400551678,
                -0.9648922715615993,
                2.4853068048576294
            ]
        },
        {
            "positions": [
                -0.5834668866387023,
                -1.324968247865499,
                1.0423248566419967,
                -1.7403164927141512,
                -0.8742798644397314,
                2.5413112847562074
            ]
        },
        {
            "positions": [
                -0.5193841260165541,
                -1.3088474591626285,
                1.1283044526837465,
                -1.6604555848766247,
                -0.7836674573178636,
                2.5973157646547858
            ]
        },
        {
            "positions": [
                -0.45530136539440597,
                -1.292726670459758,
                1.2142840487254964,
                -1.580594677039098,
                -0.6930550501959958,
                2.6533202445533637
            ]
        },
        {
            "positions": [
                -0.39121860477225784,
                -1.2766058817568875,
                1.3002636447672464,
                -1.5007337692015712,
                -0.602442643074128,
                2.7093247244519416
            ]
        },
        {
            "positions": [
                -0.32713584415010966,
                -1.260485093054017,
                1.3862432408089962,
                -1.4208728613640444,
                -0.5118302359522601,
                2.7653292043505195
            ]
        },
        {
            "positions": [
                -0.26305308352796153,
                -1.2443643043511468,
                1.4722228368507462,
                -1.3410119535265177,
                -0.42121782883039227,
                2.8213336842490975
            ]
        },
        {
            "positions": [
                -0.1989703229058133,
                -1.2282435156482763,
                1.5582024328924962,
                -1.261151045688991,
                -0.33060542170852436,
                2.8773381641476754
            ]
        },
        {
            "positions": [
                -0.13488756228366516,
                -1.2121227269454058,
                1.644182028934246,
                -1.1812901378514642,
                -0.23999301458665656,
                2.9333426440462533
            ]
        },
        {
            "positions": [
                -0.07080480166151704,
                -1.1960019382425353,
                1.730161624975996,
                -1.1014292300139377,
                -0.14938060746478876,
                2.9893471239448317
            ]
        },
        {
            "positions": [
                -0.006722041039368909,
                -1.1798811495396648,
                1.8161412210177457,
                -1.021568322176411,
                -0.05876820034292107,
                3.0453516038434096
            ]
        },
        {
            "positions": [
                0.05736071958277933,
                -1.1637603608367943,
                1.9021208170594959,
                -0.9417074143388842,
                0.03184420677894706,
                3.1013560837419876
            ]
        },
        {
            "positions": [
                0.12144348020492746,
                -1.1476395721339239,
                1.9881004131012456,
                -0.8618465065013575,
                0.12245661390081466,
                3.1573605636405655
            ]
        }
    ]
}