{
    "goal": {
        "global_pose": {
            "orientation": {
                "w": 0.5084816262002911,
                "x": -0.4908360881923452,
                "y": 0.5182115481033761,
                "z": -0.48164630358495003
            },
            "position": {
                "x": 0.5540239810943604,
                "y": -0.46912469901144505,
                "z": 0.16403168439865112
            }
        },
        "name": "move_to_storage_B"
    },
    "id": "SPARS_move_to_storage_B_23",
    "joint_names": [
        "shoulder_pan_joint",
        "shoulder_lift_joint",
        "elbow_joint",
        "wrist_1_joint",
        "wrist_2_joint",
        "wrist_3_joint"
    ],
    "metrics": {
        "cart_traj_len": 0.8778555499920269,
        "distance_elbow_joint": 0.3513536969316995,
        "distance_shoulder_lift_joint": 0.4602312967048465,
        "distance_shoulder_pan_joint": 0.5177507699816905,
        "distance_wrist_1_joint": 2.9888007586848113,
        "distance_wrist_2_joint": 2.700950104772531,
        "distance_wrist_3_joint": 3.137696911913554,
        "smoothness": 0.05161794416394167,
        "time": 5.029790853,
        "traj_len": 3.186970903379749,
        "weighted_distance": 4.70339539335931
    },
    "planner": "SPARS",
    "start": {
        "state": {
            "elbow_joint": 1.664937868594044,
            "shoulder_lift_joint": -0.661644460510453,
            "shoulder_pan_joint": -0.9139846352900073,
            "wrist_1_joint": 2.146753192139373,
            "wrist_2_joint": -2.2341966793290973,
            "wrist_3_joint": 0.005466555786416001
        }
    },
    "waypoints": [
        {
            "positions": [
                -0.9139846352900073,
                -0.661644460510453,
                1.664937868594044,
                2.146753192139373,
                -2.2341966793290973,
                0.005466555786416001
            ]
        },
        {
            "positions": [
                -0.8860923732864462,
                -0.7200968127127575,
                1.6915146678355828,
                2.0060747715867255,
                -2.128896645092772,
                0.012039130480833556
            ]
        },
        {
            "positions": [
                -0.8582001112828851,
                -0.7785491649150621,
                1.7180914670771217,
                1.865396351034078,
                -2.0235966108564476,
                0.018611705175251108
            ]
        },
        {
            "positions": [
                -0.8303078492793239,
                -0.8370015171173666,
                1.7446682663186606,
                1.7247179304814306,
                -1.9182965766201225,
                0.025184279869668664
            ]
        },
        {
            "positions": [
                -0.8024155872757628,
                -0.8954538693196711,
                1.7712450655601994,
                1.584039509928783,
                -1.8129965423837975,
                0.031756854564086216
            ]
        },
        {
            "positions": [
                -0.7745233252722017,
                -0.9539062215219757,
                1.7978218648017383,
                1.4433610893761353,
                -1.7076965081474724,
                0.03832942925850377
            ]
        },
        {
            "positions": [
                -0.7466310632686406,
                -1.0123585737242802,
                1.8243986640432772,
                1.3026826688234878,
                -1.6023964739111476,
                0.04490200395292133
            ]
        },
        {
            "positions": [
                -0.7633166441238941,
                -1.017573677700043,
                1.833536421256728,
                1.2005526576154437,
                -1.5038655263228342,
                0.1924382641313522
            ]
        },
        {
            "positions": [
                -0.7800022249791476,
                -1.022788781675806,
                1.8426741784701788,
                1.0984226464073996,
                -1.4053345787345208,
                0.3399745243097831
            ]
        },
        {
            "positions": [
                -0.7966878058344011,
                -1.0280038856515687,
                1.8518119356836296,
                0.9962926351993557,
                -1.3068036311462075,
                0.48751078448821394
            ]
        },
        {
            "positions": [
                -0.8133733866896546,
                -1.0332189896273314,
                1.8609496928970803,
                0.8941626239913116,
                -1.208272683557894,
                0.6350470446666449
            ]
        },
        {
            "positions": [
                -0.8300589675449082,
                -1.0384340936030942,
                1.8700874501105311,
                0.7920326127832675,
                -1.1097417359695807,
                0.7825833048450758
            ]
        },
        {
            "positions": [
                -0.8467445484001617,
                -1.043649197578857,
                1.879225207323982,
                0.6899026015752235,
                -1.011210788381267,
                0.9301195650235066
            ]
        },
        {
            "positions": [
                -0.8634301292554152,
                -1.04886430155462,
                1.8883629645374327,
                0.5877725903671794,
                -0.9126798407929538,
                1.0776558252019375
            ]
        },
        {
            "positions": [
                -0.8801157101106687,
                -1.0540794055303828,
                1.8975007217508835,
                0.48564257915913533,
                -0.8141488932046405,
                1.2251920853803684
            ]
        },
        {
            "positions": [
                -0.8968012909659222,
                -1.0592945095061457,
                1.9066384789643342,
                0.38351256795109134,
                -0.7156179456163271,
                1.3727283455587993
            ]
        },
        {
            "positions": [
                -0.9134868718211757,
                -1.0645096134819085,
                1.915776236177785,
                0.28138255674304724,
                -0.6170869980280137,
                1.5202646057372302
            ]
        },
        {
            "positions": [
                -0.9301724526764292,
                -1.0697247174576712,
                1.9249139933912356,
                0.17925254553500314,
                -0.5185560504397002,
                1.6678008659156611
            ]
        },
        {
            "positions": [
                -0.9468580335316827,
                -1.074939821433434,
                1.9340517506046864,
                0.07712253432695926,
                -0.42002510285138683,
                1.8153371260940918
            ]
        },
        {
            "positions": [
                -0.9635436143869363,
                -1.0801549254091969,
                1.9431895078181372,
                -0.025007476881085067,
                -0.32149415526307346,
                1.962873386272523
            ]
        },
        {
            "positions": [
                -0.9802291952421898,
                -1.0853700293849597,
                1.952327265031588,
                -0.12713748808912895,
                -0.22296320767476008,
                2.110409646450954
            ]
        },
        {
            "positions": [
                -0.9969147760974433,
                -1.0905851333607226,
                1.9614650222450387,
                -0.22926749929717305,
                -0.12443226008644648,
                2.2579459066293848
            ]
        },
        {
            "positions": [
                -1.0136003569526968,
                -1.0958002373364855,
                1.9706027794584895,
                -0.33139751050521715,
                -0.025901312498133322,
                2.4054821668078157
            ]
        },
        {
            "positions": [
                -1.0302859378079503,
                -1.1010153413122483,
                1.9797405366719403,
                -0.43352752171326125,
                0.07262963509018028,
                2.5530184269862466
            ]
        },
        {
            "positions": [
                -1.0469715186632038,
                -1.106230445288011,
                1.988878293885391,
                -0.5356575329213051,
                0.17116058267849343,
                2.7005546871646775
            ]
        },
        {
            "positions": [
                -1.0636570995184573,
                -1.1114455492637738,
                1.9980160510988418,
                -0.6377875441293492,
                0.26969153026680703,
                2.8480909473431084
            ]
        },
        {
            "positions": [
                -1.0803426803737108,
                -1.1166606532395367,
                2.0071538083122924,
                -0.7399175553373933,
                0.3682224778551202,
                2.9956272075215393
            ]
        },
        {
            "positions": [
                -1.0970282612289644,
                -1.1218757572152995,
                2.0162915655257434,
                -0.8420475665454372,
                0.46675342544343396,
                3.1431634676999702
            ]
        }
    ]
}