{
    "goal": {
        "global_pose": {
            "orientation": {
                "w": -0.4816463035849501,
                "x": 0.5182115481033762,
                "y": 0.4908360881923453,
                "z": -0.5084816262002911
            },
            "position": {
                "x": -0.8240239810943604,
                "y": 0.19912469901144506,
                "z": 0.16403168439865112
            }
        },
        "name": "move_to_storage_D"
    },
    "id": "SPARS_move_to_storage_D_23",
    "joint_names": [
        "shoulder_pan_joint",
        "shoulder_lift_joint",
        "elbow_joint",
        "wrist_1_joint",
        "wrist_2_joint",
        "wrist_3_joint"
    ],
    "metrics": {
        "cart_traj_len": 1.6258334480946102,
        "distance_elbow_joint": 0.9409481855493984,
        "distance_shoulder_lift_joint": 0.5528750626268626,
        "distance_shoulder_pan_joint": 1.754771946674758,
        "distance_wrist_1_joint": 3.8329932657579784,
        "distance_wrist_2_joint": 1.8539092150432284,
        "distance_wrist_3_joint": 3.486152760006533,
        "smoothness": 0.20071857390844577,
        "time": 5.021454126,
        "traj_len": 3.5244361869182366,
        "weighted_distance": 5.008079316112418
    },
    "planner": "SPARS",
    "start": {
        "state": {
            "elbow_joint": -2.384821988534728,
            "shoulder_lift_joint": -2.2788054721415256,
            "shoulder_pan_joint": -0.1854694642142757,
            "wrist_1_joint": 1.4845938289331202,
            "wrist_2_joint": 0.17898776772866878,
            "wrist_3_joint": 0.037105688729662994
        }
    },
    "waypoints": [
        {
            "positions": [
                -0.1854694642142757,
                -2.2788054721415256,
                -2.384821988534728,
                1.4845938289331202,
                0.17898776772866878,
                0.037105688729662994
            ]
        },
        {
            "positions": [
                -0.049335079500392176,
                -2.2284945460316017,
                -2.277777950396116,
                1.4571270285275804,
                0.18440760909309797,
                0.013125409138211842
            ]
        },
        {
            "positions": [
                0.08679930521349136,
                -2.1781836199216773,
                -2.1707339122575036,
                1.4296602281220407,
                0.1898274504575272,
                -0.01085487045323931
            ]
        },
        {
            "positions": [
                0.22293368992737492,
                -2.1278726938117534,
                -2.0636898741188916,
                1.402193427716501,
                0.19524729182195638,
                -0.03483515004469047
            ]
        },
        {
            "positions": [
                0.35906807464125845,
                -2.0775617677018294,
                -1.9566458359802794,
                1.3747266273109613,
                0.2006671331863856,
                -0.058815429636141614
            ]
        },
        {
            "positions": [
                0.49520245935514207,
                -2.027250841591905,
                -1.8496017978416672,
                1.3472598269054215,
                0.2060869745508148,
                -0.08279570922759279
            ]
        },
        {
            "positions": [
                0.6313368440690256,
                -1.9769399154819813,
                -1.742557759703055,
                1.3197930264998818,
                0.211506815915244,
                -0.10677598881904393
            ]
        },
        {
            "positions": [
                0.7674712287829092,
                -1.9266289893720572,
                -1.6355137215644429,
                1.292326226094342,
                0.2169266572796732,
                -0.1307562684104951
            ]
        },
        {
            "positions": [
                0.7366315651799256,
                -1.9343481655204184,
                -1.6428844876636395,
                1.152298315982065,
                0.14708164476074148,
                -0.003129699069480657
            ]
        },
        {
            "positions": [
                0.7057919015769419,
                -1.9420673416687797,
                -1.650255253762836,
                1.0122704058697882,
                0.07723663224180977,
                0.12449687027153378
            ]
        },
        {
            "positions": [
                0.6749522379739584,
                -1.9497865178171412,
                -1.657626019862033,
                0.8722424957575112,
                0.007391619722878079,
                0.2521234396125482
            ]
        },
        {
            "positions": [
                0.6441125743709748,
                -1.9575056939655024,
                -1.6649967859612296,
                0.7322145856452343,
                -0.062453392796053664,
                0.37975000895356265
            ]
        },
        {
            "positions": [
                0.6132729107679912,
                -1.9652248701138637,
                -1.6723675520604262,
                0.5921866755329575,
                -0.13229840531498538,
                0.5073765782945769
            ]
        },
        {
            "positions": [
                0.5824332471650076,
                -1.972944046262225,
                -1.6797383181596228,
                0.45215876542068056,
                -0.20214341783391704,
                0.6350031476355915
            ]
        },
        {
            "positions": [
                0.551593583562024,
                -1.9806632224105865,
                -1.6871090842588194,
                0.3121308553084038,
                -0.27198843035284875,
                0.7626297169766059
            ]
        },
        {
            "positions": [
                0.5207539199590404,
                -1.9883823985589477,
                -1.6944798503580163,
                0.17210294519612668,
                -0.3418334428717805,
                0.8902562863176204
            ]
        },
        {
            "positions": [
                0.4899142563560568,
                -1.996101574707309,
                -1.701850616457213,
                0.0320750350838499,
                -0.41167845539071213,
                1.0178828556586348
            ]
        },
        {
            "positions": [
                0.45907459275307316,
                -2.0038207508556702,
                -1.7092213825564095,
                -0.1079528750284271,
                -0.48152346790964395,
                1.1455094249996491
            ]
        },
        {
            "positions": [
                0.4282349291500896,
                -2.0115399270040317,
                -1.7165921486556062,
                -0.24798078514070387,
                -0.5513684804285756,
                1.2731359943406635
            ]
        },
        {
            "positions": [
                0.39739526554710597,
                -2.0192591031523928,
                -1.7239629147548028,
                -0.3880086952529809,
                -0.6212134929475073,
                1.400762563681678
            ]
        },
        {
            "positions": [
                0.3665556019441224,
                -2.0269782793007542,
                -1.7313336808539996,
                -0.5280366053652576,
                -0.691058505466439,
                1.5283891330226924
            ]
        },
        {
            "positions": [
                0.33571593834113883,
                -2.0346974554491157,
                -1.7387044469531963,
                -0.6680645154775344,
                -0.7609035179853707,
                1.6560157023637068
            ]
        },
        {
            "positions": [
                0.30487627473815526,
                -2.0424166315974768,
                -1.7460752130523929,
                -0.8080924255898112,
                -0.8307485305043024,
                1.7836422717047211
            ]
        },
        {
            "positions": [
                0.2740366111351716,
                -2.0501358077458383,
                -1.7534459791515895,
                -0.9481203357020886,
                -0.9005935430232342,
                1.911268841045736
            ]
        },
        {
            "positions": [
                0.243196947532188,
                -2.0578549838941993,
                -1.7608167452507861,
                -1.0881482458143652,
                -0.9704385555421658,
                2.03889541038675
            ]
        },
        {
            "positions": [
                0.2123572839292044,
                -2.065574160042561,
                -1.768187511349983,
                -1.2281761559266422,
                -1.0402835680610973,
                2.1665219797277646
            ]
        },
        {
            "positions": [
                0.18151762032622087,
                -2.0732933361909223,
                -1.7755582774491796,
                -1.3682040660389188,
                -1.110128580580029,
                2.2941485490687787
            ]
        },
        {
            "positions": [
                0.15067795672323714,
                -2.0810125123392833,
                -1.7829290435483762,
                -1.5082319761511962,
                -1.179973593098961,
                2.4217751184097933
            ]
        },
        {
            "positions": [
                0.11983829312025363,
                -2.088731688487645,
                -1.7902998096475728,
                -1.6482598862634728,
                -1.2498186056178926,
                2.549401687750808
            ]
        },
        {
            "positions": [
                0.08899862951727,
                -2.0964508646360063,
                -1.7976705757467695,
                -1.7882877963757497,
                -1.3196636181368242,
                2.677028257091822
            ]
        },
        {
            "positions": [
                0.05815896591428649,
                -2.1041700407843673,
                -1.805041341845966,
                -1.9283157064880263,
                -1.3895086306557558,
                2.8046548264328366
            ]
        },
        {
            "positions": [
                0.02731930231130275,
                -2.111889216932729,
                -1.812412107945163,
                -2.0683436166003037,
                -1.4593536431746879,
                2.932281395773851
            ]
        },
        {
            "positions": [
                -0.0035203612916807625,
                -2.11960839308109,
                -1.8197828740443596,
                -2.2083715267125803,
                -1.5291986556936195,
                3.0599079651148657
            ]
        },
        {
            "positions": [
                -0.034360024894664394,
                -2.1273275692294513,
                -1.8271536401435562,
                -2.3483994368248573,
                -1.599043668212551,
                3.18753453445588
            ]
        }
    ]
}