{
    "goal": {
        "global_pose": {
            "orientation": {
                "w": 0.5084816217422485,
                "x": -0.49083608388900757,
                "y": 0.5182115435600281,
                "z": -0.4816462993621826
            },
            "position": {
                "x": 0.5540239810943604,
                "y": 0.030875300988554955,
                "z": 0.16403168439865112
            }
        },
        "name": "move_to_storage_A"
    },
    "id": "SPARS_move_to_storage_A_8",
    "joint_names": [
        "shoulder_pan_joint",
        "shoulder_lift_joint",
        "elbow_joint",
        "wrist_1_joint",
        "wrist_2_joint",
        "wrist_3_joint"
    ],
    "metrics": {
        "cart_traj_len": 0.35300232836916684,
        "distance_elbow_joint": 0.4474503177823401,
        "distance_shoulder_lift_joint": 0.23419710954658335,
        "distance_shoulder_pan_joint": 0.46098139797428345,
        "distance_wrist_1_joint": 0.23509818750811629,
        "distance_wrist_2_joint": 1.100739442425403,
        "distance_wrist_3_joint": 0.08731683161562875,
        "smoothness": 2.2204460668324854e-16,
        "time": 5.023505042,
        "traj_len": 1.6018062575893361,
        "weighted_distance": 2.0189736452012275
    },
    "planner": "SPARS",
    "start": {
        "state": {
            "elbow_joint": 1.971548259319323,
            "shoulder_lift_joint": -1.1394851275133948,
            "shoulder_pan_joint": 0.1228115487234821,
            "wrist_1_joint": -0.7804723859257726,
            "wrist_2_joint": 0.12958671773740124,
            "wrist_3_joint": -3.192489227718131
        }
    },
    "waypoints": [
        {
            "positions": [
                0.1228115487234821,
                -1.1394851275133948,
                1.971548259319323,
                -0.7804723859257726,
                0.12958671773740124,
                -3.192489227718131
            ]
        },
        {
            "positions": [
                0.056957063298584465,
                -1.172941857448621,
                2.0354697332882288,
                -0.814057841284075,
                0.2868352095124588,
                -3.180015394630184
            ]
        },
        {
            "positions": [
                -0.00889742212631317,
                -1.2063985873838472,
                2.0993912072571344,
                -0.8476432966423773,
                0.4440837012875163,
                -3.167541561542237
            ]
        },
        {
            "positions": [
                -0.0747519075512108,
                -1.2398553173190734,
                2.1633126812260404,
                -0.8812287520006796,
                0.6013321930625739,
                -3.15506772845429
            ]
        },
        {
            "positions": [
                -0.14060639297610844,
                -1.2733120472542996,
                2.227234155194946,
                -0.9148142073589819,
                0.7585806848376314,
                -3.1425938953663435
            ]
        },
        {
            "positions": [
                -0.20646087840100608,
                -1.3067687771895258,
                2.2911556291638515,
                -0.9483996627172843,
                0.915829176612689,
                -3.1301200622783965
            ]
        },
        {
            "positions": [
                -0.2723153638259037,
                -1.340225507124752,
                2.3550771031327575,
                -0.9819851180755865,
                1.0730776683877465,
                -3.1176462291904494
            ]
        },
        {
            "positions": [
                -0.33816984925080135,
                -1.3736822370599782,
                2.418998577101663,
                -1.015570573433889,
                1.2303261601628042,
                -3.1051723961025024
            ]
        }
    ]
}{
    "goal": {
        "global_pose": {
            "orientation": {
                "w": 0.5084816217422485,
                "x": -0.49083608388900757,
                "y": 0.5182115435600281,
                "z": -0.4816462993621826
            },
            "position": {
                "x": 0.5540239810943604,
                "y": 0.030875300988554955,
                "z": 0.16403168439865112
            }
        },
        "name": "move_to_storage_A"
    },
    "id": "SPARS_move_to_storage_A_8",
    "joint_names": [
        "shoulder_pan_joint",
        "shoulder_lift_joint",
        "elbow_joint",
        "wrist_1_joint",
        "wrist_2_joint",
        "wrist_3_joint"
    ],
    "metrics": {
        "cart_traj_len": 0.3533218928541781,
        "distance_elbow_joint": 0.4499005305525534,
        "distance_shoulder_lift_joint": 0.23535876005974954,
        "distance_shoulder_pan_joint": 0.4618858412266198,
        "distance_wrist_1_joint": 0.24043547462472903,
        "distance_wrist_2_joint": 1.1003825110126964,
        "distance_wrist_3_joint": 0.08941397230537529,
        "smoothness": 1.3322676295501878e-15,
        "time": 5.002675213000001,
        "traj_len": 1.6054211565136802,
        "weighted_distance": 2.0241104268369106
    },
    "planner": "SPARS",
    "start": {
        "state": {
            "elbow_joint": 1.97154746011099,
            "shoulder_lift_joint": -1.13948474672311,
            "shoulder_pan_joint": 0.12281154466712228,
            "wrist_1_joint": -0.7804688027058302,
            "wrist_2_joint": 0.12958655903071145,
            "wrist_3_joint": 3.0906928834467795
        }
    },
    "waypoints": [
        {
            "positions": [
                0.12281154466712228,
                -1.13948474672311,
                1.97154746011099,
                -0.7804688027058302,
                0.12958655903071145,
                3.0906928834467795
            ]
        },
        {
            "positions": [
                0.05682785306331946,
                -1.1731074267316457,
                2.0358189644756406,
                -0.81481672765222,
                0.2867840606039538,
                3.103466308061833
            ]
        },
        {
            "positions": [
                -0.009155838540483366,
                -1.2067301067401812,
                2.100090468840291,
                -0.8491646525986098,
                0.4439815621771961,
                3.116239732676887
            ]
        },
        {
            "positions": [
                -0.07513953014428619,
                -1.240352786748717,
                2.1643619732049415,
                -0.8835125775449998,
                0.6011790637504384,
                3.1290131572919404
            ]
        },
        {
            "positions": [
                -0.141123221748089,
                -1.2739754667572525,
                2.2286334775695917,
                -0.9178605024913896,
                0.7583765653236808,
                3.141786581906994
            ]
        },
        {
            "positions": [
                -0.20710691335189185,
                -1.3075981467657882,
                2.2929049819342424,
                -0.9522084274377796,
                0.9155740668969232,
                3.1545600065220474
            ]
        },
        {
            "positions": [
                -0.27309060495569465,
                -1.3412208267743237,
                2.3571764862988926,
                -0.9865563523841694,
                1.0727715684701653,
                3.1673334311371013
            ]
        },
        {
            "positions": [
                -0.3390742965594975,
                -1.3748435067828595,
                2.4214479906635433,
                -1.0209042773305592,
                1.2299690700434078,
                3.180106855752155
            ]
        }
    ]
}{
    "goal": {
        "global_pose": {
            "orientation": {
                "w": 0.5084816217422485,
                "x": -0.49083608388900757,
                "y": 0.5182115435600281,
                "z": -0.4816462993621826
            },
            "position": {
                "x": 0.5540239810943604,
                "y": 0.030875300988554955,
                "z": 0.16403168439865112
            }
        },
        "name": "move_to_storage_A"
    },
    "id": "SPARS_move_to_storage_A_8",
    "joint_names": [
        "shoulder_pan_joint",
        "shoulder_lift_joint",
        "elbow_joint",
        "wrist_1_joint",
        "wrist_2_joint",
        "wrist_3_joint"
    ],
    "metrics": {
        "cart_traj_len": 0.352662942671626,
        "distance_elbow_joint": 0.4510442454214969,
        "distance_shoulder_lift_joint": 0.23533366171634573,
        "distance_shoulder_pan_joint": 0.4580957935275888,
        "distance_wrist_1_joint": 0.24387214164982063,
        "distance_wrist_2_joint": 1.1120135872715704,
        "distance_wrist_3_joint": 0.08920467950668831,
        "smoothness": 4.440892133664971e-16,
        "time": 5.016250674999999,
        "traj_len": 1.6092122635294297,
        "weighted_distance": 2.030728735461307
    },
    "planner": "SPARS",
    "start": {
        "state": {
            "elbow_joint": 1.9715472970024885,
            "shoulder_lift_joint": -1.1394870060712896,
            "shoulder_pan_joint": 0.12281152778156021,
            "wrist_1_joint": -0.780463741449964,
            "wrist_2_joint": 0.12958659822042276,
            "wrist_3_joint": 3.090690232415272
        }
    },
    "waypoints": [
        {
            "positions": [
                0.12281152778156021,
                -1.1394870060712896,
                1.9715472970024885,
                -0.780463741449964,
                0.12958659822042276,
                3.090690232415272
            ]
        },
        {
            "positions": [
                0.05736927156333324,
                -1.1731061006021961,
                2.0359821892055594,
                -0.8153026188285099,
                0.28844568211636135,
                3.1034337580590843
            ]
        },
        {
            "positions": [
                -0.008072984654893728,
                -1.2067251951331026,
                2.1004170814086307,
                -0.8501414962070556,
                0.44730476601229996,
                3.116177283702897
            ]
        },
        {
            "positions": [
                -0.0735152408731207,
                -1.2403442896640091,
                2.1648519736117016,
                -0.8849803735856014,
                0.6061638499082386,
                3.1289208093467096
            ]
        },
        {
            "positions": [
                -0.13895749709134766,
                -1.2739633841949156,
                2.2292868658147724,
                -0.9198192509641472,
                0.7650229338041772,
                3.1416643349905224
            ]
        },
        {
            "positions": [
                -0.20439975330957463,
                -1.3075824787258223,
                2.2937217580178437,
                -0.954658128342693,
                0.9238820177001159,
                3.154407860634335
            ]
        },
        {
            "positions": [
                -0.2698420095278016,
                -1.3412015732567288,
                2.3581566502209146,
                -0.9894970057212388,
                1.0827411015960544,
                3.1671513862781477
            ]
        },
        {
            "positions": [
                -0.33528426574602854,
                -1.3748206677876353,
                2.4225915424239854,
                -1.0243358830997846,
                1.2416001854919931,
                3.17989491192196
            ]
        }
    ]
}