{
    "goal": {
        "global_pose": {
            "orientation": {
                "w": -0.4816463035849501,
                "x": 0.5182115481033762,
                "y": 0.4908360881923453,
                "z": -0.5084816262002911
            },
            "position": {
                "x": -0.8240239810943604,
                "y": 0.19912469901144506,
                "z": 0.16403168439865112
            }
        },
        "name": "move_to_storage_D"
    },
    "id": "SPARStwo_move_to_storage_D_16",
    "joint_names": [
        "shoulder_pan_joint",
        "shoulder_lift_joint",
        "elbow_joint",
        "wrist_1_joint",
        "wrist_2_joint",
        "wrist_3_joint"
    ],
    "metrics": {
        "cart_traj_len": 2.0681097654126313,
        "distance_elbow_joint": 0.5546391650728586,
        "distance_shoulder_lift_joint": 0.7473933658628948,
        "distance_shoulder_pan_joint": 3.2142280718254654,
        "distance_wrist_1_joint": 4.066117338511354,
        "distance_wrist_2_joint": 3.2370553665391153,
        "distance_wrist_3_joint": 3.1184154651178715,
        "smoothness": 0.3087076582114303,
        "time": 5.028184508,
        "traj_len": 3.8649513286624395,
        "weighted_distance": 5.336464410845046
    },
    "planner": "SPARStwo",
    "start": {
        "state": {
            "elbow_joint": -2.384821988534728,
            "shoulder_lift_joint": -2.2788054721415256,
            "shoulder_pan_joint": -0.1854694642142757,
            "wrist_1_joint": 1.4845938289331202,
            "wrist_2_joint": 0.17898776772866878,
            "wrist_3_joint": 0.037105688729662994
        }
    },
    "waypoints": [
        {
            "positions": [
                -0.1854694642142757,
                -2.2788054721415256,
                -2.384821988534728,
                1.4845938289331202,
                0.17898776772866878,
                0.037105688729662994
            ]
        },
        {
            "positions": [
                -0.04523821391343913,
                -2.2413505425602174,
                -2.377402878748055,
                1.4948288792400883,
                0.23970674642549006,
                -0.09158229826670847
            ]
        },
        {
            "positions": [
                0.09499303638739745,
                -2.203895612978909,
                -2.3699837689613816,
                1.5050639295470563,
                0.3004257251223113,
                -0.22027028526307993
            ]
        },
        {
            "positions": [
                0.23522428668823406,
                -2.166440683397601,
                -2.3625646591747085,
                1.5152989798540244,
                0.36114470381913255,
                -0.3489582722594514
            ]
        },
        {
            "positions": [
                0.37545553698907064,
                -2.128985753816292,
                -2.3551455493880353,
                1.5255340301609925,
                0.42186368251595385,
                -0.4776462592558228
            ]
        },
        {
            "positions": [
                0.5156867872899072,
                -2.091530824234984,
                -2.347726439601362,
                1.5357690804679605,
                0.48258266121277515,
                -0.6063342462521943
            ]
        },
        {
            "positions": [
                0.6559180375907439,
                -2.0540758946536757,
                -2.3403073298146895,
                1.5460041307749286,
                0.5433016399095963,
                -0.7350222332485657
            ]
        },
        {
            "positions": [
                0.7961492878915805,
                -2.0166209650723674,
                -2.3328882200280163,
                1.5562391810818967,
                0.6040206186064176,
                -0.8637102202449373
            ]
        },
        {
            "positions": [
                0.936380538192417,
                -1.9791660354910592,
                -2.325469110241343,
                1.5664742313888647,
                0.6647395973032388,
                -0.9923982072413087
            ]
        },
        {
            "positions": [
                1.0766117884932536,
                -1.941711105909751,
                -2.31805000045467,
                1.5767092816958328,
                0.7254585760000601,
                -1.1210861942376802
            ]
        },
        {
            "positions": [
                1.21684303879409,
                -1.9042561763284427,
                -2.310630890667997,
                1.586944332002801,
                0.7861775546968814,
                -1.2497741812340517
            ]
        },
        {
            "positions": [
                1.3570742890949266,
                -1.8668012467471342,
                -2.3032117808813237,
                1.5971793823097689,
                0.8468965333937026,
                -1.378462168230423
            ]
        },
        {
            "positions": [
                1.4973055393957633,
                -1.829346317165826,
                -2.2957926710946506,
                1.607414432616737,
                0.9076155120905239,
                -1.5071501552267945
            ]
        },
        {
            "positions": [
                1.4405850553877846,
                -1.8403809175690553,
                -2.278547861923066,
                1.461366405400895,
                0.8147107853432181,
                -1.565452363417958
            ]
        },
        {
            "positions": [
                1.383864571379806,
                -1.8514155179722849,
                -2.2613030527514817,
                1.3153183781850528,
                0.7218060585959121,
                -1.6237545716091215
            ]
        },
        {
            "positions": [
                1.3271440873718272,
                -1.8624501183755142,
                -2.244058243579897,
                1.1692703509692106,
                0.6289013318486061,
                -1.682056779800285
            ]
        },
        {
            "positions": [
                1.2704236033638485,
                -1.8734847187787438,
                -2.226813434408313,
                1.0232223237533686,
                0.5359966051013003,
                -1.7403589879914485
            ]
        },
        {
            "positions": [
                1.2137031193558698,
                -1.8845193191819731,
                -2.209568625236728,
                0.8771742965375264,
                0.44309187835399433,
                -1.798661196182612
            ]
        },
        {
            "positions": [
                1.1569826353478914,
                -1.8955539195852027,
                -2.1923238160651435,
                0.7311262693216843,
                0.35018715160668834,
                -1.8569634043737755
            ]
        },
        {
            "positions": [
                1.1002621513399125,
                -1.906588519988432,
                -2.1750790068935593,
                0.5850782421058422,
                0.25728242485938246,
                -1.915265612564939
            ]
        },
        {
            "positions": [
                1.043541667331934,
                -1.9176231203916616,
                -2.1578341977219746,
                0.43903021489000027,
                0.1643776981120766,
                -1.9735678207561025
            ]
        },
        {
            "positions": [
                0.9868211833239553,
                -1.928657720794891,
                -2.1405893885503904,
                0.29298218767415807,
                0.0714729713647706,
                -2.031870028947266
            ]
        },
        {
            "positions": [
                0.9301006993159766,
                -1.9396923211981205,
                -2.1233445793788057,
                0.14693416045831587,
                -0.021431755382535278,
                -2.0901722371384297
            ]
        },
        {
            "positions": [
                0.8733802153079979,
                -1.9507269216013499,
                -2.106099770207221,
                0.0008861332424738855,
                -0.11433648212984127,
                -2.148474445329593
            ]
        },
        {
            "positions": [
                0.8166597313000192,
                -1.9617615220045794,
                -2.088854961035637,
                -0.14516189397336832,
                -0.20724120887714725,
                -2.2067766535207562
            ]
        },
        {
            "positions": [
                0.7599392472920405,
                -1.9727961224078088,
                -2.071610151864052,
                -0.2912099211892103,
                -0.300145935624453,
                -2.26507886171192
            ]
        },
        {
            "positions": [
                0.7032187632840619,
                -1.9838307228110383,
                -2.054365342692468,
                -0.4372579484050525,
                -0.393050662371759,
                -2.3233810699030837
            ]
        },
        {
            "positions": [
                0.6464982792760832,
                -1.9948653232142677,
                -2.0371205335208833,
                -0.5833059756208949,
                -0.485955389119065,
                -2.381683278094247
            ]
        },
        {
            "positions": [
                0.5897777952681046,
                -2.005899923617497,
                -2.0198757243492986,
                -0.7293540028367365,
                -0.5788601158663708,
                -2.4399854862854102
            ]
        },
        {
            "positions": [
                0.5330573112601258,
                -2.016934524020727,
                -2.0026309151777144,
                -0.8754020300525789,
                -0.671764842613677,
                -2.498287694476574
            ]
        },
        {
            "positions": [
                0.4763368272521473,
                -2.027969124423956,
                -1.9853861060061297,
                -1.0214500572684209,
                -0.7646695693609827,
                -2.5565899026677377
            ]
        },
        {
            "positions": [
                0.4196163432441684,
                -2.0390037248271855,
                -1.9681412968345453,
                -1.1674980844842633,
                -0.8575742961082887,
                -2.614892110858901
            ]
        },
        {
            "positions": [
                0.36289585923618994,
                -2.050038325230415,
                -1.9508964876629609,
                -1.3135461117001053,
                -0.9504790228555945,
                -2.673194319050064
            ]
        },
        {
            "positions": [
                0.30617537522821103,
                -2.0610729256336446,
                -1.9336516784913762,
                -1.4595941389159472,
                -1.0433837496029006,
                -2.731496527241228
            ]
        },
        {
            "positions": [
                0.24945489122023257,
                -2.072107526036874,
                -1.9164068693197918,
                -1.6056421661317892,
                -1.1362884763502064,
                -2.7897987354323917
            ]
        },
        {
            "positions": [
                0.19273440721225388,
                -2.0831421264401033,
                -1.8991620601482073,
                -1.7516901933476317,
                -1.2291932030975126,
                -2.848100943623555
            ]
        },
        {
            "positions": [
                0.1360139232042752,
                -2.0941767268433327,
                -1.8819172509766229,
                -1.8977382205634736,
                -1.3220979298448183,
                -2.906403151814718
            ]
        },
        {
            "positions": [
                0.0792934391962965,
                -2.105211327246562,
                -1.8646724418050384,
                -2.0437862477793156,
                -1.415002656592124,
                -2.964705360005882
            ]
        },
        {
            "positions": [
                0.02257295518831781,
                -2.116245927649792,
                -1.8474276326334538,
                -2.1898342749951576,
                -1.5079073833394299,
                -3.0230075681970456
            ]
        },
        {
            "positions": [
                -0.03414752881966083,
                -2.127280528053021,
                -1.8301828234618693,
                -2.335882302211,
                -1.6008121100867363,
                -3.081309776388209
            ]
        }
    ]
}