{
    "goal": {
        "global_pose": {
            "orientation": {
                "w": 0.5084816262002911,
                "x": -0.4908360881923452,
                "y": 0.5182115481033761,
                "z": -0.48164630358495003
            },
            "position": {
                "x": 0.5540239810943604,
                "y": -0.46912469901144505,
                "z": 0.16403168439865112
            }
        },
        "name": "move_to_storage_B"
    },
    "id": "SPARS_move_to_storage_B_147",
    "joint_names": [
        "shoulder_pan_joint",
        "shoulder_lift_joint",
        "elbow_joint",
        "wrist_1_joint",
        "wrist_2_joint",
        "wrist_3_joint"
    ],
    "metrics": {
        "cart_traj_len": 1.9107086025176971,
        "distance_elbow_joint": 1.551399968120882,
        "distance_shoulder_lift_joint": 0.4612239053824032,
        "distance_shoulder_pan_joint": 1.5031079795603697,
        "distance_wrist_1_joint": 3.1003664496410788,
        "distance_wrist_2_joint": 2.72112686694134,
        "distance_wrist_3_joint": 3.1493442944124386,
        "smoothness": 0.2006249869932752,
        "time": 5.055720373,
        "traj_len": 3.533634030860937,
        "weighted_distance": 4.960519264095827
    },
    "planner": "SPARS",
    "start": {
        "state": {
            "elbow_joint": 1.664937868594044,
            "shoulder_lift_joint": -0.661644460510453,
            "shoulder_pan_joint": -0.9139846352900073,
            "wrist_1_joint": 2.146753192139373,
            "wrist_2_joint": -2.2341966793290973,
            "wrist_3_joint": 0.005466555786416001
        }
    },
    "waypoints": [
        {
            "positions": [
                -0.9139846352900073,
                -0.661644460510453,
                1.664937868594044,
                2.146753192139373,
                -2.2341966793290973,
                0.005466555786416001
            ]
        },
        {
            "positions": [
                -0.8194250219949584,
                -0.7195005438231687,
                1.5794647704927791,
                2.153660028384948,
                -2.140814886666178,
                0.022071624564770676
            ]
        },
        {
            "positions": [
                -0.7248654086999093,
                -0.7773566271358845,
                1.4939916723915143,
                2.160566864630523,
                -2.047433094003259,
                0.03867669334312535
            ]
        },
        {
            "positions": [
                -0.6303057954048605,
                -0.8352127104486003,
                1.4085185742902495,
                2.167473700876098,
                -1.9540513013403396,
                0.055281762121480026
            ]
        },
        {
            "positions": [
                -0.5357461821098115,
                -0.8930687937613161,
                1.3230454761889847,
                2.1743805371216722,
                -1.8606695086774203,
                0.0718868308998347
            ]
        },
        {
            "positions": [
                -0.44118656881476254,
                -0.950924877074032,
                1.2375723780877197,
                2.181287373367247,
                -1.767287716014501,
                0.08849189967818939
            ]
        },
        {
            "positions": [
                -0.3466269555197137,
                -1.0087809603867477,
                1.1520992799864551,
                2.188194209612822,
                -1.6739059233515818,
                0.10509696845654405
            ]
        },
        {
            "positions": [
                -0.25206734222466465,
                -1.0666370436994634,
                1.06662618188519,
                2.195101045858397,
                -1.5805241306886626,
                0.12170203723489874
            ]
        },
        {
            "positions": [
                -0.28442083016678105,
                -1.0687997868607477,
                1.1032834234779605,
                2.07771571524601,
                -1.5010066569078586,
                0.23836006850274322
            ]
        },
        {
            "positions": [
                -0.31677431810889745,
                -1.070962530022032,
                1.1399406650707307,
                1.9603303846336233,
                -1.4214891831270544,
                0.3550180997705877
            ]
        },
        {
            "positions": [
                -0.3491278060510139,
                -1.0731252731833165,
                1.176597906663501,
                1.8429450540212367,
                -1.3419717093462504,
                0.47167613103843214
            ]
        },
        {
            "positions": [
                -0.3814812939931303,
                -1.0752880163446008,
                1.2132551482562715,
                1.7255597234088498,
                -1.2624542355654464,
                0.5883341623062766
            ]
        },
        {
            "positions": [
                -0.4138347819352467,
                -1.077450759505885,
                1.2499123898490416,
                1.6081743927964631,
                -1.1829367617846422,
                0.704992193574121
            ]
        },
        {
            "positions": [
                -0.44618826987736315,
                -1.0796135026671694,
                1.286569631441812,
                1.4907890621840765,
                -1.1034192880038383,
                0.8216502248419655
            ]
        },
        {
            "positions": [
                -0.4785417578194795,
                -1.0817762458284539,
                1.3232268730345824,
                1.3734037315716896,
                -1.0239018142230343,
                0.93830825610981
            ]
        },
        {
            "positions": [
                -0.510895245761596,
                -1.0839389889897382,
                1.3598841146273526,
                1.2560184009593027,
                -0.9443843404422302,
                1.0549662873776544
            ]
        },
        {
            "positions": [
                -0.5432487337037124,
                -1.0861017321510225,
                1.396541356220123,
                1.1386330703469163,
                -0.8648668666614262,
                1.1716243186454989
            ]
        },
        {
            "positions": [
                -0.5756022216458287,
                -1.0882644753123067,
                1.4331985978128934,
                1.0212477397345294,
                -0.785349392880622,
                1.2882823499133433
            ]
        },
        {
            "positions": [
                -0.6079557095879451,
                -1.0904272184735913,
                1.4698558394056636,
                0.9038624091221428,
                -0.705831919099818,
                1.4049403811811878
            ]
        },
        {
            "positions": [
                -0.6403091975300617,
                -1.0925899616348755,
                1.506513080998434,
                0.7864770785097559,
                -0.6263144453190139,
                1.5215984124490323
            ]
        },
        {
            "positions": [
                -0.672662685472178,
                -1.0947527047961598,
                1.5431703225912043,
                0.6690917478973692,
                -0.5467969715382099,
                1.6382564437168767
            ]
        },
        {
            "positions": [
                -0.7050161734142943,
                -1.0969154479574441,
                1.5798275641839745,
                0.5517064172849826,
                -0.46727949775740596,
                1.7549144749847212
            ]
        },
        {
            "positions": [
                -0.7373696613564108,
                -1.0990781911187284,
                1.6164848057767447,
                0.43432108667259595,
                -0.387762023976602,
                1.8715725062525654
            ]
        },
        {
            "positions": [
                -0.7697231492985273,
                -1.101240934280013,
                1.6531420473695153,
                0.31693575606020885,
                -0.3082445501957978,
                1.9882305375204101
            ]
        },
        {
            "positions": [
                -0.8020766372406437,
                -1.1034036774412972,
                1.6897992889622855,
                0.1995504254478222,
                -0.2287270764149938,
                2.1048885687882546
            ]
        },
        {
            "positions": [
                -0.83443012518276,
                -1.1055664206025815,
                1.7264565305550557,
                0.08216509483543577,
                -0.1492096026341898,
                2.221546600056099
            ]
        },
        {
            "positions": [
                -0.8667836131248764,
                -1.1077291637638658,
                1.763113772147826,
                -0.0352202357769511,
                -0.06969212885338583,
                2.3382046313239435
            ]
        },
        {
            "positions": [
                -0.899137101066993,
                -1.1098919069251503,
                1.7997710137405964,
                -0.15260556638933798,
                0.0098253449274186,
                2.454862662591788
            ]
        },
        {
            "positions": [
                -0.9314905890091093,
                -1.1120546500864346,
                1.8364282553333668,
                -0.26999089700172485,
                0.08934281870822258,
                2.5715206938596324
            ]
        },
        {
            "positions": [
                -0.9638440769512256,
                -1.1142173932477188,
                1.8730854969261372,
                -0.3873762276141113,
                0.16886029248902656,
                2.688178725127477
            ]
        },
        {
            "positions": [
                -0.9961975648933421,
                -1.1163801364090031,
                1.9097427385189074,
                -0.5047615582264982,
                0.24837776626983055,
                2.8048367563953214
            ]
        },
        {
            "positions": [
                -1.0285510528354584,
                -1.1185428795702876,
                1.9463999801116778,
                -0.622146888838885,
                0.32789524005063475,
                2.921494787663166
            ]
        },
        {
            "positions": [
                -1.060904540777575,
                -1.120705622731572,
                1.9830572217044482,
                -0.7395322194512715,
                0.40741271383143873,
                3.0381528189310103
            ]
        },
        {
            "positions": [
                -1.0932580287196914,
                -1.1228683658928562,
                2.0197144632972184,
                -0.8569175500636584,
                0.4869301876122426,
                3.1548108501988548
            ]
        }
    ]
}