{
    "goal": {
        "global_pose": {
            "orientation": {
                "w": 0.7047431468963623,
                "x": -0.7094548344612122,
                "y": 0.0024358443915843964,
                "z": -0.0022348060738295317
            },
            "position": {
                "x": 0.6094750761985779,
                "y": 0.3671506643295288,
                "z": 0.19426114857196808
            }
        },
        "name": "move_to_magneteinheit_A"
    },
    "id": "SPARS_move_to_magneteinheit_A_19",
    "joint_names": [
        "shoulder_pan_joint",
        "shoulder_lift_joint",
        "elbow_joint",
        "wrist_1_joint",
        "wrist_2_joint",
        "wrist_3_joint"
    ],
    "metrics": {
        "cart_traj_len": 4.100097696113044,
        "distance_elbow_joint": 3.891810800499088,
        "distance_shoulder_lift_joint": 0.10498967331659315,
        "distance_shoulder_pan_joint": 4.964448013956006,
        "distance_wrist_1_joint": 1.160754918235981,
        "distance_wrist_2_joint": 1.7503060016620353,
        "distance_wrist_3_joint": 3.6184301166491513,
        "smoothness": 0.1427968878252504,
        "time": 5.018211757,
        "traj_len": 3.935827679703325,
        "weighted_distance": 5.0634633085977
    },
    "planner": "SPARS",
    "start": {
        "state": {
            "elbow_joint": -1.9196185241190666,
            "shoulder_lift_joint": -1.2443396400964142,
            "shoulder_pan_joint": 2.6996025414629847,
            "wrist_1_joint": -1.5485510000780065,
            "wrist_2_joint": -1.5709468930060704,
            "wrist_3_joint": 0.4420197071253992
        }
    },
    "waypoints": [
        {
            "positions": [
                2.6996025414629847,
                -1.2443396400964142,
                -1.9196185241190666,
                -1.5485510000780065,
                -1.5709468930060704,
                0.4420197071253992
            ]
        },
        {
            "positions": [
                2.5011189046328903,
                -1.2433287930228787,
                -1.8782210426626,
                -1.559075982787693,
                -1.5723571960431697,
                0.3001101163371651
            ]
        },
        {
            "positions": [
                2.302635267802796,
                -1.2423179459493434,
                -1.8368235612061334,
                -1.5696009654973795,
                -1.5737674990802688,
                0.15820052554893105
            ]
        },
        {
            "positions": [
                2.1041516309727015,
                -1.241307098875808,
                -1.795426079749667,
                -1.5801259482070662,
                -1.5751778021173681,
                0.016290934760696985
            ]
        },
        {
            "positions": [
                1.9056679941426073,
                -1.2402962518022727,
                -1.7540285982932005,
                -1.5906509309167527,
                -1.5765881051544675,
                -0.12561865602753708
            ]
        },
        {
            "positions": [
                1.7071843573125132,
                -1.2392854047287372,
                -1.7126311168367339,
                -1.6011759136264392,
                -1.5779984081915666,
                -0.26752824681577114
            ]
        },
        {
            "positions": [
                1.5087007204824188,
                -1.238274557655202,
                -1.6712336353802673,
                -1.6117008963361257,
                -1.5794087112286659,
                -0.4094378376040052
            ]
        },
        {
            "positions": [
                1.3102170836523244,
                -1.2372637105816664,
                -1.6298361539238009,
                -1.6222258790458122,
                -1.580819014265765,
                -0.5513474283922393
            ]
        },
        {
            "positions": [
                1.11173344682223,
                -1.2362528635081311,
                -1.5884386724673343,
                -1.6327508617554989,
                -1.5822293173028643,
                -0.6932570191804733
            ]
        },
        {
            "positions": [
                0.9132498099921356,
                -1.2352420164345956,
                -1.5470411910108677,
                -1.6432758444651854,
                -1.5836396203399636,
                -0.8351666099687073
            ]
        },
        {
            "positions": [
                0.7147661731620414,
                -1.2342311693610604,
                -1.505643709554401,
                -1.6538008271748719,
                -1.5850499233770627,
                -0.9770762007569415
            ]
        },
        {
            "positions": [
                0.5162825363319468,
                -1.2332203222875249,
                -1.4642462280979345,
                -1.6643258098845584,
                -1.586460226414162,
                -1.1189857915451755
            ]
        },
        {
            "positions": [
                0.3177988995018528,
                -1.2322094752139896,
                -1.422848746641468,
                -1.674850792594245,
                -1.5878705294512614,
                -1.2608953823334095
            ]
        },
        {
            "positions": [
                0.11931526267175796,
                -1.231198628140454,
                -1.3814512651850013,
                -1.6853757753039316,
                -1.5892808324883605,
                -1.4028049731216439
            ]
        },
        {
            "positions": [
                -0.079168374158336,
                -1.2301877810669188,
                -1.340053783728535,
                -1.695900758013618,
                -1.5906911355254598,
                -1.5447145639098778
            ]
        },
        {
            "positions": [
                -0.27765201098843084,
                -1.2291769339933833,
                -1.2986563022720683,
                -1.7064257407233046,
                -1.592101438562559,
                -1.6866241546981118
            ]
        },
        {
            "positions": [
                -0.4761356478185248,
                -1.228166086919848,
                -1.257258820815602,
                -1.716950723432991,
                -1.5935117415996582,
                -1.8285337454863457
            ]
        },
        {
            "positions": [
                -0.6746192846486192,
                -1.2271552398463126,
                -1.2158613393591353,
                -1.7274757061426778,
                -1.5949220446367576,
                -1.9704433362745801
            ]
        },
        {
            "positions": [
                -0.8731029214787136,
                -1.2261443927727773,
                -1.1744638579026687,
                -1.7380006888523643,
                -1.5963323476738567,
                -2.1123529270628136
            ]
        },
        {
            "positions": [
                -1.071586558308808,
                -1.2251335456992418,
                -1.1330663764462021,
                -1.7485256715620507,
                -1.597742650710956,
                -2.254262517851048
            ]
        },
        {
            "positions": [
                -1.014764705252417,
                -1.2210486133697456,
                -0.9851969167878105,
                -1.7027742312405298,
                -1.5156707343320441,
                -2.298174322216415
            ]
        },
        {
            "positions": [
                -0.9579428521960257,
                -1.2169636810402493,
                -0.837327457129419,
                -1.6570227909190092,
                -1.4335988179531323,
                -2.3420861265817816
            ]
        },
        {
            "positions": [
                -0.9011209991396345,
                -1.212878748710753,
                -0.6894579974710275,
                -1.6112713505974883,
                -1.3515269015742204,
                -2.3859979309471484
            ]
        },
        {
            "positions": [
                -0.8442991460832434,
                -1.2087938163812568,
                -0.5415885378126359,
                -1.5655199102759676,
                -1.2694549851953085,
                -2.4299097353125156
            ]
        },
        {
            "positions": [
                -0.7874772930268522,
                -1.2047088840517606,
                -0.39371907815424445,
                -1.5197684699544467,
                -1.1873830688163967,
                -2.4738215396778824
            ]
        },
        {
            "positions": [
                -0.730655439970461,
                -1.2006239517222645,
                -0.24584961849585285,
                -1.474017029632926,
                -1.1053111524374846,
                -2.5177333440432492
            ]
        },
        {
            "positions": [
                -0.6738335869140699,
                -1.1965390193927683,
                -0.09798015883746136,
                -1.4282655893114051,
                -1.0232392360585727,
                -2.561645148408616
            ]
        },
        {
            "positions": [
                -0.6170117338576787,
                -1.192454087063272,
                0.04988930082093024,
                -1.3825141489898845,
                -0.9411673196796608,
                -2.605556952773983
            ]
        },
        {
            "positions": [
                -0.5601898808012875,
                -1.1883691547337758,
                0.19775876047932184,
                -1.3367627086683636,
                -0.859095403300749,
                -2.6494687571393496
            ]
        },
        {
            "positions": [
                -0.5033680277448964,
                -1.1842842224042796,
                0.3456282201377132,
                -1.2910112683468427,
                -0.7770234869218371,
                -2.6933805615047164
            ]
        },
        {
            "positions": [
                -0.4465461746885051,
                -1.1801992900747833,
                0.49349767979610504,
                -1.245259828025322,
                -0.694951570542925,
                -2.7372923658700836
            ]
        },
        {
            "positions": [
                -0.389724321632114,
                -1.176114357745287,
                0.6413671394544964,
                -1.1995083877038013,
                -0.6128796541640132,
                -2.7812041702354504
            ]
        },
        {
            "positions": [
                -0.3329024685757228,
                -1.1720294254157908,
                0.789236599112888,
                -1.1537569473822802,
                -0.5308077377851013,
                -2.825115974600817
            ]
        },
        {
            "positions": [
                -0.2760806155193317,
                -1.1679444930862946,
                0.9371060587712794,
                -1.1080055070607595,
                -0.4487358214061894,
                -2.869027778966184
            ]
        },
        {
            "positions": [
                -0.21925876246294052,
                -1.1638595607567983,
                1.0849755184296712,
                -1.0622540667392388,
                -0.3666639050272775,
                -2.912939583331551
            ]
        },
        {
            "positions": [
                -0.16243690940654942,
                -1.1597746284273023,
                1.2328449780880626,
                -1.016502626417718,
                -0.28459198864836566,
                -2.9568513876969176
            ]
        },
        {
            "positions": [
                -0.10561505635015822,
                -1.155689696097806,
                1.3807144377464544,
                -0.970751186096197,
                -0.20252007226945357,
                -3.0007631920622844
            ]
        },
        {
            "positions": [
                -0.04879320329376702,
                -1.1516047637683098,
                1.5285838974048458,
                -0.9249997457746764,
                -0.12044815589054192,
                -3.044674996427651
            ]
        },
        {
            "positions": [
                0.008028649762624074,
                -1.1475198314388135,
                1.6764533570632372,
                -0.8792483054531555,
                -0.03837623951162983,
                -3.0885868007930184
            ]
        },
        {
            "positions": [
                0.06485050281901517,
                -1.1434348991093173,
                1.8243228167216285,
                -0.8334968651316348,
                0.04369567686728182,
                -3.132498605158385
            ]
        },
        {
            "positions": [
                0.1216723558754064,
                -1.139349966779821,
                1.9721922763800206,
                -0.7877454248101139,
                0.125767593246194,
                -3.176410409523752
            ]
        }
    ]
}