{
    "goal": {
        "global_pose": {
            "orientation": {
                "w": 0.7031023502349854,
                "x": -0.7110244035720825,
                "y": 0.007748599164187908,
                "z": 0.005598929710686207
            },
            "position": {
                "x": 0.11585023208521307,
                "y": 0.44412534475326537,
                "z": 0.3711530566215515
            }
        },
        "name": "move_to_auspresseinheit_A"
    },
    "id": "SPARS_move_to_auspresseinheit_A_69",
    "joint_names": [
        "shoulder_pan_joint",
        "shoulder_lift_joint",
        "elbow_joint",
        "wrist_1_joint",
        "wrist_2_joint",
        "wrist_3_joint"
    ],
    "metrics": {
        "cart_traj_len": 0.7175128288445292,
        "distance_elbow_joint": 0.23992888618464558,
        "distance_shoulder_lift_joint": 0.7100630615400567,
        "distance_shoulder_pan_joint": 1.0478447612705466,
        "distance_wrist_1_joint": 1.5057122215074448,
        "distance_wrist_2_joint": 0.5103709676537117,
        "distance_wrist_3_joint": 1.4213418893546175,
        "smoothness": 1.1452559147430108,
        "time": 5.011186062,
        "traj_len": 2.3313647907419,
        "weighted_distance": 3.208430886801431
    },
    "planner": "SPARS",
    "start": {
        "state": {
            "elbow_joint": 2.4225746658250005,
            "shoulder_lift_joint": -1.3736534386056498,
            "shoulder_pan_joint": -0.3378633547517467,
            "wrist_1_joint": -1.0288598680537169,
            "wrist_2_joint": 1.233022673432363,
            "wrist_3_joint": -3.0940220416140027
        }
    },
    "waypoints": [
        {
            "positions": [
                -0.3378633547517467,
                -1.3736534386056498,
                2.4225746658250005,
                -1.0288598680537169,
                1.233022673432363,
                -3.0940220416140027
            ]
        },
        {
            "positions": [
                -0.2634691096988497,
                -1.4428096398640038,
                2.407699663220936,
                -0.9142613148413602,
                1.205775248261836,
                -3.016879641117796
            ]
        },
        {
            "positions": [
                -0.18907486464595266,
                -1.5119658411223578,
                2.392824660616872,
                -0.7996627616290036,
                1.1785278230913092,
                -2.9397372406215894
            ]
        },
        {
            "positions": [
                -0.11468061959305564,
                -1.581122042380712,
                2.3779496580128074,
                -0.685064208416647,
                1.1512803979207822,
                -2.8625948401253827
            ]
        },
        {
            "positions": [
                -0.0402863745401586,
                -1.650278243639066,
                2.3630746554087434,
                -0.5704656552042904,
                1.1240329727502552,
                -2.785452439629176
            ]
        },
        {
            "positions": [
                0.03410787051273845,
                -1.71943444489742,
                2.348199652804679,
                -0.4558671019919336,
                1.0967855475797281,
                -2.708310039132969
            ]
        },
        {
            "positions": [
                0.10850211556563544,
                -1.788590646155774,
                2.333324650200615,
                -0.341268548779577,
                1.0695381224092013,
                -2.631167638636762
            ]
        },
        {
            "positions": [
                0.18289636061853248,
                -1.8577468474141279,
                2.3184496475965504,
                -0.22666999556722034,
                1.0422906972386743,
                -2.5540252381405555
            ]
        },
        {
            "positions": [
                0.25729060567142953,
                -1.9269030486724819,
                2.3035746449924863,
                -0.11207144235486377,
                1.0150432720681473,
                -2.476882837644349
            ]
        },
        {
            "positions": [
                0.3316848507243265,
                -1.996059249930836,
                2.288699642388422,
                0.0025271108574929924,
                0.9877958468976203,
                -2.399740437148142
            ]
        },
        {
            "positions": [
                0.39473427669007205,
                -1.9814497082283578,
                2.306375286179766,
                -0.07652709624187953,
                0.9436051567111255,
                -2.5209171512962683
            ]
        },
        {
            "positions": [
                0.4577837026558176,
                -1.9668401665258792,
                2.324050929971111,
                -0.15558130334125206,
                0.8994144665246306,
                -2.6420938654443944
            ]
        },
        {
            "positions": [
                0.5208331286215632,
                -1.9522306248234007,
                2.3417265737624553,
                -0.2346355104406246,
                0.8552237763381358,
                -2.7632705795925205
            ]
        },
        {
            "positions": [
                0.5838825545873088,
                -1.9376210831209224,
                2.3594022175537996,
                -0.3136897175399971,
                0.811033086151641,
                -2.8844472937406467
            ]
        },
        {
            "positions": [
                0.6469319805530542,
                -1.923011541418444,
                2.3770778613451444,
                -0.3927439246393697,
                0.7668423959651461,
                -3.005624007888773
            ]
        },
        {
            "positions": [
                0.7099814065187998,
                -1.9084019997159656,
                2.3947535051364888,
                -0.47179813173874224,
                0.7226517057786513,
                -3.126800722036899
            ]
        }
    ]
}