{
    "goal": {
        "global_pose": {
            "orientation": {
                "w": 0.7031023502349854,
                "x": -0.7110244035720825,
                "y": 0.007748599164187908,
                "z": 0.005598929710686207
            },
            "position": {
                "x": 0.11585023208521307,
                "y": 0.44412534475326537,
                "z": 0.3711530566215515
            }
        },
        "name": "move_to_auspresseinheit_A"
    },
    "id": "SPARS_move_to_auspresseinheit_A_117",
    "joint_names": [
        "shoulder_pan_joint",
        "shoulder_lift_joint",
        "elbow_joint",
        "wrist_1_joint",
        "wrist_2_joint",
        "wrist_3_joint"
    ],
    "metrics": {
        "cart_traj_len": 3.2319809838097853,
        "distance_elbow_joint": 3.968688621826967,
        "distance_shoulder_lift_joint": 0.5368835542316877,
        "distance_shoulder_pan_joint": 3.079624824337354,
        "distance_wrist_1_joint": 0.5442674072401354,
        "distance_wrist_2_joint": 0.5942010807135502,
        "distance_wrist_3_joint": 0.7889771583331617,
        "smoothness": 1.0051344463769716,
        "time": 5.036178134,
        "traj_len": 3.08425722771024,
        "weighted_distance": 3.4970080713808573
    },
    "planner": "SPARS",
    "start": {
        "state": {
            "elbow_joint": 2.4225746658250005,
            "shoulder_lift_joint": -1.3736534386056498,
            "shoulder_pan_joint": -0.3378633547517467,
            "wrist_1_joint": -1.0288598680537169,
            "wrist_2_joint": 1.233022673432363,
            "wrist_3_joint": -3.0940220416140027
        }
    },
    "waypoints": [
        {
            "positions": [
                -0.3378633547517467,
                -1.3736534386056498,
                2.4225746658250005,
                -1.0288598680537169,
                1.233022673432363,
                -3.0940220416140027
            ]
        },
        {
            "positions": [
                -0.42265030365923223,
                -1.3939937392691049,
                2.2561913637506206,
                -0.997259275488027,
                1.1867450870125273,
                -3.0621084061737327
            ]
        },
        {
            "positions": [
                -0.5074372525667178,
                -1.4143340399325597,
                2.089808061676241,
                -0.9656586829223371,
                1.1404675005926914,
                -3.030194770733463
            ]
        },
        {
            "positions": [
                -0.5922242014742033,
                -1.4346743405960147,
                1.9234247596018612,
                -0.9340580903566473,
                1.0941899141728557,
                -2.998281135293193
            ]
        },
        {
            "positions": [
                -0.6770111503816888,
                -1.4550146412594696,
                1.7570414575274818,
                -0.9024574977909574,
                1.04791232775302,
                -2.9663674998529235
            ]
        },
        {
            "positions": [
                -0.7617980992891744,
                -1.4753549419229246,
                1.5906581554531019,
                -0.8708569052252675,
                1.0016347413331843,
                -2.9344538644126534
            ]
        },
        {
            "positions": [
                -0.8465850481966599,
                -1.4956952425863794,
                1.4242748533787222,
                -0.8392563126595777,
                0.9553571549133485,
                -2.9025402289723834
            ]
        },
        {
            "positions": [
                -0.9313719971041454,
                -1.5160355432498345,
                1.2578915513043425,
                -0.8076557200938878,
                0.9090795684935127,
                -2.870626593532114
            ]
        },
        {
            "positions": [
                -1.016158946011631,
                -1.5363758439132895,
                1.0915082492299628,
                -0.7760551275281979,
                0.862801982073677,
                -2.8387129580918438
            ]
        },
        {
            "positions": [
                -1.1009458949191164,
                -1.5567161445767443,
                0.9251249471555831,
                -0.744454534962508,
                0.8165243956538413,
                -2.806799322651574
            ]
        },
        {
            "positions": [
                -1.185732843826602,
                -1.5770564452401994,
                0.7587416450812032,
                -0.7128539423968182,
                0.7702468092340055,
                -2.774885687211304
            ]
        },
        {
            "positions": [
                -1.2705197927340874,
                -1.5973967459036542,
                0.5923583430068236,
                -0.6812533498311284,
                0.7239692228141698,
                -2.7429720517710345
            ]
        },
        {
            "positions": [
                -1.355306741641573,
                -1.6177370465671093,
                0.42597504093244376,
                -0.6496527572654385,
                0.6776916363943339,
                -2.7110584163307645
            ]
        },
        {
            "positions": [
                -1.1966774002994556,
                -1.640260119357127,
                0.577674194542783,
                -0.6369558113845264,
                0.6806816397539894,
                -2.742290226565374
            ]
        },
        {
            "positions": [
                -1.038048058957338,
                -1.6627831921471443,
                0.7293733481531222,
                -0.6242588655036143,
                0.6836716431136449,
                -2.7735220367999833
            ]
        },
        {
            "positions": [
                -0.8794187176152206,
                -1.685306264937162,
                0.8810725017634613,
                -0.6115619196227022,
                0.6866616464733003,
                -2.804753847034593
            ]
        },
        {
            "positions": [
                -0.7207893762731031,
                -1.7078293377271794,
                1.0327716553738004,
                -0.5988649737417902,
                0.6896516498329558,
                -2.8359856572692026
            ]
        },
        {
            "positions": [
                -0.5621600349309857,
                -1.730352410517197,
                1.1844708089841398,
                -0.5861680278608781,
                0.6926416531926113,
                -2.867217467503812
            ]
        },
        {
            "positions": [
                -0.4035306935888682,
                -1.7528754833072147,
                1.336169962594479,
                -0.573471081979966,
                0.6956316565522668,
                -2.8984492777384214
            ]
        },
        {
            "positions": [
                -0.24490135224675091,
                -1.775398556097232,
                1.487869116204818,
                -0.5607741360990539,
                0.6986216599119222,
                -2.929681087973031
            ]
        },
        {
            "positions": [
                -0.08627201090463332,
                -1.7979216288872497,
                1.6395682698151575,
                -0.5480771902181418,
                0.7016116632715776,
                -2.9609128982076407
            ]
        },
        {
            "positions": [
                0.07235733043748405,
                -1.8204447016772671,
                1.7912674234254964,
                -0.5353802443372297,
                0.7046016666312331,
                -2.99214470844225
            ]
        },
        {
            "positions": [
                0.23098667177960164,
                -1.8429677744672848,
                1.9429665770358358,
                -0.5226832984563177,
                0.7075916699908886,
                -3.0233765186768595
            ]
        },
        {
            "positions": [
                0.389616013121719,
                -1.8654908472573024,
                2.0946657306461747,
                -0.5099863525754056,
                0.710581673350544,
                -3.054608328911469
            ]
        },
        {
            "positions": [
                0.5482453544638366,
                -1.88801392004732,
                2.246364884256514,
                -0.4972894066944935,
                0.7135716767101995,
                -3.0858401391460784
            ]
        },
        {
            "positions": [
                0.7068746958059541,
                -1.9105369928373375,
                2.3980640378668534,
                -0.4845924608135814,
                0.716561680069855,
                -3.117071949380688
            ]
        }
    ]
}