{
    "goal": {
        "global_pose": {
            "orientation": {
                "w": 0.005598929693374612,
                "x": 0.007748599140229565,
                "y": 0.7110244013736278,
                "z": -0.7031023480610252
            },
            "position": {
                "x": -0.8858502320852131,
                "y": -0.7141253447532654,
                "z": 0.3711530566215515
            }
        },
        "name": "move_to_auspresseinheit_C"
    },
    "id": "SPARS_move_to_auspresseinheit_C_120",
    "joint_names": [
        "shoulder_pan_joint",
        "shoulder_lift_joint",
        "elbow_joint",
        "wrist_1_joint",
        "wrist_2_joint",
        "wrist_3_joint"
    ],
    "metrics": {
        "cart_traj_len": 0.49393158820609034,
        "distance_elbow_joint": 1.009344102955526,
        "distance_shoulder_lift_joint": 0.3287446983621626,
        "distance_shoulder_pan_joint": 0.2556973520312975,
        "distance_wrist_1_joint": 0.6911247530392803,
        "distance_wrist_2_joint": 1.317304893866282,
        "distance_wrist_3_joint": 0.06358156248700686,
        "smoothness": 6.45947944157498e-16,
        "time": 5.052283634,
        "traj_len": 1.9146272124728496,
        "weighted_distance": 2.40860750945876
    },
    "planner": "SPARS",
    "start": {
        "state": {
            "elbow_joint": 1.7527959577737207,
            "shoulder_lift_joint": -0.9740617694225068,
            "shoulder_pan_joint": -2.967991417825858,
            "wrist_1_joint": -0.759517768980727,
            "wrist_2_joint": 1.7443932448377408,
            "wrist_3_joint": -3.0840537646736568
        }
    },
    "waypoints": [
        {
            "positions": [
                -2.967991417825858,
                -0.9740617694225068,
                1.7527959577737207,
                -0.759517768980727,
                1.7443932448377408,
                -3.0840537646736568
            ]
        },
        {
            "positions": [
                -2.942421682622728,
                -0.9411872995862905,
                1.6518615474781682,
                -0.6904052936767989,
                1.6126627554511126,
                -3.0904119209223575
            ]
        },
        {
            "positions": [
                -2.9168519474195986,
                -0.9083128297500742,
                1.5509271371826154,
                -0.6212928183728709,
                1.4809322660644844,
                -3.0967700771710582
            ]
        },
        {
            "positions": [
                -2.8912822122164687,
                -0.875438359913858,
                1.449992726887063,
                -0.5521803430689429,
                1.3492017766778563,
                -3.103128233419759
            ]
        },
        {
            "positions": [
                -2.865712477013339,
                -0.8425638900776418,
                1.3490583165915102,
                -0.4830678677650148,
                1.2174712872912279,
                -3.1094863896684597
            ]
        },
        {
            "positions": [
                -2.840142741810209,
                -0.8096894202414255,
                1.2481239062959577,
                -0.4139553924610868,
                1.0857407979045999,
                -3.1158445459171604
            ]
        },
        {
            "positions": [
                -2.8145730066070795,
                -0.7768149504052092,
                1.1471894960004052,
                -0.3448429171571588,
                0.9540103085179718,
                -3.1222027021658607
            ]
        },
        {
            "positions": [
                -2.7890032714039497,
                -0.743940480568993,
                1.0462550857048525,
                -0.27573044185323076,
                0.8222798191313435,
                -3.1285608584145614
            ]
        },
        {
            "positions": [
                -2.7634335362008198,
                -0.7110660107327766,
                0.9453206754092999,
                -0.20661796654930265,
                0.6905493297447152,
                -3.134919014663262
            ]
        },
        {
            "positions": [
                -2.7378638009976903,
                -0.6781915408965604,
                0.8443862651137474,
                -0.1375054912453747,
                0.5588188403580872,
                -3.141277170911963
            ]
        },
        {
            "positions": [
                -2.7122940657945604,
                -0.6453170710603442,
                0.7434518548181948,
                -0.0683930159414466,
                0.42708835097145886,
                -3.1476353271606636
            ]
        }
    ]
}