{
    "goal": {
        "global_pose": {
            "orientation": {
                "w": 0.5084816262002911,
                "x": -0.4908360881923452,
                "y": 0.5182115481033761,
                "z": -0.48164630358495003
            },
            "position": {
                "x": 0.5540239810943604,
                "y": -0.46912469901144505,
                "z": 0.16403168439865112
            }
        },
        "name": "move_to_storage_B"
    },
    "id": "SPARS_move_to_storage_B_43",
    "joint_names": [
        "shoulder_pan_joint",
        "shoulder_lift_joint",
        "elbow_joint",
        "wrist_1_joint",
        "wrist_2_joint",
        "wrist_3_joint"
    ],
    "metrics": {
        "cart_traj_len": 0.8335856770638221,
        "distance_elbow_joint": 0.34833892834974334,
        "distance_shoulder_lift_joint": 0.45778049627906725,
        "distance_shoulder_pan_joint": 0.1830444851837595,
        "distance_wrist_1_joint": 2.9820112192760133,
        "distance_wrist_2_joint": 2.700011150960122,
        "distance_wrist_3_joint": 3.1399249658826722,
        "smoothness": 5.263279555406084e-16,
        "time": 5.104741814,
        "traj_len": 3.1322693444101164,
        "weighted_distance": 4.666152970910069
    },
    "planner": "SPARS",
    "start": {
        "state": {
            "elbow_joint": 1.664937868594044,
            "shoulder_lift_joint": -0.661644460510453,
            "shoulder_pan_joint": -0.9139846352900073,
            "wrist_1_joint": 2.146753192139373,
            "wrist_2_joint": -2.2341966793290973,
            "wrist_3_joint": 0.005466555786416001
        }
    },
    "waypoints": [
        {
            "positions": [
                -0.9139846352900073,
                -0.661644460510453,
                1.664937868594044,
                2.146753192139373,
                -2.2341966793290973,
                0.005466555786416001
            ]
        },
        {
            "positions": [
                -0.9193563690970317,
                -0.7062728385176091,
                1.6791428658347305,
                2.0171902124509127,
                -2.1476233095969692,
                -0.08139649722163647
            ]
        },
        {
            "positions": [
                -0.9247281029040562,
                -0.7509012165247653,
                1.6933478630754173,
                1.8876272327624521,
                -2.061049939864841,
                -0.16825955022968894
            ]
        },
        {
            "positions": [
                -0.9300998367110807,
                -0.7955295945319213,
                1.7075528603161039,
                1.7580642530739918,
                -1.9744765701327134,
                -0.25512260323774133
            ]
        },
        {
            "positions": [
                -0.935471570518105,
                -0.8401579725390774,
                1.7217578575567904,
                1.6285012733855313,
                -1.8879032004005853,
                -0.34198565624579386
            ]
        },
        {
            "positions": [
                -0.9408433043251294,
                -0.8847863505462336,
                1.735962854797477,
                1.498938293697071,
                -1.8013298306684573,
                -0.42884870925384627
            ]
        },
        {
            "positions": [
                -0.9462150381321539,
                -0.9294147285533896,
                1.7501678520381638,
                1.3693753140086105,
                -1.7147564609363295,
                -0.5157117622618987
            ]
        },
        {
            "positions": [
                -0.9515867719391784,
                -0.9740431065605457,
                1.7643728492788504,
                1.23981233432015,
                -1.6281830912042015,
                -0.6025748152699512
            ]
        },
        {
            "positions": [
                -0.9569585057462028,
                -1.0186714845677018,
                1.778577846519537,
                1.1102493546316894,
                -1.5416097214720734,
                -0.6894378682780038
            ]
        },
        {
            "positions": [
                -0.9623302395532272,
                -1.063299862574858,
                1.7927828437602238,
                0.9806863749432291,
                -1.4550363517399454,
                -0.7763009212860562
            ]
        },
        {
            "positions": [
                -0.9677019733602517,
                -1.1079282405820141,
                1.8069878410009104,
                0.8511233952547685,
                -1.3684629820078174,
                -0.8631639742941086
            ]
        },
        {
            "positions": [
                -0.9757849200548463,
                -1.1086467853449833,
                1.8198809007473402,
                0.7457245563553054,
                -1.2538206411553896,
                -1.0051198765317428
            ]
        },
        {
            "positions": [
                -0.983867866749441,
                -1.1093653301079525,
                1.83277396049377,
                0.6403257174558423,
                -1.1391783003029619,
                -1.147075778769377
            ]
        },
        {
            "positions": [
                -0.9919508134440358,
                -1.1100838748709214,
                1.8456670202401997,
                0.5349268785563791,
                -1.0245359594505343,
                -1.2890316810070113
            ]
        },
        {
            "positions": [
                -1.0000337601386304,
                -1.1108024196338906,
                1.8585600799866295,
                0.429528039656916,
                -0.9098936185981066,
                -1.4309875832446455
            ]
        },
        {
            "positions": [
                -1.008116706833225,
                -1.1115209643968598,
                1.8714531397330594,
                0.3241292007574529,
                -0.7952512777456788,
                -1.5729434854822797
            ]
        },
        {
            "positions": [
                -1.0161996535278197,
                -1.112239509159829,
                1.8843461994794892,
                0.21873036185798966,
                -0.6806089368932512,
                -1.714899387719914
            ]
        },
        {
            "positions": [
                -1.0242826002224146,
                -1.1129580539227981,
                1.897239259225919,
                0.11333152295852655,
                -0.5659665960408236,
                -1.8568552899575481
            ]
        },
        {
            "positions": [
                -1.0323655469170092,
                -1.113676598685767,
                1.910132318972349,
                0.007932684059063444,
                -0.4513242551883958,
                -1.9988111921951823
            ]
        },
        {
            "positions": [
                -1.0404484936116039,
                -1.1143951434487362,
                1.9230253787187785,
                -0.09746615484039967,
                -0.33668191433596806,
                -2.1407670944328165
            ]
        },
        {
            "positions": [
                -1.0485314403061987,
                -1.1151136882117054,
                1.9359184384652084,
                -0.20286499373986278,
                -0.2220395734835403,
                -2.2827229966704508
            ]
        },
        {
            "positions": [
                -1.0566143870007934,
                -1.1158322329746746,
                1.9488114982116382,
                -0.3082638326393259,
                -0.10739723263111278,
                -2.424678898908085
            ]
        },
        {
            "positions": [
                -1.064697333695388,
                -1.1165507777376438,
                1.961704557958068,
                -0.4136626715387892,
                0.0072451082213149665,
                -2.566634801145719
            ]
        },
        {
            "positions": [
                -1.0727802803899826,
                -1.117269322500613,
                1.974597617704498,
                -0.5190615104382523,
                0.12188744907374272,
                -2.7085907033833534
            ]
        },
        {
            "positions": [
                -1.0808632270845773,
                -1.117987867263582,
                1.9874906774509276,
                -0.6244603493377154,
                0.23652978992617024,
                -2.8505466056209876
            ]
        },
        {
            "positions": [
                -1.0889461737791721,
                -1.118706412026551,
                2.0003837371973576,
                -0.7298591882371785,
                0.351172130778598,
                -2.992502507858622
            ]
        },
        {
            "positions": [
                -1.0970291204737668,
                -1.1194249567895203,
                2.0132767969437873,
                -0.8352580271366417,
                0.46581447163102563,
                -3.134458410096256
            ]
        }
    ]
}