{
    "goal": {
        "global_pose": {
            "orientation": {
                "w": 0.7031023480610252,
                "x": -0.7110244013736278,
                "y": 0.0077485991402295624,
                "z": 0.005598929693374583
            },
            "position": {
                "x": -0.8841497679147869,
                "y": 0.44412534475326537,
                "z": 0.3711530566215515
            }
        },
        "name": "move_to_auspresseinheit_D"
    },
    "id": "SPARS_move_to_auspresseinheit_D_119",
    "joint_names": [
        "shoulder_pan_joint",
        "shoulder_lift_joint",
        "elbow_joint",
        "wrist_1_joint",
        "wrist_2_joint",
        "wrist_3_joint"
    ],
    "metrics": {
        "cart_traj_len": 0.342535265679196,
        "distance_elbow_joint": 0.6427420584891002,
        "distance_shoulder_lift_joint": 0.12418253435009241,
        "distance_shoulder_pan_joint": 0.13336965810959692,
        "distance_wrist_1_joint": 0.5525043420136355,
        "distance_wrist_2_joint": 1.4339125589000588,
        "distance_wrist_3_joint": 0.027084422844665834,
        "smoothness": 1.1842378926765815e-15,
        "time": 5.024293132,
        "traj_len": 1.7069843510434268,
        "weighted_distance": 2.225843957089125
    },
    "planner": "SPARS",
    "start": {
        "state": {
            "elbow_joint": -1.8275523626775212,
            "shoulder_lift_joint": -2.126789852344167,
            "shoulder_pan_joint": -0.03513704404078235,
            "wrist_1_joint": -2.347782403156801,
            "wrist_2_joint": -1.6058999987535132,
            "wrist_3_joint": -3.0880379163319196
        }
    },
    "waypoints": [
        {
            "positions": [
                -0.03513704404078235,
                -2.126789852344167,
                -1.8275523626775212,
                -2.347782403156801,
                -1.6058999987535132,
                -3.0880379163319196
            ]
        },
        {
            "positions": [
                -0.05180825130448197,
                -2.1423126691379286,
                -1.7472096053663837,
                -2.416845445908505,
                -1.426660928891006,
                -3.0846523634763363
            ]
        },
        {
            "positions": [
                -0.06847945856818158,
                -2.15783548593169,
                -1.6668668480552462,
                -2.48590848866021,
                -1.2474218590284984,
                -3.081266810620753
            ]
        },
        {
            "positions": [
                -0.08515066583188119,
                -2.1733583027254513,
                -1.5865240907441087,
                -2.554971531411914,
                -1.0681827891659912,
                -3.0778812577651697
            ]
        },
        {
            "positions": [
                -0.1018218730955808,
                -2.188881119519213,
                -1.5061813334329712,
                -2.624034574163619,
                -0.8889437193034838,
                -3.0744957049095865
            ]
        },
        {
            "positions": [
                -0.11849308035928041,
                -2.204403936312975,
                -1.4258385761218335,
                -2.693097616915323,
                -0.7097046494409764,
                -3.0711101520540036
            ]
        },
        {
            "positions": [
                -0.13516428762298005,
                -2.219926753106736,
                -1.345495818810696,
                -2.7621606596670274,
                -0.5304655795784692,
                -3.0677245991984203
            ]
        },
        {
            "positions": [
                -0.15183549488667966,
                -2.2354495699004975,
                -1.2651530614995585,
                -2.831223702418732,
                -0.3512265097159617,
                -3.064339046342837
            ]
        },
        {
            "positions": [
                -0.16850670215037927,
                -2.2509723866942593,
                -1.184810304188421,
                -2.9002867451704364,
                -0.17198743985345452,
                -3.0609534934872538
            ]
        }
    ]
}