{
    "goal": {
        "global_pose": {
            "orientation": {
                "w": -0.00223480608172531,
                "x": 0.0024358444001904467,
                "y": 0.7094548369677653,
                "z": -0.704743149386269
            },
            "position": {
                "x": -0.37947507619857795,
                "y": -0.6371506643295288,
                "z": 0.19426114857196808
            }
        },
        "name": "move_to_magneteinheit_C"
    },
    "id": "SPARS_move_to_magneteinheit_C_139",
    "joint_names": [
        "shoulder_pan_joint",
        "shoulder_lift_joint",
        "elbow_joint",
        "wrist_1_joint",
        "wrist_2_joint",
        "wrist_3_joint"
    ],
    "metrics": {
        "cart_traj_len": 0.790948369027242,
        "distance_elbow_joint": 0.2743216856411399,
        "distance_shoulder_lift_joint": 1.027135587945845,
        "distance_shoulder_pan_joint": 0.8352338544403233,
        "distance_wrist_1_joint": 1.4318098990801689,
        "distance_wrist_2_joint": 0.7888723522416583,
        "distance_wrist_3_joint": 3.0121983118060354,
        "smoothness": 1.1033879173423002,
        "time": 5.021565805000001,
        "traj_len": 2.714695506158135,
        "weighted_distance": 3.951537747015593
    },
    "planner": "SPARS",
    "start": {
        "state": {
            "elbow_joint": 1.9565354010623817,
            "shoulder_lift_joint": -1.4165861575791021,
            "shoulder_pan_joint": -1.6717766225146293,
            "wrist_1_joint": -0.5286633292919765,
            "wrist_2_joint": 1.472756589071564,
            "wrist_3_joint": -3.1238370188695823
        }
    },
    "waypoints": [
        {
            "positions": [
                -1.6717766225146293,
                -1.4165861575791021,
                1.9565354010623817,
                -0.5286633292919765,
                1.472756589071564,
                -3.1238370188695823
            ]
        },
        {
            "positions": [
                -1.7461719034667493,
                -1.4518138934142055,
                1.971538490041724,
                -0.47779149608827104,
                1.423202130687785,
                -2.9875247725155156
            ]
        },
        {
            "positions": [
                -1.8205671844188693,
                -1.4870416292493087,
                1.9865415790210668,
                -0.4269196628845656,
                1.3736476723040059,
                -2.851212526161449
            ]
        },
        {
            "positions": [
                -1.8949624653709893,
                -1.5222693650844121,
                2.001544668000409,
                -0.37604782968086026,
                1.3240932139202268,
                -2.714900279807382
            ]
        },
        {
            "positions": [
                -1.9693577463231093,
                -1.5574971009195153,
                2.016547756979752,
                -0.3251759964771548,
                1.2745387555364478,
                -2.578588033453315
            ]
        },
        {
            "positions": [
                -2.0437530272752293,
                -1.5927248367546187,
                2.031550845959094,
                -0.2743041632734494,
                1.2249842971526688,
                -2.4422757870992484
            ]
        },
        {
            "positions": [
                -2.118148308227349,
                -1.627952572589722,
                2.0465539349384367,
                -0.223432330069744,
                1.17542983876889,
                -2.3059635407451813
            ]
        },
        {
            "positions": [
                -2.1925435891794693,
                -1.6631803084248253,
                2.061557023917779,
                -0.17256049686603858,
                1.125875380385111,
                -2.1696512943911146
            ]
        },
        {
            "positions": [
                -2.2669388701315896,
                -1.6984080442599288,
                2.0765601128971216,
                -0.12168866366233316,
                1.076320922001332,
                -2.033339048037048
            ]
        },
        {
            "positions": [
                -2.3413341510837093,
                -1.733635780095032,
                2.0915632018764643,
                -0.07081683045862769,
                1.0267664636175529,
                -1.897026801682981
            ]
        },
        {
            "positions": [
                -2.415729432035829,
                -1.7688635159301351,
                2.1065662908558065,
                -0.01994499725492238,
                0.9772120052337738,
                -1.7607145553289143
            ]
        },
        {
            "positions": [
                -2.4901247129879494,
                -1.8040912517652385,
                2.121569379835149,
                0.030926835948783107,
                0.9276575468499948,
                -1.6244023089748474
            ]
        },
        {
            "positions": [
                -2.4882485169916158,
                -1.7330211969030487,
                2.109426301294219,
                -0.06598646781115125,
                0.9005716235144293,
                -1.7924871536316584
            ]
        },
        {
            "positions": [
                -2.486372320995282,
                -1.6619511420408588,
                2.0972832227532887,
                -0.1628997715710856,
                0.8734857001788638,
                -1.9605719982884697
            ]
        },
        {
            "positions": [
                -2.484496124998948,
                -1.590881087178669,
                2.0851401442123585,
                -0.25981307533102,
                0.8463997768432984,
                -2.128656842945281
            ]
        },
        {
            "positions": [
                -2.4826199290026145,
                -1.519811032316479,
                2.0729970656714283,
                -0.35672637909095434,
                0.8193138535077329,
                -2.296741687602092
            ]
        },
        {
            "positions": [
                -2.480743733006281,
                -1.4487409774542894,
                2.0608539871304976,
                -0.4536396828508888,
                0.7922279301721675,
                -2.464826532258903
            ]
        },
        {
            "positions": [
                -2.4788675370099473,
                -1.3776709225920996,
                2.0487109085895674,
                -0.5505529866108231,
                0.765142006836602,
                -2.632911376915714
            ]
        },
        {
            "positions": [
                -2.4769913410136133,
                -1.3066008677299097,
                2.036567830048637,
                -0.6474662903707575,
                0.7380560835010366,
                -2.8009962215725253
            ]
        },
        {
            "positions": [
                -2.4751151450172797,
                -1.2355308128677198,
                2.024424751507707,
                -0.7443795941306918,
                0.7109701601654711,
                -2.9690810662293368
            ]
        },
        {
            "positions": [
                -2.473238949020946,
                -1.16446075800553,
                2.0122816729667767,
                -0.8412928978906262,
                0.6838842368299056,
                -3.137165910886148
            ]
        }
    ]
}