{
    "goal": {
        "global_pose": {
            "orientation": {
                "w": 0.005598929693374612,
                "x": 0.007748599140229565,
                "y": 0.7110244013736278,
                "z": -0.7031023480610252
            },
            "position": {
                "x": 0.1141497679147869,
                "y": -0.7141253447532654,
                "z": 0.3711530566215515
            }
        },
        "name": "move_to_auspresseinheit_B"
    },
    "id": "SPARS_move_to_auspresseinheit_B_100",
    "joint_names": [
        "shoulder_pan_joint",
        "shoulder_lift_joint",
        "elbow_joint",
        "wrist_1_joint",
        "wrist_2_joint",
        "wrist_3_joint"
    ],
    "metrics": {
        "cart_traj_len": 0.5648632753803919,
        "distance_elbow_joint": 0.06555311894170845,
        "distance_shoulder_lift_joint": 0.2944146125027971,
        "distance_shoulder_pan_joint": 0.5774081573558736,
        "distance_wrist_1_joint": 0.3346416770148217,
        "distance_wrist_2_joint": 0.9890242273349021,
        "distance_wrist_3_joint": 0.0034113542284277543,
        "smoothness": 5.075305255429287e-16,
        "time": 5.019660045999999,
        "traj_len": 1.5048100037474932,
        "weighted_distance": 1.8960331643157273
    },
    "planner": "SPARS",
    "start": {
        "state": {
            "elbow_joint": 2.0193083361928714,
            "shoulder_lift_joint": -1.1220246554650708,
            "shoulder_pan_joint": -1.0952077554168747,
            "wrist_1_joint": -0.8559753972642168,
            "wrist_2_joint": 0.4759566250798843,
            "wrist_3_joint": -3.1240929996934557
        }
    },
    "waypoints": [
        {
            "positions": [
                -1.0952077554168747,
                -1.1220246554650708,
                2.0193083361928714,
                -0.8559753972642168,
                0.4759566250798843,
                -3.1240929996934557
            ]
        },
        {
            "positions": [
                -1.1914424483095203,
                -1.1710937575488702,
                2.008382816369253,
                -0.8002017844284132,
                0.640793996302368,
                -3.1235244406553844
            ]
        },
        {
            "positions": [
                -1.287677141202166,
                -1.22016285963267,
                1.9974572965456352,
                -0.7444281715926095,
                0.8056313675248516,
                -3.122955881617313
            ]
        },
        {
            "positions": [
                -1.3839118340948113,
                -1.2692319617164693,
                1.9865317767220172,
                -0.6886545587568059,
                0.9704687387473354,
                -3.122387322579242
            ]
        },
        {
            "positions": [
                -1.480146526987457,
                -1.3183010638002688,
                1.9756062568983992,
                -0.6328809459210023,
                1.135306109969819,
                -3.1218187635411705
            ]
        },
        {
            "positions": [
                -1.5763812198801026,
                -1.3673701658840685,
                1.964680737074781,
                -0.5771073330851987,
                1.3001434811923027,
                -3.121250204503099
            ]
        },
        {
            "positions": [
                -1.6726159127727482,
                -1.416439267967868,
                1.953755217251163,
                -0.5213337202493951,
                1.4649808524147865,
                -3.120681645465028
            ]
        }
    ]
}