{
    "goal": {
        "global_pose": {
            "orientation": {
                "w": 0.005598929693374612,
                "x": 0.007748599140229565,
                "y": 0.7110244013736278,
                "z": -0.7031023480610252
            },
            "position": {
                "x": -0.8858502320852131,
                "y": -0.7141253447532654,
                "z": 0.3711530566215515
            }
        },
        "name": "move_to_auspresseinheit_C"
    },
    "id": "SPARS_move_to_auspresseinheit_C_109",
    "joint_names": [
        "shoulder_pan_joint",
        "shoulder_lift_joint",
        "elbow_joint",
        "wrist_1_joint",
        "wrist_2_joint",
        "wrist_3_joint"
    ],
    "metrics": {
        "cart_traj_len": 0.49371375753094987,
        "distance_elbow_joint": 1.0090695337076356,
        "distance_shoulder_lift_joint": 0.3287154738042487,
        "distance_shoulder_pan_joint": 0.2555091971488159,
        "distance_wrist_1_joint": 0.6908471616954502,
        "distance_wrist_2_joint": 1.3179866758825234,
        "distance_wrist_3_joint": 0.07518593941997676,
        "smoothness": 6.45947944157498e-16,
        "time": 5.021840468,
        "traj_len": 1.917632389604079,
        "weighted_distance": 2.4158890078140134
    },
    "planner": "SPARS",
    "start": {
        "state": {
            "elbow_joint": 1.7527959577737207,
            "shoulder_lift_joint": -0.9740617694225068,
            "shoulder_pan_joint": -2.967991417825858,
            "wrist_1_joint": -0.759517768980727,
            "wrist_2_joint": 1.7443932448377408,
            "wrist_3_joint": -3.0840537646736568
        }
    },
    "waypoints": [
        {
            "positions": [
                -2.967991417825858,
                -0.9740617694225068,
                1.7527959577737207,
                -0.759517768980727,
                1.7443932448377408,
                -3.0840537646736568
            ]
        },
        {
            "positions": [
                -2.9424404981109764,
                -0.9411902220420819,
                1.651889004402957,
                -0.690433052811182,
                1.6125945772494885,
                -3.0915723586156543
            ]
        },
        {
            "positions": [
                -2.916889578396095,
                -0.908318674661657,
                1.5509820510321934,
                -0.6213483366416369,
                1.4807959096612362,
                -3.099090952557652
            ]
        },
        {
            "positions": [
                -2.8913386586812133,
                -0.8754471272812322,
                1.45007509766143,
                -0.5522636204720919,
                1.3489972420729839,
                -3.1066095464996497
            ]
        },
        {
            "positions": [
                -2.8657877389663318,
                -0.8425755799008072,
                1.3491681442906664,
                -0.4831789043025469,
                1.2171985744847316,
                -3.1141281404416477
            ]
        },
        {
            "positions": [
                -2.8402368192514498,
                -0.8097040325203824,
                1.2482611909199028,
                -0.41409418813300186,
                1.085399906896479,
                -3.121646734383645
            ]
        },
        {
            "positions": [
                -2.8146858995365682,
                -0.7768324851399575,
                1.1473542375491395,
                -0.3450094719634568,
                0.9536012393082268,
                -3.1291653283256426
            ]
        },
        {
            "positions": [
                -2.7891349798216867,
                -0.7439609377595326,
                1.0464472841783756,
                -0.27592475579391185,
                0.8218025717199745,
                -3.1366839222676406
            ]
        },
        {
            "positions": [
                -2.763584060106805,
                -0.7110893903791078,
                0.9455403308076121,
                -0.2068400396243668,
                0.6900039041317221,
                -3.144202516209638
            ]
        },
        {
            "positions": [
                -2.7380331403919236,
                -0.6782178429986829,
                0.8446333774368485,
                -0.13775532345482178,
                0.5582052365434698,
                -3.151721110151636
            ]
        },
        {
            "positions": [
                -2.712482220677042,
                -0.6453462956182581,
                0.743726424066085,
                -0.0686706072852767,
                0.42640656895521745,
                -3.1592397040936335
            ]
        }
    ]
}