{
    "goal": {
        "global_pose": {
            "orientation": {
                "w": 0.7031023480610252,
                "x": -0.7110244013736278,
                "y": 0.0077485991402295624,
                "z": 0.005598929693374583
            },
            "position": {
                "x": -0.8841497679147869,
                "y": 0.44412534475326537,
                "z": 0.3711530566215515
            }
        },
        "name": "move_to_auspresseinheit_D"
    },
    "id": "SPARStwo_move_to_auspresseinheit_D_107",
    "joint_names": [
        "shoulder_pan_joint",
        "shoulder_lift_joint",
        "elbow_joint",
        "wrist_1_joint",
        "wrist_2_joint",
        "wrist_3_joint"
    ],
    "metrics": {
        "cart_traj_len": 0.3427685003939743,
        "distance_elbow_joint": 0.6351950289456452,
        "distance_shoulder_lift_joint": 0.1203644967541937,
        "distance_shoulder_pan_joint": 0.13387044915428914,
        "distance_wrist_1_joint": 0.5130688696788601,
        "distance_wrist_2_joint": 1.4432618992003778,
        "distance_wrist_3_joint": 0.014928675844504635,
        "smoothness": 0.0,
        "time": 5.0241136619999995,
        "traj_len": 1.6913572714178013,
        "weighted_distance": 2.201562522424952
    },
    "planner": "SPARStwo",
    "start": {
        "state": {
            "elbow_joint": -1.8275523626775212,
            "shoulder_lift_joint": -2.126789852344167,
            "shoulder_pan_joint": -0.03513704404078235,
            "wrist_1_joint": -2.347782403156801,
            "wrist_2_joint": -1.6058999987535132,
            "wrist_3_joint": -3.0880379163319196
        }
    },
    "waypoints": [
        {
            "positions": [
                -0.03513704404078235,
                -2.126789852344167,
                -1.8275523626775212,
                -2.347782403156801,
                -1.6058999987535132,
                -3.0880379163319196
            ]
        },
        {
            "positions": [
                -0.05187085018506849,
                -2.1418354144384413,
                -1.7481529840593155,
                -2.4119160118666585,
                -1.425492261353466,
                -3.0899040008124827
            ]
        },
        {
            "positions": [
                -0.06860465632935464,
                -2.1568809765327153,
                -1.6687536054411098,
                -2.476049620576516,
                -1.2450845239534187,
                -3.091770085293046
            ]
        },
        {
            "positions": [
                -0.08533846247364077,
                -2.1719265386269893,
                -1.5893542268229042,
                -2.5401832292863733,
                -1.0646767865533715,
                -3.093636169773609
            ]
        },
        {
            "positions": [
                -0.10207226861792693,
                -2.1869721007212637,
                -1.5099548482046985,
                -2.604316837996231,
                -0.8842690491533243,
                -3.095502254254172
            ]
        },
        {
            "positions": [
                -0.11880607476221305,
                -2.202017662815538,
                -1.4305554695864928,
                -2.6684504467060886,
                -0.703861311753277,
                -3.097368338734735
            ]
        },
        {
            "positions": [
                -0.1355398809064992,
                -2.217063224909812,
                -1.3511560909682874,
                -2.7325840554159457,
                -0.5234535743532298,
                -3.099234423215298
            ]
        },
        {
            "positions": [
                -0.15227368705078534,
                -2.232108787004086,
                -1.2717567123500817,
                -2.7967176641258034,
                -0.3430458369531826,
                -3.101100507695861
            ]
        },
        {
            "positions": [
                -0.1690074931950715,
                -2.2471543490983605,
                -1.192357333731876,
                -2.860851272835661,
                -0.16263809955313527,
                -3.1029665921764242
            ]
        }
    ]
}