{
    "goal": {
        "global_pose": {
            "orientation": {
                "w": 0.5084816262002911,
                "x": -0.4908360881923452,
                "y": 0.5182115481033761,
                "z": -0.48164630358495003
            },
            "position": {
                "x": 0.5540239810943604,
                "y": -0.46912469901144505,
                "z": 0.16403168439865112
            }
        },
        "name": "move_to_storage_B"
    },
    "id": "SPARS_move_to_storage_B_13",
    "joint_names": [
        "shoulder_pan_joint",
        "shoulder_lift_joint",
        "elbow_joint",
        "wrist_1_joint",
        "wrist_2_joint",
        "wrist_3_joint"
    ],
    "metrics": {
        "cart_traj_len": 0.6866882009885931,
        "distance_elbow_joint": 0.48719880444933406,
        "distance_shoulder_lift_joint": 0.46039323218965755,
        "distance_shoulder_pan_joint": 0.3779901013197161,
        "distance_wrist_1_joint": 2.981246085877256,
        "distance_wrist_2_joint": 2.7193020678448265,
        "distance_wrist_3_joint": 3.206260011248042,
        "smoothness": 0.19810257804589565,
        "time": 5.084321125,
        "traj_len": 3.198810763850971,
        "weighted_distance": 4.727098314944063
    },
    "planner": "SPARS",
    "start": {
        "state": {
            "elbow_joint": 1.664937868594044,
            "shoulder_lift_joint": -0.661644460510453,
            "shoulder_pan_joint": -0.9139846352900073,
            "wrist_1_joint": 2.146753192139373,
            "wrist_2_joint": -2.2341966793290973,
            "wrist_3_joint": 0.005466555786416001
        }
    },
    "waypoints": [
        {
            "positions": [
                -0.9139846352900073,
                -0.661644460510453,
                1.664937868594044,
                2.146753192139373,
                -2.2341966793290973,
                0.005466555786416001
            ]
        },
        {
            "positions": [
                -0.8156952702220936,
                -0.7045582147887761,
                1.5969216079806443,
                2.0948954430933804,
                -2.168046126939024,
                0.03876498810231489
            ]
        },
        {
            "positions": [
                -0.8268832996721658,
                -0.7212573939052295,
                1.6136889097340816,
                1.97771990962013,
                -2.061920066320834,
                -0.08815347505497086
            ]
        },
        {
            "positions": [
                -0.8380713291222378,
                -0.7379565730216828,
                1.630456211487519,
                1.8605443761468794,
                -1.9557940057026437,
                -0.21507193821225662
            ]
        },
        {
            "positions": [
                -0.8492593585723099,
                -0.7546557521381363,
                1.6472235132409565,
                1.743368842673629,
                -1.8496679450844538,
                -0.34199040136954234
            ]
        },
        {
            "positions": [
                -0.8604473880223821,
                -0.7713549312545896,
                1.6639908149943938,
                1.6261933092003784,
                -1.7435418844662636,
                -0.4689088645268281
            ]
        },
        {
            "positions": [
                -0.8716354174724541,
                -0.788054110371043,
                1.6807581167478312,
                1.509017775727128,
                -1.6374158238480734,
                -0.5958273276841138
            ]
        },
        {
            "positions": [
                -0.8828234469225262,
                -0.8047532894874964,
                1.6975254185012685,
                1.3918422422538774,
                -1.5312897632298834,
                -0.7227457908413996
            ]
        },
        {
            "positions": [
                -0.8940114763725984,
                -0.8214524686039497,
                1.714292720254706,
                1.2746667087806267,
                -1.4251637026116932,
                -0.8496642539986854
            ]
        },
        {
            "positions": [
                -0.9051995058226705,
                -0.8381516477204032,
                1.7310600220081434,
                1.1574911753073764,
                -1.319037641993503,
                -0.9765827171559711
            ]
        },
        {
            "positions": [
                -0.9163875352727425,
                -0.8548508268368565,
                1.7478273237615807,
                1.0403156418341257,
                -1.2129115813753129,
                -1.1035011803132568
            ]
        },
        {
            "positions": [
                -0.9275755647228147,
                -0.8715500059533099,
                1.7645946255150182,
                0.9231401083608752,
                -1.1067855207571227,
                -1.2304196434705426
            ]
        },
        {
            "positions": [
                -0.9387635941728867,
                -0.8882491850697632,
                1.7813619272684555,
                0.8059645748876247,
                -1.0006594601389327,
                -1.3573381066278283
            ]
        },
        {
            "positions": [
                -0.9499516236229588,
                -0.9049483641862166,
                1.7981292290218929,
                0.6887890414143742,
                -0.8945333995207425,
                -1.484256569785114
            ]
        },
        {
            "positions": [
                -0.961139653073031,
                -0.9216475433026701,
                1.8148965307753302,
                0.5716135079411238,
                -0.7884073389025523,
                -1.6111750329423997
            ]
        },
        {
            "positions": [
                -0.9723276825231031,
                -0.9383467224191234,
                1.8316638325287675,
                0.45443797446787304,
                -0.6822812782843621,
                -1.7380934960996857
            ]
        },
        {
            "positions": [
                -0.9835157119731751,
                -0.9550459015355768,
                1.848431134282205,
                0.33726244099462277,
                -0.5761552176661722,
                -1.8650119592569712
            ]
        },
        {
            "positions": [
                -0.9947037414232472,
                -0.9717450806520302,
                1.8651984360356424,
                0.22008690752137228,
                -0.470029157047982,
                -1.991930422414257
            ]
        },
        {
            "positions": [
                -1.0058917708733193,
                -0.9884442597684835,
                1.8819657377890797,
                0.10291137404812156,
                -0.3639030964297916,
                -2.1188488855715426
            ]
        },
        {
            "positions": [
                -1.0170798003233914,
                -1.005143438884937,
                1.898733039542517,
                -0.01426415942512893,
                -0.25777703581160183,
                -2.2457673487288283
            ]
        },
        {
            "positions": [
                -1.0282678297734635,
                -1.0218426180013904,
                1.9155003412959544,
                -0.13143969289837942,
                -0.15165097519341142,
                -2.372685811886114
            ]
        },
        {
            "positions": [
                -1.0394558592235357,
                -1.0385417971178437,
                1.932267643049392,
                -0.24861522637162992,
                -0.04552491457522123,
                -2.4996042750433998
            ]
        },
        {
            "positions": [
                -1.0506438886736078,
                -1.055240976234297,
                1.9490349448028292,
                -0.3657907598448804,
                0.06060114604296851,
                -2.6265227382006855
            ]
        },
        {
            "positions": [
                -1.06183191812368,
                -1.0719401553507504,
                1.9658022465562666,
                -0.4829662933181309,
                0.1667272066611587,
                -2.753441201357971
            ]
        },
        {
            "positions": [
                -1.0730199475737519,
                -1.0886393344672038,
                1.982569548309704,
                -0.6001418267913814,
                0.2728532672793489,
                -2.880359664515257
            ]
        },
        {
            "positions": [
                -1.084207977023824,
                -1.105338513583657,
                1.9993368500631414,
                -0.7173173602646319,
                0.3789793278975391,
                -3.0072781276725427
            ]
        },
        {
            "positions": [
                -1.0953960064738961,
                -1.1220376927001106,
                2.0161041518165788,
                -0.8344928937378826,
                0.4851053885157294,
                -3.1341965908298284
            ]
        }
    ]
}