{
    "goal": {
        "global_pose": {
            "orientation": {
                "w": -0.00223480608172531,
                "x": 0.0024358444001904467,
                "y": 0.7094548369677653,
                "z": -0.704743149386269
            },
            "position": {
                "x": 0.6205249238014221,
                "y": -0.6371506643295288,
                "z": 0.19426114857196808
            }
        },
        "name": "move_to_magneteinheit_B"
    },
    "id": "SPARS_move_to_magneteinheit_B_7",
    "joint_names": [
        "shoulder_pan_joint",
        "shoulder_lift_joint",
        "elbow_joint",
        "wrist_1_joint",
        "wrist_2_joint",
        "wrist_3_joint"
    ],
    "metrics": {
        "cart_traj_len": 3.272325807117296,
        "distance_elbow_joint": 4.467129484465077,
        "distance_shoulder_lift_joint": 1.107963490339785,
        "distance_shoulder_pan_joint": 2.608404655694093,
        "distance_wrist_1_joint": 5.336617111086552,
        "distance_wrist_2_joint": 1.1929786100480473,
        "distance_wrist_3_joint": 2.1980109227993108,
        "smoothness": 0.4963880817053909,
        "time": 5.075241767,
        "traj_len": 4.112311305632498,
        "weighted_distance": 5.2760517284391835
    },
    "planner": "SPARS",
    "start": {
        "state": {
            "elbow_joint": 2.6216224122426386,
            "shoulder_lift_joint": -1.4174107377796124,
            "shoulder_pan_joint": 0.7066234856936794,
            "wrist_1_joint": 1.9546482284002225,
            "wrist_2_joint": -0.7096286983471962,
            "wrist_3_joint": 0.005740856962016249
        }
    },
    "waypoints": [
        {
            "positions": [
                0.7066234856936794,
                -1.4174107377796124,
                2.6216224122426386,
                1.9546482284002225,
                -0.7096286983471962,
                0.005740856962016249
            ]
        },
        {
            "positions": [
                0.6466448164201556,
                -1.5119334750715425,
                2.617921915695308,
                2.013831698654893,
                -0.650704043587847,
                -0.09071115935575909
            ]
        },
        {
            "positions": [
                0.5866661471466319,
                -1.606456212363473,
                2.6142214191479773,
                2.0730151689095635,
                -0.5917793888284978,
                -0.1871631756735344
            ]
        },
        {
            "positions": [
                0.5266874778731081,
                -1.700978949655403,
                2.6105209226006467,
                2.1321986391642342,
                -0.5328547340691485,
                -0.28361519199130975
            ]
        },
        {
            "positions": [
                0.5148277933369915,
                -1.7463237461577645,
                2.5368838262228284,
                2.1023376073430184,
                -0.46518563821318765,
                -0.3491063516092343
            ]
        },
        {
            "positions": [
                0.5029681088008747,
                -1.7916685426601258,
                2.46324672984501,
                2.072476575521803,
                -0.3975165423572268,
                -0.41459751122715893
            ]
        },
        {
            "positions": [
                0.4911084242647581,
                -1.8370133391624872,
                2.3896096334671917,
                2.0426155437005873,
                -0.32984744650126585,
                -0.48008867084508355
            ]
        },
        {
            "positions": [
                0.571711594933732,
                -1.836116027377448,
                2.2414108759467495,
                1.9329984266807263,
                -0.3233173673391091,
                -0.440257206238999
            ]
        },
        {
            "positions": [
                0.6523147656027061,
                -1.835218715592409,
                2.0932121184263077,
                1.823381309660865,
                -0.31678728817695234,
                -0.40042574163291444
            ]
        },
        {
            "positions": [
                0.73291793627168,
                -1.8343214038073696,
                1.9450133609058655,
                1.713764192641004,
                -0.3102572090147956,
                -0.3605942770268299
            ]
        },
        {
            "positions": [
                0.813521106940654,
                -1.8334240920223306,
                1.7968146033854233,
                1.6041470756211431,
                -0.3037271298526388,
                -0.32076281242074534
            ]
        },
        {
            "positions": [
                0.894124277609628,
                -1.8325267802372913,
                1.6486158458649813,
                1.494529958601282,
                -0.297197050690482,
                -0.2809313478146607
            ]
        },
        {
            "positions": [
                0.9747274482786019,
                -1.8316294684522523,
                1.5004170883445394,
                1.384912841581421,
                -0.29066697152832527,
                -0.2410998832085762
            ]
        },
        {
            "positions": [
                1.055330618947576,
                -1.830732156667213,
                1.3522183308240971,
                1.27529572456156,
                -0.2841368923661685,
                -0.20126841860249162
            ]
        },
        {
            "positions": [
                1.13593378961655,
                -1.8298348448821737,
                1.2040195733036552,
                1.165678607541699,
                -0.27760681320401176,
                -0.16143695399640706
            ]
        },
        {
            "positions": [
                1.216536960285524,
                -1.8289375330971347,
                1.055820815783213,
                1.0560614905218375,
                -0.27107673404185495,
                -0.12160548939032245
            ]
        },
        {
            "positions": [
                1.2971401309544979,
                -1.8280402213120954,
                0.907622058262771,
                0.9464443735019765,
                -0.2645466548796982,
                -0.0817740247842379
            ]
        },
        {
            "positions": [
                1.377743301623472,
                -1.8271429095270564,
                0.7594233007423288,
                0.8368272564821155,
                -0.25801657571754144,
                -0.0419425601781534
            ]
        },
        {
            "positions": [
                1.4583464722924457,
                -1.8262455977420171,
                0.6112245432218868,
                0.7272101394622545,
                -0.2514864965553847,
                -0.002111095572068844
            ]
        },
        {
            "positions": [
                1.5389496429614198,
                -1.825348285956978,
                0.4630257857014446,
                0.6175930224423933,
                -0.24495641739322793,
                0.037720369034015766
            ]
        },
        {
            "positions": [
                1.6195528136303938,
                -1.8244509741719388,
                0.3148270281810026,
                0.5079759054225323,
                -0.23842633823107115,
                0.07755183364010032
            ]
        },
        {
            "positions": [
                1.7001559842993679,
                -1.8235536623868995,
                0.1666282706605604,
                0.39835878840267136,
                -0.23189625906891437,
                0.11738329824618488
            ]
        },
        {
            "positions": [
                1.7807591549683417,
                -1.8226563506018605,
                0.018429513140118647,
                0.28874167138281037,
                -0.2253661799067576,
                0.15721476285226943
            ]
        },
        {
            "positions": [
                1.8613623256373157,
                -1.8217590388168212,
                -0.12976924438032356,
                0.17912455436294938,
                -0.21883610074460086,
                0.19704622745835398
            ]
        },
        {
            "positions": [
                1.9419654963062898,
                -1.8208617270317822,
                -0.27796800190076576,
                0.06950743734308795,
                -0.2123060215824441,
                0.23687769206443865
            ]
        },
        {
            "positions": [
                2.022568666975264,
                -1.819964415246743,
                -0.42616675942120796,
                -0.04010967967677326,
                -0.20577594242028732,
                0.2767091566705232
            ]
        },
        {
            "positions": [
                2.1031718376442377,
                -1.8190671034617039,
                -0.5743655169416497,
                -0.14972679669663425,
                -0.19924586325813057,
                0.31654062127660776
            ]
        },
        {
            "positions": [
                2.1837750083132117,
                -1.8181697916766646,
                -0.7225642744620919,
                -0.25934391371649523,
                -0.19271578409597379,
                0.3563720858826922
            ]
        },
        {
            "positions": [
                2.2643781789821857,
                -1.8172724798916253,
                -0.8707630319825341,
                -0.3689610307363562,
                -0.18618570493381703,
                0.39620355048877676
            ]
        },
        {
            "positions": [
                2.3449813496511593,
                -1.8163751681065863,
                -1.018961789502976,
                -0.4785781477562172,
                -0.17965562577166028,
                0.4360350150948613
            ]
        },
        {
            "positions": [
                2.4255845203201334,
                -1.815477856321547,
                -1.167160547023418,
                -0.5881952647760782,
                -0.17312554660950352,
                0.47586647970094587
            ]
        },
        {
            "positions": [
                2.506187690989108,
                -1.814580544536508,
                -1.3153593045438603,
                -0.6978123817959396,
                -0.16659546744734674,
                0.5156979443070305
            ]
        },
        {
            "positions": [
                2.5867908616580815,
                -1.8136832327514687,
                -1.4635580620643025,
                -0.8074294988158006,
                -0.16006538828518999,
                0.5555294089131151
            ]
        },
        {
            "positions": [
                2.6673940323270555,
                -1.8127859209664297,
                -1.6117568195847447,
                -0.9170466158356616,
                -0.1535353091230332,
                0.5953608735191998
            ]
        },
        {
            "positions": [
                2.7479972029960296,
                -1.8118886091813904,
                -1.7599555771051865,
                -1.0266637328555226,
                -0.14700522996087645,
                0.6351923381252842
            ]
        },
        {
            "positions": [
                2.7527120494510773,
                -1.8768667473999123,
                -1.7561426701160368,
                -0.8351301276145299,
                -0.09262732129189777,
                0.5944561675262987
            ]
        },
        {
            "positions": [
                2.757426895906125,
                -1.9418448856184345,
                -1.752329763126887,
                -0.6435965223735371,
                -0.03824941262291909,
                0.5537199969273132
            ]
        },
        {
            "positions": [
                2.7621417423611723,
                -2.0068230238369567,
                -1.7485168561377373,
                -0.45206291713254443,
                0.016128496046059593,
                0.5129838263283278
            ]
        },
        {
            "positions": [
                2.76685658881622,
                -2.0718011620554786,
                -1.7447039491485876,
                -0.2605293118915516,
                0.07050640471503827,
                0.47224765572934235
            ]
        },
        {
            "positions": [
                2.7715714352712677,
                -2.1367793002740005,
                -1.740891042159438,
                -0.06899570665055887,
                0.12488431338401694,
                0.43151148513035686
            ]
        },
        {
            "positions": [
                2.752833671394824,
                -2.1931702115878675,
                -1.7298098821308538,
                0.10476034369907788,
                0.18462857977015598,
                0.3659748962925377
            ]
        },
        {
            "positions": [
                2.7340959075183804,
                -2.249561122901735,
                -1.7187287221022696,
                0.27851639404871464,
                0.244372846156295,
                0.30043830745471856
            ]
        },
        {
            "positions": [
                2.7153581436419367,
                -2.3059520342156024,
                -1.7076475620736855,
                0.45227244439835146,
                0.30411711254243406,
                0.2349017186168994
            ]
        },
        {
            "positions": [
                2.696620379765493,
                -2.3623429455294693,
                -1.6965664020451015,
                0.6260284947479882,
                0.3638613789285731,
                0.16936512977908025
            ]
        },
        {
            "positions": [
                2.6778826158890494,
                -2.4187338568433363,
                -1.6854852420165172,
                0.7997845450976251,
                0.4236056453147122,
                0.1038285409412611
            ]
        },
        {
            "positions": [
                2.6591448520126058,
                -2.4751247681572037,
                -1.6744040819879331,
                0.9735405954472619,
                0.48334991170085123,
                0.03829195210344193
            ]
        }
    ]
}