{
    "goal": {
        "global_pose": {
            "orientation": {
                "w": 0.7031023480610252,
                "x": -0.7110244013736278,
                "y": 0.0077485991402295624,
                "z": 0.005598929693374583
            },
            "position": {
                "x": -0.8841497679147869,
                "y": 0.44412534475326537,
                "z": 0.3711530566215515
            }
        },
        "name": "move_to_auspresseinheit_D"
    },
    "id": "SPARS_move_to_auspresseinheit_D_134",
    "joint_names": [
        "shoulder_pan_joint",
        "shoulder_lift_joint",
        "elbow_joint",
        "wrist_1_joint",
        "wrist_2_joint",
        "wrist_3_joint"
    ],
    "metrics": {
        "cart_traj_len": 0.3425535142235118,
        "distance_elbow_joint": 0.6323183851292888,
        "distance_shoulder_lift_joint": 0.11784958689284553,
        "distance_shoulder_pan_joint": 0.13300004737955898,
        "distance_wrist_1_joint": 0.5067994893785497,
        "distance_wrist_2_joint": 1.4506482393206483,
        "distance_wrist_3_joint": 0.021600124249497643,
        "smoothness": 1.9737298371844314e-16,
        "time": 5.018037155,
        "traj_len": 1.6918084620755356,
        "weighted_distance": 2.2051902071133416
    },
    "planner": "SPARS",
    "start": {
        "state": {
            "elbow_joint": -1.8275523626775212,
            "shoulder_lift_joint": -2.126789852344167,
            "shoulder_pan_joint": -0.03513704404078235,
            "wrist_1_joint": -2.347782403156801,
            "wrist_2_joint": -1.6058999987535132,
            "wrist_3_joint": -3.0880379163319196
        }
    },
    "waypoints": [
        {
            "positions": [
                -0.03513704404078235,
                -2.126789852344167,
                -1.8275523626775212,
                -2.347782403156801,
                -1.6058999987535132,
                -3.0880379163319196
            ]
        },
        {
            "positions": [
                -0.051762049963227225,
                -2.1415210507057725,
                -1.7485125645363602,
                -2.4111323393291197,
                -1.4245689688384322,
                -3.090737931863107
            ]
        },
        {
            "positions": [
                -0.0683870558856721,
                -2.156252249067378,
                -1.669472766395199,
                -2.474482275501438,
                -1.2432379389233512,
                -3.093437947394294
            ]
        },
        {
            "positions": [
                -0.08501206180811696,
                -2.1709834474289837,
                -1.590432968254038,
                -2.537832211673757,
                -1.06190690900827,
                -3.0961379629254813
            ]
        },
        {
            "positions": [
                -0.10163706773056183,
                -2.18571464579059,
                -1.5113931701128767,
                -2.6011821478460755,
                -0.880575879093189,
                -3.098837978456668
            ]
        },
        {
            "positions": [
                -0.1182620736530067,
                -2.2004458441521955,
                -1.4323533719717156,
                -2.6645320840183944,
                -0.699244849178108,
                -3.1015379939878556
            ]
        },
        {
            "positions": [
                -0.1348870795754516,
                -2.215177042513801,
                -1.3533135738305546,
                -2.7278820201907132,
                -0.5179138192630268,
                -3.104238009519043
            ]
        },
        {
            "positions": [
                -0.15151208549789646,
                -2.2299082408754067,
                -1.2742737756893936,
                -2.7912319563630317,
                -0.33658278934794583,
                -3.10693802505023
            ]
        },
        {
            "positions": [
                -0.16813709142034133,
                -2.2446394392370124,
                -1.1952339775482324,
                -2.8545818925353506,
                -0.15525175943286476,
                -3.1096380405814172
            ]
        }
    ]
}