{
    "goal": {
        "global_pose": {
            "orientation": {
                "w": 0.7031023502349854,
                "x": -0.7110244035720825,
                "y": 0.007748599164187908,
                "z": 0.005598929710686207
            },
            "position": {
                "x": 0.11585023208521307,
                "y": 0.44412534475326537,
                "z": 0.3711530566215515
            }
        },
        "name": "move_to_auspresseinheit_A"
    },
    "id": "SPARS_move_to_auspresseinheit_A_77",
    "joint_names": [
        "shoulder_pan_joint",
        "shoulder_lift_joint",
        "elbow_joint",
        "wrist_1_joint",
        "wrist_2_joint",
        "wrist_3_joint"
    ],
    "metrics": {
        "cart_traj_len": 1.825376303508096,
        "distance_elbow_joint": 1.2820418288760336,
        "distance_shoulder_lift_joint": 1.4611029732378165,
        "distance_shoulder_pan_joint": 1.189940358793446,
        "distance_wrist_1_joint": 2.909363227149731,
        "distance_wrist_2_joint": 1.1610314052815478,
        "distance_wrist_3_joint": 6.192508714319299,
        "smoothness": 0.6381302843820473,
        "time": 5.053244222,
        "traj_len": 3.7677564289186574,
        "weighted_distance": 5.536370703694591
    },
    "planner": "SPARS",
    "start": {
        "state": {
            "elbow_joint": 2.4225746658250005,
            "shoulder_lift_joint": -1.3736534386056498,
            "shoulder_pan_joint": -0.3378633547517467,
            "wrist_1_joint": -1.0288598680537169,
            "wrist_2_joint": 1.233022673432363,
            "wrist_3_joint": -3.0940220416140027
        }
    },
    "waypoints": [
        {
            "positions": [
                -0.3378633547517467,
                -1.3736534386056498,
                2.4225746658250005,
                -1.0288598680537169,
                1.233022673432363,
                -3.0940220416140027
            ]
        },
        {
            "positions": [
                -0.3153217320172522,
                -1.3861716739701901,
                2.362852379323746,
                -0.9244808742517435,
                1.1714007885930253,
                -2.961458337577253
            ]
        },
        {
            "positions": [
                -0.29278010928275777,
                -1.3986899093347307,
                2.303130092822491,
                -0.8201018804497703,
                1.1097789037536876,
                -2.8288946335405036
            ]
        },
        {
            "positions": [
                -0.2702384865482633,
                -1.411208144699271,
                2.2434078063212364,
                -0.7157228866477969,
                1.0481570189143499,
                -2.696330929503754
            ]
        },
        {
            "positions": [
                -0.24769686381376882,
                -1.4237263800638116,
                2.1836855198199814,
                -0.6113438928458237,
                0.9865351340750121,
                -2.5637672254670045
            ]
        },
        {
            "positions": [
                -0.22515524107927434,
                -1.436244615428352,
                2.123963233318727,
                -0.5069648990438503,
                0.9249132492356744,
                -2.431203521430255
            ]
        },
        {
            "positions": [
                -0.20261361834477987,
                -1.4487628507928925,
                2.0642409468174723,
                -0.4025859052418771,
                0.8632913643963367,
                -2.2986398173935054
            ]
        },
        {
            "positions": [
                -0.1800719956102854,
                -1.4612810861574328,
                2.0045186603162177,
                -0.29820691143990374,
                0.801669479556999,
                -2.166076113356756
            ]
        },
        {
            "positions": [
                -0.15753037287579091,
                -1.4737993215219733,
                1.9447963738149627,
                -0.1938279176379304,
                0.7400475947176612,
                -2.0335124093200063
            ]
        },
        {
            "positions": [
                -0.13498875014129644,
                -1.4863175568865137,
                1.8850740873137082,
                -0.08944892383595715,
                0.6784257098783235,
                -1.9009487052832568
            ]
        },
        {
            "positions": [
                -0.11244712740680196,
                -1.4988357922510542,
                1.8253518008124534,
                0.014930069966016202,
                0.6168038250389858,
                -1.7683850012465072
            ]
        },
        {
            "positions": [
                -0.08990550467230748,
                -1.5113540276155946,
                1.7656295143111986,
                0.11930906376798947,
                0.5551819401996481,
                -1.6358212972097577
            ]
        },
        {
            "positions": [
                -0.010918680636243766,
                -1.5894717916156114,
                1.7736138498939136,
                0.17284635342525934,
                0.5398071803777266,
                -1.4884639880285686
            ]
        },
        {
            "positions": [
                0.06806814339981995,
                -1.6675895556156282,
                1.7815981854766287,
                0.22638364308252917,
                0.5244324205558051,
                -1.3411066788473793
            ]
        },
        {
            "positions": [
                0.14705496743588364,
                -1.745707319615645,
                1.7895825210593437,
                0.279920932739799,
                0.5090576607338836,
                -1.1937493696661903
            ]
        },
        {
            "positions": [
                0.2260417914719474,
                -1.823825083615662,
                1.7975668566420586,
                0.3334582223970689,
                0.4936829009119621,
                -1.046392060485001
            ]
        },
        {
            "positions": [
                0.3050286155080111,
                -1.9019428476156788,
                1.8055511922247738,
                0.3869955120543387,
                0.4783081410900406,
                -0.8990347513038119
            ]
        },
        {
            "positions": [
                0.3840154395440748,
                -1.9800606116156956,
                1.8135355278074887,
                0.4405328017116086,
                0.4629333812681191,
                -0.7516774421226228
            ]
        },
        {
            "positions": [
                0.4630022635801385,
                -2.0581783756157126,
                1.8215198633902039,
                0.4940700913688785,
                0.4475586214461976,
                -0.6043201329414336
            ]
        },
        {
            "positions": [
                0.5419890876162022,
                -2.1362961396157294,
                1.8295041989729188,
                0.5476073810261483,
                0.43218386162427613,
                -0.45696282376024433
            ]
        },
        {
            "positions": [
                0.620975911652266,
                -2.214413903615746,
                1.8374885345556338,
                0.6011446706834181,
                0.41680910180235464,
                -0.3096055145790553
            ]
        },
        {
            "positions": [
                0.6999627356883297,
                -2.292531667615763,
                1.845472870138349,
                0.6546819603406879,
                0.40143434198043315,
                -0.16224820539786622
            ]
        },
        {
            "positions": [
                0.7789495597243934,
                -2.37064943161578,
                1.8534572057210639,
                0.7082192499979578,
                0.38605958215851166,
                -0.0148908962166769
            ]
        },
        {
            "positions": [
                0.7767500835673871,
                -2.3417735213898863,
                1.8950500366132499,
                0.6274845263392662,
                0.4066173233315446,
                -0.21962783230948085
            ]
        },
        {
            "positions": [
                0.7745506074103807,
                -2.3128976111639927,
                1.936642867505436,
                0.5467498026805745,
                0.4271750645045775,
                -0.4243647684022848
            ]
        },
        {
            "positions": [
                0.7723511312533744,
                -2.2840217009380996,
                1.9782356983976217,
                0.4660150790218829,
                0.4477328056776104,
                -0.6291017044950888
            ]
        },
        {
            "positions": [
                0.7701516550963681,
                -2.255145790712206,
                2.019828529289808,
                0.3852803553631912,
                0.4682905468506433,
                -0.8338386405878928
            ]
        },
        {
            "positions": [
                0.7679521789393617,
                -2.2262698804863126,
                2.0614213601819937,
                0.3045456317044996,
                0.48884828802367625,
                -1.0385755766806968
            ]
        },
        {
            "positions": [
                0.7657527027823554,
                -2.197393970260419,
                2.1030141910741795,
                0.223810908045808,
                0.5094060291967092,
                -1.2433125127735007
            ]
        },
        {
            "positions": [
                0.7635532266253491,
                -2.1685180600345255,
                2.1446070219663658,
                0.14307618438711633,
                0.5299637703697421,
                -1.4480494488663047
            ]
        },
        {
            "positions": [
                0.7613537504683427,
                -2.1396421498086324,
                2.1861998528585516,
                0.062341460728424614,
                0.5505215115427751,
                -1.6527863849591087
            ]
        },
        {
            "positions": [
                0.7591542743113364,
                -2.110766239582739,
                2.227792683750738,
                -0.018393262930266996,
                0.571079252715808,
                -1.8575233210519126
            ]
        },
        {
            "positions": [
                0.7569547981543301,
                -2.0818903293568454,
                2.2693855146429236,
                -0.0991279865889586,
                0.5916369938888408,
                -2.0622602571447164
            ]
        },
        {
            "positions": [
                0.7467282616048816,
                -2.046820753763095,
                2.2936536500490248,
                -0.1721153610911862,
                0.6133351743443144,
                -2.275461898743503
            ]
        },
        {
            "positions": [
                0.7365017250554331,
                -2.0117511781693445,
                2.3179217854551264,
                -0.24510273559341378,
                0.6350333547997878,
                -2.4886635403422903
            ]
        },
        {
            "positions": [
                0.7262751885059845,
                -1.9766816025755942,
                2.3421899208612276,
                -0.31809011009564137,
                0.6567315352552614,
                -2.701865181941077
            ]
        },
        {
            "positions": [
                0.716048651956536,
                -1.9416120269818438,
                2.366458056267329,
                -0.39107748459786895,
                0.6784297157107348,
                -2.9150668235398642
            ]
        },
        {
            "positions": [
                0.7058221154070875,
                -1.9065424513880933,
                2.3907261916734304,
                -0.46406485910009654,
                0.7001278961662084,
                -3.128268465138651
            ]
        }
    ]
}