{
    "goal": {
        "global_pose": {
            "orientation": {
                "w": -0.00223480608172531,
                "x": 0.0024358444001904467,
                "y": 0.7094548369677653,
                "z": -0.704743149386269
            },
            "position": {
                "x": 0.6205249238014221,
                "y": -0.6371506643295288,
                "z": 0.19426114857196808
            }
        },
        "name": "move_to_magneteinheit_B"
    },
    "id": "SPARStwo_move_to_magneteinheit_B_37",
    "joint_names": [
        "shoulder_pan_joint",
        "shoulder_lift_joint",
        "elbow_joint",
        "wrist_1_joint",
        "wrist_2_joint",
        "wrist_3_joint"
    ],
    "metrics": {
        "cart_traj_len": 4.100543899616897,
        "distance_elbow_joint": 4.997138996492476,
        "distance_shoulder_lift_joint": 0.856415011435093,
        "distance_shoulder_pan_joint": 3.9753691608836967,
        "distance_wrist_1_joint": 4.4079619513513455,
        "distance_wrist_2_joint": 1.662599777810534,
        "distance_wrist_3_joint": 3.127917901866895,
        "smoothness": 0.21379177190575419,
        "time": 5.064614092999999,
        "traj_len": 4.3620411277107465,
        "weighted_distance": 5.599446430919373
    },
    "planner": "SPARStwo",
    "start": {
        "state": {
            "elbow_joint": 2.6216224122426386,
            "shoulder_lift_joint": -1.4174107377796124,
            "shoulder_pan_joint": 0.7066234856936794,
            "wrist_1_joint": 1.9546482284002225,
            "wrist_2_joint": -0.7096286983471962,
            "wrist_3_joint": 0.005740856962016249
        }
    },
    "waypoints": [
        {
            "positions": [
                0.7066234856936794,
                -1.4174107377796124,
                2.6216224122426386,
                1.9546482284002225,
                -0.7096286983471962,
                0.005740856962016249
            ]
        },
        {
            "positions": [
                0.5774802422339472,
                -1.4464243737992697,
                2.597372912536545,
                1.9596847121339085,
                -0.7139342562480333,
                0.06430707588415205
            ]
        },
        {
            "positions": [
                0.5143588478275275,
                -1.460617668582797,
                2.4672007732843224,
                1.875640732460881,
                -0.6412836805881816,
                0.0734240310635659
            ]
        },
        {
            "positions": [
                0.45123745342110777,
                -1.4748109633663242,
                2.3370286340321,
                1.7915967527878538,
                -0.5686331049283299,
                0.08254098624297976
            ]
        },
        {
            "positions": [
                0.38811605901468804,
                -1.4890042581498517,
                2.206856494779877,
                1.7075527731148266,
                -0.4959825292684782,
                0.09165794142239361
            ]
        },
        {
            "positions": [
                0.32499466460826826,
                -1.503197552933379,
                2.0766843555276546,
                1.623508793441799,
                -0.42333195360862647,
                0.10077489660180748
            ]
        },
        {
            "positions": [
                0.26187327020184853,
                -1.5173908477169062,
                1.946512216275432,
                1.5394648137687716,
                -0.35068137794877474,
                0.10989185178122134
            ]
        },
        {
            "positions": [
                0.1987518757954288,
                -1.5315841425004335,
                1.8163400770232094,
                1.4554208340957444,
                -0.278030802288923,
                0.11900880696063519
            ]
        },
        {
            "positions": [
                0.13563048138900907,
                -1.545777437283961,
                1.6861679377709868,
                1.3713768544227172,
                -0.2053802266290714,
                0.12812576214004906
            ]
        },
        {
            "positions": [
                0.07250908698258929,
                -1.5599707320674883,
                1.5559957985187642,
                1.2873328747496897,
                -0.13272965096921963,
                0.13724271731946291
            ]
        },
        {
            "positions": [
                0.00938769257616956,
                -1.5741640268510155,
                1.4258236592665416,
                1.2032888950766625,
                -0.06007907530936796,
                0.14635967249887677
            ]
        },
        {
            "positions": [
                -0.05373370183025017,
                -1.5883573216345428,
                1.295651520014319,
                1.119244915403635,
                0.012571500350483822,
                0.15547662767829062
            ]
        },
        {
            "positions": [
                -0.1168550962366699,
                -1.6025506164180703,
                1.1654793807620965,
                1.0352009357306078,
                0.08522207601033549,
                0.16459358285770448
            ]
        },
        {
            "positions": [
                -0.17997649064308963,
                -1.6167439112015975,
                1.0353072415098739,
                0.9511569560575803,
                0.15787265167018727,
                0.17371053803711833
            ]
        },
        {
            "positions": [
                -0.24309788504950938,
                -1.6309372059851248,
                0.9051351022576514,
                0.8671129763845531,
                0.23052322733003894,
                0.1828274932165322
            ]
        },
        {
            "positions": [
                -0.14289133755691824,
                -1.6292386244924761,
                0.792811285713884,
                0.7649622250659209,
                0.22116463394682212,
                0.24000708972033427
            ]
        },
        {
            "positions": [
                -0.04268479006432707,
                -1.6275400429998275,
                0.6804874691701168,
                0.6628114737472889,
                0.2118060405636053,
                0.29718668622413635
            ]
        },
        {
            "positions": [
                0.05752175742826407,
                -1.6258414615071786,
                0.5681636526263495,
                0.5606607224286567,
                0.20244744718038848,
                0.35436628272793846
            ]
        },
        {
            "positions": [
                0.15772830492085524,
                -1.6241428800145299,
                0.4558398360825822,
                0.4585099711100246,
                0.19308885379717167,
                0.4115458792317406
            ]
        },
        {
            "positions": [
                0.2579348524134464,
                -1.6224442985218812,
                0.34351601953881494,
                0.3563592197913925,
                0.18373026041395485,
                0.46872547573554263
            ]
        },
        {
            "positions": [
                0.35814139990603755,
                -1.6207457170292325,
                0.2311922029950476,
                0.25420846847276035,
                0.17437166703073803,
                0.5259050722393448
            ]
        },
        {
            "positions": [
                0.4583479473986286,
                -1.6190471355365839,
                0.1188683864512804,
                0.1520577171541284,
                0.1650130736475212,
                0.5830846687431468
            ]
        },
        {
            "positions": [
                0.5585544948912199,
                -1.617348554043935,
                0.006544569907513065,
                0.04990696583549614,
                0.1556544802643044,
                0.6402642652469489
            ]
        },
        {
            "positions": [
                0.658761042383811,
                -1.6156499725512863,
                -0.10577924663625426,
                -0.05224378548313591,
                0.14629588688108758,
                0.697443861750751
            ]
        },
        {
            "positions": [
                0.7589675898764021,
                -1.6139513910586376,
                -0.21810306318002148,
                -0.15439453680176807,
                0.13693729349787076,
                0.754623458254553
            ]
        },
        {
            "positions": [
                0.8591741373689932,
                -1.612252809565989,
                -0.3304268797237887,
                -0.2565452881204,
                0.12757870011465394,
                0.811803054758355
            ]
        },
        {
            "positions": [
                0.9593806848615845,
                -1.6105542280733403,
                -0.44275069626755614,
                -0.3586960394390324,
                0.11822010673143712,
                0.8689826512621572
            ]
        },
        {
            "positions": [
                1.0595872323541755,
                -1.6088556465806914,
                -0.5550745128113234,
                -0.4608467907576643,
                0.1088615133482203,
                0.9261622477659592
            ]
        },
        {
            "positions": [
                1.1597937798467666,
                -1.6071570650880427,
                -0.6673983293550906,
                -0.5629975420762963,
                0.09950291996500349,
                0.9833418442697612
            ]
        },
        {
            "positions": [
                1.2600003273393576,
                -1.605458483595394,
                -0.7797221458988578,
                -0.6651482933949284,
                0.09014432658178667,
                1.0405214407735635
            ]
        },
        {
            "positions": [
                1.3602068748319491,
                -1.6037599021027453,
                -0.8920459624426252,
                -0.7672990447135608,
                0.08078573319856985,
                1.0977010372773657
            ]
        },
        {
            "positions": [
                1.4604134223245402,
                -1.6020613206100967,
                -1.0043697789863923,
                -0.8694497960321927,
                0.07142713981535304,
                1.1548806337811677
            ]
        },
        {
            "positions": [
                1.5606199698171312,
                -1.600362739117448,
                -1.11669359553016,
                -0.9716005473508249,
                0.06206854643213622,
                1.2120602302849697
            ]
        },
        {
            "positions": [
                1.6608265173097223,
                -1.598664157624799,
                -1.2290174120739272,
                -1.0737512986694568,
                0.0527099530489194,
                1.2692398267887717
            ]
        },
        {
            "positions": [
                1.7610330648023136,
                -1.5969655761321504,
                -1.3413412286176944,
                -1.1759020499880892,
                0.04335135966570258,
                1.326419423292574
            ]
        },
        {
            "positions": [
                1.8612396122949049,
                -1.5952669946395017,
                -1.4536650451614617,
                -1.2780528013067214,
                0.033992766282485765,
                1.383599019796376
            ]
        },
        {
            "positions": [
                1.9614461597874957,
                -1.593568413146853,
                -1.5659888617052289,
                -1.380203552625353,
                0.024634172899268947,
                1.440778616300178
            ]
        },
        {
            "positions": [
                2.061652707280087,
                -1.5918698316542044,
                -1.678312678248996,
                -1.4823543039439853,
                0.015275579516052129,
                1.4979582128039801
            ]
        },
        {
            "positions": [
                2.1618592547726783,
                -1.5901712501615555,
                -1.7906364947927638,
                -1.5845050552626179,
                0.005916986132835311,
                1.5551378093077823
            ]
        },
        {
            "positions": [
                2.262065802265269,
                -1.5884726686689068,
                -1.902960311336531,
                -1.6866558065812496,
                -0.0034416072503815065,
                1.6123174058115843
            ]
        },
        {
            "positions": [
                2.3622723497578604,
                -1.5867740871762581,
                -2.015284127880298,
                -1.7888065578998817,
                -0.012800200633598324,
                1.6694970023153863
            ]
        },
        {
            "positions": [
                2.410107268445244,
                -1.6323382207296382,
                -1.9969230401359617,
                -1.838599737533143,
                -0.0667647042296223,
                1.7959920126398052
            ]
        },
        {
            "positions": [
                2.4579421871326277,
                -1.677902354283018,
                -1.9785619523916254,
                -1.8883929171664044,
                -0.12072920782564629,
                1.922487022964224
            ]
        },
        {
            "positions": [
                2.505777105820011,
                -1.723466487836398,
                -1.9602008646472888,
                -1.938186096799666,
                -0.17469371142167026,
                2.0489820332886426
            ]
        },
        {
            "positions": [
                2.553612024507395,
                -1.7690306213897782,
                -1.9418397769029525,
                -1.9879792764329274,
                -0.22865821501769426,
                2.1754770436130615
            ]
        },
        {
            "positions": [
                2.6014469431947784,
                -1.814594754943158,
                -1.923478689158616,
                -2.0377724560661887,
                -0.28262271861371824,
                2.3019720539374804
            ]
        },
        {
            "positions": [
                2.631483518975311,
                -1.8632244366100195,
                -1.8963104986404846,
                -2.090924492289635,
                -0.32503175612733715,
                2.424374120283453
            ]
        },
        {
            "positions": [
                2.661520094755843,
                -1.9118541182768811,
                -1.8691423081223533,
                -2.144076528513082,
                -0.3674407936409561,
                2.5467761866294247
            ]
        },
        {
            "positions": [
                2.691556670536375,
                -1.9604837999437426,
                -1.841974117604222,
                -2.1972285647365286,
                -0.4098498311545751,
                2.6691782529753967
            ]
        },
        {
            "positions": [
                2.7215932463169077,
                -2.009113481610604,
                -1.8148059270860906,
                -2.250380600959975,
                -0.452258868668194,
                2.791580319321369
            ]
        },
        {
            "positions": [
                2.701274360058877,
                -2.0679088249393933,
                -1.7615545085609816,
                -2.314667319134567,
                -0.46261041544599163,
                2.905606465823883
            ]
        },
        {
            "positions": [
                2.6809554738008465,
                -2.1267041682681826,
                -1.7083030900358727,
                -2.378954037309158,
                -0.4729619622237892,
                3.0196326123263972
            ]
        },
        {
            "positions": [
                2.660636587542816,
                -2.185499511596972,
                -1.6550516715107637,
                -2.44324075548375,
                -0.48331350900158687,
                3.1336587588289113
            ]
        }
    ]
}