{
    "goal": {
        "global_pose": {
            "orientation": {
                "w": 0.7031023502349854,
                "x": -0.7110244035720825,
                "y": 0.007748599164187908,
                "z": 0.005598929710686207
            },
            "position": {
                "x": 0.11585023208521307,
                "y": 0.44412534475326537,
                "z": 0.3711530566215515
            }
        },
        "name": "move_to_auspresseinheit_A"
    },
    "id": "SPARStwo_move_to_auspresseinheit_A_145",
    "joint_names": [
        "shoulder_pan_joint",
        "shoulder_lift_joint",
        "elbow_joint",
        "wrist_1_joint",
        "wrist_2_joint",
        "wrist_3_joint"
    ],
    "metrics": {
        "cart_traj_len": 0.6899369213743587,
        "distance_elbow_joint": 0.26863307059356556,
        "distance_shoulder_lift_joint": 0.9559204278293283,
        "distance_shoulder_pan_joint": 1.0441405306774825,
        "distance_wrist_1_joint": 0.7256351125949182,
        "distance_wrist_2_joint": 1.8308363685929476,
        "distance_wrist_3_joint": 0.17473673746920948,
        "smoothness": 1.171382326252391,
        "time": 5.008022153000001,
        "traj_len": 2.2360461193270256,
        "weighted_distance": 2.8117338430021674
    },
    "planner": "SPARStwo",
    "start": {
        "state": {
            "elbow_joint": 2.4225746658250005,
            "shoulder_lift_joint": -1.3736534386056498,
            "shoulder_pan_joint": -0.3378633547517467,
            "wrist_1_joint": -1.0288598680537169,
            "wrist_2_joint": 1.233022673432363,
            "wrist_3_joint": -3.0940220416140027
        }
    },
    "waypoints": [
        {
            "positions": [
                -0.3378633547517467,
                -1.3736534386056498,
                2.4225746658250005,
                -1.0288598680537169,
                1.233022673432363,
                -3.0940220416140027
            ]
        },
        {
            "positions": [
                -0.26500551725048094,
                -1.4670051605815322,
                2.437741476339337,
                -1.039928077563473,
                1.0857047359313312,
                -3.0845460629558237
            ]
        },
        {
            "positions": [
                -0.19214767974921515,
                -1.5603568825574148,
                2.4529082868536727,
                -1.050996287073229,
                0.9383867984302992,
                -3.0750700842976446
            ]
        },
        {
            "positions": [
                -0.11928984224794936,
                -1.6537086045332972,
                2.468075097368009,
                -1.062064496582985,
                0.7910688609292672,
                -3.0655941056394655
            ]
        },
        {
            "positions": [
                -0.046432004746683575,
                -1.7470603265091795,
                2.483241907882345,
                -1.0731327060927414,
                0.6437509234282353,
                -3.0561181269812865
            ]
        },
        {
            "positions": [
                0.026425832754582212,
                -1.8404120484850621,
                2.498408718396681,
                -1.0842009156024974,
                0.4964329859272033,
                -3.046642148323108
            ]
        },
        {
            "positions": [
                0.099283670255848,
                -1.9337637704609445,
                2.5135755289110175,
                -1.0952691251122535,
                0.34911504842617136,
                -3.037166169664929
            ]
        },
        {
            "positions": [
                0.17214150775711373,
                -2.027115492436827,
                2.5287423394253534,
                -1.1063373346220096,
                0.20179711092513952,
                -3.0276901910067497
            ]
        },
        {
            "positions": [
                0.24499934525837963,
                -2.1204672144127095,
                2.5439091499396898,
                -1.1174055441317656,
                0.05447917342410742,
                -3.0182142123485707
            ]
        },
        {
            "positions": [
                0.321878983702939,
                -2.0856161057423312,
                2.5193593855265437,
                -1.0112239713789541,
                0.16319465152155607,
                -3.034702363715867
            ]
        },
        {
            "positions": [
                0.3987586221474984,
                -2.050764997071953,
                2.4948096211133977,
                -0.9050423986261424,
                0.27191012961900474,
                -3.0511905150831633
            ]
        },
        {
            "positions": [
                0.4756382605920578,
                -2.0159138884015753,
                2.4702598567002516,
                -0.798860825873331,
                0.3806256077164534,
                -3.067678666450459
            ]
        },
        {
            "positions": [
                0.5525178990366172,
                -1.981062779731197,
                2.4457100922871056,
                -0.6926792531205194,
                0.489341085813902,
                -3.0841668178177555
            ]
        },
        {
            "positions": [
                0.6293975374811767,
                -1.9462116710608188,
                2.4211603278739595,
                -0.5864976803677078,
                0.5980565639113508,
                -3.100654969185052
            ]
        },
        {
            "positions": [
                0.706277175925736,
                -1.9113605623904408,
                2.3966105634608135,
                -0.4803161076148962,
                0.7067720420087994,
                -3.117143120552348
            ]
        }
    ]
}