{
    "goal": {
        "global_pose": {
            "orientation": {
                "w": -0.4816463035849501,
                "x": 0.5182115481033762,
                "y": 0.4908360881923453,
                "z": -0.5084816262002911
            },
            "position": {
                "x": -0.8240239810943604,
                "y": 0.19912469901144506,
                "z": 0.16403168439865112
            }
        },
        "name": "move_to_storage_D"
    },
    "id": "SPARS_move_to_storage_D_126",
    "joint_names": [
        "shoulder_pan_joint",
        "shoulder_lift_joint",
        "elbow_joint",
        "wrist_1_joint",
        "wrist_2_joint",
        "wrist_3_joint"
    ],
    "metrics": {
        "cart_traj_len": 3.620086448903443,
        "distance_elbow_joint": 4.208859449597103,
        "distance_shoulder_lift_joint": 1.2635441934578615,
        "distance_shoulder_pan_joint": 2.873135001237266,
        "distance_wrist_1_joint": 2.262102840715037,
        "distance_wrist_2_joint": 1.271541926969872,
        "distance_wrist_3_joint": 3.1429153670474874,
        "smoothness": 0.020970539420543007,
        "time": 5.054707164,
        "traj_len": 3.8758352363103143,
        "weighted_distance": 4.984132249529953
    },
    "planner": "SPARS",
    "start": {
        "state": {
            "elbow_joint": -2.384821988534728,
            "shoulder_lift_joint": -2.2788054721415256,
            "shoulder_pan_joint": -0.1854694642142757,
            "wrist_1_joint": 1.4845938289331202,
            "wrist_2_joint": 0.17898776772866878,
            "wrist_3_joint": 0.037105688729662994
        }
    },
    "waypoints": [
        {
            "positions": [
                -0.1854694642142757,
                -2.2788054721415256,
                -2.384821988534728,
                1.4845938289331202,
                0.17898776772866878,
                0.037105688729662994
            ]
        },
        {
            "positions": [
                -0.07611983544525744,
                -2.2408216386441855,
                -2.2682838319852925,
                1.4212909660332744,
                0.1713524293743719,
                0.09495819319950397
            ]
        },
        {
            "positions": [
                0.03322979332376083,
                -2.202837805146846,
                -2.1517456754358566,
                1.3579881031334284,
                0.16371709102007498,
                0.15281069766934496
            ]
        },
        {
            "positions": [
                0.1425794220927791,
                -2.1648539716495057,
                -2.035207518886421,
                1.2946852402335827,
                0.1560817526657781,
                0.21066320213918593
            ]
        },
        {
            "positions": [
                0.2519290508617974,
                -2.126870138152166,
                -1.9186693623369857,
                1.231382377333737,
                0.1484464143114812,
                0.2685157066090269
            ]
        },
        {
            "positions": [
                0.3612786796308156,
                -2.088886304654826,
                -1.80213120578755,
                1.1680795144338911,
                0.14081107595718428,
                0.32636821107886793
            ]
        },
        {
            "positions": [
                0.47062830839983394,
                -2.050902471157486,
                -1.6855930492381144,
                1.1047766515340451,
                0.1331757376028874,
                0.38422071554870885
            ]
        },
        {
            "positions": [
                0.579977937168852,
                -2.012918637660146,
                -1.569054892688679,
                1.0414737886341994,
                0.1255403992485905,
                0.44207322001854976
            ]
        },
        {
            "positions": [
                0.6893275659378705,
                -1.9749348041628063,
                -1.4525167361392433,
                0.9781709257343535,
                0.11790506089429362,
                0.4999257244883908
            ]
        },
        {
            "positions": [
                0.7986771947068886,
                -1.9369509706654664,
                -1.3359785795898078,
                0.9148680628345077,
                0.11026972253999671,
                0.5577782289582318
            ]
        },
        {
            "positions": [
                0.9080268234759069,
                -1.8989671371681265,
                -1.2194404230403721,
                0.8515651999346618,
                0.10263438418569981,
                0.6156307334280728
            ]
        },
        {
            "positions": [
                1.0173764522449251,
                -1.8609833036707863,
                -1.1029022664909365,
                0.7882623370348161,
                0.09499904583140292,
                0.6734832378979138
            ]
        },
        {
            "positions": [
                1.1267260810139434,
                -1.8229994701734467,
                -0.9863641099415008,
                0.7249594741349702,
                0.08736370747710602,
                0.7313357423677548
            ]
        },
        {
            "positions": [
                1.2360757097829616,
                -1.7850156366761065,
                -0.8698259533920654,
                0.6616566112351244,
                0.07972836912280913,
                0.7891882468375957
            ]
        },
        {
            "positions": [
                1.3454253385519797,
                -1.7470318031787668,
                -0.7532877968426299,
                0.5983537483352787,
                0.07209303076851224,
                0.8470407513074366
            ]
        },
        {
            "positions": [
                1.454774967320998,
                -1.7090479696814267,
                -0.6367496402931943,
                0.5350508854354329,
                0.06445769241421535,
                0.9048932557772775
            ]
        },
        {
            "positions": [
                1.5641245960900165,
                -1.6710641361840868,
                -0.5202114837437586,
                0.4717480225355868,
                0.05682235405991844,
                0.9627457602471187
            ]
        },
        {
            "positions": [
                1.6734742248590346,
                -1.6330803026867469,
                -0.4036733271943229,
                0.408445159635741,
                0.049187015705621534,
                1.0205982647169596
            ]
        },
        {
            "positions": [
                1.7828238536280527,
                -1.5950964691894072,
                -0.2871351706448877,
                0.34514229673589525,
                0.041551677351324645,
                1.0784507691868006
            ]
        },
        {
            "positions": [
                1.8921734823970708,
                -1.557112635692067,
                -0.1705970140954518,
                0.2818394338360495,
                0.033916338997027756,
                1.1363032736566414
            ]
        },
        {
            "positions": [
                2.0015231111660894,
                -1.5191288021947271,
                -0.05405885754601636,
                0.2185365709362035,
                0.02628100064273084,
                1.1941557781264827
            ]
        },
        {
            "positions": [
                2.1108727399351075,
                -1.4811449686973872,
                0.06247929900341953,
                0.15523370803635772,
                0.01864566228843395,
                1.2520082825963235
            ]
        },
        {
            "positions": [
                2.220222368704126,
                -1.4431611352000473,
                0.17901745555285498,
                0.09193084513651195,
                0.011010323934137062,
                1.3098607870661645
            ]
        },
        {
            "positions": [
                2.329571997473144,
                -1.4051773017027074,
                0.2955556121022904,
                0.028627982236666183,
                0.003374985579840173,
                1.3677132915360053
            ]
        },
        {
            "positions": [
                2.4389216262421627,
                -1.3671934682053675,
                0.4120937686517263,
                -0.03467488066317981,
                -0.004260352774456744,
                1.4255657960058465
            ]
        },
        {
            "positions": [
                2.548271255011181,
                -1.3292096347080276,
                0.5286319252011618,
                -0.09797774356302558,
                -0.011895691128753633,
                1.4834183004756873
            ]
        },
        {
            "positions": [
                2.657620883780199,
                -1.2912258012106876,
                0.6451700817505972,
                -0.16128060646287126,
                -0.01953102948305052,
                1.5412708049455284
            ]
        },
        {
            "positions": [
                2.6553097566076764,
                -1.2699977610163011,
                0.7358521878515033,
                -0.20868279148741328,
                0.06300921126757661,
                1.6673285165479608
            ]
        },
        {
            "positions": [
                2.652998629435154,
                -1.2487697208219148,
                0.8265342939524094,
                -0.25608497651195533,
                0.14554945201820374,
                1.7933862281503934
            ]
        },
        {
            "positions": [
                2.6506875022626315,
                -1.2275416806275283,
                0.9172164000533154,
                -0.30348716153649735,
                0.2280896927688309,
                1.9194439397528258
            ]
        },
        {
            "positions": [
                2.6483763750901095,
                -1.2063136404331418,
                1.0078985061542216,
                -0.3508893465610394,
                0.310629933519458,
                2.0455016513552584
            ]
        },
        {
            "positions": [
                2.646065247917587,
                -1.1850856002387555,
                1.0985806122551276,
                -0.3982915315855814,
                0.39317017427008516,
                2.171559362957691
            ]
        },
        {
            "positions": [
                2.6437541207450646,
                -1.163857560044369,
                1.1892627183560336,
                -0.44569371661012347,
                0.4757104150207123,
                2.297617074560123
            ]
        },
        {
            "positions": [
                2.641442993572542,
                -1.1426295198499827,
                1.2799448244569396,
                -0.49309590163466543,
                0.5582506557713394,
                2.4236747861625556
            ]
        },
        {
            "positions": [
                2.6391318664000196,
                -1.1214014796555962,
                1.370626930557846,
                -0.5404980866592075,
                0.6407908965219665,
                2.549732497764988
            ]
        },
        {
            "positions": [
                2.636820739227497,
                -1.10017343946121,
                1.461309036658752,
                -0.5879002716837495,
                0.7233311372725937,
                2.6757902093674204
            ]
        },
        {
            "positions": [
                2.634509612054975,
                -1.0789453992668234,
                1.551991142759658,
                -0.6353024567082916,
                0.8058713780232208,
                2.801847920969853
            ]
        },
        {
            "positions": [
                2.6321984848824527,
                -1.057717359072437,
                1.642673248860564,
                -0.6827046417328335,
                0.8884116187738479,
                2.927905632572285
            ]
        },
        {
            "positions": [
                2.62988735770993,
                -1.0364893188780506,
                1.7333553549614702,
                -0.7301068267573756,
                0.9709518595244752,
                3.053963344174718
            ]
        },
        {
            "positions": [
                2.6275762305374077,
                -1.0152612786836641,
                1.8240374610623762,
                -0.7775090117819176,
                1.053492100275102,
                3.1800210557771504
            ]
        }
    ]
}