{
    "goal": {
        "global_pose": {
            "orientation": {
                "w": 0.005598929693374612,
                "x": 0.007748599140229565,
                "y": 0.7110244013736278,
                "z": -0.7031023480610252
            },
            "position": {
                "x": -0.8858502320852131,
                "y": -0.7141253447532654,
                "z": 0.3711530566215515
            }
        },
        "name": "move_to_auspresseinheit_C"
    },
    "id": "SPARS_move_to_auspresseinheit_C_67",
    "joint_names": [
        "shoulder_pan_joint",
        "shoulder_lift_joint",
        "elbow_joint",
        "wrist_1_joint",
        "wrist_2_joint",
        "wrist_3_joint"
    ],
    "metrics": {
        "cart_traj_len": 0.49308196438245344,
        "distance_elbow_joint": 0.9952251152345399,
        "distance_shoulder_lift_joint": 0.32334805600733973,
        "distance_shoulder_pan_joint": 0.2563632601844854,
        "distance_wrist_1_joint": 0.660681094658834,
        "distance_wrist_2_joint": 1.3115271195807616,
        "distance_wrist_3_joint": 0.04313412949145912,
        "smoothness": 3.2297397335745243e-16,
        "time": 5.031872688,
        "traj_len": 1.8948030966718994,
        "weighted_distance": 2.3767110149069306
    },
    "planner": "SPARS",
    "start": {
        "state": {
            "elbow_joint": 1.7527959577737207,
            "shoulder_lift_joint": -0.9740617694225068,
            "shoulder_pan_joint": -2.967991417825858,
            "wrist_1_joint": -0.759517768980727,
            "wrist_2_joint": 1.7443932448377408,
            "wrist_3_joint": -3.0840537646736568
        }
    },
    "waypoints": [
        {
            "positions": [
                -2.967991417825858,
                -0.9740617694225068,
                1.7527959577737207,
                -0.759517768980727,
                1.7443932448377408,
                -3.0840537646736568
            ]
        },
        {
            "positions": [
                -2.9423550918074093,
                -0.9417269638217728,
                1.6532734462502667,
                -0.6934496595148436,
                1.6132405328796646,
                -3.0883671776228026
            ]
        },
        {
            "positions": [
                -2.916718765788961,
                -0.9093921582210388,
                1.5537509347268126,
                -0.6273815500489601,
                1.4820878209215884,
                -3.0926805905719488
            ]
        },
        {
            "positions": [
                -2.8910824397705124,
                -0.8770573526203048,
                1.4542284232033587,
                -0.5613134405830769,
                1.3509351089635124,
                -3.0969940035210946
            ]
        },
        {
            "positions": [
                -2.8654461137520637,
                -0.8447225470195708,
                1.3547059116799047,
                -0.4952453311171934,
                1.219782397005436,
                -3.1013074164702403
            ]
        },
        {
            "positions": [
                -2.839809787733615,
                -0.812387741418837,
                1.2551834001564508,
                -0.42917722165131,
                1.08862968504736,
                -3.1056208294193866
            ]
        },
        {
            "positions": [
                -2.814173461715167,
                -0.780052935818103,
                1.1556608886329967,
                -0.36310911218542663,
                0.9574769730892839,
                -3.1099342423685323
            ]
        },
        {
            "positions": [
                -2.788537135696718,
                -0.747718130217369,
                1.0561383771095427,
                -0.29704100271954326,
                0.8263242611312077,
                -3.114247655317678
            ]
        },
        {
            "positions": [
                -2.7629008096782695,
                -0.715383324616635,
                0.9566158655860887,
                -0.23097289325365977,
                0.6951715491731314,
                -3.118561068266824
            ]
        },
        {
            "positions": [
                -2.7372644836598212,
                -0.683048519015901,
                0.8570933540626346,
                -0.1649047837877764,
                0.5640188372150554,
                -3.12287448121597
            ]
        },
        {
            "positions": [
                -2.7116281576413725,
                -0.650713713415167,
                0.7575708425391807,
                -0.09883667432189301,
                0.4328661252569792,
                -3.127187894165116
            ]
        }
    ]
}