{
    "goal": {
        "global_pose": {
            "orientation": {
                "w": 0.7047431468963623,
                "x": -0.7094548344612122,
                "y": 0.0024358443915843964,
                "z": -0.0022348060738295317
            },
            "position": {
                "x": 0.6094750761985779,
                "y": 0.3671506643295288,
                "z": 0.19426114857196808
            }
        },
        "name": "move_to_magneteinheit_A"
    },
    "id": "SPARS_move_to_magneteinheit_A_98",
    "joint_names": [
        "shoulder_pan_joint",
        "shoulder_lift_joint",
        "elbow_joint",
        "wrist_1_joint",
        "wrist_2_joint",
        "wrist_3_joint"
    ],
    "metrics": {
        "cart_traj_len": 3.4312005184372474,
        "distance_elbow_joint": 3.913021610995611,
        "distance_shoulder_lift_joint": 1.002224770126753,
        "distance_shoulder_pan_joint": 2.5760015894414545,
        "distance_wrist_1_joint": 3.4716974887608987,
        "distance_wrist_2_joint": 1.4361237698807638,
        "distance_wrist_3_joint": 1.2640185109511557,
        "smoothness": 0.12088614971800063,
        "time": 5.062577996,
        "traj_len": 3.696361419038543,
        "weighted_distance": 4.593358903972191
    },
    "planner": "SPARS",
    "start": {
        "state": {
            "elbow_joint": -1.9196185241190666,
            "shoulder_lift_joint": -1.2443396400964142,
            "shoulder_pan_joint": 2.6996025414629847,
            "wrist_1_joint": -1.5485510000780065,
            "wrist_2_joint": -1.5709468930060704,
            "wrist_3_joint": 0.4420197071253992
        }
    },
    "waypoints": [
        {
            "positions": [
                2.6996025414629847,
                -1.2443396400964142,
                -1.9196185241190666,
                -1.5485510000780065,
                -1.5709468930060704,
                0.4420197071253992
            ]
        },
        {
            "positions": [
                2.591688784252069,
                -1.212386332795801,
                -1.8440739988486181,
                -1.476655076382867,
                -1.513305495091571,
                0.40476318497307684
            ]
        },
        {
            "positions": [
                2.4837750270411534,
                -1.1804330254951882,
                -1.7685294735781696,
                -1.4047591526877272,
                -1.4556640971770716,
                0.3675066628207545
            ]
        },
        {
            "positions": [
                2.3758612698302377,
                -1.1484797181945754,
                -1.692984948307721,
                -1.3328632289925877,
                -1.3980226992625722,
                0.33025014066843217
            ]
        },
        {
            "positions": [
                2.2679475126193225,
                -1.1165264108939623,
                -1.6174404230372725,
                -1.260967305297448,
                -1.3403813013480728,
                0.29299361851610983
            ]
        },
        {
            "positions": [
                2.160033755408407,
                -1.0845731035933492,
                -1.5418958977668242,
                -1.1890713816023084,
                -1.2827399034335734,
                0.2557370963637875
            ]
        },
        {
            "positions": [
                2.052119998197491,
                -1.0526197962927364,
                -1.4663513724963755,
                -1.1171754579071687,
                -1.225098505519074,
                0.21848057421146513
            ]
        },
        {
            "positions": [
                1.9442062409865755,
                -1.0206664889921233,
                -1.3908068472259272,
                -1.0452795342120291,
                -1.1674571076045746,
                0.18122405205914277
            ]
        },
        {
            "positions": [
                1.83629248377566,
                -0.9887131816915105,
                -1.3152623219554787,
                -0.9733836105168895,
                -1.1098157096900751,
                0.14396752990682044
            ]
        },
        {
            "positions": [
                1.7283787265647443,
                -0.9567598743908975,
                -1.2397177966850301,
                -0.9014876868217498,
                -1.0521743117755757,
                0.1067110077544981
            ]
        },
        {
            "positions": [
                1.6204649693538289,
                -0.9248065670902845,
                -1.1641732714145816,
                -0.8295917631266102,
                -0.9945329138610763,
                0.06945448560217576
            ]
        },
        {
            "positions": [
                1.5125512121429132,
                -0.8928532597896716,
                -1.088628746144133,
                -0.7576958394314706,
                -0.9368915159465769,
                0.03219796344985343
            ]
        },
        {
            "positions": [
                1.4046374549319975,
                -0.8608999524890586,
                -1.0130842208736845,
                -0.685799915736331,
                -0.8792501180320775,
                -0.005058558702468907
            ]
        },
        {
            "positions": [
                1.296723697721082,
                -0.8289466451884457,
                -0.9375396956032361,
                -0.6139039920411914,
                -0.8216087201175782,
                -0.04231508085479119
            ]
        },
        {
            "positions": [
                1.1888099405101662,
                -0.7969933378878327,
                -0.8619951703327875,
                -0.5420080683460518,
                -0.7639673222030787,
                -0.07957160300711363
            ]
        },
        {
            "positions": [
                1.0808961832992507,
                -0.7650400305872197,
                -0.786450645062339,
                -0.470112144650912,
                -0.7063259242885793,
                -0.11682812515943597
            ]
        },
        {
            "positions": [
                0.9729824260883353,
                -0.7330867232866067,
                -0.7109061197918907,
                -0.39821622095577247,
                -0.6486845263740799,
                -0.1540846473117583
            ]
        },
        {
            "positions": [
                0.8650686688774196,
                -0.7011334159859938,
                -0.6353615945214421,
                -0.32632029726063294,
                -0.5910431284595806,
                -0.19134116946408053
            ]
        },
        {
            "positions": [
                0.757154911666504,
                -0.6691801086853808,
                -0.5598170692509934,
                -0.2544243735654932,
                -0.5334017305450811,
                -0.22859769161640298
            ]
        },
        {
            "positions": [
                0.6492411544555883,
                -0.6372268013847678,
                -0.4842725439805451,
                -0.18252844987035366,
                -0.4757603326305817,
                -0.2658542137687253
            ]
        },
        {
            "positions": [
                0.541327397244673,
                -0.6052734940841549,
                -0.40872801871009656,
                -0.11063252617521391,
                -0.4181189347160823,
                -0.30311073592104765
            ]
        },
        {
            "positions": [
                0.4334136400337574,
                -0.5733201867835419,
                -0.33318349343964804,
                -0.03873660248007438,
                -0.3604775368015829,
                -0.34036725807337
            ]
        },
        {
            "positions": [
                0.3254998828228417,
                -0.5413668794829289,
                -0.2576389681691995,
                0.033159321215065374,
                -0.3028361388870835,
                -0.3776237802256923
            ]
        },
        {
            "positions": [
                0.21758612561192603,
                -0.509413572182316,
                -0.18209444289875099,
                0.10505524491020485,
                -0.24519474097258415,
                -0.4148803023780147
            ]
        },
        {
            "positions": [
                0.20834858667524847,
                -0.5303638167831367,
                -0.006313437467279859,
                0.25209530123440543,
                -0.23543162167414222,
                -0.38279210251322926
            ]
        },
        {
            "positions": [
                0.19911104773857088,
                -0.5513140613839573,
                0.16946756796419127,
                0.399135357558606,
                -0.2256685023757003,
                -0.35070390264844387
            ]
        },
        {
            "positions": [
                0.18987350880189333,
                -0.5722643059847781,
                0.3452485733956623,
                0.5461754138828065,
                -0.21590538307725837,
                -0.3186157027836584
            ]
        },
        {
            "positions": [
                0.18063596986521574,
                -0.5932145505855988,
                0.5210295788271335,
                0.6932154702070072,
                -0.20614226377881642,
                -0.28652750291887297
            ]
        },
        {
            "positions": [
                0.17139843092853818,
                -0.6141647951864195,
                0.6968105842586045,
                0.8402555265312077,
                -0.1963791444803745,
                -0.2544393030540876
            ]
        },
        {
            "positions": [
                0.16216089199186062,
                -0.6351150397872402,
                0.8725915896900756,
                0.9872955828554084,
                -0.18661602518193257,
                -0.22235110318930215
            ]
        },
        {
            "positions": [
                0.15292335305518306,
                -0.6560652843880609,
                1.0483725951215466,
                1.134335639179609,
                -0.17685290588349065,
                -0.19026290332451673
            ]
        },
        {
            "positions": [
                0.14368581411850545,
                -0.6770155289888816,
                1.224153600553018,
                1.2813756955038096,
                -0.1670897865850487,
                -0.15817470345973128
            ]
        },
        {
            "positions": [
                0.1344482751818279,
                -0.6979657735897022,
                1.399934605984489,
                1.4284157518280103,
                -0.15732666728660677,
                -0.12608650359494583
            ]
        },
        {
            "positions": [
                0.12521073624515033,
                -0.718916018190523,
                1.57571561141596,
                1.5754558081522108,
                -0.14756354798816484,
                -0.09399830373016045
            ]
        },
        {
            "positions": [
                0.12467414150394396,
                -0.7381814369253389,
                1.7149447699028215,
                1.6913527016624381,
                -0.1433167397005456,
                -0.06525280279686461
            ]
        },
        {
            "positions": [
                0.12413754676273758,
                -0.7574468556601548,
                1.854173928389683,
                1.8072495951726653,
                -0.1390699314129263,
                -0.03650730186356878
            ]
        },
        {
            "positions": [
                0.12360095202153121,
                -0.7767122743949707,
                1.9934030868765444,
                1.9231464886828926,
                -0.13482312312530706,
                -0.0077618009302729465
            ]
        }
    ]
}