{
    "goal": {
        "global_pose": {
            "orientation": {
                "w": 0.005598929693374612,
                "x": 0.007748599140229565,
                "y": 0.7110244013736278,
                "z": -0.7031023480610252
            },
            "position": {
                "x": 0.1141497679147869,
                "y": -0.7141253447532654,
                "z": 0.3711530566215515
            }
        },
        "name": "move_to_auspresseinheit_B"
    },
    "id": "SPARStwo_move_to_auspresseinheit_B_42",
    "joint_names": [
        "shoulder_pan_joint",
        "shoulder_lift_joint",
        "elbow_joint",
        "wrist_1_joint",
        "wrist_2_joint",
        "wrist_3_joint"
    ],
    "metrics": {
        "cart_traj_len": 0.5643243548139892,
        "distance_elbow_joint": 0.06341965416837603,
        "distance_shoulder_lift_joint": 0.2958780229460347,
        "distance_shoulder_pan_joint": 0.5787239405709013,
        "distance_wrist_1_joint": 0.33676813099489133,
        "distance_wrist_2_joint": 0.985148556719436,
        "distance_wrist_3_joint": 0.0017927021046495462,
        "smoothness": 5.075305255429287e-16,
        "time": 5.005967492,
        "traj_len": 1.503905252169926,
        "weighted_distance": 1.893999234273318
    },
    "planner": "SPARStwo",
    "start": {
        "state": {
            "elbow_joint": 2.0193083361928714,
            "shoulder_lift_joint": -1.1220246554650708,
            "shoulder_pan_joint": -1.0952077554168747,
            "wrist_1_joint": -0.8559753972642168,
            "wrist_2_joint": 0.4759566250798843,
            "wrist_3_joint": -3.1240929996934557
        }
    },
    "waypoints": [
        {
            "positions": [
                -1.0952077554168747,
                -1.1220246554650708,
                2.0193083361928714,
                -0.8559753972642168,
                0.4759566250798843,
                -3.1240929996934557
            ]
        },
        {
            "positions": [
                -1.1916617455120249,
                -1.17133765928941,
                2.0087383938314756,
                -0.7998473754317349,
                0.6401480511997903,
                -3.124391783377564
            ]
        },
        {
            "positions": [
                -1.288115735607175,
                -1.220650663113749,
                1.9981684514700795,
                -0.743719353599253,
                0.8043394773196963,
                -3.124690567061672
            ]
        },
        {
            "positions": [
                -1.3845697257023253,
                -1.269963666938088,
                1.9875985091086834,
                -0.6875913317667711,
                0.9685309034396024,
                -3.12498935074578
            ]
        },
        {
            "positions": [
                -1.4810237157974755,
                -1.3192766707624273,
                1.9770285667472873,
                -0.6314633099342892,
                1.1327223295595084,
                -3.125288134429889
            ]
        },
        {
            "positions": [
                -1.5774777058926257,
                -1.3685896745867665,
                1.9664586243858915,
                -0.5753352881018073,
                1.2969137556794144,
                -3.125586918113997
            ]
        },
        {
            "positions": [
                -1.673931695987776,
                -1.4179026784111055,
                1.9558886820244954,
                -0.5192072662693255,
                1.4611051817993204,
                -3.125885701798105
            ]
        }
    ]
}