{
    "goal": {
        "global_pose": {
            "orientation": {
                "w": -0.4816463035849501,
                "x": 0.5182115481033762,
                "y": 0.4908360881923453,
                "z": -0.5084816262002911
            },
            "position": {
                "x": -0.8240239810943604,
                "y": 0.19912469901144506,
                "z": 0.16403168439865112
            }
        },
        "name": "move_to_storage_D"
    },
    "id": "SPARS_move_to_storage_D_65",
    "joint_names": [
        "shoulder_pan_joint",
        "shoulder_lift_joint",
        "elbow_joint",
        "wrist_1_joint",
        "wrist_2_joint",
        "wrist_3_joint"
    ],
    "metrics": {
        "cart_traj_len": 0.5802392760310292,
        "distance_elbow_joint": 0.5611591575196868,
        "distance_shoulder_lift_joint": 0.1518762693822131,
        "distance_shoulder_pan_joint": 0.1662889379237416,
        "distance_wrist_1_joint": 3.9994821083684013,
        "distance_wrist_2_joint": 1.7909258978240543,
        "distance_wrist_3_joint": 3.128032908572498,
        "smoothness": 0.13677972389094745,
        "time": 5.047655195,
        "traj_len": 3.1301382205248696,
        "weighted_distance": 4.6737820983576075
    },
    "planner": "SPARS",
    "start": {
        "state": {
            "elbow_joint": -2.384821988534728,
            "shoulder_lift_joint": -2.2788054721415256,
            "shoulder_pan_joint": -0.1854694642142757,
            "wrist_1_joint": 1.4845938289331202,
            "wrist_2_joint": 0.17898776772866878,
            "wrist_3_joint": 0.037105688729662994
        }
    },
    "waypoints": [
        {
            "positions": [
                -0.1854694642142757,
                -2.2788054721415256,
                -2.384821988534728,
                1.4845938289331202,
                0.17898776772866878,
                0.037105688729662994
            ]
        },
        {
            "positions": [
                -0.10672024974463268,
                -2.2246829301362103,
                -2.360888528391313,
                1.5231922919548313,
                0.1509563369755635,
                -0.05293512970978538
            ]
        },
        {
            "positions": [
                -0.02797103527498966,
                -2.170560388130895,
                -2.3369550682478986,
                1.5617907549765424,
                0.12292490622245819,
                -0.14297594814923376
            ]
        },
        {
            "positions": [
                -0.028337306482675302,
                -2.1687424220737457,
                -2.3155678916965297,
                1.3983622057130016,
                0.05063894637588137,
                -0.26580725113646714
            ]
        },
        {
            "positions": [
                -0.028703577690360946,
                -2.1669244560165963,
                -2.2941807151451603,
                1.2349336564494608,
                -0.021647013470695448,
                -0.3886385541237005
            ]
        },
        {
            "positions": [
                -0.029069848898046587,
                -2.165106489959447,
                -2.2727935385937914,
                1.07150510718592,
                -0.09393297331727227,
                -0.511469857110934
            ]
        },
        {
            "positions": [
                -0.029436120105732228,
                -2.163288523902298,
                -2.2514063620424225,
                0.9080765579223793,
                -0.1662189331638491,
                -0.6343011600981673
            ]
        },
        {
            "positions": [
                -0.029802391313417873,
                -2.1614705578451487,
                -2.230019185491053,
                0.7446480086588384,
                -0.2385048930104259,
                -0.7571324630854007
            ]
        },
        {
            "positions": [
                -0.030168662521103513,
                -2.1596525917879994,
                -2.2086320089396843,
                0.5812194593952976,
                -0.3107908528570027,
                -0.879963766072634
            ]
        },
        {
            "positions": [
                -0.030534933728789154,
                -2.15783462573085,
                -2.1872448323883154,
                0.41779091013175673,
                -0.3830768127035795,
                -1.0027950690598675
            ]
        },
        {
            "positions": [
                -0.0309012049364748,
                -2.1560166596737007,
                -2.165857655836946,
                0.2543623608682162,
                -0.45536277255015634,
                -1.1256263720471007
            ]
        },
        {
            "positions": [
                -0.031267476144160436,
                -2.154198693616552,
                -2.144470479285577,
                0.09093381160467517,
                -0.5276487323967332,
                -1.2484576750343344
            ]
        },
        {
            "positions": [
                -0.031633747351846084,
                -2.1523807275594025,
                -2.1230833027342078,
                -0.0724947376588656,
                -0.59993469224331,
                -1.3712889780215676
            ]
        },
        {
            "positions": [
                -0.032000018559531725,
                -2.150562761502253,
                -2.101696126182839,
                -0.23592328692240638,
                -0.6722206520898868,
                -1.4941202810088008
            ]
        },
        {
            "positions": [
                -0.032366289767217366,
                -2.1487447954451038,
                -2.08030894963147,
                -0.39935183618594716,
                -0.7445066119364636,
                -1.6169515839960344
            ]
        },
        {
            "positions": [
                -0.032732560974903006,
                -2.1469268293879544,
                -2.058921773080101,
                -0.5627803854494879,
                -0.8167925717830403,
                -1.7397828869832677
            ]
        },
        {
            "positions": [
                -0.03309883218258865,
                -2.145108863330805,
                -2.0375345965287317,
                -0.7262089347130289,
                -0.8890785316296173,
                -1.8626141899705013
            ]
        },
        {
            "positions": [
                -0.033465103390274295,
                -2.1432908972736557,
                -2.016147419977363,
                -0.8896374839765695,
                -0.9613644914761941,
                -1.9854454929577345
            ]
        },
        {
            "positions": [
                -0.033831374597959936,
                -2.141472931216507,
                -1.9947602434259937,
                -1.05306603324011,
                -1.033650451322771,
                -2.1082767959449678
            ]
        },
        {
            "positions": [
                -0.03419764580564558,
                -2.1396549651593575,
                -1.9733730668746245,
                -1.2164945825036515,
                -1.1059364111693477,
                -2.2311080989322014
            ]
        },
        {
            "positions": [
                -0.03456391701333122,
                -2.137836999102208,
                -1.9519858903232554,
                -1.379923131767192,
                -1.1782223710159245,
                -2.3539394019194346
            ]
        },
        {
            "positions": [
                -0.03493018822101686,
                -2.136019033045059,
                -1.9305987137718865,
                -1.5433516810307326,
                -1.2505083308625013,
                -2.476770704906668
            ]
        },
        {
            "positions": [
                -0.0352964594287025,
                -2.1342010669879095,
                -1.9092115372205174,
                -1.7067802302942736,
                -1.3227942907090782,
                -2.5996020078939015
            ]
        },
        {
            "positions": [
                -0.03566273063638814,
                -2.1323831009307606,
                -1.8878243606691483,
                -1.8702087795578142,
                -1.395080250555655,
                -2.7224333108811347
            ]
        },
        {
            "positions": [
                -0.03602900184407379,
                -2.130565134873611,
                -1.8664371841177791,
                -2.033637328821355,
                -1.4673662104022318,
                -2.845264613868368
            ]
        },
        {
            "positions": [
                -0.03639527305175943,
                -2.128747168816462,
                -1.8450500075664102,
                -2.197065878084896,
                -1.5396521702488086,
                -2.9680959168556016
            ]
        },
        {
            "positions": [
                -0.03676154425944507,
                -2.1269292027593125,
                -1.8236628310150411,
                -2.3604944273484367,
                -1.6119381300953854,
                -3.090927219842835
            ]
        }
    ]
}