{
    "goal": {
        "global_pose": {
            "orientation": {
                "w": -0.00223480608172531,
                "x": 0.0024358444001904467,
                "y": 0.7094548369677653,
                "z": -0.704743149386269
            },
            "position": {
                "x": 0.6205249238014221,
                "y": -0.6371506643295288,
                "z": 0.19426114857196808
            }
        },
        "name": "move_to_magneteinheit_B"
    },
    "id": "SPARS_move_to_magneteinheit_B_28",
    "joint_names": [
        "shoulder_pan_joint",
        "shoulder_lift_joint",
        "elbow_joint",
        "wrist_1_joint",
        "wrist_2_joint",
        "wrist_3_joint"
    ],
    "metrics": {
        "cart_traj_len": 4.641683229264875,
        "distance_elbow_joint": 6.232417107116904,
        "distance_shoulder_lift_joint": 1.2872240389555056,
        "distance_shoulder_pan_joint": 3.666979787474912,
        "distance_wrist_1_joint": 6.585305063867406,
        "distance_wrist_2_joint": 1.881451526235046,
        "distance_wrist_3_joint": 4.0280393606424525,
        "smoothness": 0.762946304708373,
        "time": 5.059618596,
        "traj_len": 4.866355606025133,
        "weighted_distance": 6.340682313101609
    },
    "planner": "SPARS",
    "start": {
        "state": {
            "elbow_joint": 2.6216224122426386,
            "shoulder_lift_joint": -1.4174107377796124,
            "shoulder_pan_joint": 0.7066234856936794,
            "wrist_1_joint": 1.9546482284002225,
            "wrist_2_joint": -0.7096286983471962,
            "wrist_3_joint": 0.005740856962016249
        }
    },
    "waypoints": [
        {
            "positions": [
                0.7066234856936794,
                -1.4174107377796124,
                2.6216224122426386,
                1.9546482284002225,
                -0.7096286983471962,
                0.005740856962016249
            ]
        },
        {
            "positions": [
                0.6868887061456537,
                -1.4536981060407395,
                2.6107571329605523,
                2.020275010325152,
                -0.6058964614113908,
                0.1440601222510826
            ]
        },
        {
            "positions": [
                0.667153926597628,
                -1.4899854743018666,
                2.5998918536784665,
                2.0859017922500818,
                -0.5021642244755853,
                0.28237938754014896
            ]
        },
        {
            "positions": [
                0.6474191470496021,
                -1.526272842562994,
                2.5890265743963803,
                2.151528574175012,
                -0.39843198753977993,
                0.4206986528292153
            ]
        },
        {
            "positions": [
                0.6276843675015764,
                -1.562560210824121,
                2.5781612951142945,
                2.2171553560999415,
                -0.29469975060397446,
                0.5590179181182816
            ]
        },
        {
            "positions": [
                0.6079495879535507,
                -1.598847579085248,
                2.5672960158322082,
                2.282782138024871,
                -0.190967513668169,
                0.697337183407348
            ]
        },
        {
            "positions": [
                0.588214808405525,
                -1.6351349473463752,
                2.5564307365501224,
                2.348408919949801,
                -0.08723527673236364,
                0.8356564486964143
            ]
        },
        {
            "positions": [
                0.5684800288574992,
                -1.6714223156075025,
                2.545565457268036,
                2.414035701874731,
                0.016496960203441935,
                0.9739757139854807
            ]
        },
        {
            "positions": [
                0.5487452493094734,
                -1.7077096838686296,
                2.5347001779859504,
                2.4796624837996606,
                0.12022919713924729,
                1.1122949792745471
            ]
        },
        {
            "positions": [
                0.5290104697614477,
                -1.7439970521297568,
                2.523834898703864,
                2.5452892657245902,
                0.22396143407505276,
                1.2506142445636135
            ]
        },
        {
            "positions": [
                0.5925341567921848,
                -1.7347949143804269,
                2.3874836350259763,
                2.4002412850014774,
                0.2036246719425462,
                1.2676413918807223
            ]
        },
        {
            "positions": [
                0.6560578438229218,
                -1.725592776631097,
                2.251132371348088,
                2.2551933042783645,
                0.18328790981003962,
                1.2846685391978312
            ]
        },
        {
            "positions": [
                0.7195815308536588,
                -1.7163906388817671,
                2.1147811076701997,
                2.1101453235552516,
                0.16295114767753305,
                1.30169568651494
            ]
        },
        {
            "positions": [
                0.7831052178843958,
                -1.707188501132437,
                1.9784298439923118,
                1.9650973428321388,
                0.14261438554502648,
                1.3187228338320491
            ]
        },
        {
            "positions": [
                0.846628904915133,
                -1.6979863633831072,
                1.8420785803144237,
                1.820049362109026,
                0.12227762341251991,
                1.335749981149158
            ]
        },
        {
            "positions": [
                0.91015259194587,
                -1.6887842256337773,
                1.7057273166365357,
                1.675001381385913,
                0.10194086128001334,
                1.3527771284662669
            ]
        },
        {
            "positions": [
                0.9736762789766069,
                -1.6795820878844474,
                1.5693760529586476,
                1.5299534006628002,
                0.08160409914750677,
                1.3698042757833757
            ]
        },
        {
            "positions": [
                1.037199966007344,
                -1.6703799501351175,
                1.4330247892807595,
                1.3849054199396873,
                0.0612673370150002,
                1.3868314231004846
            ]
        },
        {
            "positions": [
                1.100723653038081,
                -1.6611778123857877,
                1.2966735256028714,
                1.2398574392165744,
                0.04093057488249363,
                1.4038585704175934
            ]
        },
        {
            "positions": [
                1.164247340068818,
                -1.6519756746364578,
                1.1603222619249833,
                1.0948094584934616,
                0.02059381274998706,
                1.4208857177347025
            ]
        },
        {
            "positions": [
                1.2277710270995552,
                -1.6427735368871277,
                1.0239709982470953,
                0.9497614777703487,
                0.00025705061748049207,
                1.4379128650518114
            ]
        },
        {
            "positions": [
                1.291294714130292,
                -1.6335713991377978,
                0.8876197345692072,
                0.8047134970472358,
                -0.020079711515026077,
                1.4549400123689202
            ]
        },
        {
            "positions": [
                1.3548184011610291,
                -1.624369261388468,
                0.7512684708913191,
                0.659665516324123,
                -0.04041647364753265,
                1.471967159686029
            ]
        },
        {
            "positions": [
                1.4183420881917663,
                -1.615167123639138,
                0.614917207213431,
                0.5146175356010101,
                -0.060753235780039216,
                1.488994307003138
            ]
        },
        {
            "positions": [
                1.481865775222503,
                -1.6059649858898082,
                0.47856594353554316,
                0.3695695548778972,
                -0.08108999791254579,
                1.5060214543202468
            ]
        },
        {
            "positions": [
                1.5453894622532403,
                -1.5967628481404783,
                0.34221467985765486,
                0.22452157415478435,
                -0.10142676004505236,
                1.5230486016373557
            ]
        },
        {
            "positions": [
                1.6089131492839772,
                -1.5875607103911484,
                0.205863416179767,
                0.07947359343167149,
                -0.12176352217755892,
                1.5400757489544645
            ]
        },
        {
            "positions": [
                1.6724368363147144,
                -1.5783585726418183,
                0.0695121525018787,
                -0.06557438729144138,
                -0.1421002843100655,
                1.5571028962715736
            ]
        },
        {
            "positions": [
                1.7359605233454514,
                -1.5691564348924885,
                -0.0668391111760096,
                -0.21062236801455425,
                -0.16243704644257206,
                1.5741300435886825
            ]
        },
        {
            "positions": [
                1.7994842103761886,
                -1.5599542971431586,
                -0.20319037485389746,
                -0.3556703487376671,
                -0.18277380857507863,
                1.5911571909057913
            ]
        },
        {
            "positions": [
                1.8630078974069255,
                -1.5507521593938287,
                -0.3395416385317853,
                -0.50071832946078,
                -0.2031105707075852,
                1.6081843382229002
            ]
        },
        {
            "positions": [
                1.9265315844376625,
                -1.5415500216444988,
                -0.4758929022096736,
                -0.6457663101838929,
                -0.22344733284009177,
                1.625211485540009
            ]
        },
        {
            "positions": [
                1.9900552714683994,
                -1.532347883895169,
                -0.6122441658875615,
                -0.7908142909070057,
                -0.24378409497259834,
                1.642238632857118
            ]
        },
        {
            "positions": [
                2.0535789584991364,
                -1.523145746145839,
                -0.7485954295654498,
                -0.9358622716301186,
                -0.2641208571051049,
                1.6592657801742268
            ]
        },
        {
            "positions": [
                2.1171026455298736,
                -1.513943608396509,
                -0.8849466932433381,
                -1.0809102523532315,
                -0.2844576192376115,
                1.6762929274913358
            ]
        },
        {
            "positions": [
                2.180626332560611,
                -1.5047414706471791,
                -1.021297956921226,
                -1.2259582330763443,
                -0.30479438137011805,
                1.6933200748084447
            ]
        },
        {
            "positions": [
                2.2441500195913475,
                -1.4955393328978492,
                -1.1576492205991142,
                -1.3710062137994572,
                -0.3251311435026246,
                1.7103472221255536
            ]
        },
        {
            "positions": [
                2.3076737066220847,
                -1.4863371951485194,
                -1.2940004842770019,
                -1.5160541945225705,
                -0.34546790563513124,
                1.7273743694426624
            ]
        },
        {
            "positions": [
                2.264726177905948,
                -1.4938127371571195,
                -1.389151818002325,
                -1.6197815462582246,
                -0.36193488235681043,
                1.8496438972667137
            ]
        },
        {
            "positions": [
                2.2217786491898113,
                -1.5012882791657196,
                -1.4843031517276484,
                -1.7235088979938789,
                -0.37840185907848956,
                1.9719134250907648
            ]
        },
        {
            "positions": [
                2.1788311204736748,
                -1.50876382117432,
                -1.5794544854529715,
                -1.827236249729533,
                -0.39486883580016874,
                2.094182952914816
            ]
        },
        {
            "positions": [
                2.135883591757538,
                -1.51623936318292,
                -1.6746058191782947,
                -1.9309636014651872,
                -0.4113358125218479,
                2.2164524807388672
            ]
        },
        {
            "positions": [
                2.0929360630414013,
                -1.5237149051915202,
                -1.769757152903618,
                -2.0346909532008413,
                -0.4278027892435271,
                2.3387220085629186
            ]
        },
        {
            "positions": [
                2.0499885343252644,
                -1.5311904472001203,
                -1.8649084866289412,
                -2.1384183049364953,
                -0.4442697659652063,
                2.4609915363869694
            ]
        },
        {
            "positions": [
                2.007041005609128,
                -1.5386659892087207,
                -1.9600598203542643,
                -2.2421456566721494,
                -0.46073674268688547,
                2.5832610642110208
            ]
        },
        {
            "positions": [
                1.9640934768929912,
                -1.5461415312173208,
                -2.0552111540795877,
                -2.3458730084078034,
                -0.4772037194085646,
                2.705530592035072
            ]
        },
        {
            "positions": [
                1.9211459481768545,
                -1.553617073225921,
                -2.150362487804911,
                -2.449600360143458,
                -0.49367069613024384,
                2.8278001198591234
            ]
        },
        {
            "positions": [
                1.8781984194607177,
                -1.561092615234521,
                -2.245513821530234,
                -2.553327711879112,
                -0.5101376728519229,
                2.9500696476831747
            ]
        },
        {
            "positions": [
                1.835250890744581,
                -1.5685681572431212,
                -2.3406651552555573,
                -2.6570550636147665,
                -0.5266046495736021,
                3.072339175507226
            ]
        },
        {
            "positions": [
                1.7923033620284443,
                -1.5760436992517215,
                -2.4358164889808807,
                -2.7607824153504206,
                -0.5430716262952813,
                3.194608703331277
            ]
        },
        {
            "positions": [
                1.7493558333123076,
                -1.5835192412603216,
                -2.530967822706204,
                -2.8645097670860746,
                -0.5595386030169605,
                3.3168782311553286
            ]
        },
        {
            "positions": [
                1.7064083045961709,
                -1.5909947832689217,
                -2.626119156431527,
                -2.9682371188217287,
                -0.5760055797386396,
                3.4391477589793795
            ]
        },
        {
            "positions": [
                1.8354352244612095,
                -1.6341963476048467,
                -2.524641003896721,
                -2.9165888816620047,
                -0.5597560659697327,
                3.385201616658811
            ]
        },
        {
            "positions": [
                1.9644621443262484,
                -1.6773979119407716,
                -2.423162851361915,
                -2.864940644502281,
                -0.5435065522008257,
                3.3312554743382425
            ]
        },
        {
            "positions": [
                2.093489064191287,
                -1.7205994762766965,
                -2.3216846988271085,
                -2.8132924073425576,
                -0.5272570384319187,
                3.277309332017674
            ]
        },
        {
            "positions": [
                2.2225159840563258,
                -1.7638010406126212,
                -2.2202065462923026,
                -2.7616441701828336,
                -0.5110075246630118,
                3.223363189697106
            ]
        },
        {
            "positions": [
                2.3515429039213647,
                -1.8070026049485461,
                -2.1187283937574968,
                -2.7099959330231096,
                -0.4947580108941048,
                3.1694170473765375
            ]
        },
        {
            "positions": [
                2.4805698237864036,
                -1.850204169284471,
                -2.0172502412226905,
                -2.658347695863386,
                -0.47850849712519783,
                3.115470905055969
            ]
        },
        {
            "positions": [
                2.609596743651442,
                -1.893405733620396,
                -1.9157720886878844,
                -2.6066994587036625,
                -0.4622589833562909,
                3.0615247627354005
            ]
        },
        {
            "positions": [
                2.738623663516481,
                -1.936607297956321,
                -1.8142939361530783,
                -2.5550512215439385,
                -0.4460094695873839,
                3.007578620414832
            ]
        },
        {
            "positions": [
                2.700012276648571,
                -2.062961180364482,
                -1.7278687770709353,
                -2.521075349184473,
                -0.4549586045113085,
                3.089110280445103
            ]
        },
        {
            "positions": [
                2.6614008897806603,
                -2.189315062772643,
                -1.6414436179887923,
                -2.4870994768250076,
                -0.46390773943523306,
                3.170641940475374
            ]
        }
    ]
}