{
    "goal": {
        "global_pose": {
            "orientation": {
                "w": 0.005598929693374612,
                "x": 0.007748599140229565,
                "y": 0.7110244013736278,
                "z": -0.7031023480610252
            },
            "position": {
                "x": 0.1141497679147869,
                "y": -0.7141253447532654,
                "z": 0.3711530566215515
            }
        },
        "name": "move_to_auspresseinheit_B"
    },
    "id": "SPARStwo_move_to_auspresseinheit_B_78",
    "joint_names": [
        "shoulder_pan_joint",
        "shoulder_lift_joint",
        "elbow_joint",
        "wrist_1_joint",
        "wrist_2_joint",
        "wrist_3_joint"
    ],
    "metrics": {
        "cart_traj_len": 0.5650878286462823,
        "distance_elbow_joint": 0.06163292956280397,
        "distance_shoulder_lift_joint": 0.29413773023226053,
        "distance_shoulder_pan_joint": 0.5767795784107916,
        "distance_wrist_1_joint": 0.3239733128377248,
        "distance_wrist_2_joint": 1.0009254315562655,
        "distance_wrist_3_joint": 0.007611818999270881,
        "smoothness": 5.075305255429287e-16,
        "time": 5.032509097,
        "traj_len": 1.5050118941719755,
        "weighted_distance": 1.8987319937241403
    },
    "planner": "SPARStwo",
    "start": {
        "state": {
            "elbow_joint": 2.0193083361928714,
            "shoulder_lift_joint": -1.1220246554650708,
            "shoulder_pan_joint": -1.0952077554168747,
            "wrist_1_joint": -0.8559753972642168,
            "wrist_2_joint": 0.4759566250798843,
            "wrist_3_joint": -3.1240929996934557
        }
    },
    "waypoints": [
        {
            "positions": [
                -1.0952077554168747,
                -1.1220246554650708,
                2.0193083361928714,
                -0.8559753972642168,
                0.4759566250798843,
                -3.1240929996934557
            ]
        },
        {
            "positions": [
                -1.1913376851520066,
                -1.1710476105037808,
                2.0090361812657376,
                -0.801979845124596,
                0.6427775303392619,
                -3.122824363193577
            ]
        },
        {
            "positions": [
                -1.2874676148871385,
                -1.220070565542491,
                1.9987640263386035,
                -0.7479842929849752,
                0.8095984355986394,
                -3.121555726693699
            ]
        },
        {
            "positions": [
                -1.3835975446222704,
                -1.269093520581201,
                1.9884918714114694,
                -0.6939887408453544,
                0.9764193408580171,
                -3.1202870901938202
            ]
        },
        {
            "positions": [
                -1.4797274743574023,
                -1.318116475619911,
                1.9782197164843354,
                -0.6399931887057336,
                1.1432402461173945,
                -3.1190184536939416
            ]
        },
        {
            "positions": [
                -1.5758574040925344,
                -1.3671394306586213,
                1.9679475615572015,
                -0.5859976365661128,
                1.3100611513767721,
                -3.1177498171940634
            ]
        },
        {
            "positions": [
                -1.6719873338276663,
                -1.4161623856973313,
                1.9576754066300674,
                -0.532002084426492,
                1.4768820566361498,
                -3.116481180694185
            ]
        }
    ]
}