{
    "goal": {
        "global_pose": {
            "orientation": {
                "w": 0.7047431493862688,
                "x": -0.7094548369677653,
                "y": 0.0024358444001904,
                "z": -0.0022348060817251984
            },
            "position": {
                "x": -0.39052492380142206,
                "y": 0.3671506643295288,
                "z": 0.19426114857196808
            }
        },
        "name": "move_to_magneteinheit_D"
    },
    "id": "SPARS_move_to_magneteinheit_D_57",
    "joint_names": [
        "shoulder_pan_joint",
        "shoulder_lift_joint",
        "elbow_joint",
        "wrist_1_joint",
        "wrist_2_joint",
        "wrist_3_joint"
    ],
    "metrics": {
        "cart_traj_len": 3.790368378081,
        "distance_elbow_joint": 3.147541616365365,
        "distance_shoulder_lift_joint": 1.6666931376970207,
        "distance_shoulder_pan_joint": 3.0313687448814415,
        "distance_wrist_1_joint": 1.569709261844865,
        "distance_wrist_2_joint": 1.358372153799192,
        "distance_wrist_3_joint": 3.162327765995299,
        "smoothness": 0.2116449995929022,
        "time": 5.064377127,
        "traj_len": 3.7330969289027554,
        "weighted_distance": 4.8154698242453815
    },
    "planner": "SPARS",
    "start": {
        "state": {
            "elbow_joint": 0.749534889911806,
            "shoulder_lift_joint": -0.6476975780787326,
            "shoulder_pan_joint": -2.711696901376241,
            "wrist_1_joint": -0.07506478083263063,
            "wrist_2_joint": 0.43296659715538205,
            "wrist_3_joint": -3.14703540197715
        }
    },
    "waypoints": [
        {
            "positions": [
                -2.711696901376241,
                -0.6476975780787326,
                0.749534889911806,
                -0.07506478083263063,
                0.43296659715538205,
                -3.14703540197715
            ]
        },
        {
            "positions": [
                -2.7396692022180873,
                -0.717802680541179,
                0.7524909084075235,
                -0.01590670390597984,
                0.4598998933420934,
                -3.00886997591207
            ]
        },
        {
            "positions": [
                -2.767641503059934,
                -0.7879077830036254,
                0.755446926903241,
                0.04325137302067095,
                0.4868331895288047,
                -2.8707045498469905
            ]
        },
        {
            "positions": [
                -2.79561380390178,
                -0.8580128854660718,
                0.7584029453989586,
                0.10240944994732173,
                0.5137664857155161,
                -2.7325391237819106
            ]
        },
        {
            "positions": [
                -2.7007927643267187,
                -0.9205675861285272,
                0.7479640281088054,
                0.1245824301655149,
                0.5192837888153681,
                -2.579160362779703
            ]
        },
        {
            "positions": [
                -2.605971724751657,
                -0.9831222867909825,
                0.737525110818652,
                0.14675541038370807,
                0.5248010919152202,
                -2.4257816017774956
            ]
        },
        {
            "positions": [
                -2.5111506851765952,
                -1.0456769874534377,
                0.7270861935284988,
                0.16892839060190123,
                0.5303183950150723,
                -2.272402840775288
            ]
        },
        {
            "positions": [
                -2.4163296456015337,
                -1.1082316881158931,
                0.7166472762383456,
                0.19110137082009437,
                0.5358356981149243,
                -2.11902407977308
            ]
        },
        {
            "positions": [
                -2.3215086060264722,
                -1.1707863887783485,
                0.7062083589481922,
                0.21327435103828757,
                0.5413530012147763,
                -1.965645318770873
            ]
        },
        {
            "positions": [
                -2.2266875664514103,
                -1.233341089440804,
                0.695769441658039,
                0.2354473312564807,
                0.5468703043146284,
                -1.8122665577686652
            ]
        },
        {
            "positions": [
                -2.131866526876349,
                -1.295895790103259,
                0.6853305243678857,
                0.2576203114746739,
                0.5523876074144805,
                -1.6588877967664577
            ]
        },
        {
            "positions": [
                -2.0370454873012873,
                -1.3584504907657144,
                0.6748916070777324,
                0.27979329169286704,
                0.5579049105143324,
                -1.5055090357642502
            ]
        },
        {
            "positions": [
                -1.9335952435982449,
                -1.3575079105257362,
                0.5433899189505607,
                0.32804933585907514,
                0.5153190770983866,
                -1.4410574718500753
            ]
        },
        {
            "positions": [
                -1.8301449998952026,
                -1.356565330285758,
                0.4118882308233888,
                0.37630538002528324,
                0.47273324368244096,
                -1.3766059079359
            ]
        },
        {
            "positions": [
                -1.7266947561921602,
                -1.3556227500457798,
                0.28038654269621704,
                0.42456142419149134,
                0.4301474102664952,
                -1.312154344021725
            ]
        },
        {
            "positions": [
                -1.6232445124891177,
                -1.3546801698058017,
                0.1488848545690452,
                0.47281746835769944,
                0.3875615768505495,
                -1.24770278010755
            ]
        },
        {
            "positions": [
                -1.5197942687860753,
                -1.3537375895658235,
                0.017383166441873432,
                0.5210735125239074,
                0.34497574343460374,
                -1.183251216193375
            ]
        },
        {
            "positions": [
                -1.416344025083033,
                -1.3527950093258454,
                -0.11411852168529835,
                0.5693295566901155,
                0.302389910018658,
                -1.1187996522791999
            ]
        },
        {
            "positions": [
                -1.3128937813799908,
                -1.3518524290858671,
                -0.24562020981247012,
                0.6175856008563236,
                0.25980407660271226,
                -1.0543480883650247
            ]
        },
        {
            "positions": [
                -1.2094435376769481,
                -1.350909848845889,
                -0.377121897939642,
                0.6658416450225317,
                0.21721824318676652,
                -0.9898965244508497
            ]
        },
        {
            "positions": [
                -1.1059932939739059,
                -1.3499672686059108,
                -0.5086235860668138,
                0.7140976891887398,
                0.17463240977082078,
                -0.9254449605366747
            ]
        },
        {
            "positions": [
                -1.0025430502708634,
                -1.3490246883659327,
                -0.6401252741939856,
                0.7623537333549479,
                0.13204657635487504,
                -0.8609933966224996
            ]
        },
        {
            "positions": [
                -0.899092806567821,
                -1.3480821081259544,
                -0.7716269623211574,
                0.8106097775211561,
                0.08946074293892925,
                -0.7965418327083245
            ]
        },
        {
            "positions": [
                -0.7956425628647787,
                -1.3471395278859764,
                -0.9031286504483291,
                0.8588658216873641,
                0.046874909522983566,
                -0.7320902687941495
            ]
        },
        {
            "positions": [
                -0.6921923191617363,
                -1.346196947645998,
                -1.0346303385755011,
                0.9071218658535722,
                0.00428907610703777,
                -0.6676387048799743
            ]
        },
        {
            "positions": [
                -0.5887420754586941,
                -1.34525436740602,
                -1.1661320267026727,
                0.9553779100197803,
                -0.038296757308907914,
                -0.6031871409657994
            ]
        },
        {
            "positions": [
                -0.4852918317556516,
                -1.3443117871660417,
                -1.2976337148298447,
                1.0036339541859884,
                -0.08088259072485371,
                -0.5387355770516242
            ]
        },
        {
            "positions": [
                -0.38184158805260915,
                -1.3433692069260637,
                -1.4291354029570165,
                1.0518899983521965,
                -0.1234684241407994,
                -0.4742840131374493
            ]
        },
        {
            "positions": [
                -0.2783913443495667,
                -1.3424266266860854,
                -1.5606370910841882,
                1.1001460425184046,
                -0.1660542575567452,
                -0.4098324492232741
            ]
        },
        {
            "positions": [
                -0.17494110064652446,
                -1.3414840464461073,
                -1.69213877921136,
                1.1484020866846127,
                -0.20864009097269087,
                -0.34538088530909916
            ]
        },
        {
            "positions": [
                -0.07149085694348192,
                -1.340541466206129,
                -1.823640467338532,
                1.1966581308508208,
                -0.2512259243886366,
                -0.280929321394924
            ]
        },
        {
            "positions": [
                -0.05349397255163103,
                -1.44322650856497,
                -1.9506997597091194,
                1.2558778300077935,
                -0.21615916552364497,
                -0.23581517477329877
            ]
        },
        {
            "positions": [
                -0.03549708815978015,
                -1.545911550923811,
                -2.0777590520797067,
                1.3150975291647662,
                -0.18109240665865334,
                -0.19070102815167356
            ]
        },
        {
            "positions": [
                -0.01750020376792926,
                -1.648596593282652,
                -2.204818344450294,
                1.3743172283217389,
                -0.1460256477936617,
                -0.1455868815300483
            ]
        },
        {
            "positions": [
                -0.059834764323442174,
                -1.8060906116261346,
                -2.248681412207534,
                1.4043990414943628,
                -0.06624996555808735,
                -0.1053670701429989
            ]
        },
        {
            "positions": [
                -0.10216932487895508,
                -1.9635846299696174,
                -2.292544479964774,
                1.4344808546669865,
                0.013525716677487004,
                -0.06514725875594947
            ]
        },
        {
            "positions": [
                -0.14450388543446802,
                -2.1210786483131,
                -2.336407547722014,
                1.4645626678396102,
                0.09330139891306136,
                -0.02492744736890004
            ]
        },
        {
            "positions": [
                -0.18683844598998092,
                -2.2785726666565824,
                -2.3802706154792537,
                1.4946444810122341,
                0.17307708114863574,
                0.015292364018149384
            ]
        }
    ]
}