{
    "goal": {
        "global_pose": {
            "orientation": {
                "w": 0.005598929693374612,
                "x": 0.007748599140229565,
                "y": 0.7110244013736278,
                "z": -0.7031023480610252
            },
            "position": {
                "x": 0.1141497679147869,
                "y": -0.7141253447532654,
                "z": 0.3711530566215515
            }
        },
        "name": "move_to_auspresseinheit_B"
    },
    "id": "SPARS_move_to_auspresseinheit_B_43",
    "joint_names": [
        "shoulder_pan_joint",
        "shoulder_lift_joint",
        "elbow_joint",
        "wrist_1_joint",
        "wrist_2_joint",
        "wrist_3_joint"
    ],
    "metrics": {
        "cart_traj_len": 0.5645191010747401,
        "distance_elbow_joint": 0.06158762306593313,
        "distance_shoulder_lift_joint": 0.29408258451240976,
        "distance_shoulder_pan_joint": 0.5745058169751975,
        "distance_wrist_1_joint": 0.3207757069656326,
        "distance_wrist_2_joint": 1.0066005103202806,
        "distance_wrist_3_joint": 0.004034853605042965,
        "smoothness": 7.612957903237841e-16,
        "time": 5.044277825,
        "traj_len": 1.5038574052896427,
        "weighted_distance": 1.8965845670416321
    },
    "planner": "SPARS",
    "start": {
        "state": {
            "elbow_joint": 2.0193083361928714,
            "shoulder_lift_joint": -1.1220246554650708,
            "shoulder_pan_joint": -1.0952077554168747,
            "wrist_1_joint": -0.8559753972642168,
            "wrist_2_joint": 0.4759566250798843,
            "wrist_3_joint": -3.1240929996934557
        }
    },
    "waypoints": [
        {
            "positions": [
                -1.0952077554168747,
                -1.1220246554650708,
                2.0193083361928714,
                -0.8559753972642168,
                0.4759566250798843,
                -3.1240929996934557
            ]
        },
        {
            "positions": [
                -1.190958724912741,
                -1.1710384195504724,
                2.009043732348549,
                -0.8025127794366114,
                0.6437233767999311,
                -3.123420524092615
            ]
        },
        {
            "positions": [
                -1.2867096944086072,
                -1.220052183635874,
                1.9987791285042271,
                -0.749050161609006,
                0.8114901285199778,
                -3.1227480484917747
            ]
        },
        {
            "positions": [
                -1.3824606639044734,
                -1.2690659477212756,
                1.9885145246599047,
                -0.6955875437814005,
                0.9792568802400246,
                -3.1220755728909344
            ]
        },
        {
            "positions": [
                -1.4782116334003397,
                -1.3180797118066774,
                1.9782499208155826,
                -0.6421249259537951,
                1.1470236319600713,
                -3.1214030972900937
            ]
        },
        {
            "positions": [
                -1.573962602896206,
                -1.367093475892079,
                1.9679853169712604,
                -0.5886623081261896,
                1.3147903836801182,
                -3.120730621689253
            ]
        },
        {
            "positions": [
                -1.6697135723920722,
                -1.4161072399774806,
                1.9577207131269383,
                -0.5351996902985842,
                1.482557135400165,
                -3.1200581460884127
            ]
        }
    ]
}