{
    "goal": {
        "global_pose": {
            "orientation": {
                "w": -0.4816463035849501,
                "x": 0.5182115481033762,
                "y": 0.4908360881923453,
                "z": -0.5084816262002911
            },
            "position": {
                "x": -0.8240239810943604,
                "y": -0.300875300988555,
                "z": 0.16403168439865112
            }
        },
        "name": "move_to_storage_C"
    },
    "id": "SPARS_move_to_storage_C_84",
    "joint_names": [
        "shoulder_pan_joint",
        "shoulder_lift_joint",
        "elbow_joint",
        "wrist_1_joint",
        "wrist_2_joint",
        "wrist_3_joint"
    ],
    "metrics": {
        "cart_traj_len": 0.5764582570333184,
        "distance_elbow_joint": 0.25792169108313456,
        "distance_shoulder_lift_joint": 0.18795638499862166,
        "distance_shoulder_pan_joint": 0.49579485492899167,
        "distance_wrist_1_joint": 0.08392719708542695,
        "distance_wrist_2_joint": 1.0621300668743618,
        "distance_wrist_3_joint": 0.074782111466551,
        "smoothness": 0.0,
        "time": 5.038452393999999,
        "traj_len": 1.4705483012934624,
        "weighted_distance": 1.8596058166530824
    },
    "planner": "SPARS",
    "start": {
        "state": {
            "elbow_joint": 2.010868314990456,
            "shoulder_lift_joint": -1.1634956873337592,
            "shoulder_pan_joint": -2.4736205022346125,
            "wrist_1_joint": -0.8367026794202681,
            "wrist_2_joint": 0.6746043897044499,
            "wrist_3_joint": -3.1496632123970403
        }
    },
    "waypoints": [
        {
            "positions": [
                -2.4736205022346125,
                -1.1634956873337592,
                2.010868314990456,
                -0.8367026794202681,
                0.6746043897044499,
                -3.1496632123970403
            ]
        },
        {
            "positions": [
                -2.556252978056111,
                -1.1321696231673222,
                1.9678813664766,
                -0.8227148132393636,
                0.8516260675168436,
                -3.137199527152615
            ]
        },
        {
            "positions": [
                -2.63888545387761,
                -1.1008435590008854,
                1.9248944179627443,
                -0.8087269470584592,
                1.0286477453292373,
                -3.12473584190819
            ]
        },
        {
            "positions": [
                -2.7215179296991083,
                -1.0695174948344484,
                1.8819074694488886,
                -0.7947390808775546,
                1.205669423141631,
                -3.1122721566637646
            ]
        },
        {
            "positions": [
                -2.804150405520607,
                -1.0381914306680113,
                1.8389205209350328,
                -0.7807512146966501,
                1.3826911009540246,
                -3.0998084714193395
            ]
        },
        {
            "positions": [
                -2.8867828813421057,
                -1.0068653665015745,
                1.795933572421177,
                -0.7667633485157457,
                1.5597127787664182,
                -3.0873447861749144
            ]
        },
        {
            "positions": [
                -2.969415357163604,
                -0.9755393023351375,
                1.7529466239073213,
                -0.7527754823348412,
                1.7367344565788116,
                -3.0748811009304893
            ]
        }
    ]
}