{
    "goal": {
        "global_pose": {
            "orientation": {
                "w": 0.7047431468963623,
                "x": -0.7094548344612122,
                "y": 0.0024358443915843964,
                "z": -0.0022348060738295317
            },
            "position": {
                "x": 0.6094750761985779,
                "y": 0.3671506643295288,
                "z": 0.19426114857196808
            }
        },
        "name": "move_to_magneteinheit_A"
    },
    "id": "SPARStwo_move_to_magneteinheit_A_94",
    "joint_names": [
        "shoulder_pan_joint",
        "shoulder_lift_joint",
        "elbow_joint",
        "wrist_1_joint",
        "wrist_2_joint",
        "wrist_3_joint"
    ],
    "metrics": {
        "cart_traj_len": 3.5709028420772246,
        "distance_elbow_joint": 3.913061768025261,
        "distance_shoulder_lift_joint": 0.9441402181117451,
        "distance_shoulder_pan_joint": 2.7873716542331795,
        "distance_wrist_1_joint": 0.9539703710244352,
        "distance_wrist_2_joint": 1.7269848111557915,
        "distance_wrist_3_joint": 3.604515890646254,
        "smoothness": 0.16903522406715843,
        "time": 5.03492809,
        "traj_len": 3.7322975113456156,
        "weighted_distance": 4.880576981942751
    },
    "planner": "SPARStwo",
    "start": {
        "state": {
            "elbow_joint": -1.9196185241190666,
            "shoulder_lift_joint": -1.2443396400964142,
            "shoulder_pan_joint": 2.6996025414629847,
            "wrist_1_joint": -1.5485510000780065,
            "wrist_2_joint": -1.5709468930060704,
            "wrist_3_joint": 0.4420197071253992
        }
    },
    "waypoints": [
        {
            "positions": [
                2.6996025414629847,
                -1.2443396400964142,
                -1.9196185241190666,
                -1.5485510000780065,
                -1.5709468930060704,
                0.4420197071253992
            ]
        },
        {
            "positions": [
                2.5418626310650443,
                -1.2145369945104239,
                -1.807021315175915,
                -1.5011593385752675,
                -1.5373603649311411,
                0.4429765479332571
            ]
        },
        {
            "positions": [
                2.3841227206671034,
                -1.1847343489244335,
                -1.6944241062327632,
                -1.4537676770725283,
                -1.503773836856212,
                0.44393338874111504
            ]
        },
        {
            "positions": [
                2.226382810269163,
                -1.1549317033384432,
                -1.5818268972896115,
                -1.4063760155697893,
                -1.470187308781283,
                0.44489022954897295
            ]
        },
        {
            "positions": [
                2.068642899871222,
                -1.1251290577524529,
                -1.46922968834646,
                -1.3589843540670503,
                -1.4366007807063537,
                0.44584707035683085
            ]
        },
        {
            "positions": [
                1.9109029894732816,
                -1.0953264121664625,
                -1.3566324794033082,
                -1.3115926925643113,
                -1.4030142526314244,
                0.44680391116468876
            ]
        },
        {
            "positions": [
                1.753163079075341,
                -1.0655237665804722,
                -1.2440352704601565,
                -1.2642010310615721,
                -1.3694277245564952,
                0.4477607519725467
            ]
        },
        {
            "positions": [
                1.5954231686774003,
                -1.035721120994482,
                -1.131438061517005,
                -1.2168093695588331,
                -1.335841196481566,
                0.44871759278040463
            ]
        },
        {
            "positions": [
                1.4376832582794596,
                -1.0059184754084916,
                -1.0188408525738533,
                -1.1694177080560941,
                -1.302254668406637,
                0.44967443358826253
            ]
        },
        {
            "positions": [
                1.2799433478815192,
                -0.9761158298225013,
                -0.9062436436307015,
                -1.122026046553355,
                -1.2686681403317077,
                0.4506312743961205
            ]
        },
        {
            "positions": [
                1.1222034374835785,
                -0.946313184236511,
                -0.7936464346875498,
                -1.074634385050616,
                -1.2350816122567785,
                0.4515881152039784
            ]
        },
        {
            "positions": [
                0.9644635270856379,
                -0.9165105386505207,
                -0.6810492257443981,
                -1.027242723547877,
                -1.2014950841818492,
                0.4525449560118363
            ]
        },
        {
            "positions": [
                0.8067236166876972,
                -0.8867078930645304,
                -0.5684520168012464,
                -0.9798510620451378,
                -1.16790855610692,
                0.45350179681969427
            ]
        },
        {
            "positions": [
                0.6489837062897568,
                -0.8569052474785401,
                -0.45585480785809507,
                -0.9324594005423988,
                -1.134322028031991,
                0.4544586376275522
            ]
        },
        {
            "positions": [
                0.4912437958918159,
                -0.8271026018925498,
                -0.34325759891494334,
                -0.8850677390396597,
                -1.1007354999570618,
                0.4554154784354101
            ]
        },
        {
            "positions": [
                0.33350388549387544,
                -0.7972999563065595,
                -0.2306603899717916,
                -0.8376760775369206,
                -1.0671489718821325,
                0.456372319243268
            ]
        },
        {
            "positions": [
                0.17576397509593455,
                -0.7674973107205691,
                -0.11806318102863989,
                -0.7902844160341816,
                -1.0335624438072033,
                0.45732916005112595
            ]
        },
        {
            "positions": [
                0.01802406469799407,
                -0.7376946651345788,
                -0.005465972085488269,
                -0.7428927545314425,
                -0.9999759157322742,
                0.45828600085898386
            ]
        },
        {
            "positions": [
                0.019393765480283688,
                -0.7600369000043943,
                0.09964735694476896,
                -0.7499315642103368,
                -0.9396324164839811,
                0.2745605159831227
            ]
        },
        {
            "positions": [
                0.020763466262573305,
                -0.7823791348742097,
                0.2047606859750262,
                -0.756970373889231,
                -0.879288917235688,
                0.09083503110726154
            ]
        },
        {
            "positions": [
                0.02213316704486292,
                -0.8047213697440252,
                0.30987401500528344,
                -0.7640091835681253,
                -0.818945417987395,
                -0.09289045376859961
            ]
        },
        {
            "positions": [
                0.023502867827152538,
                -0.8270636046138407,
                0.41498734403554066,
                -0.7710479932470196,
                -0.7586019187391018,
                -0.27661593864446077
            ]
        },
        {
            "positions": [
                0.024872568609442154,
                -0.849405839483656,
                0.5201006730657979,
                -0.7780868029259138,
                -0.6982584194908088,
                -0.4603414235203219
            ]
        },
        {
            "positions": [
                0.02624226939173177,
                -0.8717480743534715,
                0.6252140020960552,
                -0.7851256126048081,
                -0.6379149202425156,
                -0.6440669083961831
            ]
        },
        {
            "positions": [
                0.027611970174021387,
                -0.8940903092232869,
                0.7303273311263123,
                -0.7921644222837023,
                -0.5775714209942225,
                -0.8277923932720442
            ]
        },
        {
            "positions": [
                0.028981670956311004,
                -0.9164325440931024,
                0.8354406601565696,
                -0.7992032319625966,
                -0.5172279217459295,
                -1.0115178781479055
            ]
        },
        {
            "positions": [
                0.030351371738600624,
                -0.9387747789629178,
                0.9405539891868269,
                -0.8062420416414908,
                -0.4568844224976364,
                -1.1952433630237667
            ]
        },
        {
            "positions": [
                0.03172107252089024,
                -0.9611170138327333,
                1.0456673182170841,
                -0.8132808513203851,
                -0.3965409232493433,
                -1.3789688478996278
            ]
        },
        {
            "positions": [
                0.03309077330317986,
                -0.9834592487025487,
                1.1507806472473412,
                -0.8203196609992793,
                -0.3361974240010501,
                -1.562694332775489
            ]
        },
        {
            "positions": [
                0.03446047408546947,
                -1.005801483572364,
                1.2558939762775987,
                -0.8273584706781736,
                -0.27585392475275705,
                -1.7464198176513501
            ]
        },
        {
            "positions": [
                0.03583017486775909,
                -1.0281437184421796,
                1.3610073053078557,
                -0.8343972803570678,
                -0.21551042550446398,
                -1.9301453025272113
            ]
        },
        {
            "positions": [
                0.0371998756500487,
                -1.050485953311995,
                1.4661206343381128,
                -0.8414360900359621,
                -0.1551669262561709,
                -2.1138707874030724
            ]
        },
        {
            "positions": [
                0.038569576432338326,
                -1.0728281881818105,
                1.5712339633683703,
                -0.8484748997148563,
                -0.09482342700787783,
                -2.2975962722789336
            ]
        },
        {
            "positions": [
                0.039939277214627936,
                -1.095170423051626,
                1.6763472923986273,
                -0.8555137093937506,
                -0.03447992775958475,
                -2.4813217571547947
            ]
        },
        {
            "positions": [
                0.04130897799691756,
                -1.1175126579214414,
                1.7814606214288848,
                -0.8625525190726449,
                0.025863571488708437,
                -2.665047242030656
            ]
        },
        {
            "positions": [
                0.042678678779207176,
                -1.1398548927912568,
                1.886573950459142,
                -0.8695913287515391,
                0.0862070707370014,
                -2.848772726906517
            ]
        },
        {
            "positions": [
                0.04404837956149679,
                -1.1621971276610723,
                1.9916872794893994,
                -0.8766301384304334,
                0.14655056998529453,
                -3.032498211782378
            ]
        },
        {
            "positions": [
                0.1238172421661856,
                -1.149204347037656,
                1.9899313150726032,
                -0.862055396851553,
                0.13706322182086775,
                -3.1299635960536856
            ]
        }
    ]
}