{
    "goal": {
        "global_pose": {
            "orientation": {
                "w": 0.005598929693374612,
                "x": 0.007748599140229565,
                "y": 0.7110244013736278,
                "z": -0.7031023480610252
            },
            "position": {
                "x": 0.1141497679147869,
                "y": -0.7141253447532654,
                "z": 0.3711530566215515
            }
        },
        "name": "move_to_auspresseinheit_B"
    },
    "id": "SPARS_move_to_auspresseinheit_B_126",
    "joint_names": [
        "shoulder_pan_joint",
        "shoulder_lift_joint",
        "elbow_joint",
        "wrist_1_joint",
        "wrist_2_joint",
        "wrist_3_joint"
    ],
    "metrics": {
        "cart_traj_len": 0.5653535153462212,
        "distance_elbow_joint": 0.06529340991406962,
        "distance_shoulder_lift_joint": 0.2940665424341029,
        "distance_shoulder_pan_joint": 0.5752111335146424,
        "distance_wrist_1_joint": 0.33409954678731324,
        "distance_wrist_2_joint": 1.0070291929017252,
        "distance_wrist_3_joint": 0.008610004023945628,
        "smoothness": 3.806478935924272e-16,
        "time": 5.006478061,
        "traj_len": 1.5113933404563482,
        "weighted_distance": 1.9085750122310439
    },
    "planner": "SPARS",
    "start": {
        "state": {
            "elbow_joint": 2.0193083361928714,
            "shoulder_lift_joint": -1.1220246554650708,
            "shoulder_pan_joint": -1.0952077554168747,
            "wrist_1_joint": -0.8559753972642168,
            "wrist_2_joint": 0.4759566250798843,
            "wrist_3_joint": -3.1240929996934557
        }
    },
    "waypoints": [
        {
            "positions": [
                -1.0952077554168747,
                -1.1220246554650708,
                2.0193083361928714,
                -0.8559753972642168,
                0.4759566250798843,
                -3.1240929996934557
            ]
        },
        {
            "positions": [
                -1.1910762776693151,
                -1.1710357458707545,
                2.0084261012071933,
                -0.8002921394663313,
                0.6437948238968385,
                -3.122657999022798
            ]
        },
        {
            "positions": [
                -1.2869447999217554,
                -1.2200468362764385,
                1.9975438662215148,
                -0.7446088816684457,
                0.8116330227137927,
                -3.1212229983521405
            ]
        },
        {
            "positions": [
                -1.3828133221741958,
                -1.2690579266821223,
                1.9866616312358367,
                -0.6889256238705601,
                0.9794712215307468,
                -3.119787997681483
            ]
        },
        {
            "positions": [
                -1.478681844426636,
                -1.318069017087806,
                1.9757793962501584,
                -0.6332423660726747,
                1.147309420347701,
                -3.1183529970108252
            ]
        },
        {
            "positions": [
                -1.5745503666790768,
                -1.36708010749349,
                1.96489716126448,
                -0.5775591082747891,
                1.3151476191646554,
                -3.1169179963401676
            ]
        },
        {
            "positions": [
                -1.670418888931517,
                -1.4160911978991737,
                1.9540149262788018,
                -0.5218758504769035,
                1.4829858179816096,
                -3.11548299566951
            ]
        }
    ]
}