{
    "goal": {
        "global_pose": {
            "orientation": {
                "w": 0.5084816262002911,
                "x": -0.4908360881923452,
                "y": 0.5182115481033761,
                "z": -0.48164630358495003
            },
            "position": {
                "x": 0.5540239810943604,
                "y": -0.46912469901144505,
                "z": 0.16403168439865112
            }
        },
        "name": "move_to_storage_B"
    },
    "id": "SPARS_move_to_storage_B_11",
    "joint_names": [
        "shoulder_pan_joint",
        "shoulder_lift_joint",
        "elbow_joint",
        "wrist_1_joint",
        "wrist_2_joint",
        "wrist_3_joint"
    ],
    "metrics": {
        "cart_traj_len": 2.276528951297525,
        "distance_elbow_joint": 2.54305848183533,
        "distance_shoulder_lift_joint": 0.800224508671016,
        "distance_shoulder_pan_joint": 1.0818399344332152,
        "distance_wrist_1_joint": 2.9972333443116383,
        "distance_wrist_2_joint": 2.7171547867510135,
        "distance_wrist_3_joint": 3.1269125178772343,
        "smoothness": 0.23488844895632027,
        "time": 5.120210003,
        "traj_len": 3.642310197371916,
        "weighted_distance": 5.023408876519666
    },
    "planner": "SPARS",
    "start": {
        "state": {
            "elbow_joint": 1.664937868594044,
            "shoulder_lift_joint": -0.661644460510453,
            "shoulder_pan_joint": -0.9139846352900073,
            "wrist_1_joint": 2.146753192139373,
            "wrist_2_joint": -2.2341966793290973,
            "wrist_3_joint": 0.005466555786416001
        }
    },
    "waypoints": [
        {
            "positions": [
                -0.9139846352900073,
                -0.661644460510453,
                1.664937868594044,
                2.146753192139373,
                -2.2341966793290973,
                0.005466555786416001
            ]
        },
        {
            "positions": [
                -0.8213493286032291,
                -0.6679965574291844,
                1.4582494113456728,
                2.149869489665134,
                -2.1656887072888287,
                0.017009894815596168
            ]
        },
        {
            "positions": [
                -0.728714021916451,
                -0.6743486543479158,
                1.2515609540973016,
                2.1529857871908944,
                -2.09718073524856,
                0.028553233844776333
            ]
        },
        {
            "positions": [
                -0.6360787152296727,
                -0.6807007512666472,
                1.0448724968489302,
                2.156102084716655,
                -2.0286727632082915,
                0.0400965728739565
            ]
        },
        {
            "positions": [
                -0.6781689016075246,
                -0.7214515782982255,
                1.0131552686554546,
                2.106576496921547,
                -1.9260066481101101,
                0.16837901245952963
            ]
        },
        {
            "positions": [
                -0.7202590879853766,
                -0.7622024053298038,
                0.9814380404619788,
                2.057050909126439,
                -1.8233405330119286,
                0.2966614520451028
            ]
        },
        {
            "positions": [
                -0.7623492743632285,
                -0.8029532323613819,
                0.9497208122685031,
                2.00752532133133,
                -1.720674417913747,
                0.4249438916306759
            ]
        },
        {
            "positions": [
                -0.8044394607410804,
                -0.8437040593929602,
                0.9180035840750274,
                1.957999733536222,
                -1.6180083028155656,
                0.5532263312162491
            ]
        },
        {
            "positions": [
                -0.8465296471189323,
                -0.8844548864245385,
                0.8862863558815517,
                1.9084741457411138,
                -1.5153421877173843,
                0.6815087708018222
            ]
        },
        {
            "positions": [
                -0.8886198334967843,
                -0.9252057134561168,
                0.854569127688076,
                1.8589485579460057,
                -1.4126760726192025,
                0.8097912103873953
            ]
        },
        {
            "positions": [
                -0.9307100198746363,
                -0.9659565404876951,
                0.8228518994946002,
                1.8094229701508973,
                -1.3100099575210211,
                0.9380736499729685
            ]
        },
        {
            "positions": [
                -0.9728002062524881,
                -1.0067073675192733,
                0.7911346713011246,
                1.759897382355789,
                -1.2073438424228398,
                1.0663560895585416
            ]
        },
        {
            "positions": [
                -1.01489039263034,
                -1.0474581945508517,
                0.7594174431076488,
                1.7103717945606807,
                -1.1046777273246584,
                1.1946385291441146
            ]
        },
        {
            "positions": [
                -1.0569805790081919,
                -1.0882090215824298,
                0.7277002149141731,
                1.6608462067655725,
                -1.0020116122264768,
                1.3229209687296877
            ]
        },
        {
            "positions": [
                -1.0990707653860439,
                -1.128959848614008,
                0.6959829867206975,
                1.6113206189704643,
                -0.8993454971282953,
                1.4512034083152607
            ]
        },
        {
            "positions": [
                -1.1411609517638959,
                -1.1697106756455864,
                0.6642657585272217,
                1.561795031175356,
                -0.7966793820301137,
                1.579485847900834
            ]
        },
        {
            "positions": [
                -1.1832511381417479,
                -1.2104615026771648,
                0.6325485303337459,
                1.5122694433802475,
                -0.6940132669319323,
                1.7077682874864073
            ]
        },
        {
            "positions": [
                -1.2253413245195999,
                -1.2512123297087427,
                0.6008313021402703,
                1.4627438555851393,
                -0.5913471518337508,
                1.8360507270719804
            ]
        },
        {
            "positions": [
                -1.2674315108974517,
                -1.2919631567403211,
                0.5691140739467946,
                1.4132182677900311,
                -0.4886810367355695,
                1.9643331666575534
            ]
        },
        {
            "positions": [
                -1.2566451847283828,
                -1.2813440434627494,
                0.6595662418960496,
                1.272905728114548,
                -0.42795359022572665,
                2.0373360358454344
            ]
        },
        {
            "positions": [
                -1.245858858559314,
                -1.2707249301851777,
                0.7500184098453048,
                1.1325931884390648,
                -0.36722614371588375,
                2.1103389050333154
            ]
        },
        {
            "positions": [
                -1.235072532390245,
                -1.2601058169076058,
                0.8404705777945598,
                0.9922806487635814,
                -0.30649869720604084,
                2.1833417742211965
            ]
        },
        {
            "positions": [
                -1.2242862062211761,
                -1.2494867036300341,
                0.930922745743815,
                0.8519681090880982,
                -0.24577125069619798,
                2.2563446434090775
            ]
        },
        {
            "positions": [
                -1.2134998800521073,
                -1.2388675903524624,
                1.0213749136930699,
                0.711655569412615,
                -0.18504380418635513,
                2.3293475125969585
            ]
        },
        {
            "positions": [
                -1.2027135538830385,
                -1.2282484770748907,
                1.111827081642325,
                0.5713430297371317,
                -0.12431635767651222,
                2.4023503817848395
            ]
        },
        {
            "positions": [
                -1.1919272277139696,
                -1.217629363797319,
                1.2022792495915802,
                0.4310304900616484,
                -0.06358891116666932,
                2.475353250972721
            ]
        },
        {
            "positions": [
                -1.1811409015449006,
                -1.207010250519747,
                1.292731417540835,
                0.2907179503861652,
                -0.0028614646568264623,
                2.5483561201606015
            ]
        },
        {
            "positions": [
                -1.1703545753758318,
                -1.1963911372421754,
                1.3831835854900902,
                0.15040541071068203,
                0.05786598185301639,
                2.621358989348483
            ]
        },
        {
            "positions": [
                -1.159568249206763,
                -1.1857720239646037,
                1.4736357534393454,
                0.010092871035198847,
                0.11859342836285924,
                2.6943618585363636
            ]
        },
        {
            "positions": [
                -1.148781923037694,
                -1.175152910687032,
                1.5640879213886003,
                -0.13021966864028456,
                0.1793208748727022,
                2.767364727724245
            ]
        },
        {
            "positions": [
                -1.1379955968686253,
                -1.1645337974094603,
                1.6545400893378555,
                -0.27053220831576774,
                0.24004832138254506,
                2.840367596912126
            ]
        },
        {
            "positions": [
                -1.1272092706995562,
                -1.1539146841318884,
                1.7449922572871106,
                -0.4108447479912509,
                0.3007757678923879,
                2.913370466100007
            ]
        },
        {
            "positions": [
                -1.1164229445304874,
                -1.1432955708543167,
                1.8354444252363658,
                -0.5511572876667343,
                0.3615032144022309,
                2.986373335287888
            ]
        },
        {
            "positions": [
                -1.1056366183614186,
                -1.132676457576745,
                1.9258965931856207,
                -0.6914698273422175,
                0.42223066091207373,
                3.059376204475769
            ]
        },
        {
            "positions": [
                -1.0948502921923497,
                -1.1220573442991733,
                2.016348761134876,
                -0.8317823670177009,
                0.4829581074219165,
                3.13237907366365
            ]
        }
    ]
}