{
    "goal": {
        "global_pose": {
            "orientation": {
                "w": 0.7031023480610252,
                "x": -0.7110244013736278,
                "y": 0.0077485991402295624,
                "z": 0.005598929693374583
            },
            "position": {
                "x": -0.8841497679147869,
                "y": 0.44412534475326537,
                "z": 0.3711530566215515
            }
        },
        "name": "move_to_auspresseinheit_D"
    },
    "id": "SPARStwo_move_to_auspresseinheit_D_49",
    "joint_names": [
        "shoulder_pan_joint",
        "shoulder_lift_joint",
        "elbow_joint",
        "wrist_1_joint",
        "wrist_2_joint",
        "wrist_3_joint"
    ],
    "metrics": {
        "cart_traj_len": 0.34217025684462343,
        "distance_elbow_joint": 0.6323745193098478,
        "distance_shoulder_lift_joint": 0.11790390319135113,
        "distance_shoulder_pan_joint": 0.13301829389830086,
        "distance_wrist_1_joint": 0.5186422591858917,
        "distance_wrist_2_joint": 1.431306962623807,
        "distance_wrist_3_joint": 0.006304964947956293,
        "smoothness": 0.0,
        "time": 5.010692796,
        "traj_len": 1.6850967043932983,
        "weighted_distance": 2.1913717290461623
    },
    "planner": "SPARStwo",
    "start": {
        "state": {
            "elbow_joint": -1.8275523626775212,
            "shoulder_lift_joint": -2.126789852344167,
            "shoulder_pan_joint": -0.03513704404078235,
            "wrist_1_joint": -2.347782403156801,
            "wrist_2_joint": -1.6058999987535132,
            "wrist_3_joint": -3.0880379163319196
        }
    },
    "waypoints": [
        {
            "positions": [
                -0.03513704404078235,
                -2.126789852344167,
                -1.8275523626775212,
                -2.347782403156801,
                -1.6058999987535132,
                -3.0880379163319196
            ]
        },
        {
            "positions": [
                -0.05176433077806995,
                -2.1415278402430857,
                -1.7485055477637903,
                -2.4126126855550374,
                -1.4269866284255373,
                -3.0888260369504144
            ]
        },
        {
            "positions": [
                -0.06839161751535756,
                -2.1562658281420046,
                -1.6694587328500592,
                -2.477442967953274,
                -1.2480732580975613,
                -3.0896141575689087
            ]
        },
        {
            "positions": [
                -0.08501890425264516,
                -2.1710038160409235,
                -1.5904119179363283,
                -2.5422732503515104,
                -1.0691598877695856,
                -3.090402278187403
            ]
        },
        {
            "positions": [
                -0.10164619098993277,
                -2.1857418039398424,
                -1.5113651030225972,
                -2.607103532749747,
                -0.8902465174416097,
                -3.0911903988058977
            ]
        },
        {
            "positions": [
                -0.11827347772722038,
                -2.2004797918387613,
                -1.4323182881088663,
                -2.671933815147983,
                -0.7113331471136337,
                -3.0919785194243925
            ]
        },
        {
            "positions": [
                -0.134900764464508,
                -2.21521777973768,
                -1.3532714731951354,
                -2.7367640975462195,
                -0.532419776785658,
                -3.092766640042887
            ]
        },
        {
            "positions": [
                -0.1515280512017956,
                -2.229955767636599,
                -1.2742246582814043,
                -2.801594379944456,
                -0.35350640645768205,
                -3.093554760661381
            ]
        },
        {
            "positions": [
                -0.16815533793908322,
                -2.244693755535518,
                -1.1951778433676734,
                -2.8664246623426926,
                -0.1745930361297061,
                -3.094342881279876
            ]
        }
    ]
}