{
    "goal": {
        "global_pose": {
            "orientation": {
                "w": -0.00223480608172531,
                "x": 0.0024358444001904467,
                "y": 0.7094548369677653,
                "z": -0.704743149386269
            },
            "position": {
                "x": -0.37947507619857795,
                "y": -0.6371506643295288,
                "z": 0.19426114857196808
            }
        },
        "name": "move_to_magneteinheit_C"
    },
    "id": "SPARS_move_to_magneteinheit_C_76",
    "joint_names": [
        "shoulder_pan_joint",
        "shoulder_lift_joint",
        "elbow_joint",
        "wrist_1_joint",
        "wrist_2_joint",
        "wrist_3_joint"
    ],
    "metrics": {
        "cart_traj_len": 0.5410245688697506,
        "distance_elbow_joint": 0.13488404968769308,
        "distance_shoulder_lift_joint": 0.2539956731376032,
        "distance_shoulder_pan_joint": 0.8027848956199921,
        "distance_wrist_1_joint": 0.31447762749624897,
        "distance_wrist_2_joint": 1.1562711004126487,
        "distance_wrist_3_joint": 0.04154458235901304,
        "smoothness": 0.8225183913325254,
        "time": 5.020607850999999,
        "traj_len": 1.644371590825261,
        "weighted_distance": 2.06344271094211
    },
    "planner": "SPARS",
    "start": {
        "state": {
            "elbow_joint": 1.9565354010623817,
            "shoulder_lift_joint": -1.4165861575791021,
            "shoulder_pan_joint": -1.6717766225146293,
            "wrist_1_joint": -0.5286633292919765,
            "wrist_2_joint": 1.472756589071564,
            "wrist_3_joint": -3.1238370188695823
        }
    },
    "waypoints": [
        {
            "positions": [
                -1.6717766225146293,
                -1.4165861575791021,
                1.9565354010623817,
                -0.5286633292919765,
                1.472756589071564,
                -3.1238370188695823
            ]
        },
        {
            "positions": [
                -1.7475799775726832,
                -1.400850069697547,
                1.975477428906537,
                -0.5661392164406992,
                1.2764080280632037,
                -3.1209773756327452
            ]
        },
        {
            "positions": [
                -1.823383332630737,
                -1.3851139818159917,
                1.9944194567506923,
                -0.6036151035894219,
                1.0800594670548438,
                -3.118117732395908
            ]
        },
        {
            "positions": [
                -1.8991866876887908,
                -1.3693778939344365,
                2.0133614845948475,
                -0.6410909907381448,
                0.8837109060464838,
                -3.115258089159071
            ]
        },
        {
            "positions": [
                -1.9749900427468448,
                -1.3536418060528812,
                2.032303512439003,
                -0.6785668778868675,
                0.6873623450381237,
                -3.112398445922234
            ]
        },
        {
            "positions": [
                -2.0507933978048984,
                -1.337905718171326,
                2.0512455402831584,
                -0.7160427650355903,
                0.4910137840297637,
                -3.109538802685397
            ]
        },
        {
            "positions": [
                -2.192049437914806,
                -1.2794673069280504,
                2.0378542367941863,
                -0.7584088289531353,
                0.5491898824867133,
                -3.1186209247436727
            ]
        },
        {
            "positions": [
                -2.3333054780247138,
                -1.2210288956847746,
                2.024462933305214,
                -0.8007748928706804,
                0.6073659809436628,
                -3.127703046801949
            ]
        },
        {
            "positions": [
                -2.4745615181346214,
                -1.162590484441499,
                2.011071629816242,
                -0.8431409567882254,
                0.6655420794006124,
                -3.1367851688602246
            ]
        }
    ]
}