{
    "goal": {
        "global_pose": {
            "orientation": {
                "w": 0.7047431468963623,
                "x": -0.7094548344612122,
                "y": 0.0024358443915843964,
                "z": -0.0022348060738295317
            },
            "position": {
                "x": 0.6094750761985779,
                "y": 0.3671506643295288,
                "z": 0.19426114857196808
            }
        },
        "name": "move_to_magneteinheit_A"
    },
    "id": "SPARS_move_to_magneteinheit_A_81",
    "joint_names": [
        "shoulder_pan_joint",
        "shoulder_lift_joint",
        "elbow_joint",
        "wrist_1_joint",
        "wrist_2_joint",
        "wrist_3_joint"
    ],
    "metrics": {
        "cart_traj_len": 4.002458621996666,
        "distance_elbow_joint": 3.877801743638707,
        "distance_shoulder_lift_joint": 0.5886733369374226,
        "distance_shoulder_pan_joint": 4.3996446143171335,
        "distance_wrist_1_joint": 1.1852914212929608,
        "distance_wrist_2_joint": 1.7482365609239268,
        "distance_wrist_3_joint": 3.6770920327127063,
        "smoothness": 0.24659226646376026,
        "time": 5.050422693,
        "traj_len": 3.934048768104286,
        "weighted_distance": 5.075869556781886
    },
    "planner": "SPARS",
    "start": {
        "state": {
            "elbow_joint": -1.9196185241190666,
            "shoulder_lift_joint": -1.2443396400964142,
            "shoulder_pan_joint": 2.6996025414629847,
            "wrist_1_joint": -1.5485510000780065,
            "wrist_2_joint": -1.5709468930060704,
            "wrist_3_joint": 0.4420197071253992
        }
    },
    "waypoints": [
        {
            "positions": [
                2.6996025414629847,
                -1.2443396400964142,
                -1.9196185241190666,
                -1.5485510000780065,
                -1.5709468930060704,
                0.4420197071253992
            ]
        },
        {
            "positions": [
                2.541039170233688,
                -1.2301916092550336,
                -1.8324292604249157,
                -1.5029163016838212,
                -1.5448811349650136,
                0.3900639516193789
            ]
        },
        {
            "positions": [
                2.382475799004391,
                -1.2160435784136527,
                -1.7452399967307648,
                -1.457281603289636,
                -1.518815376923957,
                0.33810819611335863
            ]
        },
        {
            "positions": [
                2.2239124277750943,
                -1.2018955475722721,
                -1.6580507330366139,
                -1.4116469048954507,
                -1.4927496188829001,
                0.2861524406073384
            ]
        },
        {
            "positions": [
                2.0653490565457977,
                -1.1877475167308913,
                -1.570861469342463,
                -1.3660122065012654,
                -1.4666838608418433,
                0.2341966851013181
            ]
        },
        {
            "positions": [
                1.906785685316501,
                -1.1735994858895107,
                -1.483672205648312,
                -1.3203775081070803,
                -1.4406181028007867,
                0.18224092959529786
            ]
        },
        {
            "positions": [
                1.7482223140872042,
                -1.15945145504813,
                -1.3964829419541611,
                -1.274742809712895,
                -1.41455234475973,
                0.13028517408927764
            ]
        },
        {
            "positions": [
                1.5896589428579073,
                -1.1453034242067492,
                -1.3092936782600102,
                -1.22910811131871,
                -1.388486586718673,
                0.07832941858325732
            ]
        },
        {
            "positions": [
                1.4310955716286105,
                -1.1311553933653686,
                -1.2221044145658593,
                -1.1834734129245246,
                -1.3624208286776165,
                0.02637366307723704
            ]
        },
        {
            "positions": [
                1.2725322003993138,
                -1.1170073625239878,
                -1.1349151508717084,
                -1.1378387145303392,
                -1.3363550706365597,
                -0.025582092428783232
            ]
        },
        {
            "positions": [
                1.1139688291700172,
                -1.1028593316826072,
                -1.0477258871775574,
                -1.0922040161361541,
                -1.310289312595503,
                -0.07753784793480345
            ]
        },
        {
            "positions": [
                0.9554054579407203,
                -1.0887113008412266,
                -0.9605366234834065,
                -1.0465693177419688,
                -1.2842235545544463,
                -0.12949360344082372
            ]
        },
        {
            "positions": [
                0.7968420867114236,
                -1.0745632699998457,
                -0.8733473597892556,
                -1.0009346193477837,
                -1.2581577965133897,
                -0.18144935894684389
            ]
        },
        {
            "positions": [
                0.6382787154821266,
                -1.0604152391584651,
                -0.7861580960951047,
                -0.9552999209535983,
                -1.2320920384723328,
                -0.23340511445286427
            ]
        },
        {
            "positions": [
                0.4797153442528299,
                -1.0462672083170843,
                -0.6989688324009538,
                -0.9096652225594131,
                -1.206026280431276,
                -0.28536086995888454
            ]
        },
        {
            "positions": [
                0.32115197302353327,
                -1.0321191774757037,
                -0.6117795687068028,
                -0.8640305241652279,
                -1.1799605223902194,
                -0.3373166254649047
            ]
        },
        {
            "positions": [
                0.16258860179423618,
                -1.0179711466343229,
                -0.5245903050126519,
                -0.8183958257710425,
                -1.1538947643491626,
                -0.3892723809709251
            ]
        },
        {
            "positions": [
                0.0040252305649399744,
                -1.0038231157929423,
                -0.437401041318501,
                -0.7727611273768574,
                -1.1278290063081058,
                -0.44122813647694525
            ]
        },
        {
            "positions": [
                -0.15453814066435712,
                -0.9896750849515615,
                -0.3502117776243501,
                -0.7271264289826721,
                -1.1017632482670492,
                -0.49318389198296564
            ]
        },
        {
            "positions": [
                -0.31310151189365376,
                -0.9755270541101808,
                -0.26302251393019915,
                -0.6814917305884869,
                -1.0756974902259924,
                -0.5451396474889858
            ]
        },
        {
            "positions": [
                -0.4716648831229504,
                -0.9613790232688002,
                -0.17583325023604823,
                -0.6358570321943017,
                -1.0496317321849356,
                -0.5970954029950061
            ]
        },
        {
            "positions": [
                -0.6302282543522475,
                -0.9472309924274194,
                -0.08864398654189731,
                -0.5902223338001163,
                -1.023565974143879,
                -0.6490511585010265
            ]
        },
        {
            "positions": [
                -0.7887916255815441,
                -0.9330829615860388,
                -0.0014547228477464202,
                -0.5445876354059312,
                -0.9975002161028221,
                -0.7010069140070465
            ]
        },
        {
            "positions": [
                -0.7439425757180411,
                -0.9463325087643641,
                0.10493290946267775,
                -0.5546344345295882,
                -0.9336534802819695,
                -0.8408259210093066
            ]
        },
        {
            "positions": [
                -0.699093525854538,
                -0.9595820559426895,
                0.21132054177310192,
                -0.5646812336532452,
                -0.8698067444611168,
                -0.9806449280115668
            ]
        },
        {
            "positions": [
                -0.654244475991035,
                -0.9728316031210149,
                0.31770817408352614,
                -0.5747280327769021,
                -0.8059600086402643,
                -1.120463935013827
            ]
        },
        {
            "positions": [
                -0.609395426127532,
                -0.9860811502993403,
                0.4240958063939503,
                -0.5847748319005591,
                -0.7421132728194115,
                -1.260282942016087
            ]
        },
        {
            "positions": [
                -0.5645463762640288,
                -0.9993306974776657,
                0.5304834387043745,
                -0.594821631024216,
                -0.678266536998559,
                -1.4001019490183473
            ]
        },
        {
            "positions": [
                -0.5196973264005258,
                -1.012580244655991,
                0.6368710710147987,
                -0.604868430147873,
                -0.6144198011777063,
                -1.5399209560206075
            ]
        },
        {
            "positions": [
                -0.4748482765370227,
                -1.0258297918343164,
                0.7432587033252228,
                -0.61491522927153,
                -0.5505730653568537,
                -1.6797399630228678
            ]
        },
        {
            "positions": [
                -0.4299992266735197,
                -1.0390793390126416,
                0.849646335635647,
                -0.6249620283951869,
                -0.48672632953600103,
                -1.8195589700251278
            ]
        },
        {
            "positions": [
                -0.3851501768100166,
                -1.052328886190967,
                0.9560339679460712,
                -0.6350088275188439,
                -0.4228795937151484,
                -1.959377977027388
            ]
        },
        {
            "positions": [
                -0.34030112694651354,
                -1.0655784333692924,
                1.0624216002564955,
                -0.6450556266425008,
                -0.35903285789429573,
                -2.099196984029648
            ]
        },
        {
            "positions": [
                -0.29545207708301047,
                -1.0788279805476177,
                1.1688092325669197,
                -0.6551024257661577,
                -0.2951861220734431,
                -2.2390159910319083
            ]
        },
        {
            "positions": [
                -0.25060302721950745,
                -1.0920775277259431,
                1.2751968648773437,
                -0.6651492248898148,
                -0.23133938625259054,
                -2.3788349980341685
            ]
        },
        {
            "positions": [
                -0.20575397735600442,
                -1.1053270749042685,
                1.381584497187768,
                -0.6751960240134717,
                -0.1674926504317379,
                -2.5186540050364288
            ]
        },
        {
            "positions": [
                -0.1609049274925013,
                -1.118576622082594,
                1.487972129498192,
                -0.6852428231371286,
                -0.10364591461088513,
                -2.658473012038689
            ]
        },
        {
            "positions": [
                -0.11605587762899827,
                -1.1318261692609193,
                1.5943597618086163,
                -0.6952896222607856,
                -0.039799178790032474,
                -2.7982920190409493
            ]
        },
        {
            "positions": [
                -0.07120682776549525,
                -1.1450757164392447,
                1.7007473941190403,
                -0.7053364213844425,
                0.024047557030820066,
                -2.938111026043209
            ]
        },
        {
            "positions": [
                -0.02635777790199223,
                -1.15832526361757,
                1.8071350264294646,
                -0.7153832205080994,
                0.0878942928516726,
                -3.0779300330454693
            ]
        },
        {
            "positions": [
                0.018491271961510944,
                -1.1715748107958954,
                1.9135226587398888,
                -0.7254300196317565,
                0.15174102867252537,
                -3.2177490400477295
            ]
        },
        {
            "positions": [
                0.12245882169106054,
                -1.1326500015787049,
                1.9581832195196387,
                -0.7259156920268155,
                0.12619238942719405,
                -3.235072325587306
            ]
        }
    ]
}