{
    "goal": {
        "global_pose": {
            "orientation": {
                "w": 0.005598929693374612,
                "x": 0.007748599140229565,
                "y": 0.7110244013736278,
                "z": -0.7031023480610252
            },
            "position": {
                "x": -0.8858502320852131,
                "y": -0.7141253447532654,
                "z": 0.3711530566215515
            }
        },
        "name": "move_to_auspresseinheit_C"
    },
    "id": "SPARS_move_to_auspresseinheit_C_95",
    "joint_names": [
        "shoulder_pan_joint",
        "shoulder_lift_joint",
        "elbow_joint",
        "wrist_1_joint",
        "wrist_2_joint",
        "wrist_3_joint"
    ],
    "metrics": {
        "cart_traj_len": 0.4931676424184994,
        "distance_elbow_joint": 0.9971955512985865,
        "distance_shoulder_lift_joint": 0.323577382698899,
        "distance_shoulder_pan_joint": 0.2566413753368919,
        "distance_wrist_1_joint": 0.6720365241329312,
        "distance_wrist_2_joint": 1.3028180124278377,
        "distance_wrist_3_joint": 0.045136218185545474,
        "smoothness": 8.074349282788172e-16,
        "time": 5.016743264,
        "traj_len": 1.8966826471712899,
        "weighted_distance": 2.3796075384425373
    },
    "planner": "SPARS",
    "start": {
        "state": {
            "elbow_joint": 1.7527959577737207,
            "shoulder_lift_joint": -0.9740617694225068,
            "shoulder_pan_joint": -2.967991417825858,
            "wrist_1_joint": -0.759517768980727,
            "wrist_2_joint": 1.7443932448377408,
            "wrist_3_joint": -3.0840537646736568
        }
    },
    "waypoints": [
        {
            "positions": [
                -2.967991417825858,
                -0.9740617694225068,
                1.7527959577737207,
                -0.759517768980727,
                1.7443932448377408,
                -3.0840537646736568
            ]
        },
        {
            "positions": [
                -2.9423272802921687,
                -0.9417040311526169,
                1.653076402643862,
                -0.6923141165674338,
                1.614111443594957,
                -3.0885673864922114
            ]
        },
        {
            "positions": [
                -2.9166631427584795,
                -0.909346292882727,
                1.5533568475140034,
                -0.6251104641541407,
                1.4838296423521733,
                -3.093081008310766
            ]
        },
        {
            "positions": [
                -2.8909990052247903,
                -0.8769885546128371,
                1.4536372923841447,
                -0.5579068117408477,
                1.3535478411093895,
                -3.0975946301293202
            ]
        },
        {
            "positions": [
                -2.865334867691101,
                -0.8446308163429471,
                1.353917737254286,
                -0.4907031593275545,
                1.2232660398666058,
                -3.102108251947875
            ]
        },
        {
            "positions": [
                -2.839670730157412,
                -0.8122730780730573,
                1.2541981821244275,
                -0.42349950691426136,
                1.092984238623822,
                -3.1066218737664295
            ]
        },
        {
            "positions": [
                -2.814006592623723,
                -0.7799153398031674,
                1.1544786269945688,
                -0.35629585450096823,
                0.9627024373810382,
                -3.111135495584984
            ]
        },
        {
            "positions": [
                -2.7883424550900338,
                -0.7475576015332774,
                1.0547590718647102,
                -0.28909220208767517,
                0.8324206361382546,
                -3.115649117403539
            ]
        },
        {
            "positions": [
                -2.7626783175563445,
                -0.7151998632633876,
                0.9550395167348514,
                -0.22188854967438199,
                0.7021388348954707,
                -3.120162739222093
            ]
        },
        {
            "positions": [
                -2.7370141800226553,
                -0.6828421249934977,
                0.8553199616049928,
                -0.1546848972610888,
                0.5718570336526869,
                -3.1246763610406476
            ]
        },
        {
            "positions": [
                -2.711350042488966,
                -0.6504843867236078,
                0.7556004064751342,
                -0.08748124484779572,
                0.44157523240990326,
                -3.1291899828592022
            ]
        }
    ]
}