{
    "goal": {
        "global_pose": {
            "orientation": {
                "w": 0.005598929693374612,
                "x": 0.007748599140229565,
                "y": 0.7110244013736278,
                "z": -0.7031023480610252
            },
            "position": {
                "x": 0.1141497679147869,
                "y": -0.7141253447532654,
                "z": 0.3711530566215515
            }
        },
        "name": "move_to_auspresseinheit_B"
    },
    "id": "SPARStwo_move_to_auspresseinheit_B_5",
    "joint_names": [
        "shoulder_pan_joint",
        "shoulder_lift_joint",
        "elbow_joint",
        "wrist_1_joint",
        "wrist_2_joint",
        "wrist_3_joint"
    ],
    "metrics": {
        "cart_traj_len": 0.5639870906724234,
        "distance_elbow_joint": 0.05983481038093319,
        "distance_shoulder_lift_joint": 0.2941062108133943,
        "distance_shoulder_pan_joint": 0.5777685742478582,
        "distance_wrist_1_joint": 0.31641799743554266,
        "distance_wrist_2_joint": 0.9861441318560649,
        "distance_wrist_3_joint": 0.00867684408845859,
        "smoothness": 2.5376526478085547e-16,
        "time": 5.0012180420000005,
        "traj_len": 1.4976476784685548,
        "weighted_distance": 1.8875551346360129
    },
    "planner": "SPARStwo",
    "start": {
        "state": {
            "elbow_joint": 2.0193083361928714,
            "shoulder_lift_joint": -1.1220246554650708,
            "shoulder_pan_joint": -1.0952077554168747,
            "wrist_1_joint": -0.8559753972642168,
            "wrist_2_joint": 0.4759566250798843,
            "wrist_3_joint": -3.1240929996934557
        }
    },
    "waypoints": [
        {
            "positions": [
                -1.0952077554168747,
                -1.1220246554650708,
                2.0193083361928714,
                -0.8559753972642168,
                0.4759566250798843,
                -3.1240929996934557
            ]
        },
        {
            "positions": [
                -1.1915025177915177,
                -1.1710423572673032,
                2.0093358677960493,
                -0.803239064358293,
                0.6403139803892284,
                -3.122646859012046
            ]
        },
        {
            "positions": [
                -1.2877972801661608,
                -1.2200600590695356,
                1.999363399399227,
                -0.7505027314523692,
                0.8046713356985726,
                -3.1212007183306363
            ]
        },
        {
            "positions": [
                -1.3840920425408036,
                -1.269077760871768,
                1.9893909310024047,
                -0.6977663985464455,
                0.9690286910079167,
                -3.1197545776492266
            ]
        },
        {
            "positions": [
                -1.4803868049154467,
                -1.3180954626740002,
                1.9794184626055826,
                -0.6450300656405217,
                1.133386046317261,
                -3.1183084369678165
            ]
        },
        {
            "positions": [
                -1.5766815672900898,
                -1.3671131644762327,
                1.9694459942087605,
                -0.5922937327345978,
                1.297743401626605,
                -3.1168622962864068
            ]
        },
        {
            "positions": [
                -1.6729763296647329,
                -1.416130866278465,
                1.9594735258119382,
                -0.5395573998286741,
                1.4621007569359492,
                -3.115416155604997
            ]
        }
    ]
}