{
    "goal": {
        "global_pose": {
            "orientation": {
                "w": 0.7031023502349854,
                "x": -0.7110244035720825,
                "y": 0.007748599164187908,
                "z": 0.005598929710686207
            },
            "position": {
                "x": 0.11585023208521307,
                "y": 0.44412534475326537,
                "z": 0.3711530566215515
            }
        },
        "name": "move_to_auspresseinheit_A"
    },
    "id": "SPARStwo_move_to_auspresseinheit_A_53",
    "joint_names": [
        "shoulder_pan_joint",
        "shoulder_lift_joint",
        "elbow_joint",
        "wrist_1_joint",
        "wrist_2_joint",
        "wrist_3_joint"
    ],
    "metrics": {
        "cart_traj_len": 1.040760242224693,
        "distance_elbow_joint": 0.1343424547494152,
        "distance_shoulder_lift_joint": 1.4369671189960225,
        "distance_shoulder_pan_joint": 1.1191316989413225,
        "distance_wrist_1_joint": 0.7917167983070916,
        "distance_wrist_2_joint": 1.009486266960009,
        "distance_wrist_3_joint": 3.3456907469824055,
        "smoothness": 0.9067024053684731,
        "time": 5.029349388,
        "traj_len": 2.7995240818639635,
        "weighted_distance": 4.041029527752573
    },
    "planner": "SPARStwo",
    "start": {
        "state": {
            "elbow_joint": 2.4225746658250005,
            "shoulder_lift_joint": -1.3736534386056498,
            "shoulder_pan_joint": -0.3378633547517467,
            "wrist_1_joint": -1.0288598680537169,
            "wrist_2_joint": 1.233022673432363,
            "wrist_3_joint": -3.0940220416140027
        }
    },
    "waypoints": [
        {
            "positions": [
                -0.3378633547517467,
                -1.3736534386056498,
                2.4225746658250005,
                -1.0288598680537169,
                1.233022673432363,
                -3.0940220416140027
            ]
        },
        {
            "positions": [
                -0.26000902688088623,
                -1.4556890573752552,
                2.417632374985252,
                -1.004880046873379,
                1.1893657608336905,
                -2.9564897327136146
            ]
        },
        {
            "positions": [
                -0.1821546990100257,
                -1.5377246761448609,
                2.412690084145503,
                -0.980900225693041,
                1.145708848235018,
                -2.8189574238132264
            ]
        },
        {
            "positions": [
                -0.10430037113916518,
                -1.6197602949144663,
                2.4077477933057545,
                -0.9569204045127031,
                1.1020519356363456,
                -2.6814251149128383
            ]
        },
        {
            "positions": [
                -0.026446043268304686,
                -1.7017959136840717,
                2.4028055024660055,
                -0.9329405833323653,
                1.058395023037673,
                -2.54389280601245
            ]
        },
        {
            "positions": [
                0.051408284602555865,
                -1.783831532453677,
                2.397863211626257,
                -0.9089607621520274,
                1.0147381104390005,
                -2.4063604971120616
            ]
        },
        {
            "positions": [
                0.12926261247341636,
                -1.8658671512232825,
                2.3929209207865085,
                -0.8849809409716894,
                0.971081197840328,
                -2.2688281882116734
            ]
        },
        {
            "positions": [
                0.2071169403442769,
                -1.9479027699928881,
                2.3879786299467596,
                -0.8610011197913515,
                0.9274242852416554,
                -2.1312958793112853
            ]
        },
        {
            "positions": [
                0.28497126821513735,
                -2.0299383887624938,
                2.383036339107011,
                -0.8370212986110137,
                0.8837673726429831,
                -1.9937635704108971
            ]
        },
        {
            "positions": [
                0.3628255960859979,
                -2.111974007532099,
                2.378094048267262,
                -0.8130414774306758,
                0.8401104600443106,
                -1.856231261510509
            ]
        },
        {
            "positions": [
                0.44067992395685845,
                -2.1940096263017046,
                2.3731517574275136,
                -0.7890616562503379,
                0.796453547445638,
                -1.7186989526101206
            ]
        },
        {
            "positions": [
                0.518534251827719,
                -2.27604524507131,
                2.3682094665877647,
                -0.7650818350699999,
                0.7527966348469656,
                -1.5811666437097327
            ]
        },
        {
            "positions": [
                0.5963885796985795,
                -2.3580808638409154,
                2.363267175748016,
                -0.741102013889662,
                0.709139722248293,
                -1.4436343348093443
            ]
        },
        {
            "positions": [
                0.6246133817749246,
                -2.3206120356605657,
                2.3584476905824836,
                -0.6708526272889798,
                0.6603597027967154,
                -1.5902557880958308
            ]
        },
        {
            "positions": [
                0.6528381838512698,
                -2.2831432074802165,
                2.3536282054169506,
                -0.6006032406882976,
                0.6115796833451377,
                -1.736877241382317
            ]
        },
        {
            "positions": [
                0.6810629859276149,
                -2.245674379299867,
                2.348808720251418,
                -0.5303538540876154,
                0.5627996638935601,
                -1.8834986946688035
            ]
        },
        {
            "positions": [
                0.7092877880039601,
                -2.2082055511195176,
                2.343989235085885,
                -0.4601044674869332,
                0.5140196444419823,
                -2.03012014795529
            ]
        },
        {
            "positions": [
                0.7375125900803052,
                -2.170736722939168,
                2.3391697499203525,
                -0.389855080886251,
                0.4652396249904047,
                -2.176741601241776
            ]
        },
        {
            "positions": [
                0.7393362132877496,
                -2.117020429174587,
                2.344750427810848,
                -0.37491333437930735,
                0.48351231309810555,
                -2.3680231661752655
            ]
        },
        {
            "positions": [
                0.7411598364951939,
                -2.063304135410006,
                2.350331105701344,
                -0.3599715878723638,
                0.5017850012058064,
                -2.5593047311087553
            ]
        },
        {
            "positions": [
                0.7429834597026382,
                -2.009587841645425,
                2.3559117835918393,
                -0.34502984136542014,
                0.5200576893135072,
                -2.7505862960422447
            ]
        },
        {
            "positions": [
                0.7302218315403255,
                -1.9749056177903364,
                2.367310285316266,
                -0.38099209857168514,
                0.5823527407118233,
                -2.8800366556905272
            ]
        },
        {
            "positions": [
                0.7174602033780129,
                -1.9402233939352473,
                2.378708787040693,
                -0.41695435577795015,
                0.6446477921101393,
                -3.0094870153388094
            ]
        },
        {
            "positions": [
                0.7046985752157001,
                -1.9055411700801586,
                2.39010728876512,
                -0.4529166129842152,
                0.7069428435084555,
                -3.138937374987092
            ]
        }
    ]
}