{
    "goal": {
        "global_pose": {
            "orientation": {
                "w": 0.7047431493862688,
                "x": -0.7094548369677653,
                "y": 0.0024358444001904,
                "z": -0.0022348060817251984
            },
            "position": {
                "x": -0.39052492380142206,
                "y": 0.3671506643295288,
                "z": 0.19426114857196808
            }
        },
        "name": "move_to_magneteinheit_D"
    },
    "id": "SPARS_move_to_magneteinheit_D_136",
    "joint_names": [
        "shoulder_pan_joint",
        "shoulder_lift_joint",
        "elbow_joint",
        "wrist_1_joint",
        "wrist_2_joint",
        "wrist_3_joint"
    ],
    "metrics": {
        "cart_traj_len": 4.487032054303732,
        "distance_elbow_joint": 4.008515559209949,
        "distance_shoulder_lift_joint": 1.6316032526615987,
        "distance_shoulder_pan_joint": 3.3823976641764815,
        "distance_wrist_1_joint": 1.7461312834062779,
        "distance_wrist_2_joint": 1.311333312879896,
        "distance_wrist_3_joint": 3.330387673481,
        "smoothness": 0.5433058459131289,
        "time": 5.085122054999999,
        "traj_len": 3.925604252317751,
        "weighted_distance": 5.012844371119392
    },
    "planner": "SPARS",
    "start": {
        "state": {
            "elbow_joint": 0.749534889911806,
            "shoulder_lift_joint": -0.6476975780787326,
            "shoulder_pan_joint": -2.711696901376241,
            "wrist_1_joint": -0.07506478083263063,
            "wrist_2_joint": 0.43296659715538205,
            "wrist_3_joint": -3.14703540197715
        }
    },
    "waypoints": [
        {
            "positions": [
                -2.711696901376241,
                -0.6476975780787326,
                0.749534889911806,
                -0.07506478083263063,
                0.43296659715538205,
                -3.14703540197715
            ]
        },
        {
            "positions": [
                -2.7329333707519403,
                -0.6582061189195985,
                0.7243383561937125,
                0.043094087775970374,
                0.3249311308110767,
                -3.0840509514761063
            ]
        },
        {
            "positions": [
                -2.75416984012764,
                -0.6687146597604644,
                0.699141822475619,
                0.16125295638457138,
                0.21689566446677144,
                -3.0210665009750626
            ]
        },
        {
            "positions": [
                -2.763743243652332,
                -0.7204929704358793,
                0.7168014756446681,
                0.22014748472956702,
                0.1950547168413312,
                -2.9658182598091223
            ]
        },
        {
            "positions": [
                -2.6505865400380233,
                -0.7751565251055389,
                0.6638562322228462,
                0.26066007392255636,
                0.21927196976651311,
                -2.871400158586049
            ]
        },
        {
            "positions": [
                -2.537429836423715,
                -0.8298200797751984,
                0.6109109888010242,
                0.30117266311554564,
                0.243489222691695,
                -2.7769820573629764
            ]
        },
        {
            "positions": [
                -2.4242731328094065,
                -0.8844836344448579,
                0.5579657453792023,
                0.34168525230853497,
                0.26770647561687694,
                -2.6825639561399033
            ]
        },
        {
            "positions": [
                -2.3111164291950983,
                -0.9391471891145174,
                0.5050205019573804,
                0.38219784150152425,
                0.29192372854205884,
                -2.58814585491683
            ]
        },
        {
            "positions": [
                -2.1979597255807897,
                -0.993810743784177,
                0.45207525853555836,
                0.42271043069451353,
                0.31614098146724073,
                -2.493727753693757
            ]
        },
        {
            "positions": [
                -2.0848030219664815,
                -1.0484742984538364,
                0.3991300151137364,
                0.46322301988750286,
                0.34035823439242263,
                -2.3993096524706843
            ]
        },
        {
            "positions": [
                -1.9716463183521729,
                -1.103137853123496,
                0.3461847716919145,
                0.5037356090804922,
                0.3645754873176046,
                -2.304891551247611
            ]
        },
        {
            "positions": [
                -1.8584896147378644,
                -1.1578014077931555,
                0.2932395282700925,
                0.5442481982734815,
                0.38879274024278654,
                -2.210473450024538
            ]
        },
        {
            "positions": [
                -1.745332911123556,
                -1.212464962462815,
                0.24029428484827053,
                0.5847607874664709,
                0.4130099931679684,
                -2.116055348801465
            ]
        },
        {
            "positions": [
                -1.6321762075092476,
                -1.2671285171324747,
                0.1873490414264486,
                0.62527337665946,
                0.43722724609315033,
                -2.021637247578392
            ]
        },
        {
            "positions": [
                -1.5190195038949392,
                -1.321792071802134,
                0.13440379800462665,
                0.6657859658524494,
                0.46144449901833223,
                -1.927219146355319
            ]
        },
        {
            "positions": [
                -1.4058628002806308,
                -1.3764556264717935,
                0.08145855458280471,
                0.7062985550454387,
                0.48566175194351413,
                -1.832801045132246
            ]
        },
        {
            "positions": [
                -1.2927060966663222,
                -1.4311191811414532,
                0.02851331116098277,
                0.7468111442384281,
                0.5098790048686961,
                -1.738382943909173
            ]
        },
        {
            "positions": [
                -1.179549393052014,
                -1.4857827358111126,
                -0.024431932260839173,
                0.7873237334314174,
                0.5340962577938779,
                -1.6439648426861
            ]
        },
        {
            "positions": [
                -1.0663926894377056,
                -1.540446290480772,
                -0.07737717568266111,
                0.8278363226244067,
                0.5583135107190599,
                -1.549546741463027
            ]
        },
        {
            "positions": [
                -0.953235985823397,
                -1.5951098451504317,
                -0.13032241910448317,
                0.868348911817396,
                0.5825307636442418,
                -1.455128640239954
            ]
        },
        {
            "positions": [
                -0.8400792822090888,
                -1.6497733998200912,
                -0.183267662526305,
                0.9088615010103852,
                0.6067480165694237,
                -1.3607105390168808
            ]
        },
        {
            "positions": [
                -0.7269225785947802,
                -1.7044369544897509,
                -0.23621290594812705,
                0.9493740902033746,
                0.6309652694946056,
                -1.2662924377938076
            ]
        },
        {
            "positions": [
                -0.613765874980472,
                -1.7591005091594103,
                -0.2891581493699489,
                0.9898866793963639,
                0.6551825224197876,
                -1.1718743365707347
            ]
        },
        {
            "positions": [
                -0.5006091713661633,
                -1.8137640638290697,
                -0.34210339279177093,
                1.030399268589353,
                0.6793997753449694,
                -1.0774562353476618
            ]
        },
        {
            "positions": [
                -0.3874524677518547,
                -1.8684276184987294,
                -0.395048636213593,
                1.0709118577823427,
                0.7036170282701515,
                -0.9830381341245886
            ]
        },
        {
            "positions": [
                -0.27429576413754664,
                -1.9230911731683888,
                -0.4479938796354147,
                1.1114244469753318,
                0.7278342811953333,
                -0.8886200329015159
            ]
        },
        {
            "positions": [
                -0.23210003402012855,
                -1.9261406034447446,
                -0.6621963970603906,
                1.1537899157630138,
                0.7262499484387079,
                -0.7976543113936712
            ]
        },
        {
            "positions": [
                -0.18990430390271046,
                -1.9291900337211005,
                -0.8763989144853663,
                1.196155384550696,
                0.7246656156820825,
                -0.7066885898858264
            ]
        },
        {
            "positions": [
                -0.1477085737852924,
                -1.9322394639974563,
                -1.090601431910342,
                1.238520853338378,
                0.723081282925457,
                -0.6157228683779816
            ]
        },
        {
            "positions": [
                -0.1055128436678743,
                -1.935288894273812,
                -1.304803949335318,
                1.2808863221260602,
                0.7214969501688316,
                -0.5247571468701367
            ]
        },
        {
            "positions": [
                -0.06331711355045624,
                -1.938338324550168,
                -1.5190064667602936,
                1.3232517909137422,
                0.7199126174122062,
                -0.433791425362292
            ]
        },
        {
            "positions": [
                -0.021121383433038154,
                -1.9413877548265237,
                -1.7332089841852696,
                1.3656172597014244,
                0.7183282846555809,
                -0.3428257038544472
            ]
        },
        {
            "positions": [
                0.021074346684379908,
                -1.9444371851028797,
                -1.9474115016102456,
                1.4079827284891064,
                0.7167439518989555,
                -0.25185998234660245
            ]
        },
        {
            "positions": [
                0.06327007680179803,
                -1.9474866153792354,
                -2.161614019035221,
                1.4503481972767887,
                0.7151596191423301,
                -0.16089426083875757
            ]
        },
        {
            "positions": [
                0.10546580691921614,
                -1.9505360456555911,
                -2.375816536460197,
                1.4927136660644706,
                0.7135752863857046,
                -0.06992853933091281
            ]
        },
        {
            "positions": [
                0.14766153703663415,
                -1.953585475931947,
                -2.5900190538851726,
                1.5350791348521526,
                0.7119909536290792,
                0.021037182176931957
            ]
        },
        {
            "positions": [
                0.18985726715405227,
                -1.9566349062083028,
                -2.8042215713101486,
                1.5774446036398349,
                0.7104066208724538,
                0.11200290368477672
            ]
        },
        {
            "positions": [
                0.11450710493525085,
                -2.0211680911147085,
                -2.7203336129801694,
                1.5587202238530724,
                0.6057637792946611,
                0.09773303012096204
            ]
        },
        {
            "positions": [
                0.03915694271644943,
                -2.085701276021114,
                -2.63644565465019,
                1.53999584406631,
                0.5011209377168684,
                0.08346315655714738
            ]
        },
        {
            "positions": [
                -0.03619321950235199,
                -2.15023446092752,
                -2.552557696320211,
                1.5212714642795475,
                0.3964780961390757,
                0.06919328299333272
            ]
        },
        {
            "positions": [
                -0.11154338172115341,
                -2.2147676458339256,
                -2.468669737990232,
                1.502547084492785,
                0.291835254561283,
                0.05492340942951803
            ]
        },
        {
            "positions": [
                -0.18689354393995486,
                -2.2793008307403313,
                -2.3847817796602526,
                1.4838227047060226,
                0.18719241298349026,
                0.04065353586570336
            ]
        }
    ]
}