{
    "goal": {
        "global_pose": {
            "orientation": {
                "w": 0.7047431468963623,
                "x": -0.7094548344612122,
                "y": 0.0024358443915843964,
                "z": -0.0022348060738295317
            },
            "position": {
                "x": 0.6094750761985779,
                "y": 0.3671506643295288,
                "z": 0.19426114857196808
            }
        },
        "name": "move_to_magneteinheit_A"
    },
    "id": "SPARS_move_to_magneteinheit_A_88",
    "joint_names": [
        "shoulder_pan_joint",
        "shoulder_lift_joint",
        "elbow_joint",
        "wrist_1_joint",
        "wrist_2_joint",
        "wrist_3_joint"
    ],
    "metrics": {
        "cart_traj_len": 3.6005026074949265,
        "distance_elbow_joint": 3.8785958978838364,
        "distance_shoulder_lift_joint": 0.7058908529235473,
        "distance_shoulder_pan_joint": 3.2170958129017087,
        "distance_wrist_1_joint": 3.9249366219110886,
        "distance_wrist_2_joint": 2.5005720686245727,
        "distance_wrist_3_joint": 2.595203557466975,
        "smoothness": 0.30449327743793825,
        "time": 5.06571914,
        "traj_len": 4.10149909322332,
        "weighted_distance": 5.332748880003758
    },
    "planner": "SPARS",
    "start": {
        "state": {
            "elbow_joint": -1.9196185241190666,
            "shoulder_lift_joint": -1.2443396400964142,
            "shoulder_pan_joint": 2.6996025414629847,
            "wrist_1_joint": -1.5485510000780065,
            "wrist_2_joint": -1.5709468930060704,
            "wrist_3_joint": 0.4420197071253992
        }
    },
    "waypoints": [
        {
            "positions": [
                2.6996025414629847,
                -1.2443396400964142,
                -1.9196185241190666,
                -1.5485510000780065,
                -1.5709468930060704,
                0.4420197071253992
            ]
        },
        {
            "positions": [
                2.6008338115836818,
                -1.2481863851880381,
                -1.8040077873779994,
                -1.4648410195269006,
                -1.5103744968180037,
                0.464782000274172
            ]
        },
        {
            "positions": [
                2.502065081704379,
                -1.252033130279662,
                -1.6883970506369324,
                -1.381131038975795,
                -1.4498021006299369,
                0.4875442934229448
            ]
        },
        {
            "positions": [
                2.403296351825076,
                -1.2558798753712859,
                -1.572786313895865,
                -1.297421058424689,
                -1.3892297044418702,
                0.5103065865717177
            ]
        },
        {
            "positions": [
                2.304527621945773,
                -1.2597266204629096,
                -1.457175577154798,
                -1.2137110778735833,
                -1.3286573082538033,
                0.5330688797204904
            ]
        },
        {
            "positions": [
                2.20575889206647,
                -1.2635733655545336,
                -1.3415648404137308,
                -1.1300010973224774,
                -1.2680849120657367,
                0.5558311728692633
            ]
        },
        {
            "positions": [
                2.106990162187167,
                -1.2674201106461576,
                -1.2259541036726636,
                -1.0462911167713718,
                -1.2075125158776698,
                0.5785934660180361
            ]
        },
        {
            "positions": [
                2.008221432307864,
                -1.2712668557377813,
                -1.1103433669315965,
                -0.962581136220266,
                -1.1469401196896032,
                0.601355759166809
            ]
        },
        {
            "positions": [
                1.909452702428561,
                -1.2751136008294053,
                -0.9947326301905293,
                -0.8788711556691601,
                -1.0863677235015365,
                0.6241180523155818
            ]
        },
        {
            "positions": [
                1.810683972549258,
                -1.2789603459210293,
                -0.8791218934494622,
                -0.7951611751180543,
                -1.0257953273134697,
                0.6468803454643546
            ]
        },
        {
            "positions": [
                1.711915242669955,
                -1.282807091012653,
                -0.763511156708395,
                -0.7114511945669485,
                -0.9652229311254029,
                0.6696426386131274
            ]
        },
        {
            "positions": [
                1.6131465127906521,
                -1.286653836104277,
                -0.6479004199673277,
                -0.6277412140158427,
                -0.9046505349373363,
                0.6924049317619003
            ]
        },
        {
            "positions": [
                1.5143777829113492,
                -1.2905005811959007,
                -0.5322896832262605,
                -0.5440312334647368,
                -0.8440781387492694,
                0.7151672249106731
            ]
        },
        {
            "positions": [
                1.4156090530320462,
                -1.2943473262875247,
                -0.41667894648519344,
                -0.46032125291363113,
                -0.7835057425612028,
                0.7379295180594458
            ]
        },
        {
            "positions": [
                1.3168403231527432,
                -1.2981940713791487,
                -0.3010682097441264,
                -0.37661127236252545,
                -0.7229333463731361,
                0.7606918112082187
            ]
        },
        {
            "positions": [
                1.2180715932734405,
                -1.3020408164707724,
                -0.18545747300305915,
                -0.29290129181141955,
                -0.6623609501850694,
                0.7834541043569916
            ]
        },
        {
            "positions": [
                1.1193028633941373,
                -1.3058875615623964,
                -0.06984673626199189,
                -0.20919131126031365,
                -0.6017885539970025,
                0.8062163975057643
            ]
        },
        {
            "positions": [
                1.0205341335148344,
                -1.3097343066540201,
                0.04576400047907536,
                -0.12548133070920797,
                -0.5412161578089358,
                0.8289786906545372
            ]
        },
        {
            "positions": [
                0.9217654036355314,
                -1.313581051745644,
                0.16137473722014217,
                -0.04177135015810207,
                -0.4806437616208692,
                0.8517409838033101
            ]
        },
        {
            "positions": [
                0.8229966737562284,
                -1.317427796837268,
                0.27698547396120965,
                0.041938630393003606,
                -0.4200713654328023,
                0.8745032769520829
            ]
        },
        {
            "positions": [
                0.7242279438769255,
                -1.3212745419288918,
                0.3925962107022767,
                0.1256486109441095,
                -0.35949896924473546,
                0.8972655701008557
            ]
        },
        {
            "positions": [
                0.6254592139976225,
                -1.3251212870205158,
                0.5082069474433442,
                0.20935859149521518,
                -0.2989265730566688,
                0.9200278632496285
            ]
        },
        {
            "positions": [
                0.5266904841183195,
                -1.3289680321121398,
                0.6238176841844112,
                0.2930685720463211,
                -0.23835417686860216,
                0.9427901563984014
            ]
        },
        {
            "positions": [
                0.42792175423901657,
                -1.3328147772037635,
                0.7394284209254782,
                0.37677855259742676,
                -0.17778178068053552,
                0.9655524495471741
            ]
        },
        {
            "positions": [
                0.3291530243597136,
                -1.3366615222953875,
                0.8550391576665457,
                0.4604885331485329,
                -0.11720938449246843,
                0.988314742695947
            ]
        },
        {
            "positions": [
                0.23038429448041065,
                -1.3405082673870112,
                0.9706498944076127,
                0.5441985136996383,
                -0.05663698830440178,
                1.0110770358447199
            ]
        },
        {
            "positions": [
                0.13161556460110746,
                -1.3443550124786352,
                1.08626063114868,
                0.6279084942507445,
                0.003935407883664796,
                1.0338393289934926
            ]
        },
        {
            "positions": [
                0.08565925140454098,
                -1.3445194701591299,
                1.1788450884138197,
                0.611885101797621,
                0.04824803901826812,
                1.0577833628710325
            ]
        },
        {
            "positions": [
                0.03955449723104616,
                -1.337955596123062,
                1.2871622349586551,
                0.5370520437032291,
                0.13430467602458543,
                1.1221929008063496
            ]
        },
        {
            "positions": [
                0.01807568490368488,
                -1.3013572322911375,
                1.3175705329235525,
                0.4046584996025282,
                0.1705930532820662,
                1.252808876107502
            ]
        },
        {
            "positions": [
                -0.0034031274236764053,
                -1.264758868459213,
                1.34797883088845,
                0.2722649555018272,
                0.206881430539547,
                1.3834248514086542
            ]
        },
        {
            "positions": [
                -0.024881939751037682,
                -1.2281605046272885,
                1.3783871288533471,
                0.1398714114011263,
                0.24316980779702774,
                1.5140408267098067
            ]
        },
        {
            "positions": [
                -0.04636075207839897,
                -1.191562140795364,
                1.4087954268182445,
                0.007477867300425323,
                0.27945818505450853,
                1.6446568020109589
            ]
        },
        {
            "positions": [
                -0.06783956440576025,
                -1.1549637769634395,
                1.439203724783142,
                -0.1249156768002756,
                0.3157465623119893,
                1.7752727773121113
            ]
        },
        {
            "positions": [
                -0.08931837673312153,
                -1.118365413131515,
                1.4696120227480394,
                -0.2573092209009765,
                0.3520349395694701,
                1.9058887526132637
            ]
        },
        {
            "positions": [
                -0.11079718906048282,
                -1.0817670492995906,
                1.5000203207129368,
                -0.38970276500167744,
                0.38832331682695087,
                2.036504727914416
            ]
        },
        {
            "positions": [
                -0.13227600138784412,
                -1.045168685467666,
                1.5304286186778342,
                -0.5220963091023785,
                0.42461169408443167,
                2.167120703215568
            ]
        },
        {
            "positions": [
                -0.15375481371520539,
                -1.0085703216357416,
                1.5608369166427316,
                -0.6544898532030794,
                0.46090007134191247,
                2.2977366785167206
            ]
        },
        {
            "positions": [
                -0.17523362604256665,
                -0.9719719578038171,
                1.5912452146076288,
                -0.7868833973037803,
                0.49718844859939315,
                2.428352653817873
            ]
        },
        {
            "positions": [
                -0.19671243836992797,
                -0.9353735939718926,
                1.6216535125725262,
                -0.9192769414044812,
                0.533476825856874,
                2.5589686291190255
            ]
        },
        {
            "positions": [
                -0.13255627175616908,
                -0.9746866233066114,
                1.689118284810975,
                -0.8790186030190585,
                0.4542471559045482,
                2.6546195562136954
            ]
        },
        {
            "positions": [
                -0.06840010514241018,
                -1.0139996526413302,
                1.7565830570494236,
                -0.8387602646336358,
                0.3750174859522225,
                2.750270483308365
            ]
        },
        {
            "positions": [
                -0.004243938528651292,
                -1.0533126819760492,
                1.8240478292878721,
                -0.7985019262482131,
                0.2957878159998969,
                2.845921410403035
            ]
        },
        {
            "positions": [
                0.0599122280851076,
                -1.092625711310768,
                1.8915126015263208,
                -0.7582435878627904,
                0.21655814604757112,
                2.9415723374977043
            ]
        },
        {
            "positions": [
                0.12406839469886649,
                -1.1319387406454868,
                1.9589773737647695,
                -0.7179852494773677,
                0.13732847609524548,
                3.0372232645923742
            ]
        }
    ]
}