{
    "goal": {
        "global_pose": {
            "orientation": {
                "w": -0.4816463035849501,
                "x": 0.5182115481033762,
                "y": 0.4908360881923453,
                "z": -0.5084816262002911
            },
            "position": {
                "x": -0.8240239810943604,
                "y": 0.19912469901144506,
                "z": 0.16403168439865112
            }
        },
        "name": "move_to_storage_D"
    },
    "id": "SPARS_move_to_storage_D_48",
    "joint_names": [
        "shoulder_pan_joint",
        "shoulder_lift_joint",
        "elbow_joint",
        "wrist_1_joint",
        "wrist_2_joint",
        "wrist_3_joint"
    ],
    "metrics": {
        "cart_traj_len": 3.2718503177043172,
        "distance_elbow_joint": 4.210193249841414,
        "distance_shoulder_lift_joint": 1.2646101695076986,
        "distance_shoulder_pan_joint": 3.1332445277575673,
        "distance_wrist_1_joint": 2.347891656018157,
        "distance_wrist_2_joint": 1.5235500827577046,
        "distance_wrist_3_joint": 3.142802650563446,
        "smoothness": 0.051349817410411905,
        "time": 5.049329896,
        "traj_len": 3.9525045650126693,
        "weighted_distance": 5.077335854200385
    },
    "planner": "SPARS",
    "start": {
        "state": {
            "elbow_joint": -2.384821988534728,
            "shoulder_lift_joint": -2.2788054721415256,
            "shoulder_pan_joint": -0.1854694642142757,
            "wrist_1_joint": 1.4845938289331202,
            "wrist_2_joint": 0.17898776772866878,
            "wrist_3_joint": 0.037105688729662994
        }
    },
    "waypoints": [
        {
            "positions": [
                -0.1854694642142757,
                -2.2788054721415256,
                -2.384821988534728,
                1.4845938289331202,
                0.17898776772866878,
                0.037105688729662994
            ]
        },
        {
            "positions": [
                -0.06160659817505315,
                -2.226410323617442,
                -2.2448550877834372,
                1.4863253088852197,
                0.1653217321483913,
                0.09504063826246313
            ]
        },
        {
            "positions": [
                0.06225626786416941,
                -2.174015175093359,
                -2.104888187032147,
                1.488056788837319,
                0.1516556965681138,
                0.15297558779526327
            ]
        },
        {
            "positions": [
                0.186119133903392,
                -2.1216200265692757,
                -1.9649212862808563,
                1.4897882687894186,
                0.13798966098783633,
                0.21091053732806342
            ]
        },
        {
            "positions": [
                0.30998199994261455,
                -2.0692248780451923,
                -1.8249543855295658,
                1.491519748741518,
                0.12432362540755887,
                0.2688454868608635
            ]
        },
        {
            "positions": [
                0.43384486598183714,
                -2.0168297295211093,
                -1.684987484778275,
                1.4932512286936175,
                0.11065758982728137,
                0.3267804363936637
            ]
        },
        {
            "positions": [
                0.5577077320210597,
                -1.9644345809970258,
                -1.5450205840269846,
                1.494982708645717,
                0.0969915542470039,
                0.3847153859264638
            ]
        },
        {
            "positions": [
                0.6815705980602823,
                -1.9120394324729424,
                -1.405053683275694,
                1.4967141885978164,
                0.08332551866672641,
                0.442650335459264
            ]
        },
        {
            "positions": [
                0.8054334640995048,
                -1.8596442839488594,
                -1.2650867825244037,
                1.498445668549916,
                0.06965948308644894,
                0.5005852849920641
            ]
        },
        {
            "positions": [
                0.9292963301387275,
                -1.807249135424776,
                -1.125119881773113,
                1.5001771485020152,
                0.055993447506171454,
                0.5585202345248643
            ]
        },
        {
            "positions": [
                1.0531591961779498,
                -1.7548539869006925,
                -0.9851529810218222,
                1.5019086284541148,
                0.042327411925893954,
                0.6164551840576644
            ]
        },
        {
            "positions": [
                1.1770220622171723,
                -1.7024588383766095,
                -0.845186080270532,
                1.503640108406214,
                0.028661376345616496,
                0.6743901335904645
            ]
        },
        {
            "positions": [
                1.300884928256395,
                -1.650063689852526,
                -0.7052191795192413,
                1.5053715883583136,
                0.01499534076533901,
                0.7323250831232647
            ]
        },
        {
            "positions": [
                1.4247477942956175,
                -1.5976685413284428,
                -0.5652522787679508,
                1.5071030683104132,
                0.0013293051850615523,
                0.7902600326560648
            ]
        },
        {
            "positions": [
                1.5486106603348402,
                -1.5452733928043594,
                -0.4252853780166601,
                1.5088345482625125,
                -0.012336730395215961,
                0.848194982188865
            ]
        },
        {
            "positions": [
                1.6724735263740627,
                -1.4928782442802762,
                -0.28531847726536963,
                1.510566028214612,
                -0.02600276597549342,
                0.9061299317216651
            ]
        },
        {
            "positions": [
                1.7963363924132851,
                -1.440483095756193,
                -0.14535157651407937,
                1.5122975081667114,
                -0.039668801555770905,
                0.9640648812544652
            ]
        },
        {
            "positions": [
                1.920199258452508,
                -1.3880879472321095,
                -0.005384675762788227,
                1.514028988118811,
                -0.05333483713604842,
                1.0219998307872655
            ]
        },
        {
            "positions": [
                2.0440621244917305,
                -1.3356927987080263,
                0.13458222498850203,
                1.5157604680709102,
                -0.06700087271632588,
                1.0799347803200656
            ]
        },
        {
            "positions": [
                2.167924990530953,
                -1.283297650183943,
                0.2745491257397923,
                1.5174919480230098,
                -0.08066690829660336,
                1.1378697298528657
            ]
        },
        {
            "positions": [
                2.2917878565701755,
                -1.2309025016598596,
                0.41451602649108343,
                1.5192234279751093,
                -0.09433294387688088,
                1.1958046793856658
            ]
        },
        {
            "positions": [
                2.415650722609398,
                -1.1785073531357764,
                0.5544829272423737,
                1.5209549079272087,
                -0.10799897945715833,
                1.253739628918466
            ]
        },
        {
            "positions": [
                2.5395135886486204,
                -1.1261122046116931,
                0.694449827993664,
                1.5226863878793082,
                -0.12166501503743579,
                1.311674578451266
            ]
        },
        {
            "positions": [
                2.6633764546878433,
                -1.0737170560876097,
                0.8344167287449551,
                1.5244178678314075,
                -0.1353310506177133,
                1.3696095279840663
            ]
        },
        {
            "positions": [
                2.787239320727066,
                -1.0213219075635265,
                0.9743836294962451,
                1.526149347783507,
                -0.14899708619799074,
                1.4275444775168664
            ]
        },
        {
            "positions": [
                2.777205836801052,
                -1.0208764947554203,
                1.0275703564843979,
                1.3820033392105215,
                -0.07427425939605041,
                1.5370672188778816
            ]
        },
        {
            "positions": [
                2.7671723528750376,
                -1.0204310819473141,
                1.0807570834725506,
                1.2378573306375358,
                0.00044856740588991584,
                1.6465899602388967
            ]
        },
        {
            "positions": [
                2.7571388689490233,
                -1.0199856691392077,
                1.1339438104607034,
                1.0937113220645502,
                0.07517139420783026,
                1.7561127015999118
            ]
        },
        {
            "positions": [
                2.7471053850230094,
                -1.0195402563311016,
                1.1871305374488559,
                0.9495653134915646,
                0.14989422100977057,
                1.865635442960927
            ]
        },
        {
            "positions": [
                2.7370719010969955,
                -1.0190948435229954,
                1.2403172644370086,
                0.8054193049185789,
                0.22461704781171088,
                1.9751581843219421
            ]
        },
        {
            "positions": [
                2.727038417170981,
                -1.0186494307148892,
                1.2935039914251614,
                0.6612732963455934,
                0.29933987461365125,
                2.0846809256829575
            ]
        },
        {
            "positions": [
                2.717004933244967,
                -1.018204017906783,
                1.3466907184133141,
                0.5171272877726076,
                0.37406270141559156,
                2.1942036670439724
            ]
        },
        {
            "positions": [
                2.706971449318953,
                -1.0177586050986767,
                1.3998774454014669,
                0.3729812791996221,
                0.44878552821753187,
                2.3037264084049878
            ]
        },
        {
            "positions": [
                2.696937965392939,
                -1.0173131922905705,
                1.4530641723896194,
                0.22883527062663656,
                0.5235083550194721,
                2.4132491497660027
            ]
        },
        {
            "positions": [
                2.6869044814669247,
                -1.0168677794824643,
                1.5062508993777721,
                0.0846892620536508,
                0.5982311818214125,
                2.522771891127018
            ]
        },
        {
            "positions": [
                2.6768709975409104,
                -1.0164223666743581,
                1.5594376263659249,
                -0.05945674651933475,
                0.6729540086233528,
                2.6322946324880334
            ]
        },
        {
            "positions": [
                2.6668375136148965,
                -1.015976953866252,
                1.6126243533540776,
                -0.2036027550923203,
                0.7476768354252932,
                2.7418173738490483
            ]
        },
        {
            "positions": [
                2.6568040296888826,
                -1.0155315410581458,
                1.6658110803422304,
                -0.34774876366530605,
                0.8223996622272336,
                2.8513401152100633
            ]
        },
        {
            "positions": [
                2.6467705457628683,
                -1.0150861282500394,
                1.7189978073303829,
                -0.4918947722382918,
                0.8971224890291738,
                2.9608628565710786
            ]
        },
        {
            "positions": [
                2.636737061836854,
                -1.0146407154419332,
                1.7721845343185356,
                -0.6360407808112774,
                0.971845315831114,
                3.070385597932094
            ]
        },
        {
            "positions": [
                2.62670357791084,
                -1.014195302633827,
                1.8253712613066884,
                -0.780186789384263,
                1.0465681426330544,
                3.179908339293109
            ]
        }
    ]
}