{
    "goal": {
        "global_pose": {
            "orientation": {
                "w": 0.005598929693374612,
                "x": 0.007748599140229565,
                "y": 0.7110244013736278,
                "z": -0.7031023480610252
            },
            "position": {
                "x": 0.1141497679147869,
                "y": -0.7141253447532654,
                "z": 0.3711530566215515
            }
        },
        "name": "move_to_auspresseinheit_B"
    },
    "id": "SPARStwo_move_to_auspresseinheit_B_80",
    "joint_names": [
        "shoulder_pan_joint",
        "shoulder_lift_joint",
        "elbow_joint",
        "wrist_1_joint",
        "wrist_2_joint",
        "wrist_3_joint"
    ],
    "metrics": {
        "cart_traj_len": 0.5639665539478715,
        "distance_elbow_joint": 0.05791409468857878,
        "distance_shoulder_lift_joint": 0.2965222311194009,
        "distance_shoulder_pan_joint": 0.5776106154034082,
        "distance_wrist_1_joint": 0.3149237911150057,
        "distance_wrist_2_joint": 0.9895216009976047,
        "distance_wrist_3_joint": 0.00804430630136821,
        "smoothness": 2.5376526478085547e-16,
        "time": 5.008857232,
        "traj_len": 1.4981777730380885,
        "weighted_distance": 1.8881394663373554
    },
    "planner": "SPARStwo",
    "start": {
        "state": {
            "elbow_joint": 2.0193083361928714,
            "shoulder_lift_joint": -1.1220246554650708,
            "shoulder_pan_joint": -1.0952077554168747,
            "wrist_1_joint": -0.8559753972642168,
            "wrist_2_joint": 0.4759566250798843,
            "wrist_3_joint": -3.1240929996934557
        }
    },
    "waypoints": [
        {
            "positions": [
                -1.0952077554168747,
                -1.1220246554650708,
                2.0193083361928714,
                -0.8559753972642168,
                0.4759566250798843,
                -3.1240929996934557
            ]
        },
        {
            "positions": [
                -1.1914761913174428,
                -1.1714450273183044,
                2.009655987078108,
                -0.8034880987450492,
                0.6408768919128184,
                -3.122752281976561
            ]
        },
        {
            "positions": [
                -1.2877446272180106,
                -1.2208653991715377,
                2.0000036379633452,
                -0.7510008002258816,
                0.8057971587457524,
                -3.1214115642596663
            ]
        },
        {
            "positions": [
                -1.3840130631185787,
                -1.2702857710247712,
                1.990351288848582,
                -0.6985135017067139,
                0.9707174255786866,
                -3.1200708465427716
            ]
        },
        {
            "positions": [
                -1.4802814990191466,
                -1.3197061428780048,
                1.9806989397338188,
                -0.6460262031875463,
                1.1356376924116207,
                -3.118730128825877
            ]
        },
        {
            "positions": [
                -1.576549934919715,
                -1.3691265147312381,
                1.9710465906190557,
                -0.5935389046683788,
                1.3005579592445549,
                -3.117389411108982
            ]
        },
        {
            "positions": [
                -1.6728183708202828,
                -1.4185468865844717,
                1.9613942415042926,
                -0.5410516061492111,
                1.465478226077489,
                -3.1160486933920875
            ]
        }
    ]
}