{
    "goal": {
        "global_pose": {
            "orientation": {
                "w": 0.5084816262002911,
                "x": -0.4908360881923452,
                "y": 0.5182115481033761,
                "z": -0.48164630358495003
            },
            "position": {
                "x": 0.5540239810943604,
                "y": -0.46912469901144505,
                "z": 0.16403168439865112
            }
        },
        "name": "move_to_storage_B"
    },
    "id": "SPARS_move_to_storage_B_53",
    "joint_names": [
        "shoulder_pan_joint",
        "shoulder_lift_joint",
        "elbow_joint",
        "wrist_1_joint",
        "wrist_2_joint",
        "wrist_3_joint"
    ],
    "metrics": {
        "cart_traj_len": 0.8128372763527413,
        "distance_elbow_joint": 0.35024027152867676,
        "distance_shoulder_lift_joint": 0.45902246458235063,
        "distance_shoulder_pan_joint": 0.6431535452852685,
        "distance_wrist_1_joint": 2.978950659022913,
        "distance_wrist_2_joint": 2.7096816160747714,
        "distance_wrist_3_joint": 3.1411541357445283,
        "smoothness": 0.06101677646635969,
        "time": 5.1946870480000005,
        "traj_len": 3.206587390394734,
        "weighted_distance": 4.717323736911137
    },
    "planner": "SPARS",
    "start": {
        "state": {
            "elbow_joint": 1.664937868594044,
            "shoulder_lift_joint": -0.661644460510453,
            "shoulder_pan_joint": -0.9139846352900073,
            "wrist_1_joint": 2.146753192139373,
            "wrist_2_joint": -2.2341966793290973,
            "wrist_3_joint": 0.005466555786416001
        }
    },
    "waypoints": [
        {
            "positions": [
                -0.9139846352900073,
                -0.661644460510453,
                1.664937868594044,
                2.146753192139373,
                -2.2341966793290973,
                0.005466555786416001
            ]
        },
        {
            "positions": [
                -0.8679242189357712,
                -0.6996135220884492,
                1.6815937627260904,
                2.0475401956075485,
                -2.164651772917516,
                -0.04762911561147654
            ]
        },
        {
            "positions": [
                -0.8218638025815351,
                -0.7375825836664455,
                1.6982496568581371,
                1.9483271990757236,
                -2.0951068665059345,
                -0.10072478700936909
            ]
        },
        {
            "positions": [
                -0.775803386227299,
                -0.7755516452444416,
                1.7149055509901836,
                1.8491142025438987,
                -2.025561960094353,
                -0.1538204584072616
            ]
        },
        {
            "positions": [
                -0.729742969873063,
                -0.8135207068224379,
                1.7315614451222303,
                1.749901206012074,
                -1.9560170536827715,
                -0.20691612980515417
            ]
        },
        {
            "positions": [
                -0.6836825535188269,
                -0.8514897684004341,
                1.7482173392542768,
                1.650688209480249,
                -1.88647214727119,
                -0.2600118012030467
            ]
        },
        {
            "positions": [
                -0.7024485291331036,
                -0.8637250937046327,
                1.7603519211119334,
                1.5378297696455314,
                -1.7791104616340598,
                -0.39072433660100425
            ]
        },
        {
            "positions": [
                -0.7212145047473804,
                -0.8759604190088314,
                1.77248650296959,
                1.4249713298108135,
                -1.6717487759969296,
                -0.5214368719989617
            ]
        },
        {
            "positions": [
                -0.7399804803616571,
                -0.8881957443130299,
                1.7846210848272464,
                1.3121128899760959,
                -1.5643870903597996,
                -0.6521494073969193
            ]
        },
        {
            "positions": [
                -0.7587464559759338,
                -0.9004310696172285,
                1.796755666684903,
                1.1992544501413782,
                -1.4570254047226694,
                -0.7828619427948769
            ]
        },
        {
            "positions": [
                -0.7775124315902106,
                -0.9126663949214272,
                1.8088902485425595,
                1.0863960103066606,
                -1.3496637190855392,
                -0.9135744781928343
            ]
        },
        {
            "positions": [
                -0.7962784072044873,
                -0.9249017202256258,
                1.8210248304002161,
                0.9735375704719428,
                -1.242302033448409,
                -1.0442870135907918
            ]
        },
        {
            "positions": [
                -0.815044382818764,
                -0.9371370455298245,
                1.8331594122578725,
                0.860679130637225,
                -1.1349403478112787,
                -1.1749995489887495
            ]
        },
        {
            "positions": [
                -0.8338103584330407,
                -0.949372370834023,
                1.845293994115529,
                0.7478206908025072,
                -1.0275786621741485,
                -1.3057120843867072
            ]
        },
        {
            "positions": [
                -0.8525763340473175,
                -0.9616076961382216,
                1.8574285759731857,
                0.6349622509677895,
                -0.9202169765370184,
                -1.4364246197846646
            ]
        },
        {
            "positions": [
                -0.8713423096615942,
                -0.9738430214424203,
                1.8695631578308423,
                0.5221038111330718,
                -0.8128552908998883,
                -1.567137155182622
            ]
        },
        {
            "positions": [
                -0.8901082852758709,
                -0.9860783467466189,
                1.8816977396884988,
                0.40924537129835414,
                -0.7054936052627581,
                -1.6978496905805796
            ]
        },
        {
            "positions": [
                -0.9088742608901477,
                -0.9983136720508174,
                1.8938323215461552,
                0.2963869314636365,
                -0.5981319196256281,
                -1.828562225978537
            ]
        },
        {
            "positions": [
                -0.9276402365044244,
                -1.0105489973550161,
                1.9059669034038118,
                0.1835284916289186,
                -0.4907702339884976,
                -1.959274761376495
            ]
        },
        {
            "positions": [
                -0.9464062121187011,
                -1.0227843226592146,
                1.9181014852614684,
                0.07067005179420094,
                -0.3834085483513676,
                -2.0899872967744524
            ]
        },
        {
            "positions": [
                -0.9651721877329779,
                -1.0350196479634133,
                1.9302360671191248,
                -0.04218838804051672,
                -0.2760468627142374,
                -2.22069983217241
            ]
        },
        {
            "positions": [
                -0.9839381633472546,
                -1.047254973267612,
                1.9423706489767814,
                -0.1550468278752346,
                -0.16868517707710717,
                -2.3514123675703673
            ]
        },
        {
            "positions": [
                -1.0027041389615312,
                -1.0594902985718107,
                1.954505230834438,
                -0.26790526770995204,
                -0.06132349143997695,
                -2.4821249029683248
            ]
        },
        {
            "positions": [
                -1.021470114575808,
                -1.0717256238760091,
                1.9666398126920945,
                -0.38076370754467015,
                0.04603819419715327,
                -2.6128374383662827
            ]
        },
        {
            "positions": [
                -1.040236090190085,
                -1.0839609491802078,
                1.9787743945497511,
                -0.4936221473793878,
                0.15339987983428327,
                -2.74354997376424
            ]
        },
        {
            "positions": [
                -1.0590020658043615,
                -1.0961962744844065,
                1.9909089764074075,
                -0.6064805872141055,
                0.2607615654714135,
                -2.874262509162197
            ]
        },
        {
            "positions": [
                -1.0777680414186381,
                -1.108431599788605,
                2.0030435582650643,
                -0.7193390270488231,
                0.3681232511085437,
                -3.004975044560155
            ]
        },
        {
            "positions": [
                -1.096534017032915,
                -1.1206669250928036,
                2.0151781401227207,
                -0.8321974668835408,
                0.4754849367456739,
                -3.1356875799581125
            ]
        }
    ]
}