{
    "goal": {
        "global_pose": {
            "orientation": {
                "w": 0.005598929693374612,
                "x": 0.007748599140229565,
                "y": 0.7110244013736278,
                "z": -0.7031023480610252
            },
            "position": {
                "x": -0.8858502320852131,
                "y": -0.7141253447532654,
                "z": 0.3711530566215515
            }
        },
        "name": "move_to_auspresseinheit_C"
    },
    "id": "SPARS_move_to_auspresseinheit_C_42",
    "joint_names": [
        "shoulder_pan_joint",
        "shoulder_lift_joint",
        "elbow_joint",
        "wrist_1_joint",
        "wrist_2_joint",
        "wrist_3_joint"
    ],
    "metrics": {
        "cart_traj_len": 0.4926165820566537,
        "distance_elbow_joint": 0.9904878395865032,
        "distance_shoulder_lift_joint": 0.32010259340087,
        "distance_shoulder_pan_joint": 0.25667556598139285,
        "distance_wrist_1_joint": 0.6628326408302034,
        "distance_wrist_2_joint": 1.3102498612200255,
        "distance_wrist_3_joint": 0.057969576515751076,
        "smoothness": 0.0,
        "time": 5.0558066020000005,
        "traj_len": 1.8969233188336174,
        "weighted_distance": 2.3848144021320565
    },
    "planner": "SPARS",
    "start": {
        "state": {
            "elbow_joint": 1.7527959577737207,
            "shoulder_lift_joint": -0.9740617694225068,
            "shoulder_pan_joint": -2.967991417825858,
            "wrist_1_joint": -0.759517768980727,
            "wrist_2_joint": 1.7443932448377408,
            "wrist_3_joint": -3.0840537646736568
        }
    },
    "waypoints": [
        {
            "positions": [
                -2.967991417825858,
                -0.9740617694225068,
                1.7527959577737207,
                -0.759517768980727,
                1.7443932448377408,
                -3.0840537646736568
            ]
        },
        {
            "positions": [
                -2.9423238612277185,
                -0.9420515100824198,
                1.6537471738150704,
                -0.6932345048977067,
                1.6133682587157383,
                -3.089850722325232
            ]
        },
        {
            "positions": [
                -2.9166563046295795,
                -0.9100412507423328,
                1.55469838985642,
                -0.6269512408146862,
                1.4823432725937358,
                -3.095647679976807
            ]
        },
        {
            "positions": [
                -2.89098874803144,
                -0.8780309914022457,
                1.4556496058977697,
                -0.560667976731666,
                1.3513182864717332,
                -3.101444637628382
            ]
        },
        {
            "positions": [
                -2.865321191433301,
                -0.8460207320621588,
                1.3566008219391192,
                -0.4943847126486456,
                1.2202933003497307,
                -3.107241595279957
            ]
        },
        {
            "positions": [
                -2.8396536348351615,
                -0.8140104727220718,
                1.257552037980469,
                -0.42810144856562526,
                1.089268314227728,
                -3.113038552931532
            ]
        },
        {
            "positions": [
                -2.813986078237022,
                -0.7820002133819848,
                1.1585032540218188,
                -0.36181818448260494,
                0.9582433281057255,
                -3.1188355105831076
            ]
        },
        {
            "positions": [
                -2.788318521638883,
                -0.7499899540418978,
                1.0594544700631685,
                -0.2955349203995846,
                0.827218341983723,
                -3.1246324682346827
            ]
        },
        {
            "positions": [
                -2.7626509650407436,
                -0.7179796947018108,
                0.960405686104518,
                -0.2292516563165642,
                0.6961933558617204,
                -3.1304294258862577
            ]
        },
        {
            "positions": [
                -2.7369834084426046,
                -0.6859694353617238,
                0.8613569021458678,
                -0.16296839223354387,
                0.5651683697397178,
                -3.136226383537833
            ]
        },
        {
            "positions": [
                -2.711315851844465,
                -0.6539591760216368,
                0.7623081181872174,
                -0.09668512815052356,
                0.4341433836177154,
                -3.142023341189408
            ]
        }
    ]
}