{
    "goal": {
        "global_pose": {
            "orientation": {
                "w": 0.005598929693374612,
                "x": 0.007748599140229565,
                "y": 0.7110244013736278,
                "z": -0.7031023480610252
            },
            "position": {
                "x": -0.8858502320852131,
                "y": -0.7141253447532654,
                "z": 0.3711530566215515
            }
        },
        "name": "move_to_auspresseinheit_C"
    },
    "id": "SPARS_move_to_auspresseinheit_C_74",
    "joint_names": [
        "shoulder_pan_joint",
        "shoulder_lift_joint",
        "elbow_joint",
        "wrist_1_joint",
        "wrist_2_joint",
        "wrist_3_joint"
    ],
    "metrics": {
        "cart_traj_len": 0.49303986471632977,
        "distance_elbow_joint": 0.9973080749039945,
        "distance_shoulder_lift_joint": 0.32295026856437636,
        "distance_shoulder_pan_joint": 0.25684745038377477,
        "distance_wrist_1_joint": 0.6804020177538356,
        "distance_wrist_2_joint": 1.3009287243119878,
        "distance_wrist_3_joint": 0.055933990210662365,
        "smoothness": 0.0,
        "time": 5.013928560999999,
        "traj_len": 1.9011497905553447,
        "weighted_distance": 2.3890519560310484
    },
    "planner": "SPARS",
    "start": {
        "state": {
            "elbow_joint": 1.7527959577737207,
            "shoulder_lift_joint": -0.9740617694225068,
            "shoulder_pan_joint": -2.967991417825858,
            "wrist_1_joint": -0.759517768980727,
            "wrist_2_joint": 1.7443932448377408,
            "wrist_3_joint": -3.0840537646736568
        }
    },
    "waypoints": [
        {
            "positions": [
                -2.967991417825858,
                -0.9740617694225068,
                1.7527959577737207,
                -0.759517768980727,
                1.7443932448377408,
                -3.0840537646736568
            ]
        },
        {
            "positions": [
                -2.9423066727874803,
                -0.9417667425660692,
                1.6530651502833211,
                -0.6914775672053435,
                1.6143003724065421,
                -3.089647163694723
            ]
        },
        {
            "positions": [
                -2.916621927749103,
                -0.9094717157096315,
                1.5533343427929218,
                -0.6234373654299599,
                1.4842074999753432,
                -3.095240562715789
            ]
        },
        {
            "positions": [
                -2.8909371827107258,
                -0.8771766888531939,
                1.4536035353025223,
                -0.5553971636545763,
                1.3541146275441445,
                -3.1008339617368557
            ]
        },
        {
            "positions": [
                -2.865252437672348,
                -0.8448816619967562,
                1.3538727278121228,
                -0.48735696187919275,
                1.2240217551129455,
                -3.106427360757922
            ]
        },
        {
            "positions": [
                -2.8395676926339704,
                -0.8125866351403186,
                1.2541419203217234,
                -0.4193167601038092,
                1.0939288826817468,
                -3.112020759778988
            ]
        },
        {
            "positions": [
                -2.813882947595593,
                -0.780291608283881,
                1.154411112831324,
                -0.35127655832842564,
                0.9638360102505482,
                -3.117614158800054
            ]
        },
        {
            "positions": [
                -2.788198202557216,
                -0.7479965814274433,
                1.0546803053409244,
                -0.28323635655304213,
                0.8337431378193494,
                -3.1232075578211203
            ]
        },
        {
            "positions": [
                -2.762513457518838,
                -0.7157015545710057,
                0.954949497850525,
                -0.21519615477765852,
                0.7036502653881505,
                -3.128800956842187
            ]
        },
        {
            "positions": [
                -2.7368287124804604,
                -0.683406527714568,
                0.8552186903601255,
                -0.1471559530022749,
                0.5735573929569517,
                -3.134394355863253
            ]
        },
        {
            "positions": [
                -2.711143967442083,
                -0.6511115008581304,
                0.7554878828697261,
                -0.07911575122689145,
                0.443464520525753,
                -3.139987754884319
            ]
        }
    ]
}