{
    "goal": {
        "global_pose": {
            "orientation": {
                "w": -0.00223480608172531,
                "x": 0.0024358444001904467,
                "y": 0.7094548369677653,
                "z": -0.704743149386269
            },
            "position": {
                "x": -0.37947507619857795,
                "y": -0.6371506643295288,
                "z": 0.19426114857196808
            }
        },
        "name": "move_to_magneteinheit_C"
    },
    "id": "SPARS_move_to_magneteinheit_C_28",
    "joint_names": [
        "shoulder_pan_joint",
        "shoulder_lift_joint",
        "elbow_joint",
        "wrist_1_joint",
        "wrist_2_joint",
        "wrist_3_joint"
    ],
    "metrics": {
        "cart_traj_len": 2.221758987052394,
        "distance_elbow_joint": 1.175428292959717,
        "distance_shoulder_lift_joint": 2.108775205053355,
        "distance_shoulder_pan_joint": 2.726290767038481,
        "distance_wrist_1_joint": 0.6663696734123091,
        "distance_wrist_2_joint": 1.3925153475786605,
        "distance_wrist_3_joint": 0.411874401562522,
        "smoothness": 1.185048859863678,
        "time": 5.031058413,
        "traj_len": 2.9122592068023483,
        "weighted_distance": 3.371036563391305
    },
    "planner": "SPARS",
    "start": {
        "state": {
            "elbow_joint": 1.9565354010623817,
            "shoulder_lift_joint": -1.4165861575791021,
            "shoulder_pan_joint": -1.6717766225146293,
            "wrist_1_joint": -0.5286633292919765,
            "wrist_2_joint": 1.472756589071564,
            "wrist_3_joint": -3.1238370188695823
        }
    },
    "waypoints": [
        {
            "positions": [
                -1.6717766225146293,
                -1.4165861575791021,
                1.9565354010623817,
                -0.5286633292919765,
                1.472756589071564,
                -3.1238370188695823
            ]
        },
        {
            "positions": [
                -1.58426847264185,
                -1.5010459528455553,
                2.012624236595233,
                -0.573576019256869,
                1.3735421834745196,
                -3.1054214952817683
            ]
        },
        {
            "positions": [
                -1.4967603227690707,
                -1.5855057481120085,
                2.068713072128084,
                -0.6184887092217616,
                1.2743277778774753,
                -3.087005971693954
            ]
        },
        {
            "positions": [
                -1.4092521728962915,
                -1.6699655433784617,
                2.1248019076609355,
                -0.6634013991866541,
                1.175113372280431,
                -3.06859044810614
            ]
        },
        {
            "positions": [
                -1.321744023023512,
                -1.754425338644915,
                2.1808907431937867,
                -0.7083140891515466,
                1.0758989666833867,
                -3.050174924518326
            ]
        },
        {
            "positions": [
                -1.2342358731507326,
                -1.838885133911368,
                2.236979578726638,
                -0.7532267791164391,
                0.9766845610863423,
                -3.031759400930512
            ]
        },
        {
            "positions": [
                -1.1467277232779534,
                -1.9233449291778213,
                2.2930684142594893,
                -0.7981394690813317,
                0.877470155489298,
                -3.013343877342698
            ]
        },
        {
            "positions": [
                -1.059219573405174,
                -2.0078047244442745,
                2.3491572497923405,
                -0.8430521590462242,
                0.7782557498922537,
                -2.994928353754884
            ]
        },
        {
            "positions": [
                -0.9717114235323946,
                -2.092264519710728,
                2.405246085325192,
                -0.8879648490111167,
                0.6790413442952092,
                -2.97651283016707
            ]
        },
        {
            "positions": [
                -0.8842032736596153,
                -2.176724314977181,
                2.461334920858043,
                -0.9328775389760093,
                0.5798269386981649,
                -2.9580973065792557
            ]
        },
        {
            "positions": [
                -0.7966951237868359,
                -2.261184110243634,
                2.5174237563908943,
                -0.9777902289409017,
                0.4806125331011206,
                -2.9396817829914417
            ]
        },
        {
            "positions": [
                -0.7091869739140566,
                -2.3456439055100873,
                2.5735125919237456,
                -1.0227029189057943,
                0.38139812750407637,
                -2.9212662594036276
            ]
        },
        {
            "positions": [
                -0.8695234392265937,
                -2.238396863953508,
                2.5227443099148044,
                -1.007036547651386,
                0.4087760262323648,
                -2.9402938632305884
            ]
        },
        {
            "positions": [
                -1.0298599045391308,
                -2.131149822396929,
                2.471976027905863,
                -0.9913701763969778,
                0.4361539249606533,
                -2.9593214670575487
            ]
        },
        {
            "positions": [
                -1.190196369851668,
                -2.0239027808403502,
                2.421207745896922,
                -0.9757038051425695,
                0.46353182368894175,
                -2.9783490708845095
            ]
        },
        {
            "positions": [
                -1.3505328351642052,
                -1.916655739283771,
                2.3704394638879807,
                -0.9600374338881612,
                0.49090972241723024,
                -2.9973766747114703
            ]
        },
        {
            "positions": [
                -1.5108693004767422,
                -1.809408697727192,
                2.3196711818790394,
                -0.9443710626337529,
                0.5182876211455187,
                -3.016404278538431
            ]
        },
        {
            "positions": [
                -1.6712057657892792,
                -1.7021616561706128,
                2.2689028998700986,
                -0.9287046913793446,
                0.5456655198738072,
                -3.0354318823653914
            ]
        },
        {
            "positions": [
                -1.8315422311018164,
                -1.5949146146140336,
                2.2181346178611574,
                -0.9130383201249362,
                0.5730434186020956,
                -3.054459486192352
            ]
        },
        {
            "positions": [
                -1.9918786964143536,
                -1.4876675730574547,
                2.167366335852216,
                -0.897371948870528,
                0.6004213173303841,
                -3.073487090019313
            ]
        },
        {
            "positions": [
                -2.1522151617268905,
                -1.3804205315008755,
                2.116598053843275,
                -0.8817055776161197,
                0.6277992160586726,
                -3.0925146938462738
            ]
        },
        {
            "positions": [
                -2.3125516270394275,
                -1.2731734899442966,
                2.0658297718343337,
                -0.8660392063617114,
                0.655177114786961,
                -3.111542297673234
            ]
        },
        {
            "positions": [
                -2.472888092351965,
                -1.1659264483877174,
                2.0150614898253925,
                -0.8503728351073031,
                0.6825550135152495,
                -3.130569901500195
            ]
        }
    ]
}