{
    "goal": {
        "global_pose": {
            "orientation": {
                "w": 0.005598929693374612,
                "x": 0.007748599140229565,
                "y": 0.7110244013736278,
                "z": -0.7031023480610252
            },
            "position": {
                "x": -0.8858502320852131,
                "y": -0.7141253447532654,
                "z": 0.3711530566215515
            }
        },
        "name": "move_to_auspresseinheit_C"
    },
    "id": "SPARS_move_to_auspresseinheit_C_98",
    "joint_names": [
        "shoulder_pan_joint",
        "shoulder_lift_joint",
        "elbow_joint",
        "wrist_1_joint",
        "wrist_2_joint",
        "wrist_3_joint"
    ],
    "metrics": {
        "cart_traj_len": 0.49313483606049063,
        "distance_elbow_joint": 1.0032126871295404,
        "distance_shoulder_lift_joint": 0.32628926333344577,
        "distance_shoulder_pan_joint": 0.25720235459954477,
        "distance_wrist_1_joint": 0.6967889190665428,
        "distance_wrist_2_joint": 1.3009649582693763,
        "distance_wrist_3_joint": 0.0690752563899859,
        "smoothness": 3.2297397335745243e-16,
        "time": 5.033337091,
        "traj_len": 1.9114218369550025,
        "weighted_distance": 2.406125065100384
    },
    "planner": "SPARS",
    "start": {
        "state": {
            "elbow_joint": 1.7527959577737207,
            "shoulder_lift_joint": -0.9740617694225068,
            "shoulder_pan_joint": -2.967991417825858,
            "wrist_1_joint": -0.759517768980727,
            "wrist_2_joint": 1.7443932448377408,
            "wrist_3_joint": -3.0840537646736568
        }
    },
    "waypoints": [
        {
            "positions": [
                -2.967991417825858,
                -0.9740617694225068,
                1.7527959577737207,
                -0.759517768980727,
                1.7443932448377408,
                -3.0840537646736568
            ]
        },
        {
            "positions": [
                -2.9422711823659036,
                -0.9414328430891622,
                1.6524746890607667,
                -0.6898388770740727,
                1.6142967490108031,
                -3.0909612903126553
            ]
        },
        {
            "positions": [
                -2.916550946905949,
                -0.9088039167558176,
                1.5521534203478127,
                -0.6201599851674184,
                1.4842002531838656,
                -3.097868815951654
            ]
        },
        {
            "positions": [
                -2.8908307114459943,
                -0.876174990422473,
                1.4518321516348585,
                -0.5504810932607641,
                1.354103757356928,
                -3.1047763415906524
            ]
        },
        {
            "positions": [
                -2.86511047598604,
                -0.8435460640891285,
                1.3515108829219045,
                -0.48080220135410984,
                1.2240072615299904,
                -3.111683867229651
            ]
        },
        {
            "positions": [
                -2.8393902405260856,
                -0.8109171377557839,
                1.2511896142089505,
                -0.41112330944745556,
                1.0939107657030527,
                -3.11859139286865
            ]
        },
        {
            "positions": [
                -2.813670005066131,
                -0.7782882114224393,
                1.1508683454959965,
                -0.3414444175408013,
                0.9638142698761151,
                -3.1254989185076485
            ]
        },
        {
            "positions": [
                -2.787949769606177,
                -0.7456592850890947,
                1.0505470767830425,
                -0.271765525634147,
                0.8337177740491775,
                -3.132406444146647
            ]
        },
        {
            "positions": [
                -2.762229534146222,
                -0.7130303587557502,
                0.9502258080700883,
                -0.2020866337274927,
                0.7036212782222397,
                -3.1393139697856456
            ]
        },
        {
            "positions": [
                -2.7365092986862676,
                -0.6804014324224056,
                0.8499045393571343,
                -0.13240774182083836,
                0.573524782395302,
                -3.146221495424644
            ]
        },
        {
            "positions": [
                -2.710789063226313,
                -0.647772506089061,
                0.7495832706441802,
                -0.06272884991418415,
                0.4434282865683644,
                -3.1531290210636427
            ]
        }
    ]
}