{
    "goal": {
        "global_pose": {
            "orientation": {
                "w": 0.005598929693374612,
                "x": 0.007748599140229565,
                "y": 0.7110244013736278,
                "z": -0.7031023480610252
            },
            "position": {
                "x": 0.1141497679147869,
                "y": -0.7141253447532654,
                "z": 0.3711530566215515
            }
        },
        "name": "move_to_auspresseinheit_B"
    },
    "id": "SPARStwo_move_to_auspresseinheit_B_124",
    "joint_names": [
        "shoulder_pan_joint",
        "shoulder_lift_joint",
        "elbow_joint",
        "wrist_1_joint",
        "wrist_2_joint",
        "wrist_3_joint"
    ],
    "metrics": {
        "cart_traj_len": 0.5644374125531197,
        "distance_elbow_joint": 0.05997048671385441,
        "distance_shoulder_lift_joint": 0.294212833635765,
        "distance_shoulder_pan_joint": 0.5771836813299214,
        "distance_wrist_1_joint": 0.3162308477680067,
        "distance_wrist_2_joint": 0.9924698910758838,
        "distance_wrist_3_joint": 0.007729736721274971,
        "smoothness": 0.0,
        "time": 5.015608847,
        "traj_len": 1.4992656459896312,
        "weighted_distance": 1.8899623513528376
    },
    "planner": "SPARStwo",
    "start": {
        "state": {
            "elbow_joint": 2.0193083361928714,
            "shoulder_lift_joint": -1.1220246554650708,
            "shoulder_pan_joint": -1.0952077554168747,
            "wrist_1_joint": -0.8559753972642168,
            "wrist_2_joint": 0.4759566250798843,
            "wrist_3_joint": -3.1240929996934557
        }
    },
    "waypoints": [
        {
            "positions": [
                -1.0952077554168747,
                -1.1220246554650708,
                2.0193083361928714,
                -0.8559753972642168,
                0.4759566250798843,
                -3.1240929996934557
            ]
        },
        {
            "positions": [
                -1.1914050356385282,
                -1.1710601277376984,
                2.009313255073896,
                -0.803270255969549,
                0.6413682735925316,
                -3.1253812891470014
            ]
        },
        {
            "positions": [
                -1.2876023158601817,
                -1.2200956000103258,
                1.99931817395492,
                -0.7505651146748812,
                0.8067799221051788,
                -3.126669578600547
            ]
        },
        {
            "positions": [
                -1.3837995960818352,
                -1.2691310722829532,
                1.9893230928359442,
                -0.6978599733802134,
                0.9721915706178261,
                -3.127957868054093
            ]
        },
        {
            "positions": [
                -1.4799968763034888,
                -1.3181665445555808,
                1.9793280117169685,
                -0.6451548320855457,
                1.1376032191304735,
                -3.129246157507639
            ]
        },
        {
            "positions": [
                -1.5761941565251425,
                -1.3672020168282084,
                1.9693329305979927,
                -0.5924496907908778,
                1.3030148676431208,
                -3.130534446961185
            ]
        },
        {
            "positions": [
                -1.672391436746796,
                -1.4162374891008358,
                1.959337849479017,
                -0.5397445494962101,
                1.4684265161557681,
                -3.1318227364147306
            ]
        }
    ]
}