{
    "goal": {
        "global_pose": {
            "orientation": {
                "w": 0.5084816217422485,
                "x": -0.49083608388900757,
                "y": 0.5182115435600281,
                "z": -0.4816462993621826
            },
            "position": {
                "x": 0.5540239810943604,
                "y": 0.030875300988554955,
                "z": 0.16403168439865112
            }
        },
        "name": "move_to_storage_A"
    },
    "id": "SPARStwo_move_to_storage_A_99",
    "joint_names": [
        "shoulder_pan_joint",
        "shoulder_lift_joint",
        "elbow_joint",
        "wrist_1_joint",
        "wrist_2_joint",
        "wrist_3_joint"
    ],
    "metrics": {
        "cart_traj_len": 0.35282653501540856,
        "distance_elbow_joint": 0.4492508845757226,
        "distance_shoulder_lift_joint": 0.2322254155880854,
        "distance_shoulder_pan_joint": 0.45829468141595475,
        "distance_wrist_1_joint": 0.24512422954276203,
        "distance_wrist_2_joint": 1.110281910117458,
        "distance_wrist_3_joint": 0.10710868163304488,
        "smoothness": 4.440892098500626e-16,
        "time": 5.006465789000001,
        "traj_len": 1.6131601913241684,
        "weighted_distance": 2.0425252277020562
    },
    "planner": "SPARStwo",
    "start": {
        "state": {
            "elbow_joint": 1.9715481507254546,
            "shoulder_lift_joint": -1.1394850672790213,
            "shoulder_pan_joint": 0.12281154597544902,
            "wrist_1_joint": -0.7804720171073349,
            "wrist_2_joint": 0.12958658322886563,
            "wrist_3_joint": -3.1924895760937617
        }
    },
    "waypoints": [
        {
            "positions": [
                0.12281154597544902,
                -1.1394850672790213,
                1.9715481507254546,
                -0.7804720171073349,
                0.12958658322886563,
                -3.1924895760937617
            ]
        },
        {
            "positions": [
                0.057340877201741206,
                -1.1726601266487477,
                2.0357268485219864,
                -0.8154897641848724,
                0.2881982846742167,
                -3.17718833586047
            ]
        },
        {
            "positions": [
                -0.00812979157196661,
                -1.2058351860184744,
                2.099905546318518,
                -0.8505075112624098,
                0.44680998611956785,
                -3.1618870956271774
            ]
        },
        {
            "positions": [
                -0.07360046034567444,
                -1.2390102453882008,
                2.16408424411505,
                -0.8855252583399472,
                0.605421687564919,
                -3.1465858553938855
            ]
        },
        {
            "positions": [
                -0.13907112911938224,
                -1.2721853047579272,
                2.2282629419115816,
                -0.9205430054174847,
                0.7640333890102701,
                -3.131284615160593
            ]
        },
        {
            "positions": [
                -0.20454179789309007,
                -1.3053603641276537,
                2.2924416397081138,
                -0.955560752495022,
                0.9226450904556213,
                -3.115983374927301
            ]
        },
        {
            "positions": [
                -0.2700124666667979,
                -1.3385354234973803,
                2.3566203375046455,
                -0.9905784995725595,
                1.0812567919009723,
                -3.1006821346940088
            ]
        },
        {
            "positions": [
                -0.33548313544050573,
                -1.3717104828671067,
                2.4207990353011772,
                -1.025596246650097,
                1.2398684933463235,
                -3.085380894460717
            ]
        }
    ]
}