{
    "goal": {
        "global_pose": {
            "orientation": {
                "w": 0.5084816217422485,
                "x": -0.49083608388900757,
                "y": 0.5182115435600281,
                "z": -0.4816462993621826
            },
            "position": {
                "x": 0.5540239810943604,
                "y": 0.030875300988554955,
                "z": 0.16403168439865112
            }
        },
        "name": "move_to_storage_A"
    },
    "id": "SPARS_move_to_storage_A_115",
    "joint_names": [
        "shoulder_pan_joint",
        "shoulder_lift_joint",
        "elbow_joint",
        "wrist_1_joint",
        "wrist_2_joint",
        "wrist_3_joint"
    ],
    "metrics": {
        "cart_traj_len": 0.35320849366831814,
        "distance_elbow_joint": 0.45240328668172114,
        "distance_shoulder_lift_joint": 0.23232363832191782,
        "distance_shoulder_pan_joint": 0.4631044546208741,
        "distance_wrist_1_joint": 0.25385933287976037,
        "distance_wrist_2_joint": 1.0931781730515182,
        "distance_wrist_3_joint": 0.09718494580686832,
        "smoothness": 1.3322676330666223e-15,
        "time": 5.019890459,
        "traj_len": 1.6099856618500241,
        "weighted_distance": 2.0330915446451683
    },
    "planner": "SPARS",
    "start": {
        "state": {
            "elbow_joint": 1.971548259319323,
            "shoulder_lift_joint": -1.1394851275133948,
            "shoulder_pan_joint": 0.1228115487234821,
            "wrist_1_joint": -0.7804723859257726,
            "wrist_2_joint": 0.12958671773740124,
            "wrist_3_joint": -3.192489227718131
        }
    },
    "waypoints": [
        {
            "positions": [
                0.1228115487234821,
                -1.1394851275133948,
                1.971548259319323,
                -0.7804723859257726,
                0.12958671773740124,
                -3.192489227718131
            ]
        },
        {
            "positions": [
                0.05665376949192867,
                -1.1726742187022403,
                2.0361773002738546,
                -0.8167380049085955,
                0.2857550281733324,
                -3.1786056640314357
            ]
        },
        {
            "positions": [
                -0.009504009739624758,
                -1.2058633098910856,
                2.1008063412283864,
                -0.8530036238914185,
                0.4419233386092636,
                -3.1647221003447403
            ]
        },
        {
            "positions": [
                -0.0756617889711782,
                -1.239052401079931,
                2.1654353821829178,
                -0.8892692428742414,
                0.5980916490451947,
                -3.150838536658045
            ]
        },
        {
            "positions": [
                -0.14181956820273162,
                -1.2722414922687764,
                2.230064423137449,
                -0.9255348618570642,
                0.7542599594811259,
                -3.136954972971349
            ]
        },
        {
            "positions": [
                -0.2079773474342851,
                -1.3054305834576219,
                2.294693464091981,
                -0.9618004808398872,
                0.9104282699170572,
                -3.1230714092846537
            ]
        },
        {
            "positions": [
                -0.2741351266658385,
                -1.3386196746464671,
                2.3593225050465128,
                -0.99806609982271,
                1.0665965803529882,
                -3.1091878455979582
            ]
        },
        {
            "positions": [
                -0.340292905897392,
                -1.3718087658353126,
                2.423951546001044,
                -1.034331718805533,
                1.2227648907889195,
                -3.095304281911263
            ]
        }
    ]
}{
    "goal": {
        "global_pose": {
            "orientation": {
                "w": 0.5084816217422485,
                "x": -0.49083608388900757,
                "y": 0.5182115435600281,
                "z": -0.4816462993621826
            },
            "position": {
                "x": 0.5540239810943604,
                "y": 0.030875300988554955,
                "z": 0.16403168439865112
            }
        },
        "name": "move_to_storage_A"
    },
    "id": "SPARS_move_to_storage_A_115",
    "joint_names": [
        "shoulder_pan_joint",
        "shoulder_lift_joint",
        "elbow_joint",
        "wrist_1_joint",
        "wrist_2_joint",
        "wrist_3_joint"
    ],
    "metrics": {
        "cart_traj_len": 0.3530720106612979,
        "distance_elbow_joint": 0.44829217873048455,
        "distance_shoulder_lift_joint": 0.23469436780527908,
        "distance_shoulder_pan_joint": 0.46176959880141727,
        "distance_wrist_1_joint": 0.23898007323016635,
        "distance_wrist_2_joint": 1.0980742123495475,
        "distance_wrist_3_joint": 0.09742989223703047,
        "smoothness": 1.5543122343307022e-15,
        "time": 5.013976781999999,
        "traj_len": 1.6060013459377689,
        "weighted_distance": 2.027598183370586
    },
    "planner": "SPARS",
    "start": {
        "state": {
            "elbow_joint": 1.97154746011099,
            "shoulder_lift_joint": -1.13948474672311,
            "shoulder_pan_joint": 0.12281154466712228,
            "wrist_1_joint": -0.7804688027058302,
            "wrist_2_joint": 0.12958655903071145,
            "wrist_3_joint": 3.0906928834467795
        }
    },
    "waypoints": [
        {
            "positions": [
                0.12281154466712228,
                -1.13948474672311,
                1.97154746011099,
                -0.7804688027058302,
                0.12958655903071145,
                3.0906928834467795
            ]
        },
        {
            "positions": [
                0.05684445912406268,
                -1.1730125135524356,
                2.0355891999296305,
                -0.8146088131672825,
                0.28645430365207536,
                3.104611439480641
            ]
        },
        {
            "positions": [
                -0.00912262641899693,
                -1.206540280381761,
                2.099630939748271,
                -0.8487488236287348,
                0.44332204827343924,
                3.1185299955145025
            ]
        },
        {
            "positions": [
                -0.07508971196205654,
                -1.2400680472110868,
                2.1636726795669117,
                -0.8828888340901871,
                0.6001897928948032,
                3.132448551548364
            ]
        },
        {
            "positions": [
                -0.14105679750511613,
                -1.2735958140404122,
                2.2277144193855527,
                -0.9170288445516395,
                0.7570575375161671,
                3.1463671075822255
            ]
        },
        {
            "positions": [
                -0.20702388304817576,
                -1.307123580869738,
                2.2917561592041933,
                -0.9511688550130919,
                0.9139252821375311,
                3.160285663616087
            ]
        },
        {
            "positions": [
                -0.27299096859123534,
                -1.3406513476990634,
                2.355797899022834,
                -0.9853088654745442,
                1.070793026758895,
                3.1742042196499485
            ]
        },
        {
            "positions": [
                -0.338958054134295,
                -1.374179114528389,
                2.4198396388414745,
                -1.0194488759359965,
                1.227660771380259,
                3.18812277568381
            ]
        }
    ]
}{
    "goal": {
        "global_pose": {
            "orientation": {
                "w": 0.5084816217422485,
                "x": -0.49083608388900757,
                "y": 0.5182115435600281,
                "z": -0.4816462993621826
            },
            "position": {
                "x": 0.5540239810943604,
                "y": 0.030875300988554955,
                "z": 0.16403168439865112
            }
        },
        "name": "move_to_storage_A"
    },
    "id": "SPARS_move_to_storage_A_115",
    "joint_names": [
        "shoulder_pan_joint",
        "shoulder_lift_joint",
        "elbow_joint",
        "wrist_1_joint",
        "wrist_2_joint",
        "wrist_3_joint"
    ],
    "metrics": {
        "cart_traj_len": 0.35316998936161503,
        "distance_elbow_joint": 0.4523183189729765,
        "distance_shoulder_lift_joint": 0.2333080718275562,
        "distance_shoulder_pan_joint": 0.457779979333437,
        "distance_wrist_1_joint": 0.258047512586435,
        "distance_wrist_2_joint": 1.1157587554290262,
        "distance_wrist_3_joint": 0.0925309245792616,
        "smoothness": 1.3322676330666223e-15,
        "time": 5.006717968,
        "traj_len": 1.6154700748477802,
        "weighted_distance": 2.0417178257297643
    },
    "planner": "SPARS",
    "start": {
        "state": {
            "elbow_joint": 1.9715472970024885,
            "shoulder_lift_joint": -1.1394870060712896,
            "shoulder_pan_joint": 0.12281152778156021,
            "wrist_1_joint": -0.780463741449964,
            "wrist_2_joint": 0.12958659822042276,
            "wrist_3_joint": 3.090690232415272
        }
    },
    "waypoints": [
        {
            "positions": [
                0.12281152778156021,
                -1.1394870060712896,
                1.9715472970024885,
                -0.780463741449964,
                0.12958659822042276,
                3.090690232415272
            ]
        },
        {
            "positions": [
                0.057414387876783504,
                -1.1728167306180834,
                2.0361641997129136,
                -0.8173276718194548,
                0.28898070613885507,
                3.103908935926595
            ]
        },
        {
            "positions": [
                -0.0079827520279932,
                -1.206146455164877,
                2.100781102423339,
                -0.8541916021889454,
                0.4483748140572874,
                3.117127639437918
            ]
        },
        {
            "positions": [
                -0.07337989193276989,
                -1.239476179711671,
                2.1653980051337642,
                -0.8910555325584362,
                0.6077689219757197,
                3.1303463429492413
            ]
        },
        {
            "positions": [
                -0.1387770318375466,
                -1.2728059042584645,
                2.2300149078441893,
                -0.9279194629279268,
                0.767163029894152,
                3.143565046460564
            ]
        },
        {
            "positions": [
                -0.20417417174232336,
                -1.3061356288052584,
                2.2946318105546144,
                -0.9647833932974176,
                0.9265571378125843,
                3.156783749971887
            ]
        },
        {
            "positions": [
                -0.2695713116471,
                -1.339465353352052,
                2.35924871326504,
                -1.0016473236669083,
                1.0859512457310168,
                3.1700024534832103
            ]
        },
        {
            "positions": [
                -0.33496845155187677,
                -1.3727950778988458,
                2.423865615975465,
                -1.038511254036399,
                1.245345353649449,
                3.1832211569945335
            ]
        }
    ]
}