{
    "goal": {
        "global_pose": {
            "orientation": {
                "w": 0.7047431468963623,
                "x": -0.7094548344612122,
                "y": 0.0024358443915843964,
                "z": -0.0022348060738295317
            },
            "position": {
                "x": 0.6094750761985779,
                "y": 0.3671506643295288,
                "z": 0.19426114857196808
            }
        },
        "name": "move_to_magneteinheit_A"
    },
    "id": "SPARStwo_move_to_magneteinheit_A_59",
    "joint_names": [
        "shoulder_pan_joint",
        "shoulder_lift_joint",
        "elbow_joint",
        "wrist_1_joint",
        "wrist_2_joint",
        "wrist_3_joint"
    ],
    "metrics": {
        "cart_traj_len": 3.6945472104967974,
        "distance_elbow_joint": 3.882645196316294,
        "distance_shoulder_lift_joint": 0.3498383099824154,
        "distance_shoulder_pan_joint": 2.8758278127546,
        "distance_wrist_1_joint": 0.8009390431330268,
        "distance_wrist_2_joint": 1.6916864830962977,
        "distance_wrist_3_joint": 4.554093835548942,
        "smoothness": 0.13068094733960553,
        "time": 5.014559213999999,
        "traj_len": 3.762317195669655,
        "weighted_distance": 5.075021564304804
    },
    "planner": "SPARStwo",
    "start": {
        "state": {
            "elbow_joint": -1.9196185241190666,
            "shoulder_lift_joint": -1.2443396400964142,
            "shoulder_pan_joint": 2.6996025414629847,
            "wrist_1_joint": -1.5485510000780065,
            "wrist_2_joint": -1.5709468930060704,
            "wrist_3_joint": 0.4420197071253992
        }
    },
    "waypoints": [
        {
            "positions": [
                2.6996025414629847,
                -1.2443396400964142,
                -1.9196185241190666,
                -1.5485510000780065,
                -1.5709468930060704,
                0.4420197071253992
            ]
        },
        {
            "positions": [
                2.565249460012498,
                -1.2328531013678736,
                -1.7661746413617032,
                -1.5377769148205425,
                -1.5518095543247616,
                0.3934457588323939
            ]
        },
        {
            "positions": [
                2.4308963785620112,
                -1.221366562639333,
                -1.61273075860434,
                -1.5270028295630784,
                -1.5326722156434527,
                0.34487181053938865
            ]
        },
        {
            "positions": [
                2.2965432971115245,
                -1.2098800239107925,
                -1.4592868758469768,
                -1.5162287443056144,
                -1.513534876962144,
                0.29629786224638344
            ]
        },
        {
            "positions": [
                2.1621902156610378,
                -1.198393485182252,
                -1.3058429930896134,
                -1.5054546590481503,
                -1.4943975382808352,
                0.24772391395337817
            ]
        },
        {
            "positions": [
                2.027837134210551,
                -1.1869069464537114,
                -1.15239911033225,
                -1.4946805737906863,
                -1.4752601995995263,
                0.19914996566037294
            ]
        },
        {
            "positions": [
                1.8934840527600643,
                -1.1754204077251709,
                -0.9989552275748868,
                -1.4839064885332223,
                -1.4561228609182175,
                0.1505760173673677
            ]
        },
        {
            "positions": [
                1.7591309713095777,
                -1.1639338689966303,
                -0.8455113448175235,
                -1.4731324032757582,
                -1.4369855222369088,
                0.10200206907436243
            ]
        },
        {
            "positions": [
                1.624777889859091,
                -1.1524473302680898,
                -0.6920674620601601,
                -1.4623583180182942,
                -1.4178481835555998,
                0.05342812078135717
            ]
        },
        {
            "positions": [
                1.4904248084086043,
                -1.1409607915395492,
                -0.5386235793027967,
                -1.4515842327608302,
                -1.398710844874291,
                0.00485417248835196
            ]
        },
        {
            "positions": [
                1.3560717269581175,
                -1.1294742528110087,
                -0.3851796965454335,
                -1.4408101475033663,
                -1.3795735061929824,
                -0.043719775804653305
            ]
        },
        {
            "positions": [
                1.2217186455076308,
                -1.117987714082468,
                -0.23173581378807007,
                -1.430036062245902,
                -1.3604361675116734,
                -0.09229372409765857
            ]
        },
        {
            "positions": [
                1.087365564057144,
                -1.1065011753539278,
                -0.07829193103070686,
                -1.4192619769884383,
                -1.3412988288303647,
                -0.14086767239066378
            ]
        },
        {
            "positions": [
                0.9530124826066573,
                -1.0950146366253872,
                0.07515195172665656,
                -1.4084878917309742,
                -1.3221614901490557,
                -0.1894416206836691
            ]
        },
        {
            "positions": [
                0.8186594011561708,
                -1.0835280978968467,
                0.22859583448401954,
                -1.3977138064735102,
                -1.303024151467747,
                -0.2380155689766743
            ]
        },
        {
            "positions": [
                0.684306319705684,
                -1.0720415591683061,
                0.38203971724138297,
                -1.3869397212160461,
                -1.2838868127864382,
                -0.2865895172696795
            ]
        },
        {
            "positions": [
                0.5499532382551973,
                -1.0605550204397656,
                0.5354835999987464,
                -1.376165635958582,
                -1.2647494741051293,
                -0.33516346556268484
            ]
        },
        {
            "positions": [
                0.4156001568047105,
                -1.049068481711225,
                0.6889274827561098,
                -1.365391550701118,
                -1.2456121354238205,
                -0.38373741385569005
            ]
        },
        {
            "positions": [
                0.2812470753542238,
                -1.0375819429826845,
                0.8423713655134732,
                -1.354617465443654,
                -1.2264747967425118,
                -0.43231136214869526
            ]
        },
        {
            "positions": [
                0.14689399390373703,
                -1.026095404254144,
                0.9958152482708362,
                -1.34384338018619,
                -1.207337458061203,
                -0.48088531044170046
            ]
        },
        {
            "positions": [
                0.012540912453250314,
                -1.0146088655256034,
                1.1492591310281997,
                -1.333069294928726,
                -1.1882001193798941,
                -0.5294592587347058
            ]
        },
        {
            "positions": [
                0.009232864625145078,
                -1.0204242529307088,
                1.204720609528097,
                -1.3000860923234479,
                -1.114801540428224,
                -0.3355753808704002
            ]
        },
        {
            "positions": [
                0.0059248167970398415,
                -1.026239640335814,
                1.2601820880279941,
                -1.2671028897181695,
                -1.041402961476554,
                -0.1416915030060945
            ]
        },
        {
            "positions": [
                0.0026167689689346046,
                -1.0320550277409195,
                1.3156435665278914,
                -1.2341196871128914,
                -0.9680043825248841,
                0.052192374858211155
            ]
        },
        {
            "positions": [
                -0.0006912788591706305,
                -1.0378704151460247,
                1.3711050450277888,
                -1.2011364845076133,
                -0.8946058035732142,
                0.24607625272251676
            ]
        },
        {
            "positions": [
                -0.003999326687275869,
                -1.0436858025511302,
                1.426566523527686,
                -1.168153281902335,
                -0.821207224621544,
                0.4399601305868225
            ]
        },
        {
            "positions": [
                -0.007307374515381104,
                -1.0495011899562354,
                1.4820280020275833,
                -1.135170079297057,
                -0.7478086456698742,
                0.6338440084511281
            ]
        },
        {
            "positions": [
                -0.010615422343486343,
                -1.0553165773613409,
                1.5374894805274806,
                -1.1021868766917788,
                -0.6744100667182041,
                0.8277278863154338
            ]
        },
        {
            "positions": [
                -0.013923470171591575,
                -1.0611319647664463,
                1.5929509590273778,
                -1.0692036740865007,
                -0.6010114877665342,
                1.0216117641797393
            ]
        },
        {
            "positions": [
                -0.017231517999696813,
                -1.0669473521715516,
                1.6484124375272753,
                -1.0362204714812224,
                -0.5276129088148642,
                1.215495642044045
            ]
        },
        {
            "positions": [
                -0.020539565827802052,
                -1.072762739576657,
                1.7038739160271725,
                -1.003237268875944,
                -0.4542143298631941,
                1.4093795199083508
            ]
        },
        {
            "positions": [
                -0.023847613655907283,
                -1.0785781269817623,
                1.7593353945270698,
                -0.9702540662706661,
                -0.3808157509115242,
                1.6032633977726563
            ]
        },
        {
            "positions": [
                -0.027155661484012522,
                -1.0843935143868677,
                1.814796873026967,
                -0.9372708636653879,
                -0.30741717195985424,
                1.7971472756369622
            ]
        },
        {
            "positions": [
                -0.0023107265160783458,
                -1.0927806621452578,
                1.8395018395553437,
                -0.9056610458786533,
                -0.23605771161817402,
                2.0064819981898236
            ]
        },
        {
            "positions": [
                0.02253420845185583,
                -1.1011678099036477,
                1.8642068060837205,
                -0.8740512280919185,
                -0.1646982512764938,
                2.2158167207426853
            ]
        },
        {
            "positions": [
                0.04737914341979001,
                -1.1095549576620378,
                1.8889117726120972,
                -0.8424414103051838,
                -0.09333879093481354,
                2.425151443295547
            ]
        },
        {
            "positions": [
                0.07222407838772418,
                -1.117942105420428,
                1.9136167391404737,
                -0.8108315925184492,
                -0.02197933059313334,
                2.6344861658484087
            ]
        },
        {
            "positions": [
                0.09706901335565836,
                -1.1263292531788178,
                1.9383217056688504,
                -0.7792217747317144,
                0.04938012974854694,
                2.84382088840127
            ]
        },
        {
            "positions": [
                0.12191394832359254,
                -1.134716400937208,
                1.9630266721972272,
                -0.7476119569449797,
                0.12073959009022717,
                3.0531556109541316
            ]
        }
    ]
}