{
    "goal": {
        "global_pose": {
            "orientation": {
                "w": 0.005598929693374612,
                "x": 0.007748599140229565,
                "y": 0.7110244013736278,
                "z": -0.7031023480610252
            },
            "position": {
                "x": 0.1141497679147869,
                "y": -0.7141253447532654,
                "z": 0.3711530566215515
            }
        },
        "name": "move_to_auspresseinheit_B"
    },
    "id": "SPARS_move_to_auspresseinheit_B_101",
    "joint_names": [
        "shoulder_pan_joint",
        "shoulder_lift_joint",
        "elbow_joint",
        "wrist_1_joint",
        "wrist_2_joint",
        "wrist_3_joint"
    ],
    "metrics": {
        "cart_traj_len": 0.5643745149303786,
        "distance_elbow_joint": 0.06347238414729217,
        "distance_shoulder_lift_joint": 0.29556213224389327,
        "distance_shoulder_pan_joint": 0.5791936348323101,
        "distance_wrist_1_joint": 0.3381553239945979,
        "distance_wrist_2_joint": 0.9844149244544178,
        "distance_wrist_3_joint": 0.006946722732715571,
        "smoothness": 5.075305295617109e-16,
        "time": 5.011921921000001,
        "traj_len": 1.5059034239967803,
        "weighted_distance": 1.8984753926031472
    },
    "planner": "SPARS",
    "start": {
        "state": {
            "elbow_joint": 2.0193083361928714,
            "shoulder_lift_joint": -1.1220246554650708,
            "shoulder_pan_joint": -1.0952077554168747,
            "wrist_1_joint": -0.8559753972642168,
            "wrist_2_joint": 0.4759566250798843,
            "wrist_3_joint": -3.1240929996934557
        }
    },
    "waypoints": [
        {
            "positions": [
                -1.0952077554168747,
                -1.1220246554650708,
                2.0193083361928714,
                -0.8559753972642168,
                0.4759566250798843,
                -3.1240929996934557
            ]
        },
        {
            "positions": [
                -1.1917400278889263,
                -1.171285010839053,
                2.008729605501656,
                -0.7996161765984504,
                0.6400257791556205,
                -3.1229352125713365
            ]
        },
        {
            "positions": [
                -1.288272300360978,
                -1.2205453662130352,
                1.9981508748104406,
                -0.7432569559326841,
                0.804094933231357,
                -3.121777425449217
            ]
        },
        {
            "positions": [
                -1.3848045728330298,
                -1.2698057215870175,
                1.9875721441192253,
                -0.6868977352669179,
                0.9681640873070931,
                -3.120619638327098
            ]
        },
        {
            "positions": [
                -1.4813368453050813,
                -1.3190660769609996,
                1.97699341342801,
                -0.6305385146011515,
                1.1322332413828295,
                -3.1194618512049788
            ]
        },
        {
            "positions": [
                -1.5778691177771331,
                -1.3683264323349817,
                1.9664146827367945,
                -0.5741792939353851,
                1.2963023954585657,
                -3.118304064082859
            ]
        },
        {
            "positions": [
                -1.6744013902491848,
                -1.417586787708964,
                1.9558359520455793,
                -0.5178200732696189,
                1.4603715495343021,
                -3.11714627696074
            ]
        }
    ]
}