{
    "goal": {
        "global_pose": {
            "orientation": {
                "w": -0.4816463035849501,
                "x": 0.5182115481033762,
                "y": 0.4908360881923453,
                "z": -0.5084816262002911
            },
            "position": {
                "x": -0.8240239810943604,
                "y": 0.19912469901144506,
                "z": 0.16403168439865112
            }
        },
        "name": "move_to_storage_D"
    },
    "id": "SPARStwo_move_to_storage_D_82",
    "joint_names": [
        "shoulder_pan_joint",
        "shoulder_lift_joint",
        "elbow_joint",
        "wrist_1_joint",
        "wrist_2_joint",
        "wrist_3_joint"
    ],
    "metrics": {
        "cart_traj_len": 0.8440226652616374,
        "distance_elbow_joint": 0.7254058430770505,
        "distance_shoulder_lift_joint": 0.1777344493382551,
        "distance_shoulder_pan_joint": 1.36604358876857,
        "distance_wrist_1_joint": 4.484400407597526,
        "distance_wrist_2_joint": 2.076080002818978,
        "distance_wrist_3_joint": 3.1576507182599154,
        "smoothness": 0.3806993405923581,
        "time": 5.01757838,
        "traj_len": 3.4622702104053484,
        "weighted_distance": 4.986290891714665
    },
    "planner": "SPARStwo",
    "start": {
        "state": {
            "elbow_joint": -2.384821988534728,
            "shoulder_lift_joint": -2.2788054721415256,
            "shoulder_pan_joint": -0.1854694642142757,
            "wrist_1_joint": 1.4845938289331202,
            "wrist_2_joint": 0.17898776772866878,
            "wrist_3_joint": 0.037105688729662994
        }
    },
    "waypoints": [
        {
            "positions": [
                -0.1854694642142757,
                -2.2788054721415256,
                -2.384821988534728,
                1.4845938289331202,
                0.17898776772866878,
                0.037105688729662994
            ]
        },
        {
            "positions": [
                -0.03369194900482353,
                -2.2456909943896353,
                -2.4015044467734357,
                1.5490329452991298,
                0.20919252793871898,
                0.10817771230179248
            ]
        },
        {
            "positions": [
                0.11808556620462865,
                -2.2125765166377445,
                -2.4181869050121434,
                1.6134720616651395,
                0.2393972881487692,
                0.17924973587392196
            ]
        },
        {
            "positions": [
                0.2698630814140808,
                -2.179462038885854,
                -2.4348693632508507,
                1.6779111780311493,
                0.2696020483588194,
                0.2503217594460514
            ]
        },
        {
            "positions": [
                0.42164059662353304,
                -2.1463475611339633,
                -2.4515518214895584,
                1.742350294397159,
                0.2998068085688696,
                0.3213937830181809
            ]
        },
        {
            "positions": [
                0.5734181118329852,
                -2.113233083382073,
                -2.468234279728266,
                1.8067894107631686,
                0.3300115687789198,
                0.3924658065903104
            ]
        },
        {
            "positions": [
                0.5500659574975502,
                -2.1137008549427962,
                -2.4435422200404386,
                1.6467046097721116,
                0.2559709456339687,
                0.5002462142979746
            ]
        },
        {
            "positions": [
                0.5267138031621152,
                -2.114168626503519,
                -2.418850160352611,
                1.4866198087810547,
                0.1819303224890177,
                0.6080266220056387
            ]
        },
        {
            "positions": [
                0.5033616488266802,
                -2.1146363980642424,
                -2.394158100664784,
                1.326535007789998,
                0.10788969934406661,
                0.7158070297133029
            ]
        },
        {
            "positions": [
                0.48000949449124525,
                -2.1151041696249657,
                -2.3694660409769566,
                1.166450206798941,
                0.03384907619911559,
                0.8235874374209671
            ]
        },
        {
            "positions": [
                0.4566573401558103,
                -2.1155719411856886,
                -2.344773981289129,
                1.0063654058078844,
                -0.04019154694583549,
                0.9313678451286312
            ]
        },
        {
            "positions": [
                0.4333051858203753,
                -2.116039712746412,
                -2.320081921601302,
                0.8462806048168273,
                -0.11423217009078657,
                1.0391482528362954
            ]
        },
        {
            "positions": [
                0.40995303148494033,
                -2.116507484307135,
                -2.2953898619134745,
                0.6861958038257705,
                -0.18827279323573753,
                1.1469286605439595
            ]
        },
        {
            "positions": [
                0.3866008771495053,
                -2.1169752558678585,
                -2.270697802225647,
                0.5261110028347136,
                -0.2623134163806886,
                1.2547090682516238
            ]
        },
        {
            "positions": [
                0.3632487228140704,
                -2.1174430274285814,
                -2.2460057425378195,
                0.36602620184365686,
                -0.3363540395256397,
                1.3624894759592878
            ]
        },
        {
            "positions": [
                0.33989656847863536,
                -2.1179107989893047,
                -2.221313682849992,
                0.20594140085259993,
                -0.41039466267059077,
                1.470269883666952
            ]
        },
        {
            "positions": [
                0.3165444141432004,
                -2.118378570550028,
                -2.196621623162165,
                0.045856599861543,
                -0.48443528581554174,
                1.5780502913746162
            ]
        },
        {
            "positions": [
                0.2931922598077654,
                -2.118846342110751,
                -2.1719295634743374,
                -0.11422820112951393,
                -0.5584759089604929,
                1.6858306990822804
            ]
        },
        {
            "positions": [
                0.26984010547233045,
                -2.119314113671474,
                -2.14723750378651,
                -0.27431300212057064,
                -0.6325165321054439,
                1.7936111067899445
            ]
        },
        {
            "positions": [
                0.24648795113689548,
                -2.1197818852321975,
                -2.122545444098683,
                -0.43439780311162757,
                -0.7065571552503949,
                1.9013915144976086
            ]
        },
        {
            "positions": [
                0.2231357968014605,
                -2.1202496567929203,
                -2.0978533844108553,
                -0.594482604102684,
                -0.7805977783953459,
                2.0091719222052724
            ]
        },
        {
            "positions": [
                0.19978364246602548,
                -2.1207174283536436,
                -2.073161324723028,
                -0.7545674050937414,
                -0.854638401540297,
                2.1169523299129374
            ]
        },
        {
            "positions": [
                0.1764314881305905,
                -2.121185199914367,
                -2.0484692650352003,
                -0.9146522060847979,
                -0.9286790246852481,
                2.2247327376206014
            ]
        },
        {
            "positions": [
                0.15307933379515554,
                -2.12165297147509,
                -2.023777205347373,
                -1.0747370070758548,
                -1.0027196478301992,
                2.3325131453282655
            ]
        },
        {
            "positions": [
                0.12972717945972062,
                -2.122120743035813,
                -1.9990851456595458,
                -1.2348218080669118,
                -1.07676027097515,
                2.4402935530359295
            ]
        },
        {
            "positions": [
                0.10637502512428554,
                -2.1225885145965364,
                -1.9743930859717183,
                -1.3949066090579687,
                -1.1508008941201013,
                2.5480739607435936
            ]
        },
        {
            "positions": [
                0.08302287078885062,
                -2.1230562861572597,
                -1.9497010262838907,
                -1.5549914100490256,
                -1.2248415172650524,
                2.6558543684512577
            ]
        },
        {
            "positions": [
                0.059670716453415595,
                -2.1235240577179826,
                -1.9250089665960635,
                -1.7150762110400826,
                -1.2988821404100033,
                2.7636347761589217
            ]
        },
        {
            "positions": [
                0.03631856211798068,
                -2.123991829278706,
                -1.9003169069082362,
                -1.875161012031139,
                -1.3729227635549544,
                2.871415183866586
            ]
        },
        {
            "positions": [
                0.012966407782545653,
                -2.124459600839429,
                -1.8756248472204087,
                -2.0352458130221964,
                -1.4469633866999057,
                2.9791955915742507
            ]
        },
        {
            "positions": [
                -0.010385746552889374,
                -2.124927372400152,
                -1.8509327875325812,
                -2.195330614013253,
                -1.5210040098448565,
                3.086975999281915
            ]
        },
        {
            "positions": [
                -0.033737900888324325,
                -2.1253951439608754,
                -1.8262407278447539,
                -2.3554154150043094,
                -1.5950446329898076,
                3.1947564069895784
            ]
        }
    ]
}