{
    "goal": {
        "global_pose": {
            "orientation": {
                "w": -0.00223480608172531,
                "x": 0.0024358444001904467,
                "y": 0.7094548369677653,
                "z": -0.704743149386269
            },
            "position": {
                "x": -0.37947507619857795,
                "y": -0.6371506643295288,
                "z": 0.19426114857196808
            }
        },
        "name": "move_to_magneteinheit_C"
    },
    "id": "SPARS_move_to_magneteinheit_C_133",
    "joint_names": [
        "shoulder_pan_joint",
        "shoulder_lift_joint",
        "elbow_joint",
        "wrist_1_joint",
        "wrist_2_joint",
        "wrist_3_joint"
    ],
    "metrics": {
        "cart_traj_len": 1.2504071591277823,
        "distance_elbow_joint": 0.44737655240191465,
        "distance_shoulder_lift_joint": 0.5751272970625043,
        "distance_shoulder_pan_joint": 1.516599016120747,
        "distance_wrist_1_joint": 1.2852803980071688,
        "distance_wrist_2_joint": 0.8054645380079053,
        "distance_wrist_3_joint": 0.3722735803754542,
        "smoothness": 1.6905796907985176,
        "time": 5.058055115,
        "traj_len": 2.236542282626397,
        "weighted_distance": 2.799538083102582
    },
    "planner": "SPARS",
    "start": {
        "state": {
            "elbow_joint": 1.9565354010623817,
            "shoulder_lift_joint": -1.4165861575791021,
            "shoulder_pan_joint": -1.6717766225146293,
            "wrist_1_joint": -0.5286633292919765,
            "wrist_2_joint": 1.472756589071564,
            "wrist_3_joint": -3.1238370188695823
        }
    },
    "waypoints": [
        {
            "positions": [
                -1.6717766225146293,
                -1.4165861575791021,
                1.9565354010623817,
                -0.5286633292919765,
                1.472756589071564,
                -3.1238370188695823
            ]
        },
        {
            "positions": [
                -1.626226628931586,
                -1.4569769426443193,
                2.019522688343173,
                -0.4656566921592554,
                1.4269094677564507,
                -3.1647871428090135
            ]
        },
        {
            "positions": [
                -1.5806766353485426,
                -1.4973677277095363,
                2.0825099756239642,
                -0.40265005502653445,
                1.3810623464413376,
                -3.2057372667484447
            ]
        },
        {
            "positions": [
                -1.5351266417654994,
                -1.5377585127747535,
                2.1454972629047555,
                -0.33964341789381347,
                1.3352152251262246,
                -3.2466873906878755
            ]
        },
        {
            "positions": [
                -1.4895766481824562,
                -1.5781492978399707,
                2.208484550185547,
                -0.27663678076109244,
                1.2893681038111113,
                -3.2876375146273067
            ]
        },
        {
            "positions": [
                -1.6552098959330532,
                -1.5776331738430733,
                2.1974681809738574,
                -0.39159292081349806,
                1.213650471283253,
                -3.262261474577523
            ]
        },
        {
            "positions": [
                -1.8208431436836505,
                -1.5771170498461762,
                2.1864518117621685,
                -0.5065490608659037,
                1.1379328387553946,
                -3.236885434527739
            ]
        },
        {
            "positions": [
                -1.9864763914342478,
                -1.5766009258492788,
                2.175435442550479,
                -0.6215052009183093,
                1.0622152062275365,
                -3.2115093944779556
            ]
        },
        {
            "positions": [
                -2.152109639184845,
                -1.5760848018523814,
                2.1644190733387902,
                -0.7364613409707149,
                0.9864975736996782,
                -3.1861333544281716
            ]
        },
        {
            "positions": [
                -2.3177428869354424,
                -1.575568677855484,
                2.153402704127101,
                -0.8514174810231205,
                0.9107799411718198,
                -3.160757314378388
            ]
        },
        {
            "positions": [
                -2.483376134686039,
                -1.575052553858587,
                2.142386334915412,
                -0.9663736210755262,
                0.8350623086439615,
                -3.135381274328604
            ]
        },
        {
            "positions": [
                -2.6490093824366365,
                -1.5745364298616895,
                2.1313699657037226,
                -1.0813297611279318,
                0.7593446761161031,
                -3.1100052342788205
            ]
        },
        {
            "positions": [
                -2.6165696879280262,
                -1.4875431899648788,
                2.1156735708225094,
                -1.027276941004412,
                0.7422011830651399,
                -3.1207439886899704
            ]
        },
        {
            "positions": [
                -2.584129993419416,
                -1.400549950068068,
                2.099977175941296,
                -0.9732241208808923,
                0.7250576900141767,
                -3.1314827431011203
            ]
        },
        {
            "positions": [
                -2.5290865341608297,
                -1.2825675455532015,
                2.056517161424047,
                -0.9129965064496894,
                0.6961748705389177,
                -3.136164390824592
            ]
        },
        {
            "positions": [
                -2.474043074902243,
                -1.164585141038335,
                2.0130571469067973,
                -0.8527688920184865,
                0.6672920510636586,
                -3.140846038548064
            ]
        }
    ]
}