{
    "goal": {
        "global_pose": {
            "orientation": {
                "w": 0.7031023480610252,
                "x": -0.7110244013736278,
                "y": 0.0077485991402295624,
                "z": 0.005598929693374583
            },
            "position": {
                "x": -0.8841497679147869,
                "y": 0.44412534475326537,
                "z": 0.3711530566215515
            }
        },
        "name": "move_to_auspresseinheit_D"
    },
    "id": "SPARS_move_to_auspresseinheit_D_2",
    "joint_names": [
        "shoulder_pan_joint",
        "shoulder_lift_joint",
        "elbow_joint",
        "wrist_1_joint",
        "wrist_2_joint",
        "wrist_3_joint"
    ],
    "metrics": {
        "cart_traj_len": 0.3424472870681947,
        "distance_elbow_joint": 0.6373729923165417,
        "distance_shoulder_lift_joint": 0.12164461846337993,
        "distance_shoulder_pan_joint": 0.1333305165211848,
        "distance_wrist_1_joint": 0.5217763149876742,
        "distance_wrist_2_joint": 1.4432684411900878,
        "distance_wrist_3_joint": 0.00342570708487111,
        "smoothness": 3.9474596431116675e-16,
        "time": 5.014944018,
        "traj_len": 1.6913954565871754,
        "weighted_distance": 2.1983436403145085
    },
    "planner": "SPARS",
    "start": {
        "state": {
            "elbow_joint": -1.8275523626775212,
            "shoulder_lift_joint": -2.126789852344167,
            "shoulder_pan_joint": -0.03513704404078235,
            "wrist_1_joint": -2.347782403156801,
            "wrist_2_joint": -1.6058999987535132,
            "wrist_3_joint": -3.0880379163319196
        }
    },
    "waypoints": [
        {
            "positions": [
                -0.03513704404078235,
                -2.126789852344167,
                -1.8275523626775212,
                -2.347782403156801,
                -1.6058999987535132,
                -3.0880379163319196
            ]
        },
        {
            "positions": [
                -0.05180335860593045,
                -2.1419954296520896,
                -1.7478807386379536,
                -2.4130044425302604,
                -1.425491443604752,
                -3.0884661297175287
            ]
        },
        {
            "positions": [
                -0.06846967317107855,
                -2.157201006960012,
                -1.6682091145983857,
                -2.4782264819037194,
                -1.2450828884559912,
                -3.0888943431031373
            ]
        },
        {
            "positions": [
                -0.08513598773622666,
                -2.172406584267934,
                -1.588537490558818,
                -2.5434485212771785,
                -1.0646743333072304,
                -3.0893225564887463
            ]
        },
        {
            "positions": [
                -0.10180230230137474,
                -2.187612161575857,
                -1.5088658665192503,
                -2.608670560650638,
                -0.8842657781584693,
                -3.089750769874355
            ]
        },
        {
            "positions": [
                -0.11846861686652285,
                -2.2028177388837795,
                -1.4291942424796826,
                -2.6738926000240975,
                -0.7038572230097083,
                -3.090178983259964
            ]
        },
        {
            "positions": [
                -0.13513493143167096,
                -2.218023316191702,
                -1.349522618440115,
                -2.7391146393975565,
                -0.5234486678609473,
                -3.090607196645573
            ]
        },
        {
            "positions": [
                -0.15180124599681905,
                -2.233228893499624,
                -1.2698509944005472,
                -2.8043366787710156,
                -0.3430401127121865,
                -3.0910354100311817
            ]
        },
        {
            "positions": [
                -0.16846756056196716,
                -2.2484344708075468,
                -1.1901793703609795,
                -2.869558718144475,
                -0.16263155756342534,
                -3.0914636234167907
            ]
        }
    ]
}