{
    "goal": {
        "global_pose": {
            "orientation": {
                "w": 0.7047431468963623,
                "x": -0.7094548344612122,
                "y": 0.0024358443915843964,
                "z": -0.0022348060738295317
            },
            "position": {
                "x": 0.6094750761985779,
                "y": 0.3671506643295288,
                "z": 0.19426114857196808
            }
        },
        "name": "move_to_magneteinheit_A"
    },
    "id": "SPARS_move_to_magneteinheit_A_94",
    "joint_names": [
        "shoulder_pan_joint",
        "shoulder_lift_joint",
        "elbow_joint",
        "wrist_1_joint",
        "wrist_2_joint",
        "wrist_3_joint"
    ],
    "metrics": {
        "cart_traj_len": 3.1110974876711164,
        "distance_elbow_joint": 3.877188471797268,
        "distance_shoulder_lift_joint": 0.6967107803647501,
        "distance_shoulder_pan_joint": 2.8910680099113533,
        "distance_wrist_1_joint": 0.8204485634332966,
        "distance_wrist_2_joint": 1.6918141140291367,
        "distance_wrist_3_joint": 6.398095645468683,
        "smoothness": 0.1998654021324745,
        "time": 5.0479707330000005,
        "traj_len": 4.046643743277197,
        "weighted_distance": 5.6288346532301246
    },
    "planner": "SPARS",
    "start": {
        "state": {
            "elbow_joint": -1.9196185241190666,
            "shoulder_lift_joint": -1.2443396400964142,
            "shoulder_pan_joint": 2.6996025414629847,
            "wrist_1_joint": -1.5485510000780065,
            "wrist_2_joint": -1.5709468930060704,
            "wrist_3_joint": 0.4420197071253992
        }
    },
    "waypoints": [
        {
            "positions": [
                2.6996025414629847,
                -1.2443396400964142,
                -1.9196185241190666,
                -1.5485510000780065,
                -1.5709468930060704,
                0.4420197071253992
            ]
        },
        {
            "positions": [
                2.5927502851053204,
                -1.2589032147810983,
                -1.7661894574429784,
                -1.512989905273538,
                -1.55376941702072,
                0.5101714526875961
            ]
        },
        {
            "positions": [
                2.4858980287476564,
                -1.2734667894657825,
                -1.6127603907668904,
                -1.4774288104690696,
                -1.5365919410353694,
                0.5783231982497932
            ]
        },
        {
            "positions": [
                2.379045772389992,
                -1.2880303641504667,
                -1.4593313240908024,
                -1.4418677156646014,
                -1.519414465050019,
                0.6464749438119901
            ]
        },
        {
            "positions": [
                2.272193516032328,
                -1.3025939388351508,
                -1.305902257414714,
                -1.406306620860133,
                -1.5022369890646687,
                0.714626689374187
            ]
        },
        {
            "positions": [
                2.1653412596746637,
                -1.317157513519835,
                -1.1524731907386259,
                -1.3707455260556645,
                -1.4850595130793183,
                0.782778434936384
            ]
        },
        {
            "positions": [
                2.058489003317,
                -1.3317210882045192,
                -0.9990441240625378,
                -1.335184431251196,
                -1.4678820370939678,
                0.8509301804985809
            ]
        },
        {
            "positions": [
                1.9516367469593354,
                -1.3462846628892033,
                -0.8456150573864498,
                -1.2996233364467278,
                -1.4507045611086173,
                0.9190819260607779
            ]
        },
        {
            "positions": [
                1.8447844906016713,
                -1.3608482375738875,
                -0.6921859907103616,
                -1.2640622416422593,
                -1.4335270851232669,
                0.9872336716229749
            ]
        },
        {
            "positions": [
                1.7379322342440071,
                -1.3754118122585717,
                -0.5387569240342733,
                -1.2285011468377909,
                -1.4163496091379164,
                1.055385417185172
            ]
        },
        {
            "positions": [
                1.631079977886343,
                -1.3899753869432558,
                -0.3853278573581853,
                -1.1929400520333224,
                -1.399172133152566,
                1.1235371627473687
            ]
        },
        {
            "positions": [
                1.5242277215286786,
                -1.40453896162794,
                -0.23189879068209707,
                -1.157378957228854,
                -1.3819946571672157,
                1.1916889083095659
            ]
        },
        {
            "positions": [
                1.4173754651710146,
                -1.4191025363126242,
                -0.07846972400600905,
                -1.1218178624243857,
                -1.3648171811818652,
                1.2598406538717626
            ]
        },
        {
            "positions": [
                1.3105232088133503,
                -1.4336661109973083,
                0.0749593426700792,
                -1.0862567676199173,
                -1.3476397051965148,
                1.3279923994339597
            ]
        },
        {
            "positions": [
                1.2036709524556863,
                -1.4482296856819925,
                0.228388409346167,
                -1.0506956728154488,
                -1.3304622292111643,
                1.3961441449961565
            ]
        },
        {
            "positions": [
                1.0968186960980222,
                -1.4627932603666767,
                0.38181747602225524,
                -1.0151345780109806,
                -1.3132847532258138,
                1.4642958905583536
            ]
        },
        {
            "positions": [
                0.9899664397403578,
                -1.4773568350513608,
                0.5352465426983435,
                -0.979573483206512,
                -1.2961072772404634,
                1.5324476361205508
            ]
        },
        {
            "positions": [
                0.8831141833826939,
                -1.491920409736045,
                0.6886756093744317,
                -0.9440123884020437,
                -1.2789298012551131,
                1.6005993816827475
            ]
        },
        {
            "positions": [
                0.7762619270250295,
                -1.5064839844207292,
                0.84210467605052,
                -0.9084512935975753,
                -1.2617523252697627,
                1.6687511272449447
            ]
        },
        {
            "positions": [
                0.6694096706673656,
                -1.5210475591054133,
                0.9955337427266078,
                -0.8728901987931069,
                -1.2445748492844122,
                1.7369028728071414
            ]
        },
        {
            "positions": [
                0.5625574143097013,
                -1.5356111337900975,
                1.148962809402696,
                -0.8373291039886385,
                -1.2273973732990617,
                1.8050546183693383
            ]
        },
        {
            "positions": [
                0.4910347757197088,
                -1.513099432008127,
                1.2092338727384833,
                -0.8237978684579117,
                -1.1838000093273637,
                1.6984946625763482
            ]
        },
        {
            "positions": [
                0.41951213712971636,
                -1.4905877302261565,
                1.2695049360742705,
                -0.8102666329271849,
                -1.140202645355666,
                1.591934706783358
            ]
        },
        {
            "positions": [
                0.34798949853972383,
                -1.4680760284441858,
                1.329775999410058,
                -0.7967353973964582,
                -1.096605281383968,
                1.485374750990368
            ]
        },
        {
            "positions": [
                0.27646685994973136,
                -1.4455643266622153,
                1.3900470627458452,
                -0.7832041618657314,
                -1.0530079174122702,
                1.378814795197378
            ]
        },
        {
            "positions": [
                0.2049442213597389,
                -1.4230526248802449,
                1.4503181260816325,
                -0.7696729263350046,
                -1.0094105534405722,
                1.2722548394043878
            ]
        },
        {
            "positions": [
                0.14506991173808417,
                -1.3958506822059265,
                1.499027524951573,
                -0.7597059642137083,
                -0.9550525047507967,
                1.1070543141823996
            ]
        },
        {
            "positions": [
                0.08519560211642947,
                -1.3686487395316083,
                1.5477369238215135,
                -0.749739002092412,
                -0.9006944560610213,
                0.9418537889604115
            ]
        },
        {
            "positions": [
                0.025321292494774772,
                -1.3414467968572898,
                1.5964463226914538,
                -0.7397720399711155,
                -0.8463364073712459,
                0.7766532637384232
            ]
        },
        {
            "positions": [
                -0.03455301712687994,
                -1.3142448541829714,
                1.6451557215613943,
                -0.7298050778498192,
                -0.7919783586814705,
                0.6114527385164351
            ]
        },
        {
            "positions": [
                -0.02334498488963087,
                -1.3010967822498327,
                1.6674710234268806,
                -0.7296834606208829,
                -0.7267751029882893,
                0.337062820347018
            ]
        },
        {
            "positions": [
                -0.0121369526523818,
                -1.2879487103166942,
                1.6897863252923668,
                -0.7295618433919464,
                -0.6615718472951081,
                0.06267290217760091
            ]
        },
        {
            "positions": [
                -0.0009289204151327266,
                -1.2748006383835555,
                1.7121016271578529,
                -0.7294402261630101,
                -0.5963685916019269,
                -0.21171701599181625
            ]
        },
        {
            "positions": [
                0.01027911182211634,
                -1.261652566450417,
                1.734416929023339,
                -0.7293186089340736,
                -0.5311653359087457,
                -0.4861069341612333
            ]
        },
        {
            "positions": [
                0.021487144059365422,
                -1.2485044945172783,
                1.7567322308888254,
                -0.7291969917051373,
                -0.46596208021556446,
                -0.7604968523306505
            ]
        },
        {
            "positions": [
                0.03269517629661449,
                -1.2353564225841398,
                1.7790475327543116,
                -0.7290753744762009,
                -0.4007588245223833,
                -1.0348867705000675
            ]
        },
        {
            "positions": [
                0.043903208533863564,
                -1.222208350651001,
                1.8013628346197978,
                -0.7289537572472645,
                -0.33555556882920207,
                -1.3092766886694847
            ]
        },
        {
            "positions": [
                0.055111240771112624,
                -1.2090602787178624,
                1.8236781364852839,
                -0.7288321400183282,
                -0.2703523131360209,
                -1.5836666068389018
            ]
        },
        {
            "positions": [
                0.06631927300836171,
                -1.1959122067847239,
                1.8459934383507701,
                -0.7287105227893917,
                -0.20514905744283962,
                -1.8580565250083194
            ]
        },
        {
            "positions": [
                0.07752730524561079,
                -1.1827641348515852,
                1.8683087402162564,
                -0.7285889055604554,
                -0.13994580174965843,
                -2.132446443177736
            ]
        },
        {
            "positions": [
                0.08873533748285985,
                -1.1696160629184467,
                1.8906240420817426,
                -0.728467288331519,
                -0.07474254605647723,
                -2.4068363613471533
            ]
        },
        {
            "positions": [
                0.09994336972010892,
                -1.156467990985308,
                1.9129393439472286,
                -0.7283456711025826,
                -0.009539290363296149,
                -2.6812262795165704
            ]
        },
        {
            "positions": [
                0.11115140195735801,
                -1.1433199190521695,
                1.935254645812715,
                -0.7282240538736462,
                0.05566396532988516,
                -2.9556161976859876
            ]
        },
        {
            "positions": [
                0.12235943419460707,
                -1.1301718471190307,
                1.9575699476782011,
                -0.7281024366447099,
                0.12086722102306635,
                -3.2300061158554048
            ]
        }
    ]
}