{
    "goal": {
        "global_pose": {
            "orientation": {
                "w": 0.7031023480610252,
                "x": -0.7110244013736278,
                "y": 0.0077485991402295624,
                "z": 0.005598929693374583
            },
            "position": {
                "x": -0.8841497679147869,
                "y": 0.44412534475326537,
                "z": 0.3711530566215515
            }
        },
        "name": "move_to_auspresseinheit_D"
    },
    "id": "SPARS_move_to_auspresseinheit_D_106",
    "joint_names": [
        "shoulder_pan_joint",
        "shoulder_lift_joint",
        "elbow_joint",
        "wrist_1_joint",
        "wrist_2_joint",
        "wrist_3_joint"
    ],
    "metrics": {
        "cart_traj_len": 0.3453190412555959,
        "distance_elbow_joint": 0.6748218152934278,
        "distance_shoulder_lift_joint": 0.14114539129928705,
        "distance_shoulder_pan_joint": 0.13350533113649554,
        "distance_wrist_1_joint": 0.6431112413123738,
        "distance_wrist_2_joint": 1.442930463990418,
        "distance_wrist_3_joint": 0.09577532766928254,
        "smoothness": 0.0,
        "time": 5.042673251999999,
        "traj_len": 1.769545017992276,
        "weighted_distance": 2.3257003098728437
    },
    "planner": "SPARS",
    "start": {
        "state": {
            "elbow_joint": -1.8275523626775212,
            "shoulder_lift_joint": -2.126789852344167,
            "shoulder_pan_joint": -0.03513704404078235,
            "wrist_1_joint": -2.347782403156801,
            "wrist_2_joint": -1.6058999987535132,
            "wrist_3_joint": -3.0880379163319196
        }
    },
    "waypoints": [
        {
            "positions": [
                -0.03513704404078235,
                -2.126789852344167,
                -1.8275523626775212,
                -2.347782403156801,
                -1.6058999987535132,
                -3.0880379163319196
            ]
        },
        {
            "positions": [
                -0.05182521043284429,
                -2.1444330262565776,
                -1.7431996357658428,
                -2.428171308320848,
                -1.425533690754711,
                -3.076066000373259
            ]
        },
        {
            "positions": [
                -0.06851337682490624,
                -2.162076200168989,
                -1.6588469088541642,
                -2.5085602134848943,
                -1.2451673827559087,
                -3.0640940844145987
            ]
        },
        {
            "positions": [
                -0.08520154321696818,
                -2.1797193740813996,
                -1.5744941819424858,
                -2.588949118648941,
                -1.0648010747571064,
                -3.0521221684559388
            ]
        },
        {
            "positions": [
                -0.10188970960903013,
                -2.1973625479938104,
                -1.4901414550308072,
                -2.669338023812988,
                -0.8844347667583042,
                -3.0401502524972783
            ]
        },
        {
            "positions": [
                -0.11857787600109207,
                -2.215005721906221,
                -1.4057887281191288,
                -2.7497269289770347,
                -0.704068458759502,
                -3.028178336538618
            ]
        },
        {
            "positions": [
                -0.135266042393154,
                -2.232648895818632,
                -1.3214360012074504,
                -2.8301158341410813,
                -0.5237021507606998,
                -3.016206420579958
            ]
        },
        {
            "positions": [
                -0.15195420878521596,
                -2.250292069731043,
                -1.237083274295772,
                -2.9105047393051278,
                -0.34333584276189755,
                -3.0042345046212975
            ]
        },
        {
            "positions": [
                -0.1686423751772779,
                -2.267935243643454,
                -1.1527305473840934,
                -2.9908936444691747,
                -0.16296953476309525,
                -2.992262588662637
            ]
        }
    ]
}