{
    "goal": {
        "global_pose": {
            "orientation": {
                "w": -0.00223480608172531,
                "x": 0.0024358444001904467,
                "y": 0.7094548369677653,
                "z": -0.704743149386269
            },
            "position": {
                "x": 0.6205249238014221,
                "y": -0.6371506643295288,
                "z": 0.19426114857196808
            }
        },
        "name": "move_to_magneteinheit_B"
    },
    "id": "SPARS_move_to_magneteinheit_B_108",
    "joint_names": [
        "shoulder_pan_joint",
        "shoulder_lift_joint",
        "elbow_joint",
        "wrist_1_joint",
        "wrist_2_joint",
        "wrist_3_joint"
    ],
    "metrics": {
        "cart_traj_len": 2.785566929797253,
        "distance_elbow_joint": 1.5481911614077544,
        "distance_shoulder_lift_joint": 1.6734763818544929,
        "distance_shoulder_pan_joint": 2.4526449226827753,
        "distance_wrist_1_joint": 0.7766362418427688,
        "distance_wrist_2_joint": 3.0461518411219797,
        "distance_wrist_3_joint": 1.3776818527110544,
        "smoothness": 0.8579800875812429,
        "time": 5.08275475,
        "traj_len": 3.2976934972220855,
        "weighted_distance": 4.17767090494305
    },
    "planner": "SPARS",
    "start": {
        "state": {
            "elbow_joint": 2.6216224122426386,
            "shoulder_lift_joint": -1.4174107377796124,
            "shoulder_pan_joint": 0.7066234856936794,
            "wrist_1_joint": 1.9546482284002225,
            "wrist_2_joint": -0.7096286983471962,
            "wrist_3_joint": 0.005740856962016249
        }
    },
    "waypoints": [
        {
            "positions": [
                0.7066234856936794,
                -1.4174107377796124,
                2.6216224122426386,
                1.9546482284002225,
                -0.7096286983471962,
                0.005740856962016249
            ]
        },
        {
            "positions": [
                0.8104376534876104,
                -1.4735980377170075,
                2.6878993960581345,
                1.8993503682735833,
                -0.6388449855202599,
                0.009241421919929582
            ]
        },
        {
            "positions": [
                0.9142518212815416,
                -1.5297853376544026,
                2.7541763798736305,
                1.844052508146944,
                -0.5680612726933236,
                0.012741986877842913
            ]
        },
        {
            "positions": [
                1.0180659890754726,
                -1.5859726375917977,
                2.8204533636891265,
                1.788754648020305,
                -0.4972775598663872,
                0.016242551835756246
            ]
        },
        {
            "positions": [
                1.1218801568694037,
                -1.6421599375291929,
                2.8867303475046224,
                1.7334567878936658,
                -0.4264938470394509,
                0.01974311679366958
            ]
        },
        {
            "positions": [
                1.1013344907378957,
                -1.6713544393240158,
                2.758637617587868,
                1.7933195852650168,
                -0.3661065368906896,
                -0.06641732333490745
            ]
        },
        {
            "positions": [
                1.0807888246063875,
                -1.700548941118839,
                2.630544887671114,
                1.8531823826363676,
                -0.30571922674192836,
                -0.15257776346348448
            ]
        },
        {
            "positions": [
                1.0602431584748795,
                -1.729743442913662,
                2.50245215775436,
                1.9130451800077184,
                -0.24533191659316705,
                -0.2387382035920615
            ]
        },
        {
            "positions": [
                1.0396974923433713,
                -1.7589379447084852,
                2.374359427837606,
                1.9729079773790694,
                -0.18494460644440577,
                -0.32489864372063854
            ]
        },
        {
            "positions": [
                1.0191518262118633,
                -1.7881324465033082,
                2.2462666979208517,
                2.0327707747504205,
                -0.12455729629564449,
                -0.4110590838492156
            ]
        },
        {
            "positions": [
                0.9986061600803553,
                -1.8173269482981311,
                2.118173968004098,
                2.0926335721217715,
                -0.06416998614688318,
                -0.49721952397779257
            ]
        },
        {
            "positions": [
                0.9780604939488472,
                -1.8465214500929543,
                1.9900812380873436,
                2.152496369493122,
                -0.0037826759981219316,
                -0.5833799641063696
            ]
        },
        {
            "positions": [
                0.9575148278173391,
                -1.8757159518877773,
                1.8619885081705894,
                2.212359166864473,
                0.05660463415063938,
                -0.6695404042349467
            ]
        },
        {
            "positions": [
                0.8430544360916014,
                -1.8084827341546574,
                1.8642033819312709,
                2.2109563381628163,
                -0.10272546737619709,
                -0.6270237649968232
            ]
        },
        {
            "positions": [
                0.7285940443658636,
                -1.7412495164215374,
                1.8664182556919524,
                2.209553509461159,
                -0.26205556890303355,
                -0.5845071257586998
            ]
        },
        {
            "positions": [
                0.614133652640126,
                -1.6740162986884175,
                1.868633129452634,
                2.208150680759502,
                -0.42138567042987,
                -0.5419904865205762
            ]
        },
        {
            "positions": [
                0.49967326091438824,
                -1.6067830809552974,
                1.8708480032133157,
                2.206747852057845,
                -0.5807157719567064,
                -0.4994738472824528
            ]
        },
        {
            "positions": [
                0.3852128691886505,
                -1.5395498632221776,
                1.8730628769739972,
                2.2053450233561884,
                -0.7400458734835429,
                -0.4569572080443293
            ]
        },
        {
            "positions": [
                0.27075247746291276,
                -1.4723166454890575,
                1.8752777507346787,
                2.2039421946545312,
                -0.8993759750103794,
                -0.4144405688062059
            ]
        },
        {
            "positions": [
                0.156292085737175,
                -1.4050834277559376,
                1.8774926244953603,
                2.202539365952874,
                -1.0587060765372158,
                -0.3719239295680824
            ]
        },
        {
            "positions": [
                0.04183169401143738,
                -1.3378502100228178,
                1.8797074982560418,
                2.2011365372512173,
                -1.2180361780640523,
                -0.32940729032995897
            ]
        },
        {
            "positions": [
                -0.07262869771430047,
                -1.2706169922896977,
                1.8819223720167233,
                2.19973370854956,
                -1.3773662795908888,
                -0.2868906510918354
            ]
        },
        {
            "positions": [
                -0.1870890894400381,
                -1.2033837745565776,
                1.8841372457774048,
                2.1983308798479033,
                -1.5366963811177252,
                -0.244374011853712
            ]
        },
        {
            "positions": [
                -0.30154948116577596,
                -1.1361505568234578,
                1.8863521195380866,
                2.196928051146246,
                -1.6960264826445617,
                -0.20185737261558856
            ]
        },
        {
            "positions": [
                -0.4160098728915136,
                -1.068917339090338,
                1.888566993298768,
                2.1955252224445894,
                -1.8553565841713981,
                -0.15934073337746513
            ]
        },
        {
            "positions": [
                -0.5304702646172514,
                -1.001684121357218,
                1.8907818670594496,
                2.1941223937429326,
                -2.014686685698235,
                -0.11682409413934158
            ]
        },
        {
            "positions": [
                -0.6449306563429891,
                -0.934450903624098,
                1.8929967408201311,
                2.1927195650412754,
                -2.1740167872250713,
                -0.0743074549012181
            ]
        },
        {
            "positions": [
                -0.7351231357745417,
                -0.8431488637965484,
                1.8172190227660658,
                2.173751958193873,
                -2.1904491496412155,
                -0.047919747395532605
            ]
        },
        {
            "positions": [
                -0.8253156152060943,
                -0.7518468239689988,
                1.7414413047120008,
                2.154784351346471,
                -2.20688151205736,
                -0.02153203988984711
            ]
        },
        {
            "positions": [
                -0.915508094637647,
                -0.6605447841414492,
                1.6656635866579355,
                2.1358167444990683,
                -2.2233138744735044,
                0.004855667615838387
            ]
        }
    ]
}