{
    "goal": {
        "global_pose": {
            "orientation": {
                "w": -0.4816463035849501,
                "x": 0.5182115481033762,
                "y": 0.4908360881923453,
                "z": -0.5084816262002911
            },
            "position": {
                "x": -0.8240239810943604,
                "y": 0.19912469901144506,
                "z": 0.16403168439865112
            }
        },
        "name": "move_to_storage_D"
    },
    "id": "SPARS_move_to_storage_D_143",
    "joint_names": [
        "shoulder_pan_joint",
        "shoulder_lift_joint",
        "elbow_joint",
        "wrist_1_joint",
        "wrist_2_joint",
        "wrist_3_joint"
    ],
    "metrics": {
        "cart_traj_len": 4.15819940065047,
        "distance_elbow_joint": 4.269612155408456,
        "distance_shoulder_lift_joint": 1.2651088893774454,
        "distance_shoulder_pan_joint": 2.814530381120969,
        "distance_wrist_1_joint": 2.820652816422661,
        "distance_wrist_2_joint": 1.5471828409079815,
        "distance_wrist_3_joint": 3.147115745674958,
        "smoothness": 0.10814342425848474,
        "time": 5.080539965000001,
        "traj_len": 3.982989182625591,
        "weighted_distance": 5.150366004236304
    },
    "planner": "SPARS",
    "start": {
        "state": {
            "elbow_joint": -2.384821988534728,
            "shoulder_lift_joint": -2.2788054721415256,
            "shoulder_pan_joint": -0.1854694642142757,
            "wrist_1_joint": 1.4845938289331202,
            "wrist_2_joint": 0.17898776772866878,
            "wrist_3_joint": 0.037105688729662994
        }
    },
    "waypoints": [
        {
            "positions": [
                -0.1854694642142757,
                -2.2788054721415256,
                -2.384821988534728,
                1.4845938289331202,
                0.17898776772866878,
                0.037105688729662994
            ]
        },
        {
            "positions": [
                0.022553753128978227,
                -2.230646954746339,
                -2.3873759290261884,
                1.507832424926734,
                0.15112465259740185,
                -0.04053706819619879
            ]
        },
        {
            "positions": [
                0.23057697047223216,
                -2.1824884373511524,
                -2.3899298695176485,
                1.531071020920348,
                0.1232615374661349,
                -0.11817982512206057
            ]
        },
        {
            "positions": [
                0.43860018781548615,
                -2.1343299199559658,
                -2.392483810009109,
                1.5543096169139619,
                0.09539842233486795,
                -0.19582258204792238
            ]
        },
        {
            "positions": [
                0.6466234051587401,
                -2.0861714025607787,
                -2.395037750500569,
                1.5775482129075757,
                0.06753530720360101,
                -0.2734653389737841
            ]
        },
        {
            "positions": [
                0.8546466225019941,
                -2.038012885165592,
                -2.3975916909920296,
                1.6007868089011896,
                0.03967219207233405,
                -0.351108095899646
            ]
        },
        {
            "positions": [
                1.0626698398452479,
                -1.9898543677704055,
                -2.4001456314834897,
                1.6240254048948035,
                0.011809076941067115,
                -0.42875085282550773
            ]
        },
        {
            "positions": [
                1.270693057188502,
                -1.9416958503752189,
                -2.40269957197495,
                1.6472640008884174,
                -0.01605403819019985,
                -0.5063936097513696
            ]
        },
        {
            "positions": [
                1.4787162745317557,
                -1.8935373329800322,
                -2.4052535124664107,
                1.6705025968820313,
                -0.043917153321466756,
                -0.5840363666772312
            ]
        },
        {
            "positions": [
                1.6867394918750098,
                -1.8453788155848454,
                -2.407807452957871,
                1.6937411928756452,
                -0.07178026845273375,
                -0.6616791236030931
            ]
        },
        {
            "positions": [
                1.8947627092182637,
                -1.7972202981896586,
                -2.4103613934493313,
                1.716979788869259,
                -0.09964338358400068,
                -0.739321880528955
            ]
        },
        {
            "positions": [
                2.1027859265615176,
                -1.749061780794472,
                -2.4129153339407914,
                1.740218384862873,
                -0.12750649871526762,
                -0.8169646374548166
            ]
        },
        {
            "positions": [
                2.3108091439047715,
                -1.7009032633992853,
                -2.415469274432252,
                1.7634569808564868,
                -0.15536961384653458,
                -0.8946073943806785
            ]
        },
        {
            "positions": [
                2.3217833429738035,
                -1.6772064813084162,
                -2.269298072035323,
                1.675809061390994,
                -0.11354804628333531,
                -0.9710005896415274
            ]
        },
        {
            "positions": [
                2.332757542042835,
                -1.653509699217547,
                -2.1231268696383943,
                1.588161141925501,
                -0.07172647872013606,
                -1.0473937849023762
            ]
        },
        {
            "positions": [
                2.343731741111867,
                -1.629812917126678,
                -1.9769556672414659,
                1.5005132224600082,
                -0.029904911156936803,
                -1.123786980163225
            ]
        },
        {
            "positions": [
                2.3547059401808985,
                -1.6061161350358089,
                -1.830784464844537,
                1.4128653029945153,
                0.011916656406262466,
                -1.200180175424074
            ]
        },
        {
            "positions": [
                2.3656801392499305,
                -1.5824193529449395,
                -1.6846132624476082,
                1.3252173835290222,
                0.053738223969461735,
                -1.2765733706849227
            ]
        },
        {
            "positions": [
                2.3766543383189624,
                -1.5587225708540704,
                -1.5384420600506796,
                1.2375694640635295,
                0.09555979153266098,
                -1.3529665659457715
            ]
        },
        {
            "positions": [
                2.387628537387994,
                -1.5350257887632013,
                -1.3922708576537508,
                1.1499215445980364,
                0.13738135909586024,
                -1.4293597612066204
            ]
        },
        {
            "positions": [
                2.398602736457026,
                -1.5113290066723322,
                -1.2460996552568222,
                1.0622736251325435,
                0.1792029266590595,
                -1.5057529564674694
            ]
        },
        {
            "positions": [
                2.409576935526058,
                -1.487632224581463,
                -1.0999284528598934,
                0.9746257056670506,
                0.22102449422225878,
                -1.5821461517283182
            ]
        },
        {
            "positions": [
                2.4205511345950894,
                -1.463935442490594,
                -0.9537572504629646,
                0.8869777862015576,
                0.26284606178545805,
                -1.658539346989167
            ]
        },
        {
            "positions": [
                2.4315253336641214,
                -1.4402386603997248,
                -0.8075860480660362,
                0.7993298667360649,
                0.30466762934865727,
                -1.7349325422500157
            ]
        },
        {
            "positions": [
                2.442499532733153,
                -1.4165418783088557,
                -0.6614148456691074,
                0.711681947270572,
                0.34648919691185653,
                -1.8113257375108647
            ]
        },
        {
            "positions": [
                2.453473731802185,
                -1.3928450962179866,
                -0.5152436432721785,
                0.6240340278050791,
                0.38831076447505575,
                -1.8877189327717137
            ]
        },
        {
            "positions": [
                2.464447930871217,
                -1.3691483141271172,
                -0.3690724408752497,
                0.536386108339586,
                0.43013233203825507,
                -1.9641121280325624
            ]
        },
        {
            "positions": [
                2.4754221299402484,
                -1.3454515320362481,
                -0.22290123847832088,
                0.4487381888740931,
                0.4719538996014544,
                -2.040505323293411
            ]
        },
        {
            "positions": [
                2.4863963290092803,
                -1.321754749945379,
                -0.0767300360813925,
                0.36109026940860023,
                0.5137754671646536,
                -2.11689851855426
            ]
        },
        {
            "positions": [
                2.497370528078312,
                -1.2980579678545099,
                0.06944116631553587,
                0.27344234994310757,
                0.5555970347278527,
                -2.1932917138151087
            ]
        },
        {
            "positions": [
                2.508344727147344,
                -1.2743611857636408,
                0.21561236871246514,
                0.18579443047761446,
                0.5974186022910521,
                -2.269684909075958
            ]
        },
        {
            "positions": [
                2.5193189262163758,
                -1.2506644036727717,
                0.3617835711093935,
                0.09814651101212157,
                0.6392401698542514,
                -2.3460781043368066
            ]
        },
        {
            "positions": [
                2.5302931252854073,
                -1.2269676215819025,
                0.5079547735063228,
                0.010498591546628466,
                0.6810617374174507,
                -2.422471299597656
            ]
        },
        {
            "positions": [
                2.5412673243544392,
                -1.2032708394910334,
                0.6541259759032512,
                -0.0771493279188642,
                0.7228833049806499,
                -2.4988644948585046
            ]
        },
        {
            "positions": [
                2.552241523423471,
                -1.1795740574001643,
                0.8002971783001795,
                -0.16479724738435708,
                0.7647048725438491,
                -2.5752576901193533
            ]
        },
        {
            "positions": [
                2.5632157224925027,
                -1.1558772753092952,
                0.9464683806971088,
                -0.2524451668498502,
                0.8065264401070484,
                -2.651650885380202
            ]
        },
        {
            "positions": [
                2.5741899215615347,
                -1.132180493218426,
                1.0926395830940372,
                -0.34009308631534285,
                0.8483480076702477,
                -2.728044080641051
            ]
        },
        {
            "positions": [
                2.5851641206305667,
                -1.108483711127557,
                1.2388107854909656,
                -0.4277410057808355,
                0.8901695752334469,
                -2.8044372759018996
            ]
        },
        {
            "positions": [
                2.596138319699598,
                -1.0847869290366878,
                1.3849819878878948,
                -0.5153889252463286,
                0.9319911427966461,
                -2.8808304711627484
            ]
        },
        {
            "positions": [
                2.60711251876863,
                -1.0610901469458187,
                1.5311531902848232,
                -0.6030368447118217,
                0.9738127103598453,
                -2.957223666423597
            ]
        },
        {
            "positions": [
                2.6180867178376617,
                -1.0373933648549494,
                1.6773243926817525,
                -0.6906847641773148,
                1.0156342779230447,
                -3.0336168616844463
            ]
        },
        {
            "positions": [
                2.6290609169066936,
                -1.0136965827640803,
                1.823495595078681,
                -0.7783326836428074,
                1.057455845486244,
                -3.110010056945295
            ]
        }
    ]
}