{
    "goal": {
        "global_pose": {
            "orientation": {
                "w": 0.5084816262002911,
                "x": -0.4908360881923452,
                "y": 0.5182115481033761,
                "z": -0.48164630358495003
            },
            "position": {
                "x": 0.5540239810943604,
                "y": -0.46912469901144505,
                "z": 0.16403168439865112
            }
        },
        "name": "move_to_storage_B"
    },
    "id": "SPARS_move_to_storage_B_29",
    "joint_names": [
        "shoulder_pan_joint",
        "shoulder_lift_joint",
        "elbow_joint",
        "wrist_1_joint",
        "wrist_2_joint",
        "wrist_3_joint"
    ],
    "metrics": {
        "cart_traj_len": 1.1394690388980806,
        "distance_elbow_joint": 0.4741940903325781,
        "distance_shoulder_lift_joint": 0.4589872659964831,
        "distance_shoulder_pan_joint": 0.8405122885944852,
        "distance_wrist_1_joint": 2.990635128497363,
        "distance_wrist_2_joint": 2.7002104866114145,
        "distance_wrist_3_joint": 3.1446028535555195,
        "smoothness": 0.11449912122753596,
        "time": 5.076804908,
        "traj_len": 3.2571678055617346,
        "weighted_distance": 4.752809004768408
    },
    "planner": "SPARS",
    "start": {
        "state": {
            "elbow_joint": 1.664937868594044,
            "shoulder_lift_joint": -0.661644460510453,
            "shoulder_pan_joint": -0.9139846352900073,
            "wrist_1_joint": 2.146753192139373,
            "wrist_2_joint": -2.2341966793290973,
            "wrist_3_joint": 0.005466555786416001
        }
    },
    "waypoints": [
        {
            "positions": [
                -0.9139846352900073,
                -0.661644460510453,
                1.664937868594044,
                2.146753192139373,
                -2.2341966793290973,
                0.005466555786416001
            ]
        },
        {
            "positions": [
                -0.8316717740371046,
                -0.7682677848138662,
                1.6496377864664635,
                2.093996951550521,
                -2.2246604574672513,
                -0.06344767476303073
            ]
        },
        {
            "positions": [
                -0.7493589127842019,
                -0.8748911091172792,
                1.6343377043388831,
                2.0412407109616684,
                -2.215124235605405,
                -0.13236190531247746
            ]
        },
        {
            "positions": [
                -0.6670460515312991,
                -0.9815144334206922,
                1.6190376222113025,
                1.9884844703728155,
                -2.205588013743559,
                -0.2012761358619242
            ]
        },
        {
            "positions": [
                -0.5847331902783964,
                -1.0881377577241054,
                1.6037375400837222,
                1.935728229783963,
                -2.196051791881713,
                -0.2701903664113709
            ]
        },
        {
            "positions": [
                -0.6060357254276829,
                -1.0894916730900566,
                1.620945613492983,
                1.8199111395280483,
                -2.0851323919165448,
                -0.3897297802179431
            ]
        },
        {
            "positions": [
                -0.6273382605769693,
                -1.090845588456008,
                1.6381536869022435,
                1.7040940492721337,
                -1.9742129919513771,
                -0.5092691940245153
            ]
        },
        {
            "positions": [
                -0.6486407957262558,
                -1.0921995038219592,
                1.6553617603115043,
                1.588276959016219,
                -1.863293591986209,
                -0.6288086078310875
            ]
        },
        {
            "positions": [
                -0.6699433308755421,
                -1.0935534191879106,
                1.6725698337207648,
                1.4724598687603043,
                -1.7523741920210414,
                -0.7483480216376597
            ]
        },
        {
            "positions": [
                -0.6912458660248286,
                -1.0949073345538618,
                1.6897779071300256,
                1.3566427785043895,
                -1.6414547920558733,
                -0.8678874354442319
            ]
        },
        {
            "positions": [
                -0.712548401174115,
                -1.096261249919813,
                1.7069859805392862,
                1.2408256882484747,
                -1.5305353920907054,
                -0.987426849250804
            ]
        },
        {
            "positions": [
                -0.7338509363234015,
                -1.0976151652857644,
                1.724194053948547,
                1.1250085979925601,
                -1.4196159921255376,
                -1.1069662630573764
            ]
        },
        {
            "positions": [
                -0.7551534714726879,
                -1.0989690806517156,
                1.7414021273578075,
                1.0091915077366456,
                -1.3086965921603697,
                -1.2265056768639484
            ]
        },
        {
            "positions": [
                -0.7764560066219743,
                -1.1003229960176668,
                1.7586102007670683,
                0.8933744174807308,
                -1.1977771921952018,
                -1.3460450906705208
            ]
        },
        {
            "positions": [
                -0.7977585417712607,
                -1.1016769113836182,
                1.7758182741763289,
                0.777557327224816,
                -1.0868577922300338,
                -1.465584504477093
            ]
        },
        {
            "positions": [
                -0.8190610769205472,
                -1.1030308267495694,
                1.7930263475855897,
                0.6617402369689014,
                -0.9759383922648659,
                -1.5851239182836652
            ]
        },
        {
            "positions": [
                -0.8403636120698337,
                -1.1043847421155206,
                1.8102344209948504,
                0.5459231467129866,
                -0.865018992299698,
                -1.7046633320902373
            ]
        },
        {
            "positions": [
                -0.86166614721912,
                -1.105738657481472,
                1.827442494404111,
                0.430106056457072,
                -0.7540995923345302,
                -1.8242027458968095
            ]
        },
        {
            "positions": [
                -0.8829686823684065,
                -1.1070925728474232,
                1.8446505678133718,
                0.314288966201157,
                -0.6431801923693621,
                -1.943742159703382
            ]
        },
        {
            "positions": [
                -0.9042712175176929,
                -1.1084464882133747,
                1.8618586412226323,
                0.1984718759452424,
                -0.5322607924041942,
                -2.0632815735099537
            ]
        },
        {
            "positions": [
                -0.9255737526669794,
                -1.1098004035793259,
                1.8790667146318931,
                0.08265478568932783,
                -0.4213413924390266,
                -2.182820987316526
            ]
        },
        {
            "positions": [
                -0.9468762878162658,
                -1.111154318945277,
                1.8962747880411537,
                -0.033162304566586975,
                -0.3104219924738585,
                -2.3023604011230985
            ]
        },
        {
            "positions": [
                -0.9681788229655522,
                -1.1125082343112285,
                1.9134828614504145,
                -0.14897939482250155,
                -0.19950259250869062,
                -2.4218998149296707
            ]
        },
        {
            "positions": [
                -0.9894813581148386,
                -1.1138621496771797,
                1.930690934859675,
                -0.26479648507841613,
                -0.08858319254352276,
                -2.541439228736243
            ]
        },
        {
            "positions": [
                -1.010783893264125,
                -1.115216065043131,
                1.9478990082689358,
                -0.38061357533433116,
                0.022336207421645327,
                -2.660978642542815
            ]
        },
        {
            "positions": [
                -1.0320864284134115,
                -1.1165699804090823,
                1.9651070816781964,
                -0.49643066559024573,
                0.13325560738681297,
                -2.780518056349387
            ]
        },
        {
            "positions": [
                -1.0533889635626978,
                -1.1179238957750335,
                1.9823151550874571,
                -0.6122477558461603,
                0.24417500735198105,
                -2.9000574701559594
            ]
        },
        {
            "positions": [
                -1.0746914987119844,
                -1.119277811140985,
                1.999523228496718,
                -0.7280648461020753,
                0.35509440731714914,
                -3.0195968839625316
            ]
        },
        {
            "positions": [
                -1.0959940338612708,
                -1.120631726506936,
                2.0167313019059785,
                -0.8438819363579898,
                0.466013807282317,
                -3.1391362977691037
            ]
        }
    ]
}