{
    "goal": {
        "global_pose": {
            "orientation": {
                "w": -0.4816463035849501,
                "x": 0.5182115481033762,
                "y": 0.4908360881923453,
                "z": -0.5084816262002911
            },
            "position": {
                "x": -0.8240239810943604,
                "y": 0.19912469901144506,
                "z": 0.16403168439865112
            }
        },
        "name": "move_to_storage_D"
    },
    "id": "SPARS_move_to_storage_D_49",
    "joint_names": [
        "shoulder_pan_joint",
        "shoulder_lift_joint",
        "elbow_joint",
        "wrist_1_joint",
        "wrist_2_joint",
        "wrist_3_joint"
    ],
    "metrics": {
        "cart_traj_len": 3.1677732983576594,
        "distance_elbow_joint": 4.213486812388213,
        "distance_shoulder_lift_joint": 1.820522061686023,
        "distance_shoulder_pan_joint": 2.812334040957818,
        "distance_wrist_1_joint": 2.2817550724801707,
        "distance_wrist_2_joint": 0.8678216491011906,
        "distance_wrist_3_joint": 3.1257772600868323,
        "smoothness": 0.028844041317835717,
        "time": 5.046895048,
        "traj_len": 3.888662610294219,
        "weighted_distance": 4.952052921612941
    },
    "planner": "SPARS",
    "start": {
        "state": {
            "elbow_joint": -2.384821988534728,
            "shoulder_lift_joint": -2.2788054721415256,
            "shoulder_pan_joint": -0.1854694642142757,
            "wrist_1_joint": 1.4845938289331202,
            "wrist_2_joint": 0.17898776772866878,
            "wrist_3_joint": 0.037105688729662994
        }
    },
    "waypoints": [
        {
            "positions": [
                -0.1854694642142757,
                -2.2788054721415256,
                -2.384821988534728,
                1.4845938289331202,
                0.17898776772866878,
                0.037105688729662994
            ]
        },
        {
            "positions": [
                -0.06104334224588269,
                -2.1976176770119,
                -2.29745717418775,
                1.4718245427728438,
                0.1947044226545191,
                -0.03163827515048795
            ]
        },
        {
            "positions": [
                0.06338277972251033,
                -2.1164298818822744,
                -2.2100923598407727,
                1.4590552566125674,
                0.2104210775803694,
                -0.10038223903063889
            ]
        },
        {
            "positions": [
                0.18780890169090333,
                -2.035242086752649,
                -2.1227275454937953,
                1.446285970452291,
                0.2261377325062197,
                -0.16912620291078984
            ]
        },
        {
            "positions": [
                0.31223502365929634,
                -1.9540542916230235,
                -2.0353627311468174,
                1.4335166842920146,
                0.24185438743207002,
                -0.23787016679094078
            ]
        },
        {
            "positions": [
                0.43666114562768943,
                -1.872866496493398,
                -1.9479979167998398,
                1.4207473981317384,
                0.25757104235792033,
                -0.30661413067109167
            ]
        },
        {
            "positions": [
                0.5610872675960824,
                -1.7916787013637725,
                -1.8606331024528622,
                1.407978111971462,
                0.27328769728377067,
                -0.3753580945512427
            ]
        },
        {
            "positions": [
                0.6855133895644755,
                -1.710490906234147,
                -1.7732682881058845,
                1.3952088258111857,
                0.28900435220962095,
                -0.4441020584313936
            ]
        },
        {
            "positions": [
                0.8099395115328685,
                -1.6293031111045213,
                -1.685903473758907,
                1.3824395396509093,
                0.30472100713547123,
                -0.5128460223115445
            ]
        },
        {
            "positions": [
                0.9343656335012615,
                -1.5481153159748957,
                -1.598538659411929,
                1.3696702534906329,
                0.32043766206132157,
                -0.5815899861916954
            ]
        },
        {
            "positions": [
                1.0587917554696544,
                -1.4669275208452703,
                -1.5111738450649517,
                1.3569009673303565,
                0.3361543169871719,
                -0.6503339500718464
            ]
        },
        {
            "positions": [
                1.1832178774380475,
                -1.3857397257156445,
                -1.4238090307179738,
                1.34413168117008,
                0.3518709719130222,
                -0.7190779139519974
            ]
        },
        {
            "positions": [
                1.3076439994064404,
                -1.3045519305860194,
                -1.3364442163709964,
                1.3313623950098037,
                0.36758762683887247,
                -0.7878218778321483
            ]
        },
        {
            "positions": [
                1.4320701213748337,
                -1.2233641354563936,
                -1.2490794020240186,
                1.3185931088495273,
                0.38330428176472287,
                -0.8565658417122993
            ]
        },
        {
            "positions": [
                1.5564962433432266,
                -1.1421763403267682,
                -1.1617145876770412,
                1.3058238226892511,
                0.39902093669057315,
                -0.9253098055924501
            ]
        },
        {
            "positions": [
                1.6809223653116196,
                -1.0609885451971426,
                -1.0743497733300633,
                1.2930545365289747,
                0.41473759161642343,
                -0.9940537694726013
            ]
        },
        {
            "positions": [
                1.8053484872800125,
                -0.9798007500675172,
                -0.9869849589830859,
                1.2802852503686983,
                0.4304542465422737,
                -1.062797733352752
            ]
        },
        {
            "positions": [
                1.9297746092484056,
                -0.8986129549378914,
                -0.8996201446361081,
                1.267515964208422,
                0.4461709014681241,
                -1.131541697232903
            ]
        },
        {
            "positions": [
                2.0542007312167985,
                -0.817425159808266,
                -0.8122553302891304,
                1.2547466780481455,
                0.4618875563939744,
                -1.200285661113054
            ]
        },
        {
            "positions": [
                2.178626853185192,
                -0.7362373646786404,
                -0.7248905159421528,
                1.2419773918878692,
                0.47760421131982467,
                -1.269029624993205
            ]
        },
        {
            "positions": [
                2.2010387393631095,
                -0.7501350623897973,
                -0.5972127489523709,
                1.1400204601161232,
                0.5060644715953264,
                -1.3600117223114032
            ]
        },
        {
            "positions": [
                2.2234506255410267,
                -0.7640327601009542,
                -0.46953498196258897,
                1.0380635283443773,
                0.5345247318708282,
                -1.4509938196296013
            ]
        },
        {
            "positions": [
                2.2458625117189444,
                -0.777930457812111,
                -0.34185721497280713,
                0.9361065965726313,
                0.5629849921463299,
                -1.5419759169477996
            ]
        },
        {
            "positions": [
                2.268274397896862,
                -0.7918281555232679,
                -0.21417944798302513,
                0.8341496648008853,
                0.5914452524218317,
                -1.6329580142659976
            ]
        },
        {
            "positions": [
                2.2906862840747797,
                -0.8057258532344248,
                -0.08650168099324329,
                0.7321927330291393,
                0.6199055126973334,
                -1.723940111584196
            ]
        },
        {
            "positions": [
                2.313098170252697,
                -0.8196235509455817,
                0.04117608599653855,
                0.6302358012573934,
                0.648365772972835,
                -1.8149222089023942
            ]
        },
        {
            "positions": [
                2.3355100564306146,
                -0.8335212486567385,
                0.1688538529863205,
                0.5282788694856475,
                0.6768260332483368,
                -1.9059043062205923
            ]
        },
        {
            "positions": [
                2.3579219426085323,
                -0.8474189463678954,
                0.29653161997610256,
                0.42632193771390137,
                0.7052862935238385,
                -1.9968864035387905
            ]
        },
        {
            "positions": [
                2.3803338287864495,
                -0.8613166440790523,
                0.4242093869658843,
                0.32436500594215545,
                0.7337465537993403,
                -2.0878685008569886
            ]
        },
        {
            "positions": [
                2.402745714964367,
                -0.8752143417902092,
                0.5518871539556662,
                0.22240807417040953,
                0.762206814074842,
                -2.178850598175187
            ]
        },
        {
            "positions": [
                2.425157601142285,
                -0.8891120395013661,
                0.6795649209454482,
                0.12045114239866339,
                0.7906670743503438,
                -2.269832695493385
            ]
        },
        {
            "positions": [
                2.447569487320202,
                -0.903009737212523,
                0.8072426879352299,
                0.018494210626917695,
                0.8191273346258454,
                -2.360814792811583
            ]
        },
        {
            "positions": [
                2.4699813734981197,
                -0.9169074349236799,
                0.9349204549250121,
                -0.08346272114482844,
                0.8475875949013473,
                -2.4517968901297813
            ]
        },
        {
            "positions": [
                2.4923932596760374,
                -0.9308051326348367,
                1.0625982219147938,
                -0.18541965291657414,
                0.8760478551768489,
                -2.5427789874479796
            ]
        },
        {
            "positions": [
                2.5148051458539546,
                -0.9447028303459936,
                1.1902759889045758,
                -0.2873765846883203,
                0.9045081154523507,
                -2.633761084766178
            ]
        },
        {
            "positions": [
                2.5372170320318723,
                -0.9586005280571505,
                1.317953755894358,
                -0.3893335164600664,
                0.9329683757278524,
                -2.724743182084376
            ]
        },
        {
            "positions": [
                2.55962891820979,
                -0.9724982257683072,
                1.4456315228841397,
                -0.4912904482318121,
                0.9614286360033542,
                -2.8157252794025744
            ]
        },
        {
            "positions": [
                2.5820408043877077,
                -0.9863959234794641,
                1.5733092898739214,
                -0.5932473800035583,
                0.9898888962788559,
                -2.9067073767207727
            ]
        },
        {
            "positions": [
                2.604452690565625,
                -1.000293621190621,
                1.700987056863703,
                -0.695204311775304,
                1.0183491565543576,
                -2.9976894740389706
            ]
        },
        {
            "positions": [
                2.6268645767435426,
                -1.014191318901778,
                1.8286648238534855,
                -0.7971612435470501,
                1.0468094168298594,
                -3.088671571357169
            ]
        }
    ]
}