{
    "goal": {
        "global_pose": {
            "orientation": {
                "w": -0.4816463035849501,
                "x": 0.5182115481033762,
                "y": 0.4908360881923453,
                "z": -0.5084816262002911
            },
            "position": {
                "x": -0.8240239810943604,
                "y": 0.19912469901144506,
                "z": 0.16403168439865112
            }
        },
        "name": "move_to_storage_D"
    },
    "id": "SPARStwo_move_to_storage_D_39",
    "joint_names": [
        "shoulder_pan_joint",
        "shoulder_lift_joint",
        "elbow_joint",
        "wrist_1_joint",
        "wrist_2_joint",
        "wrist_3_joint"
    ],
    "metrics": {
        "cart_traj_len": 3.320586610524262,
        "distance_elbow_joint": 4.208634598341025,
        "distance_shoulder_lift_joint": 1.2662108253210418,
        "distance_shoulder_pan_joint": 2.813291138064025,
        "distance_wrist_1_joint": 4.364207227914493,
        "distance_wrist_2_joint": 0.8761911002525177,
        "distance_wrist_3_joint": 3.1440916246153527,
        "smoothness": 0.11209080536326471,
        "time": 5.055210413,
        "traj_len": 4.083212768704131,
        "weighted_distance": 5.310480966156095
    },
    "planner": "SPARStwo",
    "start": {
        "state": {
            "elbow_joint": -2.384821988534728,
            "shoulder_lift_joint": -2.2788054721415256,
            "shoulder_pan_joint": -0.1854694642142757,
            "wrist_1_joint": 1.4845938289331202,
            "wrist_2_joint": 0.17898776772866878,
            "wrist_3_joint": 0.037105688729662994
        }
    },
    "waypoints": [
        {
            "positions": [
                -0.1854694642142757,
                -2.2788054721415256,
                -2.384821988534728,
                1.4845938289331202,
                0.17898776772866878,
                0.037105688729662994
            ]
        },
        {
            "positions": [
                -0.0625080384072539,
                -2.2192179741005296,
                -2.315020860214371,
                1.5428615166705166,
                0.1794491490726451,
                0.11509112519985208
            ]
        },
        {
            "positions": [
                0.06045338739976791,
                -2.1596304760595335,
                -2.2452197318940144,
                1.6011292044079133,
                0.1799105304166214,
                0.19307656167004117
            ]
        },
        {
            "positions": [
                0.18341481320678973,
                -2.1000429780185375,
                -2.1754186035736574,
                1.6593968921453097,
                0.1803719117605977,
                0.27106199814023024
            ]
        },
        {
            "positions": [
                0.3063762390138115,
                -2.040455479977541,
                -2.1056174752533003,
                1.7176645798827062,
                0.180833293104574,
                0.3490474346104193
            ]
        },
        {
            "positions": [
                0.42933766482083346,
                -1.980867981936545,
                -2.0358163469329438,
                1.7759322676201028,
                0.1812946744485503,
                0.4270328710806085
            ]
        },
        {
            "positions": [
                0.5522990906278552,
                -1.9212804838955488,
                -1.9660152186125868,
                1.8341999553574992,
                0.1817560557925266,
                0.5050183075507976
            ]
        },
        {
            "positions": [
                0.6752605164348771,
                -1.8616929858545528,
                -1.89621409029223,
                1.8924676430948957,
                0.1822174371365029,
                0.5830037440209868
            ]
        },
        {
            "positions": [
                0.7982219422418988,
                -1.8021054878135567,
                -1.8264129619718732,
                1.9507353308322921,
                0.1826788184804792,
                0.6609891804911757
            ]
        },
        {
            "positions": [
                0.9211833680489206,
                -1.7425179897725604,
                -1.7566118336515162,
                2.0090030185696888,
                0.1831401998244555,
                0.7389746169613649
            ]
        },
        {
            "positions": [
                1.0441447938559425,
                -1.6829304917315642,
                -1.6868107053311592,
                2.0672707063070854,
                0.18360158116843178,
                0.8169600534315541
            ]
        },
        {
            "positions": [
                1.1671062196629642,
                -1.6233429936905681,
                -1.6170095770108024,
                2.125538394044482,
                0.18406296251240808,
                0.8949454899017432
            ]
        },
        {
            "positions": [
                1.290067645469986,
                -1.563755495649572,
                -1.5472084486904456,
                2.1838060817818783,
                0.1845243438563844,
                0.9729309263719321
            ]
        },
        {
            "positions": [
                1.4130290712770077,
                -1.504167997608576,
                -1.4774073203700886,
                2.242073769519275,
                0.1849857252003607,
                1.0509163628421212
            ]
        },
        {
            "positions": [
                1.5359904970840297,
                -1.44458049956758,
                -1.407606192049732,
                2.300341457256671,
                0.185447106544337,
                1.1289017993123105
            ]
        },
        {
            "positions": [
                1.6589519228910514,
                -1.3849930015265837,
                -1.337805063729375,
                2.358609144994068,
                0.1859084878883133,
                1.2068872357824996
            ]
        },
        {
            "positions": [
                1.7819133486980732,
                -1.3254055034855876,
                -1.2680039354090182,
                2.4168768327314645,
                0.1863698692322896,
                1.2848726722526884
            ]
        },
        {
            "positions": [
                1.9048747745050951,
                -1.2658180054445913,
                -1.1982028070886612,
                2.4751445204688607,
                0.1868312505762659,
                1.3628581087228777
            ]
        },
        {
            "positions": [
                2.027836200312117,
                -1.2062305074035953,
                -1.1284016787683044,
                2.5334122082062573,
                0.1872926319202422,
                1.4408435451930668
            ]
        },
        {
            "positions": [
                2.0518356192536222,
                -1.1984850729802707,
                -1.0103131072253204,
                2.400796654260603,
                0.22200808136267997,
                1.5104576959191447
            ]
        },
        {
            "positions": [
                2.0758350381951276,
                -1.1907396385569464,
                -0.8922245356823364,
                2.268181100314949,
                0.25672353080511773,
                1.5800718466452226
            ]
        },
        {
            "positions": [
                2.099834457136633,
                -1.1829942041336219,
                -0.7741359641393524,
                2.1355655463692944,
                0.29143898024755555,
                1.6496859973713007
            ]
        },
        {
            "positions": [
                2.123833876078138,
                -1.1752487697102973,
                -0.6560473925963684,
                2.0029499924236402,
                0.3261544296899933,
                1.7193001480973786
            ]
        },
        {
            "positions": [
                2.1478332950196433,
                -1.167503335286973,
                -0.5379588210533843,
                1.870334438477986,
                0.36086987913243107,
                1.7889142988234565
            ]
        },
        {
            "positions": [
                2.1718327139611486,
                -1.1597579008636485,
                -0.4198702495104004,
                1.737718884532332,
                0.39558532857486883,
                1.8585284495495344
            ]
        },
        {
            "positions": [
                2.195832132902654,
                -1.1520124664403242,
                -0.3017816779674163,
                1.6051033305866778,
                0.4303007780173066,
                1.9281426002756126
            ]
        },
        {
            "positions": [
                2.2198315518441594,
                -1.1442670320169996,
                -0.18369310642443226,
                1.4724877766410234,
                0.46501622745974436,
                1.9977567510016905
            ]
        },
        {
            "positions": [
                2.2438309707856647,
                -1.136521597593675,
                -0.06560453488144846,
                1.3398722226953692,
                0.4997316769021821,
                2.0673709017277684
            ]
        },
        {
            "positions": [
                2.2678303897271697,
                -1.1287761631703508,
                0.05248403666153578,
                1.2072566687497148,
                0.53444712634462,
                2.1369850524538463
            ]
        },
        {
            "positions": [
                2.291829808668675,
                -1.1210307287470263,
                0.1705726082045198,
                1.0746411148040607,
                0.5691625757870578,
                2.206599203179924
            ]
        },
        {
            "positions": [
                2.3158292276101804,
                -1.1132852943237017,
                0.2886611797475036,
                0.9420255608584065,
                0.6038780252294955,
                2.276213353906002
            ]
        },
        {
            "positions": [
                2.3398286465516858,
                -1.1055398599003774,
                0.40674975129048785,
                0.8094100069127523,
                0.6385934746719333,
                2.3458275046320805
            ]
        },
        {
            "positions": [
                2.363828065493191,
                -1.0977944254770529,
                0.5248383228334719,
                0.676794452967098,
                0.673308924114371,
                2.4154416553581584
            ]
        },
        {
            "positions": [
                2.3878274844346965,
                -1.0900489910537283,
                0.6429268943764557,
                0.544178899021444,
                0.7080243735568088,
                2.485055806084236
            ]
        },
        {
            "positions": [
                2.411826903376202,
                -1.082303556630404,
                0.7610154659194399,
                0.4115633450757894,
                0.7427398229992466,
                2.554669956810314
            ]
        },
        {
            "positions": [
                2.435826322317707,
                -1.0745581222070795,
                0.8791040374624237,
                0.27894779113013524,
                0.7774552724416843,
                2.624284107536392
            ]
        },
        {
            "positions": [
                2.459825741259212,
                -1.066812687783755,
                0.9971926090054075,
                0.14633223718448107,
                0.8121707218841221,
                2.69389825826247
            ]
        },
        {
            "positions": [
                2.4838251602007175,
                -1.0590672533604306,
                1.1152811805483918,
                0.01371668323882691,
                0.8468861713265599,
                2.7635124089885483
            ]
        },
        {
            "positions": [
                2.507824579142223,
                -1.051321818937106,
                1.233369752091376,
                -0.1188988707068277,
                0.8816016207689976,
                2.833126559714626
            ]
        },
        {
            "positions": [
                2.531823998083728,
                -1.0435763845137818,
                1.3514583236343598,
                -0.2515144246524814,
                0.9163170702114354,
                2.902740710440704
            ]
        },
        {
            "positions": [
                2.555823417025233,
                -1.0358309500904572,
                1.469546895177344,
                -0.384129978598136,
                0.9510325196538731,
                2.9723548611667816
            ]
        },
        {
            "positions": [
                2.5798228359667386,
                -1.0280855156671327,
                1.5876354667203278,
                -0.5167455325437902,
                0.9857479690963109,
                3.04196901189286
            ]
        },
        {
            "positions": [
                2.603822254908244,
                -1.0203400812438084,
                1.7057240382633116,
                -0.6493610864894444,
                1.0204634185387487,
                3.1115831626189374
            ]
        },
        {
            "positions": [
                2.6278216738497493,
                -1.0125946468204838,
                1.8238126098062961,
                -0.7819766404350983,
                1.0551788679811864,
                3.1811973133450158
            ]
        }
    ]
}