{
    "goal": {
        "global_pose": {
            "orientation": {
                "w": -0.00223480608172531,
                "x": 0.0024358444001904467,
                "y": 0.7094548369677653,
                "z": -0.704743149386269
            },
            "position": {
                "x": -0.37947507619857795,
                "y": -0.6371506643295288,
                "z": 0.19426114857196808
            }
        },
        "name": "move_to_magneteinheit_C"
    },
    "id": "SPARS_move_to_magneteinheit_C_57",
    "joint_names": [
        "shoulder_pan_joint",
        "shoulder_lift_joint",
        "elbow_joint",
        "wrist_1_joint",
        "wrist_2_joint",
        "wrist_3_joint"
    ],
    "metrics": {
        "cart_traj_len": 1.070518653986804,
        "distance_elbow_joint": 0.09433543370300912,
        "distance_shoulder_lift_joint": 1.0366801225287385,
        "distance_shoulder_pan_joint": 0.9705296392591352,
        "distance_wrist_1_joint": 0.9570268140524709,
        "distance_wrist_2_joint": 2.1877337630984837,
        "distance_wrist_3_joint": 1.1427458292499262,
        "smoothness": 1.0355704317613044,
        "time": 5.034009589,
        "traj_len": 2.52765733474531,
        "weighted_distance": 3.4379214414443173
    },
    "planner": "SPARS",
    "start": {
        "state": {
            "elbow_joint": 1.9565354010623817,
            "shoulder_lift_joint": -1.4165861575791021,
            "shoulder_pan_joint": -1.6717766225146293,
            "wrist_1_joint": -0.5286633292919765,
            "wrist_2_joint": 1.472756589071564,
            "wrist_3_joint": -3.1238370188695823
        }
    },
    "waypoints": [
        {
            "positions": [
                -1.6717766225146293,
                -1.4165861575791021,
                1.9565354010623817,
                -0.5286633292919765,
                1.472756589071564,
                -3.1238370188695823
            ]
        },
        {
            "positions": [
                -1.661430806130646,
                -1.4191733842085545,
                1.9631215159627353,
                -0.524162797868243,
                1.45500343506276,
                -3.1129335997967003
            ]
        },
        {
            "positions": [
                -1.6754139483709365,
                -1.4608747320354936,
                1.9600892732727115,
                -0.47781048276783294,
                1.244265581346373,
                -3.0348171132591735
            ]
        },
        {
            "positions": [
                -1.6893970906112272,
                -1.5025760798624326,
                1.957057030582688,
                -0.4314581676674228,
                1.033527727629986,
                -2.9567006267216467
            ]
        },
        {
            "positions": [
                -1.7033802328515177,
                -1.5442774276893716,
                1.9540247878926642,
                -0.3851058525670127,
                0.8227898739135987,
                -2.87858414018412
            ]
        },
        {
            "positions": [
                -1.7173633750918083,
                -1.5859787755163106,
                1.9509925452026404,
                -0.33875353746660253,
                0.6120520201972115,
                -2.800467653646593
            ]
        },
        {
            "positions": [
                -1.7313465173320988,
                -1.6276801233432496,
                1.9479603025126166,
                -0.2924012223661924,
                0.4013141664808242,
                -2.7223511671090663
            ]
        },
        {
            "positions": [
                -1.7453296595723895,
                -1.6693814711701886,
                1.944928059822593,
                -0.24604890726578232,
                0.19057631276443732,
                -2.6442346805715395
            ]
        },
        {
            "positions": [
                -1.75931280181268,
                -1.7110828189971277,
                1.9418958171325693,
                -0.1996965921653722,
                -0.020161540951950028,
                -2.5661181940340128
            ]
        },
        {
            "positions": [
                -1.9170081698376717,
                -1.5820365761400004,
                1.9439975610804248,
                -0.2129201640854829,
                0.044694468721721656,
                -2.57555457476534
            ]
        },
        {
            "positions": [
                -2.0747035378626637,
                -1.452990333282873,
                1.94609930502828,
                -0.22614373600559362,
                0.10955047839539334,
                -2.5849909554966675
            ]
        },
        {
            "positions": [
                -2.2323989058876554,
                -1.3239440904257456,
                1.9482010489761354,
                -0.23936730792570432,
                0.174406488069065,
                -2.5944273362279944
            ]
        },
        {
            "positions": [
                -2.390094273912647,
                -1.1948978475686183,
                1.9503027929239907,
                -0.252590879845815,
                0.2392624977427367,
                -2.6038637169593217
            ]
        },
        {
            "positions": [
                -2.547789641937639,
                -1.065851604711491,
                1.9524045368718461,
                -0.2658144517659257,
                0.30411850741640833,
                -2.613300097690649
            ]
        },
        {
            "positions": [
                -2.533024644524007,
                -1.0852420540765062,
                1.9636075169184886,
                -0.3782028952309883,
                0.37822562435773066,
                -2.7208691178421933
            ]
        },
        {
            "positions": [
                -2.5182596471103755,
                -1.1046325034415214,
                1.9748104969651312,
                -0.4905913386960509,
                0.45233274129905304,
                -2.828438137993737
            ]
        },
        {
            "positions": [
                -2.5034946496967434,
                -1.1240229528065369,
                1.9860134770117737,
                -0.6029797821611136,
                0.5264398582403753,
                -2.9360071581452813
            ]
        },
        {
            "positions": [
                -2.4887296522831117,
                -1.143413402171552,
                1.9972164570584163,
                -0.7153682256261762,
                0.6005469751816978,
                -3.043576178296825
            ]
        },
        {
            "positions": [
                -2.47396465486948,
                -1.1628038515365673,
                2.0084194371050588,
                -0.8277566690912388,
                0.6746540921230201,
                -3.1511451984483694
            ]
        }
    ]
}