{
    "goal": {
        "global_pose": {
            "orientation": {
                "w": 0.7047431468963623,
                "x": -0.7094548344612122,
                "y": 0.0024358443915843964,
                "z": -0.0022348060738295317
            },
            "position": {
                "x": 0.6094750761985779,
                "y": 0.3671506643295288,
                "z": 0.19426114857196808
            }
        },
        "name": "move_to_magneteinheit_A"
    },
    "id": "SPARStwo_move_to_magneteinheit_A_78",
    "joint_names": [
        "shoulder_pan_joint",
        "shoulder_lift_joint",
        "elbow_joint",
        "wrist_1_joint",
        "wrist_2_joint",
        "wrist_3_joint"
    ],
    "metrics": {
        "cart_traj_len": 4.098918148985084,
        "distance_elbow_joint": 3.909487711939796,
        "distance_shoulder_lift_joint": 0.4685169301170592,
        "distance_shoulder_pan_joint": 5.347982098265234,
        "distance_wrist_1_joint": 3.4554416909577332,
        "distance_wrist_2_joint": 1.799018450884466,
        "distance_wrist_3_joint": 2.1573455057255697,
        "smoothness": 0.21552995694462093,
        "time": 5.013923878,
        "traj_len": 4.139781683602392,
        "weighted_distance": 5.167876115115686
    },
    "planner": "SPARStwo",
    "start": {
        "state": {
            "elbow_joint": -1.9196185241190666,
            "shoulder_lift_joint": -1.2443396400964142,
            "shoulder_pan_joint": 2.6996025414629847,
            "wrist_1_joint": -1.5485510000780065,
            "wrist_2_joint": -1.5709468930060704,
            "wrist_3_joint": 0.4420197071253992
        }
    },
    "waypoints": [
        {
            "positions": [
                2.6996025414629847,
                -1.2443396400964142,
                -1.9196185241190666,
                -1.5485510000780065,
                -1.5709468930060704,
                0.4420197071253992
            ]
        },
        {
            "positions": [
                2.5273527149657955,
                -1.2309091696260486,
                -1.870985619714834,
                -1.499950024311286,
                -1.5005586297240119,
                0.47961917110838254
            ]
        },
        {
            "positions": [
                2.3551028884686063,
                -1.217478699155683,
                -1.8223527153106014,
                -1.4513490485445657,
                -1.4301703664419534,
                0.5172186350913659
            ]
        },
        {
            "positions": [
                2.182853061971417,
                -1.2040482286853174,
                -1.7737198109063688,
                -1.4027480727778454,
                -1.3597821031598947,
                0.5548180990743493
            ]
        },
        {
            "positions": [
                2.0106032354742274,
                -1.1906177582149517,
                -1.7250869065021361,
                -1.354147097011125,
                -1.2893938398778362,
                0.5924175630573326
            ]
        },
        {
            "positions": [
                1.8383534089770381,
                -1.1771872877445861,
                -1.6764540020979035,
                -1.3055461212444044,
                -1.2190055765957777,
                0.630017027040316
            ]
        },
        {
            "positions": [
                1.666103582479849,
                -1.1637568172742205,
                -1.627821097693671,
                -1.256945145477684,
                -1.1486173133137192,
                0.6676164910232993
            ]
        },
        {
            "positions": [
                1.4938537559826595,
                -1.1503263468038547,
                -1.579188193289438,
                -1.2083441697109636,
                -1.0782290500316605,
                0.7052159550062828
            ]
        },
        {
            "positions": [
                1.3216039294854702,
                -1.1368958763334893,
                -1.5305552888852056,
                -1.1597431939442433,
                -1.0078407867496022,
                0.7428154189892662
            ]
        },
        {
            "positions": [
                1.149354102988281,
                -1.1234654058631235,
                -1.4819223844809728,
                -1.1111422181775228,
                -0.9374525234675435,
                0.7804148829722495
            ]
        },
        {
            "positions": [
                0.9771042764910918,
                -1.1100349353927579,
                -1.4332894800767404,
                -1.0625412424108025,
                -0.867064260185485,
                0.8180143469552328
            ]
        },
        {
            "positions": [
                0.8048544499939023,
                -1.0966044649223923,
                -1.3846565756725076,
                -1.013940266644082,
                -0.7966759969034264,
                0.8556138109382163
            ]
        },
        {
            "positions": [
                0.6326046234967131,
                -1.0831739944520267,
                -1.3360236712682751,
                -0.9653392908773617,
                -0.7262877336213679,
                0.8932132749211996
            ]
        },
        {
            "positions": [
                0.46035479699952386,
                -1.069743523981661,
                -1.2873907668640423,
                -0.9167383151106413,
                -0.6558994703393094,
                0.9308127389041829
            ]
        },
        {
            "positions": [
                0.2881049705023342,
                -1.0563130535112955,
                -1.2387578624598097,
                -0.8681373393439208,
                -0.5855112070572507,
                0.9684122028871663
            ]
        },
        {
            "positions": [
                0.11585514400514496,
                -1.0428825830409298,
                -1.190124958055577,
                -0.8195363635772004,
                -0.5151229437751923,
                1.0060116668701498
            ]
        },
        {
            "positions": [
                -0.05639468249204427,
                -1.0294521125705642,
                -1.1414920536513447,
                -0.77093538781048,
                -0.4447346804931338,
                1.043611130853133
            ]
        },
        {
            "positions": [
                -0.2286445089892335,
                -1.0160216421001986,
                -1.0928591492471118,
                -0.7223344120437597,
                -0.3743464172110753,
                1.0812105948361164
            ]
        },
        {
            "positions": [
                -0.4008943354864227,
                -1.002591171629833,
                -1.0442262448428792,
                -0.6737334362770392,
                -0.3039581539290166,
                1.1188100588190997
            ]
        },
        {
            "positions": [
                -0.573144161983612,
                -0.9891607011594674,
                -0.9955933404386466,
                -0.6251324605103188,
                -0.2335698906469581,
                1.1564095228020832
            ]
        },
        {
            "positions": [
                -0.7453939884808012,
                -0.9757302306891018,
                -0.946960436034414,
                -0.5765314847435984,
                -0.1631816273648996,
                1.1940089867850665
            ]
        },
        {
            "positions": [
                -0.9176438149779904,
                -0.9622997602187362,
                -0.8983275316301813,
                -0.527930508976878,
                -0.09279336408284111,
                1.2316084507680498
            ]
        },
        {
            "positions": [
                -1.08989364147518,
                -0.9488692897483705,
                -0.8496946272259487,
                -0.4793295332101575,
                -0.022405100800782396,
                1.2692079147510333
            ]
        },
        {
            "positions": [
                -1.2621434679723693,
                -0.9354388192780049,
                -0.8010617228217161,
                -0.43072855744343724,
                0.047983162481276,
                1.3068073787340166
            ]
        },
        {
            "positions": [
                -1.196132225647137,
                -0.9278380521685453,
                -0.6681602508863616,
                -0.3194133551423342,
                0.03940752460522277,
                1.2452570056808285
            ]
        },
        {
            "positions": [
                -1.1301209833219044,
                -0.9202372850590859,
                -0.5352587789510069,
                -0.2080981528412312,
                0.03083188672916953,
                1.1837066326276402
            ]
        },
        {
            "positions": [
                -1.0641097409966718,
                -0.9126365179496263,
                -0.4023573070156524,
                -0.0967829505401282,
                0.022256248853116292,
                1.122156259574452
            ]
        },
        {
            "positions": [
                -0.9980984986714394,
                -0.9050357508401669,
                -0.2694558350802978,
                0.014532251760974835,
                0.013680610977063058,
                1.0606058865212638
            ]
        },
        {
            "positions": [
                -0.9320872563462069,
                -0.8974349837307073,
                -0.1365543631449433,
                0.1258474540620778,
                0.005104973101009824,
                0.9990555134680756
            ]
        },
        {
            "positions": [
                -0.8660760140209744,
                -0.8898342166212477,
                -0.0036528912095887822,
                0.23716265636318085,
                -0.0034706647750434166,
                0.9375051404148875
            ]
        },
        {
            "positions": [
                -0.800064771695742,
                -0.8822334495117883,
                0.12924858072576584,
                0.3484778586642839,
                -0.01204630265109665,
                0.8759547673616993
            ]
        },
        {
            "positions": [
                -0.7340535293705095,
                -0.8746326824023287,
                0.26215005266112046,
                0.4597930609653869,
                -0.020621940527149885,
                0.8144043943085111
            ]
        },
        {
            "positions": [
                -0.668042287045277,
                -0.8670319152928692,
                0.39505152459647497,
                0.5711082632664899,
                -0.029197578403203125,
                0.7528540212553229
            ]
        },
        {
            "positions": [
                -0.6020310447200445,
                -0.8594311481834097,
                0.5279529965318295,
                0.6824234655675929,
                -0.03777321627925635,
                0.6913036482021347
            ]
        },
        {
            "positions": [
                -0.536019802394812,
                -0.8518303810739501,
                0.6608544684671842,
                0.7937386678686962,
                -0.04634885415530961,
                0.6297532751489464
            ]
        },
        {
            "positions": [
                -0.4700085600695796,
                -0.8442296139644907,
                0.7937559404025385,
                0.905053870169799,
                -0.054924492031362834,
                0.5682029020957583
            ]
        },
        {
            "positions": [
                -0.403997317744347,
                -0.8366288468550311,
                0.9266574123378932,
                1.0163690724709022,
                -0.06350012990741608,
                0.5066525290425701
            ]
        },
        {
            "positions": [
                -0.33798607541911463,
                -0.8290280797455716,
                1.0595588842732477,
                1.127684274772005,
                -0.0720757677834693,
                0.44510215598938196
            ]
        },
        {
            "positions": [
                -0.27197483309388204,
                -0.8214273126361121,
                1.1924603562086025,
                1.238999477073108,
                -0.08065140565952254,
                0.38355178293619363
            ]
        },
        {
            "positions": [
                -0.20596359076864967,
                -0.8138265455266526,
                1.325361828143957,
                1.3503146793742111,
                -0.08922704353557577,
                0.3220014098830055
            ]
        },
        {
            "positions": [
                -0.13995234844341709,
                -0.8062257784171931,
                1.4582633000793117,
                1.4616298816753142,
                -0.09780268141162902,
                0.2604510368298172
            ]
        },
        {
            "positions": [
                -0.07394110611818472,
                -0.7986250113077336,
                1.591164772014666,
                1.572945083976417,
                -0.10637831928768225,
                0.19890066377662907
            ]
        },
        {
            "positions": [
                -0.00792986379295213,
                -0.791024244198274,
                1.7240662439500207,
                1.6842602862775202,
                -0.11495395716373548,
                0.13735029072344096
            ]
        },
        {
            "positions": [
                0.05808137853228024,
                -0.7834234770888145,
                1.856967715885375,
                1.795575488578623,
                -0.1235295950397887,
                0.07579991767025285
            ]
        },
        {
            "positions": [
                0.12409262085751277,
                -0.775822709979355,
                1.9898691878207297,
                1.9068906908797263,
                -0.13210523291584195,
                0.014249544617064493
            ]
        }
    ]
}