{
    "goal": {
        "global_pose": {
            "orientation": {
                "w": 0.7047431493862688,
                "x": -0.7094548369677653,
                "y": 0.0024358444001904,
                "z": -0.0022348060817251984
            },
            "position": {
                "x": -0.39052492380142206,
                "y": 0.3671506643295288,
                "z": 0.19426114857196808
            }
        },
        "name": "move_to_magneteinheit_D"
    },
    "id": "SPARS_move_to_magneteinheit_D_34",
    "joint_names": [
        "shoulder_pan_joint",
        "shoulder_lift_joint",
        "elbow_joint",
        "wrist_1_joint",
        "wrist_2_joint",
        "wrist_3_joint"
    ],
    "metrics": {
        "cart_traj_len": 4.314881566649877,
        "distance_elbow_joint": 3.1251998953678055,
        "distance_shoulder_lift_joint": 1.6359725347028096,
        "distance_shoulder_pan_joint": 3.094094459741713,
        "distance_wrist_1_joint": 2.912545345353031,
        "distance_wrist_2_joint": 3.2186893375494776,
        "distance_wrist_3_joint": 3.1279838582387702,
        "smoothness": 0.3788113599252312,
        "time": 5.110501526,
        "traj_len": 4.136965727553662,
        "weighted_distance": 5.431545620754158
    },
    "planner": "SPARS",
    "start": {
        "state": {
            "elbow_joint": 0.749534889911806,
            "shoulder_lift_joint": -0.6476975780787326,
            "shoulder_pan_joint": -2.711696901376241,
            "wrist_1_joint": -0.07506478083263063,
            "wrist_2_joint": 0.43296659715538205,
            "wrist_3_joint": -3.14703540197715
        }
    },
    "waypoints": [
        {
            "positions": [
                -2.711696901376241,
                -0.6476975780787326,
                0.749534889911806,
                -0.07506478083263063,
                0.43296659715538205,
                -3.14703540197715
            ]
        },
        {
            "positions": [
                -2.723268958108667,
                -0.6821560551461792,
                0.5888907085180266,
                0.01594617954900296,
                0.41931782743302387,
                -3.064394563189371
            ]
        },
        {
            "positions": [
                -2.7348410148410927,
                -0.7166145322136256,
                0.42824652712424716,
                0.10695713993063655,
                0.40566905771066564,
                -2.981753724401592
            ]
        },
        {
            "positions": [
                -2.7464130715735187,
                -0.7510730092810721,
                0.26760234573046776,
                0.19796810031227013,
                0.39202028798830746,
                -2.899112885613813
            ]
        },
        {
            "positions": [
                -2.656947087319503,
                -0.7621533522639895,
                0.1989388506068163,
                0.169563044244356,
                0.45667101531164034,
                -2.7749032737185706
            ]
        },
        {
            "positions": [
                -2.5674811030654876,
                -0.7732336952469069,
                0.13027535548316482,
                0.1411579881764419,
                0.5213217426349732,
                -2.650693661823328
            ]
        },
        {
            "positions": [
                -2.478015118811472,
                -0.7843140382298243,
                0.06161186035951338,
                0.11275293210852777,
                0.5859724699583062,
                -2.5264840499280856
            ]
        },
        {
            "positions": [
                -2.3885491345574565,
                -0.7953943812127418,
                -0.007051634764138115,
                0.08434787604061365,
                0.6506231972816391,
                -2.4022744380328436
            ]
        },
        {
            "positions": [
                -2.299083150303441,
                -0.8064747241956591,
                -0.07571512988778956,
                0.05594281997269954,
                0.715273924604972,
                -2.278064826137601
            ]
        },
        {
            "positions": [
                -2.2096171660494255,
                -0.8175550671785765,
                -0.144378625011441,
                0.027537763904785406,
                0.7799246519283048,
                -2.1538552142423586
            ]
        },
        {
            "positions": [
                -2.1201511817954097,
                -0.8286354101614939,
                -0.21304212013509255,
                -0.0008672921631287245,
                0.8445753792516378,
                -2.029645602347116
            ]
        },
        {
            "positions": [
                -2.030685197541394,
                -0.8397157531444113,
                -0.281705615258744,
                -0.029272348231042827,
                0.9092261065749707,
                -1.9054359904518738
            ]
        },
        {
            "positions": [
                -1.9412192132873785,
                -0.8507960961273286,
                -0.35036911038239543,
                -0.05767740429895696,
                0.9738768338983036,
                -1.7812263785566314
            ]
        },
        {
            "positions": [
                -1.851753229033363,
                -0.861876439110246,
                -0.4190326055060469,
                -0.08608246036687106,
                1.0385275612216365,
                -1.657016766661389
            ]
        },
        {
            "positions": [
                -1.7622872447793472,
                -0.8729567820931634,
                -0.4876961006296984,
                -0.11448751643478522,
                1.1031782885449695,
                -1.5328071547661466
            ]
        },
        {
            "positions": [
                -1.6728212605253319,
                -0.8840371250760808,
                -0.5563595957533498,
                -0.14289257250269932,
                1.1678290158683022,
                -1.408597542870904
            ]
        },
        {
            "positions": [
                -1.5833552762713163,
                -0.8951174680589982,
                -0.6250230908770011,
                -0.17129762857061342,
                1.232479743191635,
                -1.2843879309756618
            ]
        },
        {
            "positions": [
                -1.4938892920173006,
                -0.9061978110419157,
                -0.6936865860006529,
                -0.19970268463852758,
                1.2971304705149682,
                -1.1601783190804191
            ]
        },
        {
            "positions": [
                -1.404423307763285,
                -0.917278154024833,
                -0.7623500811243042,
                -0.2281077407064417,
                1.361781197838301,
                -1.0359687071851769
            ]
        },
        {
            "positions": [
                -1.3149573235092695,
                -0.9283584970077504,
                -0.8310135762479558,
                -0.2565127967743558,
                1.426431925161634,
                -0.9117590952899346
            ]
        },
        {
            "positions": [
                -1.225491339255254,
                -0.9394388399906678,
                -0.8996770713716071,
                -0.2849178528422699,
                1.4910826524849667,
                -0.7875494833946921
            ]
        },
        {
            "positions": [
                -1.1360253550012382,
                -0.9505191829735853,
                -0.9683405664952587,
                -0.31332290891018405,
                1.5557333798082997,
                -0.6633398714994496
            ]
        },
        {
            "positions": [
                -1.0465593707472227,
                -0.9615995259565027,
                -1.0370040616189102,
                -0.34172796497809815,
                1.6203841071316327,
                -0.5391302596042071
            ]
        },
        {
            "positions": [
                -0.9570933864932072,
                -0.97267986893942,
                -1.1056675567425616,
                -0.37013302104601226,
                1.6850348344549655,
                -0.4149206477089651
            ]
        },
        {
            "positions": [
                -0.8676274022391917,
                -0.9837602119223374,
                -1.174331051866213,
                -0.39853807711392636,
                1.7496855617782983,
                -0.2907110358137226
            ]
        },
        {
            "positions": [
                -0.7781614179851759,
                -0.9948405549052548,
                -1.2429945469898647,
                -0.4269431331818406,
                1.8143362891016315,
                -0.1665014239184801
            ]
        },
        {
            "positions": [
                -0.6886954337311604,
                -1.0059208978881722,
                -1.311658042113516,
                -0.4553481892497546,
                1.8789870164249642,
                -0.04229181202323762
            ]
        },
        {
            "positions": [
                -0.6416902112450914,
                -1.0830310822654292,
                -1.35169757193694,
                -0.33196895396918774,
                1.7779768600526933,
                -0.04093945165000636
            ]
        },
        {
            "positions": [
                -0.5946849887590224,
                -1.1601412666426862,
                -1.391737101760364,
                -0.2085897186886209,
                1.676966703680422,
                -0.03958709127677511
            ]
        },
        {
            "positions": [
                -0.5476797662729536,
                -1.2372514510199433,
                -1.4317766315837879,
                -0.08521048340805404,
                1.575956547308151,
                -0.038234730903543845
            ]
        },
        {
            "positions": [
                -0.5006745437868846,
                -1.3143616353972003,
                -1.4718161614072118,
                0.03816875187251284,
                1.47494639093588,
                -0.03688237053031259
            ]
        },
        {
            "positions": [
                -0.4536693213008156,
                -1.3914718197744573,
                -1.5118556912306358,
                0.16154798715307972,
                1.373936234563609,
                -0.035530010157081335
            ]
        },
        {
            "positions": [
                -0.4066640988147467,
                -1.4685820041517146,
                -1.5518952210540597,
                0.28492722243364654,
                1.2729260781913379,
                -0.03417764978385007
            ]
        },
        {
            "positions": [
                -0.35965887632867777,
                -1.5456921885289714,
                -1.591934750877484,
                0.4083064577142135,
                1.1719159218190667,
                -0.03282528941061882
            ]
        },
        {
            "positions": [
                -0.3126536538426088,
                -1.6228023729062286,
                -1.6319742807009079,
                0.5316856929947803,
                1.0709057654467957,
                -0.03147292903738756
            ]
        },
        {
            "positions": [
                -0.2656484313565398,
                -1.6999125572834854,
                -1.6720138105243318,
                0.6550649282753471,
                0.9698956090745247,
                -0.030120568664156307
            ]
        },
        {
            "positions": [
                -0.2186432088704709,
                -1.7770227416607427,
                -1.7120533403477558,
                0.7784441635559141,
                0.8688854527022536,
                -0.028768208290925048
            ]
        },
        {
            "positions": [
                -0.17163798638440197,
                -1.8541329260379995,
                -1.7520928701711798,
                0.901823398836481,
                0.7678752963299826,
                -0.02741584791769379
            ]
        },
        {
            "positions": [
                -0.124632763898333,
                -1.9312431104152568,
                -1.7921323999946037,
                1.0252026341170477,
                0.6668651399577115,
                -0.026063487544462534
            ]
        },
        {
            "positions": [
                -0.07762754141226402,
                -2.0083532947925136,
                -1.8321719298180277,
                1.1485818693976146,
                0.5658549835854403,
                -0.02471112717123128
            ]
        },
        {
            "positions": [
                -0.030622318926195158,
                -2.085463479169771,
                -1.8722114596414516,
                1.2719611046781816,
                0.46484482721316933,
                -0.02335876679800002
            ]
        },
        {
            "positions": [
                0.016382903559873818,
                -2.162573663547028,
                -1.9122509894648756,
                1.3953403399587483,
                0.3638346708408984,
                -0.02200640642476876
            ]
        },
        {
            "positions": [
                0.06338812604594285,
                -2.239683847924285,
                -1.9522905192882996,
                1.5187195752393152,
                0.2628245144686272,
                -0.020654046051537506
            ]
        },
        {
            "positions": [
                -0.019804237929047522,
                -2.2543459362100373,
                -2.0934153480108666,
                1.5227623786249938,
                0.23795324847215796,
                -0.02118821348925788
            ]
        },
        {
            "positions": [
                -0.1029966019040379,
                -2.2690080244957898,
                -2.234540176733433,
                1.526805182010672,
                0.21308198247568874,
                -0.021722380926978254
            ]
        },
        {
            "positions": [
                -0.18618896587902828,
                -2.283670112781542,
                -2.3756650054560002,
                1.5308479853963506,
                0.1882107164792195,
                -0.02225654836469863
            ]
        }
    ]
}