{
    "goal": {
        "global_pose": {
            "orientation": {
                "w": 0.7031023502349854,
                "x": -0.7110244035720825,
                "y": 0.007748599164187908,
                "z": 0.005598929710686207
            },
            "position": {
                "x": 0.11585023208521307,
                "y": 0.44412534475326537,
                "z": 0.3711530566215515
            }
        },
        "name": "move_to_auspresseinheit_A"
    },
    "id": "SPARS_move_to_auspresseinheit_A_102",
    "joint_names": [
        "shoulder_pan_joint",
        "shoulder_lift_joint",
        "elbow_joint",
        "wrist_1_joint",
        "wrist_2_joint",
        "wrist_3_joint"
    ],
    "metrics": {
        "cart_traj_len": 0.6769467202697008,
        "distance_elbow_joint": 0.2688923454289096,
        "distance_shoulder_lift_joint": 0.9772224765893016,
        "distance_shoulder_pan_joint": 1.0471716130153101,
        "distance_wrist_1_joint": 0.5761985015453077,
        "distance_wrist_2_joint": 0.539367028710215,
        "distance_wrist_3_joint": 0.15801551840195627,
        "smoothness": 1.0299218732385027,
        "time": 5.053907099,
        "traj_len": 1.888615229127151,
        "weighted_distance": 2.2357245024265477
    },
    "planner": "SPARS",
    "start": {
        "state": {
            "elbow_joint": 2.4225746658250005,
            "shoulder_lift_joint": -1.3736534386056498,
            "shoulder_pan_joint": -0.3378633547517467,
            "wrist_1_joint": -1.0288598680537169,
            "wrist_2_joint": 1.233022673432363,
            "wrist_3_joint": -3.0940220416140027
        }
    },
    "waypoints": [
        {
            "positions": [
                -0.3378633547517467,
                -1.3736534386056498,
                2.4225746658250005,
                -1.0288598680537169,
                1.233022673432363,
                -3.0940220416140027
            ]
        },
        {
            "positions": [
                -0.2346781084788535,
                -1.481471443643988,
                2.43947125808708,
                -0.9615495271493941,
                1.157902541836303,
                -3.108502221467207
            ]
        },
        {
            "positions": [
                -0.13149286220596032,
                -1.589289448682326,
                2.4563678503491593,
                -0.8942391862450714,
                1.0827824102402426,
                -3.122982401320411
            ]
        },
        {
            "positions": [
                -0.028307615933067132,
                -1.697107453720664,
                2.4732644426112387,
                -0.8269288453407486,
                1.0076622786441825,
                -3.137462581173615
            ]
        },
        {
            "positions": [
                0.07487763033982608,
                -1.804925458759002,
                2.4901610348733185,
                -0.7596185044364259,
                0.9325421470481221,
                -3.15194276102682
            ]
        },
        {
            "positions": [
                0.1780628766127193,
                -1.9127434637973402,
                2.507057627135398,
                -0.6923081635321031,
                0.857422015452062,
                -3.166422940880024
            ]
        },
        {
            "positions": [
                0.28124812288561246,
                -2.020561468835678,
                2.5239542193974773,
                -0.6249978226277804,
                0.7823018838560017,
                -3.180903120733228
            ]
        },
        {
            "positions": [
                0.3844333691585057,
                -2.1283794738740163,
                2.5408508116595567,
                -0.5576874817234576,
                0.7071817522599415,
                -3.1953833005864323
            ]
        },
        {
            "positions": [
                0.4927249988601916,
                -2.0542139934337045,
                2.4906454117947723,
                -0.5226787766517748,
                0.7116904547725393,
                -3.1764985474432565
            ]
        },
        {
            "positions": [
                0.6010166285618775,
                -1.980048512993393,
                2.440440011929988,
                -0.487670071580092,
                0.7161991572851372,
                -3.1576137943000813
            ]
        },
        {
            "positions": [
                0.7093082582635635,
                -1.9058830325530811,
                2.3902346120652034,
                -0.45266136650840916,
                0.720707859797735,
                -3.1387290411569055
            ]
        }
    ]
}