{
    "goal": {
        "global_pose": {
            "orientation": {
                "w": 0.7047431468963623,
                "x": -0.7094548344612122,
                "y": 0.0024358443915843964,
                "z": -0.0022348060738295317
            },
            "position": {
                "x": 0.6094750761985779,
                "y": 0.3671506643295288,
                "z": 0.19426114857196808
            }
        },
        "name": "move_to_magneteinheit_A"
    },
    "id": "SPARS_move_to_magneteinheit_A_85",
    "joint_names": [
        "shoulder_pan_joint",
        "shoulder_lift_joint",
        "elbow_joint",
        "wrist_1_joint",
        "wrist_2_joint",
        "wrist_3_joint"
    ],
    "metrics": {
        "cart_traj_len": 3.6825342380218595,
        "distance_elbow_joint": 3.8744885739363655,
        "distance_shoulder_lift_joint": 0.420949674986393,
        "distance_shoulder_pan_joint": 3.7902343238687055,
        "distance_wrist_1_joint": 0.8385581679297311,
        "distance_wrist_2_joint": 1.6945176034224156,
        "distance_wrist_3_joint": 3.6979698657249873,
        "smoothness": 0.1135771148153069,
        "time": 5.0433123669999995,
        "traj_len": 3.7837439408433284,
        "weighted_distance": 4.923995705996375
    },
    "planner": "SPARS",
    "start": {
        "state": {
            "elbow_joint": -1.9196185241190666,
            "shoulder_lift_joint": -1.2443396400964142,
            "shoulder_pan_joint": 2.6996025414629847,
            "wrist_1_joint": -1.5485510000780065,
            "wrist_2_joint": -1.5709468930060704,
            "wrist_3_joint": 0.4420197071253992
        }
    },
    "waypoints": [
        {
            "positions": [
                2.6996025414629847,
                -1.2443396400964142,
                -1.9196185241190666,
                -1.5485510000780065,
                -1.5709468930060704,
                0.4420197071253992
            ]
        },
        {
            "positions": [
                2.566952127942497,
                -1.2507087061951683,
                -1.8147437723976036,
                -1.541825731364299,
                -1.5257554565864189,
                0.3473905663681752
            ]
        },
        {
            "positions": [
                2.434301714422009,
                -1.2570777722939224,
                -1.7098690206761409,
                -1.5351004626505913,
                -1.4805640201667671,
                0.2527614256109513
            ]
        },
        {
            "positions": [
                2.3016513009015216,
                -1.2634468383926767,
                -1.6049942689546781,
                -1.528375193936884,
                -1.4353725837471156,
                0.15813228485372732
            ]
        },
        {
            "positions": [
                2.1690008873810336,
                -1.2698159044914308,
                -1.5001195172332151,
                -1.5216499252231763,
                -1.3901811473274641,
                0.06350314409650337
            ]
        },
        {
            "positions": [
                2.036350473860546,
                -1.2761849705901849,
                -1.3952447655117521,
                -1.5149246565094687,
                -1.3449897109078126,
                -0.03112599666072058
            ]
        },
        {
            "positions": [
                1.903700060340058,
                -1.282554036688939,
                -1.2903700137902894,
                -1.5081993877957611,
                -1.299798274488161,
                -0.12575513741794453
            ]
        },
        {
            "positions": [
                1.7710496468195704,
                -1.288923102787693,
                -1.1854952620688266,
                -1.5014741190820535,
                -1.2546068380685094,
                -0.22038427817516848
            ]
        },
        {
            "positions": [
                1.6383992332990827,
                -1.2952921688864472,
                -1.0806205103473636,
                -1.4947488503683461,
                -1.2094154016488579,
                -0.31501341893239243
            ]
        },
        {
            "positions": [
                1.5057488197785949,
                -1.3016612349852013,
                -0.9757457586259007,
                -1.4880235816546385,
                -1.1642239652292063,
                -0.4096425596896164
            ]
        },
        {
            "positions": [
                1.373098406258107,
                -1.3080303010839556,
                -0.8708710069044379,
                -1.481298312940931,
                -1.1190325288095546,
                -0.5042717004468403
            ]
        },
        {
            "positions": [
                1.2404479927376193,
                -1.3143993671827097,
                -0.7659962551829751,
                -1.4745730442272234,
                -1.073841092389903,
                -0.5989008412040643
            ]
        },
        {
            "positions": [
                1.1077975792171315,
                -1.3207684332814638,
                -0.6611215034615121,
                -1.467847775513516,
                -1.0286496559702516,
                -0.6935299819612882
            ]
        },
        {
            "positions": [
                0.975147165696644,
                -1.3271374993802179,
                -0.5562467517400493,
                -1.4611225067998084,
                -0.9834582195506001,
                -0.7881591227185122
            ]
        },
        {
            "positions": [
                0.8424967521761559,
                -1.333506565478972,
                -0.45137200001858635,
                -1.4543972380861008,
                -0.9382667831309485,
                -0.8827882634757361
            ]
        },
        {
            "positions": [
                0.7098463386556682,
                -1.3398756315777263,
                -0.3464972482971236,
                -1.4476719693723932,
                -0.8930753467112968,
                -0.9774174042329601
            ]
        },
        {
            "positions": [
                0.5771959251351806,
                -1.3462446976764804,
                -0.2416224965756606,
                -1.4409467006586856,
                -0.8478839102916453,
                -1.072046544990184
            ]
        },
        {
            "positions": [
                0.4445455116146926,
                -1.3526137637752345,
                -0.1367477448541976,
                -1.434221431944978,
                -0.8026924738719937,
                -1.1666756857474079
            ]
        },
        {
            "positions": [
                0.311895098094205,
                -1.3589828298739886,
                -0.03187299313273484,
                -1.4274961632312706,
                -0.7575010374523422,
                -1.2613048265046318
            ]
        },
        {
            "positions": [
                0.17924468457371745,
                -1.3653518959727426,
                0.07300175858872793,
                -1.420770894517563,
                -0.7123096010326907,
                -1.3559339672618558
            ]
        },
        {
            "positions": [
                0.04659427105322944,
                -1.3717209620714967,
                0.17787651031019092,
                -1.4140456258038554,
                -0.6671181646130391,
                -1.4505631080190797
            ]
        },
        {
            "positions": [
                -0.08605614246725857,
                -1.3780900281702508,
                0.2827512620316539,
                -1.4073203570901478,
                -0.6219267281933876,
                -1.5451922487763037
            ]
        },
        {
            "positions": [
                -0.21870655598774613,
                -1.3844590942690052,
                0.38762601375311645,
                -1.4005950883764404,
                -0.576735291773736,
                -1.6398213895335276
            ]
        },
        {
            "positions": [
                -0.35135696950823414,
                -1.3908281603677592,
                0.49250076547457944,
                -1.3938698196627328,
                -0.5315438553540843,
                -1.7344505302907516
            ]
        },
        {
            "positions": [
                -0.4840073830287216,
                -1.3971972264665133,
                0.5973755171960424,
                -1.3871445509490252,
                -0.48635241893443276,
                -1.8290796710479758
            ]
        },
        {
            "positions": [
                -0.43893665202678034,
                -1.3772756680020122,
                0.6992795355536824,
                -1.336188918755092,
                -0.4406934400093484,
                -1.93629658402145
            ]
        },
        {
            "positions": [
                -0.39386592102483914,
                -1.3573541095375108,
                0.8011835539113225,
                -1.2852332865611586,
                -0.395034461084264,
                -2.0435134969949242
            ]
        },
        {
            "positions": [
                -0.3487951900228979,
                -1.3374325510730096,
                0.9030875722689624,
                -1.2342776543672254,
                -0.3493754821591796,
                -2.1507304099683986
            ]
        },
        {
            "positions": [
                -0.3037244590209567,
                -1.3175109926085082,
                1.0049915906266025,
                -1.183322022173292,
                -0.30371650323409527,
                -2.257947322941873
            ]
        },
        {
            "positions": [
                -0.2586537280190154,
                -1.297589434144007,
                1.1068956089842423,
                -1.1323663899793588,
                -0.25805752430901086,
                -2.3651642359153473
            ]
        },
        {
            "positions": [
                -0.21358299701707417,
                -1.277667875679506,
                1.2087996273418824,
                -1.0814107577854255,
                -0.21239854538392644,
                -2.4723811488888217
            ]
        },
        {
            "positions": [
                -0.16851226601513303,
                -1.2577463172150045,
                1.3107036456995225,
                -1.0304551255914922,
                -0.16673956645884214,
                -2.579598061862296
            ]
        },
        {
            "positions": [
                -0.12344153501319172,
                -1.2378247587505034,
                1.4126076640571625,
                -0.979499493397559,
                -0.12108058753375772,
                -2.6868149748357704
            ]
        },
        {
            "positions": [
                -0.07837080401125052,
                -1.2179032002860022,
                1.5145116824148024,
                -0.9285438612036259,
                -0.07542160860867336,
                -2.7940318878092447
            ]
        },
        {
            "positions": [
                -0.03330007300930926,
                -1.1979816418215008,
                1.6164157007724425,
                -0.8775882290096925,
                -0.029762629683588948,
                -2.901248800782719
            ]
        },
        {
            "positions": [
                0.011770657992631939,
                -1.1780600833569996,
                1.7183197191300825,
                -0.8266325968157593,
                0.015896349241495467,
                -3.0084657137561934
            ]
        },
        {
            "positions": [
                0.05684138899457325,
                -1.1581385248924982,
                1.8202237374877226,
                -0.775676964621826,
                0.06155532816657988,
                -3.115682626729668
            ]
        },
        {
            "positions": [
                0.10191211999651441,
                -1.138216966427997,
                1.9221277558453624,
                -0.7247213324278927,
                0.10721430709166417,
                -3.222899539703142
            ]
        },
        {
            "positions": [
                0.12261701634827865,
                -1.1291051378502195,
                1.9548700498172982,
                -0.7099928321482754,
                0.12357071041634538,
                -3.255950158599588
            ]
        }
    ]
}