{
    "goal": {
        "global_pose": {
            "orientation": {
                "w": 0.005598929693374612,
                "x": 0.007748599140229565,
                "y": 0.7110244013736278,
                "z": -0.7031023480610252
            },
            "position": {
                "x": -0.8858502320852131,
                "y": -0.7141253447532654,
                "z": 0.3711530566215515
            }
        },
        "name": "move_to_auspresseinheit_C"
    },
    "id": "SPARStwo_move_to_auspresseinheit_C_16",
    "joint_names": [
        "shoulder_pan_joint",
        "shoulder_lift_joint",
        "elbow_joint",
        "wrist_1_joint",
        "wrist_2_joint",
        "wrist_3_joint"
    ],
    "metrics": {
        "cart_traj_len": 0.4939387148829213,
        "distance_elbow_joint": 1.0082350564609208,
        "distance_shoulder_lift_joint": 0.3286074021648966,
        "distance_shoulder_pan_joint": 0.2574100858103985,
        "distance_wrist_1_joint": 0.7025238397239808,
        "distance_wrist_2_joint": 1.3002409073985228,
        "distance_wrist_3_joint": 0.07070096904179257,
        "smoothness": 0.0,
        "time": 5.010792051,
        "traj_len": 1.915128784338148,
        "weighted_distance": 2.4107851305760537
    },
    "planner": "SPARStwo",
    "start": {
        "state": {
            "elbow_joint": 1.7527959577737207,
            "shoulder_lift_joint": -0.9740617694225068,
            "shoulder_pan_joint": -2.967991417825858,
            "wrist_1_joint": -0.759517768980727,
            "wrist_2_joint": 1.7443932448377408,
            "wrist_3_joint": -3.0840537646736568
        }
    },
    "waypoints": [
        {
            "positions": [
                -2.967991417825858,
                -0.9740617694225068,
                1.7527959577737207,
                -0.759517768980727,
                1.7443932448377408,
                -3.0840537646736568
            ]
        },
        {
            "positions": [
                -2.942250409244818,
                -0.9412010292060171,
                1.6519724521276287,
                -0.6892653850083289,
                1.6143691540978886,
                -3.0911238615778363
            ]
        },
        {
            "positions": [
                -2.916509400663778,
                -0.9083402889895275,
                1.5511489464815365,
                -0.6190130010359308,
                1.4843450633580362,
                -3.0981939584820153
            ]
        },
        {
            "positions": [
                -2.8907683920827383,
                -0.8754795487730378,
                1.4503254408354445,
                -0.5487606170635327,
                1.354320972618184,
                -3.1052640553861943
            ]
        },
        {
            "positions": [
                -2.8650273835016984,
                -0.8426188085565481,
                1.3495019351893522,
                -0.47850823309113466,
                1.2242968818783315,
                -3.112334152290374
            ]
        },
        {
            "positions": [
                -2.8392863749206585,
                -0.8097580683400585,
                1.2486784295432602,
                -0.4082558491187366,
                1.0942727911384793,
                -3.1194042491945533
            ]
        },
        {
            "positions": [
                -2.813545366339619,
                -0.7768973281235688,
                1.1478549238971683,
                -0.3380034651463385,
                0.9642487003986272,
                -3.1264743460987323
            ]
        },
        {
            "positions": [
                -2.787804357758579,
                -0.7440365879070792,
                1.047031418251076,
                -0.2677510811739405,
                0.8342246096587749,
                -3.1335444430029114
            ]
        },
        {
            "positions": [
                -2.7620633491775393,
                -0.7111758476905895,
                0.9462079126049839,
                -0.19749869720154234,
                0.7042005189189224,
                -3.140614539907091
            ]
        },
        {
            "positions": [
                -2.7363223405964994,
                -0.6783151074740998,
                0.8453844069588919,
                -0.12724631322914426,
                0.5741764281790702,
                -3.1476846368112703
            ]
        },
        {
            "positions": [
                -2.7105813320154595,
                -0.6454543672576102,
                0.7445609013127998,
                -0.05699392925674618,
                0.44415233743921795,
                -3.1547547337154493
            ]
        }
    ]
}