{
    "goal": {
        "global_pose": {
            "orientation": {
                "w": 0.7047431493862688,
                "x": -0.7094548369677653,
                "y": 0.0024358444001904,
                "z": -0.0022348060817251984
            },
            "position": {
                "x": -0.39052492380142206,
                "y": 0.3671506643295288,
                "z": 0.19426114857196808
            }
        },
        "name": "move_to_magneteinheit_D"
    },
    "id": "SPARS_move_to_magneteinheit_D_67",
    "joint_names": [
        "shoulder_pan_joint",
        "shoulder_lift_joint",
        "elbow_joint",
        "wrist_1_joint",
        "wrist_2_joint",
        "wrist_3_joint"
    ],
    "metrics": {
        "cart_traj_len": 4.0395487653085205,
        "distance_elbow_joint": 3.5200525544855683,
        "distance_shoulder_lift_joint": 1.7432034479094576,
        "distance_shoulder_pan_joint": 2.8238344313373727,
        "distance_wrist_1_joint": 5.105190117823474,
        "distance_wrist_2_joint": 2.522554568320227,
        "distance_wrist_3_joint": 4.538939212704247,
        "smoothness": 0.2582139853842781,
        "time": 5.043934318,
        "traj_len": 4.500419350747255,
        "weighted_distance": 6.079424104644495
    },
    "planner": "SPARS",
    "start": {
        "state": {
            "elbow_joint": 0.749534889911806,
            "shoulder_lift_joint": -0.6476975780787326,
            "shoulder_pan_joint": -2.711696901376241,
            "wrist_1_joint": -0.07506478083263063,
            "wrist_2_joint": 0.43296659715538205,
            "wrist_3_joint": -3.14703540197715
        }
    },
    "waypoints": [
        {
            "positions": [
                -2.711696901376241,
                -0.6476975780787326,
                0.749534889911806,
                -0.07506478083263063,
                0.43296659715538205,
                -3.14703540197715
            ]
        },
        {
            "positions": [
                -2.7229641911481863,
                -0.643335890678413,
                0.7293220429082439,
                -0.19734294078332887,
                0.3405308124681008,
                -3.005641277290264
            ]
        },
        {
            "positions": [
                -2.734231480920132,
                -0.6389742032780934,
                0.7091091959046819,
                -0.31962110073402705,
                0.24809502778081957,
                -2.8642471526033777
            ]
        },
        {
            "positions": [
                -2.7454987706920773,
                -0.6346125158777738,
                0.6888963489011198,
                -0.4418992606847253,
                0.15565924309353835,
                -2.7228530279164915
            ]
        },
        {
            "positions": [
                -2.756766060464023,
                -0.6302508284774542,
                0.6686835018975578,
                -0.5641774206354235,
                0.0632234584062571,
                -2.5814589032296054
            ]
        },
        {
            "positions": [
                -2.768033350235968,
                -0.6258891410771344,
                0.6484706548939958,
                -0.6864555805861219,
                -0.029212326281024215,
                -2.4400647785427187
            ]
        },
        {
            "positions": [
                -2.779300640007914,
                -0.6215274536768148,
                0.6282578078904337,
                -0.80873374053682,
                -0.12164811096830536,
                -2.298670653855833
            ]
        },
        {
            "positions": [
                -2.790567929779859,
                -0.6171657662764952,
                0.6080449608868717,
                -0.9310119004875181,
                -0.21408389565558666,
                -2.1572765291689464
            ]
        },
        {
            "positions": [
                -2.801835219551805,
                -0.6128040788761756,
                0.5878321138833097,
                -1.0532900604382165,
                -0.30651968034286786,
                -2.0158824044820607
            ]
        },
        {
            "positions": [
                -2.81310250932375,
                -0.608442391475856,
                0.5676192668797476,
                -1.1755682203889146,
                -0.3989554650301492,
                -1.874488279795174
            ]
        },
        {
            "positions": [
                -2.8159048748782958,
                -0.605547169949866,
                0.5408142298203156,
                -1.2885469233711735,
                -0.4847295610385597,
                -1.7413750796163563
            ]
        },
        {
            "positions": [
                -2.8187072404328415,
                -0.602651948423876,
                0.5140091927608834,
                -1.4015256263534324,
                -0.5705036570469701,
                -1.6082618794375385
            ]
        },
        {
            "positions": [
                -2.821509605987387,
                -0.5997567268978861,
                0.48720415570145137,
                -1.5145043293356912,
                -0.6562777530553807,
                -1.4751486792587205
            ]
        },
        {
            "positions": [
                -2.824311971541933,
                -0.596861505371896,
                0.4603991186420193,
                -1.6274830323179499,
                -0.7420518490637912,
                -1.3420354790799027
            ]
        },
        {
            "positions": [
                -2.8271143370964786,
                -0.593966283845906,
                0.43359408158258717,
                -1.740461735300209,
                -0.8278259450722018,
                -1.2089222789010847
            ]
        },
        {
            "positions": [
                -2.8299167026510244,
                -0.591071062319916,
                0.4067890445231551,
                -1.8534404382824676,
                -0.9136000410806122,
                -1.075809078722267
            ]
        },
        {
            "positions": [
                -2.7115042751834126,
                -0.6254270470783545,
                0.26208641737290905,
                -1.817351473626769,
                -0.9017522656626039,
                -1.0491786834264563
            ]
        },
        {
            "positions": [
                -2.5930918477158014,
                -0.659783031836793,
                0.11738379022266299,
                -1.7812625089710703,
                -0.8899044902445955,
                -1.0225482881306456
            ]
        },
        {
            "positions": [
                -2.4746794202481897,
                -0.6941390165952314,
                -0.02731883692758308,
                -1.7451735443153717,
                -0.8780567148265872,
                -0.9959178928348349
            ]
        },
        {
            "positions": [
                -2.3562669927805784,
                -0.7284950013536698,
                -0.17202146407782914,
                -1.709084579659673,
                -0.8662089394085789,
                -0.9692874975390242
            ]
        },
        {
            "positions": [
                -2.2378545653129667,
                -0.7628509861121082,
                -0.3167240912280752,
                -1.6729956150039744,
                -0.8543611639905705,
                -0.9426571022432136
            ]
        },
        {
            "positions": [
                -2.119442137845355,
                -0.7972069708705467,
                -0.4614267183783213,
                -1.6369066503482756,
                -0.8425133885725622,
                -0.916026706947403
            ]
        },
        {
            "positions": [
                -2.0010297103777437,
                -0.8315629556289852,
                -0.6061293455285673,
                -1.600817685692577,
                -0.8306656131545539,
                -0.8893963116515923
            ]
        },
        {
            "positions": [
                -1.882617282910132,
                -0.8659189403874237,
                -0.7508319726788134,
                -1.5647287210368783,
                -0.8188178377365455,
                -0.8627659163557816
            ]
        },
        {
            "positions": [
                -1.7642048554425205,
                -0.9002749251458622,
                -0.8955345998290595,
                -1.5286397563811798,
                -0.8069700623185372,
                -0.8361355210599709
            ]
        },
        {
            "positions": [
                -1.645792427974909,
                -0.9346309099043005,
                -1.0402372269793054,
                -1.4925507917254812,
                -0.7951222869005289,
                -0.8095051257641603
            ]
        },
        {
            "positions": [
                -1.5273800005072975,
                -0.968986894662739,
                -1.1849398541295515,
                -1.4564618270697824,
                -0.7832745114825206,
                -0.7828747304683497
            ]
        },
        {
            "positions": [
                -1.4089675730396858,
                -1.0033428794211776,
                -1.3296424812797976,
                -1.4203728624140837,
                -0.7714267360645122,
                -0.756244335172539
            ]
        },
        {
            "positions": [
                -1.2905551455720743,
                -1.0376988641796159,
                -1.4743451084300436,
                -1.3842838977583851,
                -0.7595789606465038,
                -0.7296139398767283
            ]
        },
        {
            "positions": [
                -1.1721427181044628,
                -1.0720548489380544,
                -1.6190477355802897,
                -1.3481949331026866,
                -0.7477311852284955,
                -0.7029835445809176
            ]
        },
        {
            "positions": [
                -1.0537302906368513,
                -1.1064108336964928,
                -1.763750362730536,
                -1.3121059684469878,
                -0.7358834098104872,
                -0.6763531492851069
            ]
        },
        {
            "positions": [
                -0.9893155644048476,
                -1.143181402357749,
                -1.8504272096738168,
                -1.214556980362502,
                -0.6803447459658518,
                -0.722421153815197
            ]
        },
        {
            "positions": [
                -0.9249008381728439,
                -1.179951971019005,
                -1.9371040566170976,
                -1.1170079922780163,
                -0.6248060821212165,
                -0.7684891583452871
            ]
        },
        {
            "positions": [
                -0.8604861119408402,
                -1.2167225396802612,
                -2.0237809035603784,
                -1.0194590041935303,
                -0.5692674182765811,
                -0.814557162875377
            ]
        },
        {
            "positions": [
                -0.7960713857088364,
                -1.2534931083415173,
                -2.1104577505036595,
                -0.9219100161090445,
                -0.5137287544319459,
                -0.8606251674054671
            ]
        },
        {
            "positions": [
                -0.7316566594768328,
                -1.2902636770027733,
                -2.19713459744694,
                -0.8243610280245588,
                -0.4581900905873105,
                -0.9066931719355572
            ]
        },
        {
            "positions": [
                -0.667241933244829,
                -1.3270342456640294,
                -2.2838114443902207,
                -0.726812039940073,
                -0.4026514267426752,
                -0.9527611764656472
            ]
        },
        {
            "positions": [
                -0.6028272070128253,
                -1.3638048143252854,
                -2.3704882913335017,
                -0.6292630518555872,
                -0.34711276289803983,
                -0.9988291809957373
            ]
        },
        {
            "positions": [
                -0.5384124807808216,
                -1.4005753829865417,
                -2.4571651382767827,
                -0.5317140637711014,
                -0.29157409905340453,
                -1.0448971855258273
            ]
        },
        {
            "positions": [
                -0.4739977545488178,
                -1.4373459516477978,
                -2.5438419852200633,
                -0.43416507568661555,
                -0.23603543520876918,
                -1.0909651900559174
            ]
        },
        {
            "positions": [
                -0.48428296734043014,
                -1.4702436990645815,
                -2.555968063882287,
                -0.31214251719840136,
                -0.16244718017213042,
                -1.1772334018687516
            ]
        },
        {
            "positions": [
                -0.4945681801320425,
                -1.5031414464813655,
                -2.5680941425445107,
                -0.19011995871018716,
                -0.08885892513549165,
                -1.2635016136815855
            ]
        },
        {
            "positions": [
                -0.5048533929236548,
                -1.5360391938981492,
                -2.5802202212067344,
                -0.06809740022197298,
                -0.015270670098852891,
                -1.3497698254944197
            ]
        },
        {
            "positions": [
                -0.4913416304204436,
                -1.5974433947672169,
                -2.5733660064419657,
                0.08566702963281934,
                0.0328591977792129,
                -1.3060228134517706
            ]
        },
        {
            "positions": [
                -0.47782986791723236,
                -1.6588475956362843,
                -2.5665117916771973,
                0.2394314594876117,
                0.0809890656572787,
                -1.2622758014091213
            ]
        },
        {
            "positions": [
                -0.4643181054140211,
                -1.7202517965053519,
                -2.5596575769124286,
                0.3931958893424039,
                0.12911893353534448,
                -1.2185287893664722
            ]
        },
        {
            "positions": [
                -0.45080634291080984,
                -1.7816559973744193,
                -2.5528033621476602,
                0.5469603191971963,
                0.1772488014134103,
                -1.174781777323823
            ]
        },
        {
            "positions": [
                -0.4372945804075986,
                -1.8430601982434869,
                -2.5459491473828915,
                0.7007247490519886,
                0.22537866929147607,
                -1.1310347652811739
            ]
        },
        {
            "positions": [
                -0.4058844265239122,
                -1.8973836727718707,
                -2.5264458511899934,
                0.7973059081818856,
                0.22075251682745836,
                -0.9840216123324681
            ]
        },
        {
            "positions": [
                -0.37447427264022576,
                -1.9517071473002545,
                -2.506942554997095,
                0.8938870673117827,
                0.21612636436344065,
                -0.8370084593837623
            ]
        },
        {
            "positions": [
                -0.3430641187565393,
                -2.0060306218286383,
                -2.487439258804197,
                0.9904682264416796,
                0.21150021189942295,
                -0.6899953064350566
            ]
        },
        {
            "positions": [
                -0.3116539648728529,
                -2.060354096357022,
                -2.467935962611299,
                1.0870493855715768,
                0.20687405943540527,
                -0.5429821534863508
            ]
        },
        {
            "positions": [
                -0.2802438109891665,
                -2.1146775708854055,
                -2.448432666418401,
                1.1836305447014737,
                0.20224790697138756,
                -0.39596900053764506
            ]
        },
        {
            "positions": [
                -0.24883365710548006,
                -2.1690010454137894,
                -2.428929370225503,
                1.2802117038313707,
                0.19762175450736985,
                -0.2489558475889393
            ]
        },
        {
            "positions": [
                -0.21742350322179363,
                -2.223324519942173,
                -2.4094260740326043,
                1.3767928629612678,
                0.19299560204335214,
                -0.10194269464023353
            ]
        },
        {
            "positions": [
                -0.18601334933810718,
                -2.277647994470557,
                -2.3899227778397063,
                1.4733740220911649,
                0.18836944957933444,
                0.04507045830847218
            ]
        }
    ]
}