{
    "goal": {
        "global_pose": {
            "orientation": {
                "w": 0.7047431468963623,
                "x": -0.7094548344612122,
                "y": 0.0024358443915843964,
                "z": -0.0022348060738295317
            },
            "position": {
                "x": 0.6094750761985779,
                "y": 0.3671506643295288,
                "z": 0.19426114857196808
            }
        },
        "name": "move_to_magneteinheit_A"
    },
    "id": "SPARS_move_to_magneteinheit_A_130",
    "joint_names": [
        "shoulder_pan_joint",
        "shoulder_lift_joint",
        "elbow_joint",
        "wrist_1_joint",
        "wrist_2_joint",
        "wrist_3_joint"
    ],
    "metrics": {
        "cart_traj_len": 5.217661978542166,
        "distance_elbow_joint": 3.9719710378434576,
        "distance_shoulder_lift_joint": 0.4565500598866993,
        "distance_shoulder_pan_joint": 6.25023601639248,
        "distance_wrist_1_joint": 3.544585059977349,
        "distance_wrist_2_joint": 2.3875084662722594,
        "distance_wrist_3_joint": 3.3425320441563118,
        "smoothness": 0.35176331968653873,
        "time": 5.0689118969999996,
        "traj_len": 4.466920940035603,
        "weighted_distance": 5.707060565570579
    },
    "planner": "SPARS",
    "start": {
        "state": {
            "elbow_joint": -1.9196185241190666,
            "shoulder_lift_joint": -1.2443396400964142,
            "shoulder_pan_joint": 2.6996025414629847,
            "wrist_1_joint": -1.5485510000780065,
            "wrist_2_joint": -1.5709468930060704,
            "wrist_3_joint": 0.4420197071253992
        }
    },
    "waypoints": [
        {
            "positions": [
                2.6996025414629847,
                -1.2443396400964142,
                -1.9196185241190666,
                -1.5485510000780065,
                -1.5709468930060704,
                0.4420197071253992
            ]
        },
        {
            "positions": [
                2.5892621958342263,
                -1.2343654012528489,
                -1.8207645877834437,
                -1.4734767497818475,
                -1.5231496313291346,
                0.3935750261169332
            ]
        },
        {
            "positions": [
                2.4789218502054684,
                -1.2243911624092834,
                -1.721910651447821,
                -1.3984024994856885,
                -1.4753523696521986,
                0.3451303451084672
            ]
        },
        {
            "positions": [
                2.36858150457671,
                -1.214416923565718,
                -1.6230567151121982,
                -1.3233282491895295,
                -1.4275551079752629,
                0.2966856641000012
            ]
        },
        {
            "positions": [
                2.2582411589479516,
                -1.2044426847221525,
                -1.5242027787765753,
                -1.2482539988933705,
                -1.3797578462983269,
                0.24824098309153514
            ]
        },
        {
            "positions": [
                2.1479008133191937,
                -1.1944684458785872,
                -1.4253488424409526,
                -1.1731797485972115,
                -1.331960584621391,
                0.19979630208306914
            ]
        },
        {
            "positions": [
                2.0375604676904358,
                -1.1844942070350217,
                -1.3264949061053297,
                -1.0981054983010528,
                -1.2841633229444551,
                0.15135162107460315
            ]
        },
        {
            "positions": [
                1.9272201220616774,
                -1.1745199681914564,
                -1.2276409697697068,
                -1.0230312480048938,
                -1.2363660612675194,
                0.10290694006613715
            ]
        },
        {
            "positions": [
                1.816879776432919,
                -1.164545729347891,
                -1.128787033434084,
                -0.9479569977087346,
                -1.1885687995905834,
                0.0544622590576711
            ]
        },
        {
            "positions": [
                1.7065394308041608,
                -1.1545714905043256,
                -1.0299330970984613,
                -0.8728827474125758,
                -1.1407715379136476,
                0.006017578049205108
            ]
        },
        {
            "positions": [
                1.5961990851754027,
                -1.14459725166076,
                -0.9310791607628385,
                -0.7978084971164168,
                -1.0929742762367116,
                -0.04242710295926089
            ]
        },
        {
            "positions": [
                1.4858587395466443,
                -1.1346230128171948,
                -0.8322252244272155,
                -0.7227342468202578,
                -1.0451770145597759,
                -0.09087178396772688
            ]
        },
        {
            "positions": [
                1.3755183939178863,
                -1.1246487739736293,
                -0.7333712880915928,
                -0.6476599965240989,
                -0.99737975288284,
                -0.13931646497619288
            ]
        },
        {
            "positions": [
                1.265178048289128,
                -1.114674535130064,
                -0.6345173517559699,
                -0.5725857462279398,
                -0.9495824912059041,
                -0.18776114598465887
            ]
        },
        {
            "positions": [
                1.15483770266037,
                -1.1047002962864987,
                -0.5356634154203472,
                -0.497511495931781,
                -0.9017852295289683,
                -0.23620582699312487
            ]
        },
        {
            "positions": [
                1.0444973570316116,
                -1.0947260574429332,
                -0.43680947908472434,
                -0.4224372456356218,
                -0.8539879678520323,
                -0.284650508001591
            ]
        },
        {
            "positions": [
                0.9341570114028532,
                -1.0847518185993676,
                -0.33795554274910145,
                -0.3473629953394628,
                -0.8061907061750965,
                -0.33309518901005697
            ]
        },
        {
            "positions": [
                0.8238166657740953,
                -1.0747775797558023,
                -0.23910160641347877,
                -0.272288745043304,
                -0.7583934444981607,
                -0.38153987001852296
            ]
        },
        {
            "positions": [
                0.7134763201453369,
                -1.064803340912237,
                -0.14024767007785588,
                -0.19721449474714503,
                -0.7105961828212248,
                -0.42998455102698896
            ]
        },
        {
            "positions": [
                0.603135974516579,
                -1.0548291020686715,
                -0.04139373374223321,
                -0.12214024445098604,
                -0.662798921144289,
                -0.47842923203545495
            ]
        },
        {
            "positions": [
                0.4927956288878206,
                -1.0448548632251062,
                0.057460202593389686,
                -0.04706599415482704,
                -0.6150016594673531,
                -0.526873913043921
            ]
        },
        {
            "positions": [
                0.3824552832590622,
                -1.0348806243815407,
                0.1563141389290128,
                0.028008256141331955,
                -0.5672043977904171,
                -0.575318594052387
            ]
        },
        {
            "positions": [
                0.2721149376303038,
                -1.0249063855379754,
                0.2551680752646357,
                0.10308250643749095,
                -0.5194071361134813,
                -0.6237632750608529
            ]
        },
        {
            "positions": [
                0.1617745920015463,
                -1.01493214669441,
                0.35402201160025815,
                0.17815675673364972,
                -0.47160987443654556,
                -0.6722079560693189
            ]
        },
        {
            "positions": [
                0.05143424637278793,
                -1.0049579078508446,
                0.45287594793588104,
                0.2532310070298087,
                -0.4238126127596096,
                -0.7206526370777849
            ]
        },
        {
            "positions": [
                -0.05890609925597046,
                -0.9949836690072792,
                0.5517298842715039,
                0.3283052573259677,
                -0.3760153510826738,
                -0.7690973180862509
            ]
        },
        {
            "positions": [
                -0.16924644488472884,
                -0.9850094301637138,
                0.6505838206071268,
                0.40337950762212693,
                -0.3282180894057378,
                -0.8175419990947169
            ]
        },
        {
            "positions": [
                -0.2795867905134872,
                -0.9750351913201484,
                0.7494377569427497,
                0.4784537579182857,
                -0.28042082772880184,
                -0.8659866801031831
            ]
        },
        {
            "positions": [
                -0.3899271361422447,
                -0.965060952476583,
                0.8482916932783722,
                0.5535280082144445,
                -0.2326235660518663,
                -0.9144313611116489
            ]
        },
        {
            "positions": [
                -0.5002674817710031,
                -0.9550867136330177,
                0.9471456296139951,
                0.6286022585106037,
                -0.1848263043749303,
                -0.9628760421201149
            ]
        },
        {
            "positions": [
                -0.6106078273997615,
                -0.9451124747894522,
                1.045999565949618,
                0.7036765088067629,
                -0.13702904269799432,
                -1.011320723128581
            ]
        },
        {
            "positions": [
                -0.7209481730285199,
                -0.9351382359458867,
                1.1448535022852409,
                0.7787507591029217,
                -0.08923178102105855,
                -1.059765404137047
            ]
        },
        {
            "positions": [
                -0.8312885186572783,
                -0.9251639971023213,
                1.2437074386208637,
                0.8538250093990809,
                -0.04143451934412257,
                -1.108210085145513
            ]
        },
        {
            "positions": [
                -0.9416288642860358,
                -0.915189758258756,
                1.3425613749564862,
                0.9288992596952397,
                0.006362742332812976,
                -1.156654766153979
            ]
        },
        {
            "positions": [
                -1.0519692099147941,
                -0.9052155194151905,
                1.441415311292109,
                1.0039735099913984,
                0.05416000400974896,
                -1.205099447162445
            ]
        },
        {
            "positions": [
                -1.1623095555435525,
                -0.8952412805716252,
                1.540269247627732,
                1.0790477602875577,
                0.10195726568668495,
                -1.253544128170911
            ]
        },
        {
            "positions": [
                -1.272649901172311,
                -0.8852670417280597,
                1.6391231839633549,
                1.1541220105837164,
                0.14975452736362072,
                -1.301988809179377
            ]
        },
        {
            "positions": [
                -1.3829902468010693,
                -0.8752928028844944,
                1.7379771202989778,
                1.2291962608798757,
                0.1975517890405567,
                -1.350433490187843
            ]
        },
        {
            "positions": [
                -1.4933305924298268,
                -0.865318564040929,
                1.8368310566346002,
                1.3042705111760344,
                0.24534905071749247,
                -1.398878171196309
            ]
        },
        {
            "positions": [
                -1.6036709380585852,
                -0.8553443251973636,
                1.9356849929702231,
                1.3793447614721932,
                0.29314631239442823,
                -1.447322852204775
            ]
        },
        {
            "positions": [
                -1.7140112836873436,
                -0.8453700863537982,
                2.034538929305846,
                1.4544190117683526,
                0.34094357407136416,
                -1.495767533213241
            ]
        },
        {
            "positions": [
                -1.547045629938057,
                -0.8401354948861542,
                2.032919512540524,
                1.5036567434166244,
                0.2977055741445618,
                -1.3680634601389072
            ]
        },
        {
            "positions": [
                -1.3800799761887705,
                -0.8349009034185103,
                2.0313000957752014,
                1.5528944750648963,
                0.25446757421775945,
                -1.2403593870645735
            ]
        },
        {
            "positions": [
                -1.2131143224394842,
                -0.8296663119508664,
                2.0296806790098794,
                1.602132206713168,
                0.2112295742909571,
                -1.1126553139902398
            ]
        },
        {
            "positions": [
                -1.0461486686901977,
                -0.8244317204832224,
                2.028061262244557,
                1.65136993836144,
                0.1679915743641547,
                -0.9849512409159058
            ]
        },
        {
            "positions": [
                -0.8791830149409113,
                -0.8191971290155785,
                2.026441845479235,
                1.7006076700097117,
                0.12475357443735238,
                -0.8572471678415721
            ]
        },
        {
            "positions": [
                -0.7122173611916249,
                -0.8139625375479346,
                2.0248224287139123,
                1.7498454016579834,
                0.08151557451055003,
                -0.7295430947672383
            ]
        },
        {
            "positions": [
                -0.5452517074423384,
                -0.8087279460802906,
                2.02320301194859,
                1.7990831333062554,
                0.03827757458374764,
                -0.6018390216929046
            ]
        },
        {
            "positions": [
                -0.3782860536930519,
                -0.8034933546126467,
                2.0215835951832677,
                1.848320864954527,
                -0.004960425343054742,
                -0.47413494861857064
            ]
        },
        {
            "positions": [
                -0.2113203999437654,
                -0.7982587631450028,
                2.0199641784179456,
                1.8975585966027988,
                -0.04819842526985707,
                -0.3464308755442369
            ]
        },
        {
            "positions": [
                -0.0443547461944791,
                -0.7930241716773588,
                2.018344761652623,
                1.9467963282510707,
                -0.0914364251966594,
                -0.21872680246990317
            ]
        },
        {
            "positions": [
                0.12261090755480751,
                -0.7877895802097149,
                2.016725344887301,
                1.9960340598993425,
                -0.13467442512346178,
                -0.09102272939556955
            ]
        }
    ]
}