{
    "goal": {
        "global_pose": {
            "orientation": {
                "w": 0.5084816217422485,
                "x": -0.49083608388900757,
                "y": 0.5182115435600281,
                "z": -0.4816462993621826
            },
            "position": {
                "x": 0.5540239810943604,
                "y": 0.030875300988554955,
                "z": 0.16403168439865112
            }
        },
        "name": "move_to_storage_A"
    },
    "id": "SPARStwo_move_to_storage_A_107",
    "joint_names": [
        "shoulder_pan_joint",
        "shoulder_lift_joint",
        "elbow_joint",
        "wrist_1_joint",
        "wrist_2_joint",
        "wrist_3_joint"
    ],
    "metrics": {
        "cart_traj_len": 0.3533468925750819,
        "distance_elbow_joint": 0.4468669307038762,
        "distance_shoulder_lift_joint": 0.23347683509780404,
        "distance_shoulder_pan_joint": 0.46114790110041176,
        "distance_wrist_1_joint": 0.23503566791263664,
        "distance_wrist_2_joint": 1.1020608590969072,
        "distance_wrist_3_joint": 0.09089075054579432,
        "smoothness": 1.332267631163888e-15,
        "time": 5.01480159,
        "traj_len": 1.6029594331914423,
        "weighted_distance": 2.021968588420345
    },
    "planner": "SPARStwo",
    "start": {
        "state": {
            "elbow_joint": 1.9715481507254546,
            "shoulder_lift_joint": -1.1394850672790213,
            "shoulder_pan_joint": 0.12281154597544902,
            "wrist_1_joint": -0.7804720171073349,
            "wrist_2_joint": 0.12958658322886563,
            "wrist_3_joint": -3.1924895760937617
        }
    },
    "waypoints": [
        {
            "positions": [
                0.12281154597544902,
                -1.1394850672790213,
                1.9715481507254546,
                -0.7804720171073349,
                0.12958658322886563,
                -3.1924895760937617
            ]
        },
        {
            "positions": [
                0.05693327438967592,
                -1.172838900864422,
                2.035386283683151,
                -0.8140485410948545,
                0.2870238488141381,
                -3.179505183158648
            ]
        },
        {
            "positions": [
                -0.008944997196097176,
                -1.2061927344498224,
                2.099224416640848,
                -0.847625065082374,
                0.44446111439941055,
                -3.166520790223535
            ]
        },
        {
            "positions": [
                -0.07482326878187029,
                -1.2395465680352231,
                2.1630625495985445,
                -0.8812015890698934,
                0.601898379984683,
                -3.153536397288421
            ]
        },
        {
            "positions": [
                -0.14070154036764337,
                -1.2729004016206236,
                2.226900682556241,
                -0.914778113057413,
                0.7593356455699555,
                -3.140552004353308
            ]
        },
        {
            "positions": [
                -0.20657981195341651,
                -1.3062542352060242,
                2.2907388155139374,
                -0.9483546370449325,
                0.916772911155228,
                -3.1275676114181943
            ]
        },
        {
            "positions": [
                -0.2724580835391896,
                -1.3396080687914247,
                2.3545769484716343,
                -0.981931161032452,
                1.0742101767405003,
                -3.114583218483081
            ]
        },
        {
            "positions": [
                -0.33833635512496274,
                -1.3729619023768254,
                2.418415081429331,
                -1.0155076850199716,
                1.2316474423257728,
                -3.1015988255479674
            ]
        }
    ]
}