{
    "goal": {
        "global_pose": {
            "orientation": {
                "w": 0.7047431468963623,
                "x": -0.7094548344612122,
                "y": 0.0024358443915843964,
                "z": -0.0022348060738295317
            },
            "position": {
                "x": 0.6094750761985779,
                "y": 0.3671506643295288,
                "z": 0.19426114857196808
            }
        },
        "name": "move_to_magneteinheit_A"
    },
    "id": "SPARStwo_move_to_magneteinheit_A_104",
    "joint_names": [
        "shoulder_pan_joint",
        "shoulder_lift_joint",
        "elbow_joint",
        "wrist_1_joint",
        "wrist_2_joint",
        "wrist_3_joint"
    ],
    "metrics": {
        "cart_traj_len": 3.6277774875922937,
        "distance_elbow_joint": 3.891841568796327,
        "distance_shoulder_lift_joint": 0.48499548940006165,
        "distance_shoulder_pan_joint": 3.069154558977939,
        "distance_wrist_1_joint": 0.7688599597618042,
        "distance_wrist_2_joint": 2.8421090862876017,
        "distance_wrist_3_joint": 2.6401656065200076,
        "smoothness": 0.25736957696430107,
        "time": 5.048124217,
        "traj_len": 3.700962884134849,
        "weighted_distance": 4.752728324744973
    },
    "planner": "SPARStwo",
    "start": {
        "state": {
            "elbow_joint": -1.9196185241190666,
            "shoulder_lift_joint": -1.2443396400964142,
            "shoulder_pan_joint": 2.6996025414629847,
            "wrist_1_joint": -1.5485510000780065,
            "wrist_2_joint": -1.5709468930060704,
            "wrist_3_joint": 0.4420197071253992
        }
    },
    "waypoints": [
        {
            "positions": [
                2.6996025414629847,
                -1.2443396400964142,
                -1.9196185241190666,
                -1.5485510000780065,
                -1.5709468930060704,
                0.4420197071253992
            ]
        },
        {
            "positions": [
                2.6055843552018927,
                -1.250906650866956,
                -1.8009668017919676,
                -1.5302502437066712,
                -1.4925387520628082,
                0.5119597037796794
            ]
        },
        {
            "positions": [
                2.5115661689408006,
                -1.2574736616374975,
                -1.6823150794648685,
                -1.511949487335336,
                -1.414130611119546,
                0.5818997004339597
            ]
        },
        {
            "positions": [
                2.417547982679708,
                -1.2640406724080393,
                -1.5636633571377694,
                -1.4936487309640007,
                -1.3357224701762838,
                0.6518396970882399
            ]
        },
        {
            "positions": [
                2.323529796418616,
                -1.270607683178581,
                -1.4450116348106703,
                -1.4753479745926656,
                -1.2573143292330218,
                0.72177969374252
            ]
        },
        {
            "positions": [
                2.229511610157524,
                -1.2771746939491226,
                -1.326359912483571,
                -1.4570472182213303,
                -1.1789061882897596,
                0.7917196903968005
            ]
        },
        {
            "positions": [
                2.135493423896432,
                -1.2837417047196644,
                -1.2077081901564721,
                -1.4387464618499952,
                -1.1004980473464974,
                0.8616596870510806
            ]
        },
        {
            "positions": [
                2.04147523763534,
                -1.2903087154902062,
                -1.0890564678293728,
                -1.42044570547866,
                -1.0220899064032352,
                0.9315996837053608
            ]
        },
        {
            "positions": [
                1.947457051374248,
                -1.296875726260748,
                -0.970404745502274,
                -1.4021449491073248,
                -0.9436817654599731,
                1.001539680359641
            ]
        },
        {
            "positions": [
                1.8534388651131557,
                -1.3034427370312895,
                -0.8517530231751749,
                -1.3838441927359895,
                -0.8652736245167109,
                1.0714796770139214
            ]
        },
        {
            "positions": [
                1.7594206788520634,
                -1.3100097478018313,
                -0.7331013008480756,
                -1.3655434363646544,
                -0.7868654835734487,
                1.1414196736682016
            ]
        },
        {
            "positions": [
                1.6654024925909714,
                -1.316576758572373,
                -0.6144495785209767,
                -1.347242679993319,
                -0.7084573426301866,
                1.2113596703224818
            ]
        },
        {
            "positions": [
                1.5713843063298794,
                -1.3231437693429147,
                -0.4957978561938776,
                -1.328941923621984,
                -0.6300492016869244,
                1.281299666976762
            ]
        },
        {
            "positions": [
                1.477366120068787,
                -1.3297107801134564,
                -0.3771461338667783,
                -1.3106411672506486,
                -0.5516410607436621,
                1.3512396636310422
            ]
        },
        {
            "positions": [
                1.383347933807695,
                -1.3362777908839982,
                -0.2584944115396792,
                -1.2923404108793135,
                -0.47323291980039994,
                1.4211796602853224
            ]
        },
        {
            "positions": [
                1.2893297475466028,
                -1.3428448016545398,
                -0.13984268921258014,
                -1.2740396545079782,
                -0.39482477885713774,
                1.4911196569396026
            ]
        },
        {
            "positions": [
                1.195311561285511,
                -1.3494118124250816,
                -0.021190966885481277,
                -1.255738898136643,
                -0.31641663791387575,
                1.5610596535938828
            ]
        },
        {
            "positions": [
                1.101293375024419,
                -1.3559788231956234,
                0.09746075544161759,
                -1.2374381417653078,
                -0.23800849697061355,
                1.630999650248163
            ]
        },
        {
            "positions": [
                1.0072751887633267,
                -1.362545833966165,
                0.2161124777687169,
                -1.2191373853939727,
                -0.15960035602735134,
                1.7009396469024436
            ]
        },
        {
            "positions": [
                0.9132570025022346,
                -1.3691128447367067,
                0.3347642000958162,
                -1.2008366290226373,
                -0.08119221508408936,
                1.7708796435567238
            ]
        },
        {
            "positions": [
                0.8192388162411424,
                -1.3756798555072485,
                0.4534159224229155,
                -1.182535872651302,
                -0.002784074140826931,
                1.840819640211004
            ]
        },
        {
            "positions": [
                0.7252206299800503,
                -1.3822468662777903,
                0.5720676447500144,
                -1.164235116279967,
                0.07562406680243505,
                1.9107596368652842
            ]
        },
        {
            "positions": [
                0.6312024437189581,
                -1.3888138770483318,
                0.6907193670771132,
                -1.1459343599086318,
                0.15403220774569726,
                1.9806996335195644
            ]
        },
        {
            "positions": [
                0.537184257457866,
                -1.3953808878188736,
                0.8093710894042125,
                -1.1276336035372965,
                0.23244034868895946,
                2.0506396301738445
            ]
        },
        {
            "positions": [
                0.443166071196774,
                -1.4019478985894152,
                0.9280228117313114,
                -1.1093328471659611,
                0.31084848963222167,
                2.1205796268281247
            ]
        },
        {
            "positions": [
                0.34914788493568194,
                -1.408514909359957,
                1.0466745340584107,
                -1.091032090794626,
                0.38925663057548365,
                2.190519623482405
            ]
        },
        {
            "positions": [
                0.25512969867458946,
                -1.4150819201304987,
                1.16532625638551,
                -1.072731334423291,
                0.4676647715187461,
                2.2604596201366856
            ]
        },
        {
            "positions": [
                0.16111151241349786,
                -1.4216489309010405,
                1.2839779787126089,
                -1.0544305780519556,
                0.5460729124620081,
                2.3303996167909653
            ]
        },
        {
            "positions": [
                0.06709332615240537,
                -1.428215941671582,
                1.4026297010397082,
                -1.0361298216806203,
                0.6244810534052705,
                2.400339613445246
            ]
        },
        {
            "positions": [
                -0.026924860108686652,
                -1.4347829524421238,
                1.5212814233668073,
                -1.0178290653092852,
                0.7028891943485323,
                2.470279610099526
            ]
        },
        {
            "positions": [
                -0.05101197716455247,
                -1.3772587959225584,
                1.6101583809030529,
                -0.9991520414817141,
                0.6175311447560837,
                2.585104461527452
            ]
        },
        {
            "positions": [
                -0.0750990942204183,
                -1.3197346394029927,
                1.6990353384392987,
                -0.9804750176541429,
                0.5321730951636352,
                2.6999293129553785
            ]
        },
        {
            "positions": [
                -0.09918621127628412,
                -1.262210482883427,
                1.7879122959755442,
                -0.9617979938265717,
                0.4468150455711866,
                2.814754164383305
            ]
        },
        {
            "positions": [
                -0.12327332833214993,
                -1.2046863263638616,
                1.8767892535117898,
                -0.9431209699990006,
                0.3614569959787381,
                2.929579015811231
            ]
        },
        {
            "positions": [
                -0.041180431937881484,
                -1.183201142705165,
                1.9086005172336131,
                -0.8886443267714011,
                0.28584339579100343,
                2.9804477817559563
            ]
        },
        {
            "positions": [
                0.040912464456386965,
                -1.1617159590464685,
                1.9404117809554364,
                -0.8341676835438018,
                0.21022979560326877,
                3.0313165477006816
            ]
        },
        {
            "positions": [
                0.12300536085065543,
                -1.1402307753877718,
                1.9722230446772597,
                -0.7796910403162023,
                0.13461619541553407,
                3.082185313645407
            ]
        }
    ]
}