{
    "goal": {
        "global_pose": {
            "orientation": {
                "w": 0.7047431468963623,
                "x": -0.7094548344612122,
                "y": 0.0024358443915843964,
                "z": -0.0022348060738295317
            },
            "position": {
                "x": 0.6094750761985779,
                "y": 0.3671506643295288,
                "z": 0.19426114857196808
            }
        },
        "name": "move_to_magneteinheit_A"
    },
    "id": "SPARS_move_to_magneteinheit_A_150",
    "joint_names": [
        "shoulder_pan_joint",
        "shoulder_lift_joint",
        "elbow_joint",
        "wrist_1_joint",
        "wrist_2_joint",
        "wrist_3_joint"
    ],
    "metrics": {
        "cart_traj_len": 3.267785526248849,
        "distance_elbow_joint": 3.9138808757925414,
        "distance_shoulder_lift_joint": 0.5652262968698074,
        "distance_shoulder_pan_joint": 3.211235696596428,
        "distance_wrist_1_joint": 3.477062752134522,
        "distance_wrist_2_joint": 1.4489122123109044,
        "distance_wrist_3_joint": 1.3476968694181068,
        "smoothness": 0.12420958342259067,
        "time": 5.045108935,
        "traj_len": 3.736845555160436,
        "weighted_distance": 4.646007254234968
    },
    "planner": "SPARS",
    "start": {
        "state": {
            "elbow_joint": -1.9196185241190666,
            "shoulder_lift_joint": -1.2443396400964142,
            "shoulder_pan_joint": 2.6996025414629847,
            "wrist_1_joint": -1.5485510000780065,
            "wrist_2_joint": -1.5709468930060704,
            "wrist_3_joint": 0.4420197071253992
        }
    },
    "waypoints": [
        {
            "positions": [
                2.6996025414629847,
                -1.2443396400964142,
                -1.9196185241190666,
                -1.5485510000780065,
                -1.5709468930060704,
                0.4420197071253992
            ]
        },
        {
            "positions": [
                2.5838302181198958,
                -1.2236926323431967,
                -1.8577999761005677,
                -1.434477948744827,
                -1.5159148482570122,
                0.4600583093055338
            ]
        },
        {
            "positions": [
                2.4680578947768073,
                -1.2030456245899792,
                -1.7959814280820685,
                -1.3204048974116476,
                -1.4608828035079542,
                0.4780969114856685
            ]
        },
        {
            "positions": [
                2.3522855714337183,
                -1.1823986168367617,
                -1.7341628800635696,
                -1.2063318460784682,
                -1.405850758758896,
                0.49613551366580316
            ]
        },
        {
            "positions": [
                2.2365132480906293,
                -1.1617516090835442,
                -1.6723443320450704,
                -1.0922587947452886,
                -1.350818714009838,
                0.5141741158459379
            ]
        },
        {
            "positions": [
                2.1207409247475404,
                -1.1411046013303268,
                -1.6105257840265714,
                -0.9781857434121092,
                -1.2957866692607798,
                0.5322127180260725
            ]
        },
        {
            "positions": [
                2.004968601404452,
                -1.1204575935771093,
                -1.5487072360080725,
                -0.8641126920789297,
                -1.2407546245117218,
                0.5502513202062072
            ]
        },
        {
            "positions": [
                1.889196278061363,
                -1.0998105858238918,
                -1.4868886879895733,
                -0.7500396407457502,
                -1.1857225797626636,
                0.5682899223863418
            ]
        },
        {
            "positions": [
                1.773423954718274,
                -1.0791635780706743,
                -1.4250701399710741,
                -0.6359665894125708,
                -1.1306905350136054,
                0.5863285245664765
            ]
        },
        {
            "positions": [
                1.6576516313751852,
                -1.0585165703174568,
                -1.3632515919525752,
                -0.5218935380793914,
                -1.0756584902645474,
                0.6043671267466112
            ]
        },
        {
            "positions": [
                1.5418793080320963,
                -1.0378695625642393,
                -1.3014330439340762,
                -0.40782048674621185,
                -1.0206264455154892,
                0.6224057289267458
            ]
        },
        {
            "positions": [
                1.4261069846890075,
                -1.0172225548110219,
                -1.239614495915577,
                -0.2937474354130325,
                -0.9655944007664311,
                0.6404443311068805
            ]
        },
        {
            "positions": [
                1.3103346613459188,
                -0.9965755470578044,
                -1.177795947897078,
                -0.17967438407985292,
                -0.910562356017373,
                0.6584829332870151
            ]
        },
        {
            "positions": [
                1.1945623380028298,
                -0.9759285393045869,
                -1.115977399878579,
                -0.06560133274667357,
                -0.8555303112683148,
                0.6765215354671499
            ]
        },
        {
            "positions": [
                1.078790014659741,
                -0.9552815315513694,
                -1.05415885186008,
                0.04847171858650601,
                -0.8004982665192567,
                0.6945601376472845
            ]
        },
        {
            "positions": [
                0.9630176913166524,
                -0.9346345237981519,
                -0.9923403038415809,
                0.16254476991968536,
                -0.7454662217701986,
                0.7125987398274192
            ]
        },
        {
            "positions": [
                0.8472453679735634,
                -0.9139875160449344,
                -0.9305217558230818,
                0.27661782125286494,
                -0.6904341770211405,
                0.7306373420075538
            ]
        },
        {
            "positions": [
                0.7314730446304745,
                -0.893340508291717,
                -0.8687032078045827,
                0.3906908725860445,
                -0.6354021322720823,
                0.7486759441876885
            ]
        },
        {
            "positions": [
                0.6157007212873857,
                -0.8726935005384996,
                -0.8068846597860837,
                0.5047639239192236,
                -0.5803700875230243,
                0.7667145463678231
            ]
        },
        {
            "positions": [
                0.4999283979442968,
                -0.852046492785282,
                -0.7450661117675847,
                0.6188369752524034,
                -0.5253380427739662,
                0.7847531485479579
            ]
        },
        {
            "positions": [
                0.3841560746012078,
                -0.8313994850320645,
                -0.6832475637490856,
                0.7329100265855828,
                -0.470305998024908,
                0.8027917507280925
            ]
        },
        {
            "positions": [
                0.2683837512581193,
                -0.8107524772788471,
                -0.6214290157305866,
                0.8469830779187622,
                -0.41527395327585004,
                0.8208303529082271
            ]
        },
        {
            "positions": [
                0.15261142791503035,
                -0.7901054695256297,
                -0.5596104677120874,
                0.9610561292519415,
                -0.36024190852679183,
                0.8388689550883619
            ]
        },
        {
            "positions": [
                0.036839104571941395,
                -0.7694584617724121,
                -0.4977919196935885,
                1.0751291805851213,
                -0.3052098637777336,
                0.8569075572684965
            ]
        },
        {
            "positions": [
                -0.07893321877114712,
                -0.7488114540191947,
                -0.43597337167508954,
                1.1892022319183007,
                -0.25017781902867564,
                0.8749461594486312
            ]
        },
        {
            "positions": [
                -0.1947055421142362,
                -0.7281644462659772,
                -0.37415482365659025,
                1.30327528325148,
                -0.19514577427961735,
                0.8929847616287658
            ]
        },
        {
            "positions": [
                -0.16647729781614218,
                -0.7325258819557962,
                -0.16066641950726931,
                1.3599014637213425,
                -0.18859014180943284,
                0.8122670632540657
            ]
        },
        {
            "positions": [
                -0.13824905351804817,
                -0.7368873176456151,
                0.05282198464205162,
                1.416527644191205,
                -0.18203450933924833,
                0.7315493648793657
            ]
        },
        {
            "positions": [
                -0.11002080921995414,
                -0.741248753335434,
                0.2663103887913725,
                1.4731538246610674,
                -0.17547887686906385,
                0.6508316665046656
            ]
        },
        {
            "positions": [
                -0.0817925649218601,
                -0.745610189025253,
                0.4797987929406935,
                1.5297800051309298,
                -0.16892324439887935,
                0.5701139681299656
            ]
        },
        {
            "positions": [
                -0.05356432062376609,
                -0.749971624715072,
                0.6932871970900144,
                1.5864061856007923,
                -0.16236761192869484,
                0.4893962697552655
            ]
        },
        {
            "positions": [
                -0.025336076325672058,
                -0.754333060404891,
                0.9067756012393352,
                1.6430323660706547,
                -0.15581197945851033,
                0.40867857138056546
            ]
        },
        {
            "positions": [
                0.0028921679724219773,
                -0.75869449609471,
                1.1202640053886563,
                1.6996585465405172,
                -0.14925634698832582,
                0.3279608730058654
            ]
        },
        {
            "positions": [
                0.031120412270516012,
                -0.7630559317845289,
                1.3337524095379774,
                1.7562847270103796,
                -0.14270071451814131,
                0.2472431746311653
            ]
        },
        {
            "positions": [
                0.059348656568610075,
                -0.7674173674743479,
                1.5472408136872984,
                1.812910907480242,
                -0.13614508204795683,
                0.1665254762564652
            ]
        },
        {
            "positions": [
                0.08757690086670403,
                -0.7717788031641668,
                1.760729217836619,
                1.8695370879501045,
                -0.12958944957777233,
                0.08580777788176519
            ]
        },
        {
            "positions": [
                0.11580514516479809,
                -0.7761402388539858,
                1.9742176219859402,
                1.926163268419967,
                -0.12303381710758782,
                0.005090079507065099
            ]
        },
        {
            "positions": [
                0.12222207090496982,
                -0.7772155493053476,
                1.994262351673474,
                1.9285117520565134,
                -0.12403295352000933,
                -0.0037470532859743212
            ]
        }
    ]
}