{
    "goal": {
        "global_pose": {
            "orientation": {
                "w": 0.5084816262002911,
                "x": -0.4908360881923452,
                "y": 0.5182115481033761,
                "z": -0.48164630358495003
            },
            "position": {
                "x": 0.5540239810943604,
                "y": -0.46912469901144505,
                "z": 0.16403168439865112
            }
        },
        "name": "move_to_storage_B"
    },
    "id": "SPARS_move_to_storage_B_1",
    "joint_names": [
        "shoulder_pan_joint",
        "shoulder_lift_joint",
        "elbow_joint",
        "wrist_1_joint",
        "wrist_2_joint",
        "wrist_3_joint"
    ],
    "metrics": {
        "cart_traj_len": 1.3965222853800574,
        "distance_elbow_joint": 1.6690095357891868,
        "distance_shoulder_lift_joint": 0.48340186331911306,
        "distance_shoulder_pan_joint": 1.0052557702204519,
        "distance_wrist_1_joint": 3.0265156754739078,
        "distance_wrist_2_joint": 2.709072784663814,
        "distance_wrist_3_joint": 3.1497409325434176,
        "smoothness": 0.34287492938779984,
        "time": 5.047204042,
        "traj_len": 3.4703020851231225,
        "weighted_distance": 4.906940685114754
    },
    "planner": "SPARS",
    "start": {
        "state": {
            "elbow_joint": 1.664937868594044,
            "shoulder_lift_joint": -0.661644460510453,
            "shoulder_pan_joint": -0.9139846352900073,
            "wrist_1_joint": 2.146753192139373,
            "wrist_2_joint": -2.2341966793290973,
            "wrist_3_joint": 0.005466555786416001
        }
    },
    "waypoints": [
        {
            "positions": [
                -0.9139846352900073,
                -0.661644460510453,
                1.664937868594044,
                2.146753192139373,
                -2.2341966793290973,
                0.005466555786416001
            ]
        },
        {
            "positions": [
                -0.8846693705792574,
                -0.6503437605381843,
                1.6499239070464393,
                2.1330571127380265,
                -2.216249758030845,
                0.020408753707294405
            ]
        },
        {
            "positions": [
                -0.8209049559250704,
                -0.6876042130485566,
                1.5432057835408721,
                2.0757026901937237,
                -2.1519528529852594,
                -0.0036956572627319696
            ]
        },
        {
            "positions": [
                -0.7571405412708834,
                -0.7248646655589287,
                1.436487660035305,
                2.018348267649421,
                -2.087655947939674,
                -0.027800068232758345
            ]
        },
        {
            "positions": [
                -0.6933761266166962,
                -0.7621251180693009,
                1.3297695365297377,
                1.9609938451051183,
                -2.0233590428940884,
                -0.05190447920278472
            ]
        },
        {
            "positions": [
                -0.6296117119625092,
                -0.7993855705796731,
                1.2230514130241708,
                1.9036394225608155,
                -1.959062137848503,
                -0.0760088901728111
            ]
        },
        {
            "positions": [
                -0.5658472973083221,
                -0.8366460230900454,
                1.1163332895186033,
                1.846285000016513,
                -1.8947652328029172,
                -0.10011330114283748
            ]
        },
        {
            "positions": [
                -0.502082882654135,
                -0.8739064756004176,
                1.0096151660130364,
                1.7889305774722102,
                -1.8304683277573317,
                -0.12421771211286387
            ]
        },
        {
            "positions": [
                -0.5258170433575182,
                -0.883848013531802,
                1.0501626393413634,
                1.6821828550399405,
                -1.7382545504336497,
                -0.2438246028649591
            ]
        },
        {
            "positions": [
                -0.5495512040609014,
                -0.8937895514631865,
                1.0907101126696908,
                1.5754351326076705,
                -1.6460407731099678,
                -0.3634314936170543
            ]
        },
        {
            "positions": [
                -0.5732853647642846,
                -0.9037310893945709,
                1.1312575859980178,
                1.4686874101754008,
                -1.553826995786286,
                -0.48303838436914953
            ]
        },
        {
            "positions": [
                -0.5970195254676678,
                -0.9136726273259553,
                1.1718050593263452,
                1.361939687743131,
                -1.461613218462604,
                -0.6026452751212448
            ]
        },
        {
            "positions": [
                -0.620753686171051,
                -0.9236141652573397,
                1.2123525326546722,
                1.2551919653108612,
                -1.369399441138922,
                -0.7222521658733401
            ]
        },
        {
            "positions": [
                -0.6444878468744342,
                -0.9335557031887243,
                1.2529000059829993,
                1.1484442428785915,
                -1.2771856638152403,
                -0.8418590566254351
            ]
        },
        {
            "positions": [
                -0.6682220075778174,
                -0.9434972411201087,
                1.2934474793113266,
                1.0416965204463215,
                -1.1849718864915584,
                -0.9614659473775304
            ]
        },
        {
            "positions": [
                -0.6919561682812005,
                -0.9534387790514931,
                1.3339949526396537,
                0.9349487980140518,
                -1.0927581091678764,
                -1.0810728381296257
            ]
        },
        {
            "positions": [
                -0.7156903289845836,
                -0.9633803169828776,
                1.3745424259679808,
                0.8282010755817821,
                -1.0005443318441944,
                -1.2006797288817208
            ]
        },
        {
            "positions": [
                -0.7394244896879668,
                -0.973321854914262,
                1.4150898992963081,
                0.7214533531495122,
                -0.9083305545205125,
                -1.320286619633816
            ]
        },
        {
            "positions": [
                -0.76315865039135,
                -0.9832633928456465,
                1.4556373726246352,
                0.6147056307172425,
                -0.8161167771968307,
                -1.4398935103859114
            ]
        },
        {
            "positions": [
                -0.7868928110947332,
                -0.9932049307770309,
                1.4961848459529623,
                0.5079579082849728,
                -0.7239029998731488,
                -1.5595004011380065
            ]
        },
        {
            "positions": [
                -0.8106269717981164,
                -1.0031464687084153,
                1.5367323192812896,
                0.40121018585270285,
                -0.6316892225494668,
                -1.6791072918901018
            ]
        },
        {
            "positions": [
                -0.8343611325014996,
                -1.0130880066397998,
                1.577279792609617,
                0.2944624634204329,
                -0.5394754452257848,
                -1.798714182642197
            ]
        },
        {
            "positions": [
                -0.8580952932048826,
                -1.0230295445711843,
                1.6178272659379438,
                0.18771474098816343,
                -0.4472616679021031,
                -1.9183210733942921
            ]
        },
        {
            "positions": [
                -0.881829453908266,
                -1.0329710825025686,
                1.658374739266271,
                0.0809670185558935,
                -0.3550478905784211,
                -2.0379279641463874
            ]
        },
        {
            "positions": [
                -0.9055636146116491,
                -1.0429126204339532,
                1.6989222125945984,
                -0.025780703876376432,
                -0.26283411325473915,
                -2.157534854898483
            ]
        },
        {
            "positions": [
                -0.9292977753150322,
                -1.0528541583653377,
                1.7394696859229253,
                -0.13252842630864592,
                -0.1706203359310574,
                -2.277141745650578
            ]
        },
        {
            "positions": [
                -0.9530319360184154,
                -1.062795696296722,
                1.7800171592512526,
                -0.23927614874091585,
                -0.07840655860737522,
                -2.3967486364026733
            ]
        },
        {
            "positions": [
                -0.9767660967217986,
                -1.0727372342281065,
                1.82056463257958,
                -0.3460238711731858,
                0.013807218716306746,
                -2.5163555271547686
            ]
        },
        {
            "positions": [
                -1.0005002574251818,
                -1.0826787721594908,
                1.8611121059079068,
                -0.45277159360545527,
                0.10602099603998849,
                -2.6359624179068635
            ]
        },
        {
            "positions": [
                -1.024234418128565,
                -1.0926203100908753,
                1.901659579236234,
                -0.5595193160377252,
                0.19823477336367024,
                -2.755569308658959
            ]
        },
        {
            "positions": [
                -1.0479685788319482,
                -1.1025618480222599,
                1.9422070525645614,
                -0.6662670384699951,
                0.2904485506873522,
                -2.8751761994110545
            ]
        },
        {
            "positions": [
                -1.0717027395353314,
                -1.1125033859536442,
                1.9827545258928883,
                -0.7730147609022646,
                0.38266232801103417,
                -2.9947830901631494
            ]
        },
        {
            "positions": [
                -1.0954369002387145,
                -1.1224449238850287,
                2.0233019992212156,
                -0.8797624833345344,
                0.47487610533471614,
                -3.1143899809152447
            ]
        }
    ]
}