{
    "goal": {
        "global_pose": {
            "orientation": {
                "w": 0.005598929693374612,
                "x": 0.007748599140229565,
                "y": 0.7110244013736278,
                "z": -0.7031023480610252
            },
            "position": {
                "x": -0.8858502320852131,
                "y": -0.7141253447532654,
                "z": 0.3711530566215515
            }
        },
        "name": "move_to_auspresseinheit_C"
    },
    "id": "SPARS_move_to_auspresseinheit_C_128",
    "joint_names": [
        "shoulder_pan_joint",
        "shoulder_lift_joint",
        "elbow_joint",
        "wrist_1_joint",
        "wrist_2_joint",
        "wrist_3_joint"
    ],
    "metrics": {
        "cart_traj_len": 0.4927166718105971,
        "distance_elbow_joint": 0.9968202320566325,
        "distance_shoulder_lift_joint": 0.32396895055655683,
        "distance_shoulder_pan_joint": 0.2556768664168274,
        "distance_wrist_1_joint": 0.664305276119723,
        "distance_wrist_2_joint": 1.3171451606877844,
        "distance_wrist_3_joint": 0.05442956749852268,
        "smoothness": 4.844609574787718e-16,
        "time": 5.044839829000001,
        "traj_len": 1.9006172821838823,
        "weighted_distance": 2.3880233719837416
    },
    "planner": "SPARS",
    "start": {
        "state": {
            "elbow_joint": 1.7527959577737207,
            "shoulder_lift_joint": -0.9740617694225068,
            "shoulder_pan_joint": -2.967991417825858,
            "wrist_1_joint": -0.759517768980727,
            "wrist_2_joint": 1.7443932448377408,
            "wrist_3_joint": -3.0840537646736568
        }
    },
    "waypoints": [
        {
            "positions": [
                -2.967991417825858,
                -0.9740617694225068,
                1.7527959577737207,
                -0.759517768980727,
                1.7443932448377408,
                -3.0840537646736568
            ]
        },
        {
            "positions": [
                -2.942423731184175,
                -0.9416648743668511,
                1.6531139345680574,
                -0.6930872413687547,
                1.6126787287689623,
                -3.089496721423509
            ]
        },
        {
            "positions": [
                -2.9168560445424925,
                -0.9092679793111954,
                1.5534319113623942,
                -0.6266567137567823,
                1.4809642127001839,
                -3.094939678173361
            ]
        },
        {
            "positions": [
                -2.8912883579008097,
                -0.8768710842555397,
                1.453749888156731,
                -0.5602261861448101,
                1.3492496966314056,
                -3.1003826349232138
            ]
        },
        {
            "positions": [
                -2.865720671259127,
                -0.844474189199884,
                1.3540678649510676,
                -0.49379565853283774,
                1.2175351805626269,
                -3.105825591673066
            ]
        },
        {
            "positions": [
                -2.8401529846174443,
                -0.8120772941442284,
                1.2543858417454044,
                -0.4273651309208655,
                1.0858206644938486,
                -3.111268548422918
            ]
        },
        {
            "positions": [
                -2.8145852979757615,
                -0.7796803990885727,
                1.1547038185397411,
                -0.3609346033088932,
                0.9541061484250702,
                -3.1167115051727703
            ]
        },
        {
            "positions": [
                -2.7890176113340788,
                -0.747283504032917,
                1.055021795334078,
                -0.2945040756969209,
                0.8223916323562918,
                -3.1221544619226225
            ]
        },
        {
            "positions": [
                -2.763449924692396,
                -0.7148866089772613,
                0.9553397721284146,
                -0.2280735480849485,
                0.6906771162875132,
                -3.127597418672475
            ]
        },
        {
            "positions": [
                -2.7378822380507133,
                -0.6824897139216056,
                0.8556577489227514,
                -0.1616430204729763,
                0.5589626002187349,
                -3.1330403754223273
            ]
        },
        {
            "positions": [
                -2.7123145514090305,
                -0.6500928188659499,
                0.7559757257170882,
                -0.09521249286100399,
                0.42724808414995635,
                -3.1384833321721795
            ]
        }
    ]
}