{
    "goal": {
        "global_pose": {
            "orientation": {
                "w": 0.7047431468963623,
                "x": -0.7094548344612122,
                "y": 0.0024358443915843964,
                "z": -0.0022348060738295317
            },
            "position": {
                "x": 0.6094750761985779,
                "y": 0.3671506643295288,
                "z": 0.19426114857196808
            }
        },
        "name": "move_to_magneteinheit_A"
    },
    "id": "SPARS_move_to_magneteinheit_A_50",
    "joint_names": [
        "shoulder_pan_joint",
        "shoulder_lift_joint",
        "elbow_joint",
        "wrist_1_joint",
        "wrist_2_joint",
        "wrist_3_joint"
    ],
    "metrics": {
        "cart_traj_len": 3.0179569202318333,
        "distance_elbow_joint": 3.917155648605349,
        "distance_shoulder_lift_joint": 0.8830106744073364,
        "distance_shoulder_pan_joint": 2.854373559225555,
        "distance_wrist_1_joint": 3.4812188621733293,
        "distance_wrist_2_joint": 1.440490363341461,
        "distance_wrist_3_joint": 1.1785262697572438,
        "smoothness": 0.06579228881710435,
        "time": 5.029374511,
        "traj_len": 3.708743099421996,
        "weighted_distance": 4.5862334374233
    },
    "planner": "SPARS",
    "start": {
        "state": {
            "elbow_joint": -1.9196185241190666,
            "shoulder_lift_joint": -1.2443396400964142,
            "shoulder_pan_joint": 2.6996025414629847,
            "wrist_1_joint": -1.5485510000780065,
            "wrist_2_joint": -1.5709468930060704,
            "wrist_3_joint": 0.4420197071253992
        }
    },
    "waypoints": [
        {
            "positions": [
                2.6996025414629847,
                -1.2443396400964142,
                -1.9196185241190666,
                -1.5485510000780065,
                -1.5709468930060704,
                0.4420197071253992
            ]
        },
        {
            "positions": [
                2.5971022925104963,
                -1.2524633588928573,
                -1.7997887853829464,
                -1.4634232600484718,
                -1.531447417856429,
                0.407877735701738
            ]
        },
        {
            "positions": [
                2.494602043558008,
                -1.2605870776893002,
                -1.6799590466468262,
                -1.3782955200189368,
                -1.4919479427067879,
                0.37373576427807687
            ]
        },
        {
            "positions": [
                2.3921017946055194,
                -1.2687107964857434,
                -1.560129307910706,
                -1.293167779989402,
                -1.4524484675571467,
                0.3395937928544157
            ]
        },
        {
            "positions": [
                2.289601545653031,
                -1.2768345152821863,
                -1.4402995691745857,
                -1.2080400399598672,
                -1.4129489924075054,
                0.30545182143075456
            ]
        },
        {
            "positions": [
                2.1871012967005425,
                -1.2849582340786294,
                -1.3204698304384654,
                -1.1229122999303325,
                -1.373449517257864,
                0.27130985000709334
            ]
        },
        {
            "positions": [
                2.0846010477480545,
                -1.2930819528750725,
                -1.2006400917023452,
                -1.0377845599007975,
                -1.3339500421082229,
                0.2371678785834322
            ]
        },
        {
            "positions": [
                1.9821007987955659,
                -1.3012056716715155,
                -1.080810352966225,
                -0.9526568198712627,
                -1.2944505669585817,
                0.203025907159771
            ]
        },
        {
            "positions": [
                1.8796005498430777,
                -1.3093293904679586,
                -0.9609806142301047,
                -0.8675290798417279,
                -1.2549510918089404,
                0.16888393573610988
            ]
        },
        {
            "positions": [
                1.7771003008905892,
                -1.3174531092644015,
                -0.8411508754939845,
                -0.7824013398121931,
                -1.215451616659299,
                0.13474196431244867
            ]
        },
        {
            "positions": [
                1.6746000519381006,
                -1.3255768280608446,
                -0.7213211367578642,
                -0.6972735997826582,
                -1.1759521415096579,
                0.10059999288878751
            ]
        },
        {
            "positions": [
                1.5720998029856124,
                -1.3337005468572876,
                -0.601491398021744,
                -0.6121458597531234,
                -1.1364526663600167,
                0.06645802146512636
            ]
        },
        {
            "positions": [
                1.469599554033124,
                -1.3418242656537307,
                -0.48166165928562377,
                -0.5270181197235886,
                -1.0969531912103754,
                0.032316050041465205
            ]
        },
        {
            "positions": [
                1.3670993050806357,
                -1.3499479844501738,
                -0.3618319205495035,
                -0.44189037969405387,
                -1.057453716060734,
                -0.0018259213821959497
            ]
        },
        {
            "positions": [
                1.264599056128147,
                -1.3580717032466167,
                -0.2420021818133833,
                -0.35676263966451893,
                -1.0179542409110929,
                -0.03596789280585716
            ]
        },
        {
            "positions": [
                1.1620988071756586,
                -1.3661954220430599,
                -0.12217244307726305,
                -0.2716348996349842,
                -0.9784547657614516,
                -0.07010986422951826
            ]
        },
        {
            "positions": [
                1.0595985582231704,
                -1.3743191408395028,
                -0.0023427043411428095,
                -0.18650715960544928,
                -0.9389552906118104,
                -0.10425183565317941
            ]
        },
        {
            "positions": [
                0.9570983092706817,
                -1.382442859635946,
                0.11748703439497765,
                -0.10137941957591434,
                -0.8994558154621691,
                -0.13839380707684068
            ]
        },
        {
            "positions": [
                0.8545980603181935,
                -1.3905665784323888,
                0.23731677313109767,
                -0.016251679546379627,
                -0.8599563403125279,
                -0.17253577850050184
            ]
        },
        {
            "positions": [
                0.7520978113657053,
                -1.398690297228832,
                0.3571465118672177,
                0.06887606048315509,
                -0.8204568651628866,
                -0.20667774992416288
            ]
        },
        {
            "positions": [
                0.6495975624132164,
                -1.4068140160252751,
                0.47697625060333815,
                0.15400380051269003,
                -0.7809573900132454,
                -0.24081972134782414
            ]
        },
        {
            "positions": [
                0.5470973134607284,
                -1.414937734821718,
                0.5968059893394586,
                0.23913154054222496,
                -0.7414579148636041,
                -0.2749616927714853
            ]
        },
        {
            "positions": [
                0.44459706450824,
                -1.4230614536181612,
                0.7166357280755786,
                0.3242592805717597,
                -0.7019584397139629,
                -0.30910366419514645
            ]
        },
        {
            "positions": [
                0.34209681555575155,
                -1.431185172414604,
                0.8364654668116991,
                0.4093870206012946,
                -0.6624589645643216,
                -0.3432456356188076
            ]
        },
        {
            "positions": [
                0.23959656660326314,
                -1.4393088912110472,
                0.9562952055478193,
                0.4945147606308294,
                -0.6229594894146804,
                -0.37738760704246876
            ]
        },
        {
            "positions": [
                0.19699809991623937,
                -1.3690797572257534,
                1.0375581055091436,
                0.5933050129868344,
                -0.5884931901508514,
                -0.3733282502301294
            ]
        },
        {
            "positions": [
                0.15439963322921557,
                -1.2988506232404593,
                1.118821005470468,
                0.6920952653428393,
                -0.5540268908870226,
                -0.36926889341779007
            ]
        },
        {
            "positions": [
                0.1118011665421918,
                -1.2286214892551655,
                1.2000839054317924,
                0.7908855176988443,
                -0.5195605916231937,
                -0.3652095366054507
            ]
        },
        {
            "positions": [
                0.06920269985516803,
                -1.1583923552698716,
                1.2813468053931167,
                0.8896757700548492,
                -0.4850942923593648,
                -0.3611501797931113
            ]
        },
        {
            "positions": [
                0.026604233168144226,
                -1.0881632212845775,
                1.362609705354441,
                0.9884660224108541,
                -0.45062799309553586,
                -0.357090822980772
            ]
        },
        {
            "positions": [
                -0.01599423351887956,
                -1.0179340872992837,
                1.4438726053157653,
                1.087256274766859,
                -0.416161693831707,
                -0.3530314661684326
            ]
        },
        {
            "positions": [
                -0.008046820545497796,
                -0.9674119258904975,
                1.5211824883028158,
                1.2043171094992073,
                -0.3770885387784002,
                -0.3135227925981352
            ]
        },
        {
            "positions": [
                -9.94075721160309e-05,
                -0.9168897644817112,
                1.5984923712898662,
                1.3213779442315554,
                -0.3380153837250935,
                -0.2740141190278378
            ]
        },
        {
            "positions": [
                0.007848005401265734,
                -0.866367603072925,
                1.6758022542769166,
                1.4384387789639037,
                -0.29894222867178677,
                -0.2345054454575404
            ]
        },
        {
            "positions": [
                0.0157954183746475,
                -0.8158454416641387,
                1.753112137263967,
                1.5554996136962518,
                -0.25986907361848,
                -0.19499677188724296
            ]
        },
        {
            "positions": [
                0.023742831348029264,
                -0.7653232802553526,
                1.8304220202510175,
                1.6725604484286,
                -0.22079591856517328,
                -0.15548809831694557
            ]
        },
        {
            "positions": [
                0.0732626910364204,
                -0.7723511864238569,
                1.9139795723686504,
                1.8026141552619614,
                -0.17562622411489162,
                -0.08687837488501926
            ]
        },
        {
            "positions": [
                0.12278255072481153,
                -0.7793790925923613,
                1.9975371244862832,
                1.9326678620953228,
                -0.13045652966460997,
                -0.018268651453092942
            ]
        }
    ]
}