{
    "goal": {
        "global_pose": {
            "orientation": {
                "w": -0.4816463035849501,
                "x": 0.5182115481033762,
                "y": 0.4908360881923453,
                "z": -0.5084816262002911
            },
            "position": {
                "x": -0.8240239810943604,
                "y": 0.19912469901144506,
                "z": 0.16403168439865112
            }
        },
        "name": "move_to_storage_D"
    },
    "id": "SPARS_move_to_storage_D_108",
    "joint_names": [
        "shoulder_pan_joint",
        "shoulder_lift_joint",
        "elbow_joint",
        "wrist_1_joint",
        "wrist_2_joint",
        "wrist_3_joint"
    ],
    "metrics": {
        "cart_traj_len": 3.8777579349178617,
        "distance_elbow_joint": 4.206844857755492,
        "distance_shoulder_lift_joint": 1.2657190026903606,
        "distance_shoulder_pan_joint": 2.8137883238131245,
        "distance_wrist_1_joint": 2.2606681327769977,
        "distance_wrist_2_joint": 1.2166877074905873,
        "distance_wrist_3_joint": 3.2871962792422638,
        "smoothness": 0.0721734493183859,
        "time": 5.113777883,
        "traj_len": 3.87954949752788,
        "weighted_distance": 5.010254754253613
    },
    "planner": "SPARS",
    "start": {
        "state": {
            "elbow_joint": -2.384821988534728,
            "shoulder_lift_joint": -2.2788054721415256,
            "shoulder_pan_joint": -0.1854694642142757,
            "wrist_1_joint": 1.4845938289331202,
            "wrist_2_joint": 0.17898776772866878,
            "wrist_3_joint": 0.037105688729662994
        }
    },
    "waypoints": [
        {
            "positions": [
                -0.1854694642142757,
                -2.2788054721415256,
                -2.384821988534728,
                1.4845938289331202,
                0.17898776772866878,
                0.037105688729662994
            ]
        },
        {
            "positions": [
                -0.03581127373394494,
                -2.2056775569663096,
                -2.3685339057539427,
                1.3762682708237772,
                0.1545329139538729,
                0.027418102843723445
            ]
        },
        {
            "positions": [
                0.11384691674638583,
                -2.132549641791094,
                -2.3522458229731575,
                1.267942712714434,
                0.130078060179077,
                0.017730516957783896
            ]
        },
        {
            "positions": [
                0.2635051072267166,
                -2.059421726615878,
                -2.3359577401923723,
                1.159617154605091,
                0.1056232064042811,
                0.008042931071844346
            ]
        },
        {
            "positions": [
                0.4131632977070474,
                -1.9862938114406623,
                -2.3196696574115867,
                1.051291596495748,
                0.08116835262948521,
                -0.0016446548140952033
            ]
        },
        {
            "positions": [
                0.5628214881873782,
                -1.9131658962654465,
                -2.3033815746308015,
                0.9429660383864049,
                0.05671349885468932,
                -0.01133224070003476
            ]
        },
        {
            "positions": [
                0.712479678667709,
                -1.8400379810902305,
                -2.2870934918500163,
                0.834640480277062,
                0.03225864507989343,
                -0.021019826585974302
            ]
        },
        {
            "positions": [
                0.8621378691480397,
                -1.7669100659150148,
                -2.270805409069231,
                0.7263149221677189,
                0.00780379130509753,
                -0.03070741247191386
            ]
        },
        {
            "positions": [
                0.9173310250996275,
                -1.7433530785255194,
                -2.1429045253726686,
                0.6793652588548564,
                0.04047578290094178,
                0.06989831184185762
            ]
        },
        {
            "positions": [
                0.9725241810512153,
                -1.7197960911360242,
                -2.015003641676106,
                0.6324155955419941,
                0.07314777449678604,
                0.1705040361556291
            ]
        },
        {
            "positions": [
                1.027717337002803,
                -1.6962391037465288,
                -1.887102757979544,
                0.5854659322291318,
                0.1058197660926303,
                0.2711097604694006
            ]
        },
        {
            "positions": [
                1.082910492954391,
                -1.6726821163570336,
                -1.7592018742829816,
                0.5385162689162694,
                0.13849175768847455,
                0.37171548478317207
            ]
        },
        {
            "positions": [
                1.1381036489059786,
                -1.6491251289675382,
                -1.631300990586419,
                0.491566605603407,
                0.1711637492843188,
                0.47232120909694353
            ]
        },
        {
            "positions": [
                1.1932968048575665,
                -1.625568141578043,
                -1.5034001068898568,
                0.4446169422905446,
                0.20383574088016307,
                0.572926933410715
            ]
        },
        {
            "positions": [
                1.2484899608091542,
                -1.6020111541885476,
                -1.3754992231932945,
                0.3976672789776822,
                0.23650773247600732,
                0.6735326577244864
            ]
        },
        {
            "positions": [
                1.3036831167607421,
                -1.5784541667990524,
                -1.247598339496732,
                0.35071761566481985,
                0.26917972407185153,
                0.7741383820382579
            ]
        },
        {
            "positions": [
                1.3588762727123298,
                -1.554897179409557,
                -1.1196974558001695,
                0.30376795235195747,
                0.3018517156676958,
                0.8747441063520294
            ]
        },
        {
            "positions": [
                1.4140694286639177,
                -1.5313401920200618,
                -0.9917965721036073,
                0.2568182890390951,
                0.33452370726354,
                0.9753498306658009
            ]
        },
        {
            "positions": [
                1.4692625846155054,
                -1.5077832046305664,
                -0.863895688407045,
                0.20986862572623266,
                0.3671956988593843,
                1.0759555549795725
            ]
        },
        {
            "positions": [
                1.524455740567093,
                -1.484226217241071,
                -0.7359948047104825,
                0.16291896241337034,
                0.3998676904552286,
                1.176561279293344
            ]
        },
        {
            "positions": [
                1.579648896518681,
                -1.4606692298515758,
                -0.60809392101392,
                0.11596929910050802,
                0.4325396820510728,
                1.2771670036071154
            ]
        },
        {
            "positions": [
                1.634842052470269,
                -1.4371122424620806,
                -0.48019303731735774,
                0.06901963578764558,
                0.46521167364691707,
                1.377772727920887
            ]
        },
        {
            "positions": [
                1.6900352084218566,
                -1.4135552550725852,
                -0.35229215362079547,
                0.02206997247478315,
                0.4978836652427613,
                1.4783784522346584
            ]
        },
        {
            "positions": [
                1.7452283643734443,
                -1.3899982676830898,
                -0.22439126992423297,
                -0.02487969083807917,
                0.5305556568386056,
                1.5789841765484298
            ]
        },
        {
            "positions": [
                1.8004215203250322,
                -1.3664412802935946,
                -0.09649038622767048,
                -0.0718293541509415,
                0.5632276484344498,
                1.6795899008622013
            ]
        },
        {
            "positions": [
                1.8556146762766201,
                -1.3428842929040994,
                0.03141049746889202,
                -0.11877901746380393,
                0.5958996400302942,
                1.7801956251759727
            ]
        },
        {
            "positions": [
                1.9108078322282078,
                -1.319327305514604,
                0.15931138116545407,
                -0.16572868077666636,
                0.6285716316261384,
                1.8808013494897442
            ]
        },
        {
            "positions": [
                1.9660009881797955,
                -1.2957703181251086,
                0.28721226486201656,
                -0.21267834408952868,
                0.6612436232219826,
                1.9814070738035159
            ]
        },
        {
            "positions": [
                2.0211941441313837,
                -1.2722133307356134,
                0.41511314855857906,
                -0.259628007402391,
                0.6939156148178269,
                2.082012798117287
            ]
        },
        {
            "positions": [
                2.0763873000829713,
                -1.2486563433461182,
                0.5430140322551411,
                -0.30657767071525355,
                0.7265876064136711,
                2.1826185224310586
            ]
        },
        {
            "positions": [
                2.131580456034559,
                -1.2250993559566228,
                0.6709149159517036,
                -0.35352733402811587,
                0.7592595980095154,
                2.28322424674483
            ]
        },
        {
            "positions": [
                2.1867736119861467,
                -1.2015423685671274,
                0.7988157996482661,
                -0.4004769973409782,
                0.7919315896053597,
                2.3838299710586015
            ]
        },
        {
            "positions": [
                2.2419667679377344,
                -1.1779853811776322,
                0.9267166833448286,
                -0.4474266606538405,
                0.8246035812012039,
                2.484435695372373
            ]
        },
        {
            "positions": [
                2.297159923889322,
                -1.1544283937881368,
                1.054617567041391,
                -0.49437632396670284,
                0.8572755727970481,
                2.5850414196861444
            ]
        },
        {
            "positions": [
                2.3523530798409102,
                -1.1308714063986414,
                1.1825184507379531,
                -0.5413259872795654,
                0.8899475643928924,
                2.685647143999916
            ]
        },
        {
            "positions": [
                2.407546235792498,
                -1.1073144190091462,
                1.3104193344345156,
                -0.5882756505924277,
                0.9226195559887367,
                2.7862528683136873
            ]
        },
        {
            "positions": [
                2.462739391744086,
                -1.083757431619651,
                1.4383202181310781,
                -0.63522531390529,
                0.9552915475845809,
                2.886858592627459
            ]
        },
        {
            "positions": [
                2.5179325476956738,
                -1.0602004442301556,
                1.5662211018276402,
                -0.6821749772181526,
                0.9879635391804251,
                2.9874643169412303
            ]
        },
        {
            "positions": [
                2.5731257036472615,
                -1.0366434568406602,
                1.6941219855242027,
                -0.7291246405310149,
                1.0206355307762693,
                3.0880700412550017
            ]
        },
        {
            "positions": [
                2.628318859598849,
                -1.013086469451165,
                1.8220228692207647,
                -0.7760743038438773,
                1.0533075223721136,
                3.188675765568773
            ]
        }
    ]
}