{
    "goal": {
        "global_pose": {
            "orientation": {
                "w": 0.7031023480610252,
                "x": -0.7110244013736278,
                "y": 0.0077485991402295624,
                "z": 0.005598929693374583
            },
            "position": {
                "x": -0.8841497679147869,
                "y": 0.44412534475326537,
                "z": 0.3711530566215515
            }
        },
        "name": "move_to_auspresseinheit_D"
    },
    "id": "SPARStwo_move_to_auspresseinheit_D_137",
    "joint_names": [
        "shoulder_pan_joint",
        "shoulder_lift_joint",
        "elbow_joint",
        "wrist_1_joint",
        "wrist_2_joint",
        "wrist_3_joint"
    ],
    "metrics": {
        "cart_traj_len": 0.3440497566950281,
        "distance_elbow_joint": 0.6605788937029218,
        "distance_shoulder_lift_joint": 0.13314234788256663,
        "distance_shoulder_pan_joint": 0.13319334923315584,
        "distance_wrist_1_joint": 0.6053838264034153,
        "distance_wrist_2_joint": 1.4358321493153172,
        "distance_wrist_3_joint": 0.06879038103396873,
        "smoothness": 0.0,
        "time": 5.005268798,
        "traj_len": 1.7426763748818497,
        "weighted_distance": 2.283794580376706
    },
    "planner": "SPARStwo",
    "start": {
        "state": {
            "elbow_joint": -1.8275523626775212,
            "shoulder_lift_joint": -2.126789852344167,
            "shoulder_pan_joint": -0.03513704404078235,
            "wrist_1_joint": -2.347782403156801,
            "wrist_2_joint": -1.6058999987535132,
            "wrist_3_joint": -3.0880379163319196
        }
    },
    "waypoints": [
        {
            "positions": [
                -0.03513704404078235,
                -2.126789852344167,
                -1.8275523626775212,
                -2.347782403156801,
                -1.6058999987535132,
                -3.0880379163319196
            ]
        },
        {
            "positions": [
                -0.05178621269492683,
                -2.1434326458294874,
                -1.7449800009646559,
                -2.4234553814572277,
                -1.4264209800890986,
                -3.0794391187026733
            ]
        },
        {
            "positions": [
                -0.06843538134907132,
                -2.1600754393148085,
                -1.6624076392517908,
                -2.4991283597576546,
                -1.246941961424684,
                -3.0708403210734274
            ]
        },
        {
            "positions": [
                -0.0850845500032158,
                -2.1767182328001295,
                -1.5798352775389255,
                -2.5748013380580814,
                -1.0674629427602693,
                -3.0622415234441815
            ]
        },
        {
            "positions": [
                -0.10173371865736028,
                -2.19336102628545,
                -1.4972629158260604,
                -2.6504743163585083,
                -0.8879839240958546,
                -3.0536427258149352
            ]
        },
        {
            "positions": [
                -0.11838288731150476,
                -2.2100038197707708,
                -1.414690554113195,
                -2.7261472946589356,
                -0.70850490543144,
                -3.045043928185689
            ]
        },
        {
            "positions": [
                -0.13503205596564924,
                -2.226646613256092,
                -1.3321181924003298,
                -2.8018202729593624,
                -0.5290258867670252,
                -3.036445130556443
            ]
        },
        {
            "positions": [
                -0.15168122461979372,
                -2.243289406741413,
                -1.2495458306874645,
                -2.8774932512597893,
                -0.3495468681026106,
                -3.027846332927197
            ]
        },
        {
            "positions": [
                -0.1683303932739382,
                -2.2599322002267335,
                -1.1669734689745994,
                -2.953166229560216,
                -0.17006784943819606,
                -3.019247535297951
            ]
        }
    ]
}