{
    "goal": {
        "global_pose": {
            "orientation": {
                "w": 0.7031023502349854,
                "x": -0.7110244035720825,
                "y": 0.007748599164187908,
                "z": 0.005598929710686207
            },
            "position": {
                "x": 0.11585023208521307,
                "y": 0.44412534475326537,
                "z": 0.3711530566215515
            }
        },
        "name": "move_to_auspresseinheit_A"
    },
    "id": "SPARStwo_move_to_auspresseinheit_A_10",
    "joint_names": [
        "shoulder_pan_joint",
        "shoulder_lift_joint",
        "elbow_joint",
        "wrist_1_joint",
        "wrist_2_joint",
        "wrist_3_joint"
    ],
    "metrics": {
        "cart_traj_len": 0.8453538320584401,
        "distance_elbow_joint": 0.03207031603927346,
        "distance_shoulder_lift_joint": 0.748395901920536,
        "distance_shoulder_pan_joint": 1.1145720308447589,
        "distance_wrist_1_joint": 0.5743338865758232,
        "distance_wrist_2_joint": 1.2454600607930544,
        "distance_wrist_3_joint": 0.05286811109551781,
        "smoothness": 1.5994053369498593,
        "time": 5.032546936,
        "traj_len": 1.941056492549602,
        "weighted_distance": 2.386049135459887
    },
    "planner": "SPARStwo",
    "start": {
        "state": {
            "elbow_joint": 2.4225746658250005,
            "shoulder_lift_joint": -1.3736534386056498,
            "shoulder_pan_joint": -0.3378633547517467,
            "wrist_1_joint": -1.0288598680537169,
            "wrist_2_joint": 1.233022673432363,
            "wrist_3_joint": -3.0940220416140027
        }
    },
    "waypoints": [
        {
            "positions": [
                -0.3378633547517467,
                -1.3736534386056498,
                2.4225746658250005,
                -1.0288598680537169,
                1.233022673432363,
                -3.0940220416140027
            ]
        },
        {
            "positions": [
                -0.2179195346770222,
                -1.4447030590087384,
                2.4223448015719065,
                -0.9663360946101813,
                1.1344446204304863,
                -3.0967859031679543
            ]
        },
        {
            "positions": [
                -0.09797571460229762,
                -1.5157526794118268,
                2.4221149373188124,
                -0.9038123211666459,
                1.0358665674286098,
                -3.0995497647219064
            ]
        },
        {
            "positions": [
                0.021968105472426946,
                -1.5868022998149154,
                2.4218850730657184,
                -0.8412885477231103,
                0.9372885144267332,
                -3.102313626275858
            ]
        },
        {
            "positions": [
                0.14191192554715149,
                -1.657851920218004,
                2.4216552088126244,
                -0.7787647742795749,
                0.8387104614248566,
                -3.1050774878298095
            ]
        },
        {
            "positions": [
                0.26185574562187613,
                -1.7289015406210926,
                2.421425344559531,
                -0.7162410008360394,
                0.7401324084229799,
                -3.1078413493837616
            ]
        },
        {
            "positions": [
                0.3817995656966006,
                -1.7999511610241812,
                2.421195480306437,
                -0.6537172273925038,
                0.6415543554211034,
                -3.110605210937713
            ]
        },
        {
            "positions": [
                0.5017433857713252,
                -1.8710007814272696,
                2.420965616053343,
                -0.5911934539489683,
                0.5429763024192267,
                -3.1133690724916647
            ]
        },
        {
            "positions": [
                0.6216872058460496,
                -1.9420504018303582,
                2.420735751800249,
                -0.5286696805054328,
                0.4443982494173502,
                -3.1161329340456168
            ]
        },
        {
            "positions": [
                0.7416310259207742,
                -2.0131000222334468,
                2.420505887547155,
                -0.4661459070618973,
                0.3458201964154735,
                -3.1188967955995683
            ]
        },
        {
            "positions": [
                0.7240922008346553,
                -1.9586253630870774,
                2.405505118666441,
                -0.46033594426989544,
                0.524948988303556,
                -3.1328934741545442
            ]
        },
        {
            "positions": [
                0.7065533757485365,
                -1.9041507039407077,
                2.390504349785727,
                -0.45452598147789364,
                0.7040777801916384,
                -3.1468901527095205
            ]
        }
    ]
}