{
    "goal": {
        "global_pose": {
            "orientation": {
                "w": 0.5084816217422485,
                "x": -0.49083608388900757,
                "y": 0.5182115435600281,
                "z": -0.4816462993621826
            },
            "position": {
                "x": 0.5540239810943604,
                "y": 0.030875300988554955,
                "z": 0.16403168439865112
            }
        },
        "name": "move_to_storage_A"
    },
    "id": "SPARS_move_to_storage_A_3",
    "joint_names": [
        "shoulder_pan_joint",
        "shoulder_lift_joint",
        "elbow_joint",
        "wrist_1_joint",
        "wrist_2_joint",
        "wrist_3_joint"
    ],
    "metrics": {
        "cart_traj_len": 0.35363458168427575,
        "distance_elbow_joint": 0.4492124700496405,
        "distance_shoulder_lift_joint": 0.23593255707779148,
        "distance_shoulder_pan_joint": 0.46146916427390455,
        "distance_wrist_1_joint": 0.2392627927774903,
        "distance_wrist_2_joint": 1.1044817540146339,
        "distance_wrist_3_joint": 0.10311311127711598,
        "smoothness": 8.881784232165597e-16,
        "time": 5.022817681,
        "traj_len": 1.6104259838535195,
        "weighted_distance": 2.0355447965635474
    },
    "planner": "SPARS",
    "start": {
        "state": {
            "elbow_joint": 1.971548259319323,
            "shoulder_lift_joint": -1.1394851275133948,
            "shoulder_pan_joint": 0.1228115487234821,
            "wrist_1_joint": -0.7804723859257726,
            "wrist_2_joint": 0.12958671773740124,
            "wrist_3_joint": -3.192489227718131
        }
    },
    "waypoints": [
        {
            "positions": [
                0.1228115487234821,
                -1.1394851275133948,
                1.971548259319323,
                -0.7804723859257726,
                0.12958671773740124,
                -3.192489227718131
            ]
        },
        {
            "positions": [
                0.056887382398638595,
                -1.1731897785245078,
                2.0357214693264143,
                -0.8146527848939855,
                0.28736982545377754,
                -3.177758783249972
            ]
        },
        {
            "positions": [
                -0.009036783926204911,
                -1.206894429535621,
                2.099894679333506,
                -0.8488331838621984,
                0.4451529331701538,
                -3.163028338781812
            ]
        },
        {
            "positions": [
                -0.0749609502510484,
                -1.240599080546734,
                2.1640678893405974,
                -0.8830135828304113,
                0.6029360408865301,
                -3.148297894313653
            ]
        },
        {
            "positions": [
                -0.14088511657589192,
                -1.2743037315578472,
                2.228241099347689,
                -0.9171939817986242,
                0.7607191486029063,
                -3.1335674498454935
            ]
        },
        {
            "positions": [
                -0.20680928290073547,
                -1.3080083825689601,
                2.2924143093547804,
                -0.9513743807668371,
                0.9185022563192826,
                -3.118837005377334
            ]
        },
        {
            "positions": [
                -0.2727334492255789,
                -1.3417130335800733,
                2.356587519361872,
                -0.98555477973505,
                1.0762853640356589,
                -3.1041065609091745
            ]
        },
        {
            "positions": [
                -0.33865761555042245,
                -1.3754176845911863,
                2.4207607293689635,
                -1.019735178703263,
                1.2340684717520352,
                -3.089376116441015
            ]
        }
    ]
}{
    "goal": {
        "global_pose": {
            "orientation": {
                "w": 0.5084816217422485,
                "x": -0.49083608388900757,
                "y": 0.5182115435600281,
                "z": -0.4816462993621826
            },
            "position": {
                "x": 0.5540239810943604,
                "y": 0.030875300988554955,
                "z": 0.16403168439865112
            }
        },
        "name": "move_to_storage_A"
    },
    "id": "SPARS_move_to_storage_A_3",
    "joint_names": [
        "shoulder_pan_joint",
        "shoulder_lift_joint",
        "elbow_joint",
        "wrist_1_joint",
        "wrist_2_joint",
        "wrist_3_joint"
    ],
    "metrics": {
        "cart_traj_len": 0.3534286521723873,
        "distance_elbow_joint": 0.44996704015252753,
        "distance_shoulder_lift_joint": 0.23707097193588567,
        "distance_shoulder_pan_joint": 0.4636271024481081,
        "distance_wrist_1_joint": 0.2356043744508236,
        "distance_wrist_2_joint": 1.0947630856823283,
        "distance_wrist_3_joint": 0.08594792405684615,
        "smoothness": 6.661338200497456e-16,
        "time": 5.033720247,
        "traj_len": 1.602179920834898,
        "weighted_distance": 2.0172366759935145
    },
    "planner": "SPARS",
    "start": {
        "state": {
            "elbow_joint": 1.97154746011099,
            "shoulder_lift_joint": -1.13948474672311,
            "shoulder_pan_joint": 0.12281154466712228,
            "wrist_1_joint": -0.7804688027058302,
            "wrist_2_joint": 0.12958655903071145,
            "wrist_3_joint": 3.0906928834467795
        }
    },
    "waypoints": [
        {
            "positions": [
                0.12281154466712228,
                -1.13948474672311,
                1.97154746011099,
                -0.7804688027058302,
                0.12958655903071145,
                3.0906928834467795
            ]
        },
        {
            "positions": [
                0.05657910146024969,
                -1.1733520284282364,
                2.0358284658470653,
                -0.8141265704845193,
                0.28598128555675834,
                3.102971158312043
            ]
        },
        {
            "positions": [
                -0.009653341746622898,
                -1.207219310133363,
                2.1001094715831408,
                -0.8477843382632083,
                0.4423760120828052,
                3.115249433177307
            ]
        },
        {
            "positions": [
                -0.07588578495349547,
                -1.2410865918384895,
                2.164390477319216,
                -0.8814421060418974,
                0.5987707386088521,
                3.1275277080425705
            ]
        },
        {
            "positions": [
                -0.14211822816036807,
                -1.2749538735436161,
                2.228671483055291,
                -0.9150998738205866,
                0.755165465134899,
                3.1398059829078346
            ]
        },
        {
            "positions": [
                -0.20835067136724067,
                -1.3088211552487425,
                2.2929524887913666,
                -0.9487576415992756,
                0.9115601916609459,
                3.1520842577730983
            ]
        },
        {
            "positions": [
                -0.2745831145741132,
                -1.342688436953869,
                2.357233494527442,
                -0.9824154093779647,
                1.0679549181869927,
                3.164362532638362
            ]
        },
        {
            "positions": [
                -0.3408155577809858,
                -1.3765557186589956,
                2.4215145002635174,
                -1.0160731771566538,
                1.2243496447130398,
                3.1766408075036257
            ]
        }
    ]
}{
    "goal": {
        "global_pose": {
            "orientation": {
                "w": 0.5084816217422485,
                "x": -0.49083608388900757,
                "y": 0.5182115435600281,
                "z": -0.4816462993621826
            },
            "position": {
                "x": 0.5540239810943604,
                "y": 0.030875300988554955,
                "z": 0.16403168439865112
            }
        },
        "name": "move_to_storage_A"
    },
    "id": "SPARS_move_to_storage_A_3",
    "joint_names": [
        "shoulder_pan_joint",
        "shoulder_lift_joint",
        "elbow_joint",
        "wrist_1_joint",
        "wrist_2_joint",
        "wrist_3_joint"
    ],
    "metrics": {
        "cart_traj_len": 0.3533033531110621,
        "distance_elbow_joint": 0.45070958986170817,
        "distance_shoulder_lift_joint": 0.2348467353720094,
        "distance_shoulder_pan_joint": 0.4642150173998015,
        "distance_wrist_1_joint": 0.24547817173713993,
        "distance_wrist_2_joint": 1.0899101678689542,
        "distance_wrist_3_joint": 0.08983730490057606,
        "smoothness": 8.881784232165597e-16,
        "time": 5.008521267,
        "traj_len": 1.6046797148154486,
        "weighted_distance": 2.0223896599190363
    },
    "planner": "SPARS",
    "start": {
        "state": {
            "elbow_joint": 1.9715472970024885,
            "shoulder_lift_joint": -1.1394870060712896,
            "shoulder_pan_joint": 0.12281152778156021,
            "wrist_1_joint": -0.780463741449964,
            "wrist_2_joint": 0.12958659822042276,
            "wrist_3_joint": 3.090690232415272
        }
    },
    "waypoints": [
        {
            "positions": [
                0.12281152778156021,
                -1.1394870060712896,
                1.9715472970024885,
                -0.780463741449964,
                0.12958659822042276,
                3.090690232415272
            ]
        },
        {
            "positions": [
                0.05649509672444572,
                -1.1730365396958624,
                2.0359343812684467,
                -0.8155320516981268,
                0.28528805077313046,
                3.103524133115354
            ]
        },
        {
            "positions": [
                -0.009821334332668769,
                -1.2065860733204352,
                2.1003214655344054,
                -0.8506003619462896,
                0.4409895033258382,
                3.1163580338154366
            ]
        },
        {
            "positions": [
                -0.07613776538978326,
                -1.240135606945008,
                2.1647085498003635,
                -0.8856686721944526,
                0.5966909558785459,
                3.129191934515519
            ]
        },
        {
            "positions": [
                -0.14245419644689775,
                -1.2736851405695806,
                2.2290956340663217,
                -0.9207369824426154,
                0.7523924084312537,
                3.142025835215601
            ]
        },
        {
            "positions": [
                -0.20877062750401224,
                -1.3072346741941534,
                2.29348271833228,
                -0.9558052926907783,
                0.9080938609839615,
                3.154859735915683
            ]
        },
        {
            "positions": [
                -0.2750870585611267,
                -1.3407842078187262,
                2.3578698025982385,
                -0.9908736029389411,
                1.0637953135366691,
                3.1676936366157658
            ]
        },
        {
            "positions": [
                -0.34140348961824124,
                -1.374333741443299,
                2.4222568868641967,
                -1.025941913187104,
                1.219496766089377,
                3.180527537315848
            ]
        }
    ]
}