{
    "goal": {
        "global_pose": {
            "orientation": {
                "w": -0.00223480608172531,
                "x": 0.0024358444001904467,
                "y": 0.7094548369677653,
                "z": -0.704743149386269
            },
            "position": {
                "x": -0.37947507619857795,
                "y": -0.6371506643295288,
                "z": 0.19426114857196808
            }
        },
        "name": "move_to_magneteinheit_C"
    },
    "id": "SPARS_move_to_magneteinheit_C_96",
    "joint_names": [
        "shoulder_pan_joint",
        "shoulder_lift_joint",
        "elbow_joint",
        "wrist_1_joint",
        "wrist_2_joint",
        "wrist_3_joint"
    ],
    "metrics": {
        "cart_traj_len": 0.8604859379870823,
        "distance_elbow_joint": 0.8743267384564595,
        "distance_shoulder_lift_joint": 1.2312856726923487,
        "distance_shoulder_pan_joint": 1.1714187616398408,
        "distance_wrist_1_joint": 0.5892037165723395,
        "distance_wrist_2_joint": 0.7879274603951854,
        "distance_wrist_3_joint": 1.709521760726668,
        "smoothness": 1.2758826528820937,
        "time": 5.014223535,
        "traj_len": 2.522634359252811,
        "weighted_distance": 3.340637485406596
    },
    "planner": "SPARS",
    "start": {
        "state": {
            "elbow_joint": 1.9565354010623817,
            "shoulder_lift_joint": -1.4165861575791021,
            "shoulder_pan_joint": -1.6717766225146293,
            "wrist_1_joint": -0.5286633292919765,
            "wrist_2_joint": 1.472756589071564,
            "wrist_3_joint": -3.1238370188695823
        }
    },
    "waypoints": [
        {
            "positions": [
                -1.6717766225146293,
                -1.4165861575791021,
                1.9565354010623817,
                -0.5286633292919765,
                1.472756589071564,
                -3.1238370188695823
            ]
        },
        {
            "positions": [
                -1.7813577409790833,
                -1.4709337657585018,
                2.0082811773620013,
                -0.5133661067631977,
                1.437745625984148,
                -3.0298564334447544
            ]
        },
        {
            "positions": [
                -1.8909388594435372,
                -1.5252813739379014,
                2.060026953661621,
                -0.498068884234419,
                1.4027346628967319,
                -2.9358758480199265
            ]
        },
        {
            "positions": [
                -2.000519977907991,
                -1.579628982117301,
                2.1117727299612405,
                -0.48277166170564023,
                1.3677236998093159,
                -2.841895262595098
            ]
        },
        {
            "positions": [
                -2.1101010963724454,
                -1.6339765902967005,
                2.16351850626086,
                -0.4674744391768615,
                1.3327127367218998,
                -2.7479146771702703
            ]
        },
        {
            "positions": [
                -2.219682214836899,
                -1.6883241984761002,
                2.21526428256048,
                -0.45217721664808275,
                1.2977017736344838,
                -2.6539340917454424
            ]
        },
        {
            "positions": [
                -2.329263333301353,
                -1.7426718066554998,
                2.2670100588600994,
                -0.436879994119304,
                1.2626908105470678,
                -2.5599535063206145
            ]
        },
        {
            "positions": [
                -2.438844451765807,
                -1.7970194148348995,
                2.318755835159719,
                -0.42158277159052526,
                1.2276798474596518,
                -2.465972920895786
            ]
        },
        {
            "positions": [
                -2.548425570230261,
                -1.8513670230142991,
                2.3705016114593387,
                -0.4062855490617465,
                1.1926688843722357,
                -2.3719923354709582
            ]
        },
        {
            "positions": [
                -2.658006688694715,
                -1.9057146311936988,
                2.4222473877589583,
                -0.3909883265329678,
                1.1576579212848197,
                -2.2780117500461303
            ]
        },
        {
            "positions": [
                -2.6348581017622457,
                -1.8129449813089797,
                2.371170543788973,
                -0.44742941575963413,
                1.0985543222087646,
                -2.3859738115340323
            ]
        },
        {
            "positions": [
                -2.611709514829776,
                -1.7201753314242607,
                2.3200936998189876,
                -0.5038705049863005,
                1.0394507231327095,
                -2.4939358730219343
            ]
        },
        {
            "positions": [
                -2.5885609278973067,
                -1.6274056815395417,
                2.269016855849002,
                -0.5603115942129668,
                0.9803471240566543,
                -2.6018979345098363
            ]
        },
        {
            "positions": [
                -2.565412340964837,
                -1.5346360316548227,
                2.217940011879017,
                -0.6167526834396332,
                0.9212435249805991,
                -2.7098599959977383
            ]
        },
        {
            "positions": [
                -2.542263754032368,
                -1.4418663817701036,
                2.1668631679090318,
                -0.6731937726662995,
                0.862139925904544,
                -2.8178220574856403
            ]
        },
        {
            "positions": [
                -2.5191151670998986,
                -1.3490967318853848,
                2.115786323939046,
                -0.7296348618929659,
                0.8030363268284888,
                -2.9257841189735423
            ]
        },
        {
            "positions": [
                -2.495966580167429,
                -1.2563270820006658,
                2.0647094799690606,
                -0.7860759511196322,
                0.7439327277524337,
                -3.0337461804614443
            ]
        },
        {
            "positions": [
                -2.4728179932349597,
                -1.1635574321159468,
                2.0136326359990755,
                -0.8425170403462986,
                0.6848291286763786,
                -3.1417082419493463
            ]
        }
    ]
}