{
    "goal": {
        "global_pose": {
            "orientation": {
                "w": 0.7047431493862688,
                "x": -0.7094548369677653,
                "y": 0.0024358444001904,
                "z": -0.0022348060817251984
            },
            "position": {
                "x": -0.39052492380142206,
                "y": 0.3671506643295288,
                "z": 0.19426114857196808
            }
        },
        "name": "move_to_magneteinheit_D"
    },
    "id": "SPARS_move_to_magneteinheit_D_38",
    "joint_names": [
        "shoulder_pan_joint",
        "shoulder_lift_joint",
        "elbow_joint",
        "wrist_1_joint",
        "wrist_2_joint",
        "wrist_3_joint"
    ],
    "metrics": {
        "cart_traj_len": 5.202225385723563,
        "distance_elbow_joint": 3.177300565779574,
        "distance_shoulder_lift_joint": 1.6323249618541509,
        "distance_shoulder_pan_joint": 6.148939867235475,
        "distance_wrist_1_joint": 4.301558799367227,
        "distance_wrist_2_joint": 1.5603737707234921,
        "distance_wrist_3_joint": 5.24645563389753,
        "smoothness": 0.49931882980277154,
        "time": 5.089910092,
        "traj_len": 4.6975476153901266,
        "weighted_distance": 6.198531877529005
    },
    "planner": "SPARS",
    "start": {
        "state": {
            "elbow_joint": 0.749534889911806,
            "shoulder_lift_joint": -0.6476975780787326,
            "shoulder_pan_joint": -2.711696901376241,
            "wrist_1_joint": -0.07506478083263063,
            "wrist_2_joint": 0.43296659715538205,
            "wrist_3_joint": -3.14703540197715
        }
    },
    "waypoints": [
        {
            "positions": [
                -2.711696901376241,
                -0.6476975780787326,
                0.749534889911806,
                -0.07506478083263063,
                0.43296659715538205,
                -3.14703540197715
            ]
        },
        {
            "positions": [
                -2.701735561765556,
                -0.6533118708632654,
                0.717415676164397,
                0.05850845105304653,
                0.4680915825938421,
                -2.987726727680123
            ]
        },
        {
            "positions": [
                -2.6917742221548706,
                -0.6589261636477981,
                0.685296462416988,
                0.19208168293872369,
                0.5032165680323022,
                -2.8284180533830967
            ]
        },
        {
            "positions": [
                -2.6818128825441856,
                -0.6645404564323308,
                0.6531772486695792,
                0.32565491482440084,
                0.5383415534707622,
                -2.66910937908607
            ]
        },
        {
            "positions": [
                -2.6718515429335,
                -0.6701547492168636,
                0.6210580349221702,
                0.459228146710078,
                0.5734665389092222,
                -2.5098007047890434
            ]
        },
        {
            "positions": [
                -2.661890203322815,
                -0.6757690420013962,
                0.5889388211747613,
                0.5928013785957551,
                0.6085915243476823,
                -2.3504920304920165
            ]
        },
        {
            "positions": [
                -2.65192886371213,
                -0.6813833347859289,
                0.5568196074273524,
                0.7263746104814324,
                0.6437165097861424,
                -2.1911833561949896
            ]
        },
        {
            "positions": [
                -2.6419675241014446,
                -0.6869976275704617,
                0.5247003936799434,
                0.8599478423671094,
                0.6788414952246024,
                -2.031874681897963
            ]
        },
        {
            "positions": [
                -2.6320061844907596,
                -0.6926119203549944,
                0.4925811799325344,
                0.9935210742527867,
                0.7139664806630623,
                -1.8725660076009365
            ]
        },
        {
            "positions": [
                -2.6220448448800746,
                -0.6982262131395272,
                0.46046196618512547,
                1.1270943061384637,
                0.7490914661015224,
                -1.7132573333039098
            ]
        },
        {
            "positions": [
                -2.612083505269389,
                -0.7038405059240599,
                0.4283427524377165,
                1.260667538024141,
                0.7842164515399825,
                -1.5539486590068832
            ]
        },
        {
            "positions": [
                -2.602122165658704,
                -0.7094547987085926,
                0.3962235386903076,
                1.3942407699098183,
                0.8193414369784425,
                -1.3946399847098565
            ]
        },
        {
            "positions": [
                -2.592160826048019,
                -0.7150690914931253,
                0.3641043249428987,
                1.5278140017954953,
                0.8544664224169025,
                -1.2353313104128296
            ]
        },
        {
            "positions": [
                -2.5821994864373337,
                -0.720683384277658,
                0.33198511119548973,
                1.6613872336811724,
                0.8895914078553626,
                -1.0760226361158032
            ]
        },
        {
            "positions": [
                -2.5722381468266486,
                -0.7262976770621907,
                0.2998658974480808,
                1.7949604655668496,
                0.9247163932938227,
                -0.9167139618187763
            ]
        },
        {
            "positions": [
                -2.562276807215963,
                -0.7319119698467235,
                0.26774668370067184,
                1.928533697452527,
                0.9598413787322826,
                -0.7574052875217498
            ]
        },
        {
            "positions": [
                -2.552315467605278,
                -0.7375262626312562,
                0.2356274699532629,
                2.0621069293382037,
                0.9949663641707427,
                -0.5980966132247229
            ]
        },
        {
            "positions": [
                -2.417529801497262,
                -0.7779924217199958,
                0.15056041831240038,
                2.018517976852238,
                0.9657385085878968,
                -0.5450524152958335
            ]
        },
        {
            "positions": [
                -2.2827441353892457,
                -0.8184585808087355,
                0.06549336667153788,
                1.9749290243662718,
                0.936510653005051,
                -0.49200821736694417
            ]
        },
        {
            "positions": [
                -2.147958469281229,
                -0.8589247398974751,
                -0.019573684969324656,
                1.9313400718803058,
                0.9072827974222051,
                -0.43896401943805485
            ]
        },
        {
            "positions": [
                -2.0131728031732132,
                -0.8993908989862147,
                -0.10464073661018714,
                1.88775111939434,
                0.8780549418393593,
                -0.3859198215091655
            ]
        },
        {
            "positions": [
                -1.8783871370651966,
                -0.9398570580749543,
                -0.18970778825104967,
                1.8441621669083739,
                0.8488270862565134,
                -0.33287562358027617
            ]
        },
        {
            "positions": [
                -1.7436014709571803,
                -0.9803232171636941,
                -0.2747748398919122,
                1.8005732144224078,
                0.8195992306736675,
                -0.27983142565138686
            ]
        },
        {
            "positions": [
                -1.608815804849164,
                -1.0207893762524338,
                -0.3598418915327747,
                1.756984261936442,
                0.7903713750908217,
                -0.22678722772249754
            ]
        },
        {
            "positions": [
                -1.4740301387411479,
                -1.0612555353411732,
                -0.44490894317363716,
                1.7133953094504761,
                0.7611435195079758,
                -0.17374302979360817
            ]
        },
        {
            "positions": [
                -1.3392444726331314,
                -1.101721694429913,
                -0.5299759948144998,
                1.66980635696451,
                0.7319156639251299,
                -0.1206988318647188
            ]
        },
        {
            "positions": [
                -1.2044588065251152,
                -1.1421878535186525,
                -0.6150430464553622,
                1.626217404478544,
                0.7026878083422841,
                -0.06765463393582949
            ]
        },
        {
            "positions": [
                -1.0696731404170987,
                -1.1826540126073923,
                -0.7001100980962248,
                1.5826284519925782,
                0.6734599527594382,
                -0.01461043600694012
            ]
        },
        {
            "positions": [
                -0.9348874743090825,
                -1.223120171696132,
                -0.7851771497370873,
                1.5390394995066121,
                0.6442320971765922,
                0.03843376192194914
            ]
        },
        {
            "positions": [
                -0.8001018082010662,
                -1.2635863307848716,
                -0.8702442013779498,
                1.495450547020646,
                0.6150042415937464,
                0.09147795985083851
            ]
        },
        {
            "positions": [
                -0.66531614209305,
                -1.3040524898736112,
                -0.9553112530188123,
                1.4518615945346802,
                0.5857763860109005,
                0.14452215777972777
            ]
        },
        {
            "positions": [
                -0.5305304759850333,
                -1.3445186489623508,
                -1.0403783046596748,
                1.4082726420487142,
                0.5565485304280546,
                0.19756635570861714
            ]
        },
        {
            "positions": [
                -0.39574480987701754,
                -1.3849848080510905,
                -1.125445356300537,
                1.3646836895627483,
                0.5273206748452088,
                0.2506105536375065
            ]
        },
        {
            "positions": [
                -0.2609591437690013,
                -1.42545096713983,
                -1.2105124079413998,
                1.3210947370767823,
                0.498092819262363,
                0.30365475156639576
            ]
        },
        {
            "positions": [
                -0.12617347766098463,
                -1.46591712622857,
                -1.2955794595822625,
                1.2775057845908164,
                0.468864963679517,
                0.35669894949528524
            ]
        },
        {
            "positions": [
                0.008612188447031599,
                -1.5063832853173094,
                -1.3806465112231248,
                1.2339168321048504,
                0.4396371080966712,
                0.4097431474241745
            ]
        },
        {
            "positions": [
                0.14339785455504783,
                -1.546849444406049,
                -1.4657135628639875,
                1.1903278796188843,
                0.4104092525138253,
                0.4627873453530639
            ]
        },
        {
            "positions": [
                0.27818352066306407,
                -1.5873156034947886,
                -1.5507806145048497,
                1.1467389271329185,
                0.3811813969309795,
                0.515831543281953
            ]
        },
        {
            "positions": [
                0.41296918677108074,
                -1.6277817625835285,
                -1.6358476661457124,
                1.1031499746469524,
                0.3519535413481336,
                0.5688757412108426
            ]
        },
        {
            "positions": [
                0.547754852879097,
                -1.6682479216722679,
                -1.7209147177865751,
                1.0595610221609866,
                0.3227256857652877,
                0.6219199391397318
            ]
        },
        {
            "positions": [
                0.6825405189871132,
                -1.7087140807610077,
                -1.8059817694274374,
                1.0159720696750205,
                0.2934978301824419,
                0.6749641370686211
            ]
        },
        {
            "positions": [
                0.8173261850951294,
                -1.7491802398497471,
                -1.8910488210682996,
                0.9723831171890547,
                0.264269974599596,
                0.7280083349975105
            ]
        },
        {
            "positions": [
                0.9521118512031457,
                -1.789646398938487,
                -1.9761158727091623,
                0.9287941647030886,
                0.2350421190167501,
                0.7810525329263999
            ]
        },
        {
            "positions": [
                1.086897517311162,
                -1.8301125580272266,
                -2.061182924350025,
                0.8852052122171226,
                0.2058142634339043,
                0.8340967308552892
            ]
        },
        {
            "positions": [
                1.2216831834191781,
                -1.8705787171159662,
                -2.1462499759908873,
                0.8416162597311567,
                0.1765864078510584,
                0.8871409287841784
            ]
        },
        {
            "positions": [
                1.3564688495271944,
                -1.9110448762047059,
                -2.23131702763175,
                0.7980273072451907,
                0.1473585522682126,
                0.9401851267130678
            ]
        },
        {
            "positions": [
                1.4912545156352115,
                -1.9515110352934455,
                -2.3163840792726127,
                0.7544383547592246,
                0.11813069668536658,
                0.9932293246419571
            ]
        },
        {
            "positions": [
                1.6260401817432277,
                -1.9919771943821851,
                -2.401451130913475,
                0.7108494022732588,
                0.08890284110252078,
                1.0462735225708464
            ]
        },
        {
            "positions": [
                1.4613853831872272,
                -2.018163134886794,
                -2.3990588995539937,
                0.7847702715579358,
                0.09729470297887619,
                0.9505329126299791
            ]
        },
        {
            "positions": [
                1.2967305846312267,
                -2.044349075391403,
                -2.3966666681945124,
                0.8586911408426128,
                0.10568656485523159,
                0.8547923026891119
            ]
        },
        {
            "positions": [
                1.1320757860752262,
                -2.070535015896012,
                -2.3942744368350315,
                0.9326120101272897,
                0.114078426731587,
                0.7590516927482447
            ]
        },
        {
            "positions": [
                0.9674209875192257,
                -2.096720956400621,
                -2.39188220547555,
                1.0065328794119668,
                0.1224702886079424,
                0.6633110828073774
            ]
        },
        {
            "positions": [
                0.8027661889632252,
                -2.12290689690523,
                -2.389489974116069,
                1.0804537486966437,
                0.1308621504842978,
                0.5675704728665101
            ]
        },
        {
            "positions": [
                0.6381113904072248,
                -2.149092837409839,
                -2.3870977427565876,
                1.1543746179813206,
                0.1392540123606532,
                0.4718298629256429
            ]
        },
        {
            "positions": [
                0.47345659185122413,
                -2.1752787779144476,
                -2.3847055113971063,
                1.2282954872659977,
                0.14764587423700862,
                0.3760892529847756
            ]
        },
        {
            "positions": [
                0.3088017932952236,
                -2.2014647184190568,
                -2.382313280037625,
                1.3022163565506748,
                0.15603773611336402,
                0.2803486430439083
            ]
        },
        {
            "positions": [
                0.1441469947392231,
                -2.2276506589236655,
                -2.379921048678144,
                1.3761372258353517,
                0.16442959798971943,
                0.18460803310304097
            ]
        },
        {
            "positions": [
                -0.020507803816777415,
                -2.2538365994282747,
                -2.377528817318663,
                1.4500580951200286,
                0.17282145986607483,
                0.08886742316217378
            ]
        },
        {
            "positions": [
                -0.18516260237277787,
                -2.2800225399328835,
                -2.3751365859591815,
                1.5239789644047057,
                0.18121332174243024,
                -0.006873186778693597
            ]
        }
    ]
}