{
    "goal": {
        "global_pose": {
            "orientation": {
                "w": 0.7031023502349854,
                "x": -0.7110244035720825,
                "y": 0.007748599164187908,
                "z": 0.005598929710686207
            },
            "position": {
                "x": 0.11585023208521307,
                "y": 0.44412534475326537,
                "z": 0.3711530566215515
            }
        },
        "name": "move_to_auspresseinheit_A"
    },
    "id": "SPARS_move_to_auspresseinheit_A_113",
    "joint_names": [
        "shoulder_pan_joint",
        "shoulder_lift_joint",
        "elbow_joint",
        "wrist_1_joint",
        "wrist_2_joint",
        "wrist_3_joint"
    ],
    "metrics": {
        "cart_traj_len": 0.8482364993440086,
        "distance_elbow_joint": 0.25159959370263385,
        "distance_shoulder_lift_joint": 0.7827889113143371,
        "distance_shoulder_pan_joint": 1.0473904728572938,
        "distance_wrist_1_joint": 0.730073999456135,
        "distance_wrist_2_joint": 0.510543354745723,
        "distance_wrist_3_joint": 2.3321955547549926,
        "smoothness": 1.0669503660186996,
        "time": 5.016406676000001,
        "traj_len": 2.3779385792806162,
        "weighted_distance": 3.399941227513052
    },
    "planner": "SPARS",
    "start": {
        "state": {
            "elbow_joint": 2.4225746658250005,
            "shoulder_lift_joint": -1.3736534386056498,
            "shoulder_pan_joint": -0.3378633547517467,
            "wrist_1_joint": -1.0288598680537169,
            "wrist_2_joint": 1.233022673432363,
            "wrist_3_joint": -3.0940220416140027
        }
    },
    "waypoints": [
        {
            "positions": [
                -0.3378633547517467,
                -1.3736534386056498,
                2.4225746658250005,
                -1.0288598680537169,
                1.233022673432363,
                -3.0940220416140027
            ]
        },
        {
            "positions": [
                -0.3248044820234226,
                -1.4558826893244512,
                2.4049215270735567,
                -0.9473328056235889,
                1.21400711869362,
                -2.9510937797375343
            ]
        },
        {
            "positions": [
                -0.31174560929509854,
                -1.5381119400432526,
                2.3872683883221133,
                -0.8658057431934608,
                1.1949915639548774,
                -2.808165517861066
            ]
        },
        {
            "positions": [
                -0.2986867365667744,
                -1.620341190762054,
                2.3696152495706695,
                -0.7842786807633328,
                1.1759760092161344,
                -2.6652372559845974
            ]
        },
        {
            "positions": [
                -0.2856278638384503,
                -1.7025704414808551,
                2.351962110819226,
                -0.7027516183332048,
                1.1569604544773915,
                -2.522308994108129
            ]
        },
        {
            "positions": [
                -0.2725689911101262,
                -1.7847996921996567,
                2.3343089720677823,
                -0.6212245559030768,
                1.1379448997386485,
                -2.3793807322316605
            ]
        },
        {
            "positions": [
                -0.2595101183818021,
                -1.867028942918458,
                2.3166558333163385,
                -0.5396974934729488,
                1.1189293449999056,
                -2.2364524703551916
            ]
        },
        {
            "positions": [
                -0.24645124565347798,
                -1.9492581936372593,
                2.299002694564895,
                -0.45817043104282074,
                1.0999137902611629,
                -2.093524208478723
            ]
        },
        {
            "positions": [
                -0.23339237292515388,
                -2.0314874443560607,
                2.2813495558134513,
                -0.37664336861269276,
                1.08089823552242,
                -1.9505959466022547
            ]
        },
        {
            "positions": [
                -0.11552743654631625,
                -2.01586808116057,
                2.295146366274837,
                -0.38637555611458163,
                1.0360958709179475,
                -2.0991921290701603
            ]
        },
        {
            "positions": [
                0.002337499832521378,
                -2.000248717965079,
                2.3089431767362223,
                -0.3961077436164705,
                0.9912935063134749,
                -2.247788311538066
            ]
        },
        {
            "positions": [
                0.12020243621135898,
                -1.9846293547695883,
                2.322739987197608,
                -0.40583993111835936,
                0.9464911417090025,
                -2.3963844940059715
            ]
        },
        {
            "positions": [
                0.23806737259019664,
                -1.9690099915740975,
                2.3365367976589937,
                -0.41557211862024823,
                0.90168877710453,
                -2.5449806764738767
            ]
        },
        {
            "positions": [
                0.3559323089690343,
                -1.9533906283786067,
                2.3503336081203794,
                -0.4253043061221371,
                0.8568864125000575,
                -2.693576858941783
            ]
        },
        {
            "positions": [
                0.4737972453478718,
                -1.937771265183116,
                2.364130418581765,
                -0.43503649362402597,
                0.8120840478955851,
                -2.842173041409688
            ]
        },
        {
            "positions": [
                0.5916621817267095,
                -1.9221519019876252,
                2.3779272290431503,
                -0.44476868112591483,
                0.7672816832911126,
                -2.9907692238775936
            ]
        },
        {
            "positions": [
                0.7095271181055471,
                -1.9065325387921344,
                2.391724039504536,
                -0.4545008686278037,
                0.7224793186866401,
                -3.139365406345499
            ]
        }
    ]
}