{
    "goal": {
        "global_pose": {
            "orientation": {
                "w": 0.7031023502349854,
                "x": -0.7110244035720825,
                "y": 0.007748599164187908,
                "z": 0.005598929710686207
            },
            "position": {
                "x": 0.11585023208521307,
                "y": 0.44412534475326537,
                "z": 0.3711530566215515
            }
        },
        "name": "move_to_auspresseinheit_A"
    },
    "id": "SPARS_move_to_auspresseinheit_A_120",
    "joint_names": [
        "shoulder_pan_joint",
        "shoulder_lift_joint",
        "elbow_joint",
        "wrist_1_joint",
        "wrist_2_joint",
        "wrist_3_joint"
    ],
    "metrics": {
        "cart_traj_len": 1.1165145518989839,
        "distance_elbow_joint": 0.12281842047932567,
        "distance_shoulder_lift_joint": 0.5354352882574345,
        "distance_shoulder_pan_joint": 2.3032975986730078,
        "distance_wrist_1_joint": 0.9352753350567427,
        "distance_wrist_2_joint": 0.8145869366147294,
        "distance_wrist_3_joint": 1.0571871509068864,
        "smoothness": 1.15375639190996,
        "time": 5.011847233,
        "traj_len": 2.4017911503684344,
        "weighted_distance": 3.1036812503015465
    },
    "planner": "SPARS",
    "start": {
        "state": {
            "elbow_joint": 2.4225746658250005,
            "shoulder_lift_joint": -1.3736534386056498,
            "shoulder_pan_joint": -0.3378633547517467,
            "wrist_1_joint": -1.0288598680537169,
            "wrist_2_joint": 1.233022673432363,
            "wrist_3_joint": -3.0940220416140027
        }
    },
    "waypoints": [
        {
            "positions": [
                -0.3378633547517467,
                -1.3736534386056498,
                2.4225746658250005,
                -1.0288598680537169,
                1.233022673432363,
                -3.0940220416140027
            ]
        },
        {
            "positions": [
                -0.42763404954118156,
                -1.442456302636366,
                2.429263875706755,
                -0.9217830430699956,
                1.254432199128216,
                -3.0215425695235787
            ]
        },
        {
            "positions": [
                -0.5174047443306165,
                -1.5112591666670818,
                2.4359530855885096,
                -0.8147062180862743,
                1.275841724824069,
                -2.949063097433154
            ]
        },
        {
            "positions": [
                -0.6071754391200512,
                -1.580062030697798,
                2.442642295470264,
                -0.707629393102553,
                1.2972512505199219,
                -2.87658362534273
            ]
        },
        {
            "positions": [
                -0.696946133909486,
                -1.648864894728514,
                2.449331505352019,
                -0.6005525681188316,
                1.318660776215775,
                -2.804104153252306
            ]
        },
        {
            "positions": [
                -0.786716828698921,
                -1.7176677587592302,
                2.456020715233773,
                -0.4934757431351102,
                1.3400703019116278,
                -2.7316246811618816
            ]
        },
        {
            "positions": [
                -0.8764875234883558,
                -1.786470622789946,
                2.462709925115528,
                -0.38639891815138905,
                1.3614798276074809,
                -2.6591452090714576
            ]
        },
        {
            "positions": [
                -0.9662582182777907,
                -1.8552734868206622,
                2.4693991349972824,
                -0.2793220931676676,
                1.3828893533033337,
                -2.5866657369810335
            ]
        },
        {
            "positions": [
                -0.7801579143725725,
                -1.861252957936487,
                2.460955362629833,
                -0.29995959985330023,
                1.3090315469984717,
                -2.647758053233691
            ]
        },
        {
            "positions": [
                -0.5940576104673543,
                -1.8672324290523115,
                2.4525115902623837,
                -0.32059710653893286,
                1.2351737406936096,
                -2.7088503694863486
            ]
        },
        {
            "positions": [
                -0.40795730656213613,
                -1.8732119001681362,
                2.4440678178949344,
                -0.3412346132245655,
                1.1613159343887476,
                -2.769942685739006
            ]
        },
        {
            "positions": [
                -0.22185700265691788,
                -1.879191371283961,
                2.435624045527485,
                -0.36187211991019813,
                1.0874581280838855,
                -2.8310350019916632
            ]
        },
        {
            "positions": [
                -0.03575669875169962,
                -1.8851708423997855,
                2.427180273160036,
                -0.3825096265958308,
                1.0136003217790233,
                -2.892127318244321
            ]
        },
        {
            "positions": [
                0.1503436051535184,
                -1.8911503135156102,
                2.4187365007925865,
                -0.40314713328146345,
                0.9397425154741613,
                -2.9532196344969783
            ]
        },
        {
            "positions": [
                0.3364439090587369,
                -1.897129784631435,
                2.410292728425137,
                -0.4237846399670961,
                0.8658847091692992,
                -3.0143119507496356
            ]
        },
        {
            "positions": [
                0.5225442129639549,
                -1.9031092557472595,
                2.401848956057688,
                -0.4444221466527287,
                0.7920269028644372,
                -3.0754042670022934
            ]
        },
        {
            "positions": [
                0.7086445168691732,
                -1.9090887268630843,
                2.3934051836902386,
                -0.46505965333836136,
                0.7181690965595751,
                -3.1364965832549507
            ]
        }
    ]
}