{
    "goal": {
        "global_pose": {
            "orientation": {
                "w": -0.4816463035849501,
                "x": 0.5182115481033762,
                "y": 0.4908360881923453,
                "z": -0.5084816262002911
            },
            "position": {
                "x": -0.8240239810943604,
                "y": -0.300875300988555,
                "z": 0.16403168439865112
            }
        },
        "name": "move_to_storage_C"
    },
    "id": "SPARS_move_to_storage_C_56",
    "joint_names": [
        "shoulder_pan_joint",
        "shoulder_lift_joint",
        "elbow_joint",
        "wrist_1_joint",
        "wrist_2_joint",
        "wrist_3_joint"
    ],
    "metrics": {
        "cart_traj_len": 0.576639295552459,
        "distance_elbow_joint": 0.25407843726959145,
        "distance_shoulder_lift_joint": 0.18961509211689298,
        "distance_shoulder_pan_joint": 0.4951181104702731,
        "distance_wrist_1_joint": 0.06362279302883667,
        "distance_wrist_2_joint": 1.0661289092250388,
        "distance_wrist_3_joint": 0.06882566902360843,
        "smoothness": 0.0,
        "time": 5.072501692,
        "traj_len": 1.4619811938374043,
        "weighted_distance": 1.8452078613086746
    },
    "planner": "SPARS",
    "start": {
        "state": {
            "elbow_joint": 2.010868314990456,
            "shoulder_lift_joint": -1.1634956873337592,
            "shoulder_pan_joint": -2.4736205022346125,
            "wrist_1_joint": -0.8367026794202681,
            "wrist_2_joint": 0.6746043897044499,
            "wrist_3_joint": -3.1496632123970403
        }
    },
    "waypoints": [
        {
            "positions": [
                -2.4736205022346125,
                -1.1634956873337592,
                2.010868314990456,
                -0.8367026794202681,
                0.6746043897044499,
                -3.1496632123970403
            ]
        },
        {
            "positions": [
                -2.5561401873129914,
                -1.1318931719809437,
                1.9685219087788572,
                -0.8260988805821287,
                0.8522925412419564,
                -3.138192267559772
            ]
        },
        {
            "positions": [
                -2.6386598723913703,
                -1.100290656628128,
                1.9261755025672587,
                -0.8154950817439892,
                1.0299806927794628,
                -3.126721322722504
            ]
        },
        {
            "positions": [
                -2.721179557469749,
                -1.0686881412753126,
                1.88382909635566,
                -0.8048912829058498,
                1.2076688443169692,
                -3.115250377885236
            ]
        },
        {
            "positions": [
                -2.8036992425481277,
                -1.0370856259224972,
                1.8414826901440615,
                -0.7942874840677103,
                1.3853569958544756,
                -3.103779433047968
            ]
        },
        {
            "positions": [
                -2.8862189276265067,
                -1.0054831105696818,
                1.799136283932463,
                -0.7836836852295709,
                1.5630451473919824,
                -3.0923084882107
            ]
        },
        {
            "positions": [
                -2.9687386127048856,
                -0.9738805952168662,
                1.7567898777208644,
                -0.7730798863914314,
                1.7407332989294886,
                -3.080837543373432
            ]
        }
    ]
}