{
    "goal": {
        "global_pose": {
            "orientation": {
                "w": -0.4816463035849501,
                "x": 0.5182115481033762,
                "y": 0.4908360881923453,
                "z": -0.5084816262002911
            },
            "position": {
                "x": -0.8240239810943604,
                "y": -0.300875300988555,
                "z": 0.16403168439865112
            }
        },
        "name": "move_to_storage_C"
    },
    "id": "SPARS_move_to_storage_C_44",
    "joint_names": [
        "shoulder_pan_joint",
        "shoulder_lift_joint",
        "elbow_joint",
        "wrist_1_joint",
        "wrist_2_joint",
        "wrist_3_joint"
    ],
    "metrics": {
        "cart_traj_len": 0.5768028386892368,
        "distance_elbow_joint": 0.25964823380459623,
        "distance_shoulder_lift_joint": 0.18997841268730475,
        "distance_shoulder_pan_joint": 0.49523309965458706,
        "distance_wrist_1_joint": 0.08777970752366593,
        "distance_wrist_2_joint": 1.066863547484802,
        "distance_wrist_3_joint": 0.07123123224042205,
        "smoothness": 2.5376526478085547e-16,
        "time": 5.041934962,
        "traj_len": 1.473341180241487,
        "weighted_distance": 1.8622137237397565
    },
    "planner": "SPARS",
    "start": {
        "state": {
            "elbow_joint": 2.010868314990456,
            "shoulder_lift_joint": -1.1634956873337592,
            "shoulder_pan_joint": -2.4736205022346125,
            "wrist_1_joint": -0.8367026794202681,
            "wrist_2_joint": 0.6746043897044499,
            "wrist_3_joint": -3.1496632123970403
        }
    },
    "waypoints": [
        {
            "positions": [
                -2.4736205022346125,
                -1.1634956873337592,
                2.010868314990456,
                -0.8367026794202681,
                0.6746043897044499,
                -3.1496632123970403
            ]
        },
        {
            "positions": [
                -2.5561593521770436,
                -1.1318326185525418,
                1.9675936093563564,
                -0.8220727281663238,
                0.8524149809519169,
                -3.13779134035697
            ]
        },
        {
            "positions": [
                -2.6386982021194747,
                -1.1001695497713242,
                1.924318903722257,
                -0.8074427769123794,
                1.030225572199384,
                -3.1259194683168996
            ]
        },
        {
            "positions": [
                -2.7212370520619062,
                -1.0685064809901068,
                1.8810441980881576,
                -0.7928128256584351,
                1.208036163446851,
                -3.114047596276829
            ]
        },
        {
            "positions": [
                -2.8037759020043374,
                -1.0368434122088894,
                1.8377694924540584,
                -0.7781828744044909,
                1.385846754694318,
                -3.102175724236759
            ]
        },
        {
            "positions": [
                -2.8863147519467685,
                -1.0051803434276718,
                1.794494786819959,
                -0.7635529231505465,
                1.563657345941785,
                -3.090303852196689
            ]
        },
        {
            "positions": [
                -2.9688536018891996,
                -0.9735172746464544,
                1.7512200811858596,
                -0.7489229718966022,
                1.741467937189252,
                -3.0784319801566182
            ]
        }
    ]
}