{
    "goal": {
        "global_pose": {
            "orientation": {
                "w": 0.5084816217422485,
                "x": -0.49083608388900757,
                "y": 0.5182115435600281,
                "z": -0.4816462993621826
            },
            "position": {
                "x": 0.5540239810943604,
                "y": 0.030875300988554955,
                "z": 0.16403168439865112
            }
        },
        "name": "move_to_storage_A"
    },
    "id": "SPARS_move_to_storage_A_24",
    "joint_names": [
        "shoulder_pan_joint",
        "shoulder_lift_joint",
        "elbow_joint",
        "wrist_1_joint",
        "wrist_2_joint",
        "wrist_3_joint"
    ],
    "metrics": {
        "cart_traj_len": 0.3538287663211379,
        "distance_elbow_joint": 0.44984327830929716,
        "distance_shoulder_lift_joint": 0.23298034449893668,
        "distance_shoulder_pan_joint": 0.45992675962417123,
        "distance_wrist_1_joint": 0.24685132059377335,
        "distance_wrist_2_joint": 1.1111589960144075,
        "distance_wrist_3_joint": 0.1034801490595969,
        "smoothness": 1.1102230263833737e-15,
        "time": 5.0138959,
        "traj_len": 1.6137660450326072,
        "weighted_distance": 2.0418647023805363
    },
    "planner": "SPARS",
    "start": {
        "state": {
            "elbow_joint": 1.971548259319323,
            "shoulder_lift_joint": -1.1394851275133948,
            "shoulder_pan_joint": 0.1228115487234821,
            "wrist_1_joint": -0.7804723859257726,
            "wrist_2_joint": 0.12958671773740124,
            "wrist_3_joint": -3.192489227718131
        }
    },
    "waypoints": [
        {
            "positions": [
                0.1228115487234821,
                -1.1394851275133948,
                1.971548259319323,
                -0.7804723859257726,
                0.12958671773740124,
                -3.192489227718131
            ]
        },
        {
            "positions": [
                0.057107725920029065,
                -1.1727680338703859,
                2.03581158479208,
                -0.8157368602963116,
                0.28832371716803085,
                -3.177706349281046
            ]
        },
        {
            "positions": [
                -0.00859609688342397,
                -1.2060509402273767,
                2.1000749102648366,
                -0.8510013346668507,
                0.44706071659866053,
                -3.1629234708439604
            ]
        },
        {
            "positions": [
                -0.07429991968687699,
                -1.2393338465843677,
                2.1643382357375933,
                -0.8862658090373897,
                0.6057977160292901,
                -3.1481405924068753
            ]
        },
        {
            "positions": [
                -0.14000374249033004,
                -1.2726167529413586,
                2.22860156121035,
                -0.9215302834079289,
                0.7645347154599198,
                -3.13335771396979
            ]
        },
        {
            "positions": [
                -0.2057075652937831,
                -1.3058996592983496,
                2.2928648866831067,
                -0.9567947577784679,
                0.9232717148905495,
                -3.118574835532705
            ]
        },
        {
            "positions": [
                -0.2714113880972361,
                -1.3391825656553404,
                2.3571282121558634,
                -0.9920592321490069,
                1.082008714321179,
                -3.1037919570956194
            ]
        },
        {
            "positions": [
                -0.33711521090068913,
                -1.3724654720123315,
                2.42139153762862,
                -1.027323706519546,
                1.2407457137518088,
                -3.0890090786585342
            ]
        }
    ]
}{
    "goal": {
        "global_pose": {
            "orientation": {
                "w": 0.5084816217422485,
                "x": -0.49083608388900757,
                "y": 0.5182115435600281,
                "z": -0.4816462993621826
            },
            "position": {
                "x": 0.5540239810943604,
                "y": 0.030875300988554955,
                "z": 0.16403168439865112
            }
        },
        "name": "move_to_storage_A"
    },
    "id": "SPARS_move_to_storage_A_24",
    "joint_names": [
        "shoulder_pan_joint",
        "shoulder_lift_joint",
        "elbow_joint",
        "wrist_1_joint",
        "wrist_2_joint",
        "wrist_3_joint"
    ],
    "metrics": {
        "cart_traj_len": 0.35299239539818866,
        "distance_elbow_joint": 0.4541347666630027,
        "distance_shoulder_lift_joint": 0.23455948630557089,
        "distance_shoulder_pan_joint": 0.4617283821354553,
        "distance_wrist_1_joint": 0.2609369368029961,
        "distance_wrist_2_joint": 1.0984734790489816,
        "distance_wrist_3_joint": 0.09275227249626816,
        "smoothness": 0.0,
        "time": 5.053257123,
        "traj_len": 1.613253025241941,
        "weighted_distance": 2.036541255240558
    },
    "planner": "SPARS",
    "start": {
        "state": {
            "elbow_joint": 1.97154746011099,
            "shoulder_lift_joint": -1.13948474672311,
            "shoulder_pan_joint": 0.12281154466712228,
            "wrist_1_joint": -0.7804688027058302,
            "wrist_2_joint": 0.12958655903071145,
            "wrist_3_joint": 3.0906928834467795
        }
    },
    "waypoints": [
        {
            "positions": [
                0.12281154466712228,
                -1.13948474672311,
                1.97154746011099,
                -0.7804688027058302,
                0.12958655903071145,
                3.0906928834467795
            ]
        },
        {
            "positions": [
                0.0568503472192001,
                -1.172993244766763,
                2.036423855348562,
                -0.8177455079634011,
                0.28651134175199455,
                3.1039432080891034
            ]
        },
        {
            "positions": [
                -0.009110850228722087,
                -1.206501742810416,
                2.1013002505861333,
                -0.8550222132209719,
                0.4434361244732776,
                3.1171935327314277
            ]
        },
        {
            "positions": [
                -0.07507204767664426,
                -1.240010240854069,
                2.1661766458237053,
                -0.8922989184785428,
                0.6003609071945607,
                3.1304438573737516
            ]
        },
        {
            "positions": [
                -0.14103324512456644,
                -1.2735187388977218,
                2.231053041061277,
                -0.9295756237361137,
                0.7572856899158438,
                3.1436941820160755
            ]
        },
        {
            "positions": [
                -0.20699444257248867,
                -1.307027236941375,
                2.295929436298849,
                -0.9668523289936846,
                0.914210472637127,
                3.1569445066583994
            ]
        },
        {
            "positions": [
                -0.2729556400204108,
                -1.3405357349850278,
                2.3608058315364207,
                -1.0041290342512554,
                1.07113525535841,
                3.1701948313007238
            ]
        },
        {
            "positions": [
                -0.338916837468333,
                -1.3740442330286808,
                2.4256822267739926,
                -1.0414057395088263,
                1.228060038079693,
                3.1834451559430477
            ]
        }
    ]
}{
    "goal": {
        "global_pose": {
            "orientation": {
                "w": 0.5084816217422485,
                "x": -0.49083608388900757,
                "y": 0.5182115435600281,
                "z": -0.4816462993621826
            },
            "position": {
                "x": 0.5540239810943604,
                "y": 0.030875300988554955,
                "z": 0.16403168439865112
            }
        },
        "name": "move_to_storage_A"
    },
    "id": "SPARS_move_to_storage_A_24",
    "joint_names": [
        "shoulder_pan_joint",
        "shoulder_lift_joint",
        "elbow_joint",
        "wrist_1_joint",
        "wrist_2_joint",
        "wrist_3_joint"
    ],
    "metrics": {
        "cart_traj_len": 0.35347104534913676,
        "distance_elbow_joint": 0.4497885663119483,
        "distance_shoulder_lift_joint": 0.23215223808347174,
        "distance_shoulder_pan_joint": 0.4615509575932329,
        "distance_wrist_1_joint": 0.24692336163131556,
        "distance_wrist_2_joint": 1.1011375095962883,
        "distance_wrist_3_joint": 0.08808622616628847,
        "smoothness": 6.661338165333112e-16,
        "time": 5.024201694,
        "traj_len": 1.6061254183227862,
        "weighted_distance": 2.0258016149027838
    },
    "planner": "SPARS",
    "start": {
        "state": {
            "elbow_joint": 1.9715472970024885,
            "shoulder_lift_joint": -1.1394870060712896,
            "shoulder_pan_joint": 0.12281152778156021,
            "wrist_1_joint": -0.780463741449964,
            "wrist_2_joint": 0.12958659822042276,
            "wrist_3_joint": 3.090690232415272
        }
    },
    "waypoints": [
        {
            "positions": [
                0.12281152778156021,
                -1.1394870060712896,
                1.9715472970024885,
                -0.780463741449964,
                0.12958659822042276,
                3.090690232415272
            ]
        },
        {
            "positions": [
                0.05687567669681266,
                -1.1726516115117855,
                2.035802806475624,
                -0.8157385073972948,
                0.2868919567341782,
                3.103273979010456
            ]
        },
        {
            "positions": [
                -0.009060174387934883,
                -1.2058162169522815,
                2.1000583159487594,
                -0.8510132733446256,
                0.4441973152479337,
                3.11585772560564
            ]
        },
        {
            "positions": [
                -0.07499602547268241,
                -1.2389808223927774,
                2.1643138254218948,
                -0.8862880392919563,
                0.6015026737616892,
                3.1284414722008242
            ]
        },
        {
            "positions": [
                -0.14093187655742997,
                -1.2721454278332733,
                2.22856933489503,
                -0.9215628052392871,
                0.7588080322754446,
                3.141025218796008
            ]
        },
        {
            "positions": [
                -0.20686772764217756,
                -1.3053100332737695,
                2.292824844368166,
                -0.9568375711866179,
                0.9161133907892001,
                3.153608965391192
            ]
        },
        {
            "positions": [
                -0.27280357872692507,
                -1.3384746387142654,
                2.3570803538413014,
                -0.9921123371339488,
                1.0734187493029557,
                3.166192711986376
            ]
        },
        {
            "positions": [
                -0.33873942981167265,
                -1.3716392441547614,
                2.421335863314437,
                -1.0273871030812796,
                1.230724107816711,
                3.1787764585815603
            ]
        }
    ]
}