{
    "goal": {
        "global_pose": {
            "orientation": {
                "w": 0.005598929693374612,
                "x": 0.007748599140229565,
                "y": 0.7110244013736278,
                "z": -0.7031023480610252
            },
            "position": {
                "x": -0.8858502320852131,
                "y": -0.7141253447532654,
                "z": 0.3711530566215515
            }
        },
        "name": "move_to_auspresseinheit_C"
    },
    "id": "SPARS_move_to_auspresseinheit_C_11",
    "joint_names": [
        "shoulder_pan_joint",
        "shoulder_lift_joint",
        "elbow_joint",
        "wrist_1_joint",
        "wrist_2_joint",
        "wrist_3_joint"
    ],
    "metrics": {
        "cart_traj_len": 0.4943935745638912,
        "distance_elbow_joint": 1.0113343925744647,
        "distance_shoulder_lift_joint": 0.32906501827820567,
        "distance_shoulder_pan_joint": 0.25713894191541087,
        "distance_wrist_1_joint": 0.7085704869461593,
        "distance_wrist_2_joint": 1.301424762950572,
        "distance_wrist_3_joint": 0.0750352556458127,
        "smoothness": 4.844609600361787e-16,
        "time": 5.0188500419999995,
        "traj_len": 1.9190020475003735,
        "weighted_distance": 2.4171542399067096
    },
    "planner": "SPARS",
    "start": {
        "state": {
            "elbow_joint": 1.7527959577737207,
            "shoulder_lift_joint": -0.9740617694225068,
            "shoulder_pan_joint": -2.967991417825858,
            "wrist_1_joint": -0.759517768980727,
            "wrist_2_joint": 1.7443932448377408,
            "wrist_3_joint": -3.0840537646736568
        }
    },
    "waypoints": [
        {
            "positions": [
                -2.967991417825858,
                -0.9740617694225068,
                1.7527959577737207,
                -0.759517768980727,
                1.7443932448377408,
                -3.0840537646736568
            ]
        },
        {
            "positions": [
                -2.942277523634317,
                -0.9411552675946862,
                1.651662518516274,
                -0.688660720286111,
                1.6142507685426837,
                -3.091557290238238
            ]
        },
        {
            "positions": [
                -2.9165636294427757,
                -0.9082487657668656,
                1.5505290792588278,
                -0.6178036715914951,
                1.4841082922476265,
                -3.0990608158028192
            ]
        },
        {
            "positions": [
                -2.890849735251235,
                -0.8753422639390451,
                1.4493956400013812,
                -0.5469466228968792,
                1.3539658159525692,
                -3.1065643413674007
            ]
        },
        {
            "positions": [
                -2.8651358410596934,
                -0.8424357621112245,
                1.3482622007439349,
                -0.4760895742022632,
                1.223823339657512,
                -3.1140678669319817
            ]
        },
        {
            "positions": [
                -2.8394219468681525,
                -0.8095292602834039,
                1.2471287614864883,
                -0.4052325255076473,
                1.0936808633624548,
                -3.121571392496563
            ]
        },
        {
            "positions": [
                -2.8137080526766116,
                -0.7766227584555834,
                1.1459953222290418,
                -0.3343754768130314,
                0.9635383870673977,
                -3.1290749180611446
            ]
        },
        {
            "positions": [
                -2.7879941584850703,
                -0.7437162566277629,
                1.0448618829715954,
                -0.26351842811841547,
                0.8333959107723405,
                -3.1365784436257256
            ]
        },
        {
            "positions": [
                -2.7622802642935294,
                -0.7108097547999422,
                0.9437284437141489,
                -0.19266137942379946,
                0.7032534344772832,
                -3.144081969190307
            ]
        },
        {
            "positions": [
                -2.736566370101988,
                -0.6779032529721216,
                0.8425950044567024,
                -0.12180433072918362,
                0.573110958182226,
                -3.151585494754888
            ]
        },
        {
            "positions": [
                -2.710852475910447,
                -0.6449967511443011,
                0.7414615651992559,
                -0.05094728203456771,
                0.4429684818871689,
                -3.1590890203194695
            ]
        }
    ]
}