{
    "goal": {
        "global_pose": {
            "orientation": {
                "w": 0.005598929693374612,
                "x": 0.007748599140229565,
                "y": 0.7110244013736278,
                "z": -0.7031023480610252
            },
            "position": {
                "x": 0.1141497679147869,
                "y": -0.7141253447532654,
                "z": 0.3711530566215515
            }
        },
        "name": "move_to_auspresseinheit_B"
    },
    "id": "SPARS_move_to_auspresseinheit_B_95",
    "joint_names": [
        "shoulder_pan_joint",
        "shoulder_lift_joint",
        "elbow_joint",
        "wrist_1_joint",
        "wrist_2_joint",
        "wrist_3_joint"
    ],
    "metrics": {
        "cart_traj_len": 0.5654917623242366,
        "distance_elbow_joint": 0.0659692284871265,
        "distance_shoulder_lift_joint": 0.29357090672976116,
        "distance_shoulder_pan_joint": 0.5774512080194067,
        "distance_wrist_1_joint": 0.33569080829469355,
        "distance_wrist_2_joint": 0.9947115051090625,
        "distance_wrist_3_joint": 0.0013010197470637586,
        "smoothness": 8.881784231541381e-16,
        "time": 5.0422406440000005,
        "traj_len": 1.5062186681843757,
        "weighted_distance": 1.8978142768155681
    },
    "planner": "SPARS",
    "start": {
        "state": {
            "elbow_joint": 2.0193083361928714,
            "shoulder_lift_joint": -1.1220246554650708,
            "shoulder_pan_joint": -1.0952077554168747,
            "wrist_1_joint": -0.8559753972642168,
            "wrist_2_joint": 0.4759566250798843,
            "wrist_3_joint": -3.1240929996934557
        }
    },
    "waypoints": [
        {
            "positions": [
                -1.0952077554168747,
                -1.1220246554650708,
                2.0193083361928714,
                -0.8559753972642168,
                0.4759566250798843,
                -3.1240929996934557
            ]
        },
        {
            "positions": [
                -1.191449623420109,
                -1.170953139920031,
                2.0083134647783503,
                -0.8000269292151012,
                0.6417418759313946,
                -3.123876163068945
            ]
        },
        {
            "positions": [
                -1.2876914914233435,
                -1.2198816243749913,
                1.9973185933638293,
                -0.7440784611659856,
                0.8075271267829052,
                -3.1236593264444346
            ]
        },
        {
            "positions": [
                -1.3839333594265781,
                -1.2688101088299515,
                1.9863237219493082,
                -0.6881299931168701,
                0.9733123776344155,
                -3.123442489819924
            ]
        },
        {
            "positions": [
                -1.4801752274298123,
                -1.3177385932849115,
                1.975328850534787,
                -0.6321815250677545,
                1.139097628485926,
                -3.123225653195413
            ]
        },
        {
            "positions": [
                -1.576417095433047,
                -1.3666670777398717,
                1.964333979120266,
                -0.5762330570186388,
                1.3048828793374363,
                -3.1230088165709025
            ]
        },
        {
            "positions": [
                -1.6726589634362814,
                -1.415595562194832,
                1.953339107705745,
                -0.5202845889695232,
                1.4706681301889468,
                -3.122791979946392
            ]
        }
    ]
}