{
    "goal": {
        "global_pose": {
            "orientation": {
                "w": 0.7031023480610252,
                "x": -0.7110244013736278,
                "y": 0.0077485991402295624,
                "z": 0.005598929693374583
            },
            "position": {
                "x": -0.8841497679147869,
                "y": 0.44412534475326537,
                "z": 0.3711530566215515
            }
        },
        "name": "move_to_auspresseinheit_D"
    },
    "id": "SPARS_move_to_auspresseinheit_D_94",
    "joint_names": [
        "shoulder_pan_joint",
        "shoulder_lift_joint",
        "elbow_joint",
        "wrist_1_joint",
        "wrist_2_joint",
        "wrist_3_joint"
    ],
    "metrics": {
        "cart_traj_len": 0.34391093477760903,
        "distance_elbow_joint": 0.6651580186586767,
        "distance_shoulder_lift_joint": 0.1366464577757518,
        "distance_shoulder_pan_joint": 0.13351646876908727,
        "distance_wrist_1_joint": 0.6236305129984512,
        "distance_wrist_2_joint": 1.4399997153711768,
        "distance_wrist_3_joint": 0.07836191080637622,
        "smoothness": 1.9737298371844314e-16,
        "time": 5.012344457,
        "traj_len": 1.7542272043208997,
        "weighted_distance": 2.3016661648383985
    },
    "planner": "SPARS",
    "start": {
        "state": {
            "elbow_joint": -1.8275523626775212,
            "shoulder_lift_joint": -2.126789852344167,
            "shoulder_pan_joint": -0.03513704404078235,
            "wrist_1_joint": -2.347782403156801,
            "wrist_2_joint": -1.6058999987535132,
            "wrist_3_joint": -3.0880379163319196
        }
    },
    "waypoints": [
        {
            "positions": [
                -0.03513704404078235,
                -2.126789852344167,
                -1.8275523626775212,
                -2.347782403156801,
                -1.6058999987535132,
                -3.0880379163319196
            ]
        },
        {
            "positions": [
                -0.051826602636918254,
                -2.1438706595661357,
                -1.7444076103451867,
                -2.4257362172816075,
                -1.4259000343321162,
                -3.0782426774811227
            ]
        },
        {
            "positions": [
                -0.06851616123305417,
                -2.160951466788105,
                -1.6612628580128521,
                -2.5036900314064137,
                -1.245900069910719,
                -3.0684474386303258
            ]
        },
        {
            "positions": [
                -0.08520571982919006,
                -2.1780322740100737,
                -1.5781181056805174,
                -2.58164384553122,
                -1.0659001054893218,
                -3.0586521997795284
            ]
        },
        {
            "positions": [
                -0.10189527842532597,
                -2.1951130812320425,
                -1.4949733533481828,
                -2.6595976596560265,
                -0.8859001410679248,
                -3.0488569609287315
            ]
        },
        {
            "positions": [
                -0.11858483702146189,
                -2.2121938884540118,
                -1.4118286010158483,
                -2.737551473780833,
                -0.7059001766465277,
                -3.0390617220779346
            ]
        },
        {
            "positions": [
                -0.1352743956175978,
                -2.2292746956759806,
                -1.3286838486835135,
                -2.8155052879056393,
                -0.5259002122251306,
                -3.029266483227137
            ]
        },
        {
            "positions": [
                -0.1519639542137337,
                -2.24635550289795,
                -1.245539096351179,
                -2.8934591020304454,
                -0.3459002478037334,
                -3.0194712443763403
            ]
        },
        {
            "positions": [
                -0.16865351280986962,
                -2.2634363101199186,
                -1.1623943440188444,
                -2.971412916155252,
                -0.1659002833823363,
                -3.0096760055255434
            ]
        }
    ]
}