{
    "goal": {
        "global_pose": {
            "orientation": {
                "w": -0.00223480608172531,
                "x": 0.0024358444001904467,
                "y": 0.7094548369677653,
                "z": -0.704743149386269
            },
            "position": {
                "x": -0.37947507619857795,
                "y": -0.6371506643295288,
                "z": 0.19426114857196808
            }
        },
        "name": "move_to_magneteinheit_C"
    },
    "id": "SPARStwo_move_to_magneteinheit_C_90",
    "joint_names": [
        "shoulder_pan_joint",
        "shoulder_lift_joint",
        "elbow_joint",
        "wrist_1_joint",
        "wrist_2_joint",
        "wrist_3_joint"
    ],
    "metrics": {
        "cart_traj_len": 0.6015222220281434,
        "distance_elbow_joint": 0.13606896063178953,
        "distance_shoulder_lift_joint": 0.25683941674924005,
        "distance_shoulder_pan_joint": 0.8395175444850607,
        "distance_wrist_1_joint": 2.1795960699217685,
        "distance_wrist_2_joint": 0.8240863802555402,
        "distance_wrist_3_joint": 4.903839320764071,
        "smoothness": 1.0706305466942525,
        "time": 5.048929576,
        "traj_len": 3.0232346407130675,
        "weighted_distance": 4.685222383677527
    },
    "planner": "SPARStwo",
    "start": {
        "state": {
            "elbow_joint": 1.9565354010623817,
            "shoulder_lift_joint": -1.4165861575791021,
            "shoulder_pan_joint": -1.6717766225146293,
            "wrist_1_joint": -0.5286633292919765,
            "wrist_2_joint": 1.472756589071564,
            "wrist_3_joint": -3.1238370188695823
        }
    },
    "waypoints": [
        {
            "positions": [
                -1.6717766225146293,
                -1.4165861575791021,
                1.9565354010623817,
                -0.5286633292919765,
                1.472756589071564,
                -3.1238370188695823
            ]
        },
        {
            "positions": [
                -1.6631346853766407,
                -1.4178311097872016,
                1.952920107031943,
                -0.5264562460104381,
                1.4774988406494467,
                -3.103384016365796
            ]
        },
        {
            "positions": [
                -1.7141389691778923,
                -1.4113604180452988,
                1.9499727294229396,
                -0.4542597470066443,
                1.4286378061914236,
                -2.9173457346947584
            ]
        },
        {
            "positions": [
                -1.765143252979144,
                -1.4048897263033961,
                1.9470253518139362,
                -0.3820632480028505,
                1.3797767717334004,
                -2.731307453023721
            ]
        },
        {
            "positions": [
                -1.8161475367803956,
                -1.3984190345614933,
                1.9440779742049328,
                -0.30986674899905675,
                1.3309157372753773,
                -2.5452691713526834
            ]
        },
        {
            "positions": [
                -1.867151820581647,
                -1.3919483428195907,
                1.9411305965959293,
                -0.23767024999526298,
                1.2820547028173543,
                -2.359230889681646
            ]
        },
        {
            "positions": [
                -1.9181561043828987,
                -1.3854776510776878,
                1.938183218986926,
                -0.16547375099146922,
                1.2331936683593312,
                -2.1731926080106083
            ]
        },
        {
            "positions": [
                -1.9691603881841504,
                -1.379006959335785,
                1.9352358413779225,
                -0.09327725198767545,
                1.184332633901308,
                -1.9871543263395706
            ]
        },
        {
            "positions": [
                -2.020164671985402,
                -1.3725362675938824,
                1.932288463768919,
                -0.02108075298388168,
                1.135471599443285,
                -1.801116044668533
            ]
        },
        {
            "positions": [
                -2.0711689557866535,
                -1.3660655758519795,
                1.9293410861599156,
                0.05111574601991209,
                1.0866105649852618,
                -1.6150777629974953
            ]
        },
        {
            "positions": [
                -2.122173239587905,
                -1.3595948841100767,
                1.9263937085509122,
                0.12331224502370586,
                1.0377495305272388,
                -1.429039481326458
            ]
        },
        {
            "positions": [
                -2.173177523389157,
                -1.353124192368174,
                1.9234463309419088,
                0.19550874402749963,
                0.9888884960692156,
                -1.2430011996554202
            ]
        },
        {
            "positions": [
                -2.2241818071904085,
                -1.3466535006262712,
                1.9204989533329053,
                0.2677052430312934,
                0.9400274616111924,
                -1.0569629179843827
            ]
        },
        {
            "positions": [
                -2.27518609099166,
                -1.3401828088843686,
                1.917551575723902,
                0.33990174203508716,
                0.8911664271531693,
                -0.8709246363133452
            ]
        },
        {
            "positions": [
                -2.326190374792912,
                -1.3337121171424657,
                1.9146041981148985,
                0.4120982410388809,
                0.8423053926951463,
                -0.6848863546423077
            ]
        },
        {
            "positions": [
                -2.349262663805694,
                -1.3249744257409137,
                1.922284015243517,
                0.37297691443780634,
                0.8233588164786327,
                -0.7776419228633
            ]
        },
        {
            "positions": [
                -2.362807529276125,
                -1.3093032564222256,
                1.9309206073137912,
                0.25945189144872943,
                0.8070865532354361,
                -1.0037228631978212
            ]
        },
        {
            "positions": [
                -2.3763523947465552,
                -1.2936320871035372,
                1.9395571993840655,
                0.1459268684596525,
                0.7908142899922396,
                -1.2298038035323424
            ]
        },
        {
            "positions": [
                -2.389897260216986,
                -1.277960917784849,
                1.9481937914543395,
                0.03240184547057562,
                0.7745420267490429,
                -1.4558847438668636
            ]
        },
        {
            "positions": [
                -2.403442125687417,
                -1.2622897484661608,
                1.9568303835246137,
                -0.08112317751850134,
                0.7582697635058464,
                -1.6819656842013848
            ]
        },
        {
            "positions": [
                -2.416986991157848,
                -1.2466185791474724,
                1.965466975594888,
                -0.19464820050757825,
                0.7419975002626498,
                -1.908046624535906
            ]
        },
        {
            "positions": [
                -2.4305318566282783,
                -1.2309474098287843,
                1.9741035676651622,
                -0.3081732234966551,
                0.7257252370194531,
                -2.134127564870427
            ]
        },
        {
            "positions": [
                -2.444076722098709,
                -1.215276240510096,
                1.9827401597354364,
                -0.42169824648573206,
                0.7094529737762566,
                -2.360208505204948
            ]
        },
        {
            "positions": [
                -2.45762158756914,
                -1.199605071191408,
                1.9913767518057104,
                -0.535223269474809,
                0.69318071053306,
                -2.5862894455394696
            ]
        },
        {
            "positions": [
                -2.4711664530395705,
                -1.1839339018727195,
                2.0000133438759846,
                -0.6487482924638859,
                0.6769084472898634,
                -2.812370385873991
            ]
        },
        {
            "positions": [
                -2.4847113185100014,
                -1.1682627325540313,
                2.008649935946259,
                -0.7622733154529628,
                0.6606361840466668,
                -3.038451326208512
            ]
        },
        {
            "positions": [
                -2.47541234429629,
                -1.162236645246061,
                2.008741955799205,
                -0.8267362585520299,
                0.6631176561215443,
                -3.149775011179105
            ]
        }
    ]
}