{
    "goal": {
        "global_pose": {
            "orientation": {
                "w": 0.005598929693374612,
                "x": 0.007748599140229565,
                "y": 0.7110244013736278,
                "z": -0.7031023480610252
            },
            "position": {
                "x": 0.1141497679147869,
                "y": -0.7141253447532654,
                "z": 0.3711530566215515
            }
        },
        "name": "move_to_auspresseinheit_B"
    },
    "id": "SPARStwo_move_to_auspresseinheit_B_71",
    "joint_names": [
        "shoulder_pan_joint",
        "shoulder_lift_joint",
        "elbow_joint",
        "wrist_1_joint",
        "wrist_2_joint",
        "wrist_3_joint"
    ],
    "metrics": {
        "cart_traj_len": 0.5651483725125208,
        "distance_elbow_joint": 0.0660003749814615,
        "distance_shoulder_lift_joint": 0.29397329510146486,
        "distance_shoulder_pan_joint": 0.5759739983148378,
        "distance_wrist_1_joint": 0.3378436084709284,
        "distance_wrist_2_joint": 1.0016146164767799,
        "distance_wrist_3_joint": 0.007900505605461294,
        "smoothness": 2.5376526478085547e-16,
        "time": 5.008073797,
        "traj_len": 1.5110613485067155,
        "weighted_distance": 1.9075024600533454
    },
    "planner": "SPARStwo",
    "start": {
        "state": {
            "elbow_joint": 2.0193083361928714,
            "shoulder_lift_joint": -1.1220246554650708,
            "shoulder_pan_joint": -1.0952077554168747,
            "wrist_1_joint": -0.8559753972642168,
            "wrist_2_joint": 0.4759566250798843,
            "wrist_3_joint": -3.1240929996934557
        }
    },
    "waypoints": [
        {
            "positions": [
                -1.0952077554168747,
                -1.1220246554650708,
                2.0193083361928714,
                -0.8559753972642168,
                0.4759566250798843,
                -3.1240929996934557
            ]
        },
        {
            "positions": [
                -1.191203421802681,
                -1.1710202046486482,
                2.008308273695961,
                -0.7996681291857287,
                0.642892394492681,
                -3.1227762487592123
            ]
        },
        {
            "positions": [
                -1.2871990881884872,
                -1.2200157538322258,
                1.997308211199051,
                -0.7433608611072406,
                0.8098281639054776,
                -3.1214594978249686
            ]
        },
        {
            "positions": [
                -1.3831947545742935,
                -1.2690113030158032,
                1.9863081487021406,
                -0.6870535930287526,
                0.9767639333182743,
                -3.120142746890725
            ]
        },
        {
            "positions": [
                -1.4791904209600997,
                -1.3180068521993806,
                1.9753080862052304,
                -0.6307463249502645,
                1.143699702731071,
                -3.1188259959564815
            ]
        },
        {
            "positions": [
                -1.575186087345906,
                -1.3670024013829583,
                1.9643080237083201,
                -0.5744390568717764,
                1.3106354721438676,
                -3.117509245022238
            ]
        },
        {
            "positions": [
                -1.6711817537317124,
                -1.4159979505665357,
                1.95330796121141,
                -0.5181317887932884,
                1.4775712415566642,
                -3.1161924940879944
            ]
        }
    ]
}