{
    "goal": {
        "global_pose": {
            "orientation": {
                "w": 0.7031023480610252,
                "x": -0.7110244013736278,
                "y": 0.0077485991402295624,
                "z": 0.005598929693374583
            },
            "position": {
                "x": -0.8841497679147869,
                "y": 0.44412534475326537,
                "z": 0.3711530566215515
            }
        },
        "name": "move_to_auspresseinheit_D"
    },
    "id": "SPARStwo_move_to_auspresseinheit_D_78",
    "joint_names": [
        "shoulder_pan_joint",
        "shoulder_lift_joint",
        "elbow_joint",
        "wrist_1_joint",
        "wrist_2_joint",
        "wrist_3_joint"
    ],
    "metrics": {
        "cart_traj_len": 0.34497251755332115,
        "distance_elbow_joint": 0.6689311698722431,
        "distance_shoulder_lift_joint": 0.13831742350078224,
        "distance_shoulder_pan_joint": 0.13452722807160244,
        "distance_wrist_1_joint": 0.6333204451058294,
        "distance_wrist_2_joint": 1.432729523574624,
        "distance_wrist_3_joint": 0.08239615793725807,
        "smoothness": 1.8750433314074363e-15,
        "time": 5.00495718,
        "traj_len": 1.7579027129117069,
        "weighted_distance": 2.3067432090757976
    },
    "planner": "SPARStwo",
    "start": {
        "state": {
            "elbow_joint": -1.8275523626775212,
            "shoulder_lift_joint": -2.126789852344167,
            "shoulder_pan_joint": -0.03513704404078235,
            "wrist_1_joint": -2.347782403156801,
            "wrist_2_joint": -1.6058999987535132,
            "wrist_3_joint": -3.0880379163319196
        }
    },
    "waypoints": [
        {
            "positions": [
                -0.03513704404078235,
                -2.126789852344167,
                -1.8275523626775212,
                -2.347782403156801,
                -1.6058999987535132,
                -3.0880379163319196
            ]
        },
        {
            "positions": [
                -0.051952947549732655,
                -2.144079530281765,
                -1.7439359664434908,
                -2.4269474587950297,
                -1.4268088083066852,
                -3.0777383965897624
            ]
        },
        {
            "positions": [
                -0.06876885105868297,
                -2.1613692082193623,
                -1.6603195702094604,
                -2.506112514433258,
                -1.2477176178598572,
                -3.0674388768476053
            ]
        },
        {
            "positions": [
                -0.08558475456763326,
                -2.1786588861569602,
                -1.57670317397543,
                -2.585277570071487,
                -1.068626427413029,
                -3.0571393571054477
            ]
        },
        {
            "positions": [
                -0.10240065807658358,
                -2.195948564094558,
                -1.4930867777413996,
                -2.6644426257097154,
                -0.8895352369662012,
                -3.0468398373632906
            ]
        },
        {
            "positions": [
                -0.11921656158553387,
                -2.2132382420321557,
                -1.4094703815073693,
                -2.743607681347944,
                -0.7104440465193732,
                -3.0365403176211334
            ]
        },
        {
            "positions": [
                -0.1360324650944842,
                -2.2305279199697536,
                -1.3258539852733389,
                -2.822772736986173,
                -0.5313528560725451,
                -3.026240797878976
            ]
        },
        {
            "positions": [
                -0.15284836860343448,
                -2.247817597907351,
                -1.2422375890393085,
                -2.901937792624402,
                -0.35226166562571715,
                -3.0159412781368187
            ]
        },
        {
            "positions": [
                -0.1696642721123848,
                -2.265107275844949,
                -1.158621192805278,
                -2.9811028482626303,
                -0.17317047517888923,
                -3.0056417583946615
            ]
        }
    ]
}