{
    "goal": {
        "global_pose": {
            "orientation": {
                "w": 0.5084816262002911,
                "x": -0.4908360881923452,
                "y": 0.5182115481033761,
                "z": -0.48164630358495003
            },
            "position": {
                "x": 0.5540239810943604,
                "y": -0.46912469901144505,
                "z": 0.16403168439865112
            }
        },
        "name": "move_to_storage_B"
    },
    "id": "SPARS_move_to_storage_B_143",
    "joint_names": [
        "shoulder_pan_joint",
        "shoulder_lift_joint",
        "elbow_joint",
        "wrist_1_joint",
        "wrist_2_joint",
        "wrist_3_joint"
    ],
    "metrics": {
        "cart_traj_len": 3.1126375228086727,
        "distance_elbow_joint": 3.6985833390082066,
        "distance_shoulder_lift_joint": 0.4600864591223395,
        "distance_shoulder_pan_joint": 2.201402532158533,
        "distance_wrist_1_joint": 3.0142337682260982,
        "distance_wrist_2_joint": 2.7124924229884484,
        "distance_wrist_3_joint": 3.1414935704752414,
        "smoothness": 0.3926785139180171,
        "time": 5.075787378999999,
        "traj_len": 3.9023444353335686,
        "weighted_distance": 5.219004255999788
    },
    "planner": "SPARS",
    "start": {
        "state": {
            "elbow_joint": 1.664937868594044,
            "shoulder_lift_joint": -0.661644460510453,
            "shoulder_pan_joint": -0.9139846352900073,
            "wrist_1_joint": 2.146753192139373,
            "wrist_2_joint": -2.2341966793290973,
            "wrist_3_joint": 0.005466555786416001
        }
    },
    "waypoints": [
        {
            "positions": [
                -0.9139846352900073,
                -0.661644460510453,
                1.664937868594044,
                2.146753192139373,
                -2.2341966793290973,
                0.005466555786416001
            ]
        },
        {
            "positions": [
                -0.8911715235867373,
                -0.6714558626662843,
                1.6429566517622427,
                2.163349118575859,
                -2.220549098037834,
                0.0029828322290125493
            ]
        },
        {
            "positions": [
                -0.839191154532675,
                -0.6933256993809596,
                1.5559997092543039,
                2.1109385414739137,
                -2.112154772080921,
                -0.06903072008881875
            ]
        },
        {
            "positions": [
                -0.7872107854786126,
                -0.7151955360956349,
                1.4690427667463648,
                2.0585279643719687,
                -2.0037604461240073,
                -0.14104427240665005
            ]
        },
        {
            "positions": [
                -0.7352304164245502,
                -0.7370653728103101,
                1.382085824238426,
                2.0061173872700233,
                -1.8953661201670942,
                -0.21305782472448132
            ]
        },
        {
            "positions": [
                -0.6832500473704878,
                -0.7589352095249855,
                1.295128881730487,
                1.9537068101680783,
                -1.7869717942101808,
                -0.28507137704231267
            ]
        },
        {
            "positions": [
                -0.6312696783164254,
                -0.7808050462396607,
                1.208171939222548,
                1.9012962330661332,
                -1.6785774682532675,
                -0.3570849293601439
            ]
        },
        {
            "positions": [
                -0.579289309262363,
                -0.802674882954336,
                1.1212149967146092,
                1.848885655964188,
                -1.5701831422963541,
                -0.4290984816779752
            ]
        },
        {
            "positions": [
                -0.5273089402083007,
                -0.8245447196690113,
                1.0342580542066702,
                1.7964750788622428,
                -1.4617888163394408,
                -0.5011120339958065
            ]
        },
        {
            "positions": [
                -0.47532857115423827,
                -0.8464145563836866,
                0.9473011116987313,
                1.7440645017602976,
                -1.3533944903825277,
                -0.5731255863136379
            ]
        },
        {
            "positions": [
                -0.4233482021001759,
                -0.8682843930983619,
                0.8603441691907925,
                1.6916539246583524,
                -1.2450001644256141,
                -0.6451391386314691
            ]
        },
        {
            "positions": [
                -0.37136783304611354,
                -0.8901542298130372,
                0.7733872266828535,
                1.6392433475564072,
                -1.136605838468701,
                -0.7171526909493003
            ]
        },
        {
            "positions": [
                -0.3193874639920511,
                -0.9120240665277125,
                0.6864302841749146,
                1.5868327704544618,
                -1.0282115125117877,
                -0.7891662432671317
            ]
        },
        {
            "positions": [
                -0.26740709493798875,
                -0.9338939032423877,
                0.5994733416669757,
                1.5344221933525168,
                -0.9198171865548743,
                -0.8611797955849629
            ]
        },
        {
            "positions": [
                -0.2154267258839263,
                -0.9557637399570631,
                0.5125163991590367,
                1.4820116162505714,
                -0.811422860597961,
                -0.9331933479027943
            ]
        },
        {
            "positions": [
                -0.16344635682986397,
                -0.9776335766717383,
                0.42555945665109784,
                1.4296010391486265,
                -0.7030285346410479,
                -1.0052069002206254
            ]
        },
        {
            "positions": [
                -0.11146598777580152,
                -0.9995034133864136,
                0.3386025141431588,
                1.377190462046681,
                -0.5946342086841343,
                -1.0772204525384568
            ]
        },
        {
            "positions": [
                -0.059485618721739186,
                -1.0213732501010888,
                0.25164557163521994,
                1.324779884944736,
                -0.4862398827272212,
                -1.1492340048562881
            ]
        },
        {
            "positions": [
                -0.007505249667676739,
                -1.0432430868157643,
                0.1646886291272811,
                1.2723693078427907,
                -0.37784555677030784,
                -1.2212475571741195
            ]
        },
        {
            "positions": [
                0.0444751193863856,
                -1.0651129235304395,
                0.07773168661934227,
                1.2199587307408457,
                -0.2694512308133945,
                -1.2932611094919506
            ]
        },
        {
            "positions": [
                0.096455488440448,
                -1.0869827602451148,
                -0.009225255888596861,
                1.1675481536389003,
                -0.16105690485648105,
                -1.365274661809782
            ]
        },
        {
            "positions": [
                0.03690736801904408,
                -1.0887201682144987,
                0.09199575483768137,
                1.0674563097962675,
                -0.1290892724306893,
                -1.453812279453734
            ]
        },
        {
            "positions": [
                -0.02264075240235984,
                -1.0904575761838826,
                0.1932167655639596,
                0.9673644659536349,
                -0.09712164000489755,
                -1.5423498970976863
            ]
        },
        {
            "positions": [
                -0.08218887282376373,
                -1.0921949841532663,
                0.2944377762902378,
                0.8672726221110021,
                -0.06515400757910582,
                -1.6308875147416386
            ]
        },
        {
            "positions": [
                -0.1417369932451677,
                -1.0939323921226503,
                0.3956587870165161,
                0.7671807782683694,
                -0.033186375153314046,
                -1.7194251323855907
            ]
        },
        {
            "positions": [
                -0.2012851136665716,
                -1.0956698000920342,
                0.4968797977427943,
                0.6670889344257367,
                -0.001218742727522315,
                -1.8079627500295428
            ]
        },
        {
            "positions": [
                -0.2608332340879755,
                -1.0974072080614181,
                0.5981008084690724,
                0.566997090583104,
                0.030748889698269416,
                -1.896500367673495
            ]
        },
        {
            "positions": [
                -0.3203813545093794,
                -1.099144616030802,
                0.6993218191953506,
                0.4669052467404713,
                0.06271652212406117,
                -1.9850379853174474
            ]
        },
        {
            "positions": [
                -0.3799294749307834,
                -1.1008820240001858,
                0.800542829921629,
                0.3668134028978385,
                0.09468415454985296,
                -2.0735756029613994
            ]
        },
        {
            "positions": [
                -0.4394775953521873,
                -1.1026194319695697,
                0.9017638406479072,
                0.2667215590552058,
                0.12665178697564466,
                -2.1621132206053515
            ]
        },
        {
            "positions": [
                -0.49902571577359117,
                -1.1043568399389536,
                1.0029848513741855,
                0.16662971521257308,
                0.15861941940143642,
                -2.250650838249304
            ]
        },
        {
            "positions": [
                -0.5585738361949951,
                -1.1060942479083375,
                1.1042058621004638,
                0.06653787136994027,
                0.19058705182722818,
                -2.339188455893256
            ]
        },
        {
            "positions": [
                -0.6181219566163989,
                -1.1078316558777215,
                1.2054268728267419,
                -0.03355397247269232,
                0.22255468425301989,
                -2.427726073537208
            ]
        },
        {
            "positions": [
                -0.6776700770378029,
                -1.1095690638471052,
                1.3066478835530202,
                -0.13364581631532513,
                0.2545223166788117,
                -2.5162636911811607
            ]
        },
        {
            "positions": [
                -0.7372181974592067,
                -1.1113064718164891,
                1.4078688942792983,
                -0.23373766015795772,
                0.2864899491046034,
                -2.6048013088251123
            ]
        },
        {
            "positions": [
                -0.7967663178806107,
                -1.113043879785873,
                1.5090899050055766,
                -0.3338295040005905,
                0.31845758153039516,
                -2.693338926469065
            ]
        },
        {
            "positions": [
                -0.8563144383020147,
                -1.114781287755257,
                1.610310915731855,
                -0.43392134784322334,
                0.350425213956187,
                -2.781876544113017
            ]
        },
        {
            "positions": [
                -0.9158625587234186,
                -1.116518695724641,
                1.711531926458133,
                -0.5340131916858559,
                0.3823928463819787,
                -2.870414161756969
            ]
        },
        {
            "positions": [
                -0.9754106791448225,
                -1.1182561036940246,
                1.8127529371844113,
                -0.6341050355284887,
                0.4143604788077704,
                -2.9589517794009215
            ]
        },
        {
            "positions": [
                -1.0349587995662264,
                -1.1199935116634085,
                1.9139739479106894,
                -0.7341968793711213,
                0.4463281112335621,
                -3.047489397044873
            ]
        },
        {
            "positions": [
                -1.0945069199876303,
                -1.1217309196327925,
                2.0151949586369677,
                -0.8342887232137542,
                0.47829574365935396,
                -3.1360270146888256
            ]
        }
    ]
}