{
    "goal": {
        "global_pose": {
            "orientation": {
                "w": -0.00223480608172531,
                "x": 0.0024358444001904467,
                "y": 0.7094548369677653,
                "z": -0.704743149386269
            },
            "position": {
                "x": -0.37947507619857795,
                "y": -0.6371506643295288,
                "z": 0.19426114857196808
            }
        },
        "name": "move_to_magneteinheit_C"
    },
    "id": "SPARS_move_to_magneteinheit_C_62",
    "joint_names": [
        "shoulder_pan_joint",
        "shoulder_lift_joint",
        "elbow_joint",
        "wrist_1_joint",
        "wrist_2_joint",
        "wrist_3_joint"
    ],
    "metrics": {
        "cart_traj_len": 1.5641903874822058,
        "distance_elbow_joint": 0.7653547763654593,
        "distance_shoulder_lift_joint": 0.8914417110653567,
        "distance_shoulder_pan_joint": 2.5204251547499714,
        "distance_wrist_1_joint": 0.6373770873996806,
        "distance_wrist_2_joint": 2.221503969310477,
        "distance_wrist_3_joint": 5.493507886594926,
        "smoothness": 0.9334294119984865,
        "time": 5.022114277,
        "traj_len": 3.539718998096582,
        "weighted_distance": 5.13570904699496
    },
    "planner": "SPARS",
    "start": {
        "state": {
            "elbow_joint": 1.9565354010623817,
            "shoulder_lift_joint": -1.4165861575791021,
            "shoulder_pan_joint": -1.6717766225146293,
            "wrist_1_joint": -0.5286633292919765,
            "wrist_2_joint": 1.472756589071564,
            "wrist_3_joint": -3.1238370188695823
        }
    },
    "waypoints": [
        {
            "positions": [
                -1.6717766225146293,
                -1.4165861575791021,
                1.9565354010623817,
                -0.5286633292919765,
                1.472756589071564,
                -3.1238370188695823
            ]
        },
        {
            "positions": [
                -1.5764124549177017,
                -1.4355853363678375,
                1.9468513972763173,
                -0.5253253756453967,
                1.5007818391834684,
                -2.888501265752037
            ]
        },
        {
            "positions": [
                -1.481048287320774,
                -1.4545845151565728,
                1.9371673934902527,
                -0.5219874219988169,
                1.5288070892953731,
                -2.653165512634492
            ]
        },
        {
            "positions": [
                -1.3856841197238463,
                -1.4735836939453084,
                1.9274833897041883,
                -0.5186494683522371,
                1.5568323394072776,
                -2.417829759516947
            ]
        },
        {
            "positions": [
                -1.2903199521269189,
                -1.4925828727340438,
                1.917799385918124,
                -0.5153115147056574,
                1.584857589519182,
                -2.182494006399402
            ]
        },
        {
            "positions": [
                -1.1949557845299912,
                -1.5115820515227791,
                1.9081153821320593,
                -0.5119735610590775,
                1.6128828396310868,
                -1.9471582532818565
            ]
        },
        {
            "positions": [
                -1.0995916169330635,
                -1.5305812303115145,
                1.898431378345995,
                -0.5086356074124978,
                1.6409080897429913,
                -1.7118225001643115
            ]
        },
        {
            "positions": [
                -1.2102800657416342,
                -1.5442444039417875,
                1.9258566288751608,
                -0.5405701977088262,
                1.540514873502799,
                -1.623221419945018
            ]
        },
        {
            "positions": [
                -1.320968514550205,
                -1.5579075775720608,
                1.953281879404327,
                -0.5725047880051546,
                1.4401216572626068,
                -1.5346203397257243
            ]
        },
        {
            "positions": [
                -1.4316569633587757,
                -1.5715707512023338,
                1.9807071299334928,
                -0.604439378301483,
                1.3397284410224144,
                -1.4460192595064307
            ]
        },
        {
            "positions": [
                -1.5423454121673466,
                -1.585233924832607,
                2.008132380462659,
                -0.6363739685978114,
                1.2393352247822222,
                -1.3574181792871371
            ]
        },
        {
            "positions": [
                -1.6530338609759172,
                -1.59889709846288,
                2.035557630991825,
                -0.6683085588941398,
                1.1389420085420299,
                -1.2688170990678436
            ]
        },
        {
            "positions": [
                -1.763722309784488,
                -1.6125602720931531,
                2.0629828815209907,
                -0.7002431491904682,
                1.0385487923018375,
                -1.1802160188485498
            ]
        },
        {
            "positions": [
                -1.8744107585930587,
                -1.6262234457234264,
                2.0904081320501566,
                -0.7321777394867965,
                0.9381555760616453,
                -1.0916149386292562
            ]
        },
        {
            "positions": [
                -1.9850992074016296,
                -1.6398866193536994,
                2.1178333825793225,
                -0.7641123297831249,
                0.8377623598214532,
                -1.0030138584099626
            ]
        },
        {
            "positions": [
                -2.0957876562102005,
                -1.6535497929839726,
                2.1452586331084884,
                -0.7960469200794533,
                0.7373691435812609,
                -0.914412778190669
            ]
        },
        {
            "positions": [
                -2.206476105018771,
                -1.6672129666142457,
                2.1726838836376543,
                -0.8279815103757817,
                0.6369759273410687,
                -0.8258116979713754
            ]
        },
        {
            "positions": [
                -2.3171645538273418,
                -1.6808761402445187,
                2.20010913416682,
                -0.8599161006721101,
                0.5365827111008763,
                -0.7372106177520819
            ]
        },
        {
            "positions": [
                -2.4278530026359126,
                -1.694539313874792,
                2.2275343846959865,
                -0.8918506909684385,
                0.4361894948606839,
                -0.648609537532788
            ]
        },
        {
            "positions": [
                -2.538541451444483,
                -1.708202487505065,
                2.2549596352251524,
                -0.9237852812647669,
                0.3357962786204918,
                -0.5600084573134945
            ]
        },
        {
            "positions": [
                -2.6492299002530544,
                -1.7218656611353382,
                2.2823848857543183,
                -0.9557198715610953,
                0.2354030623802994,
                -0.4714073770942009
            ]
        },
        {
            "positions": [
                -2.759918349061625,
                -1.7355288347656113,
                2.309810136283484,
                -0.9876544618574237,
                0.1350098461401073,
                -0.3828062968749072
            ]
        },
        {
            "positions": [
                -2.7359255643083045,
                -1.687820581942374,
                2.2851541366408523,
                -0.9761269192678174,
                0.18063103155978777,
                -0.6121793939249282
            ]
        },
        {
            "positions": [
                -2.711932779554984,
                -1.6401123291191366,
                2.2604981369982204,
                -0.964599376678211,
                0.22625221697946826,
                -0.8415524909749491
            ]
        },
        {
            "positions": [
                -2.687939994801664,
                -1.5924040762958993,
                2.235842137355588,
                -0.9530718340886046,
                0.27187340239914876,
                -1.07092558802497
            ]
        },
        {
            "positions": [
                -2.6639472100483435,
                -1.544695823472662,
                2.2111861377129562,
                -0.9415442914989983,
                0.3174945878188292,
                -1.3002986850749911
            ]
        },
        {
            "positions": [
                -2.639954425295023,
                -1.4969875706494247,
                2.1865301380703244,
                -0.930016748909392,
                0.36311577323850974,
                -1.5296717821250119
            ]
        },
        {
            "positions": [
                -2.6159616405417028,
                -1.4492793178261874,
                2.1618741384276925,
                -0.9184892063197856,
                0.4087369586581902,
                -1.759044879175033
            ]
        },
        {
            "positions": [
                -2.5919688557883824,
                -1.4015710650029503,
                2.1372181387850606,
                -0.9069616637301793,
                0.45435814407787073,
                -1.9884179762250538
            ]
        },
        {
            "positions": [
                -2.567976071035062,
                -1.353862812179713,
                2.1125621391424287,
                -0.895434121140573,
                0.49997932949755114,
                -2.217791073275075
            ]
        },
        {
            "positions": [
                -2.5439832862817418,
                -1.3061545593564756,
                2.087906139499797,
                -0.8839065785509667,
                0.5456005149172316,
                -2.447164170325096
            ]
        },
        {
            "positions": [
                -2.5199905015284214,
                -1.2584463065332383,
                2.0632501398571645,
                -0.8723790359613603,
                0.5912217003369122,
                -2.676537267375117
            ]
        },
        {
            "positions": [
                -2.495997716775101,
                -1.210738053710001,
                2.0385941402145327,
                -0.8608514933717539,
                0.6368428857565926,
                -2.9059103644251376
            ]
        },
        {
            "positions": [
                -2.4720049320217807,
                -1.1630298008867637,
                2.013938140571901,
                -0.8493239507821476,
                0.6824640711762732,
                -3.135283461475159
            ]
        }
    ]
}