{
    "goal": {
        "global_pose": {
            "orientation": {
                "w": 0.005598929693374612,
                "x": 0.007748599140229565,
                "y": 0.7110244013736278,
                "z": -0.7031023480610252
            },
            "position": {
                "x": 0.1141497679147869,
                "y": -0.7141253447532654,
                "z": 0.3711530566215515
            }
        },
        "name": "move_to_auspresseinheit_B"
    },
    "id": "SPARS_move_to_auspresseinheit_B_96",
    "joint_names": [
        "shoulder_pan_joint",
        "shoulder_lift_joint",
        "elbow_joint",
        "wrist_1_joint",
        "wrist_2_joint",
        "wrist_3_joint"
    ],
    "metrics": {
        "cart_traj_len": 0.5642866989491406,
        "distance_elbow_joint": 0.06450613700748287,
        "distance_shoulder_lift_joint": 0.29541027291001143,
        "distance_shoulder_pan_joint": 0.5765447561075829,
        "distance_wrist_1_joint": 0.3387559815856759,
        "distance_wrist_2_joint": 0.995623043072142,
        "distance_wrist_3_joint": 0.009693677558069602,
        "smoothness": 6.344131586469082e-16,
        "time": 5.07671694,
        "traj_len": 1.5101436581467886,
        "weighted_distance": 1.9063840767313711
    },
    "planner": "SPARS",
    "start": {
        "state": {
            "elbow_joint": 2.0193083361928714,
            "shoulder_lift_joint": -1.1220246554650708,
            "shoulder_pan_joint": -1.0952077554168747,
            "wrist_1_joint": -0.8559753972642168,
            "wrist_2_joint": 0.4759566250798843,
            "wrist_3_joint": -3.1240929996934557
        }
    },
    "waypoints": [
        {
            "positions": [
                -1.0952077554168747,
                -1.1220246554650708,
                2.0193083361928714,
                -0.8559753972642168,
                0.4759566250798843,
                -3.1240929996934557
            ]
        },
        {
            "positions": [
                -1.1912985481014717,
                -1.1712597009500727,
                2.008557313358291,
                -0.7995160669999375,
                0.6418937989252413,
                -3.1257086126198006
            ]
        },
        {
            "positions": [
                -1.287389340786069,
                -1.2204947464350746,
                1.9978062905237104,
                -0.7430567367356582,
                0.8078309727705983,
                -3.1273242255461455
            ]
        },
        {
            "positions": [
                -1.3834801334706661,
                -1.2697297919200765,
                1.98705526768913,
                -0.6865974064713789,
                0.9737681466159553,
                -3.1289398384724905
            ]
        },
        {
            "positions": [
                -1.4795709261552632,
                -1.3189648374050784,
                1.9763042448545496,
                -0.6301380762070996,
                1.1397053204613123,
                -3.1305554513988354
            ]
        },
        {
            "positions": [
                -1.5756617188398605,
                -1.3681998828900803,
                1.965553222019969,
                -0.5736787459428202,
                1.3056424943066693,
                -3.1321710643251803
            ]
        },
        {
            "positions": [
                -1.6717525115244576,
                -1.4174349283750822,
                1.9548021991853886,
                -0.5172194156785409,
                1.4715796681520263,
                -3.1337866772515253
            ]
        }
    ]
}