{
    "goal": {
        "global_pose": {
            "orientation": {
                "w": -0.00223480608172531,
                "x": 0.0024358444001904467,
                "y": 0.7094548369677653,
                "z": -0.704743149386269
            },
            "position": {
                "x": -0.37947507619857795,
                "y": -0.6371506643295288,
                "z": 0.19426114857196808
            }
        },
        "name": "move_to_magneteinheit_C"
    },
    "id": "SPARS_move_to_magneteinheit_C_118",
    "joint_names": [
        "shoulder_pan_joint",
        "shoulder_lift_joint",
        "elbow_joint",
        "wrist_1_joint",
        "wrist_2_joint",
        "wrist_3_joint"
    ],
    "metrics": {
        "cart_traj_len": 2.0121030692417716,
        "distance_elbow_joint": 0.1702421848982416,
        "distance_shoulder_lift_joint": 0.9340117967274952,
        "distance_shoulder_pan_joint": 2.6209588714825736,
        "distance_wrist_1_joint": 0.8961151043719076,
        "distance_wrist_2_joint": 0.7881449186589191,
        "distance_wrist_3_joint": 0.13159701427901238,
        "smoothness": 1.7903711976517742,
        "time": 5.032291659,
        "traj_len": 2.35394772465706,
        "weighted_distance": 2.7365167534672614
    },
    "planner": "SPARS",
    "start": {
        "state": {
            "elbow_joint": 1.9565354010623817,
            "shoulder_lift_joint": -1.4165861575791021,
            "shoulder_pan_joint": -1.6717766225146293,
            "wrist_1_joint": -0.5286633292919765,
            "wrist_2_joint": 1.472756589071564,
            "wrist_3_joint": -3.1238370188695823
        }
    },
    "waypoints": [
        {
            "positions": [
                -1.6717766225146293,
                -1.4165861575791021,
                1.9565354010623817,
                -0.5286633292919765,
                1.472756589071564,
                -3.1238370188695823
            ]
        },
        {
            "positions": [
                -1.5200357637451218,
                -1.4733977411402592,
                1.9468017196010292,
                -0.47935303225655823,
                1.4126120599035714,
                -3.114562613936437
            ]
        },
        {
            "positions": [
                -1.3682949049756143,
                -1.5302093247014164,
                1.9370680381396768,
                -0.43004273522114,
                1.352467530735579,
                -3.1052882090032914
            ]
        },
        {
            "positions": [
                -1.2165540462061069,
                -1.5870209082625735,
                1.9273343566783243,
                -0.3807324381857217,
                1.2923230015675866,
                -3.0960138040701457
            ]
        },
        {
            "positions": [
                -1.0648131874365994,
                -1.6438324918237308,
                1.9176006752169719,
                -0.3314221411503035,
                1.232178472399594,
                -3.0867393991370005
            ]
        },
        {
            "positions": [
                -0.9130723286670919,
                -1.700644075384888,
                1.9078669937556194,
                -0.2821118441148852,
                1.1720339432316016,
                -3.077464994203855
            ]
        },
        {
            "positions": [
                -0.7613314698975844,
                -1.757455658946045,
                1.898133312294267,
                -0.23280154707946701,
                1.111889414063609,
                -3.0681905892707095
            ]
        },
        {
            "positions": [
                -0.951388549771532,
                -1.6915509594615392,
                1.9105599896420589,
                -0.29949636065273344,
                1.064414109213502,
                -3.0766295431240582
            ]
        },
        {
            "positions": [
                -1.1414456296454796,
                -1.6256462599770334,
                1.9229866669898508,
                -0.3661911742259999,
                1.016938804363395,
                -3.0850684969774074
            ]
        },
        {
            "positions": [
                -1.3315027095194272,
                -1.5597415604925275,
                1.9354133443376427,
                -0.43288598779926635,
                0.9694634995132877,
                -3.093507450830756
            ]
        },
        {
            "positions": [
                -1.5215597893933748,
                -1.4938368610080217,
                1.9478400216854346,
                -0.4995808013725328,
                0.9219881946631805,
                -3.1019464046841048
            ]
        },
        {
            "positions": [
                -1.7116168692673224,
                -1.427932161523516,
                1.9602666990332263,
                -0.5662756149457993,
                0.8745128898130734,
                -3.110385358537454
            ]
        },
        {
            "positions": [
                -1.90167394914127,
                -1.3620274620390103,
                1.9726933763810182,
                -0.6329704285190657,
                0.8270375849629663,
                -3.1188243123908026
            ]
        },
        {
            "positions": [
                -2.0917310290152176,
                -1.2961227625545044,
                1.98512005372881,
                -0.6996652420923322,
                0.7795622801128591,
                -3.1272632662441513
            ]
        },
        {
            "positions": [
                -2.281788108889165,
                -1.2302180630699986,
                1.997546731076602,
                -0.7663600556655986,
                0.7320869752627519,
                -3.1357022200975004
            ]
        },
        {
            "positions": [
                -2.4718451887631128,
                -1.1643133635854928,
                2.009973408424394,
                -0.8330548692388651,
                0.6846116704126448,
                -3.144141173950849
            ]
        }
    ]
}