{
    "goal": {
        "global_pose": {
            "orientation": {
                "w": 0.7047431468963623,
                "x": -0.7094548344612122,
                "y": 0.0024358443915843964,
                "z": -0.0022348060738295317
            },
            "position": {
                "x": 0.6094750761985779,
                "y": 0.3671506643295288,
                "z": 0.19426114857196808
            }
        },
        "name": "move_to_magneteinheit_A"
    },
    "id": "SPARStwo_move_to_magneteinheit_A_83",
    "joint_names": [
        "shoulder_pan_joint",
        "shoulder_lift_joint",
        "elbow_joint",
        "wrist_1_joint",
        "wrist_2_joint",
        "wrist_3_joint"
    ],
    "metrics": {
        "cart_traj_len": 3.465031886022998,
        "distance_elbow_joint": 3.91460950848123,
        "distance_shoulder_lift_joint": 1.307572422600487,
        "distance_shoulder_pan_joint": 2.7981008452095293,
        "distance_wrist_1_joint": 3.489809620804105,
        "distance_wrist_2_joint": 3.9119180201255626,
        "distance_wrist_3_joint": 1.7215487263253555,
        "smoothness": 0.30413817429127127,
        "time": 5.035587045,
        "traj_len": 4.140478129823447,
        "weighted_distance": 5.290404921849238
    },
    "planner": "SPARStwo",
    "start": {
        "state": {
            "elbow_joint": -1.9196185241190666,
            "shoulder_lift_joint": -1.2443396400964142,
            "shoulder_pan_joint": 2.6996025414629847,
            "wrist_1_joint": -1.5485510000780065,
            "wrist_2_joint": -1.5709468930060704,
            "wrist_3_joint": 0.4420197071253992
        }
    },
    "waypoints": [
        {
            "positions": [
                2.6996025414629847,
                -1.2443396400964142,
                -1.9196185241190666,
                -1.5485510000780065,
                -1.5709468930060704,
                0.4420197071253992
            ]
        },
        {
            "positions": [
                2.6100307935824105,
                -1.2147695748254181,
                -1.8784839882981197,
                -1.4499104076241576,
                -1.4815952046091645,
                0.40557463979677977
            ]
        },
        {
            "positions": [
                2.5204590457018368,
                -1.1851995095544223,
                -1.8373494524771727,
                -1.3512698151703089,
                -1.3922435162122586,
                0.3691295724681603
            ]
        },
        {
            "positions": [
                2.4308872978212626,
                -1.1556294442834263,
                -1.7962149166562256,
                -1.25262922271646,
                -1.3028918278153525,
                0.33268450513954084
            ]
        },
        {
            "positions": [
                2.341315549940689,
                -1.1260593790124305,
                -1.7550803808352786,
                -1.153988630262611,
                -1.2135401394184466,
                0.29623943781092144
            ]
        },
        {
            "positions": [
                2.2517438020601146,
                -1.0964893137414344,
                -1.7139458450143317,
                -1.0553480378087623,
                -1.1241884510215407,
                0.25979437048230203
            ]
        },
        {
            "positions": [
                2.1621720541795404,
                -1.0669192484704384,
                -1.6728113091933847,
                -0.9567074453549134,
                -1.0348367626246349,
                0.22334930315368254
            ]
        },
        {
            "positions": [
                2.0726003062989666,
                -1.0373491831994426,
                -1.6316767733724378,
                -0.8580668529010645,
                -0.945485074227729,
                0.1869042358250631
            ]
        },
        {
            "positions": [
                1.9830285584183924,
                -1.0077791179284465,
                -1.5905422375514908,
                -0.7594262604472156,
                -0.8561333858308231,
                0.1504591684964437
            ]
        },
        {
            "positions": [
                1.8934568105378187,
                -0.9782090526574507,
                -1.5494077017305439,
                -0.6607856679933668,
                -0.7667816974339172,
                0.11401410116782423
            ]
        },
        {
            "positions": [
                1.8038850626572445,
                -0.9486389873864547,
                -1.5082731659095967,
                -0.562145075539518,
                -0.6774300090370113,
                0.07756903383920483
            ]
        },
        {
            "positions": [
                1.7143133147766705,
                -0.9190689221154589,
                -1.4671386300886498,
                -0.46350448308566916,
                -0.5880783206401055,
                0.04112396651058542
            ]
        },
        {
            "positions": [
                1.6247415668960963,
                -0.8894988568444628,
                -1.4260040942677028,
                -0.36486389063182023,
                -0.49872663224319935,
                0.004678899181965901
            ]
        },
        {
            "positions": [
                1.5351698190155223,
                -0.8599287915734668,
                -1.3848695584467559,
                -0.2662232981779713,
                -0.40937494384629347,
                -0.031766168146653506
            ]
        },
        {
            "positions": [
                1.4455980711349483,
                -0.830358726302471,
                -1.343735022625809,
                -0.1675827057241226,
                -0.3200232554493876,
                -0.06821123547527297
            ]
        },
        {
            "positions": [
                1.3560263232543743,
                -0.800788661031475,
                -1.3026004868048617,
                -0.06894211327027366,
                -0.2306715670524817,
                -0.10465630280389238
            ]
        },
        {
            "positions": [
                1.2664545753738004,
                -0.7712185957604791,
                -1.261465950983915,
                0.029698479183575266,
                -0.14131987865557583,
                -0.14110137013251178
            ]
        },
        {
            "positions": [
                1.1768828274932264,
                -0.7416485304894831,
                -1.2203314151629678,
                0.12833907163742397,
                -0.051968190258669944,
                -0.1775464374611312
            ]
        },
        {
            "positions": [
                1.0873110796126524,
                -0.7120784652184872,
                -1.1791968793420209,
                0.2269796640912729,
                0.03738349813823594,
                -0.2139915047897507
            ]
        },
        {
            "positions": [
                0.9977393317320784,
                -0.6825083999474912,
                -1.138062343521074,
                0.3256202565451216,
                0.12673518653514182,
                -0.2504365721183701
            ]
        },
        {
            "positions": [
                0.9081675838515042,
                -0.6529383346764953,
                -1.096927807700127,
                0.42426084899897054,
                0.2160868749320477,
                -0.2868816394469895
            ]
        },
        {
            "positions": [
                0.8185958359709302,
                -0.6233682694054994,
                -1.05579327187918,
                0.5229014414528195,
                0.3054385633289536,
                -0.32332670677560893
            ]
        },
        {
            "positions": [
                0.7290240880903562,
                -0.5937982041345035,
                -1.0146587360582329,
                0.6215420339066682,
                0.39479025172585946,
                -0.35977177410422834
            ]
        },
        {
            "positions": [
                0.639452340209782,
                -0.5642281388635074,
                -0.9735242002372859,
                0.7201826263605173,
                0.4841419401227658,
                -0.39621684143284797
            ]
        },
        {
            "positions": [
                0.5498805923292078,
                -0.5346580735925115,
                -0.932389664416339,
                0.818823218814366,
                0.5734936285196717,
                -0.4326619087614674
            ]
        },
        {
            "positions": [
                0.46030884444863407,
                -0.5050880083215156,
                -0.891255128595392,
                0.9174638112682152,
                0.6628453169165776,
                -0.4691069760900868
            ]
        },
        {
            "positions": [
                0.37073709656805987,
                -0.47551794305051953,
                -0.8501205927744451,
                1.016104403722064,
                0.7521970053134834,
                -0.5055520434187062
            ]
        },
        {
            "positions": [
                0.2811653486874861,
                -0.4459478777795236,
                -0.8089860569534979,
                1.1147449961759126,
                0.8415486937103893,
                -0.5419971107473256
            ]
        },
        {
            "positions": [
                0.1915936008069119,
                -0.4163778125085277,
                -0.767851521132551,
                1.2133855886297613,
                0.9309003821072952,
                -0.5784421780759451
            ]
        },
        {
            "positions": [
                0.10202185292633814,
                -0.38680774723753175,
                -0.726716985311604,
                1.3120261810836105,
                1.020252070504201,
                -0.6148872454045645
            ]
        },
        {
            "positions": [
                0.012450105045763965,
                -0.3572376819665358,
                -0.685582449490657,
                1.4106667735374594,
                1.1096037589011072,
                -0.651332312733184
            ]
        },
        {
            "positions": [
                0.019846665631917802,
                -0.3852690462645764,
                -0.5068775539004691,
                1.4460395633500354,
                1.0275126010198814,
                -0.609452532302066
            ]
        },
        {
            "positions": [
                0.02724322621807164,
                -0.413300410562617,
                -0.32817265831028103,
                1.481412353162611,
                0.9454214431386556,
                -0.5675727518709479
            ]
        },
        {
            "positions": [
                0.034639786804225484,
                -0.4413317748606576,
                -0.149467762720093,
                1.516785142975187,
                0.8633302852574298,
                -0.5256929714398297
            ]
        },
        {
            "positions": [
                0.042036347390379314,
                -0.4693631391586982,
                0.029237132870094995,
                1.5521579327877628,
                0.781239127376204,
                -0.4838131910087117
            ]
        },
        {
            "positions": [
                0.04943290797653316,
                -0.4973945034567388,
                0.20794202846028298,
                1.5875307226003388,
                0.6991479694949783,
                -0.4419334105775936
            ]
        },
        {
            "positions": [
                0.056829468562687,
                -0.5254258677547794,
                0.3866469240504711,
                1.6229035124129148,
                0.6170568116137524,
                -0.4000536301464755
            ]
        },
        {
            "positions": [
                0.06422602914884085,
                -0.55345723205282,
                0.5653518196406591,
                1.6582763022254905,
                0.5349656537325266,
                -0.35817384971535743
            ]
        },
        {
            "positions": [
                0.07162258973499466,
                -0.5814885963508606,
                0.744056715230847,
                1.6936490920380665,
                0.4528744958513008,
                -0.31629406928423937
            ]
        },
        {
            "positions": [
                0.0790191503211485,
                -0.6095199606489012,
                0.922761610821035,
                1.7290218818506422,
                0.370783337970075,
                -0.2744142888531213
            ]
        },
        {
            "positions": [
                0.08641571090730235,
                -0.6375513249469418,
                1.101466506411223,
                1.7643946716632182,
                0.2886921800888492,
                -0.23253450842200318
            ]
        },
        {
            "positions": [
                0.09381227149345618,
                -0.6655826892449823,
                1.280171402001411,
                1.7997674614757941,
                0.20660102220762344,
                -0.19065472799088512
            ]
        },
        {
            "positions": [
                0.10120883207961004,
                -0.6936140535430231,
                1.4588762975915992,
                1.8351402512883699,
                0.12450986432639755,
                -0.14877494755976695
            ]
        },
        {
            "positions": [
                0.10860539266576387,
                -0.7216454178410636,
                1.6375811931817872,
                1.8705130411009459,
                0.04241870644517176,
                -0.10689516712864888
            ]
        },
        {
            "positions": [
                0.11600195325191771,
                -0.7496767821391042,
                1.8162860887719752,
                1.9058858309135216,
                -0.039672451436054024,
                -0.06501538669753082
            ]
        },
        {
            "positions": [
                0.12339851383807154,
                -0.7777081464371448,
                1.9949909843621634,
                1.9412586207260976,
                -0.12176360931727971,
                -0.023135606266412766
            ]
        }
    ]
}