{
    "goal": {
        "global_pose": {
            "orientation": {
                "w": -0.4816463035849501,
                "x": 0.5182115481033762,
                "y": 0.4908360881923453,
                "z": -0.5084816262002911
            },
            "position": {
                "x": -0.8240239810943604,
                "y": -0.300875300988555,
                "z": 0.16403168439865112
            }
        },
        "name": "move_to_storage_C"
    },
    "id": "SPARS_move_to_storage_C_81",
    "joint_names": [
        "shoulder_pan_joint",
        "shoulder_lift_joint",
        "elbow_joint",
        "wrist_1_joint",
        "wrist_2_joint",
        "wrist_3_joint"
    ],
    "metrics": {
        "cart_traj_len": 0.5766877228909213,
        "distance_elbow_joint": 0.25747034596147,
        "distance_shoulder_lift_joint": 0.18850709335022542,
        "distance_shoulder_pan_joint": 0.49593169329448195,
        "distance_wrist_1_joint": 0.08096266388380424,
        "distance_wrist_2_joint": 1.0623315853435118,
        "distance_wrist_3_joint": 0.07295069545595201,
        "smoothness": 2.5376526478085547e-16,
        "time": 5.018735077,
        "traj_len": 1.4690657157831455,
        "weighted_distance": 1.8567039929478972
    },
    "planner": "SPARS",
    "start": {
        "state": {
            "elbow_joint": 2.010868314990456,
            "shoulder_lift_joint": -1.1634956873337592,
            "shoulder_pan_joint": -2.4736205022346125,
            "wrist_1_joint": -0.8367026794202681,
            "wrist_2_joint": 0.6746043897044499,
            "wrist_3_joint": -3.1496632123970403
        }
    },
    "waypoints": [
        {
            "positions": [
                -2.4736205022346125,
                -1.1634956873337592,
                2.010868314990456,
                -0.8367026794202681,
                0.6746043897044499,
                -3.1496632123970403
            ]
        },
        {
            "positions": [
                -2.5562757844503596,
                -1.132077838442055,
                1.9679565906635441,
                -0.8232089021063007,
                0.8516596539283685,
                -3.1375047631543818
            ]
        },
        {
            "positions": [
                -2.6389310666661063,
                -1.1006599895503508,
                1.9250448663366324,
                -0.8097151247923333,
                1.0287149181522872,
                -3.125346313911723
            ]
        },
        {
            "positions": [
                -2.7215863488818535,
                -1.0692421406586465,
                1.882133142009721,
                -0.7962213474783659,
                1.205770182376206,
                -3.1131878646690643
            ]
        },
        {
            "positions": [
                -2.8042416310976006,
                -1.0378242917669422,
                1.8392214176828092,
                -0.7827275701643986,
                1.3828254466001244,
                -3.1010294154264058
            ]
        },
        {
            "positions": [
                -2.8868969133133473,
                -1.006406442875238,
                1.7963096933558975,
                -0.7692337928504313,
                1.5598807108240431,
                -3.088870966183747
            ]
        },
        {
            "positions": [
                -2.9695521955290944,
                -0.9749885939835338,
                1.7533979690289858,
                -0.7557400155364639,
                1.7369359750479618,
                -3.0767125169410883
            ]
        }
    ]
}