{
    "goal": {
        "global_pose": {
            "orientation": {
                "w": 0.7031023502349854,
                "x": -0.7110244035720825,
                "y": 0.007748599164187908,
                "z": 0.005598929710686207
            },
            "position": {
                "x": 0.11585023208521307,
                "y": 0.44412534475326537,
                "z": 0.3711530566215515
            }
        },
        "name": "move_to_auspresseinheit_A"
    },
    "id": "SPARStwo_move_to_auspresseinheit_A_127",
    "joint_names": [
        "shoulder_pan_joint",
        "shoulder_lift_joint",
        "elbow_joint",
        "wrist_1_joint",
        "wrist_2_joint",
        "wrist_3_joint"
    ],
    "metrics": {
        "cart_traj_len": 2.54258017484793,
        "distance_elbow_joint": 1.9531222062726372,
        "distance_shoulder_lift_joint": 0.8469804187291095,
        "distance_shoulder_pan_joint": 3.9325246241489724,
        "distance_wrist_1_joint": 0.6311005707071731,
        "distance_wrist_2_joint": 1.188971897372107,
        "distance_wrist_3_joint": 0.7027904819682096,
        "smoothness": 0.9792148171903899,
        "time": 5.01357581,
        "traj_len": 3.0422837144484416,
        "weighted_distance": 3.5328662062430145
    },
    "planner": "SPARStwo",
    "start": {
        "state": {
            "elbow_joint": 2.4225746658250005,
            "shoulder_lift_joint": -1.3736534386056498,
            "shoulder_pan_joint": -0.3378633547517467,
            "wrist_1_joint": -1.0288598680537169,
            "wrist_2_joint": 1.233022673432363,
            "wrist_3_joint": -3.0940220416140027
        }
    },
    "waypoints": [
        {
            "positions": [
                -0.3378633547517467,
                -1.3736534386056498,
                2.4225746658250005,
                -1.0288598680537169,
                1.233022673432363,
                -3.0940220416140027
            ]
        },
        {
            "positions": [
                -0.44910222811170386,
                -1.426804028804697,
                2.3463167962805778,
                -0.9829011260648142,
                1.1666562683462056,
                -3.0689193322857276
            ]
        },
        {
            "positions": [
                -0.560341101471661,
                -1.4799546190037445,
                2.270058926736155,
                -0.9369423840759115,
                1.100289863260048,
                -3.0438166229574524
            ]
        },
        {
            "positions": [
                -0.6715799748316181,
                -1.5331052092027917,
                2.1938010571917324,
                -0.8909836420870088,
                1.0339234581738905,
                -3.018713913629177
            ]
        },
        {
            "positions": [
                -0.7828188481915752,
                -1.586255799401839,
                2.1175431876473096,
                -0.845024900098106,
                0.9675570530877331,
                -2.993611204300902
            ]
        },
        {
            "positions": [
                -0.8940577215515324,
                -1.6394063896008864,
                2.041285318102887,
                -0.7990661581092035,
                0.9011906480015756,
                -2.968508494972627
            ]
        },
        {
            "positions": [
                -1.0052965949114896,
                -1.6925569797999336,
                1.9650274485584642,
                -0.7531074161203007,
                0.834824242915418,
                -2.9434057856443516
            ]
        },
        {
            "positions": [
                -1.1165354682714466,
                -1.7457075699989808,
                1.8887695790140415,
                -0.707148674131398,
                0.7684578378292606,
                -2.918303076316076
            ]
        },
        {
            "positions": [
                -1.2277743416314038,
                -1.7988581601980282,
                1.8125117094696188,
                -0.6611899321424953,
                0.702091432743103,
                -2.893200366987801
            ]
        },
        {
            "positions": [
                -1.3390132149913607,
                -1.8520087503970755,
                1.736253839925196,
                -0.6152311901535927,
                0.6357250276569456,
                -2.8680976576595256
            ]
        },
        {
            "positions": [
                -1.450252088351318,
                -1.9051593405961227,
                1.6599959703807734,
                -0.56927244816469,
                0.5693586225707881,
                -2.8429949483312504
            ]
        },
        {
            "positions": [
                -1.561490961711275,
                -1.9583099307951701,
                1.5837381008363507,
                -0.5233137061757873,
                0.5029922174846305,
                -2.8178922390029753
            ]
        },
        {
            "positions": [
                -1.6727298350712323,
                -2.011460520994217,
                1.507480231291928,
                -0.4773549641868846,
                0.436625812398473,
                -2.7927895296747
            ]
        },
        {
            "positions": [
                -1.7839687084311893,
                -2.0646111111932646,
                1.4312223617475053,
                -0.43139622219798196,
                0.37025940731231555,
                -2.767686820346425
            ]
        },
        {
            "positions": [
                -1.5579305929339593,
                -2.0504272251804014,
                1.5186559892197908,
                -0.43445412445720355,
                0.39991473742613914,
                -2.801910025864664
            ]
        },
        {
            "positions": [
                -1.3318924774367293,
                -2.0362433391675383,
                1.6060896166920766,
                -0.43751202671642514,
                0.42957006753996274,
                -2.8361332313829033
            ]
        },
        {
            "positions": [
                -1.1058543619394996,
                -2.022059453154675,
                1.6935232441643622,
                -0.44056992897564673,
                0.45922539765378634,
                -2.8703564369011425
            ]
        },
        {
            "positions": [
                -0.8798162464422695,
                -2.007875567141812,
                1.780956871636648,
                -0.4436278312348683,
                0.48888072776761,
                -2.9045796424193817
            ]
        },
        {
            "positions": [
                -0.6537781309450397,
                -1.993691681128949,
                1.8683904991089335,
                -0.4466857334940899,
                0.5185360578814335,
                -2.938802847937621
            ]
        },
        {
            "positions": [
                -0.42774001544780993,
                -1.9795077951160858,
                1.955824126581219,
                -0.4497436357533115,
                0.5481913879952571,
                -2.97302605345586
            ]
        },
        {
            "positions": [
                -0.20170189995057974,
                -1.9653239091032224,
                2.0432577540535046,
                -0.4528015380125331,
                0.5778467181090807,
                -3.0072492589741
            ]
        },
        {
            "positions": [
                0.02433621554665022,
                -1.9511400230903593,
                2.13069138152579,
                -0.4558594402717547,
                0.6075020482229044,
                -3.041472464492339
            ]
        },
        {
            "positions": [
                0.25037433104387996,
                -1.9369561370774961,
                2.218125008998076,
                -0.45891734253097627,
                0.637157378336728,
                -3.075695670010578
            ]
        },
        {
            "positions": [
                0.4764124465411099,
                -1.922772251064633,
                2.3055586364703617,
                -0.46197524479019786,
                0.6668127084505516,
                -3.1099188755288174
            ]
        },
        {
            "positions": [
                0.7024505620383397,
                -1.9085883650517699,
                2.3929922639426473,
                -0.46503314704941945,
                0.6964680385643752,
                -3.1441420810470566
            ]
        }
    ]
}