{
    "goal": {
        "global_pose": {
            "orientation": {
                "w": 0.5084816262002911,
                "x": -0.4908360881923452,
                "y": 0.5182115481033761,
                "z": -0.48164630358495003
            },
            "position": {
                "x": 0.5540239810943604,
                "y": -0.46912469901144505,
                "z": 0.16403168439865112
            }
        },
        "name": "move_to_storage_B"
    },
    "id": "SPARS_move_to_storage_B_25",
    "joint_names": [
        "shoulder_pan_joint",
        "shoulder_lift_joint",
        "elbow_joint",
        "wrist_1_joint",
        "wrist_2_joint",
        "wrist_3_joint"
    ],
    "metrics": {
        "cart_traj_len": 0.6238225743253341,
        "distance_elbow_joint": 0.4133921646135965,
        "distance_shoulder_lift_joint": 0.45890420166632273,
        "distance_shoulder_pan_joint": 0.1805827268143504,
        "distance_wrist_1_joint": 3.002027846465619,
        "distance_wrist_2_joint": 2.7059137741572377,
        "distance_wrist_3_joint": 3.1222728317824897,
        "smoothness": 0.05223443283708368,
        "time": 5.106012722,
        "traj_len": 3.1437387845524976,
        "weighted_distance": 4.672855746723567
    },
    "planner": "SPARS",
    "start": {
        "state": {
            "elbow_joint": 1.664937868594044,
            "shoulder_lift_joint": -0.661644460510453,
            "shoulder_pan_joint": -0.9139846352900073,
            "wrist_1_joint": 2.146753192139373,
            "wrist_2_joint": -2.2341966793290973,
            "wrist_3_joint": 0.005466555786416001
        }
    },
    "waypoints": [
        {
            "positions": [
                -0.9139846352900073,
                -0.661644460510453,
                1.664937868594044,
                2.146753192139373,
                -2.2341966793290973,
                0.005466555786416001
            ]
        },
        {
            "positions": [
                -0.9202831786731441,
                -0.6799450798630324,
                1.6802538561910796,
                2.0327490146620453,
                -2.129616383958793,
                -0.11844204563372131
            ]
        },
        {
            "positions": [
                -0.926581722056281,
                -0.698245699215612,
                1.6955698437881153,
                1.9187448371847171,
                -2.0250360885884886,
                -0.24235064705385861
            ]
        },
        {
            "positions": [
                -0.9328802654394178,
                -0.7165463185681914,
                1.7108858313851507,
                1.8047406597073892,
                -1.9204557932181843,
                -0.3662592484739959
            ]
        },
        {
            "positions": [
                -0.9391788088225547,
                -0.7348469379207709,
                1.7262018189821864,
                1.6907364822300612,
                -1.81587549784788,
                -0.4901678498941332
            ]
        },
        {
            "positions": [
                -0.9454773522056915,
                -0.7531475572733504,
                1.741517806579222,
                1.576732304752733,
                -1.7112952024775756,
                -0.6140764513142706
            ]
        },
        {
            "positions": [
                -0.9517758955888284,
                -0.7714481766259298,
                1.7568337941762577,
                1.4627281272754051,
                -1.6067149071072713,
                -0.7379850527344078
            ]
        },
        {
            "positions": [
                -0.9580744389719652,
                -0.7897487959785093,
                1.7721497817732934,
                1.3487239497980772,
                -1.502134611736967,
                -0.8618936541545452
            ]
        },
        {
            "positions": [
                -0.964372982355102,
                -0.8080494153310888,
                1.7874657693703289,
                1.2347197723207493,
                -1.3975543163666626,
                -0.9858022555746825
            ]
        },
        {
            "positions": [
                -0.9706715257382389,
                -0.8263500346836683,
                1.8027817569673645,
                1.120715594843421,
                -1.2929740209963585,
                -1.1097108569948197
            ]
        },
        {
            "positions": [
                -0.9769700691213757,
                -0.8446506540362477,
                1.8180977445644002,
                1.0067114173660932,
                -1.188393725626054,
                -1.2336194584149571
            ]
        },
        {
            "positions": [
                -0.9832686125045126,
                -0.8629512733888272,
                1.8334137321614359,
                0.892707239888765,
                -1.0838134302557496,
                -1.3575280598350945
            ]
        },
        {
            "positions": [
                -0.9895671558876493,
                -0.8812518927414067,
                1.8487297197584716,
                0.778703062411437,
                -0.9792331348854455,
                -1.4814366612552317
            ]
        },
        {
            "positions": [
                -0.9958656992707862,
                -0.8995525120939861,
                1.864045707355507,
                0.6646988849341091,
                -0.874652839515141,
                -1.605345262675369
            ]
        },
        {
            "positions": [
                -1.002164242653923,
                -0.9178531314465657,
                1.8793616949525427,
                0.550694707456781,
                -0.7700725441448366,
                -1.7292538640955064
            ]
        },
        {
            "positions": [
                -1.0084627860370599,
                -0.9361537507991451,
                1.8946776825495784,
                0.436690529979453,
                -0.6654922487745325,
                -1.8531624655156436
            ]
        },
        {
            "positions": [
                -1.0147613294201967,
                -0.9544543701517245,
                1.909993670146614,
                0.3226863525021251,
                -0.560911953404228,
                -1.977071066935781
            ]
        },
        {
            "positions": [
                -1.0210598728033335,
                -0.9727549895043041,
                1.9253096577436497,
                0.2086821750247969,
                -0.4563316580339236,
                -2.1009796683559183
            ]
        },
        {
            "positions": [
                -1.0273584161864704,
                -0.9910556088568835,
                1.9406256453406852,
                0.09467799754746897,
                -0.3517513626636195,
                -2.2248882697760552
            ]
        },
        {
            "positions": [
                -1.0336569595696072,
                -1.009356228209463,
                1.9559416329377208,
                -0.019326179929858966,
                -0.24717106729331517,
                -2.3487968711961926
            ]
        },
        {
            "positions": [
                -1.039955502952744,
                -1.0276568475620425,
                1.9712576205347565,
                -0.1333303574071869,
                -0.14259077192301062,
                -2.47270547261633
            ]
        },
        {
            "positions": [
                -1.046254046335881,
                -1.0459574669146219,
                1.9865736081317922,
                -0.24733453488451485,
                -0.03801047655270651,
                -2.596614074036467
            ]
        },
        {
            "positions": [
                -1.0525525897190178,
                -1.0642580862672015,
                2.001889595728828,
                -0.36133871236184323,
                0.06656981881759805,
                -2.7205226754566048
            ]
        },
        {
            "positions": [
                -1.0588511331021546,
                -1.082558705619781,
                2.0172055833258633,
                -0.47534288983917117,
                0.17115011418790216,
                -2.844431276876742
            ]
        },
        {
            "positions": [
                -1.0651496764852915,
                -1.1008593249723604,
                2.032521570922899,
                -0.5893470673164991,
                0.27573040955820627,
                -2.968339878296879
            ]
        },
        {
            "positions": [
                -1.0714482198684283,
                -1.1191599443249398,
                2.0478375585199347,
                -0.7033512447938272,
                0.380310704928511,
                -3.0922484797170164
            ]
        },
        {
            "positions": [
                -1.0945673621043577,
                -1.1205486621767757,
                2.017345083832229,
                -0.8552746543262459,
                0.4717170948281407,
                -3.1168062759960735
            ]
        }
    ]
}