{
    "goal": {
        "global_pose": {
            "orientation": {
                "w": 0.7031023480610252,
                "x": -0.7110244013736278,
                "y": 0.0077485991402295624,
                "z": 0.005598929693374583
            },
            "position": {
                "x": -0.8841497679147869,
                "y": 0.44412534475326537,
                "z": 0.3711530566215515
            }
        },
        "name": "move_to_auspresseinheit_D"
    },
    "id": "SPARStwo_move_to_auspresseinheit_D_14",
    "joint_names": [
        "shoulder_pan_joint",
        "shoulder_lift_joint",
        "elbow_joint",
        "wrist_1_joint",
        "wrist_2_joint",
        "wrist_3_joint"
    ],
    "metrics": {
        "cart_traj_len": 0.34295361950773195,
        "distance_elbow_joint": 0.6324880475344374,
        "distance_shoulder_lift_joint": 0.1186516797702013,
        "distance_shoulder_pan_joint": 0.13419318712003775,
        "distance_wrist_1_joint": 0.5048608106167194,
        "distance_wrist_2_joint": 1.4384831655653691,
        "distance_wrist_3_joint": 0.03255037398682159,
        "smoothness": 7.894919300567339e-16,
        "time": 5.003559962,
        "traj_len": 1.6915162619950146,
        "weighted_distance": 2.2067333297771436
    },
    "planner": "SPARStwo",
    "start": {
        "state": {
            "elbow_joint": -1.8275523626775212,
            "shoulder_lift_joint": -2.126789852344167,
            "shoulder_pan_joint": -0.03513704404078235,
            "wrist_1_joint": -2.347782403156801,
            "wrist_2_joint": -1.6058999987535132,
            "wrist_3_joint": -3.0880379163319196
        }
    },
    "waypoints": [
        {
            "positions": [
                -0.03513704404078235,
                -2.126789852344167,
                -1.8275523626775212,
                -2.347782403156801,
                -1.6058999987535132,
                -3.0880379163319196
            ]
        },
        {
            "positions": [
                -0.05191119243078707,
                -2.141621312315442,
                -1.7484913567357165,
                -2.410890004483891,
                -1.426089603057842,
                -3.0921067130802724
            ]
        },
        {
            "positions": [
                -0.06868534082079178,
                -2.156452772286717,
                -1.6694303507939119,
                -2.4739976058109807,
                -1.246279207362171,
                -3.096175509828625
            ]
        },
        {
            "positions": [
                -0.0854594892107965,
                -2.1712842322579924,
                -1.5903693448521072,
                -2.5371052071380706,
                -1.0664688116664998,
                -3.1002443065769776
            ]
        },
        {
            "positions": [
                -0.10223363760080123,
                -2.1861156922292677,
                -1.5113083389103026,
                -2.6002128084651606,
                -0.8866584159708286,
                -3.1043131033253304
            ]
        },
        {
            "positions": [
                -0.11900778599080594,
                -2.2009471522005426,
                -1.432247332968498,
                -2.6633204097922505,
                -0.7068480202751575,
                -3.108381900073683
            ]
        },
        {
            "positions": [
                -0.13578193438081065,
                -2.215778612171818,
                -1.353186327026693,
                -2.7264280111193404,
                -0.5270376245794863,
                -3.1124506968220356
            ]
        },
        {
            "positions": [
                -0.1525560827708154,
                -2.230610072143093,
                -1.2741253210848884,
                -2.7895356124464303,
                -0.3472272288838152,
                -3.1165194935703884
            ]
        },
        {
            "positions": [
                -0.1693302311608201,
                -2.245441532114368,
                -1.1950643151430838,
                -2.8526432137735203,
                -0.16741683318814402,
                -3.120588290318741
            ]
        }
    ]
}