{
    "goal": {
        "global_pose": {
            "orientation": {
                "w": 0.5084816217422485,
                "x": -0.49083608388900757,
                "y": 0.5182115435600281,
                "z": -0.4816462993621826
            },
            "position": {
                "x": 0.5540239810943604,
                "y": 0.030875300988554955,
                "z": 0.16403168439865112
            }
        },
        "name": "move_to_storage_A"
    },
    "id": "SPARStwo_move_to_storage_A_109",
    "joint_names": [
        "shoulder_pan_joint",
        "shoulder_lift_joint",
        "elbow_joint",
        "wrist_1_joint",
        "wrist_2_joint",
        "wrist_3_joint"
    ],
    "metrics": {
        "cart_traj_len": 0.3532638109050851,
        "distance_elbow_joint": 0.4491162725677249,
        "distance_shoulder_lift_joint": 0.23288709039727418,
        "distance_shoulder_pan_joint": 0.46368176427428737,
        "distance_wrist_1_joint": 0.24262117520122706,
        "distance_wrist_2_joint": 1.0906851130117656,
        "distance_wrist_3_joint": 0.10277431990157782,
        "smoothness": 0.0,
        "time": 5.0003811030000005,
        "traj_len": 1.6067873958162158,
        "weighted_distance": 2.029931196708402
    },
    "planner": "SPARStwo",
    "start": {
        "state": {
            "elbow_joint": 1.9715481507254546,
            "shoulder_lift_joint": -1.1394850672790213,
            "shoulder_pan_joint": 0.12281154597544902,
            "wrist_1_joint": -0.7804720171073349,
            "wrist_2_joint": 0.12958658322886563,
            "wrist_3_joint": -3.1924895760937617
        }
    },
    "waypoints": [
        {
            "positions": [
                0.12281154597544902,
                -1.1394850672790213,
                1.9715481507254546,
                -0.7804720171073349,
                0.12958658322886563,
                -3.1924895760937617
            ]
        },
        {
            "positions": [
                0.056571293936265116,
                -1.172754651621489,
                2.0357076182351297,
                -0.8151321849932245,
                0.2853987422305464,
                -3.1778075303935363
            ]
        },
        {
            "positions": [
                -0.00966895810291879,
                -1.2060242359639568,
                2.0998670857448047,
                -0.849792352879114,
                0.4412109012322272,
                -3.163125484693311
            ]
        },
        {
            "positions": [
                -0.0759092101421027,
                -1.2392938203064245,
                2.16402655325448,
                -0.8844525207650037,
                0.5970230602339079,
                -3.1484434389930853
            ]
        },
        {
            "positions": [
                -0.1421494621812866,
                -1.2725634046488923,
                2.2281860207641544,
                -0.9191126886508932,
                0.7528352192355888,
                -3.1337613932928603
            ]
        },
        {
            "positions": [
                -0.20838971422047053,
                -1.30583298899136,
                2.2923454882738294,
                -0.9537728565367829,
                0.9086473782372697,
                -3.119079347592635
            ]
        },
        {
            "positions": [
                -0.2746299662596544,
                -1.3391025733338278,
                2.3565049557835045,
                -0.9884330244226724,
                1.0644595372389505,
                -3.1043973018924094
            ]
        },
        {
            "positions": [
                -0.34087021829883835,
                -1.3723721576762955,
                2.4206644232931795,
                -1.023093192308562,
                1.2202716962406313,
                -3.089715256192184
            ]
        }
    ]
}