{
    "goal": {
        "global_pose": {
            "orientation": {
                "w": 0.005598929693374612,
                "x": 0.007748599140229565,
                "y": 0.7110244013736278,
                "z": -0.7031023480610252
            },
            "position": {
                "x": 0.1141497679147869,
                "y": -0.7141253447532654,
                "z": 0.3711530566215515
            }
        },
        "name": "move_to_auspresseinheit_B"
    },
    "id": "SPARStwo_move_to_auspresseinheit_B_114",
    "joint_names": [
        "shoulder_pan_joint",
        "shoulder_lift_joint",
        "elbow_joint",
        "wrist_1_joint",
        "wrist_2_joint",
        "wrist_3_joint"
    ],
    "metrics": {
        "cart_traj_len": 0.5645773779912289,
        "distance_elbow_joint": 0.061488157728733395,
        "distance_shoulder_lift_joint": 0.29450082146485457,
        "distance_shoulder_pan_joint": 0.5783437951998585,
        "distance_wrist_1_joint": 0.3260776925057203,
        "distance_wrist_2_joint": 0.9894950401035227,
        "distance_wrist_3_joint": 0.00527759658059157,
        "smoothness": 2.5376526478085547e-16,
        "time": 5.020842758,
        "traj_len": 1.5017267073549971,
        "weighted_distance": 1.8924352114018876
    },
    "planner": "SPARStwo",
    "start": {
        "state": {
            "elbow_joint": 2.0193083361928714,
            "shoulder_lift_joint": -1.1220246554650708,
            "shoulder_pan_joint": -1.0952077554168747,
            "wrist_1_joint": -0.8559753972642168,
            "wrist_2_joint": 0.4759566250798843,
            "wrist_3_joint": -3.1240929996934557
        }
    },
    "waypoints": [
        {
            "positions": [
                -1.0952077554168747,
                -1.1220246554650708,
                2.0193083361928714,
                -0.8559753972642168,
                0.4759566250798843,
                -3.1240929996934557
            ]
        },
        {
            "positions": [
                -1.1915983879501844,
                -1.1711081257092133,
                2.0090603099047493,
                -0.8016291151799301,
                0.640872465097138,
                -3.123213400263357
            ]
        },
        {
            "positions": [
                -1.287989020483494,
                -1.2201915959533556,
                1.9988122836166269,
                -0.7472828330956434,
                0.8057883051143919,
                -3.1223338008332586
            ]
        },
        {
            "positions": [
                -1.3843796530168038,
                -1.269275066197498,
                1.9885642573285047,
                -0.6929365510113566,
                0.9707041451316456,
                -3.12145420140316
            ]
        },
        {
            "positions": [
                -1.4807702855501135,
                -1.3183585364416406,
                1.9783162310403826,
                -0.6385902689270699,
                1.1356199851488995,
                -3.120574601973061
            ]
        },
        {
            "positions": [
                -1.5771609180834234,
                -1.3674420066857829,
                1.9680682047522602,
                -0.5842439868427832,
                1.3005358251661532,
                -3.119695002542963
            ]
        },
        {
            "positions": [
                -1.673551550616733,
                -1.4165254769299254,
                1.957820178464138,
                -0.5298977047584965,
                1.465451665183407,
                -3.118815403112864
            ]
        }
    ]
}