{
    "goal": {
        "global_pose": {
            "orientation": {
                "w": 0.7047431468963623,
                "x": -0.7094548344612122,
                "y": 0.0024358443915843964,
                "z": -0.0022348060738295317
            },
            "position": {
                "x": 0.6094750761985779,
                "y": 0.3671506643295288,
                "z": 0.19426114857196808
            }
        },
        "name": "move_to_magneteinheit_A"
    },
    "id": "SPARStwo_move_to_magneteinheit_A_84",
    "joint_names": [
        "shoulder_pan_joint",
        "shoulder_lift_joint",
        "elbow_joint",
        "wrist_1_joint",
        "wrist_2_joint",
        "wrist_3_joint"
    ],
    "metrics": {
        "cart_traj_len": 3.117843278139798,
        "distance_elbow_joint": 3.9051114664180346,
        "distance_shoulder_lift_joint": 0.11265033947509462,
        "distance_shoulder_pan_joint": 2.73100051065349,
        "distance_wrist_1_joint": 1.427107885899694,
        "distance_wrist_2_joint": 1.7021659212594573,
        "distance_wrist_3_joint": 3.5703948769757137,
        "smoothness": 0.06349894519522899,
        "time": 5.031392431,
        "traj_len": 3.6672102476789465,
        "weighted_distance": 4.870163709958018
    },
    "planner": "SPARStwo",
    "start": {
        "state": {
            "elbow_joint": -1.9196185241190666,
            "shoulder_lift_joint": -1.2443396400964142,
            "shoulder_pan_joint": 2.6996025414629847,
            "wrist_1_joint": -1.5485510000780065,
            "wrist_2_joint": -1.5709468930060704,
            "wrist_3_joint": 0.4420197071253992
        }
    },
    "waypoints": [
        {
            "positions": [
                2.6996025414629847,
                -1.2443396400964142,
                -1.9196185241190666,
                -1.5485510000780065,
                -1.5709468930060704,
                0.4420197071253992
            ]
        },
        {
            "positions": [
                2.588646294412938,
                -1.2447013203903734,
                -1.7838171408694963,
                -1.5001063656177716,
                -1.5603219468363432,
                0.3645669112283155
            ]
        },
        {
            "positions": [
                2.477690047362891,
                -1.2450630006843324,
                -1.648015757619926,
                -1.4516617311575368,
                -1.549697000666616,
                0.2871141153312318
            ]
        },
        {
            "positions": [
                2.366733800312844,
                -1.2454246809782916,
                -1.5122143743703556,
                -1.4032170966973019,
                -1.5390720544968888,
                0.20966131943414817
            ]
        },
        {
            "positions": [
                2.255777553262797,
                -1.2457863612722508,
                -1.3764129911207852,
                -1.354772462237067,
                -1.5284471083271616,
                0.13220852353706447
            ]
        },
        {
            "positions": [
                2.14482130621275,
                -1.2461480415662098,
                -1.2406116078712146,
                -1.3063278277768322,
                -1.5178221621574344,
                0.05475572763998082
            ]
        },
        {
            "positions": [
                2.033865059162703,
                -1.246509721860169,
                -1.1048102246216445,
                -1.2578831933165973,
                -1.5071972159877072,
                -0.022697068257102826
            ]
        },
        {
            "positions": [
                1.9229088121126563,
                -1.2468714021541283,
                -0.969008841372074,
                -1.2094385588563623,
                -1.49657226981798,
                -0.10014986415418647
            ]
        },
        {
            "positions": [
                1.8119525650626092,
                -1.2472330824480873,
                -0.8332074581225035,
                -1.1609939243961276,
                -1.4859473236482528,
                -0.17760266005127023
            ]
        },
        {
            "positions": [
                1.7009963180125622,
                -1.2475947627420465,
                -0.6974060748729332,
                -1.1125492899358926,
                -1.4753223774785256,
                -0.2550554559483539
            ]
        },
        {
            "positions": [
                1.5900400709625153,
                -1.2479564430360057,
                -0.5616046916233628,
                -1.0641046554756577,
                -1.4646974313087986,
                -0.33250825184543753
            ]
        },
        {
            "positions": [
                1.4790838239124684,
                -1.2483181233299647,
                -0.42580330837379243,
                -1.0156600210154227,
                -1.4540724851390712,
                -0.4099610477425212
            ]
        },
        {
            "positions": [
                1.3681275768624215,
                -1.248679803623924,
                -0.29000192512422207,
                -0.967215386555188,
                -1.4434475389693442,
                -0.4874138436396048
            ]
        },
        {
            "positions": [
                1.2571713298123743,
                -1.2490414839178832,
                -0.1542005418746515,
                -0.9187707520949531,
                -1.4328225927996168,
                -0.5648666395366885
            ]
        },
        {
            "positions": [
                1.1462150827623276,
                -1.2494031642118424,
                -0.018399158625081347,
                -0.8703261176347182,
                -1.4221976466298898,
                -0.6423194354337721
            ]
        },
        {
            "positions": [
                1.0352588357122807,
                -1.2497648445058014,
                0.11740222462448902,
                -0.8218814831744834,
                -1.4115727004601626,
                -0.7197722313308558
            ]
        },
        {
            "positions": [
                0.9243025886622336,
                -1.2501265247997606,
                0.2532036078740596,
                -0.7734368487142484,
                -1.4009477542904354,
                -0.7972250272279396
            ]
        },
        {
            "positions": [
                0.8133463416121869,
                -1.2504882050937198,
                0.38900499112362974,
                -0.7249922142540136,
                -1.3903228081207082,
                -0.8746778231250231
            ]
        },
        {
            "positions": [
                0.7023900945621397,
                -1.2508498853876788,
                0.5248063743732003,
                -0.6765475797937787,
                -1.379697861950981,
                -0.9521306190221069
            ]
        },
        {
            "positions": [
                0.5914338475120928,
                -1.251211565681638,
                0.6606077576227705,
                -0.6281029453335438,
                -1.3690729157812538,
                -1.0295834149191907
            ]
        },
        {
            "positions": [
                0.4804776004620459,
                -1.2515732459755973,
                0.796409140872341,
                -0.579658310873309,
                -1.3584479696115266,
                -1.1070362108162741
            ]
        },
        {
            "positions": [
                0.369521353411999,
                -1.2519349262695563,
                0.9322105241219116,
                -0.5312136764130739,
                -1.3478230234417994,
                -1.184489006713358
            ]
        },
        {
            "positions": [
                0.2585651063619519,
                -1.2522966065635155,
                1.0680119073714818,
                -0.4827690419528392,
                -1.3371980772720722,
                -1.2619418026104414
            ]
        },
        {
            "positions": [
                0.22912546861587743,
                -1.2465699545596811,
                1.162572985952735,
                -0.5021669670190357,
                -1.2269931382929227,
                -1.3920167007571882
            ]
        },
        {
            "positions": [
                0.19968583086980296,
                -1.2408433025558465,
                1.2571340645339881,
                -0.5215648920852323,
                -1.1167881993137732,
                -1.522091598903935
            ]
        },
        {
            "positions": [
                0.1702461931237285,
                -1.235116650552012,
                1.3516951431152413,
                -0.5409628171514288,
                -1.0065832603346236,
                -1.6521664970506817
            ]
        },
        {
            "positions": [
                0.14080655537765402,
                -1.2293899985481775,
                1.4462562216964945,
                -0.5603607422176253,
                -0.8963783213554741,
                -1.7822413951974285
            ]
        },
        {
            "positions": [
                0.11136691763157955,
                -1.2236633465443432,
                1.5408173002777477,
                -0.5797586672838219,
                -0.7861733823763245,
                -1.9123162933441753
            ]
        },
        {
            "positions": [
                0.08192727988550509,
                -1.2179366945405086,
                1.6353783788590008,
                -0.5991565923500184,
                -0.675968443397175,
                -2.042391191490922
            ]
        },
        {
            "positions": [
                0.07471300167479568,
                -1.2106045807869483,
                1.698758073440489,
                -0.6264633095409984,
                -0.5703452754662455,
                -2.1727149560847674
            ]
        },
        {
            "positions": [
                0.06749872346408625,
                -1.2032724670333883,
                1.7621377680219772,
                -0.6537700267319783,
                -0.46472210753531606,
                -2.3030387206786123
            ]
        },
        {
            "positions": [
                0.06028444525337684,
                -1.195940353279828,
                1.8255174626034651,
                -0.6810767439229582,
                -0.35909893960438666,
                -2.4333624852724576
            ]
        },
        {
            "positions": [
                0.05307016704266741,
                -1.188608239526268,
                1.8888971571849533,
                -0.7083834611139381,
                -0.25347577167345714,
                -2.5636862498663024
            ]
        },
        {
            "positions": [
                0.045855888831958,
                -1.1812761257727078,
                1.9522768517664415,
                -0.7356901783049181,
                -0.14785260374252773,
                -2.6940100144601478
            ]
        },
        {
            "positions": [
                0.07160717483944566,
                -1.1700518283669792,
                1.9633488819439502,
                -0.7718251087790672,
                -0.05482872641055614,
                -2.8387983995902033
            ]
        },
        {
            "positions": [
                0.09735846084693332,
                -1.1588275309612508,
                1.9744209121214589,
                -0.8079600392532162,
                0.038195150921415455,
                -2.983586784720259
            ]
        },
        {
            "positions": [
                0.12310974685442098,
                -1.1476032335555222,
                1.9854929422989676,
                -0.8440949697273653,
                0.13121902825338708,
                -3.1283751698503144
            ]
        }
    ]
}