{
    "goal": {
        "global_pose": {
            "orientation": {
                "w": 0.7047431493862688,
                "x": -0.7094548369677653,
                "y": 0.0024358444001904,
                "z": -0.0022348060817251984
            },
            "position": {
                "x": -0.39052492380142206,
                "y": 0.3671506643295288,
                "z": 0.19426114857196808
            }
        },
        "name": "move_to_magneteinheit_D"
    },
    "id": "SPARS_move_to_magneteinheit_D_92",
    "joint_names": [
        "shoulder_pan_joint",
        "shoulder_lift_joint",
        "elbow_joint",
        "wrist_1_joint",
        "wrist_2_joint",
        "wrist_3_joint"
    ],
    "metrics": {
        "cart_traj_len": 4.233724508491181,
        "distance_elbow_joint": 3.132026438955643,
        "distance_shoulder_lift_joint": 2.309894583069408,
        "distance_shoulder_pan_joint": 3.151447295040756,
        "distance_wrist_1_joint": 2.799460919854318,
        "distance_wrist_2_joint": 1.864090118866624,
        "distance_wrist_3_joint": 3.420616440480018,
        "smoothness": 0.36119489033373137,
        "time": 5.072201015,
        "traj_len": 4.083813878749467,
        "weighted_distance": 5.308702262883815
    },
    "planner": "SPARS",
    "start": {
        "state": {
            "elbow_joint": 0.749534889911806,
            "shoulder_lift_joint": -0.6476975780787326,
            "shoulder_pan_joint": -2.711696901376241,
            "wrist_1_joint": -0.07506478083263063,
            "wrist_2_joint": 0.43296659715538205,
            "wrist_3_joint": -3.14703540197715
        }
    },
    "waypoints": [
        {
            "positions": [
                -2.711696901376241,
                -0.6476975780787326,
                0.749534889911806,
                -0.07506478083263063,
                0.43296659715538205,
                -3.14703540197715
            ]
        },
        {
            "positions": [
                -2.723751456601624,
                -0.5840449151559602,
                0.6232295244410259,
                -0.12906616038940338,
                0.5149590379968806,
                -3.1065933193735735
            ]
        },
        {
            "positions": [
                -2.735806011827007,
                -0.5203922522331879,
                0.49692415897024583,
                -0.1830675399461761,
                0.5969514788383791,
                -3.066151236769997
            ]
        },
        {
            "positions": [
                -2.7478605670523906,
                -0.45673958931041553,
                0.3706187934994658,
                -0.23706891950294884,
                0.6789439196798777,
                -3.0257091541664205
            ]
        },
        {
            "positions": [
                -2.7599151222777736,
                -0.39308692638764314,
                0.2443134280286857,
                -0.2910702990597216,
                0.7609363605213761,
                -2.985267071562844
            ]
        },
        {
            "positions": [
                -2.7429893843393596,
                -0.3649300061305813,
                0.14131162499244326,
                -0.34918346379271464,
                0.832751619326535,
                -2.895119631833249
            ]
        },
        {
            "positions": [
                -2.726063646400946,
                -0.3367730858735194,
                0.03830982195620086,
                -0.4072966285257077,
                0.9045668781316938,
                -2.8049721921036537
            ]
        },
        {
            "positions": [
                -2.709137908462532,
                -0.30861616561645755,
                -0.06469198108004155,
                -0.4654097932587008,
                0.9763821369368526,
                -2.7148247523740587
            ]
        },
        {
            "positions": [
                -2.6557578049752646,
                -0.310933842865327,
                -0.15323777619134418,
                -0.5058328484850954,
                1.0406070058455925,
                -2.569668923268144
            ]
        },
        {
            "positions": [
                -2.6023777014879976,
                -0.3132515201141964,
                -0.24178357130264683,
                -0.54625590371149,
                1.1048318747543322,
                -2.4245130941622293
            ]
        },
        {
            "positions": [
                -2.5489975980007307,
                -0.31556919736306577,
                -0.33032936641394944,
                -0.5866789589378847,
                1.1690567436630719,
                -2.2793572650563143
            ]
        },
        {
            "positions": [
                -2.4956174945134633,
                -0.3178868746119352,
                -0.41887516152525206,
                -0.6271020141642792,
                1.2332816125718118,
                -2.1342014359503994
            ]
        },
        {
            "positions": [
                -2.404247697273394,
                -0.36734410663279715,
                -0.4789202227152337,
                -0.5544123959159647,
                1.203956631523003,
                -2.046170644480521
            ]
        },
        {
            "positions": [
                -2.3128779000333246,
                -0.4168013386536591,
                -0.5389652839052154,
                -0.48172277766765026,
                1.174631650474194,
                -1.9581398530106424
            ]
        },
        {
            "positions": [
                -2.2215081027932553,
                -0.46625857067452103,
                -0.5990103450951971,
                -0.4090331594193357,
                1.1453066694253853,
                -1.8701090615407638
            ]
        },
        {
            "positions": [
                -2.130138305553186,
                -0.515715802695383,
                -0.6590554062851788,
                -0.3363435411710212,
                1.1159816883765763,
                -1.7820782700708853
            ]
        },
        {
            "positions": [
                -2.038768508313117,
                -0.5651730347162449,
                -0.7191004674751604,
                -0.26365392292270673,
                1.0866567073277675,
                -1.6940474786010067
            ]
        },
        {
            "positions": [
                -1.9473987110730475,
                -0.6146302667371069,
                -0.7791455286651421,
                -0.19096430467439224,
                1.0573317262789586,
                -1.6060166871311283
            ]
        },
        {
            "positions": [
                -1.8560289138329784,
                -0.6640874987579688,
                -0.8391905898551237,
                -0.11827468642607775,
                1.0280067452301498,
                -1.51798589566125
            ]
        },
        {
            "positions": [
                -1.764659116592909,
                -0.7135447307788307,
                -0.8992356510451054,
                -0.0455850681777632,
                0.9986817641813408,
                -1.4299551041913712
            ]
        },
        {
            "positions": [
                -1.6732893193528398,
                -0.7630019627996927,
                -0.959280712235087,
                0.027104550070551237,
                0.969356783132532,
                -1.3419243127214928
            ]
        },
        {
            "positions": [
                -1.5819195221127704,
                -0.8124591948205546,
                -1.0193257734250687,
                0.09979416831886578,
                0.9400318020837231,
                -1.2538935212516142
            ]
        },
        {
            "positions": [
                -1.4905497248727013,
                -0.8619164268414166,
                -1.0793708346150503,
                0.17248378656718022,
                0.9107068210349143,
                -1.1658627297817357
            ]
        },
        {
            "positions": [
                -1.3991799276326318,
                -0.9113736588622785,
                -1.139415895805032,
                0.24517340481549477,
                0.8813818399861053,
                -1.077831938311857
            ]
        },
        {
            "positions": [
                -1.3078101303925627,
                -0.9608308908831404,
                -1.1994609569950136,
                0.3178630230638092,
                0.8520568589372965,
                -0.9898011468419787
            ]
        },
        {
            "positions": [
                -1.2164403331524936,
                -1.0102881229040024,
                -1.2595060181849953,
                0.39055264131212375,
                0.8227318778884878,
                -0.9017703553721004
            ]
        },
        {
            "positions": [
                -1.1250705359124242,
                -1.059745354924864,
                -1.319551079374977,
                0.4632422595604381,
                0.7934068968396788,
                -0.8137395639022218
            ]
        },
        {
            "positions": [
                -1.0337007386723547,
                -1.1092025869457263,
                -1.3795961405649588,
                0.5359318778087528,
                0.7640819157908699,
                -0.7257087724323432
            ]
        },
        {
            "positions": [
                -0.9423309414322856,
                -1.1586598189665882,
                -1.4396412017549403,
                0.6086214960570672,
                0.734756934742061,
                -0.6376779809624646
            ]
        },
        {
            "positions": [
                -0.8509611441922162,
                -1.2081170509874501,
                -1.499686262944922,
                0.6813111143053817,
                0.7054319536932523,
                -0.5496471894925863
            ]
        },
        {
            "positions": [
                -0.7595913469521471,
                -1.257574283008312,
                -1.5597313241349036,
                0.754000732553696,
                0.6761069726444434,
                -0.4616163980227077
            ]
        },
        {
            "positions": [
                -0.6682215497120776,
                -1.307031515029174,
                -1.6197763853248857,
                0.8266903508020108,
                0.6467819915956344,
                -0.37358560655282913
            ]
        },
        {
            "positions": [
                -0.5768517524720085,
                -1.356488747050036,
                -1.6798214465148673,
                0.8993799690503251,
                0.6174570105468256,
                -0.28555481508295055
            ]
        },
        {
            "positions": [
                -0.4854819552319394,
                -1.405945979070898,
                -1.739866507704849,
                0.9720695872986397,
                0.5881320294980168,
                -0.1975240236130722
            ]
        },
        {
            "positions": [
                -0.39411215799187005,
                -1.4554032110917599,
                -1.7999115688948306,
                1.0447592055469541,
                0.5588070484492079,
                -0.10949323214319362
            ]
        },
        {
            "positions": [
                -0.3027423607518003,
                -1.5048604431126218,
                -1.8599566300848123,
                1.1174488237952689,
                0.5294820674003989,
                -0.02146244067331482
            ]
        },
        {
            "positions": [
                -0.2113725635117314,
                -1.5543176751334837,
                -1.920001691274794,
                1.1901384420435832,
                0.5001570863515902,
                0.06656835079656354
            ]
        },
        {
            "positions": [
                -0.12000276627166202,
                -1.6037749071543457,
                -1.9800467524647756,
                1.2628280602918975,
                0.4708321053027813,
                0.1545991422664419
            ]
        },
        {
            "positions": [
                -0.08012228522937971,
                -1.7272734791937248,
                -2.0603327153635322,
                1.321522778283109,
                0.42461786360487047,
                0.14211587671326684
            ]
        },
        {
            "positions": [
                -0.0402418041870974,
                -1.850772051233104,
                -2.1406186782622894,
                1.3802174962743203,
                0.37840362190695964,
                0.12963261116009178
            ]
        },
        {
            "positions": [
                -0.0003613231448150872,
                -1.9742706232724831,
                -2.220904641161046,
                1.4389122142655317,
                0.3321893802090488,
                0.11714934560691675
            ]
        },
        {
            "positions": [
                0.039519157897467225,
                -2.0977691953118622,
                -2.301190604059803,
                1.4976069322567431,
                0.285975138511138,
                0.1046660800537417
            ]
        },
        {
            "positions": [
                0.07939963893974955,
                -2.2212677673512413,
                -2.38147656695856,
                1.5563016502479545,
                0.23976089681322715,
                0.09218281450056665
            ]
        },
        {
            "positions": [
                -0.05255751752110119,
                -2.250348551787416,
                -2.3809690759159214,
                1.5242916391927368,
                0.20463370296742223,
                0.06390003026529123
            ]
        },
        {
            "positions": [
                -0.18451467398195193,
                -2.2794293362235907,
                -2.380461584873283,
                1.4922816281375193,
                0.1695065091216173,
                0.03561724603001581
            ]
        }
    ]
}