{
    "goal": {
        "global_pose": {
            "orientation": {
                "w": 0.7047431468963623,
                "x": -0.7094548344612122,
                "y": 0.0024358443915843964,
                "z": -0.0022348060738295317
            },
            "position": {
                "x": 0.6094750761985779,
                "y": 0.3671506643295288,
                "z": 0.19426114857196808
            }
        },
        "name": "move_to_magneteinheit_A"
    },
    "id": "SPARS_move_to_magneteinheit_A_22",
    "joint_names": [
        "shoulder_pan_joint",
        "shoulder_lift_joint",
        "elbow_joint",
        "wrist_1_joint",
        "wrist_2_joint",
        "wrist_3_joint"
    ],
    "metrics": {
        "cart_traj_len": 3.6027547487200993,
        "distance_elbow_joint": 4.014622486846675,
        "distance_shoulder_lift_joint": 0.11886778447609281,
        "distance_shoulder_pan_joint": 3.0326067859044663,
        "distance_wrist_1_joint": 1.003743980767073,
        "distance_wrist_2_joint": 2.4490413963350104,
        "distance_wrist_3_joint": 3.5601049062063796,
        "smoothness": 0.4017620851241932,
        "time": 5.032735391999999,
        "traj_len": 3.7654996136682453,
        "weighted_distance": 4.975136433310201
    },
    "planner": "SPARS",
    "start": {
        "state": {
            "elbow_joint": -1.9196185241190666,
            "shoulder_lift_joint": -1.2443396400964142,
            "shoulder_pan_joint": 2.6996025414629847,
            "wrist_1_joint": -1.5485510000780065,
            "wrist_2_joint": -1.5709468930060704,
            "wrist_3_joint": 0.4420197071253992
        }
    },
    "waypoints": [
        {
            "positions": [
                2.6996025414629847,
                -1.2443396400964142,
                -1.9196185241190666,
                -1.5485510000780065,
                -1.5709468930060704,
                0.4420197071253992
            ]
        },
        {
            "positions": [
                2.613464745588986,
                -1.2448234750726035,
                -1.8212297348682334,
                -1.5199138014295082,
                -1.4878132138433333,
                0.3429514262207727
            ]
        },
        {
            "positions": [
                2.527326949714987,
                -1.2453073100487928,
                -1.7228409456173999,
                -1.49127660278101,
                -1.4046795346805965,
                0.24388314531614624
            ]
        },
        {
            "positions": [
                2.4411891538409884,
                -1.2457911450249823,
                -1.6244521563665666,
                -1.4626394041325117,
                -1.3215458555178594,
                0.1448148644115198
            ]
        },
        {
            "positions": [
                2.3550513579669894,
                -1.2462749800011717,
                -1.526063367115733,
                -1.4340022054840136,
                -1.2384121763551224,
                0.04574658350689331
            ]
        },
        {
            "positions": [
                2.2689135620929908,
                -1.246758814977361,
                -1.4276745778648998,
                -1.4053650068355152,
                -1.1552784971923853,
                -0.05332169739773318
            ]
        },
        {
            "positions": [
                2.1827757662189917,
                -1.2472426499535503,
                -1.3292857886140665,
                -1.3767278081870171,
                -1.0721448180296484,
                -0.15238997830235956
            ]
        },
        {
            "positions": [
                2.096637970344993,
                -1.2477264849297396,
                -1.230896999363233,
                -1.3480906095385188,
                -0.9890111388669113,
                -0.25145825920698617
            ]
        },
        {
            "positions": [
                2.0105001744709945,
                -1.2482103199059291,
                -1.1325082101123998,
                -1.3194534108900207,
                -0.9058774597041743,
                -0.35052654011161255
            ]
        },
        {
            "positions": [
                1.9243623785969954,
                -1.2486941548821184,
                -1.0341194208615665,
                -1.2908162122415223,
                -0.8227437805414374,
                -0.44959482101623893
            ]
        },
        {
            "positions": [
                1.8382245827229966,
                -1.2491779898583077,
                -0.935730631610733,
                -1.2621790135930242,
                -0.7396101013787003,
                -0.5486631019208655
            ]
        },
        {
            "positions": [
                1.7520867868489978,
                -1.249661824834497,
                -0.8373418423598997,
                -1.2335418149445259,
                -0.6564764222159634,
                -0.6477313828254919
            ]
        },
        {
            "positions": [
                1.6659489909749992,
                -1.2501456598106864,
                -0.7389530531090664,
                -1.2049046162960275,
                -0.5733427430532264,
                -0.7467996637301183
            ]
        },
        {
            "positions": [
                1.579811195101,
                -1.250629494786876,
                -0.640564263858233,
                -1.1762674176475294,
                -0.49020906389048924,
                -0.8458679446347449
            ]
        },
        {
            "positions": [
                1.4936733992270013,
                -1.2511133297630652,
                -0.5421754746073995,
                -1.147630218999031,
                -0.4070753847277522,
                -0.9449362255393715
            ]
        },
        {
            "positions": [
                1.4075356033530027,
                -1.2515971647392545,
                -0.4437866853565664,
                -1.118993020350533,
                -0.32394170556501534,
                -1.0440045064439976
            ]
        },
        {
            "positions": [
                1.3213978074790038,
                -1.2520809997154438,
                -0.3453978961057329,
                -1.0903558217020346,
                -0.24080802640227827,
                -1.1430727873486242
            ]
        },
        {
            "positions": [
                1.235260011605005,
                -1.2525648346916332,
                -0.2470091068548994,
                -1.0617186230535365,
                -0.1576743472395412,
                -1.2421410682532508
            ]
        },
        {
            "positions": [
                1.1491222157310061,
                -1.2530486696678227,
                -0.14862031760406635,
                -1.0330814244050384,
                -0.07454066807680437,
                -1.341209349157877
            ]
        },
        {
            "positions": [
                1.0629844198570073,
                -1.253532504644012,
                -0.05023152835323286,
                -1.00444422575654,
                0.00859301108593269,
                -1.4402776300625035
            ]
        },
        {
            "positions": [
                0.9768466239830085,
                -1.2540163396202013,
                0.04815726089760064,
                -0.9758070271080417,
                0.09172669024866975,
                -1.5393459109671301
            ]
        },
        {
            "positions": [
                0.8907088281090099,
                -1.2545001745963906,
                0.1465460501484337,
                -0.9471698284595436,
                0.1748603694114066,
                -1.6384141918717563
            ]
        },
        {
            "positions": [
                0.804571032235011,
                -1.25498400957258,
                0.2449348393992672,
                -0.9185326298110452,
                0.25799404857414365,
                -1.737482472776383
            ]
        },
        {
            "positions": [
                0.718433236361012,
                -1.2554678445487695,
                0.3433236286501007,
                -0.889895431162547,
                0.3411277277368807,
                -1.8365507536810095
            ]
        },
        {
            "positions": [
                0.6322954404870136,
                -1.2559516795249588,
                0.44171241790093374,
                -0.8612582325140488,
                0.42426140689961755,
                -1.9356190345856357
            ]
        },
        {
            "positions": [
                0.5461576446130144,
                -1.256435514501148,
                0.5401012071517673,
                -0.8326210338655505,
                0.5073950860623546,
                -2.0346873154902623
            ]
        },
        {
            "positions": [
                0.4809932547354749,
                -1.2539898626973438,
                0.6903617583836875,
                -0.8481088807934579,
                0.47561023928170215,
                -2.1398685614430537
            ]
        },
        {
            "positions": [
                0.41582886485793535,
                -1.2515442108935395,
                0.8406223096156077,
                -0.8635967277213652,
                0.4438253925010497,
                -2.2450498073958456
            ]
        },
        {
            "positions": [
                0.3506644749803959,
                -1.2490985590897352,
                0.9908828608475279,
                -0.8790845746492726,
                0.4120405457203973,
                -2.350231053348637
            ]
        },
        {
            "positions": [
                0.28550008510285635,
                -1.246652907285931,
                1.141143412079448,
                -0.89457242157718,
                0.3802556989397448,
                -2.4554122993014285
            ]
        },
        {
            "positions": [
                0.22033569522531687,
                -1.2442072554821266,
                1.2914039633113683,
                -0.9100602685050874,
                0.34847085215909235,
                -2.5605935452542203
            ]
        },
        {
            "positions": [
                0.1551713053477774,
                -1.2417616036783223,
                1.4416645145432883,
                -0.9255481154329946,
                0.31668600537843994,
                -2.6657747912070118
            ]
        },
        {
            "positions": [
                0.09000691547023787,
                -1.239315951874518,
                1.5919250657752086,
                -0.941035962360902,
                0.28490115859778753,
                -2.770956037159803
            ]
        },
        {
            "positions": [
                0.024842525592698284,
                -1.2368703000707137,
                1.7421856170071286,
                -0.9565238092888094,
                0.253116311817135,
                -2.8761372831125946
            ]
        },
        {
            "positions": [
                -0.04032186428484119,
                -1.2344246482669095,
                1.892446168239049,
                -0.9720116562167167,
                0.2213314650364826,
                -2.9813185290653865
            ]
        },
        {
            "positions": [
                -0.10548625416238071,
                -1.2319789964631052,
                2.042706719470969,
                -0.9874995031446241,
                0.18954661825583013,
                -3.086499775018178
            ]
        },
        {
            "positions": [
                0.00827274097717036,
                -1.1908213004464472,
                2.0165580978426485,
                -0.9210317305068524,
                0.16312114352579896,
                -3.102292487049579
            ]
        },
        {
            "positions": [
                0.12203173611672143,
                -1.1496636044297892,
                1.9904094762143285,
                -0.8545639578690807,
                0.13669566879576778,
                -3.1180851990809804
            ]
        }
    ]
}