{
    "goal": {
        "global_pose": {
            "orientation": {
                "w": 0.7031023480610252,
                "x": -0.7110244013736278,
                "y": 0.0077485991402295624,
                "z": 0.005598929693374583
            },
            "position": {
                "x": -0.8841497679147869,
                "y": 0.44412534475326537,
                "z": 0.3711530566215515
            }
        },
        "name": "move_to_auspresseinheit_D"
    },
    "id": "SPARS_move_to_auspresseinheit_D_24",
    "joint_names": [
        "shoulder_pan_joint",
        "shoulder_lift_joint",
        "elbow_joint",
        "wrist_1_joint",
        "wrist_2_joint",
        "wrist_3_joint"
    ],
    "metrics": {
        "cart_traj_len": 0.3437464542624733,
        "distance_elbow_joint": 0.6623818094376026,
        "distance_shoulder_lift_joint": 0.13493738670971522,
        "distance_shoulder_pan_joint": 0.13345109298920338,
        "distance_wrist_1_joint": 0.6132143648498336,
        "distance_wrist_2_joint": 1.4297516609053142,
        "distance_wrist_3_joint": 0.07329682478172783,
        "smoothness": 0.0,
        "time": 5.027562752,
        "traj_len": 1.7455753033522778,
        "weighted_distance": 2.2883602895942765
    },
    "planner": "SPARS",
    "start": {
        "state": {
            "elbow_joint": -1.8275523626775212,
            "shoulder_lift_joint": -2.126789852344167,
            "shoulder_pan_joint": -0.03513704404078235,
            "wrist_1_joint": -2.347782403156801,
            "wrist_2_joint": -1.6058999987535132,
            "wrist_3_joint": -3.0880379163319196
        }
    },
    "waypoints": [
        {
            "positions": [
                -0.03513704404078235,
                -2.126789852344167,
                -1.8275523626775212,
                -2.347782403156801,
                -1.6058999987535132,
                -3.0880379163319196
            ]
        },
        {
            "positions": [
                -0.05181843066443277,
                -2.1436570256828813,
                -1.7447546364978208,
                -2.4244341987630302,
                -1.427181041140349,
                -3.0788758132342036
            ]
        },
        {
            "positions": [
                -0.06849981728808319,
                -2.1605241990215958,
                -1.6619569103181204,
                -2.501085994369259,
                -1.2484620835271847,
                -3.0697137101364875
            ]
        },
        {
            "positions": [
                -0.08518120391173362,
                -2.17739137236031,
                -1.5791591841384203,
                -2.5777377899754885,
                -1.0697431259140204,
                -3.0605516070387715
            ]
        },
        {
            "positions": [
                -0.10186259053538405,
                -2.1942585456990242,
                -1.4963614579587199,
                -2.6543895855817174,
                -0.8910241683008561,
                -3.0513895039410555
            ]
        },
        {
            "positions": [
                -0.11854397715903447,
                -2.2111257190377387,
                -1.4135637317790195,
                -2.731041381187947,
                -0.7123052106876918,
                -3.04222740084334
            ]
        },
        {
            "positions": [
                -0.13522536378268488,
                -2.227992892376453,
                -1.3307660055993193,
                -2.807693176794176,
                -0.5335862530745275,
                -3.033065297745624
            ]
        },
        {
            "positions": [
                -0.1519067504063353,
                -2.2448600657151676,
                -1.247968279419619,
                -2.884344972400405,
                -0.3548672954613632,
                -3.023903194647908
            ]
        },
        {
            "positions": [
                -0.16858813702998574,
                -2.261727239053882,
                -1.1651705532399186,
                -2.9609967680066345,
                -0.17614833784819894,
                -3.0147410915501918
            ]
        }
    ]
}