{
    "goal": {
        "global_pose": {
            "orientation": {
                "w": -0.00223480608172531,
                "x": 0.0024358444001904467,
                "y": 0.7094548369677653,
                "z": -0.704743149386269
            },
            "position": {
                "x": -0.37947507619857795,
                "y": -0.6371506643295288,
                "z": 0.19426114857196808
            }
        },
        "name": "move_to_magneteinheit_C"
    },
    "id": "SPARS_move_to_magneteinheit_C_144",
    "joint_names": [
        "shoulder_pan_joint",
        "shoulder_lift_joint",
        "elbow_joint",
        "wrist_1_joint",
        "wrist_2_joint",
        "wrist_3_joint"
    ],
    "metrics": {
        "cart_traj_len": 1.84148738051651,
        "distance_elbow_joint": 1.1823111081638493,
        "distance_shoulder_lift_joint": 0.7697791256208684,
        "distance_shoulder_pan_joint": 1.5754398746896727,
        "distance_wrist_1_joint": 0.956608428015904,
        "distance_wrist_2_joint": 2.2729119644106617,
        "distance_wrist_3_joint": 1.9606933444591768,
        "smoothness": 0.8834988849461604,
        "time": 5.062630411,
        "traj_len": 2.952582572149361,
        "weighted_distance": 3.9835475303685093
    },
    "planner": "SPARS",
    "start": {
        "state": {
            "elbow_joint": 1.9565354010623817,
            "shoulder_lift_joint": -1.4165861575791021,
            "shoulder_pan_joint": -1.6717766225146293,
            "wrist_1_joint": -0.5286633292919765,
            "wrist_2_joint": 1.472756589071564,
            "wrist_3_joint": -3.1238370188695823
        }
    },
    "waypoints": [
        {
            "positions": [
                -1.6717766225146293,
                -1.4165861575791021,
                1.9565354010623817,
                -0.5286633292919765,
                1.472756589071564,
                -3.1238370188695823
            ]
        },
        {
            "positions": [
                -1.6728882501021614,
                -1.4436042479599627,
                1.9438351430771743,
                -0.4869750508495083,
                1.2898420331415184,
                -3.003172229919682
            ]
        },
        {
            "positions": [
                -1.6739998776896932,
                -1.4706223383408235,
                1.931134885091967,
                -0.44528677240704023,
                1.1069274772114728,
                -2.882507440969782
            ]
        },
        {
            "positions": [
                -1.6751115052772252,
                -1.497640428721684,
                1.9184346271067598,
                -0.4035984939645721,
                0.924012921281427,
                -2.7618426520198818
            ]
        },
        {
            "positions": [
                -1.6762231328647572,
                -1.5246585191025446,
                1.9057343691215525,
                -0.361910215522104,
                0.7410983653513814,
                -2.6411778630699816
            ]
        },
        {
            "positions": [
                -1.677334760452289,
                -1.5516766094834054,
                1.8930341111363451,
                -0.32022193707963587,
                0.5581838094213358,
                -2.520513074120082
            ]
        },
        {
            "positions": [
                -1.678446388039821,
                -1.578694699864266,
                1.880333853151138,
                -0.2785336586371677,
                0.37526925349129003,
                -2.3998482851701817
            ]
        },
        {
            "positions": [
                -1.6795580156273529,
                -1.6057127902451267,
                1.8676335951659306,
                -0.23684538019469964,
                0.19235469756124446,
                -2.2791834962202815
            ]
        },
        {
            "positions": [
                -1.6806696432148849,
                -1.6327308806259873,
                1.8549333371807233,
                -0.1951571017522315,
                0.0094401416311988,
                -2.1585187072703813
            ]
        },
        {
            "positions": [
                -1.8771785031189956,
                -1.6135314729694774,
                1.777450427262144,
                -0.23812228684759498,
                -0.0024254809347869725,
                -2.1888660354615106
            ]
        },
        {
            "positions": [
                -2.0736873630231063,
                -1.5943320653129673,
                1.6999675173435649,
                -0.28108747194295847,
                -0.014291103500772746,
                -2.21921336365264
            ]
        },
        {
            "positions": [
                -2.270196222927217,
                -1.5751326576564575,
                1.6224846074249855,
                -0.324052657038322,
                -0.02615672606675852,
                -2.2495606918437687
            ]
        },
        {
            "positions": [
                -2.4667050828313277,
                -1.5559332499999476,
                1.5450016975064065,
                -0.36701784213368543,
                -0.03802234863274429,
                -2.279908020034898
            ]
        },
        {
            "positions": [
                -2.6632139427354384,
                -1.5367338423434376,
                1.467518787587827,
                -0.4099830272290489,
                -0.04988797119873007,
                -2.3102553482260273
            ]
        },
        {
            "positions": [
                -2.859722802639549,
                -1.5175344346869277,
                1.3900358776692479,
                -0.4529482123244124,
                -0.06175359376471584,
                -2.3406026764171566
            ]
        },
        {
            "positions": [
                -2.798907185263368,
                -1.4381025562363066,
                1.5006924799438401,
                -0.46236053312772624,
                -0.0012899926913028173,
                -2.407138302425531
            ]
        },
        {
            "positions": [
                -2.7380915678871864,
                -1.3586706777856856,
                1.6113490822184326,
                -0.47177285393104007,
                0.05917360838211021,
                -2.473673928433905
            ]
        },
        {
            "positions": [
                -2.6772759505110053,
                -1.2792387993350645,
                1.722005684493025,
                -0.48118517473435385,
                0.11963720945552322,
                -2.5402095544422796
            ]
        },
        {
            "positions": [
                -2.6164603331348237,
                -1.1998069208844435,
                1.8326622867676174,
                -0.4905974955376677,
                0.18010081052893626,
                -2.6067451804506536
            ]
        },
        {
            "positions": [
                -2.5556447157586426,
                -1.1203750424338224,
                1.9433188890422097,
                -0.5000098163409815,
                0.24056441160234923,
                -2.673280806459028
            ]
        },
        {
            "positions": [
                -2.5397529920082578,
                -1.1275430261574138,
                1.9579959641418405,
                -0.5728441591909091,
                0.343023235329723,
                -2.785900302569598
            ]
        },
        {
            "positions": [
                -2.5238612682578734,
                -1.1347110098810054,
                1.972673039241471,
                -0.6456785020408367,
                0.44548205905709676,
                -2.898519798680168
            ]
        },
        {
            "positions": [
                -2.5079695445074885,
                -1.1418789936045968,
                1.9873501143411019,
                -0.7185128448907643,
                0.5479408827844705,
                -3.011139294790738
            ]
        },
        {
            "positions": [
                -2.4900993262911424,
                -1.1517663002101188,
                1.9965987883905325,
                -0.7683860735595773,
                0.6122945352970689,
                -3.0825165174605473
            ]
        },
        {
            "positions": [
                -2.4722291080747962,
                -1.1616536068156407,
                2.0058474624399634,
                -0.8182593022283905,
                0.6766481878096673,
                -3.153893740130357
            ]
        }
    ]
}