{
    "goal": {
        "global_pose": {
            "orientation": {
                "w": 0.7047431468963623,
                "x": -0.7094548344612122,
                "y": 0.0024358443915843964,
                "z": -0.0022348060738295317
            },
            "position": {
                "x": 0.6094750761985779,
                "y": 0.3671506643295288,
                "z": 0.19426114857196808
            }
        },
        "name": "move_to_magneteinheit_A"
    },
    "id": "SPARS_move_to_magneteinheit_A_78",
    "joint_names": [
        "shoulder_pan_joint",
        "shoulder_lift_joint",
        "elbow_joint",
        "wrist_1_joint",
        "wrist_2_joint",
        "wrist_3_joint"
    ],
    "metrics": {
        "cart_traj_len": 3.446621208030064,
        "distance_elbow_joint": 3.8799168033567937,
        "distance_shoulder_lift_joint": 0.7135368659281789,
        "distance_shoulder_pan_joint": 3.324285662515162,
        "distance_wrist_1_joint": 1.9896071263727952,
        "distance_wrist_2_joint": 2.5114310035200362,
        "distance_wrist_3_joint": 2.876919321174225,
        "smoothness": 0.3544554133954704,
        "time": 5.014675872000001,
        "traj_len": 3.9109713349585156,
        "weighted_distance": 5.054757516944654
    },
    "planner": "SPARS",
    "start": {
        "state": {
            "elbow_joint": -1.9196185241190666,
            "shoulder_lift_joint": -1.2443396400964142,
            "shoulder_pan_joint": 2.6996025414629847,
            "wrist_1_joint": -1.5485510000780065,
            "wrist_2_joint": -1.5709468930060704,
            "wrist_3_joint": 0.4420197071253992
        }
    },
    "waypoints": [
        {
            "positions": [
                2.6996025414629847,
                -1.2443396400964142,
                -1.9196185241190666,
                -1.5485510000780065,
                -1.5709468930060704,
                0.4420197071253992
            ]
        },
        {
            "positions": [
                2.6044287246865685,
                -1.2540805264260542,
                -1.836645161306615,
                -1.5031384318462306,
                -1.502886537818513,
                0.5303403953853084
            ]
        },
        {
            "positions": [
                2.5092549079101523,
                -1.2638214127556942,
                -1.7536717984941637,
                -1.457725863614455,
                -1.4348261826309558,
                0.6186610836452177
            ]
        },
        {
            "positions": [
                2.414081091133736,
                -1.2735622990853341,
                -1.670698435681712,
                -1.4123132953826791,
                -1.3667658274433985,
                0.7069817719051268
            ]
        },
        {
            "positions": [
                2.31890727435732,
                -1.2833031854149741,
                -1.5877250728692607,
                -1.3669007271509035,
                -1.298705472255841,
                0.795302460165036
            ]
        },
        {
            "positions": [
                2.2237334575809036,
                -1.293044071744614,
                -1.504751710056809,
                -1.3214881589191276,
                -1.230645117068284,
                0.8836231484249453
            ]
        },
        {
            "positions": [
                2.1285596408044873,
                -1.302784958074254,
                -1.4217783472443577,
                -1.276075590687352,
                -1.1625847618807266,
                0.9719438366848545
            ]
        },
        {
            "positions": [
                2.033385824028071,
                -1.312525844403894,
                -1.338804984431906,
                -1.2306630224555761,
                -1.0945244066931692,
                1.0602645249447638
            ]
        },
        {
            "positions": [
                1.9382120072516549,
                -1.322266730733534,
                -1.2558316216194547,
                -1.1852504542238003,
                -1.026464051505612,
                1.148585213204673
            ]
        },
        {
            "positions": [
                1.8430381904752384,
                -1.332007617063174,
                -1.1728582588070031,
                -1.1398378859920246,
                -0.9584036963180546,
                1.2369059014645822
            ]
        },
        {
            "positions": [
                1.7478643736988224,
                -1.341748503392814,
                -1.0898848959945515,
                -1.0944253177602488,
                -0.8903433411304973,
                1.3252265897244915
            ]
        },
        {
            "positions": [
                1.652690556922406,
                -1.351489389722454,
                -1.0069115331821001,
                -1.049012749528473,
                -0.8222829859429399,
                1.4135472779844007
            ]
        },
        {
            "positions": [
                1.5575167401459897,
                -1.361230276052094,
                -0.9239381703696486,
                -1.0036001812966973,
                -0.7542226307553827,
                1.5018679662443097
            ]
        },
        {
            "positions": [
                1.4623429233695735,
                -1.3709711623817342,
                -0.8409648075571972,
                -0.9581876130649215,
                -0.6861622755678253,
                1.5901886545042192
            ]
        },
        {
            "positions": [
                1.3671691065931573,
                -1.380712048711374,
                -0.7579914447447456,
                -0.9127750448331458,
                -0.618101920380268,
                1.6785093427641282
            ]
        },
        {
            "positions": [
                1.271995289816741,
                -1.3904529350410142,
                -0.6750180819322942,
                -0.8673624766013699,
                -0.5500415651927106,
                1.7668300310240377
            ]
        },
        {
            "positions": [
                1.1768214730403248,
                -1.400193821370654,
                -0.5920447191198426,
                -0.8219499083695943,
                -0.4819812100051535,
                1.8551507192839467
            ]
        },
        {
            "positions": [
                1.0816476562639086,
                -1.4099347077002942,
                -0.5090713563073912,
                -0.7765373401378185,
                -0.4139208548175961,
                1.9434714075438562
            ]
        },
        {
            "positions": [
                0.9864738394874921,
                -1.4196755940299342,
                -0.4260979934949396,
                -0.7311247719060426,
                -0.34586049963003873,
                2.0317920958037656
            ]
        },
        {
            "positions": [
                0.8913000227110761,
                -1.4294164803595741,
                -0.343124630682488,
                -0.6857122036742669,
                -0.27780014444248136,
                2.1201127840636746
            ]
        },
        {
            "positions": [
                0.7961262059346599,
                -1.4391573666892141,
                -0.2601512678700366,
                -0.6402996354424911,
                -0.2097397892549242,
                2.2084334723235837
            ]
        },
        {
            "positions": [
                0.7009523891582436,
                -1.448898253018854,
                -0.17717790505758524,
                -0.5948870672107154,
                -0.14167943406736705,
                2.296754160583493
            ]
        },
        {
            "positions": [
                0.6057785723818272,
                -1.458639139348494,
                -0.09420454224513364,
                -0.5494744989789395,
                -0.07361907887980945,
                2.3850748488434026
            ]
        },
        {
            "positions": [
                0.510604755605411,
                -1.468380025678134,
                -0.011231179432682037,
                -0.5040619307471639,
                -0.005558723692252299,
                2.4733955371033116
            ]
        },
        {
            "positions": [
                0.41543093882899473,
                -1.478120912007774,
                0.07174218337976934,
                -0.458649362515388,
                0.06250163149530508,
                2.5617162253632206
            ]
        },
        {
            "positions": [
                0.32025712205257895,
                -1.487861798337414,
                0.15471554619222072,
                -0.4132367942836124,
                0.13056198668286223,
                2.65003691362313
            ]
        },
        {
            "positions": [
                0.22508330527616227,
                -1.497602684667054,
                0.23768890900467232,
                -0.3678242260518365,
                0.19862234187041983,
                2.7383576018830396
            ]
        },
        {
            "positions": [
                0.12990948849974604,
                -1.507343570996694,
                0.3206622718171239,
                -0.32241165782006065,
                0.266682697057977,
                2.8266782901429486
            ]
        },
        {
            "positions": [
                0.03473567172332981,
                -1.517084457326334,
                0.4036356346295755,
                -0.276999089588285,
                0.33474305224553436,
                2.9149989784028576
            ]
        },
        {
            "positions": [
                -0.06043814505308642,
                -1.526825343655974,
                0.4866089974420267,
                -0.23158652135650937,
                0.4028034074330915,
                3.003319666662767
            ]
        },
        {
            "positions": [
                -0.15561196182950265,
                -1.536566229985614,
                0.5695823602544783,
                -0.18617395312473328,
                0.4708637626206491,
                3.0916403549226765
            ]
        },
        {
            "positions": [
                -0.2507857786059189,
                -1.546307116315254,
                0.6525557230669301,
                -0.14076138489295775,
                0.538924117808206,
                3.1799610431825855
            ]
        },
        {
            "positions": [
                -0.20924162944522334,
                -1.5005771841253275,
                0.797860451530352,
                -0.20540777502492952,
                0.49430634084089936,
                3.164519044836248
            ]
        },
        {
            "positions": [
                -0.1676974802845278,
                -1.4548472519354008,
                0.9431651799937738,
                -0.2700541651569013,
                0.4496885638735927,
                3.1490770464899103
            ]
        },
        {
            "positions": [
                -0.12615333112383229,
                -1.4091173197454743,
                1.0884699084571956,
                -0.33470055528887305,
                0.40507078690628606,
                3.1336350481435726
            ]
        },
        {
            "positions": [
                -0.08460918196313674,
                -1.3633873875555478,
                1.2337746369206175,
                -0.3993469454208448,
                0.36045300993897933,
                3.118193049797235
            ]
        },
        {
            "positions": [
                -0.0430650328024412,
                -1.317657455365621,
                1.3790793653840394,
                -0.46399333555281663,
                0.3158352329716727,
                3.1027510514508974
            ]
        },
        {
            "positions": [
                -0.001520883641745685,
                -1.2719275231756946,
                1.5243840938474613,
                -0.5286397256847883,
                0.27121745600436603,
                3.0873090531045597
            ]
        },
        {
            "positions": [
                0.04002326551894986,
                -1.226197590985768,
                1.6696888223108832,
                -0.5932861158167602,
                0.22659967903705935,
                3.071867054758222
            ]
        },
        {
            "positions": [
                0.0815674146796454,
                -1.1804676587958416,
                1.814993550774305,
                -0.6579325059487319,
                0.18198190206975268,
                3.0564250564118844
            ]
        },
        {
            "positions": [
                0.12311156384034094,
                -1.1347377266059149,
                1.9602982792377268,
                -0.7225788960807037,
                0.13736412510244597,
                3.040983058065547
            ]
        }
    ]
}