{
    "goal": {
        "global_pose": {
            "orientation": {
                "w": 0.005598929693374612,
                "x": 0.007748599140229565,
                "y": 0.7110244013736278,
                "z": -0.7031023480610252
            },
            "position": {
                "x": 0.1141497679147869,
                "y": -0.7141253447532654,
                "z": 0.3711530566215515
            }
        },
        "name": "move_to_auspresseinheit_B"
    },
    "id": "SPARS_move_to_auspresseinheit_B_34",
    "joint_names": [
        "shoulder_pan_joint",
        "shoulder_lift_joint",
        "elbow_joint",
        "wrist_1_joint",
        "wrist_2_joint",
        "wrist_3_joint"
    ],
    "metrics": {
        "cart_traj_len": 0.5646155451890422,
        "distance_elbow_joint": 0.06460332649567646,
        "distance_shoulder_lift_joint": 0.294013897563544,
        "distance_shoulder_pan_joint": 0.5761227345453233,
        "distance_wrist_1_joint": 0.3295967911399259,
        "distance_wrist_2_joint": 0.994145364784111,
        "distance_wrist_3_joint": 0.008507877189713131,
        "smoothness": 0.0,
        "time": 5.033663892000001,
        "traj_len": 1.505652679643713,
        "weighted_distance": 1.8994072501761587
    },
    "planner": "SPARS",
    "start": {
        "state": {
            "elbow_joint": 2.0193083361928714,
            "shoulder_lift_joint": -1.1220246554650708,
            "shoulder_pan_joint": -1.0952077554168747,
            "wrist_1_joint": -0.8559753972642168,
            "wrist_2_joint": 0.4759566250798843,
            "wrist_3_joint": -3.1240929996934557
        }
    },
    "waypoints": [
        {
            "positions": [
                -1.0952077554168747,
                -1.1220246554650708,
                2.0193083361928714,
                -0.8559753972642168,
                0.4759566250798843,
                -3.1240929996934557
            ]
        },
        {
            "positions": [
                -1.1912282111744286,
                -1.1710269717256614,
                2.008541115110259,
                -0.8010425987408958,
                0.6416475192105695,
                -3.1226750201618367
            ]
        },
        {
            "positions": [
                -1.2872486669319825,
                -1.2200292879862522,
                1.997773894027646,
                -0.7461098002175748,
                0.8073384133412547,
                -3.121257040630218
            ]
        },
        {
            "positions": [
                -1.3832691226895362,
                -1.2690316042468428,
                1.987006672945033,
                -0.6911770016942538,
                0.9730293074719398,
                -3.119839061098599
            ]
        },
        {
            "positions": [
                -1.47928957844709,
                -1.3180339205074334,
                1.9762394518624204,
                -0.6362442031709329,
                1.138720201602625,
                -3.1184210815669804
            ]
        },
        {
            "positions": [
                -1.575310034204644,
                -1.3670362367680242,
                1.9654722307798078,
                -0.5813114046476118,
                1.3044110957333102,
                -3.1170031020353615
            ]
        },
        {
            "positions": [
                -1.671330489962198,
                -1.4160385530286148,
                1.954705009697195,
                -0.5263786061242909,
                1.4701019898639953,
                -3.1155851225037425
            ]
        }
    ]
}