{
    "goal": {
        "global_pose": {
            "orientation": {
                "w": 0.005598929693374612,
                "x": 0.007748599140229565,
                "y": 0.7110244013736278,
                "z": -0.7031023480610252
            },
            "position": {
                "x": -0.8858502320852131,
                "y": -0.7141253447532654,
                "z": 0.3711530566215515
            }
        },
        "name": "move_to_auspresseinheit_C"
    },
    "id": "SPARStwo_move_to_auspresseinheit_C_109",
    "joint_names": [
        "shoulder_pan_joint",
        "shoulder_lift_joint",
        "elbow_joint",
        "wrist_1_joint",
        "wrist_2_joint",
        "wrist_3_joint"
    ],
    "metrics": {
        "cart_traj_len": 0.4923768038751322,
        "distance_elbow_joint": 0.9902498182506799,
        "distance_shoulder_lift_joint": 0.32101899621640106,
        "distance_shoulder_pan_joint": 0.2562267285152462,
        "distance_wrist_1_joint": 0.6544148825918439,
        "distance_wrist_2_joint": 1.3079715576078768,
        "distance_wrist_3_joint": 0.041500152224275055,
        "smoothness": 0.0,
        "time": 5.0074351770000005,
        "traj_len": 1.889810079189526,
        "weighted_distance": 2.3699723374028214
    },
    "planner": "SPARStwo",
    "start": {
        "state": {
            "elbow_joint": 1.7527959577737207,
            "shoulder_lift_joint": -0.9740617694225068,
            "shoulder_pan_joint": -2.967991417825858,
            "wrist_1_joint": -0.759517768980727,
            "wrist_2_joint": 1.7443932448377408,
            "wrist_3_joint": -3.0840537646736568
        }
    },
    "waypoints": [
        {
            "positions": [
                -2.967991417825858,
                -0.9740617694225068,
                1.7527959577737207,
                -0.759517768980727,
                1.7443932448377408,
                -3.0840537646736568
            ]
        },
        {
            "positions": [
                -2.9423687449743334,
                -0.9419598698008667,
                1.6537709759486527,
                -0.6940762807215426,
                1.6135960890769532,
                -3.088203779896084
            ]
        },
        {
            "positions": [
                -2.916746072122809,
                -0.9098579701792265,
                1.5547459941235846,
                -0.6286347924623582,
                1.4827989333161655,
                -3.0923537951185116
            ]
        },
        {
            "positions": [
                -2.891123399271284,
                -0.8777560705575864,
                1.4557210122985167,
                -0.5631933042031738,
                1.3520017775553779,
                -3.0965038103409395
            ]
        },
        {
            "positions": [
                -2.8655007264197594,
                -0.8456541709359463,
                1.3566960304734486,
                -0.49775181594398943,
                1.2212046217945902,
                -3.100653825563367
            ]
        },
        {
            "positions": [
                -2.839878053568235,
                -0.8135522713143062,
                1.2576710486483806,
                -0.43231032768480504,
                1.0904074660338026,
                -3.1048038407857943
            ]
        },
        {
            "positions": [
                -2.8142553807167103,
                -0.7814503716926662,
                1.1586460668233127,
                -0.36686883942562065,
                0.9596103102730148,
                -3.1089538560082217
            ]
        },
        {
            "positions": [
                -2.788632707865186,
                -0.7493484720710261,
                1.0596210849982448,
                -0.3014273511664363,
                0.8288131545122271,
                -3.113103871230649
            ]
        },
        {
            "positions": [
                -2.763010035013661,
                -0.7172465724493859,
                0.9605961031731767,
                -0.23598586290725188,
                0.6980159987514394,
                -3.117253886453077
            ]
        },
        {
            "positions": [
                -2.7373873621621363,
                -0.6851446728277458,
                0.8615711213481088,
                -0.1705443746480675,
                0.5672188429906517,
                -3.1214039016755044
            ]
        },
        {
            "positions": [
                -2.7117646893106118,
                -0.6530427732061057,
                0.7625461395230407,
                -0.10510288638888308,
                0.436421687229864,
                -3.125553916897932
            ]
        }
    ]
}