{
    "goal": {
        "global_pose": {
            "orientation": {
                "w": 0.005598929693374612,
                "x": 0.007748599140229565,
                "y": 0.7110244013736278,
                "z": -0.7031023480610252
            },
            "position": {
                "x": -0.8858502320852131,
                "y": -0.7141253447532654,
                "z": 0.3711530566215515
            }
        },
        "name": "move_to_auspresseinheit_C"
    },
    "id": "SPARStwo_move_to_auspresseinheit_C_104",
    "joint_names": [
        "shoulder_pan_joint",
        "shoulder_lift_joint",
        "elbow_joint",
        "wrist_1_joint",
        "wrist_2_joint",
        "wrist_3_joint"
    ],
    "metrics": {
        "cart_traj_len": 0.4935386988971999,
        "distance_elbow_joint": 1.006667659354739,
        "distance_shoulder_lift_joint": 0.32700070210220233,
        "distance_shoulder_pan_joint": 0.2564433754647064,
        "distance_wrist_1_joint": 0.6989861996785404,
        "distance_wrist_2_joint": 1.3036275172817429,
        "distance_wrist_3_joint": 0.06717599122716411,
        "smoothness": 3.2297397335745243e-16,
        "time": 5.028930268,
        "traj_len": 1.9130868890641364,
        "weighted_distance": 2.407668404187692
    },
    "planner": "SPARStwo",
    "start": {
        "state": {
            "elbow_joint": 1.7527959577737207,
            "shoulder_lift_joint": -0.9740617694225068,
            "shoulder_pan_joint": -2.967991417825858,
            "wrist_1_joint": -0.759517768980727,
            "wrist_2_joint": 1.7443932448377408,
            "wrist_3_joint": -3.0840537646736568
        }
    },
    "waypoints": [
        {
            "positions": [
                -2.967991417825858,
                -0.9740617694225068,
                1.7527959577737207,
                -0.759517768980727,
                1.7443932448377408,
                -3.0840537646736568
            ]
        },
        {
            "positions": [
                -2.9423470802793874,
                -0.9413616992122865,
                1.6521291918382468,
                -0.6896191490128729,
                1.6140304931095666,
                -3.090771363796373
            ]
        },
        {
            "positions": [
                -2.916702742732917,
                -0.9086616290020663,
                1.551462425902773,
                -0.619720529045019,
                1.4836677413813923,
                -3.0974889629190896
            ]
        },
        {
            "positions": [
                -2.891058405186446,
                -0.8759615587918461,
                1.4507956599672989,
                -0.5498219090771649,
                1.353304989653218,
                -3.104206562041806
            ]
        },
        {
            "positions": [
                -2.8654140676399753,
                -0.8432614885816259,
                1.350128894031825,
                -0.4799232891093108,
                1.2229422379250436,
                -3.1109241611645224
            ]
        },
        {
            "positions": [
                -2.8397697300935048,
                -0.8105614183714056,
                1.2494621280963512,
                -0.4100246691414568,
                1.0925794861968694,
                -3.117641760287239
            ]
        },
        {
            "positions": [
                -2.814125392547034,
                -0.7778613481611854,
                1.1487953621608773,
                -0.3401260491736028,
                0.9622167344686952,
                -3.1243593594099552
            ]
        },
        {
            "positions": [
                -2.7884810550005636,
                -0.7451612779509651,
                1.0481285962254034,
                -0.27022742920574877,
                0.8318539827405209,
                -3.1310769585326717
            ]
        },
        {
            "positions": [
                -2.7628367174540926,
                -0.7124612077407448,
                0.9474618302899294,
                -0.20032880923789465,
                0.7014912310123465,
                -3.137794557655388
            ]
        },
        {
            "positions": [
                -2.737192379907622,
                -0.6797611375305246,
                0.8467950643544555,
                -0.1304301892700407,
                0.5711284792841722,
                -3.1445121567781045
            ]
        },
        {
            "positions": [
                -2.7115480423611515,
                -0.6470610673203044,
                0.7461282984189815,
                -0.06053156930218662,
                0.440765727555998,
                -3.151229755900821
            ]
        }
    ]
}