{
    "goal": {
        "global_pose": {
            "orientation": {
                "w": 0.7031023502349854,
                "x": -0.7110244035720825,
                "y": 0.007748599164187908,
                "z": 0.005598929710686207
            },
            "position": {
                "x": 0.11585023208521307,
                "y": 0.44412534475326537,
                "z": 0.3711530566215515
            }
        },
        "name": "move_to_auspresseinheit_A"
    },
    "id": "SPARS_move_to_auspresseinheit_A_134",
    "joint_names": [
        "shoulder_pan_joint",
        "shoulder_lift_joint",
        "elbow_joint",
        "wrist_1_joint",
        "wrist_2_joint",
        "wrist_3_joint"
    ],
    "metrics": {
        "cart_traj_len": 1.4590646094507602,
        "distance_elbow_joint": 1.4501339402536222,
        "distance_shoulder_lift_joint": 0.8963578134743382,
        "distance_shoulder_pan_joint": 1.0406464049563464,
        "distance_wrist_1_joint": 1.9831569683382915,
        "distance_wrist_2_joint": 2.236448881496748,
        "distance_wrist_3_joint": 1.7872682411446634,
        "smoothness": 0.8211331222775767,
        "time": 5.077854583,
        "traj_len": 3.064965293386535,
        "weighted_distance": 4.145859932726669
    },
    "planner": "SPARS",
    "start": {
        "state": {
            "elbow_joint": 2.4225746658250005,
            "shoulder_lift_joint": -1.3736534386056498,
            "shoulder_pan_joint": -0.3378633547517467,
            "wrist_1_joint": -1.0288598680537169,
            "wrist_2_joint": 1.233022673432363,
            "wrist_3_joint": -3.0940220416140027
        }
    },
    "waypoints": [
        {
            "positions": [
                -0.3378633547517467,
                -1.3736534386056498,
                2.4225746658250005,
                -1.0288598680537169,
                1.233022673432363,
                -3.0940220416140027
            ]
        },
        {
            "positions": [
                -0.29228292032943004,
                -1.42130789641048,
                2.373172006073811,
                -0.9438295426362653,
                1.1405814424497218,
                -3.0356729751721825
            ]
        },
        {
            "positions": [
                -0.24670248590711336,
                -1.46896235421531,
                2.3237693463226217,
                -0.8587992172188138,
                1.0481402114670804,
                -2.9773239087303622
            ]
        },
        {
            "positions": [
                -0.20112205148479664,
                -1.5166168120201402,
                2.2743666865714323,
                -0.7737688918013622,
                0.9556989804844389,
                -2.9189748422885424
            ]
        },
        {
            "positions": [
                -0.15554161706248,
                -1.5642712698249703,
                2.224964026820243,
                -0.6887385663839107,
                0.8632577495017977,
                -2.860625775846722
            ]
        },
        {
            "positions": [
                -0.1099611826401633,
                -1.6119257276298005,
                2.1755613670690535,
                -0.6037082409664591,
                0.7708165185191563,
                -2.802276709404902
            ]
        },
        {
            "positions": [
                -0.06438074821784656,
                -1.6595801854346308,
                2.1261587073178645,
                -0.5186779155490076,
                0.6783752875365149,
                -2.7439276429630817
            ]
        },
        {
            "positions": [
                -0.018800313795529877,
                -1.707234643239461,
                2.076756047566675,
                -0.43364759013155607,
                0.5859340565538735,
                -2.6855785765212614
            ]
        },
        {
            "positions": [
                0.026780120626786752,
                -1.754889101044291,
                2.0273533878154857,
                -0.3486172647141045,
                0.4934928255712323,
                -2.6272295100794416
            ]
        },
        {
            "positions": [
                0.07236055504910344,
                -1.8025435588491212,
                1.9779507280642963,
                -0.263586939296653,
                0.40105159458859096,
                -2.5688804436376214
            ]
        },
        {
            "positions": [
                0.11794098947142012,
                -1.8501980166539513,
                1.9285480683131069,
                -0.1785566138792014,
                0.3086103636059496,
                -2.510531377195801
            ]
        },
        {
            "positions": [
                0.16352142389373686,
                -1.8978524744587815,
                1.8791454085619175,
                -0.09352628846174993,
                0.21616913262330817,
                -2.452182310753981
            ]
        },
        {
            "positions": [
                0.2091018583160536,
                -1.9455069322636116,
                1.829742748810728,
                -0.008495963044298227,
                0.12372790164066672,
                -2.3938332443121606
            ]
        },
        {
            "positions": [
                0.25468229273837023,
                -1.9931613900684417,
                1.7803400890595387,
                0.07653436237315336,
                0.031286670658025484,
                -2.335484177870341
            ]
        },
        {
            "positions": [
                0.30026272716068697,
                -2.040815847873272,
                1.7309374293083495,
                0.16156468779060473,
                -0.06115456032461597,
                -2.2771351114285205
            ]
        },
        {
            "positions": [
                0.3458431615830036,
                -2.088470305678102,
                1.68153476955716,
                0.24659501320805638,
                -0.15359579130725723,
                -2.2187860449867003
            ]
        },
        {
            "positions": [
                0.39976345714478495,
                -2.0884562269347997,
                1.7771920221011142,
                0.2186290091083929,
                -0.05996043227856991,
                -2.3100574045600735
            ]
        },
        {
            "positions": [
                0.45368375270656625,
                -2.088442148191498,
                1.8728492746450682,
                0.1906630050087294,
                0.03367492675011741,
                -2.4013287641334466
            ]
        },
        {
            "positions": [
                0.5076040482683476,
                -2.088428069448196,
                1.9685065271890223,
                0.1626970009090659,
                0.12731028577880474,
                -2.4926001237068203
            ]
        },
        {
            "positions": [
                0.561524343830129,
                -2.0884139907048938,
                2.0641637797329766,
                0.1347309968094024,
                0.22094564480749204,
                -2.5838714832801934
            ]
        },
        {
            "positions": [
                0.6154446393919103,
                -2.0883999119615915,
                2.1598210322769305,
                0.10676499270973888,
                0.3145810038361794,
                -2.6751428428535666
            ]
        },
        {
            "positions": [
                0.6693649349536916,
                -2.0883858332182896,
                2.2554782848208847,
                0.0787989886100754,
                0.40821636286486673,
                -2.76641420242694
            ]
        },
        {
            "positions": [
                0.6874736313959281,
                -2.0705854678055133,
                2.2950560361714976,
                0.01815797655558303,
                0.4622306934993948,
                -2.8272640076740867
            ]
        },
        {
            "positions": [
                0.691300986098096,
                -2.029671440673189,
                2.3189492305143586,
                -0.10165828605042837,
                0.5207316764870138,
                -2.9031525781315803
            ]
        },
        {
            "positions": [
                0.6951283408002639,
                -1.9887574135408648,
                2.3428424248572197,
                -0.22147454865643978,
                0.5792326594746328,
                -2.979041148589074
            ]
        },
        {
            "positions": [
                0.6989556955024318,
                -1.9478433864085403,
                2.366735619200081,
                -0.34129081126245114,
                0.6377336424622517,
                -3.0549297190465676
            ]
        },
        {
            "positions": [
                0.7027830502045996,
                -1.906929359276216,
                2.390628813542942,
                -0.46110707386846256,
                0.6962346254498708,
                -3.1308182895040613
            ]
        }
    ]
}