{
    "goal": {
        "global_pose": {
            "orientation": {
                "w": 0.5084816262002911,
                "x": -0.4908360881923452,
                "y": 0.5182115481033761,
                "z": -0.48164630358495003
            },
            "position": {
                "x": 0.5540239810943604,
                "y": -0.46912469901144505,
                "z": 0.16403168439865112
            }
        },
        "name": "move_to_storage_B"
    },
    "id": "SPARS_move_to_storage_B_126",
    "joint_names": [
        "shoulder_pan_joint",
        "shoulder_lift_joint",
        "elbow_joint",
        "wrist_1_joint",
        "wrist_2_joint",
        "wrist_3_joint"
    ],
    "metrics": {
        "cart_traj_len": 2.2552243762761863,
        "distance_elbow_joint": 0.35556824268688647,
        "distance_shoulder_lift_joint": 2.0446514734216654,
        "distance_shoulder_pan_joint": 1.4934197059885312,
        "distance_wrist_1_joint": 3.0165051663442473,
        "distance_wrist_2_joint": 2.701412527773964,
        "distance_wrist_3_joint": 3.1866266763517435,
        "smoothness": 0.18294030321085367,
        "time": 5.087485392,
        "traj_len": 3.577454932290138,
        "weighted_distance": 4.988923214420996
    },
    "planner": "SPARS",
    "start": {
        "state": {
            "elbow_joint": 1.664937868594044,
            "shoulder_lift_joint": -0.661644460510453,
            "shoulder_pan_joint": -0.9139846352900073,
            "wrist_1_joint": 2.146753192139373,
            "wrist_2_joint": -2.2341966793290973,
            "wrist_3_joint": 0.005466555786416001
        }
    },
    "waypoints": [
        {
            "positions": [
                -0.9139846352900073,
                -0.661644460510453,
                1.664937868594044,
                2.146753192139373,
                -2.2341966793290973,
                0.005466555786416001
            ]
        },
        {
            "positions": [
                -0.8483800091801861,
                -0.7868907879218595,
                1.6878679727216734,
                2.117433561098104,
                -2.1233865760648145,
                0.009247761632089659
            ]
        },
        {
            "positions": [
                -0.7827753830703649,
                -0.912137115333266,
                1.7107980768493032,
                2.088113930056835,
                -2.0125764728005318,
                0.013028967477763317
            ]
        },
        {
            "positions": [
                -0.7171707569605437,
                -1.0373834427446724,
                1.7337281809769327,
                2.0587942990155663,
                -1.901766369536249,
                0.016810173323436976
            ]
        },
        {
            "positions": [
                -0.6515661308507226,
                -1.1626297701560788,
                1.7566582851045625,
                2.029474667974297,
                -1.7909562662719662,
                0.020591379169110635
            ]
        },
        {
            "positions": [
                -0.5859615047409013,
                -1.2878760975674854,
                1.779588389232192,
                2.000155036933028,
                -1.6801461630076835,
                0.024372585014784294
            ]
        },
        {
            "positions": [
                -0.5203568786310802,
                -1.413122424978892,
                1.8025184933598215,
                1.9708354058917592,
                -1.5693360597434007,
                0.028153790860457953
            ]
        },
        {
            "positions": [
                -0.45475225252125895,
                -1.5383687523902982,
                1.8254485974874513,
                1.9415157748504903,
                -1.458525956479118,
                0.03193499670613161
            ]
        },
        {
            "positions": [
                -0.38914762641143774,
                -1.6636150798017049,
                1.8483787016150808,
                1.9121961438092212,
                -1.3477158532148352,
                0.03571620255180527
            ]
        },
        {
            "positions": [
                -0.32354300030161653,
                -1.7888614072131115,
                1.8713088057427105,
                1.882876512767952,
                -1.2369057499505525,
                0.03949740839747893
            ]
        },
        {
            "positions": [
                -0.2579383741917953,
                -1.9141077346245179,
                1.89423890987034,
                1.8535568817266832,
                -1.1260956466862697,
                0.04327861424315259
            ]
        },
        {
            "positions": [
                -0.2928289343955587,
                -1.881099892986701,
                1.899500043262448,
                1.7400856793962016,
                -1.0597076677224724,
                -0.08792199483580602
            ]
        },
        {
            "positions": [
                -0.327719494599322,
                -1.8480920513488845,
                1.904761176654556,
                1.6266144770657203,
                -0.9933196887586749,
                -0.21912260391476462
            ]
        },
        {
            "positions": [
                -0.36261005480308534,
                -1.8150842097110678,
                1.9100223100466638,
                1.5131432747352387,
                -0.9269317097948775,
                -0.35032321299372327
            ]
        },
        {
            "positions": [
                -0.39750061500684863,
                -1.7820763680732512,
                1.9152834434387718,
                1.399672072404757,
                -0.8605437308310802,
                -0.48152382207268185
            ]
        },
        {
            "positions": [
                -0.432391175210612,
                -1.7490685264354344,
                1.9205445768308798,
                1.2862008700742755,
                -0.7941557518672828,
                -0.6127244311516405
            ]
        },
        {
            "positions": [
                -0.46728173541437534,
                -1.7160606847976179,
                1.9258057102229875,
                1.172729667743794,
                -0.7277677729034854,
                -0.7439250402305991
            ]
        },
        {
            "positions": [
                -0.5021722956181387,
                -1.683052843159801,
                1.9310668436150955,
                1.0592584654133126,
                -0.6613797939396879,
                -0.8751256493095578
            ]
        },
        {
            "positions": [
                -0.5370628558219019,
                -1.6500450015219845,
                1.9363279770072035,
                0.945787263082831,
                -0.5949918149758906,
                -1.0063262583885164
            ]
        },
        {
            "positions": [
                -0.5719534160256654,
                -1.6170371598841677,
                1.9415891103993115,
                0.8323160607523494,
                -0.5286038360120933,
                -1.1375268674674752
            ]
        },
        {
            "positions": [
                -0.6068439762294286,
                -1.5840293182463512,
                1.9468502437914195,
                0.7188448584218678,
                -0.4622158570482958,
                -1.2687274765464338
            ]
        },
        {
            "positions": [
                -0.641734536433192,
                -1.5510214766085344,
                1.9521113771835272,
                0.6053736560913865,
                -0.3958278780844985,
                -1.3999280856253924
            ]
        },
        {
            "positions": [
                -0.6766250966369554,
                -1.5180136349707176,
                1.9573725105756352,
                0.4919024537609049,
                -0.32943989912070104,
                -1.531128694704351
            ]
        },
        {
            "positions": [
                -0.7115156568407186,
                -1.485005793332901,
                1.9626336439677432,
                0.37843125143042355,
                -0.2630519201569037,
                -1.6623293037833096
            ]
        },
        {
            "positions": [
                -0.7464062170444821,
                -1.4519979516950843,
                1.967894777359851,
                0.26496004909994175,
                -0.19666394119310615,
                -1.7935299128622684
            ]
        },
        {
            "positions": [
                -0.7812967772482453,
                -1.4189901100572677,
                1.973155910751959,
                0.1514888467694604,
                -0.13027596222930882,
                -1.9247305219412267
            ]
        },
        {
            "positions": [
                -0.8161873374520087,
                -1.385982268419451,
                1.978417044144067,
                0.038017644438978815,
                -0.06388798326551148,
                -2.055931131020185
            ]
        },
        {
            "positions": [
                -0.851077897655772,
                -1.3529744267816342,
                1.983678177536175,
                -0.07545355789150276,
                0.0024999956982860727,
                -2.187131740099144
            ]
        },
        {
            "positions": [
                -0.8859684578595354,
                -1.3199665851438176,
                1.988939310928283,
                -0.18892476022198434,
                0.06888797466208318,
                -2.3183323491781027
            ]
        },
        {
            "positions": [
                -0.9208590180632987,
                -1.286958743506001,
                1.9942004443203907,
                -0.3023959625524657,
                0.13527595362588052,
                -2.449532958257061
            ]
        },
        {
            "positions": [
                -0.9557495782670621,
                -1.2539509018681843,
                1.9994615777124987,
                -0.4158671648829475,
                0.20166393258967807,
                -2.58073356733602
            ]
        },
        {
            "positions": [
                -0.9906401384708254,
                -1.2209430602303675,
                2.0047227111046064,
                -0.5293383672134289,
                0.2680519115534754,
                -2.7119341764149785
            ]
        },
        {
            "positions": [
                -1.0255306986745887,
                -1.187935218592551,
                2.0099838444967144,
                -0.6428095695439102,
                0.33443989051727274,
                -2.843134785493937
            ]
        },
        {
            "positions": [
                -1.060421258878352,
                -1.1549273769547344,
                2.0152449778888224,
                -0.756280771874392,
                0.4008278694810703,
                -2.9743353945728956
            ]
        },
        {
            "positions": [
                -1.0953118190821154,
                -1.1219195353169176,
                2.0205061112809304,
                -0.8697519742048733,
                0.4672158484448675,
                -3.1055360036518542
            ]
        }
    ]
}