{
    "goal": {
        "global_pose": {
            "orientation": {
                "w": 0.005598929693374612,
                "x": 0.007748599140229565,
                "y": 0.7110244013736278,
                "z": -0.7031023480610252
            },
            "position": {
                "x": -0.8858502320852131,
                "y": -0.7141253447532654,
                "z": 0.3711530566215515
            }
        },
        "name": "move_to_auspresseinheit_C"
    },
    "id": "SPARStwo_move_to_auspresseinheit_C_4",
    "joint_names": [
        "shoulder_pan_joint",
        "shoulder_lift_joint",
        "elbow_joint",
        "wrist_1_joint",
        "wrist_2_joint",
        "wrist_3_joint"
    ],
    "metrics": {
        "cart_traj_len": 0.4936577445632651,
        "distance_elbow_joint": 1.0029584417462962,
        "distance_shoulder_lift_joint": 0.3266351283473763,
        "distance_shoulder_pan_joint": 0.25586525284103656,
        "distance_wrist_1_joint": 0.6724829776852764,
        "distance_wrist_2_joint": 1.321044234329196,
        "distance_wrist_3_joint": 0.04598204165197872,
        "smoothness": 3.2297397080004555e-16,
        "time": 5.01344226,
        "traj_len": 1.9039348929522668,
        "weighted_distance": 2.389656747719134
    },
    "planner": "SPARStwo",
    "start": {
        "state": {
            "elbow_joint": 1.7527959577737207,
            "shoulder_lift_joint": -0.9740617694225068,
            "shoulder_pan_joint": -2.967991417825858,
            "wrist_1_joint": -0.759517768980727,
            "wrist_2_joint": 1.7443932448377408,
            "wrist_3_joint": -3.0840537646736568
        }
    },
    "waypoints": [
        {
            "positions": [
                -2.967991417825858,
                -0.9740617694225068,
                1.7527959577737207,
                -0.759517768980727,
                1.7443932448377408,
                -3.0840537646736568
            ]
        },
        {
            "positions": [
                -2.942404892541754,
                -0.9413982565877691,
                1.652500113599091,
                -0.6922694712121993,
                1.6122888214048212,
                -3.0886519688388545
            ]
        },
        {
            "positions": [
                -2.9168183672576506,
                -0.9087347437530315,
                1.5522042694244613,
                -0.6250211734436717,
                1.4801843979719016,
                -3.0932501730040527
            ]
        },
        {
            "positions": [
                -2.891231841973547,
                -0.8760712309182939,
                1.4519084252498318,
                -0.5577728756751441,
                1.348079974538982,
                -3.0978483771692504
            ]
        },
        {
            "positions": [
                -2.8656453166894433,
                -0.8434077180835562,
                1.3516125810752022,
                -0.4905245779066164,
                1.2159755511060624,
                -3.102446581334448
            ]
        },
        {
            "positions": [
                -2.8400587914053395,
                -0.8107442052488186,
                1.2513167369005727,
                -0.42327628013808877,
                1.083871127673143,
                -3.107044785499646
            ]
        },
        {
            "positions": [
                -2.814472266121236,
                -0.7780806924140811,
                1.1510208927259429,
                -0.3560279823695611,
                0.9517667042402232,
                -3.111642989664844
            ]
        },
        {
            "positions": [
                -2.7888857408371326,
                -0.7454171795793434,
                1.0507250485513133,
                -0.28877968460103354,
                0.8196622808073037,
                -3.116241193830042
            ]
        },
        {
            "positions": [
                -2.7632992155530287,
                -0.7127536667446057,
                0.9504292043766837,
                -0.22153138683250584,
                0.6875578573743841,
                -3.1208393979952396
            ]
        },
        {
            "positions": [
                -2.737712690268925,
                -0.680090153909868,
                0.850133360202054,
                -0.15428308906397814,
                0.5554534339414645,
                -3.1254376021604378
            ]
        },
        {
            "positions": [
                -2.7121261649848214,
                -0.6474266410751305,
                0.7498375160274244,
                -0.08703479129545054,
                0.42334901050854484,
                -3.1300358063256355
            ]
        }
    ]
}