{
    "goal": {
        "global_pose": {
            "orientation": {
                "w": -0.4816463035849501,
                "x": 0.5182115481033762,
                "y": 0.4908360881923453,
                "z": -0.5084816262002911
            },
            "position": {
                "x": -0.8240239810943604,
                "y": 0.19912469901144506,
                "z": 0.16403168439865112
            }
        },
        "name": "move_to_storage_D"
    },
    "id": "SPARS_move_to_storage_D_137",
    "joint_names": [
        "shoulder_pan_joint",
        "shoulder_lift_joint",
        "elbow_joint",
        "wrist_1_joint",
        "wrist_2_joint",
        "wrist_3_joint"
    ],
    "metrics": {
        "cart_traj_len": 2.369041922144907,
        "distance_elbow_joint": 2.4299227777492227,
        "distance_shoulder_lift_joint": 0.6665194015288618,
        "distance_shoulder_pan_joint": 2.217171204973158,
        "distance_wrist_1_joint": 4.400744075579246,
        "distance_wrist_2_joint": 1.7760044518095666,
        "distance_wrist_3_joint": 3.1187983381427054,
        "smoothness": 0.2510334704833276,
        "time": 5.087792395,
        "traj_len": 3.822193120419579,
        "weighted_distance": 5.198413743966229
    },
    "planner": "SPARS",
    "start": {
        "state": {
            "elbow_joint": -2.384821988534728,
            "shoulder_lift_joint": -2.2788054721415256,
            "shoulder_pan_joint": -0.1854694642142757,
            "wrist_1_joint": 1.4845938289331202,
            "wrist_2_joint": 0.17898776772866878,
            "wrist_3_joint": 0.037105688729662994
        }
    },
    "waypoints": [
        {
            "positions": [
                -0.1854694642142757,
                -2.2788054721415256,
                -2.384821988534728,
                1.4845938289331202,
                0.17898776772866878,
                0.037105688729662994
            ]
        },
        {
            "positions": [
                -0.11881869035138241,
                -2.249557431494904,
                -2.336004745989055,
                1.5077194169690031,
                0.05992614323216493,
                0.0046089222211104786
            ]
        },
        {
            "positions": [
                -0.025676605213431153,
                -2.217884695101921,
                -2.215524036698624,
                1.5292762274382463,
                -0.029398461251618477,
                -0.0057098890103745685
            ]
        },
        {
            "positions": [
                0.06746547992452011,
                -2.186211958708938,
                -2.0950433274081925,
                1.5508330379074893,
                -0.11872306573540188,
                -0.016028700241859616
            ]
        },
        {
            "positions": [
                0.16060756506247137,
                -2.154539222315955,
                -1.9745626181177613,
                1.5723898483767325,
                -0.2080476702191853,
                -0.026347511473344666
            ]
        },
        {
            "positions": [
                0.2537496502004226,
                -2.1228664859229722,
                -1.8540819088273301,
                1.5939466588459754,
                -0.2973722747029687,
                -0.03666632270482971
            ]
        },
        {
            "positions": [
                0.3468917353383739,
                -2.0911937495299893,
                -1.733601199536899,
                1.6155034693152186,
                -0.38669687918675216,
                -0.04698513393631477
            ]
        },
        {
            "positions": [
                0.44003382047632517,
                -2.0595210131370063,
                -1.6131204902464678,
                1.6370602797844618,
                -0.47602148367053554,
                -0.05730394516779981
            ]
        },
        {
            "positions": [
                0.5331759056142765,
                -2.027848276744023,
                -1.4926397809560366,
                1.6586170902537047,
                -0.565346088154319,
                -0.06762275639928486
            ]
        },
        {
            "positions": [
                0.6263179907522277,
                -1.9961755403510402,
                -1.3721590716656054,
                1.680173900722948,
                -0.6546706926381023,
                -0.0779415676307699
            ]
        },
        {
            "positions": [
                0.719460075890179,
                -1.964502803958057,
                -1.2516783623751742,
                1.7017307111921909,
                -0.7439952971218857,
                -0.08826037886225496
            ]
        },
        {
            "positions": [
                0.8126021610281303,
                -1.932830067565074,
                -1.131197653084743,
                1.723287521661434,
                -0.8333199016056693,
                -0.09857919009374001
            ]
        },
        {
            "positions": [
                0.9057442461660814,
                -1.901157331172091,
                -1.0107169437943118,
                1.744844332130677,
                -0.9226445060894526,
                -0.10889800132522505
            ]
        },
        {
            "positions": [
                0.9988863313040328,
                -1.8694845947791081,
                -0.8902362345038807,
                1.7664011425999202,
                -1.011969110573236,
                -0.1192168125567101
            ]
        },
        {
            "positions": [
                0.9575737149258389,
                -1.879772535745766,
                -0.9276497154526158,
                1.6016436721234224,
                -1.0353710135135425,
                -0.2377158460309634
            ]
        },
        {
            "positions": [
                0.9162610985476448,
                -1.8900604767124236,
                -0.9650631964013507,
                1.4368862016469244,
                -1.0587729164538489,
                -0.3562148795052167
            ]
        },
        {
            "positions": [
                0.8749484821694509,
                -1.9003484176790815,
                -1.002476677350086,
                1.2721287311704266,
                -1.0821748193941554,
                -0.47471391297946997
            ]
        },
        {
            "positions": [
                0.8336358657912568,
                -1.910636358645739,
                -1.039890158298821,
                1.1073712606939288,
                -1.105576722334462,
                -0.5932129464537232
            ]
        },
        {
            "positions": [
                0.7923232494130629,
                -1.920924299612397,
                -1.077303639247556,
                0.9426137902174309,
                -1.1289786252747684,
                -0.7117119799279766
            ]
        },
        {
            "positions": [
                0.7510106330348689,
                -1.9312122405790548,
                -1.1147171201962909,
                0.777856319740933,
                -1.1523805282150748,
                -0.8302110134022298
            ]
        },
        {
            "positions": [
                0.7096980166566749,
                -1.9415001815457125,
                -1.152130601145026,
                0.6130988492644351,
                -1.1757824311553813,
                -0.9487100468764832
            ]
        },
        {
            "positions": [
                0.6683854002784808,
                -1.9517881225123703,
                -1.189544082093761,
                0.44834137878793734,
                -1.1991843340956878,
                -1.0672090803507364
            ]
        },
        {
            "positions": [
                0.6270727839002869,
                -1.962076063479028,
                -1.2269575630424963,
                0.28358390831143954,
                -1.2225862370359941,
                -1.1857081138249896
            ]
        },
        {
            "positions": [
                0.5857601675220929,
                -1.9723640044456858,
                -1.2643710439912312,
                0.11882643783494151,
                -1.2459881399763006,
                -1.3042071472992431
            ]
        },
        {
            "positions": [
                0.5444475511438989,
                -1.9826519454123437,
                -1.3017845249399662,
                -0.04593103264155629,
                -1.2693900429166072,
                -1.4227061807734962
            ]
        },
        {
            "positions": [
                0.5031349347657049,
                -1.9929398863790013,
                -1.3391980058887012,
                -0.2106885031180541,
                -1.2927919458569135,
                -1.5412052142477495
            ]
        },
        {
            "positions": [
                0.46182231838751087,
                -2.003227827345659,
                -1.3766114868374364,
                -0.3754459735945519,
                -1.3161938487972202,
                -1.659704247722003
            ]
        },
        {
            "positions": [
                0.4205097020093168,
                -2.013515768312317,
                -1.4140249677861716,
                -0.5402034440710499,
                -1.3395957517375265,
                -1.7782032811962563
            ]
        },
        {
            "positions": [
                0.379197085631123,
                -2.0238037092789747,
                -1.4514384487349066,
                -0.7049609145475475,
                -1.362997654677833,
                -1.8967023146705093
            ]
        },
        {
            "positions": [
                0.3378844692529289,
                -2.0340916502456325,
                -1.4888519296836416,
                -0.8697183850240455,
                -1.3863995576181396,
                -2.0152013481447626
            ]
        },
        {
            "positions": [
                0.29657185287473486,
                -2.0443795912122904,
                -1.5262654106323765,
                -1.0344758555005436,
                -1.409801460558446,
                -2.133700381619016
            ]
        },
        {
            "positions": [
                0.2552592364965409,
                -2.054667532178948,
                -1.5636788915811115,
                -1.1992333259770411,
                -1.4332033634987524,
                -2.252199415093269
            ]
        },
        {
            "positions": [
                0.21394662011834698,
                -2.0649554731456057,
                -1.6010923725298467,
                -1.3639907964535392,
                -1.456605266439059,
                -2.3706984485675227
            ]
        },
        {
            "positions": [
                0.17263400374015292,
                -2.0752434141122635,
                -1.638505853478582,
                -1.5287482669300372,
                -1.4800071693793653,
                -2.489197482041776
            ]
        },
        {
            "positions": [
                0.13132138736195897,
                -2.0855313550789214,
                -1.6759193344273169,
                -1.6935057374065348,
                -1.5034090723196718,
                -2.607696515516029
            ]
        },
        {
            "positions": [
                0.09000877098376492,
                -2.0958192960455793,
                -1.7133328153760519,
                -1.8582632078830328,
                -1.5268109752599783,
                -2.7261955489902823
            ]
        },
        {
            "positions": [
                0.048696154605570974,
                -2.1061072370122367,
                -1.7507462963247868,
                -2.023020678359531,
                -1.5502128782002846,
                -2.8446945824645358
            ]
        },
        {
            "positions": [
                0.007383538227377029,
                -2.1163951779788945,
                -1.7881597772735218,
                -2.1877781488360286,
                -1.5736147811405912,
                -2.963193615938789
            ]
        },
        {
            "positions": [
                -0.033929078150817096,
                -2.1266831189455524,
                -1.825573258222257,
                -2.352535619312526,
                -1.5970166840808977,
                -3.0816926494130423
            ]
        }
    ]
}