{
    "goal": {
        "global_pose": {
            "orientation": {
                "w": 0.7031023480610252,
                "x": -0.7110244013736278,
                "y": 0.0077485991402295624,
                "z": 0.005598929693374583
            },
            "position": {
                "x": -0.8841497679147869,
                "y": 0.44412534475326537,
                "z": 0.3711530566215515
            }
        },
        "name": "move_to_auspresseinheit_D"
    },
    "id": "SPARS_move_to_auspresseinheit_D_83",
    "joint_names": [
        "shoulder_pan_joint",
        "shoulder_lift_joint",
        "elbow_joint",
        "wrist_1_joint",
        "wrist_2_joint",
        "wrist_3_joint"
    ],
    "metrics": {
        "cart_traj_len": 0.3448581824489539,
        "distance_elbow_joint": 0.6673091474010866,
        "distance_shoulder_lift_joint": 0.1378050431692035,
        "distance_shoulder_pan_joint": 0.13384557532385313,
        "distance_wrist_1_joint": 0.6092492766988307,
        "distance_wrist_2_joint": 1.448738196157478,
        "distance_wrist_3_joint": 0.06709508588937929,
        "smoothness": 1.2829243862448564e-15,
        "time": 5.008869778999999,
        "traj_len": 1.7504406087153688,
        "weighted_distance": 2.292644754268506
    },
    "planner": "SPARS",
    "start": {
        "state": {
            "elbow_joint": -1.8275523626775212,
            "shoulder_lift_joint": -2.126789852344167,
            "shoulder_pan_joint": -0.03513704404078235,
            "wrist_1_joint": -2.347782403156801,
            "wrist_2_joint": -1.6058999987535132,
            "wrist_3_joint": -3.0880379163319196
        }
    },
    "waypoints": [
        {
            "positions": [
                -0.03513704404078235,
                -2.126789852344167,
                -1.8275523626775212,
                -2.347782403156801,
                -1.6058999987535132,
                -3.0880379163319196
            ]
        },
        {
            "positions": [
                -0.051867740956263994,
                -2.1440154827403175,
                -1.7441387192523854,
                -2.4239385627441545,
                -1.4248077242338284,
                -3.0796510305957474
            ]
        },
        {
            "positions": [
                -0.06859843787174563,
                -2.1612411131364677,
                -1.6607250758272496,
                -2.5000947223315086,
                -1.2437154497141436,
                -3.0712641448595748
            ]
        },
        {
            "positions": [
                -0.08532913478722728,
                -2.178466743532618,
                -1.5773114324021136,
                -2.5762508819188623,
                -1.062623175194459,
                -3.062877259123402
            ]
        },
        {
            "positions": [
                -0.10205983170270891,
                -2.1956923739287686,
                -1.493897788976978,
                -2.6524070415062164,
                -0.8815309006747742,
                -3.05449037338723
            ]
        },
        {
            "positions": [
                -0.11879052861819056,
                -2.2129180043249193,
                -1.410484145551842,
                -2.72856320109357,
                -0.7004386261550894,
                -3.0461034876510578
            ]
        },
        {
            "positions": [
                -0.1355212255336722,
                -2.2301436347210695,
                -1.3270705021267062,
                -2.8047193606809238,
                -0.5193463516354049,
                -3.037716601914885
            ]
        },
        {
            "positions": [
                -0.15225192244915384,
                -2.2473692651172197,
                -1.2436568587015704,
                -2.880875520268278,
                -0.3382540771157201,
                -3.0293297161787125
            ]
        },
        {
            "positions": [
                -0.1689826193646355,
                -2.2645948955133703,
                -1.1602432152764346,
                -2.9570316798556315,
                -0.15716180259603535,
                -3.0209428304425403
            ]
        }
    ]
}