{
    "goal": {
        "global_pose": {
            "orientation": {
                "w": -0.4816463035849501,
                "x": 0.5182115481033762,
                "y": 0.4908360881923453,
                "z": -0.5084816262002911
            },
            "position": {
                "x": -0.8240239810943604,
                "y": 0.19912469901144506,
                "z": 0.16403168439865112
            }
        },
        "name": "move_to_storage_D"
    },
    "id": "SPARS_move_to_storage_D_27",
    "joint_names": [
        "shoulder_pan_joint",
        "shoulder_lift_joint",
        "elbow_joint",
        "wrist_1_joint",
        "wrist_2_joint",
        "wrist_3_joint"
    ],
    "metrics": {
        "cart_traj_len": 4.0570408405265015,
        "distance_elbow_joint": 4.208291612949784,
        "distance_shoulder_lift_joint": 1.263822321381606,
        "distance_shoulder_pan_joint": 2.813274265254905,
        "distance_wrist_1_joint": 2.260042265131963,
        "distance_wrist_2_joint": 0.8774404109351598,
        "distance_wrist_3_joint": 3.2517855102535504,
        "smoothness": 0.007733871158563177,
        "time": 5.069736596,
        "traj_len": 3.830751412700512,
        "weighted_distance": 4.931096235370102
    },
    "planner": "SPARS",
    "start": {
        "state": {
            "elbow_joint": -2.384821988534728,
            "shoulder_lift_joint": -2.2788054721415256,
            "shoulder_pan_joint": -0.1854694642142757,
            "wrist_1_joint": 1.4845938289331202,
            "wrist_2_joint": 0.17898776772866878,
            "wrist_3_joint": 0.037105688729662994
        }
    },
    "waypoints": [
        {
            "positions": [
                -0.1854694642142757,
                -2.2788054721415256,
                -2.384821988534728,
                1.4845938289331202,
                0.17898776772866878,
                0.037105688729662994
            ]
        },
        {
            "positions": [
                -0.014764515412502316,
                -2.215106459692228,
                -2.3185403737684545,
                1.4344055382133558,
                0.19839102505304362,
                0.03349787882043011
            ]
        },
        {
            "positions": [
                0.15594043338927108,
                -2.15140744724293,
                -2.252258759002181,
                1.3842172474935912,
                0.21779428237741846,
                0.02989006891119722
            ]
        },
        {
            "positions": [
                0.32664538219104444,
                -2.087708434793632,
                -2.1859771442359075,
                1.3340289567738268,
                0.2371975397017933,
                0.026282259001964334
            ]
        },
        {
            "positions": [
                0.4973503309928179,
                -2.024009422344334,
                -2.1196955294696345,
                1.2838406660540624,
                0.25660079702616817,
                0.022674449092731447
            ]
        },
        {
            "positions": [
                0.6680552797945913,
                -1.9603104098950364,
                -2.053413914703361,
                1.2336523753342978,
                0.276004054350543,
                0.01906663918349856
            ]
        },
        {
            "positions": [
                0.8387602285963646,
                -1.8966113974457386,
                -1.9871322999370875,
                1.1834640846145335,
                0.29540731167491785,
                0.015458829274265673
            ]
        },
        {
            "positions": [
                1.009465177398138,
                -1.8329123849964406,
                -1.920850685170814,
                1.1332757938947688,
                0.3148105689992927,
                0.011851019365032786
            ]
        },
        {
            "positions": [
                1.1801701261999114,
                -1.7692133725471426,
                -1.8545690704045406,
                1.0830875031750045,
                0.33421382632366753,
                0.0082432094557999
            ]
        },
        {
            "positions": [
                1.350875075001685,
                -1.7055143600978449,
                -1.788287455638267,
                1.03289921245524,
                0.3536170836480424,
                0.004635399546567012
            ]
        },
        {
            "positions": [
                1.5215800238034582,
                -1.641815347648547,
                -1.7220058408719938,
                0.9827109217354756,
                0.3730203409724172,
                0.0010275896373341253
            ]
        },
        {
            "positions": [
                1.6922849726052316,
                -1.5781163351992493,
                -1.6557242261057203,
                0.9325226310157111,
                0.3924235982967921,
                -0.0025802202718987616
            ]
        },
        {
            "positions": [
                1.8629899214070047,
                -1.5144173227499513,
                -1.589442611339447,
                0.8823343402959467,
                0.4118268556211669,
                -0.0061880301811316485
            ]
        },
        {
            "positions": [
                2.0336948702087785,
                -1.4507183103006533,
                -1.5231609965731736,
                0.8321460495761822,
                0.4312301129455418,
                -0.009795840090364535
            ]
        },
        {
            "positions": [
                2.204399819010552,
                -1.3870192978513556,
                -1.4568793818069001,
                0.7819577588564177,
                0.45063337026991657,
                -0.013403649999597422
            ]
        },
        {
            "positions": [
                2.2220416932618052,
                -1.3715177917225458,
                -1.3201981732143186,
                0.7170658340624485,
                0.4758748206196629,
                0.11998285714724799
            ]
        },
        {
            "positions": [
                2.239683567513058,
                -1.3560162855937359,
                -1.1835169646217372,
                0.6521739092684794,
                0.5011162709694092,
                0.2533693642940934
            ]
        },
        {
            "positions": [
                2.2573254417643116,
                -1.3405147794649261,
                -1.0468357560291557,
                0.5872819844745103,
                0.5263577213191556,
                0.3867558714409388
            ]
        },
        {
            "positions": [
                2.2749673160155646,
                -1.3250132733361162,
                -0.9101545474365742,
                0.5223900596805411,
                0.5515991716689019,
                0.5201423785877842
            ]
        },
        {
            "positions": [
                2.292609190266818,
                -1.3095117672073064,
                -0.7734733388439926,
                0.45749813488657193,
                0.5768406220186483,
                0.6535288857346296
            ]
        },
        {
            "positions": [
                2.310251064518071,
                -1.2940102610784967,
                -0.6367921302514111,
                0.39260621009260277,
                0.6020820723683946,
                0.786915392881475
            ]
        },
        {
            "positions": [
                2.3278929387693243,
                -1.2785087549496867,
                -0.5001109216588295,
                0.32771428529863356,
                0.6273235227181408,
                0.9203019000283206
            ]
        },
        {
            "positions": [
                2.3455348130205778,
                -1.263007248820877,
                -0.36342971306624827,
                0.26282236050466445,
                0.6525649730678872,
                1.0536884071751658
            ]
        },
        {
            "positions": [
                2.3631766872718307,
                -1.247505742692067,
                -0.22674850447366657,
                0.19793043571069524,
                0.6778064234176335,
                1.1870749143220114
            ]
        },
        {
            "positions": [
                2.380818561523084,
                -1.2320042365632573,
                -0.09006729588108509,
                0.13303851091672614,
                0.70304787376738,
                1.3204614214688566
            ]
        },
        {
            "positions": [
                2.398460435774337,
                -1.2165027304344473,
                0.0466139127114964,
                0.06814658612275704,
                0.7282893241171262,
                1.4538479286157022
            ]
        },
        {
            "positions": [
                2.4161023100255905,
                -1.2010012243056376,
                0.18329512130407788,
                0.0032546613287878223,
                0.7535307744668726,
                1.5872344357625474
            ]
        },
        {
            "positions": [
                2.433744184276844,
                -1.1854997181768279,
                0.31997632989665936,
                -0.06163726346518128,
                0.7787722248166189,
                1.7206209429093926
            ]
        },
        {
            "positions": [
                2.451386058528097,
                -1.169998212048018,
                0.45665753848924107,
                -0.1265291882591506,
                0.8040136751663652,
                1.8540074500562387
            ]
        },
        {
            "positions": [
                2.4690279327793503,
                -1.1544967059192082,
                0.5933387470818223,
                -0.1914211130531196,
                0.8292551255161116,
                1.9873939572030839
            ]
        },
        {
            "positions": [
                2.4866698070306033,
                -1.1389951997903982,
                0.7300199556744036,
                -0.2563130378470888,
                0.8544965758658578,
                2.120780464349929
            ]
        },
        {
            "positions": [
                2.5043116812818567,
                -1.1234936936615885,
                0.8667011642669853,
                -0.321204962641058,
                0.8797380262156043,
                2.2541669714967747
            ]
        },
        {
            "positions": [
                2.52195355553311,
                -1.1079921875327785,
                1.003382372859567,
                -0.38609688743502724,
                0.9049794765653505,
                2.38755347864362
            ]
        },
        {
            "positions": [
                2.539595429784363,
                -1.0924906814039688,
                1.1400635814521483,
                -0.4509888122289962,
                0.9302209269150968,
                2.520939985790465
            ]
        },
        {
            "positions": [
                2.5572373040356164,
                -1.076989175275159,
                1.27674479004473,
                -0.5158807370229654,
                0.9554623772648433,
                2.6543264929373107
            ]
        },
        {
            "positions": [
                2.5748791782868694,
                -1.061487669146349,
                1.4134259986373112,
                -0.5807726618169347,
                0.9807038276145895,
                2.787713000084156
            ]
        },
        {
            "positions": [
                2.592521052538123,
                -1.0459861630175393,
                1.550107207229893,
                -0.6456645866109036,
                1.0059452779643359,
                2.9210995072310015
            ]
        },
        {
            "positions": [
                2.610162926789376,
                -1.0304846568887294,
                1.6867884158224746,
                -0.7105565114048731,
                1.0311867283140823,
                3.054486014377847
            ]
        },
        {
            "positions": [
                2.627804801040629,
                -1.0149831507599196,
                1.823469624415056,
                -0.775448436198842,
                1.0564281786638285,
                3.1878725215246924
            ]
        }
    ]
}