{
    "goal": {
        "global_pose": {
            "orientation": {
                "w": 0.7047431468963623,
                "x": -0.7094548344612122,
                "y": 0.0024358443915843964,
                "z": -0.0022348060738295317
            },
            "position": {
                "x": 0.6094750761985779,
                "y": 0.3671506643295288,
                "z": 0.19426114857196808
            }
        },
        "name": "move_to_magneteinheit_A"
    },
    "id": "SPARStwo_move_to_magneteinheit_A_50",
    "joint_names": [
        "shoulder_pan_joint",
        "shoulder_lift_joint",
        "elbow_joint",
        "wrist_1_joint",
        "wrist_2_joint",
        "wrist_3_joint"
    ],
    "metrics": {
        "cart_traj_len": 3.455262556635284,
        "distance_elbow_joint": 3.8780149080247153,
        "distance_shoulder_lift_joint": 0.26683530915982234,
        "distance_shoulder_pan_joint": 2.917484645946607,
        "distance_wrist_1_joint": 1.9386685084513642,
        "distance_wrist_2_joint": 1.7476407962310525,
        "distance_wrist_3_joint": 2.590448251939112,
        "smoothness": 0.4346297811987137,
        "time": 5.0497163579999995,
        "traj_len": 3.652272226950324,
        "weighted_distance": 4.712355910615551
    },
    "planner": "SPARStwo",
    "start": {
        "state": {
            "elbow_joint": -1.9196185241190666,
            "shoulder_lift_joint": -1.2443396400964142,
            "shoulder_pan_joint": 2.6996025414629847,
            "wrist_1_joint": -1.5485510000780065,
            "wrist_2_joint": -1.5709468930060704,
            "wrist_3_joint": 0.4420197071253992
        }
    },
    "waypoints": [
        {
            "positions": [
                2.6996025414629847,
                -1.2443396400964142,
                -1.9196185241190666,
                -1.5485510000780065,
                -1.5709468930060704,
                0.4420197071253992
            ]
        },
        {
            "positions": [
                2.5978628859658643,
                -1.2459121045704917,
                -1.820264933893132,
                -1.4985931504544239,
                -1.5069385899507983,
                0.5108123386261212
            ]
        },
        {
            "positions": [
                2.4961232304687435,
                -1.2474845690445695,
                -1.7209113436671974,
                -1.448635300830841,
                -1.4429302868955263,
                0.5796049701268431
            ]
        },
        {
            "positions": [
                2.394383574971623,
                -1.249057033518647,
                -1.6215577534412629,
                -1.3986774512072584,
                -1.3789219838402542,
                0.648397601627565
            ]
        },
        {
            "positions": [
                2.2926439194745027,
                -1.2506294979927248,
                -1.5222041632153285,
                -1.3487196015836758,
                -1.3149136807849824,
                0.717190233128287
            ]
        },
        {
            "positions": [
                2.1909042639773824,
                -1.2522019624668024,
                -1.4228505729893939,
                -1.2987617519600931,
                -1.2509053777297103,
                0.785982864629009
            ]
        },
        {
            "positions": [
                2.089164608480262,
                -1.25377442694088,
                -1.3234969827634593,
                -1.2488039023365103,
                -1.1868970746744383,
                0.8547754961297309
            ]
        },
        {
            "positions": [
                1.9874249529831411,
                -1.2553468914149577,
                -1.2241433925375247,
                -1.1988460527129277,
                -1.1228887716191662,
                0.9235681276304528
            ]
        },
        {
            "positions": [
                1.8856852974860208,
                -1.2569193558890353,
                -1.1247898023115903,
                -1.148888203089345,
                -1.0588804685638942,
                0.9923607591311748
            ]
        },
        {
            "positions": [
                1.7839456419889004,
                -1.258491820363113,
                -1.0254362120856557,
                -1.0989303534657622,
                -0.9948721655086221,
                1.0611533906318966
            ]
        },
        {
            "positions": [
                1.6822059864917798,
                -1.2600642848371906,
                -0.926082621859721,
                -1.0489725038421795,
                -0.9308638624533502,
                1.1299460221326187
            ]
        },
        {
            "positions": [
                1.5804663309946594,
                -1.2616367493112681,
                -0.8267290316337865,
                -0.9990146542185969,
                -0.8668555593980781,
                1.1987386536333406
            ]
        },
        {
            "positions": [
                1.4787266754975388,
                -1.263209213785346,
                -0.7273754414078519,
                -0.9490568045950142,
                -0.8028472563428061,
                1.2675312851340625
            ]
        },
        {
            "positions": [
                1.3769870200004184,
                -1.2647816782594234,
                -0.6280218511819173,
                -0.8990989549714316,
                -0.738838953287534,
                1.3363239166347847
            ]
        },
        {
            "positions": [
                1.2752473645032978,
                -1.2663541427335012,
                -0.5286682609559827,
                -0.8491411053478488,
                -0.6748306502322621,
                1.4051165481355066
            ]
        },
        {
            "positions": [
                1.1735077090061772,
                -1.2679266072075788,
                -0.42931467073004814,
                -0.7991832557242661,
                -0.6108223471769899,
                1.4739091796362285
            ]
        },
        {
            "positions": [
                1.0717680535090568,
                -1.2694990716816565,
                -0.32996108050411377,
                -0.7492254061006834,
                -0.546814044121718,
                1.5427018111369506
            ]
        },
        {
            "positions": [
                0.9700283980119362,
                -1.271071536155734,
                -0.23060749027817895,
                -0.6992675564771007,
                -0.4828057410664459,
                1.6114944426376727
            ]
        },
        {
            "positions": [
                0.8682887425148158,
                -1.2726440006298116,
                -0.13125390005224458,
                -0.6493097068535181,
                -0.41879743801117386,
                1.6802870741383944
            ]
        },
        {
            "positions": [
                0.7665490870176952,
                -1.2742164651038894,
                -0.03190030982630998,
                -0.5993518572299353,
                -0.3547891349559018,
                1.7490797056391165
            ]
        },
        {
            "positions": [
                0.6648094315205748,
                -1.275788929577967,
                0.06745328039962462,
                -0.5493940076063527,
                -0.29078083190063,
                1.8178723371398382
            ]
        },
        {
            "positions": [
                0.563069776023454,
                -1.2773613940520447,
                0.16680687062555943,
                -0.49943615798276997,
                -0.2267725288453577,
                1.8866649686405603
            ]
        },
        {
            "positions": [
                0.46133012052633404,
                -1.2789338585261223,
                0.2661604608514936,
                -0.44947830835918734,
                -0.16276422579008587,
                1.955457600141282
            ]
        },
        {
            "positions": [
                0.3595904650292132,
                -1.2805063230001998,
                0.3655140510774282,
                -0.3995204587356045,
                -0.0987559227348136,
                2.024250231642004
            ]
        },
        {
            "positions": [
                0.25785080953209283,
                -1.2820787874742776,
                0.4648676413033628,
                -0.34956260911202186,
                -0.034747619679541764,
                2.0930428631427263
            ]
        },
        {
            "positions": [
                0.156111154034972,
                -1.2836512519483552,
                0.5642212315292974,
                -0.29960475948843923,
                0.02926068337573029,
                2.1618354946434484
            ]
        },
        {
            "positions": [
                0.05437149853785206,
                -1.285223716422433,
                0.663574821755232,
                -0.2496469098648566,
                0.09326898643100234,
                2.23062812614417
            ]
        },
        {
            "positions": [
                -0.04736815695926887,
                -1.2867961808965105,
                0.7629284119811666,
                -0.19968906024127386,
                0.15727728948627434,
                2.299420757644892
            ]
        },
        {
            "positions": [
                -0.026163448970471032,
                -1.2596572045964844,
                0.9256962682748301,
                -0.2784969282075158,
                0.15567082080764705,
                2.401968825077356
            ]
        },
        {
            "positions": [
                -0.004958740981673197,
                -1.2325182282964586,
                1.0884641245684936,
                -0.35730479617375777,
                0.15406435212901975,
                2.504516892509819
            ]
        },
        {
            "positions": [
                0.016245967007124634,
                -1.2053792519964326,
                1.2512319808621573,
                -0.4361126641399997,
                0.15245788345039246,
                2.607064959942283
            ]
        },
        {
            "positions": [
                0.03745067499592247,
                -1.1782402756964065,
                1.4139998371558207,
                -0.5149205321062418,
                0.15085141477176517,
                2.7096130273747465
            ]
        },
        {
            "positions": [
                0.05865538298472031,
                -1.1511012993963805,
                1.5767676934494843,
                -0.5937284000724837,
                0.14924494609313788,
                2.8121610948072098
            ]
        },
        {
            "positions": [
                0.07986009097351814,
                -1.1239623230963547,
                1.739535549743148,
                -0.6725362680387257,
                0.14763847741451058,
                2.9147091622396735
            ]
        },
        {
            "positions": [
                0.10106479896231597,
                -1.0968233467963286,
                1.9023034060368116,
                -0.7513441360049676,
                0.1460320087358833,
                3.017257229672137
            ]
        },
        {
            "positions": [
                0.12314579056508453,
                -1.1312292810558728,
                1.9583963839056484,
                -0.7131926431540295,
                0.1378606757475662,
                3.0324679590645114
            ]
        }
    ]
}