{
    "goal": {
        "global_pose": {
            "orientation": {
                "w": 0.5084816262002911,
                "x": -0.4908360881923452,
                "y": 0.5182115481033761,
                "z": -0.48164630358495003
            },
            "position": {
                "x": 0.5540239810943604,
                "y": -0.46912469901144505,
                "z": 0.16403168439865112
            }
        },
        "name": "move_to_storage_B"
    },
    "id": "SPARS_move_to_storage_B_21",
    "joint_names": [
        "shoulder_pan_joint",
        "shoulder_lift_joint",
        "elbow_joint",
        "wrist_1_joint",
        "wrist_2_joint",
        "wrist_3_joint"
    ],
    "metrics": {
        "cart_traj_len": 1.79898782692913,
        "distance_elbow_joint": 0.5597161108180289,
        "distance_shoulder_lift_joint": 1.760501084536086,
        "distance_shoulder_pan_joint": 1.2352159412658907,
        "distance_wrist_1_joint": 2.9966649576774156,
        "distance_wrist_2_joint": 2.7038168470585937,
        "distance_wrist_3_joint": 4.483012884338941,
        "smoothness": 0.29285778405427665,
        "time": 5.068545882,
        "traj_len": 3.706605971194531,
        "weighted_distance": 5.329674980625821
    },
    "planner": "SPARS",
    "start": {
        "state": {
            "elbow_joint": 1.664937868594044,
            "shoulder_lift_joint": -0.661644460510453,
            "shoulder_pan_joint": -0.9139846352900073,
            "wrist_1_joint": 2.146753192139373,
            "wrist_2_joint": -2.2341966793290973,
            "wrist_3_joint": 0.005466555786416001
        }
    },
    "waypoints": [
        {
            "positions": [
                -0.9139846352900073,
                -0.661644460510453,
                1.664937868594044,
                2.146753192139373,
                -2.2341966793290973,
                0.005466555786416001
            ]
        },
        {
            "positions": [
                -0.8660945299366912,
                -0.7625701665674579,
                1.7064307040727822,
                2.1114691047008445,
                -2.1588646995769736,
                0.06718544452024228
            ]
        },
        {
            "positions": [
                -0.8182044245833751,
                -0.8634958726244627,
                1.7479235395515205,
                2.0761850172623153,
                -2.0835327198248494,
                0.12890433325406855
            ]
        },
        {
            "positions": [
                -0.770314319230059,
                -0.9644215786814676,
                1.7894163750302587,
                2.0409009298237866,
                -2.0082007400727258,
                0.1906232219878948
            ]
        },
        {
            "positions": [
                -0.7224242138767429,
                -1.0653472847384724,
                1.830909210508997,
                2.005616842385258,
                -1.9328687603206016,
                0.2523421107217211
            ]
        },
        {
            "positions": [
                -0.6745341085234269,
                -1.1662729907954774,
                1.872402045987735,
                1.9703327549467289,
                -1.857536780568478,
                0.3140609994555474
            ]
        },
        {
            "positions": [
                -0.6266440031701108,
                -1.267198696852482,
                1.9138948814664734,
                1.9350486675082,
                -1.782204800816354,
                0.37577988818937363
            ]
        },
        {
            "positions": [
                -0.5787538978167946,
                -1.368124402909487,
                1.9553877169452116,
                1.8997645800696712,
                -1.70687282106423,
                0.4374987769231999
            ]
        },
        {
            "positions": [
                -0.5308637924634785,
                -1.469050108966492,
                1.99688055242395,
                1.8644804926311422,
                -1.631540841312106,
                0.4992176656570262
            ]
        },
        {
            "positions": [
                -0.4829736871101625,
                -1.5699758150234966,
                2.038373387902688,
                1.8291964051926133,
                -1.5562088615599823,
                0.5609365543908524
            ]
        },
        {
            "positions": [
                -0.4350835817568464,
                -1.6709015210805016,
                2.0798662233814262,
                1.7939123177540846,
                -1.4808768818078584,
                0.6226554431246787
            ]
        },
        {
            "positions": [
                -0.3871934764035303,
                -1.7718272271375064,
                2.1213590588601647,
                1.7586282303155556,
                -1.4055449020557345,
                0.6843743318585049
            ]
        },
        {
            "positions": [
                -0.41553046769870683,
                -1.7458144944211451,
                2.1172272620380883,
                1.6542866304814117,
                -1.3305382992643253,
                0.5322101275278308
            ]
        },
        {
            "positions": [
                -0.4438674589938834,
                -1.7198017617047838,
                2.113095465216012,
                1.5499450306472677,
                -1.255531696472916,
                0.38004592319715674
            ]
        },
        {
            "positions": [
                -0.47220445028905994,
                -1.6937890289884225,
                2.108963668393936,
                1.4456034308131238,
                -1.1805250936815068,
                0.22788171886648267
            ]
        },
        {
            "positions": [
                -0.5005414415842365,
                -1.6677762962720613,
                2.1048318715718595,
                1.3412618309789799,
                -1.1055184908900975,
                0.07571751453580855
            ]
        },
        {
            "positions": [
                -0.528878432879413,
                -1.6417635635557,
                2.100700074749783,
                1.2369202311448362,
                -1.0305118880986883,
                -0.07644668979486557
            ]
        },
        {
            "positions": [
                -0.5572154241745896,
                -1.6157508308393385,
                2.0965682779277066,
                1.1325786313106923,
                -0.9555052853072792,
                -0.2286108941255396
            ]
        },
        {
            "positions": [
                -0.5855524154697661,
                -1.5897380981229772,
                2.0924364811056306,
                1.028237031476548,
                -0.8804986825158699,
                -0.3807750984562137
            ]
        },
        {
            "positions": [
                -0.6138894067649426,
                -1.5637253654066159,
                2.088304684283554,
                0.9238954316424043,
                -0.8054920797244607,
                -0.5329393027868878
            ]
        },
        {
            "positions": [
                -0.6422263980601193,
                -1.5377126326902546,
                2.0841728874614778,
                0.8195538318082605,
                -0.7304854769330515,
                -0.6851035071175617
            ]
        },
        {
            "positions": [
                -0.6705633893552958,
                -1.5116998999738933,
                2.0800410906394013,
                0.7152122319741165,
                -0.6554788741416422,
                -0.8372677114482361
            ]
        },
        {
            "positions": [
                -0.6989003806504723,
                -1.485687167257532,
                2.0759092938173254,
                0.6108706321399726,
                -0.580472271350233,
                -0.98943191577891
            ]
        },
        {
            "positions": [
                -0.7272373719456489,
                -1.4596744345411707,
                2.071777496995249,
                0.5065290323058287,
                -0.5054656685588239,
                -1.1415961201095841
            ]
        },
        {
            "positions": [
                -0.7555743632408254,
                -1.4336617018248095,
                2.0676457001731725,
                0.40218743247168476,
                -0.43045906576741455,
                -1.2937603244402582
            ]
        },
        {
            "positions": [
                -0.7839113545360019,
                -1.4076489691084482,
                2.063513903351096,
                0.2978458326375406,
                -0.3554524629760054,
                -1.4459245287709324
            ]
        },
        {
            "positions": [
                -0.8122483458311784,
                -1.3816362363920869,
                2.05938210652902,
                0.1935042328033969,
                -0.2804458601845963,
                -1.5980887331016065
            ]
        },
        {
            "positions": [
                -0.840585337126355,
                -1.3556235036757256,
                2.0552503097069437,
                0.08916263296925298,
                -0.2054392573931869,
                -1.7502529374322806
            ]
        },
        {
            "positions": [
                -0.8689223284215316,
                -1.329610770959364,
                2.0511185128848672,
                -0.015178966864890953,
                -0.13043265460177755,
                -1.9024171417629547
            ]
        },
        {
            "positions": [
                -0.8972593197167081,
                -1.303598038243003,
                2.046986716062791,
                -0.11952056669903466,
                -0.05542605181036864,
                -2.054581346093628
            ]
        },
        {
            "positions": [
                -0.9255963110118847,
                -1.2775853055266415,
                2.042854919240715,
                -0.2238621665331788,
                0.019580550981040723,
                -2.206745550424303
            ]
        },
        {
            "positions": [
                -0.9539333023070612,
                -1.2515725728102804,
                2.0387231224186384,
                -0.3282037663673225,
                0.09458715377245008,
                -2.3589097547549773
            ]
        },
        {
            "positions": [
                -0.9822702936022377,
                -1.225559840093919,
                2.034591325596562,
                -0.43254536620146644,
                0.169593756563859,
                -2.5110739590856506
            ]
        },
        {
            "positions": [
                -1.0106072848974144,
                -1.1995471073775577,
                2.0304595287744855,
                -0.5368869660356104,
                0.24460035935526836,
                -2.6632381634163247
            ]
        },
        {
            "positions": [
                -1.0389442761925909,
                -1.1735343746611964,
                2.026327731952409,
                -0.6412285658697543,
                0.3196069621466777,
                -2.8154023677469997
            ]
        },
        {
            "positions": [
                -1.0672812674877674,
                -1.147521641944835,
                2.022195935130333,
                -0.7455701657038982,
                0.39461356493808664,
                -2.967566572077673
            ]
        },
        {
            "positions": [
                -1.095618258782944,
                -1.1215089092284738,
                2.0180641383082567,
                -0.8499117655380423,
                0.4696201677294959,
                -3.119730776408347
            ]
        }
    ]
}