{
    "goal": {
        "global_pose": {
            "orientation": {
                "w": -0.00223480608172531,
                "x": 0.0024358444001904467,
                "y": 0.7094548369677653,
                "z": -0.704743149386269
            },
            "position": {
                "x": -0.37947507619857795,
                "y": -0.6371506643295288,
                "z": 0.19426114857196808
            }
        },
        "name": "move_to_magneteinheit_C"
    },
    "id": "SPARS_move_to_magneteinheit_C_31",
    "joint_names": [
        "shoulder_pan_joint",
        "shoulder_lift_joint",
        "elbow_joint",
        "wrist_1_joint",
        "wrist_2_joint",
        "wrist_3_joint"
    ],
    "metrics": {
        "cart_traj_len": 1.1330384740280546,
        "distance_elbow_joint": 1.1279475569603648,
        "distance_shoulder_lift_joint": 0.25273665311095717,
        "distance_shoulder_pan_joint": 1.1921302599353816,
        "distance_wrist_1_joint": 3.696838231901978,
        "distance_wrist_2_joint": 2.084842244422221,
        "distance_wrist_3_joint": 2.9112285106014695,
        "smoothness": 0.8280633771321461,
        "time": 5.121790939,
        "traj_len": 3.356445062403431,
        "weighted_distance": 4.782244342822679
    },
    "planner": "SPARS",
    "start": {
        "state": {
            "elbow_joint": 1.9565354010623817,
            "shoulder_lift_joint": -1.4165861575791021,
            "shoulder_pan_joint": -1.6717766225146293,
            "wrist_1_joint": -0.5286633292919765,
            "wrist_2_joint": 1.472756589071564,
            "wrist_3_joint": -3.1238370188695823
        }
    },
    "waypoints": [
        {
            "positions": [
                -1.6717766225146293,
                -1.4165861575791021,
                1.9565354010623817,
                -0.5286633292919765,
                1.472756589071564,
                -3.1238370188695823
            ]
        },
        {
            "positions": [
                -1.7283173189500831,
                -1.4106206440584277,
                1.9228711002348546,
                -0.42217379831061713,
                1.3825554206884705,
                -3.033813533378539
            ]
        },
        {
            "positions": [
                -1.7848580153855371,
                -1.4046551305377533,
                1.8892067994073278,
                -0.3156842673292578,
                1.292354252305377,
                -2.943790047887496
            ]
        },
        {
            "positions": [
                -1.841398711820991,
                -1.3986896170170788,
                1.8555424985798008,
                -0.20919473634789842,
                1.2021530839222838,
                -2.8537665623964528
            ]
        },
        {
            "positions": [
                -1.8979394082564447,
                -1.3927241034964044,
                1.8218781977522738,
                -0.1027052053665391,
                1.1119519155391904,
                -2.76374307690541
            ]
        },
        {
            "positions": [
                -1.9544801046918985,
                -1.38675858997573,
                1.7882138969247467,
                0.0037843256148202276,
                1.021750747156097,
                -2.6737195914143665
            ]
        },
        {
            "positions": [
                -2.0110208011273523,
                -1.3807930764550556,
                1.75454959609722,
                0.11027385659617961,
                0.9315495787730036,
                -2.583696105923323
            ]
        },
        {
            "positions": [
                -2.0675614975628065,
                -1.3748275629343811,
                1.720885295269693,
                0.21676338757753888,
                0.8413484103899103,
                -2.4936726204322803
            ]
        },
        {
            "positions": [
                -2.1241021939982603,
                -1.3688620494137067,
                1.6872209944421659,
                0.32325291855889826,
                0.7511472420068168,
                -2.4036491349412374
            ]
        },
        {
            "positions": [
                -2.180642890433714,
                -1.3628965358930323,
                1.653556693614639,
                0.42974244954025764,
                0.6609460736237234,
                -2.313625649450194
            ]
        },
        {
            "positions": [
                -2.237183586869168,
                -1.3569310223723579,
                1.619892392787112,
                0.5362319805216169,
                0.57074490524063,
                -2.223602163959151
            ]
        },
        {
            "positions": [
                -2.2937242833046216,
                -1.3509655088516834,
                1.586228091959585,
                0.6427215115029763,
                0.4805437368575367,
                -2.133578678468108
            ]
        },
        {
            "positions": [
                -2.350264979740076,
                -1.344999995331009,
                1.5525637911320582,
                0.7492110424843357,
                0.39034256847444326,
                -2.0435551929770646
            ]
        },
        {
            "positions": [
                -2.406805676175529,
                -1.3390344818103346,
                1.5188994903045312,
                0.8557005734656951,
                0.3001414000913498,
                -1.9535317074860215
            ]
        },
        {
            "positions": [
                -2.4633463726109834,
                -1.3330689682896602,
                1.4852351894770042,
                0.9621901044470542,
                0.2099402317082566,
                -1.8635082219949783
            ]
        },
        {
            "positions": [
                -2.5198870690464372,
                -1.3271034547689857,
                1.4515708886494774,
                1.0686796354284136,
                0.11973906332516315,
                -1.7734847365039352
            ]
        },
        {
            "positions": [
                -2.576427765481891,
                -1.3211379412483113,
                1.4179065878219503,
                1.175169166409773,
                0.029537894942069612,
                -1.6834612510128921
            ]
        },
        {
            "positions": [
                -2.5995097779641325,
                -1.300312599552214,
                1.4619242856281767,
                1.0218385221086983,
                0.04495047566560137,
                -1.7896786535596119
            ]
        },
        {
            "positions": [
                -2.622591790446374,
                -1.2794872578561165,
                1.5059419834344032,
                0.8685078778076238,
                0.06036305638913312,
                -1.8958960561063316
            ]
        },
        {
            "positions": [
                -2.6456738029286155,
                -1.2586619161600192,
                1.5499596812406295,
                0.7151772335065492,
                0.07577563711266487,
                -2.002113458653051
            ]
        },
        {
            "positions": [
                -2.668755815410857,
                -1.237836574463922,
                1.5939773790468559,
                0.5618465892054746,
                0.09118821783619663,
                -2.108330861199771
            ]
        },
        {
            "positions": [
                -2.649240708706942,
                -1.2304378674643441,
                1.6353021742963587,
                0.4238782733058817,
                0.14918554057605665,
                -2.212929174455561
            ]
        },
        {
            "positions": [
                -2.629725602003026,
                -1.2230391604647666,
                1.6766269695458615,
                0.2859099574062887,
                0.20718286331591668,
                -2.317527487711351
            ]
        },
        {
            "positions": [
                -2.610210495299111,
                -1.2156404534651888,
                1.7179517647953642,
                0.1479416415066958,
                0.2651801860557767,
                -2.4221258009671414
            ]
        },
        {
            "positions": [
                -2.5906953885951953,
                -1.2082417464656112,
                1.759276560044867,
                0.009973325607102845,
                0.3231775087956367,
                -2.5267241142229313
            ]
        },
        {
            "positions": [
                -2.57118028189128,
                -1.2008430394660334,
                1.8006013552943698,
                -0.12799499029249006,
                0.38117483153549675,
                -2.6313224274787212
            ]
        },
        {
            "positions": [
                -2.551665175187365,
                -1.1934443324664556,
                1.8419261505438727,
                -0.26596330619208297,
                0.4391721542753568,
                -2.735920740734511
            ]
        },
        {
            "positions": [
                -2.5321500684834493,
                -1.186045625466878,
                1.8832509457933755,
                -0.4039316220916759,
                0.4971694770152168,
                -2.840519053990301
            ]
        },
        {
            "positions": [
                -2.512634961779534,
                -1.1786469184673003,
                1.924575741042878,
                -0.5418999379912689,
                0.5551667997550769,
                -2.9451173672460915
            ]
        },
        {
            "positions": [
                -2.4931198550756184,
                -1.1712482114677227,
                1.965900536292381,
                -0.6798682538908619,
                0.6131641224949369,
                -3.0497156805018815
            ]
        },
        {
            "positions": [
                -2.473604748371703,
                -1.163849504468145,
                2.0072253315418838,
                -0.8178365697904548,
                0.6711614452347968,
                -3.1543139937576714
            ]
        }
    ]
}