{
    "goal": {
        "global_pose": {
            "orientation": {
                "w": 0.7047431468963623,
                "x": -0.7094548344612122,
                "y": 0.0024358443915843964,
                "z": -0.0022348060738295317
            },
            "position": {
                "x": 0.6094750761985779,
                "y": 0.3671506643295288,
                "z": 0.19426114857196808
            }
        },
        "name": "move_to_magneteinheit_A"
    },
    "id": "SPARS_move_to_magneteinheit_A_16",
    "joint_names": [
        "shoulder_pan_joint",
        "shoulder_lift_joint",
        "elbow_joint",
        "wrist_1_joint",
        "wrist_2_joint",
        "wrist_3_joint"
    ],
    "metrics": {
        "cart_traj_len": 3.5324966140049097,
        "distance_elbow_joint": 3.877780503137612,
        "distance_shoulder_lift_joint": 0.18082066972273747,
        "distance_shoulder_pan_joint": 3.7676514147121543,
        "distance_wrist_1_joint": 2.4818159333007483,
        "distance_wrist_2_joint": 1.7030503079557533,
        "distance_wrist_3_joint": 2.580156954954807,
        "smoothness": 0.2645630599347344,
        "time": 5.039222457,
        "traj_len": 3.819852848446365,
        "weighted_distance": 4.892489748067944
    },
    "planner": "SPARS",
    "start": {
        "state": {
            "elbow_joint": -1.9196185241190666,
            "shoulder_lift_joint": -1.2443396400964142,
            "shoulder_pan_joint": 2.6996025414629847,
            "wrist_1_joint": -1.5485510000780065,
            "wrist_2_joint": -1.5709468930060704,
            "wrist_3_joint": 0.4420197071253992
        }
    },
    "waypoints": [
        {
            "positions": [
                2.6996025414629847,
                -1.2443396400964142,
                -1.9196185241190666,
                -1.5485510000780065,
                -1.5709468930060704,
                0.4420197071253992
            ]
        },
        {
            "positions": [
                2.582104444659414,
                -1.2456098341788426,
                -1.8049905425621602,
                -1.4870803003978217,
                -1.5294376146875694,
                0.49158639979611507
            ]
        },
        {
            "positions": [
                2.4646063478558426,
                -1.2468800282612713,
                -1.6903625610052535,
                -1.4256096007176366,
                -1.4879283363690683,
                0.5411530924668311
            ]
        },
        {
            "positions": [
                2.347108251052272,
                -1.2481502223436998,
                -1.575734579448347,
                -1.3641389010374518,
                -1.4464190580505674,
                0.590719785137547
            ]
        },
        {
            "positions": [
                2.229610154248701,
                -1.2494204164261284,
                -1.4611065978914404,
                -1.3026682013572668,
                -1.4049097797320662,
                0.6402864778082629
            ]
        },
        {
            "positions": [
                2.11211205744513,
                -1.250690610508557,
                -1.346478616334534,
                -1.241197501677082,
                -1.3634005014135653,
                0.6898531704789788
            ]
        },
        {
            "positions": [
                1.994613960641559,
                -1.2519608045909854,
                -1.2318506347776275,
                -1.179726801996897,
                -1.3218912230950643,
                0.7394198631496947
            ]
        },
        {
            "positions": [
                1.8771158638379881,
                -1.253230998673414,
                -1.1172226532207208,
                -1.1182561023167121,
                -1.2803819447765632,
                0.7889865558204107
            ]
        },
        {
            "positions": [
                1.759617767034417,
                -1.2545011927558425,
                -1.002594671663814,
                -1.056785402636527,
                -1.2388726664580623,
                0.8385532484911266
            ]
        },
        {
            "positions": [
                1.642119670230846,
                -1.2557713868382712,
                -0.8879666901069077,
                -0.9953147029563423,
                -1.1973633881395611,
                0.8881199411618426
            ]
        },
        {
            "positions": [
                1.5246215734272752,
                -1.2570415809206996,
                -0.7733387085500012,
                -0.9338440032761574,
                -1.1558541098210602,
                0.9376866338325585
            ]
        },
        {
            "positions": [
                1.4071234766237042,
                -1.258311775003128,
                -0.6587107269930945,
                -0.8723733035959724,
                -1.1143448315025593,
                0.9872533265032744
            ]
        },
        {
            "positions": [
                1.2896253798201331,
                -1.2595819690855568,
                -0.5440827454361881,
                -0.8109026039157875,
                -1.072835553184058,
                1.0368200191739902
            ]
        },
        {
            "positions": [
                1.1721272830165623,
                -1.2608521631679852,
                -0.4294547638792816,
                -0.7494319042356026,
                -1.0313262748655572,
                1.0863867118447064
            ]
        },
        {
            "positions": [
                1.0546291862129913,
                -1.2621223572504139,
                -0.31482678232237493,
                -0.6879612045554176,
                -0.9898169965470561,
                1.1359534045154223
            ]
        },
        {
            "positions": [
                0.9371310894094202,
                -1.2633925513328423,
                -0.20019880076546825,
                -0.6264905048752326,
                -0.9483077182285551,
                1.1855200971861382
            ]
        },
        {
            "positions": [
                0.8196329926058494,
                -1.264662745415271,
                -0.0855708192085618,
                -0.5650198051950478,
                -0.906798439910054,
                1.235086789856854
            ]
        },
        {
            "positions": [
                0.7021348958022782,
                -1.2659329394976995,
                0.029057162348344878,
                -0.5035491055148629,
                -0.865289161591553,
                1.28465348252757
            ]
        },
        {
            "positions": [
                0.5846367989987074,
                -1.267203133580128,
                0.14368514390525133,
                -0.44207840583467806,
                -0.8237798832730521,
                1.3342201751982858
            ]
        },
        {
            "positions": [
                0.46713870219513653,
                -1.2684733276625566,
                0.2583131254621578,
                -0.380607706154493,
                -0.7822706049545509,
                1.3837868678690017
            ]
        },
        {
            "positions": [
                0.3496406053915657,
                -1.269743521744985,
                0.37294110701906424,
                -0.3191370064743082,
                -0.74076132663605,
                1.4333535605397176
            ]
        },
        {
            "positions": [
                0.23214250858799446,
                -1.2710137158274137,
                0.48756908857597114,
                -0.25766630679412317,
                -0.699252048317549,
                1.4829202532104335
            ]
        },
        {
            "positions": [
                0.11464441178442364,
                -1.2722839099098422,
                0.6021970701328776,
                -0.19619560711393835,
                -0.657742769999048,
                1.5324869458811494
            ]
        },
        {
            "positions": [
                -0.0028536850191476226,
                -1.2735541039922706,
                0.716825051689784,
                -0.13472490743375332,
                -0.6162334916805469,
                1.5820536385518653
            ]
        },
        {
            "positions": [
                -0.12035178182271844,
                -1.2748242980746993,
                0.8314530332466905,
                -0.0732542077535685,
                -0.5747242133620459,
                1.6316203312225812
            ]
        },
        {
            "positions": [
                -0.23784987862628926,
                -1.2760944921571278,
                0.9460810148035974,
                -0.011783508073383464,
                -0.5332149350435449,
                1.6811870238932975
            ]
        },
        {
            "positions": [
                -0.3553479754298601,
                -1.2773646862395565,
                1.0607089963605034,
                0.04968719160680135,
                -0.49170565672504396,
                1.7307537165640134
            ]
        },
        {
            "positions": [
                -0.4728460722334312,
                -1.278634880321985,
                1.1753369779174103,
                0.11115789128698644,
                -0.4501963784065429,
                1.7803204092347293
            ]
        },
        {
            "positions": [
                -0.41873672668654605,
                -1.2653143867313335,
                1.2465028871084225,
                0.03642088747464499,
                -0.397260033555977,
                1.8932164322206817
            ]
        },
        {
            "positions": [
                -0.3646273811396609,
                -1.2519938931406818,
                1.317668796299435,
                -0.038316116337696465,
                -0.3443236887054111,
                2.006112455206634
            ]
        },
        {
            "positions": [
                -0.3105180355927758,
                -1.2386733995500303,
                1.388834705490447,
                -0.11305312015003788,
                -0.2913873438548451,
                2.119008478192587
            ]
        },
        {
            "positions": [
                -0.2564086900458906,
                -1.2253529059593788,
                1.4600006146814595,
                -0.18779012396237937,
                -0.23845099900427918,
                2.2319045011785392
            ]
        },
        {
            "positions": [
                -0.20229934449900544,
                -1.2120324123687274,
                1.5311665238724717,
                -0.26252712777472076,
                -0.18551465415371327,
                2.3448005241644916
            ]
        },
        {
            "positions": [
                -0.14818999895212032,
                -1.1987119187780757,
                1.6023324330634838,
                -0.3372641315870622,
                -0.13257830930314735,
                2.457696547150444
            ]
        },
        {
            "positions": [
                -0.09408065340523514,
                -1.1853914251874242,
                1.6734983422544962,
                -0.4120011353994037,
                -0.07964196445258137,
                2.5705925701363963
            ]
        },
        {
            "positions": [
                -0.03997130785834996,
                -1.1720709315967728,
                1.7446642514455084,
                -0.4867381392117452,
                -0.02670561960201545,
                2.683488593122349
            ]
        },
        {
            "positions": [
                0.014138037688535221,
                -1.158750438006121,
                1.8158301606365206,
                -0.5614751430240865,
                0.026230725248550524,
                2.7963846161083015
            ]
        },
        {
            "positions": [
                0.06824738323542034,
                -1.1454299444154696,
                1.886996069827533,
                -0.6362121468364279,
                0.07916707009911639,
                2.909280639094254
            ]
        },
        {
            "positions": [
                0.12235672878230557,
                -1.1321094508248182,
                1.9581619790185452,
                -0.7109491506487694,
                0.1321034149496823,
                3.022176662080206
            ]
        }
    ]
}