{
    "goal": {
        "global_pose": {
            "orientation": {
                "w": -0.4816463035849501,
                "x": 0.5182115481033762,
                "y": 0.4908360881923453,
                "z": -0.5084816262002911
            },
            "position": {
                "x": -0.8240239810943604,
                "y": 0.19912469901144506,
                "z": 0.16403168439865112
            }
        },
        "name": "move_to_storage_D"
    },
    "id": "SPARS_move_to_storage_D_91",
    "joint_names": [
        "shoulder_pan_joint",
        "shoulder_lift_joint",
        "elbow_joint",
        "wrist_1_joint",
        "wrist_2_joint",
        "wrist_3_joint"
    ],
    "metrics": {
        "cart_traj_len": 3.7161046357069227,
        "distance_elbow_joint": 4.212888628991836,
        "distance_shoulder_lift_joint": 1.263761764500795,
        "distance_shoulder_pan_joint": 2.811730512912032,
        "distance_wrist_1_joint": 2.283637223078,
        "distance_wrist_2_joint": 1.046523572436456,
        "distance_wrist_3_joint": 3.127453609995449,
        "smoothness": 0.008202106412256415,
        "time": 5.0321431709999995,
        "traj_len": 3.840051472560566,
        "weighted_distance": 4.932652767773131
    },
    "planner": "SPARS",
    "start": {
        "state": {
            "elbow_joint": -2.384821988534728,
            "shoulder_lift_joint": -2.2788054721415256,
            "shoulder_pan_joint": -0.1854694642142757,
            "wrist_1_joint": 1.4845938289331202,
            "wrist_2_joint": 0.17898776772866878,
            "wrist_3_joint": 0.037105688729662994
        }
    },
    "waypoints": [
        {
            "positions": [
                -0.1854694642142757,
                -2.2788054721415256,
                -2.384821988534728,
                1.4845938289331202,
                0.17898776772866878,
                0.037105688729662994
            ]
        },
        {
            "positions": [
                -0.06350663404255281,
                -2.2433226385067435,
                -2.2803968449052507,
                1.447049714664589,
                0.1751248239594104,
                -0.040678996023335745
            ]
        },
        {
            "positions": [
                0.05845619612917008,
                -2.207839804871961,
                -2.175971701275773,
                1.409505600396058,
                0.171261880190152,
                -0.11846368077633448
            ]
        },
        {
            "positions": [
                0.180419026300893,
                -2.172356971237179,
                -2.071546557646296,
                1.3719614861275269,
                0.16739893642089362,
                -0.1962483655293332
            ]
        },
        {
            "positions": [
                0.30238185647261584,
                -2.1368741376023963,
                -1.9671214140168187,
                1.3344173718589958,
                0.16353599265163526,
                -0.27403305028233194
            ]
        },
        {
            "positions": [
                0.4243446866443388,
                -2.101391303967614,
                -1.8626962703873413,
                1.2968732575904647,
                0.15967304888237688,
                -0.35181773503533065
            ]
        },
        {
            "positions": [
                0.5463075168160617,
                -2.0659084703328316,
                -1.758271126757864,
                1.2593291433219336,
                0.1558101051131185,
                -0.42960241978832936
            ]
        },
        {
            "positions": [
                0.6682703469877846,
                -2.0304256366980495,
                -1.6538459831283867,
                1.2217850290534022,
                0.1519471613438601,
                -0.5073871045413282
            ]
        },
        {
            "positions": [
                0.7902331771595075,
                -1.9949428030632672,
                -1.5494208394989093,
                1.1842409147848711,
                0.14808421757460172,
                -0.5851717892943269
            ]
        },
        {
            "positions": [
                0.9121960073312304,
                -1.9594599694284849,
                -1.4449956958694319,
                1.14669680051634,
                0.14422127380534333,
                -0.6629564740473256
            ]
        },
        {
            "positions": [
                1.0341588375029531,
                -1.9239771357937026,
                -1.3405705522399547,
                1.109152686247809,
                0.14035833003608494,
                -0.7407411588003243
            ]
        },
        {
            "positions": [
                1.1561216676746762,
                -1.8884943021589202,
                -1.2361454086104773,
                1.0716085719792778,
                0.13649538626682656,
                -0.8185258435533231
            ]
        },
        {
            "positions": [
                1.278084497846399,
                -1.8530114685241381,
                -1.131720264981,
                1.0340644577107467,
                0.13263244249756817,
                -0.8963105283063217
            ]
        },
        {
            "positions": [
                1.4000473280181218,
                -1.8175286348893558,
                -1.027295121351523,
                0.9965203434422156,
                0.1287694987283098,
                -0.9740952130593206
            ]
        },
        {
            "positions": [
                1.5220101581898449,
                -1.7820458012545735,
                -0.9228699777220453,
                0.9589762291736844,
                0.12490655495905142,
                -1.0518798978123194
            ]
        },
        {
            "positions": [
                1.6439729883615677,
                -1.7465629676197911,
                -0.8184448340925681,
                0.9214321149051533,
                0.12104361118979304,
                -1.129664582565318
            ]
        },
        {
            "positions": [
                1.7659358185332905,
                -1.7110801339850088,
                -0.7140196904630907,
                0.8838880006366222,
                0.11718066742053465,
                -1.2074492673183168
            ]
        },
        {
            "positions": [
                1.8878986487050136,
                -1.6755973003502267,
                -0.6095945468336135,
                0.8463438863680911,
                0.11331772365127628,
                -1.2852339520713154
            ]
        },
        {
            "positions": [
                2.0098614788767364,
                -1.6401144667154441,
                -0.5051694032041361,
                0.80879977209956,
                0.10945477988201788,
                -1.3630186368243142
            ]
        },
        {
            "positions": [
                2.131824309048459,
                -1.604631633080662,
                -0.40074425957465865,
                0.7712556578310289,
                0.1055918361127595,
                -1.440803321577313
            ]
        },
        {
            "positions": [
                2.253787139220182,
                -1.5691487994458795,
                -0.29631911594518145,
                0.7337115435624978,
                0.10172889234350112,
                -1.5185880063303117
            ]
        },
        {
            "positions": [
                2.375749969391905,
                -1.5336659658110974,
                -0.19189397231570426,
                0.6961674292939667,
                0.09786594857424274,
                -1.5963726910833103
            ]
        },
        {
            "positions": [
                2.497712799563628,
                -1.498183132176315,
                -0.08746882868622663,
                0.6586233150254355,
                0.09400300480498436,
                -1.6741573758363093
            ]
        },
        {
            "positions": [
                2.619675629735351,
                -1.4627002985415327,
                0.0169563149432507,
                0.6210792007569044,
                0.09014006103572597,
                -1.751942060589308
            ]
        },
        {
            "positions": [
                2.620087218420501,
                -1.4347217616102326,
                0.1301507102878668,
                0.5323215385755428,
                0.14999480264469556,
                -1.8355924268815877
            ]
        },
        {
            "positions": [
                2.6204988071056516,
                -1.4067432246789324,
                0.2433451056324829,
                0.44356387639418116,
                0.20984954425366514,
                -1.9192427931738676
            ]
        },
        {
            "positions": [
                2.6209103957908018,
                -1.3787646877476323,
                0.35653950097709897,
                0.35480621421281955,
                0.26970428586263473,
                -2.0028931594661477
            ]
        },
        {
            "positions": [
                2.6213219844759523,
                -1.3507861508163321,
                0.46973389632171514,
                0.26604855203145794,
                0.3295590274716043,
                -2.0865435257584273
            ]
        },
        {
            "positions": [
                2.6217335731611024,
                -1.322807613885032,
                0.5829282916663312,
                0.17729088985009633,
                0.3894137690805739,
                -2.1701938920507073
            ]
        },
        {
            "positions": [
                2.622145161846253,
                -1.2948290769537318,
                0.6961226870109473,
                0.08853322766873473,
                0.4492685106895435,
                -2.253844258342987
            ]
        },
        {
            "positions": [
                2.622556750531403,
                -1.266850540022432,
                0.8093170823555634,
                -0.00022443451262688097,
                0.5091232522985131,
                -2.337494624635267
            ]
        },
        {
            "positions": [
                2.6229683392165537,
                -1.2388720030911315,
                0.9225114777001795,
                -0.08898209669398849,
                0.5689779939074826,
                -2.421144990927547
            ]
        },
        {
            "positions": [
                2.623379927901704,
                -1.2108934661598316,
                1.0357058730447957,
                -0.1777397588753501,
                0.6288327355164522,
                -2.5047953572198267
            ]
        },
        {
            "positions": [
                2.623791516586854,
                -1.1829149292285313,
                1.1489002683894118,
                -0.2664974210567117,
                0.6886874771254219,
                -2.5884457235121063
            ]
        },
        {
            "positions": [
                2.6242031052720045,
                -1.1549363922972313,
                1.262094663734028,
                -0.3552550832380733,
                0.7485422187343913,
                -2.6720960898043864
            ]
        },
        {
            "positions": [
                2.6246146939571546,
                -1.1269578553659312,
                1.375289059078644,
                -0.4440127454194349,
                0.808396960343361,
                -2.7557464560966665
            ]
        },
        {
            "positions": [
                2.625026282642305,
                -1.098979318434631,
                1.4884834544232601,
                -0.5327704076007964,
                0.8682517019523306,
                -2.839396822388946
            ]
        },
        {
            "positions": [
                2.6254378713274553,
                -1.071000781503331,
                1.6016778497678763,
                -0.6215280697821581,
                0.9281064435613002,
                -2.923047188681226
            ]
        },
        {
            "positions": [
                2.625849460012606,
                -1.0430222445720307,
                1.7148722451124923,
                -0.7102857319635199,
                0.9879611851702697,
                -3.006697554973506
            ]
        },
        {
            "positions": [
                2.626261048697756,
                -1.0150437076407306,
                1.8280666404571084,
                -0.7990433941448812,
                1.0478159267792393,
                -3.090347921265786
            ]
        }
    ]
}