{
    "goal": {
        "global_pose": {
            "orientation": {
                "w": 0.7031023502349854,
                "x": -0.7110244035720825,
                "y": 0.007748599164187908,
                "z": 0.005598929710686207
            },
            "position": {
                "x": 0.11585023208521307,
                "y": 0.44412534475326537,
                "z": 0.3711530566215515
            }
        },
        "name": "move_to_auspresseinheit_A"
    },
    "id": "SPARS_move_to_auspresseinheit_A_13",
    "joint_names": [
        "shoulder_pan_joint",
        "shoulder_lift_joint",
        "elbow_joint",
        "wrist_1_joint",
        "wrist_2_joint",
        "wrist_3_joint"
    ],
    "metrics": {
        "cart_traj_len": 0.8099861556727824,
        "distance_elbow_joint": 0.35622627667542117,
        "distance_shoulder_lift_joint": 0.7314477685442082,
        "distance_shoulder_pan_joint": 1.0449960344358478,
        "distance_wrist_1_joint": 2.184374707018529,
        "distance_wrist_2_joint": 1.8725165574391767,
        "distance_wrist_3_joint": 0.3554839820546092,
        "smoothness": 1.2185616164753927,
        "time": 5.078942153,
        "traj_len": 2.558328619659287,
        "weighted_distance": 3.363466151863984
    },
    "planner": "SPARS",
    "start": {
        "state": {
            "elbow_joint": 2.4225746658250005,
            "shoulder_lift_joint": -1.3736534386056498,
            "shoulder_pan_joint": -0.3378633547517467,
            "wrist_1_joint": -1.0288598680537169,
            "wrist_2_joint": 1.233022673432363,
            "wrist_3_joint": -3.0940220416140027
        }
    },
    "waypoints": [
        {
            "positions": [
                -0.3378633547517467,
                -1.3736534386056498,
                2.4225746658250005,
                -1.0288598680537169,
                1.233022673432363,
                -3.0940220416140027
            ]
        },
        {
            "positions": [
                -0.33324921893437964,
                -1.4368783294819027,
                2.4031942443690477,
                -0.8913834220580918,
                1.1130903280107123,
                -3.0780979827061072
            ]
        },
        {
            "positions": [
                -0.3286350831170126,
                -1.500103220358156,
                2.383813822913095,
                -0.7539069760624668,
                0.9931579825890615,
                -3.0621739237982117
            ]
        },
        {
            "positions": [
                -0.32402094729964553,
                -1.563328111234409,
                2.364433401457142,
                -0.616430530066842,
                0.8732256371674108,
                -3.046249864890316
            ]
        },
        {
            "positions": [
                -0.31940681148227845,
                -1.626553002110662,
                2.3450529800011894,
                -0.47895408407121687,
                0.75329329174576,
                -3.0303258059824203
            ]
        },
        {
            "positions": [
                -0.3147926756649114,
                -1.689777892986915,
                2.3256725585452367,
                -0.34147763807559195,
                0.6333609463241092,
                -3.014401747074525
            ]
        },
        {
            "positions": [
                -0.31017853984754434,
                -1.753002783863168,
                2.3062921370892835,
                -0.20400119207996703,
                0.5134286009024585,
                -2.9984776881666293
            ]
        },
        {
            "positions": [
                -0.30556440403017726,
                -1.816227674739421,
                2.2869117156333307,
                -0.066524746084342,
                0.3934962554808077,
                -2.982553629258734
            ]
        },
        {
            "positions": [
                -0.3009502682128102,
                -1.8794525656156742,
                2.267531294177378,
                0.07095169991128314,
                0.2735639100591569,
                -2.966629570350838
            ]
        },
        {
            "positions": [
                -0.29633613239544315,
                -1.9426774564919271,
                2.248150872721425,
                0.20842814590690795,
                0.15363156463750616,
                -2.9507055114429424
            ]
        },
        {
            "positions": [
                -0.29172199657807607,
                -2.0059023473681803,
                2.2287704512654725,
                0.34590459190253303,
                0.03369921921585542,
                -2.934781452535047
            ]
        },
        {
            "positions": [
                -0.16686516204530394,
                -1.9935024898954705,
                2.249073209029959,
                0.24470331101974813,
                0.11784835711868907,
                -2.9593118766570035
            ]
        },
        {
            "positions": [
                -0.04200832751253181,
                -1.9811026324227607,
                2.2693759667944455,
                0.1435020301369632,
                0.20199749502152273,
                -2.98384230077896
            ]
        },
        {
            "positions": [
                0.08284850702024033,
                -1.9687027749500512,
                2.2896787245589323,
                0.04230074925417826,
                0.2861466329243564,
                -3.0083727249009167
            ]
        },
        {
            "positions": [
                0.20770534155301246,
                -1.9563029174773414,
                2.309981482323419,
                -0.058900531628606645,
                0.37029577082719,
                -3.0329031490228733
            ]
        },
        {
            "positions": [
                0.33256217608578453,
                -1.9439030600046316,
                2.330284240087906,
                -0.1601018125113916,
                0.45444490873002363,
                -3.0574335731448303
            ]
        },
        {
            "positions": [
                0.4574190106185567,
                -1.931503202531922,
                2.3505869978523926,
                -0.2613030933941765,
                0.5385940466328574,
                -3.081963997266787
            ]
        },
        {
            "positions": [
                0.5822758451513289,
                -1.9191033450592123,
                2.370889755616879,
                -0.3625043742769614,
                0.622743184535691,
                -3.1064944213887435
            ]
        },
        {
            "positions": [
                0.707132679684101,
                -1.9067034875865025,
                2.3911925133813656,
                -0.4637056551597463,
                0.7068923224385246,
                -3.1310248455107
            ]
        }
    ]
}