{
    "goal": {
        "global_pose": {
            "orientation": {
                "w": 0.7047431493862688,
                "x": -0.7094548369677653,
                "y": 0.0024358444001904,
                "z": -0.0022348060817251984
            },
            "position": {
                "x": -0.39052492380142206,
                "y": 0.3671506643295288,
                "z": 0.19426114857196808
            }
        },
        "name": "move_to_magneteinheit_D"
    },
    "id": "SPARS_move_to_magneteinheit_D_27",
    "joint_names": [
        "shoulder_pan_joint",
        "shoulder_lift_joint",
        "elbow_joint",
        "wrist_1_joint",
        "wrist_2_joint",
        "wrist_3_joint"
    ],
    "metrics": {
        "cart_traj_len": 3.7895477345481825,
        "distance_elbow_joint": 3.1237658521137885,
        "distance_shoulder_lift_joint": 1.6332974298616325,
        "distance_shoulder_pan_joint": 2.819661888427968,
        "distance_wrist_1_joint": 1.9707860349555715,
        "distance_wrist_2_joint": 2.0349108851353015,
        "distance_wrist_3_joint": 3.3826599554952175,
        "smoothness": 0.25197831040297447,
        "time": 5.070455056,
        "traj_len": 3.868472831233209,
        "weighted_distance": 5.073075879293627
    },
    "planner": "SPARS",
    "start": {
        "state": {
            "elbow_joint": 0.749534889911806,
            "shoulder_lift_joint": -0.6476975780787326,
            "shoulder_pan_joint": -2.711696901376241,
            "wrist_1_joint": -0.07506478083263063,
            "wrist_2_joint": 0.43296659715538205,
            "wrist_3_joint": -3.14703540197715
        }
    },
    "waypoints": [
        {
            "positions": [
                -2.711696901376241,
                -0.6476975780787326,
                0.749534889911806,
                -0.07506478083263063,
                0.43296659715538205,
                -3.14703540197715
            ]
        },
        {
            "positions": [
                -2.7006930085948806,
                -0.6634190683743869,
                0.7468089929897526,
                0.028833635827090795,
                0.32059250622957663,
                -3.0250791663867203
            ]
        },
        {
            "positions": [
                -2.68968911581352,
                -0.6791405586700412,
                0.7440830960676991,
                0.13273205248681222,
                0.20821841530377122,
                -2.90312293079629
            ]
        },
        {
            "positions": [
                -2.67868522303216,
                -0.6948620489656955,
                0.7413571991456457,
                0.23663046914653363,
                0.0958443243779658,
                -2.78116669520586
            ]
        },
        {
            "positions": [
                -2.6676813302507996,
                -0.7105835392613498,
                0.7386313022235922,
                0.34052888580625507,
                -0.01652976654783961,
                -2.65921045961543
            ]
        },
        {
            "positions": [
                -2.656677437469439,
                -0.7263050295570042,
                0.7359054053015388,
                0.44442730246597645,
                -0.12890385747364502,
                -2.5372542240250002
            ]
        },
        {
            "positions": [
                -2.6456735446880786,
                -0.7420265198526584,
                0.7331795083794854,
                0.5483257191256978,
                -0.24127794839945044,
                -2.41529798843457
            ]
        },
        {
            "positions": [
                -2.634669651906718,
                -0.7577480101483127,
                0.7304536114574319,
                0.6522241357854193,
                -0.35365203932525585,
                -2.2933417528441398
            ]
        },
        {
            "positions": [
                -2.623665759125358,
                -0.773469500443967,
                0.7277277145353785,
                0.7561225524451407,
                -0.46602613025106127,
                -2.17138551725371
            ]
        },
        {
            "positions": [
                -2.6126618663439976,
                -0.7891909907396213,
                0.725001817613325,
                0.8600209691048621,
                -0.5784002211768668,
                -2.04942928166328
            ]
        },
        {
            "positions": [
                -2.601657973562637,
                -0.8049124810352756,
                0.7222759206912717,
                0.9639193857645835,
                -0.6907743121026722,
                -1.92747304607285
            ]
        },
        {
            "positions": [
                -2.4915187598224793,
                -0.8461661184568577,
                0.6299859402102056,
                0.9977600309948649,
                -0.6702377655848373,
                -1.8387600980868992
            ]
        },
        {
            "positions": [
                -2.381379546082322,
                -0.88741975587844,
                0.5376959597291395,
                1.0316006762251462,
                -0.6497012190670023,
                -1.7500471501009485
            ]
        },
        {
            "positions": [
                -2.271240332342164,
                -0.9286733933000222,
                0.4454059792480735,
                1.0654413214554275,
                -0.6291646725491674,
                -1.661334202114998
            ]
        },
        {
            "positions": [
                -2.1611011186020064,
                -0.9699270307216044,
                0.35311599876700744,
                1.099281966685709,
                -0.6086281260313324,
                -1.5726212541290472
            ]
        },
        {
            "positions": [
                -2.050961904861849,
                -1.0111806681431865,
                0.2608260182859414,
                1.1331226119159903,
                -0.5880915795134976,
                -1.4839083061430964
            ]
        },
        {
            "positions": [
                -1.9408226911216913,
                -1.0524343055647687,
                0.16853603780487536,
                1.1669632571462716,
                -0.5675550329956626,
                -1.395195358157146
            ]
        },
        {
            "positions": [
                -1.8306834773815337,
                -1.0936879429863509,
                0.07624605732380929,
                1.200803902376553,
                -0.5470184864778277,
                -1.3064824101711952
            ]
        },
        {
            "positions": [
                -1.7205442636413761,
                -1.1349415804079332,
                -0.01604392315725678,
                1.2346445476068344,
                -0.5264819399599927,
                -1.2177694621852444
            ]
        },
        {
            "positions": [
                -1.6104050499012184,
                -1.1761952178295154,
                -0.10833390363832296,
                1.2684851928371157,
                -0.5059453934421578,
                -1.1290565141992936
            ]
        },
        {
            "positions": [
                -1.5002658361610608,
                -1.2174488552510976,
                -0.20062388411938892,
                1.302325838067397,
                -0.4854088469243229,
                -1.040343566213343
            ]
        },
        {
            "positions": [
                -1.3901266224209032,
                -1.2587024926726798,
                -0.292913864600455,
                1.3361664832976785,
                -0.46487230040648797,
                -0.9516306182273921
            ]
        },
        {
            "positions": [
                -1.2799874086807457,
                -1.299956130094262,
                -0.38520384508152095,
                1.3700071285279598,
                -0.4443357538886531,
                -0.8629176702414416
            ]
        },
        {
            "positions": [
                -1.169848194940588,
                -1.341209767515844,
                -0.4774938255625871,
                1.4038477737582413,
                -0.4237992073708181,
                -0.7742047222554906
            ]
        },
        {
            "positions": [
                -1.0597089812004303,
                -1.3824634049374263,
                -0.5697838060436531,
                1.4376884189885226,
                -0.4032626608529832,
                -0.6854917742695401
            ]
        },
        {
            "positions": [
                -0.9495697674602728,
                -1.4237170423590084,
                -0.662073786524719,
                1.471529064218804,
                -0.3827261143351483,
                -0.5967788262835894
            ]
        },
        {
            "positions": [
                -0.839430553720115,
                -1.4649706797805906,
                -0.7543637670057852,
                1.5053697094490852,
                -0.3621895678173133,
                -0.5080658782976386
            ]
        },
        {
            "positions": [
                -0.7292913399799577,
                -1.506224317202173,
                -0.8466537474868514,
                1.5392103546793665,
                -0.34165302129947844,
                -0.41935293031168785
            ]
        },
        {
            "positions": [
                -0.6191521262397999,
                -1.5474779546237551,
                -0.9389437279679176,
                1.573050999909648,
                -0.32111647478164346,
                -0.3306399823257371
            ]
        },
        {
            "positions": [
                -0.5090129124996423,
                -1.5887315920453373,
                -1.0312337084489835,
                1.6068916451399293,
                -0.3005799282638086,
                -0.24192703433978635
            ]
        },
        {
            "positions": [
                -0.39887369875948453,
                -1.6299852294669193,
                -1.1235236889300495,
                1.6407322903702108,
                -0.28004338174597365,
                -0.15321408635383582
            ]
        },
        {
            "positions": [
                -0.28873448501932675,
                -1.6712388668885017,
                -1.2158136694111157,
                1.6745729356004921,
                -0.2595068352281387,
                -0.06450113836788485
            ]
        },
        {
            "positions": [
                -0.17859527127916924,
                -1.7124925043100838,
                -1.3081036498921814,
                1.7084135808307734,
                -0.23897028871030382,
                0.024211809618065655
            ]
        },
        {
            "positions": [
                -0.12687929767697312,
                -1.7557486963203184,
                -1.410839940383036,
                1.6847342187471983,
                -0.1916761483814119,
                -0.003467384207489821
            ]
        },
        {
            "positions": [
                -0.075163324074777,
                -1.7990048883305532,
                -1.5135762308738905,
                1.6610548566636232,
                -0.14438200805251994,
                -0.031146578033045297
            ]
        },
        {
            "positions": [
                -0.06805321185779817,
                -1.882534212062496,
                -1.6836851597340308,
                1.637080581072673,
                -0.07519413413806429,
                -0.044168822833651256
            ]
        },
        {
            "positions": [
                -0.06094309964081933,
                -1.9660635357944387,
                -1.853794088594171,
                1.6131063054817227,
                -0.006006260223608645,
                -0.05719106763425722
            ]
        },
        {
            "positions": [
                -0.0538329874238405,
                -2.0495928595263817,
                -2.023903017454311,
                1.5891320298907723,
                0.06318161369084699,
                -0.07021331243486317
            ]
        },
        {
            "positions": [
                -0.046722875206861664,
                -2.1331221832583243,
                -2.1940119463144514,
                1.565157754299822,
                0.13236948760530265,
                -0.08323555723546915
            ]
        },
        {
            "positions": [
                -0.03961276298988284,
                -2.2166515069902673,
                -2.3641208751745917,
                1.5411834787088718,
                0.2015573615197583,
                -0.0962578020360751
            ]
        },
        {
            "positions": [
                -0.18719051303149337,
                -2.280995007940365,
                -2.374230962201983,
                1.5211059075386058,
                0.18271905926494056,
                -0.005314669790214258
            ]
        }
    ]
}