{
    "goal": {
        "global_pose": {
            "orientation": {
                "w": 0.005598929693374612,
                "x": 0.007748599140229565,
                "y": 0.7110244013736278,
                "z": -0.7031023480610252
            },
            "position": {
                "x": 0.1141497679147869,
                "y": -0.7141253447532654,
                "z": 0.3711530566215515
            }
        },
        "name": "move_to_auspresseinheit_B"
    },
    "id": "SPARS_move_to_auspresseinheit_B_1",
    "joint_names": [
        "shoulder_pan_joint",
        "shoulder_lift_joint",
        "elbow_joint",
        "wrist_1_joint",
        "wrist_2_joint",
        "wrist_3_joint"
    ],
    "metrics": {
        "cart_traj_len": 0.5641806831918099,
        "distance_elbow_joint": 0.061980651850398694,
        "distance_shoulder_lift_joint": 0.29345151855442597,
        "distance_shoulder_pan_joint": 0.5749229019588784,
        "distance_wrist_1_joint": 0.3213746234113065,
        "distance_wrist_2_joint": 1.0012431485354742,
        "distance_wrist_3_joint": 0.008735399173206648,
        "smoothness": 0.0,
        "time": 5.014287479,
        "traj_len": 1.5038976838481035,
        "weighted_distance": 1.897840039038297
    },
    "planner": "SPARS",
    "start": {
        "state": {
            "elbow_joint": 2.0193083361928714,
            "shoulder_lift_joint": -1.1220246554650708,
            "shoulder_pan_joint": -1.0952077554168747,
            "wrist_1_joint": -0.8559753972642168,
            "wrist_2_joint": 0.4759566250798843,
            "wrist_3_joint": -3.1240929996934557
        }
    },
    "waypoints": [
        {
            "positions": [
                -1.0952077554168747,
                -1.1220246554650708,
                2.0193083361928714,
                -0.8559753972642168,
                0.4759566250798843,
                -3.1240929996934557
            ]
        },
        {
            "positions": [
                -1.1910282390766878,
                -1.1709332418908085,
                2.0089782275511383,
                -0.8024129600289991,
                0.64283048316913,
                -3.125548899555657
            ]
        },
        {
            "positions": [
                -1.2868487227365009,
                -1.2198418283165462,
                1.9986481189094052,
                -0.7488505227937813,
                0.8097043412583758,
                -3.127004799417858
            ]
        },
        {
            "positions": [
                -1.3826692063963137,
                -1.268750414742284,
                1.988318010267672,
                -0.6952880855585635,
                0.9765781993476215,
                -3.128460699280059
            ]
        },
        {
            "positions": [
                -1.4784896900561268,
                -1.3176590011680214,
                1.977987901625939,
                -0.6417256483233458,
                1.1434520574368672,
                -3.12991659914226
            ]
        },
        {
            "positions": [
                -1.57431017371594,
                -1.366567587593759,
                1.9676577929842058,
                -0.5881632110881281,
                1.3103259155261129,
                -3.131372499004461
            ]
        },
        {
            "positions": [
                -1.670130657375753,
                -1.4154761740194968,
                1.9573276843424727,
                -0.5346007738529103,
                1.4771997736153586,
                -3.1328283988666623
            ]
        }
    ]
}