{
    "goal": {
        "global_pose": {
            "orientation": {
                "w": 0.5084816262002911,
                "x": -0.4908360881923452,
                "y": 0.5182115481033761,
                "z": -0.48164630358495003
            },
            "position": {
                "x": 0.5540239810943604,
                "y": -0.46912469901144505,
                "z": 0.16403168439865112
            }
        },
        "name": "move_to_storage_B"
    },
    "id": "SPARS_move_to_storage_B_138",
    "joint_names": [
        "shoulder_pan_joint",
        "shoulder_lift_joint",
        "elbow_joint",
        "wrist_1_joint",
        "wrist_2_joint",
        "wrist_3_joint"
    ],
    "metrics": {
        "cart_traj_len": 1.4516655883380336,
        "distance_elbow_joint": 1.229475038345301,
        "distance_shoulder_lift_joint": 0.4613048134328277,
        "distance_shoulder_pan_joint": 1.3501744776275766,
        "distance_wrist_1_joint": 3.8889914926714604,
        "distance_wrist_2_joint": 2.710552013054642,
        "distance_wrist_3_joint": 3.6291536924566272,
        "smoothness": 0.44309391961726585,
        "time": 5.113353410999999,
        "traj_len": 3.6427532894211256,
        "weighted_distance": 5.208406898297001
    },
    "planner": "SPARS",
    "start": {
        "state": {
            "elbow_joint": 1.664937868594044,
            "shoulder_lift_joint": -0.661644460510453,
            "shoulder_pan_joint": -0.9139846352900073,
            "wrist_1_joint": 2.146753192139373,
            "wrist_2_joint": -2.2341966793290973,
            "wrist_3_joint": 0.005466555786416001
        }
    },
    "waypoints": [
        {
            "positions": [
                -0.9139846352900073,
                -0.661644460510453,
                1.664937868594044,
                2.146753192139373,
                -2.2341966793290973,
                0.005466555786416001
            ]
        },
        {
            "positions": [
                -0.8166204700394556,
                -0.6748962222981175,
                1.5918252945377134,
                2.221947863567839,
                -2.1769818372065712,
                -0.03504722411624937
            ]
        },
        {
            "positions": [
                -0.7192563047889039,
                -0.6881479840857819,
                1.5187127204813826,
                2.297142534996305,
                -2.1197669950840448,
                -0.07556100401891475
            ]
        },
        {
            "positions": [
                -0.6218921395383521,
                -0.7013997458734464,
                1.445600146425052,
                2.3723372064247714,
                -2.0625521529615183,
                -0.11607478392158012
            ]
        },
        {
            "positions": [
                -0.5245279742878004,
                -0.714651507661111,
                1.3724875723687215,
                2.4475318778532373,
                -2.0053373108389922,
                -0.1565885638242455
            ]
        },
        {
            "positions": [
                -0.4271638090372487,
                -0.7279032694487754,
                1.2993749983123908,
                2.5227265492817033,
                -1.948122468716466,
                -0.19710234372691088
            ]
        },
        {
            "positions": [
                -0.329799643786697,
                -0.7411550312364399,
                1.2262624242560602,
                2.597921220710169,
                -1.8909076265939397,
                -0.23761612362957624
            ]
        },
        {
            "positions": [
                -0.3562130743427062,
                -0.7543203499504689,
                1.253531375773554,
                2.479375584017043,
                -1.8092778693415437,
                -0.12085505421438195
            ]
        },
        {
            "positions": [
                -0.38262650489871536,
                -0.7674856686644979,
                1.2808003272910478,
                2.3608299473239165,
                -1.7276481120891476,
                -0.0040939847991876555
            ]
        },
        {
            "positions": [
                -0.4090399354547245,
                -0.7806509873785269,
                1.3080692788085413,
                2.24228431063079,
                -1.6460183548367517,
                0.11266708461600666
            ]
        },
        {
            "positions": [
                -0.4354533660107337,
                -0.7938163060925558,
                1.335338230326035,
                2.123738673937664,
                -1.5643885975843557,
                0.22942815403120093
            ]
        },
        {
            "positions": [
                -0.4618667965667429,
                -0.8069816248065849,
                1.3626071818435288,
                2.0051930372445375,
                -1.4827588403319596,
                0.3461892234463953
            ]
        },
        {
            "positions": [
                -0.48828022712275204,
                -0.8201469435206139,
                1.3898761333610223,
                1.8866474005514111,
                -1.4011290830795637,
                0.46295029286158956
            ]
        },
        {
            "positions": [
                -0.5146936576787613,
                -0.8333122622346428,
                1.417145084878516,
                1.7681017638582848,
                -1.3194993258271674,
                0.5797113622767838
            ]
        },
        {
            "positions": [
                -0.5411070882347704,
                -0.8464775809486719,
                1.4444140363960098,
                1.6495561271651584,
                -1.2378695685747716,
                0.6964724316919781
            ]
        },
        {
            "positions": [
                -0.5675205187907796,
                -0.8596428996627008,
                1.4716829879135036,
                1.5310104904720319,
                -1.1562398113223755,
                0.8132335011071725
            ]
        },
        {
            "positions": [
                -0.5939339493467888,
                -0.8728082183767298,
                1.4989519394309974,
                1.4124648537789055,
                -1.0746100540699794,
                0.9299945705223669
            ]
        },
        {
            "positions": [
                -0.6203473799027979,
                -0.8859735370907589,
                1.526220890948491,
                1.2939192170857794,
                -0.9929802968175836,
                1.046755639937561
            ]
        },
        {
            "positions": [
                -0.6467608104588071,
                -0.8991388558047878,
                1.5534898424659846,
                1.1753735803926528,
                -0.9113505395651875,
                1.1635167093527554
            ]
        },
        {
            "positions": [
                -0.6731742410148163,
                -0.9123041745188168,
                1.5807587939834784,
                1.0568279436995265,
                -0.8297207823127914,
                1.2802777787679498
            ]
        },
        {
            "positions": [
                -0.6995876715708255,
                -0.9254694932328458,
                1.6080277455009722,
                0.9382823070064001,
                -0.7480910250603954,
                1.397038848183144
            ]
        },
        {
            "positions": [
                -0.7260011021268347,
                -0.9386348119468748,
                1.635296697018466,
                0.8197366703132736,
                -0.6664612678079993,
                1.5137999175983383
            ]
        },
        {
            "positions": [
                -0.7524145326828438,
                -0.9518001306609037,
                1.6625656485359595,
                0.7011910336201475,
                -0.5848315105556035,
                1.6305609870135325
            ]
        },
        {
            "positions": [
                -0.7788279632388528,
                -0.9649654493749328,
                1.6898346000534532,
                0.5826453969270213,
                -0.5032017533032076,
                1.7473220564287266
            ]
        },
        {
            "positions": [
                -0.8052413937948621,
                -0.9781307680889617,
                1.717103551570947,
                0.46409976023389454,
                -0.4215719960508113,
                1.8640831258439212
            ]
        },
        {
            "positions": [
                -0.8316548243508712,
                -0.9912960868029908,
                1.7443725030884405,
                0.34555412354076864,
                -0.33994223879841545,
                1.9808441952591156
            ]
        },
        {
            "positions": [
                -0.8580682549068804,
                -1.0044614055170198,
                1.7716414546059345,
                0.22700848684764185,
                -0.25831248154601916,
                2.0976052646743097
            ]
        },
        {
            "positions": [
                -0.8844816854628896,
                -1.0176267242310488,
                1.798910406123428,
                0.10846285015451551,
                -0.1766827242936233,
                2.2143663340895037
            ]
        },
        {
            "positions": [
                -0.9108951160188987,
                -1.0307920429450776,
                1.8261793576409215,
                -0.010082786538610389,
                -0.09505296704122745,
                2.331127403504698
            ]
        },
        {
            "positions": [
                -0.937308546574908,
                -1.0439573616591067,
                1.8534483091584155,
                -0.12862842323173718,
                -0.013423209788831159,
                2.4478884729198924
            ]
        },
        {
            "positions": [
                -0.9637219771309171,
                -1.0571226803731357,
                1.880717260675909,
                -0.24717405992486352,
                0.06820654746356469,
                2.564649542335087
            ]
        },
        {
            "positions": [
                -0.9901354076869263,
                -1.0702879990871648,
                1.9079862121934028,
                -0.3657196966179894,
                0.14983630471596054,
                2.6814106117502807
            ]
        },
        {
            "positions": [
                -1.0165488382429355,
                -1.0834533178011938,
                1.9352551637108966,
                -0.4842653333111162,
                0.23146606196835684,
                2.7981716811654755
            ]
        },
        {
            "positions": [
                -1.0429622687989446,
                -1.0966186365152226,
                1.96252411522839,
                -0.6028109700042426,
                0.3130958192207527,
                2.9149327505806695
            ]
        },
        {
            "positions": [
                -1.069375699354954,
                -1.1097839552292517,
                1.989793066745884,
                -0.7213566066973689,
                0.394725576473149,
                3.031693819995864
            ]
        },
        {
            "positions": [
                -1.095789129910963,
                -1.1229492739432807,
                2.0170620182633776,
                -0.8399022433904952,
                0.47635533372554467,
                3.1484548894110582
            ]
        }
    ]
}