{
    "goal": {
        "global_pose": {
            "orientation": {
                "w": -0.4816463035849501,
                "x": 0.5182115481033762,
                "y": 0.4908360881923453,
                "z": -0.5084816262002911
            },
            "position": {
                "x": -0.8240239810943604,
                "y": 0.19912469901144506,
                "z": 0.16403168439865112
            }
        },
        "name": "move_to_storage_D"
    },
    "id": "SPARStwo_move_to_storage_D_53",
    "joint_names": [
        "shoulder_pan_joint",
        "shoulder_lift_joint",
        "elbow_joint",
        "wrist_1_joint",
        "wrist_2_joint",
        "wrist_3_joint"
    ],
    "metrics": {
        "cart_traj_len": 3.886540683464677,
        "distance_elbow_joint": 4.208856385645988,
        "distance_shoulder_lift_joint": 1.2641631402498346,
        "distance_shoulder_pan_joint": 2.8256622416799178,
        "distance_wrist_1_joint": 2.2607076500398278,
        "distance_wrist_2_joint": 1.0523352183013135,
        "distance_wrist_3_joint": 3.1374604920159794,
        "smoothness": 0.07927729521601963,
        "time": 5.046856053,
        "traj_len": 3.8404667851620418,
        "weighted_distance": 4.933269603448201
    },
    "planner": "SPARStwo",
    "start": {
        "state": {
            "elbow_joint": -2.384821988534728,
            "shoulder_lift_joint": -2.2788054721415256,
            "shoulder_pan_joint": -0.1854694642142757,
            "wrist_1_joint": 1.4845938289331202,
            "wrist_2_joint": 0.17898776772866878,
            "wrist_3_joint": 0.037105688729662994
        }
    },
    "waypoints": [
        {
            "positions": [
                -0.1854694642142757,
                -2.2788054721415256,
                -2.384821988534728,
                1.4845938289331202,
                0.17898776772866878,
                0.037105688729662994
            ]
        },
        {
            "positions": [
                -0.04199402939724364,
                -2.23141586698715,
                -2.3705347729902986,
                1.4235910638840616,
                0.13730891232124984,
                0.07606741717066631
            ]
        },
        {
            "positions": [
                0.10148140541978845,
                -2.184026261832775,
                -2.356247557445869,
                1.3625882988350029,
                0.09563005691383089,
                0.11502914561166964
            ]
        },
        {
            "positions": [
                0.17183086097372813,
                -2.1516475368500654,
                -2.241993437312157,
                1.3036173785002976,
                0.12168096634549819,
                0.19892568364313507
            ]
        },
        {
            "positions": [
                0.24218031652766783,
                -2.1192688118673564,
                -2.1277393171784453,
                1.2446464581655923,
                0.14773187577716548,
                0.2828222216746005
            ]
        },
        {
            "positions": [
                0.3125297720816075,
                -2.086890086884647,
                -2.0134851970447336,
                1.1856755378308867,
                0.17378278520883278,
                0.36671875970606593
            ]
        },
        {
            "positions": [
                0.3828792276355472,
                -2.0545113619019375,
                -1.899231076911022,
                1.1267046174961814,
                0.19983369464050008,
                0.4506152977375314
            ]
        },
        {
            "positions": [
                0.4532286831894869,
                -2.0221326369192285,
                -1.7849769567773104,
                1.0677336971614761,
                0.2258846040721674,
                0.5345118357689969
            ]
        },
        {
            "positions": [
                0.5235781387434266,
                -1.989753911936519,
                -1.6707228366435989,
                1.0087627768267708,
                0.2519355135038347,
                0.6184083738004622
            ]
        },
        {
            "positions": [
                0.5939275942973663,
                -1.9573751869538096,
                -1.5564687165098872,
                0.9497918564920654,
                0.277986422935502,
                0.7023049118319278
            ]
        },
        {
            "positions": [
                0.664277049851306,
                -1.9249964619711004,
                -1.4422145963761754,
                0.89082093615736,
                0.30403733236716923,
                0.7862014498633931
            ]
        },
        {
            "positions": [
                0.7346265054052457,
                -1.8926177369883912,
                -1.3279604762424637,
                0.8318500158226547,
                0.33008824179883656,
                0.8700979878948586
            ]
        },
        {
            "positions": [
                0.8049759609591853,
                -1.8602390120056818,
                -1.213706356108752,
                0.7728790954879493,
                0.3561391512305039,
                0.953994525926324
            ]
        },
        {
            "positions": [
                0.8753254165131251,
                -1.8278602870229723,
                -1.0994522359750403,
                0.713908175153244,
                0.3821900606621712,
                1.0378910639577894
            ]
        },
        {
            "positions": [
                0.9456748720670647,
                -1.7954815620402633,
                -0.9851981158413288,
                0.6549372548185387,
                0.4082409700938384,
                1.1217876019892548
            ]
        },
        {
            "positions": [
                1.0160243276210044,
                -1.7631028370575539,
                -0.870943995707617,
                0.5959663344838333,
                0.43429187952550574,
                1.2056841400207203
            ]
        },
        {
            "positions": [
                1.086373783174944,
                -1.7307241120748444,
                -0.7566898755739053,
                0.536995414149128,
                0.46034278895717307,
                1.289580678052186
            ]
        },
        {
            "positions": [
                1.1567232387288837,
                -1.6983453870921352,
                -0.6424357554401936,
                0.4780244938144226,
                0.4863936983888404,
                1.3734772160836513
            ]
        },
        {
            "positions": [
                1.2270726942828234,
                -1.665966662109426,
                -0.5281816353064821,
                0.4190535734797173,
                0.5124446078205076,
                1.4573737541151166
            ]
        },
        {
            "positions": [
                1.297422149836763,
                -1.6335879371267166,
                -0.4139275151727704,
                0.36008265314501187,
                0.5384955172521749,
                1.541270292146582
            ]
        },
        {
            "positions": [
                1.3677716053907027,
                -1.6012092121440074,
                -0.29967339503905865,
                0.30111173281030656,
                0.5645464266838423,
                1.6251668301780475
            ]
        },
        {
            "positions": [
                1.4381210609446424,
                -1.5688304871612981,
                -0.18541927490534693,
                0.24214081247560126,
                0.5905973361155096,
                1.709063368209513
            ]
        },
        {
            "positions": [
                1.508470516498582,
                -1.5364517621785887,
                -0.07116515477163521,
                0.18316989214089574,
                0.6166482455471769,
                1.7929599062409785
            ]
        },
        {
            "positions": [
                1.5788199720525222,
                -1.5040730371958793,
                0.043088965362076515,
                0.12419897180619044,
                0.6426991549788442,
                1.876856444272444
            ]
        },
        {
            "positions": [
                1.649169427606462,
                -1.47169431221317,
                0.15734308549578824,
                0.06522805147148514,
                0.6687500644105115,
                1.9607529823039094
            ]
        },
        {
            "positions": [
                1.7195188831604011,
                -1.4393155872304608,
                0.2715972056294995,
                0.0062571311367798366,
                0.6948009738421786,
                2.0446495203353745
            ]
        },
        {
            "positions": [
                1.7898683387143408,
                -1.4069368622477516,
                0.38585132576321124,
                -0.052713789197925465,
                0.720851883273846,
                2.12854605836684
            ]
        },
        {
            "positions": [
                1.8602177942682805,
                -1.3745581372650424,
                0.500105445896923,
                -0.11168470953263077,
                0.7469027927055133,
                2.2124425963983056
            ]
        },
        {
            "positions": [
                1.9305672498222202,
                -1.342179412282333,
                0.6143595660306347,
                -0.1706556298673363,
                0.7729537021371806,
                2.296339134429771
            ]
        },
        {
            "positions": [
                2.0009167053761603,
                -1.3098006872996235,
                0.7286136861643464,
                -0.2296265502020416,
                0.7990046115688479,
                2.3802356724612364
            ]
        },
        {
            "positions": [
                2.0712661609301,
                -1.2774219623169143,
                0.8428678062980581,
                -0.2885974705367469,
                0.8250555210005153,
                2.464132210492702
            ]
        },
        {
            "positions": [
                2.1416156164840396,
                -1.245043237334205,
                0.9571219264317699,
                -0.3475683908714524,
                0.8511064304321826,
                2.5480287485241675
            ]
        },
        {
            "positions": [
                2.2119650720379793,
                -1.2126645123514956,
                1.0713760465654816,
                -0.4065393112061577,
                0.8771573398638499,
                2.631925286555633
            ]
        },
        {
            "positions": [
                2.282314527591919,
                -1.1802857873687864,
                1.1856301666991933,
                -0.465510231540863,
                0.9032082492955172,
                2.715821824587098
            ]
        },
        {
            "positions": [
                2.3526639831458587,
                -1.1479070623860772,
                1.2998842868329046,
                -0.5244811518755683,
                0.9292591587271843,
                2.7997183626185635
            ]
        },
        {
            "positions": [
                2.4230134386997983,
                -1.1155283374033678,
                1.4141384069666163,
                -0.5834520722102736,
                0.9553100681588517,
                2.883614900650029
            ]
        },
        {
            "positions": [
                2.493362894253738,
                -1.0831496124206585,
                1.528392527100328,
                -0.6424229925449791,
                0.981360977590519,
                2.9675114386814943
            ]
        },
        {
            "positions": [
                2.5637123498076777,
                -1.050770887437949,
                1.6426466472340397,
                -0.7013939128796844,
                1.0074118870221864,
                3.05140797671296
            ]
        },
        {
            "positions": [
                2.6340618053616174,
                -1.01839216245524,
                1.756900767367751,
                -0.76036483321439,
                1.0334627964538536,
                3.1353045147444254
            ]
        },
        {
            "positions": [
                2.627930833257593,
                -1.014642331891691,
                1.8240343971112591,
                -0.776113821106708,
                1.0646075644003063,
                3.1745661807456425
            ]
        }
    ]
}