{
    "goal": {
        "global_pose": {
            "orientation": {
                "w": -0.00223480608172531,
                "x": 0.0024358444001904467,
                "y": 0.7094548369677653,
                "z": -0.704743149386269
            },
            "position": {
                "x": -0.37947507619857795,
                "y": -0.6371506643295288,
                "z": 0.19426114857196808
            }
        },
        "name": "move_to_magneteinheit_C"
    },
    "id": "SPARS_move_to_magneteinheit_C_127",
    "joint_names": [
        "shoulder_pan_joint",
        "shoulder_lift_joint",
        "elbow_joint",
        "wrist_1_joint",
        "wrist_2_joint",
        "wrist_3_joint"
    ],
    "metrics": {
        "cart_traj_len": 1.432402508898424,
        "distance_elbow_joint": 0.18602970211913572,
        "distance_shoulder_lift_joint": 2.1881638253782714,
        "distance_shoulder_pan_joint": 1.4140877582301263,
        "distance_wrist_1_joint": 3.6842929137762876,
        "distance_wrist_2_joint": 1.9962778503561172,
        "distance_wrist_3_joint": 1.3110540059175109,
        "smoothness": 0.9848983039433412,
        "time": 5.022089524,
        "traj_len": 3.283276725434128,
        "weighted_distance": 4.368361801836574
    },
    "planner": "SPARS",
    "start": {
        "state": {
            "elbow_joint": 1.9565354010623817,
            "shoulder_lift_joint": -1.4165861575791021,
            "shoulder_pan_joint": -1.6717766225146293,
            "wrist_1_joint": -0.5286633292919765,
            "wrist_2_joint": 1.472756589071564,
            "wrist_3_joint": -3.1238370188695823
        }
    },
    "waypoints": [
        {
            "positions": [
                -1.6717766225146293,
                -1.4165861575791021,
                1.9565354010623817,
                -0.5286633292919765,
                1.472756589071564,
                -3.1238370188695823
            ]
        },
        {
            "positions": [
                -1.7456524475064676,
                -1.4810987082192328,
                1.9646149079315822,
                -0.4164054959007067,
                1.3795167896092064,
                -3.080839345913522
            ]
        },
        {
            "positions": [
                -1.8195282724983062,
                -1.5456112588593636,
                1.9726944148007828,
                -0.3041476625094369,
                1.2862769901468487,
                -3.037841672957461
            ]
        },
        {
            "positions": [
                -1.8934040974901445,
                -1.6101238094994943,
                1.9807739216699836,
                -0.1918898291181672,
                1.1930371906844912,
                -2.9948440000014007
            ]
        },
        {
            "positions": [
                -1.9672799224819828,
                -1.6746363601396252,
                1.9888534285391841,
                -0.07963199572689744,
                1.0997973912221335,
                -2.95184632704534
            ]
        },
        {
            "positions": [
                -2.0411557474738213,
                -1.7391489107797558,
                1.9969329354083847,
                0.032625837664372215,
                1.006557591759776,
                -2.9088486540892795
            ]
        },
        {
            "positions": [
                -2.11503157246566,
                -1.8036614614198867,
                2.0050124422775855,
                0.14488367105564204,
                0.9133177922974183,
                -2.865850981133219
            ]
        },
        {
            "positions": [
                -2.1889073974574984,
                -1.8681740120600174,
                2.013091949146786,
                0.25714150444691175,
                0.8200779928350607,
                -2.8228533081771583
            ]
        },
        {
            "positions": [
                -2.2627832224493365,
                -1.9326865627001482,
                2.0211714560159866,
                0.3693993378381816,
                0.7268381933727032,
                -2.779855635221098
            ]
        },
        {
            "positions": [
                -2.336659047441175,
                -1.9971991133402789,
                2.029250962885187,
                0.4816571712294513,
                0.6335983939103456,
                -2.736857962265037
            ]
        },
        {
            "positions": [
                -2.410534872433013,
                -2.0617116639804096,
                2.0373304697543877,
                0.5939150046207209,
                0.540358594447988,
                -2.6938602893089767
            ]
        },
        {
            "positions": [
                -2.4844106974248517,
                -2.1262242146205406,
                2.0454099766235885,
                0.7061728380119907,
                0.44711879498563034,
                -2.6508626163529163
            ]
        },
        {
            "positions": [
                -2.55828652241669,
                -2.190736765260671,
                2.053489483492789,
                0.8184306714032605,
                0.3538789955232726,
                -2.6078649433968555
            ]
        },
        {
            "positions": [
                -2.6321623474085287,
                -2.255249315900802,
                2.0615689903619896,
                0.9306885047945304,
                0.2606391960609151,
                -2.564867270440795
            ]
        },
        {
            "positions": [
                -2.7060381724003673,
                -2.319761866540933,
                2.06964849723119,
                1.0429463381858,
                0.1673993965985574,
                -2.5218695974847343
            ]
        },
        {
            "positions": [
                -2.7799139973922053,
                -2.3842744171810635,
                2.0777280041003907,
                1.1552041715770698,
                0.07415959713620002,
                -2.478871924528674
            ]
        },
        {
            "positions": [
                -2.756379352518932,
                -2.2903916813521166,
                2.072740534940304,
                1.001325293661128,
                0.12013504778395026,
                -2.5301095331114896
            ]
        },
        {
            "positions": [
                -2.732844707645659,
                -2.1965089455231697,
                2.0677530657802174,
                0.8474464157451864,
                0.1661104984317005,
                -2.5813471416943052
            ]
        },
        {
            "positions": [
                -2.709310062772386,
                -2.1026262096942228,
                2.062765596620131,
                0.6935675378292447,
                0.21208594907945072,
                -2.6325847502771205
            ]
        },
        {
            "positions": [
                -2.685775417899113,
                -2.008743473865276,
                2.057778127460044,
                0.539688659913303,
                0.258061399727201,
                -2.683822358859936
            ]
        },
        {
            "positions": [
                -2.66224077302584,
                -1.914860738036329,
                2.0527906582999575,
                0.38580978199736127,
                0.3040368503749512,
                -2.735059967442752
            ]
        },
        {
            "positions": [
                -2.6387061281525668,
                -1.820978002207382,
                2.047803189139871,
                0.2319309040814196,
                0.3500123010227014,
                -2.7862975760255675
            ]
        },
        {
            "positions": [
                -2.6151714832792936,
                -1.7270952663784351,
                2.042815719979784,
                0.07805202616547802,
                0.39598775167045164,
                -2.8375351846083827
            ]
        },
        {
            "positions": [
                -2.5916368384060204,
                -1.633212530549488,
                2.037828250819697,
                -0.07582685175046389,
                0.4419632023182019,
                -2.8887727931911984
            ]
        },
        {
            "positions": [
                -2.5681021935327473,
                -1.5393297947205413,
                2.0328407816596106,
                -0.22970572966640557,
                0.4879386529659521,
                -2.940010401774014
            ]
        },
        {
            "positions": [
                -2.544567548659474,
                -1.4454470588915942,
                2.027853312499524,
                -0.38358460758234725,
                0.5339141036137024,
                -2.9912480103568297
            ]
        },
        {
            "positions": [
                -2.5210329037862014,
                -1.3515643230626473,
                2.0228658433394373,
                -0.5374634854982889,
                0.5798895542614526,
                -3.0424856189396454
            ]
        },
        {
            "positions": [
                -2.497498258912928,
                -1.2576815872337004,
                2.0178783741793507,
                -0.6913423634142306,
                0.6258650049092028,
                -3.0937232275224607
            ]
        },
        {
            "positions": [
                -2.473963614039655,
                -1.1637988514047535,
                2.012890905019264,
                -0.8452212413301722,
                0.671840455556953,
                -3.1449608361052763
            ]
        }
    ]
}