{
    "goal": {
        "global_pose": {
            "orientation": {
                "w": 0.005598929693374612,
                "x": 0.007748599140229565,
                "y": 0.7110244013736278,
                "z": -0.7031023480610252
            },
            "position": {
                "x": 0.1141497679147869,
                "y": -0.7141253447532654,
                "z": 0.3711530566215515
            }
        },
        "name": "move_to_auspresseinheit_B"
    },
    "id": "SPARS_move_to_auspresseinheit_B_132",
    "joint_names": [
        "shoulder_pan_joint",
        "shoulder_lift_joint",
        "elbow_joint",
        "wrist_1_joint",
        "wrist_2_joint",
        "wrist_3_joint"
    ],
    "metrics": {
        "cart_traj_len": 0.5647092147207384,
        "distance_elbow_joint": 0.06352223819608871,
        "distance_shoulder_lift_joint": 0.29409329047167465,
        "distance_shoulder_pan_joint": 0.5766358892720269,
        "distance_wrist_1_joint": 0.3281669646685298,
        "distance_wrist_2_joint": 0.9948789978706065,
        "distance_wrist_3_joint": 0.008617774886042984,
        "smoothness": 0.0,
        "time": 5.022315058999999,
        "traj_len": 1.5052957036293466,
        "weighted_distance": 1.898998859314084
    },
    "planner": "SPARS",
    "start": {
        "state": {
            "elbow_joint": 2.0193083361928714,
            "shoulder_lift_joint": -1.1220246554650708,
            "shoulder_pan_joint": -1.0952077554168747,
            "wrist_1_joint": -0.8559753972642168,
            "wrist_2_joint": 0.4759566250798843,
            "wrist_3_joint": -3.1240929996934557
        }
    },
    "waypoints": [
        {
            "positions": [
                -1.0952077554168747,
                -1.1220246554650708,
                2.0193083361928714,
                -0.8559753972642168,
                0.4759566250798843,
                -3.1240929996934557
            ]
        },
        {
            "positions": [
                -1.1913137369622124,
                -1.1710402038770167,
                2.0087212964935235,
                -0.8012809031527952,
                0.641769791391652,
                -3.122656703879115
            ]
        },
        {
            "positions": [
                -1.2874197185075502,
                -1.2200557522889623,
                1.9981342567941751,
                -0.7465864090413735,
                0.8075829577034197,
                -3.1212204080647745
            ]
        },
        {
            "positions": [
                -1.3835257000528882,
                -1.269071300700908,
                1.9875472170948272,
                -0.6918919149299518,
                0.9733961240151876,
                -3.119784112250434
            ]
        },
        {
            "positions": [
                -1.4796316815982258,
                -1.318086849112854,
                1.976960177395479,
                -0.6371974208185303,
                1.1392092903269553,
                -3.118347816436094
            ]
        },
        {
            "positions": [
                -1.5757376631435638,
                -1.3671023975247998,
                1.9663731376961309,
                -0.5825029267071087,
                1.3050224566387232,
                -3.1169115206217533
            ]
        },
        {
            "positions": [
                -1.6718436446889016,
                -1.4161179459367454,
                1.9557860979967827,
                -0.527808432595687,
                1.4708356229504909,
                -3.1154752248074127
            ]
        }
    ]
}