{
    "goal": {
        "global_pose": {
            "orientation": {
                "w": 0.7047431468963623,
                "x": -0.7094548344612122,
                "y": 0.0024358443915843964,
                "z": -0.0022348060738295317
            },
            "position": {
                "x": 0.6094750761985779,
                "y": 0.3671506643295288,
                "z": 0.19426114857196808
            }
        },
        "name": "move_to_magneteinheit_A"
    },
    "id": "SPARS_move_to_magneteinheit_A_39",
    "joint_names": [
        "shoulder_pan_joint",
        "shoulder_lift_joint",
        "elbow_joint",
        "wrist_1_joint",
        "wrist_2_joint",
        "wrist_3_joint"
    ],
    "metrics": {
        "cart_traj_len": 3.7571043221400107,
        "distance_elbow_joint": 3.8722317545370917,
        "distance_shoulder_lift_joint": 0.4687602564684312,
        "distance_shoulder_pan_joint": 3.113114790984644,
        "distance_wrist_1_joint": 0.8449342049035505,
        "distance_wrist_2_joint": 1.7157677443931376,
        "distance_wrist_3_joint": 2.575453580462549,
        "smoothness": 0.14252208026763952,
        "time": 5.025135925000001,
        "traj_len": 3.548275966120646,
        "weighted_distance": 4.505759807398879
    },
    "planner": "SPARS",
    "start": {
        "state": {
            "elbow_joint": -1.9196185241190666,
            "shoulder_lift_joint": -1.2443396400964142,
            "shoulder_pan_joint": 2.6996025414629847,
            "wrist_1_joint": -1.5485510000780065,
            "wrist_2_joint": -1.5709468930060704,
            "wrist_3_joint": 0.4420197071253992
        }
    },
    "waypoints": [
        {
            "positions": [
                2.6996025414629847,
                -1.2443396400964142,
                -1.9196185241190666,
                -1.5485510000780065,
                -1.5709468930060704,
                0.4420197071253992
            ]
        },
        {
            "positions": [
                2.5588268411221624,
                -1.2189658384042596,
                -1.8327428275698285,
                -1.5341961024907143,
                -1.5750518351606775,
                0.5301311219486969
            ]
        },
        {
            "positions": [
                2.4180511407813396,
                -1.193592036712105,
                -1.7458671310205907,
                -1.519841204903422,
                -1.5791567773152848,
                0.6182425367719948
            ]
        },
        {
            "positions": [
                2.2772754404405173,
                -1.1682182350199504,
                -1.6589914344713526,
                -1.5054863073161298,
                -1.583261719469892,
                0.7063539515952926
            ]
        },
        {
            "positions": [
                2.1763112205156103,
                -1.1591878723567095,
                -1.5365300823772914,
                -1.4798433395882529,
                -1.5396332601413152,
                0.7949125318981054
            ]
        },
        {
            "positions": [
                2.0753470005907033,
                -1.1501575096934689,
                -1.4140687302832302,
                -1.454200371860376,
                -1.4960048008127385,
                0.8834711122009181
            ]
        },
        {
            "positions": [
                1.974382780665796,
                -1.141127147030228,
                -1.291607378189169,
                -1.4285574041324989,
                -1.4523763414841615,
                0.972029692503731
            ]
        },
        {
            "positions": [
                1.873418560740889,
                -1.1320967843669871,
                -1.1691460260951079,
                -1.402914436404622,
                -1.4087478821555848,
                1.0605882728065437
            ]
        },
        {
            "positions": [
                1.7724543408159819,
                -1.1230664217037465,
                -1.046684674001047,
                -1.377271468676745,
                -1.365119422827008,
                1.1491468531093565
            ]
        },
        {
            "positions": [
                1.6714901208910748,
                -1.1140360590405056,
                -0.9242233219069856,
                -1.3516285009488682,
                -1.3214909634984313,
                1.2377054334121693
            ]
        },
        {
            "positions": [
                1.5705259009661678,
                -1.1050056963772648,
                -0.8017619698129245,
                -1.325985533220991,
                -1.2778625041698546,
                1.3262640137149821
            ]
        },
        {
            "positions": [
                1.4695616810412608,
                -1.0959753337140241,
                -0.6793006177188634,
                -1.3003425654931142,
                -1.2342340448412776,
                1.414822594017795
            ]
        },
        {
            "positions": [
                1.3685974611163538,
                -1.0869449710507832,
                -0.5568392656248022,
                -1.2746995977652373,
                -1.190605585512701,
                1.5033811743206078
            ]
        },
        {
            "positions": [
                1.2676332411914466,
                -1.0779146083875424,
                -0.43437791353074107,
                -1.2490566300373604,
                -1.1469771261841242,
                1.5919397546234206
            ]
        },
        {
            "positions": [
                1.1666690212665396,
                -1.0688842457243015,
                -0.3119165614366799,
                -1.2234136623094836,
                -1.1033486668555474,
                1.6804983349262332
            ]
        },
        {
            "positions": [
                1.0657048013416326,
                -1.0598538830610609,
                -0.18945520934261872,
                -1.1977706945816065,
                -1.0597202075269707,
                1.769056915229046
            ]
        },
        {
            "positions": [
                0.9647405814167256,
                -1.05082352039782,
                -0.06699385724855778,
                -1.1721277268537296,
                -1.0160917481983938,
                1.8576154955318587
            ]
        },
        {
            "positions": [
                0.8637763614918184,
                -1.0417931577345791,
                0.05546749484550362,
                -1.1464847591258527,
                -0.972463288869817,
                1.9461740758346717
            ]
        },
        {
            "positions": [
                0.7628121415669114,
                -1.0327627950713385,
                0.1779288469395648,
                -1.1208417913979756,
                -0.9288348295412403,
                2.0347326561374848
            ]
        },
        {
            "positions": [
                0.6618479216420043,
                -1.0237324324080976,
                0.30039019903362574,
                -1.0951988236700987,
                -0.8852063702126636,
                2.123291236440297
            ]
        },
        {
            "positions": [
                0.5608837017170971,
                -1.0147020697448568,
                0.42285155112768713,
                -1.0695558559422218,
                -0.8415779108840867,
                2.2118498167431104
            ]
        },
        {
            "positions": [
                0.45991948179219033,
                -1.0056717070816161,
                0.5453129032217481,
                -1.043912888214345,
                -0.7979494515555099,
                2.300408397045923
            ]
        },
        {
            "positions": [
                0.3589552618672833,
                -0.9966413444183753,
                0.667774255315809,
                -1.018269920486468,
                -0.7543209922269332,
                2.388966977348735
            ]
        },
        {
            "positions": [
                0.2579910419423759,
                -0.9876109817551344,
                0.7902356074098704,
                -0.992626952758591,
                -0.7106925328983563,
                2.4775255576515485
            ]
        },
        {
            "positions": [
                0.15702682201746887,
                -0.9785806190918936,
                0.9126969595039318,
                -0.966983985030714,
                -0.6670640735697796,
                2.566084137954361
            ]
        },
        {
            "positions": [
                0.056062602092561864,
                -0.9695502564286529,
                1.0351583115979928,
                -0.9413410173028371,
                -0.6234356142412029,
                2.6546427182571737
            ]
        },
        {
            "positions": [
                -0.04490161783234514,
                -0.960519893765412,
                1.1576196636920542,
                -0.9156980495749601,
                -0.579807154912626,
                2.7432012985599865
            ]
        },
        {
            "positions": [
                -0.1458658377572521,
                -0.9514895311021713,
                1.280081015786115,
                -0.8900550818470833,
                -0.5361786955840493,
                2.8317598788628
            ]
        },
        {
            "positions": [
                -0.1039790735887728,
                -0.9800910904991041,
                1.3923635995267372,
                -0.8590835308916932,
                -0.428012994047433,
                2.8637888677721057
            ]
        },
        {
            "positions": [
                -0.06209230942029351,
                -1.008692649896037,
                1.504646183267359,
                -0.8281119799363033,
                -0.3198472925108167,
                2.8958178566814112
            ]
        },
        {
            "positions": [
                -0.020205545251814228,
                -1.0372942092929698,
                1.6169287670079808,
                -0.7971404289809132,
                -0.21168159097420047,
                2.927846845590717
            ]
        },
        {
            "positions": [
                0.021681218916665065,
                -1.0658957686899027,
                1.7292113507486029,
                -0.7661688780255231,
                -0.10351588943758419,
                2.959875834500023
            ]
        },
        {
            "positions": [
                0.07173089646190928,
                -1.0966477236331311,
                1.840912290583314,
                -0.7348928365999896,
                0.008337654510920042,
                2.988674561043986
            ]
        },
        {
            "positions": [
                0.1217805740071535,
                -1.1273996785763596,
                1.952613230418025,
                -0.703616795174456,
                0.12019119845942428,
                3.0174732875879484
            ]
        }
    ]
}