{
    "goal": {
        "global_pose": {
            "orientation": {
                "w": 0.5084816217422485,
                "x": -0.49083608388900757,
                "y": 0.5182115435600281,
                "z": -0.4816462993621826
            },
            "position": {
                "x": 0.5540239810943604,
                "y": 0.030875300988554955,
                "z": 0.16403168439865112
            }
        },
        "name": "move_to_storage_A"
    },
    "id": "SPARStwo_move_to_storage_A_122",
    "joint_names": [
        "shoulder_pan_joint",
        "shoulder_lift_joint",
        "elbow_joint",
        "wrist_1_joint",
        "wrist_2_joint",
        "wrist_3_joint"
    ],
    "metrics": {
        "cart_traj_len": 0.35310560052049583,
        "distance_elbow_joint": 0.4473630255685517,
        "distance_shoulder_lift_joint": 0.23434515659157773,
        "distance_shoulder_pan_joint": 0.46233187137258125,
        "distance_wrist_1_joint": 0.23585279835411732,
        "distance_wrist_2_joint": 1.0955976432060552,
        "distance_wrist_3_joint": 0.10286316063042289,
        "smoothness": 1.3322676295501878e-15,
        "time": 5.005062857,
        "traj_len": 1.6057252740501116,
        "weighted_distance": 2.0286770118834405
    },
    "planner": "SPARStwo",
    "start": {
        "state": {
            "elbow_joint": 1.971548259319323,
            "shoulder_lift_joint": -1.1394851275133948,
            "shoulder_pan_joint": 0.1228115487234821,
            "wrist_1_joint": -0.7804723859257726,
            "wrist_2_joint": 0.12958671773740124,
            "wrist_3_joint": -3.192489227718131
        }
    },
    "waypoints": [
        {
            "positions": [
                0.1228115487234821,
                -1.1394851275133948,
                1.971548259319323,
                -0.7804723859257726,
                0.12958671773740124,
                -3.192489227718131
            ]
        },
        {
            "positions": [
                0.056764138527399075,
                -1.1729630070264774,
                2.035457262971973,
                -0.8141656428335037,
                0.2861006667668377,
                -3.177794490485214
            ]
        },
        {
            "positions": [
                -0.009283271668683951,
                -1.20644088653956,
                2.0993662666246236,
                -0.8478588997412347,
                0.44261461579627415,
                -3.163099753252296
            ]
        },
        {
            "positions": [
                -0.07533068186476699,
                -1.2399187660526425,
                2.1632752702772735,
                -0.8815521566489657,
                0.5991285648257106,
                -3.1484050160193786
            ]
        },
        {
            "positions": [
                -0.14137809206085,
                -1.2733966455657248,
                2.227184273929924,
                -0.9152454135566968,
                0.7556425138551471,
                -3.133710278786461
            ]
        },
        {
            "positions": [
                -0.20742550225693307,
                -1.3068745250788074,
                2.2910932775825743,
                -0.9489386704644278,
                0.9121564628845836,
                -3.1190155415535434
            ]
        },
        {
            "positions": [
                -0.2734729124530161,
                -1.34035240459189,
                2.3550022812352243,
                -0.9826319273721589,
                1.06867041191402,
                -3.1043208043206256
            ]
        },
        {
            "positions": [
                -0.33952032264909915,
                -1.3738302841049725,
                2.4189112848878747,
                -1.01632518427989,
                1.2251843609434565,
                -3.0896260670877083
            ]
        }
    ]
}{
    "goal": {
        "global_pose": {
            "orientation": {
                "w": 0.5084816217422485,
                "x": -0.49083608388900757,
                "y": 0.5182115435600281,
                "z": -0.4816462993621826
            },
            "position": {
                "x": 0.5540239810943604,
                "y": 0.030875300988554955,
                "z": 0.16403168439865112
            }
        },
        "name": "move_to_storage_A"
    },
    "id": "SPARStwo_move_to_storage_A_122",
    "joint_names": [
        "shoulder_pan_joint",
        "shoulder_lift_joint",
        "elbow_joint",
        "wrist_1_joint",
        "wrist_2_joint",
        "wrist_3_joint"
    ],
    "metrics": {
        "cart_traj_len": 3.5624782131811017,
        "distance_elbow_joint": 4.430725871241494,
        "distance_shoulder_lift_joint": 0.984231174198276,
        "distance_shoulder_pan_joint": 2.7825959247487733,
        "distance_wrist_1_joint": 4.074644862315262,
        "distance_wrist_2_joint": 0.9507722173201548,
        "distance_wrist_3_joint": 3.026633521014265,
        "smoothness": 2.4786374699525417e-16,
        "time": 5.033165725,
        "traj_len": 4.031079702863517,
        "weighted_distance": 5.227646477383696
    },
    "planner": "SPARStwo",
    "start": {
        "state": {
            "elbow_joint": 2.0068001900478483,
            "shoulder_lift_joint": -0.7828853159183383,
            "shoulder_pan_joint": 0.12281154336636259,
            "wrist_1_joint": 1.9692735632958973,
            "wrist_2_joint": -0.12958646943805407,
            "wrist_3_joint": -0.05090164331173832
        }
    },
    "waypoints": [
        {
            "positions": [
                0.12281154336636259,
                -0.7828853159183383,
                2.0068001900478483,
                1.9692735632958973,
                -0.12958646943805407,
                -0.05090164331173832
            ]
        },
        {
            "positions": [
                0.056559259443772755,
                -0.8063193914944877,
                1.9013067169230509,
                1.8722582094312483,
                -0.15222390318377205,
                -0.12296434619303034
            ]
        },
        {
            "positions": [
                -0.009693024478817078,
                -0.8297534670706371,
                1.7958132437982532,
                1.775242855566599,
                -0.17486133692949002,
                -0.19502704907432236
            ]
        },
        {
            "positions": [
                -0.07594530840140691,
                -0.8531875426467866,
                1.6903197706734558,
                1.6782275017019501,
                -0.197498770675208,
                -0.26708975195561435
            ]
        },
        {
            "positions": [
                -0.14219759232399676,
                -0.876621618222936,
                1.5848262975486584,
                1.581212147837301,
                -0.22013620442092596,
                -0.33915245483690637
            ]
        },
        {
            "positions": [
                -0.20844987624658662,
                -0.9000556937990855,
                1.479332824423861,
                1.484196793972652,
                -0.24277363816664393,
                -0.4112151577181984
            ]
        },
        {
            "positions": [
                -0.2747021601691764,
                -0.9234897693752349,
                1.3738393512990634,
                1.387181440108003,
                -0.2654110719123619,
                -0.4832778605994904
            ]
        },
        {
            "positions": [
                -0.3409544440917663,
                -0.9469238449513844,
                1.268345878174266,
                1.2901660862433537,
                -0.2880485056580799,
                -0.5553405634807824
            ]
        },
        {
            "positions": [
                -0.4072067280143561,
                -0.9703579205275337,
                1.1628524050494686,
                1.1931507323787045,
                -0.31068593940379785,
                -0.6274032663620744
            ]
        },
        {
            "positions": [
                -0.47345901193694595,
                -0.9937919961036832,
                1.057358931924671,
                1.0961353785140555,
                -0.3333233731495158,
                -0.6994659692433665
            ]
        },
        {
            "positions": [
                -0.5397112958595358,
                -1.0172260716798327,
                0.9518654587998736,
                0.9991200246494064,
                -0.3559608068952338,
                -0.7715286721246585
            ]
        },
        {
            "positions": [
                -0.6059635797821257,
                -1.040660147255982,
                0.846371985675076,
                0.9021046707847573,
                -0.37859824064095177,
                -0.8435913750059506
            ]
        },
        {
            "positions": [
                -0.6722158637047154,
                -1.0640942228321315,
                0.7408785125502786,
                0.8050893169201083,
                -0.40123567438666974,
                -0.9156540778872425
            ]
        },
        {
            "positions": [
                -0.7384681476273054,
                -1.087528298408281,
                0.635385039425481,
                0.7080739630554591,
                -0.4238731081323877,
                -0.9877167807685346
            ]
        },
        {
            "positions": [
                -0.8047204315498951,
                -1.1109623739844303,
                0.5298915663006838,
                0.6110586091908101,
                -0.4465105418781057,
                -1.0597794836498267
            ]
        },
        {
            "positions": [
                -0.870972715472485,
                -1.1343964495605798,
                0.42439809317588617,
                0.5140432553261609,
                -0.46914797562382365,
                -1.1318421865311188
            ]
        },
        {
            "positions": [
                -0.9372249993950748,
                -1.1578305251367291,
                0.31890462005108877,
                0.4170279014615119,
                -0.4917854093695416,
                -1.2039048894124107
            ]
        },
        {
            "positions": [
                -1.0034772833176646,
                -1.1812646007128786,
                0.21341114692629115,
                0.3200125475968627,
                -0.5144228431152595,
                -1.2759675922937028
            ]
        },
        {
            "positions": [
                -1.0697295672402545,
                -1.204698676289028,
                0.10791767380149375,
                0.22299719373221372,
                -0.5370602768609776,
                -1.3480302951749947
            ]
        },
        {
            "positions": [
                -1.1359818511628443,
                -1.2281327518651775,
                0.002424200676696131,
                0.1259818398675645,
                -0.5596977106066956,
                -1.4200929980562869
            ]
        },
        {
            "positions": [
                -1.2022341350854342,
                -1.251566827441327,
                -0.10306927244810105,
                0.028966486002915515,
                -0.5823351443524135,
                -1.4921557009375788
            ]
        },
        {
            "positions": [
                -1.268486419008024,
                -1.2750009030174763,
                -0.20856274557289867,
                -0.0680488678617337,
                -0.6049725780981314,
                -1.564218403818871
            ]
        },
        {
            "positions": [
                -1.334738702930614,
                -1.2984349785936258,
                -0.3140562186976963,
                -0.1650642217263827,
                -0.6276100118438495,
                -1.636281106700163
            ]
        },
        {
            "positions": [
                -1.4009909868532038,
                -1.3218690541697753,
                -0.4195496918224939,
                -0.2620795755910321,
                -0.6502474455895675,
                -1.7083438095814552
            ]
        },
        {
            "positions": [
                -1.4672432707757934,
                -1.3453031297459246,
                -0.5250431649472911,
                -0.35909492945568067,
                -0.6728848793352854,
                -1.7804065124627468
            ]
        },
        {
            "positions": [
                -1.5334955546983835,
                -1.3687372053220739,
                -0.6305366380720887,
                -0.4561102833203301,
                -0.6955223130810033,
                -1.852469215344039
            ]
        },
        {
            "positions": [
                -1.5997478386209734,
                -1.3921712808982236,
                -0.7360301111968863,
                -0.5531256371849791,
                -0.7181597468267213,
                -1.924531918225331
            ]
        },
        {
            "positions": [
                -1.6660001225435632,
                -1.415605356474373,
                -0.8415235843216835,
                -0.6501409910496285,
                -0.7407971805724394,
                -1.9965946211066232
            ]
        },
        {
            "positions": [
                -1.7322524064661529,
                -1.4390394320505222,
                -0.9470170574464807,
                -0.7471563449142771,
                -0.7634346143181573,
                -2.0686573239879147
            ]
        },
        {
            "positions": [
                -1.7985046903887427,
                -1.4624735076266717,
                -1.0525105305712783,
                -0.8441716987789265,
                -0.7860720480638752,
                -2.140720026869207
            ]
        },
        {
            "positions": [
                -1.8647569743113326,
                -1.4859075832028212,
                -1.158004003696076,
                -0.9411870526435755,
                -0.8087094818095932,
                -2.212782729750499
            ]
        },
        {
            "positions": [
                -1.9310092582339227,
                -1.5093416587789705,
                -1.2634974768208735,
                -1.038202406508225,
                -0.8313469155553113,
                -2.284845432631791
            ]
        },
        {
            "positions": [
                -1.997261542156512,
                -1.5327757343551198,
                -1.3689909499456707,
                -1.1352177603728735,
                -0.8539843493010292,
                -2.3569081355130828
            ]
        },
        {
            "positions": [
                -2.063513826079102,
                -1.5562098099312696,
                -1.4744844230704683,
                -1.232233114237523,
                -0.8766217830467471,
                -2.428970838394375
            ]
        },
        {
            "positions": [
                -2.129766110001692,
                -1.5796438855074189,
                -1.579977896195266,
                -1.329248468102172,
                -0.8992592167924651,
                -2.501033541275667
            ]
        },
        {
            "positions": [
                -2.196018393924282,
                -1.6030779610835684,
                -1.6854713693200636,
                -1.4262638219668213,
                -0.9218966505381831,
                -2.573096244156959
            ]
        },
        {
            "positions": [
                -2.2622706778468715,
                -1.6265120366597177,
                -1.7909648424448608,
                -1.5232791758314699,
                -0.9445340842839011,
                -2.645158947038251
            ]
        },
        {
            "positions": [
                -2.3285229617694614,
                -1.6499461122358672,
                -1.896458315569658,
                -1.6202945296961193,
                -0.967171518029619,
                -2.717221649919543
            ]
        },
        {
            "positions": [
                -2.3947752456920512,
                -1.6733801878120165,
                -2.001951788694456,
                -1.7173098835607683,
                -0.989808951775337,
                -2.789284352800835
            ]
        },
        {
            "positions": [
                -2.461027529614641,
                -1.6968142633881662,
                -2.107445261819253,
                -1.8143252374254177,
                -1.012446385521055,
                -2.861347055682127
            ]
        },
        {
            "positions": [
                -2.527279813537231,
                -1.7202483389643155,
                -2.2129387349440504,
                -1.9113405912900663,
                -1.0350838192667728,
                -2.933409758563419
            ]
        },
        {
            "positions": [
                -2.593532097459821,
                -1.7436824145404648,
                -2.3184322080688484,
                -2.0083559451547157,
                -1.0577212530124909,
                -3.005472461444711
            ]
        },
        {
            "positions": [
                -2.6597843813824107,
                -1.7671164901166143,
                -2.423925681193646,
                -2.1053712990193643,
                -1.080358686758209,
                -3.077535164326003
            ]
        }
    ]
}{
    "goal": {
        "global_pose": {
            "orientation": {
                "w": 0.5084816217422485,
                "x": -0.49083608388900757,
                "y": 0.5182115435600281,
                "z": -0.4816462993621826
            },
            "position": {
                "x": 0.5540239810943604,
                "y": 0.030875300988554955,
                "z": 0.16403168439865112
            }
        },
        "name": "move_to_storage_A"
    },
    "id": "SPARStwo_move_to_storage_A_122",
    "joint_names": [
        "shoulder_pan_joint",
        "shoulder_lift_joint",
        "elbow_joint",
        "wrist_1_joint",
        "wrist_2_joint",
        "wrist_3_joint"
    ],
    "metrics": {
        "cart_traj_len": 2.0364073999449195,
        "distance_elbow_joint": 1.070574337758265,
        "distance_shoulder_lift_joint": 2.0468110151054733,
        "distance_shoulder_pan_joint": 1.8600387088976313,
        "distance_wrist_1_joint": 3.011131732192853,
        "distance_wrist_2_joint": 1.358292642963941,
        "distance_wrist_3_joint": 3.0466877306341487,
        "smoothness": 0.3392747434278554,
        "time": 5.012602066,
        "traj_len": 3.520445450160009,
        "weighted_distance": 4.780830053869036
    },
    "planner": "SPARStwo",
    "start": {
        "state": {
            "elbow_joint": 2.0067996466108142,
            "shoulder_lift_joint": -0.7828853263805681,
            "shoulder_pan_joint": 0.12281153675173406,
            "wrist_1_joint": 1.9692723172632345,
            "wrist_2_joint": -0.12958620914967214,
            "wrist_3_joint": -0.050899761691431615
        }
    },
    "waypoints": [
        {
            "positions": [
                0.12281153675173406,
                -0.7828853263805681,
                2.0067996466108142,
                1.9692723172632345,
                -0.12958620914967214,
                -0.050899761691431615
            ]
        },
        {
            "positions": [
                0.06174129290633566,
                -0.852277645284882,
                1.989612722583387,
                1.8157861316312658,
                -0.09027018220394266,
                -0.10610308530870588
            ]
        },
        {
            "positions": [
                0.0006710490609372621,
                -0.921669964189196,
                1.9724257985559601,
                1.662299945999297,
                -0.050954155258213174,
                -0.16130640892598017
            ]
        },
        {
            "positions": [
                -0.06039919478446115,
                -0.9910622830935099,
                1.955238874528533,
                1.5088137603673286,
                -0.011638128312483675,
                -0.21650973254325442
            ]
        },
        {
            "positions": [
                -0.12146943862985954,
                -1.0604546019978238,
                1.938051950501106,
                1.35532757473536,
                0.027677898633245795,
                -0.2717130561605287
            ]
        },
        {
            "positions": [
                -0.18253968247525793,
                -1.1298469209021378,
                1.9208650264736788,
                1.2018413891033912,
                0.0669939255789753,
                -0.32691637977780297
            ]
        },
        {
            "positions": [
                -0.24360992632065637,
                -1.1992392398064518,
                1.903678102446252,
                1.0483552034714225,
                0.10630995252470479,
                -0.3821197033950772
            ]
        },
        {
            "positions": [
                -0.30468017016605475,
                -1.2686315587107657,
                1.8864911784188247,
                0.8948690178394538,
                0.1456259794704343,
                -0.4373230270123515
            ]
        },
        {
            "positions": [
                -0.36575041401145314,
                -1.3380238776150797,
                1.8693042543913976,
                0.7413828322074854,
                0.18494200641616373,
                -0.4925263506296258
            ]
        },
        {
            "positions": [
                -0.4268206578568515,
                -1.4074161965193936,
                1.8521173303639706,
                0.5878966465755167,
                0.22425803336189323,
                -0.5477296742469
            ]
        },
        {
            "positions": [
                -0.4878909017022499,
                -1.4768085154237076,
                1.8349304063365435,
                0.43441046094354796,
                0.26357406030762276,
                -0.6029329978641743
            ]
        },
        {
            "positions": [
                -0.5489611455476484,
                -1.5462008343280216,
                1.8177434823091165,
                0.28092427531157904,
                0.3028900872533523,
                -0.6581363214814486
            ]
        },
        {
            "positions": [
                -0.6100313893930468,
                -1.6155931532323353,
                1.8005565582816894,
                0.12743808967961057,
                0.34220611419908176,
                -0.7133396450987228
            ]
        },
        {
            "positions": [
                -0.6711016332384452,
                -1.6849854721366495,
                1.7833696342542624,
                -0.02604809595235813,
                0.3815221411448113,
                -0.7685429687159971
            ]
        },
        {
            "positions": [
                -0.7321718770838436,
                -1.7543777910409633,
                1.7661827102268353,
                -0.17953428158432683,
                0.42083816809054075,
                -0.8237462923332713
            ]
        },
        {
            "positions": [
                -0.793242120929242,
                -1.8237701099452774,
                1.748995786199408,
                -0.3330204672162953,
                0.4601541950362702,
                -0.8789496159505458
            ]
        },
        {
            "positions": [
                -0.8543123647746403,
                -1.8931624288495912,
                1.7318088621719812,
                -0.4865066528482638,
                0.49947022198199964,
                -0.93415293956782
            ]
        },
        {
            "positions": [
                -0.9153826086200388,
                -1.9625547477539054,
                1.714621938144554,
                -0.6399928384802327,
                0.5387862489277292,
                -0.9893562631850943
            ]
        },
        {
            "positions": [
                -0.9764528524654371,
                -2.031947066658219,
                1.697435014117127,
                -0.7934790241122012,
                0.5781022758734586,
                -1.0445595868023685
            ]
        },
        {
            "positions": [
                -1.0375230963108355,
                -2.1013393855625333,
                1.6802480900896999,
                -0.9469652097441701,
                0.6174183028191882,
                -1.0997629104196427
            ]
        },
        {
            "positions": [
                -0.9836997058619846,
                -2.0453119274145712,
                1.7374806117233268,
                -0.9542647639892047,
                0.6644404667418867,
                -1.2534417244124072
            ]
        },
        {
            "positions": [
                -0.9298763154131338,
                -1.989284469266609,
                1.794713133356954,
                -0.9615643182342394,
                0.7114626306645853,
                -1.4071205384051715
            ]
        },
        {
            "positions": [
                -0.8760529249642829,
                -1.933257011118647,
                1.8519456549905808,
                -0.968863872479274,
                0.7584847945872837,
                -1.560799352397936
            ]
        },
        {
            "positions": [
                -0.822229534515432,
                -1.8772295529706846,
                1.9091781766242077,
                -0.9761634267243087,
                0.8055069585099822,
                -1.7144781663907005
            ]
        },
        {
            "positions": [
                -0.7684061440665813,
                -1.8212020948227226,
                1.9664106982578349,
                -0.9834629809693433,
                0.8525291224326808,
                -1.868156980383465
            ]
        },
        {
            "positions": [
                -0.7145827536177303,
                -1.7651746366747605,
                2.023643219891462,
                -0.9907625352143778,
                0.8995512863553793,
                -2.0218357943762295
            ]
        },
        {
            "positions": [
                -0.6607593631688795,
                -1.7091471785267984,
                2.0808757415250887,
                -0.9980620894594125,
                0.9465734502780777,
                -2.175514608368994
            ]
        },
        {
            "positions": [
                -0.6069359727200285,
                -1.6531197203788361,
                2.1381082631587156,
                -1.0053616437044472,
                0.9935956142007762,
                -2.329193422361758
            ]
        },
        {
            "positions": [
                -0.5531125822711778,
                -1.5970922622308739,
                2.1953407847923425,
                -1.0126611979494817,
                1.0406177781234747,
                -2.482872236354523
            ]
        },
        {
            "positions": [
                -0.4992891918223269,
                -1.5410648040829118,
                2.25257330642597,
                -1.0199607521945164,
                1.0876399420461733,
                -2.636551050347287
            ]
        },
        {
            "positions": [
                -0.445465801373476,
                -1.4850373459349497,
                2.3098058280595968,
                -1.0272603064395511,
                1.1346621059688717,
                -2.7902298643400516
            ]
        },
        {
            "positions": [
                -0.39164241092462515,
                -1.4290098877869875,
                2.3670383496932237,
                -1.0345598606845856,
                1.1816842698915704,
                -2.943908678332816
            ]
        },
        {
            "positions": [
                -0.33781902047577433,
                -1.3729824296390254,
                2.4242708713268506,
                -1.0418594149296203,
                1.2287064338142688,
                -3.0975874923255806
            ]
        }
    ]
}{
    "goal": {
        "global_pose": {
            "orientation": {
                "w": 0.5084816217422485,
                "x": -0.49083608388900757,
                "y": 0.5182115435600281,
                "z": -0.4816462993621826
            },
            "position": {
                "x": 0.5540239810943604,
                "y": 0.030875300988554955,
                "z": 0.16403168439865112
            }
        },
        "name": "move_to_storage_A"
    },
    "id": "SPARStwo_move_to_storage_A_122",
    "joint_names": [
        "shoulder_pan_joint",
        "shoulder_lift_joint",
        "elbow_joint",
        "wrist_1_joint",
        "wrist_2_joint",
        "wrist_3_joint"
    ],
    "metrics": {
        "cart_traj_len": 4.901535529907921,
        "distance_elbow_joint": 5.179072057392689,
        "distance_shoulder_lift_joint": 2.0154758076509,
        "distance_shoulder_pan_joint": 4.3632749290565584,
        "distance_wrist_1_joint": 3.0108029615482526,
        "distance_wrist_2_joint": 1.5451918219146792,
        "distance_wrist_3_joint": 3.0341534224321505,
        "smoothness": 0.38238034651217817,
        "time": 5.027743759000001,
        "traj_len": 4.3758394623197985,
        "weighted_distance": 5.456397403811645
    },
    "planner": "SPARStwo",
    "start": {
        "state": {
            "elbow_joint": 2.006800555357362,
            "shoulder_lift_joint": -0.782885594235374,
            "shoulder_pan_joint": 0.1228115531983719,
            "wrist_1_joint": 1.969274754203215,
            "wrist_2_joint": -0.12958693502385904,
            "wrist_3_joint": -0.05090296539088706
        }
    },
    "waypoints": [
        {
            "positions": [
                0.1228115531983719,
                -0.782885594235374,
                2.006800555357362,
                1.969274754203215,
                -0.12958693502385904,
                -0.05090296539088706
            ]
        },
        {
            "positions": [
                0.03001236725434968,
                -0.8329795613825123,
                1.9152386776345942,
                1.8569879458935936,
                -0.13313259027290836,
                -0.0960841191155743
            ]
        },
        {
            "positions": [
                -0.06278681868967255,
                -0.8830735285296506,
                1.8236767999118264,
                1.7447011375839725,
                -0.13667824552195768,
                -0.14126527284026155
            ]
        },
        {
            "positions": [
                -0.15558600463369476,
                -0.933167495676789,
                1.7321149221890584,
                1.6324143292743512,
                -0.140223900771007,
                -0.18644642656494878
            ]
        },
        {
            "positions": [
                -0.24838519057771702,
                -0.9832614628239273,
                1.6405530444662906,
                1.52012752096473,
                -0.1437695560200563,
                -0.23162758028963604
            ]
        },
        {
            "positions": [
                -0.3411843765217392,
                -1.0333554299710657,
                1.5489911667435228,
                1.4078407126551087,
                -0.14731521126910563,
                -0.27680873401432327
            ]
        },
        {
            "positions": [
                -0.4339835624657614,
                -1.083449397118204,
                1.4574292890207547,
                1.2955539043454873,
                -0.15086086651815492,
                -0.3219898877390105
            ]
        },
        {
            "positions": [
                -0.5267827484097837,
                -1.1335433642653423,
                1.365867411297987,
                1.1832670960358662,
                -0.15440652176720424,
                -0.3671710414636977
            ]
        },
        {
            "positions": [
                -0.6195819343538059,
                -1.1836373314124806,
                1.2743055335752191,
                1.0709802877262449,
                -0.15795217701625355,
                -0.412352195188385
            ]
        },
        {
            "positions": [
                -0.7123811202978281,
                -1.233731298559619,
                1.1827436558524513,
                0.9586934794166238,
                -0.16149783226530287,
                -0.4575333489130722
            ]
        },
        {
            "positions": [
                -0.8051803062418503,
                -1.2838252657067573,
                1.0911817781296835,
                0.8464066711070024,
                -0.1650434875143522,
                -0.5027145026377594
            ]
        },
        {
            "positions": [
                -0.8979794921858725,
                -1.3339192328538956,
                0.9996199004069157,
                0.7341198627973811,
                -0.1685891427634015,
                -0.5478956563624466
            ]
        },
        {
            "positions": [
                -0.9907786781298947,
                -1.384013200001034,
                0.9080580226841477,
                0.6218330544877597,
                -0.17213479801245082,
                -0.5930768100871339
            ]
        },
        {
            "positions": [
                -1.0835778640739169,
                -1.4341071671481722,
                0.8164961449613799,
                0.5095462461781386,
                -0.1756804532615001,
                -0.6382579638118211
            ]
        },
        {
            "positions": [
                -1.1763770500179391,
                -1.4842011342953105,
                0.7249342672386121,
                0.3972594378685175,
                -0.17922610851054943,
                -0.6834391175365083
            ]
        },
        {
            "positions": [
                -1.2691762359619612,
                -1.5342951014424488,
                0.6333723895158443,
                0.28497262955889613,
                -0.18277176375959875,
                -0.7286202712611956
            ]
        },
        {
            "positions": [
                -1.3619754219059836,
                -1.5843890685895874,
                0.5418105117930763,
                0.17268582124927478,
                -0.18631741900864807,
                -0.7738014249858829
            ]
        },
        {
            "positions": [
                -1.4547746078500057,
                -1.6344830357367257,
                0.45024863407030846,
                0.06039901293965344,
                -0.18986307425769738,
                -0.81898257871057
            ]
        },
        {
            "positions": [
                -1.547573793794028,
                -1.684577002883864,
                0.35868675634754066,
                -0.05188779536996746,
                -0.1934087295067467,
                -0.8641637324352572
            ]
        },
        {
            "positions": [
                -1.6403729797380502,
                -1.7346709700310021,
                0.26712487862477285,
                -0.16417460367958903,
                -0.19695438475579602,
                -0.9093448861599445
            ]
        },
        {
            "positions": [
                -1.7331721656820724,
                -1.7847649371781409,
                0.17556300090200483,
                -0.27646141198921015,
                -0.20050004000484534,
                -0.9545260398846318
            ]
        },
        {
            "positions": [
                -1.8259713516260947,
                -1.8348589043252792,
                0.08400112317923702,
                -0.3887482202988317,
                -0.20404569525389465,
                -0.999707193609319
            ]
        },
        {
            "positions": [
                -1.9187705375701167,
                -1.8849528714724175,
                -0.007560754543530557,
                -0.5010350286084528,
                -0.20759135050294397,
                -1.0448883473340063
            ]
        },
        {
            "positions": [
                -2.011569723514139,
                -1.9350468386195558,
                -0.09912263226629836,
                -0.613321836918074,
                -0.21113700575199326,
                -1.0900695010586934
            ]
        },
        {
            "positions": [
                -2.1043689094581612,
                -1.9851408057666942,
                -0.1906845099890666,
                -0.7256086452276955,
                -0.2146826610010426,
                -1.1352506547833807
            ]
        },
        {
            "positions": [
                -2.1971680954021835,
                -2.0352347729138325,
                -0.2822463877118344,
                -0.8378954535373166,
                -0.2182283162500919,
                -1.180431808508068
            ]
        },
        {
            "positions": [
                -2.2899672813462058,
                -2.085328740060971,
                -0.3738082654346023,
                -0.9501822618469379,
                -0.22177397149914121,
                -1.2256129622327552
            ]
        },
        {
            "positions": [
                -2.205163103323946,
                -2.05432731998161,
                -0.2521359507997883,
                -0.9541538246946815,
                -0.15859985039308047,
                -1.3064583285627673
            ]
        },
        {
            "positions": [
                -2.120358925301686,
                -2.023325899902249,
                -0.13046363616497422,
                -0.9581253875424252,
                -0.09542572928701973,
                -1.3873036948927797
            ]
        },
        {
            "positions": [
                -2.035554747279426,
                -1.9923244798228879,
                -0.008791321530160157,
                -0.9620969503901687,
                -0.032251608180958985,
                -1.468149061222792
            ]
        },
        {
            "positions": [
                -1.950750569257166,
                -1.9613230597435267,
                0.11288099310465388,
                -0.9660685132379123,
                0.03092251292510176,
                -1.5489944275528043
            ]
        },
        {
            "positions": [
                -1.8659463912349061,
                -1.9303216396641658,
                0.23455330773946792,
                -0.9700400760856559,
                0.0940966340311625,
                -1.6298397938828164
            ]
        },
        {
            "positions": [
                -1.7811422132126462,
                -1.8993202195848047,
                0.356225622374282,
                -0.9740116389333996,
                0.15727075513722324,
                -1.7106851602128288
            ]
        },
        {
            "positions": [
                -1.6963380351903863,
                -1.8683187995054438,
                0.4778979370090961,
                -0.9779832017811432,
                0.220444876243284,
                -1.7915305265428412
            ]
        },
        {
            "positions": [
                -1.6115338571681264,
                -1.8373173794260826,
                0.5995702516439101,
                -0.9819547646288868,
                0.2836189973493447,
                -1.8723758928728533
            ]
        },
        {
            "positions": [
                -1.5267296791458664,
                -1.8063159593467217,
                0.7212425662787242,
                -0.9859263274766303,
                0.3467931184554055,
                -1.9532212592028657
            ]
        },
        {
            "positions": [
                -1.4419255011236065,
                -1.7753145392673608,
                0.8429148809135382,
                -0.989897890324374,
                0.4099672395614662,
                -2.034066625532878
            ]
        },
        {
            "positions": [
                -1.3571213231013468,
                -1.7443131191879997,
                0.9645871955483524,
                -0.9938694531721176,
                0.4731413606675269,
                -2.1149119918628903
            ]
        },
        {
            "positions": [
                -1.2723171450790869,
                -1.7133116991086388,
                1.0862595101831665,
                -0.9978410160198612,
                0.5363154817735877,
                -2.1957573581929024
            ]
        },
        {
            "positions": [
                -1.187512967056827,
                -1.6823102790292777,
                1.2079318248179804,
                -1.0018125788676049,
                0.5994896028796484,
                -2.2766027245229146
            ]
        },
        {
            "positions": [
                -1.1027087890345668,
                -1.6513088589499167,
                1.3296041394527944,
                -1.0057841417153484,
                0.6626637239857092,
                -2.357448090852927
            ]
        },
        {
            "positions": [
                -1.0179046110123071,
                -1.6203074388705558,
                1.4512764540876084,
                -1.009755704563092,
                0.7258378450917699,
                -2.4382934571829393
            ]
        },
        {
            "positions": [
                -0.9331004329900472,
                -1.5893060187911947,
                1.5729487687224224,
                -1.0137272674108357,
                0.7890119661978306,
                -2.5191388235129515
            ]
        },
        {
            "positions": [
                -0.8482962549677873,
                -1.5583045987118338,
                1.6946210833572368,
                -1.0176988302585792,
                0.8521860873038912,
                -2.5999841898429636
            ]
        },
        {
            "positions": [
                -0.7634920769455271,
                -1.5273031786324727,
                1.8162933979920508,
                -1.021670393106323,
                0.9153602084099522,
                -2.6808295561729762
            ]
        },
        {
            "positions": [
                -0.6786878989232674,
                -1.4963017585531118,
                1.9379657126268648,
                -1.0256419559540664,
                0.9785343295160128,
                -2.7616749225029884
            ]
        },
        {
            "positions": [
                -0.5938837209010075,
                -1.4653003384737509,
                2.0596380272616788,
                -1.02961351880181,
                1.0417084506220737,
                -2.8425202888330006
            ]
        },
        {
            "positions": [
                -0.5090795428787476,
                -1.4342989183943897,
                2.1813103418964928,
                -1.0335850816495538,
                1.1048825717281343,
                -2.923365655163013
            ]
        },
        {
            "positions": [
                -0.42427536485648765,
                -1.4032974983150286,
                2.302982656531307,
                -1.0375566444972972,
                1.168056692834195,
                -3.0042110214930253
            ]
        },
        {
            "positions": [
                -0.33947118683422767,
                -1.3722960782356677,
                2.424654971166121,
                -1.041528207345041,
                1.231230813940256,
                -3.0850563878230375
            ]
        }
    ]
}