{
    "goal": {
        "global_pose": {
            "orientation": {
                "w": -0.4816463035849501,
                "x": 0.5182115481033762,
                "y": 0.4908360881923453,
                "z": -0.5084816262002911
            },
            "position": {
                "x": -0.8240239810943604,
                "y": -0.300875300988555,
                "z": 0.16403168439865112
            }
        },
        "name": "move_to_storage_C"
    },
    "id": "SPARS_move_to_storage_C_134",
    "joint_names": [
        "shoulder_pan_joint",
        "shoulder_lift_joint",
        "elbow_joint",
        "wrist_1_joint",
        "wrist_2_joint",
        "wrist_3_joint"
    ],
    "metrics": {
        "cart_traj_len": 0.5758266349945419,
        "distance_elbow_joint": 0.25746425247742044,
        "distance_shoulder_lift_joint": 0.1892280636307032,
        "distance_shoulder_pan_joint": 0.4946559185297179,
        "distance_wrist_1_joint": 0.07883022360502079,
        "distance_wrist_2_joint": 1.0618113884295095,
        "distance_wrist_3_joint": 0.07565352670973802,
        "smoothness": 5.075305295617109e-16,
        "time": 5.053874775000001,
        "traj_len": 1.4688918862129063,
        "weighted_distance": 1.8573077394002633
    },
    "planner": "SPARS",
    "start": {
        "state": {
            "elbow_joint": 2.010868314990456,
            "shoulder_lift_joint": -1.1634956873337592,
            "shoulder_pan_joint": -2.4736205022346125,
            "wrist_1_joint": -0.8367026794202681,
            "wrist_2_joint": 0.6746043897044499,
            "wrist_3_joint": -3.1496632123970403
        }
    },
    "waypoints": [
        {
            "positions": [
                -2.4736205022346125,
                -1.1634956873337592,
                2.010868314990456,
                -0.8367026794202681,
                0.6746043897044499,
                -3.1496632123970403
            ]
        },
        {
            "positions": [
                -2.556063155322899,
                -1.131957676728642,
                1.967957606244219,
                -0.8235643088194313,
                0.8515729544427015,
                -3.1370542912787505
            ]
        },
        {
            "positions": [
                -2.638505808411185,
                -1.1004196661235248,
                1.9250468974979824,
                -0.8104259382185945,
                1.028541519180953,
                -3.124445370160461
            ]
        },
        {
            "positions": [
                -2.7209484614994714,
                -1.0688816555184075,
                1.8821361887517456,
                -0.7972875676177578,
                1.2055100839192048,
                -3.1118364490421713
            ]
        },
        {
            "positions": [
                -2.803391114587758,
                -1.0373436449132905,
                1.8392254800055088,
                -0.7841491970169209,
                1.382478648657456,
                -3.0992275279238815
            ]
        },
        {
            "positions": [
                -2.885833767676044,
                -1.0058056343081732,
                1.7963147712592722,
                -0.7710108264160841,
                1.5594472133957078,
                -3.086618606805592
            ]
        },
        {
            "positions": [
                -2.9682764207643304,
                -0.974267623703056,
                1.7534040625130354,
                -0.7578724558152473,
                1.7364157781339593,
                -3.0740096856873023
            ]
        }
    ]
}