{
    "goal": {
        "global_pose": {
            "orientation": {
                "w": -0.4816463035849501,
                "x": 0.5182115481033762,
                "y": 0.4908360881923453,
                "z": -0.5084816262002911
            },
            "position": {
                "x": -0.8240239810943604,
                "y": -0.300875300988555,
                "z": 0.16403168439865112
            }
        },
        "name": "move_to_storage_C"
    },
    "id": "SPARS_move_to_storage_C_111",
    "joint_names": [
        "shoulder_pan_joint",
        "shoulder_lift_joint",
        "elbow_joint",
        "wrist_1_joint",
        "wrist_2_joint",
        "wrist_3_joint"
    ],
    "metrics": {
        "cart_traj_len": 0.5770678867279934,
        "distance_elbow_joint": 0.2579125622204457,
        "distance_shoulder_lift_joint": 0.1906309097750487,
        "distance_shoulder_pan_joint": 0.4952433320430676,
        "distance_wrist_1_joint": 0.0727125272370398,
        "distance_wrist_2_joint": 1.062704088742365,
        "distance_wrist_3_joint": 0.0714787287800207,
        "smoothness": 2.5376526478085547e-16,
        "time": 5.04763182,
        "traj_len": 1.4665204222232937,
        "weighted_distance": 1.8517711041965834
    },
    "planner": "SPARS",
    "start": {
        "state": {
            "elbow_joint": 2.010868314990456,
            "shoulder_lift_joint": -1.1634956873337592,
            "shoulder_pan_joint": -2.4736205022346125,
            "wrist_1_joint": -0.8367026794202681,
            "wrist_2_joint": 0.6746043897044499,
            "wrist_3_joint": -3.1496632123970403
        }
    },
    "waypoints": [
        {
            "positions": [
                -2.4736205022346125,
                -1.1634956873337592,
                2.010868314990456,
                -0.8367026794202681,
                0.6746043897044499,
                -3.1496632123970403
            ]
        },
        {
            "positions": [
                -2.5561610575751237,
                -1.1317238690379177,
                1.967882887953715,
                -0.8245839248807615,
                0.8517217378281774,
                -3.1377500909337037
            ]
        },
        {
            "positions": [
                -2.638701612915635,
                -1.0999520507420764,
                1.924897460916974,
                -0.8124651703412549,
                1.028839085951905,
                -3.1258369694703667
            ]
        },
        {
            "positions": [
                -2.721242168256146,
                -1.0681802324462348,
                1.881912033880233,
                -0.8003464158017481,
                1.2059564340756324,
                -3.1139238480070297
            ]
        },
        {
            "positions": [
                -2.8037827235966577,
                -1.0364084141503933,
                1.838926606843492,
                -0.7882276612622415,
                1.38307378219936,
                -3.102010726543693
            ]
        },
        {
            "positions": [
                -2.886323278937169,
                -1.004636595854552,
                1.795941179806751,
                -0.7761089067227349,
                1.5601911303230875,
                -3.0900976050803566
            ]
        },
        {
            "positions": [
                -2.96886383427768,
                -0.9728647775587105,
                1.7529557527700101,
                -0.7639901521832283,
                1.7373084784468151,
                -3.0781844836170196
            ]
        }
    ]
}