{
    "goal": {
        "global_pose": {
            "orientation": {
                "w": -0.4816463035849501,
                "x": 0.5182115481033762,
                "y": 0.4908360881923453,
                "z": -0.5084816262002911
            },
            "position": {
                "x": -0.8240239810943604,
                "y": 0.19912469901144506,
                "z": 0.16403168439865112
            }
        },
        "name": "move_to_storage_D"
    },
    "id": "SPARStwo_move_to_storage_D_126",
    "joint_names": [
        "shoulder_pan_joint",
        "shoulder_lift_joint",
        "elbow_joint",
        "wrist_1_joint",
        "wrist_2_joint",
        "wrist_3_joint"
    ],
    "metrics": {
        "cart_traj_len": 4.117785303454727,
        "distance_elbow_joint": 4.939336673176873,
        "distance_shoulder_lift_joint": 1.2659444168061198,
        "distance_shoulder_pan_joint": 2.8140482869785446,
        "distance_wrist_1_joint": 2.5061414592914844,
        "distance_wrist_2_joint": 0.8818290855305194,
        "distance_wrist_3_joint": 4.333729615856449,
        "smoothness": 0.3210865387830382,
        "time": 5.02717608,
        "traj_len": 4.0915803227652745,
        "weighted_distance": 5.366233251935187
    },
    "planner": "SPARStwo",
    "start": {
        "state": {
            "elbow_joint": -2.384821988534728,
            "shoulder_lift_joint": -2.2788054721415256,
            "shoulder_pan_joint": -0.1854694642142757,
            "wrist_1_joint": 1.4845938289331202,
            "wrist_2_joint": 0.17898776772866878,
            "wrist_3_joint": 0.037105688729662994
        }
    },
    "waypoints": [
        {
            "positions": [
                -0.1854694642142757,
                -2.2788054721415256,
                -2.384821988534728,
                1.4845938289331202,
                0.17898776772866878,
                0.037105688729662994
            ]
        },
        {
            "positions": [
                -0.07792921214155608,
                -2.2584377053443707,
                -2.4369731659825105,
                1.501613243736916,
                0.25702247172192877,
                -0.048099375558843666
            ]
        },
        {
            "positions": [
                0.02961103993116354,
                -2.2380699385472163,
                -2.489124343430293,
                1.5186326585407117,
                0.3350571757151887,
                -0.13330443984735033
            ]
        },
        {
            "positions": [
                0.13715129200388318,
                -2.2177021717500613,
                -2.5412755208780755,
                1.5356520733445076,
                0.4130918797084487,
                -0.21850950413585699
            ]
        },
        {
            "positions": [
                0.2446915440766028,
                -2.197334404952907,
                -2.5934266983258576,
                1.5526714881483032,
                0.4911265837017087,
                -0.3037145684243636
            ]
        },
        {
            "positions": [
                0.35223179614932254,
                -2.176966638155752,
                -2.64557787577364,
                1.5696909029520991,
                0.5691612876949687,
                -0.38891963271287033
            ]
        },
        {
            "positions": [
                0.4597720482220421,
                -2.1565988713585975,
                -2.6977290532214226,
                1.5867103177558948,
                0.6471959916882286,
                -0.47412469700137694
            ]
        },
        {
            "positions": [
                0.5673123002947618,
                -2.1362311045614426,
                -2.749880230669205,
                1.6037297325596906,
                0.7252306956814886,
                -0.5593297612898837
            ]
        },
        {
            "positions": [
                0.6245697036966925,
                -2.1050263809718306,
                -2.6228169409180273,
                1.5374240226801097,
                0.7345525333919802,
                -0.4555160344610808
            ]
        },
        {
            "positions": [
                0.6818271070986233,
                -2.073821657382218,
                -2.49575365116685,
                1.4711183128005287,
                0.7438743711024719,
                -0.35170230763227794
            ]
        },
        {
            "positions": [
                0.739084510500554,
                -2.042616933792606,
                -2.368690361415672,
                1.4048126029209478,
                0.7531962088129636,
                -0.24788858080347514
            ]
        },
        {
            "positions": [
                0.7963419139024848,
                -2.011412210202994,
                -2.2416270716644946,
                1.3385068930413668,
                0.7625180465234552,
                -0.1440748539746723
            ]
        },
        {
            "positions": [
                0.8535993173044156,
                -1.9802074866133819,
                -2.1145637819133167,
                1.2722011831617859,
                0.7718398842339469,
                -0.04026112714586938
            ]
        },
        {
            "positions": [
                0.9108567207063463,
                -1.9490027630237698,
                -1.9875004921621393,
                1.205895473282205,
                0.7811617219444384,
                0.06355259968293336
            ]
        },
        {
            "positions": [
                0.9681141241082771,
                -1.9177980394341576,
                -1.8604372024109614,
                1.139589763402624,
                0.7904835596549301,
                0.16736632651173622
            ]
        },
        {
            "positions": [
                1.0253715275102078,
                -1.8865933158445456,
                -1.7333739126597838,
                1.073284053523043,
                0.7998053973654218,
                0.2711800533405391
            ]
        },
        {
            "positions": [
                1.0826289309121386,
                -1.8553885922549334,
                -1.6063106229086062,
                1.0069783436434623,
                0.8091272350759134,
                0.37499378016934193
            ]
        },
        {
            "positions": [
                1.1398863343140695,
                -1.8241838686653213,
                -1.4792473331574285,
                0.9406726337638812,
                0.8184490727864051,
                0.4788075069981449
            ]
        },
        {
            "positions": [
                1.1971437377160004,
                -1.792979145075709,
                -1.3521840434062506,
                0.8743669238843003,
                0.8277709104968968,
                0.5826212338269477
            ]
        },
        {
            "positions": [
                1.2544011411179308,
                -1.761774421486097,
                -1.2251207536550732,
                0.8080612140047194,
                0.8370927482073884,
                0.6864349606557504
            ]
        },
        {
            "positions": [
                1.3116585445198616,
                -1.7305696978964848,
                -1.0980574639038956,
                0.7417555041251385,
                0.8464145859178801,
                0.7902486874845532
            ]
        },
        {
            "positions": [
                1.3689159479217925,
                -1.6993649743068726,
                -0.9709941741527177,
                0.6754497942455574,
                0.8557364236283718,
                0.8940624143133561
            ]
        },
        {
            "positions": [
                1.4261733513237234,
                -1.6681602507172606,
                -0.8439308844015401,
                0.6091440843659764,
                0.8650582613388634,
                0.997876141142159
            ]
        },
        {
            "positions": [
                1.4834307547256538,
                -1.6369555271276486,
                -0.7168675946503624,
                0.5428383744863956,
                0.8743800990493551,
                1.1016898679709617
            ]
        },
        {
            "positions": [
                1.5406881581275846,
                -1.6057508035380363,
                -0.589804304899185,
                0.47653266460681465,
                0.8837019367598467,
                1.2055035947997648
            ]
        },
        {
            "positions": [
                1.5979455615295155,
                -1.574546079948424,
                -0.46274101514800714,
                0.4102269547272337,
                0.8930237744703384,
                1.3093173216285674
            ]
        },
        {
            "positions": [
                1.6552029649314464,
                -1.543341356358812,
                -0.3356777253968293,
                0.34392124484765274,
                0.90234561218083,
                1.4131310484573705
            ]
        },
        {
            "positions": [
                1.712460368333377,
                -1.5121366327692,
                -0.20861443564565185,
                0.2776155349680718,
                0.9116674498913218,
                1.5169447752861736
            ]
        },
        {
            "positions": [
                1.7697177717353079,
                -1.4809319091795876,
                -0.08155114589447399,
                0.21130982508849083,
                0.9209892876018133,
                1.6207585021149762
            ]
        },
        {
            "positions": [
                1.8269751751372387,
                -1.4497271855899756,
                0.04551214385670388,
                0.14500411520890988,
                0.930311125312305,
                1.7245722289437793
            ]
        },
        {
            "positions": [
                1.8842325785391691,
                -1.4185224620003636,
                0.17257543360788086,
                0.07869840532932915,
                0.9396329630227966,
                1.8283859557725815
            ]
        },
        {
            "positions": [
                1.9414899819411,
                -1.3873177384107516,
                0.2996387233590587,
                0.012392695449748192,
                0.9489548007332883,
                1.9321996826013845
            ]
        },
        {
            "positions": [
                1.9987473853430309,
                -1.3561130148211393,
                0.4267020131102366,
                -0.05391301442983276,
                0.95827663844378,
                2.0360134094301876
            ]
        },
        {
            "positions": [
                2.0560047887449615,
                -1.324908291231527,
                0.553765302861414,
                -0.12021872430941372,
                0.9675984761542716,
                2.1398271362589902
            ]
        },
        {
            "positions": [
                2.1132621921468924,
                -1.293703567641915,
                0.6808285926125919,
                -0.1865244341889949,
                0.9769203138647633,
                2.2436408630877933
            ]
        },
        {
            "positions": [
                2.1705195955488232,
                -1.2624988440523028,
                0.8078918823637697,
                -0.25283014406857585,
                0.9862421515752549,
                2.347454589916596
            ]
        },
        {
            "positions": [
                2.2277769989507537,
                -1.2312941204626906,
                0.9349551721149472,
                -0.3191358539481568,
                0.9955639892857466,
                2.451268316745399
            ]
        },
        {
            "positions": [
                2.285034402352685,
                -1.2000893968730786,
                1.062018461866125,
                -0.38544156382773775,
                1.0048858269962382,
                2.5550820435742017
            ]
        },
        {
            "positions": [
                2.3422918057546154,
                -1.1688846732834666,
                1.189081751617303,
                -0.4517472737073187,
                1.01420766470673,
                2.6588957704030047
            ]
        },
        {
            "positions": [
                2.399549209156546,
                -1.1376799496938546,
                1.3161450413684803,
                -0.5180529835868994,
                1.0235295024172215,
                2.7627094972318074
            ]
        },
        {
            "positions": [
                2.456806612558477,
                -1.1064752261042423,
                1.4432083311196577,
                -0.5843586934664802,
                1.032851340127713,
                2.86652322406061
            ]
        },
        {
            "positions": [
                2.5140640159604075,
                -1.07527050251463,
                1.5702716208708352,
                -0.6506644033460613,
                1.0421731778382048,
                2.970336950889413
            ]
        },
        {
            "positions": [
                2.5713214193623384,
                -1.044065778925018,
                1.6973349106220135,
                -0.7169701132256421,
                1.0514950155486966,
                3.0741506777182157
            ]
        },
        {
            "positions": [
                2.6285788227642692,
                -1.0128610553354058,
                1.8243982003731913,
                -0.7832758231052233,
                1.0608168532591882,
                3.177964404547019
            ]
        }
    ]
}