{
    "goal": {
        "global_pose": {
            "orientation": {
                "w": 0.7031023480610252,
                "x": -0.7110244013736278,
                "y": 0.0077485991402295624,
                "z": 0.005598929693374583
            },
            "position": {
                "x": -0.8841497679147869,
                "y": 0.44412534475326537,
                "z": 0.3711530566215515
            }
        },
        "name": "move_to_auspresseinheit_D"
    },
    "id": "SPARS_move_to_auspresseinheit_D_78",
    "joint_names": [
        "shoulder_pan_joint",
        "shoulder_lift_joint",
        "elbow_joint",
        "wrist_1_joint",
        "wrist_2_joint",
        "wrist_3_joint"
    ],
    "metrics": {
        "cart_traj_len": 0.3432192747974782,
        "distance_elbow_joint": 0.6332779902841486,
        "distance_shoulder_lift_joint": 0.11805492450684518,
        "distance_shoulder_pan_joint": 0.13413890272154,
        "distance_wrist_1_joint": 0.5172365917326549,
        "distance_wrist_2_joint": 1.4332131025307926,
        "distance_wrist_3_joint": 0.009725377730077867,
        "smoothness": 9.868649154664964e-16,
        "time": 5.027025607000001,
        "traj_len": 1.6869045288652407,
        "weighted_distance": 2.19443554000332
    },
    "planner": "SPARS",
    "start": {
        "state": {
            "elbow_joint": -1.8275523626775212,
            "shoulder_lift_joint": -2.126789852344167,
            "shoulder_pan_joint": -0.03513704404078235,
            "wrist_1_joint": -2.347782403156801,
            "wrist_2_joint": -1.6058999987535132,
            "wrist_3_joint": -3.0880379163319196
        }
    },
    "waypoints": [
        {
            "positions": [
                -0.03513704404078235,
                -2.126789852344167,
                -1.8275523626775212,
                -2.347782403156801,
                -1.6058999987535132,
                -3.0880379163319196
            ]
        },
        {
            "positions": [
                -0.05190440688097485,
                -2.1415467179075227,
                -1.7483926138920025,
                -2.4124369771233827,
                -1.426748360937164,
                -3.0892535885481793
            ]
        },
        {
            "positions": [
                -0.06867176972116734,
                -2.156303583470878,
                -1.669232865106484,
                -2.4770915510899645,
                -1.247596723120815,
                -3.090469260764439
            ]
        },
        {
            "positions": [
                -0.08543913256135985,
                -2.1710604490342336,
                -1.5900731163209656,
                -2.5417461250565463,
                -1.068445085304466,
                -3.091684932980699
            ]
        },
        {
            "positions": [
                -0.10220649540155236,
                -2.1858173145975894,
                -1.510913367535447,
                -2.606400699023128,
                -0.8892934474881169,
                -3.0929006051969585
            ]
        },
        {
            "positions": [
                -0.11897385824174486,
                -2.2005741801609453,
                -1.4317536187499282,
                -2.6710552729897103,
                -0.7101418096717678,
                -3.0941162774132183
            ]
        },
        {
            "positions": [
                -0.13574122108193734,
                -2.2153310457243007,
                -1.3525938699644098,
                -2.735709846956292,
                -0.5309901718554189,
                -3.095331949629478
            ]
        },
        {
            "positions": [
                -0.15250858392212985,
                -2.230087911287656,
                -1.2734341211788913,
                -2.800364420922874,
                -0.35183853403906973,
                -3.0965476218457377
            ]
        },
        {
            "positions": [
                -0.16927594676232235,
                -2.244844776851012,
                -1.1942743723933726,
                -2.8650189948894558,
                -0.17268689622272052,
                -3.0977632940619975
            ]
        }
    ]
}