{
    "goal": {
        "global_pose": {
            "orientation": {
                "w": 0.5084816217422485,
                "x": -0.49083608388900757,
                "y": 0.5182115435600281,
                "z": -0.4816462993621826
            },
            "position": {
                "x": 0.5540239810943604,
                "y": 0.030875300988554955,
                "z": 0.16403168439865112
            }
        },
        "name": "move_to_storage_A"
    },
    "id": "SPARS_move_to_storage_A_94",
    "joint_names": [
        "shoulder_pan_joint",
        "shoulder_lift_joint",
        "elbow_joint",
        "wrist_1_joint",
        "wrist_2_joint",
        "wrist_3_joint"
    ],
    "metrics": {
        "cart_traj_len": 0.35209157361997806,
        "distance_elbow_joint": 0.451656247369572,
        "distance_shoulder_lift_joint": 0.23324863785664096,
        "distance_shoulder_pan_joint": 0.45977157607940783,
        "distance_wrist_1_joint": 0.25611059397923996,
        "distance_wrist_2_joint": 1.0988879684535366,
        "distance_wrist_3_joint": 0.10814578001868158,
        "smoothness": 6.661338165333112e-16,
        "time": 5.016113317,
        "traj_len": 1.6148748569957607,
        "weighted_distance": 2.044287388364762
    },
    "planner": "SPARS",
    "start": {
        "state": {
            "elbow_joint": 1.971548259319323,
            "shoulder_lift_joint": -1.1394851275133948,
            "shoulder_pan_joint": 0.1228115487234821,
            "wrist_1_joint": -0.7804723859257726,
            "wrist_2_joint": 0.12958671773740124,
            "wrist_3_joint": -3.192489227718131
        }
    },
    "waypoints": [
        {
            "positions": [
                0.1228115487234821,
                -1.1394851275133948,
                1.971548259319323,
                -0.7804723859257726,
                0.12958671773740124,
                -3.192489227718131
            ]
        },
        {
            "positions": [
                0.05712989499785241,
                -1.172806361492915,
                2.036070580372119,
                -0.8170596136370926,
                0.2865707132307636,
                -3.177039830572605
            ]
        },
        {
            "positions": [
                -0.008551758727777276,
                -1.206127595472435,
                2.100592901424915,
                -0.8536468413484126,
                0.44355470872412595,
                -3.1615904334270795
            ]
        },
        {
            "positions": [
                -0.07423341245340695,
                -1.2394488294519552,
                2.165115222477711,
                -0.8902340690597326,
                0.6005387042174883,
                -3.1461410362815534
            ]
        },
        {
            "positions": [
                -0.13991506617903665,
                -1.2727700634314754,
                2.229637543530507,
                -0.9268212967710526,
                0.7575226997108507,
                -3.1306916391360273
            ]
        },
        {
            "positions": [
                -0.20559671990466638,
                -1.3060912974109955,
                2.2941598645833032,
                -0.9634085244823726,
                0.9145066952042131,
                -3.1152422419905013
            ]
        },
        {
            "positions": [
                -0.271278373630296,
                -1.3394125313905156,
                2.358682185636099,
                -0.9999957521936926,
                1.0714906906975754,
                -3.0997928448449756
            ]
        },
        {
            "positions": [
                -0.33696002735592573,
                -1.3727337653700358,
                2.423204506688895,
                -1.0365829799050126,
                1.228474686190938,
                -3.0843434476994496
            ]
        }
    ]
}{
    "goal": {
        "global_pose": {
            "orientation": {
                "w": 0.5084816217422485,
                "x": -0.49083608388900757,
                "y": 0.5182115435600281,
                "z": -0.4816462993621826
            },
            "position": {
                "x": 0.5540239810943604,
                "y": 0.030875300988554955,
                "z": 0.16403168439865112
            }
        },
        "name": "move_to_storage_A"
    },
    "id": "SPARS_move_to_storage_A_94",
    "joint_names": [
        "shoulder_pan_joint",
        "shoulder_lift_joint",
        "elbow_joint",
        "wrist_1_joint",
        "wrist_2_joint",
        "wrist_3_joint"
    ],
    "metrics": {
        "cart_traj_len": 0.3527268621935189,
        "distance_elbow_joint": 0.45010475148184703,
        "distance_shoulder_lift_joint": 0.2365326999800037,
        "distance_shoulder_pan_joint": 0.46219025761834126,
        "distance_wrist_1_joint": 0.2410979103343478,
        "distance_wrist_2_joint": 1.0950192776579546,
        "distance_wrist_3_joint": 0.10327207748753242,
        "smoothness": 6.661338165333112e-16,
        "time": 5.004593646,
        "traj_len": 1.6087936395200058,
        "weighted_distance": 2.0324562277026765
    },
    "planner": "SPARS",
    "start": {
        "state": {
            "elbow_joint": 1.97154746011099,
            "shoulder_lift_joint": -1.13948474672311,
            "shoulder_pan_joint": 0.12281154466712228,
            "wrist_1_joint": -0.7804688027058302,
            "wrist_2_joint": 0.12958655903071145,
            "wrist_3_joint": 3.0906928834467795
        }
    },
    "waypoints": [
        {
            "positions": [
                0.12281154466712228,
                -1.13948474672311,
                1.97154746011099,
                -0.7804688027058302,
                0.12958655903071145,
                3.0906928834467795
            ]
        },
        {
            "positions": [
                0.056784365007359255,
                -1.173275132434539,
                2.035848138894111,
                -0.8149113613250227,
                0.28601788441041925,
                3.1054460373735697
            ]
        },
        {
            "positions": [
                -0.009242814652403772,
                -1.2070655181459682,
                2.100148817677232,
                -0.8493539199442153,
                0.44244920979012703,
                3.1201991913003604
            ]
        },
        {
            "positions": [
                -0.07526999431216681,
                -1.2408559038573972,
                2.164449496460353,
                -0.8837964785634078,
                0.5988805351698349,
                3.1349523452271506
            ]
        },
        {
            "positions": [
                -0.1412971739719298,
                -1.2746462895688264,
                2.2287501752434737,
                -0.9182390371826004,
                0.7553118605495427,
                3.149705499153941
            ]
        },
        {
            "positions": [
                -0.20732435363169288,
                -1.3084366752802554,
                2.293050854026595,
                -0.9526815958017929,
                0.9117431859292505,
                3.164458653080731
            ]
        },
        {
            "positions": [
                -0.2733515332914559,
                -1.3422270609916844,
                2.357351532809716,
                -0.9871241544209854,
                1.0681745113089582,
                3.1792118070075217
            ]
        },
        {
            "positions": [
                -0.33937871295121896,
                -1.3760174467031137,
                2.421652211592837,
                -1.021566713040178,
                1.224605836688666,
                3.193964960934312
            ]
        }
    ]
}{
    "goal": {
        "global_pose": {
            "orientation": {
                "w": 0.5084816217422485,
                "x": -0.49083608388900757,
                "y": 0.5182115435600281,
                "z": -0.4816462993621826
            },
            "position": {
                "x": 0.5540239810943604,
                "y": 0.030875300988554955,
                "z": 0.16403168439865112
            }
        },
        "name": "move_to_storage_A"
    },
    "id": "SPARS_move_to_storage_A_94",
    "joint_names": [
        "shoulder_pan_joint",
        "shoulder_lift_joint",
        "elbow_joint",
        "wrist_1_joint",
        "wrist_2_joint",
        "wrist_3_joint"
    ],
    "metrics": {
        "cart_traj_len": 0.35244106992987045,
        "distance_elbow_joint": 0.44986659298418674,
        "distance_shoulder_lift_joint": 0.23505725637040875,
        "distance_shoulder_pan_joint": 0.46098748019478103,
        "distance_wrist_1_joint": 0.23728129824146538,
        "distance_wrist_2_joint": 1.0978212900235698,
        "distance_wrist_3_joint": 0.09759545276777315,
        "smoothness": 6.661338165333112e-16,
        "time": 5.003528748,
        "traj_len": 1.605804898044026,
        "weighted_distance": 2.0270428866658854
    },
    "planner": "SPARS",
    "start": {
        "state": {
            "elbow_joint": 1.9715472970024885,
            "shoulder_lift_joint": -1.1394870060712896,
            "shoulder_pan_joint": 0.12281152778156021,
            "wrist_1_joint": -0.780463741449964,
            "wrist_2_joint": 0.12958659822042276,
            "wrist_3_joint": 3.090690232415272
        }
    },
    "waypoints": [
        {
            "positions": [
                0.12281152778156021,
                -1.1394870060712896,
                1.9715472970024885,
                -0.780463741449964,
                0.12958659822042276,
                3.090690232415272
            ]
        },
        {
            "positions": [
                0.05695617346802008,
                -1.1730666141242052,
                2.0358139531430868,
                -0.8143610697701733,
                0.2864182110809327,
                3.1046324399535252
            ]
        },
        {
            "positions": [
                -0.00889918084552005,
                -1.2066462221771206,
                2.1000806092836846,
                -0.8482583980903826,
                0.44324982394144263,
                3.1185746474917786
            ]
        },
        {
            "positions": [
                -0.07475453515906019,
                -1.2402258302300362,
                2.164347265424283,
                -0.882155726410592,
                0.6000814368019526,
                3.132516855030032
            ]
        },
        {
            "positions": [
                -0.1406098894726003,
                -1.2738054382829518,
                2.228613921564881,
                -0.9160530547308013,
                0.7569130496624625,
                3.146459062568285
            ]
        },
        {
            "positions": [
                -0.20646524378614048,
                -1.3073850463358674,
                2.2928805777054793,
                -0.9499503830510108,
                0.9137446625229726,
                3.1604012701065383
            ]
        },
        {
            "positions": [
                -0.27232059809968057,
                -1.3409646543887828,
                2.357147233846077,
                -0.9838477113712201,
                1.0705762753834824,
                3.1743434776447916
            ]
        },
        {
            "positions": [
                -0.3381759524132208,
                -1.3745442624416984,
                2.4214138899866753,
                -1.0177450396914294,
                1.2274078882439925,
                3.188285685183045
            ]
        }
    ]
}