{
    "goal": {
        "global_pose": {
            "orientation": {
                "w": -0.4816463035849501,
                "x": 0.5182115481033762,
                "y": 0.4908360881923453,
                "z": -0.5084816262002911
            },
            "position": {
                "x": -0.8240239810943604,
                "y": 0.19912469901144506,
                "z": 0.16403168439865112
            }
        },
        "name": "move_to_storage_D"
    },
    "id": "SPARStwo_move_to_storage_D_17",
    "joint_names": [
        "shoulder_pan_joint",
        "shoulder_lift_joint",
        "elbow_joint",
        "wrist_1_joint",
        "wrist_2_joint",
        "wrist_3_joint"
    ],
    "metrics": {
        "cart_traj_len": 3.61668970345615,
        "distance_elbow_joint": 4.208855911004937,
        "distance_shoulder_lift_joint": 1.2647005587499864,
        "distance_shoulder_pan_joint": 2.8123464716419666,
        "distance_wrist_1_joint": 2.2682702904432426,
        "distance_wrist_2_joint": 0.8687846993286291,
        "distance_wrist_3_joint": 3.1413600796346977,
        "smoothness": 5.010237237872197e-16,
        "time": 5.052227179,
        "traj_len": 3.8163225768799287,
        "weighted_distance": 4.897355731396764
    },
    "planner": "SPARStwo",
    "start": {
        "state": {
            "elbow_joint": -2.384821988534728,
            "shoulder_lift_joint": -2.2788054721415256,
            "shoulder_pan_joint": -0.1854694642142757,
            "wrist_1_joint": 1.4845938289331202,
            "wrist_2_joint": 0.17898776772866878,
            "wrist_3_joint": 0.037105688729662994
        }
    },
    "waypoints": [
        {
            "positions": [
                -0.1854694642142757,
                -2.2788054721415256,
                -2.384821988534728,
                1.4845938289331202,
                0.17898776772866878,
                0.037105688729662994
            ]
        },
        {
            "positions": [
                -0.09912607151026802,
                -2.2434077082042845,
                -2.242974454383632,
                1.4329873414557832,
                0.18945969329155424,
                0.10707968275917103
            ]
        },
        {
            "positions": [
                -0.012782678806260328,
                -2.2080099442670438,
                -2.1011269202325353,
                1.3813808539784465,
                0.19993161885443972,
                0.17705367678867906
            ]
        },
        {
            "positions": [
                0.07356071389774735,
                -2.1726121803298026,
                -1.9592793860814393,
                1.3297743665011095,
                0.21040354441732517,
                0.2470276708181871
            ]
        },
        {
            "positions": [
                0.15990410660175505,
                -2.1372144163925615,
                -1.8174318519303432,
                1.2781678790237727,
                0.22087546998021063,
                0.3170016648476951
            ]
        },
        {
            "positions": [
                0.2462474993057627,
                -2.1018166524553203,
                -1.675584317779247,
                1.2265613915464357,
                0.23134739554309608,
                0.3869756588772032
            ]
        },
        {
            "positions": [
                0.33259089200977043,
                -2.066418888518079,
                -1.5337367836281508,
                1.174954904069099,
                0.24181932110598156,
                0.4569496529067112
            ]
        },
        {
            "positions": [
                0.41893428471377814,
                -2.0310211245808385,
                -1.3918892494770545,
                1.123348416591762,
                0.25229124666886704,
                0.5269236469362193
            ]
        },
        {
            "positions": [
                0.5052776774177858,
                -1.9956233606435974,
                -1.2500417153259584,
                1.0717419291144252,
                0.2627631722317525,
                0.5968976409657273
            ]
        },
        {
            "positions": [
                0.5916210701217934,
                -1.9602255967063562,
                -1.1081941811748621,
                1.0201354416370882,
                0.27323509779463795,
                0.6668716349952354
            ]
        },
        {
            "positions": [
                0.6779644628258011,
                -1.9248278327691153,
                -0.966346647023766,
                0.9685289541597514,
                0.2837070233575234,
                0.7368456290247434
            ]
        },
        {
            "positions": [
                0.764307855529809,
                -1.8894300688318741,
                -0.8244991128726695,
                0.9169224666824144,
                0.29417894892040886,
                0.8068196230542515
            ]
        },
        {
            "positions": [
                0.8506512482338165,
                -1.8540323048946332,
                -0.6826515787215737,
                0.8653159792050776,
                0.3046508744832943,
                0.8767936170837595
            ]
        },
        {
            "positions": [
                0.9369946409378244,
                -1.818634540957392,
                -0.5408040445704771,
                0.8137094917277407,
                0.3151228000461798,
                0.9467676111132676
            ]
        },
        {
            "positions": [
                1.0233380336418318,
                -1.7832367770201512,
                -0.39895651041938107,
                0.7621030042504038,
                0.3255947256090652,
                1.0167416051427756
            ]
        },
        {
            "positions": [
                1.1096814263458397,
                -1.74783901308291,
                -0.257108976268285,
                0.7104965167730669,
                0.3360666511719507,
                1.0867155991722837
            ]
        },
        {
            "positions": [
                1.1960248190498473,
                -1.712441249145669,
                -0.11526144211718892,
                0.65889002929573,
                0.3465385767348362,
                1.1566895932017915
            ]
        },
        {
            "positions": [
                1.2823682117538548,
                -1.677043485208428,
                0.026586092033907605,
                0.6072835418183931,
                0.3570105022977217,
                1.2266635872312996
            ]
        },
        {
            "positions": [
                1.3687116044578624,
                -1.6416457212711868,
                0.16843362618500368,
                0.5556770543410563,
                0.36748242786060714,
                1.2966375812608077
            ]
        },
        {
            "positions": [
                1.4550549971618703,
                -1.6062479573339459,
                0.31028116033609976,
                0.5040705668637193,
                0.3779543534234926,
                1.3666115752903158
            ]
        },
        {
            "positions": [
                1.5413983898658778,
                -1.570850193396705,
                0.45212869448719584,
                0.45246407938638256,
                0.38842627898637805,
                1.4365855693198237
            ]
        },
        {
            "positions": [
                1.6277417825698857,
                -1.5354524294594638,
                0.5939762286382924,
                0.4008575919090457,
                0.3988982045492635,
                1.5065595633493318
            ]
        },
        {
            "positions": [
                1.6979078795230553,
                -1.498724398526664,
                0.66385812839332,
                0.34408406330174146,
                0.4335340641407391,
                1.6226951068442539
            ]
        },
        {
            "positions": [
                1.768073976476225,
                -1.4619963675938645,
                0.7337400281483478,
                0.2873105346944373,
                0.4681699237322146,
                1.738830650339176
            ]
        },
        {
            "positions": [
                1.8382400734293949,
                -1.4252683366610648,
                0.8036219279033755,
                0.23053700608713312,
                0.5028057833236902,
                1.8549661938340982
            ]
        },
        {
            "positions": [
                1.9084061703825645,
                -1.3885403057282653,
                0.8735038276584033,
                0.1737634774798289,
                0.5374416429151657,
                1.9711017373290203
            ]
        },
        {
            "positions": [
                1.9785722673357342,
                -1.3518122747954655,
                0.943385727413431,
                0.11698994887252473,
                0.5720775025066414,
                2.0872372808239423
            ]
        },
        {
            "positions": [
                2.048738364288904,
                -1.3150842438626658,
                1.0132676271684586,
                0.06021642026522056,
                0.6067133620981169,
                2.2033728243188646
            ]
        },
        {
            "positions": [
                2.1189044612420735,
                -1.2783562129298662,
                1.0831495269234863,
                0.0034428916579163915,
                0.6413492216895924,
                2.3195083678137864
            ]
        },
        {
            "positions": [
                2.1890705581952434,
                -1.2416281819970665,
                1.1530314266785142,
                -0.05333063694938789,
                0.6759850812810679,
                2.4356439113087087
            ]
        },
        {
            "positions": [
                2.2592366551484133,
                -1.2049001510642667,
                1.222913326433542,
                -0.110104165556692,
                0.7106209408725436,
                2.551779454803631
            ]
        },
        {
            "positions": [
                2.3294027521015828,
                -1.1681721201314672,
                1.2927952261885696,
                -0.1668776941639962,
                0.7452568004640191,
                2.667914998298553
            ]
        },
        {
            "positions": [
                2.3633291617148746,
                -1.1504710345981253,
                1.3463377280768163,
                -0.22725525634244326,
                0.7760088249296027,
                2.7265784252582432
            ]
        },
        {
            "positions": [
                2.4072538026670105,
                -1.127743347730361,
                1.425953760475715,
                -0.3199921238703897,
                0.8213027652842185,
                2.801892982442596
            ]
        },
        {
            "positions": [
                2.451178443619147,
                -1.1050156608625965,
                1.505569792874614,
                -0.4127289913983362,
                0.8665967056388344,
                2.877207539626949
            ]
        },
        {
            "positions": [
                2.4951030845712827,
                -1.0822879739948323,
                1.5851858252735127,
                -0.5054658589262826,
                0.9118906459934503,
                2.952522096811302
            ]
        },
        {
            "positions": [
                2.5390277255234186,
                -1.059560287127068,
                1.6648018576724115,
                -0.5982027264542291,
                0.9571845863480661,
                3.0278366539956547
            ]
        },
        {
            "positions": [
                2.582952366475555,
                -1.0368326002593036,
                1.7444178900713103,
                -0.6909395939821756,
                1.002478526702682,
                3.1031512111800077
            ]
        },
        {
            "positions": [
                2.626877007427691,
                -1.0141049133915392,
                1.8240339224702091,
                -0.783676461510122,
                1.0477724670572979,
                3.1784657683643607
            ]
        }
    ]
}