{
    "goal": {
        "global_pose": {
            "orientation": {
                "w": 0.7047431493862688,
                "x": -0.7094548369677653,
                "y": 0.0024358444001904,
                "z": -0.0022348060817251984
            },
            "position": {
                "x": -0.39052492380142206,
                "y": 0.3671506643295288,
                "z": 0.19426114857196808
            }
        },
        "name": "move_to_magneteinheit_D"
    },
    "id": "SPARS_move_to_magneteinheit_D_1",
    "joint_names": [
        "shoulder_pan_joint",
        "shoulder_lift_joint",
        "elbow_joint",
        "wrist_1_joint",
        "wrist_2_joint",
        "wrist_3_joint"
    ],
    "metrics": {
        "cart_traj_len": 6.486404682482495,
        "distance_elbow_joint": 3.8982257097302853,
        "distance_shoulder_lift_joint": 2.7607401209856968,
        "distance_shoulder_pan_joint": 8.687067828437637,
        "distance_wrist_1_joint": 5.6362571440555715,
        "distance_wrist_2_joint": 6.806831675306929,
        "distance_wrist_3_joint": 6.258326878075283,
        "smoothness": 0.3482953512792503,
        "time": 5.180566906,
        "traj_len": 5.83501922504043,
        "weighted_distance": 7.681613888507059
    },
    "planner": "SPARS",
    "start": {
        "state": {
            "elbow_joint": 0.749534889911806,
            "shoulder_lift_joint": -0.6476975780787326,
            "shoulder_pan_joint": -2.711696901376241,
            "wrist_1_joint": -0.07506478083263063,
            "wrist_2_joint": 0.43296659715538205,
            "wrist_3_joint": -3.14703540197715
        }
    },
    "waypoints": [
        {
            "positions": [
                -2.711696901376241,
                -0.6476975780787326,
                0.749534889911806,
                -0.07506478083263063,
                0.43296659715538205,
                -3.14703540197715
            ]
        },
        {
            "positions": [
                -2.7335749934718185,
                -0.7392069160719339,
                0.7495464995961162,
                -0.09620108873595533,
                0.3644353911226306,
                -2.962183187736126
            ]
        },
        {
            "positions": [
                -2.7554530855673964,
                -0.8307162540651352,
                0.7495581092804264,
                -0.11733739663928003,
                0.2959041850898792,
                -2.7773309734951024
            ]
        },
        {
            "positions": [
                -2.751938891697872,
                -0.8870828777325965,
                0.628248001073694,
                -0.08929851840229559,
                0.19805225300310622,
                -2.713666016640401
            ]
        },
        {
            "positions": [
                -2.7484246978283475,
                -0.943449501400058,
                0.5069378928669617,
                -0.06125964016531115,
                0.10020032091633324,
                -2.6500010597856996
            ]
        },
        {
            "positions": [
                -2.7449105039588226,
                -0.9998161250675194,
                0.38562778466022934,
                -0.03322076192832671,
                0.002348388829560233,
                -2.5863361029309977
            ]
        },
        {
            "positions": [
                -2.741396310089298,
                -1.0561827487349809,
                0.264317676453497,
                -0.005181883691342273,
                -0.09550354325721272,
                -2.5226711460762963
            ]
        },
        {
            "positions": [
                -2.7378821162197737,
                -1.1125493724024422,
                0.14300756824676464,
                0.022856994545642162,
                -0.19335547534398567,
                -2.459006189221595
            ]
        },
        {
            "positions": [
                -2.7343679223502493,
                -1.1689159960699036,
                0.021697460040032257,
                0.05089587278262661,
                -0.29120740743075874,
                -2.395341232366893
            ]
        },
        {
            "positions": [
                -2.730853728480725,
                -1.225282619737365,
                -0.09961264816670012,
                0.07893475101961106,
                -0.38905933951753163,
                -2.3316762755121916
            ]
        },
        {
            "positions": [
                -2.7273395346112,
                -1.2816492434048263,
                -0.2209227563734324,
                0.10697362925659548,
                -0.48691127160430464,
                -2.26801131865749
            ]
        },
        {
            "positions": [
                -2.7238253407416755,
                -1.3380158670722877,
                -0.34223286458016466,
                0.13501250749357993,
                -0.5847632036910775,
                -2.2043463618027888
            ]
        },
        {
            "positions": [
                -2.720311146872151,
                -1.3943824907397493,
                -0.46354297278689716,
                0.16305138573056435,
                -0.6826151357778505,
                -2.1406814049480873
            ]
        },
        {
            "positions": [
                -2.7167969530026266,
                -1.4507491144072107,
                -0.5848530809936294,
                0.19109026396754877,
                -0.7804670678646235,
                -2.077016448093386
            ]
        },
        {
            "positions": [
                -2.713282759133102,
                -1.5071157380746723,
                -0.7061631892003619,
                0.21912914220453325,
                -0.8783189999513967,
                -2.013351491238684
            ]
        },
        {
            "positions": [
                -2.7097685652635772,
                -1.5634823617421336,
                -0.8274732974070942,
                0.24716802044151773,
                -0.9761709320381695,
                -1.9496865343839827
            ]
        },
        {
            "positions": [
                -2.706254371394053,
                -1.619848985409595,
                -0.9487834056138267,
                0.2752068986785021,
                -1.0740228641249425,
                -1.8860215775292812
            ]
        },
        {
            "positions": [
                -2.7027401775245283,
                -1.6762156090770564,
                -1.070093513820559,
                0.3032457769154866,
                -1.1718747962117155,
                -1.8223566206745796
            ]
        },
        {
            "positions": [
                -2.560341268614347,
                -1.6616591839884818,
                -1.1137490005643278,
                0.251534820684117,
                -1.221124479168906,
                -1.7346596551947497
            ]
        },
        {
            "positions": [
                -2.417942359704165,
                -1.6471027588999072,
                -1.1574044873080964,
                0.19982386445274739,
                -1.2703741621260964,
                -1.6469626897149197
            ]
        },
        {
            "positions": [
                -2.275543450793984,
                -1.6325463338113324,
                -1.2010599740518653,
                0.14811290822137776,
                -1.319623845083287,
                -1.5592657242350898
            ]
        },
        {
            "positions": [
                -2.1331445418838024,
                -1.6179899087227578,
                -1.244715460795634,
                0.09640195199000817,
                -1.3688735280404773,
                -1.47156875875526
            ]
        },
        {
            "positions": [
                -1.990745632973621,
                -1.6034334836341833,
                -1.2883709475394027,
                0.04469099575863855,
                -1.4181232109976678,
                -1.3838717932754299
            ]
        },
        {
            "positions": [
                -1.8483467240634395,
                -1.5888770585456087,
                -1.3320264342831716,
                -0.007019960472731068,
                -1.4673728939548583,
                -1.2961748277956
            ]
        },
        {
            "positions": [
                -1.705947815153258,
                -1.5743206334570339,
                -1.3756819210269404,
                -0.05873091670410069,
                -1.5166225769120487,
                -1.2084778623157701
            ]
        },
        {
            "positions": [
                -1.5635489062430765,
                -1.5597642083684593,
                -1.419337407770709,
                -0.11044187293547025,
                -1.5658722598692392,
                -1.12078089683594
            ]
        },
        {
            "positions": [
                -1.4211499973328952,
                -1.5452077832798847,
                -1.462992894514478,
                -0.16215282916683993,
                -1.6151219428264296,
                -1.0330839313561102
            ]
        },
        {
            "positions": [
                -1.2787510884227138,
                -1.5306513581913102,
                -1.5066483812582465,
                -0.2138637853982095,
                -1.66437162578362,
                -0.9453869658762803
            ]
        },
        {
            "positions": [
                -1.1363521795125322,
                -1.5160949331027354,
                -1.5503038680020154,
                -0.26557474162957906,
                -1.7136213087408105,
                -0.8576900003964504
            ]
        },
        {
            "positions": [
                -0.9939532706023506,
                -1.5015385080141608,
                -1.5939593547457842,
                -0.31728569786094873,
                -1.762870991698001,
                -0.7699930349166204
            ]
        },
        {
            "positions": [
                -0.8515543616921692,
                -1.4869820829255862,
                -1.6376148414895528,
                -0.3689966540923183,
                -1.8121206746551914,
                -0.6822960694367906
            ]
        },
        {
            "positions": [
                -0.7091554527819879,
                -1.4724256578370116,
                -1.681270328233322,
                -0.420707610323688,
                -1.861370357612382,
                -0.5945991039569605
            ]
        },
        {
            "positions": [
                -0.5667565438718061,
                -1.457869232748437,
                -1.7249258149770905,
                -0.47241856655505765,
                -1.9106200405695724,
                -0.5069021384771306
            ]
        },
        {
            "positions": [
                -0.4243576349616247,
                -1.4433128076598623,
                -1.7685813017208591,
                -0.5241295227864271,
                -1.9598697235267628,
                -0.41920517299730076
            ]
        },
        {
            "positions": [
                -0.28195872605144334,
                -1.4287563825712877,
                -1.8122367884646282,
                -0.5758404790177968,
                -2.0091194064839533,
                -0.3315082075174707
            ]
        },
        {
            "positions": [
                -0.13955981714126198,
                -1.414199957482713,
                -1.8558922752083968,
                -0.6275514352491665,
                -2.0583690894411437,
                -0.24381124203764082
            ]
        },
        {
            "positions": [
                0.0028390917689193884,
                -1.3996435323941385,
                -1.8995477619521655,
                -0.679262391480536,
                -2.107618772398334,
                -0.15611427655781096
            ]
        },
        {
            "positions": [
                0.14523800067910075,
                -1.385087107305564,
                -1.9432032486959343,
                -0.7309733477119056,
                -2.1568684553555246,
                -0.0684173110779811
            ]
        },
        {
            "positions": [
                0.28763690958928256,
                -1.3705306822169891,
                -1.9868587354397031,
                -0.7826843039432752,
                -2.206118138312715,
                0.019279654401848978
            ]
        },
        {
            "positions": [
                0.43003581849946393,
                -1.3559742571284146,
                -2.0305142221834718,
                -0.8343952601746447,
                -2.2553678212699055,
                0.10697661988167884
            ]
        },
        {
            "positions": [
                0.5724347274096453,
                -1.34141783203984,
                -2.074169708927241,
                -0.8861062164060145,
                -2.304617504227096,
                0.1946735853615087
            ]
        },
        {
            "positions": [
                0.7148336363198271,
                -1.3268614069512652,
                -2.1178251956710095,
                -0.9378171726373841,
                -2.3538671871842864,
                0.2823705508413388
            ]
        },
        {
            "positions": [
                0.8572325452300085,
                -1.3123049818626906,
                -2.161480682414778,
                -0.9895281288687539,
                -2.403116870141477,
                0.37006751632116885
            ]
        },
        {
            "positions": [
                0.9996314541401898,
                -1.297748556774116,
                -2.205136169158547,
                -1.0412390851001232,
                -2.4523665530986674,
                0.4577644818009985
            ]
        },
        {
            "positions": [
                1.1420303630503712,
                -1.2831921316855415,
                -2.2487916559023158,
                -1.0929500413314928,
                -2.501616236055858,
                0.5454614472808286
            ]
        },
        {
            "positions": [
                1.2844292719605526,
                -1.268635706596967,
                -2.2924471426460844,
                -1.1446609975628625,
                -2.5508659190130483,
                0.6331584127606587
            ]
        },
        {
            "positions": [
                1.4268281808707344,
                -1.254079281508392,
                -2.3361026293898535,
                -1.1963719537942321,
                -2.6001156019702387,
                0.7208553782404887
            ]
        },
        {
            "positions": [
                1.5692270897809162,
                -1.2395228564198175,
                -2.379758116133622,
                -1.248082910025602,
                -2.649365284927429,
                0.8085523437203184
            ]
        },
        {
            "positions": [
                1.711625998691097,
                -1.224966431331243,
                -2.4234136028773907,
                -1.2997938662569712,
                -2.6986149678846196,
                0.896249309200148
            ]
        },
        {
            "positions": [
                1.854024907601279,
                -1.2104100062426684,
                -2.46706908962116,
                -1.3515048224883408,
                -2.74786465084181,
                0.9839462746799781
            ]
        },
        {
            "positions": [
                1.9964238165114598,
                -1.1958535811540938,
                -2.5107245763649284,
                -1.4032157787197106,
                -2.7971143337990005,
                1.0716432401598082
            ]
        },
        {
            "positions": [
                2.1388227254216416,
                -1.181297156065519,
                -2.554380063108697,
                -1.4549267349510802,
                -2.846364016756191,
                1.1593402056396382
            ]
        },
        {
            "positions": [
                2.2812216343318235,
                -1.1667407309769444,
                -2.598035549852466,
                -1.5066376911824497,
                -2.8956136997133815,
                1.2470371711194683
            ]
        },
        {
            "positions": [
                2.4236205432420044,
                -1.1521843058883698,
                -2.6416910365962347,
                -1.5583486474138195,
                -2.944863382670572,
                1.334734136599298
            ]
        },
        {
            "positions": [
                2.566019452152186,
                -1.137627880799795,
                -2.6853465233400033,
                -1.6100596036451889,
                -2.9941130656277624,
                1.4224311020791276
            ]
        },
        {
            "positions": [
                2.708418361062367,
                -1.1230714557112207,
                -2.7290020100837724,
                -1.6617705598765586,
                -3.043362748584953,
                1.5101280675589577
            ]
        },
        {
            "positions": [
                2.8508172699725485,
                -1.108515030622646,
                -2.772657496827541,
                -1.7134815161079282,
                -3.0926124315421433,
                1.5978250330387875
            ]
        },
        {
            "positions": [
                2.755909729700469,
                -1.144906327858051,
                -2.760907906694613,
                -1.6148354516807173,
                -2.9900732863355994,
                1.5505292066931828
            ]
        },
        {
            "positions": [
                2.6610021894283897,
                -1.181297625093456,
                -2.749158316561685,
                -1.5161893872535064,
                -2.8875341411290556,
                1.5032333803475781
            ]
        },
        {
            "positions": [
                2.56609464915631,
                -1.217688922328861,
                -2.737408726428757,
                -1.4175433228262957,
                -2.7849949959225118,
                1.4559375540019737
            ]
        },
        {
            "positions": [
                2.471187108884231,
                -1.254080219564266,
                -2.725659136295829,
                -1.3188972583990848,
                -2.6824558507159675,
                1.408641727656369
            ]
        },
        {
            "positions": [
                2.3762795686121514,
                -1.290471516799671,
                -2.713909546162901,
                -1.2202511939718739,
                -2.5799167055094236,
                1.3613459013107643
            ]
        },
        {
            "positions": [
                2.281372028340072,
                -1.326862814035076,
                -2.702159956029973,
                -1.121605129544663,
                -2.47737756030288,
                1.3140500749651598
            ]
        },
        {
            "positions": [
                2.1864644880679927,
                -1.3632541112704812,
                -2.6904103658970446,
                -1.022959065117452,
                -2.374838415096336,
                1.266754248619555
            ]
        },
        {
            "positions": [
                2.0915569477959135,
                -1.399645408505886,
                -2.6786607757641168,
                -0.9243130006902412,
                -2.2722992698897917,
                1.2194584222739504
            ]
        },
        {
            "positions": [
                1.996649407523834,
                -1.4360367057412913,
                -2.666911185631189,
                -0.8256669362630303,
                -2.169760124683248,
                1.1721625959283457
            ]
        },
        {
            "positions": [
                1.9017418672517545,
                -1.472428002976696,
                -2.6551615954982606,
                -0.7270208718358195,
                -2.067220979476704,
                1.124866769582741
            ]
        },
        {
            "positions": [
                1.8068343269796752,
                -1.5088193002121013,
                -2.6434120053653327,
                -0.6283748074086086,
                -1.9646818342701602,
                1.0775709432371365
            ]
        },
        {
            "positions": [
                1.7119267867075956,
                -1.5452105974475063,
                -2.6316624152324044,
                -0.5297287429813977,
                -1.8621426890636164,
                1.0302751168915318
            ]
        },
        {
            "positions": [
                1.6170192464355162,
                -1.5816018946829113,
                -2.6199128250994765,
                -0.4310826785541868,
                -1.7596035438570723,
                0.9829792905459271
            ]
        },
        {
            "positions": [
                1.5221117061634368,
                -1.6179931919183164,
                -2.6081632349665487,
                -0.3324366141269761,
                -1.6570643986505285,
                0.9356834642003226
            ]
        },
        {
            "positions": [
                1.4272041658913575,
                -1.6543844891537214,
                -2.5964136448336204,
                -0.2337905496997652,
                -1.5545252534439844,
                0.888387637854718
            ]
        },
        {
            "positions": [
                1.332296625619278,
                -1.6907757863891264,
                -2.5846640547006925,
                -0.1351444852725543,
                -1.4519861082374406,
                0.8410918115091133
            ]
        },
        {
            "positions": [
                1.2373890853471987,
                -1.7271670836245314,
                -2.5729144645677646,
                -0.03649842084534338,
                -1.3494469630308967,
                0.7937959851635086
            ]
        },
        {
            "positions": [
                1.1424815450751193,
                -1.7635583808599364,
                -2.5611648744348363,
                0.06214764358186753,
                -1.2469078178243527,
                0.746500158817904
            ]
        },
        {
            "positions": [
                1.04757400480304,
                -1.7999496780953415,
                -2.5494152843019084,
                0.16079370800907822,
                -1.1443686726178088,
                0.6992043324722994
            ]
        },
        {
            "positions": [
                0.9526664645309606,
                -1.8363409753307465,
                -2.5376656941689806,
                0.25943977243628913,
                -1.0418295274112648,
                0.6519085061266947
            ]
        },
        {
            "positions": [
                0.857758924258881,
                -1.8727322725661515,
                -2.5259161040360523,
                0.35808583686350026,
                -0.9392903822047209,
                0.60461267978109
            ]
        },
        {
            "positions": [
                0.7628513839868019,
                -1.9091235698015567,
                -2.5141665139031244,
                0.45673190129071095,
                -0.8367512369981771,
                0.5573168534354855
            ]
        },
        {
            "positions": [
                0.6679438437147223,
                -1.9455148670369615,
                -2.502416923770196,
                0.5553779657179216,
                -0.7342120917916333,
                0.5100210270898808
            ]
        },
        {
            "positions": [
                0.5730363034426427,
                -1.9819061642723668,
                -2.490667333637268,
                0.6540240301451328,
                -0.6316729465850894,
                0.46272520074427614
            ]
        },
        {
            "positions": [
                0.4781287631705635,
                -2.0182974615077716,
                -2.4789177435043404,
                0.7526700945723435,
                -0.5291338013785452,
                0.41542937439867145
            ]
        },
        {
            "positions": [
                0.3832212228984839,
                -2.054688758743177,
                -2.467168153371412,
                0.8513161589995546,
                -0.4265946561720013,
                0.36813354805306675
            ]
        },
        {
            "positions": [
                0.2883136826264048,
                -2.0910800559785816,
                -2.455418563238484,
                0.9499622234267653,
                -0.3240555109654575,
                0.3208377217074623
            ]
        },
        {
            "positions": [
                0.19340614235432518,
                -2.127471353213987,
                -2.443668973105556,
                1.048608287853976,
                -0.22151636575891365,
                0.2735418953618576
            ]
        },
        {
            "positions": [
                0.09849860208224603,
                -2.163862650449392,
                -2.431919382972628,
                1.147254352281187,
                -0.11897722055236981,
                0.22624606901625288
            ]
        },
        {
            "positions": [
                0.0035910618101664404,
                -2.200253947684797,
                -2.4201697928397,
                1.2459004167083978,
                -0.01643807534582553,
                0.1789502426706484
            ]
        },
        {
            "positions": [
                -0.09131647846191271,
                -2.2366452449202017,
                -2.408420202706772,
                1.344546481135609,
                0.0861010698607183,
                0.1316544163250437
            ]
        },
        {
            "positions": [
                -0.18622401873399227,
                -2.273036542155607,
                -2.396670612573844,
                1.4431925455628196,
                0.18864021506726233,
                0.08435858997943912
            ]
        }
    ]
}