{
    "goal": {
        "global_pose": {
            "orientation": {
                "w": -0.4816463035849501,
                "x": 0.5182115481033762,
                "y": 0.4908360881923453,
                "z": -0.5084816262002911
            },
            "position": {
                "x": -0.8240239810943604,
                "y": 0.19912469901144506,
                "z": 0.16403168439865112
            }
        },
        "name": "move_to_storage_D"
    },
    "id": "SPARS_move_to_storage_D_71",
    "joint_names": [
        "shoulder_pan_joint",
        "shoulder_lift_joint",
        "elbow_joint",
        "wrist_1_joint",
        "wrist_2_joint",
        "wrist_3_joint"
    ],
    "metrics": {
        "cart_traj_len": 0.5280925210982614,
        "distance_elbow_joint": 0.5666753429545617,
        "distance_shoulder_lift_joint": 0.1525915037112906,
        "distance_shoulder_pan_joint": 0.27417608440101665,
        "distance_wrist_1_joint": 3.8212842855359974,
        "distance_wrist_2_joint": 1.776834519346798,
        "distance_wrist_3_joint": 3.3156033948890293,
        "smoothness": 0.22847865972601647,
        "time": 5.058697797000001,
        "traj_len": 3.1475649526004528,
        "weighted_distance": 4.704943222345999
    },
    "planner": "SPARS",
    "start": {
        "state": {
            "elbow_joint": -2.384821988534728,
            "shoulder_lift_joint": -2.2788054721415256,
            "shoulder_pan_joint": -0.1854694642142757,
            "wrist_1_joint": 1.4845938289331202,
            "wrist_2_joint": 0.17898776772866878,
            "wrist_3_joint": 0.037105688729662994
        }
    },
    "waypoints": [
        {
            "positions": [
                -0.1854694642142757,
                -2.2788054721415256,
                -2.384821988534728,
                1.4845938289331202,
                0.17898776772866878,
                0.037105688729662994
            ]
        },
        {
            "positions": [
                -0.1248159341380716,
                -2.273515716491323,
                -2.3875788755752048,
                1.4414531027271134,
                0.1740517242857882,
                0.06744813484447676
            ]
        },
        {
            "positions": [
                0.026991617590388886,
                -2.2537275563426515,
                -2.391324965702868,
                1.3221827006671174,
                0.1633854427088723,
                0.1321125639229509
            ]
        },
        {
            "positions": [
                0.024420159148874222,
                -2.248414490179634,
                -2.367984450461767,
                1.1697296524475342,
                0.09000076794524725,
                -0.0020789577310383334
            ]
        },
        {
            "positions": [
                0.02184870070735956,
                -2.2431014240166167,
                -2.3446439352206663,
                1.017276604227951,
                0.016616093181622188,
                -0.13627047938502757
            ]
        },
        {
            "positions": [
                0.019277242265844895,
                -2.2377883578535993,
                -2.3213034199795652,
                0.8648235560083681,
                -0.056768581582002875,
                -0.2704620010390168
            ]
        },
        {
            "positions": [
                0.01670578382433023,
                -2.232475291690582,
                -2.297962904738464,
                0.712370507788785,
                -0.13015325634562794,
                -0.40465352269300603
            ]
        },
        {
            "positions": [
                0.014134325382815564,
                -2.227162225527565,
                -2.274622389497363,
                0.5599174595692018,
                -0.20353793110925303,
                -0.5388450443469953
            ]
        },
        {
            "positions": [
                0.0115628669413009,
                -2.2218491593645475,
                -2.2512818742562626,
                0.40746441134961875,
                -0.2769226058728781,
                -0.6730365660009845
            ]
        },
        {
            "positions": [
                0.008991408499786236,
                -2.21653609320153,
                -2.2279413590151615,
                0.2550113631300355,
                -0.3503072806365032,
                -0.8072280876549738
            ]
        },
        {
            "positions": [
                0.006419950058271572,
                -2.2112230270385127,
                -2.2046008437740605,
                0.10255831491045253,
                -0.42369195540012816,
                -0.941419609308963
            ]
        },
        {
            "positions": [
                0.003848491616756905,
                -2.2059099608754953,
                -2.18126032853296,
                -0.049894733309130634,
                -0.49707663016375325,
                -1.0756111309629524
            ]
        },
        {
            "positions": [
                0.0012770331752422412,
                -2.200596894712478,
                -2.157919813291859,
                -0.2023477815287138,
                -0.5704613049273783,
                -1.2098026526169416
            ]
        },
        {
            "positions": [
                -0.0012944252662724226,
                -2.1952838285494605,
                -2.134579298050758,
                -0.35480082974829674,
                -0.6438459796910033,
                -1.3439941742709305
            ]
        },
        {
            "positions": [
                -0.0038658837077870864,
                -2.1899707623864435,
                -2.1112387828096573,
                -0.5072538779678799,
                -0.7172306544546284,
                -1.4781856959249198
            ]
        },
        {
            "positions": [
                -0.00643734214930175,
                -2.184657696223426,
                -2.0878982675685562,
                -0.6597069261874628,
                -0.7906153292182534,
                -1.612377217578909
            ]
        },
        {
            "positions": [
                -0.009008800590816414,
                -2.1793446300604087,
                -2.064557752327455,
                -0.8121599744070465,
                -0.8640000039818787,
                -1.7465687392328983
            ]
        },
        {
            "positions": [
                -0.011580259032331078,
                -2.1740315638973913,
                -2.041217237086354,
                -0.9646130226266294,
                -0.9373846787455036,
                -1.8807602608868876
            ]
        },
        {
            "positions": [
                -0.014151717473845742,
                -2.168718497734374,
                -2.0178767218452536,
                -1.1170660708462123,
                -1.0107693535091287,
                -2.014951782540877
            ]
        },
        {
            "positions": [
                -0.016723175915360412,
                -2.1634054315713565,
                -1.9945362066041525,
                -1.2695191190657957,
                -1.0841540282727538,
                -2.149143304194866
            ]
        },
        {
            "positions": [
                -0.019294634356875076,
                -2.158092365408339,
                -1.9711956913630515,
                -1.4219721672853787,
                -1.1575387030363788,
                -2.2833348258488555
            ]
        },
        {
            "positions": [
                -0.021866092798389733,
                -2.1527792992453216,
                -1.9478551761219507,
                -1.5744252155049616,
                -1.2309233778000037,
                -2.4175263475028443
            ]
        },
        {
            "positions": [
                -0.024437551239904404,
                -2.147466233082304,
                -1.9245146608808499,
                -1.726878263724545,
                -1.304308052563629,
                -2.551717869156834
            ]
        },
        {
            "positions": [
                -0.027009009681419067,
                -2.1421531669192873,
                -1.9011741456397488,
                -1.879331311944128,
                -1.377692727327254,
                -2.685909390810823
            ]
        },
        {
            "positions": [
                -0.02958046812293373,
                -2.13684010075627,
                -1.877833630398648,
                -2.031784360163711,
                -1.451077402090879,
                -2.820100912464812
            ]
        },
        {
            "positions": [
                -0.032151926564448395,
                -2.1315270345932524,
                -1.8544931151575472,
                -2.1842374083832943,
                -1.524462076854504,
                -2.9542924341188015
            ]
        },
        {
            "positions": [
                -0.03472338500596306,
                -2.126213968430235,
                -1.8311525999164462,
                -2.336690456602877,
                -1.5978467516181292,
                -3.088483955772791
            ]
        }
    ]
}