{
    "goal": {
        "global_pose": {
            "orientation": {
                "w": 0.7031023480610252,
                "x": -0.7110244013736278,
                "y": 0.0077485991402295624,
                "z": 0.005598929693374583
            },
            "position": {
                "x": -0.8841497679147869,
                "y": 0.44412534475326537,
                "z": 0.3711530566215515
            }
        },
        "name": "move_to_auspresseinheit_D"
    },
    "id": "SPARStwo_move_to_auspresseinheit_D_113",
    "joint_names": [
        "shoulder_pan_joint",
        "shoulder_lift_joint",
        "elbow_joint",
        "wrist_1_joint",
        "wrist_2_joint",
        "wrist_3_joint"
    ],
    "metrics": {
        "cart_traj_len": 0.34342527354645513,
        "distance_elbow_joint": 0.6571416626364579,
        "distance_shoulder_lift_joint": 0.13215597402491674,
        "distance_shoulder_pan_joint": 0.13360024936184325,
        "distance_wrist_1_joint": 0.5999995932028659,
        "distance_wrist_2_joint": 1.4368815763190554,
        "distance_wrist_3_joint": 0.056703955439452614,
        "smoothness": 1.4802973721918692e-15,
        "time": 5.01347242,
        "traj_len": 1.7368025250397905,
        "weighted_distance": 2.273053473058964
    },
    "planner": "SPARStwo",
    "start": {
        "state": {
            "elbow_joint": -1.8275523626775212,
            "shoulder_lift_joint": -2.126789852344167,
            "shoulder_pan_joint": -0.03513704404078235,
            "wrist_1_joint": -2.347782403156801,
            "wrist_2_joint": -1.6058999987535132,
            "wrist_3_joint": -3.0880379163319196
        }
    },
    "waypoints": [
        {
            "positions": [
                -0.03513704404078235,
                -2.126789852344167,
                -1.8275523626775212,
                -2.347782403156801,
                -1.6058999987535132,
                -3.0880379163319196
            ]
        },
        {
            "positions": [
                -0.05183707521101276,
                -2.143309349097281,
                -1.7454096548479638,
                -2.422782352307159,
                -1.4262898017136312,
                -3.080949921901988
            ]
        },
        {
            "positions": [
                -0.06853710638124316,
                -2.159828845850396,
                -1.6632669470184067,
                -2.4977823014575176,
                -1.2466796046737494,
                -3.0738619274720564
            ]
        },
        {
            "positions": [
                -0.08523713755147358,
                -2.176348342603511,
                -1.5811242391888496,
                -2.5727822506078755,
                -1.0670694076338674,
                -3.066773933042125
            ]
        },
        {
            "positions": [
                -0.10193716872170397,
                -2.192867839356625,
                -1.4989815313592922,
                -2.647782199758234,
                -0.8874592105939855,
                -3.0596859386121933
            ]
        },
        {
            "positions": [
                -0.11863719989193439,
                -2.2093873361097396,
                -1.416838823529735,
                -2.722782148908592,
                -0.7078490135541036,
                -3.0525979441822617
            ]
        },
        {
            "positions": [
                -0.1353372310621648,
                -2.2259068328628544,
                -1.3346961157001778,
                -2.79778209805895,
                -0.5282388165142216,
                -3.04550994975233
            ]
        },
        {
            "positions": [
                -0.1520372622323952,
                -2.242426329615969,
                -1.2525534078706206,
                -2.8727820472093084,
                -0.34862861947433976,
                -3.0384219553223986
            ]
        },
        {
            "positions": [
                -0.1687372934026256,
                -2.2589458263690836,
                -1.1704107000410633,
                -2.9477819963596668,
                -0.16901842243445767,
                -3.031333960892467
            ]
        }
    ]
}