{
    "goal": {
        "global_pose": {
            "orientation": {
                "w": -0.00223480608172531,
                "x": 0.0024358444001904467,
                "y": 0.7094548369677653,
                "z": -0.704743149386269
            },
            "position": {
                "x": 0.6205249238014221,
                "y": -0.6371506643295288,
                "z": 0.19426114857196808
            }
        },
        "name": "move_to_magneteinheit_B"
    },
    "id": "SPARS_move_to_magneteinheit_B_21",
    "joint_names": [
        "shoulder_pan_joint",
        "shoulder_lift_joint",
        "elbow_joint",
        "wrist_1_joint",
        "wrist_2_joint",
        "wrist_3_joint"
    ],
    "metrics": {
        "cart_traj_len": 4.074176258879099,
        "distance_elbow_joint": 4.289565215081215,
        "distance_shoulder_lift_joint": 0.7666192784640229,
        "distance_shoulder_pan_joint": 3.3626605621955417,
        "distance_wrist_1_joint": 4.390362920585499,
        "distance_wrist_2_joint": 2.720046905410835,
        "distance_wrist_3_joint": 4.4541362873225205,
        "smoothness": 0.31793728398235416,
        "time": 5.085538359,
        "traj_len": 4.47027864557229,
        "weighted_distance": 6.00017279498691
    },
    "planner": "SPARS",
    "start": {
        "state": {
            "elbow_joint": 2.6216224122426386,
            "shoulder_lift_joint": -1.4174107377796124,
            "shoulder_pan_joint": 0.7066234856936794,
            "wrist_1_joint": 1.9546482284002225,
            "wrist_2_joint": -0.7096286983471962,
            "wrist_3_joint": 0.005740856962016249
        }
    },
    "waypoints": [
        {
            "positions": [
                0.7066234856936794,
                -1.4174107377796124,
                2.6216224122426386,
                1.9546482284002225,
                -0.7096286983471962,
                0.005740856962016249
            ]
        },
        {
            "positions": [
                0.6060896594007423,
                -1.4421632534806026,
                2.5825918326703707,
                1.9297981125785029,
                -0.6952907486331372,
                -0.09551177550345884
            ]
        },
        {
            "positions": [
                0.5055558331078054,
                -1.4669157691815928,
                2.543561253098103,
                1.9049479967567833,
                -0.6809527989190781,
                -0.1967644079689339
            ]
        },
        {
            "positions": [
                0.4414034883661495,
                -1.474897082308456,
                2.4559265949072326,
                1.852198150630483,
                -0.6248106719017854,
                -0.2737201430199814
            ]
        },
        {
            "positions": [
                0.3772511436244936,
                -1.4828783954353189,
                2.368291936716363,
                1.799448304504183,
                -0.5686685448844926,
                -0.3506758780710289
            ]
        },
        {
            "positions": [
                0.31309879888283765,
                -1.490859708562182,
                2.2806572785254926,
                1.7466984583778826,
                -0.5125264178671999,
                -0.4276316131220764
            ]
        },
        {
            "positions": [
                0.24894645414118177,
                -1.498841021689045,
                2.1930226203346224,
                1.6939486122515823,
                -0.4563842908499071,
                -0.5045873481731239
            ]
        },
        {
            "positions": [
                0.18479410939952579,
                -1.506822334815908,
                2.1053879621437526,
                1.641198766125282,
                -0.40024216383261435,
                -0.5815430832241715
            ]
        },
        {
            "positions": [
                0.12064176465786991,
                -1.5148036479427711,
                2.0177533039528823,
                1.588448919998982,
                -0.3441000368153216,
                -0.6584988182752189
            ]
        },
        {
            "positions": [
                0.1910067429497803,
                -1.5266260295780012,
                1.9177406038300953,
                1.4844439996222305,
                -0.31234285643094334,
                -0.5881549485990575
            ]
        },
        {
            "positions": [
                0.26137172124169067,
                -1.5384484112132313,
                1.8177279037073082,
                1.380439079245479,
                -0.28058567604656515,
                -0.517811078922896
            ]
        },
        {
            "positions": [
                0.3317366995336011,
                -1.5502707928484614,
                1.7177152035845211,
                1.2764341588687276,
                -0.24882849566218687,
                -0.44746720924673455
            ]
        },
        {
            "positions": [
                0.4021016778255114,
                -1.5620931744836914,
                1.617702503461734,
                1.1724292384919761,
                -0.21707131527780865,
                -0.3771233395705731
            ]
        },
        {
            "positions": [
                0.4724666561174218,
                -1.5739155561189215,
                1.5176898033389472,
                1.0684243181152246,
                -0.1853141348934304,
                -0.3067794698944117
            ]
        },
        {
            "positions": [
                0.5428316344093322,
                -1.5857379377541516,
                1.41767710321616,
                0.9644193977384733,
                -0.15355695450905216,
                -0.23643560021825016
            ]
        },
        {
            "positions": [
                0.6131966127012426,
                -1.5975603193893817,
                1.3176644030933728,
                0.8604144773617217,
                -0.12179977412467391,
                -0.1660917305420887
            ]
        },
        {
            "positions": [
                0.683561590993153,
                -1.6093827010246118,
                1.2176517029705858,
                0.7564095569849704,
                -0.09004259374029572,
                -0.09574786086592724
            ]
        },
        {
            "positions": [
                0.7539265692850633,
                -1.6212050826598419,
                1.117639002847799,
                0.652404636608219,
                -0.05828541335591747,
                -0.025403991189765884
            ]
        },
        {
            "positions": [
                0.8242915475769736,
                -1.633027464295072,
                1.0176263027250119,
                0.5483997162314675,
                -0.026528232971539223,
                0.04493987848639558
            ]
        },
        {
            "positions": [
                0.8946565258688841,
                -1.644849845930302,
                0.9176136026022246,
                0.4443947958547161,
                0.0052289474128390245,
                0.11528374816255715
            ]
        },
        {
            "positions": [
                0.9650215041607945,
                -1.6566722275655321,
                0.8176009024794375,
                0.3403898754779646,
                0.03698612779721727,
                0.18562761783871862
            ]
        },
        {
            "positions": [
                1.0353864824527048,
                -1.6684946092007622,
                0.7175882023566504,
                0.23638495510121316,
                0.06874330818159552,
                0.2559714875148801
            ]
        },
        {
            "positions": [
                1.1057514607446153,
                -1.6803169908359923,
                0.6175755022338634,
                0.13238003472446147,
                0.10050048856597377,
                0.32631535719104154
            ]
        },
        {
            "positions": [
                1.1761164390365255,
                -1.6921393724712224,
                0.5175628021110765,
                0.02837511434771023,
                0.13225766895035196,
                0.3966592268672029
            ]
        },
        {
            "positions": [
                1.246481417328436,
                -1.7039617541064525,
                0.41755010198828946,
                -0.07562980602904124,
                0.16401484933473015,
                0.46700309654336447
            ]
        },
        {
            "positions": [
                1.3168463956203464,
                -1.7157841357416825,
                0.3175374018655024,
                -0.1796347264057927,
                0.1957720297191084,
                0.5373469662195258
            ]
        },
        {
            "positions": [
                1.3872113739122567,
                -1.7276065173769126,
                0.21752470174271532,
                -0.28363964678254394,
                0.22752921010348665,
                0.6076908358956872
            ]
        },
        {
            "positions": [
                1.457576352204167,
                -1.7394288990121427,
                0.11751200161992825,
                -0.3876445671592954,
                0.2592863904878649,
                0.6780347055718488
            ]
        },
        {
            "positions": [
                1.5279413304960774,
                -1.7512512806473728,
                0.017499301497141406,
                -0.49164948753604687,
                0.29104357087224314,
                0.7483785752480101
            ]
        },
        {
            "positions": [
                1.5983063087879879,
                -1.7630736622826029,
                -0.08251339862564588,
                -0.5956544079127983,
                0.3228007512566214,
                0.8187224449241717
            ]
        },
        {
            "positions": [
                1.6686712870798983,
                -1.774896043917833,
                -0.18252609874843317,
                -0.6996593282895498,
                0.35455793164099964,
                0.8890663146003333
            ]
        },
        {
            "positions": [
                1.7390362653718086,
                -1.7867184255530633,
                -0.28253879887122,
                -0.8036642486663013,
                0.3863151120253779,
                0.9594101842764946
            ]
        },
        {
            "positions": [
                1.809401243663719,
                -1.7985408071882933,
                -0.3825514989940073,
                -0.9076691690430527,
                0.41807229240975613,
                1.0297540539526562
            ]
        },
        {
            "positions": [
                1.8797662219556295,
                -1.8103631888235234,
                -0.48256419911679416,
                -1.0116740894198042,
                0.4498294727941344,
                1.1000979236288175
            ]
        },
        {
            "positions": [
                1.95013120024754,
                -1.8221855704587535,
                -0.5825768992395814,
                -1.1156790097965557,
                0.4815866531785126,
                1.170441793304979
            ]
        },
        {
            "positions": [
                2.0204961785394504,
                -1.8340079520939836,
                -0.6825895993623683,
                -1.2196839301733076,
                0.5133438335628908,
                1.2407856629811407
            ]
        },
        {
            "positions": [
                2.0908611568313606,
                -1.8458303337292137,
                -0.7826022994851556,
                -1.323688850550059,
                0.5451010139472692,
                1.311129532657302
            ]
        },
        {
            "positions": [
                2.161226135123271,
                -1.8576527153644438,
                -0.8826149996079429,
                -1.4276937709268105,
                0.5768581943316473,
                1.3814734023334636
            ]
        },
        {
            "positions": [
                2.231591113415181,
                -1.8694750969996738,
                -0.9826276997307293,
                -1.5316986913035615,
                0.6086153747160254,
                1.4518172720096247
            ]
        },
        {
            "positions": [
                2.301956091707092,
                -1.881297478634904,
                -1.0826403998535166,
                -1.635703611680313,
                0.6403725551004038,
                1.5221611416857863
            ]
        },
        {
            "positions": [
                2.372321069999002,
                -1.893119860270134,
                -1.1826530999763034,
                -1.7397085320570644,
                0.6721297354847819,
                1.5925050113619479
            ]
        },
        {
            "positions": [
                2.4426860482909123,
                -1.904942241905364,
                -1.2826658000990907,
                -1.843713452433816,
                0.7038869158691603,
                1.662848881038109
            ]
        },
        {
            "positions": [
                2.513051026582823,
                -1.9167646235405942,
                -1.3826785002218775,
                -1.9477183728105674,
                0.7356440962535384,
                1.7331927507142706
            ]
        },
        {
            "positions": [
                2.583416004874733,
                -1.9285870051758243,
                -1.4826912003446648,
                -2.051723293187319,
                0.7674012766379168,
                1.8035366203904322
            ]
        },
        {
            "positions": [
                2.6323207358493406,
                -1.9735513877880193,
                -1.481250435247682,
                -2.0903315869352994,
                0.6480970595677964,
                1.9439161290088915
            ]
        },
        {
            "positions": [
                2.681225466823948,
                -2.018515770400214,
                -1.4798096701506995,
                -2.12893988068328,
                0.5287928424976761,
                2.084295637627351
            ]
        },
        {
            "positions": [
                2.7301301977985557,
                -2.063480153012409,
                -1.478368905053717,
                -2.167548174431261,
                0.40948862542755576,
                2.2246751462458105
            ]
        },
        {
            "positions": [
                2.779034928773163,
                -2.108444535624604,
                -1.4769281399567342,
                -2.2061564681792416,
                0.2901844083574354,
                2.3650546548642697
            ]
        },
        {
            "positions": [
                2.7593206492657565,
                -2.121042115727776,
                -1.5068428969743979,
                -2.244416172180247,
                0.16255106466656188,
                2.4927785113552354
            ]
        },
        {
            "positions": [
                2.7396063697583495,
                -2.133639695830948,
                -1.5367576539920615,
                -2.282675876181253,
                0.03491772097568835,
                2.620502367846201
            ]
        },
        {
            "positions": [
                2.7198920902509425,
                -2.1462372759341197,
                -1.5666724110097252,
                -2.3209355801822587,
                -0.09271562271518519,
                2.7482262243371673
            ]
        },
        {
            "positions": [
                2.700177810743536,
                -2.1588348560372914,
                -1.5965871680273889,
                -2.359195284183264,
                -0.22034896640605872,
                2.875950080828133
            ]
        },
        {
            "positions": [
                2.6804635312361293,
                -2.1714324361404636,
                -1.6265019250450525,
                -2.39745498818427,
                -0.34798231009693226,
                3.003673937319099
            ]
        },
        {
            "positions": [
                2.6607492517287223,
                -2.1840300162436352,
                -1.6564166820627162,
                -2.4357146921852757,
                -0.4756156537878058,
                3.1313977938100646
            ]
        }
    ]
}