{
    "goal": {
        "global_pose": {
            "orientation": {
                "w": -0.4816463035849501,
                "x": 0.5182115481033762,
                "y": 0.4908360881923453,
                "z": -0.5084816262002911
            },
            "position": {
                "x": -0.8240239810943604,
                "y": 0.19912469901144506,
                "z": 0.16403168439865112
            }
        },
        "name": "move_to_storage_D"
    },
    "id": "SPARS_move_to_storage_D_5",
    "joint_names": [
        "shoulder_pan_joint",
        "shoulder_lift_joint",
        "elbow_joint",
        "wrist_1_joint",
        "wrist_2_joint",
        "wrist_3_joint"
    ],
    "metrics": {
        "cart_traj_len": 1.4563013826873494,
        "distance_elbow_joint": 1.8457215849416788,
        "distance_shoulder_lift_joint": 0.2903579108871597,
        "distance_shoulder_pan_joint": 1.5046532944423596,
        "distance_wrist_1_joint": 4.612011712108655,
        "distance_wrist_2_joint": 2.294828855441934,
        "distance_wrist_3_joint": 5.306399762593655,
        "smoothness": 0.6978369102844834,
        "time": 5.0837576570000005,
        "traj_len": 3.9817048007625377,
        "weighted_distance": 5.776989978626701
    },
    "planner": "SPARS",
    "start": {
        "state": {
            "elbow_joint": -2.384821988534728,
            "shoulder_lift_joint": -2.2788054721415256,
            "shoulder_pan_joint": -0.1854694642142757,
            "wrist_1_joint": 1.4845938289331202,
            "wrist_2_joint": 0.17898776772866878,
            "wrist_3_joint": 0.037105688729662994
        }
    },
    "waypoints": [
        {
            "positions": [
                -0.1854694642142757,
                -2.2788054721415256,
                -2.384821988534728,
                1.4845938289331202,
                0.17898776772866878,
                0.037105688729662994
            ]
        },
        {
            "positions": [
                -0.06727393400798459,
                -2.2886992862642006,
                -2.4224703330938326,
                1.540022703669955,
                0.18609900622940098,
                0.1934526399211603
            ]
        },
        {
            "positions": [
                0.050921596198306524,
                -2.2985931003868756,
                -2.460118677652938,
                1.5954515784067895,
                0.19321024473013318,
                0.34979959111265757
            ]
        },
        {
            "positions": [
                0.16911712640459767,
                -2.3084869145095506,
                -2.4977670222120425,
                1.6508804531436243,
                0.20032148323086538,
                0.5061465423041549
            ]
        },
        {
            "positions": [
                0.2873126566108888,
                -2.318380728632226,
                -2.5354153667711476,
                1.7063093278804589,
                0.2074327217315976,
                0.6624934934956522
            ]
        },
        {
            "positions": [
                0.4055081868171799,
                -2.328274542754901,
                -2.5730637113302524,
                1.7617382026172936,
                0.2145439602323298,
                0.8188404446871496
            ]
        },
        {
            "positions": [
                0.5237037170234711,
                -2.338168356877576,
                -2.6107120558893575,
                1.8171670773541282,
                0.221655198733062,
                0.9751873958786469
            ]
        },
        {
            "positions": [
                0.6418992472297622,
                -2.348062171000251,
                -2.648360400448462,
                1.872595952090963,
                0.2287664372337942,
                1.1315343470701442
            ]
        },
        {
            "positions": [
                0.5781923402178379,
                -2.3285736576888336,
                -2.528180091841957,
                1.812814942292017,
                0.24911346776905458,
                1.0193849016902417
            ]
        },
        {
            "positions": [
                0.5144854332059138,
                -2.309085144377416,
                -2.407999783235452,
                1.753033932493071,
                0.26946049830431495,
                0.9072354563103393
            ]
        },
        {
            "positions": [
                0.45077852619398956,
                -2.2895966310659985,
                -2.2878194746289466,
                1.693252922694125,
                0.2898075288395753,
                0.7950860109304367
            ]
        },
        {
            "positions": [
                0.38707161918206534,
                -2.2701081177545808,
                -2.1676391660224414,
                1.6334719128951791,
                0.31015455937483566,
                0.6829365655505343
            ]
        },
        {
            "positions": [
                0.3233647121701411,
                -2.2506196044431634,
                -2.0474588574159363,
                1.5736909030962332,
                0.33050158991009604,
                0.5707871201706318
            ]
        },
        {
            "positions": [
                0.2596578051582169,
                -2.231131091131746,
                -1.927278548809431,
                1.5139098932972872,
                0.3508486204453564,
                0.45863767479072937
            ]
        },
        {
            "positions": [
                0.19595089814629274,
                -2.2116425778203284,
                -1.8070982402029259,
                1.4541288834983412,
                0.3711956509806168,
                0.3464882294108269
            ]
        },
        {
            "positions": [
                0.13224399113436847,
                -2.192154064508911,
                -1.6869179315964207,
                1.3943478736993953,
                0.3915426815158771,
                0.23433878403092434
            ]
        },
        {
            "positions": [
                0.06853708412244419,
                -2.1726655511974933,
                -1.5667376229899155,
                1.3345668639004493,
                0.41188971205113756,
                0.12218933865102177
            ]
        },
        {
            "positions": [
                0.004830177110520025,
                -2.153177037886076,
                -1.4465573143834103,
                1.2747858541015034,
                0.4322367425863979,
                0.010039893271119415
            ]
        },
        {
            "positions": [
                0.003154530740558323,
                -2.1520847012646485,
                -1.4624064846735307,
                1.1236942086447803,
                0.3471709142287227,
                -0.11872996716447003
            ]
        },
        {
            "positions": [
                0.0014788843705966204,
                -2.150992364643221,
                -1.4782556549636514,
                0.9726025631880574,
                0.26210508587104747,
                -0.24749982760005945
            ]
        },
        {
            "positions": [
                -0.00019676199936508217,
                -2.1499000280217935,
                -1.4941048252537719,
                0.8215109177313343,
                0.17703925751337224,
                -0.3762696880356489
            ]
        },
        {
            "positions": [
                -0.0018724083693267843,
                -2.148807691400366,
                -1.5099539955438923,
                0.6704192722746114,
                0.09197342915569706,
                -0.5050395484712383
            ]
        },
        {
            "positions": [
                -0.003548054739288488,
                -2.1477153547789385,
                -1.525803165834013,
                0.5193276268178882,
                0.0069076007980217735,
                -0.6338094089068278
            ]
        },
        {
            "positions": [
                -0.0052237011092501895,
                -2.146623018157511,
                -1.5416523361241334,
                0.3682359813611653,
                -0.0781582275596534,
                -0.7625792693424173
            ]
        },
        {
            "positions": [
                -0.0068993474792118925,
                -2.1455306815360835,
                -1.5575015064142539,
                0.21714433590444226,
                -0.1632240559173287,
                -0.8913491297780067
            ]
        },
        {
            "positions": [
                -0.008574993849173594,
                -2.144438344914656,
                -1.5733506767043746,
                0.06605269044771944,
                -0.24828988427500376,
                -1.020118990213596
            ]
        },
        {
            "positions": [
                -0.010250640219135297,
                -2.1433460082932285,
                -1.589199846994495,
                -0.08503895500900382,
                -0.33335571263267905,
                -1.1488888506491857
            ]
        },
        {
            "positions": [
                -0.011926286589097002,
                -2.142253671671801,
                -1.6050490172846155,
                -0.23613060046572687,
                -0.41842154099035433,
                -1.277658711084775
            ]
        },
        {
            "positions": [
                -0.013601932959058701,
                -2.1411613350503735,
                -1.6208981875747361,
                -0.3872222459224497,
                -0.5034873693480294,
                -1.4064285715203644
            ]
        },
        {
            "positions": [
                -0.015277579329020404,
                -2.140068998428946,
                -1.6367473578648566,
                -0.5383138913791727,
                -0.5885531977057047,
                -1.535198431955954
            ]
        },
        {
            "positions": [
                -0.016953225698982104,
                -2.138976661807519,
                -1.652596528154977,
                -0.6894055368358956,
                -0.6736190260633798,
                -1.6639682923915433
            ]
        },
        {
            "positions": [
                -0.01862887206894381,
                -2.1378843251860915,
                -1.6684456984450977,
                -0.8404971822926188,
                -0.7586848544210553,
                -1.792738152827133
            ]
        },
        {
            "positions": [
                -0.020304518438905513,
                -2.136791988564664,
                -1.6842948687352182,
                -0.9915888277493417,
                -0.8437506827787303,
                -1.9215080132627222
            ]
        },
        {
            "positions": [
                -0.021980164808867213,
                -2.1356996519432365,
                -1.7001440390253386,
                -1.1426804732060645,
                -0.9288165111364054,
                -2.050277873698312
            ]
        },
        {
            "positions": [
                -0.02365581117882892,
                -2.134607315321809,
                -1.7159932093154593,
                -1.2937721186627877,
                -1.013882339494081,
                -2.1790477341339014
            ]
        },
        {
            "positions": [
                -0.02533145754879062,
                -2.1335149787003815,
                -1.7318423796055797,
                -1.444863764119511,
                -1.098948167851756,
                -2.307817594569491
            ]
        },
        {
            "positions": [
                -0.02700710391875232,
                -2.132422642078954,
                -1.7476915498957002,
                -1.5959554095762338,
                -1.1840139962094312,
                -2.43658745500508
            ]
        },
        {
            "positions": [
                -0.02868275028871403,
                -2.1313303054575266,
                -1.7635407201858209,
                -1.747047055032957,
                -1.2690798245671067,
                -2.5653573154406697
            ]
        },
        {
            "positions": [
                -0.030358396658675724,
                -2.130237968836099,
                -1.7793898904759413,
                -1.89813870048968,
                -1.3541456529247817,
                -2.6941271758762593
            ]
        },
        {
            "positions": [
                -0.032034043028637424,
                -2.1291456322146716,
                -1.7952390607660618,
                -2.0492303459464027,
                -1.4392114812824568,
                -2.8228970363118484
            ]
        },
        {
            "positions": [
                -0.03370968939859913,
                -2.128053295593244,
                -1.8110882310561824,
                -2.200321991403126,
                -1.5242773096401323,
                -2.9516668967474384
            ]
        },
        {
            "positions": [
                -0.03538533576856083,
                -2.1269609589718166,
                -1.826937401346303,
                -2.351413636859849,
                -1.6093431379978071,
                -3.0804367571830276
            ]
        }
    ]
}