{
    "goal": {
        "global_pose": {
            "orientation": {
                "w": 0.005598929693374612,
                "x": 0.007748599140229565,
                "y": 0.7110244013736278,
                "z": -0.7031023480610252
            },
            "position": {
                "x": 0.1141497679147869,
                "y": -0.7141253447532654,
                "z": 0.3711530566215515
            }
        },
        "name": "move_to_auspresseinheit_B"
    },
    "id": "SPARS_move_to_auspresseinheit_B_15",
    "joint_names": [
        "shoulder_pan_joint",
        "shoulder_lift_joint",
        "elbow_joint",
        "wrist_1_joint",
        "wrist_2_joint",
        "wrist_3_joint"
    ],
    "metrics": {
        "cart_traj_len": 0.5648191164399761,
        "distance_elbow_joint": 0.06424425046188498,
        "distance_shoulder_lift_joint": 0.2944569717007459,
        "distance_shoulder_pan_joint": 0.5773904394026783,
        "distance_wrist_1_joint": 0.3313969725452386,
        "distance_wrist_2_joint": 0.9909585582324048,
        "distance_wrist_3_joint": 0.001036028440470016,
        "smoothness": 5.075305255429287e-16,
        "time": 5.033569478,
        "traj_len": 1.5031577497998747,
        "weighted_distance": 1.893121974000092
    },
    "planner": "SPARS",
    "start": {
        "state": {
            "elbow_joint": 2.0193083361928714,
            "shoulder_lift_joint": -1.1220246554650708,
            "shoulder_pan_joint": -1.0952077554168747,
            "wrist_1_joint": -0.8559753972642168,
            "wrist_2_joint": 0.4759566250798843,
            "wrist_3_joint": -3.1240929996934557
        }
    },
    "waypoints": [
        {
            "positions": [
                -1.0952077554168747,
                -1.1220246554650708,
                2.0193083361928714,
                -0.8559753972642168,
                0.4759566250798843,
                -3.1240929996934557
            ]
        },
        {
            "positions": [
                -1.191439495317321,
                -1.1711008174151951,
                2.0086009611158904,
                -0.800742568506677,
                0.6411163847852851,
                -3.1242656711002006
            ]
        },
        {
            "positions": [
                -1.2876712352177675,
                -1.2201769793653194,
                1.9978935860389098,
                -0.7455097397491373,
                0.8062761444906859,
                -3.1244383425069455
            ]
        },
        {
            "positions": [
                -1.3839029751182137,
                -1.2692531413154438,
                1.987186210961929,
                -0.6902769109915975,
                0.9714359041960867,
                -3.1246110139136904
            ]
        },
        {
            "positions": [
                -1.4801347150186601,
                -1.318329303265568,
                1.976478835884948,
                -0.6350440822340577,
                1.1365956639014874,
                -3.124783685320436
            ]
        },
        {
            "positions": [
                -1.5763664549191065,
                -1.3674054652156924,
                1.9657714608079673,
                -0.579811253476518,
                1.3017554236068882,
                -3.1249563567271808
            ]
        },
        {
            "positions": [
                -1.672598194819553,
                -1.4164816271658167,
                1.9550640857309864,
                -0.5245784247189782,
                1.466915183312289,
                -3.1251290281339257
            ]
        }
    ]
}