{
    "goal": {
        "global_pose": {
            "orientation": {
                "w": -0.4816463035849501,
                "x": 0.5182115481033762,
                "y": 0.4908360881923453,
                "z": -0.5084816262002911
            },
            "position": {
                "x": -0.8240239810943604,
                "y": 0.19912469901144506,
                "z": 0.16403168439865112
            }
        },
        "name": "move_to_storage_D"
    },
    "id": "SPARS_move_to_storage_D_129",
    "joint_names": [
        "shoulder_pan_joint",
        "shoulder_lift_joint",
        "elbow_joint",
        "wrist_1_joint",
        "wrist_2_joint",
        "wrist_3_joint"
    ],
    "metrics": {
        "cart_traj_len": 0.5905538562069278,
        "distance_elbow_joint": 0.967587620283094,
        "distance_shoulder_lift_joint": 0.1512717268180599,
        "distance_shoulder_pan_joint": 0.274619462478167,
        "distance_wrist_1_joint": 3.8232022309675373,
        "distance_wrist_2_joint": 1.7787351301570984,
        "distance_wrist_3_joint": 3.4660724488971804,
        "smoothness": 0.2872914131036792,
        "time": 5.040585414,
        "traj_len": 3.2344224553389957,
        "weighted_distance": 4.795369733244782
    },
    "planner": "SPARS",
    "start": {
        "state": {
            "elbow_joint": -2.384821988534728,
            "shoulder_lift_joint": -2.2788054721415256,
            "shoulder_pan_joint": -0.1854694642142757,
            "wrist_1_joint": 1.4845938289331202,
            "wrist_2_joint": 0.17898776772866878,
            "wrist_3_joint": 0.037105688729662994
        }
    },
    "waypoints": [
        {
            "positions": [
                -0.1854694642142757,
                -2.2788054721415256,
                -2.384821988534728,
                1.4845938289331202,
                0.17898776772866878,
                0.037105688729662994
            ]
        },
        {
            "positions": [
                -0.11453913047012557,
                -2.2547548019650345,
                -2.4535367000378407,
                1.4453677755884078,
                0.12196042688667554,
                -0.015400745017532677
            ]
        },
        {
            "positions": [
                -0.043608796725975424,
                -2.230704131788544,
                -2.5222514115409536,
                1.4061417222436954,
                0.06493308604468229,
                -0.06790717876472835
            ]
        },
        {
            "positions": [
                0.027321537018174746,
                -2.206653461612053,
                -2.5909661230440664,
                1.366915668898983,
                0.007905745202689024,
                -0.12041361251192405
            ]
        },
        {
            "positions": [
                0.02484839856834608,
                -2.203488672960509,
                -2.560508383613116,
                1.218694706061647,
                -0.0564003791025557,
                0.011928513394299692
            ]
        },
        {
            "positions": [
                0.022375260118517412,
                -2.2003238843089656,
                -2.530050644182166,
                1.070473743224311,
                -0.12070650340780043,
                0.14427063930052342
            ]
        },
        {
            "positions": [
                0.019902121668688745,
                -2.1971590956574225,
                -2.4995929047512155,
                0.9222527803869751,
                -0.18501262771304516,
                0.2766127652067471
            ]
        },
        {
            "positions": [
                0.017428983218860078,
                -2.193994307005879,
                -2.4691351653202656,
                0.774031817549639,
                -0.24931875201828987,
                0.4089548911129709
            ]
        },
        {
            "positions": [
                0.014955844769031413,
                -2.1908295183543354,
                -2.438677425889315,
                0.625810854712303,
                -0.31362487632353464,
                0.5412970170191946
            ]
        },
        {
            "positions": [
                0.012482706319202747,
                -2.187664729702792,
                -2.408219686458365,
                0.47758989187496714,
                -0.3779310006287794,
                0.6736391429254183
            ]
        },
        {
            "positions": [
                0.01000956786937408,
                -2.1844999410512482,
                -2.3777619470274147,
                0.32936892903763093,
                -0.4422371249340241,
                0.8059812688316422
            ]
        },
        {
            "positions": [
                0.007536429419545413,
                -2.181335152399705,
                -2.3473042075964647,
                0.18114796620029505,
                -0.5065432492392687,
                0.9383233947378659
            ]
        },
        {
            "positions": [
                0.005063290969716749,
                -2.1781703637481615,
                -2.3168464681655143,
                0.03292700336295917,
                -0.5708493735445135,
                1.0706655206440896
            ]
        },
        {
            "positions": [
                0.002590152519888079,
                -2.175005575096618,
                -2.286388728734564,
                -0.11529395947437693,
                -0.6351554978497583,
                1.2030076465503134
            ]
        },
        {
            "positions": [
                0.00011701407005941522,
                -2.1718407864450744,
                -2.255930989303614,
                -0.2635149223117128,
                -0.699461622155003,
                1.335349772456537
            ]
        },
        {
            "positions": [
                -0.002356124379769252,
                -2.168675997793531,
                -2.225473249872664,
                -0.4117358851490487,
                -0.7637677464602477,
                1.4676918983627607
            ]
        },
        {
            "positions": [
                -0.004829262829597919,
                -2.1655112091419877,
                -2.1950155104417135,
                -0.559956847986385,
                -0.8280738707654924,
                1.6000340242689848
            ]
        },
        {
            "positions": [
                -0.007302401279426586,
                -2.162346420490444,
                -2.164557771010763,
                -0.7081778108237211,
                -0.8923799950707373,
                1.7323761501752086
            ]
        },
        {
            "positions": [
                -0.009775539729255253,
                -2.1591816318389006,
                -2.134100031579813,
                -0.8563987736610565,
                -0.9566861193759818,
                1.864718276081432
            ]
        },
        {
            "positions": [
                -0.01224867817908392,
                -2.156016843187357,
                -2.1036422921488627,
                -1.0046197364983929,
                -1.0209922436812267,
                1.9970604019876559
            ]
        },
        {
            "positions": [
                -0.014721816628912587,
                -2.1528520545358134,
                -2.0731845527179127,
                -1.1528406993357287,
                -1.0852983679864716,
                2.1294025278938795
            ]
        },
        {
            "positions": [
                -0.017194955078741248,
                -2.1496872658842703,
                -2.0427268132869623,
                -1.3010616621730646,
                -1.1496044922917161,
                2.261744653800103
            ]
        },
        {
            "positions": [
                -0.01966809352856992,
                -2.1465224772327267,
                -2.0122690738560123,
                -1.449282625010401,
                -1.2139106165969609,
                2.394086779706327
            ]
        },
        {
            "positions": [
                -0.02214123197839859,
                -2.143357688581183,
                -1.9818113344250619,
                -1.5975035878477368,
                -1.2782167409022058,
                2.526428905612551
            ]
        },
        {
            "positions": [
                -0.02461437042822725,
                -2.1401928999296396,
                -1.9513535949941119,
                -1.7457245506850727,
                -1.3425228652074503,
                2.6587710315187745
            ]
        },
        {
            "positions": [
                -0.027087508878055916,
                -2.137028111278096,
                -1.9208958555631614,
                -1.8939455135224086,
                -1.406828989512695,
                2.791113157424998
            ]
        },
        {
            "positions": [
                -0.02956064732788459,
                -2.133863322626553,
                -1.8904381161322112,
                -2.042166476359745,
                -1.4711351138179398,
                2.923455283331222
            ]
        },
        {
            "positions": [
                -0.03203378577771325,
                -2.1306985339750093,
                -1.859980376701261,
                -2.1903874391970803,
                -1.5354412381231846,
                3.0557974092374454
            ]
        },
        {
            "positions": [
                -0.03450692422754192,
                -2.1275337453234657,
                -1.8295226372703108,
                -2.3386084020344167,
                -1.5997473624284293,
                3.1881395351436694
            ]
        }
    ]
}