{
    "goal": {
        "global_pose": {
            "orientation": {
                "w": 0.7031023502349854,
                "x": -0.7110244035720825,
                "y": 0.007748599164187908,
                "z": 0.005598929710686207
            },
            "position": {
                "x": 0.11585023208521307,
                "y": 0.44412534475326537,
                "z": 0.3711530566215515
            }
        },
        "name": "move_to_auspresseinheit_A"
    },
    "id": "SPARS_move_to_auspresseinheit_A_53",
    "joint_names": [
        "shoulder_pan_joint",
        "shoulder_lift_joint",
        "elbow_joint",
        "wrist_1_joint",
        "wrist_2_joint",
        "wrist_3_joint"
    ],
    "metrics": {
        "cart_traj_len": 2.457390498587737,
        "distance_elbow_joint": 2.272287731949553,
        "distance_shoulder_lift_joint": 0.8976668807971786,
        "distance_shoulder_pan_joint": 2.2257502243922076,
        "distance_wrist_1_joint": 1.3564183228181732,
        "distance_wrist_2_joint": 0.5186592267616384,
        "distance_wrist_3_joint": 3.3970120024948165,
        "smoothness": 1.0686069007659023,
        "time": 5.048161791,
        "traj_len": 3.2661589656986334,
        "weighted_distance": 4.397373755297928
    },
    "planner": "SPARS",
    "start": {
        "state": {
            "elbow_joint": 2.4225746658250005,
            "shoulder_lift_joint": -1.3736534386056498,
            "shoulder_pan_joint": -0.3378633547517467,
            "wrist_1_joint": -1.0288598680537169,
            "wrist_2_joint": 1.233022673432363,
            "wrist_3_joint": -3.0940220416140027
        }
    },
    "waypoints": [
        {
            "positions": [
                -0.3378633547517467,
                -1.3736534386056498,
                2.4225746658250005,
                -1.0288598680537169,
                1.233022673432363,
                -3.0940220416140027
            ]
        },
        {
            "positions": [
                -0.25793569873764177,
                -1.4230827344390276,
                2.335418868440834,
                -1.0041662988514652,
                1.2319727718398596,
                -2.966469698924244
            ]
        },
        {
            "positions": [
                -0.17800804272353682,
                -1.4725120302724053,
                2.2482630710566673,
                -0.9794727296492134,
                1.2309228702473565,
                -2.838917356234485
            ]
        },
        {
            "positions": [
                -0.09808038670943187,
                -1.521941326105783,
                2.161107273672501,
                -0.9547791604469616,
                1.229872968654853,
                -2.711365013544726
            ]
        },
        {
            "positions": [
                -0.018152730695326913,
                -1.5713706219391608,
                2.073951476288334,
                -0.9300855912447099,
                1.22882306706235,
                -2.583812670854967
            ]
        },
        {
            "positions": [
                0.06177492531877804,
                -1.6207999177725385,
                1.9867956789041676,
                -0.9053920220424582,
                1.2277731654698465,
                -2.4562603281652082
            ]
        },
        {
            "positions": [
                0.141702581332883,
                -1.670229213605916,
                1.899639881520001,
                -0.8806984528402064,
                1.226723263877343,
                -2.3287079854754493
            ]
        },
        {
            "positions": [
                0.2216302373469879,
                -1.7196585094392938,
                1.8124840841358347,
                -0.8560048836379548,
                1.22567336228484,
                -2.201155642785691
            ]
        },
        {
            "positions": [
                0.3015578933610929,
                -1.7690878052726715,
                1.725328286751668,
                -0.8313113144357029,
                1.2246234606923365,
                -2.0736033000959315
            ]
        },
        {
            "positions": [
                0.3814855493751978,
                -1.8185171011060492,
                1.6381724893675016,
                -0.8066177452334513,
                1.2235735590998331,
                -1.946050957406173
            ]
        },
        {
            "positions": [
                0.4614132053893028,
                -1.867946396939427,
                1.5510166919833348,
                -0.7819241760311996,
                1.22252365750733,
                -1.818498614716414
            ]
        },
        {
            "positions": [
                0.5413408614034076,
                -1.9173756927728047,
                1.4638608945991685,
                -0.7572306068289478,
                1.2214737559148265,
                -1.6909462720266553
            ]
        },
        {
            "positions": [
                0.6212685174175128,
                -1.9668049886061825,
                1.376705097215002,
                -0.7325370376266961,
                1.2204238543223234,
                -1.5633939293368961
            ]
        },
        {
            "positions": [
                0.7011961734316176,
                -2.01623428443956,
                1.2895492998308353,
                -0.7078434684244443,
                1.21937395272982,
                -1.4358415866471375
            ]
        },
        {
            "positions": [
                0.7673706242877654,
                -2.0243991256441483,
                1.3679215217398177,
                -0.6365309951468744,
                1.1654123028659453,
                -1.5525492884660594
            ]
        },
        {
            "positions": [
                0.8335450751439131,
                -2.0325639668487367,
                1.4462937436488004,
                -0.5652185218693044,
                1.1114506530020707,
                -1.6692569902849816
            ]
        },
        {
            "positions": [
                0.8997195260000608,
                -2.040728808053325,
                1.5246659655577828,
                -0.49390604859173437,
                1.057489003138196,
                -1.7859646921039036
            ]
        },
        {
            "positions": [
                0.9658939768562086,
                -2.0488936492579133,
                1.6030381874667654,
                -0.4225935753141644,
                1.0035273532743214,
                -1.9026723939228258
            ]
        },
        {
            "positions": [
                1.0320684277123564,
                -2.0570584904625013,
                1.6814104093757478,
                -0.35128110203659435,
                0.9495657034104468,
                -2.019380095741748
            ]
        },
        {
            "positions": [
                1.098242878568504,
                -2.06522333166709,
                1.7597826312847302,
                -0.2799686287590244,
                0.8956040535465721,
                -2.13608779756067
            ]
        },
        {
            "positions": [
                1.1644173294246518,
                -2.073388172871678,
                1.8381548531937129,
                -0.2086561554814544,
                0.8416424036826975,
                -2.252795499379592
            ]
        },
        {
            "positions": [
                1.2305917802807995,
                -2.0815530140762664,
                1.9165270751026955,
                -0.1373436822038845,
                0.7876807538188229,
                -2.369503201198514
            ]
        },
        {
            "positions": [
                1.2967662311369474,
                -2.0897178552808544,
                1.994899297011678,
                -0.0660312089263144,
                0.7337191039549482,
                -2.486210903017436
            ]
        },
        {
            "positions": [
                1.2178910832326268,
                -2.064698829662919,
                2.0642047350578556,
                -0.10938204167471433,
                0.7307085034174743,
                -2.599003304778774
            ]
        },
        {
            "positions": [
                1.139015935328306,
                -2.039679804044984,
                2.1335101731040336,
                -0.15273287442311428,
                0.7276979028800004,
                -2.711795706540112
            ]
        },
        {
            "positions": [
                1.0601407874239854,
                -2.014660778427049,
                2.2028156111502115,
                -0.19608370717151422,
                0.7246873023425264,
                -2.82458810830145
            ]
        },
        {
            "positions": [
                0.9812656395196648,
                -1.9896417528091137,
                2.2721210491963895,
                -0.23943453991991415,
                0.7216767018050524,
                -2.9373805100627877
            ]
        },
        {
            "positions": [
                0.902390491615344,
                -1.9646227271911787,
                2.3414264872425674,
                -0.2827853726683141,
                0.7186661012675785,
                -3.050172911824126
            ]
        },
        {
            "positions": [
                0.8235153437110234,
                -1.9396037015732435,
                2.4107319252887454,
                -0.326136205416714,
                0.7156555007301045,
                -3.1629653135854636
            ]
        },
        {
            "positions": [
                0.7056455926334332,
                -1.9081153911588804,
                2.3926521847912676,
                -0.4596208726170847,
                0.7143634466707246,
                -3.1512574929958386
            ]
        }
    ]
}