{
    "goal": {
        "global_pose": {
            "orientation": {
                "w": -0.00223480608172531,
                "x": 0.0024358444001904467,
                "y": 0.7094548369677653,
                "z": -0.704743149386269
            },
            "position": {
                "x": -0.37947507619857795,
                "y": -0.6371506643295288,
                "z": 0.19426114857196808
            }
        },
        "name": "move_to_magneteinheit_C"
    },
    "id": "SPARS_move_to_magneteinheit_C_40",
    "joint_names": [
        "shoulder_pan_joint",
        "shoulder_lift_joint",
        "elbow_joint",
        "wrist_1_joint",
        "wrist_2_joint",
        "wrist_3_joint"
    ],
    "metrics": {
        "cart_traj_len": 1.6723960269457565,
        "distance_elbow_joint": 1.4414987103008943,
        "distance_shoulder_lift_joint": 1.4142215817853057,
        "distance_shoulder_pan_joint": 2.020764734949129,
        "distance_wrist_1_joint": 2.003819474327491,
        "distance_wrist_2_joint": 0.8839370647757707,
        "distance_wrist_3_joint": 4.284717359865741,
        "smoothness": 1.072182796682162,
        "time": 5.030546867,
        "traj_len": 3.471161034294481,
        "weighted_distance": 4.848314159049419
    },
    "planner": "SPARS",
    "start": {
        "state": {
            "elbow_joint": 1.9565354010623817,
            "shoulder_lift_joint": -1.4165861575791021,
            "shoulder_pan_joint": -1.6717766225146293,
            "wrist_1_joint": -0.5286633292919765,
            "wrist_2_joint": 1.472756589071564,
            "wrist_3_joint": -3.1238370188695823
        }
    },
    "waypoints": [
        {
            "positions": [
                -1.6717766225146293,
                -1.4165861575791021,
                1.9565354010623817,
                -0.5286633292919765,
                1.472756589071564,
                -3.1238370188695823
            ]
        },
        {
            "positions": [
                -1.6484569503614654,
                -1.4209910001303439,
                1.9266063002377734,
                -0.44331735600896305,
                1.3985826375136508,
                -2.9658273229377885
            ]
        },
        {
            "positions": [
                -1.6251372782083016,
                -1.4253958426815854,
                1.8966771994131648,
                -0.3579713827259496,
                1.3244086859557376,
                -2.8078176270059947
            ]
        },
        {
            "positions": [
                -1.6018176060551377,
                -1.429800685232827,
                1.8667480985885565,
                -0.2726254094429361,
                1.2502347343978244,
                -2.649807931074201
            ]
        },
        {
            "positions": [
                -1.6262869434433598,
                -1.5108548739227392,
                1.8705071684613253,
                -0.28051883534247257,
                1.231976024196058,
                -2.413744504114682
            ]
        },
        {
            "positions": [
                -1.6507562808315819,
                -1.5919090626126513,
                1.8742662383340942,
                -0.288412261242009,
                1.2137173139942918,
                -2.177681077155163
            ]
        },
        {
            "positions": [
                -1.675225618219804,
                -1.6729632513025634,
                1.878025308206863,
                -0.2963056871415455,
                1.1954586037925254,
                -1.9416176501956441
            ]
        },
        {
            "positions": [
                -1.699694955608026,
                -1.7540174399924755,
                1.881784378079632,
                -0.3041991130410819,
                1.1771998935907593,
                -1.7055542232361254
            ]
        },
        {
            "positions": [
                -1.7241642929962482,
                -1.8350716286823878,
                1.8855434479524007,
                -0.31209253894061834,
                1.1589411833889929,
                -1.4694907962766062
            ]
        },
        {
            "positions": [
                -1.7486336303844703,
                -1.9161258173723,
                1.8893025178251697,
                -0.3199859648401548,
                1.1406824731872267,
                -1.2334273693170874
            ]
        },
        {
            "positions": [
                -1.7731029677726924,
                -1.997180006062212,
                1.8930615876979384,
                -0.32787939073969125,
                1.1224237629854603,
                -0.9973639423575684
            ]
        },
        {
            "positions": [
                -1.8616064407936974,
                -1.9757628282063717,
                1.9446108772524213,
                -0.4063451859916064,
                1.1258230144279515,
                -1.124786687152786
            ]
        },
        {
            "positions": [
                -1.9501099138147027,
                -1.9543456503505314,
                1.9961601668069042,
                -0.4848109812435215,
                1.1292222658704427,
                -1.252209431948004
            ]
        },
        {
            "positions": [
                -2.0386133868357077,
                -1.9329284724946911,
                2.047709456361387,
                -0.5632767764954367,
                1.132621517312934,
                -1.3796321767432216
            ]
        },
        {
            "positions": [
                -2.127116859856713,
                -1.9115112946388508,
                2.0992587459158703,
                -0.6417425717473518,
                1.136020768755425,
                -1.5070549215384395
            ]
        },
        {
            "positions": [
                -2.215620332877718,
                -1.8900941167830105,
                2.1508080354703534,
                -0.7202083669992669,
                1.139420020197916,
                -1.634477666333657
            ]
        },
        {
            "positions": [
                -2.304123805898723,
                -1.8686769389271705,
                2.202357325024836,
                -0.7986741622511822,
                1.1428192716404073,
                -1.7619004111288747
            ]
        },
        {
            "positions": [
                -2.3926272789197283,
                -1.8472597610713302,
                2.253906614579319,
                -0.8771399575030974,
                1.1462185230828985,
                -1.8893231559240926
            ]
        },
        {
            "positions": [
                -2.4811307519407335,
                -1.8258425832154899,
                2.305455904133802,
                -0.9556057527550124,
                1.1496177745253897,
                -2.01674590071931
            ]
        },
        {
            "positions": [
                -2.5696342249617388,
                -1.8044254053596496,
                2.357005193688285,
                -1.0340715480069276,
                1.153017025967881,
                -2.144168645514528
            ]
        },
        {
            "positions": [
                -2.6581376979827436,
                -1.7830082275038093,
                2.408554483242768,
                -1.1125373432588428,
                1.1564162774103721,
                -2.2715913903097458
            ]
        },
        {
            "positions": [
                -2.746641171003749,
                -1.761591049647969,
                2.460103772797251,
                -1.191003138510758,
                1.159815528852863,
                -2.399014135104964
            ]
        },
        {
            "positions": [
                -2.835144644024754,
                -1.7401738717921287,
                2.511653062351734,
                -1.269468933762673,
                1.1632147802953543,
                -2.5264368799001815
            ]
        },
        {
            "positions": [
                -2.923648117045759,
                -1.7187566939362884,
                2.5632023519062166,
                -1.3479347290145882,
                1.1666140317378455,
                -2.653859624695399
            ]
        },
        {
            "positions": [
                -3.012151590066764,
                -1.697339516080448,
                2.6147516414606997,
                -1.4264005242665034,
                1.1700132831803367,
                -2.781282369490617
            ]
        },
        {
            "positions": [
                -2.9445926232570128,
                -1.630616110665394,
                2.539288158341334,
                -1.352149719309643,
                1.1092614433684878,
                -2.8280731015182017
            ]
        },
        {
            "positions": [
                -2.8770336564472614,
                -1.5638927052503402,
                2.4638246752219684,
                -1.2778989143527826,
                1.048509603556639,
                -2.8748638335457866
            ]
        },
        {
            "positions": [
                -2.80947468963751,
                -1.4971692998352861,
                2.3883611921026024,
                -1.2036481093959222,
                0.9877577637447902,
                -2.921654565573371
            ]
        },
        {
            "positions": [
                -2.7419157228277586,
                -1.4304458944202323,
                2.312897708983237,
                -1.129397304439062,
                0.9270059239329413,
                -2.968445297600956
            ]
        },
        {
            "positions": [
                -2.6743567560180073,
                -1.3637224890051782,
                2.237434225863871,
                -1.0551464994822015,
                0.8662540841210925,
                -3.0152360296285408
            ]
        },
        {
            "positions": [
                -2.606797789208256,
                -1.2969990835901242,
                2.161970742744505,
                -0.9808956945253411,
                0.8055022443092437,
                -3.062026761656125
            ]
        },
        {
            "positions": [
                -2.5392388223985045,
                -1.23027567817507,
                2.0865072596251393,
                -0.9066448895684807,
                0.7447504044973948,
                -3.10881749368371
            ]
        },
        {
            "positions": [
                -2.471679855588753,
                -1.1635522727600163,
                2.011043776505774,
                -0.8323940846116202,
                0.683998564685546,
                -3.155608225711295
            ]
        }
    ]
}