{
    "goal": {
        "global_pose": {
            "orientation": {
                "w": 0.7047431493862688,
                "x": -0.7094548369677653,
                "y": 0.0024358444001904,
                "z": -0.0022348060817251984
            },
            "position": {
                "x": -0.39052492380142206,
                "y": 0.3671506643295288,
                "z": 0.19426114857196808
            }
        },
        "name": "move_to_magneteinheit_D"
    },
    "id": "SPARS_move_to_magneteinheit_D_81",
    "joint_names": [
        "shoulder_pan_joint",
        "shoulder_lift_joint",
        "elbow_joint",
        "wrist_1_joint",
        "wrist_2_joint",
        "wrist_3_joint"
    ],
    "metrics": {
        "cart_traj_len": 3.886037997255767,
        "distance_elbow_joint": 3.114885432812931,
        "distance_shoulder_lift_joint": 2.208803141037076,
        "distance_shoulder_pan_joint": 3.7823203909932244,
        "distance_wrist_1_joint": 3.8577313013005305,
        "distance_wrist_2_joint": 3.0803515741700376,
        "distance_wrist_3_joint": 6.282046936813638,
        "smoothness": 0.2801068649465117,
        "time": 5.158048815,
        "traj_len": 4.725054367637206,
        "weighted_distance": 6.467481389708459
    },
    "planner": "SPARS",
    "start": {
        "state": {
            "elbow_joint": 0.749534889911806,
            "shoulder_lift_joint": -0.6476975780787326,
            "shoulder_pan_joint": -2.711696901376241,
            "wrist_1_joint": -0.07506478083263063,
            "wrist_2_joint": 0.43296659715538205,
            "wrist_3_joint": -3.14703540197715
        }
    },
    "waypoints": [
        {
            "positions": [
                -2.711696901376241,
                -0.6476975780787326,
                0.749534889911806,
                -0.07506478083263063,
                0.43296659715538205,
                -3.14703540197715
            ]
        },
        {
            "positions": [
                -2.7302903689621134,
                -0.7263983454357378,
                0.6896225847759834,
                -0.07865638453745065,
                0.3730194861651901,
                -3.0024620701510285
            ]
        },
        {
            "positions": [
                -2.7488838365479853,
                -0.8050991127927429,
                0.6297102796401608,
                -0.08224798824227067,
                0.3130723751749982,
                -2.857888738324907
            ]
        },
        {
            "positions": [
                -2.7452230962435387,
                -0.8871985271097482,
                0.5862553726252493,
                -0.11501591573940192,
                0.2680654293683483,
                -2.6769691204403423
            ]
        },
        {
            "positions": [
                -2.7415623559390916,
                -0.9692979414267536,
                0.5428004656103377,
                -0.14778384323653318,
                0.22305848356169844,
                -2.4960495025557776
            ]
        },
        {
            "positions": [
                -2.737901615634645,
                -1.051397355743759,
                0.4993455585954262,
                -0.18055177073366444,
                0.17805153775504856,
                -2.315129884671213
            ]
        },
        {
            "positions": [
                -2.7342408753301983,
                -1.1334967700607643,
                0.4558906515805146,
                -0.2133196982307957,
                0.13304459194839868,
                -2.1342102667866483
            ]
        },
        {
            "positions": [
                -2.636131044109203,
                -1.116068625685015,
                0.385502593476912,
                -0.3019017011249449,
                0.17161797298459464,
                -2.056430532848623
            ]
        },
        {
            "positions": [
                -2.5380212128882076,
                -1.0986404813092656,
                0.3151145353733094,
                -0.39048370401909416,
                0.21019135402079062,
                -1.978650798910598
            ]
        },
        {
            "positions": [
                -2.4399113816672124,
                -1.0812123369335163,
                0.2447264772697068,
                -0.47906570691324335,
                0.2487647350569866,
                -1.9008710649725726
            ]
        },
        {
            "positions": [
                -2.3418015504462173,
                -1.063784192557767,
                0.1743384191661042,
                -0.5676477098073927,
                0.28733811609318255,
                -1.8230913310345476
            ]
        },
        {
            "positions": [
                -2.243691719225222,
                -1.0463560481820178,
                0.1039503610625016,
                -0.6562297127015418,
                0.3259114971293785,
                -1.7453115970965223
            ]
        },
        {
            "positions": [
                -2.1455818880042266,
                -1.0289279038062684,
                0.033562302958899004,
                -0.744811715595691,
                0.3644848781655745,
                -1.667531863158497
            ]
        },
        {
            "positions": [
                -2.0474720567832314,
                -1.011499759430519,
                -0.0368257551447036,
                -0.8333937184898403,
                0.40305825920177046,
                -1.589752129220472
            ]
        },
        {
            "positions": [
                -1.9493622255622363,
                -0.9940716150547697,
                -0.1072138132483062,
                -0.9219757213839895,
                0.4416316402379664,
                -1.5119723952824469
            ]
        },
        {
            "positions": [
                -1.851252394341241,
                -0.9766434706790204,
                -0.1776018713519088,
                -1.0105577242781387,
                0.48020502127416237,
                -1.4341926613444216
            ]
        },
        {
            "positions": [
                -1.7531425631202455,
                -0.959215326303271,
                -0.2479899294555114,
                -1.099139727172288,
                0.5187784023103583,
                -1.3564129274063963
            ]
        },
        {
            "positions": [
                -1.6550327318992504,
                -0.9417871819275216,
                -0.318377987559114,
                -1.1877217300664373,
                0.5573517833465543,
                -1.2786331934683712
            ]
        },
        {
            "positions": [
                -1.556922900678255,
                -0.9243590375517723,
                -0.3887660456627166,
                -1.2763037329605864,
                0.5959251643827503,
                -1.200853459530346
            ]
        },
        {
            "positions": [
                -1.4588130694572599,
                -0.9069308931760229,
                -0.4591541037663192,
                -1.3648857358547357,
                0.6344985454189462,
                -1.1230737255923209
            ]
        },
        {
            "positions": [
                -1.3607032382362645,
                -0.8895027488002736,
                -0.5295421618699219,
                -1.453467738748885,
                0.6730719264551422,
                -1.0452939916542956
            ]
        },
        {
            "positions": [
                -1.2625934070152693,
                -0.8720746044245243,
                -0.5999302199735244,
                -1.542049741643034,
                0.7116453074913381,
                -0.9675142577162705
            ]
        },
        {
            "positions": [
                -1.164483575794274,
                -0.854646460048775,
                -0.6703182780771271,
                -1.6306317445371834,
                0.7502186885275341,
                -0.8897345237782452
            ]
        },
        {
            "positions": [
                -1.0663737445732786,
                -0.8372183156730256,
                -0.7407063361807298,
                -1.7192137474313327,
                0.7887920695637302,
                -0.81195478984022
            ]
        },
        {
            "positions": [
                -0.9682639133522835,
                -0.8197901712972764,
                -0.8110943942843323,
                -1.8077957503254818,
                0.8273654505999261,
                -0.7341750559021949
            ]
        },
        {
            "positions": [
                -0.8701540821312881,
                -0.802362026921527,
                -0.8814824523879348,
                -1.896377753219631,
                0.8659388316361221,
                -0.6563953219641696
            ]
        },
        {
            "positions": [
                -0.7720442509102929,
                -0.7849338825457777,
                -0.9518705104915375,
                -1.9849597561137804,
                0.904512212672318,
                -0.5786155880261445
            ]
        },
        {
            "positions": [
                -0.6739344196892976,
                -0.7675057381700283,
                -1.0222585685951402,
                -2.0735417590079295,
                0.943085593708514,
                -0.5008358540881193
            ]
        },
        {
            "positions": [
                -0.5758245884683024,
                -0.750077593794279,
                -1.0926466266987427,
                -2.162123761902079,
                0.98165897474471,
                -0.4230561201500942
            ]
        },
        {
            "positions": [
                -0.4777147572473073,
                -0.7326494494185296,
                -1.1630346848023452,
                -2.250705764796228,
                1.0202323557809059,
                -0.3452763862120689
            ]
        },
        {
            "positions": [
                -0.3796049260263117,
                -0.7152213050427803,
                -1.2334227429059479,
                -2.339287767690377,
                1.058805736817102,
                -0.2674966522740436
            ]
        },
        {
            "positions": [
                -0.28149509480531654,
                -0.6977931606670309,
                -1.3038108010095506,
                -2.4278697705845267,
                1.097379117853298,
                -0.18971691833601856
            ]
        },
        {
            "positions": [
                -0.1833852635843214,
                -0.6803650162912817,
                -1.374198859113153,
                -2.5164517734786758,
                1.1359524988894938,
                -0.1119371843979935
            ]
        },
        {
            "positions": [
                -0.0852754323633258,
                -0.6629368719155323,
                -1.4445869172167556,
                -2.605033776372825,
                1.1745258799256897,
                -0.034157450459967986
            ]
        },
        {
            "positions": [
                0.012834398857669349,
                -0.645508727539783,
                -1.5149749753203583,
                -2.6936157792669744,
                1.2130992609618858,
                0.04362228347805708
            ]
        },
        {
            "positions": [
                0.1109442300786645,
                -0.6280805831640336,
                -1.585363033423961,
                -2.7821977821611235,
                1.2516726419980817,
                0.12140201741608214
            ]
        },
        {
            "positions": [
                0.20905406129965964,
                -0.6106524387882843,
                -1.6557510915275633,
                -2.8707797850552725,
                1.2902460230342776,
                0.1991817513541072
            ]
        },
        {
            "positions": [
                0.30716389252065524,
                -0.593224294412535,
                -1.726139149631166,
                -2.959361787949422,
                1.3288194040704737,
                0.2769614852921327
            ]
        },
        {
            "positions": [
                0.4052737237416504,
                -0.5757961500367856,
                -1.7965272077347685,
                -3.047943790843571,
                1.3673927851066696,
                0.3547412192301578
            ]
        },
        {
            "positions": [
                0.37572492896505805,
                -0.6340613164883389,
                -1.8249683744930862,
                -3.0037011762790917,
                1.2900887163164305,
                0.49375473501047407
            ]
        },
        {
            "positions": [
                0.3461761341884657,
                -0.6923264829398921,
                -1.8534095412514042,
                -2.9594585617146123,
                1.2127846475261912,
                0.6327682507907904
            ]
        },
        {
            "positions": [
                0.31662733941187343,
                -0.7505916493914453,
                -1.881850708009722,
                -2.915215947150133,
                1.135480578735952,
                0.7717817665711066
            ]
        },
        {
            "positions": [
                0.2870785446352811,
                -0.8088568158429986,
                -1.91029187476804,
                -2.870973332585653,
                1.0581765099457128,
                0.9107952823514229
            ]
        },
        {
            "positions": [
                0.2575297498586888,
                -0.8671219822945518,
                -1.9387330415263577,
                -2.8267307180211736,
                0.9808724411554737,
                1.0498087981317392
            ]
        },
        {
            "positions": [
                0.22798095508209648,
                -0.9253871487461051,
                -1.9671742082846757,
                -2.782488103456694,
                0.9035683723652346,
                1.1888223139120555
            ]
        },
        {
            "positions": [
                0.19843216030550417,
                -0.9836523151976583,
                -1.9956153750429935,
                -2.7382454888922148,
                0.8262643035749954,
                1.3278358296923716
            ]
        },
        {
            "positions": [
                0.1688833655289118,
                -1.0419174816492116,
                -2.0240565418013112,
                -2.6940028743277353,
                0.748960234784756,
                1.466849345472688
            ]
        },
        {
            "positions": [
                0.13933457075231953,
                -1.1001826481007648,
                -2.0524977085596294,
                -2.649760259763256,
                0.6716561659945169,
                1.6058628612530044
            ]
        },
        {
            "positions": [
                0.1097857759757272,
                -1.158447814552318,
                -2.080938875317947,
                -2.605517645198776,
                0.5943520972042777,
                1.7448763770333207
            ]
        },
        {
            "positions": [
                0.08023698119913486,
                -1.2167129810038713,
                -2.109380042076265,
                -2.5612750306342966,
                0.5170480284140385,
                1.8838898928136372
            ]
        },
        {
            "positions": [
                0.05068818642254258,
                -1.2749781474554245,
                -2.1378212088345827,
                -2.517032416069817,
                0.4397439596237994,
                2.0229034085939532
            ]
        },
        {
            "positions": [
                0.021139391645950245,
                -1.3332433139069777,
                -2.1662623755929005,
                -2.472789801505338,
                0.3624398908335602,
                2.1619169243742693
            ]
        },
        {
            "positions": [
                -0.008409403130642035,
                -1.391508480358531,
                -2.1947035423512187,
                -2.4285471869408584,
                0.2851358220433211,
                2.300930440154586
            ]
        },
        {
            "positions": [
                -0.037958197907234426,
                -1.4497736468100841,
                -2.2231447091095364,
                -2.384304572376379,
                0.20783175325308179,
                2.439943955934902
            ]
        },
        {
            "positions": [
                -0.06750699268382676,
                -1.5080388132616376,
                -2.251585875867854,
                -2.3400619578118995,
                0.13052768446284246,
                2.5789574717152184
            ]
        },
        {
            "positions": [
                -0.09705578746041899,
                -1.5663039797131906,
                -2.280027042626172,
                -2.2958193432474197,
                0.053223615672603364,
                2.7179709874955345
            ]
        },
        {
            "positions": [
                -0.12660458223701132,
                -1.624569146164744,
                -2.3084682093844897,
                -2.2515767286829402,
                -0.024080453117635736,
                2.856984503275851
            ]
        },
        {
            "positions": [
                -0.15615337701360366,
                -1.6828343126162972,
                -2.336909376142808,
                -2.207334114118461,
                -0.10138452190787484,
                2.995998019056167
            ]
        },
        {
            "positions": [
                -0.18570217179019596,
                -1.7410994790678505,
                -2.3653505429011257,
                -2.1630914995539814,
                -0.17868859069811424,
                3.1350115348364835
            ]
        }
    ]
}