{
    "goal": {
        "global_pose": {
            "orientation": {
                "w": 0.5084816262002911,
                "x": -0.4908360881923452,
                "y": 0.5182115481033761,
                "z": -0.48164630358495003
            },
            "position": {
                "x": 0.5540239810943604,
                "y": -0.46912469901144505,
                "z": 0.16403168439865112
            }
        },
        "name": "move_to_storage_B"
    },
    "id": "SPARStwo_move_to_storage_B_2",
    "joint_names": [
        "shoulder_pan_joint",
        "shoulder_lift_joint",
        "elbow_joint",
        "wrist_1_joint",
        "wrist_2_joint",
        "wrist_3_joint"
    ],
    "metrics": {
        "cart_traj_len": 1.378873143657427,
        "distance_elbow_joint": 0.9909736491779126,
        "distance_shoulder_lift_joint": 0.4590446724509821,
        "distance_shoulder_pan_joint": 1.3468660918067763,
        "distance_wrist_1_joint": 2.9803269820072353,
        "distance_wrist_2_joint": 2.7079039432235805,
        "distance_wrist_3_joint": 3.1457077969636202,
        "smoothness": 0.15688575572362176,
        "time": 5.025855549,
        "traj_len": 3.4103992633752,
        "weighted_distance": 4.859060573278354
    },
    "planner": "SPARStwo",
    "start": {
        "state": {
            "elbow_joint": 1.664933442143537,
            "shoulder_lift_joint": -0.6616394447335833,
            "shoulder_pan_joint": -0.9139842036674819,
            "wrist_1_joint": 2.1467570250598067,
            "wrist_2_joint": -2.234195602830096,
            "wrist_3_joint": 0.005471150212293033
        }
    },
    "waypoints": [
        {
            "positions": [
                -0.9139842036674819,
                -0.6616394447335833,
                1.664933442143537,
                2.1467570250598067,
                -2.234195602830096,
                0.005471150212293033
            ]
        },
        {
            "positions": [
                -0.7975360999449947,
                -0.6924376144312883,
                1.6007017345657573,
                2.1417406752892685,
                -2.1389146094793063,
                0.08024914679210908
            ]
        },
        {
            "positions": [
                -0.6810879962225076,
                -0.7232357841289934,
                1.5364700269879776,
                2.1367243255187307,
                -2.0436336161285165,
                0.1550271433719251
            ]
        },
        {
            "positions": [
                -0.5646398925000204,
                -0.7540339538266984,
                1.4722383194101982,
                2.1317079757481925,
                -1.9483526227777266,
                0.22980513995174115
            ]
        },
        {
            "positions": [
                -0.4481917887775333,
                -0.7848321235244035,
                1.4080066118324186,
                2.1266916259776547,
                -1.8530716294269367,
                0.3045831365315572
            ]
        },
        {
            "positions": [
                -0.33174368505504614,
                -0.8156302932221084,
                1.343774904254639,
                2.1216752762071165,
                -1.7577906360761468,
                0.37936113311137326
            ]
        },
        {
            "positions": [
                -0.36232870798281974,
                -0.8278324461806067,
                1.3705675087061995,
                2.0034654668809346,
                -1.6685306770173616,
                0.4902338456739549
            ]
        },
        {
            "positions": [
                -0.3929137309105934,
                -0.840034599139105,
                1.3973601131577602,
                1.8852556575547528,
                -1.5792707179585763,
                0.6011065582365365
            ]
        },
        {
            "positions": [
                -0.423498753838367,
                -0.8522367520976033,
                1.4241527176093207,
                1.7670458482285711,
                -1.4900107588997913,
                0.711979270799118
            ]
        },
        {
            "positions": [
                -0.45408377676614065,
                -0.8644389050561015,
                1.4509453220608812,
                1.6488360389023893,
                -1.4007507998410058,
                0.8228519833616996
            ]
        },
        {
            "positions": [
                -0.4846687996939143,
                -0.8766410580145998,
                1.477737926512442,
                1.5306262295762074,
                -1.3114908407822208,
                0.9337246959242813
            ]
        },
        {
            "positions": [
                -0.5152538226216878,
                -0.8888432109730982,
                1.5045305309640025,
                1.4124164202500258,
                -1.2222308817234355,
                1.0445974084868628
            ]
        },
        {
            "positions": [
                -0.5458388455494615,
                -0.9010453639315964,
                1.5313231354155632,
                1.294206610923844,
                -1.1329709226646503,
                1.1554701210494447
            ]
        },
        {
            "positions": [
                -0.5764238684772351,
                -0.9132475168900946,
                1.5581157398671237,
                1.175996801597662,
                -1.043710963605865,
                1.2663428336120262
            ]
        },
        {
            "positions": [
                -0.6070088914050087,
                -0.925449669848593,
                1.5849083443186842,
                1.0577869922714802,
                -0.9544510045470798,
                1.3772155461746076
            ]
        },
        {
            "positions": [
                -0.6375939143327825,
                -0.9376518228070913,
                1.611700948770245,
                0.9395771829452984,
                -0.8651910454882945,
                1.4880882587371895
            ]
        },
        {
            "positions": [
                -0.668178937260556,
                -0.9498539757655895,
                1.6384935532218055,
                0.8213673736191167,
                -0.7759310864295094,
                1.598960971299771
            ]
        },
        {
            "positions": [
                -0.6987639601883295,
                -0.9620561287240877,
                1.665286157673366,
                0.7031575642929349,
                -0.6866711273707242,
                1.7098336838623525
            ]
        },
        {
            "positions": [
                -0.7293489831161033,
                -0.9742582816825861,
                1.6920787621249267,
                0.584947754966753,
                -0.5974111683119387,
                1.8207063964249344
            ]
        },
        {
            "positions": [
                -0.7599340060438768,
                -0.9864604346410843,
                1.7188713665764872,
                0.46673794564057114,
                -0.5081512092531535,
                1.931579108987516
            ]
        },
        {
            "positions": [
                -0.7905190289716504,
                -0.9986625875995826,
                1.7456639710280477,
                0.3485281363143895,
                -0.41889125019436846,
                2.042451821550097
            ]
        },
        {
            "positions": [
                -0.8211040518994241,
                -1.0108647405580808,
                1.7724565754796084,
                0.23031832698820764,
                -0.3296312911355832,
                2.153324534112679
            ]
        },
        {
            "positions": [
                -0.8516890748271978,
                -1.0230668935165792,
                1.799249179931169,
                0.11210851766202579,
                -0.24037133207679795,
                2.2641972466752605
            ]
        },
        {
            "positions": [
                -0.8822740977549713,
                -1.0352690464750776,
                1.8260417843827295,
                -0.006101291664156072,
                -0.1511113730180127,
                2.375069959237842
            ]
        },
        {
            "positions": [
                -0.912859120682745,
                -1.0474711994335757,
                1.8528343888342902,
                -0.12431110099033793,
                -0.06185141395922744,
                2.485942671800424
            ]
        },
        {
            "positions": [
                -0.9434441436105186,
                -1.059673352392074,
                1.879626993285851,
                -0.2425209103165198,
                0.027408545099557813,
                2.5968153843630057
            ]
        },
        {
            "positions": [
                -0.9740291665382922,
                -1.0718755053505724,
                1.9064195977374112,
                -0.3607307196427012,
                0.11666850415834285,
                2.707688096925587
            ]
        },
        {
            "positions": [
                -1.0046141894660658,
                -1.0840776583090705,
                1.933212202188972,
                -0.47894052896888306,
                0.2059284632171281,
                2.8185608094881687
            ]
        },
        {
            "positions": [
                -1.0351992123938394,
                -1.096279811267569,
                1.9600048066405327,
                -0.5971503382950654,
                0.29518842227591335,
                2.9294335220507506
            ]
        },
        {
            "positions": [
                -1.0657842353216131,
                -1.108481964226067,
                1.986797411092093,
                -0.7153601476212468,
                0.3844483813346984,
                3.0403062346133316
            ]
        },
        {
            "positions": [
                -1.0963692582493867,
                -1.1206841171845654,
                2.0135900155436537,
                -0.8335699569474285,
                0.4737083403934839,
                3.1511789471759135
            ]
        }
    ]
}