{
    "goal": {
        "global_pose": {
            "orientation": {
                "w": -0.00223480608172531,
                "x": 0.0024358444001904467,
                "y": 0.7094548369677653,
                "z": -0.704743149386269
            },
            "position": {
                "x": -0.37947507619857795,
                "y": -0.6371506643295288,
                "z": 0.19426114857196808
            }
        },
        "name": "move_to_magneteinheit_C"
    },
    "id": "SPARS_move_to_magneteinheit_C_86",
    "joint_names": [
        "shoulder_pan_joint",
        "shoulder_lift_joint",
        "elbow_joint",
        "wrist_1_joint",
        "wrist_2_joint",
        "wrist_3_joint"
    ],
    "metrics": {
        "cart_traj_len": 0.8723042660765661,
        "distance_elbow_joint": 0.5683792147751596,
        "distance_shoulder_lift_joint": 0.25538248627660676,
        "distance_shoulder_pan_joint": 1.5744950786044225,
        "distance_wrist_1_joint": 0.8137532862675277,
        "distance_wrist_2_joint": 2.990825473934009,
        "distance_wrist_3_joint": 0.7495917168993893,
        "smoothness": 1.3598506788862628,
        "time": 5.018049097,
        "traj_len": 2.6367455805892828,
        "weighted_distance": 3.5008840955903455
    },
    "planner": "SPARS",
    "start": {
        "state": {
            "elbow_joint": 1.9565354010623817,
            "shoulder_lift_joint": -1.4165861575791021,
            "shoulder_pan_joint": -1.6717766225146293,
            "wrist_1_joint": -0.5286633292919765,
            "wrist_2_joint": 1.472756589071564,
            "wrist_3_joint": -3.1238370188695823
        }
    },
    "waypoints": [
        {
            "positions": [
                -1.6717766225146293,
                -1.4165861575791021,
                1.9565354010623817,
                -0.5286633292919765,
                1.472756589071564,
                -3.1238370188695823
            ]
        },
        {
            "positions": [
                -1.779860898975181,
                -1.4165393691022439,
                1.9846370230653194,
                -0.5049327381154081,
                1.3002296779256954,
                -3.0910447100570666
            ]
        },
        {
            "positions": [
                -1.8879451754357324,
                -1.4164925806253859,
                2.012738645068257,
                -0.48120214693883956,
                1.1277027667798272,
                -3.0582524012445504
            ]
        },
        {
            "positions": [
                -1.996029451896284,
                -1.4164457921485276,
                2.040840267071195,
                -0.4574715557622711,
                0.9551758556339588,
                -3.0254600924320347
            ]
        },
        {
            "positions": [
                -2.1041137283568356,
                -1.4163990036716694,
                2.0689418890741327,
                -0.43374096458570266,
                0.7826489444880903,
                -2.9926677836195186
            ]
        },
        {
            "positions": [
                -2.212198004817387,
                -1.4163522151948111,
                2.0970435110770707,
                -0.41001037340913427,
                0.610122033342222,
                -2.959875474807003
            ]
        },
        {
            "positions": [
                -2.3202822812779385,
                -1.4163054267179531,
                2.125145133080008,
                -0.38627978223256576,
                0.43759512219635366,
                -2.9270831659944867
            ]
        },
        {
            "positions": [
                -2.42836655773849,
                -1.4162586382410949,
                2.153246755082946,
                -0.36254919105599737,
                0.26506821105048517,
                -2.894290857181971
            ]
        },
        {
            "positions": [
                -2.5364508341990417,
                -1.4162118497642366,
                2.1813483770858837,
                -0.33881859987942886,
                0.09254129990461668,
                -2.861498548369455
            ]
        },
        {
            "positions": [
                -2.644535110659593,
                -1.4161650612873784,
                2.2094499990888217,
                -0.31508800870286047,
                -0.07998561124125159,
                -2.828706239556939
            ]
        },
        {
            "positions": [
                -2.7526193871201445,
                -1.4161182728105204,
                2.237551621091759,
                -0.291357417526292,
                -0.25251252238711985,
                -2.7959139307444234
            ]
        },
        {
            "positions": [
                -2.860703663580696,
                -1.4160714843336621,
                2.265653243094697,
                -0.26762682634972357,
                -0.42503943353298834,
                -2.7631216219319072
            ]
        },
        {
            "positions": [
                -2.8125076588884017,
                -1.3842130077047663,
                2.2332455715018416,
                -0.33671642426538295,
                -0.28841075211680633,
                -2.8117311619271215
            ]
        },
        {
            "positions": [
                -2.7643116541961072,
                -1.3523545310758704,
                2.2008378999089864,
                -0.4058060221810423,
                -0.15178207070062433,
                -2.8603407019223357
            ]
        },
        {
            "positions": [
                -2.716115649503813,
                -1.3204960544469746,
                2.1684302283161307,
                -0.4748956200967016,
                -0.01515338928444232,
                -2.90895024191755
            ]
        },
        {
            "positions": [
                -2.6679196448115183,
                -1.2886375778180787,
                2.136022556723275,
                -0.543985218012361,
                0.12147529213173969,
                -2.9575597819127646
            ]
        },
        {
            "positions": [
                -2.619723640119224,
                -1.256779101189183,
                2.1036148851304195,
                -0.6130748159280204,
                0.2581039735479217,
                -3.006169321907979
            ]
        },
        {
            "positions": [
                -2.5715276354269294,
                -1.224920624560287,
                2.071207213537564,
                -0.6821644138436798,
                0.3947326549641037,
                -3.054778861903193
            ]
        },
        {
            "positions": [
                -2.523331630734635,
                -1.1930621479313912,
                2.0387995419447087,
                -0.751254011759339,
                0.5313613363802857,
                -3.1033884018984073
            ]
        },
        {
            "positions": [
                -2.4751356260423405,
                -1.1612036713024954,
                2.006391870351853,
                -0.8203436096749984,
                0.6679900177964678,
                -3.1519979418936215
            ]
        }
    ]
}