{
    "goal": {
        "global_pose": {
            "orientation": {
                "w": -0.4816463035849501,
                "x": 0.5182115481033762,
                "y": 0.4908360881923453,
                "z": -0.5084816262002911
            },
            "position": {
                "x": -0.8240239810943604,
                "y": 0.19912469901144506,
                "z": 0.16403168439865112
            }
        },
        "name": "move_to_storage_D"
    },
    "id": "SPARS_move_to_storage_D_40",
    "joint_names": [
        "shoulder_pan_joint",
        "shoulder_lift_joint",
        "elbow_joint",
        "wrist_1_joint",
        "wrist_2_joint",
        "wrist_3_joint"
    ],
    "metrics": {
        "cart_traj_len": 3.514201642298169,
        "distance_elbow_joint": 4.2166987734351205,
        "distance_shoulder_lift_joint": 1.263948126432998,
        "distance_shoulder_pan_joint": 2.8130972562200047,
        "distance_wrist_1_joint": 2.2623398108580624,
        "distance_wrist_2_joint": 0.8760671638651368,
        "distance_wrist_3_joint": 3.1308994865781727,
        "smoothness": 0.0007759309453004965,
        "time": 5.063938685999999,
        "traj_len": 3.8161565242255837,
        "weighted_distance": 4.895227938029958
    },
    "planner": "SPARS",
    "start": {
        "state": {
            "elbow_joint": -2.384821988534728,
            "shoulder_lift_joint": -2.2788054721415256,
            "shoulder_pan_joint": -0.1854694642142757,
            "wrist_1_joint": 1.4845938289331202,
            "wrist_2_joint": 0.17898776772866878,
            "wrist_3_joint": 0.037105688729662994
        }
    },
    "waypoints": [
        {
            "positions": [
                -0.1854694642142757,
                -2.2788054721415256,
                -2.384821988534728,
                1.4845938289331202,
                0.17898776772866878,
                0.037105688729662994
            ]
        },
        {
            "positions": [
                -0.10373612303391862,
                -2.26035090699348,
                -2.2287959673095465,
                1.4350514639335812,
                0.20232785520915306,
                -0.015659339488153082
            ]
        },
        {
            "positions": [
                -0.022002781853561526,
                -2.2418963418454347,
                -2.072769946084365,
                1.3855090989340422,
                0.22566794268963733,
                -0.06842436770596916
            ]
        },
        {
            "positions": [
                0.05973055932679558,
                -2.223441776697389,
                -1.9167439248591838,
                1.3359667339345034,
                0.24900803017012157,
                -0.12118939592378522
            ]
        },
        {
            "positions": [
                0.14146390050715266,
                -2.2049872115493434,
                -1.7607179036340024,
                1.2864243689349644,
                0.27234811765060585,
                -0.1739544241416013
            ]
        },
        {
            "positions": [
                0.2231972416875098,
                -2.186532646401298,
                -1.6046918824088212,
                1.2368820039354254,
                0.2956882051310901,
                -0.22671945235941734
            ]
        },
        {
            "positions": [
                0.3049305828678669,
                -2.1680780812532525,
                -1.4486658611836398,
                1.1873396389358866,
                0.3190282926115744,
                -0.2794844805772334
            ]
        },
        {
            "positions": [
                0.38666392404822403,
                -2.1496235161052066,
                -1.2926398399584584,
                1.1377972739363476,
                0.34236838009205867,
                -0.33224950879504955
            ]
        },
        {
            "positions": [
                0.46839726522858105,
                -2.131168950957161,
                -1.136613818733277,
                1.0882549089368085,
                0.36570846757254294,
                -0.3850145370128656
            ]
        },
        {
            "positions": [
                0.5501306064089382,
                -2.1127143858091157,
                -0.9805877975080959,
                1.0387125439372695,
                0.3890485550530272,
                -0.4377795652306816
            ]
        },
        {
            "positions": [
                0.6318639475892953,
                -2.0942598206610703,
                -0.8245617762829145,
                0.9891701789377305,
                0.4123886425335115,
                -0.49054459344849766
            ]
        },
        {
            "positions": [
                0.7135972887696523,
                -2.0758052555130244,
                -0.6685357550577331,
                0.9396278139381916,
                0.4357287300139957,
                -0.5433096216663138
            ]
        },
        {
            "positions": [
                0.7953306299500095,
                -2.057350690364979,
                -0.5125097338325517,
                0.8900854489386527,
                0.45906881749448003,
                -0.5960746498841298
            ]
        },
        {
            "positions": [
                0.8770639711303666,
                -2.0388961252169335,
                -0.35648371260737033,
                0.8405430839391137,
                0.48240890497496425,
                -0.6488396781019459
            ]
        },
        {
            "positions": [
                0.9587973123107237,
                -2.020441560068888,
                -0.20045769138218894,
                0.7910007189395748,
                0.5057489924554486,
                -0.701604706319762
            ]
        },
        {
            "positions": [
                1.0405306534910808,
                -2.001986994920842,
                -0.04443167015700755,
                0.7414583539400357,
                0.5290890799359329,
                -0.7543697345375782
            ]
        },
        {
            "positions": [
                1.1222639946714377,
                -1.9835324297727968,
                0.11159435106817384,
                0.6919159889404969,
                0.5524291674164171,
                -0.8071347627553942
            ]
        },
        {
            "positions": [
                1.203997335851795,
                -1.9650778646247513,
                0.2676203722933552,
                0.6423736239409578,
                0.5757692548969015,
                -0.8598997909732103
            ]
        },
        {
            "positions": [
                1.285730677032152,
                -1.9466232994767059,
                0.42364639351853617,
                0.5928312589414189,
                0.5991093423773857,
                -0.9126648191910263
            ]
        },
        {
            "positions": [
                1.367464018212509,
                -1.9281687343286602,
                0.579672414743718,
                0.5432888939418798,
                0.6224494298578699,
                -0.9654298474088425
            ]
        },
        {
            "positions": [
                1.4491973593928662,
                -1.9097141691806145,
                0.735698435968899,
                0.49374652894234095,
                0.6457895173383542,
                -1.0181948756266583
            ]
        },
        {
            "positions": [
                1.5309307005732233,
                -1.891259604032569,
                0.8917244571940808,
                0.44420416394280204,
                0.6691296048188384,
                -1.0709599038444746
            ]
        },
        {
            "positions": [
                1.6126640417535802,
                -1.8728050388845237,
                1.0477504784192617,
                0.39466179894326303,
                0.6924696922993226,
                -1.1237249320622906
            ]
        },
        {
            "positions": [
                1.6943973829339376,
                -1.854350473736478,
                1.203776499644443,
                0.345119433943724,
                0.715809779779807,
                -1.1764899602801067
            ]
        },
        {
            "positions": [
                1.7761307241142945,
                -1.8358959085884323,
                1.3598025208696245,
                0.29557706894418523,
                0.7391498672602912,
                -1.2292549884979227
            ]
        },
        {
            "positions": [
                1.8578640652946516,
                -1.8174413434403869,
                1.5158285420948059,
                0.24603470394464622,
                0.7624899547407755,
                -1.282020016715739
            ]
        },
        {
            "positions": [
                1.9395974064750088,
                -1.7989867782923414,
                1.6718545633199873,
                0.1964923389451072,
                0.7858300422212597,
                -1.3347850449335548
            ]
        },
        {
            "positions": [
                2.021330747655366,
                -1.7805322131442958,
                1.8278805845451682,
                0.14694997394556825,
                0.8091701297017441,
                -1.387550073151371
            ]
        },
        {
            "positions": [
                2.076448660778126,
                -1.7109254070137714,
                1.8275172936037842,
                0.06288670523006737,
                0.8315232935101133,
                -1.542663139032929
            ]
        },
        {
            "positions": [
                2.1315665739008867,
                -1.641318600883247,
                1.8271540026624005,
                -0.02117656348543351,
                0.8538764573184825,
                -1.697776204914487
            ]
        },
        {
            "positions": [
                2.186684487023647,
                -1.5717117947527226,
                1.8267907117210165,
                -0.10523983220093436,
                0.8762296211268518,
                -1.8528892707960452
            ]
        },
        {
            "positions": [
                2.241802400146407,
                -1.5021049886221982,
                1.8264274207796325,
                -0.18930310091643526,
                0.898582784935221,
                -2.0080023366776034
            ]
        },
        {
            "positions": [
                2.296920313269167,
                -1.432498182491674,
                1.8260641298382487,
                -0.2733663696319361,
                0.9209359487435902,
                -2.1631154025591615
            ]
        },
        {
            "positions": [
                2.3520382263919277,
                -1.3628913763611497,
                1.8257008388968647,
                -0.35742963834743696,
                0.9432891125519595,
                -2.3182284684407195
            ]
        },
        {
            "positions": [
                2.407156139514688,
                -1.2932845702306253,
                1.825337547955481,
                -0.4414929070629379,
                0.9656422763603287,
                -2.4733415343222775
            ]
        },
        {
            "positions": [
                2.462274052637448,
                -1.2236777641001009,
                1.824974257014097,
                -0.5255561757784388,
                0.9879954401686979,
                -2.6284546002038356
            ]
        },
        {
            "positions": [
                2.5173919657602086,
                -1.1540709579695765,
                1.824610966072713,
                -0.6096194444939398,
                1.010348603977067,
                -2.7835676660853936
            ]
        },
        {
            "positions": [
                2.572509878882969,
                -1.084464151839052,
                1.8242476751313292,
                -0.6936827132094405,
                1.0327017677854364,
                -2.9386807319669517
            ]
        },
        {
            "positions": [
                2.627627792005729,
                -1.0148573457085277,
                1.8238843841899453,
                -0.7777459819249414,
                1.0550549315938056,
                -3.0937937978485097
            ]
        }
    ]
}