{
    "goal": {
        "global_pose": {
            "orientation": {
                "w": 0.5084816217422485,
                "x": -0.49083608388900757,
                "y": 0.5182115435600281,
                "z": -0.4816462993621826
            },
            "position": {
                "x": 0.5540239810943604,
                "y": 0.030875300988554955,
                "z": 0.16403168439865112
            }
        },
        "name": "move_to_storage_A"
    },
    "id": "SPARS_move_to_storage_A_75",
    "joint_names": [
        "shoulder_pan_joint",
        "shoulder_lift_joint",
        "elbow_joint",
        "wrist_1_joint",
        "wrist_2_joint",
        "wrist_3_joint"
    ],
    "metrics": {
        "cart_traj_len": 0.35288506055273783,
        "distance_elbow_joint": 0.4502074545947019,
        "distance_shoulder_lift_joint": 0.2355530227539464,
        "distance_shoulder_pan_joint": 0.46232341883237055,
        "distance_wrist_1_joint": 0.24226309384924172,
        "distance_wrist_2_joint": 1.0952433361113805,
        "distance_wrist_3_joint": 0.10462165493281672,
        "smoothness": 4.440892098500626e-16,
        "time": 5.021517983,
        "traj_len": 1.6094135519108996,
        "weighted_distance": 2.033952241548634
    },
    "planner": "SPARS",
    "start": {
        "state": {
            "elbow_joint": 1.971548259319323,
            "shoulder_lift_joint": -1.1394851275133948,
            "shoulder_pan_joint": 0.1228115487234821,
            "wrist_1_joint": -0.7804723859257726,
            "wrist_2_joint": 0.12958671773740124,
            "wrist_3_joint": -3.192489227718131
        }
    },
    "waypoints": [
        {
            "positions": [
                0.1228115487234821,
                -1.1394851275133948,
                1.971548259319323,
                -0.7804723859257726,
                0.12958671773740124,
                -3.192489227718131
            ]
        },
        {
            "positions": [
                0.056765346033143455,
                -1.1731355593353872,
                2.035863609975709,
                -0.8150813993328071,
                0.28605005146759843,
                -3.177543277013443
            ]
        },
        {
            "positions": [
                -0.009280856657195191,
                -1.2067859911573795,
                2.100178960632095,
                -0.8496904127398417,
                0.4425133851977956,
                -3.162597326308755
            ]
        },
        {
            "positions": [
                -0.07532705934753384,
                -1.2404364229793718,
                2.164494311288481,
                -0.8842994261468762,
                0.5989767189279929,
                -3.1476513756040667
            ]
        },
        {
            "positions": [
                -0.14137326203787248,
                -1.2740868548013642,
                2.228809661944867,
                -0.9189084395539108,
                0.75544005265819,
                -3.132705424899379
            ]
        },
        {
            "positions": [
                -0.20741946472821116,
                -1.3077372866233565,
                2.293125012601253,
                -0.9535174529609453,
                0.9119033863883873,
                -3.1177594741946906
            ]
        },
        {
            "positions": [
                -0.2734656674185498,
                -1.3413877184453489,
                2.357440363257639,
                -0.9881264663679798,
                1.0683667201185845,
                -3.1028135234900027
            ]
        },
        {
            "positions": [
                -0.33951187010888845,
                -1.3750381502673412,
                2.421755713914025,
                -1.0227354797750143,
                1.2248300538487817,
                -3.0878675727853144
            ]
        }
    ]
}{
    "goal": {
        "global_pose": {
            "orientation": {
                "w": 0.5084816217422485,
                "x": -0.49083608388900757,
                "y": 0.5182115435600281,
                "z": -0.4816462993621826
            },
            "position": {
                "x": 0.5540239810943604,
                "y": 0.030875300988554955,
                "z": 0.16403168439865112
            }
        },
        "name": "move_to_storage_A"
    },
    "id": "SPARS_move_to_storage_A_75",
    "joint_names": [
        "shoulder_pan_joint",
        "shoulder_lift_joint",
        "elbow_joint",
        "wrist_1_joint",
        "wrist_2_joint",
        "wrist_3_joint"
    ],
    "metrics": {
        "cart_traj_len": 0.3537916818348368,
        "distance_elbow_joint": 0.45381950841602503,
        "distance_shoulder_lift_joint": 0.23240254956273043,
        "distance_shoulder_pan_joint": 0.4632944613396883,
        "distance_wrist_1_joint": 0.26112412111005745,
        "distance_wrist_2_joint": 1.0967974282562343,
        "distance_wrist_3_joint": 0.10042873319207946,
        "smoothness": 2.2204460668324854e-16,
        "time": 5.009470997,
        "traj_len": 1.614889098940486,
        "weighted_distance": 2.041236345362111
    },
    "planner": "SPARS",
    "start": {
        "state": {
            "elbow_joint": 1.97154746011099,
            "shoulder_lift_joint": -1.13948474672311,
            "shoulder_pan_joint": 0.12281154466712228,
            "wrist_1_joint": -0.7804688027058302,
            "wrist_2_joint": 0.12958655903071145,
            "wrist_3_joint": 3.0906928834467795
        }
    },
    "waypoints": [
        {
            "positions": [
                0.12281154466712228,
                -1.13948474672311,
                1.97154746011099,
                -0.7804688027058302,
                0.12958655903071145,
                3.0906928834467795
            ]
        },
        {
            "positions": [
                0.056626621618595385,
                -1.1726851109463572,
                2.036378818456136,
                -0.8177722485786956,
                0.28627190592445917,
                3.1050398453313623
            ]
        },
        {
            "positions": [
                -0.009558301429931512,
                -1.2058854751696044,
                2.101210176801283,
                -0.8550756944515608,
                0.44295725281820697,
                3.119386807215945
            ]
        },
        {
            "positions": [
                -0.07574322447845842,
                -1.2390858393928517,
                2.1660415351464293,
                -0.8923791403244262,
                0.5996425997119547,
                3.133733769100528
            ]
        },
        {
            "positions": [
                -0.1419281475269853,
                -1.2722862036160987,
                2.2308728934915756,
                -0.9296825861972916,
                0.7563279466057025,
                3.1480807309851104
            ]
        },
        {
            "positions": [
                -0.2081130705755122,
                -1.305486567839346,
                2.295704251836722,
                -0.9669860320701569,
                0.9130132934994503,
                3.1624276928696933
            ]
        },
        {
            "positions": [
                -0.2742979936240391,
                -1.3386869320625931,
                2.3605356101818686,
                -1.0042894779430223,
                1.0696986403931978,
                3.176774654754276
            ]
        },
        {
            "positions": [
                -0.340482916672566,
                -1.3718872962858404,
                2.425366968527015,
                -1.0415929238158876,
                1.2263839872869458,
                3.191121616638859
            ]
        }
    ]
}{
    "goal": {
        "global_pose": {
            "orientation": {
                "w": 0.5084816217422485,
                "x": -0.49083608388900757,
                "y": 0.5182115435600281,
                "z": -0.4816462993621826
            },
            "position": {
                "x": 0.5540239810943604,
                "y": 0.030875300988554955,
                "z": 0.16403168439865112
            }
        },
        "name": "move_to_storage_A"
    },
    "id": "SPARS_move_to_storage_A_75",
    "joint_names": [
        "shoulder_pan_joint",
        "shoulder_lift_joint",
        "elbow_joint",
        "wrist_1_joint",
        "wrist_2_joint",
        "wrist_3_joint"
    ],
    "metrics": {
        "cart_traj_len": 0.35255312428660207,
        "distance_elbow_joint": 0.45181589608128725,
        "distance_shoulder_lift_joint": 0.23158903429805822,
        "distance_shoulder_pan_joint": 0.4604424632336452,
        "distance_wrist_1_joint": 0.2594178424235134,
        "distance_wrist_2_joint": 1.0986402333339984,
        "distance_wrist_3_joint": 0.09465834075496415,
        "smoothness": 4.440892098500626e-16,
        "time": 5.029623148,
        "traj_len": 1.6113856801292068,
        "weighted_distance": 2.0356666149919804
    },
    "planner": "SPARS",
    "start": {
        "state": {
            "elbow_joint": 1.9715472970024885,
            "shoulder_lift_joint": -1.1394870060712896,
            "shoulder_pan_joint": 0.12281152778156021,
            "wrist_1_joint": -0.780463741449964,
            "wrist_2_joint": 0.12958659822042276,
            "wrist_3_joint": 3.090690232415272
        }
    },
    "waypoints": [
        {
            "positions": [
                0.12281152778156021,
                -1.1394870060712896,
                1.9715472970024885,
                -0.780463741449964,
                0.12958659822042276,
                3.090690232415272
            ]
        },
        {
            "positions": [
                0.05703403303389662,
                -1.1725711538281551,
                2.036092425014101,
                -0.8175234332247516,
                0.2865352029824225,
                3.104212852523124
            ]
        },
        {
            "positions": [
                -0.00874346171376697,
                -1.2056553015850204,
                2.1006375530257135,
                -0.8545831249995393,
                0.4434838077444223,
                3.117735472630976
            ]
        },
        {
            "positions": [
                -0.07452095646143056,
                -1.238739449341886,
                2.165182681037326,
                -0.8916428167743269,
                0.6004324125064221,
                3.131258092738828
            ]
        },
        {
            "positions": [
                -0.14029845120909415,
                -1.2718235970987515,
                2.2297278090489385,
                -0.9287025085491145,
                0.7573810172684218,
                3.14478071284668
            ]
        },
        {
            "positions": [
                -0.20607594595675774,
                -1.304907744855617,
                2.294272937060551,
                -0.9657622003239021,
                0.9143296220304216,
                3.158303332954532
            ]
        },
        {
            "positions": [
                -0.2718534407044213,
                -1.3379918926124823,
                2.358818065072163,
                -1.0028218920986898,
                1.0712782267924215,
                3.171825953062384
            ]
        },
        {
            "positions": [
                -0.33763093545208495,
                -1.3710760403693478,
                2.423363193083776,
                -1.0398815838734774,
                1.2282268315544211,
                3.185348573170236
            ]
        }
    ]
}