{
    "goal": {
        "global_pose": {
            "orientation": {
                "w": 0.7047431468963623,
                "x": -0.7094548344612122,
                "y": 0.0024358443915843964,
                "z": -0.0022348060738295317
            },
            "position": {
                "x": 0.6094750761985779,
                "y": 0.3671506643295288,
                "z": 0.19426114857196808
            }
        },
        "name": "move_to_magneteinheit_A"
    },
    "id": "SPARS_move_to_magneteinheit_A_67",
    "joint_names": [
        "shoulder_pan_joint",
        "shoulder_lift_joint",
        "elbow_joint",
        "wrist_1_joint",
        "wrist_2_joint",
        "wrist_3_joint"
    ],
    "metrics": {
        "cart_traj_len": 3.4204436952660986,
        "distance_elbow_joint": 3.932151771909988,
        "distance_shoulder_lift_joint": 0.5474498960391433,
        "distance_shoulder_pan_joint": 3.9743897420974834,
        "distance_wrist_1_joint": 3.531753644613476,
        "distance_wrist_2_joint": 1.4315777174611097,
        "distance_wrist_3_joint": 0.9043827505123312,
        "smoothness": 0.3010295194935293,
        "time": 5.026081541000001,
        "traj_len": 3.784402928155713,
        "weighted_distance": 4.592798970751144
    },
    "planner": "SPARS",
    "start": {
        "state": {
            "elbow_joint": -1.9196185241190666,
            "shoulder_lift_joint": -1.2443396400964142,
            "shoulder_pan_joint": 2.6996025414629847,
            "wrist_1_joint": -1.5485510000780065,
            "wrist_2_joint": -1.5709468930060704,
            "wrist_3_joint": 0.4420197071253992
        }
    },
    "waypoints": [
        {
            "positions": [
                2.6996025414629847,
                -1.2443396400964142,
                -1.9196185241190666,
                -1.5485510000780065,
                -1.5709468930060704,
                0.4420197071253992
            ]
        },
        {
            "positions": [
                2.59043824984053,
                -1.2458163761253376,
                -1.7930445159816424,
                -1.456752718641343,
                -1.5281404789764657,
                0.4183294506218091
            ]
        },
        {
            "positions": [
                2.4812739582180754,
                -1.247293112154261,
                -1.6664705078442181,
                -1.3649544372046796,
                -1.4853340649468607,
                0.394639194118219
            ]
        },
        {
            "positions": [
                2.3721096665956205,
                -1.2487698481831844,
                -1.5398964997067939,
                -1.273156155768016,
                -1.4425276509172558,
                0.37094893761462894
            ]
        },
        {
            "positions": [
                2.262945374973166,
                -1.2502465842121078,
                -1.4133224915693696,
                -1.1813578743313524,
                -1.399721236887651,
                0.34725868111103886
            ]
        },
        {
            "positions": [
                2.153781083350711,
                -1.2517233202410312,
                -1.2867484834319454,
                -1.089559592894689,
                -1.3569148228580463,
                0.3235684246074488
            ]
        },
        {
            "positions": [
                2.0446167917282563,
                -1.2532000562699546,
                -1.1601744752945211,
                -0.9977613114580255,
                -1.3141084088284414,
                0.2998781681038587
            ]
        },
        {
            "positions": [
                1.9354525001058018,
                -1.254676792298878,
                -1.0336004671570969,
                -0.905963030021362,
                -1.2713019947988364,
                0.27618791160026857
            ]
        },
        {
            "positions": [
                1.826288208483347,
                -1.2561535283278011,
                -0.9070264590196726,
                -0.8141647485846984,
                -1.2284955807692317,
                0.25249765509667854
            ]
        },
        {
            "positions": [
                1.7171239168608925,
                -1.2576302643567245,
                -0.7804524508822483,
                -0.722366467148035,
                -1.185689166739627,
                0.22880739859308843
            ]
        },
        {
            "positions": [
                1.6079596252384376,
                -1.259107000385648,
                -0.6538784427448241,
                -0.6305681857113715,
                -1.142882752710022,
                0.20511714208949836
            ]
        },
        {
            "positions": [
                1.498795333615983,
                -1.2605837364145713,
                -0.5273044346073998,
                -0.5387699042747081,
                -1.1000763386804173,
                0.1814268855859083
            ]
        },
        {
            "positions": [
                1.389631041993528,
                -1.2620604724434947,
                -0.4007304264699756,
                -0.4469716228380445,
                -1.0572699246508124,
                0.15773662908231817
            ]
        },
        {
            "positions": [
                1.2804667503710734,
                -1.2635372084724181,
                -0.27415641833255133,
                -0.3551733414013809,
                -1.0144635106212077,
                0.1340463725787281
            ]
        },
        {
            "positions": [
                1.1713024587486187,
                -1.2650139445013415,
                -0.14758241019512708,
                -0.26337505996471755,
                -0.9716570965916027,
                0.11035611607513801
            ]
        },
        {
            "positions": [
                1.062138167126164,
                -1.266490680530265,
                -0.021008402057702824,
                -0.17157677852805397,
                -0.9288506825619979,
                0.08666585957154793
            ]
        },
        {
            "positions": [
                0.9529738755037094,
                -1.2679674165591883,
                0.10556560607972143,
                -0.0797784970913904,
                -0.886044268532393,
                0.06297560306795785
            ]
        },
        {
            "positions": [
                0.8438095838812547,
                -1.2694441525881117,
                0.23213961421714568,
                0.012019784345272955,
                -0.8432378545027882,
                0.039285346564367774
            ]
        },
        {
            "positions": [
                0.7346452922588,
                -1.2709208886170351,
                0.35871362235456994,
                0.10381806578193653,
                -0.8004314404731834,
                0.015595090060777694
            ]
        },
        {
            "positions": [
                0.6254810006363454,
                -1.2723976246459585,
                0.4852876304919942,
                0.19561634721859988,
                -0.7576250264435785,
                -0.008095166442812385
            ]
        },
        {
            "positions": [
                0.5163167090138905,
                -1.273874360674882,
                0.6118616386294184,
                0.28741462865526346,
                -0.7148186124139737,
                -0.031785422946402464
            ]
        },
        {
            "positions": [
                0.40715241739143604,
                -1.2753510967038053,
                0.7384356467668427,
                0.3792129100919268,
                -0.672012198384369,
                -0.05547567944999254
            ]
        },
        {
            "positions": [
                0.29798812576898115,
                -1.2768278327327287,
                0.865009654904267,
                0.4710111915285904,
                -0.6292057843547642,
                -0.07916593595358257
            ]
        },
        {
            "positions": [
                0.18882383414652626,
                -1.2783045687616519,
                0.9915836630416912,
                0.562809472965254,
                -0.5863993703251591,
                -0.10285619245717281
            ]
        },
        {
            "positions": [
                0.07965954252407137,
                -1.2797813047905753,
                1.1181576711791155,
                0.6546077544019175,
                -0.5435929562955544,
                -0.12654644896076284
            ]
        },
        {
            "positions": [
                -0.029504749098383076,
                -1.2812580408194987,
                1.2447316793165397,
                0.7464060358385811,
                -0.5007865422659494,
                -0.15023670546435297
            ]
        },
        {
            "positions": [
                -0.13866904072083797,
                -1.282734776848422,
                1.371305687453964,
                0.8382043172752447,
                -0.4579801282363447,
                -0.173926961967943
            ]
        },
        {
            "positions": [
                -0.2478333323432924,
                -1.2842115128773455,
                1.4978796955913882,
                0.9300025987119083,
                -0.41517371420673976,
                -0.19761721847153313
            ]
        },
        {
            "positions": [
                -0.3569976239657473,
                -1.2856882489062689,
                1.6244537037288125,
                1.0218008801485714,
                -0.37236730017713504,
                -0.22130747497512315
            ]
        },
        {
            "positions": [
                -0.46616191558820175,
                -1.2871649849351923,
                1.7510277118662367,
                1.113599161585235,
                -0.3295608861475301,
                -0.2449977314787133
            ]
        },
        {
            "positions": [
                -0.5753262072106566,
                -1.2886417209641157,
                1.877601720003661,
                1.2053974430218986,
                -0.28675447211792543,
                -0.26868798798230326
            ]
        },
        {
            "positions": [
                -0.47540320815010767,
                -1.2167634616539096,
                1.8968776525446982,
                1.3165124718095516,
                -0.2656994297503591,
                -0.24102012292449915
            ]
        },
        {
            "positions": [
                -0.3754802090895587,
                -1.1448852023437037,
                1.9161535850857352,
                1.4276275005972046,
                -0.24464438738279276,
                -0.21335225786669507
            ]
        },
        {
            "positions": [
                -0.27555721002900974,
                -1.0730069430334979,
                1.9354295176267724,
                1.5387425293848576,
                -0.22358934501522643,
                -0.18568439280889096
            ]
        },
        {
            "positions": [
                -0.17563421096846077,
                -1.0011286837232918,
                1.9547054501678096,
                1.6498575581725106,
                -0.2025343026476601,
                -0.15801652775108688
            ]
        },
        {
            "positions": [
                -0.07571121190791175,
                -0.9292504244130858,
                1.9739813827088468,
                1.7609725869601636,
                -0.18147926028009376,
                -0.13034866269328274
            ]
        },
        {
            "positions": [
                0.024211787152637165,
                -0.8573721651028798,
                1.9932573152498838,
                1.8720876157478166,
                -0.16042421791252745,
                -0.10268079763547866
            ]
        },
        {
            "positions": [
                0.12413478621318616,
                -0.7854939057926739,
                2.012533247790921,
                1.9832026445354696,
                -0.13936917554496112,
                -0.07501293257767454
            ]
        }
    ]
}