{
    "goal": {
        "global_pose": {
            "orientation": {
                "w": -0.00223480608172531,
                "x": 0.0024358444001904467,
                "y": 0.7094548369677653,
                "z": -0.704743149386269
            },
            "position": {
                "x": -0.37947507619857795,
                "y": -0.6371506643295288,
                "z": 0.19426114857196808
            }
        },
        "name": "move_to_magneteinheit_C"
    },
    "id": "SPARS_move_to_magneteinheit_C_63",
    "joint_names": [
        "shoulder_pan_joint",
        "shoulder_lift_joint",
        "elbow_joint",
        "wrist_1_joint",
        "wrist_2_joint",
        "wrist_3_joint"
    ],
    "metrics": {
        "cart_traj_len": 2.897853810431956,
        "distance_elbow_joint": 0.055361235129957276,
        "distance_shoulder_lift_joint": 1.6247696079823504,
        "distance_shoulder_pan_joint": 4.048901795026203,
        "distance_wrist_1_joint": 1.904082106163495,
        "distance_wrist_2_joint": 0.7994485115850871,
        "distance_wrist_3_joint": 0.7048147648246452,
        "smoothness": 1.3435539801395238,
        "time": 5.0591551489999995,
        "traj_len": 3.0228096236302644,
        "weighted_distance": 3.6401288669646874
    },
    "planner": "SPARS",
    "start": {
        "state": {
            "elbow_joint": 1.9565354010623817,
            "shoulder_lift_joint": -1.4165861575791021,
            "shoulder_pan_joint": -1.6717766225146293,
            "wrist_1_joint": -0.5286633292919765,
            "wrist_2_joint": 1.472756589071564,
            "wrist_3_joint": -3.1238370188695823
        }
    },
    "waypoints": [
        {
            "positions": [
                -1.6717766225146293,
                -1.4165861575791021,
                1.9565354010623817,
                -0.5286633292919765,
                1.472756589071564,
                -3.1238370188695823
            ]
        },
        {
            "positions": [
                -1.5094345612336328,
                -1.485164524242271,
                1.961368532203901,
                -0.44928568647548867,
                1.426244074832057,
                -3.0895498843847564
            ]
        },
        {
            "positions": [
                -1.3470924999526361,
                -1.5537428909054403,
                1.9662016633454202,
                -0.3699080436590009,
                1.3797315605925502,
                -3.055262749899931
            ]
        },
        {
            "positions": [
                -1.1847504386716396,
                -1.6223212575686092,
                1.9710347944869395,
                -0.29053040084251314,
                1.3332190463530436,
                -3.0209756154151055
            ]
        },
        {
            "positions": [
                -1.0224083773906432,
                -1.6908996242317782,
                1.9758679256284588,
                -0.2111527580260253,
                1.2867065321135367,
                -2.9866884809302796
            ]
        },
        {
            "positions": [
                -0.8600663161096466,
                -1.7594779908949474,
                1.980701056769978,
                -0.13177511520953755,
                1.2401940178740298,
                -2.9524013464454537
            ]
        },
        {
            "positions": [
                -0.6977242548286501,
                -1.8280563575581164,
                1.9855341879114974,
                -0.052397472393049815,
                1.193681503634523,
                -2.9181142119606283
            ]
        },
        {
            "positions": [
                -0.5353821935476535,
                -1.8966347242212853,
                1.9903673190530167,
                0.02698017042343792,
                1.1471689893950163,
                -2.883827077475803
            ]
        },
        {
            "positions": [
                -0.3730401322666568,
                -1.9652130908844545,
                1.995200450194536,
                0.10635781323992588,
                1.1006564751555095,
                -2.849539942990977
            ]
        },
        {
            "positions": [
                -0.2106980709856603,
                -2.0337914575476237,
                2.000033581336055,
                0.18573545605641362,
                1.0541439609160026,
                -2.815252808506151
            ]
        },
        {
            "positions": [
                -0.04835600970466375,
                -2.1023698242107924,
                2.0048667124775745,
                0.2651130988729013,
                1.0076314466764957,
                -2.7809656740213256
            ]
        },
        {
            "positions": [
                -0.22160466557725217,
                -2.0352993998286024,
                2.005368849885772,
                0.18580555044442862,
                0.9837512060200658,
                -2.8068187754482103
            ]
        },
        {
            "positions": [
                -0.3948533214498406,
                -1.9682289754464124,
                2.0058709872939695,
                0.10649800201595594,
                0.9598709653636359,
                -2.832671876875095
            ]
        },
        {
            "positions": [
                -0.568101977322429,
                -1.9011585510642224,
                2.0063731247021668,
                0.02719045358748326,
                0.935990724707206,
                -2.8585249783019804
            ]
        },
        {
            "positions": [
                -0.7413506331950175,
                -1.8340881266820324,
                2.0068752621103645,
                -0.05211709484098942,
                0.9121104840507761,
                -2.884378079728865
            ]
        },
        {
            "positions": [
                -0.914599289067606,
                -1.7670177022998423,
                2.0073773995185618,
                -0.13142464326946213,
                0.8882302433943461,
                -2.91023118115575
            ]
        },
        {
            "positions": [
                -1.0878479449401943,
                -1.6999472779176523,
                2.0078795369267595,
                -0.21073219169793478,
                0.8643500027379162,
                -2.9360842825826348
            ]
        },
        {
            "positions": [
                -1.2610966008127829,
                -1.6328768535354623,
                2.0083816743349567,
                -0.2900397401264075,
                0.8404697620814863,
                -2.96193738400952
            ]
        },
        {
            "positions": [
                -1.4343452566853712,
                -1.5658064291532723,
                2.008883811743154,
                -0.36934728855488014,
                0.8165895214250564,
                -2.987790485436405
            ]
        },
        {
            "positions": [
                -1.60759391255796,
                -1.4987360047710823,
                2.0093859491513517,
                -0.4486548369833529,
                0.7927092807686265,
                -3.0136435868632896
            ]
        },
        {
            "positions": [
                -1.7808425684305482,
                -1.4316655803888922,
                2.009888086559549,
                -0.5279623854118256,
                0.7688290401121964,
                -3.0394966882901744
            ]
        },
        {
            "positions": [
                -1.9540912243031365,
                -1.3645951560067024,
                2.0103902239677467,
                -0.6072699338402983,
                0.7449487994557666,
                -3.065349789717059
            ]
        },
        {
            "positions": [
                -2.127339880175725,
                -1.2975247316245124,
                2.010892361375944,
                -0.6865774822687709,
                0.7210685587993366,
                -3.0912028911439444
            ]
        },
        {
            "positions": [
                -2.3005885360483136,
                -1.2304543072423224,
                2.0113944987841417,
                -0.7658850306972436,
                0.6971883181429067,
                -3.117055992570829
            ]
        },
        {
            "positions": [
                -2.473837191920902,
                -1.1633838828601324,
                2.011896636192339,
                -0.8451925791257162,
                0.6733080774864768,
                -3.142909093997714
            ]
        }
    ]
}