{
    "goal": {
        "global_pose": {
            "orientation": {
                "w": 0.005598929693374612,
                "x": 0.007748599140229565,
                "y": 0.7110244013736278,
                "z": -0.7031023480610252
            },
            "position": {
                "x": -0.8858502320852131,
                "y": -0.7141253447532654,
                "z": 0.3711530566215515
            }
        },
        "name": "move_to_auspresseinheit_C"
    },
    "id": "SPARS_move_to_auspresseinheit_C_78",
    "joint_names": [
        "shoulder_pan_joint",
        "shoulder_lift_joint",
        "elbow_joint",
        "wrist_1_joint",
        "wrist_2_joint",
        "wrist_3_joint"
    ],
    "metrics": {
        "cart_traj_len": 0.49313904223160926,
        "distance_elbow_joint": 1.0033219926882757,
        "distance_shoulder_lift_joint": 0.32601458328544275,
        "distance_shoulder_pan_joint": 0.25601411503378424,
        "distance_wrist_1_joint": 0.6872121133373753,
        "distance_wrist_2_joint": 1.3130553098406574,
        "distance_wrist_3_joint": 0.06541022443953937,
        "smoothness": 6.459479416000911e-16,
        "time": 5.018543292,
        "traj_len": 1.9107664270195546,
        "weighted_distance": 2.404603129558428
    },
    "planner": "SPARS",
    "start": {
        "state": {
            "elbow_joint": 1.7527959577737207,
            "shoulder_lift_joint": -0.9740617694225068,
            "shoulder_pan_joint": -2.967991417825858,
            "wrist_1_joint": -0.759517768980727,
            "wrist_2_joint": 1.7443932448377408,
            "wrist_3_joint": -3.0840537646736568
        }
    },
    "waypoints": [
        {
            "positions": [
                -2.967991417825858,
                -0.9740617694225068,
                1.7527959577737207,
                -0.759517768980727,
                1.7443932448377408,
                -3.0840537646736568
            ]
        },
        {
            "positions": [
                -2.9423900063224795,
                -0.9414603110939626,
                1.6524637585048931,
                -0.6907965576469894,
                1.613087713853675,
                -3.0905947871176105
            ]
        },
        {
            "positions": [
                -2.916788594819101,
                -0.9088588527654182,
                1.5521315592360656,
                -0.6220753463132519,
                1.4817821828696094,
                -3.0971358095615646
            ]
        },
        {
            "positions": [
                -2.8911871833157226,
                -0.8762573944368739,
                1.451799359967238,
                -0.5533541349795144,
                1.3504766518855436,
                -3.103676832005519
            ]
        },
        {
            "positions": [
                -2.865585771812344,
                -0.8436559361083297,
                1.3514671606984103,
                -0.48463292364577687,
                1.219171120901478,
                -3.1102178544494725
            ]
        },
        {
            "positions": [
                -2.839984360308966,
                -0.8110544777797855,
                1.2511349614295828,
                -0.41591171231203933,
                1.0878655899174121,
                -3.1167588768934262
            ]
        },
        {
            "positions": [
                -2.8143829488055876,
                -0.7784530194512411,
                1.1508027621607553,
                -0.3471905009783018,
                0.9565600589333464,
                -3.1232998993373804
            ]
        },
        {
            "positions": [
                -2.788781537302209,
                -0.7458515611226969,
                1.0504705628919278,
                -0.2784692896445643,
                0.8252545279492807,
                -3.1298409217813346
            ]
        },
        {
            "positions": [
                -2.7631801257988307,
                -0.7132501027941526,
                0.9501383636231,
                -0.20974807831082676,
                0.6939489969652148,
                -3.1363819442252883
            ]
        },
        {
            "positions": [
                -2.737578714295452,
                -0.6806486444656084,
                0.8498061643542725,
                -0.14102686697708922,
                0.562643465981149,
                -3.142922966669242
            ]
        },
        {
            "positions": [
                -2.7119773027920737,
                -0.648047186137064,
                0.7494739650854451,
                -0.07230565564335165,
                0.4313379349970835,
                -3.149463989113196
            ]
        }
    ]
}