{
    "goal": {
        "global_pose": {
            "orientation": {
                "w": 0.7047431493862688,
                "x": -0.7094548369677653,
                "y": 0.0024358444001904,
                "z": -0.0022348060817251984
            },
            "position": {
                "x": -0.39052492380142206,
                "y": 0.3671506643295288,
                "z": 0.19426114857196808
            }
        },
        "name": "move_to_magneteinheit_D"
    },
    "id": "SPARS_move_to_magneteinheit_D_145",
    "joint_names": [
        "shoulder_pan_joint",
        "shoulder_lift_joint",
        "elbow_joint",
        "wrist_1_joint",
        "wrist_2_joint",
        "wrist_3_joint"
    ],
    "metrics": {
        "cart_traj_len": 4.274710717437348,
        "distance_elbow_joint": 4.286383214704855,
        "distance_shoulder_lift_joint": 1.626863427770035,
        "distance_shoulder_pan_joint": 3.1102316273342145,
        "distance_wrist_1_joint": 1.5216539882195668,
        "distance_wrist_2_joint": 2.8489976208412595,
        "distance_wrist_3_joint": 5.789234079150855,
        "smoothness": 0.34615992404203433,
        "time": 5.0721461,
        "traj_len": 4.379881728770856,
        "weighted_distance": 5.927266125743241
    },
    "planner": "SPARS",
    "start": {
        "state": {
            "elbow_joint": 0.749534889911806,
            "shoulder_lift_joint": -0.6476975780787326,
            "shoulder_pan_joint": -2.711696901376241,
            "wrist_1_joint": -0.07506478083263063,
            "wrist_2_joint": 0.43296659715538205,
            "wrist_3_joint": -3.14703540197715
        }
    },
    "waypoints": [
        {
            "positions": [
                -2.711696901376241,
                -0.6476975780787326,
                0.749534889911806,
                -0.07506478083263063,
                0.43296659715538205,
                -3.14703540197715
            ]
        },
        {
            "positions": [
                -2.7052944412989723,
                -0.6721682398644676,
                0.7809704289734575,
                -0.054610053601457056,
                0.3510316378341546,
                -2.931850507447569
            ]
        },
        {
            "positions": [
                -2.6988919812217036,
                -0.6966389016502027,
                0.8124059680351091,
                -0.03415532637028348,
                0.2690966785129271,
                -2.716665612917988
            ]
        },
        {
            "positions": [
                -2.692489521144435,
                -0.7211095634359377,
                0.8438415070967606,
                -0.013700599139109898,
                0.18716171919169966,
                -2.501480718388407
            ]
        },
        {
            "positions": [
                -2.686087061067166,
                -0.7455802252216727,
                0.8752770461584122,
                0.006754128092063674,
                0.1052267598704722,
                -2.2862958238588256
            ]
        },
        {
            "positions": [
                -2.6796846009898974,
                -0.7700508870074078,
                0.9067125852200638,
                0.02720885532323726,
                0.02329180054924468,
                -2.0711109293292447
            ]
        },
        {
            "positions": [
                -2.6732821409126286,
                -0.7945215487931427,
                0.9381481242817153,
                0.04766358255441083,
                -0.05864315877198273,
                -1.8559260347996636
            ]
        },
        {
            "positions": [
                -2.66687968083536,
                -0.8189922105788777,
                0.9695836633433669,
                0.06811830978558442,
                -0.14057811809321025,
                -1.6407411402700824
            ]
        },
        {
            "positions": [
                -2.660477220758091,
                -0.8434628723646127,
                1.0010192024050184,
                0.08857303701675798,
                -0.22251307741443765,
                -1.4255562457405013
            ]
        },
        {
            "positions": [
                -2.6540747606808224,
                -0.8679335341503478,
                1.03245474146667,
                0.10902776424793156,
                -0.3044480367356652,
                -1.2103713512109202
            ]
        },
        {
            "positions": [
                -2.6476723006035536,
                -0.8924041959360829,
                1.0638902805283217,
                0.12948249147910515,
                -0.3863829960568927,
                -0.9951864566813389
            ]
        },
        {
            "positions": [
                -2.641269840526285,
                -0.9168748577218179,
                1.095325819589973,
                0.14993721871027874,
                -0.4683179553781202,
                -0.780001562151758
            ]
        },
        {
            "positions": [
                -2.634867380449016,
                -0.9413455195075529,
                1.1267613586516247,
                0.1703919459414523,
                -0.5502529146993476,
                -0.5648166676221771
            ]
        },
        {
            "positions": [
                -2.6284649203717474,
                -0.965816181293288,
                1.1581968977132764,
                0.19084667317262588,
                -0.6321878740205751,
                -0.34963177309259574
            ]
        },
        {
            "positions": [
                -2.6220624602944786,
                -0.9902868430790228,
                1.1896324367749278,
                0.21130140040379947,
                -0.7141228333418026,
                -0.13444687856301485
            ]
        },
        {
            "positions": [
                -2.61566000021721,
                -1.014757504864758,
                1.2210679758365794,
                0.23175612763497305,
                -0.7960577926630301,
                0.08073801596656649
            ]
        },
        {
            "positions": [
                -2.609257540139941,
                -1.039228166650493,
                1.252503514898231,
                0.2522108548661466,
                -0.8779927519842574,
                0.2959229104961474
            ]
        },
        {
            "positions": [
                -2.6028550800626724,
                -1.0636988284362279,
                1.2839390539598825,
                0.27266558209732017,
                -0.9599277113054849,
                0.5111078050257283
            ]
        },
        {
            "positions": [
                -2.5964526199854037,
                -1.088169490221963,
                1.3153745930215341,
                0.29312030932849376,
                -1.0418626706267125,
                0.7262926995553098
            ]
        },
        {
            "positions": [
                -2.442544942776294,
                -1.0958707092344644,
                1.1852071284022747,
                0.30117635823281025,
                -0.9989416589153824,
                0.7674835444534277
            ]
        },
        {
            "positions": [
                -2.2886372655671847,
                -1.1035719282469658,
                1.055039663783015,
                0.30923240713712674,
                -0.9560206472040523,
                0.8086743893515457
            ]
        },
        {
            "positions": [
                -2.1347295883580752,
                -1.1112731472594675,
                0.9248721991637556,
                0.3172884560414432,
                -0.9130996354927223,
                0.8498652342496635
            ]
        },
        {
            "positions": [
                -1.9808219111489662,
                -1.118974366271969,
                0.7947047345444962,
                0.32534450494575967,
                -0.8701786237813923,
                0.8910560791477815
            ]
        },
        {
            "positions": [
                -1.8269142339398567,
                -1.1266755852844703,
                0.6645372699252368,
                0.33340055385007616,
                -0.8272576120700623,
                0.9322469240458994
            ]
        },
        {
            "positions": [
                -1.6730065567307473,
                -1.1343768042969717,
                0.5343698053059771,
                0.34145660275439266,
                -0.7843366003587322,
                0.9734377689440173
            ]
        },
        {
            "positions": [
                -1.519098879521638,
                -1.1420780233094732,
                0.4042023406867177,
                0.34951265165870915,
                -0.7414155886474021,
                1.0146286138421352
            ]
        },
        {
            "positions": [
                -1.3651912023125286,
                -1.1497792423219748,
                0.27403487606745824,
                0.3575687005630256,
                -0.6984945769360722,
                1.0558194587402532
            ]
        },
        {
            "positions": [
                -1.2112835251034193,
                -1.1574804613344762,
                0.1438674114481988,
                0.3656247494673421,
                -0.6555735652247421,
                1.097010303638371
            ]
        },
        {
            "positions": [
                -1.0573758478943098,
                -1.1651816803469777,
                0.01369994682893938,
                0.3736807983716586,
                -0.6126525535134121,
                1.138201148536489
            ]
        },
        {
            "positions": [
                -0.9034681706852006,
                -1.172882899359479,
                -0.11646751779032005,
                0.38173684727597507,
                -0.5697315418020821,
                1.1793919934346069
            ]
        },
        {
            "positions": [
                -0.7495604934760909,
                -1.1805841183719805,
                -0.24663498240957993,
                0.38979289618029156,
                -0.526810530090752,
                1.2205828383327249
            ]
        },
        {
            "positions": [
                -0.5956528162669814,
                -1.1882853373844822,
                -0.37680244702883936,
                0.397848945084608,
                -0.48388951837942185,
                1.2617736832308428
            ]
        },
        {
            "positions": [
                -0.4417451390578724,
                -1.1959865563969836,
                -0.5069699116480988,
                0.4059049939889245,
                -0.44096850666809184,
                1.3029645281289608
            ]
        },
        {
            "positions": [
                -0.2878374618487628,
                -1.203687775409485,
                -0.6371373762673582,
                0.413961042893241,
                -0.3980474949567618,
                1.3441553730270785
            ]
        },
        {
            "positions": [
                -0.26158746517990294,
                -1.2663284662368108,
                -0.7411255006263386,
                0.47406675399923937,
                -0.35410284254216035,
                1.26370597502185
            ]
        },
        {
            "positions": [
                -0.23533746851104315,
                -1.3289691570641369,
                -0.845113624985319,
                0.5341724651052377,
                -0.31015819012755896,
                1.1832565770166212
            ]
        },
        {
            "positions": [
                -0.2090874718421833,
                -1.3916098478914627,
                -0.9491017493442994,
                0.5942781762112361,
                -0.2662135377129575,
                1.1028071790113927
            ]
        },
        {
            "positions": [
                -0.1828374751733235,
                -1.4542505387187887,
                -1.0530898737032797,
                0.6543838873172345,
                -0.2222688852983561,
                1.0223577810061641
            ]
        },
        {
            "positions": [
                -0.15658747850446367,
                -1.5168912295461146,
                -1.15707799806226,
                0.7144895984232329,
                -0.17832423288375468,
                0.9419083830009355
            ]
        },
        {
            "positions": [
                -0.1303374818356038,
                -1.5795319203734406,
                -1.2610661224212405,
                0.7745953095292314,
                -0.13437958046915321,
                0.8614589849957068
            ]
        },
        {
            "positions": [
                -0.10408748516674399,
                -1.6421726112007664,
                -1.365054246780221,
                0.8347010206352298,
                -0.09043492805455183,
                0.7810095869904782
            ]
        },
        {
            "positions": [
                -0.07783748849788419,
                -1.7048133020280924,
                -1.469042371139201,
                0.8948067317412282,
                -0.046490275639950396,
                0.7005601889852496
            ]
        },
        {
            "positions": [
                -0.05158749182902436,
                -1.7674539928554183,
                -1.5730304954981815,
                0.9549124428472265,
                -0.002545623225349014,
                0.620110790980021
            ]
        },
        {
            "positions": [
                -0.025337495160164536,
                -1.830094683682744,
                -1.677018619857162,
                1.0150181539532248,
                0.04139902918925242,
                0.5396613929747924
            ]
        },
        {
            "positions": [
                0.0009125015086952626,
                -1.8927353745100701,
                -1.7810067442161421,
                1.0751238650592234,
                0.0853436816038538,
                0.4592119949695638
            ]
        },
        {
            "positions": [
                0.027162498177555172,
                -1.9553760653373962,
                -1.8849948685751228,
                1.1352295761652218,
                0.12928833401845535,
                0.3787625969643351
            ]
        },
        {
            "positions": [
                0.05341249484641497,
                -2.018016756164722,
                -1.9889829929341032,
                1.1953352872712202,
                0.17323298643305668,
                0.2983131989591066
            ]
        },
        {
            "positions": [
                0.07966249151527482,
                -2.080657446992048,
                -2.092971117293083,
                1.2554409983772186,
                0.21717763884765812,
                0.2178638009538778
            ]
        },
        {
            "positions": [
                0.10591248818413462,
                -2.143298137819374,
                -2.196959241652064,
                1.315546709483217,
                0.2611222912622595,
                0.13741440294864918
            ]
        },
        {
            "positions": [
                0.024057025269184823,
                -2.181291560684474,
                -2.264981518894136,
                1.3527802485613232,
                0.24532703076040854,
                0.11251587793760472
            ]
        },
        {
            "positions": [
                -0.05779843764576498,
                -2.219284983549574,
                -2.3330037961362082,
                1.3900137876394292,
                0.2295317702585576,
                0.08761735292656025
            ]
        },
        {
            "positions": [
                -0.13965390056071478,
                -2.257278406414674,
                -2.4010260733782802,
                1.4272473267175354,
                0.21373650975670663,
                0.06271882791551578
            ]
        },
        {
            "positions": [
                -0.18670974958970346,
                -2.2745610058487675,
                -2.3968832281829666,
                1.4465892073869364,
                0.1899389000920646,
                0.0793255869505797
            ]
        }
    ]
}