{
    "goal": {
        "global_pose": {
            "orientation": {
                "w": 0.5084816217422485,
                "x": -0.49083608388900757,
                "y": 0.5182115435600281,
                "z": -0.4816462993621826
            },
            "position": {
                "x": 0.5540239810943604,
                "y": 0.030875300988554955,
                "z": 0.16403168439865112
            }
        },
        "name": "move_to_storage_A"
    },
    "id": "SPARStwo_move_to_storage_A_80",
    "joint_names": [
        "shoulder_pan_joint",
        "shoulder_lift_joint",
        "elbow_joint",
        "wrist_1_joint",
        "wrist_2_joint",
        "wrist_3_joint"
    ],
    "metrics": {
        "cart_traj_len": 0.3534579811532816,
        "distance_elbow_joint": 0.4494822676955472,
        "distance_shoulder_lift_joint": 0.23674189243028398,
        "distance_shoulder_pan_joint": 0.4603004808561615,
        "distance_wrist_1_joint": 0.23876658498056913,
        "distance_wrist_2_joint": 1.1086583311027898,
        "distance_wrist_3_joint": 0.09988641225309225,
        "smoothness": 4.440892133664971e-16,
        "time": 5.005517349,
        "traj_len": 1.6105390306721672,
        "weighted_distance": 2.0349529994346276
    },
    "planner": "SPARStwo",
    "start": {
        "state": {
            "elbow_joint": 1.9715481507254546,
            "shoulder_lift_joint": -1.1394850672790213,
            "shoulder_pan_joint": 0.12281154597544902,
            "wrist_1_joint": -0.7804720171073349,
            "wrist_2_joint": 0.12958658322886563,
            "wrist_3_joint": -3.1924895760937617
        }
    },
    "waypoints": [
        {
            "positions": [
                0.12281154597544902,
                -1.1394850672790213,
                1.9715481507254546,
                -0.7804720171073349,
                0.12958658322886563,
                -3.1924895760937617
            ]
        },
        {
            "positions": [
                0.05705433442456881,
                -1.1733053376262048,
                2.03575990325339,
                -0.8145815292474162,
                0.2879663448149784,
                -3.1782200886290344
            ]
        },
        {
            "positions": [
                -0.008702877126311404,
                -1.207125607973388,
                2.0999716557813253,
                -0.8486910413874975,
                0.44634610640109124,
                -3.1639506011643066
            ]
        },
        {
            "positions": [
                -0.07446008867719162,
                -1.2409458783205716,
                2.1641834083092606,
                -0.8828005535275788,
                0.6047258679872041,
                -3.1496811136995793
            ]
        },
        {
            "positions": [
                -0.14021730022807183,
                -1.274766148667755,
                2.228395160837196,
                -0.9169100656676601,
                0.7631056295733168,
                -3.135411626234852
            ]
        },
        {
            "positions": [
                -0.20597451177895204,
                -1.3085864190149386,
                2.2926069133651312,
                -0.9510195778077415,
                0.9214853911594297,
                -3.1211421387701246
            ]
        },
        {
            "positions": [
                -0.27173172332983225,
                -1.3424066893621218,
                2.3568186658930665,
                -0.9851290899478228,
                1.0798651527455425,
                -3.106872651305397
            ]
        },
        {
            "positions": [
                -0.33748893488071247,
                -1.3762269597093053,
                2.421030418421002,
                -1.019238602087904,
                1.2382449143316554,
                -3.0926031638406695
            ]
        }
    ]
}