{
    "goal": {
        "global_pose": {
            "orientation": {
                "w": 0.005598929693374612,
                "x": 0.007748599140229565,
                "y": 0.7110244013736278,
                "z": -0.7031023480610252
            },
            "position": {
                "x": -0.8858502320852131,
                "y": -0.7141253447532654,
                "z": 0.3711530566215515
            }
        },
        "name": "move_to_auspresseinheit_C"
    },
    "id": "SPARStwo_move_to_auspresseinheit_C_49",
    "joint_names": [
        "shoulder_pan_joint",
        "shoulder_lift_joint",
        "elbow_joint",
        "wrist_1_joint",
        "wrist_2_joint",
        "wrist_3_joint"
    ],
    "metrics": {
        "cart_traj_len": 0.4945417155537652,
        "distance_elbow_joint": 1.0162045957879138,
        "distance_shoulder_lift_joint": 0.332407064053303,
        "distance_shoulder_pan_joint": 0.2569285784615105,
        "distance_wrist_1_joint": 0.712298378029186,
        "distance_wrist_2_joint": 1.3044084521186732,
        "distance_wrist_3_joint": 0.0890981138782112,
        "smoothness": 3.2297397335745243e-16,
        "time": 5.005634129,
        "traj_len": 1.9264851887125418,
        "weighted_distance": 2.4302773998523457
    },
    "planner": "SPARStwo",
    "start": {
        "state": {
            "elbow_joint": 1.7527959577737207,
            "shoulder_lift_joint": -0.9740617694225068,
            "shoulder_pan_joint": -2.967991417825858,
            "wrist_1_joint": -0.759517768980727,
            "wrist_2_joint": 1.7443932448377408,
            "wrist_3_joint": -3.0840537646736568
        }
    },
    "waypoints": [
        {
            "positions": [
                -2.967991417825858,
                -0.9740617694225068,
                1.7527959577737207,
                -0.759517768980727,
                1.7443932448377408,
                -3.0840537646736568
            ]
        },
        {
            "positions": [
                -2.942298559979707,
                -0.9408210630171765,
                1.6511754981949294,
                -0.6882879311778084,
                1.6139523996258736,
                -3.0929635760614778
            ]
        },
        {
            "positions": [
                -2.916605702133556,
                -0.9075803566118462,
                1.5495550386161379,
                -0.6170580933748897,
                1.4835115544140063,
                -3.101873387449299
            ]
        },
        {
            "positions": [
                -2.8909128442874046,
                -0.8743396502065158,
                1.4479345790373466,
                -0.5458282555719711,
                1.353070709202139,
                -3.11078319883712
            ]
        },
        {
            "positions": [
                -2.8652199864412538,
                -0.8410989438011856,
                1.346314119458555,
                -0.47459841776905254,
                1.2226298639902715,
                -3.119693010224941
            ]
        },
        {
            "positions": [
                -2.839527128595103,
                -0.8078582373958553,
                1.2446936598797638,
                -0.40336857996613396,
                1.0921890187784042,
                -3.1286028216127626
            ]
        },
        {
            "positions": [
                -2.8138342707489516,
                -0.774617530990525,
                1.1430732003009725,
                -0.3321387421632154,
                0.961748173566537,
                -3.1375126330005836
            ]
        },
        {
            "positions": [
                -2.7881414129028004,
                -0.7413768245851947,
                1.041452740722181,
                -0.2609089043602968,
                0.8313073283546697,
                -3.1464224443884046
            ]
        },
        {
            "positions": [
                -2.7624485550566495,
                -0.7081361181798644,
                0.9398322811433896,
                -0.1896790665573781,
                0.7008664831428022,
                -3.1553322557762256
            ]
        },
        {
            "positions": [
                -2.7367556972104987,
                -0.674895411774534,
                0.8382118215645983,
                -0.11844922875445951,
                0.5704256379309349,
                -3.164242067164047
            ]
        },
        {
            "positions": [
                -2.7110628393643474,
                -0.6416547053692038,
                0.7365913619858068,
                -0.04721939095154088,
                0.4399847927190677,
                -3.173151878551868
            ]
        }
    ]
}