{
    "goal": {
        "global_pose": {
            "orientation": {
                "w": -0.4816463035849501,
                "x": 0.5182115481033762,
                "y": 0.4908360881923453,
                "z": -0.5084816262002911
            },
            "position": {
                "x": -0.8240239810943604,
                "y": -0.300875300988555,
                "z": 0.16403168439865112
            }
        },
        "name": "move_to_storage_C"
    },
    "id": "SPARS_move_to_storage_C_145",
    "joint_names": [
        "shoulder_pan_joint",
        "shoulder_lift_joint",
        "elbow_joint",
        "wrist_1_joint",
        "wrist_2_joint",
        "wrist_3_joint"
    ],
    "metrics": {
        "cart_traj_len": 0.5769835603832507,
        "distance_elbow_joint": 0.26130564003294854,
        "distance_shoulder_lift_joint": 0.1901965693501555,
        "distance_shoulder_pan_joint": 0.49409484372239687,
        "distance_wrist_1_joint": 0.0846385394144602,
        "distance_wrist_2_joint": 1.0696771943661885,
        "distance_wrist_3_joint": 0.06539666281872059,
        "smoothness": 0.0,
        "time": 5.010020579,
        "traj_len": 1.4714990484892847,
        "weighted_distance": 1.857530217553125
    },
    "planner": "SPARS",
    "start": {
        "state": {
            "elbow_joint": 2.010868314990456,
            "shoulder_lift_joint": -1.1634956873337592,
            "shoulder_pan_joint": -2.4736205022346125,
            "wrist_1_joint": -0.8367026794202681,
            "wrist_2_joint": 0.6746043897044499,
            "wrist_3_joint": -3.1496632123970403
        }
    },
    "waypoints": [
        {
            "positions": [
                -2.4736205022346125,
                -1.1634956873337592,
                2.010868314990456,
                -0.8367026794202681,
                0.6746043897044499,
                -3.1496632123970403
            ]
        },
        {
            "positions": [
                -2.555969642855012,
                -1.1317962591087332,
                1.9673173749849644,
                -0.8225962561845247,
                0.8528839220988147,
                -3.13876376859392
            ]
        },
        {
            "positions": [
                -2.6383187834754116,
                -1.1000968308837074,
                1.923766434979473,
                -0.8084898329487814,
                1.0311634544931794,
                -3.1278643247908002
            ]
        },
        {
            "positions": [
                -2.720667924095811,
                -1.0683974026586815,
                1.8802154949739815,
                -0.794383409713038,
                1.2094429868875443,
                -3.11696488098768
            ]
        },
        {
            "positions": [
                -2.8030170647162103,
                -1.0366979744336555,
                1.8366645549684901,
                -0.7802769864772946,
                1.3877225192819087,
                -3.1060654371845597
            ]
        },
        {
            "positions": [
                -2.88536620533661,
                -1.0049985462086295,
                1.7931136149629987,
                -0.7661705632415513,
                1.5660020516762736,
                -3.09516599338144
            ]
        },
        {
            "positions": [
                -2.9677153459570094,
                -0.9732991179836037,
                1.7495626749575073,
                -0.7520641400058079,
                1.7442815840706383,
                -3.0842665495783197
            ]
        }
    ]
}