{
    "goal": {
        "global_pose": {
            "orientation": {
                "w": -0.00223480608172531,
                "x": 0.0024358444001904467,
                "y": 0.7094548369677653,
                "z": -0.704743149386269
            },
            "position": {
                "x": -0.37947507619857795,
                "y": -0.6371506643295288,
                "z": 0.19426114857196808
            }
        },
        "name": "move_to_magneteinheit_C"
    },
    "id": "SPARS_move_to_magneteinheit_C_30",
    "joint_names": [
        "shoulder_pan_joint",
        "shoulder_lift_joint",
        "elbow_joint",
        "wrist_1_joint",
        "wrist_2_joint",
        "wrist_3_joint"
    ],
    "metrics": {
        "cart_traj_len": 1.0911875181397164,
        "distance_elbow_joint": 0.051311971451518,
        "distance_shoulder_lift_joint": 1.1083927313867212,
        "distance_shoulder_pan_joint": 1.0239453174275928,
        "distance_wrist_1_joint": 4.237296804051587,
        "distance_wrist_2_joint": 0.801100911642755,
        "distance_wrist_3_joint": 0.21398253102401554,
        "smoothness": 1.103501450085374,
        "time": 5.029622443,
        "traj_len": 2.7269085549361916,
        "weighted_distance": 3.591990123138782
    },
    "planner": "SPARS",
    "start": {
        "state": {
            "elbow_joint": 1.9565354010623817,
            "shoulder_lift_joint": -1.4165861575791021,
            "shoulder_pan_joint": -1.6717766225146293,
            "wrist_1_joint": -0.5286633292919765,
            "wrist_2_joint": 1.472756589071564,
            "wrist_3_joint": -3.1238370188695823
        }
    },
    "waypoints": [
        {
            "positions": [
                -1.6717766225146293,
                -1.4165861575791021,
                1.9565354010623817,
                -0.5286633292919765,
                1.472756589071564,
                -3.1238370188695823
            ]
        },
        {
            "positions": [
                -1.75474491542387,
                -1.4554462927096166,
                1.9584799593465316,
                -0.3494179388783267,
                1.4213490784366012,
                -3.1157125956634646
            ]
        },
        {
            "positions": [
                -1.8377132083331107,
                -1.494306427840131,
                1.9604245176306818,
                -0.1701725484646769,
                1.3699415678016384,
                -3.107588172457347
            ]
        },
        {
            "positions": [
                -1.9206815012423513,
                -1.5331665629706455,
                1.9623690759148318,
                0.009072841948972843,
                1.318534057166676,
                -3.0994637492512296
            ]
        },
        {
            "positions": [
                -2.003649794151592,
                -1.57202669810116,
                1.964313634198982,
                0.18831823236262268,
                1.2671265465317132,
                -3.091339326045112
            ]
        },
        {
            "positions": [
                -2.0866180870608324,
                -1.6108868332316744,
                1.966258192483132,
                0.3675636227762724,
                1.2157190358967505,
                -3.083214902838994
            ]
        },
        {
            "positions": [
                -2.169586379970073,
                -1.649746968362189,
                1.9682027507672821,
                0.5468090131899221,
                1.164311525261788,
                -3.0750904796328764
            ]
        },
        {
            "positions": [
                -2.252554672879314,
                -1.6886071034927035,
                1.970147309051432,
                0.7260544036035721,
                1.112904014626825,
                -3.0669660564267587
            ]
        },
        {
            "positions": [
                -2.3355229657885546,
                -1.727467238623218,
                1.9720918673355823,
                0.9052997940172218,
                1.0614965039918625,
                -3.058841633220641
            ]
        },
        {
            "positions": [
                -2.418491258697795,
                -1.7663273737537324,
                1.9740364256197322,
                1.0845451844308718,
                1.0100889933568997,
                -3.0507172100145237
            ]
        },
        {
            "positions": [
                -2.5014595516070357,
                -1.8051875088842468,
                1.9759809839038824,
                1.2637905748445213,
                0.9586814827219371,
                -3.042592786808406
            ]
        },
        {
            "positions": [
                -2.5844278445162763,
                -1.8440476440147613,
                1.9779255421880324,
                1.4430359652581712,
                0.9072739720869744,
                -3.034468363602288
            ]
        },
        {
            "positions": [
                -2.5720618339133936,
                -1.7683886167979765,
                1.9812501900020176,
                1.1913029086469002,
                0.8810941615694005,
                -3.0483143497974794
            ]
        },
        {
            "positions": [
                -2.5596958233105105,
                -1.692729589581192,
                1.9845748378160029,
                0.939569852035629,
                0.8549143510518264,
                -3.0621603359926706
            ]
        },
        {
            "positions": [
                -2.547329812707628,
                -1.6170705623644073,
                1.987899485629988,
                0.687836795424358,
                0.8287345405342526,
                -3.076006322187862
            ]
        },
        {
            "positions": [
                -2.5349638021047447,
                -1.5414115351476227,
                1.9912241334439733,
                0.43610373881308684,
                0.8025547300166787,
                -3.0898523083830534
            ]
        },
        {
            "positions": [
                -2.522597791501862,
                -1.465752507930838,
                1.9945487812579588,
                0.18437068220181585,
                0.7763749194991046,
                -3.1036982945782445
            ]
        },
        {
            "positions": [
                -2.510231780898979,
                -1.3900934807140533,
                1.997873429071944,
                -0.06736237440945514,
                0.7501951089815307,
                -3.1175442807734357
            ]
        },
        {
            "positions": [
                -2.4978657702960962,
                -1.3144344534972685,
                2.001198076885929,
                -0.31909543102072635,
                0.7240152984639568,
                -3.1313902669686273
            ]
        },
        {
            "positions": [
                -2.485499759693213,
                -1.238775426280484,
                2.0045227246999144,
                -0.5708284876319976,
                0.6978354879463828,
                -3.1452362531638185
            ]
        },
        {
            "positions": [
                -2.4731337490903305,
                -1.1631163990636992,
                2.0078473725138997,
                -0.8225615442432684,
                0.6716556774288089,
                -3.1590822393590097
            ]
        }
    ]
}