{
    "goal": {
        "global_pose": {
            "orientation": {
                "w": -0.00223480608172531,
                "x": 0.0024358444001904467,
                "y": 0.7094548369677653,
                "z": -0.704743149386269
            },
            "position": {
                "x": -0.37947507619857795,
                "y": -0.6371506643295288,
                "z": 0.19426114857196808
            }
        },
        "name": "move_to_magneteinheit_C"
    },
    "id": "SPARS_move_to_magneteinheit_C_119",
    "joint_names": [
        "shoulder_pan_joint",
        "shoulder_lift_joint",
        "elbow_joint",
        "wrist_1_joint",
        "wrist_2_joint",
        "wrist_3_joint"
    ],
    "metrics": {
        "cart_traj_len": 2.392784841079772,
        "distance_elbow_joint": 0.46511438795986537,
        "distance_shoulder_lift_joint": 1.4105485642486053,
        "distance_shoulder_pan_joint": 2.9414376457853764,
        "distance_wrist_1_joint": 2.9695391424089266,
        "distance_wrist_2_joint": 2.1733352409881683,
        "distance_wrist_3_joint": 3.6216745443323535,
        "smoothness": 0.6443533785029901,
        "time": 5.053573199,
        "traj_len": 3.6853289575997543,
        "weighted_distance": 5.095868228063309
    },
    "planner": "SPARS",
    "start": {
        "state": {
            "elbow_joint": 1.9565354010623817,
            "shoulder_lift_joint": -1.4165861575791021,
            "shoulder_pan_joint": -1.6717766225146293,
            "wrist_1_joint": -0.5286633292919765,
            "wrist_2_joint": 1.472756589071564,
            "wrist_3_joint": -3.1238370188695823
        }
    },
    "waypoints": [
        {
            "positions": [
                -1.6717766225146293,
                -1.4165861575791021,
                1.9565354010623817,
                -0.5286633292919765,
                1.472756589071564,
                -3.1238370188695823
            ]
        },
        {
            "positions": [
                -1.6022534368610406,
                -1.4551639672594794,
                1.9737166093965404,
                -0.43935297687096586,
                1.3734778938092287,
                -3.057930817899512
            ]
        },
        {
            "positions": [
                -1.5327302512074519,
                -1.4937417769398564,
                1.9908978177306988,
                -0.35004262444995526,
                1.2741991985468935,
                -2.992024616929442
            ]
        },
        {
            "positions": [
                -1.4632070655538632,
                -1.5323195866202337,
                2.0080790260648578,
                -0.2607322720289446,
                1.1749205032845582,
                -2.9261184159593716
            ]
        },
        {
            "positions": [
                -1.3936838799002744,
                -1.5708973963006108,
                2.025260234399016,
                -0.17142191960793401,
                1.075641808022223,
                -2.8602122149893012
            ]
        },
        {
            "positions": [
                -1.3241606942466857,
                -1.609475205980988,
                2.0424414427331747,
                -0.08211156718692342,
                0.9763631127598877,
                -2.7943060140192313
            ]
        },
        {
            "positions": [
                -1.2546375085930968,
                -1.6480530156613653,
                2.0596226510673334,
                0.007198785234087235,
                0.8770844174975525,
                -2.728399813049161
            ]
        },
        {
            "positions": [
                -1.185114322939508,
                -1.6866308253417424,
                2.076803859401492,
                0.09650913765509783,
                0.7778057222352173,
                -2.6624936120790905
            ]
        },
        {
            "positions": [
                -1.1155911372859193,
                -1.7252086350221196,
                2.093985067735651,
                0.18581949007610843,
                0.678527026972882,
                -2.5965874111090206
            ]
        },
        {
            "positions": [
                -1.0460679516323306,
                -1.7637864447024967,
                2.1111662760698096,
                0.275129842497119,
                0.5792483317105468,
                -2.53068121013895
            ]
        },
        {
            "positions": [
                -0.976544765978742,
                -1.802364254382874,
                2.1283474844039683,
                0.3644401949181296,
                0.47996963644821156,
                -2.4647750091688803
            ]
        },
        {
            "positions": [
                -0.9070215803251532,
                -1.8409420640632512,
                2.145528692738127,
                0.4537505473391402,
                0.3806909411858763,
                -2.39886880819881
            ]
        },
        {
            "positions": [
                -0.8374983946715644,
                -1.8795198737436283,
                2.1627099010722852,
                0.5430608997601509,
                0.2814122459235411,
                -2.3329626072287395
            ]
        },
        {
            "positions": [
                -0.7679752090179757,
                -1.9180976834240056,
                2.179891109406444,
                0.6323712521811615,
                0.18213355066120585,
                -2.267056406258669
            ]
        },
        {
            "positions": [
                -0.6984520233643869,
                -1.9566754931043828,
                2.1970723177406026,
                0.7216816046021721,
                0.08285485539887061,
                -2.201150205288599
            ]
        },
        {
            "positions": [
                -0.6289288377107982,
                -1.9952533027847599,
                2.2142535260747613,
                0.8109919570231827,
                -0.016423839863464733,
                -2.135244004318529
            ]
        },
        {
            "positions": [
                -0.7517526623733678,
                -1.9417904358331584,
                2.199495102050242,
                0.7165072295096215,
                0.017903299147452596,
                -2.0631193017802114
            ]
        },
        {
            "positions": [
                -0.8745764870359374,
                -1.888327568881557,
                2.1847366780257222,
                0.6220225019960605,
                0.052230438158369925,
                -1.9909945992418938
            ]
        },
        {
            "positions": [
                -0.997400311698507,
                -1.8348647019299555,
                2.1699782540012023,
                0.5275377744824994,
                0.08655757716928725,
                -1.9188698967035764
            ]
        },
        {
            "positions": [
                -1.1202241363610765,
                -1.7814018349783542,
                2.1552198299766827,
                0.43305304696893815,
                0.12088471618020458,
                -1.8467451941652588
            ]
        },
        {
            "positions": [
                -1.2430479610236462,
                -1.7279389680267527,
                2.140461405952163,
                0.338568319455377,
                0.1552118551911219,
                -1.7746204916269415
            ]
        },
        {
            "positions": [
                -1.3658717856862157,
                -1.6744761010751514,
                2.1257029819276436,
                0.24408359194181595,
                0.1895389942020392,
                -1.702495789088624
            ]
        },
        {
            "positions": [
                -1.4886956103487854,
                -1.62101323412355,
                2.110944557903124,
                0.14959886442825476,
                0.22386613321295656,
                -1.6303710865503067
            ]
        },
        {
            "positions": [
                -1.6115194350113549,
                -1.5675503671719486,
                2.0961861338786045,
                0.05511413691469358,
                0.2581932722238739,
                -1.5582463840119891
            ]
        },
        {
            "positions": [
                -1.7343432596739246,
                -1.514087500220347,
                2.0814277098540845,
                -0.039370590598867605,
                0.2925204112347912,
                -1.4861216814736715
            ]
        },
        {
            "positions": [
                -1.857167084336494,
                -1.4606246332687456,
                2.066669285829565,
                -0.13385531811242868,
                0.32684755024570855,
                -1.4139969789353541
            ]
        },
        {
            "positions": [
                -1.9799909089990637,
                -1.4071617663171443,
                2.0519108618050454,
                -0.22834004562598992,
                0.3611746892566259,
                -1.3418722763970368
            ]
        },
        {
            "positions": [
                -2.1538367103468836,
                -1.3396005839995815,
                2.0409054282799834,
                -0.30720631024771494,
                0.41544274328270886,
                -1.3371580725214574
            ]
        },
        {
            "positions": [
                -2.3276825116947037,
                -1.2720394016820187,
                2.0298999947549214,
                -0.3860725748694399,
                0.46971079730879184,
                -1.332443868645878
            ]
        },
        {
            "positions": [
                -2.501528313042524,
                -1.2044782193644559,
                2.0188945612298594,
                -0.46493883949116493,
                0.5239788513348749,
                -1.3277296647702985
            ]
        },
        {
            "positions": [
                -2.4978154008068354,
                -1.1986058857040782,
                2.0171749472152047,
                -0.5155035622882248,
                0.5445148685998465,
                -1.588524977660737
            ]
        },
        {
            "positions": [
                -2.494102488571147,
                -1.1927335520437006,
                2.0154553332005496,
                -0.5660682850852847,
                0.5650508858648181,
                -1.8493202905511756
            ]
        },
        {
            "positions": [
                -2.4903895763354584,
                -1.186861218383323,
                2.013735719185895,
                -0.6166330078823447,
                0.5855869031297898,
                -2.110115603441614
            ]
        },
        {
            "positions": [
                -2.48667666409977,
                -1.1809888847229453,
                2.01201610517124,
                -0.6671977306794046,
                0.6061229203947613,
                -2.3709109163320523
            ]
        },
        {
            "positions": [
                -2.4829637518640815,
                -1.1751165510625676,
                2.0102964911565855,
                -0.7177624534764644,
                0.626658937659733,
                -2.631706229222491
            ]
        },
        {
            "positions": [
                -2.479250839628393,
                -1.16924421740219,
                2.0085768771419303,
                -0.7683271762735243,
                0.6471949549247046,
                -2.89250154211293
            ]
        },
        {
            "positions": [
                -2.4755379273927045,
                -1.1633718837418123,
                2.0068572631272756,
                -0.8188918990705842,
                0.6677309721896763,
                -3.153296855003368
            ]
        }
    ]
}