{
    "goal": {
        "global_pose": {
            "orientation": {
                "w": -0.00223480608172531,
                "x": 0.0024358444001904467,
                "y": 0.7094548369677653,
                "z": -0.704743149386269
            },
            "position": {
                "x": 0.6205249238014221,
                "y": -0.6371506643295288,
                "z": 0.19426114857196808
            }
        },
        "name": "move_to_magneteinheit_B"
    },
    "id": "SPARS_move_to_magneteinheit_B_103",
    "joint_names": [
        "shoulder_pan_joint",
        "shoulder_lift_joint",
        "elbow_joint",
        "wrist_1_joint",
        "wrist_2_joint",
        "wrist_3_joint"
    ],
    "metrics": {
        "cart_traj_len": 3.1262439652779177,
        "distance_elbow_joint": 2.1747321888326288,
        "distance_shoulder_lift_joint": 1.60720709537221,
        "distance_shoulder_pan_joint": 3.040607165564426,
        "distance_wrist_1_joint": 2.139751647729331,
        "distance_wrist_2_joint": 2.7728110912805786,
        "distance_wrist_3_joint": 1.400457395617976,
        "smoothness": 0.9112967998303748,
        "time": 5.0719966,
        "traj_len": 3.624302220344924,
        "weighted_distance": 4.56607535139785
    },
    "planner": "SPARS",
    "start": {
        "state": {
            "elbow_joint": 2.6216224122426386,
            "shoulder_lift_joint": -1.4174107377796124,
            "shoulder_pan_joint": 0.7066234856936794,
            "wrist_1_joint": 1.9546482284002225,
            "wrist_2_joint": -0.7096286983471962,
            "wrist_3_joint": 0.005740856962016249
        }
    },
    "waypoints": [
        {
            "positions": [
                0.7066234856936794,
                -1.4174107377796124,
                2.6216224122426386,
                1.9546482284002225,
                -0.7096286983471962,
                0.005740856962016249
            ]
        },
        {
            "positions": [
                0.8149419292669347,
                -1.5242350373435893,
                2.6764904887588807,
                2.036124799173896,
                -0.6974871322405106,
                -0.023327437755947873
            ]
        },
        {
            "positions": [
                0.92326037284019,
                -1.6310593369075663,
                2.7313585652751233,
                2.1176013699475695,
                -0.685345566133825,
                -0.052395732473912
            ]
        },
        {
            "positions": [
                1.0315788164134454,
                -1.7378836364715435,
                2.786226641791366,
                2.199077940721243,
                -0.6732040000271394,
                -0.08146402719187612
            ]
        },
        {
            "positions": [
                1.1398972599867006,
                -1.8447079360355205,
                2.841094718307608,
                2.2805545114949166,
                -0.6610624339204538,
                -0.11053232190984025
            ]
        },
        {
            "positions": [
                1.165021848730088,
                -1.8284289616779488,
                2.7012648957226646,
                2.197905376742119,
                -0.6086921227473878,
                -0.16363085023505347
            ]
        },
        {
            "positions": [
                1.1901464374734756,
                -1.812149987320377,
                2.5614350731377207,
                2.115256241989321,
                -0.5563218115743218,
                -0.2167293785602667
            ]
        },
        {
            "positions": [
                1.2152710262168631,
                -1.7958710129628053,
                2.421605250552777,
                2.0326071072365237,
                -0.5039515004012559,
                -0.2698279068854799
            ]
        },
        {
            "positions": [
                1.2403956149602506,
                -1.7795920386052335,
                2.2817754279678333,
                1.949957972483726,
                -0.4515811892281899,
                -0.32292643521069314
            ]
        },
        {
            "positions": [
                1.2655202037036382,
                -1.7633130642476618,
                2.14194560538289,
                1.8673088377309282,
                -0.3992108780551239,
                -0.37602496353590636
            ]
        },
        {
            "positions": [
                1.2906447924470257,
                -1.74703408989009,
                2.0021157827979463,
                1.7846597029781304,
                -0.34684056688205794,
                -0.4291234918611196
            ]
        },
        {
            "positions": [
                1.3157693811904132,
                -1.7307551155325183,
                1.8622859602130024,
                1.7020105682253326,
                -0.29447025570899193,
                -0.4822220201863328
            ]
        },
        {
            "positions": [
                1.3408939699338007,
                -1.7144761411749465,
                1.7224561376280587,
                1.619361433472535,
                -0.24209994453592593,
                -0.535320548511546
            ]
        },
        {
            "positions": [
                1.3660185586771882,
                -1.6981971668173748,
                1.5826263150431148,
                1.5367122987197372,
                -0.18972963336285992,
                -0.5884190768367593
            ]
        },
        {
            "positions": [
                1.3911431474205758,
                -1.681918192459803,
                1.4427964924581713,
                1.4540631639669397,
                -0.13735932218979396,
                -0.6415176051619724
            ]
        },
        {
            "positions": [
                1.4162677361639633,
                -1.6656392181022313,
                1.3029666698732276,
                1.371414029214142,
                -0.08498901101672801,
                -0.6946161334871858
            ]
        },
        {
            "positions": [
                1.293486507711287,
                -1.617244239769297,
                1.3247461200677992,
                1.4183141817325582,
                -0.2002433514427261,
                -0.6659310654959997
            ]
        },
        {
            "positions": [
                1.1707052792586106,
                -1.5688492614363627,
                1.3465255702623709,
                1.4652143342509745,
                -0.3154976918687241,
                -0.6372459975048137
            ]
        },
        {
            "positions": [
                1.0479240508059342,
                -1.5204542831034287,
                1.3683050204569425,
                1.5121144867693908,
                -0.4307520322947222,
                -0.6085609295136276
            ]
        },
        {
            "positions": [
                0.925142822353258,
                -1.4720593047704944,
                1.390084470651514,
                1.559014639287807,
                -0.5460063727207203,
                -0.5798758615224415
            ]
        },
        {
            "positions": [
                0.8023615939005816,
                -1.4236643264375601,
                1.4118639208460857,
                1.6059147918062235,
                -0.6612607131467183,
                -0.5511907935312554
            ]
        },
        {
            "positions": [
                0.6795803654479053,
                -1.3752693481046259,
                1.4336433710406573,
                1.6528149443246396,
                -0.7765150535727163,
                -0.5225057255400695
            ]
        },
        {
            "positions": [
                0.5567991369952289,
                -1.3268743697716916,
                1.455422821235229,
                1.699715096843056,
                -0.8917693939987146,
                -0.4938206575488834
            ]
        },
        {
            "positions": [
                0.4340179085425526,
                -1.2784793914387576,
                1.4772022714298005,
                1.7466152493614724,
                -1.0070237344247126,
                -0.4651355895576974
            ]
        },
        {
            "positions": [
                0.31123668008987626,
                -1.2300844131058233,
                1.4989817216243722,
                1.7935154018798887,
                -1.1222780748507106,
                -0.4364505215665113
            ]
        },
        {
            "positions": [
                0.1884554516371999,
                -1.181689434772889,
                1.5207611718189438,
                1.840415554398305,
                -1.2375324152767087,
                -0.40776545357532523
            ]
        },
        {
            "positions": [
                0.06567422318452354,
                -1.1332944564399547,
                1.5425406220135154,
                1.8873157069167212,
                -1.352786755702707,
                -0.3790803855841392
            ]
        },
        {
            "positions": [
                -0.0571070052681526,
                -1.0848994781070207,
                1.564320072208087,
                1.9342158594351375,
                -1.4680410961287047,
                -0.35039531759295317
            ]
        },
        {
            "positions": [
                -0.17988823372082896,
                -1.0365044997740864,
                1.5860995224026586,
                1.9811160119535538,
                -1.583295436554703,
                -0.32171024960176714
            ]
        },
        {
            "positions": [
                -0.30266946217350554,
                -0.988109521441152,
                1.6078789725972302,
                2.0280161644719703,
                -1.698549776980701,
                -0.29302518161058105
            ]
        },
        {
            "positions": [
                -0.4254506906261819,
                -0.9397145431082179,
                1.6296584227918018,
                2.074916316990387,
                -1.8138041174066992,
                -0.264340113619395
            ]
        },
        {
            "positions": [
                -0.548231919078858,
                -0.8913195647752837,
                1.6514378729863735,
                2.121816469508803,
                -1.929058457832697,
                -0.235655045628209
            ]
        },
        {
            "positions": [
                -0.6710131475315342,
                -0.8429245864423495,
                1.673217323180945,
                2.168716622027219,
                -2.0443127982586953,
                -0.20696997763702296
            ]
        },
        {
            "positions": [
                -0.7937943759842105,
                -0.7945296081094152,
                1.6949967733755167,
                2.2156167745456354,
                -2.1595671386846935,
                -0.17828490964583682
            ]
        },
        {
            "positions": [
                -0.8391321770889486,
                -0.7458802696630917,
                1.685583624313896,
                2.1929284731622474,
                -2.187164617290498,
                -0.10937146664805251
            ]
        },
        {
            "positions": [
                -0.8844699781936867,
                -0.6972309312167682,
                1.6761704752522752,
                2.1702401717788593,
                -2.2147620958963024,
                -0.04045802365026821
            ]
        },
        {
            "positions": [
                -0.9146951789301787,
                -0.6647980389192191,
                1.6698950425445283,
                2.155114637523267,
                -2.2331604149668385,
                0.0054842716815879915
            ]
        }
    ]
}