{
    "goal": {
        "global_pose": {
            "orientation": {
                "w": -0.4816463035849501,
                "x": 0.5182115481033762,
                "y": 0.4908360881923453,
                "z": -0.5084816262002911
            },
            "position": {
                "x": -0.8240239810943604,
                "y": 0.19912469901144506,
                "z": 0.16403168439865112
            }
        },
        "name": "move_to_storage_D"
    },
    "id": "SPARStwo_move_to_storage_D_38",
    "joint_names": [
        "shoulder_pan_joint",
        "shoulder_lift_joint",
        "elbow_joint",
        "wrist_1_joint",
        "wrist_2_joint",
        "wrist_3_joint"
    ],
    "metrics": {
        "cart_traj_len": 0.6420106813303312,
        "distance_elbow_joint": 0.5550830522272427,
        "distance_shoulder_lift_joint": 0.3300971260235497,
        "distance_shoulder_pan_joint": 0.29620606668738775,
        "distance_wrist_1_joint": 3.8236305024790367,
        "distance_wrist_2_joint": 1.7742583720350797,
        "distance_wrist_3_joint": 3.341967937040529,
        "smoothness": 0.12554094720685874,
        "time": 5.01524296,
        "traj_len": 3.1813901138484764,
        "weighted_distance": 4.733187911449111
    },
    "planner": "SPARStwo",
    "start": {
        "state": {
            "elbow_joint": -2.384821988534728,
            "shoulder_lift_joint": -2.2788054721415256,
            "shoulder_pan_joint": -0.1854694642142757,
            "wrist_1_joint": 1.4845938289331202,
            "wrist_2_joint": 0.17898776772866878,
            "wrist_3_joint": 0.037105688729662994
        }
    },
    "waypoints": [
        {
            "positions": [
                -0.1854694642142757,
                -2.2788054721415256,
                -2.384821988534728,
                1.4845938289331202,
                0.17898776772866878,
                0.037105688729662994
            ]
        },
        {
            "positions": [
                -0.11087911595634056,
                -2.1984965434659522,
                -2.363724382931609,
                1.420945585346628,
                0.11262237003372738,
                0.006255849933897894
            ]
        },
        {
            "positions": [
                -0.036288767698405416,
                -2.1181876147903793,
                -2.3426267773284906,
                1.3572973417601357,
                0.04625697233878598,
                -0.024593988861867207
            ]
        },
        {
            "positions": [
                0.03830158055952973,
                -2.037878686114806,
                -2.3215291717253717,
                1.2936490981736435,
                -0.020108425356155424,
                -0.05544382765763231
            ]
        },
        {
            "positions": [
                0.035152231780678334,
                -2.041755657419016,
                -2.3001469875767677,
                1.1357062385336627,
                -0.08859373748442739,
                0.08583523410989957
            ]
        },
        {
            "positions": [
                0.03200288300182693,
                -2.045632628723226,
                -2.2787648034281642,
                0.9777633788936817,
                -0.15707904961269936,
                0.22711429587743145
            ]
        },
        {
            "positions": [
                0.028853534222975534,
                -2.0495096000274358,
                -2.2573826192795603,
                0.8198205192537009,
                -0.22556436174097133,
                0.3683933576449634
            ]
        },
        {
            "positions": [
                0.025704185444124138,
                -2.053386571331646,
                -2.236000435130957,
                0.66187765961372,
                -0.2940496738692433,
                0.5096724194124952
            ]
        },
        {
            "positions": [
                0.022554836665272738,
                -2.057263542635856,
                -2.214618250982353,
                0.5039347999737392,
                -0.36253498599751527,
                0.6509514811800271
            ]
        },
        {
            "positions": [
                0.019405487886421338,
                -2.061140513940066,
                -2.193236066833749,
                0.34599194033375835,
                -0.43102029812578724,
                0.792230542947559
            ]
        },
        {
            "positions": [
                0.01625613910756994,
                -2.065017485244276,
                -2.1718538826851455,
                0.18804908069377735,
                -0.4995056102540592,
                0.9335096047150909
            ]
        },
        {
            "positions": [
                0.013106790328718542,
                -2.068894456548486,
                -2.1504716985365415,
                0.030106221053796567,
                -0.5679909223823312,
                1.0747886664826227
            ]
        },
        {
            "positions": [
                0.009957441549867139,
                -2.072771427852696,
                -2.129089514387938,
                -0.12783663858618421,
                -0.6364762345106032,
                1.2160677282501546
            ]
        },
        {
            "positions": [
                0.006808092771015746,
                -2.076648399156906,
                -2.107707330239334,
                -0.285779498226165,
                -0.7049615466388751,
                1.3573467900176865
            ]
        },
        {
            "positions": [
                0.0036587439921643428,
                -2.0805253704611157,
                -2.08632514609073,
                -0.443722357866146,
                -0.773446858767147,
                1.4986258517852185
            ]
        },
        {
            "positions": [
                0.0005093952133129465,
                -2.084402341765326,
                -2.0649429619421267,
                -0.6016652175061268,
                -0.841932170895419,
                1.6399049135527504
            ]
        },
        {
            "positions": [
                -0.00263995356553845,
                -2.088279313069536,
                -2.0435607777935227,
                -0.7596080771461076,
                -0.910417483023691,
                1.781183975320282
            ]
        },
        {
            "positions": [
                -0.005789302344389853,
                -2.092156284373746,
                -2.022178593644919,
                -0.9175509367860888,
                -0.978902795151963,
                1.9224630370878142
            ]
        },
        {
            "positions": [
                -0.00893865112324125,
                -2.096033255677956,
                -2.0007964094963153,
                -1.0754937964260696,
                -1.047388107280235,
                2.063742098855346
            ]
        },
        {
            "positions": [
                -0.012087999902092646,
                -2.099910226982166,
                -1.9794142253477114,
                -1.2334366560660504,
                -1.115873419408507,
                2.205021160622878
            ]
        },
        {
            "positions": [
                -0.015237348680944042,
                -2.103787198286376,
                -1.958032041199108,
                -1.3913795157060311,
                -1.1843587315367787,
                2.34630022239041
            ]
        },
        {
            "positions": [
                -0.018386697459795452,
                -2.107664169590586,
                -1.936649857050504,
                -1.549322375346012,
                -1.252844043665051,
                2.487579284157942
            ]
        },
        {
            "positions": [
                -0.02153604623864685,
                -2.1115411408947957,
                -1.9152676729019003,
                -1.7072652349859927,
                -1.3213293557933228,
                2.6288583459254737
            ]
        },
        {
            "positions": [
                -0.024685395017498238,
                -2.115418112199006,
                -1.8938854887532965,
                -1.8652080946259735,
                -1.3898146679215948,
                2.7701374076930056
            ]
        },
        {
            "positions": [
                -0.027834743796349634,
                -2.119295083503216,
                -1.8725033046046926,
                -2.0231509542659545,
                -1.4582999800498666,
                2.9114164694605376
            ]
        },
        {
            "positions": [
                -0.030984092575201044,
                -2.123172054807426,
                -1.851121120456089,
                -2.1810938139059353,
                -1.5267852921781386,
                3.0526955312280695
            ]
        },
        {
            "positions": [
                -0.034133441354052434,
                -2.127049026111636,
                -1.8297389363074852,
                -2.339036673545916,
                -1.5952706043064107,
                3.1939745929956014
            ]
        }
    ]
}