{
    "goal": {
        "global_pose": {
            "orientation": {
                "w": 0.7031023480610252,
                "x": -0.7110244013736278,
                "y": 0.0077485991402295624,
                "z": 0.005598929693374583
            },
            "position": {
                "x": -0.8841497679147869,
                "y": 0.44412534475326537,
                "z": 0.3711530566215515
            }
        },
        "name": "move_to_auspresseinheit_D"
    },
    "id": "SPARS_move_to_auspresseinheit_D_139",
    "joint_names": [
        "shoulder_pan_joint",
        "shoulder_lift_joint",
        "elbow_joint",
        "wrist_1_joint",
        "wrist_2_joint",
        "wrist_3_joint"
    ],
    "metrics": {
        "cart_traj_len": 0.3428423280790579,
        "distance_elbow_joint": 0.6396607322610774,
        "distance_shoulder_lift_joint": 0.12196557884579251,
        "distance_shoulder_pan_joint": 0.13308810670265558,
        "distance_wrist_1_joint": 0.5324241545633086,
        "distance_wrist_2_joint": 1.4395447749997012,
        "distance_wrist_3_joint": 0.00038917152529638344,
        "smoothness": 3.9474596431116675e-16,
        "time": 5.005509292,
        "traj_len": 1.6932431954382194,
        "weighted_distance": 2.199959043144084
    },
    "planner": "SPARS",
    "start": {
        "state": {
            "elbow_joint": -1.8275523626775212,
            "shoulder_lift_joint": -2.126789852344167,
            "shoulder_pan_joint": -0.03513704404078235,
            "wrist_1_joint": -2.347782403156801,
            "wrist_2_joint": -1.6058999987535132,
            "wrist_3_joint": -3.0880379163319196
        }
    },
    "waypoints": [
        {
            "positions": [
                -0.03513704404078235,
                -2.126789852344167,
                -1.8275523626775212,
                -2.347782403156801,
                -1.6058999987535132,
                -3.0880379163319196
            ]
        },
        {
            "positions": [
                -0.0517730573786143,
                -2.142035549699891,
                -1.7475947711448865,
                -2.4143354224772144,
                -1.4259569018785505,
                -3.0879892698912577
            ]
        },
        {
            "positions": [
                -0.06840907071644625,
                -2.157281247055615,
                -1.6676371796122518,
                -2.480888441797628,
                -1.2460138050035878,
                -3.0879406234505957
            ]
        },
        {
            "positions": [
                -0.08504508405427819,
                -2.172526944411339,
                -1.587679588079617,
                -2.5474414611180416,
                -1.0660707081286254,
                -3.0878919770099333
            ]
        },
        {
            "positions": [
                -0.10168109739211015,
                -2.1877726417670633,
                -1.5077219965469824,
                -2.613994480438455,
                -0.8861276112536626,
                -3.0878433305692714
            ]
        },
        {
            "positions": [
                -0.11831711072994208,
                -2.2030183391227873,
                -1.4277644050143476,
                -2.6805474997588687,
                -0.7061845143786999,
                -3.0877946841286095
            ]
        },
        {
            "positions": [
                -0.13495312406777404,
                -2.2182640364785113,
                -1.3478068134817132,
                -2.7471005190792823,
                -0.5262414175037373,
                -3.087746037687947
            ]
        },
        {
            "positions": [
                -0.15158913740560598,
                -2.2335097338342353,
                -1.2678492219490785,
                -2.813653538399696,
                -0.34629832062877464,
                -3.087697391247285
            ]
        },
        {
            "positions": [
                -0.16822515074343794,
                -2.2487554311899594,
                -1.1878916304164437,
                -2.8802065577201095,
                -0.16635522375381204,
                -3.087648744806623
            ]
        }
    ]
}