{
    "goal": {
        "global_pose": {
            "orientation": {
                "w": 0.005598929693374612,
                "x": 0.007748599140229565,
                "y": 0.7110244013736278,
                "z": -0.7031023480610252
            },
            "position": {
                "x": 0.1141497679147869,
                "y": -0.7141253447532654,
                "z": 0.3711530566215515
            }
        },
        "name": "move_to_auspresseinheit_B"
    },
    "id": "SPARS_move_to_auspresseinheit_B_110",
    "joint_names": [
        "shoulder_pan_joint",
        "shoulder_lift_joint",
        "elbow_joint",
        "wrist_1_joint",
        "wrist_2_joint",
        "wrist_3_joint"
    ],
    "metrics": {
        "cart_traj_len": 0.5649058611315778,
        "distance_elbow_joint": 0.06706798066634456,
        "distance_shoulder_lift_joint": 0.29328460947123647,
        "distance_shoulder_pan_joint": 0.5773790213286165,
        "distance_wrist_1_joint": 0.3391369813742907,
        "distance_wrist_2_joint": 0.9893581006096097,
        "distance_wrist_3_joint": 0.005413255941007833,
        "smoothness": 3.806478935924272e-16,
        "time": 5.0174545319999995,
        "traj_len": 1.5071960553926307,
        "weighted_distance": 1.900253020851966
    },
    "planner": "SPARS",
    "start": {
        "state": {
            "elbow_joint": 2.0193083361928714,
            "shoulder_lift_joint": -1.1220246554650708,
            "shoulder_pan_joint": -1.0952077554168747,
            "wrist_1_joint": -0.8559753972642168,
            "wrist_2_joint": 0.4759566250798843,
            "wrist_3_joint": -3.1240929996934557
        }
    },
    "waypoints": [
        {
            "positions": [
                -1.0952077554168747,
                -1.1220246554650708,
                2.0193083361928714,
                -0.8559753972642168,
                0.4759566250798843,
                -3.1240929996934557
            ]
        },
        {
            "positions": [
                -1.1914375923049774,
                -1.170905423710277,
                2.0081303394151475,
                -0.7994525670351683,
                0.6408496418481526,
                -3.124995209016957
            ]
        },
        {
            "positions": [
                -1.28766742919308,
                -1.2197861919554829,
                1.9969523426374232,
                -0.7429297368061198,
                0.8057426586164209,
                -3.1258974183404584
            ]
        },
        {
            "positions": [
                -1.383897266081183,
                -1.268666960200689,
                1.9857743458596993,
                -0.6864069065770715,
                0.9706356753846892,
                -3.1267996276639596
            ]
        },
        {
            "positions": [
                -1.4801271029692855,
                -1.3175477284458952,
                1.9745963490819751,
                -0.629884076348023,
                1.1355286921529575,
                -3.1277018369874607
            ]
        },
        {
            "positions": [
                -1.5763569398573885,
                -1.3664284966911011,
                1.963418352304251,
                -0.5733612461189745,
                1.3004217089212258,
                -3.1286040463109623
            ]
        },
        {
            "positions": [
                -1.6725867767454912,
                -1.4153092649363073,
                1.9522403555265269,
                -0.5168384158899261,
                1.465314725689494,
                -3.1295062556344635
            ]
        }
    ]
}