{
    "goal": {
        "global_pose": {
            "orientation": {
                "w": 0.7047431468963623,
                "x": -0.7094548344612122,
                "y": 0.0024358443915843964,
                "z": -0.0022348060738295317
            },
            "position": {
                "x": 0.6094750761985779,
                "y": 0.3671506643295288,
                "z": 0.19426114857196808
            }
        },
        "name": "move_to_magneteinheit_A"
    },
    "id": "SPARS_move_to_magneteinheit_A_91",
    "joint_names": [
        "shoulder_pan_joint",
        "shoulder_lift_joint",
        "elbow_joint",
        "wrist_1_joint",
        "wrist_2_joint",
        "wrist_3_joint"
    ],
    "metrics": {
        "cart_traj_len": 3.2270882447753486,
        "distance_elbow_joint": 3.8776578720318806,
        "distance_shoulder_lift_joint": 0.45508781808250065,
        "distance_shoulder_pan_joint": 2.8354132699932273,
        "distance_wrist_1_joint": 2.9480873078144914,
        "distance_wrist_2_joint": 1.7018328679298445,
        "distance_wrist_3_joint": 5.222223873664367,
        "smoothness": 0.18780502977501176,
        "time": 5.0492559230000005,
        "traj_len": 4.127990190094486,
        "weighted_distance": 5.668745093280292
    },
    "planner": "SPARS",
    "start": {
        "state": {
            "elbow_joint": -1.9196185241190666,
            "shoulder_lift_joint": -1.2443396400964142,
            "shoulder_pan_joint": 2.6996025414629847,
            "wrist_1_joint": -1.5485510000780065,
            "wrist_2_joint": -1.5709468930060704,
            "wrist_3_joint": 0.4420197071253992
        }
    },
    "waypoints": [
        {
            "positions": [
                2.6996025414629847,
                -1.2443396400964142,
                -1.9196185241190666,
                -1.5485510000780065,
                -1.5709468930060704,
                0.4420197071253992
            ]
        },
        {
            "positions": [
                2.5957541060276186,
                -1.230830852294626,
                -1.8397317088955438,
                -1.458618654312133,
                -1.508702512502374,
                0.478732624598056
            ]
        },
        {
            "positions": [
                2.4919056705922524,
                -1.2173220644928378,
                -1.759844893672021,
                -1.3686863085462593,
                -1.4464581319986778,
                0.5154455420707128
            ]
        },
        {
            "positions": [
                2.3880572351568867,
                -1.2038132766910496,
                -1.679958078448498,
                -1.2787539627803854,
                -1.3842137514949817,
                0.5521584595433696
            ]
        },
        {
            "positions": [
                2.2842087997215206,
                -1.1903044888892613,
                -1.6000712632249752,
                -1.1888216170145118,
                -1.3219693709912854,
                0.5888713770160265
            ]
        },
        {
            "positions": [
                2.1803603642861544,
                -1.1767957010874732,
                -1.5201844480014524,
                -1.0988892712486382,
                -1.2597249904875891,
                0.6255842944886834
            ]
        },
        {
            "positions": [
                2.0765119288507883,
                -1.163286913285685,
                -1.4402976327779295,
                -1.0089569254827646,
                -1.1974806099838928,
                0.6622972119613402
            ]
        },
        {
            "positions": [
                1.9726634934154221,
                -1.1497781254838968,
                -1.3604108175544067,
                -0.9190245797168909,
                -1.1352362294801965,
                0.699010129433997
            ]
        },
        {
            "positions": [
                1.868815057980056,
                -1.1362693376821085,
                -1.2805240023308837,
                -0.8290922339510173,
                -1.0729918489765005,
                0.7357230469066538
            ]
        },
        {
            "positions": [
                1.76496662254469,
                -1.1227605498803204,
                -1.2006371871073611,
                -0.7391598881851436,
                -1.0107474684728042,
                0.7724359643793106
            ]
        },
        {
            "positions": [
                1.661118187109324,
                -1.109251762078532,
                -1.120750371883838,
                -0.6492275424192699,
                -0.9485030879691079,
                0.8091488818519674
            ]
        },
        {
            "positions": [
                1.5572697516739578,
                -1.095742974276744,
                -1.040863556660315,
                -0.5592951966533961,
                -0.8862587074654116,
                0.8458617993246244
            ]
        },
        {
            "positions": [
                1.4534213162385918,
                -1.0822341864749556,
                -0.9609767414367925,
                -0.4693628508875225,
                -0.8240143269617154,
                0.8825747167972811
            ]
        },
        {
            "positions": [
                1.3495728808032257,
                -1.0687253986731675,
                -0.8810899262132694,
                -0.3794305051216489,
                -0.7617699464580191,
                0.919287634269938
            ]
        },
        {
            "positions": [
                1.2457244453678595,
                -1.0552166108713792,
                -0.8012031109897468,
                -0.2894981593557753,
                -0.6995255659543229,
                0.9560005517425948
            ]
        },
        {
            "positions": [
                1.1418760099324934,
                -1.041707823069591,
                -0.7213162957662238,
                -0.19956581358990144,
                -0.6372811854506266,
                0.9927134692152516
            ]
        },
        {
            "positions": [
                1.0380275744971275,
                -1.0281990352678028,
                -0.641429480542701,
                -0.10963346782402805,
                -0.5750368049469304,
                1.0294263866879083
            ]
        },
        {
            "positions": [
                0.9341791390617613,
                -1.0146902474660147,
                -0.5615426653191782,
                -0.01970112205815422,
                -0.512792424443234,
                1.0661393041605653
            ]
        },
        {
            "positions": [
                0.8303307036263954,
                -1.0011814596642266,
                -0.48165585009565537,
                0.07023122370771939,
                -0.45054804393953796,
                1.102852221633222
            ]
        },
        {
            "positions": [
                0.726482268191029,
                -0.9876726718624382,
                -0.40176903487213234,
                0.16016356947359323,
                -0.38830366343584166,
                1.139565139105879
            ]
        },
        {
            "positions": [
                0.6226338327556631,
                -0.97416388406065,
                -0.32188221964860975,
                0.2500959152394666,
                -0.32605928293214537,
                1.1762780565785356
            ]
        },
        {
            "positions": [
                0.5187853973202968,
                -0.9606550962588618,
                -0.24199540442508663,
                0.34002826100534045,
                -0.2638149024284492,
                1.2129909740511926
            ]
        },
        {
            "positions": [
                0.485934425509344,
                -0.9692450720712091,
                -0.13029194044522774,
                0.298654721640312,
                -0.24886036250779314,
                1.0297019254371669
            ]
        },
        {
            "positions": [
                0.4530834536983912,
                -0.9778350478835565,
                -0.018588476465368875,
                0.2572811822752835,
                -0.23390582258713713,
                0.846412876823141
            ]
        },
        {
            "positions": [
                0.42023248188743845,
                -0.9864250236959038,
                0.09311498751449002,
                0.2159076429102551,
                -0.2189512826664811,
                0.6631238282091152
            ]
        },
        {
            "positions": [
                0.38738151007648564,
                -0.9950149995082511,
                0.20481845149434888,
                0.17453410354522664,
                -0.20399674274582508,
                0.47983477959508947
            ]
        },
        {
            "positions": [
                0.3545305382655328,
                -1.0036049753205984,
                0.3165219154742078,
                0.13316056418019817,
                -0.18904220282516904,
                0.29654573098106374
            ]
        },
        {
            "positions": [
                0.32167956645458007,
                -1.0121949511329458,
                0.4282253794540667,
                0.09178702481516973,
                -0.174087662904513,
                0.11325668236703779
            ]
        },
        {
            "positions": [
                0.28882859464362726,
                -1.020784926945293,
                0.5399288434339256,
                0.05041348545014129,
                -0.15913312298385696,
                -0.07003236624698794
            ]
        },
        {
            "positions": [
                0.25597762283267445,
                -1.0293749027576404,
                0.6516323074137844,
                0.009039946085112827,
                -0.14417858306320094,
                -0.25332141486101367
            ]
        },
        {
            "positions": [
                0.22312665102172163,
                -1.0379648785699878,
                0.7633357713936434,
                -0.03233359327991564,
                -0.1292240431425449,
                -0.4366104634750394
            ]
        },
        {
            "positions": [
                0.19027567921076882,
                -1.046554854382335,
                0.8750392353735023,
                -0.0737071326449441,
                -0.11426950322188889,
                -0.6198995120890651
            ]
        },
        {
            "positions": [
                0.15742470739981607,
                -1.0551448301946824,
                0.9867426993533611,
                -0.11508067200997252,
                -0.09931496330123285,
                -0.8031885607030911
            ]
        },
        {
            "positions": [
                0.12457373558886325,
                -1.0637348060070297,
                1.0984461633332199,
                -0.15645421137500098,
                -0.08436042338057681,
                -0.986477609317117
            ]
        },
        {
            "positions": [
                0.09172276377791044,
                -1.072324781819377,
                1.2101496273130787,
                -0.19782775074002945,
                -0.0694058834599208,
                -1.1697666579311425
            ]
        },
        {
            "positions": [
                0.05887179196695769,
                -1.0809147576317244,
                1.3218530912929376,
                -0.23920129010505786,
                -0.05445134353926476,
                -1.3530557065451685
            ]
        },
        {
            "positions": [
                0.026020820156004876,
                -1.0895047334440717,
                1.4335565552727965,
                -0.2805748294700864,
                -0.039496803618608745,
                -1.536344755159194
            ]
        },
        {
            "positions": [
                -0.0068301516549479635,
                -1.098094709256419,
                1.5452600192526553,
                -0.32194836883511474,
                -0.024542263697952718,
                -1.71963380377322
            ]
        },
        {
            "positions": [
                0.007474569878024162,
                -1.103371092823721,
                1.6049339430331337,
                -0.3760525206872649,
                -0.005598819367381998,
                -1.9224023536819739
            ]
        },
        {
            "positions": [
                0.02177929141099629,
                -1.1086474763910232,
                1.6646078668136122,
                -0.43015667253941503,
                0.013344624963188723,
                -2.125170903590728
            ]
        },
        {
            "positions": [
                0.036084012943968416,
                -1.1139238599583252,
                1.7242817905940906,
                -0.48426082439156526,
                0.03228806929375944,
                -2.3279394534994813
            ]
        },
        {
            "positions": [
                0.05038873447694054,
                -1.1192002435256272,
                1.783955714374569,
                -0.5383649762437154,
                0.05123151362433016,
                -2.530708003408235
            ]
        },
        {
            "positions": [
                0.06469345600991268,
                -1.1244766270929294,
                1.8436296381550474,
                -0.5924691280958656,
                0.07017495795490089,
                -2.733476553316989
            ]
        },
        {
            "positions": [
                0.0789981775428848,
                -1.1297530106602314,
                1.9033035619355259,
                -0.6465732799480157,
                0.0891184022854716,
                -2.936245103225743
            ]
        },
        {
            "positions": [
                0.10057430138161533,
                -1.1309056905820207,
                1.9306714549241697,
                -0.6830265328369107,
                0.11000218860462227,
                -3.0872533679565617
            ]
        },
        {
            "positions": [
                0.12215042522034586,
                -1.13205837050381,
                1.9580393479128138,
                -0.7194797857258057,
                0.13088597492377294,
                -3.23826163268738
            ]
        }
    ]
}