{
    "goal": {
        "global_pose": {
            "orientation": {
                "w": 0.7031023502349854,
                "x": -0.7110244035720825,
                "y": 0.007748599164187908,
                "z": 0.005598929710686207
            },
            "position": {
                "x": 0.11585023208521307,
                "y": 0.44412534475326537,
                "z": 0.3711530566215515
            }
        },
        "name": "move_to_auspresseinheit_A"
    },
    "id": "SPARStwo_move_to_auspresseinheit_A_44",
    "joint_names": [
        "shoulder_pan_joint",
        "shoulder_lift_joint",
        "elbow_joint",
        "wrist_1_joint",
        "wrist_2_joint",
        "wrist_3_joint"
    ],
    "metrics": {
        "cart_traj_len": 0.9514359691563776,
        "distance_elbow_joint": 0.12676046217936854,
        "distance_shoulder_lift_joint": 0.5350008947605145,
        "distance_shoulder_pan_joint": 1.6538212390982747,
        "distance_wrist_1_joint": 0.5912906741467019,
        "distance_wrist_2_joint": 0.5094848762550924,
        "distance_wrist_3_joint": 0.03092097746556588,
        "smoothness": 1.1320780936813077,
        "time": 5.013400733,
        "traj_len": 1.856684982409649,
        "weighted_distance": 2.147066982941716
    },
    "planner": "SPARStwo",
    "start": {
        "state": {
            "elbow_joint": 2.4225746658250005,
            "shoulder_lift_joint": -1.3736534386056498,
            "shoulder_pan_joint": -0.3378633547517467,
            "wrist_1_joint": -1.0288598680537169,
            "wrist_2_joint": 1.233022673432363,
            "wrist_3_joint": -3.0940220416140027
        }
    },
    "waypoints": [
        {
            "positions": [
                -0.3378633547517467,
                -1.3736534386056498,
                2.4225746658250005,
                -1.0288598680537169,
                1.233022673432363,
                -3.0940220416140027
            ]
        },
        {
            "positions": [
                -0.4386709361030889,
                -1.504470215911541,
                2.439084000633695,
                -1.0344982631986936,
                1.2027297022648382,
                -3.098203523390803
            ]
        },
        {
            "positions": [
                -0.5394785174544311,
                -1.6352869932174323,
                2.4555933354423893,
                -1.0401366583436704,
                1.1724367310973134,
                -3.1023850051676036
            ]
        },
        {
            "positions": [
                -0.6402860988057733,
                -1.7661037705233236,
                2.472102670251084,
                -1.0457750534886472,
                1.1421437599297886,
                -3.106566486944404
            ]
        },
        {
            "positions": [
                -0.44722917094230924,
                -1.7864681366437294,
                2.461069462000615,
                -0.9637214122441085,
                1.0823429081080003,
                -3.109191705820856
            ]
        },
        {
            "positions": [
                -0.25417224307884523,
                -1.8068325027641352,
                2.450036253750145,
                -0.8816677709995696,
                1.022542056286212,
                -3.111816924697308
            ]
        },
        {
            "positions": [
                -0.06111531521538127,
                -1.827196868884541,
                2.439003045499676,
                -0.7996141297550308,
                0.9627412044644237,
                -3.1144421435737604
            ]
        },
        {
            "positions": [
                0.1319416126480828,
                -1.8475612350049468,
                2.427969837249207,
                -0.717560488510492,
                0.9029403526426355,
                -3.117067362450212
            ]
        },
        {
            "positions": [
                0.32499854051154686,
                -1.8679256011253527,
                2.4169366289987377,
                -0.6355068472659532,
                0.8431395008208471,
                -3.1196925813266643
            ]
        },
        {
            "positions": [
                0.5180554683750107,
                -1.8882899672457585,
                2.405903420748268,
                -0.5534532060214145,
                0.7833386489990589,
                -3.1223178002031164
            ]
        },
        {
            "positions": [
                0.7111123962384749,
                -1.9086543333661643,
                2.394870212497799,
                -0.47139956477687556,
                0.7235377971772706,
                -3.1249430190795686
            ]
        }
    ]
}