{
    "goal": {
        "global_pose": {
            "orientation": {
                "w": -0.4816463035849501,
                "x": 0.5182115481033762,
                "y": 0.4908360881923453,
                "z": -0.5084816262002911
            },
            "position": {
                "x": -0.8240239810943604,
                "y": 0.19912469901144506,
                "z": 0.16403168439865112
            }
        },
        "name": "move_to_storage_D"
    },
    "id": "SPARS_move_to_storage_D_44",
    "joint_names": [
        "shoulder_pan_joint",
        "shoulder_lift_joint",
        "elbow_joint",
        "wrist_1_joint",
        "wrist_2_joint",
        "wrist_3_joint"
    ],
    "metrics": {
        "cart_traj_len": 3.7756409454216815,
        "distance_elbow_joint": 4.211262957563081,
        "distance_shoulder_lift_joint": 1.5313703897781166,
        "distance_shoulder_pan_joint": 2.8122936201906574,
        "distance_wrist_1_joint": 2.2702495187725398,
        "distance_wrist_2_joint": 1.4460143710315814,
        "distance_wrist_3_joint": 3.4498261351565964,
        "smoothness": 0.17471805896393133,
        "time": 5.060104707,
        "traj_len": 3.964973769458327,
        "weighted_distance": 5.1319521775451005
    },
    "planner": "SPARS",
    "start": {
        "state": {
            "elbow_joint": -2.384821988534728,
            "shoulder_lift_joint": -2.2788054721415256,
            "shoulder_pan_joint": -0.1854694642142757,
            "wrist_1_joint": 1.4845938289331202,
            "wrist_2_joint": 0.17898776772866878,
            "wrist_3_joint": 0.037105688729662994
        }
    },
    "waypoints": [
        {
            "positions": [
                -0.1854694642142757,
                -2.2788054721415256,
                -2.384821988534728,
                1.4845938289331202,
                0.17898776772866878,
                0.037105688729662994
            ]
        },
        {
            "positions": [
                -0.04834109981976889,
                -2.224494503304173,
                -2.3820501833843872,
                1.4525096906547172,
                0.10686964573022754,
                0.0758878001399191
            ]
        },
        {
            "positions": [
                0.08878726457473793,
                -2.1701835344668203,
                -2.379278378234046,
                1.4204255523763143,
                0.034751523731786305,
                0.1146699115501752
            ]
        },
        {
            "positions": [
                0.22591562896924475,
                -2.1158725656294677,
                -2.3765065730837054,
                1.3883414140979113,
                -0.03736659826665492,
                0.1534520229604313
            ]
        },
        {
            "positions": [
                0.3630439933637516,
                -2.061561596792115,
                -2.3737347679333647,
                1.3562572758195084,
                -0.10948472026509617,
                0.1922341343706874
            ]
        },
        {
            "positions": [
                0.4338832242223634,
                -2.0222010944529174,
                -2.273778520143937,
                1.2957638196099306,
                -0.08532352613261412,
                0.09230057070003132
            ]
        },
        {
            "positions": [
                0.5047224550809752,
                -1.9828405921137202,
                -2.173822272354509,
                1.235270363400353,
                -0.06116233200013206,
                -0.007632992970624752
            ]
        },
        {
            "positions": [
                0.575561685939587,
                -1.9434800897745226,
                -2.0738660245650813,
                1.1747769071907752,
                -0.03700113786765001,
                -0.10756655664128087
            ]
        },
        {
            "positions": [
                0.6464009167981988,
                -1.9041195874353252,
                -1.9739097767756535,
                1.1142834509811974,
                -0.012839943735167947,
                -0.2075001203119369
            ]
        },
        {
            "positions": [
                0.7172401476568107,
                -1.8647590850961278,
                -1.8739535289862257,
                1.0537899947716198,
                0.011321250397314103,
                -0.30743368398259296
            ]
        },
        {
            "positions": [
                0.7880793785154224,
                -1.8253985827569301,
                -1.773997281196798,
                0.993296538562042,
                0.03548244452979615,
                -0.40736724765324916
            ]
        },
        {
            "positions": [
                0.8589186093740342,
                -1.7860380804177327,
                -1.67404103340737,
                0.9328030823524642,
                0.0596436386622782,
                -0.5073008113239053
            ]
        },
        {
            "positions": [
                0.9297578402326461,
                -1.7466775780785353,
                -1.5740847856179423,
                0.8723096261428867,
                0.08380483279476028,
                -0.6072343749945612
            ]
        },
        {
            "positions": [
                1.0005970710912577,
                -1.7073170757393379,
                -1.4741285378285145,
                0.8118161699333089,
                0.10796602692724233,
                -0.7071679386652173
            ]
        },
        {
            "positions": [
                1.0714363019498696,
                -1.6679565734001405,
                -1.374172290039087,
                0.7513227137237312,
                0.13212722105972438,
                -0.8071015023358734
            ]
        },
        {
            "positions": [
                1.1422755328084815,
                -1.6285960710609428,
                -1.2742160422496591,
                0.6908292575141535,
                0.1562884151922064,
                -0.9070350660065295
            ]
        },
        {
            "positions": [
                1.2131147636670931,
                -1.5892355687217454,
                -1.1742597944602313,
                0.6303358013045757,
                0.18044960932468848,
                -1.0069686296771856
            ]
        },
        {
            "positions": [
                1.2839539945257052,
                -1.549875066382548,
                -1.0743035466708035,
                0.5698423450949979,
                0.20461080345717056,
                -1.1069021933478416
            ]
        },
        {
            "positions": [
                1.354793225384317,
                -1.5105145640433504,
                -0.9743472988813757,
                0.5093488888854202,
                0.22877199758965258,
                -1.2068357570184978
            ]
        },
        {
            "positions": [
                1.4256324562429286,
                -1.471154061704153,
                -0.8743910510919479,
                0.4488554326758425,
                0.2529331917221347,
                -1.3067693206891537
            ]
        },
        {
            "positions": [
                1.4964716871015407,
                -1.4317935593649556,
                -0.7744348033025201,
                0.3883619764662648,
                0.27709438585461676,
                -1.4067028843598097
            ]
        },
        {
            "positions": [
                1.5673109179601523,
                -1.392433057025758,
                -0.6744785555130923,
                0.3278685202566871,
                0.30125557998709873,
                -1.506636448030466
            ]
        },
        {
            "positions": [
                1.638150148818764,
                -1.3530725546865607,
                -0.5745223077236645,
                0.2673750640471093,
                0.3254167741195808,
                -1.606570011701122
            ]
        },
        {
            "positions": [
                1.7089893796773756,
                -1.313712052347363,
                -0.47456605993423695,
                0.20688160783753173,
                0.3495779682520629,
                -1.7065035753717779
            ]
        },
        {
            "positions": [
                1.7798286105359877,
                -1.2743515500081657,
                -0.37460981214480915,
                0.14638815162795393,
                0.37373916238454497,
                -1.806437139042434
            ]
        },
        {
            "positions": [
                1.8506678413945994,
                -1.2349910476689683,
                -0.27465356435538135,
                0.08589469541837613,
                0.39790035651702704,
                -1.9063707027130903
            ]
        },
        {
            "positions": [
                1.921507072253211,
                -1.1956305453297706,
                -0.17469731656595355,
                0.025401239208798554,
                0.422061550649509,
                -2.0063042663837463
            ]
        },
        {
            "positions": [
                1.9923463031118231,
                -1.156270042990573,
                -0.07474106877652531,
                -0.03509221700077947,
                0.4462227447819912,
                -2.1062378300544027
            ]
        },
        {
            "positions": [
                2.063185533970435,
                -1.1169095406513758,
                0.025215179012902045,
                -0.09558567321035705,
                0.47038393891447317,
                -2.2061713937250587
            ]
        },
        {
            "positions": [
                2.134024764829047,
                -1.0775490383121782,
                0.12517142680232984,
                -0.15607912941993485,
                0.49454513304695524,
                -2.3061049573957146
            ]
        },
        {
            "positions": [
                2.2048639956876586,
                -1.0381885359729808,
                0.22512767459175764,
                -0.21657258562951265,
                0.5187063271794373,
                -2.4060385210663706
            ]
        },
        {
            "positions": [
                2.27570322654627,
                -0.9988280336337834,
                0.32508392238118544,
                -0.2770660418390902,
                0.5428675213119194,
                -2.5059720847370266
            ]
        },
        {
            "positions": [
                2.3465424574048823,
                -0.9594675312945857,
                0.42504017017061324,
                -0.337559498048668,
                0.5670287154444014,
                -2.605905648407683
            ]
        },
        {
            "positions": [
                2.417381688263494,
                -0.9201070289553883,
                0.524996417960041,
                -0.3980529542582456,
                0.5911899095768834,
                -2.705839212078339
            ]
        },
        {
            "positions": [
                2.4882209191221056,
                -0.8807465266161909,
                0.6249526657494688,
                -0.4585464104678235,
                0.6153511037093655,
                -2.805772775748995
            ]
        },
        {
            "positions": [
                2.5080213815298595,
                -0.8997910186523026,
                0.7965938519321665,
                -0.5052763075209087,
                0.6771662550041305,
                -2.848157172805551
            ]
        },
        {
            "positions": [
                2.527821843937613,
                -0.9188355106884143,
                0.9682350381148641,
                -0.5520062045739939,
                0.7389814062988955,
                -2.8905415698621066
            ]
        },
        {
            "positions": [
                2.547622306345367,
                -0.937880002724526,
                1.1398762242975615,
                -0.598736101627079,
                0.8007965575936605,
                -2.9329259669186625
            ]
        },
        {
            "positions": [
                2.5674227687531204,
                -0.9569244947606377,
                1.3115174104802594,
                -0.6454659986801643,
                0.8626117088884255,
                -2.975310363975218
            ]
        },
        {
            "positions": [
                2.5872232311608743,
                -0.9759689867967494,
                1.4831585966629568,
                -0.6921958957332495,
                0.9244268601831906,
                -3.0176947610317737
            ]
        },
        {
            "positions": [
                2.6070236935686277,
                -0.9950134788328611,
                1.6547997828456544,
                -0.7389257927863346,
                0.9862420114779555,
                -3.0600791580883295
            ]
        },
        {
            "positions": [
                2.6268241559763816,
                -1.0140579708689728,
                1.826440969028352,
                -0.7856556898394198,
                1.0480571627727207,
                -3.1024635551448854
            ]
        }
    ]
}