{
    "goal": {
        "global_pose": {
            "orientation": {
                "w": 0.7047431468963623,
                "x": -0.7094548344612122,
                "y": 0.0024358443915843964,
                "z": -0.0022348060738295317
            },
            "position": {
                "x": 0.6094750761985779,
                "y": 0.3671506643295288,
                "z": 0.19426114857196808
            }
        },
        "name": "move_to_magneteinheit_A"
    },
    "id": "SPARS_move_to_magneteinheit_A_103",
    "joint_names": [
        "shoulder_pan_joint",
        "shoulder_lift_joint",
        "elbow_joint",
        "wrist_1_joint",
        "wrist_2_joint",
        "wrist_3_joint"
    ],
    "metrics": {
        "cart_traj_len": 2.9146273655669006,
        "distance_elbow_joint": 3.91115373401383,
        "distance_shoulder_lift_joint": 1.039922204042193,
        "distance_shoulder_pan_joint": 2.7295099289149727,
        "distance_wrist_1_joint": 3.45936884584873,
        "distance_wrist_2_joint": 2.258212923440178,
        "distance_wrist_3_joint": 1.6987128972230525,
        "smoothness": 0.26953882206111035,
        "time": 5.069677649,
        "traj_len": 3.8854704391467134,
        "weighted_distance": 4.920557701848233
    },
    "planner": "SPARS",
    "start": {
        "state": {
            "elbow_joint": -1.9196185241190666,
            "shoulder_lift_joint": -1.2443396400964142,
            "shoulder_pan_joint": 2.6996025414629847,
            "wrist_1_joint": -1.5485510000780065,
            "wrist_2_joint": -1.5709468930060704,
            "wrist_3_joint": 0.4420197071253992
        }
    },
    "waypoints": [
        {
            "positions": [
                2.6996025414629847,
                -1.2443396400964142,
                -1.9196185241190666,
                -1.5485510000780065,
                -1.5709468930060704,
                0.4420197071253992
            ]
        },
        {
            "positions": [
                2.5758640877926404,
                -1.2594057758393908,
                -1.773136439722274,
                -1.5124164292857132,
                -1.5923406385579264,
                0.39049710850890446
            ]
        },
        {
            "positions": [
                2.452125634122296,
                -1.2744719115823677,
                -1.6266543553254813,
                -1.47628185849342,
                -1.6137343841097822,
                0.33897450989240974
            ]
        },
        {
            "positions": [
                2.3283871804519514,
                -1.2895380473253444,
                -1.4801722709286886,
                -1.4401472877011268,
                -1.6351281296616382,
                0.2874519112759151
            ]
        },
        {
            "positions": [
                2.204648726781607,
                -1.3046041830683213,
                -1.333690186531896,
                -1.4040127169088334,
                -1.6565218752134943,
                0.23592931265942033
            ]
        },
        {
            "positions": [
                2.0809102731112628,
                -1.319670318811298,
                -1.1872081021351033,
                -1.3678781461165403,
                -1.67791562076535,
                0.18440671404292563
            ]
        },
        {
            "positions": [
                1.9571718194409184,
                -1.3347364545542748,
                -1.0407260177383106,
                -1.331743575324247,
                -1.699309366317206,
                0.13288411542643092
            ]
        },
        {
            "positions": [
                1.8334333657705741,
                -1.3498025902972515,
                -0.894243933341518,
                -1.2956090045319537,
                -1.7207031118690619,
                0.0813615168099362
            ]
        },
        {
            "positions": [
                1.7096949121002296,
                -1.3648687260402284,
                -0.7477618489447253,
                -1.2594744337396606,
                -1.742096857420918,
                0.029838918193441477
            ]
        },
        {
            "positions": [
                1.585956458429885,
                -1.379934861783205,
                -0.6012797645479326,
                -1.2233398629473673,
                -1.763490602972774,
                -0.021683680423053242
            ]
        },
        {
            "positions": [
                1.4622180047595408,
                -1.395000997526182,
                -0.45479768015113997,
                -1.187205292155074,
                -1.7848843485246297,
                -0.0732062790395479
            ]
        },
        {
            "positions": [
                1.3384795510891963,
                -1.4100671332691586,
                -0.3083155957543471,
                -1.1510707213627809,
                -1.8062780940764858,
                -0.12472887765604268
            ]
        },
        {
            "positions": [
                1.214741097418852,
                -1.4251332690121354,
                -0.16183351135755464,
                -1.1149361505704876,
                -1.8276718396283416,
                -0.17625147627253734
            ]
        },
        {
            "positions": [
                1.0910026437485074,
                -1.440199404755112,
                -0.01535142696076175,
                -1.0788015797781942,
                -1.8490655851801976,
                -0.22777407488903212
            ]
        },
        {
            "positions": [
                0.9672641900781633,
                -1.455265540498089,
                0.1311306574360307,
                -1.0426670089859011,
                -1.8704593307320536,
                -0.2792966735055268
            ]
        },
        {
            "positions": [
                0.8435257364078188,
                -1.4703316762410656,
                0.2776127418328236,
                -1.0065324381936076,
                -1.8918530762839096,
                -0.33081927212202156
            ]
        },
        {
            "positions": [
                0.7197872827374745,
                -1.4853978119840425,
                0.42409482622961603,
                -0.9703978674013145,
                -1.9132468218357654,
                -0.3823418707385162
            ]
        },
        {
            "positions": [
                0.5960488290671297,
                -1.5004639477270192,
                0.5705769106264089,
                -0.9342632966090213,
                -1.9346405673876215,
                -0.433864469355011
            ]
        },
        {
            "positions": [
                0.47231037539678544,
                -1.5155300834699958,
                0.7170589950232014,
                -0.8981287258167281,
                -1.9560343129394773,
                -0.48538706797150566
            ]
        },
        {
            "positions": [
                0.34857192172644125,
                -1.5305962192129727,
                0.8635410794199945,
                -0.8619941550244348,
                -1.9774280584913333,
                -0.5369096665880004
            ]
        },
        {
            "positions": [
                0.3317596005841102,
                -1.5123017788557436,
                0.9254094868593773,
                -0.7137115951162245,
                -1.8754173612869323,
                -0.5013198092246768
            ]
        },
        {
            "positions": [
                0.31494727944177914,
                -1.4940073384985144,
                0.98727789429876,
                -0.5654290352080144,
                -1.7734066640825312,
                -0.4657299518613532
            ]
        },
        {
            "positions": [
                0.29813495829944814,
                -1.4757128981412855,
                1.0491463017381428,
                -0.41714647529980414,
                -1.6713959668781302,
                -0.4301400944980296
            ]
        },
        {
            "positions": [
                0.2813226371571171,
                -1.4574184577840563,
                1.1110147091775255,
                -0.26886391539159393,
                -1.5693852696737292,
                -0.39455023713470594
            ]
        },
        {
            "positions": [
                0.26451031601478603,
                -1.4391240174268272,
                1.1728831166169085,
                -0.12058135548338367,
                -1.467374572469328,
                -0.3589603797713823
            ]
        },
        {
            "positions": [
                0.24769799487245497,
                -1.420829577069598,
                1.2347515240562912,
                0.027701204424826487,
                -1.365363875264927,
                -0.32337052240805875
            ]
        },
        {
            "positions": [
                0.23088567373012392,
                -1.4025351367123688,
                1.296619931495674,
                0.17598376433303686,
                -1.2633531780605258,
                -0.2877806650447351
            ]
        },
        {
            "positions": [
                0.2140733525877929,
                -1.3842406963551397,
                1.3584883389350568,
                0.3242663242412469,
                -1.161342480856125,
                -0.2521908076814115
            ]
        },
        {
            "positions": [
                0.19726103144546184,
                -1.3659462559979105,
                1.4203567463744395,
                0.47254888414945717,
                -1.0593317836517238,
                -0.21660095031808785
            ]
        },
        {
            "positions": [
                0.18044871030313078,
                -1.3476518156406816,
                1.4822251538138222,
                0.6208314440576674,
                -0.9573210864473227,
                -0.1810110929547642
            ]
        },
        {
            "positions": [
                0.16363638916079973,
                -1.3293573752834524,
                1.5440935612532052,
                0.7691140039658777,
                -0.8553103892429217,
                -0.1454212355914406
            ]
        },
        {
            "positions": [
                0.1468240680184687,
                -1.3110629349262233,
                1.605961968692588,
                0.9173965638740877,
                -0.7532996920385209,
                -0.109831378228117
            ]
        },
        {
            "positions": [
                0.13001174687613765,
                -1.2927684945689941,
                1.6678303761319708,
                1.065679123782298,
                -0.6512889948341196,
                -0.07424152086479335
            ]
        },
        {
            "positions": [
                0.11319942573380662,
                -1.274474054211765,
                1.7296987835713535,
                1.2139616836905085,
                -0.5492782976297186,
                -0.03865166350146976
            ]
        },
        {
            "positions": [
                0.09638710459147554,
                -1.256179613854536,
                1.7915671910107362,
                1.3622442435987185,
                -0.44726760042531755,
                -0.003061806138146106
            ]
        },
        {
            "positions": [
                0.07957478344914454,
                -1.2378851734973069,
                1.853435598450119,
                1.5105268035069286,
                -0.34525690322091673,
                0.032528051225177435
            ]
        },
        {
            "positions": [
                0.06276246230681348,
                -1.2195907331400777,
                1.915304005889502,
                1.6588093634151386,
                -0.24324620601651548,
                0.06811790858850109
            ]
        },
        {
            "positions": [
                0.04595014116448245,
                -1.2012962927828486,
                1.9771724133288846,
                1.8070919233233491,
                -0.14123550881211439,
                0.10370776595182472
            ]
        },
        {
            "positions": [
                0.08387890547271579,
                -0.9891134435350935,
                1.984353811611824,
                1.8589548845470363,
                -0.13346590467426633,
                0.06412472046691052
            ]
        },
        {
            "positions": [
                0.12180766978094912,
                -0.7769305942873383,
                1.9915352098947634,
                1.9108178457707232,
                -0.12569630053641828,
                0.024541674981996317
            ]
        }
    ]
}