{
    "goal": {
        "global_pose": {
            "orientation": {
                "w": 0.7031023502349854,
                "x": -0.7110244035720825,
                "y": 0.007748599164187908,
                "z": 0.005598929710686207
            },
            "position": {
                "x": 0.11585023208521307,
                "y": 0.44412534475326537,
                "z": 0.3711530566215515
            }
        },
        "name": "move_to_auspresseinheit_A"
    },
    "id": "SPARStwo_move_to_auspresseinheit_A_125",
    "joint_names": [
        "shoulder_pan_joint",
        "shoulder_lift_joint",
        "elbow_joint",
        "wrist_1_joint",
        "wrist_2_joint",
        "wrist_3_joint"
    ],
    "metrics": {
        "cart_traj_len": 0.7334215413940032,
        "distance_elbow_joint": 0.049339859509547335,
        "distance_shoulder_lift_joint": 0.544107040997938,
        "distance_shoulder_pan_joint": 1.1123943038019775,
        "distance_wrist_1_joint": 0.6568197826715956,
        "distance_wrist_2_joint": 0.6013049043273605,
        "distance_wrist_3_joint": 0.04366508249756418,
        "smoothness": 2.419297354604429,
        "time": 5.0423888020000005,
        "traj_len": 1.7342522808997494,
        "weighted_distance": 2.086405000425389
    },
    "planner": "SPARStwo",
    "start": {
        "state": {
            "elbow_joint": 2.4225746658250005,
            "shoulder_lift_joint": -1.3736534386056498,
            "shoulder_pan_joint": -0.3378633547517467,
            "wrist_1_joint": -1.0288598680537169,
            "wrist_2_joint": 1.233022673432363,
            "wrist_3_joint": -3.0940220416140027
        }
    },
    "waypoints": [
        {
            "positions": [
                -0.3378633547517467,
                -1.3736534386056498,
                2.4225746658250005,
                -1.0288598680537169,
                1.233022673432363,
                -3.0940220416140027
            ]
        },
        {
            "positions": [
                -0.20305608987766688,
                -1.4411169368337673,
                2.417561195518839,
                -0.952133932326471,
                1.1627027759756439,
                -3.0967521023452647
            ]
        },
        {
            "positions": [
                -0.06824882500358703,
                -1.508580435061885,
                2.4125477252126775,
                -0.8754079965992252,
                1.0923828785189247,
                -3.0994821630765266
            ]
        },
        {
            "positions": [
                0.06655843987049281,
                -1.5760439332900025,
                2.4075342549065164,
                -0.7986820608719795,
                1.0220629810622055,
                -3.102212223807789
            ]
        },
        {
            "positions": [
                0.20136570474457266,
                -1.64350743151812,
                2.402520784600355,
                -0.7219561251447336,
                0.9517430836054863,
                -3.104942284539051
            ]
        },
        {
            "positions": [
                0.33617296961865256,
                -1.7109709297462374,
                2.3975073142941934,
                -0.6452301894174878,
                0.8814231861487671,
                -3.1076723452703128
            ]
        },
        {
            "positions": [
                0.47098023449273235,
                -1.778434427974355,
                2.3924938439880323,
                -0.568504253690242,
                0.811103288692048,
                -3.110402406001575
            ]
        },
        {
            "positions": [
                0.6057874993668122,
                -1.8458979262024726,
                2.387480373681871,
                -0.4917783179629962,
                0.7407833912353288,
                -3.113132466732837
            ]
        },
        {
            "positions": [
                0.7405947642408921,
                -1.91336142443059,
                2.3824669033757093,
                -0.41505238223575036,
                0.6704634937786096,
                -3.115862527464099
            ]
        },
        {
            "positions": [
                0.7066585794315534,
                -1.9089623692575923,
                2.3916990004359655,
                -0.4580646790893794,
                0.7092092184522166,
                -3.137687124111567
            ]
        }
    ]
}