{
    "goal": {
        "global_pose": {
            "orientation": {
                "w": -0.4816463035849501,
                "x": 0.5182115481033762,
                "y": 0.4908360881923453,
                "z": -0.5084816262002911
            },
            "position": {
                "x": -0.8240239810943604,
                "y": 0.19912469901144506,
                "z": 0.16403168439865112
            }
        },
        "name": "move_to_storage_D"
    },
    "id": "SPARS_move_to_storage_D_38",
    "joint_names": [
        "shoulder_pan_joint",
        "shoulder_lift_joint",
        "elbow_joint",
        "wrist_1_joint",
        "wrist_2_joint",
        "wrist_3_joint"
    ],
    "metrics": {
        "cart_traj_len": 1.4366611243240384,
        "distance_elbow_joint": 1.1454038169881309,
        "distance_shoulder_lift_joint": 0.977738431574156,
        "distance_shoulder_pan_joint": 0.8014957045170737,
        "distance_wrist_1_joint": 4.104709529553297,
        "distance_wrist_2_joint": 1.7820205297379583,
        "distance_wrist_3_joint": 3.1552728318095102,
        "smoothness": 0.23991640276839224,
        "time": 5.062261843,
        "traj_len": 3.4592832847542456,
        "weighted_distance": 4.915680681969731
    },
    "planner": "SPARS",
    "start": {
        "state": {
            "elbow_joint": -2.384821988534728,
            "shoulder_lift_joint": -2.2788054721415256,
            "shoulder_pan_joint": -0.1854694642142757,
            "wrist_1_joint": 1.4845938289331202,
            "wrist_2_joint": 0.17898776772866878,
            "wrist_3_joint": 0.037105688729662994
        }
    },
    "waypoints": [
        {
            "positions": [
                -0.1854694642142757,
                -2.2788054721415256,
                -2.384821988534728,
                1.4845938289331202,
                0.17898776772866878,
                0.037105688729662994
            ]
        },
        {
            "positions": [
                -0.15747898730661847,
                -2.245214149790723,
                -2.3390620611102513,
                1.5311285315001002,
                0.13192956487127183,
                0.12677408588454464
            ]
        },
        {
            "positions": [
                -0.12948851039896123,
                -2.2116228274399203,
                -2.2933021336857746,
                1.57766323406708,
                0.08487136201387487,
                0.2164424830394263
            ]
        },
        {
            "positions": [
                -0.10149803349130397,
                -2.178031505089118,
                -2.247542206261298,
                1.62419793663406,
                0.0378131591564779,
                0.306110880194308
            ]
        },
        {
            "positions": [
                -0.07132396898772622,
                -2.1423580626089938,
                -2.1926158782256557,
                1.6008683664205796,
                -0.0404678522349948,
                0.4509408135543153
            ]
        },
        {
            "positions": [
                -0.041149904484148486,
                -2.1066846201288696,
                -2.1376895501900135,
                1.5775387962070992,
                -0.1187488636264675,
                0.5957707469143226
            ]
        },
        {
            "positions": [
                -0.01097583998057075,
                -2.0710111776487454,
                -2.0827632221543717,
                1.554209225993619,
                -0.1970298750179402,
                0.74060068027433
            ]
        },
        {
            "positions": [
                0.019198224523007,
                -2.0353377351686213,
                -2.0278368941187295,
                1.5308796557801387,
                -0.2753108864094129,
                0.8854306136343373
            ]
        },
        {
            "positions": [
                0.049372289026584734,
                -1.999664292688497,
                -1.9729105660830872,
                1.5075500855666584,
                -0.3535918978008856,
                1.0302605469943447
            ]
        },
        {
            "positions": [
                0.07954635353016247,
                -1.963990850208373,
                -1.9179842380474452,
                1.484220515353178,
                -0.4318729091923583,
                1.175090480354352
            ]
        },
        {
            "positions": [
                0.1097204180337402,
                -1.9283174077282488,
                -1.863057910011803,
                1.4608909451396979,
                -0.510153920583831,
                1.3199204137143592
            ]
        },
        {
            "positions": [
                0.13989448253731795,
                -1.8926439652481246,
                -1.808131581976161,
                1.4375613749262175,
                -0.5884349319753037,
                1.4647503470743666
            ]
        },
        {
            "positions": [
                0.1700685470408957,
                -1.8569705227680005,
                -1.7532052539405187,
                1.4142318047127371,
                -0.6667159433667764,
                1.609580280434374
            ]
        },
        {
            "positions": [
                0.20024261154447343,
                -1.8212970802878763,
                -1.6982789259048765,
                1.3909022344992568,
                -0.7449969547582491,
                1.7544102137943813
            ]
        },
        {
            "positions": [
                0.23041667604805116,
                -1.7856236378077521,
                -1.6433525978692345,
                1.3675726642857766,
                -0.8232779661497218,
                1.8992401471543885
            ]
        },
        {
            "positions": [
                0.2605907405516289,
                -1.749950195327628,
                -1.5884262698335925,
                1.3442430940722963,
                -0.9015589775411945,
                2.044070080514396
            ]
        },
        {
            "positions": [
                0.29076480505520663,
                -1.7142767528475038,
                -1.5334999417979502,
                1.3209135238588159,
                -0.9798399889326672,
                2.1889000138744032
            ]
        },
        {
            "positions": [
                0.2704359653522322,
                -1.7401023598650123,
                -1.5518800524386598,
                1.0920497107914964,
                -1.018789537249956,
                2.2516174205409514
            ]
        },
        {
            "positions": [
                0.2501071256492577,
                -1.7659279668825205,
                -1.5702601630793693,
                0.8631858977241769,
                -1.057739085567245,
                2.3143348272074995
            ]
        },
        {
            "positions": [
                0.22977828594628324,
                -1.791753573900029,
                -1.5886402737200789,
                0.6343220846568572,
                -1.0966886338845339,
                2.3770522338740476
            ]
        },
        {
            "positions": [
                0.20944944624330877,
                -1.8175791809175372,
                -1.6070203843607884,
                0.40545827158953773,
                -1.1356381822018229,
                2.4397696405405958
            ]
        },
        {
            "positions": [
                0.1891206065403343,
                -1.8434047879350457,
                -1.6254004950014982,
                0.1765944585222181,
                -1.1745877305191117,
                2.502487047207144
            ]
        },
        {
            "positions": [
                0.16879176683735986,
                -1.8692303949525542,
                -1.6437806056422077,
                -0.0522693545451014,
                -1.2135372788364007,
                2.565204453873692
            ]
        },
        {
            "positions": [
                0.1484629271343854,
                -1.8950560019700624,
                -1.6621607162829173,
                -0.2811331676124209,
                -1.2524868271536895,
                2.62792186054024
            ]
        },
        {
            "positions": [
                0.12813408743141091,
                -1.9208816089875709,
                -1.6805408269236268,
                -0.5099969806797404,
                -1.2914363754709783,
                2.6906392672067883
            ]
        },
        {
            "positions": [
                0.10780524772843644,
                -1.9467072160050793,
                -1.6989209375643364,
                -0.7388607937470599,
                -1.3303859237882674,
                2.7533566738733364
            ]
        },
        {
            "positions": [
                0.08747640802546197,
                -1.9725328230225876,
                -1.717301048205046,
                -0.9677246068143797,
                -1.3693354721055564,
                2.8160740805398845
            ]
        },
        {
            "positions": [
                0.06714756832248753,
                -1.998358430040096,
                -1.7356811588457555,
                -1.196588419881699,
                -1.4082850204228452,
                2.8787914872064326
            ]
        },
        {
            "positions": [
                0.046818728619513056,
                -2.0241840370576045,
                -1.7540612694864652,
                -1.4254522329490187,
                -1.447234568740134,
                2.9415088938729808
            ]
        },
        {
            "positions": [
                0.026489888916538584,
                -2.0500096440751125,
                -1.7724413801271748,
                -1.654316046016338,
                -1.486184117057423,
                3.004226300539529
            ]
        },
        {
            "positions": [
                0.00616104921356414,
                -2.075835251092621,
                -1.7908214907678843,
                -1.8831798590836577,
                -1.5251336653747118,
                3.066943707206077
            ]
        },
        {
            "positions": [
                -0.014167790489410359,
                -2.1016608581101295,
                -1.8092016014085939,
                -2.112043672150977,
                -1.5640832136920007,
                3.129661113872625
            ]
        },
        {
            "positions": [
                -0.03449663019238478,
                -2.127486465127638,
                -1.8275817120493034,
                -2.3409074852182967,
                -1.6030327620092897,
                3.1923785205391733
            ]
        }
    ]
}