{
    "goal": {
        "global_pose": {
            "orientation": {
                "w": -0.00223480608172531,
                "x": 0.0024358444001904467,
                "y": 0.7094548369677653,
                "z": -0.704743149386269
            },
            "position": {
                "x": 0.6205249238014221,
                "y": -0.6371506643295288,
                "z": 0.19426114857196808
            }
        },
        "name": "move_to_magneteinheit_B"
    },
    "id": "SPARS_move_to_magneteinheit_B_116",
    "joint_names": [
        "shoulder_pan_joint",
        "shoulder_lift_joint",
        "elbow_joint",
        "wrist_1_joint",
        "wrist_2_joint",
        "wrist_3_joint"
    ],
    "metrics": {
        "cart_traj_len": 1.5381366021565797,
        "distance_elbow_joint": 0.9546553133026638,
        "distance_shoulder_lift_joint": 0.9917716999132318,
        "distance_shoulder_pan_joint": 1.6212439381416663,
        "distance_wrist_1_joint": 1.3027103093826136,
        "distance_wrist_2_joint": 1.5140944706549468,
        "distance_wrist_3_joint": 0.7510059945429461,
        "smoothness": 0.4924553432426769,
        "time": 5.076015106,
        "traj_len": 2.6712322485957802,
        "weighted_distance": 3.3844199643456667
    },
    "planner": "SPARS",
    "start": {
        "state": {
            "elbow_joint": 2.6216224122426386,
            "shoulder_lift_joint": -1.4174107377796124,
            "shoulder_pan_joint": 0.7066234856936794,
            "wrist_1_joint": 1.9546482284002225,
            "wrist_2_joint": -0.7096286983471962,
            "wrist_3_joint": 0.005740856962016249
        }
    },
    "waypoints": [
        {
            "positions": [
                0.7066234856936794,
                -1.4174107377796124,
                2.6216224122426386,
                1.9546482284002225,
                -0.7096286983471962,
                0.005740856962016249
            ]
        },
        {
            "positions": [
                0.6795647375213337,
                -1.440489890953198,
                2.611648282181105,
                1.844311436131263,
                -0.721213393714876,
                0.0917616804482463
            ]
        },
        {
            "positions": [
                0.6347931933410229,
                -1.4724342564366328,
                2.596342989042313,
                1.6965557861138563,
                -0.7327754287084347,
                0.1874439591519471
            ]
        },
        {
            "positions": [
                0.5900216491607121,
                -1.5043786219200674,
                2.581037695903521,
                1.5488001360964496,
                -0.7443374637019934,
                0.2831262378556479
            ]
        },
        {
            "positions": [
                0.5452501049804013,
                -1.5363229874035023,
                2.565732402764729,
                1.4010444860790428,
                -0.7558994986955521,
                0.37880851655934866
            ]
        },
        {
            "positions": [
                0.44792540115184204,
                -1.478132357384213,
                2.5058147158430786,
                1.4509849238831383,
                -0.8537544100493248,
                0.3536126275629744
            ]
        },
        {
            "positions": [
                0.3506006973232828,
                -1.4199417273649233,
                2.4458970289214284,
                1.500925361687234,
                -0.9516093214030975,
                0.32841673856660014
            ]
        },
        {
            "positions": [
                0.2532759934947236,
                -1.361751097345634,
                2.385979341999778,
                1.5508657994913295,
                -1.0494642327568702,
                0.3032208495702259
            ]
        },
        {
            "positions": [
                0.1559512896661644,
                -1.3035604673263443,
                2.326061655078128,
                1.600806237295425,
                -1.147319144110643,
                0.2780249605738516
            ]
        },
        {
            "positions": [
                0.05862658583760516,
                -1.245369837307055,
                2.2661439681564772,
                1.6507466750995208,
                -1.2451740554644157,
                0.2528290715774774
            ]
        },
        {
            "positions": [
                -0.03869811799095413,
                -1.1871792072877656,
                2.206226281234827,
                1.7006871129036163,
                -1.3430289668181885,
                0.22763318258110313
            ]
        },
        {
            "positions": [
                -0.1360228218195133,
                -1.128988577268476,
                2.1463085943131768,
                1.7506275507077118,
                -1.4408838781719613,
                0.2024372935847289
            ]
        },
        {
            "positions": [
                -0.23334752564807248,
                -1.0707979472491866,
                2.0863909073915266,
                1.8005679885118075,
                -1.538738789525734,
                0.17724140458835463
            ]
        },
        {
            "positions": [
                -0.33067222947663166,
                -1.012607317229897,
                2.0264732204698763,
                1.850508426315903,
                -1.6365937008795066,
                0.1520455155919804
            ]
        },
        {
            "positions": [
                -0.42799693330519095,
                -0.9544166872106077,
                1.966555533548226,
                1.9004488641199986,
                -1.7344486122332794,
                0.12684962659560617
            ]
        },
        {
            "positions": [
                -0.5253216371337501,
                -0.8962260571913183,
                1.9066378466265759,
                1.950389301924094,
                -1.832303523587052,
                0.10165373759923191
            ]
        },
        {
            "positions": [
                -0.6226463409623095,
                -0.8380354271720287,
                1.8467201597049256,
                2.0003297397281896,
                -1.930158434940825,
                0.07645784860285759
            ]
        },
        {
            "positions": [
                -0.7199710447908687,
                -0.7798447971527392,
                1.7868024727832754,
                2.0502701775322856,
                -2.028013346294598,
                0.05126195960648339
            ]
        },
        {
            "positions": [
                -0.8172957486194279,
                -0.7216541671334499,
                1.726884785861625,
                2.100210615336381,
                -2.1258682576483703,
                0.026066070610109127
            ]
        },
        {
            "positions": [
                -0.9146204524479871,
                -0.6634635371141604,
                1.6669670989399747,
                2.1501510531404766,
                -2.223723169002143,
                0.0008701816137348528
            ]
        }
    ]
}