{
    "goal": {
        "global_pose": {
            "orientation": {
                "w": 0.5084816217422485,
                "x": -0.49083608388900757,
                "y": 0.5182115435600281,
                "z": -0.4816462993621826
            },
            "position": {
                "x": 0.5540239810943604,
                "y": 0.030875300988554955,
                "z": 0.16403168439865112
            }
        },
        "name": "move_to_storage_A"
    },
    "id": "SPARS_move_to_storage_A_81",
    "joint_names": [
        "shoulder_pan_joint",
        "shoulder_lift_joint",
        "elbow_joint",
        "wrist_1_joint",
        "wrist_2_joint",
        "wrist_3_joint"
    ],
    "metrics": {
        "cart_traj_len": 0.3522715974788837,
        "distance_elbow_joint": 0.4521966299736213,
        "distance_shoulder_lift_joint": 0.23482394952585883,
        "distance_shoulder_pan_joint": 0.4615216303705825,
        "distance_wrist_1_joint": 0.2511961746517085,
        "distance_wrist_2_joint": 1.093983392166944,
        "distance_wrist_3_joint": 0.1028885731921938,
        "smoothness": 1.7763568394002505e-15,
        "time": 5.021573944,
        "traj_len": 1.6114001209758269,
        "weighted_distance": 2.0365576503217255
    },
    "planner": "SPARS",
    "start": {
        "state": {
            "elbow_joint": 1.971548259319323,
            "shoulder_lift_joint": -1.1394851275133948,
            "shoulder_pan_joint": 0.1228115487234821,
            "wrist_1_joint": -0.7804723859257726,
            "wrist_2_joint": 0.12958671773740124,
            "wrist_3_joint": -3.192489227718131
        }
    },
    "waypoints": [
        {
            "positions": [
                0.1228115487234821,
                -1.1394851275133948,
                1.971548259319323,
                -0.7804723859257726,
                0.12958671773740124,
                -3.192489227718131
            ]
        },
        {
            "positions": [
                0.05687988724197031,
                -1.173031406017089,
                2.036147777886983,
                -0.8163575537331595,
                0.2858700594755361,
                -3.1777908601192464
            ]
        },
        {
            "positions": [
                -0.009051774239541482,
                -1.206577684520783,
                2.100747296454643,
                -0.8522427215405465,
                0.44215340121367097,
                -3.1630924925203616
            ]
        },
        {
            "positions": [
                -0.07498343572105326,
                -1.2401239630244771,
                2.1653468150223034,
                -0.8881278893479334,
                0.5984367429518058,
                -3.148394124921477
            ]
        },
        {
            "positions": [
                -0.14091509720256506,
                -1.2736702415281713,
                2.2299463335899636,
                -0.9240130571553203,
                0.7547200846899407,
                -3.1336957573225916
            ]
        },
        {
            "positions": [
                -0.20684675868407687,
                -1.3072165200318655,
                2.294545852157624,
                -0.9598982249627073,
                0.9110034264280755,
                -3.118997389723707
            ]
        },
        {
            "positions": [
                -0.2727784201655886,
                -1.3407627985355595,
                2.359145370725284,
                -0.9957833927700942,
                1.0672867681662104,
                -3.104299022124822
            ]
        },
        {
            "positions": [
                -0.3387100816471004,
                -1.3743090770392536,
                2.4237448892929443,
                -1.0316685605774811,
                1.2235701099043452,
                -3.0896006545259374
            ]
        }
    ]
}{
    "goal": {
        "global_pose": {
            "orientation": {
                "w": 0.5084816217422485,
                "x": -0.49083608388900757,
                "y": 0.5182115435600281,
                "z": -0.4816462993621826
            },
            "position": {
                "x": 0.5540239810943604,
                "y": 0.030875300988554955,
                "z": 0.16403168439865112
            }
        },
        "name": "move_to_storage_A"
    },
    "id": "SPARS_move_to_storage_A_81",
    "joint_names": [
        "shoulder_pan_joint",
        "shoulder_lift_joint",
        "elbow_joint",
        "wrist_1_joint",
        "wrist_2_joint",
        "wrist_3_joint"
    ],
    "metrics": {
        "cart_traj_len": 0.3528514448521229,
        "distance_elbow_joint": 0.45305282496133614,
        "distance_shoulder_lift_joint": 0.2328595966378797,
        "distance_shoulder_pan_joint": 0.4624674764157506,
        "distance_wrist_1_joint": 0.25819995569711107,
        "distance_wrist_2_joint": 1.0933363057691987,
        "distance_wrist_3_joint": 0.10143140992417532,
        "smoothness": 6.661338165333112e-16,
        "time": 5.007308439,
        "traj_len": 1.6128693590633592,
        "weighted_distance": 2.0385648507516536
    },
    "planner": "SPARS",
    "start": {
        "state": {
            "elbow_joint": 1.97154746011099,
            "shoulder_lift_joint": -1.13948474672311,
            "shoulder_pan_joint": 0.12281154466712228,
            "wrist_1_joint": -0.7804688027058302,
            "wrist_2_joint": 0.12958655903071145,
            "wrist_3_joint": 3.0906928834467795
        }
    },
    "waypoints": [
        {
            "positions": [
                0.12281154466712228,
                -1.13948474672311,
                1.97154746011099,
                -0.7804688027058302,
                0.12958655903071145,
                3.0906928834467795
            ]
        },
        {
            "positions": [
                0.05674476232201506,
                -1.1727504033856642,
                2.0362692922483236,
                -0.8173545106625604,
                0.2857774598548827,
                3.1051830848645188
            ]
        },
        {
            "positions": [
                -0.009322020023092167,
                -1.2060160600482184,
                2.1009911243856574,
                -0.8542402186192904,
                0.4419683606790539,
                3.119673286282258
            ]
        },
        {
            "positions": [
                -0.07538880236819938,
                -1.2392817167107726,
                2.165712956522991,
                -0.8911259265760206,
                0.5981592615032252,
                3.1341634876999973
            ]
        },
        {
            "positions": [
                -0.1414555847133066,
                -1.2725473733733268,
                2.230434788660325,
                -0.9280116345327508,
                0.7543501623273964,
                3.148653689117737
            ]
        },
        {
            "positions": [
                -0.20752236705841387,
                -1.3058130300358812,
                2.2951566207976586,
                -0.9648973424894809,
                0.9105410631515677,
                3.1631438905354763
            ]
        },
        {
            "positions": [
                -0.273589149403521,
                -1.3390786866984354,
                2.3598784529349923,
                -1.001783050446211,
                1.0667319639757389,
                3.1776340919532156
            ]
        },
        {
            "positions": [
                -0.3396559317486283,
                -1.3723443433609896,
                2.424600285072326,
                -1.0386687584029413,
                1.2229228647999102,
                3.192124293370955
            ]
        }
    ]
}{
    "goal": {
        "global_pose": {
            "orientation": {
                "w": 0.5084816217422485,
                "x": -0.49083608388900757,
                "y": 0.5182115435600281,
                "z": -0.4816462993621826
            },
            "position": {
                "x": 0.5540239810943604,
                "y": 0.030875300988554955,
                "z": 0.16403168439865112
            }
        },
        "name": "move_to_storage_A"
    },
    "id": "SPARS_move_to_storage_A_81",
    "joint_names": [
        "shoulder_pan_joint",
        "shoulder_lift_joint",
        "elbow_joint",
        "wrist_1_joint",
        "wrist_2_joint",
        "wrist_3_joint"
    ],
    "metrics": {
        "cart_traj_len": 0.3532015424896132,
        "distance_elbow_joint": 0.45059738623248746,
        "distance_shoulder_lift_joint": 0.23253787126537406,
        "distance_shoulder_pan_joint": 0.4633391403296309,
        "distance_wrist_1_joint": 0.24886945754606193,
        "distance_wrist_2_joint": 1.0917337438182588,
        "distance_wrist_3_joint": 0.08828068488043428,
        "smoothness": 8.881784232165597e-16,
        "time": 5.017282354000001,
        "traj_len": 1.6047922868933062,
        "weighted_distance": 2.022998481264244
    },
    "planner": "SPARS",
    "start": {
        "state": {
            "elbow_joint": 1.9715472970024885,
            "shoulder_lift_joint": -1.1394870060712896,
            "shoulder_pan_joint": 0.12281152778156021,
            "wrist_1_joint": -0.780463741449964,
            "wrist_2_joint": 0.12958659822042276,
            "wrist_3_joint": 3.090690232415272
        }
    },
    "waypoints": [
        {
            "positions": [
                0.12281152778156021,
                -1.1394870060712896,
                1.9715472970024885,
                -0.780463741449964,
                0.12958659822042276,
                3.090690232415272
            ]
        },
        {
            "positions": [
                0.05662022202018438,
                -1.172706701966343,
                2.035918352178558,
                -0.8160165210994014,
                0.28554856162303116,
                3.1033017588267624
            ]
        },
        {
            "positions": [
                -0.00957108374119145,
                -1.2059263978613965,
                2.100289407354628,
                -0.8515693007488389,
                0.4415105250256396,
                3.115913285238253
            ]
        },
        {
            "positions": [
                -0.07576238950256728,
                -1.23914609375645,
                2.1646604625306973,
                -0.8871220803982762,
                0.597472488428248,
                3.1285248116497435
            ]
        },
        {
            "positions": [
                -0.1419536952639431,
                -1.2723657896515033,
                2.229031517706767,
                -0.9226748600477137,
                0.7534344518308563,
                3.1411363380612345
            ]
        },
        {
            "positions": [
                -0.208145001025319,
                -1.3055854855465567,
                2.2934025728828367,
                -0.9582276396971511,
                0.9093964152334648,
                3.153747864472725
            ]
        },
        {
            "positions": [
                -0.27433630678669474,
                -1.3388051814416102,
                2.357773628058906,
                -0.9937804193465885,
                1.0653583786360732,
                3.1663593908842156
            ]
        },
        {
            "positions": [
                -0.3405276125480707,
                -1.3720248773366637,
                2.422144683234976,
                -1.029333198996026,
                1.2213203420386816,
                3.178970917295706
            ]
        }
    ]
}