{
    "goal": {
        "global_pose": {
            "orientation": {
                "w": -0.00223480608172531,
                "x": 0.0024358444001904467,
                "y": 0.7094548369677653,
                "z": -0.704743149386269
            },
            "position": {
                "x": 0.6205249238014221,
                "y": -0.6371506643295288,
                "z": 0.19426114857196808
            }
        },
        "name": "move_to_magneteinheit_B"
    },
    "id": "SPARS_move_to_magneteinheit_B_105",
    "joint_names": [
        "shoulder_pan_joint",
        "shoulder_lift_joint",
        "elbow_joint",
        "wrist_1_joint",
        "wrist_2_joint",
        "wrist_3_joint"
    ],
    "metrics": {
        "cart_traj_len": 1.3281399489717796,
        "distance_elbow_joint": 0.9498082882331425,
        "distance_shoulder_lift_joint": 0.7515477684256595,
        "distance_shoulder_pan_joint": 1.6217998840760095,
        "distance_wrist_1_joint": 1.730843232695003,
        "distance_wrist_2_joint": 2.460276385141269,
        "distance_wrist_3_joint": 1.7473872375323047,
        "smoothness": 0.6499431613628314,
        "time": 5.054657313000001,
        "traj_len": 3.043298013028528,
        "weighted_distance": 4.1167410519735474
    },
    "planner": "SPARS",
    "start": {
        "state": {
            "elbow_joint": 2.6216224122426386,
            "shoulder_lift_joint": -1.4174107377796124,
            "shoulder_pan_joint": 0.7066234856936794,
            "wrist_1_joint": 1.9546482284002225,
            "wrist_2_joint": -0.7096286983471962,
            "wrist_3_joint": 0.005740856962016249
        }
    },
    "waypoints": [
        {
            "positions": [
                0.7066234856936794,
                -1.4174107377796124,
                2.6216224122426386,
                1.9546482284002225,
                -0.7096286983471962,
                0.005740856962016249
            ]
        },
        {
            "positions": [
                0.5618696955991833,
                -1.3972433083899707,
                2.5964372344668165,
                1.8850616780926093,
                -0.6666118763407135,
                -0.07374080715383545
            ]
        },
        {
            "positions": [
                0.41711590550468736,
                -1.377075879000329,
                2.571252056690994,
                1.815475127784996,
                -0.6235950543342307,
                -0.15322247126968713
            ]
        },
        {
            "positions": [
                0.27236211541019134,
                -1.3569084496106874,
                2.546066878915172,
                1.7458885774773827,
                -0.580578232327748,
                -0.2327041353855388
            ]
        },
        {
            "positions": [
                0.12760832531569533,
                -1.3367410202210457,
                2.52088170113935,
                1.6763020271697695,
                -0.5375614103212651,
                -0.3121857995013905
            ]
        },
        {
            "positions": [
                -0.017145464778800745,
                -1.3165735908314042,
                2.4956965233635278,
                1.6067154768621563,
                -0.49454458831478243,
                -0.3916674636172422
            ]
        },
        {
            "positions": [
                -0.1618992548732967,
                -1.2964061614417626,
                2.4705113455877052,
                1.5371289265545431,
                -0.45152776630829966,
                -0.47114912773309386
            ]
        },
        {
            "positions": [
                -0.3066530449677928,
                -1.276238732052121,
                2.445326167811883,
                1.46754237624693,
                -0.4085109443018169,
                -0.5506307918489456
            ]
        },
        {
            "positions": [
                -0.45140683506228874,
                -1.2560713026624792,
                2.420140990036061,
                1.3979558259393166,
                -0.3654941222953341,
                -0.6301124559647974
            ]
        },
        {
            "positions": [
                -0.5961606251567849,
                -1.2359038732728376,
                2.394955812260239,
                1.3283692756317034,
                -0.32247730028885135,
                -0.709594120080649
            ]
        },
        {
            "positions": [
                -0.7409144152512809,
                -1.215736443883196,
                2.3697706344844165,
                1.2587827253240902,
                -0.27946047828236864,
                -0.7890757841965007
            ]
        },
        {
            "positions": [
                -0.8856682053457767,
                -1.1955690144935542,
                2.3445854567085944,
                1.189196175016477,
                -0.23644365627588587,
                -0.8685574483123524
            ]
        },
        {
            "positions": [
                -0.8879380663485885,
                -1.154822395636662,
                2.2928338157317407,
                1.2634570349634968,
                -0.3892968365120365,
                -0.801396761215588
            ]
        },
        {
            "positions": [
                -0.8902079273514003,
                -1.1140757767797693,
                2.241082174754887,
                1.3377178949105166,
                -0.5421500167481872,
                -0.7342360741188236
            ]
        },
        {
            "positions": [
                -0.8924777883542121,
                -1.073329157922877,
                2.1893305337780333,
                1.4119787548575364,
                -0.6950031969843378,
                -0.6670753870220594
            ]
        },
        {
            "positions": [
                -0.8947476493570239,
                -1.0325825390659846,
                2.1375788928011796,
                1.4862396148045562,
                -0.8478563772204886,
                -0.599914699925295
            ]
        },
        {
            "positions": [
                -0.8970175103598357,
                -0.9918359202090922,
                2.085827251824326,
                1.560500474751576,
                -1.0007095574566391,
                -0.5327540128285306
            ]
        },
        {
            "positions": [
                -0.8992873713626475,
                -0.9510893013521997,
                2.0340756108474722,
                1.6347613346985959,
                -1.1535627376927897,
                -0.4655933257317663
            ]
        },
        {
            "positions": [
                -0.9015572323654593,
                -0.9103426824953074,
                1.9823239698706185,
                1.7090221946456157,
                -1.3064159179289403,
                -0.39843263863500206
            ]
        },
        {
            "positions": [
                -0.903827093368271,
                -0.8695960636384149,
                1.9305723288937646,
                1.7832830545926355,
                -1.459269098165091,
                -0.33127195153823763
            ]
        },
        {
            "positions": [
                -0.9060969543710828,
                -0.8288494447815224,
                1.878820687916911,
                1.8575439145396553,
                -1.6121222784012417,
                -0.26411126444147337
            ]
        },
        {
            "positions": [
                -0.9083668153738946,
                -0.7881028259246301,
                1.8270690469400572,
                1.931804774486675,
                -1.7649754586373922,
                -0.196950577344709
            ]
        },
        {
            "positions": [
                -0.9106366763767064,
                -0.7473562070677378,
                1.7753174059632035,
                2.006065634433695,
                -1.9178286388735428,
                -0.12978989024794463
            ]
        },
        {
            "positions": [
                -0.9129065373795182,
                -0.7066095882108452,
                1.7235657649863498,
                2.0803264943807145,
                -2.070681819109694,
                -0.06262920315118026
            ]
        },
        {
            "positions": [
                -0.91517639838233,
                -0.6658629693539528,
                1.6718141240094961,
                2.1545873543277345,
                -2.223534999345844,
                0.004531483945583992
            ]
        }
    ]
}