{
    "goal": {
        "global_pose": {
            "orientation": {
                "w": 0.7047431493862688,
                "x": -0.7094548369677653,
                "y": 0.0024358444001904,
                "z": -0.0022348060817251984
            },
            "position": {
                "x": -0.39052492380142206,
                "y": 0.3671506643295288,
                "z": 0.19426114857196808
            }
        },
        "name": "move_to_magneteinheit_D"
    },
    "id": "SPARS_move_to_magneteinheit_D_144",
    "joint_names": [
        "shoulder_pan_joint",
        "shoulder_lift_joint",
        "elbow_joint",
        "wrist_1_joint",
        "wrist_2_joint",
        "wrist_3_joint"
    ],
    "metrics": {
        "cart_traj_len": 4.385849546994908,
        "distance_elbow_joint": 3.1987797517024354,
        "distance_shoulder_lift_joint": 1.6345154959489283,
        "distance_shoulder_pan_joint": 3.1455664592581467,
        "distance_wrist_1_joint": 2.018945681705386,
        "distance_wrist_2_joint": 0.3099618489826431,
        "distance_wrist_3_joint": 3.132304598000296,
        "smoothness": 0.283881887411926,
        "time": 5.091854274,
        "traj_len": 3.6660706261060803,
        "weighted_distance": 4.6939951600194965
    },
    "planner": "SPARS",
    "start": {
        "state": {
            "elbow_joint": 0.749534889911806,
            "shoulder_lift_joint": -0.6476975780787326,
            "shoulder_pan_joint": -2.711696901376241,
            "wrist_1_joint": -0.07506478083263063,
            "wrist_2_joint": 0.43296659715538205,
            "wrist_3_joint": -3.14703540197715
        }
    },
    "waypoints": [
        {
            "positions": [
                -2.711696901376241,
                -0.6476975780787326,
                0.749534889911806,
                -0.07506478083263063,
                0.43296659715538205,
                -3.14703540197715
            ]
        },
        {
            "positions": [
                -2.7399621730063375,
                -0.7480622739685574,
                0.7677314744318584,
                -0.18037593543953853,
                0.35521371019511117,
                -3.1426486288471027
            ]
        },
        {
            "positions": [
                -2.7682274446364343,
                -0.8484269698583822,
                0.7859280589519108,
                -0.28568709004644643,
                0.27746082323484034,
                -3.1382618557170554
            ]
        },
        {
            "positions": [
                -2.66362223822982,
                -0.8906627239485377,
                0.6995734359204837,
                -0.22929362785581367,
                0.27291475071900406,
                -3.047115628585206
            ]
        },
        {
            "positions": [
                -2.559017031823206,
                -0.9328984780386933,
                0.6132188128890567,
                -0.1729001656651809,
                0.2683686782031678,
                -2.955969401453357
            ]
        },
        {
            "positions": [
                -2.454411825416592,
                -0.9751342321288489,
                0.5268641898576296,
                -0.11650670347454811,
                0.26382260568733146,
                -2.8648231743215073
            ]
        },
        {
            "positions": [
                -2.349806619009978,
                -1.0173699862190044,
                0.44050956682620257,
                -0.06011324128391535,
                0.2592765331714952,
                -2.7736769471896583
            ]
        },
        {
            "positions": [
                -2.2452014126033637,
                -1.05960574030916,
                0.3541549437947755,
                -0.0037197790932825825,
                0.2547304606556589,
                -2.682530720057809
            ]
        },
        {
            "positions": [
                -2.14059620619675,
                -1.1018414943993156,
                0.2678003207633485,
                0.05267368309735021,
                0.25018438813982263,
                -2.5913844929259597
            ]
        },
        {
            "positions": [
                -2.0359909997901355,
                -1.1440772484894712,
                0.18144569773192143,
                0.109067145287983,
                0.24563831562398636,
                -2.5002382657941102
            ]
        },
        {
            "positions": [
                -1.9313857933835217,
                -1.1863130025796267,
                0.09509107470049438,
                0.16546060747861574,
                0.24109224310815006,
                -2.409092038662261
            ]
        },
        {
            "positions": [
                -1.8267805869769074,
                -1.2285487566697824,
                0.008736451669067336,
                0.22185406966924848,
                0.23654617059231378,
                -2.3179458115304117
            ]
        },
        {
            "positions": [
                -1.7221753805702933,
                -1.2707845107599378,
                -0.07761817136235971,
                0.27824753185988127,
                0.23200009807647748,
                -2.226799584398562
            ]
        },
        {
            "positions": [
                -1.6175701741636792,
                -1.3130202648500935,
                -0.16397279439378676,
                0.33464099405051406,
                0.2274540255606412,
                -2.135653357266713
            ]
        },
        {
            "positions": [
                -1.5129649677570651,
                -1.3552560189402492,
                -0.2503274174252138,
                0.39103445624114685,
                0.22290795304480493,
                -2.044507130134864
            ]
        },
        {
            "positions": [
                -1.408359761350451,
                -1.3974917730304046,
                -0.33668204045664074,
                0.44742791843177965,
                0.21836188052896863,
                -1.9533609030030146
            ]
        },
        {
            "positions": [
                -1.303754554943837,
                -1.43972752712056,
                -0.4230366634880679,
                0.5038213806224124,
                0.21381580801313235,
                -1.8622146758711653
            ]
        },
        {
            "positions": [
                -1.1991493485372227,
                -1.481963281210716,
                -0.5093912865194951,
                0.5602148428130452,
                0.20926973549729605,
                -1.7710684487393158
            ]
        },
        {
            "positions": [
                -1.0945441421306088,
                -1.5241990353008714,
                -0.595745909550922,
                0.6166083050036779,
                0.20472366298145978,
                -1.6799222216074667
            ]
        },
        {
            "positions": [
                -0.9899389357239945,
                -1.5664347893910269,
                -0.6821005325823492,
                0.6730017671943108,
                0.2001775904656235,
                -1.5887759944756172
            ]
        },
        {
            "positions": [
                -0.8853337293173804,
                -1.6086705434811825,
                -0.7684551556137761,
                0.7293952293849434,
                0.19563151794978723,
                -1.497629767343768
            ]
        },
        {
            "positions": [
                -0.7807285229107663,
                -1.6509062975713382,
                -0.8548097786452032,
                0.7857886915755764,
                0.19108544543395092,
                -1.4064835402119187
            ]
        },
        {
            "positions": [
                -0.6761233165041522,
                -1.6931420516614937,
                -0.9411644016766302,
                0.842182153766209,
                0.18653937291811465,
                -1.3153373130800694
            ]
        },
        {
            "positions": [
                -0.571518110097538,
                -1.7353778057516491,
                -1.0275190247080572,
                0.898575615956842,
                0.18199330040227835,
                -1.2241910859482201
            ]
        },
        {
            "positions": [
                -0.4669129036909241,
                -1.7776135598418048,
                -1.1138736477394842,
                0.9549690781474746,
                0.17744722788644207,
                -1.1330448588163708
            ]
        },
        {
            "positions": [
                -0.3623076972843098,
                -1.8198493139319605,
                -1.2002282707709115,
                1.0113625403381072,
                0.1729011553706058,
                -1.0418986316845213
            ]
        },
        {
            "positions": [
                -0.2577024908776959,
                -1.862085068022116,
                -1.2865828938023385,
                1.06775600252874,
                0.16835508285476952,
                -0.9507524045526723
            ]
        },
        {
            "positions": [
                -0.15309728447108162,
                -1.9043208221122716,
                -1.3729375168337659,
                1.1241494647193728,
                0.1638090103389332,
                -0.8596061774208228
            ]
        },
        {
            "positions": [
                -0.04849207806446776,
                -1.946556576202427,
                -1.4592921398651924,
                1.1805429269100056,
                0.15926293782309692,
                -0.7684599502889737
            ]
        },
        {
            "positions": [
                0.05611312834214646,
                -1.9887923302925827,
                -1.5456467628966197,
                1.2369363891006386,
                0.15471686530726064,
                -0.6773137231571245
            ]
        },
        {
            "positions": [
                0.06021911867724173,
                -2.0422610681834,
                -1.6935696704096863,
                1.2791843442395783,
                0.16464270556110214,
                -0.5426981429568504
            ]
        },
        {
            "positions": [
                0.064325109012337,
                -2.095729806074217,
                -1.8414925779227527,
                1.321432299378518,
                0.17456854581494366,
                -0.4080825627565763
            ]
        },
        {
            "positions": [
                0.06843109934743226,
                -2.1491985439650345,
                -1.9894154854358193,
                1.3636802545174576,
                0.18449438606878515,
                -0.2734669825563022
            ]
        },
        {
            "positions": [
                -0.009536145003176996,
                -2.192394569565692,
                -2.1148167932723134,
                1.4144820769612383,
                0.18475511066075456,
                -0.18828580216985502
            ]
        },
        {
            "positions": [
                -0.08750338935378625,
                -2.2355905951663493,
                -2.240218101108808,
                1.465283899405019,
                0.18501583525272397,
                -0.10310462178340782
            ]
        },
        {
            "positions": [
                -0.16547063370439552,
                -2.278786620767007,
                -2.365619408945302,
                1.5160857218487997,
                0.18527655984469338,
                -0.017923441396960612
            ]
        },
        {
            "positions": [
                -0.18394627266665467,
                -2.282213074027661,
                -2.37645852371042,
                1.5226362824451236,
                0.1841241372476044,
                -0.014730803976854426
            ]
        }
    ]
}