{
    "goal": {
        "global_pose": {
            "orientation": {
                "w": 0.7047431468963623,
                "x": -0.7094548344612122,
                "y": 0.0024358443915843964,
                "z": -0.0022348060738295317
            },
            "position": {
                "x": 0.6094750761985779,
                "y": 0.3671506643295288,
                "z": 0.19426114857196808
            }
        },
        "name": "move_to_magneteinheit_A"
    },
    "id": "SPARStwo_move_to_magneteinheit_A_63",
    "joint_names": [
        "shoulder_pan_joint",
        "shoulder_lift_joint",
        "elbow_joint",
        "wrist_1_joint",
        "wrist_2_joint",
        "wrist_3_joint"
    ],
    "metrics": {
        "cart_traj_len": 3.3659398670455074,
        "distance_elbow_joint": 4.151168672961792,
        "distance_shoulder_lift_joint": 2.185893007825424,
        "distance_shoulder_pan_joint": 5.008308911422686,
        "distance_wrist_1_joint": 3.5671757556658985,
        "distance_wrist_2_joint": 1.4346368583101685,
        "distance_wrist_3_joint": 0.5517527861412909,
        "smoothness": 0.21383264491748882,
        "time": 5.031903208999999,
        "traj_len": 4.1108315451167865,
        "weighted_distance": 4.796275031582937
    },
    "planner": "SPARStwo",
    "start": {
        "state": {
            "elbow_joint": -1.9196185241190666,
            "shoulder_lift_joint": -1.2443396400964142,
            "shoulder_pan_joint": 2.6996025414629847,
            "wrist_1_joint": -1.5485510000780065,
            "wrist_2_joint": -1.5709468930060704,
            "wrist_3_joint": 0.4420197071253992
        }
    },
    "waypoints": [
        {
            "positions": [
                2.6996025414629847,
                -1.2443396400964142,
                -1.9196185241190666,
                -1.5485510000780065,
                -1.5709468930060704,
                0.4420197071253992
            ]
        },
        {
            "positions": [
                2.559123652701886,
                -1.2764150491088522,
                -1.7697488701517963,
                -1.520508372757548,
                -1.555552201130083,
                0.42276278199366013
            ]
        },
        {
            "positions": [
                2.4186447639407875,
                -1.30849045812129,
                -1.6198792161845257,
                -1.492465745437089,
                -1.5401575092540956,
                0.40350585686192114
            ]
        },
        {
            "positions": [
                2.2781658751796887,
                -1.340565867133728,
                -1.4700095622172553,
                -1.4644231181166305,
                -1.5247628173781083,
                0.3842489317301821
            ]
        },
        {
            "positions": [
                2.1376869864185903,
                -1.372641276146166,
                -1.3201399082499847,
                -1.436380490796172,
                -1.5093681255021207,
                0.36499200659844305
            ]
        },
        {
            "positions": [
                1.9972080976574915,
                -1.4047166851586037,
                -1.1702702542827144,
                -1.408337863475713,
                -1.4939734336261334,
                0.34573508146670406
            ]
        },
        {
            "positions": [
                1.856729208896393,
                -1.4367920941710417,
                -1.020400600315444,
                -1.3802952361552545,
                -1.4785787417501461,
                0.326478156334965
            ]
        },
        {
            "positions": [
                1.7162503201352943,
                -1.4688675031834797,
                -0.8705309463481734,
                -1.352252608834796,
                -1.4631840498741586,
                0.307221231203226
            ]
        },
        {
            "positions": [
                1.5757714313741957,
                -1.5009429121959177,
                -0.720661292380903,
                -1.3242099815143373,
                -1.4477893579981713,
                0.28796430607148693
            ]
        },
        {
            "positions": [
                1.4352925426130971,
                -1.5330183212083555,
                -0.5707916384136325,
                -1.2961673541938787,
                -1.4323946661221838,
                0.26870738093974794
            ]
        },
        {
            "positions": [
                1.2948136538519983,
                -1.5650937302207935,
                -0.4209219844463621,
                -1.26812472687342,
                -1.4169999742461965,
                0.2494504558080089
            ]
        },
        {
            "positions": [
                1.1543347650908997,
                -1.5971691392332314,
                -0.2710523304790917,
                -1.2400820995529613,
                -1.401605282370209,
                0.23019353067626988
            ]
        },
        {
            "positions": [
                1.0138558763298011,
                -1.6292445482456692,
                -0.12118267651182113,
                -1.2120394722325027,
                -1.3862105904942217,
                0.21093660554453086
            ]
        },
        {
            "positions": [
                0.8733769875687025,
                -1.6613199572581072,
                0.028686977455449236,
                -1.183996844912044,
                -1.3708158986182344,
                0.19167968041279182
            ]
        },
        {
            "positions": [
                0.7328980988076039,
                -1.6933953662705452,
                0.17855663142271982,
                -1.1559542175915853,
                -1.3554212067422469,
                0.17242275528105278
            ]
        },
        {
            "positions": [
                0.5924192100465051,
                -1.7254707752829832,
                0.32842628538999064,
                -1.1279115902711268,
                -1.3400265148662596,
                0.15316583014931373
            ]
        },
        {
            "positions": [
                0.45194032128540673,
                -1.757546184295421,
                0.47829593935726056,
                -1.099868962950668,
                -1.324631822990272,
                0.13390890501757474
            ]
        },
        {
            "positions": [
                0.3114614325243079,
                -1.789621593307859,
                0.6281655933245314,
                -1.0718263356302093,
                -1.3092371311142847,
                0.1146519798858357
            ]
        },
        {
            "positions": [
                0.17098254376320954,
                -1.8216970023202967,
                0.7780352472918017,
                -1.0437837083097508,
                -1.2938424392382974,
                0.09539505475409671
            ]
        },
        {
            "positions": [
                0.03050365500211072,
                -1.8537724113327347,
                0.9279049012590721,
                -1.015741080989292,
                -1.27844774736231,
                0.07613812962235761
            ]
        },
        {
            "positions": [
                -0.1099752337589881,
                -1.8858478203451727,
                1.0777745552263425,
                -0.9876984536688334,
                -1.2630530554863226,
                0.05688120449061862
            ]
        },
        {
            "positions": [
                -0.2504541225200869,
                -1.9179232293576107,
                1.2276442091936133,
                -0.9596558263483747,
                -1.247658363610335,
                0.037624279358879575
            ]
        },
        {
            "positions": [
                -0.3909330112811853,
                -1.9499986383700487,
                1.3775138631608832,
                -0.9316131990279161,
                -1.2322636717343478,
                0.018367354227140587
            ]
        },
        {
            "positions": [
                -0.5314119000422841,
                -1.9820740473824865,
                1.527383517128154,
                -0.9035705717074574,
                -1.2168689798583605,
                -0.0008895709045984579
            ]
        },
        {
            "positions": [
                -0.6718907888033825,
                -2.0141494563949243,
                1.6772531710954244,
                -0.8755279443869988,
                -1.201474287982373,
                -0.020146496036337447
            ]
        },
        {
            "positions": [
                -0.8123696775644813,
                -2.0462248654073623,
                1.8271228250626952,
                -0.8474853170665401,
                -1.1860795961063857,
                -0.03940342116807655
            ]
        },
        {
            "positions": [
                -0.9528485663255797,
                -2.0783002744198003,
                1.976992479029965,
                -0.8194426897460815,
                -1.1706849042303982,
                -0.058660346299815536
            ]
        },
        {
            "positions": [
                -1.0933274550866785,
                -2.1103756834322382,
                2.126862132997236,
                -0.7914000624256228,
                -1.1552902123544109,
                -0.07791727143155457
            ]
        },
        {
            "positions": [
                -1.0218345777412066,
                -2.032737038462262,
                2.1207040144180893,
                -0.626104484895416,
                -1.0953502019039103,
                -0.07978878952475091
            ]
        },
        {
            "positions": [
                -0.9503417003957348,
                -1.9550983934922852,
                2.114545895838943,
                -0.46080890736520924,
                -1.03541019145341,
                -0.08166030761794724
            ]
        },
        {
            "positions": [
                -0.8788488230502629,
                -1.8774597485223088,
                2.1083877772597965,
                -0.29551332983500245,
                -0.9754701810029094,
                -0.08353182571114358
            ]
        },
        {
            "positions": [
                -0.8073559457047911,
                -1.7998211035523322,
                2.1022296586806504,
                -0.1302177523047957,
                -0.9155301705524088,
                -0.08540334380433992
            ]
        },
        {
            "positions": [
                -0.7358630683593193,
                -1.7221824585823557,
                2.0960715401015038,
                0.03507782522541103,
                -0.8555901601019084,
                -0.08727486189753625
            ]
        },
        {
            "positions": [
                -0.6643701910138473,
                -1.6445438136123793,
                2.089913421522357,
                0.20037340275561788,
                -0.7956501496514079,
                -0.08914637999073259
            ]
        },
        {
            "positions": [
                -0.5928773136683755,
                -1.566905168642403,
                2.083755302943211,
                0.3656689802858246,
                -0.7357101392009073,
                -0.09101789808392893
            ]
        },
        {
            "positions": [
                -0.5213844363229037,
                -1.4892665236724263,
                2.0775971843640644,
                0.5309645578160314,
                -0.6757701287504069,
                -0.09288941617712528
            ]
        },
        {
            "positions": [
                -0.4498915589774317,
                -1.4116278787024499,
                2.071439065784918,
                0.6962601353462381,
                -0.6158301182999063,
                -0.0947609342703216
            ]
        },
        {
            "positions": [
                -0.3783986816319599,
                -1.3339892337324732,
                2.0652809472057716,
                0.8615557128764448,
                -0.5558901078494058,
                -0.09663245236351795
            ]
        },
        {
            "positions": [
                -0.30690580428648795,
                -1.2563505887624968,
                2.0591228286266254,
                1.0268512904066518,
                -0.4959500973989053,
                -0.09850397045671429
            ]
        },
        {
            "positions": [
                -0.23541292694101612,
                -1.1787119437925204,
                2.052964710047479,
                1.1921468679368585,
                -0.4360100869484048,
                -0.10037548854991063
            ]
        },
        {
            "positions": [
                -0.1639200495955444,
                -1.101073298822544,
                2.046806591468332,
                1.3574424454670648,
                -0.37607007649790436,
                -0.10224700664310696
            ]
        },
        {
            "positions": [
                -0.09242717225007246,
                -1.0234346538525674,
                2.040648472889186,
                1.522738022997272,
                -0.3161300660474039,
                -0.1041185247363033
            ]
        },
        {
            "positions": [
                -0.020934294904600526,
                -0.945796008882591,
                2.0344903543100394,
                1.6880336005274788,
                -0.25619005559690333,
                -0.10599004282949964
            ]
        },
        {
            "positions": [
                0.05055858244087119,
                -0.8681573639126143,
                2.0283322357308933,
                1.8533291780576855,
                -0.19625004514640287,
                -0.10786156092269597
            ]
        },
        {
            "positions": [
                0.12205145978634317,
                -0.7905187189426379,
                2.0221741171517467,
                2.0186247555878922,
                -0.1363100346959024,
                -0.10973307901589231
            ]
        }
    ]
}