{
    "goal": {
        "global_pose": {
            "orientation": {
                "w": 0.7031023480610252,
                "x": -0.7110244013736278,
                "y": 0.0077485991402295624,
                "z": 0.005598929693374583
            },
            "position": {
                "x": -0.8841497679147869,
                "y": 0.44412534475326537,
                "z": 0.3711530566215515
            }
        },
        "name": "move_to_auspresseinheit_D"
    },
    "id": "SPARS_move_to_auspresseinheit_D_93",
    "joint_names": [
        "shoulder_pan_joint",
        "shoulder_lift_joint",
        "elbow_joint",
        "wrist_1_joint",
        "wrist_2_joint",
        "wrist_3_joint"
    ],
    "metrics": {
        "cart_traj_len": 0.34315436009244543,
        "distance_elbow_joint": 0.6337299063944466,
        "distance_shoulder_lift_joint": 0.11834452989966016,
        "distance_shoulder_pan_joint": 0.13379365771798785,
        "distance_wrist_1_joint": 0.5144718671109163,
        "distance_wrist_2_joint": 1.442628014507368,
        "distance_wrist_3_joint": 0.019347948868233544,
        "smoothness": 0.0,
        "time": 5.024162518,
        "traj_len": 1.6918380314021235,
        "weighted_distance": 2.2041124526333413
    },
    "planner": "SPARS",
    "start": {
        "state": {
            "elbow_joint": -1.8275523626775212,
            "shoulder_lift_joint": -2.126789852344167,
            "shoulder_pan_joint": -0.03513704404078235,
            "wrist_1_joint": -2.347782403156801,
            "wrist_2_joint": -1.6058999987535132,
            "wrist_3_joint": -3.0880379163319196
        }
    },
    "waypoints": [
        {
            "positions": [
                -0.03513704404078235,
                -2.126789852344167,
                -1.8275523626775212,
                -2.347782403156801,
                -1.6058999987535132,
                -3.0880379163319196
            ]
        },
        {
            "positions": [
                -0.05186125125553083,
                -2.141582918581624,
                -1.7483361243782154,
                -2.4120913865456655,
                -1.425571496940092,
                -3.090456409940449
            ]
        },
        {
            "positions": [
                -0.0685854584702793,
                -2.156375984819082,
                -1.6691198860789096,
                -2.47640036993453,
                -1.2452429951266712,
                -3.092874903548978
            ]
        },
        {
            "positions": [
                -0.08530966568502779,
                -2.1711690510565393,
                -1.5899036477796038,
                -2.5407093533233946,
                -1.0649144933132502,
                -3.095293397157507
            ]
        },
        {
            "positions": [
                -0.10203387289977628,
                -2.1859621172939967,
                -1.510687409480298,
                -2.6050183367122592,
                -0.8845859914998292,
                -3.0977118907660364
            ]
        },
        {
            "positions": [
                -0.11875808011452477,
                -2.2007551835314545,
                -1.4314711711809922,
                -2.6693273201011234,
                -0.7042574896864082,
                -3.1001303843745656
            ]
        },
        {
            "positions": [
                -0.13548228732927323,
                -2.215548249768912,
                -1.3522549328816862,
                -2.733636303489988,
                -0.5239289878729871,
                -3.1025488779830948
            ]
        },
        {
            "positions": [
                -0.15220649454402171,
                -2.2303413160063696,
                -1.2730386945823804,
                -2.7979452868788526,
                -0.3436004860595663,
                -3.104967371591624
            ]
        },
        {
            "positions": [
                -0.1689307017587702,
                -2.245134382243827,
                -1.1938224562830746,
                -2.862254270267717,
                -0.1632719842461452,
                -3.107385865200153
            ]
        }
    ]
}