{
    "goal": {
        "global_pose": {
            "orientation": {
                "w": 0.7031023480610252,
                "x": -0.7110244013736278,
                "y": 0.0077485991402295624,
                "z": 0.005598929693374583
            },
            "position": {
                "x": -0.8841497679147869,
                "y": 0.44412534475326537,
                "z": 0.3711530566215515
            }
        },
        "name": "move_to_auspresseinheit_D"
    },
    "id": "SPARS_move_to_auspresseinheit_D_43",
    "joint_names": [
        "shoulder_pan_joint",
        "shoulder_lift_joint",
        "elbow_joint",
        "wrist_1_joint",
        "wrist_2_joint",
        "wrist_3_joint"
    ],
    "metrics": {
        "cart_traj_len": 0.3435493185017042,
        "distance_elbow_joint": 0.63619654521004,
        "distance_shoulder_lift_joint": 0.12053268603884026,
        "distance_shoulder_pan_joint": 0.1345263971045752,
        "distance_wrist_1_joint": 0.5123873364238514,
        "distance_wrist_2_joint": 1.4463672299399142,
        "distance_wrist_3_joint": 0.02723028966532226,
        "smoothness": 0.0,
        "time": 5.018067261,
        "traj_len": 1.6962430499142933,
        "weighted_distance": 2.211437457871453
    },
    "planner": "SPARS",
    "start": {
        "state": {
            "elbow_joint": -1.8275523626775212,
            "shoulder_lift_joint": -2.126789852344167,
            "shoulder_pan_joint": -0.03513704404078235,
            "wrist_1_joint": -2.347782403156801,
            "wrist_2_joint": -1.6058999987535132,
            "wrist_3_joint": -3.0880379163319196
        }
    },
    "waypoints": [
        {
            "positions": [
                -0.03513704404078235,
                -2.126789852344167,
                -1.8275523626775212,
                -2.347782403156801,
                -1.6058999987535132,
                -3.0880379163319196
            ]
        },
        {
            "positions": [
                -0.05195284367885425,
                -2.1418564380990217,
                -1.748027794526266,
                -2.4118308202097825,
                -1.4251040950110239,
                -3.091441702540085
            ]
        },
        {
            "positions": [
                -0.06876864331692614,
                -2.156923023853877,
                -1.6685032263750113,
                -2.4758792372627636,
                -1.2443081912685345,
                -3.09484548874825
            ]
        },
        {
            "positions": [
                -0.08558444295499805,
                -2.171989609608732,
                -1.5889786582237562,
                -2.539927654315745,
                -1.0635122875260454,
                -3.0982492749564154
            ]
        },
        {
            "positions": [
                -0.10240024259306996,
                -2.1870561953635868,
                -1.5094540900725013,
                -2.6039760713687263,
                -0.8827163837835561,
                -3.1016530611645807
            ]
        },
        {
            "positions": [
                -0.11921604223114185,
                -2.202122781118442,
                -1.4299295219212462,
                -2.668024488421708,
                -0.7019204800410668,
                -3.105056847372746
            ]
        },
        {
            "positions": [
                -0.13603184186921374,
                -2.217189366873297,
                -1.3504049537699911,
                -2.7320729054746895,
                -0.5211245762985777,
                -3.1084606335809113
            ]
        },
        {
            "positions": [
                -0.15284764150728566,
                -2.2322559526281522,
                -1.270880385618736,
                -2.7961213225276706,
                -0.34032867255608834,
                -3.1118644197890766
            ]
        },
        {
            "positions": [
                -0.16966344114535756,
                -2.247322538383007,
                -1.1913558174674812,
                -2.8601697395806522,
                -0.159532768813599,
                -3.115268205997242
            ]
        }
    ]
}