{
    "goal": {
        "global_pose": {
            "orientation": {
                "w": 0.005598929693374612,
                "x": 0.007748599140229565,
                "y": 0.7110244013736278,
                "z": -0.7031023480610252
            },
            "position": {
                "x": 0.1141497679147869,
                "y": -0.7141253447532654,
                "z": 0.3711530566215515
            }
        },
        "name": "move_to_auspresseinheit_B"
    },
    "id": "SPARS_move_to_auspresseinheit_B_87",
    "joint_names": [
        "shoulder_pan_joint",
        "shoulder_lift_joint",
        "elbow_joint",
        "wrist_1_joint",
        "wrist_2_joint",
        "wrist_3_joint"
    ],
    "metrics": {
        "cart_traj_len": 0.5651555026016566,
        "distance_elbow_joint": 0.0652782459356005,
        "distance_shoulder_lift_joint": 0.29362916266283245,
        "distance_shoulder_pan_joint": 0.5788701894414243,
        "distance_wrist_1_joint": 0.3351146090327315,
        "distance_wrist_2_joint": 0.9857934305524929,
        "distance_wrist_3_joint": 0.008381005698474109,
        "smoothness": 0.0,
        "time": 5.019481761000001,
        "traj_len": 1.5056781340391299,
        "weighted_distance": 1.8986144143310744
    },
    "planner": "SPARS",
    "start": {
        "state": {
            "elbow_joint": 2.0193083361928714,
            "shoulder_lift_joint": -1.1220246554650708,
            "shoulder_pan_joint": -1.0952077554168747,
            "wrist_1_joint": -0.8559753972642168,
            "wrist_2_joint": 0.4759566250798843,
            "wrist_3_joint": -3.1240929996934557
        }
    },
    "waypoints": [
        {
            "positions": [
                -1.0952077554168747,
                -1.1220246554650708,
                2.0193083361928714,
                -0.8559753972642168,
                0.4759566250798843,
                -3.1240929996934557
            ]
        },
        {
            "positions": [
                -1.1916861203237787,
                -1.1709628492422095,
                2.008428628536938,
                -0.8001229624254282,
                0.6402555301719665,
                -3.1226961654103764
            ]
        },
        {
            "positions": [
                -1.2881644852306828,
                -1.2199010430193482,
                1.9975489208810047,
                -0.7442705275866396,
                0.8045544352640486,
                -3.1212993311272976
            ]
        },
        {
            "positions": [
                -1.384642850137587,
                -1.2688392367964871,
                1.9866692132250712,
                -0.688418092747851,
                0.9688533403561308,
                -3.119902496844219
            ]
        },
        {
            "positions": [
                -1.4811212150444908,
                -1.3177774305736258,
                1.9757895055691377,
                -0.6325656579090625,
                1.1331522454482128,
                -3.1185056625611396
            ]
        },
        {
            "positions": [
                -1.5775995799513949,
                -1.3667156243507645,
                1.9649097979132044,
                -0.5767132230702738,
                1.297451150540295,
                -3.1171088282780604
            ]
        },
        {
            "positions": [
                -1.674077944858299,
                -1.4156538181279033,
                1.954030090257271,
                -0.5208607882314853,
                1.4617500556323773,
                -3.1157119939949816
            ]
        }
    ]
}