{
    "goal": {
        "global_pose": {
            "orientation": {
                "w": -0.4816463035849501,
                "x": 0.5182115481033762,
                "y": 0.4908360881923453,
                "z": -0.5084816262002911
            },
            "position": {
                "x": -0.8240239810943604,
                "y": 0.19912469901144506,
                "z": 0.16403168439865112
            }
        },
        "name": "move_to_storage_D"
    },
    "id": "SPARS_move_to_storage_D_88",
    "joint_names": [
        "shoulder_pan_joint",
        "shoulder_lift_joint",
        "elbow_joint",
        "wrist_1_joint",
        "wrist_2_joint",
        "wrist_3_joint"
    ],
    "metrics": {
        "cart_traj_len": 0.7311417336712734,
        "distance_elbow_joint": 0.9992505966558967,
        "distance_shoulder_lift_joint": 0.15119561742611287,
        "distance_shoulder_pan_joint": 0.29455598822653506,
        "distance_wrist_1_joint": 5.006638785891752,
        "distance_wrist_2_joint": 1.903914123457967,
        "distance_wrist_3_joint": 4.406573424919888,
        "smoothness": 0.8239047653265189,
        "time": 5.0428156799999995,
        "traj_len": 3.572412145396742,
        "weighted_distance": 5.337211659262507
    },
    "planner": "SPARS",
    "start": {
        "state": {
            "elbow_joint": -2.384821988534728,
            "shoulder_lift_joint": -2.2788054721415256,
            "shoulder_pan_joint": -0.1854694642142757,
            "wrist_1_joint": 1.4845938289331202,
            "wrist_2_joint": 0.17898776772866878,
            "wrist_3_joint": 0.037105688729662994
        }
    },
    "waypoints": [
        {
            "positions": [
                -0.1854694642142757,
                -2.2788054721415256,
                -2.384821988534728,
                1.4845938289331202,
                0.17898776772866878,
                0.037105688729662994
            ]
        },
        {
            "positions": [
                -0.1410084204182159,
                -2.255047891010119,
                -2.429205168792358,
                1.603333015649919,
                0.18999455664226428,
                -0.08819720191672922
            ]
        },
        {
            "positions": [
                -0.0965473766221561,
                -2.231290309878712,
                -2.473588349049988,
                1.7220722023667179,
                0.20100134555585977,
                -0.21350009256312144
            ]
        },
        {
            "positions": [
                -0.052086332826096315,
                -2.2075327287473057,
                -2.5179715293076184,
                1.8408113890835165,
                0.21200813446945527,
                -0.33880298320951363
            ]
        },
        {
            "positions": [
                -0.007625289030036481,
                -2.183775147615899,
                -2.5623547095652484,
                1.9595505758003153,
                0.22301492338305076,
                -0.46410587385590585
            ]
        },
        {
            "positions": [
                0.0368357547660233,
                -2.160017566484492,
                -2.6067378898228784,
                2.078289762517114,
                0.23402171229664626,
                -0.5894087645022981
            ]
        },
        {
            "positions": [
                0.0342553701500863,
                -2.158860148207025,
                -2.5789759364168874,
                1.92068466064898,
                0.16799027733628946,
                -0.45440665837058647
            ]
        },
        {
            "positions": [
                0.031674985534149304,
                -2.1577027299295577,
                -2.5512139830108964,
                1.7630795587808457,
                0.1019588423759327,
                -0.3194045522388748
            ]
        },
        {
            "positions": [
                0.029094600918212307,
                -2.1565453116520907,
                -2.5234520296049054,
                1.6054744569127113,
                0.03592740741557593,
                -0.18440244610716316
            ]
        },
        {
            "positions": [
                0.02651421630227531,
                -2.1553878933746238,
                -2.4956900761989145,
                1.4478693550445771,
                -0.030104027544780865,
                -0.04940033997545157
            ]
        },
        {
            "positions": [
                0.023933831686338308,
                -2.1542304750971564,
                -2.4679281227929235,
                1.2902642531764428,
                -0.09613546250513766,
                0.08560176615626014
            ]
        },
        {
            "positions": [
                0.021353447070401314,
                -2.1530730568196894,
                -2.4401661693869325,
                1.1326591513083086,
                -0.1621668974654944,
                0.22060387228797174
            ]
        },
        {
            "positions": [
                0.018773062454464313,
                -2.1519156385422225,
                -2.412404215980942,
                0.9750540494401743,
                -0.2281983324258512,
                0.35560597841968344
            ]
        },
        {
            "positions": [
                0.016192677838527316,
                -2.150758220264755,
                -2.384642262574951,
                0.8174489475720401,
                -0.294229767386208,
                0.49060808455139493
            ]
        },
        {
            "positions": [
                0.013612293222590315,
                -2.149600801987288,
                -2.35688030916896,
                0.6598438457039055,
                -0.3602612023465648,
                0.6256101906831069
            ]
        },
        {
            "positions": [
                0.011031908606653318,
                -2.1484433837098207,
                -2.329118355762969,
                0.5022387438357714,
                -0.4262926373069216,
                0.7606122968148183
            ]
        },
        {
            "positions": [
                0.008451523990716324,
                -2.1472859654323537,
                -2.301356402356978,
                0.34463364196763724,
                -0.49232407226727826,
                0.89561440294653
            ]
        },
        {
            "positions": [
                0.0058711393747793265,
                -2.1461285471548868,
                -2.273594448950987,
                0.1870285400995031,
                -0.558355507227635,
                1.0306165090782415
            ]
        },
        {
            "positions": [
                0.003290754758842322,
                -2.1449711288774194,
                -2.245832495544996,
                0.029423438231368504,
                -0.6243869421879918,
                1.1656186152099535
            ]
        },
        {
            "positions": [
                0.0007103701429053283,
                -2.1438137105999524,
                -2.2180705421390052,
                -0.12818166363676564,
                -0.6904183771483486,
                1.300620721341665
            ]
        },
        {
            "positions": [
                -0.0018700144730316656,
                -2.1426562923224854,
                -2.1903085887330143,
                -0.2857867655048998,
                -0.7564498121087054,
                1.4356228274733764
            ]
        },
        {
            "positions": [
                -0.0044503990889686665,
                -2.141498874045018,
                -2.1625466353270233,
                -0.44339186737303393,
                -0.8224812470690622,
                1.570624933605088
            ]
        },
        {
            "positions": [
                -0.00703078370490566,
                -2.140341455767551,
                -2.1347846819210323,
                -0.6009969692411681,
                -0.8885126820294188,
                1.7056270397367999
            ]
        },
        {
            "positions": [
                -0.009611168320842668,
                -2.139184037490084,
                -2.1070227285150414,
                -0.7586020711093031,
                -0.9545441169897758,
                1.8406291458685118
            ]
        },
        {
            "positions": [
                -0.012191552936779662,
                -2.1380266192126167,
                -2.0792607751090504,
                -0.9162071729774373,
                -1.0205755519501327,
                1.9756312520002233
            ]
        },
        {
            "positions": [
                -0.014771937552716663,
                -2.1368692009351498,
                -2.05149882170306,
                -1.0738122748455714,
                -1.0866069869104895,
                2.1106333581319348
            ]
        },
        {
            "positions": [
                -0.017352322168653657,
                -2.1357117826576824,
                -2.0237368682970684,
                -1.2314173767137055,
                -1.1526384218708459,
                2.2456354642636467
            ]
        },
        {
            "positions": [
                -0.01993270678459065,
                -2.1345543643802154,
                -1.9959749148910777,
                -1.3890224785818397,
                -1.2186698568312027,
                2.380637570395358
            ]
        },
        {
            "positions": [
                -0.02251309140052765,
                -2.1333969461027484,
                -1.968212961485087,
                -1.5466275804499738,
                -1.2847012917915595,
                2.5156396765270697
            ]
        },
        {
            "positions": [
                -0.025093476016464646,
                -2.132239527825281,
                -1.940451008079096,
                -1.704232682318108,
                -1.3507327267519162,
                2.650641782658781
            ]
        },
        {
            "positions": [
                -0.027673860632401653,
                -2.131082109547814,
                -1.912689054673105,
                -1.861837784186243,
                -1.4167641617122735,
                2.785643888790493
            ]
        },
        {
            "positions": [
                -0.030254245248338654,
                -2.129924691270347,
                -1.884927101267114,
                -2.019442886054377,
                -1.4827955966726298,
                2.920645994922205
            ]
        },
        {
            "positions": [
                -0.03283462986427564,
                -2.1287672729928797,
                -1.857165147861123,
                -2.177047987922511,
                -1.5488270316329866,
                3.0556481010539165
            ]
        },
        {
            "positions": [
                -0.03541501448021265,
                -2.1276098547154128,
                -1.829403194455132,
                -2.334653089790645,
                -1.6148584665933436,
                3.190650207185628
            ]
        }
    ]
}