{
    "goal": {
        "global_pose": {
            "orientation": {
                "w": 0.7047431493862688,
                "x": -0.7094548369677653,
                "y": 0.0024358444001904,
                "z": -0.0022348060817251984
            },
            "position": {
                "x": -0.39052492380142206,
                "y": 0.3671506643295288,
                "z": 0.19426114857196808
            }
        },
        "name": "move_to_magneteinheit_D"
    },
    "id": "SPARS_move_to_magneteinheit_D_64",
    "joint_names": [
        "shoulder_pan_joint",
        "shoulder_lift_joint",
        "elbow_joint",
        "wrist_1_joint",
        "wrist_2_joint",
        "wrist_3_joint"
    ],
    "metrics": {
        "cart_traj_len": 4.393866325398494,
        "distance_elbow_joint": 4.5756512972900785,
        "distance_shoulder_lift_joint": 1.0990392476148192,
        "distance_shoulder_pan_joint": 3.033658238195679,
        "distance_wrist_1_joint": 2.2744150906766483,
        "distance_wrist_2_joint": 2.0043939126373784,
        "distance_wrist_3_joint": 3.4716751750462893,
        "smoothness": 0.47542491461758835,
        "time": 5.04397449,
        "traj_len": 4.056948725515384,
        "weighted_distance": 5.261272879719079
    },
    "planner": "SPARS",
    "start": {
        "state": {
            "elbow_joint": 0.749534889911806,
            "shoulder_lift_joint": -0.6476975780787326,
            "shoulder_pan_joint": -2.711696901376241,
            "wrist_1_joint": -0.07506478083263063,
            "wrist_2_joint": 0.43296659715538205,
            "wrist_3_joint": -3.14703540197715
        }
    },
    "waypoints": [
        {
            "positions": [
                -2.711696901376241,
                -0.6476975780787326,
                0.749534889911806,
                -0.07506478083263063,
                0.43296659715538205,
                -3.14703540197715
            ]
        },
        {
            "positions": [
                -2.7024462306916455,
                -0.6852577179991097,
                0.8032854438526611,
                -0.09686877700626637,
                0.3197028118272094,
                -3.0216276251622203
            ]
        },
        {
            "positions": [
                -2.69319556000705,
                -0.7228178579194869,
                0.8570359977935162,
                -0.1186727731799021,
                0.20643902649903675,
                -2.89621984834729
            ]
        },
        {
            "positions": [
                -2.6839448893224542,
                -0.760377997839864,
                0.9107865517343714,
                -0.14047676935353784,
                0.09317524117086412,
                -2.7708120715323603
            ]
        },
        {
            "positions": [
                -2.6746942186378586,
                -0.7979381377602411,
                0.9645371056752265,
                -0.16228076552717358,
                -0.02008854415730854,
                -2.64540429471743
            ]
        },
        {
            "positions": [
                -2.6654435479532625,
                -0.8354982776806184,
                1.0182876596160817,
                -0.18408476170080934,
                -0.1333523294854812,
                -2.5199965179025003
            ]
        },
        {
            "positions": [
                -2.656192877268667,
                -0.8730584176009955,
                1.0720382135569368,
                -0.20588875787444505,
                -0.2466161148136538,
                -2.3945887410875706
            ]
        },
        {
            "positions": [
                -2.6469422065840713,
                -0.9106185575213726,
                1.125788767497792,
                -0.22769275404808081,
                -0.3598799001418265,
                -2.2691809642726404
            ]
        },
        {
            "positions": [
                -2.6376915358994757,
                -0.9481786974417497,
                1.1795393214386471,
                -0.24949675022171655,
                -0.47314368546999913,
                -2.14377318745771
            ]
        },
        {
            "positions": [
                -2.62844086521488,
                -0.9857388373621269,
                1.2332898753795023,
                -0.2713007463953523,
                -0.5864074707981719,
                -2.0183654106427804
            ]
        },
        {
            "positions": [
                -2.5745210311589957,
                -1.0474601936147567,
                1.2751986391992574,
                -0.3446100987863043,
                -0.6346451618506576,
                -1.9127546361318086
            ]
        },
        {
            "positions": [
                -2.5206011971031113,
                -1.1091815498673865,
                1.3171074030190126,
                -0.41791945117725626,
                -0.6828828529031432,
                -1.8071438616208368
            ]
        },
        {
            "positions": [
                -2.4666813630472264,
                -1.1709029061200165,
                1.3590161668387677,
                -0.4912288035682083,
                -0.731120543955629,
                -1.701533087109865
            ]
        },
        {
            "positions": [
                -2.412761528991342,
                -1.2326242623726462,
                1.4009249306585227,
                -0.5645381559591602,
                -0.7793582350081145,
                -1.5959223125988933
            ]
        },
        {
            "positions": [
                -2.3588416949354576,
                -1.2943456186252762,
                1.442833694478278,
                -0.6378475083501123,
                -0.8275959260606003,
                -1.4903115380879213
            ]
        },
        {
            "positions": [
                -2.304921860879573,
                -1.356066974877906,
                1.484742458298033,
                -0.7111568607410643,
                -0.8758336171130859,
                -1.3847007635769495
            ]
        },
        {
            "positions": [
                -2.20998075025705,
                -1.362816926756521,
                1.3452253147669597,
                -0.7741293611661673,
                -0.8527336555285742,
                -1.4504573981410276
            ]
        },
        {
            "positions": [
                -2.115039639634527,
                -1.3695668786351363,
                1.2057081712358866,
                -0.8371018615912701,
                -0.8296336939440625,
                -1.5162140327051057
            ]
        },
        {
            "positions": [
                -2.020098529012004,
                -1.3763168305137514,
                1.0661910277048134,
                -0.9000743620163729,
                -0.8065337323595507,
                -1.5819706672691838
            ]
        },
        {
            "positions": [
                -1.9251574183894808,
                -1.3830667823923666,
                0.9266738841737401,
                -0.9630468624414759,
                -0.7834337707750391,
                -1.6477273018332617
            ]
        },
        {
            "positions": [
                -1.8302163077669578,
                -1.389816734270982,
                0.7871567406426667,
                -1.0260193628665788,
                -0.7603338091905273,
                -1.7134839363973398
            ]
        },
        {
            "positions": [
                -1.7352751971444347,
                -1.3965666861495971,
                0.6476395971115936,
                -1.0889918632916815,
                -0.7372338476060156,
                -1.7792405709614179
            ]
        },
        {
            "positions": [
                -1.6403340865219116,
                -1.4033166380282123,
                0.5081224535805202,
                -1.1519643637167845,
                -0.7141338860215038,
                -1.844997205525496
            ]
        },
        {
            "positions": [
                -1.5453929758993885,
                -1.4100665899068274,
                0.3686053100494471,
                -1.2149368641418874,
                -0.6910339244369922,
                -1.910753840089574
            ]
        },
        {
            "positions": [
                -1.4504518652768654,
                -1.4168165417854426,
                0.22908816651837394,
                -1.2779093645669901,
                -0.6679339628524805,
                -1.9765104746536521
            ]
        },
        {
            "positions": [
                -1.3555107546543423,
                -1.4235664936640577,
                0.08957102298730035,
                -1.340881864992093,
                -0.6448340012679687,
                -2.0422671092177302
            ]
        },
        {
            "positions": [
                -1.2605696440318193,
                -1.430316445542673,
                -0.04994612054377279,
                -1.403854365417196,
                -0.621734039683457,
                -2.1080237437818083
            ]
        },
        {
            "positions": [
                -1.1656285334092962,
                -1.437066397421288,
                -0.18946326407484593,
                -1.466826865842299,
                -0.5986340780989453,
                -2.1737803783458864
            ]
        },
        {
            "positions": [
                -1.070687422786773,
                -1.4438163492999034,
                -0.3289804076059193,
                -1.5297993662674019,
                -0.5755341165144335,
                -2.2395370129099645
            ]
        },
        {
            "positions": [
                -0.9757463121642498,
                -1.4505663011785186,
                -0.46849755113699265,
                -1.5927718666925048,
                -0.5524341549299219,
                -2.3052936474740426
            ]
        },
        {
            "positions": [
                -0.8808052015417269,
                -1.4573162530571337,
                -0.6080146946680656,
                -1.6557443671176073,
                -0.5293341933454101,
                -2.3710502820381203
            ]
        },
        {
            "positions": [
                -0.7858640909192038,
                -1.464066204935749,
                -0.7475318381991389,
                -1.7187168675427105,
                -0.5062342317608983,
                -2.4368069166021984
            ]
        },
        {
            "positions": [
                -0.6909229802966805,
                -1.470816156814364,
                -0.8870489817302123,
                -1.7816893679678134,
                -0.48313427017638666,
                -2.5025635511662765
            ]
        },
        {
            "positions": [
                -0.5959818696741577,
                -1.4775661086929792,
                -1.0265661252612852,
                -1.8446618683929161,
                -0.460034308591875,
                -2.5683201857303546
            ]
        },
        {
            "positions": [
                -0.5010407590516346,
                -1.4843160605715944,
                -1.166083268792359,
                -1.907634368818019,
                -0.4369343470073632,
                -2.6340768202944327
            ]
        },
        {
            "positions": [
                -0.4060996484291115,
                -1.4910660124502095,
                -1.3056004123234324,
                -1.970606869243122,
                -0.4138343854228515,
                -2.699833454858511
            ]
        },
        {
            "positions": [
                -0.3111585378065884,
                -1.497815964328825,
                -1.4451175558545053,
                -2.0335793696682245,
                -0.3907344238383398,
                -2.765590089422589
            ]
        },
        {
            "positions": [
                -0.21621742718406534,
                -1.50456591620744,
                -1.5846346993855787,
                -2.096551870093328,
                -0.3676344622538281,
                -2.831346723986667
            ]
        },
        {
            "positions": [
                -0.12127631656154225,
                -1.5113158680860552,
                -1.724151842916652,
                -2.1595243705184304,
                -0.34453450066931635,
                -2.897103358550745
            ]
        },
        {
            "positions": [
                -0.02633520593901917,
                -1.5180658199646704,
                -1.863668986447725,
                -2.2224968709435333,
                -0.3214345390848047,
                -2.962859993114823
            ]
        },
        {
            "positions": [
                0.06860590468350414,
                -1.5248157718432855,
                -2.0031861299787983,
                -2.2854693713686363,
                -0.29833457750029296,
                -3.0286166276789013
            ]
        },
        {
            "positions": [
                -0.015845906028474133,
                -1.598789456460041,
                -2.120691176854472,
                -2.264132537988422,
                -0.2589696912482543,
                -3.05042485186028
            ]
        },
        {
            "positions": [
                -0.1002977167404524,
                -1.6727631410767965,
                -2.2381962237301454,
                -2.242795704608208,
                -0.21960480499621565,
                -3.0722330760416594
            ]
        },
        {
            "positions": [
                -0.18474952745243067,
                -1.7467368256935518,
                -2.355701270605819,
                -2.2214588712279935,
                -0.18023991874417697,
                -3.0940413002230382
            ]
        }
    ]
}