{
    "goal": {
        "global_pose": {
            "orientation": {
                "w": 0.7031023502349854,
                "x": -0.7110244035720825,
                "y": 0.007748599164187908,
                "z": 0.005598929710686207
            },
            "position": {
                "x": 0.11585023208521307,
                "y": 0.44412534475326537,
                "z": 0.3711530566215515
            }
        },
        "name": "move_to_auspresseinheit_A"
    },
    "id": "SPARStwo_move_to_auspresseinheit_A_84",
    "joint_names": [
        "shoulder_pan_joint",
        "shoulder_lift_joint",
        "elbow_joint",
        "wrist_1_joint",
        "wrist_2_joint",
        "wrist_3_joint"
    ],
    "metrics": {
        "cart_traj_len": 0.7752787271312579,
        "distance_elbow_joint": 0.05361146499678604,
        "distance_shoulder_lift_joint": 0.9251344401540906,
        "distance_shoulder_pan_joint": 1.0449378387719088,
        "distance_wrist_1_joint": 0.5583380149510271,
        "distance_wrist_2_joint": 0.5842546922330712,
        "distance_wrist_3_joint": 1.155884726765699,
        "smoothness": 0.889197646344033,
        "time": 5.014882912,
        "traj_len": 2.0789808026705257,
        "weighted_distance": 2.788641844803323
    },
    "planner": "SPARStwo",
    "start": {
        "state": {
            "elbow_joint": 2.4225746658250005,
            "shoulder_lift_joint": -1.3736534386056498,
            "shoulder_pan_joint": -0.3378633547517467,
            "wrist_1_joint": -1.0288598680537169,
            "wrist_2_joint": 1.233022673432363,
            "wrist_3_joint": -3.0940220416140027
        }
    },
    "waypoints": [
        {
            "positions": [
                -0.3378633547517467,
                -1.3736534386056498,
                2.4225746658250005,
                -1.0288598680537169,
                1.233022673432363,
                -3.0940220416140027
            ]
        },
        {
            "positions": [
                -0.2934238700515763,
                -1.5198467261114976,
                2.4251749595647003,
                -0.9550816378395076,
                1.2401274392385169,
                -2.9828189318162774
            ]
        },
        {
            "positions": [
                -0.24898438535140588,
                -1.6660400136173457,
                2.4277752533044,
                -0.8813034076252984,
                1.247232205044671,
                -2.8716158220185517
            ]
        },
        {
            "positions": [
                -0.20454490065123546,
                -1.8122333011231935,
                2.4303755470441004,
                -0.8075251774110892,
                1.2543369708508247,
                -2.7604127122208264
            ]
        },
        {
            "positions": [
                -0.160105415951065,
                -1.9584265886290413,
                2.4329758407838002,
                -0.7337469471968798,
                1.2614417366569788,
                -2.6492096024231007
            ]
        },
        {
            "positions": [
                -0.1156659312508946,
                -2.104619876134889,
                2.4355761345235,
                -0.6599687169826707,
                1.2685465024631326,
                -2.5380064926253754
            ]
        },
        {
            "positions": [
                0.0018684137878278023,
                -2.0768815900456246,
                2.4297747064808877,
                -0.6329048792855305,
                1.1901563791485181,
                -2.6237020894506715
            ]
        },
        {
            "positions": [
                0.1194027588265502,
                -2.04914330395636,
                2.4239732784382753,
                -0.6058410415883904,
                1.1117662558339036,
                -2.709397686275967
            ]
        },
        {
            "positions": [
                0.2369371038652726,
                -2.0214050178670955,
                2.418171850395663,
                -0.5787772038912503,
                1.033376132519289,
                -2.7950932831012634
            ]
        },
        {
            "positions": [
                0.354471448903995,
                -1.9936667317778312,
                2.412370422353051,
                -0.5517133661941102,
                0.9549860092046745,
                -2.880788879926559
            ]
        },
        {
            "positions": [
                0.4720057939427174,
                -1.9659284456885666,
                2.4065689943104385,
                -0.52464952849697,
                0.87659588589006,
                -2.9664844767518552
            ]
        },
        {
            "positions": [
                0.5895401389814398,
                -1.9381901595993023,
                2.400767566267826,
                -0.49758569079982984,
                0.7982057625754455,
                -3.052180073577151
            ]
        },
        {
            "positions": [
                0.7070744840201622,
                -1.9104518735100378,
                2.3949661382252136,
                -0.47052185310268974,
                0.7198156392608309,
                -3.137875670402447
            ]
        }
    ]
}