{
    "goal": {
        "global_pose": {
            "orientation": {
                "w": 0.005598929693374612,
                "x": 0.007748599140229565,
                "y": 0.7110244013736278,
                "z": -0.7031023480610252
            },
            "position": {
                "x": 0.1141497679147869,
                "y": -0.7141253447532654,
                "z": 0.3711530566215515
            }
        },
        "name": "move_to_auspresseinheit_B"
    },
    "id": "SPARStwo_move_to_auspresseinheit_B_72",
    "joint_names": [
        "shoulder_pan_joint",
        "shoulder_lift_joint",
        "elbow_joint",
        "wrist_1_joint",
        "wrist_2_joint",
        "wrist_3_joint"
    ],
    "metrics": {
        "cart_traj_len": 0.5639115733716556,
        "distance_elbow_joint": 0.058033074507079396,
        "distance_shoulder_lift_joint": 0.29680759908724497,
        "distance_shoulder_pan_joint": 0.5768624940046818,
        "distance_wrist_1_joint": 0.31531625474789127,
        "distance_wrist_2_joint": 0.9928266880741716,
        "distance_wrist_3_joint": 0.002610102484789767,
        "smoothness": 0.0,
        "time": 5.0148346770000005,
        "traj_len": 1.4974832930306297,
        "weighted_distance": 1.8856880337684443
    },
    "planner": "SPARStwo",
    "start": {
        "state": {
            "elbow_joint": 2.0193083361928714,
            "shoulder_lift_joint": -1.1220246554650708,
            "shoulder_pan_joint": -1.0952077554168747,
            "wrist_1_joint": -0.8559753972642168,
            "wrist_2_joint": 0.4759566250798843,
            "wrist_3_joint": -3.1240929996934557
        }
    },
    "waypoints": [
        {
            "positions": [
                -1.0952077554168747,
                -1.1220246554650708,
                2.0193083361928714,
                -0.8559753972642168,
                0.4759566250798843,
                -3.1240929996934557
            ]
        },
        {
            "positions": [
                -1.191351504417655,
                -1.1714925886462784,
                2.0096361571083583,
                -0.8034226881395683,
                0.6414277397589129,
                -3.1245280167742537
            ]
        },
        {
            "positions": [
                -1.2874952534184352,
                -1.2209605218274857,
                1.999963978023845,
                -0.7508699790149197,
                0.8068988544379414,
                -3.1249630338550523
            ]
        },
        {
            "positions": [
                -1.3836390024192156,
                -1.2704284550086933,
                1.9902917989393316,
                -0.6983172698902711,
                0.97236996911697,
                -3.1253980509358508
            ]
        },
        {
            "positions": [
                -1.4797827514199957,
                -1.3198963881899008,
                1.9806196198548185,
                -0.6457645607656226,
                1.1378410837959987,
                -3.125833068016649
            ]
        },
        {
            "positions": [
                -1.5759265004207763,
                -1.3693643213711082,
                1.9709474407703054,
                -0.5932118516409741,
                1.3033121984750273,
                -3.126268085097447
            ]
        },
        {
            "positions": [
                -1.6720702494215565,
                -1.4188322545523158,
                1.961275261685792,
                -0.5406591425163255,
                1.468783313154056,
                -3.1267031021782454
            ]
        }
    ]
}