{
    "goal": {
        "global_pose": {
            "orientation": {
                "w": 0.5084816262002911,
                "x": -0.4908360881923452,
                "y": 0.5182115481033761,
                "z": -0.48164630358495003
            },
            "position": {
                "x": 0.5540239810943604,
                "y": -0.46912469901144505,
                "z": 0.16403168439865112
            }
        },
        "name": "move_to_storage_B"
    },
    "id": "SPARS_move_to_storage_B_148",
    "joint_names": [
        "shoulder_pan_joint",
        "shoulder_lift_joint",
        "elbow_joint",
        "wrist_1_joint",
        "wrist_2_joint",
        "wrist_3_joint"
    ],
    "metrics": {
        "cart_traj_len": 3.000222834485697,
        "distance_elbow_joint": 3.876240288995737,
        "distance_shoulder_lift_joint": 0.8450929975112953,
        "distance_shoulder_pan_joint": 1.042335529969143,
        "distance_wrist_1_joint": 3.0360350137041254,
        "distance_wrist_2_joint": 2.876278630783204,
        "distance_wrist_3_joint": 3.3968706362001946,
        "smoothness": 0.4245974223590293,
        "time": 5.085719758,
        "traj_len": 3.8823772481771655,
        "weighted_distance": 5.270569989484194
    },
    "planner": "SPARS",
    "start": {
        "state": {
            "elbow_joint": 1.664937868594044,
            "shoulder_lift_joint": -0.661644460510453,
            "shoulder_pan_joint": -0.9139846352900073,
            "wrist_1_joint": 2.146753192139373,
            "wrist_2_joint": -2.2341966793290973,
            "wrist_3_joint": 0.005466555786416001
        }
    },
    "waypoints": [
        {
            "positions": [
                -0.9139846352900073,
                -0.661644460510453,
                1.664937868594044,
                2.146753192139373,
                -2.2341966793290973,
                0.005466555786416001
            ]
        },
        {
            "positions": [
                -0.8598563983661967,
                -0.719698207766919,
                1.6264318696708364,
                2.1495560042762665,
                -2.274774404979295,
                0.015152451064284228
            ]
        },
        {
            "positions": [
                -0.805728161442386,
                -0.7777519550233849,
                1.587925870747629,
                2.1523588164131597,
                -2.3153521306294924,
                0.024838346342152456
            ]
        },
        {
            "positions": [
                -0.7878088577580264,
                -0.8076506893519454,
                1.494530211773875,
                2.057437306716376,
                -2.164332394515888,
                0.018311463405255676
            ]
        },
        {
            "positions": [
                -0.7698895540736669,
                -0.8375494236805059,
                1.401134552800121,
                1.9625157970195923,
                -2.013312658402283,
                0.0117845804683589
            ]
        },
        {
            "positions": [
                -0.7519702503893072,
                -0.8674481580090663,
                1.307738893826367,
                1.8675942873228086,
                -1.8622929222886784,
                0.005257697531462123
            ]
        },
        {
            "positions": [
                -0.7340509467049476,
                -0.8973468923376268,
                1.2143432348526129,
                1.772672777626025,
                -1.7112731861750736,
                -0.0012691854054346571
            ]
        },
        {
            "positions": [
                -0.7161316430205881,
                -0.9272456266661873,
                1.120947575878859,
                1.6777512679292412,
                -1.5602534500614689,
                -0.007796068342331437
            ]
        },
        {
            "positions": [
                -0.6982123393362285,
                -0.9571443609947476,
                1.027551916905105,
                1.5828297582324578,
                -1.4092337139478643,
                -0.01432295127922821
            ]
        },
        {
            "positions": [
                -0.6802930356518688,
                -0.9870430953233083,
                0.9341562579313509,
                1.4879082485356738,
                -1.2582139778342594,
                -0.020849834216124997
            ]
        },
        {
            "positions": [
                -0.6623737319675093,
                -1.0169418296518686,
                0.840760598957597,
                1.3929867388388903,
                -1.1071942417206548,
                -0.02737671715302177
            ]
        },
        {
            "positions": [
                -0.6444544282831497,
                -1.046840563980429,
                0.747364939983843,
                1.2980652291421066,
                -0.9561745056070501,
                -0.03390360008991855
            ]
        },
        {
            "positions": [
                -0.6265351245987901,
                -1.0767392983089896,
                0.653969281010089,
                1.203143719445323,
                -0.8051547694934453,
                -0.04043048302681533
            ]
        },
        {
            "positions": [
                -0.6086158209144306,
                -1.1066380326375502,
                0.5605736220363349,
                1.1082222097485392,
                -0.6541350333798406,
                -0.04695736596371211
            ]
        },
        {
            "positions": [
                -0.5906965172300709,
                -1.1365367669661106,
                0.4671779630625812,
                1.0133007000517558,
                -0.503115297266236,
                -0.05348424890060888
            ]
        },
        {
            "positions": [
                -0.5727772135457113,
                -1.166435501294671,
                0.37378230408882707,
                0.9183791903549721,
                -0.3520955611526313,
                -0.06001113183750566
            ]
        },
        {
            "positions": [
                -0.5548579098613518,
                -1.1963342356232314,
                0.28038664511507294,
                0.8234576806581881,
                -0.20107582503902632,
                -0.06653801477440245
            ]
        },
        {
            "positions": [
                -0.5369386061769921,
                -1.226232969951792,
                0.18699098614131904,
                0.7285361709614044,
                -0.05005608892542179,
                -0.07306489771129923
            ]
        },
        {
            "positions": [
                -0.5190193024926326,
                -1.2561317042803524,
                0.09359532716756513,
                0.633614661264621,
                0.10096364718818274,
                -0.079591780648196
            ]
        },
        {
            "positions": [
                -0.5010999988082729,
                -1.286030438608913,
                0.00019966819381123102,
                0.5386931515678373,
                0.25198338330178727,
                -0.08611866358509278
            ]
        },
        {
            "positions": [
                -0.4831806951239134,
                -1.3159291729374734,
                -0.09319599077994291,
                0.44377164187105345,
                0.40300311941539213,
                -0.09264554652198956
            ]
        },
        {
            "positions": [
                -0.5137572746140658,
                -1.3063887586832597,
                0.012709330701144633,
                0.3776795311266419,
                0.4068415158872884,
                0.07035520111702628
            ]
        },
        {
            "positions": [
                -0.5443338541042183,
                -1.296848344429046,
                0.11861465218223217,
                0.3115874203822303,
                0.4106799123591847,
                0.23335594875604213
            ]
        },
        {
            "positions": [
                -0.5749104335943707,
                -1.287307930174832,
                0.22451997366331972,
                0.24549530963781874,
                0.414518308831081,
                0.3963566963950579
            ]
        },
        {
            "positions": [
                -0.6054870130845231,
                -1.2777675159206183,
                0.33042529514440727,
                0.17940319889340717,
                0.41835670530297725,
                0.5593574440340738
            ]
        },
        {
            "positions": [
                -0.6360635925746756,
                -1.2682271016664046,
                0.43633061662549477,
                0.1133110881489956,
                0.42219510177487357,
                0.7223581916730896
            ]
        },
        {
            "positions": [
                -0.6666401720648281,
                -1.258686687412191,
                0.5422359381065823,
                0.04721897740458403,
                0.42603349824676984,
                0.8853589393121053
            ]
        },
        {
            "positions": [
                -0.6972167515549805,
                -1.2491462731579772,
                0.6481412595876698,
                -0.018873133339827486,
                0.4298718947186661,
                1.0483596869511211
            ]
        },
        {
            "positions": [
                -0.727793331045133,
                -1.2396058589037633,
                0.7540465810687574,
                -0.08496524408423911,
                0.4337102911905624,
                1.2113604345901372
            ]
        },
        {
            "positions": [
                -0.7583699105352855,
                -1.2300654446495496,
                0.8599519025498449,
                -0.15105735482865068,
                0.4375486876624587,
                1.3743611822291528
            ]
        },
        {
            "positions": [
                -0.7889464900254379,
                -1.2205250303953359,
                0.9658572240309324,
                -0.21714946557306225,
                0.441387084134355,
                1.5373619298681687
            ]
        },
        {
            "positions": [
                -0.8195230695155904,
                -1.2109846161411222,
                1.07176254551202,
                -0.28324157631747393,
                0.4452254806062513,
                1.7003626775071847
            ]
        },
        {
            "positions": [
                -0.8500996490057428,
                -1.2014442018869085,
                1.1776678669931075,
                -0.3493336870618854,
                0.44906387707814754,
                1.8633634251462001
            ]
        },
        {
            "positions": [
                -0.8806762284958952,
                -1.1919037876326946,
                1.283573188474195,
                -0.41542579780629696,
                0.45290227355004387,
                2.0263641727852164
            ]
        },
        {
            "positions": [
                -0.9112528079860476,
                -1.1823633733784809,
                1.3894785099552824,
                -0.4815179085507084,
                0.45674067002194013,
                2.189364920424232
            ]
        },
        {
            "positions": [
                -0.9418293874762002,
                -1.1728229591242672,
                1.49538383143637,
                -0.5476100192951201,
                0.4605790664938364,
                2.3523656680632477
            ]
        },
        {
            "positions": [
                -0.9724059669663526,
                -1.1632825448700534,
                1.6012891529174578,
                -0.6137021300395317,
                0.4644174629657327,
                2.515366415702264
            ]
        },
        {
            "positions": [
                -1.002982546456505,
                -1.1537421306158397,
                1.7071944743985452,
                -0.6797942407839431,
                0.468255859437629,
                2.6783671633412793
            ]
        },
        {
            "positions": [
                -1.0335591259466574,
                -1.1442017163616258,
                1.8130997958796327,
                -0.7458863515283548,
                0.47209425590952525,
                2.841367910980295
            ]
        },
        {
            "positions": [
                -1.06413570543681,
                -1.1346613021074121,
                1.9190051173607203,
                -0.8119784622727663,
                0.4759326523814216,
                3.004368658619311
            ]
        },
        {
            "positions": [
                -1.0947122849269624,
                -1.1251208878531984,
                2.0249104388418075,
                -0.8780705730171778,
                0.47977104885331784,
                3.167369406258327
            ]
        }
    ]
}