{
    "goal": {
        "global_pose": {
            "orientation": {
                "w": 0.7031023480610252,
                "x": -0.7110244013736278,
                "y": 0.0077485991402295624,
                "z": 0.005598929693374583
            },
            "position": {
                "x": -0.8841497679147869,
                "y": 0.44412534475326537,
                "z": 0.3711530566215515
            }
        },
        "name": "move_to_auspresseinheit_D"
    },
    "id": "SPARStwo_move_to_auspresseinheit_D_10",
    "joint_names": [
        "shoulder_pan_joint",
        "shoulder_lift_joint",
        "elbow_joint",
        "wrist_1_joint",
        "wrist_2_joint",
        "wrist_3_joint"
    ],
    "metrics": {
        "cart_traj_len": 0.34567911197542844,
        "distance_elbow_joint": 0.6754997243149543,
        "distance_shoulder_lift_joint": 0.14226669826428795,
        "distance_shoulder_pan_joint": 0.1347307832032029,
        "distance_wrist_1_joint": 0.6448425684857355,
        "distance_wrist_2_joint": 1.4434248192840151,
        "distance_wrist_3_joint": 0.10387758913574663,
        "smoothness": 7.894919348737726e-16,
        "time": 5.022770432,
        "traj_len": 1.7733138985210548,
        "weighted_distance": 2.3325232579181683
    },
    "planner": "SPARStwo",
    "start": {
        "state": {
            "elbow_joint": -1.8275523626775212,
            "shoulder_lift_joint": -2.126789852344167,
            "shoulder_pan_joint": -0.03513704404078235,
            "wrist_1_joint": -2.347782403156801,
            "wrist_2_joint": -1.6058999987535132,
            "wrist_3_joint": -3.0880379163319196
        }
    },
    "waypoints": [
        {
            "positions": [
                -0.03513704404078235,
                -2.126789852344167,
                -1.8275523626775212,
                -2.347782403156801,
                -1.6058999987535132,
                -3.0880379163319196
            ]
        },
        {
            "positions": [
                -0.051978391941182714,
                -2.1445731896272027,
                -1.7431148971381518,
                -2.428387724217518,
                -1.4254718963430113,
                -3.0750532176899514
            ]
        },
        {
            "positions": [
                -0.06881973984158307,
                -2.162356526910239,
                -1.6586774315987827,
                -2.5089930452782347,
                -1.2450437939325094,
                -3.062068519047983
            ]
        },
        {
            "positions": [
                -0.08566108774198344,
                -2.1801398641932748,
                -1.5742399660594133,
                -2.5895983663389517,
                -1.0646156915220075,
                -3.0490838204060147
            ]
        },
        {
            "positions": [
                -0.10250243564238379,
                -2.1979232014763106,
                -1.4898025005200441,
                -2.6702036873996686,
                -0.8841875891115056,
                -3.036099121764046
            ]
        },
        {
            "positions": [
                -0.11934378354278416,
                -2.215706538759347,
                -1.4053650349806748,
                -2.7508090084603856,
                -0.7037594867010037,
                -3.023114423122078
            ]
        },
        {
            "positions": [
                -0.13618513144318453,
                -2.2334898760423827,
                -1.3209275694413054,
                -2.8314143295211025,
                -0.5233313842905019,
                -3.0101297244801097
            ]
        },
        {
            "positions": [
                -0.15302647934358488,
                -2.251273213325419,
                -1.2364901039019363,
                -2.9120196505818194,
                -0.34290328187999997,
                -2.997145025838141
            ]
        },
        {
            "positions": [
                -0.16986782724398525,
                -2.269056550608455,
                -1.1520526383625669,
                -2.9926249716425364,
                -0.16247517946949808,
                -2.984160327196173
            ]
        }
    ]
}