{
    "goal": {
        "global_pose": {
            "orientation": {
                "w": -0.00223480608172531,
                "x": 0.0024358444001904467,
                "y": 0.7094548369677653,
                "z": -0.704743149386269
            },
            "position": {
                "x": 0.6205249238014221,
                "y": -0.6371506643295288,
                "z": 0.19426114857196808
            }
        },
        "name": "move_to_magneteinheit_B"
    },
    "id": "SPARS_move_to_magneteinheit_B_73",
    "joint_names": [
        "shoulder_pan_joint",
        "shoulder_lift_joint",
        "elbow_joint",
        "wrist_1_joint",
        "wrist_2_joint",
        "wrist_3_joint"
    ],
    "metrics": {
        "cart_traj_len": 2.9962099663488253,
        "distance_elbow_joint": 4.560524181155422,
        "distance_shoulder_lift_joint": 1.32148823529733,
        "distance_shoulder_pan_joint": 2.600926019610382,
        "distance_wrist_1_joint": 1.8219266572651738,
        "distance_wrist_2_joint": 1.1814126062227897,
        "distance_wrist_3_joint": 1.9479307163896564,
        "smoothness": 0.48512506962046176,
        "time": 5.0868980409999995,
        "traj_len": 3.6652705788168976,
        "weighted_distance": 4.509258155418475
    },
    "planner": "SPARS",
    "start": {
        "state": {
            "elbow_joint": 2.6216224122426386,
            "shoulder_lift_joint": -1.4174107377796124,
            "shoulder_pan_joint": 0.7066234856936794,
            "wrist_1_joint": 1.9546482284002225,
            "wrist_2_joint": -0.7096286983471962,
            "wrist_3_joint": 0.005740856962016249
        }
    },
    "waypoints": [
        {
            "positions": [
                0.7066234856936794,
                -1.4174107377796124,
                2.6216224122426386,
                1.9546482284002225,
                -0.7096286983471962,
                0.005740856962016249
            ]
        },
        {
            "positions": [
                0.6641417516634801,
                -1.4983035787031154,
                2.62188144206698,
                1.8826151428032836,
                -0.6826711984691808,
                0.12918535867109254
            ]
        },
        {
            "positions": [
                0.6216600176332809,
                -1.5791964196266184,
                2.622140471891322,
                1.8105820572063447,
                -0.6557136985911654,
                0.2526298603801688
            ]
        },
        {
            "positions": [
                0.5791782836030817,
                -1.6600892605501214,
                2.6223995017156634,
                1.7385489716094056,
                -0.62875619871315,
                0.3760743620892451
            ]
        },
        {
            "positions": [
                0.5366965495728825,
                -1.7409821014736244,
                2.622658531540005,
                1.6665158860124667,
                -0.6017986988351346,
                0.49951886379832144
            ]
        },
        {
            "positions": [
                0.4942148155426832,
                -1.8218749423971277,
                2.6229175613643463,
                1.5944828004155278,
                -0.5748411989571192,
                0.6229633655073977
            ]
        },
        {
            "positions": [
                0.451733081512484,
                -1.9027677833206307,
                2.623176591188688,
                1.5224497148185887,
                -0.5478836990791037,
                0.7464078672164739
            ]
        },
        {
            "positions": [
                0.40925134748228476,
                -1.9836606242441337,
                2.6234356210130296,
                1.4504166292216498,
                -0.5209261992010883,
                0.8698523689255503
            ]
        },
        {
            "positions": [
                0.5229963056210462,
                -1.9767100287939101,
                2.425994811555348,
                1.4194782150063736,
                -0.5094502640524492,
                0.8491450380578425
            ]
        },
        {
            "positions": [
                0.6367412637598076,
                -1.9697594333436865,
                2.228554002097667,
                1.3885398007910972,
                -0.4979743289038101,
                0.8284377071901345
            ]
        },
        {
            "positions": [
                0.750486221898569,
                -1.962808837893463,
                2.0311131926399852,
                1.357601386575821,
                -0.48649839375517107,
                0.8077303763224267
            ]
        },
        {
            "positions": [
                0.8642311800373303,
                -1.9558582424432394,
                1.8336723831823036,
                1.3266629723605445,
                -0.47502245860653197,
                0.7870230454547188
            ]
        },
        {
            "positions": [
                0.9779761381760917,
                -1.948907646993016,
                1.636231573724622,
                1.2957245581452683,
                -0.4635465234578929,
                0.766315714587011
            ]
        },
        {
            "positions": [
                1.0917210963148531,
                -1.9419570515427924,
                1.4387907642669406,
                1.2647861439299921,
                -0.4520705883092538,
                0.745608383719303
            ]
        },
        {
            "positions": [
                1.2054660544536144,
                -1.9350064560925688,
                1.241349954809259,
                1.2338477297147157,
                -0.44059465316061475,
                0.7249010528515952
            ]
        },
        {
            "positions": [
                1.319211012592376,
                -1.9280558606423452,
                1.0439091453515776,
                1.2029093154994395,
                -0.42911871801197565,
                0.7041937219838874
            ]
        },
        {
            "positions": [
                1.4329559707311372,
                -1.9211052651921217,
                0.846468335893896,
                1.1719709012841633,
                -0.41764278286333656,
                0.6834863911161795
            ]
        },
        {
            "positions": [
                1.5467009288698987,
                -1.914154669741898,
                0.6490275264362146,
                1.1410324870688868,
                -0.40616684771469747,
                0.6627790602484717
            ]
        },
        {
            "positions": [
                1.6604458870086602,
                -1.9072040742916745,
                0.4515867169785328,
                1.1100940728536104,
                -0.39469091256605837,
                0.6420717293807637
            ]
        },
        {
            "positions": [
                1.7741908451474215,
                -1.900253478841451,
                0.25414590752085164,
                1.0791556586383342,
                -0.3832149774174193,
                0.6213643985130559
            ]
        },
        {
            "positions": [
                1.887935803286183,
                -1.8933028833912273,
                0.056705098063170034,
                1.048217244423058,
                -0.3717390422687802,
                0.600657067645348
            ]
        },
        {
            "positions": [
                2.0016807614249443,
                -1.886352287941004,
                -0.14073571139451158,
                1.0172788302077818,
                -0.36026310712014115,
                0.5799497367776403
            ]
        },
        {
            "positions": [
                2.1154257195637056,
                -1.8794016924907804,
                -0.3381765208521932,
                0.9863404159925053,
                -0.34878717197150205,
                0.5592424059099323
            ]
        },
        {
            "positions": [
                2.2291706777024674,
                -1.8724510970405568,
                -0.5356173303098744,
                0.9554020017772291,
                -0.337311236822863,
                0.5385350750422244
            ]
        },
        {
            "positions": [
                2.3429156358412286,
                -1.8655005015903332,
                -0.733058139767556,
                0.9244635875619528,
                -0.3258353016742239,
                0.5178277441745166
            ]
        },
        {
            "positions": [
                2.45666059397999,
                -1.8585499061401096,
                -0.9304989492252376,
                0.8935251733466765,
                -0.3143593665255848,
                0.49712041330680873
            ]
        },
        {
            "positions": [
                2.5704055521187517,
                -1.851599310689886,
                -1.127939758682919,
                0.8625867591314001,
                -0.30288343137694573,
                0.47641308243910085
            ]
        },
        {
            "positions": [
                2.5830036628071977,
                -1.926680840773617,
                -1.240551656968848,
                0.8106588151998504,
                -0.2641044848438206,
                0.3812441364569315
            ]
        },
        {
            "positions": [
                2.5956017734956434,
                -2.0017623708573478,
                -1.353163555254777,
                0.7587308712683007,
                -0.2253255383106954,
                0.28607519047476215
            ]
        },
        {
            "positions": [
                2.6081998841840894,
                -2.0768439009410784,
                -1.4657754535407062,
                0.706802927336751,
                -0.18654659177757027,
                0.1909062444925928
            ]
        },
        {
            "positions": [
                2.6207979948725355,
                -2.151925431024809,
                -1.5783873518266351,
                0.6548749834052012,
                -0.1477676452444451,
                0.09573729851042345
            ]
        },
        {
            "positions": [
                2.633396105560981,
                -2.22700696110854,
                -1.6909992501125641,
                0.6029470394736516,
                -0.10898869871131994,
                0.0005683525282541013
            ]
        },
        {
            "positions": [
                2.645994216249427,
                -2.3020884911922708,
                -1.8036111483984931,
                0.5510190955421018,
                -0.07020975217819478,
                -0.09460059345391522
            ]
        },
        {
            "positions": [
                2.65951624896204,
                -2.3507549603630777,
                -1.7750445843505833,
                0.6567879388489296,
                0.06974727447703472,
                -0.06666472739714344
            ]
        },
        {
            "positions": [
                2.673038281674652,
                -2.3994214295338843,
                -1.7464780203026735,
                0.7625567821557575,
                0.2097043011322642,
                -0.038728861340371665
            ]
        },
        {
            "positions": [
                2.6865603143872647,
                -2.4480878987046912,
                -1.7179114562547637,
                0.8683256254625853,
                0.34966132778749376,
                -0.01079299528359988
            ]
        },
        {
            "positions": [
                2.6603153998932574,
                -2.474776345968447,
                -1.6719469454249856,
                0.9693166199491551,
                0.47178390787559343,
                0.024765648592740892
            ]
        }
    ]
}