{
    "goal": {
        "global_pose": {
            "orientation": {
                "w": 0.5084816217422485,
                "x": -0.49083608388900757,
                "y": 0.5182115435600281,
                "z": -0.4816462993621826
            },
            "position": {
                "x": 0.5540239810943604,
                "y": 0.030875300988554955,
                "z": 0.16403168439865112
            }
        },
        "name": "move_to_storage_A"
    },
    "id": "SPARStwo_move_to_storage_A_124",
    "joint_names": [
        "shoulder_pan_joint",
        "shoulder_lift_joint",
        "elbow_joint",
        "wrist_1_joint",
        "wrist_2_joint",
        "wrist_3_joint"
    ],
    "metrics": {
        "cart_traj_len": 0.35286876958355473,
        "distance_elbow_joint": 0.45069885504977725,
        "distance_shoulder_lift_joint": 0.23565288477037183,
        "distance_shoulder_pan_joint": 0.46291207862019557,
        "distance_wrist_1_joint": 0.2429967167857099,
        "distance_wrist_2_joint": 1.0927925795833786,
        "distance_wrist_3_joint": 0.09730487972469071,
        "smoothness": 1.2212453191034883e-15,
        "time": 5.019983344,
        "traj_len": 1.6069716844220137,
        "weighted_distance": 2.027993355598729
    },
    "planner": "SPARStwo",
    "start": {
        "state": {
            "elbow_joint": 1.9715481507254546,
            "shoulder_lift_joint": -1.1394850672790213,
            "shoulder_pan_joint": 0.12281154597544902,
            "wrist_1_joint": -0.7804720171073349,
            "wrist_2_joint": 0.12958658322886563,
            "wrist_3_joint": -3.1924895760937617
        }
    },
    "waypoints": [
        {
            "positions": [
                0.12281154597544902,
                -1.1394850672790213,
                1.9715481507254546,
                -0.7804720171073349,
                0.12958658322886563,
                -3.1924895760937617
            ]
        },
        {
            "positions": [
                0.056681249029706796,
                -1.1731497651033602,
                2.0359337014468513,
                -0.8151858337910077,
                0.285699808883634,
                -3.1785888789902343
            ]
        },
        {
            "positions": [
                -0.00944904791603543,
                -1.206814462927699,
                2.1003192521682483,
                -0.8498996504746806,
                0.44181303453840237,
                -3.1646881818867074
            ]
        },
        {
            "positions": [
                -0.07557934486177764,
                -1.2404791607520378,
                2.164704802889645,
                -0.8846134671583534,
                0.5979262601931707,
                -3.15078748478318
            ]
        },
        {
            "positions": [
                -0.14170964180751988,
                -1.2741438585763767,
                2.2290903536110416,
                -0.9193272838420263,
                0.7540394858479391,
                -3.1368867876796527
            ]
        },
        {
            "positions": [
                -0.20783993875326212,
                -1.3078085564007156,
                2.293475904332438,
                -0.9540411005256991,
                0.9101527115027075,
                -3.1229860905761253
            ]
        },
        {
            "positions": [
                -0.2739702356990043,
                -1.3414732542250543,
                2.3578614550538353,
                -0.9887549172093719,
                1.0662659371574759,
                -3.1090853934725984
            ]
        },
        {
            "positions": [
                -0.34010053264474654,
                -1.3751379520493932,
                2.422247005775232,
                -1.0234687338930448,
                1.2223791628122442,
                -3.095184696369071
            ]
        }
    ]
}