{
    "goal": {
        "global_pose": {
            "orientation": {
                "w": 0.7047431493862688,
                "x": -0.7094548369677653,
                "y": 0.0024358444001904,
                "z": -0.0022348060817251984
            },
            "position": {
                "x": -0.39052492380142206,
                "y": 0.3671506643295288,
                "z": 0.19426114857196808
            }
        },
        "name": "move_to_magneteinheit_D"
    },
    "id": "SPARS_move_to_magneteinheit_D_137",
    "joint_names": [
        "shoulder_pan_joint",
        "shoulder_lift_joint",
        "elbow_joint",
        "wrist_1_joint",
        "wrist_2_joint",
        "wrist_3_joint"
    ],
    "metrics": {
        "cart_traj_len": 3.9484728326316096,
        "distance_elbow_joint": 3.214382837957557,
        "distance_shoulder_lift_joint": 1.6264349641451552,
        "distance_shoulder_pan_joint": 3.140381039931761,
        "distance_wrist_1_joint": 1.937751197920293,
        "distance_wrist_2_joint": 1.2651818479489318,
        "distance_wrist_3_joint": 3.668264881362013,
        "smoothness": 0.4931231151231741,
        "time": 5.080340134,
        "traj_len": 3.85388074144306,
        "weighted_distance": 5.039033595627138
    },
    "planner": "SPARS",
    "start": {
        "state": {
            "elbow_joint": 0.749534889911806,
            "shoulder_lift_joint": -0.6476975780787326,
            "shoulder_pan_joint": -2.711696901376241,
            "wrist_1_joint": -0.07506478083263063,
            "wrist_2_joint": 0.43296659715538205,
            "wrist_3_joint": -3.14703540197715
        }
    },
    "waypoints": [
        {
            "positions": [
                -2.711696901376241,
                -0.6476975780787326,
                0.749534889911806,
                -0.07506478083263063,
                0.43296659715538205,
                -3.14703540197715
            ]
        },
        {
            "positions": [
                -2.7473707817215822,
                -0.6621427292753005,
                0.6616695699224543,
                -0.11186859080471927,
                0.29770081873743354,
                -3.081754567911123
            ]
        },
        {
            "positions": [
                -2.7830446620669234,
                -0.6765878804718684,
                0.5738042499331026,
                -0.1486724007768079,
                0.16243504031948502,
                -3.016473733845096
            ]
        },
        {
            "positions": [
                -2.8187185424122645,
                -0.6910330316684363,
                0.4859389299437511,
                -0.18547621074889653,
                0.027169261901536512,
                -2.9511928997790693
            ]
        },
        {
            "positions": [
                -2.8543924227576056,
                -0.7054781828650042,
                0.39807360995439944,
                -0.22228002072098518,
                -0.10809651651641197,
                -2.8859120657130424
            ]
        },
        {
            "positions": [
                -2.749431012623618,
                -0.7368455270982875,
                0.30394116154902606,
                -0.19502236232374287,
                -0.11579655212869011,
                -2.7678120098233796
            ]
        },
        {
            "positions": [
                -2.6444696024896306,
                -0.768212871331571,
                0.20980871314365263,
                -0.16776470392650053,
                -0.12349658774096826,
                -2.6497119539337173
            ]
        },
        {
            "positions": [
                -2.539508192355643,
                -0.7995802155648544,
                0.11567626473827924,
                -0.1405070455292582,
                -0.13119662335324642,
                -2.531611898044055
            ]
        },
        {
            "positions": [
                -2.4345467822216555,
                -0.8309475597981377,
                0.021543816332905807,
                -0.11324938713201588,
                -0.13889665896552456,
                -2.413511842154392
            ]
        },
        {
            "positions": [
                -2.329585372087668,
                -0.8623149040314211,
                -0.07258863207246757,
                -0.08599172873477356,
                -0.1465966945778027,
                -2.2954117862647294
            ]
        },
        {
            "positions": [
                -2.2246239619536805,
                -0.8936822482647044,
                -0.16672108047784095,
                -0.058734070337531225,
                -0.15429673019008083,
                -2.177311730375067
            ]
        },
        {
            "positions": [
                -2.119662551819693,
                -0.9250495924979879,
                -0.26085352888321445,
                -0.03147641194028891,
                -0.161996765802359,
                -2.0592116744854048
            ]
        },
        {
            "positions": [
                -2.0147011416857055,
                -0.9564169367312713,
                -0.35498597728858783,
                -0.004218753543046572,
                -0.16969680141463714,
                -1.941111618595742
            ]
        },
        {
            "positions": [
                -1.9097397315517182,
                -0.9877842809645546,
                -0.4491184256939612,
                0.02303890485419574,
                -0.17739683702691528,
                -1.8230115627060794
            ]
        },
        {
            "positions": [
                -1.8047783214177306,
                -1.019151625197838,
                -0.5432508740993346,
                0.05029656325143805,
                -0.18509687263919342,
                -1.704911506816417
            ]
        },
        {
            "positions": [
                -1.6998169112837431,
                -1.0505189694311214,
                -0.637383322504708,
                0.07755422164868042,
                -0.19279690825147155,
                -1.5868114509267544
            ]
        },
        {
            "positions": [
                -1.5948555011497556,
                -1.0818863136644048,
                -0.7315157709100814,
                0.10481188004592273,
                -0.20049694386374972,
                -1.4687113950370918
            ]
        },
        {
            "positions": [
                -1.489894091015768,
                -1.1132536578976882,
                -0.825648219315455,
                0.13206953844316505,
                -0.20819697947602783,
                -1.3506113391474293
            ]
        },
        {
            "positions": [
                -1.3849326808817806,
                -1.1446210021309715,
                -0.9197806677208283,
                0.15932719684040736,
                -0.215897015088306,
                -1.2325112832577667
            ]
        },
        {
            "positions": [
                -1.279971270747793,
                -1.1759883463642549,
                -1.013913116126202,
                0.18658485523764973,
                -0.22359705070058417,
                -1.114411227368104
            ]
        },
        {
            "positions": [
                -1.1750098606138057,
                -1.2073556905975384,
                -1.108045564531575,
                0.21384251363489204,
                -0.23129708631286228,
                -0.9963111714784416
            ]
        },
        {
            "positions": [
                -1.070048450479818,
                -1.2387230348308218,
                -1.2021780129369488,
                0.2411001720321344,
                -0.23899712192514044,
                -0.8782111155887788
            ]
        },
        {
            "positions": [
                -0.9650870403458307,
                -1.2700903790641052,
                -1.2963104613423218,
                0.26835783042937666,
                -0.24669715753741858,
                -0.7601110596991165
            ]
        },
        {
            "positions": [
                -0.860125630211843,
                -1.3014577232973885,
                -1.3904429097476956,
                0.29561548882661903,
                -0.2543971931496967,
                -0.6420110038094538
            ]
        },
        {
            "positions": [
                -0.7551642200778557,
                -1.3328250675306719,
                -1.4845753581530685,
                0.3228731472238613,
                -0.26209722876197483,
                -0.5239109479197914
            ]
        },
        {
            "positions": [
                -0.6502028099438681,
                -1.3641924117639554,
                -1.5787078065584423,
                0.35013080562110366,
                -0.269797264374253,
                -0.40581089203012866
            ]
        },
        {
            "positions": [
                -0.5452413998098806,
                -1.3955597559972386,
                -1.6728402549638153,
                0.377388464018346,
                -0.27749729998653117,
                -0.28771083614046633
            ]
        },
        {
            "positions": [
                -0.4402799896758931,
                -1.4269271002305222,
                -1.766972703369189,
                0.4046461224155884,
                -0.28519733559880933,
                -0.16961078025080356
            ]
        },
        {
            "positions": [
                -0.3353185795419056,
                -1.4582944444638053,
                -1.861105151774562,
                0.43190378081283065,
                -0.29289737121108744,
                -0.051510724361141236
            ]
        },
        {
            "positions": [
                -0.23035716940791806,
                -1.4896617886970889,
                -1.9552376001799359,
                0.459161439210073,
                -0.3005974068233656,
                0.06658933152852153
            ]
        },
        {
            "positions": [
                -0.12539575927393054,
                -1.521029132930372,
                -2.0493700485853092,
                0.4864190976073153,
                -0.3082974424356437,
                0.18468938741818386
            ]
        },
        {
            "positions": [
                -0.0204343491399432,
                -1.5523964771636556,
                -2.1435024969906826,
                0.5136767560045576,
                -0.3159974780479219,
                0.30278944330784663
            ]
        },
        {
            "positions": [
                -0.024356522152287476,
                -1.6390041692897253,
                -2.1718073950058026,
                0.6544699918531618,
                -0.25237356628790114,
                0.27917751701163035
            ]
        },
        {
            "positions": [
                -0.028278695164631752,
                -1.7256118614157951,
                -2.200112293020923,
                0.795263227701766,
                -0.18874965452788042,
                0.2555655907154141
            ]
        },
        {
            "positions": [
                -0.032200868176976025,
                -1.8122195535418648,
                -2.228417191036043,
                0.9360564635503702,
                -0.12512574276785968,
                0.23195366441919785
            ]
        },
        {
            "positions": [
                -0.036123041189320304,
                -1.8988272456679347,
                -2.2567220890511632,
                1.0768496993989745,
                -0.06150183100783896,
                0.2083417381229816
            ]
        },
        {
            "positions": [
                -0.040045214201664577,
                -1.9854349377940044,
                -2.285026987066283,
                1.2176429352475786,
                0.0021220807521818152,
                0.18472981182676534
            ]
        },
        {
            "positions": [
                -0.05465940919828619,
                -2.0368504385148842,
                -2.3330982806675844,
                1.3134827243961684,
                0.06369012511069634,
                0.15839257377741783
            ]
        },
        {
            "positions": [
                -0.06927360419490781,
                -2.0882659392357645,
                -2.3811695742688856,
                1.409322513544758,
                0.12525816946921087,
                0.13205533572807032
            ]
        },
        {
            "positions": [
                -0.08388779919152943,
                -2.1396814399566444,
                -2.429240867870187,
                1.5051623026933478,
                0.1868262138277254,
                0.10571809767872278
            ]
        },
        {
            "positions": [
                -0.18416179407267758,
                -2.274132542223888,
                -2.3936337876946223,
                1.4420686680757422,
                0.17343213295774496,
                0.08434940723083117
            ]
        }
    ]
}