{
    "goal": {
        "global_pose": {
            "orientation": {
                "w": 0.7031023502349854,
                "x": -0.7110244035720825,
                "y": 0.007748599164187908,
                "z": 0.005598929710686207
            },
            "position": {
                "x": 0.11585023208521307,
                "y": 0.44412534475326537,
                "z": 0.3711530566215515
            }
        },
        "name": "move_to_auspresseinheit_A"
    },
    "id": "SPARStwo_move_to_auspresseinheit_A_46",
    "joint_names": [
        "shoulder_pan_joint",
        "shoulder_lift_joint",
        "elbow_joint",
        "wrist_1_joint",
        "wrist_2_joint",
        "wrist_3_joint"
    ],
    "metrics": {
        "cart_traj_len": 0.6864992081925576,
        "distance_elbow_joint": 0.025899108427641426,
        "distance_shoulder_lift_joint": 0.5375608068711031,
        "distance_shoulder_pan_joint": 1.0450633394852211,
        "distance_wrist_1_joint": 0.5469520196570037,
        "distance_wrist_2_joint": 0.960125276919449,
        "distance_wrist_3_joint": 0.1430809421136212,
        "smoothness": 1.0713223165276065,
        "time": 5.007579646,
        "traj_len": 1.8051818449879333,
        "weighted_distance": 2.2476478092169456
    },
    "planner": "SPARStwo",
    "start": {
        "state": {
            "elbow_joint": 2.4225746658250005,
            "shoulder_lift_joint": -1.3736534386056498,
            "shoulder_pan_joint": -0.3378633547517467,
            "wrist_1_joint": -1.0288598680537169,
            "wrist_2_joint": 1.233022673432363,
            "wrist_3_joint": -3.0940220416140027
        }
    },
    "waypoints": [
        {
            "positions": [
                -0.3378633547517467,
                -1.3736534386056498,
                2.4225746658250005,
                -1.0288598680537169,
                1.233022673432363,
                -3.0940220416140027
            ]
        },
        {
            "positions": [
                -0.22015317261282685,
                -1.443032535846902,
                2.41996796777732,
                -0.9714074635881583,
                1.1269349171476746,
                -3.085414278039502
            ]
        },
        {
            "positions": [
                -0.10244299047390695,
                -1.512411633088154,
                2.417361269729639,
                -0.9139550591225997,
                1.0208471608629859,
                -3.076806514465002
            ]
        },
        {
            "positions": [
                0.015267191665012947,
                -1.5817907303294063,
                2.4147545716819585,
                -0.8565026546570411,
                0.9147594045782974,
                -3.0681987508905015
            ]
        },
        {
            "positions": [
                0.13297737380393282,
                -1.6511698275706583,
                2.4121478736342774,
                -0.7990502501914825,
                0.8086716482936089,
                -3.0595909873160014
            ]
        },
        {
            "positions": [
                0.2506875559428528,
                -1.7205489248119106,
                2.4095411755865968,
                -0.7415978457259239,
                0.7025838920089204,
                -3.050983223741501
            ]
        },
        {
            "positions": [
                0.3683977380817726,
                -1.7899280220531626,
                2.406934477538916,
                -0.6841454412603654,
                0.5964961357242319,
                -3.0423754601670008
            ]
        },
        {
            "positions": [
                0.4861079202206925,
                -1.8593071192944148,
                2.4043277794912354,
                -0.6266930367948067,
                0.49040837943954335,
                -3.0337676965925002
            ]
        },
        {
            "positions": [
                0.5966539524770833,
                -1.8852606823855838,
                2.4005016684442975,
                -0.55430044259576,
                0.5991638709028579,
                -3.0751809951385596
            ]
        },
        {
            "positions": [
                0.7071999847334742,
                -1.911214245476753,
                2.396675557397359,
                -0.48190784839671325,
                0.7079193623661726,
                -3.116594293684619
            ]
        }
    ]
}