{
    "goal": {
        "global_pose": {
            "orientation": {
                "w": 0.005598929693374612,
                "x": 0.007748599140229565,
                "y": 0.7110244013736278,
                "z": -0.7031023480610252
            },
            "position": {
                "x": 0.1141497679147869,
                "y": -0.7141253447532654,
                "z": 0.3711530566215515
            }
        },
        "name": "move_to_auspresseinheit_B"
    },
    "id": "SPARS_move_to_auspresseinheit_B_36",
    "joint_names": [
        "shoulder_pan_joint",
        "shoulder_lift_joint",
        "elbow_joint",
        "wrist_1_joint",
        "wrist_2_joint",
        "wrist_3_joint"
    ],
    "metrics": {
        "cart_traj_len": 0.5640232707245536,
        "distance_elbow_joint": 0.06030292392585568,
        "distance_shoulder_lift_joint": 0.2943376336077612,
        "distance_shoulder_pan_joint": 0.5761333093195127,
        "distance_wrist_1_joint": 0.3161987189285863,
        "distance_wrist_2_joint": 0.9934807783039747,
        "distance_wrist_3_joint": 0.007841129021032955,
        "smoothness": 5.075305255429287e-16,
        "time": 5.014977267,
        "traj_len": 1.4994313899297704,
        "weighted_distance": 1.8904116610890207
    },
    "planner": "SPARS",
    "start": {
        "state": {
            "elbow_joint": 2.0193083361928714,
            "shoulder_lift_joint": -1.1220246554650708,
            "shoulder_pan_joint": -1.0952077554168747,
            "wrist_1_joint": -0.8559753972642168,
            "wrist_2_joint": 0.4759566250798843,
            "wrist_3_joint": -3.1240929996934557
        }
    },
    "waypoints": [
        {
            "positions": [
                -1.0952077554168747,
                -1.1220246554650708,
                2.0193083361928714,
                -0.8559753972642168,
                0.4759566250798843,
                -3.1240929996934557
            ]
        },
        {
            "positions": [
                -1.1912299736367935,
                -1.171080927733031,
                2.0092578488718953,
                -0.8032756107761191,
                0.6415367547972134,
                -3.1253998545302943
            ]
        },
        {
            "positions": [
                -1.2872521918567121,
                -1.2201372000009911,
                1.9992073615509196,
                -0.7505758242880214,
                0.8071168845145424,
                -3.1267067093671335
            ]
        },
        {
            "positions": [
                -1.383274410076631,
                -1.2691934722689515,
                1.9891568742299435,
                -0.6978760377999236,
                0.9726970142318716,
                -3.128013564203972
            ]
        },
        {
            "positions": [
                -1.4792966282965496,
                -1.3182497445369117,
                1.9791063869089676,
                -0.645176251311826,
                1.1382771439492008,
                -3.129320419040811
            ]
        },
        {
            "positions": [
                -1.5753188465164687,
                -1.3673060168048718,
                1.9690558995879917,
                -0.5924764648237282,
                1.30385727366653,
                -3.13062727387765
            ]
        },
        {
            "positions": [
                -1.6713410647363873,
                -1.416362289072832,
                1.9590054122670157,
                -0.5397766783356305,
                1.469437403383859,
                -3.1319341287144886
            ]
        }
    ]
}