{
    "goal": {
        "global_pose": {
            "orientation": {
                "w": 0.005598929693374612,
                "x": 0.007748599140229565,
                "y": 0.7110244013736278,
                "z": -0.7031023480610252
            },
            "position": {
                "x": 0.1141497679147869,
                "y": -0.7141253447532654,
                "z": 0.3711530566215515
            }
        },
        "name": "move_to_auspresseinheit_B"
    },
    "id": "SPARS_move_to_auspresseinheit_B_99",
    "joint_names": [
        "shoulder_pan_joint",
        "shoulder_lift_joint",
        "elbow_joint",
        "wrist_1_joint",
        "wrist_2_joint",
        "wrist_3_joint"
    ],
    "metrics": {
        "cart_traj_len": 0.5642221555385724,
        "distance_elbow_joint": 0.06257344814290944,
        "distance_shoulder_lift_joint": 0.29533810675964234,
        "distance_shoulder_pan_joint": 0.5767594503680018,
        "distance_wrist_1_joint": 0.32919236945023644,
        "distance_wrist_2_joint": 0.9928774927111765,
        "distance_wrist_3_joint": 0.004359935267334247,
        "smoothness": 5.075305255429287e-16,
        "time": 5.031861576,
        "traj_len": 1.5036957147971464,
        "weighted_distance": 1.8952283596958395
    },
    "planner": "SPARS",
    "start": {
        "state": {
            "elbow_joint": 2.0193083361928714,
            "shoulder_lift_joint": -1.1220246554650708,
            "shoulder_pan_joint": -1.0952077554168747,
            "wrist_1_joint": -0.8559753972642168,
            "wrist_2_joint": 0.4759566250798843,
            "wrist_3_joint": -3.1240929996934557
        }
    },
    "waypoints": [
        {
            "positions": [
                -1.0952077554168747,
                -1.1220246554650708,
                2.0193083361928714,
                -0.8559753972642168,
                0.4759566250798843,
                -3.1240929996934557
            ]
        },
        {
            "positions": [
                -1.1913343304782082,
                -1.1712476732583446,
                2.0088794281690534,
                -0.8011100023558441,
                0.6414362071984137,
                -3.1233663438155665
            ]
        },
        {
            "positions": [
                -1.2874609055395418,
                -1.2204706910516183,
                1.998450520145235,
                -0.7462446074474713,
                0.8069157893169432,
                -3.1226396879376774
            ]
        },
        {
            "positions": [
                -1.3835874806008754,
                -1.2696937088448919,
                1.9880216121214167,
                -0.6913792125390985,
                0.9723953714354725,
                -3.1219130320597888
            ]
        },
        {
            "positions": [
                -1.479714055662209,
                -1.3189167266381656,
                1.9775927040975985,
                -0.6365138176307259,
                1.137874953554002,
                -3.1211863761818996
            ]
        },
        {
            "positions": [
                -1.5758406307235429,
                -1.3681397444314394,
                1.9671637960737802,
                -0.5816484227223531,
                1.3033545356725313,
                -3.1204597203040105
            ]
        },
        {
            "positions": [
                -1.6719672057848765,
                -1.4173627622247131,
                1.956734888049962,
                -0.5267830278139803,
                1.4688341177910609,
                -3.1197330644261214
            ]
        }
    ]
}