{
    "goal": {
        "global_pose": {
            "orientation": {
                "w": 0.5084816217422485,
                "x": -0.49083608388900757,
                "y": 0.5182115435600281,
                "z": -0.4816462993621826
            },
            "position": {
                "x": 0.5540239810943604,
                "y": 0.030875300988554955,
                "z": 0.16403168439865112
            }
        },
        "name": "move_to_storage_A"
    },
    "id": "SPARS_move_to_storage_A_87",
    "joint_names": [
        "shoulder_pan_joint",
        "shoulder_lift_joint",
        "elbow_joint",
        "wrist_1_joint",
        "wrist_2_joint",
        "wrist_3_joint"
    ],
    "metrics": {
        "cart_traj_len": 0.3528644332340747,
        "distance_elbow_joint": 0.450741515943456,
        "distance_shoulder_lift_joint": 0.23478980289440177,
        "distance_shoulder_pan_joint": 0.46004872730415103,
        "distance_wrist_1_joint": 0.2416091579513503,
        "distance_wrist_2_joint": 1.1049921651474233,
        "distance_wrist_3_joint": 0.10450274584165475,
        "smoothness": 0.0,
        "time": 5.04678439,
        "traj_len": 1.611423009356152,
        "weighted_distance": 2.037717087788322
    },
    "planner": "SPARS",
    "start": {
        "state": {
            "elbow_joint": 1.971548259319323,
            "shoulder_lift_joint": -1.1394851275133948,
            "shoulder_pan_joint": 0.1228115487234821,
            "wrist_1_joint": -0.7804723859257726,
            "wrist_2_joint": 0.12958671773740124,
            "wrist_3_joint": -3.192489227718131
        }
    },
    "waypoints": [
        {
            "positions": [
                0.1228115487234821,
                -1.1394851275133948,
                1.971548259319323,
                -0.7804723859257726,
                0.12958671773740124,
                -3.192489227718131
            ]
        },
        {
            "positions": [
                0.05709030196574624,
                -1.1730265279268808,
                2.0359399044541022,
                -0.8149879799188227,
                0.2874427413298903,
                -3.177560264026466
            ]
        },
        {
            "positions": [
                -0.008630944791989614,
                -1.2065679283403667,
                2.1003315495888817,
                -0.8495035739118727,
                0.4452987649223793,
                -3.162631300334801
            ]
        },
        {
            "positions": [
                -0.07435219154972547,
                -1.2401093287538527,
                2.164723194723661,
                -0.8840191679049227,
                0.6031547885148684,
                -3.1477023366431363
            ]
        },
        {
            "positions": [
                -0.14007343830746133,
                -1.2736507291673387,
                2.2291148398584406,
                -0.9185347618979728,
                0.7610108121073574,
                -3.1327733729514713
            ]
        },
        {
            "positions": [
                -0.2057946850651972,
                -1.3071921295808246,
                2.29350648499322,
                -0.9530503558910228,
                0.9188668356998465,
                -3.1178444092598063
            ]
        },
        {
            "positions": [
                -0.27151593182293304,
                -1.3407335299943106,
                2.3578981301279995,
                -0.9875659498840729,
                1.0767228592923355,
                -3.1029154455681414
            ]
        },
        {
            "positions": [
                -0.33723717858066893,
                -1.3742749304077966,
                2.422289775262779,
                -1.022081543877123,
                1.2345788828848245,
                -3.0879864818764764
            ]
        }
    ]
}{
    "goal": {
        "global_pose": {
            "orientation": {
                "w": 0.5084816217422485,
                "x": -0.49083608388900757,
                "y": 0.5182115435600281,
                "z": -0.4816462993621826
            },
            "position": {
                "x": 0.5540239810943604,
                "y": 0.030875300988554955,
                "z": 0.16403168439865112
            }
        },
        "name": "move_to_storage_A"
    },
    "id": "SPARS_move_to_storage_A_87",
    "joint_names": [
        "shoulder_pan_joint",
        "shoulder_lift_joint",
        "elbow_joint",
        "wrist_1_joint",
        "wrist_2_joint",
        "wrist_3_joint"
    ],
    "metrics": {
        "cart_traj_len": 0.3535920396081477,
        "distance_elbow_joint": 0.452913435888465,
        "distance_shoulder_lift_joint": 0.23557378325786238,
        "distance_shoulder_pan_joint": 0.46310169368770027,
        "distance_wrist_1_joint": 0.2522003461561044,
        "distance_wrist_2_joint": 1.0976371790170882,
        "distance_wrist_3_joint": 0.1001892883044686,
        "smoothness": 1.1102230263833737e-15,
        "time": 5.009056080000001,
        "traj_len": 1.6129524873075738,
        "weighted_distance": 2.0376044336656265
    },
    "planner": "SPARS",
    "start": {
        "state": {
            "elbow_joint": 1.97154746011099,
            "shoulder_lift_joint": -1.13948474672311,
            "shoulder_pan_joint": 0.12281154466712228,
            "wrist_1_joint": -0.7804688027058302,
            "wrist_2_joint": 0.12958655903071145,
            "wrist_3_joint": 3.0906928834467795
        }
    },
    "waypoints": [
        {
            "positions": [
                0.12281154466712228,
                -1.13948474672311,
                1.97154746011099,
                -0.7804688027058302,
                0.12958655903071145,
                3.0906928834467795
            ]
        },
        {
            "positions": [
                0.05665415985459368,
                -1.173138144331376,
                2.036249379523628,
                -0.8164974235852737,
                0.2863918703188669,
                3.1050056389188465
            ]
        },
        {
            "positions": [
                -0.009503224957934917,
                -1.206791541939642,
                2.1009512989362658,
                -0.8525260444647171,
                0.4431971816070224,
                3.1193183943909135
            ]
        },
        {
            "positions": [
                -0.07566060977046353,
                -1.240444939547908,
                2.1656532183489037,
                -0.8885546653441606,
                0.6000024928951778,
                3.1336311498629805
            ]
        },
        {
            "positions": [
                -0.1418179945829921,
                -1.274098337156174,
                2.230355137761541,
                -0.9245832862236041,
                0.7568078041833333,
                3.147943905335047
            ]
        },
        {
            "positions": [
                -0.20797537939552074,
                -1.3077517347644403,
                2.295057057174179,
                -0.9606119071030477,
                0.9136131154714888,
                3.162256660807114
            ]
        },
        {
            "positions": [
                -0.27413276420804933,
                -1.3414051323727063,
                2.359758976586817,
                -0.9966405279824911,
                1.0704184267596442,
                3.176569416279181
            ]
        },
        {
            "positions": [
                -0.34029014902057797,
                -1.3750585299809723,
                2.424460895999455,
                -1.0326691488619346,
                1.2272237380477997,
                3.190882171751248
            ]
        }
    ]
}{
    "goal": {
        "global_pose": {
            "orientation": {
                "w": 0.5084816217422485,
                "x": -0.49083608388900757,
                "y": 0.5182115435600281,
                "z": -0.4816462993621826
            },
            "position": {
                "x": 0.5540239810943604,
                "y": 0.030875300988554955,
                "z": 0.16403168439865112
            }
        },
        "name": "move_to_storage_A"
    },
    "id": "SPARS_move_to_storage_A_87",
    "joint_names": [
        "shoulder_pan_joint",
        "shoulder_lift_joint",
        "elbow_joint",
        "wrist_1_joint",
        "wrist_2_joint",
        "wrist_3_joint"
    ],
    "metrics": {
        "cart_traj_len": 0.3537099182701863,
        "distance_elbow_joint": 0.4524627552334892,
        "distance_shoulder_lift_joint": 0.23277098375418492,
        "distance_shoulder_pan_joint": 0.46327390422891285,
        "distance_wrist_1_joint": 0.253525567613639,
        "distance_wrist_2_joint": 1.0964481802392012,
        "distance_wrist_3_joint": 0.09230170283400296,
        "smoothness": 6.661338200497456e-16,
        "time": 5.024365189999999,
        "traj_len": 1.6095909709933856,
        "weighted_distance": 2.0310982860079116
    },
    "planner": "SPARS",
    "start": {
        "state": {
            "elbow_joint": 1.9715472970024885,
            "shoulder_lift_joint": -1.1394870060712896,
            "shoulder_pan_joint": 0.12281152778156021,
            "wrist_1_joint": -0.780463741449964,
            "wrist_2_joint": 0.12958659822042276,
            "wrist_3_joint": 3.090690232415272
        }
    },
    "waypoints": [
        {
            "positions": [
                0.12281152778156021,
                -1.1394870060712896,
                1.9715472970024885,
                -0.780463741449964,
                0.12958659822042276,
                3.090690232415272
            ]
        },
        {
            "positions": [
                0.0566295414631441,
                -1.172740003750459,
                2.0361848334644157,
                -0.8166816796804839,
                0.28622205254030864,
                3.1038761899629868
            ]
        },
        {
            "positions": [
                -0.009552444855272013,
                -1.205993001429628,
                2.1008223699263424,
                -0.8528996179110037,
                0.44285750686019454,
                3.117062147510701
            ]
        },
        {
            "positions": [
                -0.07573443117368811,
                -1.2392459991087974,
                2.1654599063882696,
                -0.8891175561415235,
                0.5994929611800804,
                3.130248105058416
            ]
        },
        {
            "positions": [
                -0.14191641749210424,
                -1.2724989967879667,
                2.2300974428501967,
                -0.9253354943720434,
                0.7561284154999662,
                3.1434340626061306
            ]
        },
        {
            "positions": [
                -0.2080984038105204,
                -1.305751994467136,
                2.294734979312124,
                -0.9615534326025632,
                0.9127638698198521,
                3.1566200201538455
            ]
        },
        {
            "positions": [
                -0.27428039012893646,
                -1.3390049921463052,
                2.3593725157740506,
                -0.9977713708330831,
                1.0693993241397381,
                3.16980597770156
            ]
        },
        {
            "positions": [
                -0.3404623764473526,
                -1.3722579898254745,
                2.4240100522359778,
                -1.033989309063603,
                1.226034778459624,
                3.182991935249275
            ]
        }
    ]
}