{
    "goal": {
        "global_pose": {
            "orientation": {
                "w": -0.00223480608172531,
                "x": 0.0024358444001904467,
                "y": 0.7094548369677653,
                "z": -0.704743149386269
            },
            "position": {
                "x": 0.6205249238014221,
                "y": -0.6371506643295288,
                "z": 0.19426114857196808
            }
        },
        "name": "move_to_magneteinheit_B"
    },
    "id": "SPARS_move_to_magneteinheit_B_104",
    "joint_names": [
        "shoulder_pan_joint",
        "shoulder_lift_joint",
        "elbow_joint",
        "wrist_1_joint",
        "wrist_2_joint",
        "wrist_3_joint"
    ],
    "metrics": {
        "cart_traj_len": 1.4603366137810758,
        "distance_elbow_joint": 0.9571857242344031,
        "distance_shoulder_lift_joint": 0.7561824302080276,
        "distance_shoulder_pan_joint": 1.6216716267499907,
        "distance_wrist_1_joint": 0.5236363732867018,
        "distance_wrist_2_joint": 1.73149640177479,
        "distance_wrist_3_joint": 0.14187264969513597,
        "smoothness": 0.46636597995222334,
        "time": 5.092128108,
        "traj_len": 2.394169001125244,
        "weighted_distance": 2.87592129245583
    },
    "planner": "SPARS",
    "start": {
        "state": {
            "elbow_joint": 2.6216224122426386,
            "shoulder_lift_joint": -1.4174107377796124,
            "shoulder_pan_joint": 0.7066234856936794,
            "wrist_1_joint": 1.9546482284002225,
            "wrist_2_joint": -0.7096286983471962,
            "wrist_3_joint": 0.005740856962016249
        }
    },
    "waypoints": [
        {
            "positions": [
                0.7066234856936794,
                -1.4174107377796124,
                2.6216224122426386,
                1.9546482284002225,
                -0.7096286983471962,
                0.005740856962016249
            ]
        },
        {
            "positions": [
                0.5234922721510368,
                -1.411143391954526,
                2.5931274330971537,
                1.8695921057807865,
                -0.6556710526527195,
                0.04105395574556019
            ]
        },
        {
            "positions": [
                0.34036105860839416,
                -1.4048760461294396,
                2.5646324539516687,
                1.7845359831613505,
                -0.6017134069582428,
                0.07636705452910414
            ]
        },
        {
            "positions": [
                0.24379112017264762,
                -1.3476723739326815,
                2.495386625802174,
                1.8117301468573375,
                -0.7266042616033072,
                0.07088655821156198
            ]
        },
        {
            "positions": [
                0.14722118173690107,
                -1.2904687017359235,
                2.426140797652679,
                1.8389243105533244,
                -0.8514951162483715,
                0.06540606189401982
            ]
        },
        {
            "positions": [
                0.05065124330115456,
                -1.2332650295391654,
                2.356894969503184,
                1.8661184742493113,
                -0.9763859708934359,
                0.05992556557647767
            ]
        },
        {
            "positions": [
                -0.045918695134592014,
                -1.1760613573424075,
                2.2876491413536892,
                1.8933126379452982,
                -1.1012768255385001,
                0.05444506925893551
            ]
        },
        {
            "positions": [
                -0.14248863357033853,
                -1.1188576851456493,
                2.2184033132041945,
                1.9205068016412852,
                -1.2261676801835646,
                0.04896457294139335
            ]
        },
        {
            "positions": [
                -0.23905857200608505,
                -1.0616540129488912,
                2.1491574850546997,
                1.947700965337272,
                -1.351058534828629,
                0.043484076623851196
            ]
        },
        {
            "positions": [
                -0.3356285104418316,
                -1.0044503407521332,
                2.0799116569052045,
                1.9748951290332588,
                -1.4759493894736933,
                0.038003580306309036
            ]
        },
        {
            "positions": [
                -0.4321984488775782,
                -0.9472466685553751,
                2.0106658287557098,
                2.002089292729246,
                -1.6008402441187577,
                0.032523083988766875
            ]
        },
        {
            "positions": [
                -0.5287683873133247,
                -0.8900429963586171,
                1.941420000606215,
                2.0292834564252327,
                -1.725731098763822,
                0.02704258767122472
            ]
        },
        {
            "positions": [
                -0.6253383257490712,
                -0.8328393241618589,
                1.87217417245672,
                2.05647762012122,
                -1.8506219534088864,
                0.02156209135368256
            ]
        },
        {
            "positions": [
                -0.7219082641848177,
                -0.775635651965101,
                1.8029283443072253,
                2.0836717838172065,
                -1.9755128080539508,
                0.016081595036140407
            ]
        },
        {
            "positions": [
                -0.8184782026205643,
                -0.7184319797683428,
                1.7336825161577303,
                2.1108659475131937,
                -2.1004036626990152,
                0.010601098718598254
            ]
        },
        {
            "positions": [
                -0.9150481410563109,
                -0.6612283075715848,
                1.6644366880082355,
                2.1380601112091804,
                -2.2252945173440795,
                0.005120602401056094
            ]
        }
    ]
}