{
    "goal": {
        "global_pose": {
            "orientation": {
                "w": 0.5084816217422485,
                "x": -0.49083608388900757,
                "y": 0.5182115435600281,
                "z": -0.4816462993621826
            },
            "position": {
                "x": 0.5540239810943604,
                "y": 0.030875300988554955,
                "z": 0.16403168439865112
            }
        },
        "name": "move_to_storage_A"
    },
    "id": "SPARStwo_move_to_storage_A_59",
    "joint_names": [
        "shoulder_pan_joint",
        "shoulder_lift_joint",
        "elbow_joint",
        "wrist_1_joint",
        "wrist_2_joint",
        "wrist_3_joint"
    ],
    "metrics": {
        "cart_traj_len": 0.35309316693172044,
        "distance_elbow_joint": 0.45225580164779977,
        "distance_shoulder_lift_joint": 0.23524299374537727,
        "distance_shoulder_pan_joint": 0.4598667900287141,
        "distance_wrist_1_joint": 0.2508769347667834,
        "distance_wrist_2_joint": 1.1075205004255462,
        "distance_wrist_3_joint": 0.10415843935730607,
        "smoothness": 1.2212453338657903e-15,
        "time": 5.006200033,
        "traj_len": 1.6155251344289034,
        "weighted_distance": 2.043681916022762
    },
    "planner": "SPARStwo",
    "start": {
        "state": {
            "elbow_joint": 1.9715481507254546,
            "shoulder_lift_joint": -1.1394850672790213,
            "shoulder_pan_joint": 0.12281154597544902,
            "wrist_1_joint": -0.7804720171073349,
            "wrist_2_joint": 0.12958658322886563,
            "wrist_3_joint": -3.1924895760937617
        }
    },
    "waypoints": [
        {
            "positions": [
                0.12281154597544902,
                -1.1394850672790213,
                1.9715481507254546,
                -0.7804720171073349,
                0.12958658322886563,
                -3.1924895760937617
            ]
        },
        {
            "positions": [
                0.05711629025706129,
                -1.1730912092426466,
                2.0361561223894262,
                -0.8163115792168755,
                0.2878037975753722,
                -3.177609799042718
            ]
        },
        {
            "positions": [
                -0.008578965461326443,
                -1.206697351206272,
                2.1007640940533974,
                -0.8521511413264159,
                0.4460210119218788,
                -3.162730021991674
            ]
        },
        {
            "positions": [
                -0.07427422117971416,
                -1.2403034931698973,
                2.165372065717369,
                -0.8879907034359564,
                0.6042382262683854,
                -3.1478502449406305
            ]
        },
        {
            "positions": [
                -0.1399694768981019,
                -1.2739096351335226,
                2.22998003738134,
                -0.9238302655454969,
                0.762455440614892,
                -3.132970467889587
            ]
        },
        {
            "positions": [
                -0.20566473261648965,
                -1.307515777097148,
                2.2945880090453117,
                -0.9596698276550374,
                0.9206726549613986,
                -3.1180906908385433
            ]
        },
        {
            "positions": [
                -0.27135998833487734,
                -1.3411219190607733,
                2.359195980709283,
                -0.9955093897645778,
                1.0788898693079052,
                -3.1032109137874992
            ]
        },
        {
            "positions": [
                -0.3370552440532651,
                -1.3747280610243986,
                2.4238039523732544,
                -1.0313489518741183,
                1.2371070836544118,
                -3.0883311367364557
            ]
        }
    ]
}