{
    "goal": {
        "global_pose": {
            "orientation": {
                "w": 0.7031023480610252,
                "x": -0.7110244013736278,
                "y": 0.0077485991402295624,
                "z": 0.005598929693374583
            },
            "position": {
                "x": -0.8841497679147869,
                "y": 0.44412534475326537,
                "z": 0.3711530566215515
            }
        },
        "name": "move_to_auspresseinheit_D"
    },
    "id": "SPARStwo_move_to_auspresseinheit_D_136",
    "joint_names": [
        "shoulder_pan_joint",
        "shoulder_lift_joint",
        "elbow_joint",
        "wrist_1_joint",
        "wrist_2_joint",
        "wrist_3_joint"
    ],
    "metrics": {
        "cart_traj_len": 0.3449596148240229,
        "distance_elbow_joint": 0.6656429095587306,
        "distance_shoulder_lift_joint": 0.13593482032355064,
        "distance_shoulder_pan_joint": 0.13389434873173425,
        "distance_wrist_1_joint": 0.6153011271759268,
        "distance_wrist_2_joint": 1.438580380083843,
        "distance_wrist_3_joint": 0.07434242153987825,
        "smoothness": 0.0,
        "time": 5.005875473000001,
        "traj_len": 1.7503416830475311,
        "weighted_distance": 2.2948338409900595
    },
    "planner": "SPARStwo",
    "start": {
        "state": {
            "elbow_joint": -1.8275523626775212,
            "shoulder_lift_joint": -2.126789852344167,
            "shoulder_pan_joint": -0.03513704404078235,
            "wrist_1_joint": -2.347782403156801,
            "wrist_2_joint": -1.6058999987535132,
            "wrist_3_joint": -3.0880379163319196
        }
    },
    "waypoints": [
        {
            "positions": [
                -0.03513704404078235,
                -2.126789852344167,
                -1.8275523626775212,
                -2.347782403156801,
                -1.6058999987535132,
                -3.0880379163319196
            ]
        },
        {
            "positions": [
                -0.051873837632249134,
                -2.143781704884611,
                -1.7443469989826799,
                -2.4246950440537915,
                -1.4260774512430328,
                -3.078745113639435
            ]
        },
        {
            "positions": [
                -0.06861063122371591,
                -2.1607735574250544,
                -1.6611416352878385,
                -2.5016076849507827,
                -1.2462549037325523,
                -3.06945231094695
            ]
        },
        {
            "positions": [
                -0.0853474248151827,
                -2.1777654099654984,
                -1.5779362715929972,
                -2.5785203258477734,
                -1.066432356222072,
                -3.0601595082544653
            ]
        },
        {
            "positions": [
                -0.10208421840664947,
                -2.1947572625059424,
                -1.4947309078981559,
                -2.6554329667447645,
                -0.8866098087115917,
                -3.0508667055619805
            ]
        },
        {
            "positions": [
                -0.11882101199811626,
                -2.211749115046386,
                -1.4115255442033146,
                -2.732345607641755,
                -0.7067872612011112,
                -3.0415739028694957
            ]
        },
        {
            "positions": [
                -0.13555780558958305,
                -2.22874096758683,
                -1.3283201805084732,
                -2.809258248538746,
                -0.526964713690631,
                -3.032281100177011
            ]
        },
        {
            "positions": [
                -0.15229459918104982,
                -2.2457328201272735,
                -1.245114816813632,
                -2.8861708894357365,
                -0.3471421661801506,
                -3.022988297484526
            ]
        },
        {
            "positions": [
                -0.1690313927725166,
                -2.2627246726677175,
                -1.1619094531187906,
                -2.9630835303327276,
                -0.16731961866967007,
                -3.0136954947920414
            ]
        }
    ]
}