{
    "goal": {
        "global_pose": {
            "orientation": {
                "w": -0.00223480608172531,
                "x": 0.0024358444001904467,
                "y": 0.7094548369677653,
                "z": -0.704743149386269
            },
            "position": {
                "x": -0.37947507619857795,
                "y": -0.6371506643295288,
                "z": 0.19426114857196808
            }
        },
        "name": "move_to_magneteinheit_C"
    },
    "id": "SPARS_move_to_magneteinheit_C_17",
    "joint_names": [
        "shoulder_pan_joint",
        "shoulder_lift_joint",
        "elbow_joint",
        "wrist_1_joint",
        "wrist_2_joint",
        "wrist_3_joint"
    ],
    "metrics": {
        "cart_traj_len": 1.4148437127239362,
        "distance_elbow_joint": 0.1857885079574091,
        "distance_shoulder_lift_joint": 0.9264153261556702,
        "distance_shoulder_pan_joint": 1.6785678975284377,
        "distance_wrist_1_joint": 0.41080137465635147,
        "distance_wrist_2_joint": 0.788683050135383,
        "distance_wrist_3_joint": 0.5264506875755477,
        "smoothness": 1.5807230498008304,
        "time": 5.021978548,
        "traj_len": 2.125254536287077,
        "weighted_distance": 2.6017479977798827
    },
    "planner": "SPARS",
    "start": {
        "state": {
            "elbow_joint": 1.9565354010623817,
            "shoulder_lift_joint": -1.4165861575791021,
            "shoulder_pan_joint": -1.6717766225146293,
            "wrist_1_joint": -0.5286633292919765,
            "wrist_2_joint": 1.472756589071564,
            "wrist_3_joint": -3.1238370188695823
        }
    },
    "waypoints": [
        {
            "positions": [
                -1.6717766225146293,
                -1.4165861575791021,
                1.9565354010623817,
                -0.5286633292919765,
                1.472756589071564,
                -3.1238370188695823
            ]
        },
        {
            "positions": [
                -1.5839446235157482,
                -1.4837984254559093,
                1.9801510894395289,
                -0.5168175326936438,
                1.3327434346420022,
                -3.0753322203789466
            ]
        },
        {
            "positions": [
                -1.4961126245168668,
                -1.5510106933327168,
                2.003766777816676,
                -0.5049717360953112,
                1.1927302802124404,
                -3.026827421888311
            ]
        },
        {
            "positions": [
                -1.4082806255179856,
                -1.618222961209524,
                2.0273824661938233,
                -0.4931259394969786,
                1.052717125782879,
                -2.978322623397675
            ]
        },
        {
            "positions": [
                -1.3204486265191042,
                -1.6854352290863315,
                2.0509981545709706,
                -0.48128014289864596,
                0.9127039713533172,
                -2.9298178249070395
            ]
        },
        {
            "positions": [
                -1.232616627520223,
                -1.7526474969631387,
                2.074613842948118,
                -0.46943434630031333,
                0.7726908169237555,
                -2.8813130264164037
            ]
        },
        {
            "positions": [
                -1.409674899310799,
                -1.6683112131386195,
                2.0649409763664504,
                -0.5196589736809831,
                0.7600312057826735,
                -2.9218739828624565
            ]
        },
        {
            "positions": [
                -1.5867331711013748,
                -1.5839749293141006,
                2.0552681097847825,
                -0.5698836010616528,
                0.7473715946415913,
                -2.962434939308509
            ]
        },
        {
            "positions": [
                -1.7637914428919508,
                -1.4996386454895814,
                2.045595243203115,
                -0.6201082284423226,
                0.7347119835005093,
                -3.002995895754562
            ]
        },
        {
            "positions": [
                -1.9408497146825265,
                -1.4153023616650624,
                2.0359223766214476,
                -0.6703328558229924,
                0.7220523723594272,
                -3.0435568522006147
            ]
        },
        {
            "positions": [
                -2.1179079864731025,
                -1.3309660778405432,
                2.02624951003978,
                -0.7205574832036621,
                0.709392761218345,
                -3.0841178086466674
            ]
        },
        {
            "positions": [
                -2.2949662582636785,
                -1.246629794016024,
                2.0165766434581123,
                -0.7707821105843319,
                0.696733150077263,
                -3.12467876509272
            ]
        },
        {
            "positions": [
                -2.4720245300542545,
                -1.162293510191505,
                2.006903776876445,
                -0.8210067379650017,
                0.684073538936181,
                -3.165239721538773
            ]
        }
    ]
}