{
    "goal": {
        "global_pose": {
            "orientation": {
                "w": 0.7031023480610252,
                "x": -0.7110244013736278,
                "y": 0.0077485991402295624,
                "z": 0.005598929693374583
            },
            "position": {
                "x": -0.8841497679147869,
                "y": 0.44412534475326537,
                "z": 0.3711530566215515
            }
        },
        "name": "move_to_auspresseinheit_D"
    },
    "id": "SPARStwo_move_to_auspresseinheit_D_9",
    "joint_names": [
        "shoulder_pan_joint",
        "shoulder_lift_joint",
        "elbow_joint",
        "wrist_1_joint",
        "wrist_2_joint",
        "wrist_3_joint"
    ],
    "metrics": {
        "cart_traj_len": 0.34311490558147867,
        "distance_elbow_joint": 0.6414836622989895,
        "distance_shoulder_lift_joint": 0.12288584849159578,
        "distance_shoulder_pan_joint": 0.13338832820089655,
        "distance_wrist_1_joint": 0.53993312260913,
        "distance_wrist_2_joint": 1.4429894657829534,
        "distance_wrist_3_joint": 0.01460197511470529,
        "smoothness": 5.921189463382907e-16,
        "time": 5.005156752,
        "traj_len": 1.701552938494207,
        "weighted_distance": 2.2152672392106023
    },
    "planner": "SPARStwo",
    "start": {
        "state": {
            "elbow_joint": -1.8275523626775212,
            "shoulder_lift_joint": -2.126789852344167,
            "shoulder_pan_joint": -0.03513704404078235,
            "wrist_1_joint": -2.347782403156801,
            "wrist_2_joint": -1.6058999987535132,
            "wrist_3_joint": -3.0880379163319196
        }
    },
    "waypoints": [
        {
            "positions": [
                -0.03513704404078235,
                -2.126789852344167,
                -1.8275523626775212,
                -2.347782403156801,
                -1.6058999987535132,
                -3.0880379163319196
            ]
        },
        {
            "positions": [
                -0.05181058506589442,
                -2.1421505834056163,
                -1.7473669048901475,
                -2.4152740434829423,
                -1.425526315530644,
                -3.0862126694425815
            ]
        },
        {
            "positions": [
                -0.06848412609100649,
                -2.1575113144670657,
                -1.6671814471027737,
                -2.4827656838090832,
                -1.2451526323077748,
                -3.0843874225532435
            ]
        },
        {
            "positions": [
                -0.08515766711611855,
                -2.172872045528515,
                -1.5869959893154002,
                -2.5502573241352247,
                -1.0647789490849058,
                -3.082562175663905
            ]
        },
        {
            "positions": [
                -0.10183120814123062,
                -2.188232776589965,
                -1.5068105315280265,
                -2.6177489644613656,
                -0.8844052658620365,
                -3.080736928774567
            ]
        },
        {
            "positions": [
                -0.11850474916634268,
                -2.2035935076514144,
                -1.4266250737406527,
                -2.685240604787507,
                -0.7040315826391673,
                -3.078911681885229
            ]
        },
        {
            "positions": [
                -0.13517829019145478,
                -2.218954238712864,
                -1.3464396159532792,
                -2.7527322451136484,
                -0.5236578994162981,
                -3.0770864349958904
            ]
        },
        {
            "positions": [
                -0.15185183121656684,
                -2.234314969774313,
                -1.2662541581659055,
                -2.8202238854397894,
                -0.3432842161934291,
                -3.0752611881065524
            ]
        },
        {
            "positions": [
                -0.1685253722416789,
                -2.2496757008357626,
                -1.1860687003785317,
                -2.887715525765931,
                -0.16291053297055974,
                -3.0734359412172143
            ]
        }
    ]
}