{
    "goal": {
        "global_pose": {
            "orientation": {
                "w": 0.7047431468963623,
                "x": -0.7094548344612122,
                "y": 0.0024358443915843964,
                "z": -0.0022348060738295317
            },
            "position": {
                "x": 0.6094750761985779,
                "y": 0.3671506643295288,
                "z": 0.19426114857196808
            }
        },
        "name": "move_to_magneteinheit_A"
    },
    "id": "SPARStwo_move_to_magneteinheit_A_88",
    "joint_names": [
        "shoulder_pan_joint",
        "shoulder_lift_joint",
        "elbow_joint",
        "wrist_1_joint",
        "wrist_2_joint",
        "wrist_3_joint"
    ],
    "metrics": {
        "cart_traj_len": 3.8697819508805287,
        "distance_elbow_joint": 3.8733651957096438,
        "distance_shoulder_lift_joint": 0.7282544722218689,
        "distance_shoulder_pan_joint": 2.5771127965522806,
        "distance_wrist_1_joint": 0.93799667998368,
        "distance_wrist_2_joint": 2.8774854286819536,
        "distance_wrist_3_joint": 2.5782619093085772,
        "smoothness": 0.23395078356595794,
        "time": 5.039309529,
        "traj_len": 3.684084212183267,
        "weighted_distance": 4.7481030327638
    },
    "planner": "SPARStwo",
    "start": {
        "state": {
            "elbow_joint": -1.9196185241190666,
            "shoulder_lift_joint": -1.2443396400964142,
            "shoulder_pan_joint": 2.6996025414629847,
            "wrist_1_joint": -1.5485510000780065,
            "wrist_2_joint": -1.5709468930060704,
            "wrist_3_joint": 0.4420197071253992
        }
    },
    "waypoints": [
        {
            "positions": [
                2.6996025414629847,
                -1.2443396400964142,
                -1.9196185241190666,
                -1.5485510000780065,
                -1.5709468930060704,
                0.4420197071253992
            ]
        },
        {
            "positions": [
                2.606031909402342,
                -1.2287202114009363,
                -1.8104270883509561,
                -1.515414688408512,
                -1.486290311767747,
                0.5017119133195967
            ]
        },
        {
            "positions": [
                2.5124612773416994,
                -1.2131007827054583,
                -1.7012356525828456,
                -1.4822783767390175,
                -1.4016337305294237,
                0.5614041195137943
            ]
        },
        {
            "positions": [
                2.418890645281057,
                -1.1974813540099805,
                -1.5920442168147348,
                -1.449142065069523,
                -1.3169771492911004,
                0.6210963257079919
            ]
        },
        {
            "positions": [
                2.3253200132204137,
                -1.1818619253145026,
                -1.4828527810466243,
                -1.4160057534000285,
                -1.2323205680527771,
                0.6807885319021894
            ]
        },
        {
            "positions": [
                2.231749381159771,
                -1.1662424966190246,
                -1.3736613452785136,
                -1.3828694417305338,
                -1.1476639868144538,
                0.7404807380963869
            ]
        },
        {
            "positions": [
                2.1381787490991284,
                -1.1506230679235467,
                -1.264469909510403,
                -1.3497331300610393,
                -1.0630074055761303,
                0.8001729442905845
            ]
        },
        {
            "positions": [
                2.0446081170384858,
                -1.1350036392280687,
                -1.1552784737422925,
                -1.3165968183915449,
                -0.9783508243378071,
                0.8598651504847821
            ]
        },
        {
            "positions": [
                1.9510374849778431,
                -1.1193842105325909,
                -1.046087037974182,
                -1.2834605067220504,
                -0.8936942430994838,
                0.9195573566789796
            ]
        },
        {
            "positions": [
                1.8574668529172005,
                -1.103764781837113,
                -0.9368956022060714,
                -1.2503241950525559,
                -0.8090376618611603,
                0.9792495628731772
            ]
        },
        {
            "positions": [
                1.7638962208565578,
                -1.088145353141635,
                -0.8277041664379607,
                -1.2171878833830614,
                -0.724381080622837,
                1.0389417690673748
            ]
        },
        {
            "positions": [
                1.670325588795915,
                -1.0725259244461571,
                -0.7185127306698502,
                -1.184051571713567,
                -0.6397244993845137,
                1.0986339752615724
            ]
        },
        {
            "positions": [
                1.5767549567352723,
                -1.0569064957506793,
                -0.6093212949017397,
                -1.1509152600440724,
                -0.5550679181461904,
                1.15832618145577
            ]
        },
        {
            "positions": [
                1.4831843246746295,
                -1.0412870670552012,
                -0.5001298591336292,
                -1.117778948374578,
                -0.4704113369078671,
                1.2180183876499675
            ]
        },
        {
            "positions": [
                1.3896136926139868,
                -1.0256676383597234,
                -0.39093842336551843,
                -1.0846426367050834,
                -0.38575475566954376,
                1.277710593844165
            ]
        },
        {
            "positions": [
                1.296043060553344,
                -1.0100482096642454,
                -0.2817469875974077,
                -1.0515063250355887,
                -0.3010981744312202,
                1.3374028000383626
            ]
        },
        {
            "positions": [
                1.2024724284927015,
                -0.9944287809687675,
                -0.17255555182929738,
                -1.0183700133660945,
                -0.21644159319289713,
                1.39709500623256
            ]
        },
        {
            "positions": [
                1.1089017964320587,
                -0.9788093522732897,
                -0.06336411606118664,
                -0.9852337016965997,
                -0.1317850119545736,
                1.4567872124267578
            ]
        },
        {
            "positions": [
                1.015331164371416,
                -0.9631899235778117,
                0.045827319706923886,
                -0.9520973900271053,
                -0.04712843071625028,
                1.5164794186209551
            ]
        },
        {
            "positions": [
                0.9217605323107732,
                -0.9475704948823338,
                0.15501875547503463,
                -0.9189610783576108,
                0.037528150522073034,
                1.576171624815153
            ]
        },
        {
            "positions": [
                0.8281899002501307,
                -0.931951066186856,
                0.26421019124314515,
                -0.8858247666881163,
                0.12218473176039635,
                1.6358638310093503
            ]
        },
        {
            "positions": [
                0.7346192681894879,
                -0.9163316374913779,
                0.3734016270112557,
                -0.8526884550186217,
                0.20684131299871966,
                1.695556037203548
            ]
        },
        {
            "positions": [
                0.6410486361288452,
                -0.9007122087959001,
                0.4825930627793662,
                -0.8195521433491272,
                0.291497894237043,
                1.7552482433977454
            ]
        },
        {
            "positions": [
                0.5474780040682026,
                -0.8850927801004221,
                0.5917844985474767,
                -0.7864158316796327,
                0.3761544754753665,
                1.8149404495919432
            ]
        },
        {
            "positions": [
                0.45390737200755993,
                -0.8694733514049442,
                0.7009759343155872,
                -0.7532795200101382,
                0.4608110567136896,
                1.8746326557861406
            ]
        },
        {
            "positions": [
                0.36033673994691684,
                -0.8538539227094664,
                0.8101673700836982,
                -0.7201432083406436,
                0.5454676379520131,
                1.9343248619803384
            ]
        },
        {
            "positions": [
                0.2667661078862742,
                -0.8382344940139884,
                0.9193588058518083,
                -0.6870068966711492,
                0.6301242191903362,
                1.9940170681745357
            ]
        },
        {
            "positions": [
                0.17319547582563163,
                -0.8226150653185105,
                1.0285502416199193,
                -0.6538705850016546,
                0.7147808004286598,
                2.0537092743687335
            ]
        },
        {
            "positions": [
                0.16685725946126556,
                -0.8609313024990062,
                1.1441997953662515,
                -0.6592851181150706,
                0.6408110835227568,
                2.1745308171268887
            ]
        },
        {
            "positions": [
                0.16051904309689952,
                -0.8992475396795018,
                1.2598493491125837,
                -0.6646996512284866,
                0.566841366616854,
                2.2953523598850443
            ]
        },
        {
            "positions": [
                0.15418082673253347,
                -0.9375637768599974,
                1.375498902858916,
                -0.6701141843419026,
                0.4928716497109511,
                2.4161739026432
            ]
        },
        {
            "positions": [
                0.1478426103681674,
                -0.9758800140404931,
                1.4911484566052482,
                -0.6755287174553186,
                0.4189019328050482,
                2.536995445401355
            ]
        },
        {
            "positions": [
                0.14150439400380133,
                -1.0141962512209888,
                1.6067980103515804,
                -0.6809432505687347,
                0.34493221589914536,
                2.65781698815951
            ]
        },
        {
            "positions": [
                0.13516617763943528,
                -1.0525124884014843,
                1.7224475640979129,
                -0.6863577836821507,
                0.27096249899324243,
                2.7786385309176658
            ]
        },
        {
            "positions": [
                0.12882796127506924,
                -1.09082872558198,
                1.8380971178442451,
                -0.6917723167955667,
                0.1969927820873396,
                2.8994600736758214
            ]
        },
        {
            "positions": [
                0.12248974491070316,
                -1.1291449627624757,
                1.9537466715905774,
                -0.6971868499089827,
                0.12302306518143666,
                3.0202816164339765
            ]
        }
    ]
}