{
    "goal": {
        "global_pose": {
            "orientation": {
                "w": 0.005598929693374612,
                "x": 0.007748599140229565,
                "y": 0.7110244013736278,
                "z": -0.7031023480610252
            },
            "position": {
                "x": -0.8858502320852131,
                "y": -0.7141253447532654,
                "z": 0.3711530566215515
            }
        },
        "name": "move_to_auspresseinheit_C"
    },
    "id": "SPARS_move_to_auspresseinheit_C_75",
    "joint_names": [
        "shoulder_pan_joint",
        "shoulder_lift_joint",
        "elbow_joint",
        "wrist_1_joint",
        "wrist_2_joint",
        "wrist_3_joint"
    ],
    "metrics": {
        "cart_traj_len": 0.49251743729492387,
        "distance_elbow_joint": 0.9882271198873053,
        "distance_shoulder_lift_joint": 0.3194631962364206,
        "distance_shoulder_pan_joint": 0.2569944631360377,
        "distance_wrist_1_joint": 0.6580159523083751,
        "distance_wrist_2_joint": 1.3031426853252224,
        "distance_wrist_3_joint": 0.052578141633517816,
        "smoothness": 4.844609574787718e-16,
        "time": 5.010500142,
        "traj_len": 1.8916716307348056,
        "weighted_distance": 2.3758654169433737
    },
    "planner": "SPARS",
    "start": {
        "state": {
            "elbow_joint": 1.7527959577737207,
            "shoulder_lift_joint": -0.9740617694225068,
            "shoulder_pan_joint": -2.967991417825858,
            "wrist_1_joint": -0.759517768980727,
            "wrist_2_joint": 1.7443932448377408,
            "wrist_3_joint": -3.0840537646736568
        }
    },
    "waypoints": [
        {
            "positions": [
                -2.967991417825858,
                -0.9740617694225068,
                1.7527959577737207,
                -0.759517768980727,
                1.7443932448377408,
                -3.0840537646736568
            ]
        },
        {
            "positions": [
                -2.942291971512254,
                -0.9421154497988647,
                1.65397324578499,
                -0.6937161737498895,
                1.6140789763052186,
                -3.0893115788370085
            ]
        },
        {
            "positions": [
                -2.9165925251986504,
                -0.9101691301752226,
                1.5551505337962597,
                -0.627914578519052,
                1.4837647077726963,
                -3.09456939300036
            ]
        },
        {
            "positions": [
                -2.8908930788850467,
                -0.8782228105515806,
                1.456327821807529,
                -0.5621129832882145,
                1.353450439240174,
                -3.0998272071637123
            ]
        },
        {
            "positions": [
                -2.865193632571443,
                -0.8462764909279386,
                1.3575051098187985,
                -0.49631138805737696,
                1.2231361707076518,
                -3.105085021327064
            ]
        },
        {
            "positions": [
                -2.839494186257839,
                -0.8143301713042965,
                1.258682397830068,
                -0.43050979282653945,
                1.0928219021751295,
                -3.1103428354904157
            ]
        },
        {
            "positions": [
                -2.8137947399442353,
                -0.7823838516806544,
                1.1598596858413375,
                -0.36470819759570194,
                0.9625076336426074,
                -3.1156006496537674
            ]
        },
        {
            "positions": [
                -2.7880952936306316,
                -0.7504375320570124,
                1.061036973852607,
                -0.2989066023648645,
                0.8321933651100852,
                -3.120858463817119
            ]
        },
        {
            "positions": [
                -2.762395847317028,
                -0.7184912124333702,
                0.9622142618638764,
                -0.23310500713402693,
                0.701879096577563,
                -3.126116277980471
            ]
        },
        {
            "positions": [
                -2.736696401003424,
                -0.6865448928097282,
                0.8633915498751459,
                -0.16730341190318943,
                0.5715648280450407,
                -3.131374092143823
            ]
        },
        {
            "positions": [
                -2.7109969546898203,
                -0.6545985731860862,
                0.7645688378864154,
                -0.10150181667235195,
                0.44125055951251846,
                -3.1366319063071746
            ]
        }
    ]
}