{
    "goal": {
        "global_pose": {
            "orientation": {
                "w": 0.7031023480610252,
                "x": -0.7110244013736278,
                "y": 0.0077485991402295624,
                "z": 0.005598929693374583
            },
            "position": {
                "x": -0.8841497679147869,
                "y": 0.44412534475326537,
                "z": 0.3711530566215515
            }
        },
        "name": "move_to_auspresseinheit_D"
    },
    "id": "SPARStwo_move_to_auspresseinheit_D_70",
    "joint_names": [
        "shoulder_pan_joint",
        "shoulder_lift_joint",
        "elbow_joint",
        "wrist_1_joint",
        "wrist_2_joint",
        "wrist_3_joint"
    ],
    "metrics": {
        "cart_traj_len": 0.3436765575609031,
        "distance_elbow_joint": 0.6516383117878128,
        "distance_shoulder_lift_joint": 0.1279866729668253,
        "distance_shoulder_pan_joint": 0.13320556753748328,
        "distance_wrist_1_joint": 0.5765036011422127,
        "distance_wrist_2_joint": 1.4352901507022942,
        "distance_wrist_3_joint": 0.043162882689587345,
        "smoothness": 0.0,
        "time": 5.0057251780000005,
        "traj_len": 1.7227266721178423,
        "weighted_distance": 2.250756918027777
    },
    "planner": "SPARStwo",
    "start": {
        "state": {
            "elbow_joint": -1.8275523626775212,
            "shoulder_lift_joint": -2.126789852344167,
            "shoulder_pan_joint": -0.03513704404078235,
            "wrist_1_joint": -2.347782403156801,
            "wrist_2_joint": -1.6058999987535132,
            "wrist_3_joint": -3.0880379163319196
        }
    },
    "waypoints": [
        {
            "positions": [
                -0.03513704404078235,
                -2.126789852344167,
                -1.8275523626775212,
                -2.347782403156801,
                -1.6058999987535132,
                -3.0880379163319196
            ]
        },
        {
            "positions": [
                -0.05178773998296776,
                -2.14278818646502,
                -1.7460975737040445,
                -2.4198453532995776,
                -1.4264887299157265,
                -3.0826425559957213
            ]
        },
        {
            "positions": [
                -0.06843843592515317,
                -2.158786520585873,
                -1.664642784730568,
                -2.491908303442354,
                -1.2470774610779396,
                -3.0772471956595226
            ]
        },
        {
            "positions": [
                -0.08508913186733857,
                -2.1747848547067266,
                -1.5831879957570913,
                -2.5639712535851307,
                -1.067666192240153,
                -3.0718518353233244
            ]
        },
        {
            "positions": [
                -0.10173982780952398,
                -2.1907831888275795,
                -1.5017332067836149,
                -2.636034203727907,
                -0.8882549234023661,
                -3.0664564749871257
            ]
        },
        {
            "positions": [
                -0.11839052375170939,
                -2.2067815229484324,
                -1.4202784178101382,
                -2.7080971538706837,
                -0.7088436545645793,
                -3.0610611146509275
            ]
        },
        {
            "positions": [
                -0.13504121969389482,
                -2.222779857069286,
                -1.3388236288366615,
                -2.7801601040134605,
                -0.5294323857267926,
                -3.055665754314729
            ]
        },
        {
            "positions": [
                -0.15169191563608023,
                -2.238778191190139,
                -1.2573688398631848,
                -2.8522230541562372,
                -0.3500211168890057,
                -3.0502703939785305
            ]
        },
        {
            "positions": [
                -0.16834261157826563,
                -2.254776525310992,
                -1.1759140508897084,
                -2.9242860042990135,
                -0.17060984805121895,
                -3.0448750336423323
            ]
        }
    ]
}