{
    "goal": {
        "global_pose": {
            "orientation": {
                "w": 0.7031023502349854,
                "x": -0.7110244035720825,
                "y": 0.007748599164187908,
                "z": 0.005598929710686207
            },
            "position": {
                "x": 0.11585023208521307,
                "y": 0.44412534475326537,
                "z": 0.3711530566215515
            }
        },
        "name": "move_to_auspresseinheit_A"
    },
    "id": "SPARS_move_to_auspresseinheit_A_59",
    "joint_names": [
        "shoulder_pan_joint",
        "shoulder_lift_joint",
        "elbow_joint",
        "wrist_1_joint",
        "wrist_2_joint",
        "wrist_3_joint"
    ],
    "metrics": {
        "cart_traj_len": 2.6318787573368185,
        "distance_elbow_joint": 2.8470678534713203,
        "distance_shoulder_lift_joint": 0.5358939915501282,
        "distance_shoulder_pan_joint": 2.619471291325877,
        "distance_wrist_1_joint": 0.5498006618205687,
        "distance_wrist_2_joint": 0.9957965307051879,
        "distance_wrist_3_joint": 0.3111065412086309,
        "smoothness": 1.1338218832734688,
        "time": 5.01551691,
        "traj_len": 2.8034152154259475,
        "weighted_distance": 3.166535511410654
    },
    "planner": "SPARS",
    "start": {
        "state": {
            "elbow_joint": 2.4225746658250005,
            "shoulder_lift_joint": -1.3736534386056498,
            "shoulder_pan_joint": -0.3378633547517467,
            "wrist_1_joint": -1.0288598680537169,
            "wrist_2_joint": 1.233022673432363,
            "wrist_3_joint": -3.0940220416140027
        }
    },
    "waypoints": [
        {
            "positions": [
                -0.3378633547517467,
                -1.3736534386056498,
                2.4225746658250005,
                -1.0288598680537169,
                1.233022673432363,
                -3.0940220416140027
            ]
        },
        {
            "positions": [
                -0.41651169272808997,
                -1.417665878611324,
                2.278854718876957,
                -0.9917612551719763,
                1.1573657866088247,
                -3.079701044321881
            ]
        },
        {
            "positions": [
                -0.49516003070443326,
                -1.4616783186169984,
                2.135134771928913,
                -0.9546626422902358,
                1.0817088997852862,
                -3.065380047029759
            ]
        },
        {
            "positions": [
                -0.5738083686807764,
                -1.5056907586226724,
                1.9914148249808696,
                -0.9175640294084951,
                1.0060520129617478,
                -3.0510590497376375
            ]
        },
        {
            "positions": [
                -0.6524567066571197,
                -1.5497031986283467,
                1.8476948780328257,
                -0.8804654165267546,
                0.9303951261382093,
                -3.0367380524455156
            ]
        },
        {
            "positions": [
                -0.731105044633463,
                -1.593715638634021,
                1.7039749310847823,
                -0.843366803645014,
                0.854738239314671,
                -3.0224170551533938
            ]
        },
        {
            "positions": [
                -0.8097533826098062,
                -1.6377280786396953,
                1.5602549841367388,
                -0.8062681907632735,
                0.7790813524911325,
                -3.008096057861272
            ]
        },
        {
            "positions": [
                -0.8884017205861494,
                -1.6817405186453693,
                1.4165350371886951,
                -0.7691695778815328,
                0.7034244656675941,
                -2.99377506056915
            ]
        },
        {
            "positions": [
                -0.9670500585624928,
                -1.7257529586510438,
                1.2728150902406512,
                -0.7320709649997923,
                0.6277675788440555,
                -2.9794540632770286
            ]
        },
        {
            "positions": [
                -1.045698396538836,
                -1.769765398656718,
                1.1290951432926077,
                -0.6949723521180518,
                0.5521106920205172,
                -2.9651330659849067
            ]
        },
        {
            "positions": [
                -1.1243467345151792,
                -1.8137778386623922,
                0.9853751963445642,
                -0.6578737392363112,
                0.4764538051969788,
                -2.950812068692785
            ]
        },
        {
            "positions": [
                -0.9410479433589347,
                -1.8233547978117308,
                1.1263620347436525,
                -0.6399922859359949,
                0.5003765714439592,
                -2.967601725521526
            ]
        },
        {
            "positions": [
                -0.7577491522026902,
                -1.8329317569610692,
                1.267348873142741,
                -0.6221108326356786,
                0.5242993376909395,
                -2.9843913823502675
            ]
        },
        {
            "positions": [
                -0.5744503610464459,
                -1.842508716110408,
                1.4083357115418293,
                -0.6042293793353622,
                0.5482221039379198,
                -3.001181039179009
            ]
        },
        {
            "positions": [
                -0.3911515698902013,
                -1.8520856752597465,
                1.5493225499409178,
                -0.5863479260350459,
                0.5721448701849002,
                -3.01797069600775
            ]
        },
        {
            "positions": [
                -0.2078527787339569,
                -1.8616626344090852,
                1.690309388340006,
                -0.5684664727347297,
                0.5960676364318807,
                -3.034760352836491
            ]
        },
        {
            "positions": [
                -0.024553987577712544,
                -1.8712395935584236,
                1.8312962267390944,
                -0.5505850194344134,
                0.619990402678861,
                -3.0515500096652324
            ]
        },
        {
            "positions": [
                0.15874480357853193,
                -1.8808165527077623,
                1.9722830651381829,
                -0.5327035661340971,
                0.6439131689258413,
                -3.0683396664939737
            ]
        },
        {
            "positions": [
                0.34204359473477663,
                -1.890393511857101,
                2.1132699035372715,
                -0.5148221128337808,
                0.6678359351728217,
                -3.085129323322715
            ]
        },
        {
            "positions": [
                0.5253423858910209,
                -1.8999704710064393,
                2.2542567419363597,
                -0.49694065953346445,
                0.6917587014198021,
                -3.1019189801514564
            ]
        },
        {
            "positions": [
                0.7086411770472654,
                -1.909547430155778,
                2.395243580335448,
                -0.4790592062331481,
                0.7156814676667824,
                -3.1187086369801977
            ]
        }
    ]
}