{
    "goal": {
        "global_pose": {
            "orientation": {
                "w": 0.005598929693374612,
                "x": 0.007748599140229565,
                "y": 0.7110244013736278,
                "z": -0.7031023480610252
            },
            "position": {
                "x": 0.1141497679147869,
                "y": -0.7141253447532654,
                "z": 0.3711530566215515
            }
        },
        "name": "move_to_auspresseinheit_B"
    },
    "id": "SPARS_move_to_auspresseinheit_B_52",
    "joint_names": [
        "shoulder_pan_joint",
        "shoulder_lift_joint",
        "elbow_joint",
        "wrist_1_joint",
        "wrist_2_joint",
        "wrist_3_joint"
    ],
    "metrics": {
        "cart_traj_len": 0.5654195384151613,
        "distance_elbow_joint": 0.06103709563005344,
        "distance_shoulder_lift_joint": 0.2957557054377926,
        "distance_shoulder_pan_joint": 0.5761584732849478,
        "distance_wrist_1_joint": 0.3189196601028167,
        "distance_wrist_2_joint": 1.0025700901954642,
        "distance_wrist_3_joint": 0.004686691683108535,
        "smoothness": 7.612957943425664e-16,
        "time": 5.0203499680000006,
        "traj_len": 1.5030394926062933,
        "weighted_distance": 1.8947271175551064
    },
    "planner": "SPARS",
    "start": {
        "state": {
            "elbow_joint": 2.0193083361928714,
            "shoulder_lift_joint": -1.1220246554650708,
            "shoulder_pan_joint": -1.0952077554168747,
            "wrist_1_joint": -0.8559753972642168,
            "wrist_2_joint": 0.4759566250798843,
            "wrist_3_joint": -3.1240929996934557
        }
    },
    "waypoints": [
        {
            "positions": [
                -1.0952077554168747,
                -1.1220246554650708,
                2.0193083361928714,
                -0.8559753972642168,
                0.4759566250798843,
                -3.1240929996934557
            ]
        },
        {
            "positions": [
                -1.1912341676310327,
                -1.1713172730380363,
                2.009135486921196,
                -0.802822120580414,
                0.6430516401124616,
                -3.1233118844129377
            ]
        },
        {
            "positions": [
                -1.2872605798451906,
                -1.2206098906110017,
                1.9989626376495202,
                -0.7496688438966113,
                0.8101466551450389,
                -3.1225307691324193
            ]
        },
        {
            "positions": [
                -1.3832869920593485,
                -1.269902508183967,
                1.9887897883778447,
                -0.6965155672128085,
                0.9772416701776163,
                -3.1217496538519014
            ]
        },
        {
            "positions": [
                -1.4793134042735065,
                -1.3191951257569325,
                1.9786169391061692,
                -0.6433622905290057,
                1.1443366852101937,
                -3.1209685385713835
            ]
        },
        {
            "positions": [
                -1.5753398164876646,
                -1.368487743329898,
                1.9684440898344935,
                -0.5902090138452029,
                1.3114317002427711,
                -3.120187423290865
            ]
        },
        {
            "positions": [
                -1.6713662287018225,
                -1.4177803609028634,
                1.958271240562818,
                -0.5370557371614001,
                1.4785267152753485,
                -3.119406308010347
            ]
        }
    ]
}