{
    "goal": {
        "global_pose": {
            "orientation": {
                "w": 0.005598929693374612,
                "x": 0.007748599140229565,
                "y": 0.7110244013736278,
                "z": -0.7031023480610252
            },
            "position": {
                "x": 0.1141497679147869,
                "y": -0.7141253447532654,
                "z": 0.3711530566215515
            }
        },
        "name": "move_to_auspresseinheit_B"
    },
    "id": "SPARS_move_to_auspresseinheit_B_11",
    "joint_names": [
        "shoulder_pan_joint",
        "shoulder_lift_joint",
        "elbow_joint",
        "wrist_1_joint",
        "wrist_2_joint",
        "wrist_3_joint"
    ],
    "metrics": {
        "cart_traj_len": 0.5649010990750264,
        "distance_elbow_joint": 0.059956404111751294,
        "distance_shoulder_lift_joint": 0.2954832193436414,
        "distance_shoulder_pan_joint": 0.5773268235766216,
        "distance_wrist_1_joint": 0.31577056389901625,
        "distance_wrist_2_joint": 0.9932508078090476,
        "distance_wrist_3_joint": 0.0040689449707889125,
        "smoothness": 5.075305295617109e-16,
        "time": 5.010719067,
        "traj_len": 1.4986182848580445,
        "weighted_distance": 1.8875953023252916
    },
    "planner": "SPARS",
    "start": {
        "state": {
            "elbow_joint": 2.0193083361928714,
            "shoulder_lift_joint": -1.1220246554650708,
            "shoulder_pan_joint": -1.0952077554168747,
            "wrist_1_joint": -0.8559753972642168,
            "wrist_2_joint": 0.4759566250798843,
            "wrist_3_joint": -3.1240929996934557
        }
    },
    "waypoints": [
        {
            "positions": [
                -1.0952077554168747,
                -1.1220246554650708,
                2.0193083361928714,
                -0.8559753972642168,
                0.4759566250798843,
                -3.1240929996934557
            ]
        },
        {
            "positions": [
                -1.191428892679645,
                -1.171271858689011,
                2.0093156021742464,
                -0.803346969947714,
                0.6414984263813922,
                -3.124771157188587
            ]
        },
        {
            "positions": [
                -1.2876500299424152,
                -1.2205190619129513,
                1.999322868155621,
                -0.7507185426312114,
                0.8070402276829001,
                -3.125449314683719
            ]
        },
        {
            "positions": [
                -1.3838711672051853,
                -1.2697662651368915,
                1.9893301341369958,
                -0.6980901153147087,
                0.972582028984408,
                -3.12612747217885
            ]
        },
        {
            "positions": [
                -1.4800923044679557,
                -1.3190134683608317,
                1.9793374001183706,
                -0.645461687998206,
                1.138123830285916,
                -3.1268056296739815
            ]
        },
        {
            "positions": [
                -1.576313441730726,
                -1.368260671584772,
                1.9693446660997453,
                -0.5928332606817033,
                1.303665631587424,
                -3.1274837871691132
            ]
        },
        {
            "positions": [
                -1.6725345789934962,
                -1.4175078748087122,
                1.9593519320811201,
                -0.5402048333652005,
                1.469207432888932,
                -3.1281619446642446
            ]
        }
    ]
}