{
    "goal": {
        "global_pose": {
            "orientation": {
                "w": 0.7031023502349854,
                "x": -0.7110244035720825,
                "y": 0.007748599164187908,
                "z": 0.005598929710686207
            },
            "position": {
                "x": 0.11585023208521307,
                "y": 0.44412534475326537,
                "z": 0.3711530566215515
            }
        },
        "name": "move_to_auspresseinheit_A"
    },
    "id": "SPARS_move_to_auspresseinheit_A_150",
    "joint_names": [
        "shoulder_pan_joint",
        "shoulder_lift_joint",
        "elbow_joint",
        "wrist_1_joint",
        "wrist_2_joint",
        "wrist_3_joint"
    ],
    "metrics": {
        "cart_traj_len": 0.6922559084089586,
        "distance_elbow_joint": 0.18680337693074378,
        "distance_shoulder_lift_joint": 0.7142453539590639,
        "distance_shoulder_pan_joint": 1.0467479664436292,
        "distance_wrist_1_joint": 0.5444444470627556,
        "distance_wrist_2_joint": 1.255851239733719,
        "distance_wrist_3_joint": 0.18683647024634809,
        "smoothness": 0.9452525733567443,
        "time": 5.029674363,
        "traj_len": 1.9836655097007305,
        "weighted_distance": 2.471618393212316
    },
    "planner": "SPARS",
    "start": {
        "state": {
            "elbow_joint": 2.4225746658250005,
            "shoulder_lift_joint": -1.3736534386056498,
            "shoulder_pan_joint": -0.3378633547517467,
            "wrist_1_joint": -1.0288598680537169,
            "wrist_2_joint": 1.233022673432363,
            "wrist_3_joint": -3.0940220416140027
        }
    },
    "waypoints": [
        {
            "positions": [
                -0.3378633547517467,
                -1.3736534386056498,
                2.4225746658250005,
                -1.0288598680537169,
                1.233022673432363,
                -3.0940220416140027
            ]
        },
        {
            "positions": [
                -0.28900881531680195,
                -1.4778790092379677,
                2.4360392073018415,
                -1.0268478499267921,
                1.0847559015134298,
                -3.1126285409485797
            ]
        },
        {
            "positions": [
                -0.2401542758818572,
                -1.5821045798702855,
                2.449503748778682,
                -1.0248358317998674,
                0.9364891295944968,
                -3.131235040283156
            ]
        },
        {
            "positions": [
                -0.19129973644691242,
                -1.6863301505026036,
                2.4629682902555228,
                -1.0228238136729426,
                0.7882223576755636,
                -3.149841539617733
            ]
        },
        {
            "positions": [
                -0.14244519701196767,
                -1.7905557211349215,
                2.476432831732364,
                -1.020811795546018,
                0.6399555857566305,
                -3.16844803895231
            ]
        },
        {
            "positions": [
                -0.09359065757702287,
                -1.8947812917672393,
                2.489897373209205,
                -1.0187997774190933,
                0.49168881383769725,
                -3.1870545382868865
            ]
        },
        {
            "positions": [
                -0.04473611814207812,
                -1.9990068623995572,
                2.5033619146860455,
                -1.0167877592921686,
                0.3434220419187642,
                -3.2056610376214634
            ]
        },
        {
            "positions": [
                0.10598802782471403,
                -1.9812284763665258,
                2.4821586890721057,
                -0.9103132916319271,
                0.41667216356278813,
                -3.1906215427736857
            ]
        },
        {
            "positions": [
                0.2567121737915062,
                -1.9634500903334946,
                2.460955463458166,
                -0.8038388239716856,
                0.48992228520681214,
                -3.1755820479259085
            ]
        },
        {
            "positions": [
                0.40743631975829825,
                -1.9456717043004632,
                2.4397522378442265,
                -0.6973643563114442,
                0.5631724068508361,
                -3.160542553078131
            ]
        },
        {
            "positions": [
                0.5581604657250905,
                -1.927893318267432,
                2.4185490122302866,
                -0.5908898886512026,
                0.6364225284948601,
                -3.1455030582303536
            ]
        },
        {
            "positions": [
                0.7088846116918825,
                -1.9101149322344007,
                2.397345786616347,
                -0.4844154209909613,
                0.709672650138884,
                -3.130463563382576
            ]
        }
    ]
}