{
    "goal": {
        "global_pose": {
            "orientation": {
                "w": 0.7047431468963623,
                "x": -0.7094548344612122,
                "y": 0.0024358443915843964,
                "z": -0.0022348060738295317
            },
            "position": {
                "x": 0.6094750761985779,
                "y": 0.3671506643295288,
                "z": 0.19426114857196808
            }
        },
        "name": "move_to_magneteinheit_A"
    },
    "id": "SPARS_move_to_magneteinheit_A_128",
    "joint_names": [
        "shoulder_pan_joint",
        "shoulder_lift_joint",
        "elbow_joint",
        "wrist_1_joint",
        "wrist_2_joint",
        "wrist_3_joint"
    ],
    "metrics": {
        "cart_traj_len": 3.848735233595878,
        "distance_elbow_joint": 3.9065414476961964,
        "distance_shoulder_lift_joint": 1.0975299943326986,
        "distance_shoulder_pan_joint": 4.310349150171994,
        "distance_wrist_1_joint": 0.6906424494183845,
        "distance_wrist_2_joint": 2.957982074343793,
        "distance_wrist_3_joint": 2.7077204713715832,
        "smoothness": 0.28370960922819294,
        "time": 5.0300436,
        "traj_len": 3.9586317822367176,
        "weighted_distance": 4.97341241541861
    },
    "planner": "SPARS",
    "start": {
        "state": {
            "elbow_joint": -1.9196185241190666,
            "shoulder_lift_joint": -1.2443396400964142,
            "shoulder_pan_joint": 2.6996025414629847,
            "wrist_1_joint": -1.5485510000780065,
            "wrist_2_joint": -1.5709468930060704,
            "wrist_3_joint": 0.4420197071253992
        }
    },
    "waypoints": [
        {
            "positions": [
                2.6996025414629847,
                -1.2443396400964142,
                -1.9196185241190666,
                -1.5485510000780065,
                -1.5709468930060704,
                0.4420197071253992
            ]
        },
        {
            "positions": [
                2.576623071119369,
                -1.2621907466291622,
                -1.835447339477029,
                -1.530607832363112,
                -1.4877680970045704,
                0.5018151741208166
            ]
        },
        {
            "positions": [
                2.4536436007757536,
                -1.2800418531619102,
                -1.7512761548349915,
                -1.5126646646482178,
                -1.4045893010030701,
                0.5616106411162339
            ]
        },
        {
            "positions": [
                2.330664130432138,
                -1.2978929596946582,
                -1.667104970192954,
                -1.4947214969333233,
                -1.32141050500157,
                0.6214061081116513
            ]
        },
        {
            "positions": [
                2.2076846600885225,
                -1.3157440662274063,
                -1.5829337855509162,
                -1.4767783292184289,
                -1.2382317090000698,
                0.6812015751070688
            ]
        },
        {
            "positions": [
                2.084705189744907,
                -1.333595172760154,
                -1.4987626009088788,
                -1.4588351615035346,
                -1.1550529129985698,
                0.7409970421024862
            ]
        },
        {
            "positions": [
                1.9617257194012916,
                -1.351446279292902,
                -1.4145914162668412,
                -1.4408919937886402,
                -1.0718741169970696,
                0.8007925090979036
            ]
        },
        {
            "positions": [
                1.838746249057676,
                -1.36929738582565,
                -1.3304202316248035,
                -1.4229488260737457,
                -0.9886953209955696,
                0.8605879760933209
            ]
        },
        {
            "positions": [
                1.7157667787140607,
                -1.387148492358398,
                -1.2462490469827658,
                -1.4050056583588515,
                -0.9055165249940694,
                0.9203834430887383
            ]
        },
        {
            "positions": [
                1.592787308370445,
                -1.4049995988911461,
                -1.1620778623407282,
                -1.387062490643957,
                -0.8223377289925693,
                0.9801789100841558
            ]
        },
        {
            "positions": [
                1.4698078380268293,
                -1.4228507054238941,
                -1.0779066776986908,
                -1.3691193229290626,
                -0.7391589329910692,
                1.0399743770795733
            ]
        },
        {
            "positions": [
                1.346828367683214,
                -1.4407018119566422,
                -0.9937354930566531,
                -1.3511761552141683,
                -0.6559801369895691,
                1.0997698440749906
            ]
        },
        {
            "positions": [
                1.2238488973395985,
                -1.4585529184893902,
                -0.9095643084146157,
                -1.3332329874992739,
                -0.572801340988069,
                1.1595653110704078
            ]
        },
        {
            "positions": [
                1.100869426995983,
                -1.4764040250221382,
                -0.825393123772578,
                -1.3152898197843794,
                -0.48962254498656876,
                1.2193607780658253
            ]
        },
        {
            "positions": [
                0.9778899566523673,
                -1.494255131554886,
                -0.7412219391305404,
                -1.2973466520694852,
                -0.40644374898506874,
                1.2791562450612428
            ]
        },
        {
            "positions": [
                0.8549104863087518,
                -1.512106238087634,
                -0.6570507544885027,
                -1.2794034843545907,
                -0.3232649529835687,
                1.33895171205666
            ]
        },
        {
            "positions": [
                0.7319310159651364,
                -1.529957344620382,
                -0.5728795698464653,
                -1.2614603166396963,
                -0.24008615698206848,
                1.3987471790520773
            ]
        },
        {
            "positions": [
                0.6089515456215211,
                -1.54780845115313,
                -0.4887083852044276,
                -1.243517148924802,
                -0.15690736098056846,
                1.4585426460474946
            ]
        },
        {
            "positions": [
                0.4859720752779051,
                -1.565659557685878,
                -0.40453720056238995,
                -1.2255739812099076,
                -0.07372856497906821,
                1.5183381130429123
            ]
        },
        {
            "positions": [
                0.36299260493428953,
                -1.583510664218626,
                -0.3203660159203523,
                -1.2076308134950131,
                0.00945023102243181,
                1.5781335800383296
            ]
        },
        {
            "positions": [
                0.24001313459067397,
                -1.601361770751374,
                -0.23619483127831487,
                -1.1896876457801189,
                0.09262902702393205,
                1.6379290470337473
            ]
        },
        {
            "positions": [
                0.11703366424705886,
                -1.619212877284122,
                -0.1520236466362772,
                -1.1717444780652244,
                0.17580782302543208,
                1.6977245140291646
            ]
        },
        {
            "positions": [
                -0.005945806096556705,
                -1.6370639838168701,
                -0.06785246199423955,
                -1.15380131035033,
                0.2589866190269321,
                1.7575199810245818
            ]
        },
        {
            "positions": [
                -0.12892527644017227,
                -1.654915090349618,
                0.01631872264779788,
                -1.1358581426354357,
                0.34216541502843234,
                1.8173154480199991
            ]
        },
        {
            "positions": [
                -0.2519047467837878,
                -1.672766196882366,
                0.10048990728983531,
                -1.1179149749205413,
                0.42534421102993236,
                1.8771109150154164
            ]
        },
        {
            "positions": [
                -0.37488421712740383,
                -1.690617303415114,
                0.1846610919318734,
                -1.0999718072056468,
                0.5085230070314328,
                1.936906382010834
            ]
        },
        {
            "positions": [
                -0.49786368747101895,
                -1.708468409947862,
                0.2688322765739106,
                -1.0820286394907523,
                0.5917018030329328,
                1.9967018490062514
            ]
        },
        {
            "positions": [
                -0.6208431578146345,
                -1.72631951648061,
                0.3530034612159483,
                -1.064085471775858,
                0.6748805990344329,
                2.056497316001669
            ]
        },
        {
            "positions": [
                -0.7438226281582501,
                -1.744170623013358,
                0.4371746458579858,
                -1.0461423040609636,
                0.7580593950359331,
                2.1162927829970863
            ]
        },
        {
            "positions": [
                -0.677136168115884,
                -1.6981937759813768,
                0.5563860518363815,
                -1.0316627845685526,
                0.7096766422434879,
                2.1957887364970783
            ]
        },
        {
            "positions": [
                -0.6104497080735178,
                -1.6522169289493958,
                0.6755974578147772,
                -1.0171832650761419,
                0.6612938894510426,
                2.2752846899970702
            ]
        },
        {
            "positions": [
                -0.5437632480311516,
                -1.6062400819174145,
                0.794808863793173,
                -1.0027037455837309,
                0.6129111366585974,
                2.3547806434970626
            ]
        },
        {
            "positions": [
                -0.4770767879887855,
                -1.5602632348854335,
                0.9140202697715686,
                -0.9882242260913201,
                0.5645283838661522,
                2.4342765969970546
            ]
        },
        {
            "positions": [
                -0.41039032794641933,
                -1.5142863878534523,
                1.0332316757499642,
                -0.9737447065989092,
                0.5161456310737069,
                2.5137725504970465
            ]
        },
        {
            "positions": [
                -0.3437038679040532,
                -1.4683095408214712,
                1.15244308172836,
                -0.9592651871064983,
                0.46776287828126173,
                2.5932685039970385
            ]
        },
        {
            "positions": [
                -0.2770174078616871,
                -1.42233269378949,
                1.2716544877067555,
                -0.9447856676140873,
                0.41938012548881654,
                2.6727644574970304
            ]
        },
        {
            "positions": [
                -0.21033094781932093,
                -1.3763558467575088,
                1.3908658936851515,
                -0.9303061481216764,
                0.3709973726963713,
                2.7522604109970223
            ]
        },
        {
            "positions": [
                -0.14364448777695482,
                -1.3303789997255278,
                1.5100772996635468,
                -0.9158266286292656,
                0.3226146199039261,
                2.8317563644970143
            ]
        },
        {
            "positions": [
                -0.0769580277345886,
                -1.2844021526935467,
                1.6292887056419425,
                -0.9013471091368547,
                0.2742318671114808,
                2.9112523179970067
            ]
        },
        {
            "positions": [
                -0.010271567692222594,
                -1.2384253056615655,
                1.7485001116203382,
                -0.8868675896444438,
                0.22584911431903565,
                2.9907482714969986
            ]
        },
        {
            "positions": [
                0.05641489235014363,
                -1.1924484586295843,
                1.867711517598734,
                -0.8723880701520329,
                0.17746636152659034,
                3.0702442249969906
            ]
        },
        {
            "positions": [
                0.12310135239250979,
                -1.1464716115976032,
                1.9869229235771295,
                -0.857908550659622,
                0.1290836087341452,
                3.1497401784969825
            ]
        }
    ]
}