{
    "goal": {
        "global_pose": {
            "orientation": {
                "w": 0.7047431468963623,
                "x": -0.7094548344612122,
                "y": 0.0024358443915843964,
                "z": -0.0022348060738295317
            },
            "position": {
                "x": 0.6094750761985779,
                "y": 0.3671506643295288,
                "z": 0.19426114857196808
            }
        },
        "name": "move_to_magneteinheit_A"
    },
    "id": "SPARStwo_move_to_magneteinheit_A_65",
    "joint_names": [
        "shoulder_pan_joint",
        "shoulder_lift_joint",
        "elbow_joint",
        "wrist_1_joint",
        "wrist_2_joint",
        "wrist_3_joint"
    ],
    "metrics": {
        "cart_traj_len": 3.51244227759189,
        "distance_elbow_joint": 3.9111444874664603,
        "distance_shoulder_lift_joint": 0.6933625008391111,
        "distance_shoulder_pan_joint": 3.0943908823650585,
        "distance_wrist_1_joint": 3.4680551150000243,
        "distance_wrist_2_joint": 1.7264522457962268,
        "distance_wrist_3_joint": 0.9507855640763385,
        "smoothness": 0.16688284867096564,
        "time": 5.039044479999999,
        "traj_len": 3.720778251326357,
        "weighted_distance": 4.576053898774812
    },
    "planner": "SPARStwo",
    "start": {
        "state": {
            "elbow_joint": -1.9196185241190666,
            "shoulder_lift_joint": -1.2443396400964142,
            "shoulder_pan_joint": 2.6996025414629847,
            "wrist_1_joint": -1.5485510000780065,
            "wrist_2_joint": -1.5709468930060704,
            "wrist_3_joint": 0.4420197071253992
        }
    },
    "waypoints": [
        {
            "positions": [
                2.6996025414629847,
                -1.2443396400964142,
                -1.9196185241190666,
                -1.5485510000780065,
                -1.5709468930060704,
                0.4420197071253992
            ]
        },
        {
            "positions": [
                2.574898065136094,
                -1.2545346832466073,
                -1.8918071505674188,
                -1.4610256537854138,
                -1.4690680380872068,
                0.46547833534813193
            ]
        },
        {
            "positions": [
                2.4501935888092037,
                -1.2647297263968005,
                -1.8639957770157707,
                -1.3735003074928211,
                -1.3671891831683431,
                0.48893696357086464
            ]
        },
        {
            "positions": [
                2.325489112482313,
                -1.2749247695469936,
                -1.8361844034641228,
                -1.2859749612002285,
                -1.2653103282494795,
                0.5123955917935974
            ]
        },
        {
            "positions": [
                2.200784636155422,
                -1.2851198126971868,
                -1.808373029912475,
                -1.1984496149076358,
                -1.1634314733306157,
                0.5358542200163301
            ]
        },
        {
            "positions": [
                2.076080159828532,
                -1.29531485584738,
                -1.780561656360827,
                -1.1109242686150431,
                -1.061552618411752,
                0.5593128482390628
            ]
        },
        {
            "positions": [
                1.9513756835016411,
                -1.305509898997573,
                -1.752750282809179,
                -1.0233989223224504,
                -0.9596737634928885,
                0.5827714764617955
            ]
        },
        {
            "positions": [
                1.8266712071747504,
                -1.3157049421477662,
                -1.7249389092575311,
                -0.9358735760298578,
                -0.8577949085740249,
                0.6062301046845283
            ]
        },
        {
            "positions": [
                1.7019667308478597,
                -1.3258999852979594,
                -1.6971275357058833,
                -0.8483482297372651,
                -0.7559160536551611,
                0.629688732907261
            ]
        },
        {
            "positions": [
                1.5772622545209691,
                -1.3360950284481525,
                -1.6693161621542352,
                -0.7608228834446724,
                -0.6540371987362974,
                0.6531473611299938
            ]
        },
        {
            "positions": [
                1.4525577781940786,
                -1.3462900715983457,
                -1.6415047886025873,
                -0.6732975371520797,
                -0.5521583438174338,
                0.6766059893527265
            ]
        },
        {
            "positions": [
                1.3278533018671879,
                -1.3564851147485388,
                -1.6136934150509394,
                -0.5857721908594871,
                -0.45027948889857017,
                0.7000646175754592
            ]
        },
        {
            "positions": [
                1.2507843915949457,
                -1.3364926737545635,
                -1.4647836949772308,
                -0.47157068462287616,
                -0.42577565724885225,
                0.6951514507669124
            ]
        },
        {
            "positions": [
                1.1737154813227035,
                -1.3165002327605884,
                -1.3158739749035222,
                -0.35736917838626525,
                -0.4012718255991343,
                0.6902382839583655
            ]
        },
        {
            "positions": [
                1.0966465710504614,
                -1.296507791766613,
                -1.1669642548298136,
                -0.24316767214965435,
                -0.3767679939494164,
                0.6853251171498187
            ]
        },
        {
            "positions": [
                1.0195776607782192,
                -1.276515350772638,
                -1.018054534756105,
                -0.12896616591304338,
                -0.3522641622996984,
                0.6804119503412718
            ]
        },
        {
            "positions": [
                0.9425087505059768,
                -1.2565229097786625,
                -0.8691448146823965,
                -0.014764659676432479,
                -0.3277603306499805,
                0.675498783532725
            ]
        },
        {
            "positions": [
                0.8654398402337347,
                -1.2365304687846874,
                -0.7202350946086878,
                0.09943684656017837,
                -0.3032564990002626,
                0.6705856167241782
            ]
        },
        {
            "positions": [
                0.7883709299614925,
                -1.216538027790712,
                -0.5713253745349793,
                0.21363835279678933,
                -0.2787526673505446,
                0.6656724499156312
            ]
        },
        {
            "positions": [
                0.7113020196892503,
                -1.1965455867967367,
                -0.4224156544612707,
                0.3278398590334003,
                -0.2542488357008267,
                0.6607592831070844
            ]
        },
        {
            "positions": [
                0.6342331094170082,
                -1.1765531458027616,
                -0.2735059343875621,
                0.44204136527001126,
                -0.2297450040511088,
                0.6558461162985375
            ]
        },
        {
            "positions": [
                0.5571641991447659,
                -1.1565607048087863,
                -0.12459621431385348,
                0.5562428715066221,
                -0.20524117240139084,
                0.6509329494899907
            ]
        },
        {
            "positions": [
                0.4800952888725236,
                -1.1365682638148111,
                0.02431350575985536,
                0.6704443777432332,
                -0.18073734075167286,
                0.6460197826814438
            ]
        },
        {
            "positions": [
                0.40302637860028157,
                -1.1165758228208358,
                0.17322322583356375,
                0.7846458839798438,
                -0.156233509101955,
                0.641106615872897
            ]
        },
        {
            "positions": [
                0.3259574683280393,
                -1.0965833818268607,
                0.3221329459072726,
                0.8988473902164549,
                -0.13172967745223702,
                0.6361934490643502
            ]
        },
        {
            "positions": [
                0.24888855805579713,
                -1.0765909408328853,
                0.47104266598098077,
                1.0130488964530657,
                -0.10722584580251909,
                0.6312802822558032
            ]
        },
        {
            "positions": [
                0.17181964778355496,
                -1.05659849983891,
                0.6199523860546896,
                1.1272504026896768,
                -0.08272201415280117,
                0.6263671154472564
            ]
        },
        {
            "positions": [
                0.0947507375113128,
                -1.0366060588449348,
                0.768862106128398,
                1.2414519089262877,
                -0.05821818250308325,
                0.6214539486387095
            ]
        },
        {
            "positions": [
                0.017681827239070413,
                -1.0166136178509595,
                0.9177718262021068,
                1.3556534151628985,
                -0.03371435085336527,
                0.6165407818301627
            ]
        },
        {
            "positions": [
                -0.05938708303317153,
                -0.9966211768569844,
                1.0666815462758152,
                1.4698549213995096,
                -0.009210519203647405,
                0.6116276150216158
            ]
        },
        {
            "positions": [
                -0.13645599330541383,
                -0.976628735863009,
                1.2155912663495239,
                1.5840564276361206,
                0.015293312446070587,
                0.606714448213069
            ]
        },
        {
            "positions": [
                -0.10163753777914708,
                -0.9469269293291087,
                1.3361402752440448,
                1.6337150225474535,
                -0.006091109253966512,
                0.520457105554677
            ]
        },
        {
            "positions": [
                -0.06681908225288032,
                -0.9172251227952085,
                1.4566892841385655,
                1.6833736174587863,
                -0.02747553095400361,
                0.4341997628962849
            ]
        },
        {
            "positions": [
                -0.03200062672661355,
                -0.8875233162613083,
                1.5772382930330862,
                1.7330322123701192,
                -0.04885995265404071,
                0.3479424202378929
            ]
        },
        {
            "positions": [
                0.002817828799653199,
                -0.857821509727408,
                1.697787301927607,
                1.782690807281452,
                -0.07024437435407781,
                0.2616850775795009
            ]
        },
        {
            "positions": [
                0.03763628432591998,
                -0.8281197031935077,
                1.818336310822128,
                1.8323494021927849,
                -0.0916287960541149,
                0.17542773492110886
            ]
        },
        {
            "positions": [
                0.07245473985218673,
                -0.7984178966596075,
                1.9388853197166487,
                1.8820079971041177,
                -0.113013217754152,
                0.08917039226271685
            ]
        },
        {
            "positions": [
                0.12187635429124544,
                -0.7752680885615524,
                1.9915259633473925,
                1.9195041149220196,
                -0.1249187278980149,
                0.007323963949180825
            ]
        }
    ]
}