{
    "goal": {
        "global_pose": {
            "orientation": {
                "w": -0.4816463035849501,
                "x": 0.5182115481033762,
                "y": 0.4908360881923453,
                "z": -0.5084816262002911
            },
            "position": {
                "x": -0.8240239810943604,
                "y": -0.300875300988555,
                "z": 0.16403168439865112
            }
        },
        "name": "move_to_storage_C"
    },
    "id": "SPARStwo_move_to_storage_C_12",
    "joint_names": [
        "shoulder_pan_joint",
        "shoulder_lift_joint",
        "elbow_joint",
        "wrist_1_joint",
        "wrist_2_joint",
        "wrist_3_joint"
    ],
    "metrics": {
        "cart_traj_len": 0.5761434833447023,
        "distance_elbow_joint": 0.25432979997916205,
        "distance_shoulder_lift_joint": 0.18898764160245352,
        "distance_shoulder_pan_joint": 0.4942263033382619,
        "distance_wrist_1_joint": 0.06456804080358125,
        "distance_wrist_2_joint": 1.0686065967190808,
        "distance_wrist_3_joint": 0.06147880430737196,
        "smoothness": 0.0,
        "time": 5.013063812,
        "traj_len": 1.4602045016880039,
        "weighted_distance": 1.8407415442933093
    },
    "planner": "SPARStwo",
    "start": {
        "state": {
            "elbow_joint": 2.010868314990456,
            "shoulder_lift_joint": -1.1634956873337592,
            "shoulder_pan_joint": -2.4736205022346125,
            "wrist_1_joint": -0.8367026794202681,
            "wrist_2_joint": 0.6746043897044499,
            "wrist_3_joint": -3.1496632123970403
        }
    },
    "waypoints": [
        {
            "positions": [
                -2.4736205022346125,
                -1.1634956873337592,
                2.010868314990456,
                -0.8367026794202681,
                0.6746043897044499,
                -3.1496632123970403
            ]
        },
        {
            "positions": [
                -2.5559915527909896,
                -1.1319977470666835,
                1.9684800149939288,
                -0.825941339286338,
                0.85270548915763,
                -3.139416745012478
            ]
        },
        {
            "positions": [
                -2.6383626033473666,
                -1.1004998067996081,
                1.9260917149974017,
                -0.8151799991524077,
                1.0308065886108102,
                -3.1291702776279164
            ]
        },
        {
            "positions": [
                -2.7207336539037437,
                -1.0690018665325325,
                1.8837034150008747,
                -0.8044186590184774,
                1.2089076880639902,
                -3.1189238102433543
            ]
        },
        {
            "positions": [
                -2.8031047044601203,
                -1.0375039262654568,
                1.8413151150043479,
                -0.7936573188845473,
                1.3870087875171704,
                -3.108677342858792
            ]
        },
        {
            "positions": [
                -2.8854757550164973,
                -1.0060059859983812,
                1.7989268150078208,
                -0.7828959787506171,
                1.5651098869703506,
                -3.0984308754742305
            ]
        },
        {
            "positions": [
                -2.9678468055728744,
                -0.9745080457313057,
                1.7565385150112938,
                -0.7721346386166869,
                1.7432109864235308,
                -3.0881844080896683
            ]
        }
    ]
}