{
    "goal": {
        "global_pose": {
            "orientation": {
                "w": 0.5084816217422485,
                "x": -0.49083608388900757,
                "y": 0.5182115435600281,
                "z": -0.4816462993621826
            },
            "position": {
                "x": 0.5540239810943604,
                "y": 0.030875300988554955,
                "z": 0.16403168439865112
            }
        },
        "name": "move_to_storage_A"
    },
    "id": "SPARStwo_move_to_storage_A_131",
    "joint_names": [
        "shoulder_pan_joint",
        "shoulder_lift_joint",
        "elbow_joint",
        "wrist_1_joint",
        "wrist_2_joint",
        "wrist_3_joint"
    ],
    "metrics": {
        "cart_traj_len": 0.35323318920370006,
        "distance_elbow_joint": 0.45013778652113157,
        "distance_shoulder_lift_joint": 0.23600403024338212,
        "distance_shoulder_pan_joint": 0.4622506231248961,
        "distance_wrist_1_joint": 0.23654800656307406,
        "distance_wrist_2_joint": 1.0988705798492064,
        "distance_wrist_3_joint": 0.09652524401508256,
        "smoothness": 2.2204460668324854e-16,
        "time": 5.000370132,
        "traj_len": 1.6063425133877185,
        "weighted_distance": 2.0270188318708877
    },
    "planner": "SPARStwo",
    "start": {
        "state": {
            "elbow_joint": 1.9715481507254546,
            "shoulder_lift_joint": -1.1394850672790213,
            "shoulder_pan_joint": 0.12281154597544902,
            "wrist_1_joint": -0.7804720171073349,
            "wrist_2_joint": 0.12958658322886563,
            "wrist_3_joint": -3.1924895760937617
        }
    },
    "waypoints": [
        {
            "positions": [
                0.12281154597544902,
                -1.1394850672790213,
                1.9715481507254546,
                -0.7804720171073349,
                0.12958658322886563,
                -3.1924895760937617
            ]
        },
        {
            "positions": [
                0.056775742671892435,
                -1.1731999287423616,
                2.035853548799902,
                -0.8142645894734883,
                0.2865680946358951,
                -3.1787002555201784
            ]
        },
        {
            "positions": [
                -0.009260060631664152,
                -1.206914790205702,
                2.1001589468743496,
                -0.8480571618396417,
                0.4435496060429246,
                -3.164910934946595
            ]
        },
        {
            "positions": [
                -0.07529586393522072,
                -1.2406296516690423,
                2.164464344948797,
                -0.8818497342057953,
                0.6005311174499541,
                -3.151121614373012
            ]
        },
        {
            "positions": [
                -0.14133166723877733,
                -1.2743445131323825,
                2.228769743023244,
                -0.9156423065719487,
                0.7575126288569836,
                -3.137332293799429
            ]
        },
        {
            "positions": [
                -0.20736747054233395,
                -1.308059374595723,
                2.2930751410976917,
                -0.9494348789381022,
                0.9144941402640131,
                -3.1235429732258457
            ]
        },
        {
            "positions": [
                -0.27340327384589047,
                -1.3417742360590632,
                2.357380539172139,
                -0.9832274513042556,
                1.0714756516710424,
                -3.1097536526522624
            ]
        },
        {
            "positions": [
                -0.3394390771494471,
                -1.3754890975224034,
                2.421685937246586,
                -1.017020023670409,
                1.228457163078072,
                -3.095964332078679
            ]
        }
    ]
}