{
    "goal": {
        "global_pose": {
            "orientation": {
                "w": 0.7031023502349854,
                "x": -0.7110244035720825,
                "y": 0.007748599164187908,
                "z": 0.005598929710686207
            },
            "position": {
                "x": 0.11585023208521307,
                "y": 0.44412534475326537,
                "z": 0.3711530566215515
            }
        },
        "name": "move_to_auspresseinheit_A"
    },
    "id": "SPARStwo_move_to_auspresseinheit_A_120",
    "joint_names": [
        "shoulder_pan_joint",
        "shoulder_lift_joint",
        "elbow_joint",
        "wrist_1_joint",
        "wrist_2_joint",
        "wrist_3_joint"
    ],
    "metrics": {
        "cart_traj_len": 0.6850895705787547,
        "distance_elbow_joint": 0.34390359237202617,
        "distance_shoulder_lift_joint": 0.5394184616867408,
        "distance_shoulder_pan_joint": 1.0462433380587313,
        "distance_wrist_1_joint": 0.9712672191268705,
        "distance_wrist_2_joint": 0.9488873348806319,
        "distance_wrist_3_joint": 1.7797249040622107,
        "smoothness": 0.9908057813795518,
        "time": 5.011972204999999,
        "traj_len": 2.372645116781524,
        "weighted_distance": 3.3330240341646404
    },
    "planner": "SPARStwo",
    "start": {
        "state": {
            "elbow_joint": 2.4225746658250005,
            "shoulder_lift_joint": -1.3736534386056498,
            "shoulder_pan_joint": -0.3378633547517467,
            "wrist_1_joint": -1.0288598680537169,
            "wrist_2_joint": 1.233022673432363,
            "wrist_3_joint": -3.0940220416140027
        }
    },
    "waypoints": [
        {
            "positions": [
                -0.3378633547517467,
                -1.3736534386056498,
                2.4225746658250005,
                -1.0288598680537169,
                1.233022673432363,
                -3.0940220416140027
            ]
        },
        {
            "positions": [
                -0.2581592696408338,
                -1.4309400529755254,
                2.440291727129483,
                -0.9444469181740264,
                1.2571915270242355,
                -2.9973521800052274
            ]
        },
        {
            "positions": [
                -0.17845518452992093,
                -1.488226667345401,
                2.4580087884339656,
                -0.8600339682943359,
                1.281360380616108,
                -2.9006823183964516
            ]
        },
        {
            "positions": [
                -0.098751099419008,
                -1.5455132817152766,
                2.4757258497384482,
                -0.7756210184146453,
                1.3055292342079805,
                -2.8040124567876763
            ]
        },
        {
            "positions": [
                -0.019047014308095134,
                -1.6027998960851522,
                2.493442911042931,
                -0.6912080685349548,
                1.329698087799853,
                -2.707342595178901
            ]
        },
        {
            "positions": [
                0.06065707080281785,
                -1.6600865104550278,
                2.5111599723474134,
                -0.6067951186552641,
                1.3538669413917253,
                -2.610672733570125
            ]
        },
        {
            "positions": [
                0.14036115591373072,
                -1.7173731248249036,
                2.528877033651896,
                -0.5223821687755736,
                1.3780357949835977,
                -2.51400287196135
            ]
        },
        {
            "positions": [
                0.2200652410246436,
                -1.7746597391947792,
                2.5465940949563786,
                -0.43796921889588314,
                1.4022046485754702,
                -2.4173330103525745
            ]
        },
        {
            "positions": [
                0.29976932613555646,
                -1.8319463535646547,
                2.564311156260861,
                -0.35355626901619264,
                1.4263735021673427,
                -2.320663148743799
            ]
        },
        {
            "positions": [
                0.3794734112464694,
                -1.8892329679345303,
                2.5820282175653437,
                -0.269143319136502,
                1.4505423557592152,
                -2.2239932871350234
            ]
        },
        {
            "positions": [
                0.4264600643979715,
                -1.8926385296999388,
                2.5556782117608177,
                -0.29936484345216713,
                1.3460612625372466,
                -2.3539498799326277
            ]
        },
        {
            "positions": [
                0.4734467175494737,
                -1.8960440914653476,
                2.5293282059562916,
                -0.3295863677678322,
                1.2415801693152781,
                -2.4839064727302325
            ]
        },
        {
            "positions": [
                0.5204333707009758,
                -1.899449653230756,
                2.5029782001517655,
                -0.3598078920834973,
                1.1370990760933095,
                -2.6138630655278368
            ]
        },
        {
            "positions": [
                0.567420023852478,
                -1.9028552149961648,
                2.476628194347239,
                -0.3900294163991624,
                1.032617982871341,
                -2.7438196583254415
            ]
        },
        {
            "positions": [
                0.6144066770039802,
                -1.9062607767615734,
                2.450278188542713,
                -0.4202509407148275,
                0.9281368896493725,
                -2.873776251123046
            ]
        },
        {
            "positions": [
                0.6613933301554823,
                -1.909666338526982,
                2.423928182738187,
                -0.45047246503049254,
                0.8236557964274039,
                -3.00373284392065
            ]
        },
        {
            "positions": [
                0.7083799833069845,
                -1.9130719002923906,
                2.397578176933661,
                -0.48069398934615765,
                0.7191747032054354,
                -3.133689436718255
            ]
        }
    ]
}