{
    "goal": {
        "global_pose": {
            "orientation": {
                "w": 0.5084816217422485,
                "x": -0.49083608388900757,
                "y": 0.5182115435600281,
                "z": -0.4816462993621826
            },
            "position": {
                "x": 0.5540239810943604,
                "y": 0.030875300988554955,
                "z": 0.16403168439865112
            }
        },
        "name": "move_to_storage_A"
    },
    "id": "SPARS_move_to_storage_A_43",
    "joint_names": [
        "shoulder_pan_joint",
        "shoulder_lift_joint",
        "elbow_joint",
        "wrist_1_joint",
        "wrist_2_joint",
        "wrist_3_joint"
    ],
    "metrics": {
        "cart_traj_len": 0.35358580202705836,
        "distance_elbow_joint": 0.45070267927592655,
        "distance_shoulder_lift_joint": 0.23382462759057,
        "distance_shoulder_pan_joint": 0.4635129401273314,
        "distance_wrist_1_joint": 0.24685569594265588,
        "distance_wrist_2_joint": 1.094585116017803,
        "distance_wrist_3_joint": 0.10047110544881699,
        "smoothness": 0.0,
        "time": 5.002551242,
        "traj_len": 1.6093328320776605,
        "weighted_distance": 2.0328145973652387
    },
    "planner": "SPARS",
    "start": {
        "state": {
            "elbow_joint": 1.971548259319323,
            "shoulder_lift_joint": -1.1394851275133948,
            "shoulder_pan_joint": 0.1228115487234821,
            "wrist_1_joint": -0.7804723859257726,
            "wrist_2_joint": 0.12958671773740124,
            "wrist_3_joint": -3.192489227718131
        }
    },
    "waypoints": [
        {
            "positions": [
                0.1228115487234821,
                -1.1394851275133948,
                1.971548259319323,
                -0.7804723859257726,
                0.12958671773740124,
                -3.192489227718131
            ]
        },
        {
            "positions": [
                0.05659541441957762,
                -1.1728886457406191,
                2.035934356358741,
                -0.815737485346152,
                0.2859560200256588,
                -3.1781362126540142
            ]
        },
        {
            "positions": [
                -0.009620719884326862,
                -1.2062921639678434,
                2.100320453398159,
                -0.8510025847665315,
                0.4423253223139164,
                -3.163783197589898
            ]
        },
        {
            "positions": [
                -0.07583685418823136,
                -1.2396956821950678,
                2.164706550437577,
                -0.8862676841869108,
                0.5986946246021739,
                -3.149430182525781
            ]
        },
        {
            "positions": [
                -0.14205298849213582,
                -1.2730992004222919,
                2.229092647476995,
                -0.9215327836072903,
                0.7550639268904316,
                -3.1350771674616644
            ]
        },
        {
            "positions": [
                -0.20826912279604032,
                -1.3065027186495162,
                2.2934787445164133,
                -0.9567978830276697,
                0.9114332291786892,
                -3.1207241523975475
            ]
        },
        {
            "positions": [
                -0.2744852570999448,
                -1.3399062368767405,
                2.3578648415558314,
                -0.9920629824480491,
                1.0678025314669466,
                -3.106371137333431
            ]
        },
        {
            "positions": [
                -0.3407013914038493,
                -1.3733097551039648,
                2.4222509385952495,
                -1.0273280818684285,
                1.2241718337552043,
                -3.092018122269314
            ]
        }
    ]
}{
    "goal": {
        "global_pose": {
            "orientation": {
                "w": 0.5084816217422485,
                "x": -0.49083608388900757,
                "y": 0.5182115435600281,
                "z": -0.4816462993621826
            },
            "position": {
                "x": 0.5540239810943604,
                "y": 0.030875300988554955,
                "z": 0.16403168439865112
            }
        },
        "name": "move_to_storage_A"
    },
    "id": "SPARS_move_to_storage_A_43",
    "joint_names": [
        "shoulder_pan_joint",
        "shoulder_lift_joint",
        "elbow_joint",
        "wrist_1_joint",
        "wrist_2_joint",
        "wrist_3_joint"
    ],
    "metrics": {
        "cart_traj_len": 0.3531022389535524,
        "distance_elbow_joint": 0.44969265894253896,
        "distance_shoulder_lift_joint": 0.236796707730762,
        "distance_shoulder_pan_joint": 0.46394973343097423,
        "distance_wrist_1_joint": 0.2347097982816697,
        "distance_wrist_2_joint": 1.0907585838141542,
        "distance_wrist_3_joint": 0.10059385568339074,
        "smoothness": 1.3322676330666221e-15,
        "time": 5.018673919,
        "traj_len": 1.6051483850047916,
        "weighted_distance": 2.0256251951795265
    },
    "planner": "SPARS",
    "start": {
        "state": {
            "elbow_joint": 1.97154746011099,
            "shoulder_lift_joint": -1.13948474672311,
            "shoulder_pan_joint": 0.12281154466712228,
            "wrist_1_joint": -0.7804688027058302,
            "wrist_2_joint": 0.12958655903071145,
            "wrist_3_joint": 3.0906928834467795
        }
    },
    "waypoints": [
        {
            "positions": [
                0.12281154466712228,
                -1.13948474672311,
                1.97154746011099,
                -0.7804688027058302,
                0.12958655903071145,
                3.0906928834467795
            ]
        },
        {
            "positions": [
                0.05653301131984026,
                -1.1733128478275046,
                2.0357892685313526,
                -0.8139987738889258,
                0.2854092138613049,
                3.1050634342586925
            ]
        },
        {
            "positions": [
                -0.009745522027441764,
                -1.2071409489318992,
                2.100031076951715,
                -0.8475287450720215,
                0.44123186869189834,
                3.1194339850706054
            ]
        },
        {
            "positions": [
                -0.0760240553747238,
                -1.2409690500362938,
                2.164272885372078,
                -0.8810587162551172,
                0.5970545235224918,
                3.1338045358825184
            ]
        },
        {
            "positions": [
                -0.1423025887220058,
                -1.2747971511406881,
                2.228514693792441,
                -0.9145886874382129,
                0.7528771783530853,
                3.1481750866944314
            ]
        },
        {
            "positions": [
                -0.20858112206928786,
                -1.3086252522450827,
                2.2927565022128036,
                -0.9481186586213086,
                0.9086998331836789,
                3.1625456375063443
            ]
        },
        {
            "positions": [
                -0.27485965541656987,
                -1.3424533533494774,
                2.3569983106331662,
                -0.9816486298044043,
                1.064522488014272,
                3.1769161883182573
            ]
        },
        {
            "positions": [
                -0.34113818876385194,
                -1.376281454453872,
                2.421240119053529,
                -1.0151786009875,
                1.2203451428448657,
                3.1912867391301702
            ]
        }
    ]
}{
    "goal": {
        "global_pose": {
            "orientation": {
                "w": 0.5084816217422485,
                "x": -0.49083608388900757,
                "y": 0.5182115435600281,
                "z": -0.4816462993621826
            },
            "position": {
                "x": 0.5540239810943604,
                "y": 0.030875300988554955,
                "z": 0.16403168439865112
            }
        },
        "name": "move_to_storage_A"
    },
    "id": "SPARS_move_to_storage_A_43",
    "joint_names": [
        "shoulder_pan_joint",
        "shoulder_lift_joint",
        "elbow_joint",
        "wrist_1_joint",
        "wrist_2_joint",
        "wrist_3_joint"
    ],
    "metrics": {
        "cart_traj_len": 0.35285199525830446,
        "distance_elbow_joint": 0.4505805104827161,
        "distance_shoulder_lift_joint": 0.23574063623752983,
        "distance_shoulder_pan_joint": 0.4614469122540001,
        "distance_wrist_1_joint": 0.2456925777226675,
        "distance_wrist_2_joint": 1.098698679783879,
        "distance_wrist_3_joint": 0.08987413268350997,
        "smoothness": 1.1102230244806396e-15,
        "time": 5.010128869,
        "traj_len": 1.606870700823281,
        "weighted_distance": 2.0263694066082496
    },
    "planner": "SPARS",
    "start": {
        "state": {
            "elbow_joint": 1.9715472970024885,
            "shoulder_lift_joint": -1.1394870060712896,
            "shoulder_pan_joint": 0.12281152778156021,
            "wrist_1_joint": -0.780463741449964,
            "wrist_2_joint": 0.12958659822042276,
            "wrist_3_joint": 3.090690232415272
        }
    },
    "waypoints": [
        {
            "positions": [
                0.12281152778156021,
                -1.1394870060712896,
                1.9715472970024885,
                -0.780463741449964,
                0.12958659822042276,
                3.090690232415272
            ]
        },
        {
            "positions": [
                0.05689054031670307,
                -1.1731642398195081,
                2.035915941357162,
                -0.8155626811246308,
                0.2865435524752626,
                3.103529394227202
            ]
        },
        {
            "positions": [
                -0.00903044714815407,
                -1.2068414735677266,
                2.100284585711836,
                -0.8506616207992975,
                0.44350050673010244,
                3.1163685560391317
            ]
        },
        {
            "positions": [
                -0.07495143461301121,
                -1.2405187073159452,
                2.16465323006651,
                -0.8857605604739643,
                0.6004574609849422,
                3.1292077178510618
            ]
        },
        {
            "positions": [
                -0.14087242207786835,
                -1.2741959410641637,
                2.2290218744211834,
                -0.9208595001486312,
                0.757414415239782,
                3.142046879662992
            ]
        },
        {
            "positions": [
                -0.20679340954272554,
                -1.3078731748123824,
                2.2933905187758574,
                -0.9559584398232979,
                0.9143713694946219,
                3.154886041474922
            ]
        },
        {
            "positions": [
                -0.2727143970075826,
                -1.341550408560601,
                2.357759163130531,
                -0.9910573794979647,
                1.0713283237494617,
                3.1677252032868517
            ]
        },
        {
            "positions": [
                -0.33863538447243985,
                -1.3752276423088194,
                2.4221278074852046,
                -1.0261563191726315,
                1.2282852780043017,
                3.180564365098782
            ]
        }
    ]
}