{
    "goal": {
        "global_pose": {
            "orientation": {
                "w": 0.7047431468963623,
                "x": -0.7094548344612122,
                "y": 0.0024358443915843964,
                "z": -0.0022348060738295317
            },
            "position": {
                "x": 0.6094750761985779,
                "y": 0.3671506643295288,
                "z": 0.19426114857196808
            }
        },
        "name": "move_to_magneteinheit_A"
    },
    "id": "SPARStwo_move_to_magneteinheit_A_24",
    "joint_names": [
        "shoulder_pan_joint",
        "shoulder_lift_joint",
        "elbow_joint",
        "wrist_1_joint",
        "wrist_2_joint",
        "wrist_3_joint"
    ],
    "metrics": {
        "cart_traj_len": 3.4368156878028144,
        "distance_elbow_joint": 3.910992964645984,
        "distance_shoulder_lift_joint": 0.4675956565616458,
        "distance_shoulder_pan_joint": 3.062694008382658,
        "distance_wrist_1_joint": 3.459237730723071,
        "distance_wrist_2_joint": 1.436643401355125,
        "distance_wrist_3_joint": 3.004831540174513,
        "smoothness": 0.15477646408724025,
        "time": 5.031814692,
        "traj_len": 3.9168859189211775,
        "weighted_distance": 5.123235258532466
    },
    "planner": "SPARStwo",
    "start": {
        "state": {
            "elbow_joint": -1.9196185241190666,
            "shoulder_lift_joint": -1.2443396400964142,
            "shoulder_pan_joint": 2.6996025414629847,
            "wrist_1_joint": -1.5485510000780065,
            "wrist_2_joint": -1.5709468930060704,
            "wrist_3_joint": 0.4420197071253992
        }
    },
    "waypoints": [
        {
            "positions": [
                2.6996025414629847,
                -1.2443396400964142,
                -1.9196185241190666,
                -1.5485510000780065,
                -1.5709468930060704,
                0.4420197071253992
            ]
        },
        {
            "positions": [
                2.5738057874219327,
                -1.2331348974161072,
                -1.8115479646775305,
                -1.5137712972144484,
                -1.5517711622585717,
                0.3560156660470911
            ]
        },
        {
            "positions": [
                2.4480090333808806,
                -1.2219301547358001,
                -1.7034774052359942,
                -1.47899159435089,
                -1.532595431511073,
                0.27001162496878306
            ]
        },
        {
            "positions": [
                2.3222122793398285,
                -1.2107254120554931,
                -1.5954068457944581,
                -1.4442118914873319,
                -1.5134197007635746,
                0.184007583890475
            ]
        },
        {
            "positions": [
                2.196415525298776,
                -1.199520669375186,
                -1.487336286352922,
                -1.4094321886237737,
                -1.494243970016076,
                0.09800354281216694
            ]
        },
        {
            "positions": [
                2.070618771257724,
                -1.188315926694879,
                -1.379265726911386,
                -1.3746524857602154,
                -1.4750682392685772,
                0.011999501733858886
            ]
        },
        {
            "positions": [
                1.944822017216672,
                -1.177111184014572,
                -1.2711951674698496,
                -1.3398727828966572,
                -1.4558925085210785,
                -0.07400453934444917
            ]
        },
        {
            "positions": [
                1.8190252631756199,
                -1.165906441334265,
                -1.1631246080283135,
                -1.305093080033099,
                -1.4367167777735799,
                -0.16000858042275723
            ]
        },
        {
            "positions": [
                1.6932285091345676,
                -1.154701698653958,
                -1.0550540485867774,
                -1.2703133771695407,
                -1.4175410470260812,
                -0.2460126215010653
            ]
        },
        {
            "positions": [
                1.5674317550935155,
                -1.143496955973651,
                -0.9469834891452411,
                -1.2355336743059826,
                -1.3983653162785827,
                -0.33201666257937335
            ]
        },
        {
            "positions": [
                1.4416350010524634,
                -1.132292213293344,
                -0.838912929703705,
                -1.2007539714424245,
                -1.379189585531084,
                -0.4180207036576814
            ]
        },
        {
            "positions": [
                1.3158382470114112,
                -1.1210874706130367,
                -0.7308423702621687,
                -1.165974268578866,
                -1.3600138547835854,
                -0.5040247447359896
            ]
        },
        {
            "positions": [
                1.1900414929703593,
                -1.1098827279327297,
                -0.6227718108206328,
                -1.1311945657153082,
                -1.340838124036087,
                -0.5900287858142975
            ]
        },
        {
            "positions": [
                1.064244738929307,
                -1.0986779852524227,
                -0.5147012513790965,
                -1.0964148628517498,
                -1.3216623932885883,
                -0.6760328268926056
            ]
        },
        {
            "positions": [
                0.938447984888255,
                -1.0874732425721156,
                -0.4066306919375604,
                -1.0616351599881917,
                -1.3024866625410896,
                -0.7620368679709136
            ]
        },
        {
            "positions": [
                0.8126512308472029,
                -1.0762684998918086,
                -0.2985601324960241,
                -1.0268554571246336,
                -1.283310931793591,
                -0.8480409090492217
            ]
        },
        {
            "positions": [
                0.6868544768061504,
                -1.0650637572115016,
                -0.190489573054488,
                -0.9920757542610752,
                -1.2641352010460922,
                -0.9340449501275297
            ]
        },
        {
            "positions": [
                0.5610577227650988,
                -1.0538590145311946,
                -0.0824190136129519,
                -0.9572960513975171,
                -1.2449594702985936,
                -1.020048991205838
            ]
        },
        {
            "positions": [
                0.4352609687240463,
                -1.0426542718508875,
                0.02565154582858442,
                -0.9225163485339588,
                -1.2257837395510949,
                -1.1060530322841458
            ]
        },
        {
            "positions": [
                0.30946421468299423,
                -1.0314495291705805,
                0.1337221052701203,
                -0.8877366456704007,
                -1.2066080088035964,
                -1.192057073362454
            ]
        },
        {
            "positions": [
                0.18366746064194206,
                -1.0202447864902735,
                0.24179266471165678,
                -0.8529569428068424,
                -1.1874322780560977,
                -1.2780611144407619
            ]
        },
        {
            "positions": [
                0.16470049339789913,
                -1.0076857411597406,
                0.3487669256699708,
                -0.7191291433077049,
                -1.136665149978272,
                -1.2226102352504182
            ]
        },
        {
            "positions": [
                0.1457335261538562,
                -0.9951266958292078,
                0.4557411866282849,
                -0.5853013438085675,
                -1.0858980219004462,
                -1.1671593560600748
            ]
        },
        {
            "positions": [
                0.1267665589098133,
                -0.982567650498675,
                0.562715447586599,
                -0.45147354430943,
                -1.0351308938226205,
                -1.1117084768697312
            ]
        },
        {
            "positions": [
                0.10779959166577037,
                -0.9700086051681421,
                0.6696897085449129,
                -0.3176457448102925,
                -0.9843637657447946,
                -1.0562575976793878
            ]
        },
        {
            "positions": [
                0.08883262442172744,
                -0.9574495598376093,
                0.7766639695032271,
                -0.18381794531115503,
                -0.9335966376669689,
                -1.0008067184890441
            ]
        },
        {
            "positions": [
                0.06986565717768453,
                -0.9448905145070764,
                0.8836382304615411,
                -0.04999014581201755,
                -0.8828295095891431,
                -0.9453558392987006
            ]
        },
        {
            "positions": [
                0.050898689933641605,
                -0.9323314691765435,
                0.9906124914198551,
                0.08383765368711993,
                -0.8320623815113173,
                -0.8899049601083571
            ]
        },
        {
            "positions": [
                0.03193172268959868,
                -0.9197724238460108,
                1.0975867523781693,
                0.2176654531862574,
                -0.7812952534334915,
                -0.8344540809180135
            ]
        },
        {
            "positions": [
                0.012964755445555753,
                -0.9072133785154779,
                1.2045610133364832,
                0.3514932526853949,
                -0.7305281253556657,
                -0.77900320172767
            ]
        },
        {
            "positions": [
                -0.006002211798487173,
                -0.894654333184945,
                1.3115352742947974,
                0.48532105218453236,
                -0.6797609972778399,
                -0.7235523225373265
            ]
        },
        {
            "positions": [
                -0.0249691790425301,
                -0.8820952878544122,
                1.4185095352531114,
                0.6191488516836698,
                -0.6289938692000141,
                -0.668101443346983
            ]
        },
        {
            "positions": [
                -0.043936146286573,
                -0.8695362425238793,
                1.5254837962114254,
                0.7529766511828073,
                -0.5782267411221884,
                -0.6126505641566393
            ]
        },
        {
            "positions": [
                -0.06290311353061592,
                -0.8569771971933464,
                1.6324580571697396,
                0.8868044506819448,
                -0.5274596130443626,
                -0.5571996849662958
            ]
        },
        {
            "positions": [
                -0.08187008077465885,
                -0.8444181518628135,
                1.7394323181280535,
                1.0206322501810823,
                -0.4766924849665368,
                -0.5017488057759523
            ]
        },
        {
            "positions": [
                -0.1008370480187018,
                -0.8318591065322808,
                1.8464065790863677,
                1.15446004968022,
                -0.425925356888711,
                -0.44629792658560874
            ]
        },
        {
            "positions": [
                -0.1198040152627447,
                -0.8193000612017479,
                1.9533808400446817,
                1.2882878491793575,
                -0.3751582288108852,
                -0.3908470473952652
            ]
        },
        {
            "positions": [
                -0.05898215234851251,
                -0.8086610417850031,
                1.9628792401652404,
                1.4438875695457845,
                -0.31494454452090015,
                -0.29146288450455166
            ]
        },
        {
            "positions": [
                0.0018397105657196877,
                -0.7980220223682581,
                1.9723776402857989,
                1.5994872899122112,
                -0.2547308602309152,
                -0.19207872161383813
            ]
        },
        {
            "positions": [
                0.06266157347995188,
                -0.7873830029515132,
                1.9818760404063576,
                1.755087010278638,
                -0.19451717594093018,
                -0.0926945587231246
            ]
        },
        {
            "positions": [
                0.12348343639418409,
                -0.7767439835347684,
                1.9913744405269163,
                1.910686730645065,
                -0.13430349165094518,
                0.006689604167588979
            ]
        }
    ]
}