{
    "goal": {
        "global_pose": {
            "orientation": {
                "w": -0.00223480608172531,
                "x": 0.0024358444001904467,
                "y": 0.7094548369677653,
                "z": -0.704743149386269
            },
            "position": {
                "x": 0.6205249238014221,
                "y": -0.6371506643295288,
                "z": 0.19426114857196808
            }
        },
        "name": "move_to_magneteinheit_B"
    },
    "id": "SPARS_move_to_magneteinheit_B_96",
    "joint_names": [
        "shoulder_pan_joint",
        "shoulder_lift_joint",
        "elbow_joint",
        "wrist_1_joint",
        "wrist_2_joint",
        "wrist_3_joint"
    ],
    "metrics": {
        "cart_traj_len": 3.756197133111131,
        "distance_elbow_joint": 4.4423499127318,
        "distance_shoulder_lift_joint": 1.4921734337194579,
        "distance_shoulder_pan_joint": 2.5238096188830137,
        "distance_wrist_1_joint": 1.4628490751862466,
        "distance_wrist_2_joint": 1.8623660944800526,
        "distance_wrist_3_joint": 1.4194928982123616,
        "smoothness": 1.1430625407124597,
        "time": 5.057361049,
        "traj_len": 3.633598909237635,
        "weighted_distance": 4.400822877520061
    },
    "planner": "SPARS",
    "start": {
        "state": {
            "elbow_joint": 2.6216224122426386,
            "shoulder_lift_joint": -1.4174107377796124,
            "shoulder_pan_joint": 0.7066234856936794,
            "wrist_1_joint": 1.9546482284002225,
            "wrist_2_joint": -0.7096286983471962,
            "wrist_3_joint": 0.005740856962016249
        }
    },
    "waypoints": [
        {
            "positions": [
                0.7066234856936794,
                -1.4174107377796124,
                2.6216224122426386,
                1.9546482284002225,
                -0.7096286983471962,
                0.005740856962016249
            ]
        },
        {
            "positions": [
                0.5933006392703412,
                -1.326803460270009,
                2.6613923602337057,
                1.953746880596274,
                -0.7975193326054645,
                0.061715998457158895
            ]
        },
        {
            "positions": [
                0.4799777928470029,
                -1.2361961827604055,
                2.701162308224773,
                1.9528455327923258,
                -0.8854099668637327,
                0.11769113995230154
            ]
        },
        {
            "positions": [
                0.5142197926065762,
                -1.2965038230620605,
                2.594966181529086,
                1.9643603567322914,
                -0.8287807221280309,
                0.07470129029292383
            ]
        },
        {
            "positions": [
                0.5484617923661494,
                -1.3568114633637152,
                2.4887700548333993,
                1.9758751806722568,
                -0.7721514773923289,
                0.0317114406335461
            ]
        },
        {
            "positions": [
                0.5827037921257228,
                -1.41711910366537,
                2.3825739281377123,
                1.9873900046122224,
                -0.7155222326566271,
                -0.011278409025831623
            ]
        },
        {
            "positions": [
                0.5954579129199012,
                -1.4008339733304411,
                2.2139738094495494,
                2.0973546452795664,
                -0.8000216950545698,
                -0.007259276325705398
            ]
        },
        {
            "positions": [
                0.6082120337140797,
                -1.384548842995512,
                2.045373690761386,
                2.2073192859469106,
                -0.8845211574525125,
                -0.0032401436255791727
            ]
        },
        {
            "positions": [
                0.7037681208491283,
                -1.4154321184654592,
                1.881302747056929,
                2.1954223838621787,
                -0.8316208941115923,
                -0.029953022643194292
            ]
        },
        {
            "positions": [
                0.7993242079841769,
                -1.4463153939354065,
                1.717231803352472,
                2.1835254817774468,
                -0.7787206307706722,
                -0.05666590166080941
            ]
        },
        {
            "positions": [
                0.8948802951192254,
                -1.4771986694053538,
                1.553160859648015,
                2.171628579692715,
                -0.7258203674297522,
                -0.08337878067842452
            ]
        },
        {
            "positions": [
                0.9904363822542741,
                -1.5080819448753013,
                1.3890899159435581,
                2.1597316776079833,
                -0.6729201040888321,
                -0.11009165969603965
            ]
        },
        {
            "positions": [
                1.0859924693893226,
                -1.5389652203452486,
                1.2250189722391012,
                2.1478347755232514,
                -0.6200198407479119,
                -0.13680453871365475
            ]
        },
        {
            "positions": [
                1.1815485565243713,
                -1.569848495815196,
                1.0609480285346442,
                2.1359378734385195,
                -0.5671195774069919,
                -0.16351741773126988
            ]
        },
        {
            "positions": [
                1.2771046436594198,
                -1.6007317712851432,
                0.8968770848301872,
                2.1240409713537876,
                -0.5142193140660718,
                -0.190230296748885
            ]
        },
        {
            "positions": [
                1.3726607307944683,
                -1.6316150467550905,
                0.7328061411257303,
                2.1121440692690556,
                -0.4613190507251516,
                -0.21694317576650013
            ]
        },
        {
            "positions": [
                1.468216817929517,
                -1.6624983222250378,
                0.5687351974212733,
                2.1002471671843237,
                -0.4084187873842315,
                -0.24365605478411526
            ]
        },
        {
            "positions": [
                1.5637729050645657,
                -1.693381597694985,
                0.40466425371681636,
                2.088350265099592,
                -0.3555185240433114,
                -0.2703689338017303
            ]
        },
        {
            "positions": [
                1.6593289921996142,
                -1.7242648731649326,
                0.2405933100123594,
                2.0764533630148603,
                -0.3026182607023913,
                -0.2970818128193455
            ]
        },
        {
            "positions": [
                1.7548850793346626,
                -1.7551481486348797,
                0.07652236630790266,
                2.0645564609301283,
                -0.24971799736147127,
                -0.3237946918369606
            ]
        },
        {
            "positions": [
                1.8504411664697114,
                -1.7860314241048272,
                -0.08754857739655453,
                2.0526595588453964,
                -0.19681773402055103,
                -0.35050757085457573
            ]
        },
        {
            "positions": [
                1.9459972536047598,
                -1.8169146995747745,
                -0.2516195211010115,
                2.0407626567606645,
                -0.143917470679631,
                -0.37722044987219083
            ]
        },
        {
            "positions": [
                2.0415533407398083,
                -1.8477979750447218,
                -0.41569046480546845,
                2.0288657546759326,
                -0.09101720733871088,
                -0.40393332888980593
            ]
        },
        {
            "positions": [
                2.137109427874857,
                -1.878681250514669,
                -0.5797614085099254,
                2.016968852591201,
                -0.03811694399779075,
                -0.4306462079074211
            ]
        },
        {
            "positions": [
                2.2326655150099057,
                -1.9095645259846163,
                -0.7438323522143824,
                2.005071950506469,
                0.014783319343129375,
                -0.4573590869250362
            ]
        },
        {
            "positions": [
                2.3282216021449544,
                -1.9404478014545639,
                -0.9079032959188393,
                1.9931750484217372,
                0.0676835826840495,
                -0.48407196594265134
            ]
        },
        {
            "positions": [
                2.423777689280003,
                -1.971331076924511,
                -1.0719742396232963,
                1.9812781463370053,
                0.12058384602496952,
                -0.5107848449602665
            ]
        },
        {
            "positions": [
                2.5193337764150514,
                -2.0022143523944584,
                -1.2360451833277533,
                1.9693812442522733,
                0.17348410936588965,
                -0.5374977239778815
            ]
        },
        {
            "positions": [
                2.6148898635500997,
                -2.0330976278644055,
                -1.4001161270322102,
                1.9574843421675416,
                0.22638437270680978,
                -0.5642106029954967
            ]
        },
        {
            "positions": [
                2.7104459506851484,
                -2.063980903334353,
                -1.5641870707366672,
                1.9455874400828097,
                0.2792846360477299,
                -0.5909234820131118
            ]
        },
        {
            "positions": [
                2.712312819876213,
                -2.1419809158356475,
                -1.5774646708407432,
                1.8058209943383754,
                0.30346162189713083,
                -0.49557691489561995
            ]
        },
        {
            "positions": [
                2.714179689067277,
                -2.2199809283369425,
                -1.5907422709448193,
                1.666054548593941,
                0.32763860774653175,
                -0.40023034777812805
            ]
        },
        {
            "positions": [
                2.7160465582583417,
                -2.297980940838237,
                -1.6040198710488953,
                1.5262881028495068,
                0.3518155935959327,
                -0.30488378066063615
            ]
        },
        {
            "positions": [
                2.717913427449406,
                -2.375980953339532,
                -1.6172974711529715,
                1.3865216571050725,
                0.3759925794453336,
                -0.20953721354314425
            ]
        },
        {
            "positions": [
                2.7197802966404705,
                -2.4539809658408265,
                -1.6305750712570475,
                1.2467552113606382,
                0.4001695652947345,
                -0.11419064642565233
            ]
        },
        {
            "positions": [
                2.6910995855190354,
                -2.4679977529808834,
                -1.6461113898909687,
                1.1237509354418918,
                0.43167328740137345,
                -0.061131332991303015
            ]
        },
        {
            "positions": [
                2.6624188743976007,
                -2.4820145401209404,
                -1.6616477085248902,
                1.0007466595231456,
                0.46317700950801244,
                -0.008072019556953703
            ]
        }
    ]
}