{
    "goal": {
        "global_pose": {
            "orientation": {
                "w": 0.5084816262002911,
                "x": -0.4908360881923452,
                "y": 0.5182115481033761,
                "z": -0.48164630358495003
            },
            "position": {
                "x": 0.5540239810943604,
                "y": -0.46912469901144505,
                "z": 0.16403168439865112
            }
        },
        "name": "move_to_storage_B"
    },
    "id": "SPARS_move_to_storage_B_100",
    "joint_names": [
        "shoulder_pan_joint",
        "shoulder_lift_joint",
        "elbow_joint",
        "wrist_1_joint",
        "wrist_2_joint",
        "wrist_3_joint"
    ],
    "metrics": {
        "cart_traj_len": 1.2570935660361187,
        "distance_elbow_joint": 0.683569694096692,
        "distance_shoulder_lift_joint": 0.4627287001583422,
        "distance_shoulder_pan_joint": 1.0128386127260796,
        "distance_wrist_1_joint": 3.018310454621335,
        "distance_wrist_2_joint": 2.714627895062435,
        "distance_wrist_3_joint": 3.3551904092375153,
        "smoothness": 0.16476599500843092,
        "time": 5.030684978,
        "traj_len": 3.353694345926951,
        "weighted_distance": 4.867297498002479
    },
    "planner": "SPARS",
    "start": {
        "state": {
            "elbow_joint": 1.664937868594044,
            "shoulder_lift_joint": -0.661644460510453,
            "shoulder_pan_joint": -0.9139846352900073,
            "wrist_1_joint": 2.146753192139373,
            "wrist_2_joint": -2.2341966793290973,
            "wrist_3_joint": 0.005466555786416001
        }
    },
    "waypoints": [
        {
            "positions": [
                -0.9139846352900073,
                -0.661644460510453,
                1.664937868594044,
                2.146753192139373,
                -2.2341966793290973,
                0.005466555786416001
            ]
        },
        {
            "positions": [
                -0.8677493482901402,
                -0.6975490392284397,
                1.6469440717565285,
                2.0807973769607306,
                -2.056311386325491,
                -0.00540587861480931
            ]
        },
        {
            "positions": [
                -0.821514061290273,
                -0.7334536179464265,
                1.6289502749190128,
                2.014841561782088,
                -1.878426093321885,
                -0.01627831301603462
            ]
        },
        {
            "positions": [
                -0.7752787742904059,
                -0.7693581966644132,
                1.6109564780814973,
                1.9488857466034453,
                -1.700540800318279,
                -0.02715074741725993
            ]
        },
        {
            "positions": [
                -0.7290434872905389,
                -0.8052627753823999,
                1.5929626812439819,
                1.8829299314248025,
                -1.5226555073146728,
                -0.03802318181848524
            ]
        },
        {
            "positions": [
                -0.6828082002906717,
                -0.8411673541003867,
                1.5749688844064662,
                1.81697411624616,
                -1.3447702143110667,
                -0.04889561621971056
            ]
        },
        {
            "positions": [
                -0.6365729132908047,
                -0.8770719328183734,
                1.5569750875689508,
                1.7510183010675173,
                -1.1668849213074606,
                -0.05976805062093586
            ]
        },
        {
            "positions": [
                -0.5903376262909374,
                -0.9129765115363602,
                1.5389812907314353,
                1.6850624858888745,
                -0.9889996283038545,
                -0.07064048502216118
            ]
        },
        {
            "positions": [
                -0.5441023392910704,
                -0.9488810902543467,
                1.5209874938939196,
                1.6191066707102317,
                -0.8111143353002483,
                -0.08151291942338648
            ]
        },
        {
            "positions": [
                -0.4978670522912033,
                -0.9847856689723335,
                1.5029936970564042,
                1.5531508555315892,
                -0.6332290422966421,
                -0.0923853538246118
            ]
        },
        {
            "positions": [
                -0.5262823394210736,
                -0.9914326923864508,
                1.5278330076544542,
                1.4376885641976105,
                -0.5801976014380716,
                0.06272600330045902
            ]
        },
        {
            "positions": [
                -0.5546976265509439,
                -0.998079715800568,
                1.5526723182525044,
                1.322226272863632,
                -0.527166160579501,
                0.21783736042552984
            ]
        },
        {
            "positions": [
                -0.5831129136808141,
                -1.0047267392146852,
                1.5775116288505544,
                1.2067639815296536,
                -0.4741347197209305,
                0.37294871755060066
            ]
        },
        {
            "positions": [
                -0.6115282008106844,
                -1.0113737626288024,
                1.6023509394486046,
                1.091301690195675,
                -0.42110327886236,
                0.5280600746756715
            ]
        },
        {
            "positions": [
                -0.6399434879405547,
                -1.0180207860429196,
                1.6271902500466546,
                0.9758393988616963,
                -0.36807183800378945,
                0.6831714318007424
            ]
        },
        {
            "positions": [
                -0.668358775070425,
                -1.024667809457037,
                1.6520295606447049,
                0.8603771075277178,
                -0.3150403971452189,
                0.8382827889258132
            ]
        },
        {
            "positions": [
                -0.6967740622002951,
                -1.031314832871154,
                1.6768688712427549,
                0.7449148161937392,
                -0.2620089562866484,
                0.9933941460508839
            ]
        },
        {
            "positions": [
                -0.7251893493301654,
                -1.0379618562852713,
                1.701708181840805,
                0.6294525248597607,
                -0.20897751542807785,
                1.1485055031759548
            ]
        },
        {
            "positions": [
                -0.7536046364600357,
                -1.0446088796993886,
                1.726547492438855,
                0.5139902335257822,
                -0.15594607456950732,
                1.3036168603010256
            ]
        },
        {
            "positions": [
                -0.782019923589906,
                -1.0512559031135058,
                1.7513868030369053,
                0.39852794219180354,
                -0.10291463371093679,
                1.4587282174260965
            ]
        },
        {
            "positions": [
                -0.8104352107197763,
                -1.057902926527623,
                1.7762261136349553,
                0.28306565085782487,
                -0.0498831928523662,
                1.6138395745511676
            ]
        },
        {
            "positions": [
                -0.8388504978496465,
                -1.0645499499417401,
                1.8010654242330055,
                0.16760335952384642,
                0.0031482480062042795,
                1.7689509316762382
            ]
        },
        {
            "positions": [
                -0.8672657849795169,
                -1.0711969733558575,
                1.8259047348310555,
                0.052141068189867745,
                0.05617968886477487,
                1.924062288801309
            ]
        },
        {
            "positions": [
                -0.8956810721093871,
                -1.0778439967699747,
                1.8507440454291055,
                -0.0633212231441107,
                0.10921112972334535,
                2.0791736459263794
            ]
        },
        {
            "positions": [
                -0.9240963592392574,
                -1.0844910201840918,
                1.8755833560271558,
                -0.17878351447808938,
                0.16224257058191593,
                2.2342850030514505
            ]
        },
        {
            "positions": [
                -0.9525116463691277,
                -1.0911380435982092,
                1.900422666625206,
                -0.29424580581206783,
                0.2152740114404864,
                2.389396360176521
            ]
        },
        {
            "positions": [
                -0.980926933498998,
                -1.0977850670123264,
                1.925261977223256,
                -0.4097080971460465,
                0.268305452299057,
                2.544507717301592
            ]
        },
        {
            "positions": [
                -1.0093422206288682,
                -1.1044320904264435,
                1.950101287821306,
                -0.5251703884800247,
                0.3213368931576275,
                2.699619074426663
            ]
        },
        {
            "positions": [
                -1.0377575077587384,
                -1.1110791138405607,
                1.9749405984193562,
                -0.6406326798140038,
                0.3743683340161982,
                2.854730431551734
            ]
        },
        {
            "positions": [
                -1.0661727948886086,
                -1.117726137254678,
                1.9997799090174064,
                -0.7560949711479821,
                0.42739977487476855,
                3.0098417886768045
            ]
        },
        {
            "positions": [
                -1.094588082018479,
                -1.1243731606687952,
                2.0246192196154564,
                -0.871557262481961,
                0.48043121573333925,
                3.1649531458018756
            ]
        }
    ]
}