{
    "goal": {
        "global_pose": {
            "orientation": {
                "w": 0.7047431468963623,
                "x": -0.7094548344612122,
                "y": 0.0024358443915843964,
                "z": -0.0022348060738295317
            },
            "position": {
                "x": 0.6094750761985779,
                "y": 0.3671506643295288,
                "z": 0.19426114857196808
            }
        },
        "name": "move_to_magneteinheit_A"
    },
    "id": "SPARS_move_to_magneteinheit_A_17",
    "joint_names": [
        "shoulder_pan_joint",
        "shoulder_lift_joint",
        "elbow_joint",
        "wrist_1_joint",
        "wrist_2_joint",
        "wrist_3_joint"
    ],
    "metrics": {
        "cart_traj_len": 3.801658555196809,
        "distance_elbow_joint": 3.9202816568515333,
        "distance_shoulder_lift_joint": 0.4648165976670092,
        "distance_shoulder_pan_joint": 4.121423316770164,
        "distance_wrist_1_joint": 3.4861623353191566,
        "distance_wrist_2_joint": 1.4352804367645677,
        "distance_wrist_3_joint": 1.6565869542428304,
        "smoothness": 0.14937887582628637,
        "time": 5.042030505,
        "traj_len": 3.883883532962241,
        "weighted_distance": 4.82899243923457
    },
    "planner": "SPARS",
    "start": {
        "state": {
            "elbow_joint": -1.9196185241190666,
            "shoulder_lift_joint": -1.2443396400964142,
            "shoulder_pan_joint": 2.6996025414629847,
            "wrist_1_joint": -1.5485510000780065,
            "wrist_2_joint": -1.5709468930060704,
            "wrist_3_joint": 0.4420197071253992
        }
    },
    "waypoints": [
        {
            "positions": [
                2.6996025414629847,
                -1.2443396400964142,
                -1.9196185241190666,
                -1.5485510000780065,
                -1.5709468930060704,
                0.4420197071253992
            ]
        },
        {
            "positions": [
                2.5233525892967226,
                -1.2430818617614698,
                -1.81489725373817,
                -1.5335557511369864,
                -1.5066243462280713,
                0.47339695588204317
            ]
        },
        {
            "positions": [
                2.3471026371304604,
                -1.2418240834265253,
                -1.7101759833572734,
                -1.5185605021959665,
                -1.442301799450072,
                0.5047742046386872
            ]
        },
        {
            "positions": [
                2.1708526849641983,
                -1.240566305091581,
                -1.6054547129763768,
                -1.5035652532549464,
                -1.3779792526720729,
                0.5361514533953312
            ]
        },
        {
            "positions": [
                1.994602732797936,
                -1.2393085267566366,
                -1.5007334425954801,
                -1.4885700043139265,
                -1.3136567058940736,
                0.5675287021519752
            ]
        },
        {
            "positions": [
                1.818352780631674,
                -1.238050748421692,
                -1.3960121722145835,
                -1.4735747553729064,
                -1.2493341591160745,
                0.5989059509086192
            ]
        },
        {
            "positions": [
                1.6421028284654118,
                -1.2367929700867477,
                -1.2912909018336869,
                -1.4585795064318865,
                -1.1850116123380752,
                0.6302831996652631
            ]
        },
        {
            "positions": [
                1.4658528762991496,
                -1.2355351917518034,
                -1.1865696314527903,
                -1.4435842574908664,
                -1.120689065560076,
                0.6616604484219072
            ]
        },
        {
            "positions": [
                1.2896029241328875,
                -1.2342774134168588,
                -1.0818483610718936,
                -1.4285890085498465,
                -1.056366518782077,
                0.6930376971785512
            ]
        },
        {
            "positions": [
                1.113352971966625,
                -1.2330196350819145,
                -0.977127090690997,
                -1.4135937596088264,
                -0.9920439720040777,
                0.7244149459351952
            ]
        },
        {
            "positions": [
                0.9371030198003629,
                -1.2317618567469701,
                -0.8724058203101004,
                -1.3985985106678065,
                -0.9277214252260785,
                0.7557921946918391
            ]
        },
        {
            "positions": [
                0.7608530676341005,
                -1.2305040784120258,
                -0.7676845499292038,
                -1.3836032617267864,
                -0.8633988784480792,
                0.7871694434484833
            ]
        },
        {
            "positions": [
                0.5846031154678388,
                -1.2292463000770812,
                -0.6629632795483071,
                -1.3686080127857665,
                -0.7990763316700801,
                0.8185466922051272
            ]
        },
        {
            "positions": [
                0.4083531633015762,
                -1.227988521742137,
                -0.5582420091674105,
                -1.3536127638447464,
                -0.7347537848920808,
                0.8499239409617712
            ]
        },
        {
            "positions": [
                0.2321032111353145,
                -1.2267307434071926,
                -0.4535207387865139,
                -1.3386175149037265,
                -0.6704312381140817,
                0.8813011897184152
            ]
        },
        {
            "positions": [
                0.05585325896905191,
                -1.225472965072248,
                -0.34879946840561726,
                -1.3236222659627064,
                -0.6061086913360825,
                0.9126784384750593
            ]
        },
        {
            "positions": [
                -0.1203966931972098,
                -1.2242151867373037,
                -0.24407819802472064,
                -1.3086270170216865,
                -0.5417861445580834,
                0.9440556872317032
            ]
        },
        {
            "positions": [
                -0.2966466453634724,
                -1.2229574084023593,
                -0.139356927643824,
                -1.2936317680806664,
                -0.47746359778008407,
                0.9754329359883472
            ]
        },
        {
            "positions": [
                -0.47289659752973456,
                -1.2216996300674148,
                -0.03463565726292739,
                -1.2786365191396465,
                -0.413141051002085,
                1.006810184744991
            ]
        },
        {
            "positions": [
                -0.6491465496959965,
                -1.2204418517324704,
                0.07008561311796924,
                -1.2636412701986264,
                -0.34881850422408567,
                1.0381874335016352
            ]
        },
        {
            "positions": [
                -0.6105128384154374,
                -1.1983959112673173,
                0.16661448909869409,
                -1.1035786399266376,
                -0.33816090182495656,
                0.9851664721083055
            ]
        },
        {
            "positions": [
                -0.5718791271348782,
                -1.1763499708021639,
                0.26314336507941893,
                -0.9435160096546487,
                -0.32750329942582745,
                0.9321455107149759
            ]
        },
        {
            "positions": [
                -0.5332454158543192,
                -1.1543040303370107,
                0.3596722410601438,
                -0.7834533793826599,
                -0.3168456970266984,
                0.8791245493216462
            ]
        },
        {
            "positions": [
                -0.49461170457376,
                -1.1322580898718573,
                0.45620111704086863,
                -0.623390749110671,
                -0.3061880946275693,
                0.8261035879283164
            ]
        },
        {
            "positions": [
                -0.4559779932932009,
                -1.110212149406704,
                0.5527299930215934,
                -0.4633281188386823,
                -0.2955304922284402,
                0.7730826265349867
            ]
        },
        {
            "positions": [
                -0.4173442820126418,
                -1.088166208941551,
                0.6492588690023183,
                -0.30326548856669355,
                -0.2848728898293111,
                0.720061665141657
            ]
        },
        {
            "positions": [
                -0.3787105707320827,
                -1.0661202684763975,
                0.7457877449830431,
                -0.1432028582947047,
                -0.274215287430182,
                0.6670407037483274
            ]
        },
        {
            "positions": [
                -0.34007685945152355,
                -1.0440743280112441,
                0.842316620963768,
                0.016859771977284277,
                -0.26355768503105287,
                0.6140197423549976
            ]
        },
        {
            "positions": [
                -0.3014431481709644,
                -1.022028387546091,
                0.9388454969444929,
                0.17692240224927303,
                -0.25290008263192376,
                0.5609987809616679
            ]
        },
        {
            "positions": [
                -0.2628094368904053,
                -0.9999824470809378,
                1.0353743729252178,
                0.3369850325212618,
                -0.2422424802327947,
                0.5079778195683382
            ]
        },
        {
            "positions": [
                -0.22417572560984617,
                -0.9779365066157844,
                1.1319032489059426,
                0.49704766279325074,
                -0.2315848778336656,
                0.4549568581750084
            ]
        },
        {
            "positions": [
                -0.18554201432928707,
                -0.9558905661506312,
                1.2284321248866674,
                0.6571102930652393,
                -0.2209272754345365,
                0.40193589678167885
            ]
        },
        {
            "positions": [
                -0.14690830304872793,
                -0.9338446256854779,
                1.3249610008673922,
                0.8171729233372282,
                -0.2102696730354074,
                0.34891493538834906
            ]
        },
        {
            "positions": [
                -0.10827459176816889,
                -0.9117986852203246,
                1.421489876848117,
                0.977235553609217,
                -0.1996120706362783,
                0.2958939739950195
            ]
        },
        {
            "positions": [
                -0.06964088048760975,
                -0.8897527447551713,
                1.518018752828842,
                1.1372981838812057,
                -0.1889544682371492,
                0.2428730126016897
            ]
        },
        {
            "positions": [
                -0.0310071692070506,
                -0.867706804290018,
                1.6145476288095668,
                1.297360814153195,
                -0.1782968658380201,
                0.1898520512083599
            ]
        },
        {
            "positions": [
                0.0076265420735085465,
                -0.8456608638248648,
                1.7110765047902916,
                1.4574234444251832,
                -0.16763926343889102,
                0.13683108981503034
            ]
        },
        {
            "positions": [
                0.04626025335406769,
                -0.8236149233597114,
                1.8076053807710166,
                1.6174860746971724,
                -0.1569816610397619,
                0.08381012842170055
            ]
        },
        {
            "positions": [
                0.08489396463462673,
                -0.8015689828945582,
                1.9041342567517412,
                1.7775487049691612,
                -0.14632405864063283,
                0.030789167028370867
            ]
        },
        {
            "positions": [
                0.12352767591518586,
                -0.779523042429405,
                2.000663132732466,
                1.93761133524115,
                -0.13566645624150372,
                -0.022231794364958757
            ]
        }
    ]
}