{
    "goal": {
        "global_pose": {
            "orientation": {
                "w": 0.5084816217422485,
                "x": -0.49083608388900757,
                "y": 0.5182115435600281,
                "z": -0.4816462993621826
            },
            "position": {
                "x": 0.5540239810943604,
                "y": 0.030875300988554955,
                "z": 0.16403168439865112
            }
        },
        "name": "move_to_storage_A"
    },
    "id": "SPARStwo_move_to_storage_A_146",
    "joint_names": [
        "shoulder_pan_joint",
        "shoulder_lift_joint",
        "elbow_joint",
        "wrist_1_joint",
        "wrist_2_joint",
        "wrist_3_joint"
    ],
    "metrics": {
        "cart_traj_len": 0.35352674108953847,
        "distance_elbow_joint": 0.4507665271684056,
        "distance_shoulder_lift_joint": 0.23533155190969524,
        "distance_shoulder_pan_joint": 0.4643539250044348,
        "distance_wrist_1_joint": 0.24488070343537816,
        "distance_wrist_2_joint": 1.0912499580661066,
        "distance_wrist_3_joint": 0.09456244032592398,
        "smoothness": 6.661338165333112e-16,
        "time": 5.006474486,
        "traj_len": 1.6065942567773435,
        "weighted_distance": 2.0264255841415144
    },
    "planner": "SPARStwo",
    "start": {
        "state": {
            "elbow_joint": 1.9715481507254546,
            "shoulder_lift_joint": -1.1394850672790213,
            "shoulder_pan_joint": 0.12281154597544902,
            "wrist_1_joint": -0.7804720171073349,
            "wrist_2_joint": 0.12958658322886563,
            "wrist_3_joint": -3.1924895760937617
        }
    },
    "waypoints": [
        {
            "positions": [
                0.12281154597544902,
                -1.1394850672790213,
                1.9715481507254546,
                -0.7804720171073349,
                0.12958658322886563,
                -3.1924895760937617
            ]
        },
        {
            "positions": [
                0.056475270974815486,
                -1.1731038604089778,
                2.0359433688923696,
                -0.8154549747409604,
                0.2854794343811665,
                -3.178980656047201
            ]
        },
        {
            "positions": [
                -0.009861004025818049,
                -1.2067226535389342,
                2.100338587059285,
                -0.8504379323745859,
                0.44137228553346747,
                -3.1654717360006406
            ]
        },
        {
            "positions": [
                -0.0761972790264516,
                -1.2403414466688907,
                2.1647338052262,
                -0.8854208900082112,
                0.5972651366857684,
                -3.15196281595408
            ]
        },
        {
            "positions": [
                -0.14253355402708512,
                -1.2739602397988472,
                2.229129023393115,
                -0.9204038476418367,
                0.7531579878380693,
                -3.1384538959075194
            ]
        },
        {
            "positions": [
                -0.20886982902771867,
                -1.3075790329288037,
                2.2935242415600303,
                -0.9553868052754622,
                0.9090508389903703,
                -3.124944975860959
            ]
        },
        {
            "positions": [
                -0.2752061040283522,
                -1.34119782605876,
                2.3579194597269453,
                -0.9903697629090876,
                1.0649436901426712,
                -3.1114360558143983
            ]
        },
        {
            "positions": [
                -0.34154237902898577,
                -1.3748166191887166,
                2.4223146778938602,
                -1.025352720542713,
                1.2208365412949722,
                -3.0979271357678377
            ]
        }
    ]
}