{
    "goal": {
        "global_pose": {
            "orientation": {
                "w": -0.00223480608172531,
                "x": 0.0024358444001904467,
                "y": 0.7094548369677653,
                "z": -0.704743149386269
            },
            "position": {
                "x": 0.6205249238014221,
                "y": -0.6371506643295288,
                "z": 0.19426114857196808
            }
        },
        "name": "move_to_magneteinheit_B"
    },
    "id": "SPARS_move_to_magneteinheit_B_129",
    "joint_names": [
        "shoulder_pan_joint",
        "shoulder_lift_joint",
        "elbow_joint",
        "wrist_1_joint",
        "wrist_2_joint",
        "wrist_3_joint"
    ],
    "metrics": {
        "cart_traj_len": 1.3688499963105807,
        "distance_elbow_joint": 1.1471801310560152,
        "distance_shoulder_lift_joint": 0.7540624252484399,
        "distance_shoulder_pan_joint": 1.6204041465757562,
        "distance_wrist_1_joint": 0.7488595295205522,
        "distance_wrist_2_joint": 1.5193763086928482,
        "distance_wrist_3_joint": 0.20983601121011347,
        "smoothness": 0.37963569718478135,
        "time": 5.0503306089999995,
        "traj_len": 2.449432291839014,
        "weighted_distance": 2.947477974970696
    },
    "planner": "SPARS",
    "start": {
        "state": {
            "elbow_joint": 2.6216224122426386,
            "shoulder_lift_joint": -1.4174107377796124,
            "shoulder_pan_joint": 0.7066234856936794,
            "wrist_1_joint": 1.9546482284002225,
            "wrist_2_joint": -0.7096286983471962,
            "wrist_3_joint": 0.005740856962016249
        }
    },
    "waypoints": [
        {
            "positions": [
                0.7066234856936794,
                -1.4174107377796124,
                2.6216224122426386,
                1.9546482284002225,
                -0.7096286983471962,
                0.005740856962016249
            ]
        },
        {
            "positions": [
                0.5835690401825907,
                -1.3403223515168479,
                2.6378022370737595,
                1.908781394042449,
                -0.8083989187684922,
                -0.010629033777058058
            ]
        },
        {
            "positions": [
                0.4605145946715021,
                -1.2632339652540834,
                2.6539820619048804,
                1.8629145596846755,
                -0.9071691391897883,
                -0.026998924516132367
            ]
        },
        {
            "positions": [
                0.3374601491604134,
                -1.1861455789913191,
                2.6701618867360013,
                1.8170477253269017,
                -1.0059393596110844,
                -0.04336881525520667
            ]
        },
        {
            "positions": [
                0.21440570364932476,
                -1.1090571927285546,
                2.6863417115671218,
                1.7711808909691282,
                -1.1047095800323805,
                -0.05973870599428098
            ]
        },
        {
            "positions": [
                0.09135125813823608,
                -1.0319688064657901,
                2.7025215363982427,
                1.7253140566113547,
                -1.2034798004536764,
                -0.0761085967333553
            ]
        },
        {
            "positions": [
                -0.03170318737285262,
                -0.9548804202030257,
                2.7187013612293636,
                1.6794472222535812,
                -1.3022500208749725,
                -0.0924784874724296
            ]
        },
        {
            "positions": [
                -0.11991093472377506,
                -0.9257272094358403,
                2.6136912430224344,
                1.7268130745909724,
                -1.3949255194914798,
                -0.08131682079486283
            ]
        },
        {
            "positions": [
                -0.20811868207469753,
                -0.8965739986686551,
                2.5086811248155056,
                1.7741789269283634,
                -1.4876010181079868,
                -0.07015515411729607
            ]
        },
        {
            "positions": [
                -0.29632642942561993,
                -0.8674207879014697,
                2.4036710066085765,
                1.8215447792657544,
                -1.580276516724494,
                -0.05899348743972931
            ]
        },
        {
            "positions": [
                -0.3845341767765424,
                -0.8382675771342843,
                2.2986608884016473,
                1.8689106316031456,
                -1.6729520153410014,
                -0.047831820762162545
            ]
        },
        {
            "positions": [
                -0.4727419241274648,
                -0.809114366367099,
                2.1936507701947185,
                1.9162764839405368,
                -1.7656275139575084,
                -0.036670154084595785
            ]
        },
        {
            "positions": [
                -0.5609496714783873,
                -0.7799611555999137,
                2.0886406519877894,
                1.9636423362779278,
                -1.8583030125740156,
                -0.025508487407029032
            ]
        },
        {
            "positions": [
                -0.6491574188293097,
                -0.7508079448327284,
                1.9836305337808604,
                2.011008188615319,
                -1.950978511190523,
                -0.014346820729462265
            ]
        },
        {
            "positions": [
                -0.7373651661802322,
                -0.721654734065543,
                1.8786204155739314,
                2.0583740409527103,
                -2.04365400980703,
                -0.0031851540518954974
            ]
        },
        {
            "positions": [
                -0.8255729135311546,
                -0.6925015232983578,
                1.7736102973670023,
                2.1057398932901013,
                -2.1363295084235374,
                0.00797651262567127
            ]
        },
        {
            "positions": [
                -0.913780660882077,
                -0.6633483125311724,
                1.6686001791600733,
                2.1531057456274922,
                -2.2290050070400445,
                0.019138179303238023
            ]
        }
    ]
}