{
    "goal": {
        "global_pose": {
            "orientation": {
                "w": 0.005598929693374612,
                "x": 0.007748599140229565,
                "y": 0.7110244013736278,
                "z": -0.7031023480610252
            },
            "position": {
                "x": 0.1141497679147869,
                "y": -0.7141253447532654,
                "z": 0.3711530566215515
            }
        },
        "name": "move_to_auspresseinheit_B"
    },
    "id": "SPARStwo_move_to_auspresseinheit_B_127",
    "joint_names": [
        "shoulder_pan_joint",
        "shoulder_lift_joint",
        "elbow_joint",
        "wrist_1_joint",
        "wrist_2_joint",
        "wrist_3_joint"
    ],
    "metrics": {
        "cart_traj_len": 0.5651102739683994,
        "distance_elbow_joint": 0.06370571330970165,
        "distance_shoulder_lift_joint": 0.2953243870022595,
        "distance_shoulder_pan_joint": 0.5787319381868841,
        "distance_wrist_1_joint": 0.3314305757764995,
        "distance_wrist_2_joint": 0.9865266102244612,
        "distance_wrist_3_joint": 0.00854478630431954,
        "smoothness": 2.5376526478085547e-16,
        "time": 5.018706906,
        "traj_len": 1.504747158430321,
        "weighted_distance": 1.8971849591997416
    },
    "planner": "SPARStwo",
    "start": {
        "state": {
            "elbow_joint": 2.0193083361928714,
            "shoulder_lift_joint": -1.1220246554650708,
            "shoulder_pan_joint": -1.0952077554168747,
            "wrist_1_joint": -0.8559753972642168,
            "wrist_2_joint": 0.4759566250798843,
            "wrist_3_joint": -3.1240929996934557
        }
    },
    "waypoints": [
        {
            "positions": [
                -1.0952077554168747,
                -1.1220246554650708,
                2.0193083361928714,
                -0.8559753972642168,
                0.4759566250798843,
                -3.1240929996934557
            ]
        },
        {
            "positions": [
                -1.191663078448022,
                -1.171245386632114,
                2.008690717307921,
                -0.8007369679681335,
                0.6403777267839612,
                -3.1226688686427355
            ]
        },
        {
            "positions": [
                -1.2881184014791693,
                -1.2204661177991574,
                1.9980730984229709,
                -0.7454985386720503,
                0.8047988284880381,
                -3.121244737592016
            ]
        },
        {
            "positions": [
                -1.3845737245103167,
                -1.2696868489662005,
                1.9874554795380206,
                -0.690260109375967,
                0.9692199301921149,
                -3.119820606541296
            ]
        },
        {
            "positions": [
                -1.481029047541464,
                -1.3189075801332437,
                1.9768378606530703,
                -0.6350216800798838,
                1.1336410318961918,
                -3.118396475490576
            ]
        },
        {
            "positions": [
                -1.5774843705726114,
                -1.3681283113002871,
                1.96622024176812,
                -0.5797832507838006,
                1.2980621336002687,
                -3.116972344439856
            ]
        },
        {
            "positions": [
                -1.6739396936037587,
                -1.4173490424673303,
                1.9556026228831698,
                -0.5245448214877173,
                1.4624832353043455,
                -3.115548213389136
            ]
        }
    ]
}