{
    "goal": {
        "global_pose": {
            "orientation": {
                "w": -0.00223480608172531,
                "x": 0.0024358444001904467,
                "y": 0.7094548369677653,
                "z": -0.704743149386269
            },
            "position": {
                "x": 0.6205249238014221,
                "y": -0.6371506643295288,
                "z": 0.19426114857196808
            }
        },
        "name": "move_to_magneteinheit_B"
    },
    "id": "SPARS_move_to_magneteinheit_B_14",
    "joint_names": [
        "shoulder_pan_joint",
        "shoulder_lift_joint",
        "elbow_joint",
        "wrist_1_joint",
        "wrist_2_joint",
        "wrist_3_joint"
    ],
    "metrics": {
        "cart_traj_len": 1.9818771142462654,
        "distance_elbow_joint": 1.1784141146169407,
        "distance_shoulder_lift_joint": 1.8890458823588685,
        "distance_shoulder_pan_joint": 1.9837971359911106,
        "distance_wrist_1_joint": 0.7953724080990634,
        "distance_wrist_2_joint": 3.342773349927876,
        "distance_wrist_3_joint": 0.7509563474115207,
        "smoothness": 1.4589057740133204,
        "time": 5.053042641999999,
        "traj_len": 3.1528335253237487,
        "weighted_distance": 3.947203781318537
    },
    "planner": "SPARS",
    "start": {
        "state": {
            "elbow_joint": 2.6216224122426386,
            "shoulder_lift_joint": -1.4174107377796124,
            "shoulder_pan_joint": 0.7066234856936794,
            "wrist_1_joint": 1.9546482284002225,
            "wrist_2_joint": -0.7096286983471962,
            "wrist_3_joint": 0.005740856962016249
        }
    },
    "waypoints": [
        {
            "positions": [
                0.7066234856936794,
                -1.4174107377796124,
                2.6216224122426386,
                1.9546482284002225,
                -0.7096286983471962,
                0.005740856962016249
            ]
        },
        {
            "positions": [
                0.7656349792634483,
                -1.4258205451006503,
                2.61660049851794,
                1.9251445047496427,
                -0.6698620206331779,
                -0.034725604556110234
            ]
        },
        {
            "positions": [
                0.827125025595469,
                -1.340092309099012,
                2.6730915690429615,
                1.8455803212131885,
                -0.7378970182117758,
                -0.0625033084268635
            ]
        },
        {
            "positions": [
                0.8886150719274898,
                -1.2543640730973735,
                2.7295826395679836,
                1.7660161376767345,
                -0.8059320157903737,
                -0.09028101229761676
            ]
        },
        {
            "positions": [
                0.8538112098807515,
                -1.3265502323994633,
                2.6753774104697254,
                1.7600294338228748,
                -0.6966870181618107,
                -0.13483361520600548
            ]
        },
        {
            "positions": [
                0.8190073478340133,
                -1.3987363917015534,
                2.6211721813714677,
                1.7540427299690153,
                -0.5874420205332476,
                -0.1793862181143942
            ]
        },
        {
            "positions": [
                0.7842034857872751,
                -1.4709225510036434,
                2.5669669522732095,
                1.7480560261151559,
                -0.4781970229046846,
                -0.22393882102278292
            ]
        },
        {
            "positions": [
                0.7493996237405368,
                -1.5431087103057333,
                2.5127617231749513,
                1.7420693222612962,
                -0.3689520252761216,
                -0.26849142393117165
            ]
        },
        {
            "positions": [
                0.6625714731271495,
                -1.5843465362041638,
                2.4729569256323747,
                1.7001847942496446,
                -0.28779973737031417,
                -0.3181882131826605
            ]
        },
        {
            "positions": [
                0.5757433225137623,
                -1.6255843621025945,
                2.433152128089798,
                1.658300266237993,
                -0.2066474494645068,
                -0.36788500243414934
            ]
        },
        {
            "positions": [
                0.43793579874814037,
                -1.6569781015788825,
                2.351170081356055,
                1.675652863201836,
                -0.16177188779508528,
                -0.3457096189372184
            ]
        },
        {
            "positions": [
                0.3001282749825185,
                -1.6883718410551705,
                2.2691880346223123,
                1.6930054601656785,
                -0.11689632612566372,
                -0.32353423544028753
            ]
        },
        {
            "positions": [
                0.1623207512168966,
                -1.7197655805314584,
                2.1872059878885697,
                1.7103580571295214,
                -0.07202076445624217,
                -0.3013588519433566
            ]
        },
        {
            "positions": [
                0.02451322745127471,
                -1.7511593200077464,
                2.1052239411548266,
                1.7277106540933642,
                -0.027145202786820644,
                -0.2791834684464257
            ]
        },
        {
            "positions": [
                -0.11329429631434718,
                -1.7825530594840344,
                2.0232418944210835,
                1.7450632510572068,
                0.01773035888260094,
                -0.2570080849494948
            ]
        },
        {
            "positions": [
                -0.2511018200799691,
                -1.8139467989603224,
                1.9412598476873408,
                1.7624158480210497,
                0.06260592055202246,
                -0.23483270145256385
            ]
        },
        {
            "positions": [
                -0.3020317168299569,
                -1.725516269947122,
                1.9203300578441442,
                1.7927934529559557,
                -0.11419398257984414,
                -0.21604207168073541
            ]
        },
        {
            "positions": [
                -0.3529616135799447,
                -1.6370857409339217,
                1.8994002680009476,
                1.8231710578908615,
                -0.29099388571171075,
                -0.19725144190890698
            ]
        },
        {
            "positions": [
                -0.40389151032993253,
                -1.5486552119207213,
                1.878470478157751,
                1.8535486628257676,
                -0.4677937888435773,
                -0.17846081213707854
            ]
        },
        {
            "positions": [
                -0.45482140707992025,
                -1.460224682907521,
                1.8575406883145547,
                1.8839262677606734,
                -0.644593691975444,
                -0.1596701823652501
            ]
        },
        {
            "positions": [
                -0.5057513038299081,
                -1.3717941538943204,
                1.836610898471358,
                1.9143038726955794,
                -0.8213935951073106,
                -0.14087955259342166
            ]
        },
        {
            "positions": [
                -0.5566812005798959,
                -1.2833636248811202,
                1.8156811086281615,
                1.9446814776304855,
                -0.9981934982391771,
                -0.12208892282159321
            ]
        },
        {
            "positions": [
                -0.6076110973298836,
                -1.1949330958679196,
                1.7947513187849649,
                1.9750590825653913,
                -1.1749934013710437,
                -0.10329829304976479
            ]
        },
        {
            "positions": [
                -0.6585409940798714,
                -1.1065025668547193,
                1.7738215289417683,
                2.005436687500297,
                -1.3517933045029105,
                -0.08450766327793632
            ]
        },
        {
            "positions": [
                -0.7094708908298593,
                -1.018072037841519,
                1.7528917390985717,
                2.0358142924352034,
                -1.5285932076347768,
                -0.06571703350610789
            ]
        },
        {
            "positions": [
                -0.7604007875798471,
                -0.9296415088283185,
                1.7319619492553753,
                2.066191897370109,
                -1.7053931107666436,
                -0.04692640373427945
            ]
        },
        {
            "positions": [
                -0.8113306843298349,
                -0.8412109798151182,
                1.7110321594121787,
                2.096569502305015,
                -1.8821930138985101,
                -0.02813577396245101
            ]
        },
        {
            "positions": [
                -0.8622605810798227,
                -0.7527804508019178,
                1.690102369568982,
                2.1269471072399213,
                -2.0589929170303765,
                -0.009345144190622573
            ]
        },
        {
            "positions": [
                -0.9131904778298103,
                -0.6643499217887173,
                1.6691725797257855,
                2.157324712174827,
                -2.235792820162243,
                0.00944548558120587
            ]
        }
    ]
}