{
    "goal": {
        "global_pose": {
            "orientation": {
                "w": 0.5084816217422485,
                "x": -0.49083608388900757,
                "y": 0.5182115435600281,
                "z": -0.4816462993621826
            },
            "position": {
                "x": 0.5540239810943604,
                "y": 0.030875300988554955,
                "z": 0.16403168439865112
            }
        },
        "name": "move_to_storage_A"
    },
    "id": "SPARS_move_to_storage_A_38",
    "joint_names": [
        "shoulder_pan_joint",
        "shoulder_lift_joint",
        "elbow_joint",
        "wrist_1_joint",
        "wrist_2_joint",
        "wrist_3_joint"
    ],
    "metrics": {
        "cart_traj_len": 0.35270498651577825,
        "distance_elbow_joint": 0.4489593742287601,
        "distance_shoulder_lift_joint": 0.23585801819991548,
        "distance_shoulder_pan_joint": 0.4614137971063242,
        "distance_wrist_1_joint": 0.23456669352292148,
        "distance_wrist_2_joint": 1.0980414076459712,
        "distance_wrist_3_joint": 0.09937923907247415,
        "smoothness": 2.2204460668324854e-16,
        "time": 5.011476666,
        "traj_len": 1.6056831972018537,
        "weighted_distance": 2.0272111653920537
    },
    "planner": "SPARS",
    "start": {
        "state": {
            "elbow_joint": 1.971548259319323,
            "shoulder_lift_joint": -1.1394851275133948,
            "shoulder_pan_joint": 0.1228115487234821,
            "wrist_1_joint": -0.7804723859257726,
            "wrist_2_joint": 0.12958671773740124,
            "wrist_3_joint": -3.192489227718131
        }
    },
    "waypoints": [
        {
            "positions": [
                0.1228115487234821,
                -1.1394851275133948,
                1.971548259319323,
                -0.7804723859257726,
                0.12958671773740124,
                -3.192489227718131
            ]
        },
        {
            "positions": [
                0.056895291994007224,
                -1.1731791301133827,
                2.0356853127805743,
                -0.8139819135719043,
                0.28644977597253996,
                -3.1782921935649204
            ]
        },
        {
            "positions": [
                -0.009020964735467651,
                -1.2068731327133706,
                2.099822366241826,
                -0.8474914412180359,
                0.44331283420767875,
                -3.16409515941171
            ]
        },
        {
            "positions": [
                -0.07493722146494253,
                -1.2405671353133585,
                2.1639594197030774,
                -0.8810009688641676,
                0.6001758924428174,
                -3.1498981252584994
            ]
        },
        {
            "positions": [
                -0.1408534781944174,
                -1.2742611379133466,
                2.228096473164329,
                -0.9145104965102991,
                0.7570389506779562,
                -3.1357010911052887
            ]
        },
        {
            "positions": [
                -0.20676973492389233,
                -1.3079551405133345,
                2.29223352662558,
                -0.9480200241564308,
                0.913902008913095,
                -3.121504056952078
            ]
        },
        {
            "positions": [
                -0.27268599165336715,
                -1.3416491431133224,
                2.3563705800868315,
                -0.9815295518025624,
                1.0707650671482336,
                -3.1073070227988677
            ]
        },
        {
            "positions": [
                -0.3386022483828421,
                -1.3753431457133103,
                2.420507633548083,
                -1.015039079448694,
                1.2276281253833725,
                -3.093109988645657
            ]
        }
    ]
}{
    "goal": {
        "global_pose": {
            "orientation": {
                "w": 0.5084816217422485,
                "x": -0.49083608388900757,
                "y": 0.5182115435600281,
                "z": -0.4816462993621826
            },
            "position": {
                "x": 0.5540239810943604,
                "y": 0.030875300988554955,
                "z": 0.16403168439865112
            }
        },
        "name": "move_to_storage_A"
    },
    "id": "SPARS_move_to_storage_A_38",
    "joint_names": [
        "shoulder_pan_joint",
        "shoulder_lift_joint",
        "elbow_joint",
        "wrist_1_joint",
        "wrist_2_joint",
        "wrist_3_joint"
    ],
    "metrics": {
        "cart_traj_len": 0.35254026198391336,
        "distance_elbow_joint": 0.4487019785295274,
        "distance_shoulder_lift_joint": 0.23617309963795807,
        "distance_shoulder_pan_joint": 0.4608029377743838,
        "distance_wrist_1_joint": 0.23437344561409446,
        "distance_wrist_2_joint": 1.0994320492347456,
        "distance_wrist_3_joint": 0.09660510287094093,
        "smoothness": 8.881784197001252e-16,
        "time": 5.053373490999999,
        "traj_len": 1.6050198172177346,
        "weighted_distance": 2.0256120838532663
    },
    "planner": "SPARS",
    "start": {
        "state": {
            "elbow_joint": 1.97154746011099,
            "shoulder_lift_joint": -1.13948474672311,
            "shoulder_pan_joint": 0.12281154466712228,
            "wrist_1_joint": -0.7804688027058302,
            "wrist_2_joint": 0.12958655903071145,
            "wrist_3_joint": 3.0906928834467795
        }
    },
    "waypoints": [
        {
            "positions": [
                0.12281154466712228,
                -1.13948474672311,
                1.97154746011099,
                -0.7804688027058302,
                0.12958655903071145,
                3.0906928834467795
            ]
        },
        {
            "positions": [
                0.056982553556496035,
                -1.173223760957104,
                2.0356477427580653,
                -0.8139507235078437,
                0.2866482803499608,
                3.1044936124283424
            ]
        },
        {
            "positions": [
                -0.008846437554130213,
                -1.206962775191098,
                2.0997480254051406,
                -0.8474326443098572,
                0.44371000166921015,
                3.1182943414099054
            ]
        },
        {
            "positions": [
                -0.07467542866475647,
                -1.240701789425092,
                2.163848308052216,
                -0.8809145651118706,
                0.6007717229884595,
                3.1320950703914683
            ]
        },
        {
            "positions": [
                -0.1405044197753827,
                -1.274440803659086,
                2.2279485906992913,
                -0.9143964859138841,
                0.7578334443077089,
                3.1458957993730317
            ]
        },
        {
            "positions": [
                -0.20633341088600898,
                -1.30817981789308,
                2.2920488733463666,
                -0.9478784067158976,
                0.9148951656269584,
                3.1596965283545946
            ]
        },
        {
            "positions": [
                -0.2721624019966352,
                -1.341918832127074,
                2.356149155993442,
                -0.9813603275179111,
                1.0719568869462075,
                3.1734972573361575
            ]
        },
        {
            "positions": [
                -0.3379913931072615,
                -1.375657846361068,
                2.4202494386405173,
                -1.0148422483199246,
                1.229018608265457,
                3.1872979863177204
            ]
        }
    ]
}{
    "goal": {
        "global_pose": {
            "orientation": {
                "w": 0.5084816217422485,
                "x": -0.49083608388900757,
                "y": 0.5182115435600281,
                "z": -0.4816462993621826
            },
            "position": {
                "x": 0.5540239810943604,
                "y": 0.030875300988554955,
                "z": 0.16403168439865112
            }
        },
        "name": "move_to_storage_A"
    },
    "id": "SPARS_move_to_storage_A_38",
    "joint_names": [
        "shoulder_pan_joint",
        "shoulder_lift_joint",
        "elbow_joint",
        "wrist_1_joint",
        "wrist_2_joint",
        "wrist_3_joint"
    ],
    "metrics": {
        "cart_traj_len": 0.35218919415244165,
        "distance_elbow_joint": 0.4505390506432576,
        "distance_shoulder_lift_joint": 0.23488221653290564,
        "distance_shoulder_pan_joint": 0.46142118194339427,
        "distance_wrist_1_joint": 0.24257558814398994,
        "distance_wrist_2_joint": 1.0938118699944008,
        "distance_wrist_3_joint": 0.08817910213331404,
        "smoothness": 0.0,
        "time": 5.025279621999999,
        "traj_len": 1.6035613519261624,
        "weighted_distance": 2.0209291605091657
    },
    "planner": "SPARS",
    "start": {
        "state": {
            "elbow_joint": 1.9715472970024885,
            "shoulder_lift_joint": -1.1394870060712896,
            "shoulder_pan_joint": 0.12281152778156021,
            "wrist_1_joint": -0.780463741449964,
            "wrist_2_joint": 0.12958659822042276,
            "wrist_3_joint": 3.090690232415272
        }
    },
    "waypoints": [
        {
            "positions": [
                0.12281152778156021,
                -1.1394870060712896,
                1.9715472970024885,
                -0.780463741449964,
                0.12958659822042276,
                3.090690232415272
            ]
        },
        {
            "positions": [
                0.056894216075361034,
                -1.1730416084331332,
                2.0359100185229537,
                -0.8151173968991055,
                0.28584543679105145,
                3.103287247005745
            ]
        },
        {
            "positions": [
                -0.00902309563083814,
                -1.206596210794977,
                2.1002727400434194,
                -0.8497710523482468,
                0.4421042753616802,
                3.115884261596219
            ]
        },
        {
            "positions": [
                -0.0749404073370373,
                -1.2401508131568206,
                2.1646354615638845,
                -0.8844247077973882,
                0.5983631139323088,
                3.128481276186692
            ]
        },
        {
            "positions": [
                -0.1408577190432365,
                -1.2737054155186642,
                2.22899818308435,
                -0.9190783632465297,
                0.7546219525029375,
                3.1410782907771657
            ]
        },
        {
            "positions": [
                -0.20677503074943568,
                -1.307260017880508,
                2.2933609046048153,
                -0.953732018695671,
                0.9108807910735662,
                3.153675305367639
            ]
        },
        {
            "positions": [
                -0.2726923424556348,
                -1.3408146202423517,
                2.3577236261252805,
                -0.9883856741448125,
                1.0671396296441948,
                3.1662723199581126
            ]
        },
        {
            "positions": [
                -0.33860965416183403,
                -1.3743692226041953,
                2.422086347645746,
                -1.023039329593954,
                1.2233984682148236,
                3.178869334548586
            ]
        }
    ]
}