{
    "goal": {
        "global_pose": {
            "orientation": {
                "w": 0.7031023480610252,
                "x": -0.7110244013736278,
                "y": 0.0077485991402295624,
                "z": 0.005598929693374583
            },
            "position": {
                "x": -0.8841497679147869,
                "y": 0.44412534475326537,
                "z": 0.3711530566215515
            }
        },
        "name": "move_to_auspresseinheit_D"
    },
    "id": "SPARStwo_move_to_auspresseinheit_D_103",
    "joint_names": [
        "shoulder_pan_joint",
        "shoulder_lift_joint",
        "elbow_joint",
        "wrist_1_joint",
        "wrist_2_joint",
        "wrist_3_joint"
    ],
    "metrics": {
        "cart_traj_len": 0.3430752519317044,
        "distance_elbow_joint": 0.6335269755117983,
        "distance_shoulder_lift_joint": 0.11843833628859057,
        "distance_shoulder_pan_joint": 0.13398738601516594,
        "distance_wrist_1_joint": 0.5157991890360369,
        "distance_wrist_2_joint": 1.4365623518932757,
        "distance_wrist_3_joint": 0.005827791210371469,
        "smoothness": 1.9737298371844314e-16,
        "time": 5.008316452,
        "traj_len": 1.6864584281728499,
        "weighted_distance": 2.1927515028623956
    },
    "planner": "SPARStwo",
    "start": {
        "state": {
            "elbow_joint": -1.8275523626775212,
            "shoulder_lift_joint": -2.126789852344167,
            "shoulder_pan_joint": -0.03513704404078235,
            "wrist_1_joint": -2.347782403156801,
            "wrist_2_joint": -1.6058999987535132,
            "wrist_3_joint": -3.0880379163319196
        }
    },
    "waypoints": [
        {
            "positions": [
                -0.03513704404078235,
                -2.126789852344167,
                -1.8275523626775212,
                -2.347782403156801,
                -1.6058999987535132,
                -3.0880379163319196
            ]
        },
        {
            "positions": [
                -0.051885467292678095,
                -2.1415946443802407,
                -1.7483614907385463,
                -2.4122573017863056,
                -1.4263297047668537,
                -3.088766390233216
            ]
        },
        {
            "positions": [
                -0.06863389054457383,
                -2.1563994364163146,
                -1.6691706187995716,
                -2.4767322004158103,
                -1.2467594107801943,
                -3.0894948641345126
            ]
        },
        {
            "positions": [
                -0.08538231379646957,
                -2.1712042284523885,
                -1.589979746860597,
                -2.5412070990453146,
                -1.0671891167935348,
                -3.090223338035809
            ]
        },
        {
            "positions": [
                -0.10213073704836531,
                -2.186009020488462,
                -1.510788874921622,
                -2.6056819976748193,
                -0.8876188228068753,
                -3.0909518119371056
            ]
        },
        {
            "positions": [
                -0.11887916030026105,
                -2.200813812524536,
                -1.4315980029826472,
                -2.670156896304324,
                -0.7080485288202159,
                -3.0916802858384016
            ]
        },
        {
            "positions": [
                -0.13562758355215682,
                -2.2156186045606097,
                -1.3524071310436725,
                -2.7346317949338284,
                -0.5284782348335564,
                -3.092408759739698
            ]
        },
        {
            "positions": [
                -0.15237600680405256,
                -2.2304233965966835,
                -1.2732162591046978,
                -2.799106693563333,
                -0.3489079408468969,
                -3.0931372336409946
            ]
        },
        {
            "positions": [
                -0.1691244300559483,
                -2.2452281886327574,
                -1.194025387165723,
                -2.863581592192838,
                -0.1693376468602374,
                -3.093865707542291
            ]
        }
    ]
}