{
    "goal": {
        "global_pose": {
            "orientation": {
                "w": 0.5084816217422485,
                "x": -0.49083608388900757,
                "y": 0.5182115435600281,
                "z": -0.4816462993621826
            },
            "position": {
                "x": 0.5540239810943604,
                "y": 0.030875300988554955,
                "z": 0.16403168439865112
            }
        },
        "name": "move_to_storage_A"
    },
    "id": "SPARStwo_move_to_storage_A_34",
    "joint_names": [
        "shoulder_pan_joint",
        "shoulder_lift_joint",
        "elbow_joint",
        "wrist_1_joint",
        "wrist_2_joint",
        "wrist_3_joint"
    ],
    "metrics": {
        "cart_traj_len": 0.3534868308337482,
        "distance_elbow_joint": 0.45120801460771043,
        "distance_shoulder_lift_joint": 0.23519243608103224,
        "distance_shoulder_pan_joint": 0.46454098421505147,
        "distance_wrist_1_joint": 0.24660645532102166,
        "distance_wrist_2_joint": 1.090151213027608,
        "distance_wrist_3_joint": 0.10104286629339354,
        "smoothness": 6.661338165333112e-16,
        "time": 5.011498014,
        "traj_len": 1.6089567954254762,
        "weighted_distance": 2.031645975676184
    },
    "planner": "SPARStwo",
    "start": {
        "state": {
            "elbow_joint": 1.9715481507254546,
            "shoulder_lift_joint": -1.1394850672790213,
            "shoulder_pan_joint": 0.12281154597544902,
            "wrist_1_joint": -0.7804720171073349,
            "wrist_2_joint": 0.12958658322886563,
            "wrist_3_joint": -3.1924895760937617
        }
    },
    "waypoints": [
        {
            "positions": [
                0.12281154597544902,
                -1.1394850672790213,
                1.9715481507254546,
                -0.7804720171073349,
                0.12958658322886563,
                -3.1924895760937617
            ]
        },
        {
            "positions": [
                0.05644854823044167,
                -1.1730839867191687,
                2.036006438526556,
                -0.8157015107246237,
                0.2853224708042382,
                -3.178054880908991
            ]
        },
        {
            "positions": [
                -0.009914449514565687,
                -1.2066829061593163,
                2.1004647263276577,
                -0.8509310043419125,
                0.44105835837961077,
                -3.1636201857242208
            ]
        },
        {
            "positions": [
                -0.07627744725957303,
                -1.2402818255994636,
                2.164923014128759,
                -0.8861604979592014,
                0.5967942459549833,
                -3.14918549053945
            ]
        },
        {
            "positions": [
                -0.1426404450045804,
                -1.2738807450396112,
                2.2293813019298607,
                -0.9213899915764902,
                0.7525301335303559,
                -3.13475079535468
            ]
        },
        {
            "positions": [
                -0.20900344274958776,
                -1.3074796644797586,
                2.293839589730962,
                -0.956619485193779,
                0.9082660211057285,
                -3.120316100169909
            ]
        },
        {
            "positions": [
                -0.2753664404945951,
                -1.3410785839199062,
                2.3582978775320633,
                -0.9918489788110678,
                1.0640019086811012,
                -3.105881404985139
            ]
        },
        {
            "positions": [
                -0.34172943823960245,
                -1.3746775033600536,
                2.422756165333165,
                -1.0270784724283566,
                1.2197377962564737,
                -3.091446709800368
            ]
        }
    ]
}