{
    "goal": {
        "global_pose": {
            "orientation": {
                "w": 0.005598929693374612,
                "x": 0.007748599140229565,
                "y": 0.7110244013736278,
                "z": -0.7031023480610252
            },
            "position": {
                "x": -0.8858502320852131,
                "y": -0.7141253447532654,
                "z": 0.3711530566215515
            }
        },
        "name": "move_to_auspresseinheit_C"
    },
    "id": "SPARStwo_move_to_auspresseinheit_C_114",
    "joint_names": [
        "shoulder_pan_joint",
        "shoulder_lift_joint",
        "elbow_joint",
        "wrist_1_joint",
        "wrist_2_joint",
        "wrist_3_joint"
    ],
    "metrics": {
        "cart_traj_len": 0.492189622866139,
        "distance_elbow_joint": 0.9883148224077357,
        "distance_shoulder_lift_joint": 0.3197343342849569,
        "distance_shoulder_pan_joint": 0.2568626853109217,
        "distance_wrist_1_joint": 0.660186756852874,
        "distance_wrist_2_joint": 1.304405368527707,
        "distance_wrist_3_joint": 0.04317154954843705,
        "smoothness": 4.844609574787718e-16,
        "time": 5.0047192780000005,
        "traj_len": 1.8901522470247292,
        "weighted_distance": 2.3714153456132663
    },
    "planner": "SPARStwo",
    "start": {
        "state": {
            "elbow_joint": 1.7527959577737207,
            "shoulder_lift_joint": -0.9740617694225068,
            "shoulder_pan_joint": -2.967991417825858,
            "wrist_1_joint": -0.759517768980727,
            "wrist_2_joint": 1.7443932448377408,
            "wrist_3_joint": -3.0840537646736568
        }
    },
    "waypoints": [
        {
            "positions": [
                -2.967991417825858,
                -0.9740617694225068,
                1.7527959577737207,
                -0.759517768980727,
                1.7443932448377408,
                -3.0840537646736568
            ]
        },
        {
            "positions": [
                -2.9423051492947656,
                -0.9420883359940111,
                1.653964475532947,
                -0.6934990932954396,
                1.61395270798497,
                -3.0883709196285003
            ]
        },
        {
            "positions": [
                -2.9166188807636737,
                -0.9101149025655154,
                1.5551329932921736,
                -0.6274804176101522,
                1.4835121711321995,
                -3.0926880745833443
            ]
        },
        {
            "positions": [
                -2.8909326122325814,
                -0.8781414691370197,
                1.4563015110514,
                -0.5614617419248648,
                1.3530716342794287,
                -3.097005229538188
            ]
        },
        {
            "positions": [
                -2.8652463437014895,
                -0.846168035708524,
                1.3574700288106263,
                -0.4954430662395774,
                1.222631097426658,
                -3.1013223844930318
            ]
        },
        {
            "positions": [
                -2.839560075170397,
                -0.8141946022800284,
                1.2586385465698529,
                -0.42942439055429,
                1.0921905605738873,
                -3.1056395394478753
            ]
        },
        {
            "positions": [
                -2.8138738066393048,
                -0.7822211688515326,
                1.1598070643290792,
                -0.3634057148690026,
                0.9617500237211166,
                -3.109956694402719
            ]
        },
        {
            "positions": [
                -2.788187538108213,
                -0.750247735423037,
                1.0609755820883056,
                -0.29738703918371523,
                0.8313094868683459,
                -3.114273849357563
            ]
        },
        {
            "positions": [
                -2.7625012695771205,
                -0.7182743019945412,
                0.962144099847532,
                -0.23136836349842782,
                0.7008689500155751,
                -3.1185910043124063
            ]
        },
        {
            "positions": [
                -2.7368150010460286,
                -0.6863008685660456,
                0.8633126176067585,
                -0.1653496878131404,
                0.5704284131628043,
                -3.1229081592672503
            ]
        },
        {
            "positions": [
                -2.7111287325149362,
                -0.6543274351375499,
                0.7644811353659849,
                -0.09933101212785302,
                0.4399878763100339,
                -3.127225314222094
            ]
        }
    ]
}