{
    "goal": {
        "global_pose": {
            "orientation": {
                "w": 0.7031023502349854,
                "x": -0.7110244035720825,
                "y": 0.007748599164187908,
                "z": 0.005598929710686207
            },
            "position": {
                "x": 0.11585023208521307,
                "y": 0.44412534475326537,
                "z": 0.3711530566215515
            }
        },
        "name": "move_to_auspresseinheit_A"
    },
    "id": "SPARS_move_to_auspresseinheit_A_33",
    "joint_names": [
        "shoulder_pan_joint",
        "shoulder_lift_joint",
        "elbow_joint",
        "wrist_1_joint",
        "wrist_2_joint",
        "wrist_3_joint"
    ],
    "metrics": {
        "cart_traj_len": 0.9060886544162736,
        "distance_elbow_joint": 0.074530243165563,
        "distance_shoulder_lift_joint": 0.5349053839593734,
        "distance_shoulder_pan_joint": 1.5372523031264687,
        "distance_wrist_1_joint": 0.5589017871458205,
        "distance_wrist_2_joint": 0.8465724106966431,
        "distance_wrist_3_joint": 2.3915992852351304,
        "smoothness": 1.0632846475551414,
        "time": 5.018133452,
        "traj_len": 2.43798306255991,
        "weighted_distance": 3.483164391992104
    },
    "planner": "SPARS",
    "start": {
        "state": {
            "elbow_joint": 2.4225746658250005,
            "shoulder_lift_joint": -1.3736534386056498,
            "shoulder_pan_joint": -0.3378633547517467,
            "wrist_1_joint": -1.0288598680537169,
            "wrist_2_joint": 1.233022673432363,
            "wrist_3_joint": -3.0940220416140027
        }
    },
    "waypoints": [
        {
            "positions": [
                -0.3378633547517467,
                -1.3736534386056498,
                2.4225746658250005,
                -1.0288598680537169,
                1.233022673432363,
                -3.0940220416140027
            ]
        },
        {
            "positions": [
                -0.37858317358130134,
                -1.3979438946313814,
                2.414076898183548,
                -0.9364700999896434,
                1.2609761067215062,
                -2.8968052197098206
            ]
        },
        {
            "positions": [
                -0.4193029924108559,
                -1.422234350657113,
                2.4055791305420953,
                -0.8440803319255699,
                1.2889295400106495,
                -2.6995883978056385
            ]
        },
        {
            "positions": [
                -0.46002281124041045,
                -1.4465248066828442,
                2.397081362900643,
                -0.7516905638614962,
                1.3168829732997929,
                -2.5023715759014564
            ]
        },
        {
            "positions": [
                -0.5007426300699651,
                -1.4708152627085758,
                2.3885835952591905,
                -0.6593007957974227,
                1.344836406588936,
                -2.3051547539972743
            ]
        },
        {
            "positions": [
                -0.5414624488995197,
                -1.4951057187343073,
                2.3800858276177377,
                -0.5669110277333491,
                1.3727898398780791,
                -2.1079379320930918
            ]
        },
        {
            "positions": [
                -0.5821822677290742,
                -1.5193961747600389,
                2.3715880599762853,
                -0.47452125966927566,
                1.4007432731672225,
                -1.9107211101889097
            ]
        },
        {
            "positions": [
                -0.4528889287141601,
                -1.5583124395405372,
                2.37394242370797,
                -0.4749775775454136,
                1.332858092071044,
                -2.0315509455699132
            ]
        },
        {
            "positions": [
                -0.323595589699246,
                -1.5972287043210358,
                2.376296787439655,
                -0.47543389542155157,
                1.2649729109748657,
                -2.1523807809509172
            ]
        },
        {
            "positions": [
                -0.19430225068433188,
                -1.6361449691015342,
                2.3786511511713395,
                -0.47589021329768955,
                1.1970877298786873,
                -2.273210616331921
            ]
        },
        {
            "positions": [
                -0.0650089116694178,
                -1.6750612338820325,
                2.3810055149030243,
                -0.47634653117382747,
                1.129202548782509,
                -2.394040451712925
            ]
        },
        {
            "positions": [
                0.06428442734549633,
                -1.7139774986625311,
                2.3833598786347094,
                -0.4768028490499654,
                1.0613173676863306,
                -2.5148702870939283
            ]
        },
        {
            "positions": [
                0.19357776636041046,
                -1.7528937634430295,
                2.385714242366394,
                -0.4772591669261034,
                0.9934321865901523,
                -2.635700122474932
            ]
        },
        {
            "positions": [
                0.3228711053753245,
                -1.7918100282235279,
                2.388068606098079,
                -0.47771548480224135,
                0.9255470054939738,
                -2.756529957855936
            ]
        },
        {
            "positions": [
                0.4521644443902386,
                -1.8307262930040262,
                2.3904229698297637,
                -0.4781718026783793,
                0.8576618243977955,
                -2.8773597932369395
            ]
        },
        {
            "positions": [
                0.5814577834051529,
                -1.8696425577845248,
                2.3927773335614484,
                -0.4786281205545172,
                0.7897766433016171,
                -2.9981896286179435
            ]
        },
        {
            "positions": [
                0.7107511224200669,
                -1.9085588225650232,
                2.395131697293133,
                -0.4790844384306552,
                0.7218914622054388,
                -3.119019463998947
            ]
        }
    ]
}