{
    "goal": {
        "global_pose": {
            "orientation": {
                "w": 0.5084816217422485,
                "x": -0.49083608388900757,
                "y": 0.5182115435600281,
                "z": -0.4816462993621826
            },
            "position": {
                "x": 0.5540239810943604,
                "y": 0.030875300988554955,
                "z": 0.16403168439865112
            }
        },
        "name": "move_to_storage_A"
    },
    "id": "SPARStwo_move_to_storage_A_55",
    "joint_names": [
        "shoulder_pan_joint",
        "shoulder_lift_joint",
        "elbow_joint",
        "wrist_1_joint",
        "wrist_2_joint",
        "wrist_3_joint"
    ],
    "metrics": {
        "cart_traj_len": 0.35308114981379624,
        "distance_elbow_joint": 0.44715395645030975,
        "distance_shoulder_lift_joint": 0.2345328058536993,
        "distance_shoulder_pan_joint": 0.4608223490921149,
        "distance_wrist_1_joint": 0.2343736327136685,
        "distance_wrist_2_joint": 1.1020510565562736,
        "distance_wrist_3_joint": 0.09126234879324047,
        "smoothness": 1.7763568410139506e-15,
        "time": 5.003655082,
        "traj_len": 1.6031831303563877,
        "weighted_distance": 2.022163578031147
    },
    "planner": "SPARStwo",
    "start": {
        "state": {
            "elbow_joint": 1.9715481507254546,
            "shoulder_lift_joint": -1.1394850672790213,
            "shoulder_pan_joint": 0.12281154597544902,
            "wrist_1_joint": -0.7804720171073349,
            "wrist_2_joint": 0.12958658322886563,
            "wrist_3_joint": -3.1924895760937617
        }
    },
    "waypoints": [
        {
            "positions": [
                0.12281154597544902,
                -1.1394850672790213,
                1.9715481507254546,
                -0.7804720171073349,
                0.12958658322886563,
                -3.1924895760937617
            ]
        },
        {
            "positions": [
                0.05697978181943261,
                -1.1729897538295497,
                2.0354272873612134,
                -0.813953964637859,
                0.2870224484511904,
                -3.1794520976947274
            ]
        },
        {
            "positions": [
                -0.008851982336583797,
                -1.2064944403800784,
                2.0993064239969716,
                -0.8474359121683831,
                0.4444583136735152,
                -3.166414619295693
            ]
        },
        {
            "positions": [
                -0.0746837464926002,
                -1.2399991269306068,
                2.1631855606327304,
                -0.8809178596989071,
                0.60189417889584,
                -3.1533771408966587
            ]
        },
        {
            "positions": [
                -0.14051551064861661,
                -1.2735038134811352,
                2.2270646972684887,
                -0.9143998072294313,
                0.7593300441181647,
                -3.1403396624976243
            ]
        },
        {
            "positions": [
                -0.20634727480463305,
                -1.3070085000316638,
                2.2909438339042474,
                -0.9478817547599553,
                0.9167659093404896,
                -3.12730218409859
            ]
        },
        {
            "positions": [
                -0.27217903896064943,
                -1.3405131865821922,
                2.3548229705400057,
                -0.9813637022904793,
                1.0742017745628143,
                -3.1142647056995556
            ]
        },
        {
            "positions": [
                -0.33801080311666587,
                -1.3740178731327206,
                2.4187021071757644,
                -1.0148456498210034,
                1.2316376397851392,
                -3.1012272273005212
            ]
        }
    ]
}