{
    "goal": {
        "global_pose": {
            "orientation": {
                "w": 0.005598929693374612,
                "x": 0.007748599140229565,
                "y": 0.7110244013736278,
                "z": -0.7031023480610252
            },
            "position": {
                "x": 0.1141497679147869,
                "y": -0.7141253447532654,
                "z": 0.3711530566215515
            }
        },
        "name": "move_to_auspresseinheit_B"
    },
    "id": "SPARS_move_to_auspresseinheit_B_92",
    "joint_names": [
        "shoulder_pan_joint",
        "shoulder_lift_joint",
        "elbow_joint",
        "wrist_1_joint",
        "wrist_2_joint",
        "wrist_3_joint"
    ],
    "metrics": {
        "cart_traj_len": 0.5647901344508957,
        "distance_elbow_joint": 0.06083305429885799,
        "distance_shoulder_lift_joint": 0.29509710323691385,
        "distance_shoulder_pan_joint": 0.5768334701032289,
        "distance_wrist_1_joint": 0.31634542307706326,
        "distance_wrist_2_joint": 0.9927591012971939,
        "distance_wrist_3_joint": 0.009376903441462137,
        "smoothness": 0.0,
        "time": 5.0218508360000005,
        "traj_len": 1.5004149610873387,
        "weighted_distance": 1.8918518405815772
    },
    "planner": "SPARS",
    "start": {
        "state": {
            "elbow_joint": 2.0193083361928714,
            "shoulder_lift_joint": -1.1220246554650708,
            "shoulder_pan_joint": -1.0952077554168747,
            "wrist_1_joint": -0.8559753972642168,
            "wrist_2_joint": 0.4759566250798843,
            "wrist_3_joint": -3.1240929996934557
        }
    },
    "waypoints": [
        {
            "positions": [
                -1.0952077554168747,
                -1.1220246554650708,
                2.0193083361928714,
                -0.8559753972642168,
                0.4759566250798843,
                -3.1240929996934557
            ]
        },
        {
            "positions": [
                -1.1913466671007462,
                -1.1712075060045564,
                2.009169493809728,
                -0.8032511600847062,
                0.6414164752960833,
                -3.122530182453212
            ]
        },
        {
            "positions": [
                -1.2874855787846176,
                -1.2203903565440422,
                1.9990306514265854,
                -0.7505269229051957,
                0.8068763255122822,
                -3.120967365212968
            ]
        },
        {
            "positions": [
                -1.3836244904684891,
                -1.2695732070835277,
                1.9888918090434424,
                -0.6978026857256852,
                0.9723361757284812,
                -3.1194045479727244
            ]
        },
        {
            "positions": [
                -1.4797634021523605,
                -1.3187560576230133,
                1.9787529666602994,
                -0.6450784485461747,
                1.1377960259446802,
                -3.117841730732481
            ]
        },
        {
            "positions": [
                -1.5759023138362322,
                -1.367938908162499,
                1.9686141242771564,
                -0.592354211366664,
                1.3032558761608792,
                -3.1162789134922373
            ]
        },
        {
            "positions": [
                -1.6720412255201036,
                -1.4171217587019846,
                1.9584752818940134,
                -0.5396299741871535,
                1.4687157263770783,
                -3.1147160962519935
            ]
        }
    ]
}