{
    "goal": {
        "global_pose": {
            "orientation": {
                "w": 0.005598929693374612,
                "x": 0.007748599140229565,
                "y": 0.7110244013736278,
                "z": -0.7031023480610252
            },
            "position": {
                "x": 0.1141497679147869,
                "y": -0.7141253447532654,
                "z": 0.3711530566215515
            }
        },
        "name": "move_to_auspresseinheit_B"
    },
    "id": "SPARStwo_move_to_auspresseinheit_B_60",
    "joint_names": [
        "shoulder_pan_joint",
        "shoulder_lift_joint",
        "elbow_joint",
        "wrist_1_joint",
        "wrist_2_joint",
        "wrist_3_joint"
    ],
    "metrics": {
        "cart_traj_len": 0.5645551380864053,
        "distance_elbow_joint": 0.0603106458704703,
        "distance_shoulder_lift_joint": 0.2949262091734135,
        "distance_shoulder_pan_joint": 0.578746788631626,
        "distance_wrist_1_joint": 0.319999747402808,
        "distance_wrist_2_joint": 0.9854391197734638,
        "distance_wrist_3_joint": 0.00637570815843258,
        "smoothness": 5.075305295617109e-16,
        "time": 5.005732803,
        "traj_len": 1.4985987518379342,
        "weighted_distance": 1.88785288158356
    },
    "planner": "SPARStwo",
    "start": {
        "state": {
            "elbow_joint": 2.0193083361928714,
            "shoulder_lift_joint": -1.1220246554650708,
            "shoulder_pan_joint": -1.0952077554168747,
            "wrist_1_joint": -0.8559753972642168,
            "wrist_2_joint": 0.4759566250798843,
            "wrist_3_joint": -3.1240929996934557
        }
    },
    "waypoints": [
        {
            "positions": [
                -1.0952077554168747,
                -1.1220246554650708,
                2.0193083361928714,
                -0.8559753972642168,
                0.4759566250798843,
                -3.1240929996934557
            ]
        },
        {
            "positions": [
                -1.1916655535221456,
                -1.1711790236606396,
                2.0092565618811262,
                -0.8026421060304154,
                0.6401964783754616,
                -3.1230303816670504
            ]
        },
        {
            "positions": [
                -1.2881233516274166,
                -1.2203333918562087,
                1.9992047875693812,
                -0.7493088147966142,
                0.8044363316710388,
                -3.1219677636406447
            ]
        },
        {
            "positions": [
                -1.3845811497326876,
                -1.2694877600517775,
                1.9891530132576363,
                -0.6959755235628128,
                0.9686761849666161,
                -3.1209051456142394
            ]
        },
        {
            "positions": [
                -1.4810389478379586,
                -1.3186421282473464,
                1.9791012389458913,
                -0.6426422323290115,
                1.1329160382621934,
                -3.119842527587834
            ]
        },
        {
            "positions": [
                -1.5774967459432296,
                -1.3677964964429155,
                1.969049464634146,
                -0.5893089410952101,
                1.2971558915577708,
                -3.1187799095614284
            ]
        },
        {
            "positions": [
                -1.6739545440485006,
                -1.4169508646384843,
                1.9589976903224011,
                -0.5359756498614088,
                1.4613957448533481,
                -3.117717291535023
            ]
        }
    ]
}