{
    "goal": {
        "global_pose": {
            "orientation": {
                "w": -0.4816463035849501,
                "x": 0.5182115481033762,
                "y": 0.4908360881923453,
                "z": -0.5084816262002911
            },
            "position": {
                "x": -0.8240239810943604,
                "y": -0.300875300988555,
                "z": 0.16403168439865112
            }
        },
        "name": "move_to_storage_C"
    },
    "id": "SPARS_move_to_storage_C_99",
    "joint_names": [
        "shoulder_pan_joint",
        "shoulder_lift_joint",
        "elbow_joint",
        "wrist_1_joint",
        "wrist_2_joint",
        "wrist_3_joint"
    ],
    "metrics": {
        "cart_traj_len": 0.576029467526993,
        "distance_elbow_joint": 0.25771659376195677,
        "distance_shoulder_lift_joint": 0.18778423464852445,
        "distance_shoulder_pan_joint": 0.4952593176998552,
        "distance_wrist_1_joint": 0.0805094527277328,
        "distance_wrist_2_joint": 1.059901879839654,
        "distance_wrist_3_joint": 0.07089222540899787,
        "smoothness": 2.5376526478085547e-16,
        "time": 5.028629888999999,
        "traj_len": 1.4669913783273305,
        "weighted_distance": 1.8531755144810498
    },
    "planner": "SPARS",
    "start": {
        "state": {
            "elbow_joint": 2.010868314990456,
            "shoulder_lift_joint": -1.1634956873337592,
            "shoulder_pan_joint": -2.4736205022346125,
            "wrist_1_joint": -0.8367026794202681,
            "wrist_2_joint": 0.6746043897044499,
            "wrist_3_joint": -3.1496632123970403
        }
    },
    "waypoints": [
        {
            "positions": [
                -2.4736205022346125,
                -1.1634956873337592,
                2.010868314990456,
                -0.8367026794202681,
                0.6746043897044499,
                -3.1496632123970403
            ]
        },
        {
            "positions": [
                -2.556163721851255,
                -1.1321983148923385,
                1.967915549363463,
                -0.8232844372989793,
                0.8512547030110589,
                -3.1378478414955406
            ]
        },
        {
            "positions": [
                -2.6387069414678974,
                -1.1009009424509177,
                1.9249627837364702,
                -0.8098661951776905,
                1.027905016317668,
                -3.126032470594041
            ]
        },
        {
            "positions": [
                -2.72125016108454,
                -1.069603570009497,
                1.8820100181094774,
                -0.7964479530564017,
                1.2045553296242768,
                -3.1142170996925413
            ]
        },
        {
            "positions": [
                -2.803793380701183,
                -1.0383061975680763,
                1.8390572524824846,
                -0.7830297109351129,
                1.3812056429308859,
                -3.1024017287910417
            ]
        },
        {
            "positions": [
                -2.8863366003178252,
                -1.0070088251266553,
                1.7961044868554918,
                -0.7696114688138241,
                1.557855956237495,
                -3.090586357889542
            ]
        },
        {
            "positions": [
                -2.9688798199344677,
                -0.9757114526852347,
                1.753151721228499,
                -0.7561932266925353,
                1.7345062695441038,
                -3.0787709869880424
            ]
        }
    ]
}