{
    "goal": {
        "global_pose": {
            "orientation": {
                "w": 0.7047431468963623,
                "x": -0.7094548344612122,
                "y": 0.0024358443915843964,
                "z": -0.0022348060738295317
            },
            "position": {
                "x": 0.6094750761985779,
                "y": 0.3671506643295288,
                "z": 0.19426114857196808
            }
        },
        "name": "move_to_magneteinheit_A"
    },
    "id": "SPARStwo_move_to_magneteinheit_A_90",
    "joint_names": [
        "shoulder_pan_joint",
        "shoulder_lift_joint",
        "elbow_joint",
        "wrist_1_joint",
        "wrist_2_joint",
        "wrist_3_joint"
    ],
    "metrics": {
        "cart_traj_len": 3.674426454165749,
        "distance_elbow_joint": 3.875294517047414,
        "distance_shoulder_lift_joint": 0.795621920121484,
        "distance_shoulder_pan_joint": 3.1440174336544056,
        "distance_wrist_1_joint": 3.11917653680709,
        "distance_wrist_2_joint": 2.0587452963008297,
        "distance_wrist_3_joint": 2.5822876227519367,
        "smoothness": 0.3207475750974092,
        "time": 5.054730377,
        "traj_len": 3.946535610720263,
        "weighted_distance": 5.090937085183332
    },
    "planner": "SPARStwo",
    "start": {
        "state": {
            "elbow_joint": -1.9196185241190666,
            "shoulder_lift_joint": -1.2443396400964142,
            "shoulder_pan_joint": 2.6996025414629847,
            "wrist_1_joint": -1.5485510000780065,
            "wrist_2_joint": -1.5709468930060704,
            "wrist_3_joint": 0.4420197071253992
        }
    },
    "waypoints": [
        {
            "positions": [
                2.6996025414629847,
                -1.2443396400964142,
                -1.9196185241190666,
                -1.5485510000780065,
                -1.5709468930060704,
                0.4420197071253992
            ]
        },
        {
            "positions": [
                2.600948337761971,
                -1.2331275295620774,
                -1.8206676528122918,
                -1.4802501354476958,
                -1.509963280122647,
                0.4998047693370691
            ]
        },
        {
            "positions": [
                2.5022941340609575,
                -1.2219154190277404,
                -1.7217167815055168,
                -1.411949270817385,
                -1.4489796672392237,
                0.557589831548739
            ]
        },
        {
            "positions": [
                2.403639930359944,
                -1.2107033084934036,
                -1.622765910198742,
                -1.3436484061870746,
                -1.3879960543558003,
                0.6153748937604089
            ]
        },
        {
            "positions": [
                2.3049857266589306,
                -1.1994911979590666,
                -1.5238150388919671,
                -1.2753475415567639,
                -1.327012441472377,
                0.6731599559720788
            ]
        },
        {
            "positions": [
                2.206331522957917,
                -1.1882790874247298,
                -1.424864167585192,
                -1.2070466769264532,
                -1.2660288285889536,
                0.7309450181837487
            ]
        },
        {
            "positions": [
                2.1076773192569034,
                -1.177066976890393,
                -1.3259132962784173,
                -1.1387458122961425,
                -1.2050452157055302,
                0.7887300803954186
            ]
        },
        {
            "positions": [
                2.0090231155558897,
                -1.165854866356056,
                -1.2269624249716422,
                -1.0704449476658318,
                -1.144061602822107,
                0.8465151426070885
            ]
        },
        {
            "positions": [
                1.9103689118548761,
                -1.1546427558217192,
                -1.1280115536648676,
                -1.002144083035521,
                -1.0830779899386835,
                0.9043002048187584
            ]
        },
        {
            "positions": [
                1.8117147081538625,
                -1.1434306452873821,
                -1.0290606823580926,
                -0.9338432184052106,
                -1.02209437705526,
                0.9620852670304283
            ]
        },
        {
            "positions": [
                1.7130605044528489,
                -1.1322185347530453,
                -0.9301098110513176,
                -0.8655423537748999,
                -0.9611107641718367,
                1.0198703292420983
            ]
        },
        {
            "positions": [
                1.6144063007518354,
                -1.1210064242187086,
                -0.8311589397445429,
                -0.7972414891445893,
                -0.9001271512884135,
                1.077655391453768
            ]
        },
        {
            "positions": [
                1.5157520970508218,
                -1.1097943136843715,
                -0.7322080684377679,
                -0.7289406245142785,
                -0.83914353840499,
                1.135440453665438
            ]
        },
        {
            "positions": [
                1.4170978933498082,
                -1.0985822031500347,
                -0.633257197130993,
                -0.6606397598839678,
                -0.7781599255215667,
                1.1932255158771081
            ]
        },
        {
            "positions": [
                1.3184436896487948,
                -1.0873700926156977,
                -0.534306325824218,
                -0.5923388952536571,
                -0.7171763126381433,
                1.251010578088778
            ]
        },
        {
            "positions": [
                1.2197894859477811,
                -1.076157982081361,
                -0.4353554545174432,
                -0.5240380306233465,
                -0.6561926997547198,
                1.3087956403004477
            ]
        },
        {
            "positions": [
                1.1211352822467677,
                -1.064945871547024,
                -0.33640458321066835,
                -0.4557371659930358,
                -0.5952090868712966,
                1.3665807025121177
            ]
        },
        {
            "positions": [
                1.022481078545754,
                -1.0537337610126871,
                -0.23745371190389353,
                -0.38743630136272533,
                -0.5342254739878733,
                1.4243657647237875
            ]
        },
        {
            "positions": [
                0.9238268748447405,
                -1.04252165047835,
                -0.13850284059711848,
                -0.3191354367324146,
                -0.47324186110444977,
                1.4821508269354573
            ]
        },
        {
            "positions": [
                0.825172671143727,
                -1.0313095399440133,
                -0.03955196929034366,
                -0.2508345721021039,
                -0.41225824822102664,
                1.5399358891471273
            ]
        },
        {
            "positions": [
                0.7265184674427132,
                -1.0200974294096765,
                0.05939890201643139,
                -0.1825337074717932,
                -0.35127463533760306,
                1.5977209513587973
            ]
        },
        {
            "positions": [
                0.6278642637416998,
                -1.0088853188753395,
                0.1583497733232062,
                -0.1142328428414825,
                -0.2902910224541797,
                1.6555060135704673
            ]
        },
        {
            "positions": [
                0.5292100600406862,
                -0.9976732083410027,
                0.2573006446299808,
                -0.04593197821117201,
                -0.22930740957075657,
                1.713291075782137
            ]
        },
        {
            "positions": [
                0.4305558563396725,
                -0.9864610978066658,
                0.35625151593675586,
                0.022368886419138923,
                -0.168323796687333,
                1.771076137993807
            ]
        },
        {
            "positions": [
                0.3319016526386589,
                -0.9752489872723289,
                0.4552023872435309,
                0.09066975104944941,
                -0.10734018380390964,
                1.828861200205477
            ]
        },
        {
            "positions": [
                0.2332474489376457,
                -0.9640368767379921,
                0.5541532585503055,
                0.1589706156797599,
                -0.046356570920486506,
                1.886646262417147
            ]
        },
        {
            "positions": [
                0.13459324523663163,
                -0.9528247662036551,
                0.6531041298570806,
                0.22727148031007083,
                0.01462704196293707,
                1.944431324628817
            ]
        },
        {
            "positions": [
                0.03593904153561844,
                -0.9416126556693183,
                0.7520550011638556,
                0.2955723449403813,
                0.07561065484636043,
                2.0022163868404865
            ]
        },
        {
            "positions": [
                -0.06271516216539519,
                -0.9304005451349813,
                0.8510058724706306,
                0.36387320957069225,
                0.13659426772978378,
                2.0600014490521565
            ]
        },
        {
            "positions": [
                -0.16136936586640882,
                -0.9191884346006445,
                0.9499567437774051,
                0.43217407420100273,
                0.19757788061320716,
                2.1177865112638266
            ]
        },
        {
            "positions": [
                -0.13940747911945509,
                -0.9678635619983859,
                1.0638717372034876,
                0.3420343591917919,
                0.21314398920077016,
                2.1927919013937376
            ]
        },
        {
            "positions": [
                -0.11744559237250132,
                -1.0165386893961272,
                1.1777867306295702,
                0.2518946441825812,
                0.22871009778833315,
                2.267797291523648
            ]
        },
        {
            "positions": [
                -0.09548370562554759,
                -1.0652138167938687,
                1.2917017240556528,
                0.16175492917337037,
                0.24427620637589614,
                2.342802681653559
            ]
        },
        {
            "positions": [
                -0.07352181887859384,
                -1.1138889441916102,
                1.4056167174817351,
                0.07161521416415961,
                0.2598423149634591,
                2.41780807178347
            ]
        },
        {
            "positions": [
                -0.05155993213164009,
                -1.1625640715893517,
                1.5195317109078177,
                -0.01852450084505125,
                0.27540842355102213,
                2.492813461913381
            ]
        },
        {
            "positions": [
                -0.029598045384686356,
                -1.211239198987093,
                1.6334467043339003,
                -0.108664215854262,
                0.29097453213858515,
                2.5678188520432914
            ]
        },
        {
            "positions": [
                -0.007636158637732604,
                -1.2599143263848345,
                1.7473616977599828,
                -0.19880393086347287,
                0.3065406407261481,
                2.6428242421732024
            ]
        },
        {
            "positions": [
                0.024691921136351335,
                -1.2274781206744534,
                1.7994402715520739,
                -0.32567229522937413,
                0.2612262000839951,
                2.7381950140992357
            ]
        },
        {
            "positions": [
                0.05702000091043527,
                -1.1950419149640723,
                1.851518845344165,
                -0.4525406595952754,
                0.21591175944184215,
                2.833565786025269
            ]
        },
        {
            "positions": [
                0.0893480806845192,
                -1.1626057092536912,
                1.9035974191362564,
                -0.5794090239611767,
                0.17059731879968917,
                2.9289365579513027
            ]
        },
        {
            "positions": [
                0.12167616045860315,
                -1.1301695035433101,
                1.9556759929283474,
                -0.706277388327078,
                0.1252828781575362,
                3.024307329877336
            ]
        }
    ]
}