{
    "goal": {
        "global_pose": {
            "orientation": {
                "w": 0.005598929693374612,
                "x": 0.007748599140229565,
                "y": 0.7110244013736278,
                "z": -0.7031023480610252
            },
            "position": {
                "x": 0.1141497679147869,
                "y": -0.7141253447532654,
                "z": 0.3711530566215515
            }
        },
        "name": "move_to_auspresseinheit_B"
    },
    "id": "SPARStwo_move_to_auspresseinheit_B_77",
    "joint_names": [
        "shoulder_pan_joint",
        "shoulder_lift_joint",
        "elbow_joint",
        "wrist_1_joint",
        "wrist_2_joint",
        "wrist_3_joint"
    ],
    "metrics": {
        "cart_traj_len": 0.5645881036526994,
        "distance_elbow_joint": 0.05945776485214549,
        "distance_shoulder_lift_joint": 0.2951982857379736,
        "distance_shoulder_pan_joint": 0.5778908570463885,
        "distance_wrist_1_joint": 0.31519115656379315,
        "distance_wrist_2_joint": 0.9892396295309696,
        "distance_wrist_3_joint": 0.004129233987974157,
        "smoothness": 0.0,
        "time": 5.004992321,
        "traj_len": 1.4970327076317484,
        "weighted_distance": 1.8851515010178772
    },
    "planner": "SPARStwo",
    "start": {
        "state": {
            "elbow_joint": 2.0193083361928714,
            "shoulder_lift_joint": -1.1220246554650708,
            "shoulder_pan_joint": -1.0952077554168747,
            "wrist_1_joint": -0.8559753972642168,
            "wrist_2_joint": 0.4759566250798843,
            "wrist_3_joint": -3.1240929996934557
        }
    },
    "waypoints": [
        {
            "positions": [
                -1.0952077554168747,
                -1.1220246554650708,
                2.0193083361928714,
                -0.8559753972642168,
                0.4759566250798843,
                -3.1240929996934557
            ]
        },
        {
            "positions": [
                -1.1915228982579393,
                -1.171224369754733,
                2.009398708717514,
                -0.8034435378369179,
                0.6408298966683792,
                -3.1234047940287932
            ]
        },
        {
            "positions": [
                -1.2878380410990042,
                -1.2204240840443954,
                1.9994890812421562,
                -0.750911678409619,
                0.805703168256874,
                -3.122716588364131
            ]
        },
        {
            "positions": [
                -1.384153183940069,
                -1.2696237983340577,
                1.9895794537667988,
                -0.6983798189823203,
                0.9705764398453691,
                -3.122028382699469
            ]
        },
        {
            "positions": [
                -1.4804683267811336,
                -1.3188235126237198,
                1.9796698262914412,
                -0.6458479595550214,
                1.135449711433864,
                -3.1213401770348064
            ]
        },
        {
            "positions": [
                -1.5767834696221985,
                -1.368023226913382,
                1.9697601988160836,
                -0.5933161001277225,
                1.300322983022359,
                -3.120651971370144
            ]
        },
        {
            "positions": [
                -1.6730986124632632,
                -1.4172229412030444,
                1.959850571340726,
                -0.5407842407004236,
                1.465196254610854,
                -3.1199637657054815
            ]
        }
    ]
}