{
    "goal": {
        "global_pose": {
            "orientation": {
                "w": 0.5084816217422485,
                "x": -0.49083608388900757,
                "y": 0.5182115435600281,
                "z": -0.4816462993621826
            },
            "position": {
                "x": 0.5540239810943604,
                "y": 0.030875300988554955,
                "z": 0.16403168439865112
            }
        },
        "name": "move_to_storage_A"
    },
    "id": "SPARS_move_to_storage_A_150",
    "joint_names": [
        "shoulder_pan_joint",
        "shoulder_lift_joint",
        "elbow_joint",
        "wrist_1_joint",
        "wrist_2_joint",
        "wrist_3_joint"
    ],
    "metrics": {
        "cart_traj_len": 0.3534520557700869,
        "distance_elbow_joint": 0.4488960723270832,
        "distance_shoulder_lift_joint": 0.23484464932025406,
        "distance_shoulder_pan_joint": 0.4640864150642496,
        "distance_wrist_1_joint": 0.2407901973871237,
        "distance_wrist_2_joint": 1.0910920111830575,
        "distance_wrist_3_joint": 0.09771348074803177,
        "smoothness": 2.2204460668324854e-16,
        "time": 5.0064118,
        "traj_len": 1.6054354007651008,
        "weighted_distance": 2.026013819325042
    },
    "planner": "SPARS",
    "start": {
        "state": {
            "elbow_joint": 1.971548259319323,
            "shoulder_lift_joint": -1.1394851275133948,
            "shoulder_pan_joint": 0.1228115487234821,
            "wrist_1_joint": -0.7804723859257726,
            "wrist_2_joint": 0.12958671773740124,
            "wrist_3_joint": -3.192489227718131
        }
    },
    "waypoints": [
        {
            "positions": [
                0.1228115487234821,
                -1.1394851275133948,
                1.971548259319323,
                -0.7804723859257726,
                0.12958671773740124,
                -3.192489227718131
            ]
        },
        {
            "positions": [
                0.0565134894285893,
                -1.173034363130574,
                2.0356762696517636,
                -0.8148709855525046,
                0.28545700504926663,
                -3.1785301590398407
            ]
        },
        {
            "positions": [
                -0.009784569866303494,
                -1.2065835987477531,
                2.099804279984204,
                -0.8492695851792366,
                0.441327292361132,
                -3.1645710903615507
            ]
        },
        {
            "positions": [
                -0.07608262916119629,
                -1.2401328343649323,
                2.1639322903166445,
                -0.8836681848059684,
                0.5971975796729974,
                -3.1506120216832603
            ]
        },
        {
            "positions": [
                -0.1423806884560891,
                -1.2736820699821114,
                2.228060300649085,
                -0.9180667844327004,
                0.7530678669848627,
                -3.1366529530049703
            ]
        },
        {
            "positions": [
                -0.20867874775098189,
                -1.3072313055992906,
                2.2921883109815253,
                -0.9524653840594324,
                0.9089381542967281,
                -3.12269388432668
            ]
        },
        {
            "positions": [
                -0.2749768070458747,
                -1.3407805412164697,
                2.3563163213139657,
                -0.9868639836861643,
                1.0648084416085934,
                -3.10873481564839
            ]
        },
        {
            "positions": [
                -0.3412748663407675,
                -1.3743297768336489,
                2.420444331646406,
                -1.0212625833128963,
                1.2206787289204588,
                -3.0947757469700994
            ]
        }
    ]
}{
    "goal": {
        "global_pose": {
            "orientation": {
                "w": 0.5084816217422485,
                "x": -0.49083608388900757,
                "y": 0.5182115435600281,
                "z": -0.4816462993621826
            },
            "position": {
                "x": 0.5540239810943604,
                "y": 0.030875300988554955,
                "z": 0.16403168439865112
            }
        },
        "name": "move_to_storage_A"
    },
    "id": "SPARS_move_to_storage_A_150",
    "joint_names": [
        "shoulder_pan_joint",
        "shoulder_lift_joint",
        "elbow_joint",
        "wrist_1_joint",
        "wrist_2_joint",
        "wrist_3_joint"
    ],
    "metrics": {
        "cart_traj_len": 0.35246260460169493,
        "distance_elbow_joint": 0.4496594821313038,
        "distance_shoulder_lift_joint": 0.23491083713323357,
        "distance_shoulder_pan_joint": 0.46148834237852926,
        "distance_wrist_1_joint": 0.24498558581043772,
        "distance_wrist_2_joint": 1.0948878847146672,
        "distance_wrist_3_joint": 0.08817567830827677,
        "smoothness": 0.0,
        "time": 5.0283821820000005,
        "traj_len": 1.6044026335295165,
        "weighted_distance": 2.0224570793018346
    },
    "planner": "SPARS",
    "start": {
        "state": {
            "elbow_joint": 1.97154746011099,
            "shoulder_lift_joint": -1.13948474672311,
            "shoulder_pan_joint": 0.12281154466712228,
            "wrist_1_joint": -0.7804688027058302,
            "wrist_2_joint": 0.12958655903071145,
            "wrist_3_joint": 3.0906928834467795
        }
    },
    "waypoints": [
        {
            "positions": [
                0.12281154466712228,
                -1.13948474672311,
                1.97154746011099,
                -0.7804688027058302,
                0.12958655903071145,
                3.0906928834467795
            ]
        },
        {
            "positions": [
                0.056884638613046684,
                -1.1730434377421433,
                2.0357845289868903,
                -0.8154667435358928,
                0.2859991139899496,
                3.1032894089193905
            ]
        },
        {
            "positions": [
                -0.009042267441028914,
                -1.2066021287611768,
                2.100021597862791,
                -0.8504646843659552,
                0.4424116689491878,
                3.1158859343920016
            ]
        },
        {
            "positions": [
                -0.07496917349510453,
                -1.24016081978021,
                2.1642586667386916,
                -0.8854626251960178,
                0.5988242239084259,
                3.1284824598646126
            ]
        },
        {
            "positions": [
                -0.1408960795491801,
                -1.2737195107992434,
                2.228495735614592,
                -0.9204605660260803,
                0.7552367788676642,
                3.141078985337223
            ]
        },
        {
            "positions": [
                -0.20682298560325574,
                -1.307278201818277,
                2.292732804490493,
                -0.9554585068561429,
                0.9116493338269024,
                3.153675510809834
            ]
        },
        {
            "positions": [
                -0.2727498916573313,
                -1.3408368928373102,
                2.3569698733663933,
                -0.9904564476862053,
                1.0680618887861404,
                3.1662720362824452
            ]
        },
        {
            "positions": [
                -0.33867679771140696,
                -1.3743955838563435,
                2.4212069422422937,
                -1.025454388516268,
                1.2244744437453787,
                3.1788685617550563
            ]
        }
    ]
}{
    "goal": {
        "global_pose": {
            "orientation": {
                "w": 0.5084816217422485,
                "x": -0.49083608388900757,
                "y": 0.5182115435600281,
                "z": -0.4816462993621826
            },
            "position": {
                "x": 0.5540239810943604,
                "y": 0.030875300988554955,
                "z": 0.16403168439865112
            }
        },
        "name": "move_to_storage_A"
    },
    "id": "SPARS_move_to_storage_A_150",
    "joint_names": [
        "shoulder_pan_joint",
        "shoulder_lift_joint",
        "elbow_joint",
        "wrist_1_joint",
        "wrist_2_joint",
        "wrist_3_joint"
    ],
    "metrics": {
        "cart_traj_len": 0.3527998365716567,
        "distance_elbow_joint": 0.44901543157868495,
        "distance_shoulder_lift_joint": 0.23594252731005727,
        "distance_shoulder_pan_joint": 0.4629093458021255,
        "distance_wrist_1_joint": 0.23593427221957852,
        "distance_wrist_2_joint": 1.0922088695606302,
        "distance_wrist_3_joint": 0.09799514889942218,
        "smoothness": 0.0,
        "time": 5.0689417709999995,
        "traj_len": 1.6043707786451669,
        "weighted_distance": 2.024386088410398
    },
    "planner": "SPARS",
    "start": {
        "state": {
            "elbow_joint": 1.9715472970024885,
            "shoulder_lift_joint": -1.1394870060712896,
            "shoulder_pan_joint": 0.12281152778156021,
            "wrist_1_joint": -0.780463741449964,
            "wrist_2_joint": 0.12958659822042276,
            "wrist_3_joint": 3.090690232415272
        }
    },
    "waypoints": [
        {
            "positions": [
                0.12281152778156021,
                -1.1394870060712896,
                1.9715472970024885,
                -0.780463741449964,
                0.12958659822042276,
                3.090690232415272
            ]
        },
        {
            "positions": [
                0.05668162123839943,
                -1.1731930814012979,
                2.0356923586565863,
                -0.8141686374813324,
                0.2856164367290842,
                3.1046895394009035
            ]
        },
        {
            "positions": [
                -0.009448285304761356,
                -1.2068991567313059,
                2.0998374203106844,
                -0.8478735335127007,
                0.4416462752377457,
                3.118688846386535
            ]
        },
        {
            "positions": [
                -0.07557819184792214,
                -1.2406052320613141,
                2.163982481964782,
                -0.8815784295440691,
                0.5976761137464072,
                3.132688153372167
            ]
        },
        {
            "positions": [
                -0.14170809839108292,
                -1.2743113073913224,
                2.22812754361888,
                -0.9152833255754375,
                0.7537059522550685,
                3.146687460357799
            ]
        },
        {
            "positions": [
                -0.20783800493424373,
                -1.3080173827213306,
                2.292272605272978,
                -0.9489882216068057,
                0.90973579076373,
                3.1606867673434307
            ]
        },
        {
            "positions": [
                -0.2739679114774045,
                -1.3417234580513386,
                2.3564176669270758,
                -0.9826931176381741,
                1.0657656292723916,
                3.1746860743290624
            ]
        },
        {
            "positions": [
                -0.34009781802056527,
                -1.3754295333813469,
                2.4205627285811735,
                -1.0163980136695425,
                1.221795467781053,
                3.188685381314694
            ]
        }
    ]
}