{
    "goal": {
        "global_pose": {
            "orientation": {
                "w": 0.5084816217422485,
                "x": -0.49083608388900757,
                "y": 0.5182115435600281,
                "z": -0.4816462993621826
            },
            "position": {
                "x": 0.5540239810943604,
                "y": 0.030875300988554955,
                "z": 0.16403168439865112
            }
        },
        "name": "move_to_storage_A"
    },
    "id": "SPARStwo_move_to_storage_A_100",
    "joint_names": [
        "shoulder_pan_joint",
        "shoulder_lift_joint",
        "elbow_joint",
        "wrist_1_joint",
        "wrist_2_joint",
        "wrist_3_joint"
    ],
    "metrics": {
        "cart_traj_len": 0.3526760078782613,
        "distance_elbow_joint": 0.45473903858522524,
        "distance_shoulder_lift_joint": 0.23289204053999568,
        "distance_shoulder_pan_joint": 0.46131515577546467,
        "distance_wrist_1_joint": 0.26283770992974054,
        "distance_wrist_2_joint": 1.097425070052844,
        "distance_wrist_3_joint": 0.10937323469428906,
        "smoothness": 6.661338165333112e-16,
        "time": 5.005829227,
        "traj_len": 1.6182034017939646,
        "weighted_distance": 2.0488024548376353
    },
    "planner": "SPARStwo",
    "start": {
        "state": {
            "elbow_joint": 1.9715481507254546,
            "shoulder_lift_joint": -1.1394850672790213,
            "shoulder_pan_joint": 0.12281154597544902,
            "wrist_1_joint": -0.7804720171073349,
            "wrist_2_joint": 0.12958658322886563,
            "wrist_3_joint": -3.1924895760937617
        }
    },
    "waypoints": [
        {
            "positions": [
                0.12281154597544902,
                -1.1394850672790213,
                1.9715481507254546,
                -0.7804720171073349,
                0.12958658322886563,
                -3.1924895760937617
            ]
        },
        {
            "positions": [
                0.05690938086466836,
                -1.172755358784735,
                2.036510870523344,
                -0.8180202613830122,
                0.28636159323641475,
                -3.176864828280292
            ]
        },
        {
            "positions": [
                -0.008992784246112301,
                -1.2060256502904487,
                2.101473590321233,
                -0.8555685056586894,
                0.4431366032439639,
                -3.161240080466822
            ]
        },
        {
            "positions": [
                -0.07489494935689298,
                -1.2392959417961624,
                2.1664363101191224,
                -0.8931167499343666,
                0.599911613251513,
                -3.1456153326533522
            ]
        },
        {
            "positions": [
                -0.14079711446767362,
                -1.272566233301876,
                2.2313990299170117,
                -0.9306649942100438,
                0.7566866232590622,
                -3.129990584839882
            ]
        },
        {
            "positions": [
                -0.2066992795784543,
                -1.3058365248075896,
                2.2963617497149014,
                -0.968213238485721,
                0.9134616332666115,
                -3.1143658370264125
            ]
        },
        {
            "positions": [
                -0.272601444689235,
                -1.3391068163133033,
                2.3613244695127906,
                -1.0057614827613983,
                1.0702366432741606,
                -3.0987410892129423
            ]
        },
        {
            "positions": [
                -0.33850360980001565,
                -1.372377107819017,
                2.42628718931068,
                -1.0433097270370755,
                1.2270116532817097,
                -3.0831163413994727
            ]
        }
    ]
}