{
    "goal": {
        "global_pose": {
            "orientation": {
                "w": 0.005598929693374612,
                "x": 0.007748599140229565,
                "y": 0.7110244013736278,
                "z": -0.7031023480610252
            },
            "position": {
                "x": 0.1141497679147869,
                "y": -0.7141253447532654,
                "z": 0.3711530566215515
            }
        },
        "name": "move_to_auspresseinheit_B"
    },
    "id": "SPARS_move_to_auspresseinheit_B_8",
    "joint_names": [
        "shoulder_pan_joint",
        "shoulder_lift_joint",
        "elbow_joint",
        "wrist_1_joint",
        "wrist_2_joint",
        "wrist_3_joint"
    ],
    "metrics": {
        "cart_traj_len": 0.5650343097114275,
        "distance_elbow_joint": 0.062253133498101354,
        "distance_shoulder_lift_joint": 0.2955056212069944,
        "distance_shoulder_pan_joint": 0.5792481705199852,
        "distance_wrist_1_joint": 0.3303752188382698,
        "distance_wrist_2_joint": 0.9874910496945424,
        "distance_wrist_3_joint": 0.00976525386670879,
        "smoothness": 0.0,
        "time": 5.01447446,
        "traj_len": 1.504871571804253,
        "weighted_distance": 1.8979028489074017
    },
    "planner": "SPARS",
    "start": {
        "state": {
            "elbow_joint": 2.0193083361928714,
            "shoulder_lift_joint": -1.1220246554650708,
            "shoulder_pan_joint": -1.0952077554168747,
            "wrist_1_joint": -0.8559753972642168,
            "wrist_2_joint": 0.4759566250798843,
            "wrist_3_joint": -3.1240929996934557
        }
    },
    "waypoints": [
        {
            "positions": [
                -1.0952077554168747,
                -1.1220246554650708,
                2.0193083361928714,
                -0.8559753972642168,
                0.4759566250798843,
                -3.1240929996934557
            ]
        },
        {
            "positions": [
                -1.1917491171702055,
                -1.1712755923329032,
                2.0089328139431877,
                -0.8009128607911719,
                0.6405384666956413,
                -3.1224654573823374
            ]
        },
        {
            "positions": [
                -1.2882904789235363,
                -1.2205265292007357,
                1.9985572916935044,
                -0.7458503243181268,
                0.8051203083113985,
                -3.1208379150712195
            ]
        },
        {
            "positions": [
                -1.3848318406768674,
                -1.2697774660685681,
                1.9881817694438206,
                -0.6907877878450819,
                0.9697021499271554,
                -3.1192103727601013
            ]
        },
        {
            "positions": [
                -1.481373202430198,
                -1.3190284029364003,
                1.9778062471941371,
                -0.635725251372037,
                1.1342839915429126,
                -3.117582830448983
            ]
        },
        {
            "positions": [
                -1.577914564183529,
                -1.3682793398042328,
                1.9674307249444536,
                -0.5806627148989919,
                1.2988658331586695,
                -3.115955288137865
            ]
        },
        {
            "positions": [
                -1.6744559259368599,
                -1.4175302766720652,
                1.95705520269477,
                -0.525600178425947,
                1.4634476747744267,
                -3.114327745826747
            ]
        }
    ]
}