{
    "goal": {
        "global_pose": {
            "orientation": {
                "w": -0.00223480608172531,
                "x": 0.0024358444001904467,
                "y": 0.7094548369677653,
                "z": -0.704743149386269
            },
            "position": {
                "x": 0.6205249238014221,
                "y": -0.6371506643295288,
                "z": 0.19426114857196808
            }
        },
        "name": "move_to_magneteinheit_B"
    },
    "id": "SPARS_move_to_magneteinheit_B_76",
    "joint_names": [
        "shoulder_pan_joint",
        "shoulder_lift_joint",
        "elbow_joint",
        "wrist_1_joint",
        "wrist_2_joint",
        "wrist_3_joint"
    ],
    "metrics": {
        "cart_traj_len": 4.053239911559034,
        "distance_elbow_joint": 4.276958943210747,
        "distance_shoulder_lift_joint": 0.7682531638978483,
        "distance_shoulder_pan_joint": 2.454497695393078,
        "distance_wrist_1_joint": 4.579180567913649,
        "distance_wrist_2_joint": 1.8354925020895327,
        "distance_wrist_3_joint": 3.707940877431892,
        "smoothness": 0.24073579723773952,
        "time": 5.052505296,
        "traj_len": 4.197895157092033,
        "weighted_distance": 5.60828659884672
    },
    "planner": "SPARS",
    "start": {
        "state": {
            "elbow_joint": 2.6216224122426386,
            "shoulder_lift_joint": -1.4174107377796124,
            "shoulder_pan_joint": 0.7066234856936794,
            "wrist_1_joint": 1.9546482284002225,
            "wrist_2_joint": -0.7096286983471962,
            "wrist_3_joint": 0.005740856962016249
        }
    },
    "waypoints": [
        {
            "positions": [
                0.7066234856936794,
                -1.4174107377796124,
                2.6216224122426386,
                1.9546482284002225,
                -0.7096286983471962,
                0.005740856962016249
            ]
        },
        {
            "positions": [
                0.5814903365650843,
                -1.423094296887554,
                2.609739979804367,
                1.9034845198487784,
                -0.7248247863921116,
                0.0845872247404281
            ]
        },
        {
            "positions": [
                0.4563571874364891,
                -1.4287778559954953,
                2.5978575473660954,
                1.8523208112973344,
                -0.740020874437027,
                0.16343359251883996
            ]
        },
        {
            "positions": [
                0.46642509237716556,
                -1.4331550567267486,
                2.476338672018082,
                1.6323716232846208,
                -0.7535995662990147,
                0.1371804900907201
            ]
        },
        {
            "positions": [
                0.476492997317842,
                -1.4375322574580018,
                2.354819796670069,
                1.412422435271907,
                -0.7671782581610023,
                0.11092738766260023
            ]
        },
        {
            "positions": [
                0.48656090225851845,
                -1.441909458189255,
                2.233300921322056,
                1.1924732472591935,
                -0.78075695002299,
                0.08467428523448037
            ]
        },
        {
            "positions": [
                0.4966288071991949,
                -1.4462866589205083,
                2.1117820459740426,
                0.9725240592464798,
                -0.7943356418849776,
                0.058421182806360494
            ]
        },
        {
            "positions": [
                0.5066967121398713,
                -1.4506638596517616,
                1.9902631706260296,
                0.7525748712337661,
                -0.8079143337469652,
                0.03216808037824065
            ]
        },
        {
            "positions": [
                0.5167646170805478,
                -1.455041060383015,
                1.8687442952780167,
                0.5326256832210525,
                -0.8214930256089529,
                0.0059149779501207755
            ]
        },
        {
            "positions": [
                0.5268325220212242,
                -1.4594182611142683,
                1.7472254199300035,
                0.31267649520833896,
                -0.8350717174709406,
                -0.020338124477999098
            ]
        },
        {
            "positions": [
                0.5369004269619007,
                -1.4637954618455216,
                1.6257065445819903,
                0.09272730719562516,
                -0.8486504093329281,
                -0.04659122690611897
            ]
        },
        {
            "positions": [
                0.5469683319025771,
                -1.4681726625767748,
                1.5041876692339768,
                -0.12722188081708863,
                -0.8622291011949158,
                -0.07284432933423884
            ]
        },
        {
            "positions": [
                0.5570362368432535,
                -1.472549863308028,
                1.3826687938859639,
                -0.3471710688298022,
                -0.8758077930569034,
                -0.09909743176235866
            ]
        },
        {
            "positions": [
                0.56710414178393,
                -1.4769270640392813,
                1.2611499185379507,
                -0.5671202568425155,
                -0.889386484918891,
                -0.12535053419047854
            ]
        },
        {
            "positions": [
                0.6583949017607594,
                -1.4969443632647192,
                1.1382831463932381,
                -0.6592347583655289,
                -0.8424516936621068,
                -0.10399342896652872
            ]
        },
        {
            "positions": [
                0.7496856617375889,
                -1.516961662490157,
                1.0154163742485256,
                -0.7513492598885424,
                -0.7955169024053225,
                -0.08263632374257888
            ]
        },
        {
            "positions": [
                0.8409764217144184,
                -1.536978961715595,
                0.8925496021038131,
                -0.8434637614115559,
                -0.7485821111485382,
                -0.06127921851862905
            ]
        },
        {
            "positions": [
                0.9322671816912479,
                -1.5569962609410326,
                0.7696828299591004,
                -0.9355782629345692,
                -0.7016473198917539,
                -0.039922113294679235
            ]
        },
        {
            "positions": [
                1.0235579416680773,
                -1.5770135601664705,
                0.6468160578143879,
                -1.0276927644575826,
                -0.6547125286349696,
                -0.018565008070729402
            ]
        },
        {
            "positions": [
                1.114848701644907,
                -1.5970308593919085,
                0.5239492856696754,
                -1.119807265980596,
                -0.6077777373781854,
                0.0027920971532204297
            ]
        },
        {
            "positions": [
                1.2061394616217362,
                -1.6170481586173462,
                0.4010825135249627,
                -1.2119217675036094,
                -0.5608429461214011,
                0.024149202377170248
            ]
        },
        {
            "positions": [
                1.2974302215985658,
                -1.6370654578427841,
                0.2782157413802502,
                -1.3040362690266227,
                -0.5139081548646167,
                0.045506307601120066
            ]
        },
        {
            "positions": [
                1.3887209815753954,
                -1.6570827570682218,
                0.15534896923553765,
                -1.3961507705496363,
                -0.4669733636078325,
                0.06686341282506991
            ]
        },
        {
            "positions": [
                1.4800117415522247,
                -1.6771000562936598,
                0.032482197090825116,
                -1.4882652720726497,
                -0.4200385723510482,
                0.08822051804901973
            ]
        },
        {
            "positions": [
                1.5713025015290545,
                -1.6971173555190977,
                -0.09038457505388764,
                -1.5803797735956633,
                -0.3731037810942639,
                0.10957762327296958
            ]
        },
        {
            "positions": [
                1.6625932615058838,
                -1.7171346547445354,
                -0.21325134719859995,
                -1.6724942751186767,
                -0.32616898983747966,
                0.1309347284969194
            ]
        },
        {
            "positions": [
                1.7538840214827134,
                -1.7371519539699734,
                -0.3361181193433127,
                -1.76460877664169,
                -0.2792341985806953,
                0.15229183372086924
            ]
        },
        {
            "positions": [
                1.8451747814595427,
                -1.757169253195411,
                -0.45898489148802524,
                -1.8567232781647034,
                -0.23229940732391108,
                0.17364893894481903
            ]
        },
        {
            "positions": [
                1.9364655414363723,
                -1.777186552420849,
                -0.5818516636327378,
                -1.948837779687717,
                -0.18536461606712673,
                0.19500604416876888
            ]
        },
        {
            "positions": [
                2.0277563014132016,
                -1.797203851646287,
                -0.7047184357774503,
                -2.04095228121073,
                -0.1384298248103425,
                0.21636314939271867
            ]
        },
        {
            "positions": [
                2.119047061390031,
                -1.8172211508717249,
                -0.8275852079221631,
                -2.133066782733744,
                -0.09149503355355815,
                0.2377202546166685
            ]
        },
        {
            "positions": [
                2.2103378213668607,
                -1.8372384500971626,
                -0.9504519800668754,
                -2.225181284256757,
                -0.04456024229677391,
                0.25907735984061836
            ]
        },
        {
            "positions": [
                2.3016285813436905,
                -1.8572557493226005,
                -1.0733187522115881,
                -2.3172957857797707,
                0.0023745489600104364,
                0.2804344650645682
            ]
        },
        {
            "positions": [
                2.3929193413205194,
                -1.8772730485480382,
                -1.1961855243563004,
                -2.4094102873027836,
                0.04930934021679467,
                0.301791570288518
            ]
        },
        {
            "positions": [
                2.484210101297349,
                -1.8972903477734762,
                -1.3190522965010132,
                -2.5015247888257974,
                0.09624413147357899,
                0.32314867551246784
            ]
        },
        {
            "positions": [
                2.494674790924521,
                -1.9410847230725836,
                -1.3779130675957045,
                -2.4771424413263228,
                0.12241029145399131,
                0.5488512224416731
            ]
        },
        {
            "positions": [
                2.5051394805516924,
                -1.984879098371691,
                -1.4367738386903959,
                -2.4527600938268486,
                0.14857645143440362,
                0.7745537693708782
            ]
        },
        {
            "positions": [
                2.5181585588548234,
                -2.01175875922017,
                -1.469752375741942,
                -2.443575572298524,
                0.11935714961374064,
                0.9945154506918708
            ]
        },
        {
            "positions": [
                2.531177637157954,
                -2.0386384200686485,
                -1.5027309127934882,
                -2.4343910507702,
                0.09013784779307764,
                1.2144771320128633
            ]
        },
        {
            "positions": [
                2.544196715461085,
                -2.065518080917127,
                -1.5357094498450343,
                -2.4252065292418754,
                0.06091854597241465,
                1.434438813333856
            ]
        },
        {
            "positions": [
                2.5572157937642155,
                -2.092397741765606,
                -1.5686879868965806,
                -2.416022007713551,
                0.031699244151751654,
                1.6544004946548485
            ]
        },
        {
            "positions": [
                2.5702348720673465,
                -2.1192774026140846,
                -1.6016665239481267,
                -2.4068374861852266,
                0.0024799423310886692,
                1.874362175975841
            ]
        },
        {
            "positions": [
                2.5883056145683527,
                -2.1325547024267597,
                -1.6124005253521225,
                -2.4125015357946387,
                -0.09185511168115705,
                2.126712436975727
            ]
        },
        {
            "positions": [
                2.6063763570693586,
                -2.145832002239435,
                -1.6231345267561184,
                -2.4181655854040507,
                -0.18619016569340277,
                2.379062697975613
            ]
        },
        {
            "positions": [
                2.624447099570365,
                -2.1591093020521104,
                -1.6338685281601144,
                -2.4238296350134627,
                -0.2805252197056485,
                2.6314129589754987
            ]
        },
        {
            "positions": [
                2.6425178420713706,
                -2.1723866018647855,
                -1.6446025295641102,
                -2.4294936846228747,
                -0.3748602737178942,
                2.8837632199753847
            ]
        },
        {
            "positions": [
                2.660588584572377,
                -2.1856639016774606,
                -1.655336530968106,
                -2.4351577342322868,
                -0.4691953277301399,
                3.1361134809752707
            ]
        }
    ]
}