{
    "goal": {
        "global_pose": {
            "orientation": {
                "w": 0.7047431493862688,
                "x": -0.7094548369677653,
                "y": 0.0024358444001904,
                "z": -0.0022348060817251984
            },
            "position": {
                "x": -0.39052492380142206,
                "y": 0.3671506643295288,
                "z": 0.19426114857196808
            }
        },
        "name": "move_to_magneteinheit_D"
    },
    "id": "SPARS_move_to_magneteinheit_D_53",
    "joint_names": [
        "shoulder_pan_joint",
        "shoulder_lift_joint",
        "elbow_joint",
        "wrist_1_joint",
        "wrist_2_joint",
        "wrist_3_joint"
    ],
    "metrics": {
        "cart_traj_len": 4.670463424392335,
        "distance_elbow_joint": 3.2774763004873226,
        "distance_shoulder_lift_joint": 3.2052523141859606,
        "distance_shoulder_pan_joint": 2.940024764218232,
        "distance_wrist_1_joint": 2.085570957334583,
        "distance_wrist_2_joint": 6.210075003943346,
        "distance_wrist_3_joint": 6.848504226319352,
        "smoothness": 0.29208483235358723,
        "time": 5.036307452999999,
        "traj_len": 4.956501141580501,
        "weighted_distance": 6.823456454056511
    },
    "planner": "SPARS",
    "start": {
        "state": {
            "elbow_joint": 0.749534889911806,
            "shoulder_lift_joint": -0.6476975780787326,
            "shoulder_pan_joint": -2.711696901376241,
            "wrist_1_joint": -0.07506478083263063,
            "wrist_2_joint": 0.43296659715538205,
            "wrist_3_joint": -3.14703540197715
        }
    },
    "waypoints": [
        {
            "positions": [
                -2.711696901376241,
                -0.6476975780787326,
                0.749534889911806,
                -0.07506478083263063,
                0.43296659715538205,
                -3.14703540197715
            ]
        },
        {
            "positions": [
                -2.729280678999151,
                -0.7256545102955319,
                0.7766830862409057,
                -0.08430884250096736,
                0.4565027102258236,
                -2.983852194132004
            ]
        },
        {
            "positions": [
                -2.7468644566220606,
                -0.803611442512331,
                0.8038312825700052,
                -0.09355290416930409,
                0.4800388232962651,
                -2.8206689862868575
            ]
        },
        {
            "positions": [
                -2.7644482342449703,
                -0.8815683747291302,
                0.830979478899105,
                -0.10279696583764084,
                0.5035749363667067,
                -2.6574857784417114
            ]
        },
        {
            "positions": [
                -2.7485495788959007,
                -0.9722593758641912,
                0.830010858386994,
                -0.10468596242223947,
                0.5534109251287262,
                -2.441946133783427
            ]
        },
        {
            "positions": [
                -2.732650923546831,
                -1.062950376999252,
                0.829042237874883,
                -0.10657495900683811,
                0.6032469138907457,
                -2.226406489125143
            ]
        },
        {
            "positions": [
                -2.7167522681977614,
                -1.1536413781343131,
                0.828073617362772,
                -0.10846395559143673,
                0.6530829026527653,
                -2.0108668444668583
            ]
        },
        {
            "positions": [
                -2.7008536128486917,
                -1.2443323792693741,
                0.827104996850661,
                -0.11035295217603537,
                0.7029188914147848,
                -1.795327199808574
            ]
        },
        {
            "positions": [
                -2.684954957499622,
                -1.3350233804044351,
                0.82613637633855,
                -0.11224194876063401,
                0.7527548801768043,
                -1.5797875551502898
            ]
        },
        {
            "positions": [
                -2.6690563021505525,
                -1.4257143815394961,
                0.825167755826439,
                -0.11413094534523265,
                0.8025908689388238,
                -1.3642479104920056
            ]
        },
        {
            "positions": [
                -2.653157646801483,
                -1.5164053826745572,
                0.824199135314328,
                -0.11601994192983128,
                0.8524268577008434,
                -1.1487082658337213
            ]
        },
        {
            "positions": [
                -2.637258991452413,
                -1.6070963838096182,
                0.823230514802217,
                -0.11790893851442992,
                0.9022628464628628,
                -0.9331686211754369
            ]
        },
        {
            "positions": [
                -2.6213603361033435,
                -1.6977873849446792,
                0.8222618942901061,
                -0.11979793509902856,
                0.9520988352248824,
                -0.7176289765171526
            ]
        },
        {
            "positions": [
                -2.605461680754274,
                -1.7884783860797402,
                0.8212932737779951,
                -0.12168693168362718,
                1.001934823986902,
                -0.5020893318588682
            ]
        },
        {
            "positions": [
                -2.5895630254052042,
                -1.8791693872148012,
                0.8203246532658841,
                -0.12357592826822582,
                1.0517708127489214,
                -0.28654968720058394
            ]
        },
        {
            "positions": [
                -2.5736643700561346,
                -1.9698603883498622,
                0.8193560327537731,
                -0.12546492485282446,
                1.101606801510941,
                -0.0710100425422997
            ]
        },
        {
            "positions": [
                -2.557765714707065,
                -2.0605513894849232,
                0.8183874122416621,
                -0.12735392143742308,
                1.1514427902729603,
                0.14452960211598453
            ]
        },
        {
            "positions": [
                -2.5418670593579953,
                -2.1512423906199842,
                0.8174187917295511,
                -0.12924291802202173,
                1.20127877903498,
                0.36006924677426877
            ]
        },
        {
            "positions": [
                -2.5259684040089256,
                -2.2419333917550452,
                0.8164501712174401,
                -0.13113191460662035,
                1.2511147677969996,
                0.575608891432553
            ]
        },
        {
            "positions": [
                -2.510069748659856,
                -2.3326243928901063,
                0.8154815507053291,
                -0.133020911191219,
                1.3009507565590188,
                0.7911485360908377
            ]
        },
        {
            "positions": [
                -2.4941710933107863,
                -2.4233153940251673,
                0.8145129301932181,
                -0.13490990777581763,
                1.3507867453210385,
                1.006688180749122
            ]
        },
        {
            "positions": [
                -2.385227064611484,
                -2.3739305829169055,
                0.7082667993425582,
                -0.1610732210937996,
                1.4405198357911908,
                0.9929890169688149
            ]
        },
        {
            "positions": [
                -2.276283035912182,
                -2.3245457718086437,
                0.6020206684918983,
                -0.18723653441178156,
                1.5302529262613431,
                0.979289853188508
            ]
        },
        {
            "positions": [
                -2.16733900721288,
                -2.275160960700382,
                0.4957745376412384,
                -0.21339984772976356,
                1.6199860167314952,
                0.965590689408201
            ]
        },
        {
            "positions": [
                -2.058394978513578,
                -2.2257761495921207,
                0.3895284067905785,
                -0.2395631610477455,
                1.7097191072016475,
                0.9518915256278941
            ]
        },
        {
            "positions": [
                -1.9494509498142758,
                -2.176391338483859,
                0.2832822759399186,
                -0.2657264743657275,
                1.7994521976717999,
                0.9381923618475871
            ]
        },
        {
            "positions": [
                -1.8405069211149738,
                -2.127006527375597,
                0.1770361450892587,
                -0.29188978768370943,
                1.8891852881419522,
                0.9244931980672803
            ]
        },
        {
            "positions": [
                -1.7315628924156719,
                -2.0776217162673354,
                0.07079001423859876,
                -0.31805310100169143,
                1.9789183786121045,
                0.9107940342869733
            ]
        },
        {
            "positions": [
                -1.6226188637163697,
                -2.0282369051590736,
                -0.03545611661206116,
                -0.3442164143196734,
                2.0686514690822566,
                0.8970948705066664
            ]
        },
        {
            "positions": [
                -1.5136748350170675,
                -1.978852094050812,
                -0.1417022474627211,
                -0.37037972763765536,
                2.158384559552409,
                0.8833957067263594
            ]
        },
        {
            "positions": [
                -1.4047308063177655,
                -1.9294672829425503,
                -0.2479483783133809,
                -0.3965430409556373,
                2.2481176500225613,
                0.8696965429460525
            ]
        },
        {
            "positions": [
                -1.2957867776184633,
                -1.8800824718342886,
                -0.35419450916404105,
                -0.42270635427361936,
                2.337850740492714,
                0.8559973791657455
            ]
        },
        {
            "positions": [
                -1.1868427489191613,
                -1.830697660726027,
                -0.46044064001470075,
                -0.4488696675916013,
                2.427583830962866,
                0.8422982153854386
            ]
        },
        {
            "positions": [
                -1.077898720219859,
                -1.7813128496177653,
                -0.5666867708653609,
                -0.4750329809095833,
                2.517316921433018,
                0.8285990516051316
            ]
        },
        {
            "positions": [
                -0.9689546915205571,
                -1.7319280385095035,
                -0.6729329017160206,
                -0.5011962942275652,
                2.6070500119031705,
                0.8148998878248247
            ]
        },
        {
            "positions": [
                -0.8600106628212549,
                -1.6825432274012417,
                -0.7791790325666805,
                -0.5273596075455472,
                2.696783102373323,
                0.8012007240445177
            ]
        },
        {
            "positions": [
                -0.751066634121953,
                -1.6331584162929802,
                -0.8854251634173405,
                -0.5535229208635292,
                2.786516192843475,
                0.7875015602642108
            ]
        },
        {
            "positions": [
                -0.6421226054226508,
                -1.5837736051847184,
                -0.9916712942680004,
                -0.5796862341815112,
                2.8762492833136273,
                0.7738023964839038
            ]
        },
        {
            "positions": [
                -0.5331785767233488,
                -1.534388794076457,
                -1.0979174251186603,
                -0.6058495474994932,
                2.9659823737837794,
                0.7601032327035969
            ]
        },
        {
            "positions": [
                -0.42423454802404637,
                -1.4850039829681951,
                -1.2041635559693202,
                -0.6320128608174751,
                3.055715464253932,
                0.7464040689232899
            ]
        },
        {
            "positions": [
                -0.3152905193247446,
                -1.4356191718599334,
                -1.31040968681998,
                -0.658176174135457,
                3.1454485547240845,
                0.732704905142983
            ]
        },
        {
            "positions": [
                -0.20634649062544264,
                -1.3862343607516716,
                -1.4166558176706399,
                -0.684339487453439,
                3.2351816451942366,
                0.719005741362676
            ]
        },
        {
            "positions": [
                -0.19543516014572607,
                -1.409638772148142,
                -1.4618732627866537,
                -0.7652329830257385,
                3.102938047501752,
                0.8044071443972882
            ]
        },
        {
            "positions": [
                -0.18452382966600947,
                -1.4330431835446125,
                -1.5070907079026674,
                -0.846126478598038,
                2.9706944498092676,
                0.8898085474319003
            ]
        },
        {
            "positions": [
                -0.1736124991862929,
                -1.456447594941083,
                -1.5523081530186813,
                -0.9270199741703375,
                2.838450852116783,
                0.9752099504665125
            ]
        },
        {
            "positions": [
                -0.1627011687065763,
                -1.4798520063375533,
                -1.597525598134695,
                -1.007913469742637,
                2.7062072544242985,
                1.0606113535011246
            ]
        },
        {
            "positions": [
                -0.15178983822685974,
                -1.5032564177340237,
                -1.6427430432507089,
                -1.0888069653149366,
                2.573963656731814,
                1.1460127565357368
            ]
        },
        {
            "positions": [
                -0.14087850774714317,
                -1.5266608291304942,
                -1.6879604883667225,
                -1.1697004608872361,
                2.441720059039329,
                1.231414159570349
            ]
        },
        {
            "positions": [
                -0.12996717726742657,
                -1.5500652405269646,
                -1.7331779334827364,
                -1.2505939564595356,
                2.309476461346845,
                1.316815562604961
            ]
        },
        {
            "positions": [
                -0.11905584678771,
                -1.573469651923435,
                -1.7783953785987503,
                -1.3314874520318352,
                2.1772328636543605,
                1.4022169656395733
            ]
        },
        {
            "positions": [
                -0.10814451630799342,
                -1.5968740633199054,
                -1.823612823714764,
                -1.4123809476041347,
                2.044989265961876,
                1.4876183686741853
            ]
        },
        {
            "positions": [
                -0.09723318582827684,
                -1.620278474716376,
                -1.8688302688307776,
                -1.4932744431764342,
                1.9127456682693913,
                1.5730197717087975
            ]
        },
        {
            "positions": [
                -0.08632185534856027,
                -1.6436828861128465,
                -1.9140477139467915,
                -1.5741679387487337,
                1.7805020705769068,
                1.6584211747434097
            ]
        },
        {
            "positions": [
                -0.0754105248688437,
                -1.667087297509317,
                -1.9592651590628054,
                -1.6550614343210333,
                1.648258472884422,
                1.7438225777780219
            ]
        },
        {
            "positions": [
                -0.0644991943891271,
                -1.6904917089057874,
                -2.0044826041788193,
                -1.7359549298933328,
                1.5160148751919376,
                1.829223980812634
            ]
        },
        {
            "positions": [
                -0.05358786390941053,
                -1.7138961203022578,
                -2.0497000492948327,
                -1.8168484254656323,
                1.383771277499453,
                1.914625383847246
            ]
        },
        {
            "positions": [
                -0.042676533429693936,
                -1.7373005316987282,
                -2.0949174944108466,
                -1.8977419210379318,
                1.2515276798069686,
                2.0000267868818584
            ]
        },
        {
            "positions": [
                -0.031765202949977374,
                -1.7607049430951986,
                -2.1401349395268605,
                -1.9786354166102313,
                1.119284082114484,
                2.0854281899164704
            ]
        },
        {
            "positions": [
                -0.05108900295679093,
                -1.7584445827673858,
                -2.1682496011611176,
                -2.001385456804854,
                0.9577887830113916,
                2.2155126593730765
            ]
        },
        {
            "positions": [
                -0.07041280296360448,
                -1.7561842224395727,
                -2.1963642627953748,
                -2.024135496999477,
                0.7962934839082992,
                2.3455971288296826
            ]
        },
        {
            "positions": [
                -0.08973660297041805,
                -1.7539238621117597,
                -2.2244789244296324,
                -2.0468855371940995,
                0.6347981848052069,
                2.4756815982862888
            ]
        },
        {
            "positions": [
                -0.1090604029772316,
                -1.7516635017839468,
                -2.2525935860638895,
                -2.0696355773887225,
                0.47330288570211443,
                2.605766067742895
            ]
        },
        {
            "positions": [
                -0.12838420298404515,
                -1.749403141456134,
                -2.2807082476981466,
                -2.092385617583345,
                0.31180758659902197,
                2.735850537199501
            ]
        },
        {
            "positions": [
                -0.1477080029908587,
                -1.7471427811283209,
                -2.308822909332404,
                -2.1151356577779676,
                0.15031228749592962,
                2.865935006656107
            ]
        },
        {
            "positions": [
                -0.16703180299767226,
                -1.7448824208005078,
                -2.3369375709666613,
                -2.1378856979725906,
                -0.01118301160716273,
                2.9960194761127132
            ]
        },
        {
            "positions": [
                -0.1863556030044858,
                -1.742622060472695,
                -2.3650522326009185,
                -2.160635738167213,
                -0.17267831071025508,
                3.1261039455693194
            ]
        }
    ]
}