{
    "goal": {
        "global_pose": {
            "orientation": {
                "w": 0.7031023502349854,
                "x": -0.7110244035720825,
                "y": 0.007748599164187908,
                "z": 0.005598929710686207
            },
            "position": {
                "x": 0.11585023208521307,
                "y": 0.44412534475326537,
                "z": 0.3711530566215515
            }
        },
        "name": "move_to_auspresseinheit_A"
    },
    "id": "SPARStwo_move_to_auspresseinheit_A_3",
    "joint_names": [
        "shoulder_pan_joint",
        "shoulder_lift_joint",
        "elbow_joint",
        "wrist_1_joint",
        "wrist_2_joint",
        "wrist_3_joint"
    ],
    "metrics": {
        "cart_traj_len": 1.8264789563833739,
        "distance_elbow_joint": 1.4220512354097261,
        "distance_shoulder_lift_joint": 0.5336630992798632,
        "distance_shoulder_pan_joint": 3.1513100492869306,
        "distance_wrist_1_joint": 3.950189428371207,
        "distance_wrist_2_joint": 1.143602444760059,
        "distance_wrist_3_joint": 0.280215690294372,
        "smoothness": 0.938339843337208,
        "time": 5.015379994,
        "traj_len": 3.2374421921328813,
        "weighted_distance": 4.016871319960619
    },
    "planner": "SPARStwo",
    "start": {
        "state": {
            "elbow_joint": 2.4225746658250005,
            "shoulder_lift_joint": -1.3736534386056498,
            "shoulder_pan_joint": -0.3378633547517467,
            "wrist_1_joint": -1.0288598680537169,
            "wrist_2_joint": 1.233022673432363,
            "wrist_3_joint": -3.0940220416140027
        }
    },
    "waypoints": [
        {
            "positions": [
                -0.3378633547517467,
                -1.3736534386056498,
                2.4225746658250005,
                -1.0288598680537169,
                1.233022673432363,
                -3.0940220416140027
            ]
        },
        {
            "positions": [
                -0.413191965493157,
                -1.3912173354088253,
                2.370701052763481,
                -0.8673225956396088,
                1.1734319395401578,
                -3.1061666883847123
            ]
        },
        {
            "positions": [
                -0.48852057623456735,
                -1.4087812322120008,
                2.3188274397019617,
                -0.7057853232255007,
                1.1138412056479525,
                -3.1183113351554215
            ]
        },
        {
            "positions": [
                -0.5638491869759776,
                -1.4263451290151765,
                2.2669538266404423,
                -0.5442480508113927,
                1.0542504717557473,
                -3.130455981926131
            ]
        },
        {
            "positions": [
                -0.6391777977173879,
                -1.443909025818352,
                2.2150802135789225,
                -0.3827107783972846,
                0.994659737863542,
                -3.1426006286968406
            ]
        },
        {
            "positions": [
                -0.7145064084587982,
                -1.4614729226215275,
                2.163206600517403,
                -0.22117350598317653,
                0.9350690039713366,
                -3.1547452754675502
            ]
        },
        {
            "positions": [
                -0.7898350192002085,
                -1.479036819424703,
                2.1113329874558837,
                -0.05963623356906844,
                0.8754782700791315,
                -3.1668899222382594
            ]
        },
        {
            "positions": [
                -0.8651636299416188,
                -1.4966007162278787,
                2.0594593743943643,
                0.10190103884503965,
                0.8158875361869261,
                -3.179034569008969
            ]
        },
        {
            "positions": [
                -0.9404922406830292,
                -1.5141646130310542,
                2.007585761332845,
                0.26343831125914763,
                0.7562968022947208,
                -3.1911792157796786
            ]
        },
        {
            "positions": [
                -1.0158208514244396,
                -1.5317285098342297,
                1.9557121482713253,
                0.42497558367325583,
                0.6967060684025155,
                -3.2033238625503877
            ]
        },
        {
            "positions": [
                -1.0911494621658497,
                -1.5492924066374052,
                1.9038385352098057,
                0.5865128560873638,
                0.6371153345103102,
                -3.2154685093210973
            ]
        },
        {
            "positions": [
                -1.16647807290726,
                -1.5668563034405807,
                1.8519649221482863,
                0.748050128501472,
                0.5775246006181051,
                -3.227613156091807
            ]
        },
        {
            "positions": [
                -1.2418066836486703,
                -1.5844202002437564,
                1.800091309086767,
                0.90958740091558,
                0.5179338667258998,
                -3.2397578028625165
            ]
        },
        {
            "positions": [
                -1.3171352943900807,
                -1.601984097046932,
                1.7482176960252476,
                1.071124673329688,
                0.45834313283369443,
                -3.2519024496332256
            ]
        },
        {
            "positions": [
                -1.3924639051314909,
                -1.6195479938501074,
                1.696344082963728,
                1.232661945743796,
                0.3987523989414892,
                -3.264047096403935
            ]
        },
        {
            "positions": [
                -1.2426989409238347,
                -1.6401028898526364,
                1.7460455581457603,
                1.1120428304171035,
                0.4208475539607167,
                -3.2561763367250465
            ]
        },
        {
            "positions": [
                -1.0929339767161785,
                -1.6606577858551654,
                1.7957470333277927,
                0.9914237150904112,
                0.4429427089799442,
                -3.248305577046158
            ]
        },
        {
            "positions": [
                -0.9431690125085224,
                -1.6812126818576942,
                1.8454485085098251,
                0.8708045997637188,
                0.46503786399917174,
                -3.2404348173672695
            ]
        },
        {
            "positions": [
                -0.7934040483008661,
                -1.7017675778602233,
                1.8951499836918575,
                0.7501854844370264,
                0.4871330190183993,
                -3.232564057688381
            ]
        },
        {
            "positions": [
                -0.6436390840932098,
                -1.7223224738627523,
                1.9448514588738899,
                0.6295663691103339,
                0.5092281740376268,
                -3.2246932980094924
            ]
        },
        {
            "positions": [
                -0.49387411988555374,
                -1.7428773698652813,
                1.9945529340559223,
                0.5089472537836416,
                0.5313233290568543,
                -3.216822538330604
            ]
        },
        {
            "positions": [
                -0.34410915567789746,
                -1.7634322658678103,
                2.0442544092379547,
                0.38832813845694913,
                0.5534184840760819,
                -3.2089517786517154
            ]
        },
        {
            "positions": [
                -0.1943441914702413,
                -1.7839871618703391,
                2.0939558844199873,
                0.2677090231302568,
                0.5755136390953094,
                -3.2010810189728267
            ]
        },
        {
            "positions": [
                -0.0445792272625849,
                -1.8045420578728681,
                2.1436573596020194,
                0.14708990780356435,
                0.5976087941145369,
                -3.1932102592939384
            ]
        },
        {
            "positions": [
                0.10518573694507127,
                -1.8250969538753972,
                2.193358834784052,
                0.026470792476871896,
                0.6197039491337644,
                -3.1853394996150497
            ]
        },
        {
            "positions": [
                0.2549507011527272,
                -1.8456518498779262,
                2.243060309966084,
                -0.09414832284982055,
                0.641799104152992,
                -3.1774687399361614
            ]
        },
        {
            "positions": [
                0.4047156653603834,
                -1.866206745880455,
                2.292761785148117,
                -0.21476743817651278,
                0.6638942591722194,
                -3.1695979802572727
            ]
        },
        {
            "positions": [
                0.5544806295680398,
                -1.886761641882984,
                2.342463260330149,
                -0.33538655350320523,
                0.685989414191447,
                -3.1617272205783844
            ]
        },
        {
            "positions": [
                0.704245593775696,
                -1.907316537885513,
                2.3921647355121816,
                -0.4560056688298977,
                0.7080845692106745,
                -3.1538564608994957
            ]
        }
    ]
}