{
    "goal": {
        "global_pose": {
            "orientation": {
                "w": 0.5084816217422485,
                "x": -0.49083608388900757,
                "y": 0.5182115435600281,
                "z": -0.4816462993621826
            },
            "position": {
                "x": 0.5540239810943604,
                "y": 0.030875300988554955,
                "z": 0.16403168439865112
            }
        },
        "name": "move_to_storage_A"
    },
    "id": "SPARS_move_to_storage_A_140",
    "joint_names": [
        "shoulder_pan_joint",
        "shoulder_lift_joint",
        "elbow_joint",
        "wrist_1_joint",
        "wrist_2_joint",
        "wrist_3_joint"
    ],
    "metrics": {
        "cart_traj_len": 0.3531848716633471,
        "distance_elbow_joint": 0.45438547910724236,
        "distance_shoulder_lift_joint": 0.23405617415522895,
        "distance_shoulder_pan_joint": 0.4637526839409959,
        "distance_wrist_1_joint": 0.25948031770493707,
        "distance_wrist_2_joint": 1.091277219319185,
        "distance_wrist_3_joint": 0.10877193940456742,
        "smoothness": 4.440892098500626e-16,
        "time": 5.017709415,
        "traj_len": 1.616082861004397,
        "weighted_distance": 2.0445110000842286
    },
    "planner": "SPARS",
    "start": {
        "state": {
            "elbow_joint": 1.971548259319323,
            "shoulder_lift_joint": -1.1394851275133948,
            "shoulder_pan_joint": 0.1228115487234821,
            "wrist_1_joint": -0.7804723859257726,
            "wrist_2_joint": 0.12958671773740124,
            "wrist_3_joint": -3.192489227718131
        }
    },
    "waypoints": [
        {
            "positions": [
                0.1228115487234821,
                -1.1394851275133948,
                1.971548259319323,
                -0.7804723859257726,
                0.12958671773740124,
                -3.192489227718131
            ]
        },
        {
            "positions": [
                0.056561165303339836,
                -1.1729217238212846,
                2.0364604706203577,
                -0.8175410027407636,
                0.28548346335442765,
                -3.1769503792317644
            ]
        },
        {
            "positions": [
                -0.009689218116802428,
                -1.2063583201291745,
                2.1013726819213923,
                -0.8546096195557547,
                0.44138020897145414,
                -3.1614115307453976
            ]
        },
        {
            "positions": [
                -0.0759396015369447,
                -1.2397949164370643,
                2.166284893222427,
                -0.8916782363707456,
                0.5972769545884805,
                -3.145872682259031
            ]
        },
        {
            "positions": [
                -0.14218998495708696,
                -1.2732315127449543,
                2.2311971045234613,
                -0.9287468531857367,
                0.753173700205507,
                -3.130333833772664
            ]
        },
        {
            "positions": [
                -0.20844036837722923,
                -1.306668109052844,
                2.2961093158244963,
                -0.9658154700007276,
                0.9090704458225335,
                -3.1147949852862973
            ]
        },
        {
            "positions": [
                -0.2746907517973715,
                -1.340104705360734,
                2.361021527125531,
                -1.0028840868157187,
                1.0649671914395598,
                -3.0992561367999305
            ]
        },
        {
            "positions": [
                -0.3409411352175138,
                -1.3735413016686238,
                2.4259337384265653,
                -1.0399527036307097,
                1.2208639370565864,
                -3.0837172883135637
            ]
        }
    ]
}{
    "goal": {
        "global_pose": {
            "orientation": {
                "w": 0.5084816217422485,
                "x": -0.49083608388900757,
                "y": 0.5182115435600281,
                "z": -0.4816462993621826
            },
            "position": {
                "x": 0.5540239810943604,
                "y": 0.030875300988554955,
                "z": 0.16403168439865112
            }
        },
        "name": "move_to_storage_A"
    },
    "id": "SPARS_move_to_storage_A_140",
    "joint_names": [
        "shoulder_pan_joint",
        "shoulder_lift_joint",
        "elbow_joint",
        "wrist_1_joint",
        "wrist_2_joint",
        "wrist_3_joint"
    ],
    "metrics": {
        "cart_traj_len": 0.3540370480041681,
        "distance_elbow_joint": 0.4528959310665921,
        "distance_shoulder_lift_joint": 0.23459435442814658,
        "distance_shoulder_pan_joint": 0.46317353380674836,
        "distance_wrist_1_joint": 0.25293825195456554,
        "distance_wrist_2_joint": 1.1002606672495698,
        "distance_wrist_3_joint": 0.09307886057699655,
        "smoothness": 8.881784197001252e-16,
        "time": 5.029183989,
        "traj_len": 1.6115029007366444,
        "weighted_distance": 2.03378913347494
    },
    "planner": "SPARS",
    "start": {
        "state": {
            "elbow_joint": 1.97154746011099,
            "shoulder_lift_joint": -1.13948474672311,
            "shoulder_pan_joint": 0.12281154466712228,
            "wrist_1_joint": -0.7804688027058302,
            "wrist_2_joint": 0.12958655903071145,
            "wrist_3_joint": 3.0906928834467795
        }
    },
    "waypoints": [
        {
            "positions": [
                0.12281154466712228,
                -1.13948474672311,
                1.97154746011099,
                -0.7804688027058302,
                0.12958655903071145,
                3.0906928834467795
            ]
        },
        {
            "positions": [
                0.05664389698044395,
                -1.172998225927131,
                2.0362468788347887,
                -0.8166028386993396,
                0.2867666543520786,
                3.1039898635292076
            ]
        },
        {
            "positions": [
                -0.009523750706234388,
                -1.2065117051311518,
                2.1009462975585875,
                -0.8527368746928489,
                0.4439467496734457,
                3.1172868436116357
            ]
        },
        {
            "positions": [
                -0.07569139839291271,
                -1.2400251843351728,
                2.1656457162823863,
                -0.8888709106863583,
                0.6011268449948128,
                3.1305838236940637
            ]
        },
        {
            "positions": [
                -0.14185904607959104,
                -1.2735386635391936,
                2.2303451350061856,
                -0.9250049466798677,
                0.75830694031618,
                3.143880803776492
            ]
        },
        {
            "positions": [
                -0.20802669376626942,
                -1.3070521427432147,
                2.2950445537299844,
                -0.9611389826733769,
                0.9154870356375471,
                3.15717778385892
            ]
        },
        {
            "positions": [
                -0.2741943414529477,
                -1.3405656219472355,
                2.359743972453783,
                -0.9972730186668863,
                1.0726671309589142,
                3.170474763941348
            ]
        },
        {
            "positions": [
                -0.34036198913962606,
                -1.3740791011512565,
                2.424443391177582,
                -1.0334070546603957,
                1.2298472262802813,
                3.183771744023776
            ]
        }
    ]
}{
    "goal": {
        "global_pose": {
            "orientation": {
                "w": 0.5084816217422485,
                "x": -0.49083608388900757,
                "y": 0.5182115435600281,
                "z": -0.4816462993621826
            },
            "position": {
                "x": 0.5540239810943604,
                "y": 0.030875300988554955,
                "z": 0.16403168439865112
            }
        },
        "name": "move_to_storage_A"
    },
    "id": "SPARS_move_to_storage_A_140",
    "joint_names": [
        "shoulder_pan_joint",
        "shoulder_lift_joint",
        "elbow_joint",
        "wrist_1_joint",
        "wrist_2_joint",
        "wrist_3_joint"
    ],
    "metrics": {
        "cart_traj_len": 0.35315430629933803,
        "distance_elbow_joint": 0.44998685993249454,
        "distance_shoulder_lift_joint": 0.2367509694081642,
        "distance_shoulder_pan_joint": 0.4589279546173128,
        "distance_wrist_1_joint": 0.23905273010192007,
        "distance_wrist_2_joint": 1.1125283839394182,
        "distance_wrist_3_joint": 0.09947512595123831,
        "smoothness": 4.440892098500626e-16,
        "time": 5.023263328,
        "traj_len": 1.6114347718572253,
        "weighted_distance": 2.0364806382321348
    },
    "planner": "SPARS",
    "start": {
        "state": {
            "elbow_joint": 1.9715472970024885,
            "shoulder_lift_joint": -1.1394870060712896,
            "shoulder_pan_joint": 0.12281152778156021,
            "wrist_1_joint": -0.780463741449964,
            "wrist_2_joint": 0.12958659822042276,
            "wrist_3_joint": 3.090690232415272
        }
    },
    "waypoints": [
        {
            "positions": [
                0.12281152778156021,
                -1.1394870060712896,
                1.9715472970024885,
                -0.780463741449964,
                0.12958659822042276,
                3.090690232415272
            ]
        },
        {
            "positions": [
                0.05725039140765839,
                -1.1733085731295987,
                2.035831134135702,
                -0.814614131464524,
                0.28851922449748246,
                3.10490096469402
            ]
        },
        {
            "positions": [
                -0.008310744966243427,
                -1.207130140187908,
                2.1001149712689156,
                -0.848764521479084,
                0.4474518507745422,
                3.1191116969727686
            ]
        },
        {
            "positions": [
                -0.07387188134014525,
                -1.240951707246217,
                2.164398808402129,
                -0.882914911493644,
                0.6063844770516019,
                3.1333224292515167
            ]
        },
        {
            "positions": [
                -0.13943301771404706,
                -1.2747732743045264,
                2.2286826455353426,
                -0.917065301508204,
                0.7653171033286617,
                3.1475331615302653
            ]
        },
        {
            "positions": [
                -0.20499415408794888,
                -1.3085948413628354,
                2.292966482668556,
                -0.9512156915227641,
                0.9242497296057215,
                3.1617438938090134
            ]
        },
        {
            "positions": [
                -0.2705552904618507,
                -1.3424164084211445,
                2.3572503198017696,
                -0.9853660815373241,
                1.0831823558827811,
                3.175954626087762
            ]
        },
        {
            "positions": [
                -0.33611642683575255,
                -1.3762379754794538,
                2.421534156934983,
                -1.019516471551884,
                1.242114982159841,
                3.19016535836651
            ]
        }
    ]
}