{
    "goal": {
        "global_pose": {
            "orientation": {
                "w": -0.4816463035849501,
                "x": 0.5182115481033762,
                "y": 0.4908360881923453,
                "z": -0.5084816262002911
            },
            "position": {
                "x": -0.8240239810943604,
                "y": 0.19912469901144506,
                "z": 0.16403168439865112
            }
        },
        "name": "move_to_storage_D"
    },
    "id": "SPARStwo_move_to_storage_D_81",
    "joint_names": [
        "shoulder_pan_joint",
        "shoulder_lift_joint",
        "elbow_joint",
        "wrist_1_joint",
        "wrist_2_joint",
        "wrist_3_joint"
    ],
    "metrics": {
        "cart_traj_len": 0.7002352705125241,
        "distance_elbow_joint": 0.5541766271980544,
        "distance_shoulder_lift_joint": 0.15376208721111384,
        "distance_shoulder_pan_joint": 0.539925089019797,
        "distance_wrist_1_joint": 3.8253339234570505,
        "distance_wrist_2_joint": 2.664297050115189,
        "distance_wrist_3_joint": 3.302379241836993,
        "smoothness": 0.3627568070859099,
        "time": 5.039982237,
        "traj_len": 3.3226305871761004,
        "weighted_distance": 4.912663582628514
    },
    "planner": "SPARStwo",
    "start": {
        "state": {
            "elbow_joint": -2.384821988534728,
            "shoulder_lift_joint": -2.2788054721415256,
            "shoulder_pan_joint": -0.1854694642142757,
            "wrist_1_joint": 1.4845938289331202,
            "wrist_2_joint": 0.17898776772866878,
            "wrist_3_joint": 0.037105688729662994
        }
    },
    "waypoints": [
        {
            "positions": [
                -0.1854694642142757,
                -2.2788054721415256,
                -2.384821988534728,
                1.4845938289331202,
                0.17898776772866878,
                0.037105688729662994
            ]
        },
        {
            "positions": [
                -0.09903362513560895,
                -2.2621977899122445,
                -2.289254319627968,
                1.4578318792105112,
                0.2902667088088958,
                0.05982332438229588
            ]
        },
        {
            "positions": [
                -0.0125977860569422,
                -2.245590107682964,
                -2.193686650721208,
                1.4310699294879021,
                0.4015456498891229,
                0.08254096003492876
            ]
        },
        {
            "positions": [
                0.07383805302172455,
                -2.228982425453683,
                -2.0981189818144483,
                1.404307979765293,
                0.5128245909693498,
                0.10525859568756166
            ]
        },
        {
            "positions": [
                0.16027389210039134,
                -2.212374743224402,
                -2.0025513129076886,
                1.377546030042684,
                0.6241035320495769,
                0.12797623134019454
            ]
        },
        {
            "positions": [
                0.15250662279218613,
                -2.2088814888926427,
                -1.995675074844848,
                1.2288145850600194,
                0.5353362806178057,
                -0.00048411662886391205
            ]
        },
        {
            "positions": [
                0.14473935348398093,
                -2.205388234560883,
                -1.9887988367820073,
                1.080083140077355,
                0.44656902918603436,
                -0.12894446459792236
            ]
        },
        {
            "positions": [
                0.13697208417577572,
                -2.2018949802291234,
                -1.9819225987191669,
                0.9313516950946903,
                0.35780177775426314,
                -0.2574048125669808
            ]
        },
        {
            "positions": [
                0.12920481486757052,
                -2.1984017258973636,
                -1.9750463606563262,
                0.7826202501120257,
                0.26903452632249186,
                -0.38586516053603925
            ]
        },
        {
            "positions": [
                0.12143754555936533,
                -2.194908471565604,
                -1.9681701225934856,
                0.6338888051293612,
                0.18026727489072059,
                -0.5143255085050977
            ]
        },
        {
            "positions": [
                0.11367027625116014,
                -2.1914152172338444,
                -1.961293884530645,
                0.48515736014669664,
                0.09150002345894936,
                -0.6427858564741561
            ]
        },
        {
            "positions": [
                0.10590300694295493,
                -2.187921962902085,
                -1.9544176464678045,
                0.33642591516403186,
                0.002732772027178032,
                -0.7712462044432147
            ]
        },
        {
            "positions": [
                0.09813573763474973,
                -2.184428708570325,
                -1.9475414084049638,
                0.18769447018136742,
                -0.08603447940459319,
                -0.899706552412273
            ]
        },
        {
            "positions": [
                0.09036846832654452,
                -2.1809354542385657,
                -1.9406651703421232,
                0.03896302519870298,
                -0.1748017308363644,
                -1.0281669003813314
            ]
        },
        {
            "positions": [
                0.08260119901833932,
                -2.177442199906806,
                -1.9337889322792825,
                -0.10976841978396168,
                -0.26356898226813574,
                -1.1566272483503899
            ]
        },
        {
            "positions": [
                0.07483392971013413,
                -2.1739489455750465,
                -1.926912694216442,
                -0.25849986476662634,
                -0.35233623369990696,
                -1.2850875963194484
            ]
        },
        {
            "positions": [
                0.06706666040192892,
                -2.1704556912432866,
                -1.9200364561536014,
                -0.4072313097492908,
                -0.4411034851316782,
                -1.4135479442885068
            ]
        },
        {
            "positions": [
                0.059299391093723716,
                -2.1669624369115272,
                -1.9131602180907608,
                -0.5559627547319554,
                -0.5298707365634494,
                -1.5420082922575653
            ]
        },
        {
            "positions": [
                0.05153212178551851,
                -2.1634691825797674,
                -1.90628398002792,
                -0.7046941997146203,
                -0.6186379879952209,
                -1.6704686402266238
            ]
        },
        {
            "positions": [
                0.04376485247731332,
                -2.159975928248008,
                -1.8994077419650797,
                -0.8534256446972845,
                -0.7074052394269918,
                -1.7989289881956818
            ]
        },
        {
            "positions": [
                0.035997583169108116,
                -2.156482673916248,
                -1.892531503902239,
                -1.0021570896799492,
                -0.7961724908587633,
                -1.9273893361647407
            ]
        },
        {
            "positions": [
                0.02823031386090291,
                -2.1529894195844888,
                -1.8856552658393984,
                -1.1508885346626139,
                -0.8849397422905345,
                -2.055849684133799
            ]
        },
        {
            "positions": [
                0.020463044552697707,
                -2.149496165252729,
                -1.8787790277765577,
                -1.299619979645278,
                -0.9737069937223057,
                -2.1843100321028572
            ]
        },
        {
            "positions": [
                0.012695775244492502,
                -2.1460029109209695,
                -1.871902789713717,
                -1.4483514246279428,
                -1.062474245154077,
                -2.312770380071916
            ]
        },
        {
            "positions": [
                0.004928505936287297,
                -2.1425096565892097,
                -1.8650265516508766,
                -1.5970828696106074,
                -1.1512414965858484,
                -2.4412307280409746
            ]
        },
        {
            "positions": [
                -0.0028387633719178795,
                -2.1390164022574503,
                -1.858150313588036,
                -1.745814314593272,
                -1.2400087480176194,
                -2.5696910760100327
            ]
        },
        {
            "positions": [
                -0.010606032680123084,
                -2.1355231479256904,
                -1.8512740755251953,
                -1.8945457595759367,
                -1.3287759994493908,
                -2.698151423979091
            ]
        },
        {
            "positions": [
                -0.018373301988328317,
                -2.132029893593931,
                -1.8443978374623549,
                -2.0432772045586014,
                -1.417543250881162,
                -2.8266117719481496
            ]
        },
        {
            "positions": [
                -0.026140571296533494,
                -2.1285366392621716,
                -1.8375215993995142,
                -2.1920086495412656,
                -1.5063105023129333,
                -2.955072119917208
            ]
        },
        {
            "positions": [
                -0.03390784060473869,
                -2.125043384930412,
                -1.8306453613366735,
                -2.3407400945239303,
                -1.5950777537447047,
                -3.0835324678862666
            ]
        }
    ]
}