{
    "goal": {
        "global_pose": {
            "orientation": {
                "w": 0.005598929693374612,
                "x": 0.007748599140229565,
                "y": 0.7110244013736278,
                "z": -0.7031023480610252
            },
            "position": {
                "x": 0.1141497679147869,
                "y": -0.7141253447532654,
                "z": 0.3711530566215515
            }
        },
        "name": "move_to_auspresseinheit_B"
    },
    "id": "SPARS_move_to_auspresseinheit_B_134",
    "joint_names": [
        "shoulder_pan_joint",
        "shoulder_lift_joint",
        "elbow_joint",
        "wrist_1_joint",
        "wrist_2_joint",
        "wrist_3_joint"
    ],
    "metrics": {
        "cart_traj_len": 0.5636766966124741,
        "distance_elbow_joint": 0.05854193990061218,
        "distance_shoulder_lift_joint": 0.2956717583944488,
        "distance_shoulder_pan_joint": 0.5768648731307631,
        "distance_wrist_1_joint": 0.31555180644288405,
        "distance_wrist_2_joint": 0.9907402986945786,
        "distance_wrist_3_joint": 0.004910619921900672,
        "smoothness": 5.075305255429287e-16,
        "time": 5.010029423,
        "traj_len": 1.4974248884285273,
        "weighted_distance": 1.8863707592799597
    },
    "planner": "SPARS",
    "start": {
        "state": {
            "elbow_joint": 2.0193083361928714,
            "shoulder_lift_joint": -1.1220246554650708,
            "shoulder_pan_joint": -1.0952077554168747,
            "wrist_1_joint": -0.8559753972642168,
            "wrist_2_joint": 0.4759566250798843,
            "wrist_3_joint": -3.1240929996934557
        }
    },
    "waypoints": [
        {
            "positions": [
                -1.0952077554168747,
                -1.1220246554650708,
                2.0193083361928714,
                -0.8559753972642168,
                0.4759566250798843,
                -3.1240929996934557
            ]
        },
        {
            "positions": [
                -1.1913519009386686,
                -1.1713032818641456,
                2.009551346209436,
                -0.8033834295237361,
                0.6410800081956474,
                -3.1232745630398053
            ]
        },
        {
            "positions": [
                -1.2874960464604623,
                -1.2205819082632203,
                1.9997943562260008,
                -0.7507914617832554,
                0.8062033913114104,
                -3.1224561263861554
            ]
        },
        {
            "positions": [
                -1.383640191982256,
                -1.2698605346622953,
                1.9900373662425652,
                -0.6981994940427747,
                0.9713267744271736,
                -3.1216376897325055
            ]
        },
        {
            "positions": [
                -1.47978433750405,
                -1.31913916106137,
                1.98028037625913,
                -0.6456075263022941,
                1.1364501575429367,
                -3.120819253078855
            ]
        },
        {
            "positions": [
                -1.575928483025844,
                -1.3684177874604448,
                1.9705233862756946,
                -0.5930155585618133,
                1.3015735406587,
                -3.120000816425205
            ]
        },
        {
            "positions": [
                -1.6720726285476377,
                -1.4176964138595196,
                1.9607663962922592,
                -0.5404235908213327,
                1.466696923774463,
                -3.119182379771555
            ]
        }
    ]
}