{
    "goal": {
        "global_pose": {
            "orientation": {
                "w": 0.7047431493862688,
                "x": -0.7094548369677653,
                "y": 0.0024358444001904,
                "z": -0.0022348060817251984
            },
            "position": {
                "x": -0.39052492380142206,
                "y": 0.3671506643295288,
                "z": 0.19426114857196808
            }
        },
        "name": "move_to_magneteinheit_D"
    },
    "id": "SPARS_move_to_magneteinheit_D_65",
    "joint_names": [
        "shoulder_pan_joint",
        "shoulder_lift_joint",
        "elbow_joint",
        "wrist_1_joint",
        "wrist_2_joint",
        "wrist_3_joint"
    ],
    "metrics": {
        "cart_traj_len": 3.5364626990104364,
        "distance_elbow_joint": 3.4074157593826913,
        "distance_shoulder_lift_joint": 1.9757565441862583,
        "distance_shoulder_pan_joint": 3.254169590955927,
        "distance_wrist_1_joint": 5.7563049717040435,
        "distance_wrist_2_joint": 3.0624100546112265,
        "distance_wrist_3_joint": 6.664546371661371,
        "smoothness": 0.18888607585013234,
        "time": 5.046572522,
        "traj_len": 4.911273082664161,
        "weighted_distance": 6.802088727893772
    },
    "planner": "SPARS",
    "start": {
        "state": {
            "elbow_joint": 0.749534889911806,
            "shoulder_lift_joint": -0.6476975780787326,
            "shoulder_pan_joint": -2.711696901376241,
            "wrist_1_joint": -0.07506478083263063,
            "wrist_2_joint": 0.43296659715538205,
            "wrist_3_joint": -3.14703540197715
        }
    },
    "waypoints": [
        {
            "positions": [
                -2.711696901376241,
                -0.6476975780787326,
                0.749534889911806,
                -0.07506478083263063,
                0.43296659715538205,
                -3.14703540197715
            ]
        },
        {
            "positions": [
                -2.7113131605584417,
                -0.6283453771578406,
                0.6858594637982677,
                0.006763685246191586,
                0.39062431572265516,
                -2.9738827727240524
            ]
        },
        {
            "positions": [
                -2.710929419740643,
                -0.6089931762369485,
                0.6221840376847294,
                0.0885921513250138,
                0.3482820342899283,
                -2.8007301434709544
            ]
        },
        {
            "positions": [
                -2.7105456789228435,
                -0.5896409753160563,
                0.5585086115711912,
                0.17042061740383604,
                0.30593975285720143,
                -2.6275775142178563
            ]
        },
        {
            "positions": [
                -2.7101619381050446,
                -0.5702887743951642,
                0.494833185457653,
                0.25224908348265823,
                0.26359747142447454,
                -2.4544248849647587
            ]
        },
        {
            "positions": [
                -2.7097781972872452,
                -0.5509365734742722,
                0.43115775934411477,
                0.3340775495614805,
                0.22125518999174767,
                -2.281272255711661
            ]
        },
        {
            "positions": [
                -2.7093944564694463,
                -0.5315843725533801,
                0.3674823332305765,
                0.4159060156403027,
                0.1789129085590208,
                -2.108119626458563
            ]
        },
        {
            "positions": [
                -2.709010715651647,
                -0.512232171632488,
                0.3038069071170383,
                0.4977344817191249,
                0.13657062712629392,
                -1.9349669972054653
            ]
        },
        {
            "positions": [
                -2.708626974833848,
                -0.49287997071159584,
                0.2401314810035,
                0.5795629477979471,
                0.09422834569356708,
                -1.7618143679523675
            ]
        },
        {
            "positions": [
                -2.7082432340160487,
                -0.47352776979070377,
                0.17645605488996174,
                0.6613914138767694,
                0.05188606426084019,
                -1.5886617386992696
            ]
        },
        {
            "positions": [
                -2.70785949319825,
                -0.4541755688698117,
                0.11278062877642359,
                0.7432198799555916,
                0.0095437828281133,
                -1.4155091094461718
            ]
        },
        {
            "positions": [
                -2.7074757523804505,
                -0.4348233679489195,
                0.049105202662885206,
                0.8250483460344138,
                -0.03279849860461359,
                -1.2423564801930738
            ]
        },
        {
            "positions": [
                -2.7070920115626516,
                -0.41547116702802744,
                -0.014570223450652953,
                0.906876812113236,
                -0.07514078003734043,
                -1.0692038509399762
            ]
        },
        {
            "positions": [
                -2.706708270744852,
                -0.3961189661071354,
                -0.07824564956419122,
                0.9887052781920584,
                -0.11748306147006732,
                -0.8960512216868781
            ]
        },
        {
            "positions": [
                -2.7063245299270533,
                -0.3767667651862433,
                -0.14192107567772938,
                1.0705337442708804,
                -0.1598253429027942,
                -0.7228985924337805
            ]
        },
        {
            "positions": [
                -2.705940789109254,
                -0.3574145642653512,
                -0.20559650179126776,
                1.1523622103497029,
                -0.2021676243355211,
                -0.5497459631806825
            ]
        },
        {
            "positions": [
                -2.705557048291455,
                -0.3380623633444591,
                -0.2692719279048059,
                1.2341906764285249,
                -0.24450990576824788,
                -0.3765933339275849
            ]
        },
        {
            "positions": [
                -2.7051733074736557,
                -0.318710162423567,
                -0.3329473540183443,
                1.3160191425073473,
                -0.2868521872009749,
                -0.20344070467448683
            ]
        },
        {
            "positions": [
                -2.704789566655857,
                -0.2993579615026749,
                -0.39662278013188246,
                1.3978476085861693,
                -0.32919446863370166,
                -0.030288075421389227
            ]
        },
        {
            "positions": [
                -2.7044058258380574,
                -0.2800057605817828,
                -0.4602982062454206,
                1.4796760746649917,
                -0.37153675006642856,
                0.14286455383170882
            ]
        },
        {
            "positions": [
                -2.7040220850202585,
                -0.2606535596608907,
                -0.5239736323589588,
                1.561504540743814,
                -0.41387903149915545,
                0.3160171830848064
            ]
        },
        {
            "positions": [
                -2.703638344202459,
                -0.24130135873999856,
                -0.5876490584724972,
                1.6433330068226362,
                -0.4562213129318823,
                0.4891698123379046
            ]
        },
        {
            "positions": [
                -2.6695488738877686,
                -0.23020262186230855,
                -0.6549806856895026,
                1.679087858672838,
                -0.46453681598004,
                0.6115500919309694
            ]
        },
        {
            "positions": [
                -2.6354594035730785,
                -0.21910388498461855,
                -0.7223123129065081,
                1.71484271052304,
                -0.47285231902819763,
                0.7339303715240344
            ]
        },
        {
            "positions": [
                -2.601369933258388,
                -0.20800514810692855,
                -0.7896439401235136,
                1.7505975623732417,
                -0.48116782207635533,
                0.8563106511170993
            ]
        },
        {
            "positions": [
                -2.481177927135296,
                -0.2219016627465629,
                -0.8626841706876195,
                1.6591160945685726,
                -0.40273887373685163,
                0.8439780832543248
            ]
        },
        {
            "positions": [
                -2.3609859210122033,
                -0.23579817738619727,
                -0.9357244012517255,
                1.5676346267639032,
                -0.32430992539734793,
                0.8316455153915503
            ]
        },
        {
            "positions": [
                -2.240793914889111,
                -0.2496946920258316,
                -1.0087646318158314,
                1.4761531589592338,
                -0.24588097705784417,
                0.8193129475287757
            ]
        },
        {
            "positions": [
                -2.1206019087660186,
                -0.263591206665466,
                -1.0818048623799374,
                1.3846716911545647,
                -0.16745202871834047,
                0.8069803796660012
            ]
        },
        {
            "positions": [
                -2.0004099026429265,
                -0.27748772130510035,
                -1.1548450929440432,
                1.2931902233498955,
                -0.08902308037883677,
                0.7946478118032267
            ]
        },
        {
            "positions": [
                -1.8802178965198342,
                -0.2913842359447347,
                -1.2278853235081493,
                1.2017087555452262,
                -0.010594132039333015,
                0.7823152439404523
            ]
        },
        {
            "positions": [
                -1.7600258903967418,
                -0.30528075058436904,
                -1.300925554072255,
                1.1102272877405568,
                0.06783481630017063,
                0.7699826760776778
            ]
        },
        {
            "positions": [
                -1.6398338842736497,
                -0.3191772652240034,
                -1.3739657846363613,
                1.0187458199358876,
                0.1462637646396744,
                0.7576501082149032
            ]
        },
        {
            "positions": [
                -1.5196418781505574,
                -0.33307377986363773,
                -1.4470060152004671,
                0.9272643521312185,
                0.22469271297917803,
                0.7453175403521287
            ]
        },
        {
            "positions": [
                -1.399449872027465,
                -0.3469702945032721,
                -1.520046245764573,
                0.8357828843265492,
                0.3031216613186818,
                0.7329849724893542
            ]
        },
        {
            "positions": [
                -1.279257865904373,
                -0.3608668091429065,
                -1.593086476328679,
                0.74430141652188,
                0.38155060965818544,
                0.7206524046265798
            ]
        },
        {
            "positions": [
                -1.1590658597812804,
                -0.37476332378254085,
                -1.666126706892785,
                0.6528199487172106,
                0.4599795579976893,
                0.7083198367638053
            ]
        },
        {
            "positions": [
                -1.038873853658188,
                -0.3886598384221752,
                -1.739166937456891,
                0.5613384809125415,
                0.5384085063371931,
                0.6959872689010307
            ]
        },
        {
            "positions": [
                -0.918681847535096,
                -0.4025563530618096,
                -1.8122071680209968,
                0.4698570131078721,
                0.6168374546766966,
                0.6836547010382562
            ]
        },
        {
            "positions": [
                -0.7984898414120035,
                -0.4164528677014439,
                -1.8852473985851028,
                0.37837554530320294,
                0.6952664030162004,
                0.6713221331754817
            ]
        },
        {
            "positions": [
                -0.7286469265004669,
                -0.4672488680207942,
                -1.929914105655731,
                0.2531197763129154,
                0.6988158783134683,
                0.746144808256139
            ]
        },
        {
            "positions": [
                -0.6588040115889302,
                -0.5180448683401444,
                -1.974580812726359,
                0.12786400732262787,
                0.7023653536107363,
                0.8209674833367965
            ]
        },
        {
            "positions": [
                -0.5889610966773936,
                -0.5688408686594948,
                -2.0192475197969872,
                0.002608238332340307,
                0.7059148289080042,
                0.8957901584174539
            ]
        },
        {
            "positions": [
                -0.519118181765857,
                -0.619636868978845,
                -2.0639142268676154,
                -0.1226475306579472,
                0.7094643042052721,
                0.9706128334981112
            ]
        },
        {
            "positions": [
                -0.44927526685432034,
                -0.6704328692981953,
                -2.1085809339382435,
                -0.24790329964823477,
                0.7130137795025401,
                1.0454355085787688
            ]
        },
        {
            "positions": [
                -0.37943235194278374,
                -0.7212288696175455,
                -2.1532476410088712,
                -0.37315906863852233,
                0.716563254799808,
                1.120258183659426
            ]
        },
        {
            "positions": [
                -0.3095894370312471,
                -0.7720248699368959,
                -2.1979143480794994,
                -0.4984148376288099,
                0.720112730097076,
                1.1950808587400834
            ]
        },
        {
            "positions": [
                -0.23974652211971048,
                -0.8228208702562461,
                -2.2425810551501275,
                -0.6236706066190973,
                0.7236622053943439,
                1.2699035338207407
            ]
        },
        {
            "positions": [
                -0.16990360720817377,
                -0.8736168705755964,
                -2.2872477622207557,
                -0.7489263756093851,
                0.7272116806916118,
                1.3447262089013983
            ]
        },
        {
            "positions": [
                -0.10006069229663717,
                -0.9244128708949466,
                -2.331914469291384,
                -0.8741821445996725,
                0.7307611559888798,
                1.4195488839820556
            ]
        },
        {
            "positions": [
                -0.030217777385100564,
                -0.975208871214297,
                -2.376581176362012,
                -0.99943791358996,
                0.7343106312861477,
                1.494371559062713
            ]
        },
        {
            "positions": [
                0.03962513752643604,
                -1.0260048715336472,
                -2.42124788343264,
                -1.1246936825802476,
                0.7378601065834156,
                1.5691942341433702
            ]
        },
        {
            "positions": [
                0.10946805243797275,
                -1.0768008718529976,
                -2.4659145905032682,
                -1.2499494515705352,
                0.7414095818806836,
                1.6440169092240278
            ]
        },
        {
            "positions": [
                0.1793109673495093,
                -1.1275968721723477,
                -2.5105812975738964,
                -1.3752052205608227,
                0.7449590571779515,
                1.718839584304685
            ]
        },
        {
            "positions": [
                0.14629626532858409,
                -1.1836398167313509,
                -2.497190427401443,
                -1.4483724792484687,
                0.661127352075662,
                1.8487208888043491
            ]
        },
        {
            "positions": [
                0.11328156330765884,
                -1.239682761290354,
                -2.4837995572289895,
                -1.5215397379361146,
                0.5772956469733723,
                1.9786021933040132
            ]
        },
        {
            "positions": [
                0.08026686128673362,
                -1.2957257058493572,
                -2.470408687056536,
                -1.5947069966237606,
                0.4934639418710828,
                2.108483497803677
            ]
        },
        {
            "positions": [
                0.04725215926580839,
                -1.3517686504083604,
                -2.4570178168840826,
                -1.6678742553114065,
                0.4096322367687931,
                2.2383648023033413
            ]
        },
        {
            "positions": [
                0.01423745724488315,
                -1.4078115949673635,
                -2.443626946711629,
                -1.7410415139990523,
                0.3258005316665036,
                2.368246106803005
            ]
        },
        {
            "positions": [
                -0.018777244776042062,
                -1.4638545395263667,
                -2.4302360765391753,
                -1.8142087726866982,
                0.24196882656421403,
                2.4981274113026695
            ]
        },
        {
            "positions": [
                -0.0517919467969673,
                -1.5198974840853698,
                -2.416845206366722,
                -1.8873760313743442,
                0.15813712146192438,
                2.6280087158023333
            ]
        },
        {
            "positions": [
                -0.08480664881789252,
                -1.575940428644373,
                -2.4034543361942684,
                -1.9605432900619904,
                0.07430541635963472,
                2.757890020301997
            ]
        },
        {
            "positions": [
                -0.11782135083881778,
                -1.6319833732033762,
                -2.390063466021815,
                -2.033710548749636,
                -0.009526288742654931,
                2.887771324801662
            ]
        },
        {
            "positions": [
                -0.150836052859743,
                -1.6880263177623793,
                -2.3766725958493615,
                -2.1068778074372823,
                -0.09335799384494436,
                3.0176526293013257
            ]
        },
        {
            "positions": [
                -0.18385075488066818,
                -1.7440692623213825,
                -2.363281725676908,
                -2.180045066124928,
                -0.17718969894723396,
                3.1475339338009896
            ]
        }
    ]
}