{
    "goal": {
        "global_pose": {
            "orientation": {
                "w": -0.4816463035849501,
                "x": 0.5182115481033762,
                "y": 0.4908360881923453,
                "z": -0.5084816262002911
            },
            "position": {
                "x": -0.8240239810943604,
                "y": -0.300875300988555,
                "z": 0.16403168439865112
            }
        },
        "name": "move_to_storage_C"
    },
    "id": "SPARS_move_to_storage_C_114",
    "joint_names": [
        "shoulder_pan_joint",
        "shoulder_lift_joint",
        "elbow_joint",
        "wrist_1_joint",
        "wrist_2_joint",
        "wrist_3_joint"
    ],
    "metrics": {
        "cart_traj_len": 0.5763235187971327,
        "distance_elbow_joint": 0.2601058827307414,
        "distance_shoulder_lift_joint": 0.18906378000260093,
        "distance_shoulder_pan_joint": 0.49517977429234916,
        "distance_wrist_1_joint": 0.08673692400780186,
        "distance_wrist_2_joint": 1.059733908056418,
        "distance_wrist_3_joint": 0.06821208612891416,
        "smoothness": 2.5376526478085547e-16,
        "time": 5.012896089,
        "traj_len": 1.4693646093529087,
        "weighted_distance": 1.855243207652537
    },
    "planner": "SPARS",
    "start": {
        "state": {
            "elbow_joint": 2.010868314990456,
            "shoulder_lift_joint": -1.1634956873337592,
            "shoulder_pan_joint": -2.4736205022346125,
            "wrist_1_joint": -0.8367026794202681,
            "wrist_2_joint": 0.6746043897044499,
            "wrist_3_joint": -3.1496632123970403
        }
    },
    "waypoints": [
        {
            "positions": [
                -2.4736205022346125,
                -1.1634956873337592,
                2.010868314990456,
                -0.8367026794202681,
                0.6746043897044499,
                -3.1496632123970403
            ]
        },
        {
            "positions": [
                -2.5561504646166706,
                -1.1319850573333257,
                1.9675173345353323,
                -0.8222465254189678,
                0.8512267077138529,
                -3.1382945313755544
            ]
        },
        {
            "positions": [
                -2.6386804269987287,
                -1.1004744273328921,
                1.9241663540802088,
                -0.8077903714176675,
                1.027849025723256,
                -3.126925850354069
            ]
        },
        {
            "positions": [
                -2.7212103893807873,
                -1.0689637973324588,
                1.8808153736250852,
                -0.7933342174163671,
                1.204471343732659,
                -3.1155571693325834
            ]
        },
        {
            "positions": [
                -2.8037403517628454,
                -1.0374531673320253,
                1.8374643931699615,
                -0.7788780634150668,
                1.381093661742062,
                -3.1041884883110975
            ]
        },
        {
            "positions": [
                -2.8862703141449035,
                -1.0059425373315918,
                1.794113412714838,
                -0.7644219094137665,
                1.557715979751465,
                -3.0928198072896116
            ]
        },
        {
            "positions": [
                -2.9688002765269617,
                -0.9744319073311583,
                1.7507624322597144,
                -0.7499657554124662,
                1.7343382977608681,
                -3.081451126268126
            ]
        }
    ]
}