{
    "goal": {
        "global_pose": {
            "orientation": {
                "w": 0.5084816262002911,
                "x": -0.4908360881923452,
                "y": 0.5182115481033761,
                "z": -0.48164630358495003
            },
            "position": {
                "x": 0.5540239810943604,
                "y": -0.46912469901144505,
                "z": 0.16403168439865112
            }
        },
        "name": "move_to_storage_B"
    },
    "id": "SPARStwo_move_to_storage_B_27",
    "joint_names": [
        "shoulder_pan_joint",
        "shoulder_lift_joint",
        "elbow_joint",
        "wrist_1_joint",
        "wrist_2_joint",
        "wrist_3_joint"
    ],
    "metrics": {
        "cart_traj_len": 1.330109142895357,
        "distance_elbow_joint": 0.3938763287398146,
        "distance_shoulder_lift_joint": 0.732039671312831,
        "distance_shoulder_pan_joint": 0.8810446357368099,
        "distance_wrist_1_joint": 2.983926102008615,
        "distance_wrist_2_joint": 2.7067984500096074,
        "distance_wrist_3_joint": 3.253817588467428,
        "smoothness": 0.09921978541382429,
        "time": 5.014775265,
        "traj_len": 3.3093054824653323,
        "weighted_distance": 4.811430401162235
    },
    "planner": "SPARStwo",
    "start": {
        "state": {
            "elbow_joint": 1.664937868594044,
            "shoulder_lift_joint": -0.661644460510453,
            "shoulder_pan_joint": -0.9139846352900073,
            "wrist_1_joint": 2.146753192139373,
            "wrist_2_joint": -2.2341966793290973,
            "wrist_3_joint": 0.005466555786416001
        }
    },
    "waypoints": [
        {
            "positions": [
                -0.9139846352900073,
                -0.661644460510453,
                1.664937868594044,
                2.146753192139373,
                -2.2341966793290973,
                0.005466555786416001
            ]
        },
        {
            "positions": [
                -0.8293622886549904,
                -0.7313201905500186,
                1.659532554546568,
                2.102531953820888,
                -2.14832149625736,
                -0.009964777467806694
            ]
        },
        {
            "positions": [
                -0.7447399420199734,
                -0.8009959205895844,
                1.654127240499092,
                2.0583107155024027,
                -2.0624463131856223,
                -0.02539611072202939
            ]
        },
        {
            "positions": [
                -0.6601175953849565,
                -0.8706716506291501,
                1.6487219264516162,
                2.0140894771839175,
                -1.9765711301138846,
                -0.040827443976252084
            ]
        },
        {
            "positions": [
                -0.5754952487499396,
                -0.9403473806687157,
                1.6433166124041403,
                1.9698682388654325,
                -1.8906959470421472,
                -0.05625877723047478
            ]
        },
        {
            "positions": [
                -0.5746214187181334,
                -0.96471594812232,
                1.6564429312063336,
                1.849713270274236,
                -1.7774148864823802,
                0.06400355769318039
            ]
        },
        {
            "positions": [
                -0.5737475886863272,
                -0.9890845155759243,
                1.6695692500085266,
                1.7295583016830396,
                -1.664133825922613,
                0.18426589261683557
            ]
        },
        {
            "positions": [
                -0.572873758654521,
                -1.0134530830295285,
                1.68269556881072,
                1.6094033330918434,
                -1.5508527653628459,
                0.30452822754049075
            ]
        },
        {
            "positions": [
                -0.5719999286227148,
                -1.0378216504831328,
                1.695821887612913,
                1.489248364500647,
                -1.437571704803079,
                0.4247905624641459
            ]
        },
        {
            "positions": [
                -0.5711260985909086,
                -1.062190217936737,
                1.7089482064151063,
                1.3690933959094505,
                -1.324290644243312,
                0.5450528973878012
            ]
        },
        {
            "positions": [
                -0.5702522685591024,
                -1.0865587853903413,
                1.7220745252172993,
                1.248938427318254,
                -1.2110095836835448,
                0.6653152323114563
            ]
        },
        {
            "positions": [
                -0.5693784385272961,
                -1.1109273528439454,
                1.7352008440194926,
                1.1287834587270578,
                -1.0977285231237779,
                0.7855775672351114
            ]
        },
        {
            "positions": [
                -0.5685046084954899,
                -1.1352959202975497,
                1.7483271628216857,
                1.008628490135861,
                -0.9844474625640107,
                0.9058399021587666
            ]
        },
        {
            "positions": [
                -0.5676307784636837,
                -1.159664487751154,
                1.761453481623879,
                0.8884735215446649,
                -0.8711664020042438,
                1.0261022370824218
            ]
        },
        {
            "positions": [
                -0.5667569484318775,
                -1.1840330552047582,
                1.774579800426072,
                0.7683185529534684,
                -0.7578853414444766,
                1.146364572006077
            ]
        },
        {
            "positions": [
                -0.5658831184000712,
                -1.2084016226583625,
                1.7877061192282653,
                0.6481635843622722,
                -0.6446042808847097,
                1.266626906929732
            ]
        },
        {
            "positions": [
                -0.565009288368265,
                -1.2327701901119668,
                1.8008324380304583,
                0.5280086157710755,
                -0.5313232203249425,
                1.3868892418533874
            ]
        },
        {
            "positions": [
                -0.5641354583364588,
                -1.257138757565571,
                1.8139587568326516,
                0.40785364717987926,
                -0.41804215976517556,
                1.5071515767770425
            ]
        },
        {
            "positions": [
                -0.6084017465683973,
                -1.2457599763774283,
                1.8307598341761016,
                0.3041014340924526,
                -0.343821832228035,
                1.6428750685639608
            ]
        },
        {
            "positions": [
                -0.6526680348003358,
                -1.2343811951892856,
                1.8475609115195515,
                0.2003492210050259,
                -0.2696015046908944,
                1.7785985603508792
            ]
        },
        {
            "positions": [
                -0.6969343230322742,
                -1.2230024140011428,
                1.8643619888630014,
                0.09659700791759918,
                -0.19538117715375383,
                1.9143220521377975
            ]
        },
        {
            "positions": [
                -0.7412006112642127,
                -1.2116236328130001,
                1.8811630662064516,
                -0.007155205169827483,
                -0.12116084961661328,
                2.050045543924716
            ]
        },
        {
            "positions": [
                -0.7854668994961511,
                -1.2002448516248574,
                1.8979641435499015,
                -0.11090741825725425,
                -0.04694052207947269,
                2.185769035711634
            ]
        },
        {
            "positions": [
                -0.8297331877280896,
                -1.1888660704367147,
                1.9147652208933514,
                -0.2146596313446809,
                0.027279805457667894,
                2.3214925274985525
            ]
        },
        {
            "positions": [
                -0.873999475960028,
                -1.1774872892485717,
                1.9315662982368014,
                -0.3184118444321077,
                0.10150013299480853,
                2.457216019285471
            ]
        },
        {
            "positions": [
                -0.9182657641919665,
                -1.166108508060429,
                1.9483673755802513,
                -0.42216405751953423,
                0.175720460531949,
                2.5929395110723887
            ]
        },
        {
            "positions": [
                -0.9625320524239049,
                -1.1547297268722863,
                1.9651684529237015,
                -0.525916270606961,
                0.2499407880690896,
                2.728663002859307
            ]
        },
        {
            "positions": [
                -1.0067983406558434,
                -1.1433509456841435,
                1.9819695302671514,
                -0.6296684836943878,
                0.3241611156062302,
                2.864386494646226
            ]
        },
        {
            "positions": [
                -1.0510646288877818,
                -1.1319721644960008,
                1.9987706076106013,
                -0.7334206967818144,
                0.39838144314337076,
                3.0001099864331437
            ]
        },
        {
            "positions": [
                -1.0953309171197203,
                -1.120593383307858,
                2.0155716849540513,
                -0.8371729098692411,
                0.47260177068051135,
                3.135833478220062
            ]
        }
    ]
}{
    "goal": {
        "global_pose": {
            "orientation": {
                "w": 0.5084816262002911,
                "x": -0.4908360881923452,
                "y": 0.5182115481033761,
                "z": -0.48164630358495003
            },
            "position": {
                "x": 0.5540239810943604,
                "y": -0.46912469901144505,
                "z": 0.16403168439865112
            }
        },
        "name": "move_to_storage_B"
    },
    "id": "SPARStwo_move_to_storage_B_27",
    "joint_names": [
        "shoulder_pan_joint",
        "shoulder_lift_joint",
        "elbow_joint",
        "wrist_1_joint",
        "wrist_2_joint",
        "wrist_3_joint"
    ],
    "metrics": {
        "cart_traj_len": 1.0121594892978354,
        "distance_elbow_joint": 0.9876736086698896,
        "distance_shoulder_lift_joint": 0.7663814585102057,
        "distance_shoulder_pan_joint": 0.2743751095639373,
        "distance_wrist_1_joint": 4.180632314526073,
        "distance_wrist_2_joint": 3.000136047236068,
        "distance_wrist_3_joint": 3.1499563963468975,
        "smoothness": 0.42447766915994084,
        "time": 5.028544856,
        "traj_len": 3.5155589790036337,
        "weighted_distance": 5.083289888380261
    },
    "planner": "SPARStwo",
    "start": {
        "state": {
            "elbow_joint": 1.664933442143537,
            "shoulder_lift_joint": -0.6616394447335833,
            "shoulder_pan_joint": -0.9139842036674819,
            "wrist_1_joint": 2.1467570250598067,
            "wrist_2_joint": -2.234195602830096,
            "wrist_3_joint": 0.005471150212293033
        }
    },
    "waypoints": [
        {
            "positions": [
                -0.9139842036674819,
                -0.6616394447335833,
                1.664933442143537,
                2.1467570250598067,
                -2.234195602830096,
                0.005471150212293033
            ]
        },
        {
            "positions": [
                -0.9061142024412564,
                -0.7639084441442114,
                1.7770304639005858,
                2.24362051669917,
                -2.2580009841098594,
                0.00889798890158328
            ]
        },
        {
            "positions": [
                -0.8982442012150309,
                -0.8661774435548397,
                1.889127485657635,
                2.3404840083385334,
                -2.281806365389622,
                0.012324827590873524
            ]
        },
        {
            "positions": [
                -0.8903741999888055,
                -0.968446442965468,
                2.001224507414684,
                2.4373474999778963,
                -2.305611746669385,
                0.01575166628016377
            ]
        },
        {
            "positions": [
                -0.88250419876258,
                -1.070715442376096,
                2.113321529171733,
                2.5342109916172597,
                -2.329417127949148,
                0.019178504969454016
            ]
        },
        {
            "positions": [
                -0.8746341975363545,
                -1.1729844417867246,
                2.225418550928782,
                2.631074483256623,
                -2.353222509228911,
                0.02260534365874426
            ]
        },
        {
            "positions": [
                -0.866764196310129,
                -1.2752534411973526,
                2.337515572685831,
                2.7279379748959864,
                -2.377027890508674,
                0.026032182348034505
            ]
        },
        {
            "positions": [
                -0.8755009310103823,
                -1.269377769580182,
                2.3253966696809236,
                2.589497537792529,
                -2.267131592064155,
                -0.09432917781393305
            ]
        },
        {
            "positions": [
                -0.8842376657106356,
                -1.2635020979630114,
                2.313277766676016,
                2.451057100689072,
                -2.157235293619636,
                -0.2146905379759006
            ]
        },
        {
            "positions": [
                -0.8929744004108887,
                -1.2576264263458408,
                2.3011588636711084,
                2.3126166635856142,
                -2.0473389951751173,
                -0.3350518981378681
            ]
        },
        {
            "positions": [
                -0.901711135111142,
                -1.2517507547286701,
                2.289039960666201,
                2.1741762264821567,
                -1.9374426967305984,
                -0.4554132582998357
            ]
        },
        {
            "positions": [
                -0.9104478698113952,
                -1.2458750831114995,
                2.2769210576612933,
                2.0357357893786996,
                -1.8275463982860796,
                -0.5757746184618032
            ]
        },
        {
            "positions": [
                -0.9191846045116485,
                -1.239999411494329,
                2.264802154656386,
                1.897295352275242,
                -1.7176500998415607,
                -0.6961359786237707
            ]
        },
        {
            "positions": [
                -0.9279213392119018,
                -1.2341237398771583,
                2.2526832516514785,
                1.7588549151717847,
                -1.6077538013970418,
                -0.8164973387857383
            ]
        },
        {
            "positions": [
                -0.936658073912155,
                -1.2282480682599877,
                2.2405643486465707,
                1.6204144780683272,
                -1.497857502952523,
                -0.9368586989477059
            ]
        },
        {
            "positions": [
                -0.9453948086124082,
                -1.222372396642817,
                2.2284454456416634,
                1.4819740409648698,
                -1.3879612045080043,
                -1.0572200591096734
            ]
        },
        {
            "positions": [
                -0.9541315433126615,
                -1.2164967250256464,
                2.216326542636756,
                1.3435336038614125,
                -1.2780649060634852,
                -1.177581419271641
            ]
        },
        {
            "positions": [
                -0.9628682780129147,
                -1.2106210534084758,
                2.204207639631848,
                1.2050931667579552,
                -1.1681686076189666,
                -1.2979427794336085
            ]
        },
        {
            "positions": [
                -0.971605012713168,
                -1.2047453817913052,
                2.192088736626941,
                1.0666527296544976,
                -1.0582723091744477,
                -1.418304139595576
            ]
        },
        {
            "positions": [
                -0.9803417474134213,
                -1.1988697101741344,
                2.1799698336220334,
                0.9282122925510403,
                -0.9483760107299288,
                -1.5386654997575435
            ]
        },
        {
            "positions": [
                -0.9890784821136744,
                -1.192994038556964,
                2.1678509306171256,
                0.789771855447583,
                -0.83847971228541,
                -1.659026859919511
            ]
        },
        {
            "positions": [
                -0.9978152168139277,
                -1.1871183669397931,
                2.1557320276122183,
                0.6513314183441259,
                -0.7285834138408913,
                -1.7793882200814783
            ]
        },
        {
            "positions": [
                -1.006551951514181,
                -1.1812426953226225,
                2.1436131246073105,
                0.5128909812406679,
                -0.6186871153963722,
                -1.8997495802434463
            ]
        },
        {
            "positions": [
                -1.0152886862144341,
                -1.1753670237054519,
                2.131494221602403,
                0.3744505441372108,
                -0.5087908169518534,
                -2.020110940405414
            ]
        },
        {
            "positions": [
                -1.0240254209146875,
                -1.1694913520882813,
                2.1193753185974957,
                0.23601010703375325,
                -0.3988945185073347,
                -2.1404723005673816
            ]
        },
        {
            "positions": [
                -1.0327621556149407,
                -1.1636156804711106,
                2.107256415592588,
                0.09756966993029614,
                -0.28899822006281584,
                -2.2608336607293484
            ]
        },
        {
            "positions": [
                -1.041498890315194,
                -1.15774000885394,
                2.0951375125876806,
                -0.040870767173161404,
                -0.17910192161829652,
                -2.381195020891316
            ]
        },
        {
            "positions": [
                -1.0502356250154472,
                -1.1518643372367694,
                2.083018609582773,
                -0.17931120427661895,
                -0.0692056231737781,
                -2.501556381053284
            ]
        },
        {
            "positions": [
                -1.0589723597157004,
                -1.1459886656195988,
                2.0708997065778654,
                -0.31775164138007606,
                0.04069067527074077,
                -2.6219177412152517
            ]
        },
        {
            "positions": [
                -1.0677090944159537,
                -1.1401129940024282,
                2.058780803572958,
                -0.4561920784835336,
                0.15058697371525964,
                -2.7422791013772185
            ]
        },
        {
            "positions": [
                -1.076445829116207,
                -1.1342373223852575,
                2.0466619005680506,
                -0.5946325155869912,
                0.2604832721597785,
                -2.8626404615391863
            ]
        },
        {
            "positions": [
                -1.0851825638164603,
                -1.128361650768087,
                2.034542997563143,
                -0.7330729526904487,
                0.3703795706042974,
                -2.983001821701154
            ]
        },
        {
            "positions": [
                -1.0939192985167134,
                -1.1224859791509163,
                2.0224240945582355,
                -0.8715133897939059,
                0.4802758690488162,
                -3.1033631818631213
            ]
        }
    ]
}