{
    "goal": {
        "global_pose": {
            "orientation": {
                "w": 0.5084816217422485,
                "x": -0.49083608388900757,
                "y": 0.5182115435600281,
                "z": -0.4816462993621826
            },
            "position": {
                "x": 0.5540239810943604,
                "y": 0.030875300988554955,
                "z": 0.16403168439865112
            }
        },
        "name": "move_to_storage_A"
    },
    "id": "SPARS_move_to_storage_A_84",
    "joint_names": [
        "shoulder_pan_joint",
        "shoulder_lift_joint",
        "elbow_joint",
        "wrist_1_joint",
        "wrist_2_joint",
        "wrist_3_joint"
    ],
    "metrics": {
        "cart_traj_len": 0.35292989873396363,
        "distance_elbow_joint": 0.44859535433382747,
        "distance_shoulder_lift_joint": 0.2368715348865289,
        "distance_shoulder_pan_joint": 0.4593140155945535,
        "distance_wrist_1_joint": 0.23247625220829293,
        "distance_wrist_2_joint": 1.109154187857445,
        "distance_wrist_3_joint": 0.10080629476687708,
        "smoothness": 0.0,
        "time": 5.026821611,
        "traj_len": 1.6084830243578963,
        "weighted_distance": 2.032353480388443
    },
    "planner": "SPARS",
    "start": {
        "state": {
            "elbow_joint": 1.971548259319323,
            "shoulder_lift_joint": -1.1394851275133948,
            "shoulder_pan_joint": 0.1228115487234821,
            "wrist_1_joint": -0.7804723859257726,
            "wrist_2_joint": 0.12958671773740124,
            "wrist_3_joint": -3.192489227718131
        }
    },
    "waypoints": [
        {
            "positions": [
                0.1228115487234821,
                -1.1394851275133948,
                1.971548259319323,
                -0.7804723859257726,
                0.12958671773740124,
                -3.192489227718131
            ]
        },
        {
            "positions": [
                0.05719526078140304,
                -1.1733239182114703,
                2.0356333099384414,
                -0.8136832790983859,
                0.2880373160027505,
                -3.17808832846572
            ]
        },
        {
            "positions": [
                -0.008421027160676026,
                -1.207162708909546,
                2.0997183605575596,
                -0.8468941722709992,
                0.44648791426809975,
                -3.1636874292133093
            ]
        },
        {
            "positions": [
                -0.0740373151027551,
                -1.2410014996076215,
                2.1638034111766777,
                -0.8801050654436124,
                0.604938512533449,
                -3.1492865299608983
            ]
        },
        {
            "positions": [
                -0.13965360304483415,
                -1.274840290305697,
                2.227888461795796,
                -0.9133159586162257,
                0.7633891107987983,
                -3.134885630708487
            ]
        },
        {
            "positions": [
                -0.20526989098691323,
                -1.3086790810037727,
                2.291973512414914,
                -0.946526851788839,
                0.9218397090641477,
                -3.120484731456076
            ]
        },
        {
            "positions": [
                -0.2708861789289923,
                -1.3425178717018482,
                2.3560585630340323,
                -0.9797377449614523,
                1.0802903073294967,
                -3.106083832203665
            ]
        },
        {
            "positions": [
                -0.3365024668710714,
                -1.3763566623999237,
                2.4201436136531504,
                -1.0129486381340655,
                1.2387409055948462,
                -3.091682932951254
            ]
        }
    ]
}{
    "goal": {
        "global_pose": {
            "orientation": {
                "w": 0.5084816217422485,
                "x": -0.49083608388900757,
                "y": 0.5182115435600281,
                "z": -0.4816462993621826
            },
            "position": {
                "x": 0.5540239810943604,
                "y": 0.030875300988554955,
                "z": 0.16403168439865112
            }
        },
        "name": "move_to_storage_A"
    },
    "id": "SPARS_move_to_storage_A_84",
    "joint_names": [
        "shoulder_pan_joint",
        "shoulder_lift_joint",
        "elbow_joint",
        "wrist_1_joint",
        "wrist_2_joint",
        "wrist_3_joint"
    ],
    "metrics": {
        "cart_traj_len": 0.3535912052721274,
        "distance_elbow_joint": 0.4521273414254905,
        "distance_shoulder_lift_joint": 0.23382040484309674,
        "distance_shoulder_pan_joint": 0.4623871060629875,
        "distance_wrist_1_joint": 0.25155786988631545,
        "distance_wrist_2_joint": 1.0997706053138714,
        "distance_wrist_3_joint": 0.1074734984647221,
        "smoothness": 0.0,
        "time": 5.005567436,
        "traj_len": 1.614663068877369,
        "weighted_distance": 2.042893119604184
    },
    "planner": "SPARS",
    "start": {
        "state": {
            "elbow_joint": 1.97154746011099,
            "shoulder_lift_joint": -1.13948474672311,
            "shoulder_pan_joint": 0.12281154466712228,
            "wrist_1_joint": -0.7804688027058302,
            "wrist_2_joint": 0.12958655903071145,
            "wrist_3_joint": 3.0906928834467795
        }
    },
    "waypoints": [
        {
            "positions": [
                0.12281154466712228,
                -1.13948474672311,
                1.97154746011099,
                -0.7804688027058302,
                0.12958655903071145,
                3.0906928834467795
            ]
        },
        {
            "positions": [
                0.05675624380098121,
                -1.1728876617006951,
                2.0361370803146315,
                -0.8164056412610181,
                0.28669664550412166,
                3.1060462403703113
            ]
        },
        {
            "positions": [
                -0.009299057065159863,
                -1.2062905766782805,
                2.100726700518273,
                -0.852342479816206,
                0.44380673197753184,
                3.121399597293843
            ]
        },
        {
            "positions": [
                -0.07535435793130092,
                -1.2396934916558657,
                2.1653163207219146,
                -0.888279318371394,
                0.600916818450942,
                3.136752954217375
            ]
        },
        {
            "positions": [
                -0.141409658797442,
                -1.273096406633451,
                2.2299059409255557,
                -0.9242161569265819,
                0.7580269049243522,
                3.1521063111409062
            ]
        },
        {
            "positions": [
                -0.20746495966358308,
                -1.306499321611036,
                2.2944955611291973,
                -0.9601529954817698,
                0.9151369913977625,
                3.167459668064438
            ]
        },
        {
            "positions": [
                -0.2735202605297241,
                -1.3399022365886215,
                2.359085181332839,
                -0.9960898340369577,
                1.0722470778711726,
                3.18281302498797
            ]
        },
        {
            "positions": [
                -0.3395755613958652,
                -1.3733051515662067,
                2.4236748015364804,
                -1.0320266725921456,
                1.2293571643445829,
                3.1981663819115016
            ]
        }
    ]
}{
    "goal": {
        "global_pose": {
            "orientation": {
                "w": 0.5084816217422485,
                "x": -0.49083608388900757,
                "y": 0.5182115435600281,
                "z": -0.4816462993621826
            },
            "position": {
                "x": 0.5540239810943604,
                "y": 0.030875300988554955,
                "z": 0.16403168439865112
            }
        },
        "name": "move_to_storage_A"
    },
    "id": "SPARS_move_to_storage_A_84",
    "joint_names": [
        "shoulder_pan_joint",
        "shoulder_lift_joint",
        "elbow_joint",
        "wrist_1_joint",
        "wrist_2_joint",
        "wrist_3_joint"
    ],
    "metrics": {
        "cart_traj_len": 0.35305712651893756,
        "distance_elbow_joint": 0.44792548750526606,
        "distance_shoulder_lift_joint": 0.23605412256765956,
        "distance_shoulder_pan_joint": 0.4636024354636842,
        "distance_wrist_1_joint": 0.23472487913536288,
        "distance_wrist_2_joint": 1.0907241875324818,
        "distance_wrist_3_joint": 0.09277920131730832,
        "smoothness": 0.0,
        "time": 5.019770618,
        "traj_len": 1.6018146938774669,
        "weighted_distance": 2.0191131178872133
    },
    "planner": "SPARS",
    "start": {
        "state": {
            "elbow_joint": 1.9715472970024885,
            "shoulder_lift_joint": -1.1394870060712896,
            "shoulder_pan_joint": 0.12281152778156021,
            "wrist_1_joint": -0.780463741449964,
            "wrist_2_joint": 0.12958659822042276,
            "wrist_3_joint": 3.090690232415272
        }
    },
    "waypoints": [
        {
            "positions": [
                0.12281152778156021,
                -1.1394870060712896,
                1.9715472970024885,
                -0.780463741449964,
                0.12958659822042276,
                3.090690232415272
            ]
        },
        {
            "positions": [
                0.05658260842960533,
                -1.1732090235809554,
                2.0355366523603835,
                -0.8139958670407301,
                0.28540433929649156,
                3.1039444040320303
            ]
        },
        {
            "positions": [
                -0.009646310922349549,
                -1.2069310410906209,
                2.099526007718279,
                -0.8475279926314963,
                0.4412220803725604,
                3.1171985756487883
            ]
        },
        {
            "positions": [
                -0.07587523027430443,
                -1.2406530586002866,
                2.163515363076174,
                -0.8810601182222624,
                0.5970398214486292,
                3.130452747265547
            ]
        },
        {
            "positions": [
                -0.1421041496262593,
                -1.2743750761099522,
                2.2275047184340693,
                -0.9145922438130285,
                0.752857562524698,
                3.1437069188823052
            ]
        },
        {
            "positions": [
                -0.20833306897821421,
                -1.308097093619618,
                2.2914940737919642,
                -0.9481243694037946,
                0.9086753036007669,
                3.1569610904990637
            ]
        },
        {
            "positions": [
                -0.2745619883301691,
                -1.3418191111292834,
                2.355483429149859,
                -0.9816564949945608,
                1.0644930446768357,
                3.1702152621158217
            ]
        },
        {
            "positions": [
                -0.34079090768212394,
                -1.3755411286389492,
                2.4194727845077546,
                -1.0151886205853269,
                1.2203107857529045,
                3.18346943373258
            ]
        }
    ]
}