{
    "goal": {
        "global_pose": {
            "orientation": {
                "w": 0.5084816262002911,
                "x": -0.4908360881923452,
                "y": 0.5182115481033761,
                "z": -0.48164630358495003
            },
            "position": {
                "x": 0.5540239810943604,
                "y": -0.46912469901144505,
                "z": 0.16403168439865112
            }
        },
        "name": "move_to_storage_B"
    },
    "id": "SPARS_move_to_storage_B_109",
    "joint_names": [
        "shoulder_pan_joint",
        "shoulder_lift_joint",
        "elbow_joint",
        "wrist_1_joint",
        "wrist_2_joint",
        "wrist_3_joint"
    ],
    "metrics": {
        "cart_traj_len": 3.0484821130217497,
        "distance_elbow_joint": 0.3854741787977165,
        "distance_shoulder_lift_joint": 1.7023853067568306,
        "distance_shoulder_pan_joint": 3.6763925051578195,
        "distance_wrist_1_joint": 2.9920022528158263,
        "distance_wrist_2_joint": 2.7119702404296513,
        "distance_wrist_3_joint": 3.5874607209342173,
        "smoothness": 0.26681861176879623,
        "time": 5.068377717,
        "traj_len": 3.8801656156525146,
        "weighted_distance": 5.285317316870008
    },
    "planner": "SPARS",
    "start": {
        "state": {
            "elbow_joint": 1.664937868594044,
            "shoulder_lift_joint": -0.661644460510453,
            "shoulder_pan_joint": -0.9139846352900073,
            "wrist_1_joint": 2.146753192139373,
            "wrist_2_joint": -2.2341966793290973,
            "wrist_3_joint": 0.005466555786416001
        }
    },
    "waypoints": [
        {
            "positions": [
                -0.9139846352900073,
                -0.661644460510453,
                1.664937868594044,
                2.146753192139373,
                -2.2341966793290973,
                0.005466555786416001
            ]
        },
        {
            "positions": [
                -0.7974660834220328,
                -0.7337290615172494,
                1.6895606775169472,
                2.079359138139972,
                -2.14727263095586,
                -0.009136568386415304
            ]
        },
        {
            "positions": [
                -0.6809475315540583,
                -0.8058136625240458,
                1.7141834864398504,
                2.0119650841405714,
                -2.0603485825826224,
                -0.023739692559246607
            ]
        },
        {
            "positions": [
                -0.5644289796860839,
                -0.8778982635308423,
                1.7388062953627537,
                1.9445710301411703,
                -1.9734245342093852,
                -0.038342816732077914
            ]
        },
        {
            "positions": [
                -0.44791042781810936,
                -0.9499828645376387,
                1.763429104285657,
                1.8771769761417691,
                -1.8865004858361478,
                -0.052945940904909214
            ]
        },
        {
            "positions": [
                -0.331391875950135,
                -1.022067465544435,
                1.7880519132085602,
                1.8097829221423682,
                -1.7995764374629104,
                -0.06754906507774051
            ]
        },
        {
            "positions": [
                -0.21487332408216042,
                -1.0941520665512317,
                1.8126747221314634,
                1.7423888681429673,
                -1.7126523890896732,
                -0.08215218925057183
            ]
        },
        {
            "positions": [
                -0.09835477221418598,
                -1.166236667558028,
                1.8372975310543667,
                1.6749948141435662,
                -1.6257283407164358,
                -0.09675531342340313
            ]
        },
        {
            "positions": [
                0.01816377965378857,
                -1.2383212685648244,
                1.86192033997727,
                1.6076007601441653,
                -1.5388042923431984,
                -0.11135843759623443
            ]
        },
        {
            "positions": [
                0.134682331521763,
                -1.3104058695716208,
                1.8865431489001732,
                1.5402067061447644,
                -1.4518802439699612,
                -0.12596156176906573
            ]
        },
        {
            "positions": [
                0.25120088338973734,
                -1.3824904705784173,
                1.9111659578230764,
                1.4728126521453633,
                -1.3649561955967238,
                -0.14056468594189703
            ]
        },
        {
            "positions": [
                0.3677194352577119,
                -1.4545750715852135,
                1.9357887667459797,
                1.4054185981459624,
                -1.2780321472234863,
                -0.15516781011472833
            ]
        },
        {
            "positions": [
                0.48423798712568644,
                -1.52665967259201,
                1.960411575668883,
                1.3380245441465612,
                -1.191108098850249,
                -0.16977093428755965
            ]
        },
        {
            "positions": [
                0.600756538993661,
                -1.5987442735988067,
                1.9850343845917862,
                1.2706304901471603,
                -1.1041840504770115,
                -0.18437405846039095
            ]
        },
        {
            "positions": [
                0.7172750908616353,
                -1.670828874605603,
                2.0096571935146894,
                1.2032364361477592,
                -1.0172600021037743,
                -0.19897718263322225
            ]
        },
        {
            "positions": [
                0.8337936427296099,
                -1.7429134756123994,
                2.0342800024375927,
                1.1358423821483583,
                -0.9303359537305369,
                -0.21358030680605355
            ]
        },
        {
            "positions": [
                0.7534347165988514,
                -1.7170336301267792,
                2.0336078338978356,
                1.0532969053639911,
                -0.8716647239459081,
                -0.07322972937514738
            ]
        },
        {
            "positions": [
                0.6730757904680931,
                -1.691153784641159,
                2.0329356653580786,
                0.9707514285796242,
                -0.8129934941612793,
                0.0671208480557588
            ]
        },
        {
            "positions": [
                0.5927168643373346,
                -1.665273939155539,
                2.0322634968183215,
                0.888205951795257,
                -0.7543222643766505,
                0.20747142548666497
            ]
        },
        {
            "positions": [
                0.5123579382065762,
                -1.6393940936699187,
                2.031591328278565,
                0.8056604750108899,
                -0.6956510345920218,
                0.34782200291757115
            ]
        },
        {
            "positions": [
                0.43199901207581765,
                -1.6135142481842986,
                2.030919159738808,
                0.7231149982265227,
                -0.6369798048073929,
                0.4881725803484773
            ]
        },
        {
            "positions": [
                0.35164008594505924,
                -1.5876344026986784,
                2.030246991199051,
                0.6405695214421556,
                -0.5783085750227642,
                0.6285231577793835
            ]
        },
        {
            "positions": [
                0.2712811598143008,
                -1.5617545572130582,
                2.029574822659294,
                0.5580240446577884,
                -0.5196373452381354,
                0.7688737352102898
            ]
        },
        {
            "positions": [
                0.19092223368354244,
                -1.535874711727438,
                2.0289026541195367,
                0.47547856787342146,
                -0.4609661154535067,
                0.9092243126411959
            ]
        },
        {
            "positions": [
                0.11056330755278398,
                -1.509994866241818,
                2.0282304855797797,
                0.3929330910890543,
                -0.40229488566887794,
                1.049574890072102
            ]
        },
        {
            "positions": [
                0.030204381422025417,
                -1.4841150207561977,
                2.0275583170400227,
                0.3103876143046871,
                -0.34362365588424904,
                1.1899254675030082
            ]
        },
        {
            "positions": [
                -0.05015454470873293,
                -1.4582351752705773,
                2.0268861485002656,
                0.22784213752032012,
                -0.28495242609962035,
                1.3302760449339144
            ]
        },
        {
            "positions": [
                -0.13051347083949139,
                -1.4323553297849574,
                2.0262139799605086,
                0.14529666073595293,
                -0.22628119631499155,
                1.4706266223648206
            ]
        },
        {
            "positions": [
                -0.21087239697024984,
                -1.406475484299337,
                2.025541811420752,
                0.06275118395158596,
                -0.16760996653036286,
                1.6109771997957265
            ]
        },
        {
            "positions": [
                -0.2912313231010083,
                -1.3805956388137168,
                2.024869642880995,
                -0.019794292832781446,
                -0.10893873674573396,
                1.7513277772266331
            ]
        },
        {
            "positions": [
                -0.37159024923176676,
                -1.3547157933280967,
                2.024197474341238,
                -0.10233976961714841,
                -0.05026750696110516,
                1.8916783546575389
            ]
        },
        {
            "positions": [
                -0.451949175362525,
                -1.3288359478424767,
                2.023525305801481,
                -0.18488524640151538,
                0.00840372282352353,
                2.032028932088445
            ]
        },
        {
            "positions": [
                -0.5323081014932837,
                -1.3029561023568563,
                2.0228531372617238,
                -0.2674307231858828,
                0.06707495260815244,
                2.1723795095193514
            ]
        },
        {
            "positions": [
                -0.6126670276240419,
                -1.2770762568712362,
                2.0221809687219667,
                -0.34997619997024976,
                0.12574618239278101,
                2.312730086950258
            ]
        },
        {
            "positions": [
                -0.6930259537548004,
                -1.251196411385616,
                2.0215088001822097,
                -0.4325216767546167,
                0.1844174121774098,
                2.4530806643811633
            ]
        },
        {
            "positions": [
                -0.773384879885559,
                -1.2253165658999958,
                2.020836631642453,
                -0.5150671535389841,
                0.24308864196203883,
                2.5934312418120697
            ]
        },
        {
            "positions": [
                -0.8537438060163173,
                -1.1994367204143757,
                2.020164463102696,
                -0.5976126303233511,
                0.3017598717466674,
                2.733781819242976
            ]
        },
        {
            "positions": [
                -0.9341027321470757,
                -1.1735568749287555,
                2.019492294562939,
                -0.6801581071077181,
                0.3604311015312962,
                2.8741323966738825
            ]
        },
        {
            "positions": [
                -1.0144616582778343,
                -1.1476770294431353,
                2.018820126023182,
                -0.7627035838920855,
                0.419102331315925,
                3.014482974104789
            ]
        },
        {
            "positions": [
                -1.0948205844085928,
                -1.1217971839575152,
                2.018147957483425,
                -0.8452490606764524,
                0.4777735611005538,
                3.1548335515356944
            ]
        }
    ]
}