{
    "goal": {
        "global_pose": {
            "orientation": {
                "w": 0.7047431493862688,
                "x": -0.7094548369677653,
                "y": 0.0024358444001904,
                "z": -0.0022348060817251984
            },
            "position": {
                "x": -0.39052492380142206,
                "y": 0.3671506643295288,
                "z": 0.19426114857196808
            }
        },
        "name": "move_to_magneteinheit_D"
    },
    "id": "SPARS_move_to_magneteinheit_D_61",
    "joint_names": [
        "shoulder_pan_joint",
        "shoulder_lift_joint",
        "elbow_joint",
        "wrist_1_joint",
        "wrist_2_joint",
        "wrist_3_joint"
    ],
    "metrics": {
        "cart_traj_len": 4.611342173345031,
        "distance_elbow_joint": 3.1205940599950335,
        "distance_shoulder_lift_joint": 2.455231818154808,
        "distance_shoulder_pan_joint": 3.5209881862372323,
        "distance_wrist_1_joint": 1.744518117597123,
        "distance_wrist_2_joint": 2.562369812746715,
        "distance_wrist_3_joint": 3.5837798149974205,
        "smoothness": 0.7517726956513318,
        "time": 5.046651302,
        "traj_len": 4.121587292503742,
        "weighted_distance": 5.334972293280164
    },
    "planner": "SPARS",
    "start": {
        "state": {
            "elbow_joint": 0.749534889911806,
            "shoulder_lift_joint": -0.6476975780787326,
            "shoulder_pan_joint": -2.711696901376241,
            "wrist_1_joint": -0.07506478083263063,
            "wrist_2_joint": 0.43296659715538205,
            "wrist_3_joint": -3.14703540197715
        }
    },
    "waypoints": [
        {
            "positions": [
                -2.711696901376241,
                -0.6476975780787326,
                0.749534889911806,
                -0.07506478083263063,
                0.43296659715538205,
                -3.14703540197715
            ]
        },
        {
            "positions": [
                -2.7222441958804127,
                -0.6310776327673662,
                0.7016124885367012,
                -0.08686701228707898,
                0.3522807490272375,
                -2.9730419914735133
            ]
        },
        {
            "positions": [
                -2.7327914903845842,
                -0.6144576874559998,
                0.6536900871615964,
                -0.09866924374152733,
                0.271594900899093,
                -2.7990485809698766
            ]
        },
        {
            "positions": [
                -2.743338784888756,
                -0.5978377421446334,
                0.6057676857864916,
                -0.1104714751959757,
                0.19090905277094844,
                -2.62505517046624
            ]
        },
        {
            "positions": [
                -2.7538860793929274,
                -0.5812177968332669,
                0.5578452844113868,
                -0.12227370665042404,
                0.11022320464280394,
                -2.4510617599626032
            ]
        },
        {
            "positions": [
                -2.764433373897099,
                -0.5645978515219006,
                0.5099228830362821,
                -0.1340759381048724,
                0.02953735651465933,
                -2.2770683494589665
            ]
        },
        {
            "positions": [
                -2.7749806684012706,
                -0.5479779062105341,
                0.4620004816611773,
                -0.14587816955932076,
                -0.05114849161348517,
                -2.10307493895533
            ]
        },
        {
            "positions": [
                -2.690342544244188,
                -0.6372058430544469,
                0.4424315585121696,
                -0.08204914488128395,
                -0.08629448914469798,
                -2.0129579635199075
            ]
        },
        {
            "positions": [
                -2.605704420087106,
                -0.7264337798983598,
                0.42286263536316193,
                -0.018220120203247148,
                -0.12144048667591079,
                -1.9228409880844854
            ]
        },
        {
            "positions": [
                -2.521066295930024,
                -0.8156617167422726,
                0.4032937122141542,
                0.04560890447478966,
                -0.1565864842071236,
                -1.8327240126490634
            ]
        },
        {
            "positions": [
                -2.4364281717729415,
                -0.9048896535861854,
                0.3837247890651465,
                0.10943792915282646,
                -0.1917324817383364,
                -1.742607037213641
            ]
        },
        {
            "positions": [
                -2.351790047615859,
                -0.9941175904300983,
                0.3641558659161388,
                0.17326695383086327,
                -0.2268784792695492,
                -1.6524900617782188
            ]
        },
        {
            "positions": [
                -2.2671519234587767,
                -1.0833455272740111,
                0.34458694276713114,
                0.23709597850890007,
                -0.262024476800762,
                -1.5623730863427967
            ]
        },
        {
            "positions": [
                -2.1825137993016943,
                -1.172573464117924,
                0.32501801961812343,
                0.3009250031869369,
                -0.29717047433197485,
                -1.4722561109073746
            ]
        },
        {
            "positions": [
                -2.097875675144612,
                -1.2618014009618368,
                0.3054490964691158,
                0.3647540278649737,
                -0.33231647186318763,
                -1.3821391354719523
            ]
        },
        {
            "positions": [
                -2.0132375509875295,
                -1.3510293378057496,
                0.28588017332010807,
                0.42858305254301055,
                -0.36746246939440047,
                -1.29202216003653
            ]
        },
        {
            "positions": [
                -1.9285994268304474,
                -1.4402572746496625,
                0.26631125017110036,
                0.4924120772210473,
                -0.40260846692561325,
                -1.201905184601108
            ]
        },
        {
            "positions": [
                -1.8439613026733652,
                -1.5294852114935753,
                0.24674232702209267,
                0.556241101899084,
                -0.43775446445682603,
                -1.1117882091656859
            ]
        },
        {
            "positions": [
                -1.7593231785162828,
                -1.6187131483374881,
                0.227173403873085,
                0.6200701265771209,
                -0.47290046198803887,
                -1.0216712337302636
            ]
        },
        {
            "positions": [
                -1.6746850543592005,
                -1.707941085181401,
                0.20760448072407728,
                0.6838991512551578,
                -0.5080464595192518,
                -0.9315542582948413
            ]
        },
        {
            "positions": [
                -1.590046930202118,
                -1.7971690220253138,
                0.18803555757506957,
                0.7477281759331945,
                -0.5431924570504645,
                -0.8414372828594192
            ]
        },
        {
            "positions": [
                -1.505408806045036,
                -1.8863969588692266,
                0.1684666344260619,
                0.8115572006112313,
                -0.5783384545816772,
                -0.7513203074239971
            ]
        },
        {
            "positions": [
                -1.4207706818879535,
                -1.9756248957131395,
                0.1488977112770542,
                0.8753862252892681,
                -0.6134844521128902,
                -0.6612033319885748
            ]
        },
        {
            "positions": [
                -1.3053784057268372,
                -1.9959784817701895,
                0.036349745448236964,
                0.9095427459408432,
                -0.5541933762771118,
                -0.6242586268457186
            ]
        },
        {
            "positions": [
                -1.1899861295657208,
                -2.0163320678272396,
                -0.07619822038058027,
                0.9436992665924183,
                -0.49490230044133354,
                -0.5873139217028625
            ]
        },
        {
            "positions": [
                -1.0745938534046044,
                -2.03668565388429,
                -0.18874618620939754,
                0.9778557872439934,
                -0.43561122460555524,
                -0.5503692165600063
            ]
        },
        {
            "positions": [
                -0.959201577243488,
                -2.05703923994134,
                -0.30129415203821475,
                1.0120123078955685,
                -0.37632014876977693,
                -0.5134245114171501
            ]
        },
        {
            "positions": [
                -0.8438093010823716,
                -2.0773928259983903,
                -0.41384211786703196,
                1.0461688285471435,
                -0.3170290729339986,
                -0.47647980627429387
            ]
        },
        {
            "positions": [
                -0.7284170249212553,
                -2.0977464120554403,
                -0.5263900836958493,
                1.0803253491987186,
                -0.2577379970982204,
                -0.4395351011314377
            ]
        },
        {
            "positions": [
                -0.6130247487601389,
                -2.118099998112491,
                -0.6389380495246664,
                1.1144818698502936,
                -0.19844692126244207,
                -0.4025903959885815
            ]
        },
        {
            "positions": [
                -0.49763247259902244,
                -2.138453584169541,
                -0.7514860153534837,
                1.1486383905018687,
                -0.13915584542666376,
                -0.3656456908457253
            ]
        },
        {
            "positions": [
                -0.3822401964379061,
                -2.158807170226591,
                -0.8640339811823008,
                1.1827949111534437,
                -0.07986476959088551,
                -0.3287009857028691
            ]
        },
        {
            "positions": [
                -0.2668479202767897,
                -2.179160756283641,
                -0.9765819470111181,
                1.2169514318050187,
                -0.020573693755107092,
                -0.2917562805600129
            ]
        },
        {
            "positions": [
                -0.15145564411567336,
                -2.1995143423406915,
                -1.0891299128399354,
                1.251107952456594,
                0.0387173820806711,
                -0.2548115754171567
            ]
        },
        {
            "positions": [
                -0.036063367954557,
                -2.2198679283977416,
                -1.2016778786687528,
                1.285264473108169,
                0.09800845791644941,
                -0.21786687027430052
            ]
        },
        {
            "positions": [
                0.0793289082065593,
                -2.2402215144547917,
                -1.3142258444975699,
                1.319420993759744,
                0.15729953375222774,
                -0.1809221651314443
            ]
        },
        {
            "positions": [
                0.10763054576819402,
                -2.1885464935361836,
                -1.4648371883355649,
                1.3293045849302656,
                0.09646190321394345,
                -0.21934363426029774
            ]
        },
        {
            "positions": [
                0.13593218332982873,
                -2.136871472617576,
                -1.6154485321735597,
                1.339188176100787,
                0.03562427267565915,
                -0.25776510338915115
            ]
        },
        {
            "positions": [
                0.16423382089146346,
                -2.085196451698968,
                -1.7660598760115547,
                1.3490717672713086,
                -0.025213357862625158,
                -0.2961865725180046
            ]
        },
        {
            "positions": [
                0.19253545845309816,
                -2.0335214307803597,
                -1.9166712198495497,
                1.3589553584418304,
                -0.08605098840090944,
                -0.33460804164685803
            ]
        },
        {
            "positions": [
                0.22083709601473292,
                -1.9818464098617519,
                -2.0672825636875447,
                1.3688389496123519,
                -0.14688861893919378,
                -0.37302951077571145
            ]
        },
        {
            "positions": [
                0.24913873357636762,
                -1.930171388943144,
                -2.2178939075255397,
                1.3787225407828734,
                -0.2077262494774781,
                -0.4114509799045649
            ]
        },
        {
            "positions": [
                0.1624217301294546,
                -2.000815071449285,
                -2.2485269600370774,
                1.4085433444885211,
                -0.1317044506007542,
                -0.3340234272288463
            ]
        },
        {
            "positions": [
                0.0757047266825416,
                -2.071458753955426,
                -2.279160012548615,
                1.438364148194169,
                -0.05568265172403031,
                -0.2565958745531277
            ]
        },
        {
            "positions": [
                -0.011012276764371387,
                -2.1421024364615664,
                -2.3097930650601524,
                1.4681849518998167,
                0.020339147152693526,
                -0.1791683218774092
            ]
        },
        {
            "positions": [
                -0.09772928021128441,
                -2.2127461189677073,
                -2.34042611757169,
                1.4980057556054645,
                0.09636094602941747,
                -0.10174076920169056
            ]
        },
        {
            "positions": [
                -0.18444628365819737,
                -2.2833898014738483,
                -2.3710591700832278,
                1.5278265593111122,
                0.1723827449061413,
                -0.024313216525972015
            ]
        }
    ]
}