{
    "goal": {
        "global_pose": {
            "orientation": {
                "w": -0.4816463035849501,
                "x": 0.5182115481033762,
                "y": 0.4908360881923453,
                "z": -0.5084816262002911
            },
            "position": {
                "x": -0.8240239810943604,
                "y": 0.19912469901144506,
                "z": 0.16403168439865112
            }
        },
        "name": "move_to_storage_D"
    },
    "id": "SPARStwo_move_to_storage_D_57",
    "joint_names": [
        "shoulder_pan_joint",
        "shoulder_lift_joint",
        "elbow_joint",
        "wrist_1_joint",
        "wrist_2_joint",
        "wrist_3_joint"
    ],
    "metrics": {
        "cart_traj_len": 4.5304715623275715,
        "distance_elbow_joint": 4.2147429780074965,
        "distance_shoulder_lift_joint": 1.263528230785248,
        "distance_shoulder_pan_joint": 2.813415302505221,
        "distance_wrist_1_joint": 2.2876766932919668,
        "distance_wrist_2_joint": 0.9145622166775363,
        "distance_wrist_3_joint": 3.1479391100904834,
        "smoothness": 0.0020052725953422002,
        "time": 5.044968631,
        "traj_len": 3.826468937722865,
        "weighted_distance": 4.91324553238574
    },
    "planner": "SPARStwo",
    "start": {
        "state": {
            "elbow_joint": -2.384821988534728,
            "shoulder_lift_joint": -2.2788054721415256,
            "shoulder_pan_joint": -0.1854694642142757,
            "wrist_1_joint": 1.4845938289331202,
            "wrist_2_joint": 0.17898776772866878,
            "wrist_3_joint": 0.037105688729662994
        }
    },
    "waypoints": [
        {
            "positions": [
                -0.1854694642142757,
                -2.2788054721415256,
                -2.384821988534728,
                1.4845938289331202,
                0.17898776772866878,
                0.037105688729662994
            ]
        },
        {
            "positions": [
                -0.09050080938226894,
                -2.2495175403894336,
                -2.290671388494218,
                1.3851902728102725,
                0.2217786438980507,
                0.06987234329776876
            ]
        },
        {
            "positions": [
                0.004467845449737828,
                -2.2202296086373416,
                -2.1965207884537077,
                1.2857867166874248,
                0.26456952006743256,
                0.1026389978658745
            ]
        },
        {
            "positions": [
                0.09943650028174458,
                -2.1909416768852497,
                -2.1023701884131976,
                1.186383160564577,
                0.30736039623681444,
                0.13540565243398028
            ]
        },
        {
            "positions": [
                0.19440515511375137,
                -2.1616537451331577,
                -2.0082195883726874,
                1.0869796044417293,
                0.35015127240619637,
                0.16817230700208602
            ]
        },
        {
            "positions": [
                0.2893738099457581,
                -2.1323658133810657,
                -1.9140689883321773,
                0.9875760483188816,
                0.3929421485755783,
                0.20093896157019178
            ]
        },
        {
            "positions": [
                0.3843424647777649,
                -2.1030778816289737,
                -1.8199183882916672,
                0.8881724921960338,
                0.4357330247449601,
                0.23370561613829754
            ]
        },
        {
            "positions": [
                0.4793111196097717,
                -2.0737899498768817,
                -1.725767788251157,
                0.7887689360731861,
                0.47852390091434205,
                0.26647227070640334
            ]
        },
        {
            "positions": [
                0.5742797744417785,
                -2.0445020181247897,
                -1.631617188210647,
                0.6893653799503384,
                0.521314777083724,
                0.299238925274509
            ]
        },
        {
            "positions": [
                0.6692484292737853,
                -2.0152140863726977,
                -1.5374665881701368,
                0.5899618238274906,
                0.5641056532531058,
                0.3320055798426148
            ]
        },
        {
            "positions": [
                0.764217084105792,
                -1.985926154620606,
                -1.4433159881296267,
                0.49055826770464295,
                0.6068965294224877,
                0.3647722344107206
            ]
        },
        {
            "positions": [
                0.8591857389377989,
                -1.956638222868514,
                -1.3491653880891166,
                0.39115471158179504,
                0.6496874055918697,
                0.3975388889788264
            ]
        },
        {
            "positions": [
                0.9541543937698055,
                -1.927350291116422,
                -1.2550147880486064,
                0.29175115545894736,
                0.6924782817612515,
                0.43030554354693207
            ]
        },
        {
            "positions": [
                1.0491230486018124,
                -1.89806235936433,
                -1.1608641880080963,
                0.19234759933609968,
                0.7352691579306334,
                0.46307219811503786
            ]
        },
        {
            "positions": [
                1.144091703433819,
                -1.8687744276122382,
                -1.0667135879675862,
                0.092944043213252,
                0.7780600341000153,
                0.49583885268314365
            ]
        },
        {
            "positions": [
                1.2390603582658257,
                -1.8394864958601462,
                -0.9725629879270761,
                -0.006459512909595899,
                0.8208509102693973,
                0.5286055072512494
            ]
        },
        {
            "positions": [
                1.3340290130978325,
                -1.8101985641080542,
                -0.878412387886566,
                -0.10586306903244336,
                0.8636417864387791,
                0.5613721618193551
            ]
        },
        {
            "positions": [
                1.4289976679298393,
                -1.7809106323559623,
                -0.7842617878460558,
                -0.20526662515529126,
                0.906432662608161,
                0.5941388163874609
            ]
        },
        {
            "positions": [
                1.523966322761846,
                -1.7516227006038703,
                -0.6901111878055457,
                -0.30467018127813894,
                0.9492235387775428,
                0.6269054709555667
            ]
        },
        {
            "positions": [
                1.6189349775938529,
                -1.7223347688517783,
                -0.5959605877650356,
                -0.40407373740098684,
                0.9920144149469249,
                0.6596721255236725
            ]
        },
        {
            "positions": [
                1.7139036324258596,
                -1.6930468370996863,
                -0.5018099877245255,
                -0.5034772935238343,
                1.0348052911163068,
                0.6924387800917782
            ]
        },
        {
            "positions": [
                1.8088722872578664,
                -1.6637589053475943,
                -0.4076593876840154,
                -0.6028808496466822,
                1.0775961672856886,
                0.725205434659884
            ]
        },
        {
            "positions": [
                1.8570530843774593,
                -1.6256129251128109,
                -0.2760370125571458,
                -0.6146574387473978,
                1.07665770745507,
                0.8699018678457817
            ]
        },
        {
            "positions": [
                1.9052338814970522,
                -1.5874669448780276,
                -0.14441463743027622,
                -0.6264340278481133,
                1.0757192476244515,
                1.0145983010316795
            ]
        },
        {
            "positions": [
                1.953414678616645,
                -1.5493209646432442,
                -0.012792262303406576,
                -0.638210616948829,
                1.0747807877938327,
                1.1592947342175774
            ]
        },
        {
            "positions": [
                2.001595475736238,
                -1.511174984408461,
                0.11883011282346295,
                -0.6499872060495445,
                1.073842327963214,
                1.303991167403475
            ]
        },
        {
            "positions": [
                2.049776272855831,
                -1.4730290041736775,
                0.25045248795033254,
                -0.6617637951502601,
                1.0729038681325955,
                1.448687600589373
            ]
        },
        {
            "positions": [
                2.0979570699754237,
                -1.4348830239388943,
                0.38207486307720223,
                -0.6735403842509757,
                1.071965408301977,
                1.593384033775271
            ]
        },
        {
            "positions": [
                2.1461378670950166,
                -1.396737043704111,
                0.5136972382040716,
                -0.6853169733516913,
                1.0710269484713584,
                1.7380804669611685
            ]
        },
        {
            "positions": [
                2.1943186642146095,
                -1.3585910634693277,
                0.6453196133309413,
                -0.6970935624524068,
                1.0700884886407398,
                1.8827769001470662
            ]
        },
        {
            "positions": [
                2.2424994613342024,
                -1.3204450832345442,
                0.776941988457811,
                -0.7088701515531224,
                1.069150028810121,
                2.0274733333329644
            ]
        },
        {
            "positions": [
                2.2906802584537953,
                -1.282299102999761,
                0.9085643635846805,
                -0.7206467406538379,
                1.0682115689795024,
                2.172169766518862
            ]
        },
        {
            "positions": [
                2.338861055573388,
                -1.2441531227649776,
                1.0401867387115502,
                -0.7324233297545536,
                1.0672731091488838,
                2.3168661997047595
            ]
        },
        {
            "positions": [
                2.387041852692981,
                -1.2060071425301944,
                1.17180911383842,
                -0.7441999188552691,
                1.0663346493182653,
                2.461562632890658
            ]
        },
        {
            "positions": [
                2.435222649812574,
                -1.167861162295411,
                1.3034314889652892,
                -0.7559765079559847,
                1.0653961894876467,
                2.6062590660765554
            ]
        },
        {
            "positions": [
                2.483403446932167,
                -1.1297151820606275,
                1.4350538640921588,
                -0.7677530970567003,
                1.0644577296570281,
                2.750955499262453
            ]
        },
        {
            "positions": [
                2.5315842440517597,
                -1.0915692018258443,
                1.5666762392190285,
                -0.7795296861574159,
                1.0635192698264093,
                2.895651932448351
            ]
        },
        {
            "positions": [
                2.5797650411713526,
                -1.053423221591061,
                1.698298614345898,
                -0.7913062752581315,
                1.0625808099957907,
                3.0403483656342485
            ]
        },
        {
            "positions": [
                2.6279458382909455,
                -1.0152772413562776,
                1.8299209894727677,
                -0.803082864358847,
                1.0616423501651722,
                3.1850447988201465
            ]
        }
    ]
}