{
    "goal": {
        "global_pose": {
            "orientation": {
                "w": -0.4816463035849501,
                "x": 0.5182115481033762,
                "y": 0.4908360881923453,
                "z": -0.5084816262002911
            },
            "position": {
                "x": -0.8240239810943604,
                "y": -0.300875300988555,
                "z": 0.16403168439865112
            }
        },
        "name": "move_to_storage_C"
    },
    "id": "SPARS_move_to_storage_C_42",
    "joint_names": [
        "shoulder_pan_joint",
        "shoulder_lift_joint",
        "elbow_joint",
        "wrist_1_joint",
        "wrist_2_joint",
        "wrist_3_joint"
    ],
    "metrics": {
        "cart_traj_len": 0.5770467837496438,
        "distance_elbow_joint": 0.2591150446788879,
        "distance_shoulder_lift_joint": 0.18960571585617025,
        "distance_shoulder_pan_joint": 0.4956759302953144,
        "distance_wrist_1_joint": 0.08544854579786454,
        "distance_wrist_2_joint": 1.0657991729323602,
        "distance_wrist_3_joint": 0.0726589402461828,
        "smoothness": 0.0,
        "time": 5.015299197,
        "traj_len": 1.4725159930563674,
        "weighted_distance": 1.8614158452719183
    },
    "planner": "SPARS",
    "start": {
        "state": {
            "elbow_joint": 2.010868314990456,
            "shoulder_lift_joint": -1.1634956873337592,
            "shoulder_pan_joint": -2.4736205022346125,
            "wrist_1_joint": -0.8367026794202681,
            "wrist_2_joint": 0.6746043897044499,
            "wrist_3_joint": -3.1496632123970403
        }
    },
    "waypoints": [
        {
            "positions": [
                -2.4736205022346125,
                -1.1634956873337592,
                2.010868314990456,
                -0.8367026794202681,
                0.6746043897044499,
                -3.1496632123970403
            ]
        },
        {
            "positions": [
                -2.5562331572838315,
                -1.1318947346910642,
                1.9676824742106411,
                -0.8224612551206241,
                0.8522375851931766,
                -3.1375533890226763
            ]
        },
        {
            "positions": [
                -2.6388458123330505,
                -1.1002937820483691,
                1.9244966334308264,
                -0.8082198308209799,
                1.0298707806819034,
                -3.125443565648313
            ]
        },
        {
            "positions": [
                -2.72145846738227,
                -1.0686928294056741,
                1.881310792651012,
                -0.7939784065213358,
                1.20750397617063,
                -3.113333742273949
            ]
        },
        {
            "positions": [
                -2.804071122431489,
                -1.037091876762979,
                1.8381249518711973,
                -0.7797369822216917,
                1.3851371716593568,
                -3.101223918899585
            ]
        },
        {
            "positions": [
                -2.886683777480708,
                -1.0054909241202838,
                1.7949391110913826,
                -0.7654955579220477,
                1.5627703671480835,
                -3.0891140955252214
            ]
        },
        {
            "positions": [
                -2.969296432529927,
                -0.9738899714775889,
                1.751753270311568,
                -0.7512541336224036,
                1.74040356263681,
                -3.0770042721508575
            ]
        }
    ]
}