{
    "goal": {
        "global_pose": {
            "orientation": {
                "w": 0.5084816217422485,
                "x": -0.49083608388900757,
                "y": 0.5182115435600281,
                "z": -0.4816462993621826
            },
            "position": {
                "x": 0.5540239810943604,
                "y": 0.030875300988554955,
                "z": 0.16403168439865112
            }
        },
        "name": "move_to_storage_A"
    },
    "id": "SPARS_move_to_storage_A_72",
    "joint_names": [
        "shoulder_pan_joint",
        "shoulder_lift_joint",
        "elbow_joint",
        "wrist_1_joint",
        "wrist_2_joint",
        "wrist_3_joint"
    ],
    "metrics": {
        "cart_traj_len": 0.35331073986738504,
        "distance_elbow_joint": 0.4500091425534902,
        "distance_shoulder_lift_joint": 0.23358793463501537,
        "distance_shoulder_pan_joint": 0.46385549633090106,
        "distance_wrist_1_joint": 0.24347220937111047,
        "distance_wrist_2_joint": 1.0909207745955671,
        "distance_wrist_3_joint": 0.10596267975433982,
        "smoothness": 1.9984014495999336e-15,
        "time": 5.015268124,
        "traj_len": 1.6086666022642555,
        "weighted_distance": 2.033255168618976
    },
    "planner": "SPARS",
    "start": {
        "state": {
            "elbow_joint": 1.971548259319323,
            "shoulder_lift_joint": -1.1394851275133948,
            "shoulder_pan_joint": 0.1228115487234821,
            "wrist_1_joint": -0.7804723859257726,
            "wrist_2_joint": 0.12958671773740124,
            "wrist_3_joint": -3.192489227718131
        }
    },
    "waypoints": [
        {
            "positions": [
                0.1228115487234821,
                -1.1394851275133948,
                1.971548259319323,
                -0.7804723859257726,
                0.12958671773740124,
                -3.192489227718131
            ]
        },
        {
            "positions": [
                0.05654647781906767,
                -1.1728548324612542,
                2.0358352796841075,
                -0.8152541301216455,
                0.28543254267962515,
                -3.1773517020389397
            ]
        },
        {
            "positions": [
                -0.009718593085346755,
                -1.2062245374091134,
                2.1001223000488918,
                -0.8500358743175185,
                0.441278367621849,
                -3.162214176359748
            ]
        },
        {
            "positions": [
                -0.0759836639897612,
                -1.2395942423569728,
                2.164409320413676,
                -0.8848176185133914,
                0.5971241925640729,
                -3.1470766506805568
            ]
        },
        {
            "positions": [
                -0.1422487348941756,
                -1.2729639473048322,
                2.2286963407784603,
                -0.9195993627092643,
                0.7529700175062968,
                -3.1319391250013657
            ]
        },
        {
            "positions": [
                -0.20851380579859008,
                -1.3063336522526916,
                2.2929833611432446,
                -0.9543811069051372,
                0.9088158424485206,
                -3.1168015993221743
            ]
        },
        {
            "positions": [
                -0.2747788767030045,
                -1.3397033572005508,
                2.357270381508029,
                -0.9891628511010102,
                1.0646616673907445,
                -3.101664073642983
            ]
        },
        {
            "positions": [
                -0.34104394760741896,
                -1.3730730621484102,
                2.421557401872813,
                -1.023944595296883,
                1.2205074923329684,
                -3.0865265479637913
            ]
        }
    ]
}{
    "goal": {
        "global_pose": {
            "orientation": {
                "w": 0.5084816217422485,
                "x": -0.49083608388900757,
                "y": 0.5182115435600281,
                "z": -0.4816462993621826
            },
            "position": {
                "x": 0.5540239810943604,
                "y": 0.030875300988554955,
                "z": 0.16403168439865112
            }
        },
        "name": "move_to_storage_A"
    },
    "id": "SPARS_move_to_storage_A_72",
    "joint_names": [
        "shoulder_pan_joint",
        "shoulder_lift_joint",
        "elbow_joint",
        "wrist_1_joint",
        "wrist_2_joint",
        "wrist_3_joint"
    ],
    "metrics": {
        "cart_traj_len": 0.35327334676043837,
        "distance_elbow_joint": 0.451973390511049,
        "distance_shoulder_lift_joint": 0.23310389736849046,
        "distance_shoulder_pan_joint": 0.46210500472323485,
        "distance_wrist_1_joint": 0.25436426814224267,
        "distance_wrist_2_joint": 1.0979866090017456,
        "distance_wrist_3_joint": 0.09575633752159751,
        "smoothness": 1.9984014473322144e-15,
        "time": 5.059666301,
        "traj_len": 1.6109902256898894,
        "weighted_distance": 2.0344908600078653
    },
    "planner": "SPARS",
    "start": {
        "state": {
            "elbow_joint": 1.97154746011099,
            "shoulder_lift_joint": -1.13948474672311,
            "shoulder_pan_joint": 0.12281154466712228,
            "wrist_1_joint": -0.7804688027058302,
            "wrist_2_joint": 0.12958655903071145,
            "wrist_3_joint": 3.0906928834467795
        }
    },
    "waypoints": [
        {
            "positions": [
                0.12281154466712228,
                -1.13948474672311,
                1.97154746011099,
                -0.7804688027058302,
                0.12958655903071145,
                3.0906928834467795
            ]
        },
        {
            "positions": [
                0.05679654399237445,
                -1.172785303490037,
                2.036115087326854,
                -0.8168065552975792,
                0.2864417888881037,
                3.1043723602355793
            ]
        },
        {
            "positions": [
                -0.00921845668237338,
                -1.2060858602569644,
                2.1006827145427183,
                -0.853144307889328,
                0.4432970187454959,
                3.1180518370243786
            ]
        },
        {
            "positions": [
                -0.07523345735712121,
                -1.2393864170238915,
                2.165250341758582,
                -0.889482060481077,
                0.6001522486028881,
                3.1317313138131784
            ]
        },
        {
            "positions": [
                -0.14124845803186903,
                -1.2726869737908189,
                2.2298179689744466,
                -0.925819813072826,
                0.7570074784602804,
                3.145410790601978
            ]
        },
        {
            "positions": [
                -0.2072634587066169,
                -1.305987530557746,
                2.2943855961903106,
                -0.9621575656645749,
                0.9138627083176727,
                3.159090267390778
            ]
        },
        {
            "positions": [
                -0.2732784593813647,
                -1.339288087324673,
                2.358953223406175,
                -0.9984953182563239,
                1.0707179381750647,
                3.1727697441795772
            ]
        },
        {
            "positions": [
                -0.33929346005611255,
                -1.3725886440916004,
                2.423520850622039,
                -1.0348330708480729,
                1.227573168032457,
                3.186449220968377
            ]
        }
    ]
}{
    "goal": {
        "global_pose": {
            "orientation": {
                "w": 0.5084816217422485,
                "x": -0.49083608388900757,
                "y": 0.5182115435600281,
                "z": -0.4816462993621826
            },
            "position": {
                "x": 0.5540239810943604,
                "y": 0.030875300988554955,
                "z": 0.16403168439865112
            }
        },
        "name": "move_to_storage_A"
    },
    "id": "SPARS_move_to_storage_A_72",
    "joint_names": [
        "shoulder_pan_joint",
        "shoulder_lift_joint",
        "elbow_joint",
        "wrist_1_joint",
        "wrist_2_joint",
        "wrist_3_joint"
    ],
    "metrics": {
        "cart_traj_len": 0.35286497429761043,
        "distance_elbow_joint": 0.45067636033299996,
        "distance_shoulder_lift_joint": 0.23627764151083608,
        "distance_shoulder_pan_joint": 0.46152258173072547,
        "distance_wrist_1_joint": 0.24303831607978776,
        "distance_wrist_2_joint": 1.0989678633720632,
        "distance_wrist_3_joint": 0.08784950879859199,
        "smoothness": 0.0,
        "time": 5.0305674289999995,
        "traj_len": 1.605718615394679,
        "weighted_distance": 2.0238669592821656
    },
    "planner": "SPARS",
    "start": {
        "state": {
            "elbow_joint": 1.9715472970024885,
            "shoulder_lift_joint": -1.1394870060712896,
            "shoulder_pan_joint": 0.12281152778156021,
            "wrist_1_joint": -0.780463741449964,
            "wrist_2_joint": 0.12958659822042276,
            "wrist_3_joint": 3.090690232415272
        }
    },
    "waypoints": [
        {
            "positions": [
                0.12281152778156021,
                -1.1394870060712896,
                1.9715472970024885,
                -0.780463741449964,
                0.12958659822042276,
                3.090690232415272
            ]
        },
        {
            "positions": [
                0.05687973039145658,
                -1.1732409548585518,
                2.035929634192917,
                -0.8151835008899336,
                0.28658200727357463,
                3.103240162243642
            ]
        },
        {
            "positions": [
                -0.009052066998647051,
                -1.2069949036458143,
                2.100311971383346,
                -0.8499032603299034,
                0.44357741632672654,
                3.1157900920720123
            ]
        },
        {
            "positions": [
                -0.07498386438875068,
                -1.2407488524330765,
                2.1646943085737744,
                -0.884623019769873,
                0.6005728253798784,
                3.1283400219003825
            ]
        },
        {
            "positions": [
                -0.1409156617788543,
                -1.2745028012203388,
                2.2290766457642026,
                -0.9193427792098428,
                0.7575682344330302,
                3.140889951728753
            ]
        },
        {
            "positions": [
                -0.206847459168958,
                -1.308256750007601,
                2.2934589829546312,
                -0.9540625386498124,
                0.9145636434861821,
                3.1534398815571234
            ]
        },
        {
            "positions": [
                -0.27277925655906154,
                -1.3420106987948635,
                2.35784132014506,
                -0.988782298089782,
                1.0715590525393341,
                3.1659898113854936
            ]
        },
        {
            "positions": [
                -0.33871105394916523,
                -1.3757646475821257,
                2.4222236573354885,
                -1.0235020575297518,
                1.228554461592486,
                3.178539741213864
            ]
        }
    ]
}