{
    "goal": {
        "global_pose": {
            "orientation": {
                "w": -0.00223480608172531,
                "x": 0.0024358444001904467,
                "y": 0.7094548369677653,
                "z": -0.704743149386269
            },
            "position": {
                "x": -0.37947507619857795,
                "y": -0.6371506643295288,
                "z": 0.19426114857196808
            }
        },
        "name": "move_to_magneteinheit_C"
    },
    "id": "SPARS_move_to_magneteinheit_C_23",
    "joint_names": [
        "shoulder_pan_joint",
        "shoulder_lift_joint",
        "elbow_joint",
        "wrist_1_joint",
        "wrist_2_joint",
        "wrist_3_joint"
    ],
    "metrics": {
        "cart_traj_len": 3.2732632618075685,
        "distance_elbow_joint": 0.7294159275162224,
        "distance_shoulder_lift_joint": 1.3741110325278167,
        "distance_shoulder_pan_joint": 4.061910006295677,
        "distance_wrist_1_joint": 2.949195224523146,
        "distance_wrist_2_joint": 4.4464408453213995,
        "distance_wrist_3_joint": 5.96300143542429,
        "smoothness": 0.5066755826206609,
        "time": 5.132115250999999,
        "traj_len": 4.418605489473863,
        "weighted_distance": 6.232632943812887
    },
    "planner": "SPARS",
    "start": {
        "state": {
            "elbow_joint": 1.9565354010623817,
            "shoulder_lift_joint": -1.4165861575791021,
            "shoulder_pan_joint": -1.6717766225146293,
            "wrist_1_joint": -0.5286633292919765,
            "wrist_2_joint": 1.472756589071564,
            "wrist_3_joint": -3.1238370188695823
        }
    },
    "waypoints": [
        {
            "positions": [
                -1.6717766225146293,
                -1.4165861575791021,
                1.9565354010623817,
                -0.5286633292919765,
                1.472756589071564,
                -3.1238370188695823
            ]
        },
        {
            "positions": [
                -1.6425068981435205,
                -1.4252756402265236,
                1.9824451378528647,
                -0.6063629538972337,
                1.5127243970385,
                -2.9798084377107426
            ]
        },
        {
            "positions": [
                -1.6132371737724114,
                -1.433965122873945,
                2.0083548746433477,
                -0.684062578502491,
                1.5526922050054364,
                -2.835779856551903
            ]
        },
        {
            "positions": [
                -1.5839674494013025,
                -1.4426546055213665,
                2.034264611433831,
                -0.7617622031077482,
                1.5926600129723725,
                -2.691751275393063
            ]
        },
        {
            "positions": [
                -1.5216205560675014,
                -1.476082923960889,
                2.0230764748301597,
                -0.8238903021366238,
                1.5445124916140578,
                -2.5330252754866023
            ]
        },
        {
            "positions": [
                -1.4592736627337002,
                -1.5095112424004116,
                2.011888338226488,
                -0.8860184011654995,
                1.496364970255743,
                -2.374299275580142
            ]
        },
        {
            "positions": [
                -1.396926769399899,
                -1.5429395608399339,
                2.000700201622817,
                -0.9481465001943752,
                1.4482174488974284,
                -2.2155732756736812
            ]
        },
        {
            "positions": [
                -1.3345798760660978,
                -1.5763678792794564,
                1.9895120650191453,
                -1.0102745992232507,
                1.4000699275391137,
                -2.0568472757672205
            ]
        },
        {
            "positions": [
                -1.2722329827322967,
                -1.609796197718979,
                1.9783239284154739,
                -1.0724026982521264,
                1.3519224061807993,
                -1.89812127586076
            ]
        },
        {
            "positions": [
                -1.2098860893984953,
                -1.6432245161585013,
                1.9671357918118026,
                -1.134530797281002,
                1.3037748848224846,
                -1.7393952759542994
            ]
        },
        {
            "positions": [
                -1.1475391960646943,
                -1.6766528345980238,
                1.9559476552081312,
                -1.1966588963098777,
                1.25562736346417,
                -1.5806692760478387
            ]
        },
        {
            "positions": [
                -1.085192302730893,
                -1.7100811530375464,
                1.9447595186044597,
                -1.2587869953387534,
                1.2074798421058552,
                -1.4219432761413782
            ]
        },
        {
            "positions": [
                -1.022845409397092,
                -1.743509471477069,
                1.9335713820007883,
                -1.3209150943676289,
                1.1593323207475406,
                -1.2632172762349176
            ]
        },
        {
            "positions": [
                -0.9604985160632907,
                -1.7769377899165915,
                1.9223832453971168,
                -1.3830431933965044,
                1.1111847993892259,
                -1.104491276328457
            ]
        },
        {
            "positions": [
                -0.8981516227294896,
                -1.8103661083561138,
                1.9111951087934456,
                -1.4451712924253801,
                1.0630372780309112,
                -0.9457652764219964
            ]
        },
        {
            "positions": [
                -0.8358047293956883,
                -1.8437944267956363,
                1.900006972189774,
                -1.5072993914542558,
                1.0148897566725967,
                -0.7870392765155358
            ]
        },
        {
            "positions": [
                -0.7734578360618871,
                -1.8772227452351589,
                1.8888188355861026,
                -1.5694274904831316,
                0.9667422353142819,
                -0.6283132766090751
            ]
        },
        {
            "positions": [
                -0.711110942728086,
                -1.9106510636746812,
                1.8776306989824314,
                -1.631555589512007,
                0.9185947139559674,
                -0.46958727670261435
            ]
        },
        {
            "positions": [
                -0.6487640493942848,
                -1.9440793821142037,
                1.86644256237876,
                -1.6936836885408826,
                0.8704471925976527,
                -0.31086127679615405
            ]
        },
        {
            "positions": [
                -0.5864171560604836,
                -1.9775077005537263,
                1.8552544257750885,
                -1.7558117875697583,
                0.822299671239338,
                -0.15213527688969314
            ]
        },
        {
            "positions": [
                -0.7601865406988692,
                -1.9724605240689943,
                1.8440037807470857,
                -1.7848479240582238,
                0.6896031892509034,
                -0.16965442996917576
            ]
        },
        {
            "positions": [
                -0.9339559253372547,
                -1.9674133475842623,
                1.8327531357190832,
                -1.813884060546689,
                0.5569067072624687,
                -0.1871735830486584
            ]
        },
        {
            "positions": [
                -1.1077253099756403,
                -1.9623661710995306,
                1.8215024906910804,
                -1.8429201970351545,
                0.4242102252740342,
                -0.204692736128141
            ]
        },
        {
            "positions": [
                -1.2814946946140258,
                -1.9573189946147986,
                1.8102518456630778,
                -1.87195633352362,
                0.29151374328559954,
                -0.22221188920762364
            ]
        },
        {
            "positions": [
                -1.4552640792524114,
                -1.9522718181300667,
                1.799001200635075,
                -1.9009924700120855,
                0.1588172612971649,
                -0.23973104228710626
            ]
        },
        {
            "positions": [
                -1.629033463890797,
                -1.9472246416453347,
                1.7877505556070725,
                -1.9300286065005507,
                0.026120779308730357,
                -0.2572501953665889
            ]
        },
        {
            "positions": [
                -1.8028028485291827,
                -1.942177465160603,
                1.7764999105790698,
                -1.9590647429890162,
                -0.10657570267970429,
                -0.2747693484460715
            ]
        },
        {
            "positions": [
                -1.9765722331675681,
                -1.937130288675871,
                1.765249265551067,
                -1.9881008794774817,
                -0.23927218466813893,
                -0.29228850152555413
            ]
        },
        {
            "positions": [
                -2.150341617805954,
                -1.932083112191139,
                1.7539986205230644,
                -2.017137015965947,
                -0.3719686666565736,
                -0.3098076546050368
            ]
        },
        {
            "positions": [
                -2.324111002444339,
                -1.927035935706407,
                1.7427479754950617,
                -2.0461731524544127,
                -0.5046651486450082,
                -0.3273268076845194
            ]
        },
        {
            "positions": [
                -2.4978803870827253,
                -1.9219887592216751,
                1.7314973304670591,
                -2.0752092889428777,
                -0.6373616306334426,
                -0.344845960764002
            ]
        },
        {
            "positions": [
                -2.6716497717211105,
                -1.9169415827369434,
                1.7202466854390563,
                -2.104245425431343,
                -0.7700581126218773,
                -0.36236511384348463
            ]
        },
        {
            "positions": [
                -2.845419156359496,
                -1.9118944062522114,
                1.7089960404110536,
                -2.1332815619198087,
                -0.9027545946103119,
                -0.3798842669229673
            ]
        },
        {
            "positions": [
                -3.019188540997882,
                -1.9068472297674794,
                1.697745395383051,
                -2.162317698408274,
                -1.0354510765987466,
                -0.3974034200024499
            ]
        },
        {
            "positions": [
                -2.9905685854766118,
                -1.867766755095535,
                1.7143331585985244,
                -2.09307870601844,
                -0.9460602170277218,
                -0.5419313963356944
            ]
        },
        {
            "positions": [
                -2.9619486299553417,
                -1.8286862804235904,
                1.7309209218139976,
                -2.0238397136286057,
                -0.856669357456697,
                -0.686459372668939
            ]
        },
        {
            "positions": [
                -2.933328674434071,
                -1.789605805751646,
                1.747508685029471,
                -1.9546007212387717,
                -0.7672784978856724,
                -0.8309873490021834
            ]
        },
        {
            "positions": [
                -2.904708718912801,
                -1.7505253310797013,
                1.7640964482449444,
                -1.8853617288489377,
                -0.6778876383146475,
                -0.975515325335428
            ]
        },
        {
            "positions": [
                -2.876088763391531,
                -1.711444856407757,
                1.7806842114604176,
                -1.8161227364591035,
                -0.5884967787436228,
                -1.1200433016686726
            ]
        },
        {
            "positions": [
                -2.847468807870261,
                -1.6723643817358123,
                1.797271974675891,
                -1.7468837440692695,
                -0.49910591917259806,
                -1.264571278001917
            ]
        },
        {
            "positions": [
                -2.818848852348991,
                -1.6332839070638678,
                1.8138597378913643,
                -1.6776447516794353,
                -0.4097150596015733,
                -1.4090992543351615
            ]
        },
        {
            "positions": [
                -2.7902288968277205,
                -1.5942034323919234,
                1.8304475011068377,
                -1.6084057592896013,
                -0.3203242000305485,
                -1.553627230668406
            ]
        },
        {
            "positions": [
                -2.7616089413064504,
                -1.5551229577199788,
                1.847035264322311,
                -1.539166766899767,
                -0.23093334045952374,
                -1.6981552070016506
            ]
        },
        {
            "positions": [
                -2.7329889857851803,
                -1.5160424830480344,
                1.8636230275377843,
                -1.4699277745099328,
                -0.14154248088849897,
                -1.8426831833348951
            ]
        },
        {
            "positions": [
                -2.7043690302639103,
                -1.4769620083760897,
                1.8802107907532575,
                -1.4006887821200986,
                -0.052151621317474084,
                -1.9872111596681397
            ]
        },
        {
            "positions": [
                -2.6757490747426402,
                -1.4378815337041453,
                1.8967985539687309,
                -1.3314497897302648,
                0.037239238253550466,
                -2.131739136001384
            ]
        },
        {
            "positions": [
                -2.6471291192213697,
                -1.3988010590322006,
                1.9133863171842043,
                -1.2622107973404306,
                0.12663009782457535,
                -2.2762671123346285
            ]
        },
        {
            "positions": [
                -2.6185091637000997,
                -1.3597205843602562,
                1.9299740803996777,
                -1.1929718049505964,
                0.2160209573956,
                -2.420795088667873
            ]
        },
        {
            "positions": [
                -2.5898892081788296,
                -1.3206401096883118,
                1.9465618436151508,
                -1.1237328125607622,
                0.3054118169666249,
                -2.5653230650011176
            ]
        },
        {
            "positions": [
                -2.5612692526575596,
                -1.2815596350163672,
                1.9631496068306242,
                -1.0544938201709282,
                0.39480267653764956,
                -2.709851041334362
            ]
        },
        {
            "positions": [
                -2.532649297136289,
                -1.2424791603444227,
                1.9797373700460976,
                -0.985254827781094,
                0.48419353610867444,
                -2.8543790176676067
            ]
        },
        {
            "positions": [
                -2.504029341615019,
                -1.2033986856724783,
                1.9963251332615708,
                -0.91601583539126,
                0.5735843956796991,
                -2.9989069940008513
            ]
        },
        {
            "positions": [
                -2.475409386093749,
                -1.1643182110005337,
                2.012912896477044,
                -0.8467768430014256,
                0.6629752552507239,
                -3.143434970334096
            ]
        }
    ]
}