{
    "goal": {
        "global_pose": {
            "orientation": {
                "w": -0.4816463035849501,
                "x": 0.5182115481033762,
                "y": 0.4908360881923453,
                "z": -0.5084816262002911
            },
            "position": {
                "x": -0.8240239810943604,
                "y": 0.19912469901144506,
                "z": 0.16403168439865112
            }
        },
        "name": "move_to_storage_D"
    },
    "id": "SPARStwo_move_to_storage_D_9",
    "joint_names": [
        "shoulder_pan_joint",
        "shoulder_lift_joint",
        "elbow_joint",
        "wrist_1_joint",
        "wrist_2_joint",
        "wrist_3_joint"
    ],
    "metrics": {
        "cart_traj_len": 1.5836453963095884,
        "distance_elbow_joint": 0.6313199002348795,
        "distance_shoulder_lift_joint": 0.8768404659399343,
        "distance_shoulder_pan_joint": 1.733321004054656,
        "distance_wrist_1_joint": 3.8216079611465457,
        "distance_wrist_2_joint": 1.7795846403231872,
        "distance_wrist_3_joint": 3.1271022144998666,
        "smoothness": 0.25205543292311,
        "time": 5.040464694000001,
        "traj_len": 3.45973643305369,
        "weighted_distance": 4.881103688375052
    },
    "planner": "SPARStwo",
    "start": {
        "state": {
            "elbow_joint": -2.384821988534728,
            "shoulder_lift_joint": -2.2788054721415256,
            "shoulder_pan_joint": -0.1854694642142757,
            "wrist_1_joint": 1.4845938289331202,
            "wrist_2_joint": 0.17898776772866878,
            "wrist_3_joint": 0.037105688729662994
        }
    },
    "waypoints": [
        {
            "positions": [
                -0.1854694642142757,
                -2.2788054721415256,
                -2.384821988534728,
                1.4845938289331202,
                0.17898776772866878,
                0.037105688729662994
            ]
        },
        {
            "positions": [
                -0.14530347312038172,
                -2.2266544398070294,
                -2.423333121577367,
                1.4768779429427124,
                0.1487091731258478,
                -0.04562437898081198
            ]
        },
        {
            "positions": [
                -0.10020273361146662,
                -2.203531665880373,
                -2.401560199805763,
                1.3671871892906318,
                0.09139414465985213,
                -0.1711812419619062
            ]
        },
        {
            "positions": [
                -0.055101994102551524,
                -2.180408891953716,
                -2.379787278034159,
                1.257496435638551,
                0.03407911619385645,
                -0.29673810494300046
            ]
        },
        {
            "positions": [
                -0.010001254593636433,
                -2.1572861180270597,
                -2.3580143562625557,
                1.1478056819864704,
                -0.023235912272139225,
                -0.4222949679240947
            ]
        },
        {
            "positions": [
                0.03509948491527867,
                -2.134163344100403,
                -2.336241434490952,
                1.0381149283343896,
                -0.0805509407381349,
                -0.5478518309051889
            ]
        },
        {
            "positions": [
                0.08020022442419375,
                -2.1110405701737465,
                -2.314468512719348,
                0.928424174682309,
                -0.13786596920413058,
                -0.6734086938862831
            ]
        },
        {
            "positions": [
                0.12530096393310886,
                -2.0879177962470896,
                -2.2926955909477442,
                0.8187334210302283,
                -0.19518099767012626,
                -0.7989655568673774
            ]
        },
        {
            "positions": [
                0.17040170344202393,
                -2.064795022320433,
                -2.2709226691761404,
                0.7090426673781477,
                -0.25249602613612193,
                -0.9245224198484715
            ]
        },
        {
            "positions": [
                0.21550244295093907,
                -2.041672248393777,
                -2.249149747404537,
                0.5993519137260669,
                -0.3098110546021176,
                -1.0500792828295658
            ]
        },
        {
            "positions": [
                0.26060318245985414,
                -2.01854947446712,
                -2.227376825632933,
                0.4896611600739863,
                -0.3671260830681133,
                -1.1756361458106601
            ]
        },
        {
            "positions": [
                0.3057039219687692,
                -1.9954267005404636,
                -2.2056039038613293,
                0.3799704064219056,
                -0.42444111153410896,
                -1.3011930087917543
            ]
        },
        {
            "positions": [
                0.35080466147768435,
                -1.9723039266138067,
                -2.1838309820897255,
                0.2702796527698248,
                -0.48175614000010464,
                -1.4267498717728486
            ]
        },
        {
            "positions": [
                0.39590540098659943,
                -1.9491811526871503,
                -2.1620580603181216,
                0.1605888991177442,
                -0.5390711684661003,
                -1.5523067347539428
            ]
        },
        {
            "positions": [
                0.44100614049551456,
                -1.9260583787604937,
                -2.1402851385465183,
                0.050898145465663625,
                -0.596386196932096,
                -1.677863597735037
            ]
        },
        {
            "positions": [
                0.4861068800044296,
                -1.902935604833837,
                -2.1185122167749144,
                -0.05879260818641696,
                -0.6537012253980916,
                -1.803420460716131
            ]
        },
        {
            "positions": [
                0.5312076195133447,
                -1.8798128309071804,
                -2.0967392950033106,
                -0.16848336183849777,
                -0.7110162538640874,
                -1.9289773236972254
            ]
        },
        {
            "positions": [
                0.5763083590222599,
                -1.8566900569805238,
                -2.0749663732317067,
                -0.2781741154905786,
                -0.768331282330083,
                -2.0545341866783198
            ]
        },
        {
            "positions": [
                0.6214090985311749,
                -1.8335672830538674,
                -2.053193451460103,
                -0.38786486914265916,
                -0.8256463107960788,
                -2.180091049659414
            ]
        },
        {
            "positions": [
                0.66650983804009,
                -1.8104445091272108,
                -2.0314205296884995,
                -0.49755562279473975,
                -0.8829613392620743,
                -2.3056479126405085
            ]
        },
        {
            "positions": [
                0.711610577549005,
                -1.7873217352005542,
                -2.0096476079168957,
                -0.6072463764468203,
                -0.9402763677280699,
                -2.4312047756216026
            ]
        },
        {
            "positions": [
                0.7567113170579202,
                -1.7641989612738975,
                -1.9878746861452918,
                -0.7169371300989013,
                -0.9975913961940658,
                -2.556761638602697
            ]
        },
        {
            "positions": [
                0.6847894786231511,
                -1.7971293208259254,
                -1.9735701105307313,
                -0.8642168575638579,
                -1.0524100758668342,
                -2.6052375374361065
            ]
        },
        {
            "positions": [
                0.6128676401883819,
                -1.8300596803779532,
                -1.9592655349161707,
                -1.0114965850288147,
                -1.1072287555396025,
                -2.6537134362695163
            ]
        },
        {
            "positions": [
                0.5409458017536128,
                -1.862990039929981,
                -1.9449609593016104,
                -1.1587763124937713,
                -1.162047435212371,
                -2.702189335102926
            ]
        },
        {
            "positions": [
                0.4690239633188438,
                -1.8959203994820089,
                -1.9306563836870498,
                -1.306056039958728,
                -1.2168661148851394,
                -2.7506652339363358
            ]
        },
        {
            "positions": [
                0.3971021248840747,
                -1.9288507590340367,
                -1.9163518080724893,
                -1.4533357674236846,
                -1.271684794557908,
                -2.799141132769745
            ]
        },
        {
            "positions": [
                0.32518028644930563,
                -1.9617811185860645,
                -1.9020472324579287,
                -1.6006154948886413,
                -1.3265034742306763,
                -2.847617031603155
            ]
        },
        {
            "positions": [
                0.25325844801453656,
                -1.9947114781380924,
                -1.8877426568433682,
                -1.747895222353598,
                -1.3813221539034446,
                -2.8960929304365646
            ]
        },
        {
            "positions": [
                0.18133660957976738,
                -2.02764183769012,
                -1.8734380812288076,
                -1.8951749498185548,
                -1.4361408335762131,
                -2.9445688292699743
            ]
        },
        {
            "positions": [
                0.10941477114499831,
                -2.060572197242148,
                -1.8591335056142473,
                -2.0424546772835113,
                -1.4909595132489815,
                -2.993044728103384
            ]
        },
        {
            "positions": [
                0.03749293271022924,
                -2.093502556794176,
                -1.8448289299996867,
                -2.189734404748468,
                -1.54577819292175,
                -3.041520626936794
            ]
        },
        {
            "positions": [
                -0.034428905724539806,
                -2.1264329163462037,
                -1.8305243543851262,
                -2.3370141322134246,
                -1.6005968725945183,
                -3.0899965257702036
            ]
        }
    ]
}