{
    "goal": {
        "global_pose": {
            "orientation": {
                "w": 0.5084816217422485,
                "x": -0.49083608388900757,
                "y": 0.5182115435600281,
                "z": -0.4816462993621826
            },
            "position": {
                "x": 0.5540239810943604,
                "y": 0.030875300988554955,
                "z": 0.16403168439865112
            }
        },
        "name": "move_to_storage_A"
    },
    "id": "SPARStwo_move_to_storage_A_75",
    "joint_names": [
        "shoulder_pan_joint",
        "shoulder_lift_joint",
        "elbow_joint",
        "wrist_1_joint",
        "wrist_2_joint",
        "wrist_3_joint"
    ],
    "metrics": {
        "cart_traj_len": 0.3535772974751987,
        "distance_elbow_joint": 0.4473099710411388,
        "distance_shoulder_lift_joint": 0.2331306885363329,
        "distance_shoulder_pan_joint": 0.45859820305308774,
        "distance_wrist_1_joint": 0.23733924903730363,
        "distance_wrist_2_joint": 1.1146818951417974,
        "distance_wrist_3_joint": 0.09470968964442372,
        "smoothness": 4.440892133664971e-16,
        "time": 5.005592654,
        "traj_len": 1.6080328654769729,
        "weighted_distance": 2.031553646823542
    },
    "planner": "SPARStwo",
    "start": {
        "state": {
            "elbow_joint": 1.9715481507254546,
            "shoulder_lift_joint": -1.1394850672790213,
            "shoulder_pan_joint": 0.12281154597544902,
            "wrist_1_joint": -0.7804720171073349,
            "wrist_2_joint": 0.12958658322886563,
            "wrist_3_joint": -3.1924895760937617
        }
    },
    "waypoints": [
        {
            "positions": [
                0.12281154597544902,
                -1.1394850672790213,
                1.9715481507254546,
                -0.7804720171073349,
                0.12958658322886563,
                -3.1924895760937617
            ]
        },
        {
            "positions": [
                0.05729751696786506,
                -1.1727894513556403,
                2.035449575159903,
                -0.814377624112664,
                0.2888268539634081,
                -3.178959620430273
            ]
        },
        {
            "positions": [
                -0.008216512039718904,
                -1.2060938354322592,
                2.0993509995943516,
                -0.8482832311179931,
                0.44806712469795057,
                -3.1654296647667834
            ]
        },
        {
            "positions": [
                -0.07373054104730287,
                -1.2393982195088782,
                2.1632524240288,
                -0.8821888381233222,
                0.607307395432493,
                -3.1518997091032945
            ]
        },
        {
            "positions": [
                -0.13924457005488683,
                -1.2727026035854974,
                2.227153848463248,
                -0.9160944451286512,
                0.7665476661670355,
                -3.138369753439805
            ]
        },
        {
            "positions": [
                -0.2047585990624708,
                -1.3060069876621163,
                2.2910552728976965,
                -0.9500000521339804,
                0.925787936901578,
                -3.1248397977763163
            ]
        },
        {
            "positions": [
                -0.27027262807005475,
                -1.3393113717387353,
                2.354956697332145,
                -0.9839056591393095,
                1.0850282076361206,
                -3.111309842112827
            ]
        },
        {
            "positions": [
                -0.3357866570776387,
                -1.3726157558153542,
                2.4188581217665934,
                -1.0178112661446386,
                1.244268478370663,
                -3.097779886449338
            ]
        }
    ]
}