{
    "goal": {
        "global_pose": {
            "orientation": {
                "w": 0.7031023502349854,
                "x": -0.7110244035720825,
                "y": 0.007748599164187908,
                "z": 0.005598929710686207
            },
            "position": {
                "x": 0.11585023208521307,
                "y": 0.44412534475326537,
                "z": 0.3711530566215515
            }
        },
        "name": "move_to_auspresseinheit_A"
    },
    "id": "SPARS_move_to_auspresseinheit_A_139",
    "joint_names": [
        "shoulder_pan_joint",
        "shoulder_lift_joint",
        "elbow_joint",
        "wrist_1_joint",
        "wrist_2_joint",
        "wrist_3_joint"
    ],
    "metrics": {
        "cart_traj_len": 0.7465536809704432,
        "distance_elbow_joint": 0.1049920624249947,
        "distance_shoulder_lift_joint": 0.8689435401210941,
        "distance_shoulder_pan_joint": 1.0413647998149633,
        "distance_wrist_1_joint": 0.6975206958920684,
        "distance_wrist_2_joint": 1.3728047451982857,
        "distance_wrist_3_joint": 0.20016299673703308,
        "smoothness": 1.1217376983861778,
        "time": 5.024849714,
        "traj_len": 2.0702146845649705,
        "weighted_distance": 2.599315347308375
    },
    "planner": "SPARS",
    "start": {
        "state": {
            "elbow_joint": 2.4225746658250005,
            "shoulder_lift_joint": -1.3736534386056498,
            "shoulder_pan_joint": -0.3378633547517467,
            "wrist_1_joint": -1.0288598680537169,
            "wrist_2_joint": 1.233022673432363,
            "wrist_3_joint": -3.0940220416140027
        }
    },
    "waypoints": [
        {
            "positions": [
                -0.3378633547517467,
                -1.3736534386056498,
                2.4225746658250005,
                -1.0288598680537169,
                1.233022673432363,
                -3.0940220416140027
            ]
        },
        {
            "positions": [
                -0.3164852981760352,
                -1.4738369396932314,
                2.412951845902363,
                -0.9384704587533975,
                1.097108942990348,
                -3.082840659814351
            ]
        },
        {
            "positions": [
                -0.2951072416003237,
                -1.574020440780813,
                2.4033290259797253,
                -0.8480810494530782,
                0.9611952125483327,
                -3.0716592780146996
            ]
        },
        {
            "positions": [
                -0.2737291850246122,
                -1.6742039418683943,
                2.3937062060570877,
                -0.7576916401527587,
                0.8252814821063176,
                -3.060477896215048
            ]
        },
        {
            "positions": [
                -0.2523511284489006,
                -1.7743874429559758,
                2.3840833861344497,
                -0.6673022308524393,
                0.6893677516643024,
                -3.049296514415396
            ]
        },
        {
            "positions": [
                -0.2309730718731891,
                -1.8745709440435574,
                2.374460566211812,
                -0.57691282155212,
                0.5534540212222873,
                -3.0381151326157445
            ]
        },
        {
            "positions": [
                -0.20959501529747762,
                -1.974754445131139,
                2.3648377462891745,
                -0.4865234122518006,
                0.4175402907802721,
                -3.026933750816093
            ]
        },
        {
            "positions": [
                -0.18821695872176608,
                -2.0749379462187205,
                2.355214926366537,
                -0.39613400295148116,
                0.28162656033825695,
                -3.0157523690164414
            ]
        },
        {
            "positions": [
                -0.009873277964769556,
                -2.041406139717116,
                2.3627413909598434,
                -0.4090929691094477,
                0.36590828675909287,
                -3.040131033844336
            ]
        },
        {
            "positions": [
                0.16847040279222697,
                -2.0078743332155113,
                2.3702678555531493,
                -0.42205193526741425,
                0.4501900131799288,
                -3.06450969867223
            ]
        },
        {
            "positions": [
                0.34681408354922344,
                -1.9743425267139065,
                2.3777943201464558,
                -0.4350109014253808,
                0.5344717396007647,
                -3.0888883635001245
            ]
        },
        {
            "positions": [
                0.52515776430622,
                -1.9408107202123017,
                2.3853207847397617,
                -0.44796986758334734,
                0.6187534660216006,
                -3.1132670283280186
            ]
        },
        {
            "positions": [
                0.7035014450632165,
                -1.9072789137106971,
                2.392847249333068,
                -0.4609288337413139,
                0.7030351924424365,
                -3.137645693155913
            ]
        }
    ]
}