{
    "goal": {
        "global_pose": {
            "orientation": {
                "w": 0.7047431493862688,
                "x": -0.7094548369677653,
                "y": 0.0024358444001904,
                "z": -0.0022348060817251984
            },
            "position": {
                "x": -0.39052492380142206,
                "y": 0.3671506643295288,
                "z": 0.19426114857196808
            }
        },
        "name": "move_to_magneteinheit_D"
    },
    "id": "SPARStwo_move_to_magneteinheit_D_87",
    "joint_names": [
        "shoulder_pan_joint",
        "shoulder_lift_joint",
        "elbow_joint",
        "wrist_1_joint",
        "wrist_2_joint",
        "wrist_3_joint"
    ],
    "metrics": {
        "cart_traj_len": 5.085432426446595,
        "distance_elbow_joint": 5.711453219080976,
        "distance_shoulder_lift_joint": 1.83863800146092,
        "distance_shoulder_pan_joint": 3.8295100239127025,
        "distance_wrist_1_joint": 1.781801976316133,
        "distance_wrist_2_joint": 1.2606257767610984,
        "distance_wrist_3_joint": 3.235124721010182,
        "smoothness": 0.36522740821727295,
        "time": 5.067736565000001,
        "traj_len": 4.202041613137833,
        "weighted_distance": 5.2124687925818405
    },
    "planner": "SPARStwo",
    "start": {
        "state": {
            "elbow_joint": 0.749534889911806,
            "shoulder_lift_joint": -0.6476975780787326,
            "shoulder_pan_joint": -2.711696901376241,
            "wrist_1_joint": -0.07506478083263063,
            "wrist_2_joint": 0.43296659715538205,
            "wrist_3_joint": -3.14703540197715
        }
    },
    "waypoints": [
        {
            "positions": [
                -2.711696901376241,
                -0.6476975780787326,
                0.749534889911806,
                -0.07506478083263063,
                0.43296659715538205,
                -3.14703540197715
            ]
        },
        {
            "positions": [
                -2.720470789902725,
                -0.7196612160299315,
                0.845175138268113,
                -0.08980222303118003,
                0.40268860504580095,
                -2.983870551894581
            ]
        },
        {
            "positions": [
                -2.729244678429209,
                -0.7916248539811304,
                0.94081538662442,
                -0.10453966522972943,
                0.37241061293621985,
                -2.8207057018120123
            ]
        },
        {
            "positions": [
                -2.738018566955693,
                -0.8635884919323293,
                1.036455634980727,
                -0.11927710742827885,
                0.34213262082663876,
                -2.657540851729444
            ]
        },
        {
            "positions": [
                -2.746792455482177,
                -0.9355521298835282,
                1.132095883337034,
                -0.13401454962682824,
                0.3118546287170576,
                -2.494376001646875
            ]
        },
        {
            "positions": [
                -2.7555663440086606,
                -1.007515767834727,
                1.227736131693341,
                -0.14875199182537768,
                0.2815766366074765,
                -2.331211151564306
            ]
        },
        {
            "positions": [
                -2.7643402325351447,
                -1.079479405785926,
                1.323376380049648,
                -0.16348943402392707,
                0.2512986444978954,
                -2.1680463014817377
            ]
        },
        {
            "positions": [
                -2.773114121061629,
                -1.151443043737125,
                1.419016628405955,
                -0.17822687622247646,
                0.22102065238831428,
                -2.004881451399169
            ]
        },
        {
            "positions": [
                -2.7818880095881124,
                -1.2234066816883238,
                1.5146568767622621,
                -0.19296431842102588,
                0.19074266027873318,
                -1.8417166013166
            ]
        },
        {
            "positions": [
                -2.7906618981145965,
                -1.2953703196395228,
                1.6102971251185692,
                -0.2077017606195753,
                0.16046466816915206,
                -1.678551751234031
            ]
        },
        {
            "positions": [
                -2.7126181605457376,
                -1.3561041325567895,
                1.670684438818199,
                -0.17264019289631805,
                0.16949149146234346,
                -1.5336919436171337
            ]
        },
        {
            "positions": [
                -2.634574422976878,
                -1.4168379454740563,
                1.7310717525178287,
                -0.1375786251730608,
                0.17851831475553487,
                -1.3888321360002363
            ]
        },
        {
            "positions": [
                -2.556530685408019,
                -1.4775717583913228,
                1.7914590662174585,
                -0.10251705744980356,
                0.18754513804872625,
                -1.243972328383339
            ]
        },
        {
            "positions": [
                -2.4784869478391602,
                -1.5383055713085896,
                1.8518463799170886,
                -0.06745548972654633,
                0.19657196134191765,
                -1.0991125207664414
            ]
        },
        {
            "positions": [
                -2.400443210270301,
                -1.5990393842258563,
                1.9122336936167184,
                -0.03239392200328908,
                0.20559878463510906,
                -0.9542527131495441
            ]
        },
        {
            "positions": [
                -2.322399472701442,
                -1.659773197143123,
                1.9726210073163482,
                0.0026676457199681647,
                0.21462560792830046,
                -0.8093929055326468
            ]
        },
        {
            "positions": [
                -2.244355735132583,
                -1.7205070100603899,
                2.033008321015978,
                0.037729213443225405,
                0.22365243122149187,
                -0.6645330979157493
            ]
        },
        {
            "positions": [
                -2.1246982131659498,
                -1.7504856026373627,
                1.8848112086645976,
                0.07928162501164038,
                0.24348556369853,
                -0.6351160149778702
            ]
        },
        {
            "positions": [
                -2.0050406911993166,
                -1.7804641952143359,
                1.7366140963132173,
                0.12083403658005537,
                0.26331869617556813,
                -0.605698932039991
            ]
        },
        {
            "positions": [
                -1.8853831692326832,
                -1.8104427877913087,
                1.588416983961837,
                0.16238644814847034,
                0.2831518286526063,
                -0.5762818491021118
            ]
        },
        {
            "positions": [
                -1.7657256472660499,
                -1.8404213803682818,
                1.4402198716104564,
                0.20393885971688533,
                0.30298496112964446,
                -0.5468647661642326
            ]
        },
        {
            "positions": [
                -1.6460681252994167,
                -1.8703999729452547,
                1.292022759259076,
                0.2454912712853003,
                0.32281809360668257,
                -0.5174476832263535
            ]
        },
        {
            "positions": [
                -1.5264106033327836,
                -1.9003785655222276,
                1.1438256469076957,
                0.28704368285371523,
                0.34265122608372073,
                -0.48803060028847434
            ]
        },
        {
            "positions": [
                -1.4067530813661504,
                -1.9303571580992007,
                0.9956285345563154,
                0.3285960944221302,
                0.3624843585607589,
                -0.4586135173505952
            ]
        },
        {
            "positions": [
                -1.287095559399517,
                -1.9603357506761736,
                0.8474314222049348,
                0.3701485059905452,
                0.382317491037797,
                -0.429196434412716
            ]
        },
        {
            "positions": [
                -1.1674380374328837,
                -1.9903143432531465,
                0.6992343098535545,
                0.4117009175589602,
                0.4021506235148352,
                -0.3997793514748368
            ]
        },
        {
            "positions": [
                -1.0477805154662507,
                -2.0202929358301196,
                0.5510371975021742,
                0.45325332912737515,
                0.4219837559918733,
                -0.3703622685369577
            ]
        },
        {
            "positions": [
                -0.9281229934996174,
                -2.0502715284070927,
                0.40284008515079384,
                0.49480574069579014,
                0.44181688846891143,
                -0.3409451855990785
            ]
        },
        {
            "positions": [
                -0.8084654715329842,
                -2.0802501209840654,
                0.2546429727994135,
                0.5363581522642051,
                0.4616500209459496,
                -0.31152810266119935
            ]
        },
        {
            "positions": [
                -0.6888079495663508,
                -2.1102287135610385,
                0.10644586044803295,
                0.5779105638326202,
                0.48148315342298775,
                -0.28211101972332014
            ]
        },
        {
            "positions": [
                -0.5691504275997177,
                -2.140207306138011,
                -0.041751251903347164,
                0.6194629754010351,
                0.5013162859000259,
                -0.252693936785441
            ]
        },
        {
            "positions": [
                -0.4494929056330845,
                -2.1701858987149842,
                -0.1899483642547275,
                0.6610153869694501,
                0.521149418377064,
                -0.22327685384756185
            ]
        },
        {
            "positions": [
                -0.32983538366645115,
                -2.2001644912919573,
                -0.3381454766061083,
                0.7025677985378651,
                0.5409825508541022,
                -0.19385977090968265
            ]
        },
        {
            "positions": [
                -0.210177861699818,
                -2.2301430838689305,
                -0.48634258895748816,
                0.74412021010628,
                0.5608156833311403,
                -0.1644426879718035
            ]
        },
        {
            "positions": [
                -0.09052033973318441,
                -2.260121676445903,
                -0.6345397013088689,
                0.7856726216746951,
                0.5806488158081785,
                -0.13502560503392425
            ]
        },
        {
            "positions": [
                0.029137182233448744,
                -2.2901002690228762,
                -0.7827368136602493,
                0.82722503324311,
                0.6004819482852166,
                -0.1056085220960451
            ]
        },
        {
            "positions": [
                0.14879470420008145,
                -2.320078861599849,
                -0.9309339260116296,
                0.868777444811525,
                0.6203150807622547,
                -0.07619143915816606
            ]
        },
        {
            "positions": [
                0.26845222616671505,
                -2.350057454176822,
                -1.07913103836301,
                0.91032985637994,
                0.6401482132392929,
                -0.046774356220286806
            ]
        },
        {
            "positions": [
                0.38810974813334814,
                -2.380036046753795,
                -1.2273281507143903,
                0.951882267948355,
                0.659981345716331,
                -0.01735727328240763
            ]
        },
        {
            "positions": [
                0.316638075517548,
                -2.366748605155563,
                -1.373283565245195,
                1.0130798889435122,
                0.5989054494378699,
                -0.0041764492429780375
            ]
        },
        {
            "positions": [
                0.2451664029017479,
                -2.3534611635573306,
                -1.5192389797759993,
                1.0742775099386694,
                0.5378295531594087,
                0.009004374796451557
            ]
        },
        {
            "positions": [
                0.17369473028594778,
                -2.3401737219590983,
                -1.6651943943068037,
                1.1354751309338267,
                0.4767536568809476,
                0.022185198835881152
            ]
        },
        {
            "positions": [
                0.10222305767014767,
                -2.326886280360866,
                -1.8111498088376083,
                1.196672751928984,
                0.4156777606024864,
                0.035366022875310744
            ]
        },
        {
            "positions": [
                0.030751385054347546,
                -2.3135988387626343,
                -1.957105223368413,
                1.2578703729241414,
                0.3546018643240253,
                0.048546846914740344
            ]
        },
        {
            "positions": [
                -0.04072028756145257,
                -2.300311397164402,
                -2.103060637899217,
                1.3190679939192986,
                0.29352596804556413,
                0.061727670954169936
            ]
        },
        {
            "positions": [
                -0.11219196017725269,
                -2.2870239555661698,
                -2.249016052430022,
                1.3802656149144559,
                0.23245007176710297,
                0.07490849499359953
            ]
        },
        {
            "positions": [
                -0.18366363279305287,
                -2.2737365139679375,
                -2.3949714669608264,
                1.4414632359096131,
                0.1713741754886418,
                0.08808931903302912
            ]
        }
    ]
}