{
    "goal": {
        "global_pose": {
            "orientation": {
                "w": 0.005598929693374612,
                "x": 0.007748599140229565,
                "y": 0.7110244013736278,
                "z": -0.7031023480610252
            },
            "position": {
                "x": -0.8858502320852131,
                "y": -0.7141253447532654,
                "z": 0.3711530566215515
            }
        },
        "name": "move_to_auspresseinheit_C"
    },
    "id": "SPARS_move_to_auspresseinheit_C_85",
    "joint_names": [
        "shoulder_pan_joint",
        "shoulder_lift_joint",
        "elbow_joint",
        "wrist_1_joint",
        "wrist_2_joint",
        "wrist_3_joint"
    ],
    "metrics": {
        "cart_traj_len": 0.4928619017137532,
        "distance_elbow_joint": 0.9925045560090859,
        "distance_shoulder_lift_joint": 0.32071546019929253,
        "distance_shoulder_pan_joint": 0.2567447144102495,
        "distance_wrist_1_joint": 0.6676135470726096,
        "distance_wrist_2_joint": 1.3015674806883917,
        "distance_wrist_3_joint": 0.050316236809281545,
        "smoothness": 3.2297397080004555e-16,
        "time": 5.061148987999999,
        "traj_len": 1.894587552790557,
        "weighted_distance": 2.3789231800477446
    },
    "planner": "SPARS",
    "start": {
        "state": {
            "elbow_joint": 1.7527959577737207,
            "shoulder_lift_joint": -0.9740617694225068,
            "shoulder_pan_joint": -2.967991417825858,
            "wrist_1_joint": -0.759517768980727,
            "wrist_2_joint": 1.7443932448377408,
            "wrist_3_joint": -3.0840537646736568
        }
    },
    "waypoints": [
        {
            "positions": [
                -2.967991417825858,
                -0.9740617694225068,
                1.7527959577737207,
                -0.759517768980727,
                1.7443932448377408,
                -3.0840537646736568
            ]
        },
        {
            "positions": [
                -2.942316946384833,
                -0.9419902234025775,
                1.653545502172812,
                -0.692756414273466,
                1.6142364967689016,
                -3.089085388354585
            ]
        },
        {
            "positions": [
                -2.9166424749438082,
                -0.9099186773826483,
                1.5542950465719034,
                -0.625995059566205,
                1.4840797487000625,
                -3.0941170120355133
            ]
        },
        {
            "positions": [
                -2.890968003502783,
                -0.877847131362719,
                1.4550445909709948,
                -0.5592337048589441,
                1.3539230006312233,
                -3.0991486357164413
            ]
        },
        {
            "positions": [
                -2.865293532061758,
                -0.8457755853427897,
                1.3557941353700862,
                -0.49247235015168317,
                1.2237662525623842,
                -3.1041802593973693
            ]
        },
        {
            "positions": [
                -2.839619060620733,
                -0.8137040393228605,
                1.2565436797691776,
                -0.4257109954444222,
                1.093609504493545,
                -3.1092118830782978
            ]
        },
        {
            "positions": [
                -2.8139445891797084,
                -0.7816324933029313,
                1.157293224168269,
                -0.35894964073716124,
                0.9634527564247058,
                -3.114243506759226
            ]
        },
        {
            "positions": [
                -2.7882701177386835,
                -0.749560947283002,
                1.0580427685673606,
                -0.2921882860299003,
                0.8332960083558667,
                -3.119275130440154
            ]
        },
        {
            "positions": [
                -2.762595646297658,
                -0.7174894012630728,
                0.9587923129664518,
                -0.22542693132263936,
                0.7031392602870274,
                -3.124306754121082
            ]
        },
        {
            "positions": [
                -2.7369211748566333,
                -0.6854178552431435,
                0.8595418573655433,
                -0.1586655766153784,
                0.5729825122181882,
                -3.1293383778020103
            ]
        },
        {
            "positions": [
                -2.7112467034156085,
                -0.6533463092232142,
                0.7602914017646347,
                -0.09190422190811744,
                0.44282576414934904,
                -3.1343700014829383
            ]
        }
    ]
}