{
    "goal": {
        "global_pose": {
            "orientation": {
                "w": 0.005598929693374612,
                "x": 0.007748599140229565,
                "y": 0.7110244013736278,
                "z": -0.7031023480610252
            },
            "position": {
                "x": -0.8858502320852131,
                "y": -0.7141253447532654,
                "z": 0.3711530566215515
            }
        },
        "name": "move_to_auspresseinheit_C"
    },
    "id": "SPARStwo_move_to_auspresseinheit_C_43",
    "joint_names": [
        "shoulder_pan_joint",
        "shoulder_lift_joint",
        "elbow_joint",
        "wrist_1_joint",
        "wrist_2_joint",
        "wrist_3_joint"
    ],
    "metrics": {
        "cart_traj_len": 0.49396748939699187,
        "distance_elbow_joint": 1.0191247999417996,
        "distance_shoulder_lift_joint": 0.33448474241178583,
        "distance_shoulder_pan_joint": 0.2558102899415875,
        "distance_wrist_1_joint": 0.7138741296751071,
        "distance_wrist_2_joint": 1.3179238843500443,
        "distance_wrist_3_joint": 0.07349440617918379,
        "smoothness": 3.2297397080004555e-16,
        "time": 5.0178767109999995,
        "traj_len": 1.9273588800479031,
        "weighted_distance": 2.4276529980380284
    },
    "planner": "SPARStwo",
    "start": {
        "state": {
            "elbow_joint": 1.7527959577737207,
            "shoulder_lift_joint": -0.9740617694225068,
            "shoulder_pan_joint": -2.967991417825858,
            "wrist_1_joint": -0.759517768980727,
            "wrist_2_joint": 1.7443932448377408,
            "wrist_3_joint": -3.0840537646736568
        }
    },
    "waypoints": [
        {
            "positions": [
                -2.967991417825858,
                -0.9740617694225068,
                1.7527959577737207,
                -0.759517768980727,
                1.7443932448377408,
                -3.0840537646736568
            ]
        },
        {
            "positions": [
                -2.942410388831699,
                -0.9406132951813282,
                1.6508834777795407,
                -0.6881303560132163,
                1.6126008564027363,
                -3.091403205291575
            ]
        },
        {
            "positions": [
                -2.9168293598375405,
                -0.9071648209401496,
                1.5489709977853607,
                -0.6167429430457055,
                1.480808467967732,
                -3.0987526459094936
            ]
        },
        {
            "positions": [
                -2.8912483308433816,
                -0.873716346698971,
                1.4470585177911808,
                -0.5453555300781948,
                1.3490160795327275,
                -3.106102086527412
            ]
        },
        {
            "positions": [
                -2.865667301849223,
                -0.8402678724577924,
                1.3451460377970008,
                -0.47396811711068415,
                1.2172236910977232,
                -3.1134515271453305
            ]
        },
        {
            "positions": [
                -2.840086272855064,
                -0.8068193982166139,
                1.2432335578028209,
                -0.40258070414317343,
                1.0854313026627187,
                -3.1208009677632487
            ]
        },
        {
            "positions": [
                -2.8145052438609053,
                -0.7733709239754353,
                1.141321077808641,
                -0.3311932911756627,
                0.9536389142277143,
                -3.128150408381167
            ]
        },
        {
            "positions": [
                -2.788924214866747,
                -0.7399224497342567,
                1.039408597814461,
                -0.25980587820815204,
                0.8218465257927099,
                -3.1354998489990855
            ]
        },
        {
            "positions": [
                -2.763343185872588,
                -0.7064739754930781,
                0.937496117820281,
                -0.18841846524064132,
                0.6900541373577054,
                -3.1428492896170037
            ]
        },
        {
            "positions": [
                -2.7377621568784294,
                -0.6730255012518995,
                0.835583637826101,
                -0.1170310522731306,
                0.5582617489227009,
                -3.1501987302349224
            ]
        },
        {
            "positions": [
                -2.7121811278842705,
                -0.6395770270107209,
                0.7336711578319212,
                -0.04564363930561991,
                0.4264693604876966,
                -3.1575481708528406
            ]
        }
    ]
}