{
    "goal": {
        "global_pose": {
            "orientation": {
                "w": 0.5084816217422485,
                "x": -0.49083608388900757,
                "y": 0.5182115435600281,
                "z": -0.4816462993621826
            },
            "position": {
                "x": 0.5540239810943604,
                "y": 0.030875300988554955,
                "z": 0.16403168439865112
            }
        },
        "name": "move_to_storage_A"
    },
    "id": "SPARS_move_to_storage_A_99",
    "joint_names": [
        "shoulder_pan_joint",
        "shoulder_lift_joint",
        "elbow_joint",
        "wrist_1_joint",
        "wrist_2_joint",
        "wrist_3_joint"
    ],
    "metrics": {
        "cart_traj_len": 0.35341609453249445,
        "distance_elbow_joint": 0.4506788848804326,
        "distance_shoulder_lift_joint": 0.23382379744848958,
        "distance_shoulder_pan_joint": 0.4641654998421604,
        "distance_wrist_1_joint": 0.248146427948173,
        "distance_wrist_2_joint": 1.0903329727227513,
        "distance_wrist_3_joint": 0.09299462623157062,
        "smoothness": 6.661338165333112e-16,
        "time": 5.0249107859999995,
        "traj_len": 1.6062821075619242,
        "weighted_distance": 2.0259839244692053
    },
    "planner": "SPARS",
    "start": {
        "state": {
            "elbow_joint": 1.971548259319323,
            "shoulder_lift_joint": -1.1394851275133948,
            "shoulder_pan_joint": 0.1228115487234821,
            "wrist_1_joint": -0.7804723859257726,
            "wrist_2_joint": 0.12958671773740124,
            "wrist_3_joint": -3.192489227718131
        }
    },
    "waypoints": [
        {
            "positions": [
                0.1228115487234821,
                -1.1394851275133948,
                1.971548259319323,
                -0.7804723859257726,
                0.12958671773740124,
                -3.192489227718131
            ]
        },
        {
            "positions": [
                0.05650219160317348,
                -1.1728885271488934,
                2.0359309571593847,
                -0.8159218756326545,
                0.2853485709835086,
                -3.179204281113621
            ]
        },
        {
            "positions": [
                -0.009807165517135147,
                -1.206291926784392,
                2.1003136549994466,
                -0.8513713653395363,
                0.4411104242296159,
                -3.165919334509111
            ]
        },
        {
            "positions": [
                -0.07611652263744376,
                -1.2396953264198904,
                2.1646963528395085,
                -0.8868208550464182,
                0.5968722774757232,
                -3.152634387904601
            ]
        },
        {
            "positions": [
                -0.1424258797577524,
                -1.2730987260553888,
                2.2290790506795704,
                -0.9222703447533,
                0.7526341307218306,
                -3.139349441300091
            ]
        },
        {
            "positions": [
                -0.20873523687806106,
                -1.3065021256908873,
                2.293461748519632,
                -0.9577198344601818,
                0.908395983967938,
                -3.126064494695581
            ]
        },
        {
            "positions": [
                -0.2750445939983696,
                -1.3399055253263858,
                2.3578444463596937,
                -0.9931693241670637,
                1.0641578372140452,
                -3.1127795480910705
            ]
        },
        {
            "positions": [
                -0.3413539511186783,
                -1.3733089249618844,
                2.4222271441997556,
                -1.0286188138739456,
                1.2199196904601526,
                -3.0994946014865605
            ]
        }
    ]
}{
    "goal": {
        "global_pose": {
            "orientation": {
                "w": 0.5084816217422485,
                "x": -0.49083608388900757,
                "y": 0.5182115435600281,
                "z": -0.4816462993621826
            },
            "position": {
                "x": 0.5540239810943604,
                "y": 0.030875300988554955,
                "z": 0.16403168439865112
            }
        },
        "name": "move_to_storage_A"
    },
    "id": "SPARS_move_to_storage_A_99",
    "joint_names": [
        "shoulder_pan_joint",
        "shoulder_lift_joint",
        "elbow_joint",
        "wrist_1_joint",
        "wrist_2_joint",
        "wrist_3_joint"
    ],
    "metrics": {
        "cart_traj_len": 0.3532596453611542,
        "distance_elbow_joint": 0.4487615015120583,
        "distance_shoulder_lift_joint": 0.23343994997487094,
        "distance_shoulder_pan_joint": 0.4605056807069366,
        "distance_wrist_1_joint": 0.23939136466689015,
        "distance_wrist_2_joint": 1.1047265152268608,
        "distance_wrist_3_joint": 0.08920637083624117,
        "smoothness": 4.440892098500626e-16,
        "time": 5.0215412310000005,
        "traj_len": 1.6050019884485685,
        "weighted_distance": 2.024490554309921
    },
    "planner": "SPARS",
    "start": {
        "state": {
            "elbow_joint": 1.97154746011099,
            "shoulder_lift_joint": -1.13948474672311,
            "shoulder_pan_joint": 0.12281154466712228,
            "wrist_1_joint": -0.7804688027058302,
            "wrist_2_joint": 0.12958655903071145,
            "wrist_3_joint": 3.0906928834467795
        }
    },
    "waypoints": [
        {
            "positions": [
                0.12281154466712228,
                -1.13948474672311,
                1.97154746011099,
                -0.7804688027058302,
                0.12958655903071145,
                3.0906928834467795
            ]
        },
        {
            "positions": [
                0.05702501885184563,
                -1.1728333110052345,
                2.035656246041284,
                -0.8146675690868145,
                0.28740463263454874,
                3.1034366507091
            ]
        },
        {
            "positions": [
                -0.008761506963431018,
                -1.2061818752873588,
                2.099765031971578,
                -0.8488663354677988,
                0.445222706238386,
                3.1161804179714196
            ]
        },
        {
            "positions": [
                -0.07454803277870768,
                -1.2395304395694833,
                2.163873817901872,
                -0.8830651018487831,
                0.6030407798422233,
                3.12892418523374
            ]
        },
        {
            "positions": [
                -0.1403345585939843,
                -1.2728790038516076,
                2.227982603832166,
                -0.9172638682297674,
                0.7608588534460605,
                3.1416679524960602
            ]
        },
        {
            "positions": [
                -0.20612108440926097,
                -1.306227568133732,
                2.29209138976246,
                -0.9514626346107518,
                0.9186769270498978,
                3.1544117197583805
            ]
        },
        {
            "positions": [
                -0.27190761022453763,
                -1.3395761324158564,
                2.356200175692754,
                -0.985661400991736,
                1.076495000653735,
                3.1671554870207004
            ]
        },
        {
            "positions": [
                -0.3376941360398143,
                -1.372924696697981,
                2.420308961623048,
                -1.0198601673727203,
                1.2343130742575723,
                3.1798992542830207
            ]
        }
    ]
}{
    "goal": {
        "global_pose": {
            "orientation": {
                "w": 0.5084816217422485,
                "x": -0.49083608388900757,
                "y": 0.5182115435600281,
                "z": -0.4816462993621826
            },
            "position": {
                "x": 0.5540239810943604,
                "y": 0.030875300988554955,
                "z": 0.16403168439865112
            }
        },
        "name": "move_to_storage_A"
    },
    "id": "SPARS_move_to_storage_A_99",
    "joint_names": [
        "shoulder_pan_joint",
        "shoulder_lift_joint",
        "elbow_joint",
        "wrist_1_joint",
        "wrist_2_joint",
        "wrist_3_joint"
    ],
    "metrics": {
        "cart_traj_len": 0.3536629278557118,
        "distance_elbow_joint": 0.4529353517601704,
        "distance_shoulder_lift_joint": 0.23417884125687016,
        "distance_shoulder_pan_joint": 0.459161743326648,
        "distance_wrist_1_joint": 0.25556269309570556,
        "distance_wrist_2_joint": 1.1143602947457485,
        "distance_wrist_3_joint": 0.09878099410033547,
        "smoothness": 0.0,
        "time": 5.007735686,
        "traj_len": 1.6170899536777408,
        "weighted_distance": 2.0451075507971708
    },
    "planner": "SPARS",
    "start": {
        "state": {
            "elbow_joint": 1.9715472970024885,
            "shoulder_lift_joint": -1.1394870060712896,
            "shoulder_pan_joint": 0.12281152778156021,
            "wrist_1_joint": -0.780463741449964,
            "wrist_2_joint": 0.12958659822042276,
            "wrist_3_joint": 3.090690232415272
        }
    },
    "waypoints": [
        {
            "positions": [
                0.12281152778156021,
                -1.1394870060712896,
                1.9715472970024885,
                -0.780463741449964,
                0.12958659822042276,
                3.090690232415272
            ]
        },
        {
            "positions": [
                0.05721699302061051,
                -1.1729411262508425,
                2.0362523472539413,
                -0.8169726976064934,
                0.28878092604124395,
                3.1048018030010343
            ]
        },
        {
            "positions": [
                -0.008377541740339195,
                -1.2063952464303953,
                2.1009573975053946,
                -0.8534816537630228,
                0.44797525386206516,
                3.118913373586796
            ]
        },
        {
            "positions": [
                -0.0739720765012889,
                -1.2398493666099482,
                2.1656624477568474,
                -0.889990609919552,
                0.6071695816828864,
                3.1330249441725586
            ]
        },
        {
            "positions": [
                -0.1395666112622386,
                -1.273303486789501,
                2.2303674980083,
                -0.9264995660760814,
                0.7663639095037076,
                3.1471365147583206
            ]
        },
        {
            "positions": [
                -0.20516114602318833,
                -1.306757606969054,
                2.2950725482597534,
                -0.9630085222326108,
                0.9255582373245288,
                3.161248085344083
            ]
        },
        {
            "positions": [
                -0.27075568078413803,
                -1.340211727148607,
                2.359777598511206,
                -0.9995174783891402,
                1.08475256514535,
                3.175359655929845
            ]
        },
        {
            "positions": [
                -0.33635021554508776,
                -1.3736658473281598,
                2.424482648762659,
                -1.0360264345456696,
                1.2439468929661712,
                3.1894712265156073
            ]
        }
    ]
}