{
    "goal": {
        "global_pose": {
            "orientation": {
                "w": 0.7047431468963623,
                "x": -0.7094548344612122,
                "y": 0.0024358443915843964,
                "z": -0.0022348060738295317
            },
            "position": {
                "x": 0.6094750761985779,
                "y": 0.3671506643295288,
                "z": 0.19426114857196808
            }
        },
        "name": "move_to_magneteinheit_A"
    },
    "id": "SPARS_move_to_magneteinheit_A_12",
    "joint_names": [
        "shoulder_pan_joint",
        "shoulder_lift_joint",
        "elbow_joint",
        "wrist_1_joint",
        "wrist_2_joint",
        "wrist_3_joint"
    ],
    "metrics": {
        "cart_traj_len": 4.429171205414236,
        "distance_elbow_joint": 3.869320525207635,
        "distance_shoulder_lift_joint": 0.815010897878621,
        "distance_shoulder_pan_joint": 3.9989050196306932,
        "distance_wrist_1_joint": 1.0027181730486547,
        "distance_wrist_2_joint": 1.6909003109835636,
        "distance_wrist_3_joint": 2.5650811555194015,
        "smoothness": 0.24401072081684508,
        "time": 5.038529759,
        "traj_len": 3.7338902075809046,
        "weighted_distance": 4.665374248368461
    },
    "planner": "SPARS",
    "start": {
        "state": {
            "elbow_joint": -1.9196185241190666,
            "shoulder_lift_joint": -1.2443396400964142,
            "shoulder_pan_joint": 2.6996025414629847,
            "wrist_1_joint": -1.5485510000780065,
            "wrist_2_joint": -1.5709468930060704,
            "wrist_3_joint": 0.4420197071253992
        }
    },
    "waypoints": [
        {
            "positions": [
                2.6996025414629847,
                -1.2443396400964142,
                -1.9196185241190666,
                -1.5485510000780065,
                -1.5709468930060704,
                0.4420197071253992
            ]
        },
        {
            "positions": [
                2.5778170840988577,
                -1.2270836717786997,
                -1.827394074591466,
                -1.5140746773918037,
                -1.5182460055170122,
                0.5109128440971871
            ]
        },
        {
            "positions": [
                2.456031626734731,
                -1.2098277034609852,
                -1.7351696250638657,
                -1.4795983547056006,
                -1.4655451180279537,
                0.5798059810689751
            ]
        },
        {
            "positions": [
                2.334246169370604,
                -1.1925717351432705,
                -1.6429451755362652,
                -1.4451220320193978,
                -1.4128442305388955,
                0.648699118040763
            ]
        },
        {
            "positions": [
                2.2124607120064774,
                -1.175315766825556,
                -1.5507207260086648,
                -1.410645709333195,
                -1.360143343049837,
                0.7175922550125509
            ]
        },
        {
            "positions": [
                2.0906752546423504,
                -1.1580597985078416,
                -1.4584962764810643,
                -1.3761693866469922,
                -1.3074424555607789,
                0.7864853919843389
            ]
        },
        {
            "positions": [
                1.9688897972782236,
                -1.140803830190127,
                -1.3662718269534637,
                -1.3416930639607891,
                -1.2547415680717207,
                0.8553785289561268
            ]
        },
        {
            "positions": [
                1.8471043399140967,
                -1.1235478618724124,
                -1.2740473774258634,
                -1.3072167412745863,
                -1.2020406805826622,
                0.9242716659279147
            ]
        },
        {
            "positions": [
                1.72531888254997,
                -1.106291893554698,
                -1.1818229278982628,
                -1.2727404185883833,
                -1.149339793093604,
                0.9931648028997025
            ]
        },
        {
            "positions": [
                1.603533425185843,
                -1.0890359252369834,
                -1.0895984783706623,
                -1.2382640959021805,
                -1.0966389056045456,
                1.0620579398714907
            ]
        },
        {
            "positions": [
                1.481747967821716,
                -1.071779956919269,
                -0.9973740288430618,
                -1.2037877732159776,
                -1.0439380181154874,
                1.1309510768432784
            ]
        },
        {
            "positions": [
                1.3599625104575892,
                -1.0545239886015545,
                -0.9051495793154614,
                -1.1693114505297748,
                -0.991237130626429,
                1.1998442138150662
            ]
        },
        {
            "positions": [
                1.2381770530934624,
                -1.0372680202838398,
                -0.8129251297878608,
                -1.1348351278435718,
                -0.9385362431373708,
                1.2687373507868545
            ]
        },
        {
            "positions": [
                1.1163915957293356,
                -1.0200120519661253,
                -0.7207006802602605,
                -1.100358805157369,
                -0.8858353556483125,
                1.3376304877586422
            ]
        },
        {
            "positions": [
                0.9946061383652087,
                -1.0027560836484108,
                -0.6284762307326599,
                -1.0658824824711661,
                -0.8331344681592542,
                1.40652362473043
            ]
        },
        {
            "positions": [
                0.8728206810010817,
                -0.9855001153306963,
                -0.5362517812050593,
                -1.031406159784963,
                -0.7804335806701957,
                1.4754167617022182
            ]
        },
        {
            "positions": [
                0.7510352236369551,
                -0.9682441470129818,
                -0.444027331677459,
                -0.9969298370987603,
                -0.7277326931811375,
                1.544309898674006
            ]
        },
        {
            "positions": [
                0.629249766272828,
                -0.9509881786952672,
                -0.3518028821498582,
                -0.9624535144125573,
                -0.6750318056920792,
                1.6132030356457943
            ]
        },
        {
            "positions": [
                0.5074643089087014,
                -0.9337322103775527,
                -0.2595784326222579,
                -0.9279771917263545,
                -0.622330918203021,
                1.682096172617582
            ]
        },
        {
            "positions": [
                0.3856788515445744,
                -0.9164762420598382,
                -0.16735398309465732,
                -0.8935008690401516,
                -0.5696300307139626,
                1.7509893095893698
            ]
        },
        {
            "positions": [
                0.2638933941804473,
                -0.8992202737421238,
                -0.07512953356705698,
                -0.8590245463539488,
                -0.5169291432249044,
                1.8198824465611576
            ]
        },
        {
            "positions": [
                0.14210793681632028,
                -0.8819643054244091,
                0.017094915960543577,
                -0.8245482236677458,
                -0.4642282557358459,
                1.8887755835329458
            ]
        },
        {
            "positions": [
                0.020322479452193676,
                -0.8647083371066946,
                0.10931936548814392,
                -0.790071900981543,
                -0.4115273682467877,
                1.9576687205047336
            ]
        },
        {
            "positions": [
                -0.10146297791193337,
                -0.8474523687889801,
                0.2015438150157447,
                -0.75559557829534,
                -0.3588264807577295,
                2.0265618574765214
            ]
        },
        {
            "positions": [
                -0.22324843527605998,
                -0.8301964004712656,
                0.29376826454334504,
                -0.7211192556091371,
                -0.3061255932686713,
                2.0954549944483096
            ]
        },
        {
            "positions": [
                -0.345033892640187,
                -0.812940432153551,
                0.3859927140709454,
                -0.6866429329229342,
                -0.25342470577961285,
                2.1643481314200974
            ]
        },
        {
            "positions": [
                -0.4668193500043136,
                -0.7956844638358365,
                0.4782171635985457,
                -0.6521666102367314,
                -0.20072381829055463,
                2.233241268391885
            ]
        },
        {
            "positions": [
                -0.5886048073684406,
                -0.778428495518122,
                0.5704416131261463,
                -0.6176902875505285,
                -0.14802293080149626,
                2.3021344053636734
            ]
        },
        {
            "positions": [
                -0.5096383995018552,
                -0.8172173569959363,
                0.7236927673441931,
                -0.6256744498306592,
                -0.11824778093716412,
                2.380464011728243
            ]
        },
        {
            "positions": [
                -0.4306719916352697,
                -0.8560062184737506,
                0.87694392156224,
                -0.63365861211079,
                -0.08847263107283199,
                2.458793618092813
            ]
        },
        {
            "positions": [
                -0.3517055837686843,
                -0.8947950799515649,
                1.030195075780287,
                -0.6416427743909207,
                -0.058697481208499866,
                2.5371232244573827
            ]
        },
        {
            "positions": [
                -0.2727391759020989,
                -0.9335839414293792,
                1.1834462299983337,
                -0.6496269366710514,
                -0.02892233134416773,
                2.615452830821952
            ]
        },
        {
            "positions": [
                -0.1937727680355134,
                -0.9723728029071936,
                1.3366973842163807,
                -0.6576110989511822,
                0.0008528185201644167,
                2.693782437186522
            ]
        },
        {
            "positions": [
                -0.11480636016892803,
                -1.0111616643850079,
                1.4899485384344275,
                -0.665595261231313,
                0.030627968384496523,
                2.7721120435510915
            ]
        },
        {
            "positions": [
                -0.035839952302342604,
                -1.0499505258628221,
                1.6431996926524743,
                -0.6735794235114436,
                0.06040311824882866,
                2.8504416499156613
            ]
        },
        {
            "positions": [
                0.04312645556424277,
                -1.0887393873406364,
                1.7964508468705211,
                -0.6815635857915744,
                0.09017826811316079,
                2.928771256280231
            ]
        },
        {
            "positions": [
                0.12209286343082822,
                -1.1275282488184508,
                1.9497020010885682,
                -0.6895477480717052,
                0.11995341797749293,
                3.007100862644801
            ]
        }
    ]
}