{
    "goal": {
        "global_pose": {
            "orientation": {
                "w": 0.7031023480610252,
                "x": -0.7110244013736278,
                "y": 0.0077485991402295624,
                "z": 0.005598929693374583
            },
            "position": {
                "x": -0.8841497679147869,
                "y": 0.44412534475326537,
                "z": 0.3711530566215515
            }
        },
        "name": "move_to_auspresseinheit_D"
    },
    "id": "SPARStwo_move_to_auspresseinheit_D_45",
    "joint_names": [
        "shoulder_pan_joint",
        "shoulder_lift_joint",
        "elbow_joint",
        "wrist_1_joint",
        "wrist_2_joint",
        "wrist_3_joint"
    ],
    "metrics": {
        "cart_traj_len": 0.34315647332251037,
        "distance_elbow_joint": 0.6377196474741538,
        "distance_shoulder_lift_joint": 0.12107446200219885,
        "distance_shoulder_pan_joint": 0.13339242461396292,
        "distance_wrist_1_joint": 0.5159415862306433,
        "distance_wrist_2_joint": 1.4499616258287022,
        "distance_wrist_3_joint": 0.009696034293764644,
        "smoothness": 7.894919286223335e-16,
        "time": 5.010983191,
        "traj_len": 1.6934538022761134,
        "weighted_distance": 2.20297096238019
    },
    "planner": "SPARStwo",
    "start": {
        "state": {
            "elbow_joint": -1.8275523626775212,
            "shoulder_lift_joint": -2.126789852344167,
            "shoulder_pan_joint": -0.03513704404078235,
            "wrist_1_joint": -2.347782403156801,
            "wrist_2_joint": -1.6058999987535132,
            "wrist_3_joint": -3.0880379163319196
        }
    },
    "waypoints": [
        {
            "positions": [
                -0.03513704404078235,
                -2.126789852344167,
                -1.8275523626775212,
                -2.347782403156801,
                -1.6058999987535132,
                -3.0880379163319196
            ]
        },
        {
            "positions": [
                -0.05181109711752771,
                -2.1419241600944416,
                -1.747837406743252,
                -2.412275101435631,
                -1.4246547955249254,
                -3.08924992061864
            ]
        },
        {
            "positions": [
                -0.06848515019427308,
                -2.1570584678447164,
                -1.6681224508089827,
                -2.4767677997144615,
                -1.2434095922963375,
                -3.0904619249053606
            ]
        },
        {
            "positions": [
                -0.08515920327101845,
                -2.1721927755949912,
                -1.5884074948747136,
                -2.5412604979932922,
                -1.06216438906775,
                -3.091673929192081
            ]
        },
        {
            "positions": [
                -0.1018332563477638,
                -2.1873270833452665,
                -1.5086925389404442,
                -2.6057531962721225,
                -0.8809191858391621,
                -3.0928859334788017
            ]
        },
        {
            "positions": [
                -0.11850730942450918,
                -2.2024613910955413,
                -1.428977583006175,
                -2.670245894550953,
                -0.6996739826105742,
                -3.0940979377655227
            ]
        },
        {
            "positions": [
                -0.13518136250125454,
                -2.217595698845816,
                -1.349262627071906,
                -2.7347385928297836,
                -0.5184287793819866,
                -3.095309942052243
            ]
        },
        {
            "positions": [
                -0.1518554155779999,
                -2.232730006596091,
                -1.2695476711376368,
                -2.799231291108614,
                -0.3371835761533988,
                -3.0965219463389637
            ]
        },
        {
            "positions": [
                -0.16852946865474527,
                -2.2478643143463657,
                -1.1898327152033674,
                -2.863723989387444,
                -0.15593837292481091,
                -3.0977339506256842
            ]
        }
    ]
}