{
    "goal": {
        "global_pose": {
            "orientation": {
                "w": 0.7031023480610252,
                "x": -0.7110244013736278,
                "y": 0.0077485991402295624,
                "z": 0.005598929693374583
            },
            "position": {
                "x": -0.8841497679147869,
                "y": 0.44412534475326537,
                "z": 0.3711530566215515
            }
        },
        "name": "move_to_auspresseinheit_D"
    },
    "id": "SPARStwo_move_to_auspresseinheit_D_44",
    "joint_names": [
        "shoulder_pan_joint",
        "shoulder_lift_joint",
        "elbow_joint",
        "wrist_1_joint",
        "wrist_2_joint",
        "wrist_3_joint"
    ],
    "metrics": {
        "cart_traj_len": 0.3431879671323494,
        "distance_elbow_joint": 0.6315763417060256,
        "distance_shoulder_lift_joint": 0.1171663571787569,
        "distance_shoulder_pan_joint": 0.13426765254762466,
        "distance_wrist_1_joint": 0.5119678271171688,
        "distance_wrist_2_joint": 1.434639324602821,
        "distance_wrist_3_joint": 0.00857018678564847,
        "smoothness": 3.947459674368863e-16,
        "time": 5.014026298,
        "traj_len": 1.6846921647405042,
        "weighted_distance": 2.191331835945741
    },
    "planner": "SPARStwo",
    "start": {
        "state": {
            "elbow_joint": -1.8275523626775212,
            "shoulder_lift_joint": -2.126789852344167,
            "shoulder_pan_joint": -0.03513704404078235,
            "wrist_1_joint": -2.347782403156801,
            "wrist_2_joint": -1.6058999987535132,
            "wrist_3_joint": -3.0880379163319196
        }
    },
    "waypoints": [
        {
            "positions": [
                -0.03513704404078235,
                -2.126789852344167,
                -1.8275523626775212,
                -2.347782403156801,
                -1.6058999987535132,
                -3.0880379163319196
            ]
        },
        {
            "positions": [
                -0.051920500609235434,
                -2.1414356469915115,
                -1.748605319964268,
                -2.411778381546447,
                -1.4265700831781605,
                -3.0891091896801255
            ]
        },
        {
            "positions": [
                -0.06870395717768851,
                -2.156081441638856,
                -1.6696582772510147,
                -2.475774359936093,
                -1.247240167602808,
                -3.090180463028332
            ]
        },
        {
            "positions": [
                -0.0854874137461416,
                -2.1707272362862007,
                -1.5907112345377616,
                -2.5397703383257393,
                -1.0679102520274553,
                -3.0912517363765377
            ]
        },
        {
            "positions": [
                -0.10227087031459467,
                -2.1853730309335453,
                -1.5117641918245084,
                -2.6037663167153853,
                -0.8885803364521027,
                -3.092323009724744
            ]
        },
        {
            "positions": [
                -0.11905432688304776,
                -2.20001882558089,
                -1.4328171491112551,
                -2.6677622951050313,
                -0.70925042087675,
                -3.09339428307295
            ]
        },
        {
            "positions": [
                -0.13583778345150085,
                -2.2146646202282345,
                -1.353870106398002,
                -2.7317582734946777,
                -0.5299205053013973,
                -3.094465556421156
            ]
        },
        {
            "positions": [
                -0.15262124001995392,
                -2.229310414875579,
                -1.2749230636847488,
                -2.7957542518843237,
                -0.35059058972604484,
                -3.095536829769362
            ]
        },
        {
            "positions": [
                -0.169404696588407,
                -2.2439562095229237,
                -1.1959760209714956,
                -2.8597502302739697,
                -0.1712606741506922,
                -3.096608103117568
            ]
        }
    ]
}