{
    "goal": {
        "global_pose": {
            "orientation": {
                "w": 0.5084816217422485,
                "x": -0.49083608388900757,
                "y": 0.5182115435600281,
                "z": -0.4816462993621826
            },
            "position": {
                "x": 0.5540239810943604,
                "y": 0.030875300988554955,
                "z": 0.16403168439865112
            }
        },
        "name": "move_to_storage_A"
    },
    "id": "SPARS_move_to_storage_A_20",
    "joint_names": [
        "shoulder_pan_joint",
        "shoulder_lift_joint",
        "elbow_joint",
        "wrist_1_joint",
        "wrist_2_joint",
        "wrist_3_joint"
    ],
    "metrics": {
        "cart_traj_len": 0.35263906094640374,
        "distance_elbow_joint": 0.45347791017949635,
        "distance_shoulder_lift_joint": 0.234936300823394,
        "distance_shoulder_pan_joint": 0.4596575946288171,
        "distance_wrist_1_joint": 0.25931500143744113,
        "distance_wrist_2_joint": 1.1047036161567307,
        "distance_wrist_3_joint": 0.100077764568554,
        "smoothness": 8.881784197001252e-16,
        "time": 5.009450999,
        "traj_len": 1.6162203401128306,
        "weighted_distance": 2.0436101229260224
    },
    "planner": "SPARS",
    "start": {
        "state": {
            "elbow_joint": 1.971548259319323,
            "shoulder_lift_joint": -1.1394851275133948,
            "shoulder_pan_joint": 0.1228115487234821,
            "wrist_1_joint": -0.7804723859257726,
            "wrist_2_joint": 0.12958671773740124,
            "wrist_3_joint": -3.192489227718131
        }
    },
    "waypoints": [
        {
            "positions": [
                0.1228115487234821,
                -1.1394851275133948,
                1.971548259319323,
                -0.7804723859257726,
                0.12958671773740124,
                -3.192489227718131
            ]
        },
        {
            "positions": [
                0.05714617806222251,
                -1.173047456202451,
                2.0363308179163937,
                -0.8175173861311213,
                0.2874015200455056,
                -3.1781924042083376
            ]
        },
        {
            "positions": [
                -0.008519192599037079,
                -1.2066097848915074,
                2.1011133765134646,
                -0.8545623863364701,
                0.44521632235361,
                -3.1638955806985445
            ]
        },
        {
            "positions": [
                -0.07418456326029665,
                -1.2401721135805637,
                2.1658959351105356,
                -0.8916073865418188,
                0.6030311246617144,
                -3.149598757188751
            ]
        },
        {
            "positions": [
                -0.13984993392155626,
                -1.27373444226962,
                2.2306784937076065,
                -0.9286523867471675,
                0.7608459269698188,
                -3.1353019336789574
            ]
        },
        {
            "positions": [
                -0.20551530458281586,
                -1.3072967709586762,
                2.2954610523046775,
                -0.9656973869525163,
                0.9186607292779232,
                -3.121005110169164
            ]
        },
        {
            "positions": [
                -0.2711806752440754,
                -1.3408590996477325,
                2.3602436109017484,
                -1.002742387157865,
                1.0764755315860275,
                -3.1067082866593707
            ]
        },
        {
            "positions": [
                -0.336846045905335,
                -1.3744214283367888,
                2.4250261694988193,
                -1.0397873873632137,
                1.234290333894132,
                -3.092411463149577
            ]
        }
    ]
}{
    "goal": {
        "global_pose": {
            "orientation": {
                "w": 0.5084816217422485,
                "x": -0.49083608388900757,
                "y": 0.5182115435600281,
                "z": -0.4816462993621826
            },
            "position": {
                "x": 0.5540239810943604,
                "y": 0.030875300988554955,
                "z": 0.16403168439865112
            }
        },
        "name": "move_to_storage_A"
    },
    "id": "SPARS_move_to_storage_A_20",
    "joint_names": [
        "shoulder_pan_joint",
        "shoulder_lift_joint",
        "elbow_joint",
        "wrist_1_joint",
        "wrist_2_joint",
        "wrist_3_joint"
    ],
    "metrics": {
        "cart_traj_len": 0.35375691069411275,
        "distance_elbow_joint": 0.4523338000264743,
        "distance_shoulder_lift_joint": 0.234043916700595,
        "distance_shoulder_pan_joint": 0.4651097211518403,
        "distance_wrist_1_joint": 0.25310629697568987,
        "distance_wrist_2_joint": 1.0892703847431808,
        "distance_wrist_3_joint": 0.10140491423453124,
        "smoothness": 4.440892098500626e-16,
        "time": 5.011543037,
        "traj_len": 1.6109838713755986,
        "weighted_distance": 2.034810935694087
    },
    "planner": "SPARS",
    "start": {
        "state": {
            "elbow_joint": 1.97154746011099,
            "shoulder_lift_joint": -1.13948474672311,
            "shoulder_pan_joint": 0.12281154466712228,
            "wrist_1_joint": -0.7804688027058302,
            "wrist_2_joint": 0.12958655903071145,
            "wrist_3_joint": 3.0906928834467795
        }
    },
    "waypoints": [
        {
            "positions": [
                0.12281154466712228,
                -1.13948474672311,
                1.97154746011099,
                -0.7804688027058302,
                0.12958655903071145,
                3.0906928834467795
            ]
        },
        {
            "positions": [
                0.05636729878828796,
                -1.172919591966052,
                2.0361665744004864,
                -0.8166268451309288,
                0.28519661399402296,
                3.1051792997659984
            ]
        },
        {
            "positions": [
                -0.010076947090546365,
                -1.2063544372089943,
                2.1007856886899825,
                -0.8527848875560273,
                0.44080666895733456,
                3.119665716085217
            ]
        },
        {
            "positions": [
                -0.07652119296938069,
                -1.2397892824519363,
                2.165404802979479,
                -0.8889429299811258,
                0.596416723920646,
                3.1341521324044357
            ]
        },
        {
            "positions": [
                -0.142965438848215,
                -1.2732241276948786,
                2.230023917268975,
                -0.9251009724062244,
                0.7520267788839576,
                3.1486385487236546
            ]
        },
        {
            "positions": [
                -0.20940968472704935,
                -1.3066589729378206,
                2.2946430315584716,
                -0.9612590148313229,
                0.9076368338472692,
                3.1631249650428734
            ]
        },
        {
            "positions": [
                -0.27585393060588365,
                -1.3400938181807627,
                2.3592621458479677,
                -0.9974170572564215,
                1.0632468888105806,
                3.177611381362092
            ]
        },
        {
            "positions": [
                -0.342298176484718,
                -1.373528663423705,
                2.423881260137464,
                -1.03357509968152,
                1.2188569437738923,
                3.1920977976813107
            ]
        }
    ]
}{
    "goal": {
        "global_pose": {
            "orientation": {
                "w": 0.5084816217422485,
                "x": -0.49083608388900757,
                "y": 0.5182115435600281,
                "z": -0.4816462993621826
            },
            "position": {
                "x": 0.5540239810943604,
                "y": 0.030875300988554955,
                "z": 0.16403168439865112
            }
        },
        "name": "move_to_storage_A"
    },
    "id": "SPARS_move_to_storage_A_20",
    "joint_names": [
        "shoulder_pan_joint",
        "shoulder_lift_joint",
        "elbow_joint",
        "wrist_1_joint",
        "wrist_2_joint",
        "wrist_3_joint"
    ],
    "metrics": {
        "cart_traj_len": 0.35295786308654575,
        "distance_elbow_joint": 0.45320494155660995,
        "distance_shoulder_lift_joint": 0.23434264501290958,
        "distance_shoulder_pan_joint": 0.45732952619497586,
        "distance_wrist_1_joint": 0.2601720693781715,
        "distance_wrist_2_joint": 1.1167050399840897,
        "distance_wrist_3_joint": 0.09805370892189558,
        "smoothness": 8.881784197001252e-16,
        "time": 5.051702601000001,
        "traj_len": 1.6185820742392558,
        "weighted_distance": 2.0476309379999864
    },
    "planner": "SPARS",
    "start": {
        "state": {
            "elbow_joint": 1.9715472970024885,
            "shoulder_lift_joint": -1.1394870060712896,
            "shoulder_pan_joint": 0.12281152778156021,
            "wrist_1_joint": -0.780463741449964,
            "wrist_2_joint": 0.12958659822042276,
            "wrist_3_joint": 3.090690232415272
        }
    },
    "waypoints": [
        {
            "positions": [
                0.12281152778156021,
                -1.1394870060712896,
                1.9715472970024885,
                -0.780463741449964,
                0.12958659822042276,
                3.090690232415272
            ]
        },
        {
            "positions": [
                0.0574787383251351,
                -1.1729645267874196,
                2.0362908600820044,
                -0.81763117993256,
                0.2891158896467213,
                3.1046979051183996
            ]
        },
        {
            "positions": [
                -0.007854051131290007,
                -1.2064420475035496,
                2.10103442316152,
                -0.8547986184151558,
                0.44864518107301976,
                3.118705577821528
            ]
        },
        {
            "positions": [
                -0.07318684058771513,
                -1.2399195682196795,
                2.165777986241036,
                -0.8919660568977518,
                0.6081744724993183,
                3.1327132505246555
            ]
        },
        {
            "positions": [
                -0.13851963004414022,
                -1.2733970889358093,
                2.2305215493205512,
                -0.9291334953803477,
                0.7677037639256168,
                3.1467209232277837
            ]
        },
        {
            "positions": [
                -0.20385241950056535,
                -1.3068746096519392,
                2.295265112400067,
                -0.9663009338629436,
                0.9272330553519154,
                3.1607285959309115
            ]
        },
        {
            "positions": [
                -0.2691852089569905,
                -1.3403521303680692,
                2.3600086754795826,
                -1.0034683723455395,
                1.086762346778214,
                3.1747362686340397
            ]
        },
        {
            "positions": [
                -0.3345179984134156,
                -1.3738296510841992,
                2.4247522385590985,
                -1.0406358108281355,
                1.2462916382045124,
                3.1887439413371674
            ]
        }
    ]
}