{
    "goal": {
        "global_pose": {
            "orientation": {
                "w": 0.7047431468963623,
                "x": -0.7094548344612122,
                "y": 0.0024358443915843964,
                "z": -0.0022348060738295317
            },
            "position": {
                "x": 0.6094750761985779,
                "y": 0.3671506643295288,
                "z": 0.19426114857196808
            }
        },
        "name": "move_to_magneteinheit_A"
    },
    "id": "SPARStwo_move_to_magneteinheit_A_138",
    "joint_names": [
        "shoulder_pan_joint",
        "shoulder_lift_joint",
        "elbow_joint",
        "wrist_1_joint",
        "wrist_2_joint",
        "wrist_3_joint"
    ],
    "metrics": {
        "cart_traj_len": 3.442286339473581,
        "distance_elbow_joint": 3.923036566305156,
        "distance_shoulder_lift_joint": 0.46385923029047715,
        "distance_shoulder_pan_joint": 3.6601699752435257,
        "distance_wrist_1_joint": 3.496700093792664,
        "distance_wrist_2_joint": 1.4324574495449116,
        "distance_wrist_3_joint": 0.4825965682690953,
        "smoothness": 0.21719530145675778,
        "time": 5.01730112,
        "traj_len": 3.668626430075135,
        "weighted_distance": 4.399223859196256
    },
    "planner": "SPARStwo",
    "start": {
        "state": {
            "elbow_joint": -1.9196185241190666,
            "shoulder_lift_joint": -1.2443396400964142,
            "shoulder_pan_joint": 2.6996025414629847,
            "wrist_1_joint": -1.5485510000780065,
            "wrist_2_joint": -1.5709468930060704,
            "wrist_3_joint": 0.4420197071253992
        }
    },
    "waypoints": [
        {
            "positions": [
                2.6996025414629847,
                -1.2443396400964142,
                -1.9196185241190666,
                -1.5485510000780065,
                -1.5709468930060704,
                0.4420197071253992
            ]
        },
        {
            "positions": [
                2.5920721662878403,
                -1.2401629606019755,
                -1.8080319075559408,
                -1.449740210491076,
                -1.5267064839709423,
                0.42551021733160416
            ]
        },
        {
            "positions": [
                2.4845417911126955,
                -1.235986281107537,
                -1.6964452909928147,
                -1.3509294209041454,
                -1.4824660749358145,
                0.40900072753780914
            ]
        },
        {
            "positions": [
                2.377011415937551,
                -1.2318096016130984,
                -1.5848586744296889,
                -1.2521186313172148,
                -1.4382256659006865,
                0.3924912377440142
            ]
        },
        {
            "positions": [
                2.2694810407624066,
                -1.2276329221186597,
                -1.4732720578665628,
                -1.153307841730284,
                -1.3939852568655584,
                0.37598174795021916
            ]
        },
        {
            "positions": [
                2.161950665587262,
                -1.2234562426242213,
                -1.361685441303437,
                -1.0544970521433534,
                -1.3497448478304306,
                0.35947225815642414
            ]
        },
        {
            "positions": [
                2.0544202904121174,
                -1.2192795631297826,
                -1.250098824740311,
                -0.955686262556423,
                -1.3055044387953025,
                0.3429627683626291
            ]
        },
        {
            "positions": [
                1.946889915236973,
                -1.215102883635344,
                -1.138512208177185,
                -0.8568754729694923,
                -1.2612640297601745,
                0.3264532785688341
            ]
        },
        {
            "positions": [
                1.8393595400618283,
                -1.2109262041409055,
                -1.026925591614059,
                -0.7580646833825617,
                -1.2170236207250467,
                0.30994378877503914
            ]
        },
        {
            "positions": [
                1.7318291648866837,
                -1.2067495246464668,
                -0.9153389750509331,
                -0.6592538937956312,
                -1.1727832116899186,
                0.2934342989812441
            ]
        },
        {
            "positions": [
                1.624298789711539,
                -1.2025728451520281,
                -0.8037523584878072,
                -0.5604431042087005,
                -1.1285428026547906,
                0.2769248091874491
            ]
        },
        {
            "positions": [
                1.5167684145363947,
                -1.1983961656575897,
                -0.6921657419246814,
                -0.46163231462177,
                -1.0843023936196627,
                0.26041531939365414
            ]
        },
        {
            "positions": [
                1.4092380393612502,
                -1.194219486163151,
                -0.5805791253615553,
                -0.36282152503483944,
                -1.0400619845845347,
                0.2439058295998591
            ]
        },
        {
            "positions": [
                1.3017076641861056,
                -1.1900428066687123,
                -0.46899250879842946,
                -0.2640107354479089,
                -0.9958215755494068,
                0.22739633980606408
            ]
        },
        {
            "positions": [
                1.194177289010961,
                -1.1858661271742739,
                -0.3574058922353034,
                -0.16519994586097808,
                -0.9515811665142787,
                0.21088685001226906
            ]
        },
        {
            "positions": [
                1.0866469138358164,
                -1.1816894476798352,
                -0.24581927567217732,
                -0.06638915627404751,
                -0.9073407574791508,
                0.19437736021847407
            ]
        },
        {
            "positions": [
                0.9791165386606719,
                -1.1775127681853967,
                -0.13423265910905147,
                0.03242163331288306,
                -0.8631003484440228,
                0.17786787042467905
            ]
        },
        {
            "positions": [
                0.8715861634855275,
                -1.173336088690958,
                -0.022646042545925837,
                0.1312324228998134,
                -0.8188599394088949,
                0.1613583806308841
            ]
        },
        {
            "positions": [
                0.7640557883103829,
                -1.1691594091965194,
                0.08894057401720046,
                0.2300432124867442,
                -0.7746195303737669,
                0.14484889083708907
            ]
        },
        {
            "positions": [
                0.6565254131352383,
                -1.164982729702081,
                0.2005271905803263,
                0.32885400207367477,
                -0.7303791213386389,
                0.12833940104329405
            ]
        },
        {
            "positions": [
                0.5489950379600934,
                -1.1608060502076423,
                0.31211380714345216,
                0.42766479166060556,
                -0.6861387123035109,
                0.11182991124949904
            ]
        },
        {
            "positions": [
                0.441464662784949,
                -1.1566293707132036,
                0.423700423706578,
                0.5264755812475361,
                -0.6418983032683829,
                0.09532042145570402
            ]
        },
        {
            "positions": [
                0.3339342876098046,
                -1.1524526912187651,
                0.5352870402697039,
                0.6252863708344665,
                -0.5976578942332551,
                0.07881093166190906
            ]
        },
        {
            "positions": [
                0.22640391243466018,
                -1.1482760117243265,
                0.6468736568328302,
                0.7240971604213973,
                -0.5534174851981271,
                0.06230144186811398
            ]
        },
        {
            "positions": [
                0.11887353725951577,
                -1.1440993322298878,
                0.758460273395956,
                0.8229079500083276,
                -0.509177076162999,
                0.04579195207431902
            ]
        },
        {
            "positions": [
                0.011343162084371361,
                -1.1399226527354493,
                0.8700468899590819,
                0.921718739595258,
                -0.4649366671278712,
                0.029282462280524058
            ]
        },
        {
            "positions": [
                -0.0961872130907735,
                -1.1357459732410107,
                0.9816335065222077,
                1.0205295291821888,
                -0.42069625809274314,
                0.012772972486728984
            ]
        },
        {
            "positions": [
                -0.2037175882659179,
                -1.131569293746572,
                1.0932201230853336,
                1.1193403187691195,
                -0.3764558490576151,
                -0.0037365173070659785
            ]
        },
        {
            "positions": [
                -0.31124796344106276,
                -1.1273926142521336,
                1.2048067396484599,
                1.2181511083560503,
                -0.33221544002248704,
                -0.020246007100861052
            ]
        },
        {
            "positions": [
                -0.4187783386162074,
                -1.1232159347576949,
                1.316393356211586,
                1.316961897942981,
                -0.28797503098735927,
                -0.036755496894656015
            ]
        },
        {
            "positions": [
                -0.32848015608881853,
                -1.0660933472657352,
                1.4308974705406698,
                1.422159763904927,
                -0.26306076639965914,
                -0.03611860285314933
            ]
        },
        {
            "positions": [
                -0.23818197356142967,
                -1.0089707597737756,
                1.5454015848697535,
                1.527357629866873,
                -0.238146501811959,
                -0.03548170881164264
            ]
        },
        {
            "positions": [
                -0.1478837910340408,
                -0.951848172281816,
                1.6599056991988372,
                1.632555495828819,
                -0.21323223722425885,
                -0.03484481477013596
            ]
        },
        {
            "positions": [
                -0.05758560850665195,
                -0.8947255847898563,
                1.7744098135279212,
                1.737753361790765,
                -0.18831797263655872,
                -0.034207920728629264
            ]
        },
        {
            "positions": [
                0.032712574020736906,
                -0.8376029972978967,
                1.888913927857005,
                1.8429512277527111,
                -0.16340370804885856,
                -0.03357102668712258
            ]
        },
        {
            "positions": [
                0.12301075654812571,
                -0.780480409805937,
                2.0034180421860888,
                1.9481490937146573,
                -0.13848944346115843,
                -0.03293413264561589
            ]
        }
    ]
}