{
    "goal": {
        "global_pose": {
            "orientation": {
                "w": 0.7047431468963623,
                "x": -0.7094548344612122,
                "y": 0.0024358443915843964,
                "z": -0.0022348060738295317
            },
            "position": {
                "x": 0.6094750761985779,
                "y": 0.3671506643295288,
                "z": 0.19426114857196808
            }
        },
        "name": "move_to_magneteinheit_A"
    },
    "id": "SPARStwo_move_to_magneteinheit_A_41",
    "joint_names": [
        "shoulder_pan_joint",
        "shoulder_lift_joint",
        "elbow_joint",
        "wrist_1_joint",
        "wrist_2_joint",
        "wrist_3_joint"
    ],
    "metrics": {
        "cart_traj_len": 3.853096158945634,
        "distance_elbow_joint": 3.895963079689774,
        "distance_shoulder_lift_joint": 0.10226516019323717,
        "distance_shoulder_pan_joint": 3.6976759798326118,
        "distance_wrist_1_joint": 0.7443718168827949,
        "distance_wrist_2_joint": 1.6917232639894337,
        "distance_wrist_3_joint": 2.661572453870898,
        "smoothness": 0.1755354582747141,
        "time": 5.014466003,
        "traj_len": 3.5768102765535033,
        "weighted_distance": 4.533520899154737
    },
    "planner": "SPARStwo",
    "start": {
        "state": {
            "elbow_joint": -1.9196185241190666,
            "shoulder_lift_joint": -1.2443396400964142,
            "shoulder_pan_joint": 2.6996025414629847,
            "wrist_1_joint": -1.5485510000780065,
            "wrist_2_joint": -1.5709468930060704,
            "wrist_3_joint": 0.4420197071253992
        }
    },
    "waypoints": [
        {
            "positions": [
                2.6996025414629847,
                -1.2443396400964142,
                -1.9196185241190666,
                -1.5485510000780065,
                -1.5709468930060704,
                0.4420197071253992
            ]
        },
        {
            "positions": [
                2.574101790699954,
                -1.2422203721142304,
                -1.7937850186183817,
                -1.5229820511172394,
                -1.5351997751003252,
                0.5152768330442038
            ]
        },
        {
            "positions": [
                2.4486010399369236,
                -1.2401011041320467,
                -1.667951513117697,
                -1.497413102156472,
                -1.49945265719458,
                0.5885339589630084
            ]
        },
        {
            "positions": [
                2.323100289173893,
                -1.2379818361498631,
                -1.5421180076170122,
                -1.471844153195705,
                -1.463705539288835,
                0.6617910848818132
            ]
        },
        {
            "positions": [
                2.197599538410863,
                -1.2358625681676794,
                -1.4162845021163273,
                -1.4462752042349378,
                -1.4279584213830896,
                0.7350482108006178
            ]
        },
        {
            "positions": [
                2.072098787647832,
                -1.2337433001854956,
                -1.2904509966156423,
                -1.4207062552741705,
                -1.3922113034773445,
                0.8083053367194224
            ]
        },
        {
            "positions": [
                1.9465980368848017,
                -1.2316240322033118,
                -1.1646174911149576,
                -1.3951373063134034,
                -1.3564641855715993,
                0.881562462638227
            ]
        },
        {
            "positions": [
                1.8210972861217711,
                -1.229504764221128,
                -1.0387839856142727,
                -1.3695683573526363,
                -1.3207170676658542,
                0.9548195885570318
            ]
        },
        {
            "positions": [
                1.6955965353587406,
                -1.2273854962389446,
                -0.9129504801135879,
                -1.343999408391869,
                -1.284969949760109,
                1.0280767144758363
            ]
        },
        {
            "positions": [
                1.57009578459571,
                -1.2252662282567608,
                -0.7871169746129032,
                -1.3184304594311018,
                -1.249222831854364,
                1.1013338403946409
            ]
        },
        {
            "positions": [
                1.4445950338326794,
                -1.223146960274577,
                -0.661283469112218,
                -1.2928615104703347,
                -1.2134757139486188,
                1.1745909663134455
            ]
        },
        {
            "positions": [
                1.319094283069649,
                -1.2210276922923933,
                -0.5354499636115333,
                -1.2672925615095676,
                -1.1777285960428736,
                1.2478480922322501
            ]
        },
        {
            "positions": [
                1.1935935323066185,
                -1.2189084243102095,
                -0.40961645811084857,
                -1.2417236125488003,
                -1.1419814781371285,
                1.3211052181510547
            ]
        },
        {
            "positions": [
                1.0680927815435879,
                -1.216789156328026,
                -0.2837829526101636,
                -1.2161546635880331,
                -1.106234360231383,
                1.3943623440698594
            ]
        },
        {
            "positions": [
                0.9425920307805573,
                -1.2146698883458422,
                -0.15794944710947867,
                -1.1905857146272658,
                -1.070487242325638,
                1.4676194699886644
            ]
        },
        {
            "positions": [
                0.817091280017527,
                -1.2125506203636585,
                -0.03211594160879416,
                -1.1650167656664987,
                -1.0347401244198928,
                1.5408765959074686
            ]
        },
        {
            "positions": [
                0.6915905292544964,
                -1.2104313523814747,
                0.09371756389189079,
                -1.1394478167057316,
                -0.9989930065141477,
                1.6141337218262732
            ]
        },
        {
            "positions": [
                0.5660897784914658,
                -1.208312084399291,
                0.21955106939257574,
                -1.1138788677449645,
                -0.9632458886084025,
                1.6873908477450783
            ]
        },
        {
            "positions": [
                0.4405890277284352,
                -1.2061928164171074,
                0.34538457489326024,
                -1.0883099187841971,
                -0.9274987707026574,
                1.7606479736638825
            ]
        },
        {
            "positions": [
                0.31508827696540465,
                -1.2040735484349236,
                0.47121808039394564,
                -1.06274096982343,
                -0.8917516527969122,
                1.8339050995826875
            ]
        },
        {
            "positions": [
                0.18958752620237407,
                -1.2019542804527399,
                0.5970515858946306,
                -1.0371720208626627,
                -0.856004534891167,
                1.9071622255014922
            ]
        },
        {
            "positions": [
                0.06408677543934393,
                -1.1998350124705561,
                0.7228850913953151,
                -1.0116030719018956,
                -0.8202574169854219,
                1.9804193514202963
            ]
        },
        {
            "positions": [
                -0.06141397532368664,
                -1.1977157444883724,
                0.848718596896,
                -0.9860341229411285,
                -0.7845102990796767,
                2.0536764773391014
            ]
        },
        {
            "positions": [
                -0.18691472608671766,
                -1.1955964765061888,
                0.974552102396685,
                -0.9604651739803612,
                -0.7487631811739315,
                2.126933603257906
            ]
        },
        {
            "positions": [
                -0.3124154768497478,
                -1.193477208524005,
                1.1003856078973695,
                -0.9348962250195941,
                -0.7130160632681865,
                2.2001907291767107
            ]
        },
        {
            "positions": [
                -0.4379162276127784,
                -1.1913579405418213,
                1.2262191133980547,
                -0.9093272760588269,
                -0.6772689453624412,
                2.2734478550955153
            ]
        },
        {
            "positions": [
                -0.3678965762681722,
                -1.1851975079619907,
                1.3199847936696363,
                -0.896183764450875,
                -0.5775132808192156,
                2.377215893333113
            ]
        },
        {
            "positions": [
                -0.297876924923566,
                -1.1790370753821602,
                1.4137504739412181,
                -0.8830402528429231,
                -0.4777576162759901,
                2.4809839315707105
            ]
        },
        {
            "positions": [
                -0.22785727357895974,
                -1.1728766428023296,
                1.5075161542127997,
                -0.8698967412349712,
                -0.3780019517327645,
                2.5847519698083086
            ]
        },
        {
            "positions": [
                -0.15783762223435355,
                -1.166716210222499,
                1.6012818344843813,
                -0.8567532296270193,
                -0.278246287189539,
                2.688520008045906
            ]
        },
        {
            "positions": [
                -0.08781797088974735,
                -1.1605557776426687,
                1.695047514755963,
                -0.8436097180190674,
                -0.17849062264631343,
                2.792288046283504
            ]
        },
        {
            "positions": [
                -0.017798319545141106,
                -1.1543953450628381,
                1.7888131950275445,
                -0.8304662064111155,
                -0.07873495810308784,
                2.896056084521102
            ]
        },
        {
            "positions": [
                0.05222133179946509,
                -1.1482349124830076,
                1.8825788752991264,
                -0.8173226948031636,
                0.02102070644013765,
                2.9998241227586995
            ]
        },
        {
            "positions": [
                0.12224098314407125,
                -1.142074479903177,
                1.976344555570708,
                -0.8041791831952116,
                0.12077637098336323,
                3.103592160996297
            ]
        }
    ]
}