{
    "goal": {
        "global_pose": {
            "orientation": {
                "w": -0.00223480608172531,
                "x": 0.0024358444001904467,
                "y": 0.7094548369677653,
                "z": -0.704743149386269
            },
            "position": {
                "x": -0.37947507619857795,
                "y": -0.6371506643295288,
                "z": 0.19426114857196808
            }
        },
        "name": "move_to_magneteinheit_C"
    },
    "id": "SPARS_move_to_magneteinheit_C_99",
    "joint_names": [
        "shoulder_pan_joint",
        "shoulder_lift_joint",
        "elbow_joint",
        "wrist_1_joint",
        "wrist_2_joint",
        "wrist_3_joint"
    ],
    "metrics": {
        "cart_traj_len": 0.7800997223296846,
        "distance_elbow_joint": 0.2533603397313131,
        "distance_shoulder_lift_joint": 1.0062441513661557,
        "distance_shoulder_pan_joint": 0.802559647595172,
        "distance_wrist_1_joint": 1.5879642578510422,
        "distance_wrist_2_joint": 0.7924944140190082,
        "distance_wrist_3_joint": 2.5457750613553536,
        "smoothness": 1.177026903827339,
        "time": 5.0329338749999994,
        "traj_len": 2.64355780566986,
        "weighted_distance": 3.8026841397227304
    },
    "planner": "SPARS",
    "start": {
        "state": {
            "elbow_joint": 1.9565354010623817,
            "shoulder_lift_joint": -1.4165861575791021,
            "shoulder_pan_joint": -1.6717766225146293,
            "wrist_1_joint": -0.5286633292919765,
            "wrist_2_joint": 1.472756589071564,
            "wrist_3_joint": -3.1238370188695823
        }
    },
    "waypoints": [
        {
            "positions": [
                -1.6717766225146293,
                -1.4165861575791021,
                1.9565354010623817,
                -0.5286633292919765,
                1.472756589071564,
                -3.1238370188695823
            ]
        },
        {
            "positions": [
                -1.7485946426606918,
                -1.454303214537048,
                1.9720093443003959,
                -0.46485158342188887,
                1.4320309678288559,
                -2.99726470621762
            ]
        },
        {
            "positions": [
                -1.825412662806754,
                -1.492020271494994,
                1.9874832875384099,
                -0.4010398375518013,
                1.3913053465861478,
                -2.870692393565658
            ]
        },
        {
            "positions": [
                -1.9022306829528164,
                -1.5297373284529399,
                2.002957230776424,
                -0.33722809168171375,
                1.3505797253434395,
                -2.7441200809136954
            ]
        },
        {
            "positions": [
                -1.9790487030988788,
                -1.5674543854108858,
                2.018431174014438,
                -0.27341634581162616,
                1.3098541041007314,
                -2.617547768261733
            ]
        },
        {
            "positions": [
                -2.0558667232449412,
                -1.6051714423688317,
                2.033905117252452,
                -0.20960459994153863,
                1.2691284828580234,
                -2.490975455609771
            ]
        },
        {
            "positions": [
                -2.1326847433910032,
                -1.6428884993267774,
                2.0493790604904665,
                -0.1457928540714511,
                1.2284028616153153,
                -2.3644031429578085
            ]
        },
        {
            "positions": [
                -2.2095027635370657,
                -1.6806055562847233,
                2.0648530037284805,
                -0.0819811082013635,
                1.1876772403726072,
                -2.237830830305846
            ]
        },
        {
            "positions": [
                -2.286320783683128,
                -1.7183226132426692,
                2.0803269469664945,
                -0.018169362331275862,
                1.146951619129899,
                -2.1112585176538836
            ]
        },
        {
            "positions": [
                -2.3631388038291905,
                -1.7560396702006151,
                2.095800890204509,
                0.04564238353881167,
                1.106225997887191,
                -1.9846862050019214
            ]
        },
        {
            "positions": [
                -2.439956823975253,
                -1.793756727158561,
                2.111274833442523,
                0.1094541294088992,
                1.0655003766444828,
                -1.8581138923499592
            ]
        },
        {
            "positions": [
                -2.443776762434647,
                -1.7238596625155946,
                2.100316954847948,
                0.003915596169991764,
                1.0226961320231576,
                -2.000341885109485
            ]
        },
        {
            "positions": [
                -2.4475967008940414,
                -1.6539625978726284,
                2.0893590762533734,
                -0.10162293706891568,
                0.9798918874018323,
                -2.1425698778690103
            ]
        },
        {
            "positions": [
                -2.4514166393534356,
                -1.584065533229662,
                2.078401197658799,
                -0.20716147030782311,
                0.9370876427805072,
                -2.284797870628536
            ]
        },
        {
            "positions": [
                -2.45523657781283,
                -1.5141684685866958,
                2.0674433190642243,
                -0.31270000354673055,
                0.8942833981591819,
                -2.4270258633880615
            ]
        },
        {
            "positions": [
                -2.4590565162722244,
                -1.4442714039437294,
                2.0564854404696495,
                -0.41823853678563805,
                0.8514791535378566,
                -2.5692538561475873
            ]
        },
        {
            "positions": [
                -2.4628764547316186,
                -1.3743743393007632,
                2.045527561875075,
                -0.5237770700245454,
                0.8086749089165315,
                -2.7114818489071126
            ]
        },
        {
            "positions": [
                -2.466696393191013,
                -1.3044772746577968,
                2.0345696832805005,
                -0.6293156032634529,
                0.7658706642952062,
                -2.8537098416666384
            ]
        },
        {
            "positions": [
                -2.470516331650407,
                -1.2345802100148306,
                2.0236118046859257,
                -0.7348541365023603,
                0.723066419673881,
                -2.9959378344261642
            ]
        },
        {
            "positions": [
                -2.4743362701098013,
                -1.1646831453718642,
                2.012653926091351,
                -0.8403926697412678,
                0.6802621750525557,
                -3.1381658271856896
            ]
        }
    ]
}