{
    "goal": {
        "global_pose": {
            "orientation": {
                "w": 0.7031023480610252,
                "x": -0.7110244013736278,
                "y": 0.0077485991402295624,
                "z": 0.005598929693374583
            },
            "position": {
                "x": -0.8841497679147869,
                "y": 0.44412534475326537,
                "z": 0.3711530566215515
            }
        },
        "name": "move_to_auspresseinheit_D"
    },
    "id": "SPARS_move_to_auspresseinheit_D_11",
    "joint_names": [
        "shoulder_pan_joint",
        "shoulder_lift_joint",
        "elbow_joint",
        "wrist_1_joint",
        "wrist_2_joint",
        "wrist_3_joint"
    ],
    "metrics": {
        "cart_traj_len": 0.34241779800850525,
        "distance_elbow_joint": 0.6311121763253233,
        "distance_shoulder_lift_joint": 0.11779521541764648,
        "distance_shoulder_pan_joint": 0.13379312273086413,
        "distance_wrist_1_joint": 0.5093370511602475,
        "distance_wrist_2_joint": 1.441560552622658,
        "distance_wrist_3_joint": 0.023649523003984818,
        "smoothness": 1.973729821298915e-15,
        "time": 5.038626046999999,
        "traj_len": 1.6903395047329175,
        "weighted_distance": 2.203507270478498
    },
    "planner": "SPARS",
    "start": {
        "state": {
            "elbow_joint": -1.8275523626775212,
            "shoulder_lift_joint": -2.126789852344167,
            "shoulder_pan_joint": -0.03513704404078235,
            "wrist_1_joint": -2.347782403156801,
            "wrist_2_joint": -1.6058999987535132,
            "wrist_3_joint": -3.0880379163319196
        }
    },
    "waypoints": [
        {
            "positions": [
                -0.03513704404078235,
                -2.126789852344167,
                -1.8275523626775212,
                -2.347782403156801,
                -1.6058999987535132,
                -3.0880379163319196
            ]
        },
        {
            "positions": [
                -0.051861184382140366,
                -2.1415142542713728,
                -1.7486633406368557,
                -2.411449534551832,
                -1.425704929675681,
                -3.090994106707418
            ]
        },
        {
            "positions": [
                -0.06858532472349838,
                -2.1562386561985782,
                -1.6697743185961904,
                -2.475116665946863,
                -1.2455098605978487,
                -3.093950297082916
            ]
        },
        {
            "positions": [
                -0.0853094650648564,
                -2.170963058125784,
                -1.590885296555525,
                -2.538783797341894,
                -1.0653147915200165,
                -3.096906487458414
            ]
        },
        {
            "positions": [
                -0.10203360540621442,
                -2.18568746005299,
                -1.5119962745148596,
                -2.602450928736925,
                -0.8851197224421842,
                -3.099862677833912
            ]
        },
        {
            "positions": [
                -0.11875774574757245,
                -2.200411861980196,
                -1.4331072524741941,
                -2.6661180601319554,
                -0.704924653364352,
                -3.10281886820941
            ]
        },
        {
            "positions": [
                -0.13548188608893044,
                -2.215136263907402,
                -1.3542182304335286,
                -2.7297851915269864,
                -0.5247295842865196,
                -3.105775058584908
            ]
        },
        {
            "positions": [
                -0.15220602643028847,
                -2.2298606658346074,
                -1.2753292083928631,
                -2.7934523229220174,
                -0.3445345152086874,
                -3.108731248960406
            ]
        },
        {
            "positions": [
                -0.1689301667716465,
                -2.2445850677618133,
                -1.1964401863521978,
                -2.8571194543170484,
                -0.16433944613085513,
                -3.1116874393359044
            ]
        }
    ]
}