{
    "goal": {
        "global_pose": {
            "orientation": {
                "w": -0.4816463035849501,
                "x": 0.5182115481033762,
                "y": 0.4908360881923453,
                "z": -0.5084816262002911
            },
            "position": {
                "x": -0.8240239810943604,
                "y": 0.19912469901144506,
                "z": 0.16403168439865112
            }
        },
        "name": "move_to_storage_D"
    },
    "id": "SPARS_move_to_storage_D_17",
    "joint_names": [
        "shoulder_pan_joint",
        "shoulder_lift_joint",
        "elbow_joint",
        "wrist_1_joint",
        "wrist_2_joint",
        "wrist_3_joint"
    ],
    "metrics": {
        "cart_traj_len": 4.225567448847187,
        "distance_elbow_joint": 4.737641187609965,
        "distance_shoulder_lift_joint": 1.2639101541589841,
        "distance_shoulder_pan_joint": 2.9932593808894676,
        "distance_wrist_1_joint": 3.242669488096006,
        "distance_wrist_2_joint": 1.9764290220885903,
        "distance_wrist_3_joint": 4.067335665837179,
        "smoothness": 0.334317034860555,
        "time": 5.093997519,
        "traj_len": 4.275657247567932,
        "weighted_distance": 5.624501288162281
    },
    "planner": "SPARS",
    "start": {
        "state": {
            "elbow_joint": -2.384821988534728,
            "shoulder_lift_joint": -2.2788054721415256,
            "shoulder_pan_joint": -0.1854694642142757,
            "wrist_1_joint": 1.4845938289331202,
            "wrist_2_joint": 0.17898776772866878,
            "wrist_3_joint": 0.037105688729662994
        }
    },
    "waypoints": [
        {
            "positions": [
                -0.1854694642142757,
                -2.2788054721415256,
                -2.384821988534728,
                1.4845938289331202,
                0.17898776772866878,
                0.037105688729662994
            ]
        },
        {
            "positions": [
                -0.20346274991436447,
                -2.242273232454321,
                -2.437481785819429,
                1.4027973181066056,
                0.24302767666897307,
                0.13090296442382235
            ]
        },
        {
            "positions": [
                -0.2214560356144532,
                -2.2057409927671165,
                -2.4901415831041307,
                1.321000807280091,
                0.3070675856092774,
                0.2247002401179817
            ]
        },
        {
            "positions": [
                -0.23944932131454197,
                -2.1692087530799116,
                -2.542801380388832,
                1.2392042964535765,
                0.37110749454958164,
                0.31849751581214103
            ]
        },
        {
            "positions": [
                -0.25744260701463073,
                -2.132676513392707,
                -2.5954611776735335,
                1.157407785627062,
                0.435147403489886,
                0.41229479150630044
            ]
        },
        {
            "positions": [
                -0.27543589271471947,
                -2.0961442737055025,
                -2.6481209749582346,
                1.0756112748005473,
                0.4991873124301902,
                0.5060920672004597
            ]
        },
        {
            "positions": [
                -0.20794910832576727,
                -2.0539989593306696,
                -2.5873696453708575,
                0.9742390089602367,
                0.5684335408684553,
                0.45833882870687487
            ]
        },
        {
            "positions": [
                -0.14046232393681507,
                -2.0118536449558366,
                -2.52661831578348,
                0.8728667431199262,
                0.6376797693067205,
                0.41058559021329005
            ]
        },
        {
            "positions": [
                -0.07297553954786287,
                -1.9697083305810037,
                -2.4658669861961027,
                0.7714944772796156,
                0.7069259977449858,
                0.3628323517197052
            ]
        },
        {
            "positions": [
                -0.005488755158910674,
                -1.9275630162061705,
                -2.405115656608725,
                0.6701222114393051,
                0.7761722261832509,
                0.31507911322612037
            ]
        },
        {
            "positions": [
                0.061998029230041496,
                -1.8854177018313376,
                -2.344364327021348,
                0.5687499455989945,
                0.845418454621516,
                0.2673258747325355
            ]
        },
        {
            "positions": [
                0.12948481361899372,
                -1.8432723874565047,
                -2.2836129974339707,
                0.46737767975868394,
                0.9146646830597812,
                0.21957263623895062
            ]
        },
        {
            "positions": [
                0.19697159800794595,
                -1.8011270730816717,
                -2.222861667846593,
                0.3660054139183734,
                0.9839109114980464,
                0.1718193977453658
            ]
        },
        {
            "positions": [
                0.2644583823968981,
                -1.7589817587068386,
                -2.162110338259216,
                0.2646331480780628,
                1.0531571399363115,
                0.12406615925178094
            ]
        },
        {
            "positions": [
                0.3319451667858503,
                -1.7168364443320057,
                -2.1013590086718383,
                0.16326088223775226,
                1.1224033683745767,
                0.07631292075819607
            ]
        },
        {
            "positions": [
                0.39943195117480246,
                -1.6746911299571727,
                -2.040607679084461,
                0.0618886163974417,
                1.1916495968128418,
                0.028559682264611252
            ]
        },
        {
            "positions": [
                0.46691873556375474,
                -1.6325458155823398,
                -1.9798563494970838,
                -0.03948364944286875,
                1.260895825251107,
                -0.019193556228973563
            ]
        },
        {
            "positions": [
                0.5344055199527069,
                -1.5904005012075069,
                -1.9191050199097064,
                -0.14085591528317942,
                1.3301420536893722,
                -0.06694679472255849
            ]
        },
        {
            "positions": [
                0.6018923043416591,
                -1.548255186832674,
                -1.8583536903223292,
                -0.2422281811234901,
                1.3993882821276373,
                -0.1147000332161433
            ]
        },
        {
            "positions": [
                0.6693790887306114,
                -1.506109872457841,
                -1.7976023607349516,
                -0.34360044696380054,
                1.4686345105659027,
                -0.16245327170972812
            ]
        },
        {
            "positions": [
                0.7368658731195635,
                -1.4639645580830078,
                -1.7368510311475744,
                -0.444972712804111,
                1.5378807390041678,
                -0.21020651020331305
            ]
        },
        {
            "positions": [
                0.8043526575085158,
                -1.421819243708175,
                -1.676099701560197,
                -0.5463449786444217,
                1.6071269674424329,
                -0.25795974869689786
            ]
        },
        {
            "positions": [
                0.8865357812210927,
                -1.4124917994095059,
                -1.5314940455859682,
                -0.5231835821266683,
                1.5895369350294066,
                -0.37266092388220545
            ]
        },
        {
            "positions": [
                0.9687189049336695,
                -1.403164355110837,
                -1.3868883896117392,
                -0.5000221856089148,
                1.5719469026163806,
                -0.48736209906751304
            ]
        },
        {
            "positions": [
                1.0509020286462463,
                -1.393836910812168,
                -1.2422827336375104,
                -0.47686078909116136,
                1.5543568702033543,
                -0.6020632742528207
            ]
        },
        {
            "positions": [
                1.1330851523588232,
                -1.384509466513499,
                -1.0976770776632816,
                -0.45369939257340797,
                1.5367668377903283,
                -0.7167644494381282
            ]
        },
        {
            "positions": [
                1.2152682760714,
                -1.3751820222148299,
                -0.9530714216890526,
                -0.4305379960556545,
                1.519176805377302,
                -0.8314656246234359
            ]
        },
        {
            "positions": [
                1.2974513997839767,
                -1.365854577916161,
                -0.8084657657148236,
                -0.40737659953790106,
                1.5015867729642758,
                -0.9461667998087435
            ]
        },
        {
            "positions": [
                1.3796345234965535,
                -1.356527133617492,
                -0.6638601097405947,
                -0.38421520302014767,
                1.4839967405512497,
                -1.060867974994051
            ]
        },
        {
            "positions": [
                1.4618176472091304,
                -1.347199689318823,
                -0.5192544537663659,
                -0.36105380650239427,
                1.4664067081382235,
                -1.1755691501793586
            ]
        },
        {
            "positions": [
                1.5440007709217072,
                -1.3378722450201541,
                -0.3746487977921369,
                -0.3378924099846408,
                1.4488166757251975,
                -1.2902703253646663
            ]
        },
        {
            "positions": [
                1.6261838946342841,
                -1.328544800721485,
                -0.23004314181790808,
                -0.31473101346688737,
                1.4312266433121712,
                -1.4049715005499739
            ]
        },
        {
            "positions": [
                1.7083670183468609,
                -1.319217356422816,
                -0.08543748584367905,
                -0.2915696169491339,
                1.413636610899145,
                -1.5196726757352816
            ]
        },
        {
            "positions": [
                1.7905501420594376,
                -1.309889912124147,
                0.05916817013054976,
                -0.2684082204313805,
                1.396046578486119,
                -1.6343738509205892
            ]
        },
        {
            "positions": [
                1.8727332657720146,
                -1.3005624678254781,
                0.2037738261047788,
                -0.24524682391362707,
                1.3784565460730926,
                -1.749075026105897
            ]
        },
        {
            "positions": [
                1.9549163894845913,
                -1.291235023526809,
                0.3483794820790076,
                -0.22208542739587367,
                1.3608665136600664,
                -1.8637762012912042
            ]
        },
        {
            "positions": [
                2.0370995131971683,
                -1.28190757922814,
                0.4929851380532366,
                -0.19892403087812022,
                1.3432764812470404,
                -1.978477376476512
            ]
        },
        {
            "positions": [
                2.119282636909745,
                -1.2725801349294712,
                0.6375907940274652,
                -0.17576263436036682,
                1.325686448834014,
                -2.0931785516618193
            ]
        },
        {
            "positions": [
                2.2014657606223222,
                -1.2632526906308021,
                0.7821964500016942,
                -0.15260123784261337,
                1.3080964164209878,
                -2.2078797268471275
            ]
        },
        {
            "positions": [
                2.2836488843348985,
                -1.253925246332133,
                0.9268021059759233,
                -0.12943984132485997,
                1.2905063840079618,
                -2.322580902032435
            ]
        },
        {
            "positions": [
                2.3658320080474757,
                -1.244597802033464,
                1.0714077619501523,
                -0.10627844480710652,
                1.2729163515949355,
                -2.4372820772177426
            ]
        },
        {
            "positions": [
                2.4480151317600525,
                -1.2352703577347952,
                1.216013417924381,
                -0.08311704828935312,
                1.2553263191819095,
                -2.55198325240305
            ]
        },
        {
            "positions": [
                2.530198255472629,
                -1.2259429134361262,
                1.3606190738986101,
                -0.05995565177159967,
                1.2377362867688833,
                -2.6666844275883577
            ]
        },
        {
            "positions": [
                2.546474722839575,
                -1.190768314193862,
                1.4382194326202122,
                -0.18084587737920713,
                1.2079197631520038,
                -2.7376132263512853
            ]
        },
        {
            "positions": [
                2.562751190206521,
                -1.155593714951598,
                1.5158197913418143,
                -0.3017361029868146,
                1.1781032395351243,
                -2.8085420251142126
            ]
        },
        {
            "positions": [
                2.5790276575734667,
                -1.1204191157093337,
                1.5934201500634164,
                -0.42262632859442206,
                1.1482867159182448,
                -2.8794708238771403
            ]
        },
        {
            "positions": [
                2.5953041249404127,
                -1.0852445164670697,
                1.6710205087850185,
                -0.5435165542020295,
                1.1184701923013656,
                -2.950399622640068
            ]
        },
        {
            "positions": [
                2.6115805923073587,
                -1.0500699172248056,
                1.7486208675066206,
                -0.664406779809637,
                1.088653668684486,
                -3.021328421402995
            ]
        },
        {
            "positions": [
                2.6278570596743047,
                -1.0148953179825415,
                1.8262212262282227,
                -0.7852970054172445,
                1.0588371450676066,
                -3.092257220165923
            ]
        }
    ]
}