{
    "goal": {
        "global_pose": {
            "orientation": {
                "w": 0.005598929693374612,
                "x": 0.007748599140229565,
                "y": 0.7110244013736278,
                "z": -0.7031023480610252
            },
            "position": {
                "x": -0.8858502320852131,
                "y": -0.7141253447532654,
                "z": 0.3711530566215515
            }
        },
        "name": "move_to_auspresseinheit_C"
    },
    "id": "SPARStwo_move_to_auspresseinheit_C_146",
    "joint_names": [
        "shoulder_pan_joint",
        "shoulder_lift_joint",
        "elbow_joint",
        "wrist_1_joint",
        "wrist_2_joint",
        "wrist_3_joint"
    ],
    "metrics": {
        "cart_traj_len": 0.49263168198275276,
        "distance_elbow_joint": 0.9966050454896092,
        "distance_shoulder_lift_joint": 0.3231808791538239,
        "distance_shoulder_pan_joint": 0.25639555606954323,
        "distance_wrist_1_joint": 0.6763755516729691,
        "distance_wrist_2_joint": 1.3083666951375685,
        "distance_wrist_3_joint": 0.053471365495001866,
        "smoothness": 0.0,
        "time": 5.017132795999999,
        "traj_len": 1.901156251605458,
        "weighted_distance": 2.388740268597458
    },
    "planner": "SPARStwo",
    "start": {
        "state": {
            "elbow_joint": 1.7527959577737207,
            "shoulder_lift_joint": -0.9740617694225068,
            "shoulder_pan_joint": -2.967991417825858,
            "wrist_1_joint": -0.759517768980727,
            "wrist_2_joint": 1.7443932448377408,
            "wrist_3_joint": -3.0840537646736568
        }
    },
    "waypoints": [
        {
            "positions": [
                -2.967991417825858,
                -0.9740617694225068,
                1.7527959577737207,
                -0.759517768980727,
                1.7443932448377408,
                -3.0840537646736568
            ]
        },
        {
            "positions": [
                -2.9423518622189038,
                -0.9417436815071244,
                1.6531354532247597,
                -0.6918802138134301,
                1.613556575323984,
                -3.089400901223157
            ]
        },
        {
            "positions": [
                -2.916712306611949,
                -0.909425593591742,
                1.5534749486757988,
                -0.6242426586461332,
                1.4827199058102272,
                -3.094748037772657
            ]
        },
        {
            "positions": [
                -2.891072751004995,
                -0.8771075056763596,
                1.453814444126838,
                -0.5566051034788362,
                1.3518832362964703,
                -3.100095174322157
            ]
        },
        {
            "positions": [
                -2.8654331953980408,
                -0.8447894177609772,
                1.354153939577877,
                -0.4889675483115393,
                1.2210465667827135,
                -3.1054423108716573
            ]
        },
        {
            "positions": [
                -2.839793639791086,
                -0.8124713298455948,
                1.254493435028916,
                -0.4213299931442424,
                1.0902098972689567,
                -3.1107894474211575
            ]
        },
        {
            "positions": [
                -2.814154084184132,
                -0.7801532419302124,
                1.1548329304799552,
                -0.3536924379769455,
                0.9593732277551997,
                -3.116136583970658
            ]
        },
        {
            "positions": [
                -2.7885145285771777,
                -0.74783515401483,
                1.0551724259309943,
                -0.28605488280964864,
                0.8285365582414429,
                -3.121483720520158
            ]
        },
        {
            "positions": [
                -2.7628749729702236,
                -0.7155170660994477,
                0.9555119213820333,
                -0.21841732764235167,
                0.697699888727686,
                -3.1268308570696584
            ]
        },
        {
            "positions": [
                -2.737235417363269,
                -0.6831989781840653,
                0.8558514168330724,
                -0.1507797724750547,
                0.5668632192139291,
                -3.1321779936191585
            ]
        },
        {
            "positions": [
                -2.7115958617563147,
                -0.6508808902686829,
                0.7561909122841115,
                -0.08314221730775785,
                0.43602654970017235,
                -3.1375251301686586
            ]
        }
    ]
}