{
    "goal": {
        "global_pose": {
            "orientation": {
                "w": -0.4816463035849501,
                "x": 0.5182115481033762,
                "y": 0.4908360881923453,
                "z": -0.5084816262002911
            },
            "position": {
                "x": -0.8240239810943604,
                "y": -0.300875300988555,
                "z": 0.16403168439865112
            }
        },
        "name": "move_to_storage_C"
    },
    "id": "SPARS_move_to_storage_C_74",
    "joint_names": [
        "shoulder_pan_joint",
        "shoulder_lift_joint",
        "elbow_joint",
        "wrist_1_joint",
        "wrist_2_joint",
        "wrist_3_joint"
    ],
    "metrics": {
        "cart_traj_len": 0.5760174168694331,
        "distance_elbow_joint": 0.25595461865832636,
        "distance_shoulder_lift_joint": 0.18870030999855358,
        "distance_shoulder_pan_joint": 0.49469402282708064,
        "distance_wrist_1_joint": 0.07113134729312798,
        "distance_wrist_2_joint": 1.0627807472903172,
        "distance_wrist_3_joint": 0.057013706255156116,
        "smoothness": 0.0,
        "time": 5.052334083,
        "traj_len": 1.4595460774920954,
        "weighted_distance": 1.8379919095078519
    },
    "planner": "SPARS",
    "start": {
        "state": {
            "elbow_joint": 2.010868314990456,
            "shoulder_lift_joint": -1.1634956873337592,
            "shoulder_pan_joint": -2.4736205022346125,
            "wrist_1_joint": -0.8367026794202681,
            "wrist_2_joint": 0.6746043897044499,
            "wrist_3_joint": -3.1496632123970403
        }
    },
    "waypoints": [
        {
            "positions": [
                -2.4736205022346125,
                -1.1634956873337592,
                2.010868314990456,
                -0.8367026794202681,
                0.6746043897044499,
                -3.1496632123970403
            ]
        },
        {
            "positions": [
                -2.556069506039126,
                -1.1320456356673336,
                1.9682092118807348,
                -0.8248474548714134,
                0.8517345142528361,
                -3.140160928021181
            ]
        },
        {
            "positions": [
                -2.6385185098436392,
                -1.100595584000908,
                1.9255501087710136,
                -0.8129922303225587,
                1.0288646388012224,
                -3.1306586436453214
            ]
        },
        {
            "positions": [
                -2.720967513648153,
                -1.0691455323344825,
                1.8828910056612926,
                -0.8011370057737042,
                1.2059947633496084,
                -3.121156359269462
            ]
        },
        {
            "positions": [
                -2.8034165174526664,
                -1.0376954806680567,
                1.8402319025515717,
                -0.7892817812248495,
                1.3831248878979947,
                -3.111654074893603
            ]
        },
        {
            "positions": [
                -2.8858655212571795,
                -1.0062454290016312,
                1.7975727994418504,
                -0.7774265566759948,
                1.560255012446381,
                -3.1021517905177434
            ]
        },
        {
            "positions": [
                -2.968314525061693,
                -0.9747953773352056,
                1.7549136963321295,
                -0.7655713321271401,
                1.7373851369947673,
                -3.092649506141884
            ]
        }
    ]
}