{
    "goal": {
        "global_pose": {
            "orientation": {
                "w": 0.7047431468963623,
                "x": -0.7094548344612122,
                "y": 0.0024358443915843964,
                "z": -0.0022348060738295317
            },
            "position": {
                "x": 0.6094750761985779,
                "y": 0.3671506643295288,
                "z": 0.19426114857196808
            }
        },
        "name": "move_to_magneteinheit_A"
    },
    "id": "SPARS_move_to_magneteinheit_A_2",
    "joint_names": [
        "shoulder_pan_joint",
        "shoulder_lift_joint",
        "elbow_joint",
        "wrist_1_joint",
        "wrist_2_joint",
        "wrist_3_joint"
    ],
    "metrics": {
        "cart_traj_len": 3.530199330432223,
        "distance_elbow_joint": 3.88108350833508,
        "distance_shoulder_lift_joint": 1.6154675118965882,
        "distance_shoulder_pan_joint": 3.2556128676644893,
        "distance_wrist_1_joint": 1.302892347518696,
        "distance_wrist_2_joint": 1.709383548805962,
        "distance_wrist_3_joint": 2.602846201106716,
        "smoothness": 0.26665029499962156,
        "time": 5.038183045999999,
        "traj_len": 3.7904202913829397,
        "weighted_distance": 4.752394584192859
    },
    "planner": "SPARS",
    "start": {
        "state": {
            "elbow_joint": -1.9196185241190666,
            "shoulder_lift_joint": -1.2443396400964142,
            "shoulder_pan_joint": 2.6996025414629847,
            "wrist_1_joint": -1.5485510000780065,
            "wrist_2_joint": -1.5709468930060704,
            "wrist_3_joint": 0.4420197071253992
        }
    },
    "waypoints": [
        {
            "positions": [
                2.6996025414629847,
                -1.2443396400964142,
                -1.9196185241190666,
                -1.5485510000780065,
                -1.5709468930060704,
                0.4420197071253992
            ]
        },
        {
            "positions": [
                2.5691990995365472,
                -1.294521690009239,
                -1.79521096447938,
                -1.5220060392708148,
                -1.5354942098890259,
                0.46581148992360216
            ]
        },
        {
            "positions": [
                2.4387956576101093,
                -1.3447037399220638,
                -1.6708034048396934,
                -1.495461078463623,
                -1.500041526771981,
                0.48960327272180515
            ]
        },
        {
            "positions": [
                2.308392215683672,
                -1.3948857898348885,
                -1.5463958452000066,
                -1.4689161176564314,
                -1.4645888436549366,
                0.5133950555200082
            ]
        },
        {
            "positions": [
                2.1779887737572343,
                -1.4450678397477132,
                -1.42198828556032,
                -1.4423711568492397,
                -1.4291361605378918,
                0.5371868383182111
            ]
        },
        {
            "positions": [
                2.0475853318307964,
                -1.495249889660538,
                -1.2975807259206333,
                -1.415826196042048,
                -1.3936834774208473,
                0.5609786211164142
            ]
        },
        {
            "positions": [
                1.9171818899043587,
                -1.545431939573363,
                -1.1731731662809466,
                -1.3892812352348562,
                -1.3582307943038026,
                0.5847704039146171
            ]
        },
        {
            "positions": [
                1.786778447977921,
                -1.5956139894861876,
                -1.0487656066412598,
                -1.3627362744276645,
                -1.322778111186758,
                0.6085621867128201
            ]
        },
        {
            "positions": [
                1.6563750060514835,
                -1.6457960393990125,
                -0.9243580470015734,
                -1.3361913136204728,
                -1.2873254280697135,
                0.6323539695110231
            ]
        },
        {
            "positions": [
                1.5259715641250458,
                -1.6959780893118372,
                -0.7999504873618868,
                -1.3096463528132811,
                -1.251872744952669,
                0.6561457523092261
            ]
        },
        {
            "positions": [
                1.395568122198608,
                -1.746160139224662,
                -0.6755429277222,
                -1.2831013920060894,
                -1.2164200618356242,
                0.679937535107429
            ]
        },
        {
            "positions": [
                1.2651646802721705,
                -1.7963421891374867,
                -0.5511353680825135,
                -1.2565564311988977,
                -1.1809673787185797,
                0.7037293179056321
            ]
        },
        {
            "positions": [
                1.1347612383457326,
                -1.8465242390503116,
                -0.42672780844282654,
                -1.230011470391706,
                -1.145514695601535,
                0.7275211007038351
            ]
        },
        {
            "positions": [
                1.004357796419295,
                -1.8967062889631365,
                -0.30232024880314,
                -1.2034665095845143,
                -1.1100620124844904,
                0.7513128835020381
            ]
        },
        {
            "positions": [
                0.8739543544928574,
                -1.946888338875961,
                -0.17791268916345326,
                -1.1769215487773226,
                -1.0746093293674457,
                0.775104666300241
            ]
        },
        {
            "positions": [
                0.7435509125664197,
                -1.997070388788786,
                -0.05350512952376674,
                -1.1503765879701309,
                -1.0391566462504012,
                0.798896449098444
            ]
        },
        {
            "positions": [
                0.6930085647408353,
                -1.9686343851095527,
                0.05211345137642191,
                -1.1155204535544918,
                -0.9804288619130956,
                0.8970849321803422
            ]
        },
        {
            "positions": [
                0.642466216915251,
                -1.9401983814303194,
                0.15773203227661056,
                -1.080664319138853,
                -0.92170107757579,
                0.9952734152622404
            ]
        },
        {
            "positions": [
                0.5919238690896667,
                -1.9117623777510864,
                0.2633506131767992,
                -1.0458081847232141,
                -0.8629732932384844,
                1.0934618983441386
            ]
        },
        {
            "positions": [
                0.5413815212640822,
                -1.883326374071853,
                0.36896919407698786,
                -1.010952050307575,
                -0.8042455089011789,
                1.1916503814260369
            ]
        },
        {
            "positions": [
                0.49083917343849787,
                -1.8548903703926198,
                0.4745877749771765,
                -0.9760959158919361,
                -0.7455177245638733,
                1.289838864507935
            ]
        },
        {
            "positions": [
                0.4402968256129135,
                -1.8264543667133866,
                0.5802063558773651,
                -0.9412397814762972,
                -0.6867899402265677,
                1.3880273475898333
            ]
        },
        {
            "positions": [
                0.38975447778732913,
                -1.7980183630341533,
                0.6858249367775539,
                -0.9063836470606582,
                -0.6280621558892621,
                1.4862158306717315
            ]
        },
        {
            "positions": [
                0.33921212996174477,
                -1.7695823593549203,
                0.7914435176777425,
                -0.8715275126450193,
                -0.5693343715519565,
                1.5844043137536297
            ]
        },
        {
            "positions": [
                0.2886697821361604,
                -1.741146355675687,
                0.8970620985779311,
                -0.8366713782293803,
                -0.510606587214651,
                1.6825927968355279
            ]
        },
        {
            "positions": [
                0.23812743431057604,
                -1.7127103519964537,
                1.0026806794781198,
                -0.8018152438137414,
                -0.4518788028773454,
                1.780781279917426
            ]
        },
        {
            "positions": [
                0.18758508648499161,
                -1.6842743483172204,
                1.1082992603783086,
                -0.7669591093981024,
                -0.39315101854003975,
                1.8789697629993243
            ]
        },
        {
            "positions": [
                0.1370427386594073,
                -1.6558383446379872,
                1.213917841278497,
                -0.7321029749824635,
                -0.33442323420273423,
                1.9771582460812225
            ]
        },
        {
            "positions": [
                0.08650039083382288,
                -1.6274023409587541,
                1.3195364221786858,
                -0.6972468405668245,
                -0.2756954498654286,
                2.0753467291631207
            ]
        },
        {
            "positions": [
                0.03595804300823857,
                -1.5989663372795209,
                1.4251550030788744,
                -0.6623907061511856,
                -0.21696766552812308,
                2.173535212245019
            ]
        },
        {
            "positions": [
                -0.01458430481734585,
                -1.5705303336002876,
                1.530773583979063,
                -0.6275345717355466,
                -0.15823988119081744,
                2.271723695326917
            ]
        },
        {
            "positions": [
                -0.06512665264293016,
                -1.5420943299210546,
                1.6363921648792517,
                -0.5926784373199077,
                -0.09951209685351192,
                2.369912178408815
            ]
        },
        {
            "positions": [
                -0.11566900046851458,
                -1.513658326241821,
                1.7420107457794405,
                -0.5578223029042687,
                -0.04078431251620629,
                2.4681006614907135
            ]
        },
        {
            "positions": [
                -0.1662113482940989,
                -1.485222322562588,
                1.8476293266796289,
                -0.5229661684886298,
                0.017943471821099122,
                2.566289144572612
            ]
        },
        {
            "positions": [
                -0.2167536961196833,
                -1.4567863188833547,
                1.9532479075798177,
                -0.4881100340729908,
                0.07667125615840492,
                2.66447762765451
            ]
        },
        {
            "positions": [
                -0.13193953859922808,
                -1.3761731455586586,
                1.955302176738867,
                -0.5487228794514107,
                0.09211260606877672,
                2.7595746977989113
            ]
        },
        {
            "positions": [
                -0.04712538107877284,
                -1.2955599722339621,
                1.9573564458979162,
                -0.6093357248298307,
                0.10755395597914853,
                2.8546717679433127
            ]
        },
        {
            "positions": [
                0.037688776441682365,
                -1.2149467989092657,
                1.9594107150569653,
                -0.6699485702082506,
                0.12299530588952035,
                2.949768838087714
            ]
        },
        {
            "positions": [
                0.1225029339621376,
                -1.1343336255845695,
                1.9614649842160146,
                -0.7305614155866705,
                0.13843665579989214,
                3.0448659082321154
            ]
        }
    ]
}