{
    "goal": {
        "global_pose": {
            "orientation": {
                "w": 0.005598929693374612,
                "x": 0.007748599140229565,
                "y": 0.7110244013736278,
                "z": -0.7031023480610252
            },
            "position": {
                "x": -0.8858502320852131,
                "y": -0.7141253447532654,
                "z": 0.3711530566215515
            }
        },
        "name": "move_to_auspresseinheit_C"
    },
    "id": "SPARS_move_to_auspresseinheit_C_6",
    "joint_names": [
        "shoulder_pan_joint",
        "shoulder_lift_joint",
        "elbow_joint",
        "wrist_1_joint",
        "wrist_2_joint",
        "wrist_3_joint"
    ],
    "metrics": {
        "cart_traj_len": 0.49308827034315,
        "distance_elbow_joint": 0.9914784071009968,
        "distance_shoulder_lift_joint": 0.3207652025418547,
        "distance_shoulder_pan_joint": 0.2569081289191675,
        "distance_wrist_1_joint": 0.6604059499014453,
        "distance_wrist_2_joint": 1.312881544515652,
        "distance_wrist_3_joint": 0.04161632002484783,
        "smoothness": 3.2297397080004555e-16,
        "time": 5.111792569,
        "traj_len": 1.8931602026780419,
        "weighted_distance": 2.374989618392206
    },
    "planner": "SPARS",
    "start": {
        "state": {
            "elbow_joint": 1.7527959577737207,
            "shoulder_lift_joint": -0.9740617694225068,
            "shoulder_pan_joint": -2.967991417825858,
            "wrist_1_joint": -0.759517768980727,
            "wrist_2_joint": 1.7443932448377408,
            "wrist_3_joint": -3.0840537646736568
        }
    },
    "waypoints": [
        {
            "positions": [
                -2.967991417825858,
                -0.9740617694225068,
                1.7527959577737207,
                -0.759517768980727,
                1.7443932448377408,
                -3.0840537646736568
            ]
        },
        {
            "positions": [
                -2.942300604933941,
                -0.9419852491683213,
                1.653648117063621,
                -0.6934771739905825,
                1.6131050903861757,
                -3.0882153966761416
            ]
        },
        {
            "positions": [
                -2.9166097920420246,
                -0.9099087289141359,
                1.5545002763535214,
                -0.6274365790004379,
                1.4818169359346105,
                -3.0923770286786265
            ]
        },
        {
            "positions": [
                -2.8909189791501078,
                -0.8778322086599504,
                1.4553524356434218,
                -0.5613959840102933,
                1.3505287814830451,
                -3.096538660681111
            ]
        },
        {
            "positions": [
                -2.865228166258191,
                -0.8457556884057649,
                1.356204594933322,
                -0.49535538902014886,
                1.21924062703148,
                -3.100700292683596
            ]
        },
        {
            "positions": [
                -2.839537353366274,
                -0.8136791681515794,
                1.2570567542232223,
                -0.42931479403000433,
                1.0879524725799148,
                -3.1048619246860807
            ]
        },
        {
            "positions": [
                -2.8138465404743576,
                -0.781602647897394,
                1.1579089135131226,
                -0.3632741990398598,
                0.9566643181283496,
                -3.1090235566885656
            ]
        },
        {
            "positions": [
                -2.7881557275824407,
                -0.7495261276432085,
                1.058761072803023,
                -0.2972336040497153,
                0.8253761636767845,
                -3.1131851886910504
            ]
        },
        {
            "positions": [
                -2.762464914690524,
                -0.7174496073890231,
                0.9596132320929232,
                -0.23119300905957074,
                0.6940880092252191,
                -3.117346820693535
            ]
        },
        {
            "positions": [
                -2.7367741017986074,
                -0.6853730871348376,
                0.8604653913828235,
                -0.16515241406942616,
                0.5627998547736539,
                -3.1215084526960197
            ]
        },
        {
            "positions": [
                -2.7110832889066905,
                -0.6532965668806521,
                0.7613175506727239,
                -0.09911181907928167,
                0.43151170032208885,
                -3.1256700846985046
            ]
        }
    ]
}