{
    "goal": {
        "global_pose": {
            "orientation": {
                "w": -0.00223480608172531,
                "x": 0.0024358444001904467,
                "y": 0.7094548369677653,
                "z": -0.704743149386269
            },
            "position": {
                "x": 0.6205249238014221,
                "y": -0.6371506643295288,
                "z": 0.19426114857196808
            }
        },
        "name": "move_to_magneteinheit_B"
    },
    "id": "SPARS_move_to_magneteinheit_B_30",
    "joint_names": [
        "shoulder_pan_joint",
        "shoulder_lift_joint",
        "elbow_joint",
        "wrist_1_joint",
        "wrist_2_joint",
        "wrist_3_joint"
    ],
    "metrics": {
        "cart_traj_len": 1.458043156111773,
        "distance_elbow_joint": 0.9746900666272842,
        "distance_shoulder_lift_joint": 1.1071415521875347,
        "distance_shoulder_pan_joint": 1.6222398342522046,
        "distance_wrist_1_joint": 0.7195307911588107,
        "distance_wrist_2_joint": 1.6140292350258758,
        "distance_wrist_3_joint": 0.16087608947231424,
        "smoothness": 0.638862118105148,
        "time": 5.081260072,
        "traj_len": 2.489680214148802,
        "weighted_distance": 2.9755368883368494
    },
    "planner": "SPARS",
    "start": {
        "state": {
            "elbow_joint": 2.6216224122426386,
            "shoulder_lift_joint": -1.4174107377796124,
            "shoulder_pan_joint": 0.7066234856936794,
            "wrist_1_joint": 1.9546482284002225,
            "wrist_2_joint": -0.7096286983471962,
            "wrist_3_joint": 0.005740856962016249
        }
    },
    "waypoints": [
        {
            "positions": [
                0.7066234856936794,
                -1.4174107377796124,
                2.6216224122426386,
                1.9546482284002225,
                -0.7096286983471962,
                0.005740856962016249
            ]
        },
        {
            "positions": [
                0.5938057765277145,
                -1.440083124454666,
                2.6279739725717075,
                1.9250084905728588,
                -0.6961501731656127,
                0.030431585226783374
            ]
        },
        {
            "positions": [
                0.4809880673617497,
                -1.4627555111297195,
                2.6343255329007764,
                1.8953687527454952,
                -0.6826716479840291,
                0.0551223134915505
            ]
        },
        {
            "positions": [
                0.347491218059641,
                -1.5289988555618605,
                2.6016776264215036,
                1.7952295719038895,
                -0.6710139376897111,
                0.07388855342978583
            ]
        },
        {
            "positions": [
                0.21399436875753236,
                -1.5952421999940016,
                2.5690297199422307,
                1.6950903910622837,
                -0.659356227395393,
                0.09265479336802115
            ]
        },
        {
            "positions": [
                0.12710123665629713,
                -1.5237568084576059,
                2.5000534789414153,
                1.7304729259715814,
                -0.7796452092472448,
                0.08696539697830505
            ]
        },
        {
            "positions": [
                0.04020810455506191,
                -1.45227141692121,
                2.4310772379406,
                1.7658554608808794,
                -0.8999341910990966,
                0.08127600058858896
            ]
        },
        {
            "positions": [
                -0.04668502754617332,
                -1.3807860253848143,
                2.3621009969397844,
                1.8012379957901772,
                -1.0202231729509483,
                0.07558660419887285
            ]
        },
        {
            "positions": [
                -0.13357815964740855,
                -1.3093006338484185,
                2.293124755938969,
                1.836620530699475,
                -1.1405121548028,
                0.06989720780915674
            ]
        },
        {
            "positions": [
                -0.22047129174864377,
                -1.2378152423120226,
                2.2241485149381535,
                1.872003065608773,
                -1.2608011366546519,
                0.06420781141944065
            ]
        },
        {
            "positions": [
                -0.307364423849879,
                -1.1663298507756268,
                2.155172273937338,
                1.9073856005180707,
                -1.3810901185065037,
                0.05851841502972454
            ]
        },
        {
            "positions": [
                -0.39425755595111417,
                -1.0948444592392312,
                2.0861960329365226,
                1.9427681354273685,
                -1.501379100358355,
                0.05282901864000845
            ]
        },
        {
            "positions": [
                -0.48115068805234945,
                -1.0233590677028352,
                2.017219791935707,
                1.9781506703366665,
                -1.621668082210207,
                0.04713962225029234
            ]
        },
        {
            "positions": [
                -0.5680438201535847,
                -0.9518736761664395,
                1.9482435509348919,
                2.013533205245964,
                -1.7419570640620585,
                0.04145022586057624
            ]
        },
        {
            "positions": [
                -0.6549369522548198,
                -0.8803882846300436,
                1.8792673099340762,
                2.048915740155262,
                -1.8622460459139105,
                0.035760829470860137
            ]
        },
        {
            "positions": [
                -0.741830084356055,
                -0.8089028930936479,
                1.810291068933261,
                2.08429827506456,
                -1.982535027765762,
                0.03007143308114403
            ]
        },
        {
            "positions": [
                -0.8287232164572904,
                -0.737417501557252,
                1.7413148279324453,
                2.1196808099738575,
                -2.1028240096176143,
                0.024382036691427925
            ]
        },
        {
            "positions": [
                -0.9156163485585255,
                -0.6659321100208563,
                1.67233858693163,
                2.1550633448831555,
                -2.2231129914694656,
                0.018692640301711833
            ]
        }
    ]
}