{
    "goal": {
        "global_pose": {
            "orientation": {
                "w": 0.7047431468963623,
                "x": -0.7094548344612122,
                "y": 0.0024358443915843964,
                "z": -0.0022348060738295317
            },
            "position": {
                "x": 0.6094750761985779,
                "y": 0.3671506643295288,
                "z": 0.19426114857196808
            }
        },
        "name": "move_to_magneteinheit_A"
    },
    "id": "SPARS_move_to_magneteinheit_A_72",
    "joint_names": [
        "shoulder_pan_joint",
        "shoulder_lift_joint",
        "elbow_joint",
        "wrist_1_joint",
        "wrist_2_joint",
        "wrist_3_joint"
    ],
    "metrics": {
        "cart_traj_len": 3.4227483270908454,
        "distance_elbow_joint": 3.9024792658291867,
        "distance_shoulder_lift_joint": 0.954927272310059,
        "distance_shoulder_pan_joint": 4.525946693470809,
        "distance_wrist_1_joint": 2.539823091891938,
        "distance_wrist_2_joint": 1.7066322128361686,
        "distance_wrist_3_joint": 3.588788397343403,
        "smoothness": 0.2644734545851141,
        "time": 5.051090057000001,
        "traj_len": 4.149529724400292,
        "weighted_distance": 5.351880887416729
    },
    "planner": "SPARS",
    "start": {
        "state": {
            "elbow_joint": -1.9196185241190666,
            "shoulder_lift_joint": -1.2443396400964142,
            "shoulder_pan_joint": 2.6996025414629847,
            "wrist_1_joint": -1.5485510000780065,
            "wrist_2_joint": -1.5709468930060704,
            "wrist_3_joint": 0.4420197071253992
        }
    },
    "waypoints": [
        {
            "positions": [
                2.6996025414629847,
                -1.2443396400964142,
                -1.9196185241190666,
                -1.5485510000780065,
                -1.5709468930060704,
                0.4420197071253992
            ]
        },
        {
            "positions": [
                2.5850485092649613,
                -1.2581546449368117,
                -1.8102647815903306,
                -1.496058898582124,
                -1.537481310296705,
                0.3806113269966932
            ]
        },
        {
            "positions": [
                2.4704944770669375,
                -1.2719696497772093,
                -1.7009110390615947,
                -1.4435667970862411,
                -1.5040157275873398,
                0.31920294686798717
            ]
        },
        {
            "positions": [
                2.355940444868914,
                -1.2857846546176068,
                -1.5915572965328586,
                -1.3910746955903586,
                -1.4705501448779745,
                0.25779456673928114
            ]
        },
        {
            "positions": [
                2.2413864126708902,
                -1.2995996594580044,
                -1.4822035540041225,
                -1.3385825940944758,
                -1.4370845621686092,
                0.19638618661057516
            ]
        },
        {
            "positions": [
                2.126832380472867,
                -1.313414664298402,
                -1.3728498114753864,
                -1.2860904925985932,
                -1.403618979459244,
                0.1349778064818692
            ]
        },
        {
            "positions": [
                2.012278348274843,
                -1.3272296691387995,
                -1.2634960689466506,
                -1.2335983911027104,
                -1.3701533967498787,
                0.07356942635316316
            ]
        },
        {
            "positions": [
                1.8977243160768196,
                -1.341044673979197,
                -1.1541423264179145,
                -1.1811062896068278,
                -1.3366878140405134,
                0.012161046224457184
            ]
        },
        {
            "positions": [
                1.7831702838787957,
                -1.3548596788195946,
                -1.0447885838891784,
                -1.128614188110945,
                -1.3032222313311481,
                -0.04924733390424885
            ]
        },
        {
            "positions": [
                1.668616251680772,
                -1.3686746836599923,
                -0.9354348413604424,
                -1.0761220866150625,
                -1.2697566486217828,
                -0.11065571403295493
            ]
        },
        {
            "positions": [
                1.5540622194827485,
                -1.38248968850039,
                -0.8260810988317064,
                -1.0236299851191797,
                -1.2362910659124176,
                -0.1720640941616608
            ]
        },
        {
            "positions": [
                1.4395081872847248,
                -1.3963046933407874,
                -0.7167273563029704,
                -0.971137883623297,
                -1.2028254832030523,
                -0.23347247429036688
            ]
        },
        {
            "positions": [
                1.3249541550867014,
                -1.410119698181185,
                -0.6073736137742345,
                -0.9186457821274144,
                -1.169359900493687,
                -0.29488085441907286
            ]
        },
        {
            "positions": [
                1.2104001228886776,
                -1.4239347030215825,
                -0.4980198712454984,
                -0.8661536806315316,
                -1.1358943177843217,
                -0.35628923454777894
            ]
        },
        {
            "positions": [
                1.0958460906906542,
                -1.43774970786198,
                -0.3886661287167623,
                -0.8136615791356491,
                -1.1024287350749564,
                -0.4176976146764848
            ]
        },
        {
            "positions": [
                0.9812920584926303,
                -1.4515647127023776,
                -0.27931238618802623,
                -0.7611694776397663,
                -1.0689631523655911,
                -0.4791059948051909
            ]
        },
        {
            "positions": [
                0.866738026294607,
                -1.4653797175427752,
                -0.16995864365929036,
                -0.7086773761438837,
                -1.0354975696562259,
                -0.5405143749338969
            ]
        },
        {
            "positions": [
                0.7521839940965833,
                -1.4791947223831727,
                -0.0606049011305545,
                -0.656185274648001,
                -1.0020319869468606,
                -0.6019227550626028
            ]
        },
        {
            "positions": [
                0.6376299618985595,
                -1.4930097272235703,
                0.04874884139818181,
                -0.6036931731521182,
                -0.9685664042374953,
                -0.663331135191309
            ]
        },
        {
            "positions": [
                0.5230759297005361,
                -1.5068247320639678,
                0.1581025839269179,
                -0.5512010716562356,
                -0.93510082152813,
                -0.724739515320015
            ]
        },
        {
            "positions": [
                0.4085218975025122,
                -1.5206397369043654,
                0.26745632645565376,
                -0.49870897016035287,
                -0.9016352388187647,
                -0.7861478954487208
            ]
        },
        {
            "positions": [
                0.2939678653044888,
                -1.534454741744763,
                0.3768100689843896,
                -0.4462168686644703,
                -0.8681696561093994,
                -0.8475562755774267
            ]
        },
        {
            "positions": [
                0.17941383310646497,
                -1.5482697465851607,
                0.48616381151312593,
                -0.3937247671685875,
                -0.8347040734000342,
                -0.9089646557061329
            ]
        },
        {
            "positions": [
                0.06485980090844157,
                -1.5620847514255582,
                0.5955175540418618,
                -0.34123266567270494,
                -0.8012384906906689,
                -0.9703730358348389
            ]
        },
        {
            "positions": [
                -0.049694231289581836,
                -1.5758997562659558,
                0.7048712965705977,
                -0.28874056417682237,
                -0.7677729079813036,
                -1.031781415963545
            ]
        },
        {
            "positions": [
                -0.16424826348760568,
                -1.5897147611063533,
                0.8142250390993335,
                -0.23624846268093957,
                -0.7343073252719383,
                -1.093189796092251
            ]
        },
        {
            "positions": [
                -0.27880229568562953,
                -1.603529765946751,
                0.9235787816280698,
                -0.18375636118505678,
                -0.700841742562573,
                -1.154598176220957
            ]
        },
        {
            "positions": [
                -0.39335632788365293,
                -1.6173447707871484,
                1.0329325241568061,
                -0.1312642596891742,
                -0.6673761598532078,
                -1.216006556349663
            ]
        },
        {
            "positions": [
                -0.5079103600816763,
                -1.631159775627546,
                1.142286266685542,
                -0.07877215819329164,
                -0.6339105771438425,
                -1.277414936478369
            ]
        },
        {
            "positions": [
                -0.6224643922797002,
                -1.6449747804679435,
                1.2516400092142779,
                -0.02628005669740885,
                -0.6004449944344773,
                -1.3388233166070749
            ]
        },
        {
            "positions": [
                -0.737018424477724,
                -1.658789785308341,
                1.3609937517430142,
                0.026212044798473944,
                -0.5669794117251119,
                -1.4002316967357809
            ]
        },
        {
            "positions": [
                -0.8515724566757474,
                -1.6726047901487386,
                1.47034749427175,
                0.07870414629435657,
                -0.5335138290157466,
                -1.4616400768644868
            ]
        },
        {
            "positions": [
                -0.7819459070091704,
                -1.6349860671303291,
                1.5069555833744908,
                0.013520721614386902,
                -0.485713889812472,
                -1.582006406389738
            ]
        },
        {
            "positions": [
                -0.7123193573425934,
                -1.5973673441119194,
                1.5435636724772315,
                -0.051662703065582766,
                -0.4379139506091974,
                -1.7023727359149892
            ]
        },
        {
            "positions": [
                -0.6426928076760163,
                -1.5597486210935099,
                1.5801717615799724,
                -0.11684612774555245,
                -0.39011401140592283,
                -1.8227390654402404
            ]
        },
        {
            "positions": [
                -0.5730662580094394,
                -1.5221298980751001,
                1.6167798506827131,
                -0.1820295524255221,
                -0.3423140722026482,
                -1.9431053949654917
            ]
        },
        {
            "positions": [
                -0.5034397083428623,
                -1.4845111750566906,
                1.6533879397854538,
                -0.24721297710549178,
                -0.29451413299937357,
                -2.063471724490743
            ]
        },
        {
            "positions": [
                -0.43381315867628534,
                -1.446892452038281,
                1.6899960288881946,
                -0.31239640178546146,
                -0.246714193796099,
                -2.183838054015994
            ]
        },
        {
            "positions": [
                -0.3641866090097083,
                -1.4092737290198714,
                1.7266041179909353,
                -0.37757982646543115,
                -0.19891425459282436,
                -2.3042043835412453
            ]
        },
        {
            "positions": [
                -0.29456005934313134,
                -1.3716550060014618,
                1.7632122070936762,
                -0.44276325114540077,
                -0.15111431538954978,
                -2.4245707130664966
            ]
        },
        {
            "positions": [
                -0.22493350967655423,
                -1.334036282983052,
                1.799820296196417,
                -0.5079466758253706,
                -0.10331437618627509,
                -2.544937042591748
            ]
        },
        {
            "positions": [
                -0.15530696000997724,
                -1.2964175599646426,
                1.8364283852991576,
                -0.5731301005053402,
                -0.055514436983000515,
                -2.665303372116999
            ]
        },
        {
            "positions": [
                -0.08568041034340024,
                -1.2587988369462328,
                1.8730364744018984,
                -0.6383135251853098,
                -0.007714497779725882,
                -2.7856697016422505
            ]
        },
        {
            "positions": [
                -0.01605386067682324,
                -1.2211801139278233,
                1.909644563504639,
                -0.7034969498652794,
                0.04008544142354864,
                -2.9060360311675013
            ]
        },
        {
            "positions": [
                0.05357268898975387,
                -1.1835613909094136,
                1.94625265260738,
                -0.7686803745452493,
                0.08788538062682327,
                -3.026402360692753
            ]
        },
        {
            "positions": [
                0.12319923865633083,
                -1.145942667891004,
                1.9828607417101207,
                -0.8338637992252188,
                0.13568531983009793,
                -3.146768690218004
            ]
        }
    ]
}