{
    "goal": {
        "global_pose": {
            "orientation": {
                "w": -0.4816463035849501,
                "x": 0.5182115481033762,
                "y": 0.4908360881923453,
                "z": -0.5084816262002911
            },
            "position": {
                "x": -0.8240239810943604,
                "y": -0.300875300988555,
                "z": 0.16403168439865112
            }
        },
        "name": "move_to_storage_C"
    },
    "id": "SPARS_move_to_storage_C_92",
    "joint_names": [
        "shoulder_pan_joint",
        "shoulder_lift_joint",
        "elbow_joint",
        "wrist_1_joint",
        "wrist_2_joint",
        "wrist_3_joint"
    ],
    "metrics": {
        "cart_traj_len": 0.5762982846307186,
        "distance_elbow_joint": 0.258903380171394,
        "distance_shoulder_lift_joint": 0.18908981554397253,
        "distance_shoulder_pan_joint": 0.4937317519205888,
        "distance_wrist_1_joint": 0.08299681730425046,
        "distance_wrist_2_joint": 1.073456834874567,
        "distance_wrist_3_joint": 0.07598276729440068,
        "smoothness": 5.075305295617109e-16,
        "time": 5.037840209,
        "traj_len": 1.4745037697846601,
        "weighted_distance": 1.8661673434814985
    },
    "planner": "SPARS",
    "start": {
        "state": {
            "elbow_joint": 2.010868314990456,
            "shoulder_lift_joint": -1.1634956873337592,
            "shoulder_pan_joint": -2.4736205022346125,
            "wrist_1_joint": -0.8367026794202681,
            "wrist_2_joint": 0.6746043897044499,
            "wrist_3_joint": -3.1496632123970403
        }
    },
    "waypoints": [
        {
            "positions": [
                -2.4736205022346125,
                -1.1634956873337592,
                2.010868314990456,
                -0.8367026794202681,
                0.6746043897044499,
                -3.1496632123970403
            ]
        },
        {
            "positions": [
                -2.5559091275547106,
                -1.1319807180764305,
                1.9677177516285569,
                -0.8228698765362263,
                0.8535138621835444,
                -3.1369994178479734
            ]
        },
        {
            "positions": [
                -2.6381977528748086,
                -1.1004657488191016,
                1.9245671882666577,
                -0.8090370736521846,
                1.032423334662639,
                -3.1243356232989066
            ]
        },
        {
            "positions": [
                -2.7204863781949067,
                -1.068950779561773,
                1.8814166249047588,
                -0.7952042707681428,
                1.2113328071417335,
                -3.1116718287498397
            ]
        },
        {
            "positions": [
                -2.802775003515005,
                -1.037435810304444,
                1.8382660615428599,
                -0.7813714678841012,
                1.390242279620828,
                -3.0990080342007733
            ]
        },
        {
            "positions": [
                -2.8850636288351033,
                -1.0059208410471154,
                1.7951154981809607,
                -0.7675386650000594,
                1.5691517520999225,
                -3.0863442396517065
            ]
        },
        {
            "positions": [
                -2.9673522541552013,
                -0.9744058717897867,
                1.7519649348190618,
                -0.7537058621160176,
                1.748061224579017,
                -3.0736804451026396
            ]
        }
    ]
}