{
    "goal": {
        "global_pose": {
            "orientation": {
                "w": 0.7047431468963623,
                "x": -0.7094548344612122,
                "y": 0.0024358443915843964,
                "z": -0.0022348060738295317
            },
            "position": {
                "x": 0.6094750761985779,
                "y": 0.3671506643295288,
                "z": 0.19426114857196808
            }
        },
        "name": "move_to_magneteinheit_A"
    },
    "id": "SPARStwo_move_to_magneteinheit_A_19",
    "joint_names": [
        "shoulder_pan_joint",
        "shoulder_lift_joint",
        "elbow_joint",
        "wrist_1_joint",
        "wrist_2_joint",
        "wrist_3_joint"
    ],
    "metrics": {
        "cart_traj_len": 3.4408436589318274,
        "distance_elbow_joint": 3.887344858785828,
        "distance_shoulder_lift_joint": 0.10903753589662957,
        "distance_shoulder_pan_joint": 2.7159661359719416,
        "distance_wrist_1_joint": 0.7858169834631584,
        "distance_wrist_2_joint": 1.7103674158361724,
        "distance_wrist_3_joint": 2.699024215633199,
        "smoothness": 0.15814106794095376,
        "time": 5.022990365,
        "traj_len": 3.4507328418159133,
        "weighted_distance": 4.449920221324497
    },
    "planner": "SPARStwo",
    "start": {
        "state": {
            "elbow_joint": -1.9196185241190666,
            "shoulder_lift_joint": -1.2443396400964142,
            "shoulder_pan_joint": 2.6996025414629847,
            "wrist_1_joint": -1.5485510000780065,
            "wrist_2_joint": -1.5709468930060704,
            "wrist_3_joint": 0.4420197071253992
        }
    },
    "waypoints": [
        {
            "positions": [
                2.6996025414629847,
                -1.2443396400964142,
                -1.9196185241190666,
                -1.5485510000780065,
                -1.5709468930060704,
                0.4420197071253992
            ]
        },
        {
            "positions": [
                2.5819059009774805,
                -1.2443833299862312,
                -1.8220347983207237,
                -1.5349934535050656,
                -1.5076369815103612,
                0.5297748501842997
            ]
        },
        {
            "positions": [
                2.4642092604919763,
                -1.2444270198760485,
                -1.7244510725223807,
                -1.5214359069321248,
                -1.4443270700146518,
                0.6175299932432003
            ]
        },
        {
            "positions": [
                2.346512620006472,
                -1.2444707097658656,
                -1.6268673467240375,
                -1.5078783603591839,
                -1.3810171585189426,
                0.7052851363021009
            ]
        },
        {
            "positions": [
                2.228815979520968,
                -1.2445143996556827,
                -1.5292836209256946,
                -1.4943208137862432,
                -1.3177072470232332,
                0.7930402793610014
            ]
        },
        {
            "positions": [
                2.1111193390354637,
                -1.2445580895455,
                -1.4316998951273516,
                -1.4807632672133022,
                -1.254397335527524,
                0.8807954224199019
            ]
        },
        {
            "positions": [
                1.9934226985499595,
                -1.244601779435317,
                -1.3341161693290085,
                -1.4672057206403615,
                -1.1910874240318146,
                0.9685505654788025
            ]
        },
        {
            "positions": [
                1.8757260580644555,
                -1.244645469325134,
                -1.2365324435306655,
                -1.4536481740674205,
                -1.1277775125361054,
                1.0563057085377032
            ]
        },
        {
            "positions": [
                1.7580294175789513,
                -1.2446891592149514,
                -1.1389487177323225,
                -1.4400906274944798,
                -1.0644676010403962,
                1.1440608515966035
            ]
        },
        {
            "positions": [
                1.640332777093447,
                -1.2447328491047684,
                -1.0413649919339796,
                -1.4265330809215389,
                -1.0011576895446868,
                1.2318159946555043
            ]
        },
        {
            "positions": [
                1.5226361366079428,
                -1.2447765389945855,
                -0.9437812661356365,
                -1.4129755343485981,
                -0.9378477780489775,
                1.3195711377144046
            ]
        },
        {
            "positions": [
                1.4049394961224386,
                -1.2448202288844028,
                -0.8461975403372934,
                -1.3994179877756572,
                -0.874537866553268,
                1.4073262807733053
            ]
        },
        {
            "positions": [
                1.2872428556369344,
                -1.2448639187742199,
                -0.7486138145389505,
                -1.3858604412027165,
                -0.8112279550575588,
                1.4950814238322057
            ]
        },
        {
            "positions": [
                1.1695462151514302,
                -1.244907608664037,
                -0.6510300887406073,
                -1.3723028946297755,
                -0.7479180435618494,
                1.5828365668911064
            ]
        },
        {
            "positions": [
                1.0518495746659262,
                -1.2449512985538542,
                -0.5534463629422643,
                -1.3587453480568348,
                -0.6846081320661402,
                1.6705917099500072
            ]
        },
        {
            "positions": [
                0.9341529341804218,
                -1.2449949884436713,
                -0.4558626371439214,
                -1.3451878014838938,
                -0.6212982205704309,
                1.7583468530089075
            ]
        },
        {
            "positions": [
                0.8164562936949178,
                -1.2450386783334884,
                -0.35827891134557843,
                -1.331630254910953,
                -0.5579883090747217,
                1.8461019960678082
            ]
        },
        {
            "positions": [
                0.6987596532094136,
                -1.2450823682233056,
                -0.26069518554723525,
                -1.3180727083380122,
                -0.49467839757901233,
                1.933857139126709
            ]
        },
        {
            "positions": [
                0.5810630127239094,
                -1.2451260581131227,
                -0.1631114597488923,
                -1.3045151617650714,
                -0.43136848608330314,
                2.0216122821856093
            ]
        },
        {
            "positions": [
                0.46336637223840516,
                -1.2451697480029398,
                -0.06552773395054934,
                -1.2909576151921305,
                -0.3680585745875937,
                2.10936742524451
            ]
        },
        {
            "positions": [
                0.34566973175290094,
                -1.245213437892757,
                0.03205599184779362,
                -1.2774000686191895,
                -0.30474866309188453,
                2.1971225683034104
            ]
        },
        {
            "positions": [
                0.2279730912673969,
                -1.2452571277825741,
                0.1296397176461368,
                -1.2638425220462488,
                -0.24143875159617512,
                2.284877711362311
            ]
        },
        {
            "positions": [
                0.2105494378266335,
                -1.2346004594991329,
                0.2995723618650096,
                -1.2170368775813054,
                -0.2093134517402654,
                2.366691146080462
            ]
        },
        {
            "positions": [
                0.19312578438587008,
                -1.2239437912156916,
                0.46950500608388235,
                -1.1702312331163618,
                -0.1771881518843557,
                2.448504580798613
            ]
        },
        {
            "positions": [
                0.17570213094510667,
                -1.2132871229322504,
                0.6394376503027551,
                -1.1234255886514184,
                -0.145062852028446,
                2.530318015516764
            ]
        },
        {
            "positions": [
                0.15827847750434326,
                -1.2026304546488091,
                0.8093702945216279,
                -1.0766199441864748,
                -0.11293755217253626,
                2.612131450234915
            ]
        },
        {
            "positions": [
                0.14085482406357985,
                -1.1919737863653679,
                0.9793029387405007,
                -1.0298142997215314,
                -0.08081225231662656,
                2.6939448849530656
            ]
        },
        {
            "positions": [
                0.12343117062281643,
                -1.1813171180819264,
                1.1492355829593734,
                -0.9830086552565878,
                -0.04868695246071686,
                2.775758319671217
            ]
        },
        {
            "positions": [
                0.10600751718205302,
                -1.1706604497984852,
                1.3191682271782461,
                -0.9362030107916444,
                -0.01656165260480716,
                2.857571754389368
            ]
        },
        {
            "positions": [
                0.0885838637412896,
                -1.160003781515044,
                1.489100871397119,
                -0.8893973663267007,
                0.015563647251102597,
                2.9393851891075187
            ]
        },
        {
            "positions": [
                0.07116021030052619,
                -1.1493471132316027,
                1.6590335156159919,
                -0.8425917218617573,
                0.04768894710701227,
                3.0211986238256694
            ]
        },
        {
            "positions": [
                0.05373655685976278,
                -1.1386904449481614,
                1.8289661598348645,
                -0.7957860773968138,
                0.07981424696292198,
                3.1030120585438206
            ]
        },
        {
            "positions": [
                0.12383670822848396,
                -1.1371370795721045,
                1.9677263346667617,
                -0.7627340166148481,
                0.13942052283010245,
                3.064980194329043
            ]
        }
    ]
}