{
    "goal": {
        "global_pose": {
            "orientation": {
                "w": 0.5084816217422485,
                "x": -0.49083608388900757,
                "y": 0.5182115435600281,
                "z": -0.4816462993621826
            },
            "position": {
                "x": 0.5540239810943604,
                "y": 0.030875300988554955,
                "z": 0.16403168439865112
            }
        },
        "name": "move_to_storage_A"
    },
    "id": "SPARS_move_to_storage_A_60",
    "joint_names": [
        "shoulder_pan_joint",
        "shoulder_lift_joint",
        "elbow_joint",
        "wrist_1_joint",
        "wrist_2_joint",
        "wrist_3_joint"
    ],
    "metrics": {
        "cart_traj_len": 0.35295961331832804,
        "distance_elbow_joint": 0.4511213536559062,
        "distance_shoulder_lift_joint": 0.23472024758271548,
        "distance_shoulder_pan_joint": 0.46211858448848064,
        "distance_wrist_1_joint": 0.24539997450056406,
        "distance_wrist_2_joint": 1.0965723188261647,
        "distance_wrist_3_joint": 0.10663066264335663,
        "smoothness": 1.7763568394002505e-15,
        "time": 5.007009920000001,
        "traj_len": 1.6113854727212813,
        "weighted_distance": 2.037595828497553
    },
    "planner": "SPARS",
    "start": {
        "state": {
            "elbow_joint": 1.971548259319323,
            "shoulder_lift_joint": -1.1394851275133948,
            "shoulder_pan_joint": 0.1228115487234821,
            "wrist_1_joint": -0.7804723859257726,
            "wrist_2_joint": 0.12958671773740124,
            "wrist_3_joint": -3.192489227718131
        }
    },
    "waypoints": [
        {
            "positions": [
                0.1228115487234821,
                -1.1394851275133948,
                1.971548259319323,
                -0.7804723859257726,
                0.12958671773740124,
                -3.192489227718131
            ]
        },
        {
            "positions": [
                0.05679460808227059,
                -1.1730165914537827,
                2.0359941669844526,
                -0.8155295251401389,
                0.28623990614113903,
                -3.177256275911937
            ]
        },
        {
            "positions": [
                -0.009222332558940921,
                -1.2065480553941708,
                2.100440074649582,
                -0.8505866643545053,
                0.4428930945448768,
                -3.1620233241057436
            ]
        },
        {
            "positions": [
                -0.07523927320015245,
                -1.2400795193345586,
                2.1648859823147113,
                -0.8856438035688715,
                0.5995462829486147,
                -3.1467903722995496
            ]
        },
        {
            "positions": [
                -0.14125621384136394,
                -1.2736109832749465,
                2.2293318899798407,
                -0.9207009427832378,
                0.7561994713523524,
                -3.131557420493356
            ]
        },
        {
            "positions": [
                -0.2072731544825755,
                -1.3071424472153343,
                2.2937777976449705,
                -0.9557580819976041,
                0.9128526597560903,
                -3.116324468687162
            ]
        },
        {
            "positions": [
                -0.273290095123787,
                -1.3406739111557224,
                2.3582237053101,
                -0.9908152212119703,
                1.069505848159828,
                -3.1010915168809685
            ]
        },
        {
            "positions": [
                -0.33930703576499854,
                -1.3742053750961103,
                2.422669612975229,
                -1.0258723604263367,
                1.226159036563566,
                -3.0858585650747745
            ]
        }
    ]
}{
    "goal": {
        "global_pose": {
            "orientation": {
                "w": 0.5084816217422485,
                "x": -0.49083608388900757,
                "y": 0.5182115435600281,
                "z": -0.4816462993621826
            },
            "position": {
                "x": 0.5540239810943604,
                "y": 0.030875300988554955,
                "z": 0.16403168439865112
            }
        },
        "name": "move_to_storage_A"
    },
    "id": "SPARS_move_to_storage_A_60",
    "joint_names": [
        "shoulder_pan_joint",
        "shoulder_lift_joint",
        "elbow_joint",
        "wrist_1_joint",
        "wrist_2_joint",
        "wrist_3_joint"
    ],
    "metrics": {
        "cart_traj_len": 0.35334382055373337,
        "distance_elbow_joint": 0.44843204360925704,
        "distance_shoulder_lift_joint": 0.23588565125015415,
        "distance_shoulder_pan_joint": 0.45948614752976474,
        "distance_wrist_1_joint": 0.23792128214391584,
        "distance_wrist_2_joint": 1.1105629513426942,
        "distance_wrist_3_joint": 0.0994615188267951,
        "smoothness": 8.881784197001252e-16,
        "time": 5.017026324000001,
        "traj_len": 1.609891174801136,
        "weighted_distance": 2.034491795471975
    },
    "planner": "SPARS",
    "start": {
        "state": {
            "elbow_joint": 1.97154746011099,
            "shoulder_lift_joint": -1.13948474672311,
            "shoulder_pan_joint": 0.12281154466712228,
            "wrist_1_joint": -0.7804688027058302,
            "wrist_2_joint": 0.12958655903071145,
            "wrist_3_joint": 3.0906928834467795
        }
    },
    "waypoints": [
        {
            "positions": [
                0.12281154466712228,
                -1.13948474672311,
                1.97154746011099,
                -0.7804688027058302,
                0.12958655903071145,
                3.0906928834467795
            ]
        },
        {
            "positions": [
                0.05717066644858447,
                -1.1731826969017034,
                2.035609180626598,
                -0.8144575572978182,
                0.2882384092225249,
                3.1049016718506075
            ]
        },
        {
            "positions": [
                -0.008470211769953342,
                -1.2068806470802969,
                2.0996709011422063,
                -0.8484463118898061,
                0.44689025941433835,
                3.119110460254435
            ]
        },
        {
            "positions": [
                -0.07411108998849116,
                -1.2405785972588903,
                2.1637326216578145,
                -0.8824350664817942,
                0.6055421096061518,
                3.133319248658263
            ]
        },
        {
            "positions": [
                -0.13975196820702895,
                -1.2742765474374838,
                2.2277943421734223,
                -0.9164238210737821,
                0.7641939597979653,
                3.147528037062091
            ]
        },
        {
            "positions": [
                -0.20539284642556682,
                -1.3079744976160772,
                2.2918560626890305,
                -0.9504125756657701,
                0.9228458099897788,
                3.161736825465919
            ]
        },
        {
            "positions": [
                -0.2710337246441046,
                -1.3416724477946707,
                2.3559177832046387,
                -0.984401330257758,
                1.0814976601815922,
                3.1759456138697466
            ]
        },
        {
            "positions": [
                -0.33667460286264245,
                -1.375370397973264,
                2.419979503720247,
                -1.018390084849746,
                1.2401495103734057,
                3.1901544022735746
            ]
        }
    ]
}{
    "goal": {
        "global_pose": {
            "orientation": {
                "w": 0.5084816217422485,
                "x": -0.49083608388900757,
                "y": 0.5182115435600281,
                "z": -0.4816462993621826
            },
            "position": {
                "x": 0.5540239810943604,
                "y": 0.030875300988554955,
                "z": 0.16403168439865112
            }
        },
        "name": "move_to_storage_A"
    },
    "id": "SPARS_move_to_storage_A_60",
    "joint_names": [
        "shoulder_pan_joint",
        "shoulder_lift_joint",
        "elbow_joint",
        "wrist_1_joint",
        "wrist_2_joint",
        "wrist_3_joint"
    ],
    "metrics": {
        "cart_traj_len": 0.3533791553941918,
        "distance_elbow_joint": 0.44878105632805143,
        "distance_shoulder_lift_joint": 0.23386389108425854,
        "distance_shoulder_pan_joint": 0.46324095991720166,
        "distance_wrist_1_joint": 0.23665988824718798,
        "distance_wrist_2_joint": 1.0942341986211217,
        "distance_wrist_3_joint": 0.09212476592934493,
        "smoothness": 2.2204460668324854e-16,
        "time": 5.00882908,
        "traj_len": 1.602780321855483,
        "weighted_distance": 2.0209028623004532
    },
    "planner": "SPARS",
    "start": {
        "state": {
            "elbow_joint": 1.9715472970024885,
            "shoulder_lift_joint": -1.1394870060712896,
            "shoulder_pan_joint": 0.12281152778156021,
            "wrist_1_joint": -0.780463741449964,
            "wrist_2_joint": 0.12958659822042276,
            "wrist_3_joint": 3.090690232415272
        }
    },
    "waypoints": [
        {
            "positions": [
                0.12281152778156021,
                -1.1394870060712896,
                1.9715472970024885,
                -0.780463741449964,
                0.12958659822042276,
                3.090690232415272
            ]
        },
        {
            "positions": [
                0.05663424779338856,
                -1.1728961333690409,
                2.0356588764779247,
                -0.814272296913848,
                0.28590576945201157,
                3.1038509132623213
            ]
        },
        {
            "positions": [
                -0.009543032194783085,
                -1.2063052606667921,
                2.0997704559533603,
                -0.848080852377732,
                0.4422249406836004,
                3.1170115941093703
            ]
        },
        {
            "positions": [
                -0.07572031218295475,
                -1.2397143879645434,
                2.1638820354287964,
                -0.881889407841616,
                0.5985441119151892,
                3.13017227495642
            ]
        },
        {
            "positions": [
                -0.14189759217112638,
                -1.2731235152622944,
                2.227993614904232,
                -0.9156979633055,
                0.754863283146778,
                3.143332955803469
            ]
        },
        {
            "positions": [
                -0.20807487215929807,
                -1.3065326425600456,
                2.292105194379668,
                -0.949506518769384,
                0.9111824543783669,
                3.1564936366505183
            ]
        },
        {
            "positions": [
                -0.2742521521474697,
                -1.339941769857797,
                2.356216773855104,
                -0.9833150742332679,
                1.0675016256099557,
                3.1696543174975673
            ]
        },
        {
            "positions": [
                -0.3404294321356414,
                -1.3733508971555481,
                2.42032835333054,
                -1.017123629697152,
                1.2238207968415444,
                3.182814998344617
            ]
        }
    ]
}