{
    "goal": {
        "global_pose": {
            "orientation": {
                "w": 0.5084816217422485,
                "x": -0.49083608388900757,
                "y": 0.5182115435600281,
                "z": -0.4816462993621826
            },
            "position": {
                "x": 0.5540239810943604,
                "y": 0.030875300988554955,
                "z": 0.16403168439865112
            }
        },
        "name": "move_to_storage_A"
    },
    "id": "SPARStwo_move_to_storage_A_6",
    "joint_names": [
        "shoulder_pan_joint",
        "shoulder_lift_joint",
        "elbow_joint",
        "wrist_1_joint",
        "wrist_2_joint",
        "wrist_3_joint"
    ],
    "metrics": {
        "cart_traj_len": 0.35348592008878116,
        "distance_elbow_joint": 0.4510437006755508,
        "distance_shoulder_lift_joint": 0.23206898208478877,
        "distance_shoulder_pan_joint": 0.4582011784733727,
        "distance_wrist_1_joint": 0.25565440283076835,
        "distance_wrist_2_joint": 1.1154634823542535,
        "distance_wrist_3_joint": 0.10288541712437116,
        "smoothness": 1.1102230298998083e-15,
        "time": 5.004323016,
        "traj_len": 1.6171942256708394,
        "weighted_distance": 2.0474877003237086
    },
    "planner": "SPARStwo",
    "start": {
        "state": {
            "elbow_joint": 1.9715481507254546,
            "shoulder_lift_joint": -1.1394850672790213,
            "shoulder_pan_joint": 0.12281154597544902,
            "wrist_1_joint": -0.7804720171073349,
            "wrist_2_joint": 0.12958658322886563,
            "wrist_3_joint": -3.1924895760937617
        }
    },
    "waypoints": [
        {
            "positions": [
                0.12281154597544902,
                -1.1394850672790213,
                1.9715481507254546,
                -0.7804720171073349,
                0.12958658322886563,
                -3.1924895760937617
            ]
        },
        {
            "positions": [
                0.057354234764967205,
                -1.1726377790054197,
                2.035982965107676,
                -0.8169940746545875,
                0.2889385092794733,
                -3.177791659361709
            ]
        },
        {
            "positions": [
                -0.008103076445514612,
                -1.2057904907318182,
                2.1004177794898977,
                -0.8535161322018402,
                0.4482904353300809,
                -3.1630937426296555
            ]
        },
        {
            "positions": [
                -0.07356038765599643,
                -1.2389432024582165,
                2.1648525938721193,
                -0.8900381897490928,
                0.6076423613806885,
                -3.1483958258976026
            ]
        },
        {
            "positions": [
                -0.13901769886647825,
                -1.2720959141846149,
                2.229287408254341,
                -0.9265602472963455,
                0.7669942874312962,
                -3.1336979091655497
            ]
        },
        {
            "positions": [
                -0.20447501007696006,
                -1.3052486259110134,
                2.2937222226365623,
                -0.963082304843598,
                0.9263462134819038,
                -3.118999992433497
            ]
        },
        {
            "positions": [
                -0.2699323212874419,
                -1.3384013376374118,
                2.358157037018784,
                -0.9996043623908506,
                1.0856981395325116,
                -3.1043020757014435
            ]
        },
        {
            "positions": [
                -0.3353896324979237,
                -1.37155404936381,
                2.4225918514010054,
                -1.0361264199381033,
                1.2450500655831191,
                -3.0896041589693906
            ]
        }
    ]
}