{
    "goal": {
        "global_pose": {
            "orientation": {
                "w": 0.7031023502349854,
                "x": -0.7110244035720825,
                "y": 0.007748599164187908,
                "z": 0.005598929710686207
            },
            "position": {
                "x": 0.11585023208521307,
                "y": 0.44412534475326537,
                "z": 0.3711530566215515
            }
        },
        "name": "move_to_auspresseinheit_A"
    },
    "id": "SPARS_move_to_auspresseinheit_A_147",
    "joint_names": [
        "shoulder_pan_joint",
        "shoulder_lift_joint",
        "elbow_joint",
        "wrist_1_joint",
        "wrist_2_joint",
        "wrist_3_joint"
    ],
    "metrics": {
        "cart_traj_len": 0.9119035055078186,
        "distance_elbow_joint": 0.11593155326398641,
        "distance_shoulder_lift_joint": 1.3513983242556864,
        "distance_shoulder_pan_joint": 1.0417411753756252,
        "distance_wrist_1_joint": 1.340572558949555,
        "distance_wrist_2_joint": 0.536428216701724,
        "distance_wrist_3_joint": 0.930745756739412,
        "smoothness": 1.560350181950364,
        "time": 5.046733737,
        "traj_len": 2.3058225398512326,
        "weighted_distance": 3.0092041928749356
    },
    "planner": "SPARS",
    "start": {
        "state": {
            "elbow_joint": 2.4225746658250005,
            "shoulder_lift_joint": -1.3736534386056498,
            "shoulder_pan_joint": -0.3378633547517467,
            "wrist_1_joint": -1.0288598680537169,
            "wrist_2_joint": 1.233022673432363,
            "wrist_3_joint": -3.0940220416140027
        }
    },
    "waypoints": [
        {
            "positions": [
                -0.3378633547517467,
                -1.3736534386056498,
                2.4225746658250005,
                -1.0288598680537169,
                1.233022673432363,
                -3.0940220416140027
            ]
        },
        {
            "positions": [
                -0.2473438271532331,
                -1.4680424694357808,
                2.4153232953373993,
                -0.9335256479558235,
                1.179685134854999,
                -3.0493506164764224
            ]
        },
        {
            "positions": [
                -0.1568242995547195,
                -1.5624315002659117,
                2.4080719248497986,
                -0.8381914278579301,
                1.126347596277635,
                -3.004679191338842
            ]
        },
        {
            "positions": [
                -0.06630477195620593,
                -1.6568205310960427,
                2.4008205543621974,
                -0.7428572077600366,
                1.073010057700271,
                -2.9600077662012616
            ]
        },
        {
            "positions": [
                0.02421475564230774,
                -1.7512095619261736,
                2.3935691838745967,
                -0.6475229876621432,
                1.019672519122907,
                -2.9153363410636812
            ]
        },
        {
            "positions": [
                0.1147342832408213,
                -1.8455985927563043,
                2.3863178133869956,
                -0.5521887675642498,
                0.966334980545543,
                -2.870664915926101
            ]
        },
        {
            "positions": [
                0.20525381083933486,
                -1.9399876235864353,
                2.3790664428993944,
                -0.45685454746635645,
                0.912997441968179,
                -2.8259934907885205
            ]
        },
        {
            "positions": [
                0.2957733384378484,
                -2.0343766544165662,
                2.3718150724117937,
                -0.36152032736846307,
                0.859659903390815,
                -2.78132206565094
            ]
        },
        {
            "positions": [
                0.3862928660363622,
                -2.128765685246697,
                2.3645637019241925,
                -0.26618610727056957,
                0.806322364813451,
                -2.7366506405133597
            ]
        },
        {
            "positions": [
                0.47681239363487576,
                -2.223154716076828,
                2.357312331436592,
                -0.1708518871726762,
                0.752984826236087,
                -2.6919792153757793
            ]
        },
        {
            "positions": [
                0.5673319212333893,
                -2.317543746906959,
                2.3500609609489906,
                -0.07551766707478275,
                0.699647287658723,
                -2.647307790238199
            ]
        },
        {
            "positions": [
                0.6014683960810115,
                -2.2156667429183647,
                2.360915423045985,
                -0.17232525656743808,
                0.700410495390744,
                -2.768315666579101
            ]
        },
        {
            "positions": [
                0.6356048709286339,
                -2.1137897389297704,
                2.371769885142979,
                -0.2691328460600934,
                0.701173703122765,
                -2.8893235429200033
            ]
        },
        {
            "positions": [
                0.6697413457762562,
                -2.011912734941176,
                2.382624347239973,
                -0.36594043555274874,
                0.7019369108547859,
                -3.010331419260905
            ]
        },
        {
            "positions": [
                0.7038778206238785,
                -1.910035730952582,
                2.393478809336967,
                -0.4627480250454041,
                0.7027001185868069,
                -3.131339295601807
            ]
        }
    ]
}