{
    "goal": {
        "global_pose": {
            "orientation": {
                "w": 0.005598929693374612,
                "x": 0.007748599140229565,
                "y": 0.7110244013736278,
                "z": -0.7031023480610252
            },
            "position": {
                "x": 0.1141497679147869,
                "y": -0.7141253447532654,
                "z": 0.3711530566215515
            }
        },
        "name": "move_to_auspresseinheit_B"
    },
    "id": "SPARS_move_to_auspresseinheit_B_84",
    "joint_names": [
        "shoulder_pan_joint",
        "shoulder_lift_joint",
        "elbow_joint",
        "wrist_1_joint",
        "wrist_2_joint",
        "wrist_3_joint"
    ],
    "metrics": {
        "cart_traj_len": 0.5648365357503492,
        "distance_elbow_joint": 0.05894193755183452,
        "distance_shoulder_lift_joint": 0.29575989113791246,
        "distance_shoulder_pan_joint": 0.5788108712530387,
        "distance_wrist_1_joint": 0.3148697287759017,
        "distance_wrist_2_joint": 0.9869394213409546,
        "distance_wrist_3_joint": 0.0006328304463041334,
        "smoothness": 0.0,
        "time": 5.023074696999999,
        "traj_len": 1.4953108976082352,
        "weighted_distance": 1.8812308448235189
    },
    "planner": "SPARS",
    "start": {
        "state": {
            "elbow_joint": 2.0193083361928714,
            "shoulder_lift_joint": -1.1220246554650708,
            "shoulder_pan_joint": -1.0952077554168747,
            "wrist_1_joint": -0.8559753972642168,
            "wrist_2_joint": 0.4759566250798843,
            "wrist_3_joint": -3.1240929996934557
        }
    },
    "waypoints": [
        {
            "positions": [
                -1.0952077554168747,
                -1.1220246554650708,
                2.0193083361928714,
                -0.8559753972642168,
                0.4759566250798843,
                -3.1240929996934557
            ]
        },
        {
            "positions": [
                -1.1916762339590479,
                -1.171317970654723,
                2.0094846799342325,
                -0.8034971091348998,
                0.64044652863671,
                -3.123987527952405
            ]
        },
        {
            "positions": [
                -1.2881447125012209,
                -1.220611285844375,
                1.9996610236755932,
                -0.7510188210055829,
                0.8049364321935357,
                -3.1238820562113543
            ]
        },
        {
            "positions": [
                -1.3846131910433939,
                -1.269904601034027,
                1.9898373674169543,
                -0.6985405328762659,
                0.9694263357503616,
                -3.1237765844703036
            ]
        },
        {
            "positions": [
                -1.481081669585567,
                -1.319197916223679,
                1.9800137111583151,
                -0.6460622447469491,
                1.1339162393071873,
                -3.123671112729253
            ]
        },
        {
            "positions": [
                -1.5775501481277403,
                -1.3684912314133313,
                1.970190054899676,
                -0.593583956617632,
                1.2984061428640132,
                -3.123565640988202
            ]
        },
        {
            "positions": [
                -1.6740186266699133,
                -1.4177845466029833,
                1.960366398641037,
                -0.5411056684883151,
                1.462896046420839,
                -3.1234601692471515
            ]
        }
    ]
}