{
    "goal": {
        "global_pose": {
            "orientation": {
                "w": 0.5084816262002911,
                "x": -0.4908360881923452,
                "y": 0.5182115481033761,
                "z": -0.48164630358495003
            },
            "position": {
                "x": 0.5540239810943604,
                "y": -0.46912469901144505,
                "z": 0.16403168439865112
            }
        },
        "name": "move_to_storage_B"
    },
    "id": "SPARStwo_move_to_storage_B_50",
    "joint_names": [
        "shoulder_pan_joint",
        "shoulder_lift_joint",
        "elbow_joint",
        "wrist_1_joint",
        "wrist_2_joint",
        "wrist_3_joint"
    ],
    "metrics": {
        "cart_traj_len": 1.2510613751337636,
        "distance_elbow_joint": 1.2628181182219906,
        "distance_shoulder_lift_joint": 1.8393558622836506,
        "distance_shoulder_pan_joint": 0.1797044228772231,
        "distance_wrist_1_joint": 3.0270422299323836,
        "distance_wrist_2_joint": 2.7151429571641246,
        "distance_wrist_3_joint": 3.101749557504044,
        "smoothness": 0.22805800139949214,
        "time": 5.064680003,
        "traj_len": 3.4822138285842557,
        "weighted_distance": 4.906271236905682
    },
    "planner": "SPARStwo",
    "start": {
        "state": {
            "elbow_joint": 1.664933442143537,
            "shoulder_lift_joint": -0.6616394447335833,
            "shoulder_pan_joint": -0.9139842036674819,
            "wrist_1_joint": 2.1467570250598067,
            "wrist_2_joint": -2.234195602830096,
            "wrist_3_joint": 0.005471150212293033
        }
    },
    "waypoints": [
        {
            "positions": [
                -0.9139842036674819,
                -0.6616394447335833,
                1.664933442143537,
                2.1467570250598067,
                -2.234195602830096,
                0.005471150212293033
            ]
        },
        {
            "positions": [
                -0.917006842978439,
                -0.7116667620957787,
                1.7002158066328013,
                2.0205257626663036,
                -2.1543686866319227,
                -0.08112393162060236
            ]
        },
        {
            "positions": [
                -0.9200294822893962,
                -0.7616940794579742,
                1.7354981711220654,
                1.8942945002728,
                -2.0745417704337497,
                -0.16771901345349777
            ]
        },
        {
            "positions": [
                -0.9230521216003533,
                -0.8117213968201696,
                1.7707805356113298,
                1.7680632378792966,
                -1.9947148542355762,
                -0.25431409528639315
            ]
        },
        {
            "positions": [
                -0.9260747609113105,
                -0.861748714182365,
                1.806062900100594,
                1.6418319754857933,
                -1.9148879380374026,
                -0.34090917711928853
            ]
        },
        {
            "positions": [
                -0.9290974002222676,
                -0.9117760315445604,
                1.8413452645898583,
                1.51560071309229,
                -1.8350610218392294,
                -0.42750425895218397
            ]
        },
        {
            "positions": [
                -0.9321200395332249,
                -0.9618033489067559,
                1.8766276290791226,
                1.3893694506987866,
                -1.7552341056410559,
                -0.5140993407850794
            ]
        },
        {
            "positions": [
                -0.935142678844182,
                -1.0118306662689514,
                1.9119099935683868,
                1.263138188305283,
                -1.6754071894428826,
                -0.6006944226179748
            ]
        },
        {
            "positions": [
                -0.9381653181551391,
                -1.0618579836311468,
                1.9471923580576511,
                1.1369069259117799,
                -1.595580273244709,
                -0.6872895044508701
            ]
        },
        {
            "positions": [
                -0.9411879574660963,
                -1.1118853009933423,
                1.9824747225469155,
                1.0106756635182763,
                -1.5157533570465356,
                -0.7738845862837657
            ]
        },
        {
            "positions": [
                -0.9442105967770534,
                -1.1619126183555377,
                2.0177570870361796,
                0.8844444011247732,
                -1.4359264408483625,
                -0.860479668116661
            ]
        },
        {
            "positions": [
                -0.9472332360880106,
                -1.2119399357177332,
                2.0530394515254438,
                0.7582131387312696,
                -1.356099524650189,
                -0.9470747499495564
            ]
        },
        {
            "positions": [
                -0.9502558753989677,
                -1.2619672530799286,
                2.0883218160147083,
                0.6319818763377665,
                -1.2762726084520155,
                -1.0336698317824518
            ]
        },
        {
            "positions": [
                -0.9532785147099249,
                -1.311994570442124,
                2.1236041805039725,
                0.5057506139442631,
                -1.1964456922538422,
                -1.120264913615347
            ]
        },
        {
            "positions": [
                -0.956301154020882,
                -1.3620218878043195,
                2.1588865449932366,
                0.37951935155075955,
                -1.1166187760556687,
                -1.2068599954482426
            ]
        },
        {
            "positions": [
                -0.9593237933318391,
                -1.412049205166515,
                2.194168909482501,
                0.2532880891572562,
                -1.0367918598574954,
                -1.293455077281138
            ]
        },
        {
            "positions": [
                -0.9623464326427963,
                -1.4620765225287102,
                2.2294512739717653,
                0.12705682676375307,
                -0.9569649436593222,
                -1.3800501591140333
            ]
        },
        {
            "positions": [
                -0.9653690719537534,
                -1.512103839890906,
                2.2647336384610295,
                0.0008255643702494986,
                -0.8771380274611487,
                -1.4666452409469286
            ]
        },
        {
            "positions": [
                -0.9683917112647107,
                -1.5621311572531014,
                2.3000160029502936,
                -0.12540569802325408,
                -0.7973111112629752,
                -1.5532403227798244
            ]
        },
        {
            "positions": [
                -0.9714143505756678,
                -1.6121584746152968,
                2.335298367439558,
                -0.2516369604167572,
                -0.7174841950648019,
                -1.6398354046127197
            ]
        },
        {
            "positions": [
                -0.974436989886625,
                -1.662185791977492,
                2.3705807319288223,
                -0.37786822281026033,
                -0.6376572788666286,
                -1.726430486445615
            ]
        },
        {
            "positions": [
                -0.9774596291975821,
                -1.7122131093396877,
                2.4058630964180865,
                -0.5040994852037639,
                -0.5578303626684551,
                -1.8130255682785104
            ]
        },
        {
            "positions": [
                -0.9804822685085393,
                -1.762240426701883,
                2.441145460907351,
                -0.6303307475972675,
                -0.4780034464702816,
                -1.899620650111406
            ]
        },
        {
            "positions": [
                -0.9835049078194964,
                -1.8122677440640786,
                2.476427825396615,
                -0.7565620099907704,
                -0.3981765302721083,
                -1.9862157319443012
            ]
        },
        {
            "positions": [
                -0.9957475432334084,
                -1.7357424592915058,
                2.4262807437334026,
                -0.7703090316443043,
                -0.3004960986492041,
                -2.109556029205129
            ]
        },
        {
            "positions": [
                -1.0079901786473204,
                -1.659217174518933,
                2.37613366207019,
                -0.7840560532978383,
                -0.20281566702629997,
                -2.2328963264659567
            ]
        },
        {
            "positions": [
                -1.0202328140612327,
                -1.5826918897463602,
                2.325986580406978,
                -0.7978030749513723,
                -0.10513523540339581,
                -2.3562366237267844
            ]
        },
        {
            "positions": [
                -1.0324754494751447,
                -1.5061666049737874,
                2.2758394987437653,
                -0.8115500966049063,
                -0.007454803780491626,
                -2.479576920987612
            ]
        },
        {
            "positions": [
                -1.0447180848890567,
                -1.4296413202012146,
                2.2256924170805528,
                -0.8252971182584402,
                0.09022562784241256,
                -2.6029172182484404
            ]
        },
        {
            "positions": [
                -1.0569607203029687,
                -1.3531160354286418,
                2.17554533541734,
                -0.8390441399119742,
                0.1879060594653167,
                -2.7262575155092676
            ]
        },
        {
            "positions": [
                -1.069203355716881,
                -1.276590750656069,
                2.1253982537541276,
                -0.8527911615655082,
                0.2855864910882209,
                -2.849597812770096
            ]
        },
        {
            "positions": [
                -1.081445991130793,
                -1.2000654658834962,
                2.0752511720909155,
                -0.8665381832190422,
                0.38326692271112506,
                -2.9729381100309236
            ]
        },
        {
            "positions": [
                -1.093688626544705,
                -1.1235401811109234,
                2.025104090427703,
                -0.8802852048725761,
                0.4809473543340292,
                -3.0962784072917513
            ]
        }
    ]
}