{
    "goal": {
        "global_pose": {
            "orientation": {
                "w": -0.00223480608172531,
                "x": 0.0024358444001904467,
                "y": 0.7094548369677653,
                "z": -0.704743149386269
            },
            "position": {
                "x": 0.6205249238014221,
                "y": -0.6371506643295288,
                "z": 0.19426114857196808
            }
        },
        "name": "move_to_magneteinheit_B"
    },
    "id": "SPARStwo_move_to_magneteinheit_B_75",
    "joint_names": [
        "shoulder_pan_joint",
        "shoulder_lift_joint",
        "elbow_joint",
        "wrist_1_joint",
        "wrist_2_joint",
        "wrist_3_joint"
    ],
    "metrics": {
        "cart_traj_len": 1.4288508401070419,
        "distance_elbow_joint": 1.077874575701477,
        "distance_shoulder_lift_joint": 0.7550003425192616,
        "distance_shoulder_pan_joint": 1.6215821973842588,
        "distance_wrist_1_joint": 0.45369862684631324,
        "distance_wrist_2_joint": 2.1274755355398085,
        "distance_wrist_3_joint": 1.1735774057284214,
        "smoothness": 0.5125807009663593,
        "time": 5.01642671,
        "traj_len": 2.6849969615847873,
        "weighted_distance": 3.483896906850503
    },
    "planner": "SPARStwo",
    "start": {
        "state": {
            "elbow_joint": 2.6216224122426386,
            "shoulder_lift_joint": -1.4174107377796124,
            "shoulder_pan_joint": 0.7066234856936794,
            "wrist_1_joint": 1.9546482284002225,
            "wrist_2_joint": -0.7096286983471962,
            "wrist_3_joint": 0.005740856962016249
        }
    },
    "waypoints": [
        {
            "positions": [
                0.7066234856936794,
                -1.4174107377796124,
                2.6216224122426386,
                1.9546482284002225,
                -0.7096286983471962,
                0.005740856962016249
            ]
        },
        {
            "positions": [
                0.6046687846535097,
                -1.396456819911693,
                2.631730157406405,
                2.00851303485866,
                -0.6586592578952453,
                -0.09262360629126055
            ]
        },
        {
            "positions": [
                0.5027140836133399,
                -1.3755029020437735,
                2.6418379025701713,
                2.062377841317098,
                -0.6076898174432942,
                -0.19098806954453734
            ]
        },
        {
            "positions": [
                0.4007593825731702,
                -1.354548984175854,
                2.6519456477339376,
                2.116242647775535,
                -0.5567203769913431,
                -0.28935253279781414
            ]
        },
        {
            "positions": [
                0.29880468153300044,
                -1.3335950663079346,
                2.662053392897704,
                2.170107454233973,
                -0.5057509365393922,
                -0.38771699605109095
            ]
        },
        {
            "positions": [
                0.19684998049283065,
                -1.3126411484400151,
                2.6721611380614703,
                2.2239722606924106,
                -0.4547814960874412,
                -0.48608145930436775
            ]
        },
        {
            "positions": [
                0.09489527945266094,
                -1.2916872305720957,
                2.6822688832252366,
                2.2778370671508483,
                -0.40381205563549016,
                -0.5844459225576446
            ]
        },
        {
            "positions": [
                0.022762851513858096,
                -1.2467388851926853,
                2.609609732888174,
                2.268514939429728,
                -0.5339305479803547,
                -0.5427751635427331
            ]
        },
        {
            "positions": [
                -0.049369576424944744,
                -1.2017905398132749,
                2.536950582551111,
                2.259192811708607,
                -0.664049040325219,
                -0.5011044045278217
            ]
        },
        {
            "positions": [
                -0.12150200436374758,
                -1.1568421944338647,
                2.4642914322140483,
                2.2498706839874867,
                -0.7941675326700834,
                -0.4594336455129102
            ]
        },
        {
            "positions": [
                -0.19363443230255042,
                -1.1118938490544543,
                2.3916322818769853,
                2.2405485562663663,
                -0.9242860250149479,
                -0.41776288649799875
            ]
        },
        {
            "positions": [
                -0.2657668602413533,
                -1.066945503675044,
                2.3189731315399227,
                2.231226428545246,
                -1.0544045173598124,
                -0.37609212748308724
            ]
        },
        {
            "positions": [
                -0.33789928818015613,
                -1.0219971582956335,
                2.24631398120286,
                2.221904300824125,
                -1.1845230097046768,
                -0.3344213684681758
            ]
        },
        {
            "positions": [
                -0.41003171611895894,
                -0.9770488129162231,
                2.173654830865797,
                2.2125821731030046,
                -1.3146415020495414,
                -0.2927506094532643
            ]
        },
        {
            "positions": [
                -0.48216414405776176,
                -0.9321004675368129,
                2.1009956805287344,
                2.2032600453818842,
                -1.4447599943944058,
                -0.25107985043835285
            ]
        },
        {
            "positions": [
                -0.5542965719965647,
                -0.8871521221574025,
                2.0283365301916714,
                2.1939379176607634,
                -1.5748784867392702,
                -0.20940909142344133
            ]
        },
        {
            "positions": [
                -0.6264289999353675,
                -0.8422037767779922,
                1.9556773798546088,
                2.184615789939643,
                -1.7049969790841346,
                -0.16773833240852987
            ]
        },
        {
            "positions": [
                -0.6985614278741703,
                -0.7972554313985818,
                1.8830182295175462,
                2.1752936622185226,
                -1.835115471428999,
                -0.12606757339361846
            ]
        },
        {
            "positions": [
                -0.7706938558129731,
                -0.7523070860191715,
                1.8103590791804833,
                2.165971534497402,
                -1.9652339637738634,
                -0.08439681437870694
            ]
        },
        {
            "positions": [
                -0.842826283751776,
                -0.707358740639761,
                1.7376999288434205,
                2.1566494067762814,
                -2.0953524561187282,
                -0.04272605536379548
            ]
        },
        {
            "positions": [
                -0.9149587116905789,
                -0.6624103952603507,
                1.6650407785063577,
                2.147327279055161,
                -2.2254709484635926,
                -0.0010552963488839936
            ]
        }
    ]
}