{
    "goal": {
        "global_pose": {
            "orientation": {
                "w": 0.5084816217422485,
                "x": -0.49083608388900757,
                "y": 0.5182115435600281,
                "z": -0.4816462993621826
            },
            "position": {
                "x": 0.5540239810943604,
                "y": 0.030875300988554955,
                "z": 0.16403168439865112
            }
        },
        "name": "move_to_storage_A"
    },
    "id": "SPARS_move_to_storage_A_4",
    "joint_names": [
        "shoulder_pan_joint",
        "shoulder_lift_joint",
        "elbow_joint",
        "wrist_1_joint",
        "wrist_2_joint",
        "wrist_3_joint"
    ],
    "metrics": {
        "cart_traj_len": 0.3523510208751033,
        "distance_elbow_joint": 0.44810413328537435,
        "distance_shoulder_lift_joint": 0.23634089977724138,
        "distance_shoulder_pan_joint": 0.46162725333807936,
        "distance_wrist_1_joint": 0.23372084554359784,
        "distance_wrist_2_joint": 1.0942483359595843,
        "distance_wrist_3_joint": 0.0990528821100849,
        "smoothness": 1.1102230298998083e-15,
        "time": 5.024641846,
        "traj_len": 1.6040867651140205,
        "weighted_distance": 2.02464053494375
    },
    "planner": "SPARS",
    "start": {
        "state": {
            "elbow_joint": 1.971548259319323,
            "shoulder_lift_joint": -1.1394851275133948,
            "shoulder_pan_joint": 0.1228115487234821,
            "wrist_1_joint": -0.7804723859257726,
            "wrist_2_joint": 0.12958671773740124,
            "wrist_3_joint": -3.192489227718131
        }
    },
    "waypoints": [
        {
            "positions": [
                0.1228115487234821,
                -1.1394851275133948,
                1.971548259319323,
                -0.7804723859257726,
                0.12958671773740124,
                -3.192489227718131
            ]
        },
        {
            "positions": [
                0.056864798246613626,
                -1.1732481131958579,
                2.0355631355029478,
                -0.8138610781462866,
                0.2859079085887704,
                -3.178338815988119
            ]
        },
        {
            "positions": [
                -0.009081952230254847,
                -1.207011098878321,
                2.0995780116865728,
                -0.8472497703668006,
                0.44222909944013955,
                -3.1641884042581068
            ]
        },
        {
            "positions": [
                -0.07502870270712333,
                -1.240774084560784,
                2.1635928878701978,
                -0.8806384625873145,
                0.5985502902915087,
                -3.1500379925280946
            ]
        },
        {
            "positions": [
                -0.1409754531839918,
                -1.274537070243247,
                2.2276077640538228,
                -0.9140271548078285,
                0.7548714811428779,
                -3.135887580798083
            ]
        },
        {
            "positions": [
                -0.20692220366086028,
                -1.30830005592571,
                2.2916226402374473,
                -0.9474158470283425,
                0.9111926719942471,
                -3.1217371690680706
            ]
        },
        {
            "positions": [
                -0.27286895413772877,
                -1.3420630416081731,
                2.3556375164210723,
                -0.9808045392488565,
                1.0675138628456162,
                -3.1075867573380584
            ]
        },
        {
            "positions": [
                -0.33881570461459726,
                -1.3758260272906362,
                2.4196523926046973,
                -1.0141932314693705,
                1.2238350536969855,
                -3.0934363456080463
            ]
        }
    ]
}{
    "goal": {
        "global_pose": {
            "orientation": {
                "w": 0.5084816217422485,
                "x": -0.49083608388900757,
                "y": 0.5182115435600281,
                "z": -0.4816462993621826
            },
            "position": {
                "x": 0.5540239810943604,
                "y": 0.030875300988554955,
                "z": 0.16403168439865112
            }
        },
        "name": "move_to_storage_A"
    },
    "id": "SPARS_move_to_storage_A_4",
    "joint_names": [
        "shoulder_pan_joint",
        "shoulder_lift_joint",
        "elbow_joint",
        "wrist_1_joint",
        "wrist_2_joint",
        "wrist_3_joint"
    ],
    "metrics": {
        "cart_traj_len": 0.35247123711853673,
        "distance_elbow_joint": 0.44722759774872545,
        "distance_shoulder_lift_joint": 0.2342958579592056,
        "distance_shoulder_pan_joint": 0.4575269936343711,
        "distance_wrist_1_joint": 0.23427653553289973,
        "distance_wrist_2_joint": 1.1116674700533233,
        "distance_wrist_3_joint": 0.08850176364622708,
        "smoothness": 0.0,
        "time": 5.020982366999999,
        "traj_len": 1.6042120241959141,
        "weighted_distance": 2.0239673296408296
    },
    "planner": "SPARS",
    "start": {
        "state": {
            "elbow_joint": 1.97154746011099,
            "shoulder_lift_joint": -1.13948474672311,
            "shoulder_pan_joint": 0.12281154466712228,
            "wrist_1_joint": -0.7804688027058302,
            "wrist_2_joint": 0.12958655903071145,
            "wrist_3_joint": 3.0906928834467795
        }
    },
    "waypoints": [
        {
            "positions": [
                0.12281154466712228,
                -1.13948474672311,
                1.97154746011099,
                -0.7804688027058302,
                0.12958655903071145,
                3.0906928834467795
            ]
        },
        {
            "positions": [
                0.05745054557649784,
                -1.172955583574425,
                2.0354371169322363,
                -0.8139368792105302,
                0.28839619760975765,
                3.1033359925390975
            ]
        },
        {
            "positions": [
                -0.0079104535141266,
                -1.2064264204257402,
                2.099326773753483,
                -0.8474049557152301,
                0.44720583618880383,
                3.115979101631416
            ]
        },
        {
            "positions": [
                -0.07327145260475103,
                -1.2398972572770552,
                2.1632164305747295,
                -0.8808730322199301,
                0.60601547476785,
                3.128622210723734
            ]
        },
        {
            "positions": [
                -0.13863245169537547,
                -1.2733680941283703,
                2.227106087395976,
                -0.91434110872463,
                0.7648251133468962,
                3.141265319816052
            ]
        },
        {
            "positions": [
                -0.20399345078599995,
                -1.3068389309796853,
                2.2909957442172226,
                -0.94780918522933,
                0.9236347519259425,
                3.15390842890837
            ]
        },
        {
            "positions": [
                -0.2693544498766243,
                -1.3403097678310005,
                2.354885401038469,
                -0.98127726173403,
                1.0824443905049885,
                3.1665515380006886
            ]
        },
        {
            "positions": [
                -0.3347154489672488,
                -1.3737806046823156,
                2.4187750578597154,
                -1.01474533823873,
                1.2412540290840348,
                3.1791946470930066
            ]
        }
    ]
}{
    "goal": {
        "global_pose": {
            "orientation": {
                "w": 0.5084816217422485,
                "x": -0.49083608388900757,
                "y": 0.5182115435600281,
                "z": -0.4816462993621826
            },
            "position": {
                "x": 0.5540239810943604,
                "y": 0.030875300988554955,
                "z": 0.16403168439865112
            }
        },
        "name": "move_to_storage_A"
    },
    "id": "SPARS_move_to_storage_A_4",
    "joint_names": [
        "shoulder_pan_joint",
        "shoulder_lift_joint",
        "elbow_joint",
        "wrist_1_joint",
        "wrist_2_joint",
        "wrist_3_joint"
    ],
    "metrics": {
        "cart_traj_len": 0.3536017958054298,
        "distance_elbow_joint": 0.44949584269935805,
        "distance_shoulder_lift_joint": 0.2347869396953992,
        "distance_shoulder_pan_joint": 0.4641211446001723,
        "distance_wrist_1_joint": 0.24296021081924657,
        "distance_wrist_2_joint": 1.092152331379643,
        "distance_wrist_3_joint": 0.09800358420492827,
        "smoothness": 4.440892098500626e-16,
        "time": 5.009493991,
        "traj_len": 1.6067109427021238,
        "weighted_distance": 2.0279644385460744
    },
    "planner": "SPARS",
    "start": {
        "state": {
            "elbow_joint": 1.9715472970024885,
            "shoulder_lift_joint": -1.1394870060712896,
            "shoulder_pan_joint": 0.12281152778156021,
            "wrist_1_joint": -0.780463741449964,
            "wrist_2_joint": 0.12958659822042276,
            "wrist_3_joint": 3.090690232415272
        }
    },
    "waypoints": [
        {
            "positions": [
                0.12281152778156021,
                -1.1394870060712896,
                1.9715472970024885,
                -0.780463741449964,
                0.12958659822042276,
                3.090690232415272
            ]
        },
        {
            "positions": [
                0.056508507124392746,
                -1.1730279974563467,
                2.0357609888166825,
                -0.8151723429955706,
                0.285608359846086,
                3.1046907444445475
            ]
        },
        {
            "positions": [
                -0.009794513532774718,
                -1.2065689888414037,
                2.0999746806308766,
                -0.8498809445411772,
                0.4416301214717493,
                3.1186912564738227
            ]
        },
        {
            "positions": [
                -0.0760975341899422,
                -1.2401099802264608,
                2.1641883724450706,
                -0.884589546086784,
                0.5976518830974126,
                3.1326917685030984
            ]
        },
        {
            "positions": [
                -0.14240055484710964,
                -1.2736509716115176,
                2.2284020642592646,
                -0.9192981476323906,
                0.7536736447230759,
                3.1466922805323736
            ]
        },
        {
            "positions": [
                -0.20870357550427712,
                -1.3071919629965747,
                2.2926157560734586,
                -0.9540067491779973,
                0.9096954063487392,
                3.1606927925616493
            ]
        },
        {
            "positions": [
                -0.2750065961614446,
                -1.3407329543816318,
                2.3568294478876526,
                -0.988715350723604,
                1.0657171679744024,
                3.1746933045909245
            ]
        },
        {
            "positions": [
                -0.34130961681861205,
                -1.3742739457666888,
                2.4210431397018466,
                -1.0234239522692106,
                1.2217389296000658,
                3.1886938166202
            ]
        }
    ]
}