{
    "goal": {
        "global_pose": {
            "orientation": {
                "w": -0.4816463035849501,
                "x": 0.5182115481033762,
                "y": 0.4908360881923453,
                "z": -0.5084816262002911
            },
            "position": {
                "x": -0.8240239810943604,
                "y": -0.300875300988555,
                "z": 0.16403168439865112
            }
        },
        "name": "move_to_storage_C"
    },
    "id": "SPARS_move_to_storage_C_61",
    "joint_names": [
        "shoulder_pan_joint",
        "shoulder_lift_joint",
        "elbow_joint",
        "wrist_1_joint",
        "wrist_2_joint",
        "wrist_3_joint"
    ],
    "metrics": {
        "cart_traj_len": 0.5758091121500525,
        "distance_elbow_joint": 0.2553579012581473,
        "distance_shoulder_lift_joint": 0.18883640611884,
        "distance_shoulder_pan_joint": 0.4942959443894259,
        "distance_wrist_1_joint": 0.06750015096144868,
        "distance_wrist_2_joint": 1.062992157061677,
        "distance_wrist_3_joint": 0.07072046110200159,
        "smoothness": 0.0,
        "time": 5.052057284,
        "traj_len": 1.4627723749413442,
        "weighted_distance": 1.847061517957285
    },
    "planner": "SPARS",
    "start": {
        "state": {
            "elbow_joint": 2.010868314990456,
            "shoulder_lift_joint": -1.1634956873337592,
            "shoulder_pan_joint": -2.4736205022346125,
            "wrist_1_joint": -0.8367026794202681,
            "wrist_2_joint": 0.6746043897044499,
            "wrist_3_joint": -3.1496632123970403
        }
    },
    "waypoints": [
        {
            "positions": [
                -2.4736205022346125,
                -1.1634956873337592,
                2.010868314990456,
                -0.8367026794202681,
                0.6746043897044499,
                -3.1496632123970403
            ]
        },
        {
            "positions": [
                -2.55600315963285,
                -1.1320229529806192,
                1.9683086647807646,
                -0.8254526542600267,
                0.8517697492147294,
                -3.13787646888004
            ]
        },
        {
            "positions": [
                -2.6383858170310877,
                -1.1005502186274791,
                1.9257490145710734,
                -0.8142026290997852,
                1.028935108725009,
                -3.1260897253630398
            ]
        },
        {
            "positions": [
                -2.7207684744293257,
                -1.0690774842743391,
                1.8831893643613822,
                -0.8029526039395438,
                1.2061004682352885,
                -3.1143029818460395
            ]
        },
        {
            "positions": [
                -2.8031511318275633,
                -1.037604749921199,
                1.840629714151691,
                -0.7917025787793023,
                1.3832658277455678,
                -3.1025162383290392
            ]
        },
        {
            "positions": [
                -2.885533789225801,
                -1.006132015568059,
                1.7980700639419998,
                -0.7804525536190609,
                1.5604311872558474,
                -3.090729494812039
            ]
        },
        {
            "positions": [
                -2.9679164466240384,
                -0.9746592812149192,
                1.7555104137323085,
                -0.7692025284588194,
                1.737596546766127,
                -3.0789427512950387
            ]
        }
    ]
}