{
    "goal": {
        "global_pose": {
            "orientation": {
                "w": 0.7047431468963623,
                "x": -0.7094548344612122,
                "y": 0.0024358443915843964,
                "z": -0.0022348060738295317
            },
            "position": {
                "x": 0.6094750761985779,
                "y": 0.3671506643295288,
                "z": 0.19426114857196808
            }
        },
        "name": "move_to_magneteinheit_A"
    },
    "id": "SPARS_move_to_magneteinheit_A_105",
    "joint_names": [
        "shoulder_pan_joint",
        "shoulder_lift_joint",
        "elbow_joint",
        "wrist_1_joint",
        "wrist_2_joint",
        "wrist_3_joint"
    ],
    "metrics": {
        "cart_traj_len": 3.5765908219863727,
        "distance_elbow_joint": 3.9007758303044717,
        "distance_shoulder_lift_joint": 0.8561517053447731,
        "distance_shoulder_pan_joint": 3.6924953690345057,
        "distance_wrist_1_joint": 1.00049228519401,
        "distance_wrist_2_joint": 1.691787990575479,
        "distance_wrist_3_joint": 3.590181451086154,
        "smoothness": 0.13011557584176162,
        "time": 5.013908041,
        "traj_len": 3.838213729267743,
        "weighted_distance": 4.960295133304186
    },
    "planner": "SPARS",
    "start": {
        "state": {
            "elbow_joint": -1.9196185241190666,
            "shoulder_lift_joint": -1.2443396400964142,
            "shoulder_pan_joint": 2.6996025414629847,
            "wrist_1_joint": -1.5485510000780065,
            "wrist_2_joint": -1.5709468930060704,
            "wrist_3_joint": 0.4420197071253992
        }
    },
    "waypoints": [
        {
            "positions": [
                2.6996025414629847,
                -1.2443396400964142,
                -1.9196185241190666,
                -1.5485510000780065,
                -1.5709468930060704,
                0.4420197071253992
            ]
        },
        {
            "positions": [
                2.5633321237191105,
                -1.2607609380340068,
                -1.7829377433065627,
                -1.554702653747595,
                -1.5121090379451405,
                0.4068466471720692
            ]
        },
        {
            "positions": [
                2.4270617059752357,
                -1.2771822359715994,
                -1.646256962494059,
                -1.5608543074171835,
                -1.4532711828842106,
                0.3716735872187393
            ]
        },
        {
            "positions": [
                2.2907912882313615,
                -1.293603533909192,
                -1.5095761816815552,
                -1.5670059610867717,
                -1.3944333278232806,
                0.3365005272654093
            ]
        },
        {
            "positions": [
                2.154520870487487,
                -1.3100248318467849,
                -1.3728954008690515,
                -1.5731576147563602,
                -1.3355954727623507,
                0.3013274673120794
            ]
        },
        {
            "positions": [
                2.0182504527436125,
                -1.3264461297843775,
                -1.2362146200565476,
                -1.5793092684259487,
                -1.2767576177014208,
                0.2661544073587494
            ]
        },
        {
            "positions": [
                1.8819800349997382,
                -1.34286742772197,
                -1.0995338392440437,
                -1.5854609220955371,
                -1.217919762640491,
                0.23098134740541942
            ]
        },
        {
            "positions": [
                1.7457096172558635,
                -1.3592887256595627,
                -0.9628530584315399,
                -1.5916125757651254,
                -1.1590819075795609,
                0.19580828745208945
            ]
        },
        {
            "positions": [
                1.6094391995119892,
                -1.3757100235971553,
                -0.8261722776190361,
                -1.5977642294347139,
                -1.100244052518631,
                0.16063522749875953
            ]
        },
        {
            "positions": [
                1.4731687817681147,
                -1.3921313215347482,
                -0.6894914968065322,
                -1.6039158831043023,
                -1.0414061974577011,
                0.12546216754542955
            ]
        },
        {
            "positions": [
                1.3368983640242402,
                -1.4085526194723408,
                -0.5528107159940285,
                -1.6100675367738908,
                -0.9825683423967713,
                0.09028910759209963
            ]
        },
        {
            "positions": [
                1.2006279462803657,
                -1.4249739174099334,
                -0.41612993518152464,
                -1.6162191904434793,
                -0.9237304873358413,
                0.05511604763876965
            ]
        },
        {
            "positions": [
                1.0643575285364915,
                -1.441395215347526,
                -0.27944915436902096,
                -1.6223708441130675,
                -0.8648926322749114,
                0.019942987685439673
            ]
        },
        {
            "positions": [
                0.928087110792617,
                -1.4578165132851186,
                -0.14276837355651728,
                -1.628522497782656,
                -0.8060547772139816,
                -0.015230072267890249
            ]
        },
        {
            "positions": [
                0.7918166930487422,
                -1.4742378112227112,
                -0.006087592744013159,
                -1.6346741514522445,
                -0.7472169221530515,
                -0.05040313222122028
            ]
        },
        {
            "positions": [
                0.655546275304868,
                -1.490659109160304,
                0.13059318806849074,
                -1.640825805121833,
                -0.6883790670921216,
                -0.08557619217455015
            ]
        },
        {
            "positions": [
                0.5192758575609937,
                -1.5070804070978967,
                0.2672739688809944,
                -1.6469774587914214,
                -0.6295412120311917,
                -0.12074925212788012
            ]
        },
        {
            "positions": [
                0.38300543981711943,
                -1.5235017050354893,
                0.4039547496934981,
                -1.6531291124610097,
                -0.570703356970262,
                -0.1559223120812101
            ]
        },
        {
            "positions": [
                0.24673502207324471,
                -1.539923002973082,
                0.5406355305060022,
                -1.6592807661305982,
                -0.5118655019093319,
                -0.19109537203454008
            ]
        },
        {
            "positions": [
                0.11046460432937044,
                -1.5563443009106745,
                0.6773163113185059,
                -1.6654324198001866,
                -0.453027646848402,
                -0.22626843198787006
            ]
        },
        {
            "positions": [
                -0.025805813414504275,
                -1.5727655988482674,
                0.8139970921310096,
                -1.6715840734697751,
                -0.39418979178747215,
                -0.2614414919411999
            ]
        },
        {
            "positions": [
                -0.16207623115837855,
                -1.58918689678586,
                0.9506778729435132,
                -1.6777357271393634,
                -0.3353519367265423,
                -0.2966145518945299
            ]
        },
        {
            "positions": [
                -0.29834664890225326,
                -1.6056081947234526,
                1.0873586537560174,
                -1.6838873808089518,
                -0.2765140816656122,
                -0.3317876118478599
            ]
        },
        {
            "positions": [
                -0.4346170666461273,
                -1.6220294926610452,
                1.224039434568521,
                -1.6900390344785403,
                -0.21767622660468225,
                -0.36696067180118985
            ]
        },
        {
            "positions": [
                -0.3973986825844342,
                -1.5901320358090358,
                1.2745139593429802,
                -1.632772084425642,
                -0.19510840499307625,
                -0.5523740766118275
            ]
        },
        {
            "positions": [
                -0.36018029852274114,
                -1.5582345789570262,
                1.3249884841174393,
                -1.5755051343727435,
                -0.17254058338147021,
                -0.7377874814224652
            ]
        },
        {
            "positions": [
                -0.3229619144610481,
                -1.5263371221050168,
                1.3754630088918984,
                -1.5182381843198451,
                -0.14997276176986424,
                -0.9232008862331029
            ]
        },
        {
            "positions": [
                -0.285743530399355,
                -1.4944396652530074,
                1.4259375336663576,
                -1.4609712342669467,
                -0.1274049401582582,
                -1.1086142910437404
            ]
        },
        {
            "positions": [
                -0.24852514633766196,
                -1.4625422084009978,
                1.4764120584408167,
                -1.4037042842140484,
                -0.1048371185466522,
                -1.2940276958543784
            ]
        },
        {
            "positions": [
                -0.21130676227596887,
                -1.4306447515489884,
                1.5268865832152758,
                -1.3464373341611497,
                -0.0822692969350462,
                -1.4794411006650159
            ]
        },
        {
            "positions": [
                -0.1740883782142758,
                -1.398747294696979,
                1.577361107989735,
                -1.2891703841082514,
                -0.059701475323440195,
                -1.6648545054756538
            ]
        },
        {
            "positions": [
                -0.13686999415258272,
                -1.3668498378449694,
                1.627835632764194,
                -1.231903434055353,
                -0.037133653711834164,
                -1.8502679102862913
            ]
        },
        {
            "positions": [
                -0.09965161009088969,
                -1.33495238099296,
                1.6783101575386532,
                -1.1746364840024546,
                -0.01456583210022816,
                -2.035681315096929
            ]
        },
        {
            "positions": [
                -0.0624332260291966,
                -1.3030549241409506,
                1.7287846823131123,
                -1.1173695339495562,
                0.008001989511377844,
                -2.221094719907567
            ]
        },
        {
            "positions": [
                -0.02521484196750351,
                -1.271157467288941,
                1.7792592070875715,
                -1.0601025838966578,
                0.030569811122983848,
                -2.4065081247182043
            ]
        },
        {
            "positions": [
                0.012003542094189579,
                -1.2392600104369316,
                1.8297337318620306,
                -1.0028356338437594,
                0.05313763273458985,
                -2.5919215295288422
            ]
        },
        {
            "positions": [
                0.04922192615588267,
                -1.2073625535849222,
                1.8802082566364897,
                -0.945568683790861,
                0.07570545434619588,
                -2.7773349343394798
            ]
        },
        {
            "positions": [
                0.0864403102175757,
                -1.1754650967329126,
                1.9306827814109488,
                -0.8883017337379626,
                0.09827327595780186,
                -2.9627483391501177
            ]
        },
        {
            "positions": [
                0.12365869427926884,
                -1.1435676398809032,
                1.981157306185408,
                -0.8310347836850642,
                0.12084109756940788,
                -3.148161743960755
            ]
        }
    ]
}