{
    "goal": {
        "global_pose": {
            "orientation": {
                "w": 0.7047431493862688,
                "x": -0.7094548369677653,
                "y": 0.0024358444001904,
                "z": -0.0022348060817251984
            },
            "position": {
                "x": -0.39052492380142206,
                "y": 0.3671506643295288,
                "z": 0.19426114857196808
            }
        },
        "name": "move_to_magneteinheit_D"
    },
    "id": "SPARS_move_to_magneteinheit_D_31",
    "joint_names": [
        "shoulder_pan_joint",
        "shoulder_lift_joint",
        "elbow_joint",
        "wrist_1_joint",
        "wrist_2_joint",
        "wrist_3_joint"
    ],
    "metrics": {
        "cart_traj_len": 4.343979061885404,
        "distance_elbow_joint": 3.8205712280829482,
        "distance_shoulder_lift_joint": 1.9360682254495012,
        "distance_shoulder_pan_joint": 3.163708714615032,
        "distance_wrist_1_joint": 1.5938223063370218,
        "distance_wrist_2_joint": 2.223954547920344,
        "distance_wrist_3_joint": 3.1380448241573724,
        "smoothness": 0.30024436109418134,
        "time": 5.059212929,
        "traj_len": 3.9844911653261597,
        "weighted_distance": 5.0960804888791085
    },
    "planner": "SPARS",
    "start": {
        "state": {
            "elbow_joint": 0.749534889911806,
            "shoulder_lift_joint": -0.6476975780787326,
            "shoulder_pan_joint": -2.711696901376241,
            "wrist_1_joint": -0.07506478083263063,
            "wrist_2_joint": 0.43296659715538205,
            "wrist_3_joint": -3.14703540197715
        }
    },
    "waypoints": [
        {
            "positions": [
                -2.711696901376241,
                -0.6476975780787326,
                0.749534889911806,
                -0.07506478083263063,
                0.43296659715538205,
                -3.14703540197715
            ]
        },
        {
            "positions": [
                -2.7032402793129173,
                -0.6992298949626489,
                0.7740247925336173,
                0.024155718388424285,
                0.30416731874791325,
                -3.102484867905196
            ]
        },
        {
            "positions": [
                -2.6947836572495936,
                -0.7507622118465651,
                0.7985146951554288,
                0.1233762176094792,
                0.1753680403404444,
                -3.0579343338332423
            ]
        },
        {
            "positions": [
                -2.68632703518627,
                -0.8022945287304812,
                0.8230045977772402,
                0.2225967168305341,
                0.046568761932975544,
                -3.0133837997612885
            ]
        },
        {
            "positions": [
                -2.677870413122946,
                -0.8538268456143976,
                0.8474945003990517,
                0.32181721605158903,
                -0.08223051647449325,
                -2.9688332656893346
            ]
        },
        {
            "positions": [
                -2.669413791059622,
                -0.9053591624983137,
                0.8719844030208631,
                0.42103771527264405,
                -0.21102979488196222,
                -2.9242827316173807
            ]
        },
        {
            "positions": [
                -2.660957168996298,
                -0.95689147938223,
                0.8964743056426745,
                0.5202582144936989,
                -0.33982907328943096,
                -2.879732197545427
            ]
        },
        {
            "positions": [
                -2.6525005469329743,
                -1.0084237962661462,
                0.920964208264486,
                0.6194787137147539,
                -0.4686283516968998,
                -2.835181663473473
            ]
        },
        {
            "positions": [
                -2.6440439248696506,
                -1.0599561131500623,
                0.9454541108862975,
                0.7186992129358087,
                -0.5974276301043686,
                -2.790631129401519
            ]
        },
        {
            "positions": [
                -2.635587302806327,
                -1.1114884300339787,
                0.9699440135081089,
                0.8179197121568638,
                -0.7262269085118376,
                -2.7460805953295653
            ]
        },
        {
            "positions": [
                -2.5135907811471006,
                -1.179882273336973,
                0.988215182289269,
                0.8602998621644837,
                -0.7381040393249036,
                -2.66035855936543
            ]
        },
        {
            "positions": [
                -2.3915942594878743,
                -1.2482761166399674,
                1.006486351070429,
                0.9026800121721036,
                -0.7499811701379697,
                -2.5746365234012947
            ]
        },
        {
            "positions": [
                -2.269597737828648,
                -1.3166699599429617,
                1.024757519851589,
                0.9450601621797236,
                -0.7618583009510358,
                -2.4889144874371594
            ]
        },
        {
            "positions": [
                -2.147601216169422,
                -1.3850638032459561,
                1.0430286886327491,
                0.9874403121873435,
                -0.7737354317641019,
                -2.403192451473024
            ]
        },
        {
            "positions": [
                -2.0256046945101955,
                -1.4534576465489504,
                1.0612998574139092,
                1.0298204621949634,
                -0.7856125625771679,
                -2.3174704155088888
            ]
        },
        {
            "positions": [
                -1.9036081728509693,
                -1.5218514898519446,
                1.0795710261950693,
                1.0722006122025833,
                -0.797489693390234,
                -2.2317483795447535
            ]
        },
        {
            "positions": [
                -1.781611651191743,
                -1.590245333154939,
                1.0978421949762294,
                1.1145807622102033,
                -0.8093668242033001,
                -2.146026343580618
            ]
        },
        {
            "positions": [
                -1.6983311704161221,
                -1.6268641729616975,
                0.9834153458960686,
                1.1319127323779572,
                -0.7704235007375694,
                -2.0558547729800627
            ]
        },
        {
            "positions": [
                -1.6150506896405015,
                -1.663483012768456,
                0.8689884968159077,
                1.149244702545711,
                -0.7314801772718386,
                -1.9656832023795077
            ]
        },
        {
            "positions": [
                -1.5317702088648808,
                -1.7001018525752143,
                0.7545616477357469,
                1.1665766727134648,
                -0.6925368538061079,
                -1.8755116317789524
            ]
        },
        {
            "positions": [
                -1.44848972808926,
                -1.7367206923819727,
                0.6401347986555861,
                1.1839086428812187,
                -0.6535935303403771,
                -1.7853400611783972
            ]
        },
        {
            "positions": [
                -1.365209247313639,
                -1.7733395321887309,
                0.5257079495754253,
                1.2012406130489726,
                -0.6146502068746463,
                -1.6951684905778417
            ]
        },
        {
            "positions": [
                -1.2819287665380183,
                -1.8099583719954893,
                0.41128110049526445,
                1.2185725832167265,
                -0.5757068834089156,
                -1.6049969199772867
            ]
        },
        {
            "positions": [
                -1.1986482857623975,
                -1.8465772118022477,
                0.2968542514151036,
                1.2359045533844804,
                -0.5367635599431848,
                -1.5148253493767312
            ]
        },
        {
            "positions": [
                -1.1153678049867768,
                -1.883196051609006,
                0.1824274023349428,
                1.2532365235522342,
                -0.49782023647745416,
                -1.424653778776176
            ]
        },
        {
            "positions": [
                -1.032087324211156,
                -1.9198148914157644,
                0.06800055325478183,
                1.270568493719988,
                -0.45887691301172334,
                -1.3344822081756207
            ]
        },
        {
            "positions": [
                -0.9488068434355352,
                -1.9564337312225228,
                -0.046426295825378716,
                1.2879004638877418,
                -0.41993358954599264,
                -1.2443106375750654
            ]
        },
        {
            "positions": [
                -0.8655263626599143,
                -1.9930525710292812,
                -0.1608531449055397,
                1.3052324340554957,
                -0.3809902660802619,
                -1.1541390669745102
            ]
        },
        {
            "positions": [
                -0.7822458818842937,
                -2.0296714108360394,
                -0.27527999398570047,
                1.3225644042232496,
                -0.34204694261453117,
                -1.063967496373955
            ]
        },
        {
            "positions": [
                -0.698965401108673,
                -2.066290250642798,
                -0.38970684306586123,
                1.3398963743910035,
                -0.30310361914880046,
                -0.9737959257733997
            ]
        },
        {
            "positions": [
                -0.6156849203330519,
                -2.102909090449556,
                -0.5041336921460222,
                1.3572283445587574,
                -0.26416029568306965,
                -0.8836243551728442
            ]
        },
        {
            "positions": [
                -0.5324044395574312,
                -2.139527930256315,
                -0.618560541226183,
                1.3745603147265113,
                -0.22521697221733894,
                -0.793452784572289
            ]
        },
        {
            "positions": [
                -0.44912395878181055,
                -2.176146770063073,
                -0.7329873903063437,
                1.391892284894265,
                -0.18627364875160823,
                -0.7032812139717337
            ]
        },
        {
            "positions": [
                -0.3658434780061899,
                -2.212765609869831,
                -0.8474142393865045,
                1.4092242550620189,
                -0.14733032528587742,
                -0.6131096433711785
            ]
        },
        {
            "positions": [
                -0.28256299723056877,
                -2.24938444967659,
                -0.9618410884666657,
                1.4265562252297728,
                -0.1083870018201466,
                -0.522938072770623
            ]
        },
        {
            "positions": [
                -0.1992825164549481,
                -2.286003289483348,
                -1.0762679375468265,
                1.4438881953975267,
                -0.0694436783544159,
                -0.43276650217006774
            ]
        },
        {
            "positions": [
                -0.11600203567932743,
                -2.3226221292901066,
                -1.1906947866269868,
                1.4612201655652806,
                -0.03050035488868519,
                -0.3425949315695127
            ]
        },
        {
            "positions": [
                -0.03272155490370676,
                -2.3592409690968648,
                -1.3051216357071476,
                1.4785521357330342,
                0.008442968577045518,
                -0.25242336096895746
            ]
        },
        {
            "positions": [
                0.05055892587191435,
                -2.395859808903623,
                -1.4195484847873088,
                1.4958841059007881,
                0.047386292042776335,
                -0.16225179036840198
            ]
        },
        {
            "positions": [
                0.13383940664753508,
                -2.4324786487103816,
                -1.5339753338674695,
                1.513216076068542,
                0.08632961550850708,
                -0.07208021976784663
            ]
        },
        {
            "positions": [
                0.054296304999721004,
                -2.3946568600059184,
                -1.744086932411176,
                1.5146014384275044,
                0.10781078722097062,
                -0.05630780928082931
            ]
        },
        {
            "positions": [
                -0.025246796648093067,
                -2.3568350713014556,
                -1.9541985309548824,
                1.5159868007864667,
                0.12929195893343415,
                -0.04053539879381199
            ]
        },
        {
            "positions": [
                -0.10478989829590712,
                -2.3190132825969925,
                -2.1643101294985887,
                1.5173721631454289,
                0.1507731306458977,
                -0.024762988306794666
            ]
        },
        {
            "positions": [
                -0.1843329999437212,
                -2.2811914938925293,
                -2.3744217280422952,
                1.5187575255043912,
                0.17225430235836123,
                -0.008990577819777348
            ]
        }
    ]
}