{
    "goal": {
        "global_pose": {
            "orientation": {
                "w": 0.005598929693374612,
                "x": 0.007748599140229565,
                "y": 0.7110244013736278,
                "z": -0.7031023480610252
            },
            "position": {
                "x": 0.1141497679147869,
                "y": -0.7141253447532654,
                "z": 0.3711530566215515
            }
        },
        "name": "move_to_auspresseinheit_B"
    },
    "id": "SPARS_move_to_auspresseinheit_B_119",
    "joint_names": [
        "shoulder_pan_joint",
        "shoulder_lift_joint",
        "elbow_joint",
        "wrist_1_joint",
        "wrist_2_joint",
        "wrist_3_joint"
    ],
    "metrics": {
        "cart_traj_len": 0.5653299665772485,
        "distance_elbow_joint": 0.06683533813471354,
        "distance_shoulder_lift_joint": 0.2936366657980565,
        "distance_shoulder_pan_joint": 0.5775969793420703,
        "distance_wrist_1_joint": 0.33997065024974893,
        "distance_wrist_2_joint": 0.9928652575249346,
        "distance_wrist_3_joint": 0.0077538281226057215,
        "smoothness": 6.344131583732827e-16,
        "time": 5.023203635,
        "traj_len": 1.5095226792506728,
        "weighted_distance": 1.9044690292026343
    },
    "planner": "SPARS",
    "start": {
        "state": {
            "elbow_joint": 2.0193083361928714,
            "shoulder_lift_joint": -1.1220246554650708,
            "shoulder_pan_joint": -1.0952077554168747,
            "wrist_1_joint": -0.8559753972642168,
            "wrist_2_joint": 0.4759566250798843,
            "wrist_3_joint": -3.1240929996934557
        }
    },
    "waypoints": [
        {
            "positions": [
                -1.0952077554168747,
                -1.1220246554650708,
                2.0193083361928714,
                -0.8559753972642168,
                0.4759566250798843,
                -3.1240929996934557
            ]
        },
        {
            "positions": [
                -1.191473918640553,
                -1.1709640997647468,
                2.0081691131704194,
                -0.799313622222592,
                0.6414341680007067,
                -3.1228006950063545
            ]
        },
        {
            "positions": [
                -1.2877400818642315,
                -1.219903544064423,
                1.9970298901479668,
                -0.7426518471809671,
                0.8069117109215291,
                -3.1215083903192538
            ]
        },
        {
            "positions": [
                -1.3840062450879098,
                -1.268842988364099,
                1.9858906671255148,
                -0.6859900721393424,
                0.9723892538423515,
                -3.120216085632153
            ]
        },
        {
            "positions": [
                -1.4802724083115881,
                -1.317782432663775,
                1.9747514441030625,
                -0.6293282970977175,
                1.137866796763174,
                -3.118923780945052
            ]
        },
        {
            "positions": [
                -1.5765385715352667,
                -1.3667218769634513,
                1.9636122210806102,
                -0.5726665220560927,
                1.3033443396839965,
                -3.1176314762579507
            ]
        },
        {
            "positions": [
                -1.672804734758945,
                -1.4156613212631273,
                1.9524729980581579,
                -0.5160047470144679,
                1.468821882604819,
                -3.11633917157085
            ]
        }
    ]
}