{
    "goal": {
        "global_pose": {
            "orientation": {
                "w": 0.005598929693374612,
                "x": 0.007748599140229565,
                "y": 0.7110244013736278,
                "z": -0.7031023480610252
            },
            "position": {
                "x": -0.8858502320852131,
                "y": -0.7141253447532654,
                "z": 0.3711530566215515
            }
        },
        "name": "move_to_auspresseinheit_C"
    },
    "id": "SPARS_move_to_auspresseinheit_C_131",
    "joint_names": [
        "shoulder_pan_joint",
        "shoulder_lift_joint",
        "elbow_joint",
        "wrist_1_joint",
        "wrist_2_joint",
        "wrist_3_joint"
    ],
    "metrics": {
        "cart_traj_len": 0.4927183294318921,
        "distance_elbow_joint": 0.9952656831735447,
        "distance_shoulder_lift_joint": 0.3232070995745331,
        "distance_shoulder_pan_joint": 0.2569451018158375,
        "distance_wrist_1_joint": 0.6726311315695819,
        "distance_wrist_2_joint": 1.302278693607928,
        "distance_wrist_3_joint": 0.06531967341659684,
        "smoothness": 8.074349282788172e-16,
        "time": 5.009703292999999,
        "traj_len": 1.9014855726925781,
        "weighted_distance": 2.3919022879642733
    },
    "planner": "SPARS",
    "start": {
        "state": {
            "elbow_joint": 1.7527959577737207,
            "shoulder_lift_joint": -0.9740617694225068,
            "shoulder_pan_joint": -2.967991417825858,
            "wrist_1_joint": -0.759517768980727,
            "wrist_2_joint": 1.7443932448377408,
            "wrist_3_joint": -3.0840537646736568
        }
    },
    "waypoints": [
        {
            "positions": [
                -2.967991417825858,
                -0.9740617694225068,
                1.7527959577737207,
                -0.759517768980727,
                1.7443932448377408,
                -3.0840537646736568
            ]
        },
        {
            "positions": [
                -2.942296907644274,
                -0.9417410594650535,
                1.6532693894563661,
                -0.6922546558237688,
                1.614165375476948,
                -3.0905857320153163
            ]
        },
        {
            "positions": [
                -2.9166023974626905,
                -0.9094203495076002,
                1.5537428211390116,
                -0.6249915426668106,
                1.4839375061161553,
                -3.0971176993569762
            ]
        },
        {
            "positions": [
                -2.8909078872811067,
                -0.8770996395501468,
                1.4542162528216573,
                -0.5577284295098525,
                1.3537096367553625,
                -3.1036496666986357
            ]
        },
        {
            "positions": [
                -2.865213377099523,
                -0.8447789295926935,
                1.3546896845043028,
                -0.4904653163528942,
                1.2234817673945697,
                -3.1101816340402957
            ]
        },
        {
            "positions": [
                -2.839518866917939,
                -0.8124582196352402,
                1.2551631161869483,
                -0.42320220319593604,
                1.093253898033777,
                -3.116713601381955
            ]
        },
        {
            "positions": [
                -2.8138243567363554,
                -0.7801375096777869,
                1.155636547869594,
                -0.3559390900389779,
                0.963026028672984,
                -3.1232455687236147
            ]
        },
        {
            "positions": [
                -2.7881298465547717,
                -0.7478167997203337,
                1.0561099795522395,
                -0.2886759768820197,
                0.8327981593121913,
                -3.1297775360652746
            ]
        },
        {
            "positions": [
                -2.762435336373188,
                -0.7154960897628804,
                0.9565834112348849,
                -0.22141286372506142,
                0.7025702899513984,
                -3.136309503406934
            ]
        },
        {
            "positions": [
                -2.736740826191604,
                -0.683175379805427,
                0.8570568429175304,
                -0.15414975056810332,
                0.5723424205906056,
                -3.142841470748594
            ]
        },
        {
            "positions": [
                -2.7110463160100204,
                -0.6508546698479737,
                0.757530274600176,
                -0.08688663741114507,
                0.44211455122981286,
                -3.1493734380902536
            ]
        }
    ]
}