{
    "goal": {
        "global_pose": {
            "orientation": {
                "w": -0.4816463035849501,
                "x": 0.5182115481033762,
                "y": 0.4908360881923453,
                "z": -0.5084816262002911
            },
            "position": {
                "x": -0.8240239810943604,
                "y": -0.300875300988555,
                "z": 0.16403168439865112
            }
        },
        "name": "move_to_storage_C"
    },
    "id": "SPARS_move_to_storage_C_65",
    "joint_names": [
        "shoulder_pan_joint",
        "shoulder_lift_joint",
        "elbow_joint",
        "wrist_1_joint",
        "wrist_2_joint",
        "wrist_3_joint"
    ],
    "metrics": {
        "cart_traj_len": 0.5760819629919616,
        "distance_elbow_joint": 0.25789974048927666,
        "distance_shoulder_lift_joint": 0.18757217362404366,
        "distance_shoulder_pan_joint": 0.4957402131099795,
        "distance_wrist_1_joint": 0.0849741612466387,
        "distance_wrist_2_joint": 1.0596192748362498,
        "distance_wrist_3_joint": 0.0718540311431175,
        "smoothness": 2.5376526478085547e-16,
        "time": 5.049458914,
        "traj_len": 1.4688974077345585,
        "weighted_distance": 1.8563300064423969
    },
    "planner": "SPARS",
    "start": {
        "state": {
            "elbow_joint": 2.010868314990456,
            "shoulder_lift_joint": -1.1634956873337592,
            "shoulder_pan_joint": -2.4736205022346125,
            "wrist_1_joint": -0.8367026794202681,
            "wrist_2_joint": 0.6746043897044499,
            "wrist_3_joint": -3.1496632123970403
        }
    },
    "waypoints": [
        {
            "positions": [
                -2.4736205022346125,
                -1.1634956873337592,
                2.010868314990456,
                -0.8367026794202681,
                0.6746043897044499,
                -3.1496632123970403
            ]
        },
        {
            "positions": [
                -2.556243871086276,
                -1.1322336583964185,
                1.9678850249089097,
                -0.8225403192124949,
                0.8512076021771582,
                -3.137687540539854
            ]
        },
        {
            "positions": [
                -2.638867239937939,
                -1.100971629459078,
                1.9249017348273636,
                -0.8083779590047219,
                1.0278108146498666,
                -3.125711868682668
            ]
        },
        {
            "positions": [
                -2.721490608789602,
                -1.0697096005217372,
                1.8819184447458175,
                -0.7942155987969488,
                1.2044140271225747,
                -3.1137361968254815
            ]
        },
        {
            "positions": [
                -2.8041139776412654,
                -1.0384475715843968,
                1.8389351546642714,
                -0.7800532385891756,
                1.381017239595283,
                -3.101760524968295
            ]
        },
        {
            "positions": [
                -2.8867373464929287,
                -1.0071855426470562,
                1.7959518645827253,
                -0.7658908783814025,
                1.5576204520679915,
                -3.089784853111109
            ]
        },
        {
            "positions": [
                -2.969360715344592,
                -0.9759235137097155,
                1.7529685745011792,
                -0.7517285181736294,
                1.7342236645406996,
                -3.0778091812539228
            ]
        }
    ]
}