{
    "goal": {
        "global_pose": {
            "orientation": {
                "w": 0.5084816217422485,
                "x": -0.49083608388900757,
                "y": 0.5182115435600281,
                "z": -0.4816462993621826
            },
            "position": {
                "x": 0.5540239810943604,
                "y": 0.030875300988554955,
                "z": 0.16403168439865112
            }
        },
        "name": "move_to_storage_A"
    },
    "id": "SPARS_move_to_storage_A_139",
    "joint_names": [
        "shoulder_pan_joint",
        "shoulder_lift_joint",
        "elbow_joint",
        "wrist_1_joint",
        "wrist_2_joint",
        "wrist_3_joint"
    ],
    "metrics": {
        "cart_traj_len": 0.3533140575717893,
        "distance_elbow_joint": 0.4524751018874571,
        "distance_shoulder_lift_joint": 0.2346995115531918,
        "distance_shoulder_pan_joint": 0.46047018712733523,
        "distance_wrist_1_joint": 0.2586535894780494,
        "distance_wrist_2_joint": 1.1057304156185035,
        "distance_wrist_3_joint": 0.09972462922455794,
        "smoothness": 4.440892098500626e-16,
        "time": 5.026777184,
        "traj_len": 1.616092025501362,
        "weighted_distance": 2.043425236810675
    },
    "planner": "SPARS",
    "start": {
        "state": {
            "elbow_joint": 1.971548259319323,
            "shoulder_lift_joint": -1.1394851275133948,
            "shoulder_pan_joint": 0.1228115487234821,
            "wrist_1_joint": -0.7804723859257726,
            "wrist_2_joint": 0.12958671773740124,
            "wrist_3_joint": -3.192489227718131
        }
    },
    "waypoints": [
        {
            "positions": [
                0.1228115487234821,
                -1.1394851275133948,
                1.971548259319323,
                -0.7804723859257726,
                0.12958671773740124,
                -3.192489227718131
            ]
        },
        {
            "positions": [
                0.05703009341957707,
                -1.1730136291638509,
                2.0361875595889596,
                -0.817422898708351,
                0.28754820568290174,
                -3.178242852114623
            ]
        },
        {
            "positions": [
                -0.008751361884327957,
                -1.2065421308143067,
                2.1008268598585964,
                -0.8543734114909296,
                0.4455096936284022,
                -3.1639964765111146
            ]
        },
        {
            "positions": [
                -0.07453281718823299,
                -1.2400706324647628,
                2.1654661601282332,
                -0.891323924273508,
                0.6034711815739027,
                -3.1497501009076063
            ]
        },
        {
            "positions": [
                -0.14031427249213801,
                -1.2735991341152186,
                2.23010546039787,
                -0.9282744370560866,
                0.7614326695194032,
                -3.135503725304098
            ]
        },
        {
            "positions": [
                -0.20609572779604307,
                -1.3071276357656747,
                2.2947447606675064,
                -0.965224949838665,
                0.9193941574649038,
                -3.1212573497005898
            ]
        },
        {
            "positions": [
                -0.27187718309994807,
                -1.3406561374161305,
                2.3593840609371433,
                -1.0021754626212436,
                1.077355645410404,
                -3.1070109740970815
            ]
        },
        {
            "positions": [
                -0.33765863840385313,
                -1.3741846390665866,
                2.42402336120678,
                -1.039125975403822,
                1.2353171333559048,
                -3.092764598493573
            ]
        }
    ]
}{
    "goal": {
        "global_pose": {
            "orientation": {
                "w": 0.5084816217422485,
                "x": -0.49083608388900757,
                "y": 0.5182115435600281,
                "z": -0.4816462993621826
            },
            "position": {
                "x": 0.5540239810943604,
                "y": 0.030875300988554955,
                "z": 0.16403168439865112
            }
        },
        "name": "move_to_storage_A"
    },
    "id": "SPARS_move_to_storage_A_139",
    "joint_names": [
        "shoulder_pan_joint",
        "shoulder_lift_joint",
        "elbow_joint",
        "wrist_1_joint",
        "wrist_2_joint",
        "wrist_3_joint"
    ],
    "metrics": {
        "cart_traj_len": 0.35356155576044856,
        "distance_elbow_joint": 0.447434716828492,
        "distance_shoulder_lift_joint": 0.23412552014432997,
        "distance_shoulder_pan_joint": 0.46349855929106065,
        "distance_wrist_1_joint": 0.23451899407494925,
        "distance_wrist_2_joint": 1.0940812082636904,
        "distance_wrist_3_joint": 0.09973573269873093,
        "smoothness": 0.0,
        "time": 5.00772631,
        "traj_len": 1.6041803923814968,
        "weighted_distance": 2.025207742192725
    },
    "planner": "SPARS",
    "start": {
        "state": {
            "elbow_joint": 1.97154746011099,
            "shoulder_lift_joint": -1.13948474672311,
            "shoulder_pan_joint": 0.12281154466712228,
            "wrist_1_joint": -0.7804688027058302,
            "wrist_2_joint": 0.12958655903071145,
            "wrist_3_joint": 3.0906928834467795
        }
    },
    "waypoints": [
        {
            "positions": [
                0.12281154466712228,
                -1.13948474672311,
                1.97154746011099,
                -0.7804688027058302,
                0.12958655903071145,
                3.0906928834467795
            ]
        },
        {
            "positions": [
                0.05659746476839933,
                -1.1729312496008715,
                2.035466705372203,
                -0.8139715161451087,
                0.28588387449695296,
                3.104940845260884
            ]
        },
        {
            "positions": [
                -0.009616615130323622,
                -1.2063777524786328,
                2.0993859506334163,
                -0.8474742295843871,
                0.44218118996319444,
                3.1191888070749885
            ]
        },
        {
            "positions": [
                -0.07583069502904656,
                -1.2398242553563943,
                2.163305195894629,
                -0.8809769430236656,
                0.5984785054294359,
                3.133436768889093
            ]
        },
        {
            "positions": [
                -0.1420447749277695,
                -1.2732707582341556,
                2.2272244411558426,
                -0.914479656462944,
                0.7547758208956774,
                3.147684730703197
            ]
        },
        {
            "positions": [
                -0.20825885482649248,
                -1.306717261111917,
                2.2911436864170556,
                -0.9479823699022225,
                0.9110731363619189,
                3.1619326925173015
            ]
        },
        {
            "positions": [
                -0.2744729347252154,
                -1.3401637639896784,
                2.355062931678269,
                -0.981485083341501,
                1.0673704518281604,
                3.176180654331406
            ]
        },
        {
            "positions": [
                -0.34068701462393836,
                -1.37361026686744,
                2.418982176939482,
                -1.0149877967807794,
                1.2236677672944019,
                3.1904286161455104
            ]
        }
    ]
}{
    "goal": {
        "global_pose": {
            "orientation": {
                "w": 0.5084816217422485,
                "x": -0.49083608388900757,
                "y": 0.5182115435600281,
                "z": -0.4816462993621826
            },
            "position": {
                "x": 0.5540239810943604,
                "y": 0.030875300988554955,
                "z": 0.16403168439865112
            }
        },
        "name": "move_to_storage_A"
    },
    "id": "SPARS_move_to_storage_A_139",
    "joint_names": [
        "shoulder_pan_joint",
        "shoulder_lift_joint",
        "elbow_joint",
        "wrist_1_joint",
        "wrist_2_joint",
        "wrist_3_joint"
    ],
    "metrics": {
        "cart_traj_len": 0.35287713910349766,
        "distance_elbow_joint": 0.4517011035270122,
        "distance_shoulder_lift_joint": 0.23360356183045883,
        "distance_shoulder_pan_joint": 0.46198154035156774,
        "distance_wrist_1_joint": 0.24795118347029121,
        "distance_wrist_2_joint": 1.096205935623783,
        "distance_wrist_3_joint": 0.10628384101888866,
        "smoothness": 1.1102230298998083e-15,
        "time": 5.033858857,
        "traj_len": 1.6117466196092989,
        "weighted_distance": 2.0382472781666734
    },
    "planner": "SPARS",
    "start": {
        "state": {
            "elbow_joint": 1.9715472970024885,
            "shoulder_lift_joint": -1.1394870060712896,
            "shoulder_pan_joint": 0.12281152778156021,
            "wrist_1_joint": -0.780463741449964,
            "wrist_2_joint": 0.12958659822042276,
            "wrist_3_joint": 3.090690232415272
        }
    },
    "waypoints": [
        {
            "positions": [
                0.12281152778156021,
                -1.1394870060712896,
                1.9715472970024885,
                -0.780463741449964,
                0.12958659822042276,
                3.090690232415272
            ]
        },
        {
            "positions": [
                0.0568141648741934,
                -1.172858943475641,
                2.036076026077776,
                -0.8158853390885771,
                0.28618744616667746,
                3.105873638275113
            ]
        },
        {
            "positions": [
                -0.009183198033173412,
                -1.2062308808799922,
                2.1006047551530633,
                -0.85130693672719,
                0.4427882941129322,
                3.1210570441349543
            ]
        },
        {
            "positions": [
                -0.07518056094054021,
                -1.2396028182843435,
                2.1651334842283507,
                -0.8867285343658031,
                0.5993891420591869,
                3.1362404499947956
            ]
        },
        {
            "positions": [
                -0.14117792384790703,
                -1.2729747556886946,
                2.229662213303638,
                -0.9221501320044161,
                0.7559899900054415,
                3.151423855854637
            ]
        },
        {
            "positions": [
                -0.20717528675527389,
                -1.3063466930930459,
                2.294190942378926,
                -0.9575717296430292,
                0.9125908379516963,
                3.166607261714478
            ]
        },
        {
            "positions": [
                -0.27317264966264065,
                -1.3397186304973971,
                2.3587196714542134,
                -0.9929933272816421,
                1.069191685897951,
                3.1817906675743193
            ]
        },
        {
            "positions": [
                -0.3391700125700075,
                -1.3730905679017484,
                2.4232484005295007,
                -1.0284149249202552,
                1.2257925338442057,
                3.1969740734341605
            ]
        }
    ]
}