{
    "goal": {
        "global_pose": {
            "orientation": {
                "w": 0.5084816217422485,
                "x": -0.49083608388900757,
                "y": 0.5182115435600281,
                "z": -0.4816462993621826
            },
            "position": {
                "x": 0.5540239810943604,
                "y": 0.030875300988554955,
                "z": 0.16403168439865112
            }
        },
        "name": "move_to_storage_A"
    },
    "id": "SPARStwo_move_to_storage_A_147",
    "joint_names": [
        "shoulder_pan_joint",
        "shoulder_lift_joint",
        "elbow_joint",
        "wrist_1_joint",
        "wrist_2_joint",
        "wrist_3_joint"
    ],
    "metrics": {
        "cart_traj_len": 0.3527992267326435,
        "distance_elbow_joint": 0.44905508845360176,
        "distance_shoulder_lift_joint": 0.23440307440694852,
        "distance_shoulder_pan_joint": 0.46057570517994373,
        "distance_wrist_1_joint": 0.2452807012027145,
        "distance_wrist_2_joint": 1.100850597185809,
        "distance_wrist_3_joint": 0.1037317688102184,
        "smoothness": 0.0,
        "time": 5.00479228,
        "traj_len": 1.6105579577398748,
        "weighted_distance": 2.0365391651643225
    },
    "planner": "SPARStwo",
    "start": {
        "state": {
            "elbow_joint": 1.9715481507254546,
            "shoulder_lift_joint": -1.1394850672790213,
            "shoulder_pan_joint": 0.12281154597544902,
            "wrist_1_joint": -0.7804720171073349,
            "wrist_2_joint": 0.12958658322886563,
            "wrist_3_joint": -3.1924895760937617
        }
    },
    "waypoints": [
        {
            "positions": [
                0.12281154597544902,
                -1.1394850672790213,
                1.9715481507254546,
                -0.7804720171073349,
                0.12958658322886563,
                -3.1924895760937617
            ]
        },
        {
            "positions": [
                0.05701501666402849,
                -1.1729712207657284,
                2.035698877647398,
                -0.8155121172791513,
                0.28685095425540974,
                -3.1776707519780163
            ]
        },
        {
            "positions": [
                -0.008781512647392048,
                -1.2064573742524352,
                2.0998496045693407,
                -0.8505522174509677,
                0.44411532528195385,
                -3.162851927862271
            ]
        },
        {
            "positions": [
                -0.07457804195881257,
                -1.2399435277391422,
                2.164000331491284,
                -0.885592317622784,
                0.601379696308498,
                -3.1480331037465255
            ]
        },
        {
            "positions": [
                -0.14037457127023312,
                -1.273429681225849,
                2.228151058413227,
                -0.9206324177946004,
                0.7586440673350421,
                -3.1332142796307796
            ]
        },
        {
            "positions": [
                -0.20617110058165367,
                -1.306915834712556,
                2.2923017853351704,
                -0.9556725179664167,
                0.9159084383615863,
                -3.118395455515034
            ]
        },
        {
            "positions": [
                -0.27196762989307416,
                -1.3404019881992628,
                2.356452512257113,
                -0.9907126181382331,
                1.0731728093881303,
                -3.1035766313992887
            ]
        },
        {
            "positions": [
                -0.3377641592044947,
                -1.3738881416859698,
                2.4206032391790564,
                -1.0257527183100494,
                1.2304371804146745,
                -3.0887578072835433
            ]
        }
    ]
}