{
    "goal": {
        "global_pose": {
            "orientation": {
                "w": 0.7047431468963623,
                "x": -0.7094548344612122,
                "y": 0.0024358443915843964,
                "z": -0.0022348060738295317
            },
            "position": {
                "x": 0.6094750761985779,
                "y": 0.3671506643295288,
                "z": 0.19426114857196808
            }
        },
        "name": "move_to_magneteinheit_A"
    },
    "id": "SPARS_move_to_magneteinheit_A_53",
    "joint_names": [
        "shoulder_pan_joint",
        "shoulder_lift_joint",
        "elbow_joint",
        "wrist_1_joint",
        "wrist_2_joint",
        "wrist_3_joint"
    ],
    "metrics": {
        "cart_traj_len": 3.5447850085786374,
        "distance_elbow_joint": 3.873746940337713,
        "distance_shoulder_lift_joint": 0.18137490193286965,
        "distance_shoulder_pan_joint": 3.179514485276904,
        "distance_wrist_1_joint": 0.832659232742098,
        "distance_wrist_2_joint": 1.6918376929624281,
        "distance_wrist_3_joint": 2.5922497111769984,
        "smoothness": 0.006113479695852671,
        "time": 5.049782368,
        "traj_len": 3.5144534375104493,
        "weighted_distance": 4.4788814800670425
    },
    "planner": "SPARS",
    "start": {
        "state": {
            "elbow_joint": -1.9196185241190666,
            "shoulder_lift_joint": -1.2443396400964142,
            "shoulder_pan_joint": 2.6996025414629847,
            "wrist_1_joint": -1.5485510000780065,
            "wrist_2_joint": -1.5709468930060704,
            "wrist_3_joint": 0.4420197071253992
        }
    },
    "waypoints": [
        {
            "positions": [
                2.6996025414629847,
                -1.2443396400964142,
                -1.9196185241190666,
                -1.5485510000780065,
                -1.5709468930060704,
                0.4420197071253992
            ]
        },
        {
            "positions": [
                2.5088303223523045,
                -1.234451027408172,
                -1.7821423714231917,
                -1.5197454429035333,
                -1.5640324618027204,
                0.4584211076973812
            ]
        },
        {
            "positions": [
                2.318058103241624,
                -1.2245624147199294,
                -1.6446662187273164,
                -1.4909398857290599,
                -1.5571180305993704,
                0.47482250826936323
            ]
        },
        {
            "positions": [
                2.1272858841309437,
                -1.2146738020316872,
                -1.5071900660314412,
                -1.4621343285545867,
                -1.5502035993960206,
                0.49122390884134526
            ]
        },
        {
            "positions": [
                1.9365136650202632,
                -1.2047851893434447,
                -1.3697139133355662,
                -1.4333287713801135,
                -1.5432891681926706,
                0.5076253094133273
            ]
        },
        {
            "positions": [
                1.7457414459095828,
                -1.1948965766552024,
                -1.2322377606396913,
                -1.4045232142056403,
                -1.5363747369893206,
                0.5240267099853093
            ]
        },
        {
            "positions": [
                1.5549692267989024,
                -1.18500796396696,
                -1.0947616079438158,
                -1.3757176570311669,
                -1.5294603057859706,
                0.5404281105572913
            ]
        },
        {
            "positions": [
                1.364197007688222,
                -1.1751193512787177,
                -0.9572854552479408,
                -1.3469120998566937,
                -1.5225458745826206,
                0.5568295111292734
            ]
        },
        {
            "positions": [
                1.1734247885775417,
                -1.1652307385904752,
                -0.8198093025520659,
                -1.3181065426822205,
                -1.5156314433792708,
                0.5732309117012554
            ]
        },
        {
            "positions": [
                0.9826525694668613,
                -1.155342125902233,
                -0.6823331498561906,
                -1.2893009855077473,
                -1.5087170121759208,
                0.5896323122732374
            ]
        },
        {
            "positions": [
                0.7918803503561809,
                -1.1454535132139905,
                -0.5448569971603157,
                -1.2604954283332739,
                -1.5018025809725708,
                0.6060337128452195
            ]
        },
        {
            "positions": [
                0.6011081312455007,
                -1.1355649005257482,
                -0.4073808444644407,
                -1.2316898711588007,
                -1.4948881497692208,
                0.6224351134172015
            ]
        },
        {
            "positions": [
                0.41033591213482,
                -1.1256762878375057,
                -0.26990469176856524,
                -1.2028843139843275,
                -1.4879737185658708,
                0.6388365139891835
            ]
        },
        {
            "positions": [
                0.2195636930241398,
                -1.1157876751492635,
                -0.13242853907269025,
                -1.174078756809854,
                -1.481059287362521,
                0.6552379145611655
            ]
        },
        {
            "positions": [
                0.028791473913459154,
                -1.1058990624610212,
                0.0050476136231849544,
                -1.1452731996353809,
                -1.474144856159171,
                0.6716393151331476
            ]
        },
        {
            "positions": [
                -0.16198074519722094,
                -1.0960104497727787,
                0.14252376631906002,
                -1.1164676424609077,
                -1.467230424955821,
                0.6880407157051296
            ]
        },
        {
            "positions": [
                -0.16336512990742974,
                -1.0970348685888165,
                0.26440569787272394,
                -1.0896715529792178,
                -1.3713705550459232,
                0.8302586433781434
            ]
        },
        {
            "positions": [
                -0.16474951461763854,
                -1.0980592874048545,
                0.38628762942638784,
                -1.0628754634975282,
                -1.2755106851360254,
                0.9724765710511571
            ]
        },
        {
            "positions": [
                -0.16613389932784733,
                -1.0990837062208922,
                0.5081695609800517,
                -1.0360793740158383,
                -1.1796508152261276,
                1.114694498724171
            ]
        },
        {
            "positions": [
                -0.16751828403805613,
                -1.10010812503693,
                0.6300514925337156,
                -1.0092832845341486,
                -1.0837909453162298,
                1.2569124263971845
            ]
        },
        {
            "positions": [
                -0.16890266874826493,
                -1.101132543852968,
                0.7519334240873795,
                -0.9824871950524587,
                -0.987931075406332,
                1.3991303540701985
            ]
        },
        {
            "positions": [
                -0.17028705345847372,
                -1.1021569626690058,
                0.8738153556410434,
                -0.955691105570769,
                -0.8920712054964343,
                1.541348281743212
            ]
        },
        {
            "positions": [
                -0.1716714381686825,
                -1.1031813814850435,
                0.9956972871947073,
                -0.9288950160890792,
                -0.7962113355865365,
                1.683566209416226
            ]
        },
        {
            "positions": [
                -0.1730558228788913,
                -1.1042058003010815,
                1.117579218748371,
                -0.9020989266073894,
                -0.7003514656766388,
                1.8257841370892396
            ]
        },
        {
            "positions": [
                -0.1744402075891001,
                -1.1052302191171193,
                1.239461150302035,
                -0.8753028371256997,
                -0.6044915957667409,
                1.9680020647622534
            ]
        },
        {
            "positions": [
                -0.17582459229930889,
                -1.106254637933157,
                1.3613430818556989,
                -0.8485067476440098,
                -0.508631725856843,
                2.110219992435267
            ]
        },
        {
            "positions": [
                -0.17720897700951768,
                -1.107279056749195,
                1.4832250134093627,
                -0.8217106581623201,
                -0.4127718559469453,
                2.2524379201082807
            ]
        },
        {
            "positions": [
                -0.17859336171972648,
                -1.1083034755652328,
                1.6051069449630266,
                -0.7949145686806303,
                -0.3169119860370475,
                2.3946558477812947
            ]
        },
        {
            "positions": [
                -0.11832964530088794,
                -1.112454012728589,
                1.674911239214151,
                -0.7791100084116859,
                -0.22935142883836646,
                2.522578561885515
            ]
        },
        {
            "positions": [
                -0.058065928882049395,
                -1.1166045498919448,
                1.7447155334652753,
                -0.7633054481427416,
                -0.1417908716396854,
                2.6505012759897357
            ]
        },
        {
            "positions": [
                0.0021977875367891475,
                -1.120755087055301,
                1.8145198277163994,
                -0.7475008878737972,
                -0.054230314441004346,
                2.7784239900939567
            ]
        },
        {
            "positions": [
                0.06246150395562769,
                -1.1249056242186568,
                1.8843241219675237,
                -0.7316963276048529,
                0.03333024275767671,
                2.906346704198177
            ]
        },
        {
            "positions": [
                0.12272522037446626,
                -1.129056161382013,
                1.954128416218648,
                -0.7158917673359085,
                0.12089079995635778,
                3.0342694183023977
            ]
        }
    ]
}