{
    "goal": {
        "global_pose": {
            "orientation": {
                "w": 0.5084816262002911,
                "x": -0.4908360881923452,
                "y": 0.5182115481033761,
                "z": -0.48164630358495003
            },
            "position": {
                "x": 0.5540239810943604,
                "y": -0.46912469901144505,
                "z": 0.16403168439865112
            }
        },
        "name": "move_to_storage_B"
    },
    "id": "SPARS_move_to_storage_B_16",
    "joint_names": [
        "shoulder_pan_joint",
        "shoulder_lift_joint",
        "elbow_joint",
        "wrist_1_joint",
        "wrist_2_joint",
        "wrist_3_joint"
    ],
    "metrics": {
        "cart_traj_len": 1.5293606089430698,
        "distance_elbow_joint": 0.3484635282872106,
        "distance_shoulder_lift_joint": 1.0906766667850225,
        "distance_shoulder_pan_joint": 1.3380925888130357,
        "distance_wrist_1_joint": 2.9822534445802744,
        "distance_wrist_2_joint": 2.7003288319522785,
        "distance_wrist_3_joint": 3.9028875574864133,
        "smoothness": 0.23174191054861173,
        "time": 5.03024328,
        "traj_len": 3.5160635116425634,
        "weighted_distance": 5.084393770097829
    },
    "planner": "SPARS",
    "start": {
        "state": {
            "elbow_joint": 1.664937868594044,
            "shoulder_lift_joint": -0.661644460510453,
            "shoulder_pan_joint": -0.9139846352900073,
            "wrist_1_joint": 2.146753192139373,
            "wrist_2_joint": -2.2341966793290973,
            "wrist_3_joint": 0.005466555786416001
        }
    },
    "waypoints": [
        {
            "positions": [
                -0.9139846352900073,
                -0.661644460510453,
                1.664937868594044,
                2.146753192139373,
                -2.2341966793290973,
                0.005466555786416001
            ]
        },
        {
            "positions": [
                -0.8497272797029447,
                -0.7477656757417781,
                1.6986150653735204,
                2.067037760914971,
                -2.184084233946409,
                -0.036758482386898904
            ]
        },
        {
            "positions": [
                -0.785469924115882,
                -0.8338868909731032,
                1.732292262152997,
                1.9873223296905687,
                -2.1339717885637204,
                -0.07898352056021381
            ]
        },
        {
            "positions": [
                -0.7212125685288194,
                -0.9200081062044283,
                1.7659694589324735,
                1.9076068984661663,
                -2.083859343181032,
                -0.1212085587335287
            ]
        },
        {
            "positions": [
                -0.6569552129417568,
                -1.0061293214357534,
                1.79964665571195,
                1.827891467241764,
                -2.0337468977983435,
                -0.16343359690684361
            ]
        },
        {
            "positions": [
                -0.5926978573546942,
                -1.0922505366670787,
                1.8333238524914266,
                1.7481760360173615,
                -1.983634452415655,
                -0.20565863508015853
            ]
        },
        {
            "positions": [
                -0.5284405017676316,
                -1.1783717518984038,
                1.867001049270903,
                1.6684606047929593,
                -1.9335220070329666,
                -0.2478836732534734
            ]
        },
        {
            "positions": [
                -0.46418314618056894,
                -1.264492967129729,
                1.9006782460503795,
                1.5887451735685572,
                -1.883409561650278,
                -0.2901087114267883
            ]
        },
        {
            "positions": [
                -0.3999257905935064,
                -1.350614182361054,
                1.934355442829856,
                1.5090297423441548,
                -1.8332971162675895,
                -0.3323337496001032
            ]
        },
        {
            "positions": [
                -0.3356684350064438,
                -1.4367353975923791,
                1.9680326396093326,
                1.4293143111197524,
                -1.783184670884901,
                -0.3745587877734181
            ]
        },
        {
            "positions": [
                -0.3673257845285051,
                -1.4235859921880833,
                1.9699230044956626,
                1.3349470376380586,
                -1.6894631365720643,
                -0.227772862193144
            ]
        },
        {
            "positions": [
                -0.39898313405056646,
                -1.4104365867837878,
                1.9718133693819928,
                1.2405797641563645,
                -1.5957416022592275,
                -0.08098693661286988
            ]
        },
        {
            "positions": [
                -0.43064048357262785,
                -1.397287181379492,
                1.9737037342683228,
                1.1462124906746707,
                -1.5020200679463906,
                0.06579898896740427
            ]
        },
        {
            "positions": [
                -0.4622978330946892,
                -1.3841377759751965,
                1.975594099154653,
                1.0518452171929769,
                -1.408298533633554,
                0.21258491454767836
            ]
        },
        {
            "positions": [
                -0.49395518261675053,
                -1.3709883705709007,
                1.977484464040983,
                0.9574779437112828,
                -1.3145769993207173,
                0.3593708401279525
            ]
        },
        {
            "positions": [
                -0.5256125321388119,
                -1.357838965166605,
                1.979374828927313,
                0.863110670229589,
                -1.2208554650078804,
                0.5061567657082267
            ]
        },
        {
            "positions": [
                -0.5572698816608732,
                -1.3446895597623094,
                1.9812651938136432,
                0.768743396747895,
                -1.1271339306950436,
                0.6529426912885009
            ]
        },
        {
            "positions": [
                -0.5889272311829346,
                -1.3315401543580137,
                1.9831555586999732,
                0.6743761232662012,
                -1.0334123963822068,
                0.7997286168687748
            ]
        },
        {
            "positions": [
                -0.6205845807049959,
                -1.3183907489537179,
                1.9850459235863034,
                0.5800088497845073,
                -0.9396908620693701,
                0.946514542449049
            ]
        },
        {
            "positions": [
                -0.6522419302270572,
                -1.3052413435494223,
                1.9869362884726334,
                0.48564157630281335,
                -0.8459693277565333,
                1.093300468029323
            ]
        },
        {
            "positions": [
                -0.6838992797491186,
                -1.2920919381451266,
                1.9888266533589636,
                0.39127430282111963,
                -0.7522477934436966,
                1.2400863936095972
            ]
        },
        {
            "positions": [
                -0.7155566292711799,
                -1.2789425327408308,
                1.9907170182452936,
                0.2969070293394256,
                -0.6585262591308598,
                1.3868723191898713
            ]
        },
        {
            "positions": [
                -0.7472139787932413,
                -1.2657931273365353,
                1.9926073831316236,
                0.20253975585773176,
                -0.5648047248180232,
                1.5336582447701455
            ]
        },
        {
            "positions": [
                -0.7788713283153027,
                -1.2526437219322395,
                1.9944977480179538,
                0.10817248237603772,
                -0.4710831905051862,
                1.68044417035042
            ]
        },
        {
            "positions": [
                -0.8105286778373639,
                -1.239494316527944,
                1.9963881129042838,
                0.01380520889434389,
                -0.3773616561923496,
                1.8272300959306937
            ]
        },
        {
            "positions": [
                -0.8421860273594253,
                -1.2263449111236482,
                1.998278477790614,
                -0.08056206458734994,
                -0.2836401218795128,
                1.9740160215109679
            ]
        },
        {
            "positions": [
                -0.8738433768814868,
                -1.2131955057193524,
                2.000168842676944,
                -0.17492933806904398,
                -0.1899185875666758,
                2.1208019470912425
            ]
        },
        {
            "positions": [
                -0.9055007264035482,
                -1.2000461003150569,
                2.002059207563274,
                -0.2692966115507378,
                -0.0961970532538392,
                2.267587872671516
            ]
        },
        {
            "positions": [
                -0.9371580759256093,
                -1.186896694910761,
                2.003949572449604,
                -0.36366388503243163,
                -0.002475518941002619,
                2.4143737982517903
            ]
        },
        {
            "positions": [
                -0.9688154254476709,
                -1.1737472895064656,
                2.005839937335934,
                -0.4580311585141257,
                0.09124601537183441,
                2.5611597238320645
            ]
        },
        {
            "positions": [
                -1.0004727749697322,
                -1.1605978841021698,
                2.007730302222264,
                -0.5523984319958195,
                0.18496754968467122,
                2.7079456494123386
            ]
        },
        {
            "positions": [
                -1.0321301244917935,
                -1.147448478697874,
                2.0096206671085945,
                -0.6467657054775131,
                0.2786890839975078,
                2.8547315749926128
            ]
        },
        {
            "positions": [
                -1.0637874740138549,
                -1.1342990732935783,
                2.0115110319949245,
                -0.7411329789592074,
                0.37241061831034483,
                3.001517500572887
            ]
        },
        {
            "positions": [
                -1.0954448235359162,
                -1.1211496678892827,
                2.0134013968812545,
                -0.8355002524409013,
                0.46613215262318136,
                3.148303426153161
            ]
        }
    ]
}