{
    "goal": {
        "global_pose": {
            "orientation": {
                "w": 0.005598929693374612,
                "x": 0.007748599140229565,
                "y": 0.7110244013736278,
                "z": -0.7031023480610252
            },
            "position": {
                "x": -0.8858502320852131,
                "y": -0.7141253447532654,
                "z": 0.3711530566215515
            }
        },
        "name": "move_to_auspresseinheit_C"
    },
    "id": "SPARS_move_to_auspresseinheit_C_97",
    "joint_names": [
        "shoulder_pan_joint",
        "shoulder_lift_joint",
        "elbow_joint",
        "wrist_1_joint",
        "wrist_2_joint",
        "wrist_3_joint"
    ],
    "metrics": {
        "cart_traj_len": 0.49196078184227066,
        "distance_elbow_joint": 0.9857183427907864,
        "distance_shoulder_lift_joint": 0.31753456967300164,
        "distance_shoulder_pan_joint": 0.25638679646847917,
        "distance_wrist_1_joint": 0.6566837740448799,
        "distance_wrist_2_joint": 1.303109002695225,
        "distance_wrist_3_joint": 0.05101438670675629,
        "smoothness": 8.074349282788172e-16,
        "time": 5.021777534,
        "traj_len": 1.8895626140403838,
        "weighted_distance": 2.3732400684576236
    },
    "planner": "SPARS",
    "start": {
        "state": {
            "elbow_joint": 1.7527959577737207,
            "shoulder_lift_joint": -0.9740617694225068,
            "shoulder_pan_joint": -2.967991417825858,
            "wrist_1_joint": -0.759517768980727,
            "wrist_2_joint": 1.7443932448377408,
            "wrist_3_joint": -3.0840537646736568
        }
    },
    "waypoints": [
        {
            "positions": [
                -2.967991417825858,
                -0.9740617694225068,
                1.7527959577737207,
                -0.759517768980727,
                1.7443932448377408,
                -3.0840537646736568
            ]
        },
        {
            "positions": [
                -2.94235273817901,
                -0.9423083124552066,
                1.654224123494642,
                -0.693849391576239,
                1.6140823445682184,
                -3.0891552033443324
            ]
        },
        {
            "positions": [
                -2.916714058532162,
                -0.9105548554879065,
                1.5556522892155633,
                -0.628181014171751,
                1.4837714442986958,
                -3.094256642015008
            ]
        },
        {
            "positions": [
                -2.891075378885314,
                -0.8788013985206062,
                1.4570804549364849,
                -0.562512636767263,
                1.3534605440291734,
                -3.0993580806856835
            ]
        },
        {
            "positions": [
                -2.865436699238466,
                -0.8470479415533061,
                1.358508620657406,
                -0.49684425936277504,
                1.2231496437596507,
                -3.104459519356359
            ]
        },
        {
            "positions": [
                -2.839798019591618,
                -0.815294484586006,
                1.2599367863783275,
                -0.43117588195828704,
                1.0928387434901283,
                -3.1095609580270347
            ]
        },
        {
            "positions": [
                -2.8141593399447706,
                -0.7835410276187058,
                1.1613649520992488,
                -0.36550750455379905,
                0.9625278432206058,
                -3.1146623966977107
            ]
        },
        {
            "positions": [
                -2.7885206602979227,
                -0.7517875706514057,
                1.0627931178201702,
                -0.2998391271493111,
                0.8322169429510834,
                -3.1197638353683863
            ]
        },
        {
            "positions": [
                -2.7628819806510747,
                -0.7200341136841055,
                0.9642212835410915,
                -0.2341707497448231,
                0.7019060426815609,
                -3.124865274039062
            ]
        },
        {
            "positions": [
                -2.7372433010042267,
                -0.6882806567168053,
                0.8656494492620129,
                -0.16850237234033505,
                0.5715951424120382,
                -3.1299667127097375
            ]
        },
        {
            "positions": [
                -2.711604621357379,
                -0.6565271997495051,
                0.7670776149829343,
                -0.10283399493584705,
                0.4412842421425157,
                -3.135068151380413
            ]
        }
    ]
}