{
    "goal": {
        "global_pose": {
            "orientation": {
                "w": 0.005598929693374612,
                "x": 0.007748599140229565,
                "y": 0.7110244013736278,
                "z": -0.7031023480610252
            },
            "position": {
                "x": 0.1141497679147869,
                "y": -0.7141253447532654,
                "z": 0.3711530566215515
            }
        },
        "name": "move_to_auspresseinheit_B"
    },
    "id": "SPARS_move_to_auspresseinheit_B_116",
    "joint_names": [
        "shoulder_pan_joint",
        "shoulder_lift_joint",
        "elbow_joint",
        "wrist_1_joint",
        "wrist_2_joint",
        "wrist_3_joint"
    ],
    "metrics": {
        "cart_traj_len": 0.5646583672223862,
        "distance_elbow_joint": 0.06437494805687383,
        "distance_shoulder_lift_joint": 0.29399798902592966,
        "distance_shoulder_pan_joint": 0.5772445726978146,
        "distance_wrist_1_joint": 0.33262316747664433,
        "distance_wrist_2_joint": 0.9917565588195432,
        "distance_wrist_3_joint": 0.00022294864616689836,
        "smoothness": 5.075305295617109e-16,
        "time": 5.054150784,
        "traj_len": 1.503402868403201,
        "weighted_distance": 1.893421719615441
    },
    "planner": "SPARS",
    "start": {
        "state": {
            "elbow_joint": 2.0193083361928714,
            "shoulder_lift_joint": -1.1220246554650708,
            "shoulder_pan_joint": -1.0952077554168747,
            "wrist_1_joint": -0.8559753972642168,
            "wrist_2_joint": 0.4759566250798843,
            "wrist_3_joint": -3.1240929996934557
        }
    },
    "waypoints": [
        {
            "positions": [
                -1.0952077554168747,
                -1.1220246554650708,
                2.0193083361928714,
                -0.8559753972642168,
                0.4759566250798843,
                -3.1240929996934557
            ]
        },
        {
            "positions": [
                -1.1914151841998437,
                -1.1710243203027257,
                2.0085791781833926,
                -0.800538202684776,
                0.6412493848831415,
                -3.12413015780115
            ]
        },
        {
            "positions": [
                -1.2876226129828128,
                -1.2200239851403807,
                1.9978500201739136,
                -0.7451010081053353,
                0.8065421446863987,
                -3.1241673159088448
            ]
        },
        {
            "positions": [
                -1.383830041765782,
                -1.2690236499780356,
                1.9871208621644345,
                -0.6896638135258946,
                0.9718349044896559,
                -3.124204474016539
            ]
        },
        {
            "positions": [
                -1.480037470548751,
                -1.3180233148156906,
                1.9763917041549555,
                -0.6342266189464539,
                1.1371276642929131,
                -3.1242416321242334
            ]
        },
        {
            "positions": [
                -1.5762448993317202,
                -1.3670229796533455,
                1.9656625461454766,
                -0.5787894243670131,
                1.3024204240961703,
                -3.1242787902319282
            ]
        },
        {
            "positions": [
                -1.6724523281146892,
                -1.4160226444910005,
                1.9549333881359976,
                -0.5233522297875725,
                1.4677131838994275,
                -3.1243159483396226
            ]
        }
    ]
}