{
    "goal": {
        "global_pose": {
            "orientation": {
                "w": 0.7031023502349854,
                "x": -0.7110244035720825,
                "y": 0.007748599164187908,
                "z": 0.005598929710686207
            },
            "position": {
                "x": 0.11585023208521307,
                "y": 0.44412534475326537,
                "z": 0.3711530566215515
            }
        },
        "name": "move_to_auspresseinheit_A"
    },
    "id": "SPARStwo_move_to_auspresseinheit_A_115",
    "joint_names": [
        "shoulder_pan_joint",
        "shoulder_lift_joint",
        "elbow_joint",
        "wrist_1_joint",
        "wrist_2_joint",
        "wrist_3_joint"
    ],
    "metrics": {
        "cart_traj_len": 1.6470006864314308,
        "distance_elbow_joint": 0.34921073464040875,
        "distance_shoulder_lift_joint": 0.532340573682067,
        "distance_shoulder_pan_joint": 4.834671182393626,
        "distance_wrist_1_joint": 1.9818467668016917,
        "distance_wrist_2_joint": 2.879536511895546,
        "distance_wrist_3_joint": 0.913519601800652,
        "smoothness": 0.9142486636135659,
        "time": 5.0159285979999995,
        "traj_len": 3.3898562463936415,
        "weighted_distance": 4.263748099209489
    },
    "planner": "SPARStwo",
    "start": {
        "state": {
            "elbow_joint": 2.4225746658250005,
            "shoulder_lift_joint": -1.3736534386056498,
            "shoulder_pan_joint": -0.3378633547517467,
            "wrist_1_joint": -1.0288598680537169,
            "wrist_2_joint": 1.233022673432363,
            "wrist_3_joint": -3.0940220416140027
        }
    },
    "waypoints": [
        {
            "positions": [
                -0.3378633547517467,
                -1.3736534386056498,
                2.4225746658250005,
                -1.0288598680537169,
                1.233022673432363,
                -3.0940220416140027
            ]
        },
        {
            "positions": [
                -0.46412880448872346,
                -1.3842044209717272,
                2.4331932308000184,
                -0.9440363554253481,
                1.1197099422330339,
                -3.065214129316056
            ]
        },
        {
            "positions": [
                -0.5903942542257001,
                -1.394755403337805,
                2.443811795775036,
                -0.8592128427969794,
                1.0063972110337047,
                -3.03640621701811
            ]
        },
        {
            "positions": [
                -0.716659703962677,
                -1.4053063857038823,
                2.4544303607500537,
                -0.7743893301686107,
                0.8930844798343756,
                -3.0075983047201635
            ]
        },
        {
            "positions": [
                -0.8429251536996536,
                -1.4158573680699598,
                2.465048925725071,
                -0.6895658175402419,
                0.7797717486350464,
                -2.978790392422217
            ]
        },
        {
            "positions": [
                -0.9691906034366304,
                -1.4264083504360372,
                2.475667490700089,
                -0.6047423049118733,
                0.6664590174357172,
                -2.949982480124271
            ]
        },
        {
            "positions": [
                -1.0954560531736073,
                -1.4369593328021149,
                2.4862860556751065,
                -0.5199187922835046,
                0.5531462862363881,
                -2.9211745678263243
            ]
        },
        {
            "positions": [
                -1.221721502910584,
                -1.4475103151681923,
                2.4969046206501244,
                -0.43509527965513584,
                0.4398335550370589,
                -2.892366655528378
            ]
        },
        {
            "positions": [
                -1.3479869526475605,
                -1.4580612975342697,
                2.507523185625142,
                -0.3502717670267671,
                0.32652082383772973,
                -2.8635587432304317
            ]
        },
        {
            "positions": [
                -1.4742524023845374,
                -1.4686122799003472,
                2.5181417506001598,
                -0.26544825439839836,
                0.21320809263840057,
                -2.834750830932485
            ]
        },
        {
            "positions": [
                -1.600517852121514,
                -1.4791632622664248,
                2.528760315575177,
                -0.18062474177002974,
                0.0998953614390714,
                -2.8059429186345386
            ]
        },
        {
            "positions": [
                -1.7267833018584906,
                -1.4897142446325022,
                2.539378880550195,
                -0.095801229141661,
                -0.013417369760257758,
                -2.7771350063365925
            ]
        },
        {
            "positions": [
                -1.8530487515954677,
                -1.5002652269985797,
                2.5499974455252126,
                -0.010977716513292268,
                -0.12673010095958692,
                -2.748327094038646
            ]
        },
        {
            "positions": [
                -1.9793142013324443,
                -1.5108162093646573,
                2.5606160105002305,
                0.07384579611507647,
                -0.2400428321589161,
                -2.7195191817406994
            ]
        },
        {
            "positions": [
                -2.105579651069421,
                -1.5213671917307348,
                2.5712345754752484,
                0.1586693087434452,
                -0.35335556335824525,
                -2.6907112694427533
            ]
        },
        {
            "positions": [
                -2.2318451008063978,
                -1.5319181740968122,
                2.581853140450266,
                0.24349282137181402,
                -0.4666682945575745,
                -2.6619033571448067
            ]
        },
        {
            "positions": [
                -2.0357991383837994,
                -1.5568565633095393,
                2.5691909897825895,
                0.19619321621340322,
                -0.3880119249638674,
                -2.6939967516335703
            ]
        },
        {
            "positions": [
                -1.8397531759612011,
                -1.581794952522266,
                2.5565288391149132,
                0.1488936110549924,
                -0.30935555537016024,
                -2.7260901461223344
            ]
        },
        {
            "positions": [
                -1.6437072135386026,
                -1.6067333417349932,
                2.543866688447237,
                0.1015940058965816,
                -0.2306991857764531,
                -2.758183540611098
            ]
        },
        {
            "positions": [
                -1.4476612511160043,
                -1.63167173094772,
                2.531204537779561,
                0.054294400738170795,
                -0.152042816182746,
                -2.7902769350998615
            ]
        },
        {
            "positions": [
                -1.251615288693406,
                -1.656610120160447,
                2.518542387111885,
                0.006994795579759988,
                -0.07338644658903887,
                -2.8223703295886255
            ]
        },
        {
            "positions": [
                -1.0555693262708075,
                -1.6815485093731741,
                2.5058802364442085,
                -0.04030480957865082,
                0.005269923004668331,
                -2.854463724077389
            ]
        },
        {
            "positions": [
                -0.8595233638482092,
                -1.706486898585901,
                2.4932180857765323,
                -0.08760441473706163,
                0.08392629259837547,
                -2.8865571185661527
            ]
        },
        {
            "positions": [
                -0.6634774014256108,
                -1.731425287798628,
                2.480555935108856,
                -0.13490401989547243,
                0.1625826621920825,
                -2.9186505130549167
            ]
        },
        {
            "positions": [
                -0.46743143900301254,
                -1.7563636770113549,
                2.4678937844411797,
                -0.18220362505388324,
                0.24123903178578965,
                -2.9507439075436803
            ]
        },
        {
            "positions": [
                -0.27138547658041423,
                -1.781302066224082,
                2.4552316337735034,
                -0.22950323021229405,
                0.3198954013794968,
                -2.982837302032444
            ]
        },
        {
            "positions": [
                -0.07533951415781592,
                -1.806240455436809,
                2.442569483105827,
                -0.2768028353707048,
                0.39855177097320393,
                -3.014930696521208
            ]
        },
        {
            "positions": [
                0.12070644826478283,
                -1.8311788446495358,
                2.4299073324381513,
                -0.32410244052911563,
                0.4772081405669112,
                -3.0470240910099715
            ]
        },
        {
            "positions": [
                0.31675241068738114,
                -1.856117233862263,
                2.417245181770475,
                -0.37140204568752644,
                0.5558645101606182,
                -3.079117485498735
            ]
        },
        {
            "positions": [
                0.5127983731099794,
                -1.8810556230749897,
                2.4045830311027987,
                -0.41870165084593725,
                0.6345208797543255,
                -3.111210879987499
            ]
        },
        {
            "positions": [
                0.7088443355325775,
                -1.9059940122877168,
                2.3919208804351224,
                -0.4660012560043481,
                0.7131772493480324,
                -3.1433042744762627
            ]
        }
    ]
}