{
    "goal": {
        "global_pose": {
            "orientation": {
                "w": 0.005598929693374612,
                "x": 0.007748599140229565,
                "y": 0.7110244013736278,
                "z": -0.7031023480610252
            },
            "position": {
                "x": 0.1141497679147869,
                "y": -0.7141253447532654,
                "z": 0.3711530566215515
            }
        },
        "name": "move_to_auspresseinheit_B"
    },
    "id": "SPARS_move_to_auspresseinheit_B_63",
    "joint_names": [
        "shoulder_pan_joint",
        "shoulder_lift_joint",
        "elbow_joint",
        "wrist_1_joint",
        "wrist_2_joint",
        "wrist_3_joint"
    ],
    "metrics": {
        "cart_traj_len": 0.5646750700549905,
        "distance_elbow_joint": 0.0593053142630664,
        "distance_shoulder_lift_joint": 0.29670859281840944,
        "distance_shoulder_pan_joint": 0.5770287908912379,
        "distance_wrist_1_joint": 0.31800248972184586,
        "distance_wrist_2_joint": 0.9958579733205704,
        "distance_wrist_3_joint": 0.0036201554655344026,
        "smoothness": 0.0,
        "time": 5.0190266789999995,
        "traj_len": 1.5001744286850993,
        "weighted_distance": 1.889874093809995
    },
    "planner": "SPARS",
    "start": {
        "state": {
            "elbow_joint": 2.0193083361928714,
            "shoulder_lift_joint": -1.1220246554650708,
            "shoulder_pan_joint": -1.0952077554168747,
            "wrist_1_joint": -0.8559753972642168,
            "wrist_2_joint": 0.4759566250798843,
            "wrist_3_joint": -3.1240929996934557
        }
    },
    "waypoints": [
        {
            "positions": [
                -1.0952077554168747,
                -1.1220246554650708,
                2.0193083361928714,
                -0.8559753972642168,
                0.4759566250798843,
                -3.1240929996934557
            ]
        },
        {
            "positions": [
                -1.1913792205654143,
                -1.1714760876014725,
                2.009424117149027,
                -0.8029749823105758,
                0.6419329539666461,
                -3.1246963589377112
            ]
        },
        {
            "positions": [
                -1.287550685713954,
                -1.220927519737874,
                1.9995398981051826,
                -0.7499745673569348,
                0.8079092828534078,
                -3.1252997181819673
            ]
        },
        {
            "positions": [
                -1.3837221508624937,
                -1.2703789518742754,
                1.9896556790613382,
                -0.6969741524032939,
                0.9738856117401695,
                -3.125903077426223
            ]
        },
        {
            "positions": [
                -1.4798936160110332,
                -1.319830384010677,
                1.9797714600174938,
                -0.6439737374496529,
                1.1398619406269312,
                -3.1265064366704785
            ]
        },
        {
            "positions": [
                -1.576065081159573,
                -1.3692818161470788,
                1.9698872409736494,
                -0.5909733224960119,
                1.305838269513693,
                -3.1271097959147345
            ]
        },
        {
            "positions": [
                -1.6722365463081126,
                -1.4187332482834802,
                1.960003021929805,
                -0.5379729075423709,
                1.4718145984004547,
                -3.12771315515899
            ]
        }
    ]
}