{
    "goal": {
        "global_pose": {
            "orientation": {
                "w": 0.7031023502349854,
                "x": -0.7110244035720825,
                "y": 0.007748599164187908,
                "z": 0.005598929710686207
            },
            "position": {
                "x": 0.11585023208521307,
                "y": 0.44412534475326537,
                "z": 0.3711530566215515
            }
        },
        "name": "move_to_auspresseinheit_A"
    },
    "id": "SPARStwo_move_to_auspresseinheit_A_19",
    "joint_names": [
        "shoulder_pan_joint",
        "shoulder_lift_joint",
        "elbow_joint",
        "wrist_1_joint",
        "wrist_2_joint",
        "wrist_3_joint"
    ],
    "metrics": {
        "cart_traj_len": 3.0801334678468706,
        "distance_elbow_joint": 4.167361245682723,
        "distance_shoulder_lift_joint": 0.531652294975915,
        "distance_shoulder_pan_joint": 2.8310402832617765,
        "distance_wrist_1_joint": 0.6235736087577639,
        "distance_wrist_2_joint": 1.5845219658913492,
        "distance_wrist_3_joint": 0.07206323097371259,
        "smoothness": 0.9970235983018482,
        "time": 5.012394439,
        "traj_len": 3.132125896183492,
        "weighted_distance": 3.487468231559934
    },
    "planner": "SPARStwo",
    "start": {
        "state": {
            "elbow_joint": 2.4225746658250005,
            "shoulder_lift_joint": -1.3736534386056498,
            "shoulder_pan_joint": -0.3378633547517467,
            "wrist_1_joint": -1.0288598680537169,
            "wrist_2_joint": 1.233022673432363,
            "wrist_3_joint": -3.0940220416140027
        }
    },
    "waypoints": [
        {
            "positions": [
                -0.3378633547517467,
                -1.3736534386056498,
                2.4225746658250005,
                -1.0288598680537169,
                1.233022673432363,
                -3.0940220416140027
            ]
        },
        {
            "positions": [
                -0.40669408844959465,
                -1.408562896240454,
                2.2610008968794606,
                -0.9827591141172894,
                1.1515772100371464,
                -3.0930919483014
            ]
        },
        {
            "positions": [
                -0.4755248221474425,
                -1.443472353875258,
                2.0994271279339207,
                -0.936658360180862,
                1.0701317466419296,
                -3.092161854988797
            ]
        },
        {
            "positions": [
                -0.5443555558452905,
                -1.4783818115100622,
                1.9378533589883808,
                -0.8905576062444345,
                0.9886862832467128,
                -3.0912317616761946
            ]
        },
        {
            "positions": [
                -0.6131862895431384,
                -1.5132912691448663,
                1.776279590042841,
                -0.844456852308007,
                0.9072408198514961,
                -3.0903016683635918
            ]
        },
        {
            "positions": [
                -0.6820170232409863,
                -1.5482007267796705,
                1.614705821097301,
                -0.7983560983715796,
                0.8257953564562793,
                -3.089371575050989
            ]
        },
        {
            "positions": [
                -0.7508477569388342,
                -1.5831101844144748,
                1.4531320521517612,
                -0.7522553444351522,
                0.7443498930610626,
                -3.088441481738386
            ]
        },
        {
            "positions": [
                -0.8196784906366821,
                -1.618019642049279,
                1.2915582832062213,
                -0.7061545904987248,
                0.662904429665846,
                -3.0875113884257837
            ]
        },
        {
            "positions": [
                -0.8885092243345301,
                -1.652929099684083,
                1.1299845142606815,
                -0.6600538365622972,
                0.5814589662706291,
                -3.086581295113181
            ]
        },
        {
            "positions": [
                -0.9573399580323778,
                -1.6878385573188872,
                0.9684107453151416,
                -0.6139530826258699,
                0.5000135028754125,
                -3.085651201800578
            ]
        },
        {
            "positions": [
                -1.0261706917302258,
                -1.7227480149536913,
                0.8068369763696017,
                -0.5678523286894424,
                0.4185680394801956,
                -3.084721108487975
            ]
        },
        {
            "positions": [
                -1.0950014254280738,
                -1.7576574725884955,
                0.6452632074240618,
                -0.5217515747530149,
                0.337122576084979,
                -3.0837910151753727
            ]
        },
        {
            "positions": [
                -1.1638321591259218,
                -1.7925669302232996,
                0.48368943847852197,
                -0.4756508208165875,
                0.2556771126897621,
                -3.08286092186277
            ]
        },
        {
            "positions": [
                -1.2326628928237695,
                -1.8274763878581037,
                0.32211566953298226,
                -0.42955006688016006,
                0.1742316492945455,
                -3.081930828550167
            ]
        },
        {
            "positions": [
                -1.07130949739129,
                -1.833962166668392,
                0.4943575236488743,
                -0.4315720508455107,
                0.21804256110733983,
                -3.0869284967093233
            ]
        },
        {
            "positions": [
                -0.9099561019588106,
                -1.8404479454786806,
                0.6665993777647663,
                -0.43359403481086134,
                0.26185347292013417,
                -3.0919261648684797
            ]
        },
        {
            "positions": [
                -0.7486027065263311,
                -1.846933724288969,
                0.8388412318806584,
                -0.435616018776212,
                0.30566438473292856,
                -3.096923833027636
            ]
        },
        {
            "positions": [
                -0.5872493110938517,
                -1.8534195030992575,
                1.0110830859965503,
                -0.4376380027415626,
                0.3494752965457229,
                -3.1019215011867924
            ]
        },
        {
            "positions": [
                -0.4258959156613721,
                -1.8599052819095458,
                1.1833249401124424,
                -0.43965998670691325,
                0.3932862083585173,
                -3.106919169345949
            ]
        },
        {
            "positions": [
                -0.2645425202288927,
                -1.8663910607198342,
                1.3555667942283345,
                -0.4416819706722639,
                0.43709712017131164,
                -3.111916837505105
            ]
        },
        {
            "positions": [
                -0.10318912479641318,
                -1.8728768395301227,
                1.5278086483442266,
                -0.44370395463761453,
                0.48090803198410603,
                -3.116914505664262
            ]
        },
        {
            "positions": [
                0.05816427063606611,
                -1.879362618340411,
                1.7000505024601185,
                -0.44572593860296517,
                0.5247189437969003,
                -3.1219121738234183
            ]
        },
        {
            "positions": [
                0.21951766606854584,
                -1.8858483971506996,
                1.8722923565760106,
                -0.4477479225683158,
                0.5685298556096947,
                -3.1269098419825747
            ]
        },
        {
            "positions": [
                0.38087106150102534,
                -1.892334175960988,
                2.0445342106919027,
                -0.44976990653366644,
                0.6123407674224891,
                -3.131907510141731
            ]
        },
        {
            "positions": [
                0.5422244569335046,
                -1.8988199547712765,
                2.2167760648077945,
                -0.4517918904990171,
                0.6561516792352834,
                -3.1369051783008874
            ]
        },
        {
            "positions": [
                0.7035778523659841,
                -1.9053057335815649,
                2.3890179189236864,
                -0.4538138744643677,
                0.6999625910480778,
                -3.141902846460044
            ]
        }
    ]
}