{
    "goal": {
        "global_pose": {
            "orientation": {
                "w": 0.005598929693374612,
                "x": 0.007748599140229565,
                "y": 0.7110244013736278,
                "z": -0.7031023480610252
            },
            "position": {
                "x": -0.8858502320852131,
                "y": -0.7141253447532654,
                "z": 0.3711530566215515
            }
        },
        "name": "move_to_auspresseinheit_C"
    },
    "id": "SPARStwo_move_to_auspresseinheit_C_45",
    "joint_names": [
        "shoulder_pan_joint",
        "shoulder_lift_joint",
        "elbow_joint",
        "wrist_1_joint",
        "wrist_2_joint",
        "wrist_3_joint"
    ],
    "metrics": {
        "cart_traj_len": 0.4939479728102492,
        "distance_elbow_joint": 1.0161227919891576,
        "distance_shoulder_lift_joint": 0.3318587466660725,
        "distance_shoulder_pan_joint": 0.2556895689089207,
        "distance_wrist_1_joint": 0.711378759085035,
        "distance_wrist_2_joint": 1.3153395926112506,
        "distance_wrist_3_joint": 0.077589372542473,
        "smoothness": 1.6148698667872622e-16,
        "time": 5.0138894810000005,
        "traj_len": 1.9256112878260008,
        "weighted_distance": 2.4269066583995644
    },
    "planner": "SPARStwo",
    "start": {
        "state": {
            "elbow_joint": 1.7527959577737207,
            "shoulder_lift_joint": -0.9740617694225068,
            "shoulder_pan_joint": -2.967991417825858,
            "wrist_1_joint": -0.759517768980727,
            "wrist_2_joint": 1.7443932448377408,
            "wrist_3_joint": -3.0840537646736568
        }
    },
    "waypoints": [
        {
            "positions": [
                -2.967991417825858,
                -0.9740617694225068,
                1.7527959577737207,
                -0.759517768980727,
                1.7443932448377408,
                -3.0840537646736568
            ]
        },
        {
            "positions": [
                -2.942422460934966,
                -0.9408758947558995,
                1.6511836785748049,
                -0.6883798930722235,
                1.6128592855766157,
                -3.0918127019279042
            ]
        },
        {
            "positions": [
                -2.9168535040440737,
                -0.9076900200892922,
                1.549571399375889,
                -0.61724201716372,
                1.4813253263154906,
                -3.0995716391821513
            ]
        },
        {
            "positions": [
                -2.8912845471531816,
                -0.8745041454226851,
                1.4479591201769735,
                -0.5461041412552164,
                1.3497913670543658,
                -3.1073305764363988
            ]
        },
        {
            "positions": [
                -2.8657155902622895,
                -0.8413182707560778,
                1.3463468409780577,
                -0.474966265346713,
                1.2182574077932404,
                -3.115089513690646
            ]
        },
        {
            "positions": [
                -2.840146633371398,
                -0.8081323960894705,
                1.2447345617791419,
                -0.4038283894382095,
                1.0867234485321156,
                -3.1228484509448933
            ]
        },
        {
            "positions": [
                -2.8145776764805057,
                -0.7749465214228632,
                1.1431222825802263,
                -0.33269051352970597,
                0.9551894892709906,
                -3.1306073881991408
            ]
        },
        {
            "positions": [
                -2.7890087195896136,
                -0.7417606467562561,
                1.0415100033813105,
                -0.2615526376212025,
                0.8236555300098655,
                -3.138366325453388
            ]
        },
        {
            "positions": [
                -2.7634397626987215,
                -0.7085747720896487,
                0.9398977241823946,
                -0.190414761712699,
                0.6921215707487403,
                -3.1461252627076353
            ]
        },
        {
            "positions": [
                -2.7378708058078294,
                -0.6753888974230415,
                0.8382854449834788,
                -0.11927688580419549,
                0.5605876114876154,
                -3.1538841999618823
            ]
        },
        {
            "positions": [
                -2.7123018489169373,
                -0.6422030227564343,
                0.7366731657845632,
                -0.04813900989569197,
                0.4290536522264903,
                -3.1616431372161298
            ]
        }
    ]
}