{
    "goal": {
        "global_pose": {
            "orientation": {
                "w": 0.005598929693374612,
                "x": 0.007748599140229565,
                "y": 0.7110244013736278,
                "z": -0.7031023480610252
            },
            "position": {
                "x": -0.8858502320852131,
                "y": -0.7141253447532654,
                "z": 0.3711530566215515
            }
        },
        "name": "move_to_auspresseinheit_C"
    },
    "id": "SPARS_move_to_auspresseinheit_C_62",
    "joint_names": [
        "shoulder_pan_joint",
        "shoulder_lift_joint",
        "elbow_joint",
        "wrist_1_joint",
        "wrist_2_joint",
        "wrist_3_joint"
    ],
    "metrics": {
        "cart_traj_len": 0.493310103303047,
        "distance_elbow_joint": 1.0146635038862337,
        "distance_shoulder_lift_joint": 0.33227530136358063,
        "distance_shoulder_pan_joint": 0.2552450589630375,
        "distance_wrist_1_joint": 0.7047234585065871,
        "distance_wrist_2_joint": 1.3183132200984973,
        "distance_wrist_3_joint": 0.06748557506216946,
        "smoothness": 6.45947944157498e-16,
        "time": 5.019903547,
        "traj_len": 1.9216415164853473,
        "weighted_distance": 2.4188249102838197
    },
    "planner": "SPARS",
    "start": {
        "state": {
            "elbow_joint": 1.7527959577737207,
            "shoulder_lift_joint": -0.9740617694225068,
            "shoulder_pan_joint": -2.967991417825858,
            "wrist_1_joint": -0.759517768980727,
            "wrist_2_joint": 1.7443932448377408,
            "wrist_3_joint": -3.0840537646736568
        }
    },
    "waypoints": [
        {
            "positions": [
                -2.967991417825858,
                -0.9740617694225068,
                1.7527959577737207,
                -0.759517768980727,
                1.7443932448377408,
                -3.0840537646736568
            ]
        },
        {
            "positions": [
                -2.942466911929554,
                -0.9408342392861487,
                1.6513296073850974,
                -0.6890454231300682,
                1.6125619228278911,
                -3.090802322179874
            ]
        },
        {
            "positions": [
                -2.9169424060332503,
                -0.9076067091497907,
                1.5498632569964739,
                -0.6185730772794096,
                1.4807306008180414,
                -3.0975508796860907
            ]
        },
        {
            "positions": [
                -2.891417900136947,
                -0.8743791790134325,
                1.4483969066078506,
                -0.5481007314287508,
                1.3488992788081917,
                -3.1042994371923074
            ]
        },
        {
            "positions": [
                -2.865893394240643,
                -0.8411516488770745,
                1.346930556219227,
                -0.4776283855780921,
                1.217067956798342,
                -3.1110479946985246
            ]
        },
        {
            "positions": [
                -2.840368888344339,
                -0.8079241187407165,
                1.2454642058306038,
                -0.4071560397274334,
                1.085236634788492,
                -3.1177965522047417
            ]
        },
        {
            "positions": [
                -2.8148443824480354,
                -0.7746965886043584,
                1.1439978554419805,
                -0.3366836938767747,
                0.9534053127786425,
                -3.1245451097109584
            ]
        },
        {
            "positions": [
                -2.7893198765517315,
                -0.7414690584680004,
                1.0425315050533572,
                -0.266211348026116,
                0.8215739907687928,
                -3.131293667217175
            ]
        },
        {
            "positions": [
                -2.763795370655428,
                -0.7082415283316423,
                0.9410651546647336,
                -0.19573900217545726,
                0.689742668758943,
                -3.1380422247233923
            ]
        },
        {
            "positions": [
                -2.7382708647591243,
                -0.6750139981952842,
                0.8395988042761103,
                -0.1252666563247985,
                0.5579113467490933,
                -3.1447907822296095
            ]
        },
        {
            "positions": [
                -2.7127463588628205,
                -0.6417864680589261,
                0.7381324538874868,
                -0.05479431047413984,
                0.4260800247392436,
                -3.1515393397358262
            ]
        }
    ]
}