{
    "goal": {
        "global_pose": {
            "orientation": {
                "w": 0.005598929693374612,
                "x": 0.007748599140229565,
                "y": 0.7110244013736278,
                "z": -0.7031023480610252
            },
            "position": {
                "x": -0.8858502320852131,
                "y": -0.7141253447532654,
                "z": 0.3711530566215515
            }
        },
        "name": "move_to_auspresseinheit_C"
    },
    "id": "SPARS_move_to_auspresseinheit_C_26",
    "joint_names": [
        "shoulder_pan_joint",
        "shoulder_lift_joint",
        "elbow_joint",
        "wrist_1_joint",
        "wrist_2_joint",
        "wrist_3_joint"
    ],
    "metrics": {
        "cart_traj_len": 0.4880799796674726,
        "distance_elbow_joint": 0.9860190663937644,
        "distance_shoulder_lift_joint": 0.3173859478907597,
        "distance_shoulder_pan_joint": 0.25649037888292403,
        "distance_wrist_1_joint": 0.6538056372172625,
        "distance_wrist_2_joint": 1.3040736055015398,
        "distance_wrist_3_joint": 0.4862326431173316,
        "smoothness": 0.18142572997882367,
        "time": 5.033374029,
        "traj_len": 2.001001568965797,
        "weighted_distance": 2.633315744068122
    },
    "planner": "SPARS",
    "start": {
        "state": {
            "elbow_joint": 1.7527959577737207,
            "shoulder_lift_joint": -0.9740617694225068,
            "shoulder_pan_joint": -2.967991417825858,
            "wrist_1_joint": -0.759517768980727,
            "wrist_2_joint": 1.7443932448377408,
            "wrist_3_joint": -3.0840537646736568
        }
    },
    "waypoints": [
        {
            "positions": [
                -2.967991417825858,
                -0.9740617694225068,
                1.7527959577737207,
                -0.759517768980727,
                1.7443932448377408,
                -3.0840537646736568
            ]
        },
        {
            "positions": [
                -2.9446709591586178,
                -0.9467340130980855,
                1.6611502166223682,
                -0.6954987218130902,
                1.612907302657977,
                -3.059390901023271
            ]
        },
        {
            "positions": [
                -2.9213505004913776,
                -0.9194062567736643,
                1.5695044754710155,
                -0.6314796746454534,
                1.4814213604782134,
                -3.034728037372885
            ]
        },
        {
            "positions": [
                -2.8980300418241374,
                -0.892078500449243,
                1.477858734319663,
                -0.5674606274778167,
                1.3499354182984495,
                -3.0100651737224995
            ]
        },
        {
            "positions": [
                -2.874709583156897,
                -0.8647507441248218,
                1.3862129931683105,
                -0.5034415803101799,
                1.218449476118686,
                -2.985402310072114
            ]
        },
        {
            "positions": [
                -2.851389124489657,
                -0.8374229878004005,
                1.2945672520169578,
                -0.43942253314254304,
                1.0869635339389219,
                -2.960739446421728
            ]
        },
        {
            "positions": [
                -2.828068665822417,
                -0.8100952314759793,
                1.2029215108656053,
                -0.3754034859749063,
                0.9554775917591583,
                -2.936076582771342
            ]
        },
        {
            "positions": [
                -2.8047482071551766,
                -0.782767475151558,
                1.1112757697142528,
                -0.3113844388072695,
                0.8239916495793945,
                -2.9114137191209566
            ]
        },
        {
            "positions": [
                -2.7814277484879364,
                -0.7554397188271368,
                1.0196300285629003,
                -0.24736539163963278,
                0.6925057073996308,
                -2.8867508554705705
            ]
        },
        {
            "positions": [
                -2.758107289820696,
                -0.7281119625027155,
                0.9279842874115476,
                -0.183346344471996,
                0.561019765219867,
                -2.862087991820185
            ]
        },
        {
            "positions": [
                -2.7348041643818153,
                -0.6923938920172312,
                0.847380589395752,
                -0.1445292381177303,
                0.500669702278034,
                -2.994221426952115
            ]
        },
        {
            "positions": [
                -2.711501038942934,
                -0.6566758215317471,
                0.7667768913799563,
                -0.10571213176346463,
                0.4403196393362011,
                -3.1263548620840447
            ]
        }
    ]
}