{
    "goal": {
        "global_pose": {
            "orientation": {
                "w": 0.7031023502349854,
                "x": -0.7110244035720825,
                "y": 0.007748599164187908,
                "z": 0.005598929710686207
            },
            "position": {
                "x": 0.11585023208521307,
                "y": 0.44412534475326537,
                "z": 0.3711530566215515
            }
        },
        "name": "move_to_auspresseinheit_A"
    },
    "id": "SPARS_move_to_auspresseinheit_A_55",
    "joint_names": [
        "shoulder_pan_joint",
        "shoulder_lift_joint",
        "elbow_joint",
        "wrist_1_joint",
        "wrist_2_joint",
        "wrist_3_joint"
    ],
    "metrics": {
        "cart_traj_len": 0.7633915762595619,
        "distance_elbow_joint": 0.28412220083027684,
        "distance_shoulder_lift_joint": 0.982545305664867,
        "distance_shoulder_pan_joint": 1.0422571191022154,
        "distance_wrist_1_joint": 0.5438602909480337,
        "distance_wrist_2_joint": 0.6269345273995811,
        "distance_wrist_3_joint": 0.36396968510677885,
        "smoothness": 1.3840427904568628,
        "time": 5.041319745,
        "traj_len": 1.9605328686486623,
        "weighted_distance": 2.396335393389858
    },
    "planner": "SPARS",
    "start": {
        "state": {
            "elbow_joint": 2.4225746658250005,
            "shoulder_lift_joint": -1.3736534386056498,
            "shoulder_pan_joint": -0.3378633547517467,
            "wrist_1_joint": -1.0288598680537169,
            "wrist_2_joint": 1.233022673432363,
            "wrist_3_joint": -3.0940220416140027
        }
    },
    "waypoints": [
        {
            "positions": [
                -0.3378633547517467,
                -1.3736534386056498,
                2.4225746658250005,
                -1.0288598680537169,
                1.233022673432363,
                -3.0940220416140027
            ]
        },
        {
            "positions": [
                -0.21759519340508993,
                -1.4686765041943566,
                2.4388351642507002,
                -0.963403192538872,
                1.1609086072802677,
                -3.119086358590692
            ]
        },
        {
            "positions": [
                -0.09732703205843313,
                -1.5636995697830636,
                2.4550956626764,
                -0.897946517024027,
                1.0887945411281725,
                -3.1441506755673814
            ]
        },
        {
            "positions": [
                0.02294112928822367,
                -1.6587226353717703,
                2.4713561611020993,
                -0.8324898415091819,
                1.0166804749760772,
                -3.1692149925440702
            ]
        },
        {
            "positions": [
                0.14320929063488047,
                -1.753745700960477,
                2.487616659527799,
                -0.767033165994337,
                0.9445664088239819,
                -3.1942793095207596
            ]
        },
        {
            "positions": [
                0.2634774519815372,
                -1.848768766549184,
                2.503877157953499,
                -0.7015764904794921,
                0.8724523426718866,
                -3.219343626497449
            ]
        },
        {
            "positions": [
                0.38374561332819407,
                -1.9437918321378909,
                2.520137656379198,
                -0.6361198149646471,
                0.8003382765197913,
                -3.2444079434741377
            ]
        },
        {
            "positions": [
                0.504013774674851,
                -2.038814897726598,
                2.536398154804898,
                -0.5706631394498021,
                0.728224210367696,
                -3.269472260450827
            ]
        },
        {
            "positions": [
                0.6242819360215077,
                -2.1338379633153046,
                2.5526586532305977,
                -0.5052064639349572,
                0.6561101442156008,
                -3.2945365774275164
            ]
        },
        {
            "positions": [
                0.6643378501859882,
                -2.0226575728376988,
                2.475639546518258,
                -0.4951030205203202,
                0.6811211433070101,
                -3.212809002780884
            ]
        },
        {
            "positions": [
                0.7043937643504689,
                -1.9114771823600925,
                2.398620439805918,
                -0.48499957710568325,
                0.7061321423984196,
                -3.131081428134251
            ]
        }
    ]
}