{
    "goal": {
        "global_pose": {
            "orientation": {
                "w": 0.5084816262002911,
                "x": -0.4908360881923452,
                "y": 0.5182115481033761,
                "z": -0.48164630358495003
            },
            "position": {
                "x": 0.5540239810943604,
                "y": -0.46912469901144505,
                "z": 0.16403168439865112
            }
        },
        "name": "move_to_storage_B"
    },
    "id": "SPARS_move_to_storage_B_103",
    "joint_names": [
        "shoulder_pan_joint",
        "shoulder_lift_joint",
        "elbow_joint",
        "wrist_1_joint",
        "wrist_2_joint",
        "wrist_3_joint"
    ],
    "metrics": {
        "cart_traj_len": 2.356650316923414,
        "distance_elbow_joint": 1.8765779775357925,
        "distance_shoulder_lift_joint": 0.4566664841407049,
        "distance_shoulder_pan_joint": 2.488438485838064,
        "distance_wrist_1_joint": 2.979621357290524,
        "distance_wrist_2_joint": 2.700854251962071,
        "distance_wrist_3_joint": 4.0063405005768065,
        "smoothness": 0.30790640982185696,
        "time": 5.038993824,
        "traj_len": 3.809002370351581,
        "weighted_distance": 5.310523106789968
    },
    "planner": "SPARS",
    "start": {
        "state": {
            "elbow_joint": 1.664937868594044,
            "shoulder_lift_joint": -0.661644460510453,
            "shoulder_pan_joint": -0.9139846352900073,
            "wrist_1_joint": 2.146753192139373,
            "wrist_2_joint": -2.2341966793290973,
            "wrist_3_joint": 0.005466555786416001
        }
    },
    "waypoints": [
        {
            "positions": [
                -0.9139846352900073,
                -0.661644460510453,
                1.664937868594044,
                2.146753192139373,
                -2.2341966793290973,
                0.005466555786416001
            ]
        },
        {
            "positions": [
                -0.7986745431990543,
                -0.6924964472228223,
                1.5884997768732936,
                2.073550734048445,
                -2.1878420328302077,
                -0.03800719779759333
            ]
        },
        {
            "positions": [
                -0.6833644511081014,
                -0.7233484339351915,
                1.5120616851525432,
                2.000348275957517,
                -2.1414873863313186,
                -0.08148095138160266
            ]
        },
        {
            "positions": [
                -0.5680543590171485,
                -0.7542004206475609,
                1.4356235934317931,
                1.927145817866589,
                -2.0951327398324295,
                -0.12495470496561198
            ]
        },
        {
            "positions": [
                -0.4527442669261955,
                -0.7850524073599301,
                1.3591855017110428,
                1.853943359775661,
                -2.04877809333354,
                -0.16842845854962132
            ]
        },
        {
            "positions": [
                -0.33743417483524263,
                -0.8159043940722994,
                1.2827474099902925,
                1.7807409016847329,
                -2.0024234468346505,
                -0.21190221213363064
            ]
        },
        {
            "positions": [
                -0.22212408274428974,
                -0.8467563807846687,
                1.2063093182695421,
                1.7075384435938048,
                -1.9560688003357614,
                -0.25537596571763993
            ]
        },
        {
            "positions": [
                -0.10681399065333685,
                -0.877608367497038,
                1.1298712265487918,
                1.6343359855028767,
                -1.909714153836872,
                -0.2988497193016493
            ]
        },
        {
            "positions": [
                0.008496101437616255,
                -0.9084603542094073,
                1.0534331348280417,
                1.5611335274119487,
                -1.8633595073379827,
                -0.3423234728856586
            ]
        },
        {
            "positions": [
                0.12380619352856914,
                -0.9393123409217765,
                0.9769950431072912,
                1.4879310693210206,
                -1.8170048608390934,
                -0.3857972264696679
            ]
        },
        {
            "positions": [
                0.23911628561952208,
                -0.9701643276341458,
                0.900556951386541,
                1.4147286112300925,
                -1.770650214340204,
                -0.42927098005367725
            ]
        },
        {
            "positions": [
                0.1896593387703171,
                -0.9756512393755167,
                0.9417494351024036,
                1.3314842861789353,
                -1.687786962970827,
                -0.2969893887671323
            ]
        },
        {
            "positions": [
                0.1402023919211121,
                -0.9811381511168875,
                0.9829419188182662,
                1.2482399611277781,
                -1.60492371160145,
                -0.16470779748058745
            ]
        },
        {
            "positions": [
                0.09074544507190713,
                -0.9866250628582582,
                1.0241344025341288,
                1.1649956360766212,
                -1.522060460232073,
                -0.03242620619404257
            ]
        },
        {
            "positions": [
                0.04128849822270214,
                -0.9921119745996291,
                1.0653268862499914,
                1.081751311025464,
                -1.4391972088626963,
                0.09985538509250236
            ]
        },
        {
            "positions": [
                -0.008168448626502844,
                -0.9975988863409999,
                1.106519369965854,
                0.9985069859743068,
                -1.3563339574933193,
                0.23213697637904718
            ]
        },
        {
            "positions": [
                -0.05762539547570783,
                -1.0030857980823706,
                1.1477118536817166,
                0.9152626609231497,
                -1.2734707061239423,
                0.3644185676655921
            ]
        },
        {
            "positions": [
                -0.10708234232491282,
                -1.0085727098237416,
                1.1889043373975792,
                0.8320183358719925,
                -1.1906074547545653,
                0.4967001589521369
            ]
        },
        {
            "positions": [
                -0.1565392891741178,
                -1.0140596215651123,
                1.2300968211134415,
                0.7487740108208354,
                -1.1077442033851885,
                0.628981750238682
            ]
        },
        {
            "positions": [
                -0.2059962360233228,
                -1.0195465333064833,
                1.2712893048293041,
                0.6655296857696782,
                -1.0248809520158115,
                0.7612633415252267
            ]
        },
        {
            "positions": [
                -0.2554531828725278,
                -1.025033445047854,
                1.3124817885451667,
                0.5822853607185211,
                -0.9420177006464344,
                0.8935449328117716
            ]
        },
        {
            "positions": [
                -0.30491012972173276,
                -1.0305203567892247,
                1.3536742722610293,
                0.4990410356673639,
                -0.8591544492770575,
                1.0258265240983166
            ]
        },
        {
            "positions": [
                -0.35436707657093774,
                -1.0360072685305957,
                1.394866755976892,
                0.4157967106162068,
                -0.7762911979076805,
                1.1581081153848616
            ]
        },
        {
            "positions": [
                -0.40382402342014273,
                -1.0414941802719664,
                1.4360592396927545,
                0.3325523855650496,
                -0.6934279465383035,
                1.2903897066714065
            ]
        },
        {
            "positions": [
                -0.4532809702693477,
                -1.0469810920133373,
                1.477251723408617,
                0.24930806051389243,
                -0.6105646951689265,
                1.422671297957951
            ]
        },
        {
            "positions": [
                -0.5027379171185526,
                -1.052468003754708,
                1.5184442071244797,
                0.16606373546273523,
                -0.5277014437995495,
                1.5549528892444964
            ]
        },
        {
            "positions": [
                -0.5521948639677576,
                -1.057954915496079,
                1.559636690840342,
                0.08281941041157825,
                -0.44483819243017275,
                1.6872344805310413
            ]
        },
        {
            "positions": [
                -0.6016518108169626,
                -1.0634418272374497,
                1.6008291745562049,
                -0.0004249146395789438,
                -0.36197494106079553,
                1.8195160718175862
            ]
        },
        {
            "positions": [
                -0.6511087576661676,
                -1.0689287389788205,
                1.6420216582720673,
                -0.08366923969073614,
                -0.27911168969141875,
                1.9517976631041307
            ]
        },
        {
            "positions": [
                -0.7005657045153726,
                -1.0744156507201914,
                1.6832141419879298,
                -0.16691356474189334,
                -0.19624843832204175,
                2.084079254390676
            ]
        },
        {
            "positions": [
                -0.7500226513645776,
                -1.0799025624615621,
                1.7244066257037924,
                -0.2501578897930503,
                -0.11338518695266475,
                2.2163608456772206
            ]
        },
        {
            "positions": [
                -0.7994795982137826,
                -1.085389474202933,
                1.765599109419655,
                -0.3334022148442075,
                -0.03052193558328775,
                2.348642436963766
            ]
        },
        {
            "positions": [
                -0.8489365450629875,
                -1.0908763859443038,
                1.8067915931355176,
                -0.4166465398953647,
                0.05234131578608903,
                2.4809240282503104
            ]
        },
        {
            "positions": [
                -0.8983934919121925,
                -1.0963632976856745,
                1.8479840768513802,
                -0.4998908649465219,
                0.13520456715546625,
                2.6132056195368554
            ]
        },
        {
            "positions": [
                -0.9478504387613975,
                -1.1018502094270455,
                1.8891765605672428,
                -0.5831351899976789,
                0.21806781852484303,
                2.7454872108234003
            ]
        },
        {
            "positions": [
                -0.9973073856106025,
                -1.1073371211684162,
                1.9303690442831054,
                -0.6663795150488361,
                0.30093106989422,
                2.8777688021099452
            ]
        },
        {
            "positions": [
                -1.0467643324598075,
                -1.1128240329097872,
                1.971561527998968,
                -0.7496238400999933,
                0.383794321263597,
                3.01005039339649
            ]
        },
        {
            "positions": [
                -1.0962212793090125,
                -1.1183109446511579,
                2.0127540117148306,
                -0.8328681651511504,
                0.46665757263297386,
                3.142331984683035
            ]
        }
    ]
}