{
    "goal": {
        "global_pose": {
            "orientation": {
                "w": 0.5084816217422485,
                "x": -0.49083608388900757,
                "y": 0.5182115435600281,
                "z": -0.4816462993621826
            },
            "position": {
                "x": 0.5540239810943604,
                "y": 0.030875300988554955,
                "z": 0.16403168439865112
            }
        },
        "name": "move_to_storage_A"
    },
    "id": "SPARStwo_move_to_storage_A_136",
    "joint_names": [
        "shoulder_pan_joint",
        "shoulder_lift_joint",
        "elbow_joint",
        "wrist_1_joint",
        "wrist_2_joint",
        "wrist_3_joint"
    ],
    "metrics": {
        "cart_traj_len": 0.353545146629454,
        "distance_elbow_joint": 0.4502300159354591,
        "distance_shoulder_lift_joint": 0.23501831027846376,
        "distance_shoulder_pan_joint": 0.46416619008035254,
        "distance_wrist_1_joint": 0.2429376006680033,
        "distance_wrist_2_joint": 1.0920073936849577,
        "distance_wrist_3_joint": 0.1052112674440977,
        "smoothness": 8.881784232165597e-16,
        "time": 5.014030118,
        "traj_len": 1.609214335659279,
        "weighted_distance": 2.0334547714007534
    },
    "planner": "SPARStwo",
    "start": {
        "state": {
            "elbow_joint": 1.9715481507254546,
            "shoulder_lift_joint": -1.1394850672790213,
            "shoulder_pan_joint": 0.12281154597544902,
            "wrist_1_joint": -0.7804720171073349,
            "wrist_2_joint": 0.12958658322886563,
            "wrist_3_joint": -3.1924895760937617
        }
    },
    "waypoints": [
        {
            "positions": [
                0.12281154597544902,
                -1.1394850672790213,
                1.9715481507254546,
                -0.7804720171073349,
                0.12958658322886563,
                -3.1924895760937617
            ]
        },
        {
            "positions": [
                0.056502090249684375,
                -1.1730591116045161,
                2.0358667244305204,
                -0.8151773886313354,
                0.2855876394695739,
                -3.1774593950303194
            ]
        },
        {
            "positions": [
                -0.009807365476080271,
                -1.206633155930011,
                2.1001852981355857,
                -0.8498827601553358,
                0.4415886957102821,
                -3.1624292139668766
            ]
        },
        {
            "positions": [
                -0.0761168212018449,
                -1.2402072002555058,
                2.1645038718406515,
                -0.8845881316793364,
                0.5975897519509903,
                -3.1473990329034343
            ]
        },
        {
            "positions": [
                -0.14242627692760956,
                -1.2737812445810006,
                2.228822445545717,
                -0.9192935032033368,
                0.7535908081916985,
                -3.1323688518399915
            ]
        },
        {
            "positions": [
                -0.20873573265337425,
                -1.3073552889064954,
                2.2931410192507826,
                -0.9539988747273374,
                0.9095918644324068,
                -3.117338670776549
            ]
        },
        {
            "positions": [
                -0.2750451883791388,
                -1.3409293332319903,
                2.357459592955848,
                -0.9887042462513378,
                1.0655929206731152,
                -3.1023084897131064
            ]
        },
        {
            "positions": [
                -0.3413546441049035,
                -1.374503377557485,
                2.4217781666609137,
                -1.0234096177753382,
                1.2215939769138233,
                -3.087278308649664
            ]
        }
    ]
}