{
    "goal": {
        "global_pose": {
            "orientation": {
                "w": 0.005598929693374612,
                "x": 0.007748599140229565,
                "y": 0.7110244013736278,
                "z": -0.7031023480610252
            },
            "position": {
                "x": 0.1141497679147869,
                "y": -0.7141253447532654,
                "z": 0.3711530566215515
            }
        },
        "name": "move_to_auspresseinheit_B"
    },
    "id": "SPARS_move_to_auspresseinheit_B_31",
    "joint_names": [
        "shoulder_pan_joint",
        "shoulder_lift_joint",
        "elbow_joint",
        "wrist_1_joint",
        "wrist_2_joint",
        "wrist_3_joint"
    ],
    "metrics": {
        "cart_traj_len": 0.5643209777333968,
        "distance_elbow_joint": 0.05931010381453827,
        "distance_shoulder_lift_joint": 0.2940234601157714,
        "distance_shoulder_pan_joint": 0.574695417243152,
        "distance_wrist_1_joint": 0.31395856593939553,
        "distance_wrist_2_joint": 1.006773169364061,
        "distance_wrist_3_joint": 0.009496890841335315,
        "smoothness": 5.075305295617109e-16,
        "time": 5.023402784,
        "traj_len": 1.502750014912079,
        "weighted_distance": 1.8968350282258024
    },
    "planner": "SPARS",
    "start": {
        "state": {
            "elbow_joint": 2.0193083361928714,
            "shoulder_lift_joint": -1.1220246554650708,
            "shoulder_pan_joint": -1.0952077554168747,
            "wrist_1_joint": -0.8559753972642168,
            "wrist_2_joint": 0.4759566250798843,
            "wrist_3_joint": -3.1240929996934557
        }
    },
    "waypoints": [
        {
            "positions": [
                -1.0952077554168747,
                -1.1220246554650708,
                2.0193083361928714,
                -0.8559753972642168,
                0.4759566250798843,
                -3.1240929996934557
            ]
        },
        {
            "positions": [
                -1.1909903249573999,
                -1.171028565484366,
                2.0094233188904482,
                -0.8036489696076509,
                0.6437521533072278,
                -3.1225101845532333
            ]
        },
        {
            "positions": [
                -1.2867728944979253,
                -1.2200324755036613,
                1.9995383015880253,
                -0.7513225419510849,
                0.8115476815345712,
                -3.1209273694130104
            ]
        },
        {
            "positions": [
                -1.3825554640384508,
                -1.2690363855229565,
                1.9896532842856023,
                -0.698996114294519,
                0.9793432097619148,
                -3.119344554272788
            ]
        },
        {
            "positions": [
                -1.478338033578976,
                -1.3180402955422517,
                1.9797682669831793,
                -0.6466696866379531,
                1.1471387379892581,
                -3.1177617391325656
            ]
        },
        {
            "positions": [
                -1.5741206031195012,
                -1.367044205561547,
                1.9698832496807561,
                -0.5943432589813872,
                1.3149342662166017,
                -3.1161789239923428
            ]
        },
        {
            "positions": [
                -1.6699031726600266,
                -1.4160481155808422,
                1.9599982323783331,
                -0.5420168313248213,
                1.4827297944439453,
                -3.1145961088521203
            ]
        }
    ]
}