{
    "goal": {
        "global_pose": {
            "orientation": {
                "w": 0.5084816262002911,
                "x": -0.4908360881923452,
                "y": 0.5182115481033761,
                "z": -0.48164630358495003
            },
            "position": {
                "x": 0.5540239810943604,
                "y": -0.46912469901144505,
                "z": 0.16403168439865112
            }
        },
        "name": "move_to_storage_B"
    },
    "id": "SPARS_move_to_storage_B_76",
    "joint_names": [
        "shoulder_pan_joint",
        "shoulder_lift_joint",
        "elbow_joint",
        "wrist_1_joint",
        "wrist_2_joint",
        "wrist_3_joint"
    ],
    "metrics": {
        "cart_traj_len": 3.561619055248964,
        "distance_elbow_joint": 1.7664310630681466,
        "distance_shoulder_lift_joint": 1.5039018442274477,
        "distance_shoulder_pan_joint": 3.450330739299293,
        "distance_wrist_1_joint": 2.984052385771782,
        "distance_wrist_2_joint": 2.7212953556579627,
        "distance_wrist_3_joint": 3.1407889668965465,
        "smoothness": 0.28296614325012137,
        "time": 5.068072192,
        "traj_len": 3.94547846970696,
        "weighted_distance": 5.249164317312234
    },
    "planner": "SPARS",
    "start": {
        "state": {
            "elbow_joint": 1.664937868594044,
            "shoulder_lift_joint": -0.661644460510453,
            "shoulder_pan_joint": -0.9139846352900073,
            "wrist_1_joint": 2.146753192139373,
            "wrist_2_joint": -2.2341966793290973,
            "wrist_3_joint": 0.005466555786416001
        }
    },
    "waypoints": [
        {
            "positions": [
                -0.9139846352900073,
                -0.661644460510453,
                1.664937868594044,
                2.146753192139373,
                -2.2341966793290973,
                0.005466555786416001
            ]
        },
        {
            "positions": [
                -0.8396408932766203,
                -0.7062896006058635,
                1.632791231518482,
                2.07760910711332,
                -2.1188590431944405,
                -0.04513651845196914
            ]
        },
        {
            "positions": [
                -0.7652971512632333,
                -0.7509347407012741,
                1.6006445944429202,
                2.0084650220872664,
                -2.003521407059784,
                -0.09573959269035429
            ]
        },
        {
            "positions": [
                -0.6909534092498463,
                -0.7955798807966846,
                1.568497957367358,
                1.939320937061213,
                -1.8881837709251277,
                -0.1463426669287394
            ]
        },
        {
            "positions": [
                -0.6166096672364593,
                -0.8402250208920952,
                1.5363513202917962,
                1.8701768520351596,
                -1.7728461347904712,
                -0.19694574116712457
            ]
        },
        {
            "positions": [
                -0.5422659252230723,
                -0.8848701609875058,
                1.5042046832162344,
                1.8010327670091062,
                -1.6575084986558144,
                -0.2475488154055097
            ]
        },
        {
            "positions": [
                -0.4679221832096853,
                -0.9295153010829162,
                1.4720580461406725,
                1.7318886819830528,
                -1.542170862521158,
                -0.2981518896438948
            ]
        },
        {
            "positions": [
                -0.39357844119629826,
                -0.9741604411783269,
                1.4399114090651104,
                1.6627445969569994,
                -1.4268332263865013,
                -0.34875496388227994
            ]
        },
        {
            "positions": [
                -0.31923469918291125,
                -1.0188055812737375,
                1.4077647719895485,
                1.5936005119309458,
                -1.3114955902518448,
                -0.3993580381206651
            ]
        },
        {
            "positions": [
                -0.24489095716952425,
                -1.063450721369148,
                1.3756181349139867,
                1.5244564269048924,
                -1.1961579541171883,
                -0.4499611123590503
            ]
        },
        {
            "positions": [
                -0.17054721515613724,
                -1.1080958614645584,
                1.3434714978384248,
                1.455312341878839,
                -1.0808203179825318,
                -0.5005641865974354
            ]
        },
        {
            "positions": [
                -0.09620347314275024,
                -1.152741001559969,
                1.3113248607628627,
                1.3861682568527856,
                -0.9654826818478752,
                -0.5511672608358206
            ]
        },
        {
            "positions": [
                -0.021859731129363347,
                -1.1973861416553797,
                1.279178223687301,
                1.3170241718267321,
                -0.8501450457132187,
                -0.6017703350742056
            ]
        },
        {
            "positions": [
                0.05248401088402377,
                -1.2420312817507901,
                1.247031586611739,
                1.2478800868006785,
                -0.7348074095785619,
                -0.6523734093125909
            ]
        },
        {
            "positions": [
                0.12682775289741077,
                -1.2866764218462006,
                1.214884949536177,
                1.1787360017746253,
                -0.6194697734439056,
                -0.702976483550976
            ]
        },
        {
            "positions": [
                0.20117149491079778,
                -1.3313215619416112,
                1.1827383124606152,
                1.109591916748572,
                -0.5041321373092491,
                -0.753579557789361
            ]
        },
        {
            "positions": [
                0.2755152369241848,
                -1.3759667020370219,
                1.1505916753850531,
                1.0404478317225183,
                -0.38879450117459236,
                -0.8041826320277463
            ]
        },
        {
            "positions": [
                0.3498589789375718,
                -1.4206118421324323,
                1.1184450383094913,
                0.9713037466964651,
                -0.27345686503993605,
                -0.8547857062661314
            ]
        },
        {
            "positions": [
                0.4242027209509588,
                -1.465256982227843,
                1.0862984012339294,
                0.9021596616704115,
                -0.1581192289052793,
                -0.9053887805045167
            ]
        },
        {
            "positions": [
                0.4985464629643458,
                -1.5099021223232536,
                1.0541517641583673,
                0.8330155766443581,
                -0.04278159277062299,
                -0.9559918547429017
            ]
        },
        {
            "positions": [
                0.5728902049777328,
                -1.554547262418664,
                1.0220051270828057,
                0.7638714916183047,
                0.07255604336403376,
                -1.0065949289812868
            ]
        },
        {
            "positions": [
                0.6472339469911198,
                -1.5991924025140745,
                0.9898584900072436,
                0.6947274065922513,
                0.1878936794986905,
                -1.057198003219672
            ]
        },
        {
            "positions": [
                0.7215776890045069,
                -1.6438375426094851,
                0.9577118529316817,
                0.6255833215661979,
                0.3032313156333467,
                -1.1078010774580571
            ]
        },
        {
            "positions": [
                0.6252096340005515,
                -1.6158274927511536,
                1.0087080041554584,
                0.5477691641065927,
                0.3219323305968593,
                -1.220546737317086
            ]
        },
        {
            "positions": [
                0.5288415789965962,
                -1.587817442892822,
                1.059704155379235,
                0.4699550066469874,
                0.34063334556037184,
                -1.3332923971761146
            ]
        },
        {
            "positions": [
                0.4324735239926409,
                -1.5598073930344905,
                1.1107003066030119,
                0.39214084918738223,
                0.35933436052388446,
                -1.4460380570351434
            ]
        },
        {
            "positions": [
                0.33610546898868554,
                -1.531797343176159,
                1.1616964578267885,
                0.314326691727777,
                0.378035375487397,
                -1.558783716894172
            ]
        },
        {
            "positions": [
                0.23973741398473014,
                -1.5037872933178271,
                1.2126926090505652,
                0.2365125342681717,
                0.3967363904509096,
                -1.6715293767532011
            ]
        },
        {
            "positions": [
                0.14336935898077485,
                -1.4757772434594956,
                1.2636887602743418,
                0.15869837680856652,
                0.41543740541442215,
                -1.7842750366122297
            ]
        },
        {
            "positions": [
                0.04700130397681945,
                -1.447767193601164,
                1.3146849114981185,
                0.08088421934896128,
                0.4341384203779347,
                -1.8970206964712584
            ]
        },
        {
            "positions": [
                -0.049366751027135836,
                -1.4197571437428325,
                1.3656810627218954,
                0.0030700618893561016,
                0.4528394353414473,
                -2.009766356330287
            ]
        },
        {
            "positions": [
                -0.1457348060310913,
                -1.391747093884501,
                1.416677213945672,
                -0.07474409557024922,
                0.4715404503049599,
                -2.122512016189316
            ]
        },
        {
            "positions": [
                -0.24048039802800936,
                -1.3647852625441579,
                1.4767011825848515,
                -0.15099960537646512,
                0.47309627290735046,
                -2.2237930556813974
            ]
        },
        {
            "positions": [
                -0.3352259900249274,
                -1.3378234312038146,
                1.5367251512240307,
                -0.22725511518268102,
                0.47465209550974097,
                -2.3250740951734787
            ]
        },
        {
            "positions": [
                -0.42997158202184543,
                -1.3108615998634714,
                1.5967491198632102,
                -0.3035106249888969,
                0.4762079181121315,
                -2.4263551346655605
            ]
        },
        {
            "positions": [
                -0.5247171740187635,
                -1.2838997685231284,
                1.6567730885023897,
                -0.3797661347951128,
                0.47776374071452204,
                -2.527636174157642
            ]
        },
        {
            "positions": [
                -0.6194627660156815,
                -1.2569379371827853,
                1.716797057141569,
                -0.45602164460132866,
                0.4793195633169126,
                -2.628917213649723
            ]
        },
        {
            "positions": [
                -0.7142083580125995,
                -1.229976105842442,
                1.7768210257807484,
                -0.5322771544075445,
                0.4808753859193031,
                -2.7301982531418045
            ]
        },
        {
            "positions": [
                -0.8089539500095175,
                -1.2030142745020989,
                1.8368449944199279,
                -0.6085326642137604,
                0.48243120852169363,
                -2.831479292633886
            ]
        },
        {
            "positions": [
                -0.9036995420064358,
                -1.1760524431617558,
                1.8968689630591073,
                -0.6847881740199764,
                0.4839870311240842,
                -2.9327603321259677
            ]
        },
        {
            "positions": [
                -0.9984451340033538,
                -1.1490906118214128,
                1.9568929316982868,
                -0.7610436838261923,
                0.48554285372647477,
                -3.034041371618049
            ]
        },
        {
            "positions": [
                -1.0931907260002718,
                -1.1221287804810696,
                2.016916900337466,
                -0.8372991936324081,
                0.4870986763288653,
                -3.1353224111101303
            ]
        }
    ]
}