{
    "goal": {
        "global_pose": {
            "orientation": {
                "w": 0.7031023480610252,
                "x": -0.7110244013736278,
                "y": 0.0077485991402295624,
                "z": 0.005598929693374583
            },
            "position": {
                "x": -0.8841497679147869,
                "y": 0.44412534475326537,
                "z": 0.3711530566215515
            }
        },
        "name": "move_to_auspresseinheit_D"
    },
    "id": "SPARS_move_to_auspresseinheit_D_88",
    "joint_names": [
        "shoulder_pan_joint",
        "shoulder_lift_joint",
        "elbow_joint",
        "wrist_1_joint",
        "wrist_2_joint",
        "wrist_3_joint"
    ],
    "metrics": {
        "cart_traj_len": 0.3439962916422046,
        "distance_elbow_joint": 0.664727458451698,
        "distance_shoulder_lift_joint": 0.13623580608531194,
        "distance_shoulder_pan_joint": 0.13317475219786837,
        "distance_wrist_1_joint": 0.6149531566799977,
        "distance_wrist_2_joint": 1.4441174011306093,
        "distance_wrist_3_joint": 0.07307125264082881,
        "smoothness": 6.908054402309963e-16,
        "time": 5.027019655,
        "traj_len": 1.75107961760347,
        "weighted_distance": 2.2959731902351512
    },
    "planner": "SPARS",
    "start": {
        "state": {
            "elbow_joint": -1.8275523626775212,
            "shoulder_lift_joint": -2.126789852344167,
            "shoulder_pan_joint": -0.03513704404078235,
            "wrist_1_joint": -2.347782403156801,
            "wrist_2_joint": -1.6058999987535132,
            "wrist_3_joint": -3.0880379163319196
        }
    },
    "waypoints": [
        {
            "positions": [
                -0.03513704404078235,
                -2.126789852344167,
                -1.8275523626775212,
                -2.347782403156801,
                -1.6058999987535132,
                -3.0880379163319196
            ]
        },
        {
            "positions": [
                -0.0517838880655159,
                -2.143819328104831,
                -1.744461430371059,
                -2.4246515477418007,
                -1.425385323612187,
                -3.078904009751816
            ]
        },
        {
            "positions": [
                -0.06843073209024944,
                -2.1608488038654947,
                -1.6613704980645967,
                -2.5015206923268005,
                -1.244870648470861,
                -3.069770103171712
            ]
        },
        {
            "positions": [
                -0.08507757611498298,
                -2.177878279626159,
                -1.5782795657581343,
                -2.5783898369118,
                -1.0643559733295347,
                -3.060636196591609
            ]
        },
        {
            "positions": [
                -0.10172442013971653,
                -2.194907755386823,
                -1.4951886334516722,
                -2.6552589814967997,
                -0.8838412981882086,
                -3.051502290011505
            ]
        },
        {
            "positions": [
                -0.11837126416445007,
                -2.2119372311474867,
                -1.41209770114521,
                -2.7321281260817996,
                -0.7033266230468824,
                -3.0423683834314015
            ]
        },
        {
            "positions": [
                -0.13501810818918364,
                -2.228966706908151,
                -1.3290067688387477,
                -2.808997270666799,
                -0.5228119479055562,
                -3.033234476851298
            ]
        },
        {
            "positions": [
                -0.15166495221391718,
                -2.2459961826688146,
                -1.2459158365322853,
                -2.8858664152517988,
                -0.34229727276423016,
                -3.0241005702711945
            ]
        },
        {
            "positions": [
                -0.16831179623865072,
                -2.263025658429479,
                -1.1628249042258232,
                -2.9627355598367986,
                -0.16178259762290398,
                -3.014966663691091
            ]
        }
    ]
}