{
    "goal": {
        "global_pose": {
            "orientation": {
                "w": -0.4816463035849501,
                "x": 0.5182115481033762,
                "y": 0.4908360881923453,
                "z": -0.5084816262002911
            },
            "position": {
                "x": -0.8240239810943604,
                "y": -0.300875300988555,
                "z": 0.16403168439865112
            }
        },
        "name": "move_to_storage_C"
    },
    "id": "SPARS_move_to_storage_C_95",
    "joint_names": [
        "shoulder_pan_joint",
        "shoulder_lift_joint",
        "elbow_joint",
        "wrist_1_joint",
        "wrist_2_joint",
        "wrist_3_joint"
    ],
    "metrics": {
        "cart_traj_len": 0.5765389429646405,
        "distance_elbow_joint": 0.25579726918869494,
        "distance_shoulder_lift_joint": 0.1882719362017624,
        "distance_shoulder_pan_joint": 0.4947531782443777,
        "distance_wrist_1_joint": 0.07439451253156226,
        "distance_wrist_2_joint": 1.0717203849166852,
        "distance_wrist_3_joint": 0.07230608453336274,
        "smoothness": 2.5376526478085547e-16,
        "time": 5.040373935,
        "traj_len": 1.4687557201987147,
        "weighted_distance": 1.8568711404218168
    },
    "planner": "SPARS",
    "start": {
        "state": {
            "elbow_joint": 2.010868314990456,
            "shoulder_lift_joint": -1.1634956873337592,
            "shoulder_pan_joint": -2.4736205022346125,
            "wrist_1_joint": -0.8367026794202681,
            "wrist_2_joint": 0.6746043897044499,
            "wrist_3_joint": -3.1496632123970403
        }
    },
    "waypoints": [
        {
            "positions": [
                -2.4736205022346125,
                -1.1634956873337592,
                2.010868314990456,
                -0.8367026794202681,
                0.6746043897044499,
                -3.1496632123970403
            ]
        },
        {
            "positions": [
                -2.556079365275342,
                -1.132117031300132,
                1.96823543679234,
                -0.8243035939983411,
                0.8532244538572308,
                -3.1376121983081466
            ]
        },
        {
            "positions": [
                -2.638538228316072,
                -1.100738375266505,
                1.9256025585942242,
                -0.811904508576414,
                1.0318445180100118,
                -3.1255611842192526
            ]
        },
        {
            "positions": [
                -2.7209970913568013,
                -1.069359719232878,
                1.8829696803961085,
                -0.7995054231544869,
                1.2104645821627926,
                -3.113510170130359
            ]
        },
        {
            "positions": [
                -2.803455954397531,
                -1.037981063199251,
                1.8403368021979924,
                -0.7871063377325599,
                1.3890846463155735,
                -3.1014591560414653
            ]
        },
        {
            "positions": [
                -2.8859148174382607,
                -1.0066024071656239,
                1.7977039239998767,
                -0.7747072523106329,
                1.5677047104683544,
                -3.089408141952571
            ]
        },
        {
            "positions": [
                -2.96837368047899,
                -0.9752237511319968,
                1.7550710458017609,
                -0.7623081668887058,
                1.746324774621135,
                -3.0773571278636775
            ]
        }
    ]
}