{
    "goal": {
        "global_pose": {
            "orientation": {
                "w": 0.7031023480610252,
                "x": -0.7110244013736278,
                "y": 0.0077485991402295624,
                "z": 0.005598929693374583
            },
            "position": {
                "x": -0.8841497679147869,
                "y": 0.44412534475326537,
                "z": 0.3711530566215515
            }
        },
        "name": "move_to_auspresseinheit_D"
    },
    "id": "SPARS_move_to_auspresseinheit_D_148",
    "joint_names": [
        "shoulder_pan_joint",
        "shoulder_lift_joint",
        "elbow_joint",
        "wrist_1_joint",
        "wrist_2_joint",
        "wrist_3_joint"
    ],
    "metrics": {
        "cart_traj_len": 0.34264623049034226,
        "distance_elbow_joint": 0.6323576228248733,
        "distance_shoulder_lift_joint": 0.11857121871139986,
        "distance_shoulder_pan_joint": 0.13400875972941137,
        "distance_wrist_1_joint": 0.5103787848907841,
        "distance_wrist_2_joint": 1.4377096183476452,
        "distance_wrist_3_joint": 0.0179470358211824,
        "smoothness": 1.5789838468588077e-15,
        "time": 5.0180519210000005,
        "traj_len": 1.6884824666917024,
        "weighted_distance": 2.1988532272996513
    },
    "planner": "SPARS",
    "start": {
        "state": {
            "elbow_joint": -1.8275523626775212,
            "shoulder_lift_joint": -2.126789852344167,
            "shoulder_pan_joint": -0.03513704404078235,
            "wrist_1_joint": -2.347782403156801,
            "wrist_2_joint": -1.6058999987535132,
            "wrist_3_joint": -3.0880379163319196
        }
    },
    "waypoints": [
        {
            "positions": [
                -0.03513704404078235,
                -2.126789852344167,
                -1.8275523626775212,
                -2.347782403156801,
                -1.6058999987535132,
                -3.0880379163319196
            ]
        },
        {
            "positions": [
                -0.05188813900695877,
                -2.1416112546830917,
                -1.748507659824412,
                -2.4115797512681487,
                -1.4261862964600576,
                -3.0902812958095676
            ]
        },
        {
            "positions": [
                -0.06863923397313519,
                -2.156432657022017,
                -1.6694629569713029,
                -2.475377099379497,
                -1.246472594166602,
                -3.092524675287215
            ]
        },
        {
            "positions": [
                -0.08539032893931162,
                -2.1712540593609417,
                -1.5904182541181937,
                -2.539174447490845,
                -1.066758891873146,
                -3.094768054764863
            ]
        },
        {
            "positions": [
                -0.10214142390548803,
                -2.1860754616998666,
                -1.5113735512650845,
                -2.602971795602193,
                -0.8870451895796906,
                -3.0970114342425106
            ]
        },
        {
            "positions": [
                -0.11889251887166447,
                -2.200896864038792,
                -1.4323288484119754,
                -2.666769143713541,
                -0.707331487286235,
                -3.0992548137201585
            ]
        },
        {
            "positions": [
                -0.13564361383784088,
                -2.2157182663777166,
                -1.3532841455588662,
                -2.730566491824889,
                -0.5276177849927792,
                -3.1014981931978065
            ]
        },
        {
            "positions": [
                -0.1523947088040173,
                -2.230539668716642,
                -1.274239442705757,
                -2.794363839936237,
                -0.3479040826993236,
                -3.103741572675454
            ]
        },
        {
            "positions": [
                -0.16914580377019373,
                -2.2453610710555667,
                -1.195194739852648,
                -2.858161188047585,
                -0.16819038040586792,
                -3.105984952153102
            ]
        }
    ]
}