{
    "goal": {
        "global_pose": {
            "orientation": {
                "w": -0.00223480608172531,
                "x": 0.0024358444001904467,
                "y": 0.7094548369677653,
                "z": -0.704743149386269
            },
            "position": {
                "x": -0.37947507619857795,
                "y": -0.6371506643295288,
                "z": 0.19426114857196808
            }
        },
        "name": "move_to_magneteinheit_C"
    },
    "id": "SPARStwo_move_to_magneteinheit_C_121",
    "joint_names": [
        "shoulder_pan_joint",
        "shoulder_lift_joint",
        "elbow_joint",
        "wrist_1_joint",
        "wrist_2_joint",
        "wrist_3_joint"
    ],
    "metrics": {
        "cart_traj_len": 1.54643575415758,
        "distance_elbow_joint": 0.11754834703158545,
        "distance_shoulder_lift_joint": 0.8737495891427502,
        "distance_shoulder_pan_joint": 1.94928079223625,
        "distance_wrist_1_joint": 0.5247879220510454,
        "distance_wrist_2_joint": 0.7961750942169524,
        "distance_wrist_3_joint": 0.2188731740678862,
        "smoothness": 1.6840780110958529,
        "time": 5.012655598,
        "traj_len": 2.11669906192318,
        "weighted_distance": 2.497823909556124
    },
    "planner": "SPARStwo",
    "start": {
        "state": {
            "elbow_joint": 1.9565354010623817,
            "shoulder_lift_joint": -1.4165861575791021,
            "shoulder_pan_joint": -1.6717766225146293,
            "wrist_1_joint": -0.5286633292919765,
            "wrist_2_joint": 1.472756589071564,
            "wrist_3_joint": -3.1238370188695823
        }
    },
    "waypoints": [
        {
            "positions": [
                -1.6717766225146293,
                -1.4165861575791021,
                1.9565354010623817,
                -0.5286633292919765,
                1.472756589071564,
                -3.1238370188695823
            ]
        },
        {
            "positions": [
                -1.5570022938164902,
                -1.478624950938718,
                1.9732383022019127,
                -0.5050226680620684,
                1.3657330534289474,
                -3.1048526055990577
            ]
        },
        {
            "positions": [
                -1.442227965118351,
                -1.5406637442983337,
                1.9899412033414436,
                -0.4813820068321605,
                1.2587095177863308,
                -3.085868192328533
            ]
        },
        {
            "positions": [
                -1.3274536364202119,
                -1.6027025376579493,
                2.0066441044809746,
                -0.4577413456022525,
                1.1516859821437142,
                -3.0668837790580086
            ]
        },
        {
            "positions": [
                -1.2126793077220728,
                -1.6647413310175652,
                2.0233470056205056,
                -0.4341006843723445,
                1.0446624465010976,
                -3.047899365787484
            ]
        },
        {
            "positions": [
                -1.0979049790239337,
                -1.726780124377181,
                2.0400499067600366,
                -0.4104600231424365,
                0.937638910858481,
                -3.0289149525169594
            ]
        },
        {
            "positions": [
                -1.2943920002732985,
                -1.6462721783279421,
                2.035187929426618,
                -0.46854353969979445,
                0.9003449942864996,
                -3.04662225361914
            ]
        },
        {
            "positions": [
                -1.4908790215226635,
                -1.5657642322787035,
                2.0303259520931993,
                -0.5266270562571523,
                0.8630510777145183,
                -3.0643295547213203
            ]
        },
        {
            "positions": [
                -1.6873660427720285,
                -1.4852562862294647,
                2.0254639747597807,
                -0.5847105728145103,
                0.8257571611425369,
                -3.082036855823501
            ]
        },
        {
            "positions": [
                -1.8838530640213933,
                -1.4047483401802259,
                2.020601997426362,
                -0.6427940893718682,
                0.7884632445705555,
                -3.099744156925681
            ]
        },
        {
            "positions": [
                -2.080340085270758,
                -1.324240394130987,
                2.0157400200929434,
                -0.7008776059292261,
                0.7511693279985742,
                -3.117451458027862
            ]
        },
        {
            "positions": [
                -2.2768271065201233,
                -1.2437324480817484,
                2.0108780427595248,
                -0.758961122486584,
                0.7138754114265928,
                -3.135158759130042
            ]
        },
        {
            "positions": [
                -2.473314127769488,
                -1.1632245020325096,
                2.006016065426106,
                -0.817044639043942,
                0.6765814948546115,
                -3.1528660602322227
            ]
        }
    ]
}