{
    "goal": {
        "global_pose": {
            "orientation": {
                "w": -0.00223480608172531,
                "x": 0.0024358444001904467,
                "y": 0.7094548369677653,
                "z": -0.704743149386269
            },
            "position": {
                "x": -0.37947507619857795,
                "y": -0.6371506643295288,
                "z": 0.19426114857196808
            }
        },
        "name": "move_to_magneteinheit_C"
    },
    "id": "SPARStwo_move_to_magneteinheit_C_15",
    "joint_names": [
        "shoulder_pan_joint",
        "shoulder_lift_joint",
        "elbow_joint",
        "wrist_1_joint",
        "wrist_2_joint",
        "wrist_3_joint"
    ],
    "metrics": {
        "cart_traj_len": 0.6795930895078082,
        "distance_elbow_joint": 0.5001207653001427,
        "distance_shoulder_lift_joint": 0.3094008758958524,
        "distance_shoulder_pan_joint": 0.8020165620014013,
        "distance_wrist_1_joint": 3.807929357804937,
        "distance_wrist_2_joint": 0.7955496297936182,
        "distance_wrist_3_joint": 1.8930683522026253,
        "smoothness": 1.0521770001918738,
        "time": 5.016930563,
        "traj_len": 2.847470024951725,
        "weighted_distance": 4.061736234050949
    },
    "planner": "SPARStwo",
    "start": {
        "state": {
            "elbow_joint": 1.9565354010623817,
            "shoulder_lift_joint": -1.4165861575791021,
            "shoulder_pan_joint": -1.6717766225146293,
            "wrist_1_joint": -0.5286633292919765,
            "wrist_2_joint": 1.472756589071564,
            "wrist_3_joint": -3.1238370188695823
        }
    },
    "waypoints": [
        {
            "positions": [
                -1.6717766225146293,
                -1.4165861575791021,
                1.9565354010623817,
                -0.5286633292919765,
                1.472756589071564,
                -3.1238370188695823
            ]
        },
        {
            "positions": [
                -1.7360563364715405,
                -1.3931477321378056,
                1.9378613045825,
                -0.38225283850124486,
                1.4385230137735014,
                -3.046231585951446
            ]
        },
        {
            "positions": [
                -1.8003360504284516,
                -1.3697093066965094,
                1.9191872081026184,
                -0.23584234771051327,
                1.404289438475439,
                -2.96862615303331
            ]
        },
        {
            "positions": [
                -1.8646157643853627,
                -1.3462708812552129,
                1.9005131116227367,
                -0.08943185691978167,
                1.3700558631773765,
                -2.891020720115174
            ]
        },
        {
            "positions": [
                -1.9288954783422738,
                -1.3228324558139164,
                1.881839015142855,
                0.056978633870949924,
                1.3358222878793138,
                -2.8134152871970377
            ]
        },
        {
            "positions": [
                -1.993175192299185,
                -1.29939403037262,
                1.8631649186629735,
                0.20338912466168158,
                1.3015887125812513,
                -2.7358098542789016
            ]
        },
        {
            "positions": [
                -2.0574549062560963,
                -1.2759556049313234,
                1.8444908221830918,
                0.3497996154524131,
                1.2673551372831888,
                -2.6582044213607654
            ]
        },
        {
            "positions": [
                -2.121734620213007,
                -1.2525171794900272,
                1.82581672570321,
                0.49621010624314477,
                1.2331215619851263,
                -2.5805989884426292
            ]
        },
        {
            "positions": [
                -2.1860143341699185,
                -1.2290787540487307,
                1.8071426292233286,
                0.6426205970338763,
                1.1988879866870639,
                -2.502993555524493
            ]
        },
        {
            "positions": [
                -2.25029404812683,
                -1.2056403286074342,
                1.7884685327434469,
                0.7890310878246078,
                1.1646544113890012,
                -2.425388122606357
            ]
        },
        {
            "positions": [
                -2.3145737620837408,
                -1.182201903166138,
                1.7697944362635651,
                0.9354415786153396,
                1.1304208360909387,
                -2.347782689688221
            ]
        },
        {
            "positions": [
                -2.3788534760406517,
                -1.1587634777248415,
                1.7511203397836836,
                1.081852069406071,
                1.0961872607928762,
                -2.2701772567700846
            ]
        },
        {
            "positions": [
                -2.443133189997563,
                -1.135325052283545,
                1.732446243303802,
                1.2282625601968027,
                1.0619536854948137,
                -2.1925718238519485
            ]
        },
        {
            "positions": [
                -2.44619918944941,
                -1.1381390293435745,
                1.7600494040579582,
                1.0231622133651868,
                1.023479012873127,
                -2.2887521395704478
            ]
        },
        {
            "positions": [
                -2.4492651889012564,
                -1.140953006403604,
                1.7876525648121144,
                0.8180618665335708,
                0.9850043402514401,
                -2.3849324552889466
            ]
        },
        {
            "positions": [
                -2.4523311883531034,
                -1.1437669834636335,
                1.815255725566271,
                0.6129615197019549,
                0.9465296676297533,
                -2.481112771007446
            ]
        },
        {
            "positions": [
                -2.45539718780495,
                -1.146580960523663,
                1.8428588863204272,
                0.40786117287033896,
                0.9080549950080665,
                -2.577293086725945
            ]
        },
        {
            "positions": [
                -2.458463187256797,
                -1.1493949375836925,
                1.8704620470745834,
                0.20276082603872303,
                0.8695803223863797,
                -2.6734734024444444
            ]
        },
        {
            "positions": [
                -2.4615291867086437,
                -1.1522089146437222,
                1.8980652078287397,
                -0.002339520792892902,
                0.8311056497646929,
                -2.7696537181629433
            ]
        },
        {
            "positions": [
                -2.4645951861604902,
                -1.1550228917037517,
                1.925668368582896,
                -0.20743986762450883,
                0.7926309771430061,
                -2.8658340338814425
            ]
        },
        {
            "positions": [
                -2.467661185612337,
                -1.1578368687637812,
                1.9532715293370524,
                -0.41254021445612477,
                0.7541563045213193,
                -2.962014349599942
            ]
        },
        {
            "positions": [
                -2.4707271850641837,
                -1.1606508458238107,
                1.9808746900912086,
                -0.6176405612877407,
                0.7156816318996325,
                -3.0581946653184406
            ]
        },
        {
            "positions": [
                -2.4737931845160306,
                -1.1634648228838402,
                2.008477850845365,
                -0.8227409081193567,
                0.6772069592779457,
                -3.15437498103694
            ]
        }
    ]
}