{
    "goal": {
        "global_pose": {
            "orientation": {
                "w": -0.00223480608172531,
                "x": 0.0024358444001904467,
                "y": 0.7094548369677653,
                "z": -0.704743149386269
            },
            "position": {
                "x": 0.6205249238014221,
                "y": -0.6371506643295288,
                "z": 0.19426114857196808
            }
        },
        "name": "move_to_magneteinheit_B"
    },
    "id": "SPARS_move_to_magneteinheit_B_52",
    "joint_names": [
        "shoulder_pan_joint",
        "shoulder_lift_joint",
        "elbow_joint",
        "wrist_1_joint",
        "wrist_2_joint",
        "wrist_3_joint"
    ],
    "metrics": {
        "cart_traj_len": 1.5055162050946778,
        "distance_elbow_joint": 0.9563763828810978,
        "distance_shoulder_lift_joint": 0.9431183974230621,
        "distance_shoulder_pan_joint": 1.6202099916796837,
        "distance_wrist_1_joint": 2.2318437065178744,
        "distance_wrist_2_joint": 1.8701042464943454,
        "distance_wrist_3_joint": 0.3501414754008537,
        "smoothness": 0.5001260751526226,
        "time": 5.062615612,
        "traj_len": 2.8234365940103774,
        "weighted_distance": 3.574076818454081
    },
    "planner": "SPARS",
    "start": {
        "state": {
            "elbow_joint": 2.6216224122426386,
            "shoulder_lift_joint": -1.4174107377796124,
            "shoulder_pan_joint": 0.7066234856936794,
            "wrist_1_joint": 1.9546482284002225,
            "wrist_2_joint": -0.7096286983471962,
            "wrist_3_joint": 0.005740856962016249
        }
    },
    "waypoints": [
        {
            "positions": [
                0.7066234856936794,
                -1.4174107377796124,
                2.6216224122426386,
                1.9546482284002225,
                -0.7096286983471962,
                0.005740856962016249
            ]
        },
        {
            "positions": [
                0.6606277132792557,
                -1.4409652951795802,
                2.5782449736887605,
                1.7903363530926462,
                -0.6675886015486819,
                -0.02012883131258441
            ]
        },
        {
            "positions": [
                0.6146319408648322,
                -1.4645198525795482,
                2.534867535134882,
                1.62602447778507,
                -0.6255485047501677,
                -0.04599851958718507
            ]
        },
        {
            "positions": [
                0.5686361684504085,
                -1.4880744099795162,
                2.4914900965810034,
                1.461712602477494,
                -0.5835084079516535,
                -0.07186820786178573
            ]
        },
        {
            "positions": [
                0.5226403960359849,
                -1.511628967379484,
                2.4481126580271253,
                1.2974007271699177,
                -0.5414683111531392,
                -0.09773789613638639
            ]
        },
        {
            "positions": [
                0.3983552073775041,
                -1.4713477808569522,
                2.368396549379835,
                1.2465004130012702,
                -0.6256170734122284,
                -0.10675230212859266
            ]
        },
        {
            "positions": [
                0.27407001871902326,
                -1.43106659433442,
                2.288680440732545,
                1.1956000988326227,
                -0.7097658356713177,
                -0.11576670812079892
            ]
        },
        {
            "positions": [
                0.14978483006054244,
                -1.3907854078118882,
                2.2089643320852548,
                1.1446997846639753,
                -0.7939145979304068,
                -0.12478111411300519
            ]
        },
        {
            "positions": [
                0.025499641402061624,
                -1.350504221289356,
                2.1292482234379646,
                1.093799470495328,
                -0.878063360189496,
                -0.13379552010521145
            ]
        },
        {
            "positions": [
                -0.09878554725641919,
                -1.3102230347668242,
                2.0495321147906744,
                1.0428991563266805,
                -0.9622121224485853,
                -0.14280992609741772
            ]
        },
        {
            "positions": [
                -0.2230707359149,
                -1.2699418482442923,
                1.969816006143384,
                0.991998842158033,
                -1.0463608847076744,
                -0.15182433208962398
            ]
        },
        {
            "positions": [
                -0.3473559245733809,
                -1.2296606617217603,
                1.8900998974960939,
                0.9410985279893855,
                -1.1305096469667637,
                -0.16083873808183025
            ]
        },
        {
            "positions": [
                -0.4039789827146432,
                -1.1729674755052135,
                1.8676145106826385,
                1.0629279286000892,
                -1.24179989931543,
                -0.14248255004612953
            ]
        },
        {
            "positions": [
                -0.46060204085590556,
                -1.116274289288667,
                1.8451291238691832,
                1.1847573292107931,
                -1.3530901516640965,
                -0.1241263620104288
            ]
        },
        {
            "positions": [
                -0.5172250989971678,
                -1.0595811030721203,
                1.822643737055728,
                1.3065867298214968,
                -1.4643804040127628,
                -0.10577017397472809
            ]
        },
        {
            "positions": [
                -0.5738481571384302,
                -1.0028879168555735,
                1.8001583502422727,
                1.4284161304322005,
                -1.5756706563614293,
                -0.08741398593902736
            ]
        },
        {
            "positions": [
                -0.6304712152796925,
                -0.9461947306390269,
                1.7776729634288173,
                1.5502455310429042,
                -1.6869609087100956,
                -0.06905779790332664
            ]
        },
        {
            "positions": [
                -0.6870942734209549,
                -0.8895015444224803,
                1.755187576615362,
                1.6720749316536079,
                -1.798251161058762,
                -0.050701609867625924
            ]
        },
        {
            "positions": [
                -0.7437173315622172,
                -0.8328083582059336,
                1.7327021898019068,
                1.7939043322643118,
                -1.9095414134074282,
                -0.03234542183192521
            ]
        },
        {
            "positions": [
                -0.8003403897034795,
                -0.7761151719893868,
                1.7102168029884512,
                1.9157337328750157,
                -2.020831665756095,
                -0.013989233796224465
            ]
        },
        {
            "positions": [
                -0.8569634478447419,
                -0.7194219857728402,
                1.6877314161749961,
                2.0375631334857194,
                -2.1321219181047613,
                0.004366954239476251
            ]
        },
        {
            "positions": [
                -0.9135865059860043,
                -0.6627287995562936,
                1.6652460293615408,
                2.159392534096423,
                -2.2434121704534276,
                0.022723142275176966
            ]
        }
    ]
}