{
    "goal": {
        "global_pose": {
            "orientation": {
                "w": 0.5084816217422485,
                "x": -0.49083608388900757,
                "y": 0.5182115435600281,
                "z": -0.4816462993621826
            },
            "position": {
                "x": 0.5540239810943604,
                "y": 0.030875300988554955,
                "z": 0.16403168439865112
            }
        },
        "name": "move_to_storage_A"
    },
    "id": "SPARS_move_to_storage_A_12",
    "joint_names": [
        "shoulder_pan_joint",
        "shoulder_lift_joint",
        "elbow_joint",
        "wrist_1_joint",
        "wrist_2_joint",
        "wrist_3_joint"
    ],
    "metrics": {
        "cart_traj_len": 0.35256901518488504,
        "distance_elbow_joint": 0.45059958372788933,
        "distance_shoulder_lift_joint": 0.23605305256748044,
        "distance_shoulder_pan_joint": 0.4624915207047179,
        "distance_wrist_1_joint": 0.23913295286850167,
        "distance_wrist_2_joint": 1.0928207819735218,
        "distance_wrist_3_joint": 0.09936174333277004,
        "smoothness": 2.2204460668324854e-16,
        "time": 5.025868816999999,
        "traj_len": 1.6063809122293755,
        "weighted_distance": 2.0275938589082494
    },
    "planner": "SPARS",
    "start": {
        "state": {
            "elbow_joint": 1.971548259319323,
            "shoulder_lift_joint": -1.1394851275133948,
            "shoulder_pan_joint": 0.1228115487234821,
            "wrist_1_joint": -0.7804723859257726,
            "wrist_2_joint": 0.12958671773740124,
            "wrist_3_joint": -3.192489227718131
        }
    },
    "waypoints": [
        {
            "positions": [
                0.1228115487234821,
                -1.1394851275133948,
                1.971548259319323,
                -0.7804723859257726,
                0.12958671773740124,
                -3.192489227718131
            ]
        },
        {
            "positions": [
                0.056741331479950974,
                -1.173206992165892,
                2.035919628423307,
                -0.8146342363355585,
                0.2857039723050472,
                -3.1782946929563067
            ]
        },
        {
            "positions": [
                -0.009328885763580153,
                -1.2069288568183891,
                2.100290997527291,
                -0.8487960867453446,
                0.4418212268726932,
                -3.1641001581944828
            ]
        },
        {
            "positions": [
                -0.07539910300711128,
                -1.2406507214708864,
                2.1646623666312754,
                -0.8829579371551305,
                0.5979384814403391,
                -3.1499056234326583
            ]
        },
        {
            "positions": [
                -0.1414693202506424,
                -1.2743725861233837,
                2.2290337357352596,
                -0.9171197875649164,
                0.7540557360079851,
                -3.135711088670834
            ]
        },
        {
            "positions": [
                -0.20753953749417353,
                -1.308094450775881,
                2.293405104839244,
                -0.9512816379747024,
                0.9101729905756312,
                -3.1215165539090095
            ]
        },
        {
            "positions": [
                -0.27360975473770466,
                -1.341816315428378,
                2.357776473943228,
                -0.9854434883844883,
                1.066290245143277,
                -3.1073220191471855
            ]
        },
        {
            "positions": [
                -0.3396799719812358,
                -1.3755381800808753,
                2.4221478430472123,
                -1.0196053387942743,
                1.222407499710923,
                -3.093127484385361
            ]
        }
    ]
}{
    "goal": {
        "global_pose": {
            "orientation": {
                "w": 0.5084816217422485,
                "x": -0.49083608388900757,
                "y": 0.5182115435600281,
                "z": -0.4816462993621826
            },
            "position": {
                "x": 0.5540239810943604,
                "y": 0.030875300988554955,
                "z": 0.16403168439865112
            }
        },
        "name": "move_to_storage_A"
    },
    "id": "SPARS_move_to_storage_A_12",
    "joint_names": [
        "shoulder_pan_joint",
        "shoulder_lift_joint",
        "elbow_joint",
        "wrist_1_joint",
        "wrist_2_joint",
        "wrist_3_joint"
    ],
    "metrics": {
        "cart_traj_len": 0.35329449945861363,
        "distance_elbow_joint": 0.4505185723271379,
        "distance_shoulder_lift_joint": 0.2352244835779329,
        "distance_shoulder_pan_joint": 0.46355147414346504,
        "distance_wrist_1_joint": 0.24535454196476825,
        "distance_wrist_2_joint": 1.0927541104140492,
        "distance_wrist_3_joint": 0.09163195002643354,
        "smoothness": 4.440892098500626e-16,
        "time": 5.018804972,
        "traj_len": 1.6059374621864286,
        "weighted_distance": 2.024946341236101
    },
    "planner": "SPARS",
    "start": {
        "state": {
            "elbow_joint": 1.97154746011099,
            "shoulder_lift_joint": -1.13948474672311,
            "shoulder_pan_joint": 0.12281154466712228,
            "wrist_1_joint": -0.7804688027058302,
            "wrist_2_joint": 0.12958655903071145,
            "wrist_3_joint": 3.0906928834467795
        }
    },
    "waypoints": [
        {
            "positions": [
                0.12281154466712228,
                -1.13948474672311,
                1.97154746011099,
                -0.7804688027058302,
                0.12958655903071145,
                3.0906928834467795
            ]
        },
        {
            "positions": [
                0.05658990550377013,
                -1.1730882443771005,
                2.035907256157724,
                -0.8155194515579399,
                0.28569428908986133,
                3.1037831620219842
            ]
        },
        {
            "positions": [
                -0.009631733659582017,
                -1.2066917420310908,
                2.1002670522044578,
                -0.8505701004100497,
                0.4418020191490112,
                3.116873440597189
            ]
        },
        {
            "positions": [
                -0.07585337282293415,
                -1.2402952396850813,
                2.1646268482511917,
                -0.8856207492621594,
                0.5979097492081611,
                3.1299637191723937
            ]
        },
        {
            "positions": [
                -0.1420750119862863,
                -1.2738987373390716,
                2.228986644297926,
                -0.9206713981142691,
                0.754017479267311,
                3.143053997747599
            ]
        },
        {
            "positions": [
                -0.20829665114963847,
                -1.307502234993062,
                2.29334644034466,
                -0.955722046966379,
                0.9101252093264609,
                3.1561442763228036
            ]
        },
        {
            "positions": [
                -0.2745182903129906,
                -1.3411057326470524,
                2.357706236391394,
                -0.9907726958184887,
                1.0662329393856107,
                3.1692345548980083
            ]
        },
        {
            "positions": [
                -0.34073992947634274,
                -1.3747092303010429,
                2.422066032438128,
                -1.0258233446705984,
                1.2223406694447607,
                3.182324833473213
            ]
        }
    ]
}{
    "goal": {
        "global_pose": {
            "orientation": {
                "w": 0.5084816217422485,
                "x": -0.49083608388900757,
                "y": 0.5182115435600281,
                "z": -0.4816462993621826
            },
            "position": {
                "x": 0.5540239810943604,
                "y": 0.030875300988554955,
                "z": 0.16403168439865112
            }
        },
        "name": "move_to_storage_A"
    },
    "id": "SPARS_move_to_storage_A_12",
    "joint_names": [
        "shoulder_pan_joint",
        "shoulder_lift_joint",
        "elbow_joint",
        "wrist_1_joint",
        "wrist_2_joint",
        "wrist_3_joint"
    ],
    "metrics": {
        "cart_traj_len": 0.3536444653898131,
        "distance_elbow_joint": 0.4518632369636846,
        "distance_shoulder_lift_joint": 0.23317506383517994,
        "distance_shoulder_pan_joint": 0.4631890744388892,
        "distance_wrist_1_joint": 0.2564551194448732,
        "distance_wrist_2_joint": 1.0958438943843474,
        "distance_wrist_3_joint": 0.09128785841024811,
        "smoothness": 4.440892133664971e-16,
        "time": 5.021645952,
        "traj_len": 1.6099112545346164,
        "weighted_distance": 2.0314253562774436
    },
    "planner": "SPARS",
    "start": {
        "state": {
            "elbow_joint": 1.9715472970024885,
            "shoulder_lift_joint": -1.1394870060712896,
            "shoulder_pan_joint": 0.12281152778156021,
            "wrist_1_joint": -0.780463741449964,
            "wrist_2_joint": 0.12958659822042276,
            "wrist_3_joint": 3.090690232415272
        }
    },
    "waypoints": [
        {
            "positions": [
                0.12281152778156021,
                -1.1394870060712896,
                1.9715472970024885,
                -0.780463741449964,
                0.12958659822042276,
                3.090690232415272
            ]
        },
        {
            "positions": [
                0.05664166000457606,
                -1.1727977294763152,
                2.0360991879973005,
                -0.8171001870849459,
                0.28613572598961523,
                3.103731355045307
            ]
        },
        {
            "positions": [
                -0.009528207772408093,
                -1.206108452881341,
                2.100651078992113,
                -0.8537366327199277,
                0.44268485375880773,
                3.116772477675343
            ]
        },
        {
            "positions": [
                -0.07569807554939226,
                -1.2394191762863667,
                2.165202969986925,
                -0.8903730783549096,
                0.5992339815280002,
                3.1298136003053783
            ]
        },
        {
            "positions": [
                -0.1418679433263764,
                -1.2727298996913925,
                2.229754860981737,
                -0.9270095239898916,
                0.7557831092971926,
                3.1428547229354136
            ]
        },
        {
            "positions": [
                -0.2080378111033606,
                -1.306040623096418,
                2.294306751976549,
                -0.9636459696248734,
                0.9123322370663851,
                3.155895845565449
            ]
        },
        {
            "positions": [
                -0.2742076788803447,
                -1.3393513465014437,
                2.358858642971361,
                -1.0002824152598553,
                1.0688813648355777,
                3.1689369681954846
            ]
        },
        {
            "positions": [
                -0.34037754665732894,
                -1.3726620699064696,
                2.423410533966173,
                -1.0369188608948372,
                1.22543049260477,
                3.18197809082552
            ]
        }
    ]
}