{
    "goal": {
        "global_pose": {
            "orientation": {
                "w": -0.4816463035849501,
                "x": 0.5182115481033762,
                "y": 0.4908360881923453,
                "z": -0.5084816262002911
            },
            "position": {
                "x": -0.8240239810943604,
                "y": 0.19912469901144506,
                "z": 0.16403168439865112
            }
        },
        "name": "move_to_storage_D"
    },
    "id": "SPARS_move_to_storage_D_142",
    "joint_names": [
        "shoulder_pan_joint",
        "shoulder_lift_joint",
        "elbow_joint",
        "wrist_1_joint",
        "wrist_2_joint",
        "wrist_3_joint"
    ],
    "metrics": {
        "cart_traj_len": 3.604907613623391,
        "distance_elbow_joint": 4.2513743324557485,
        "distance_shoulder_lift_joint": 1.891721611525929,
        "distance_shoulder_pan_joint": 2.8108155737655225,
        "distance_wrist_1_joint": 2.265977700824945,
        "distance_wrist_2_joint": 0.865648437811016,
        "distance_wrist_3_joint": 3.12912950429112,
        "smoothness": 0.05579045794059309,
        "time": 5.0357769,
        "traj_len": 3.900598308038689,
        "weighted_distance": 4.960297602754545
    },
    "planner": "SPARS",
    "start": {
        "state": {
            "elbow_joint": -2.384821988534728,
            "shoulder_lift_joint": -2.2788054721415256,
            "shoulder_pan_joint": -0.1854694642142757,
            "wrist_1_joint": 1.4845938289331202,
            "wrist_2_joint": 0.17898776772866878,
            "wrist_3_joint": 0.037105688729662994
        }
    },
    "waypoints": [
        {
            "positions": [
                -0.1854694642142757,
                -2.2788054721415256,
                -2.384821988534728,
                1.4845938289331202,
                0.17898776772866878,
                0.037105688729662994
            ]
        },
        {
            "positions": [
                -0.11850259984086427,
                -2.2984032023466883,
                -2.1973825762005124,
                1.4590459597694228,
                0.20302505871431267,
                -0.019348734865394297
            ]
        },
        {
            "positions": [
                -0.051535735467452826,
                -2.318000932551851,
                -2.009943163866297,
                1.433498090605725,
                0.22706234969995656,
                -0.07580315846045159
            ]
        },
        {
            "positions": [
                0.01543112890595863,
                -2.337598662757014,
                -1.8225037515320812,
                1.4079502214420276,
                0.2510996406856004,
                -0.1322575820555089
            ]
        },
        {
            "positions": [
                0.08239799327937006,
                -2.3571963929621766,
                -1.6350643391978656,
                1.38240235227833,
                0.2751369316712443,
                -0.18871200565056617
            ]
        },
        {
            "positions": [
                0.14936485765278149,
                -2.3767941231673393,
                -1.44762492686365,
                1.3568544831146325,
                0.2991742226568882,
                -0.24516642924562346
            ]
        },
        {
            "positions": [
                0.21633172202619297,
                -2.396391853372502,
                -1.2601855145294347,
                1.331306613950935,
                0.3232115136425321,
                -0.30162085284068074
            ]
        },
        {
            "positions": [
                0.28329858639960437,
                -2.4159895835776646,
                -1.0727461021952192,
                1.3057587447872374,
                0.347248804628176,
                -0.358075276435738
            ]
        },
        {
            "positions": [
                0.35026545077301585,
                -2.4355873137828272,
                -0.8853066898610036,
                1.28021087562354,
                0.37128609561381987,
                -0.41452970003079537
            ]
        },
        {
            "positions": [
                0.41723231514642733,
                -2.4551850439879903,
                -0.697867277526788,
                1.2546630064598425,
                0.39532338659946376,
                -0.4709841236258526
            ]
        },
        {
            "positions": [
                0.4841991795198387,
                -2.474782774193153,
                -0.5104278651925724,
                1.2291151372961449,
                0.41936067758510764,
                -0.5274385472209099
            ]
        },
        {
            "positions": [
                0.5511660438932502,
                -2.4943805043983156,
                -0.3229884528583571,
                1.2035672681324474,
                0.44339796857075153,
                -0.5838929708159671
            ]
        },
        {
            "positions": [
                0.6181329082666617,
                -2.5139782346034782,
                -0.13554904052414152,
                1.17801939896875,
                0.4674352595563954,
                -0.6403473944110245
            ]
        },
        {
            "positions": [
                0.685099772640073,
                -2.533575964808641,
                0.051890371810074054,
                1.1524715298050523,
                0.4914725505420393,
                -0.6968018180060818
            ]
        },
        {
            "positions": [
                0.7520666370134845,
                -2.553173695013804,
                0.23932978414428963,
                1.1269236606413549,
                0.5155098415276832,
                -0.753256241601139
            ]
        },
        {
            "positions": [
                0.819033501386896,
                -2.5727714252189666,
                0.4267691964785052,
                1.1013757914776572,
                0.5395471325133271,
                -0.8097106651961964
            ]
        },
        {
            "positions": [
                0.8860003657603073,
                -2.5923691554241293,
                0.6142086088127208,
                1.0758279223139597,
                0.563584423498971,
                -0.8661650887912536
            ]
        },
        {
            "positions": [
                0.960626678540931,
                -2.528485180047715,
                0.6728428984151309,
                0.9983330155679508,
                0.5844865403082928,
                -0.9602725923833659
            ]
        },
        {
            "positions": [
                1.0352529913215547,
                -2.4646012046713004,
                0.731477188017541,
                0.920838108821942,
                0.6053886571176147,
                -1.054380095975478
            ]
        },
        {
            "positions": [
                1.1098793041021784,
                -2.4007172292948855,
                0.790111477619951,
                0.8433432020759332,
                0.6262907739269366,
                -1.1484875995675905
            ]
        },
        {
            "positions": [
                1.1845056168828019,
                -2.336833253918471,
                0.8487457672223612,
                0.7658482953299243,
                0.6471928907362585,
                -1.2425951031597027
            ]
        },
        {
            "positions": [
                1.2591319296634258,
                -2.2729492785420566,
                0.9073800568247713,
                0.6883533885839154,
                0.6680950075455804,
                -1.336702606751815
            ]
        },
        {
            "positions": [
                1.3337582424440493,
                -2.209065303165642,
                0.9660143464271813,
                0.6108584818379066,
                0.6889971243549022,
                -1.4308101103439272
            ]
        },
        {
            "positions": [
                1.408384555224673,
                -2.1451813277892273,
                1.0246486360295914,
                0.5333635750918977,
                0.7098992411642241,
                -1.5249176139360396
            ]
        },
        {
            "positions": [
                1.4830108680052967,
                -2.081297352412813,
                1.0832829256320016,
                0.4558686683458888,
                0.730801357973546,
                -1.6190251175281518
            ]
        },
        {
            "positions": [
                1.5576371807859204,
                -2.0174133770363984,
                1.1419172152344117,
                0.3783737615998799,
                0.7517034747828679,
                -1.713132621120264
            ]
        },
        {
            "positions": [
                1.632263493566544,
                -1.953529401659984,
                1.2005515048368218,
                0.300878854853871,
                0.7726055915921898,
                -1.8072401247123764
            ]
        },
        {
            "positions": [
                1.7068898063471678,
                -1.8896454262835691,
                1.259185794439232,
                0.2233839481078621,
                0.7935077084015116,
                -1.9013476283044888
            ]
        },
        {
            "positions": [
                1.7815161191277915,
                -1.8257614509071547,
                1.3178200840416419,
                0.14588904136185332,
                0.8144098252108335,
                -1.995455131896601
            ]
        },
        {
            "positions": [
                1.8561424319084152,
                -1.7618774755307403,
                1.3764543736440522,
                0.06839413461584432,
                0.8353119420201554,
                -2.089562635488713
            ]
        },
        {
            "positions": [
                1.9307687446890387,
                -1.6979935001543258,
                1.4350886632464621,
                -0.009100772130164358,
                0.8562140588294773,
                -2.1836701390808253
            ]
        },
        {
            "positions": [
                2.005395057469663,
                -1.6341095247779112,
                1.4937229528488722,
                -0.08659567887617348,
                0.8771161756387992,
                -2.277777642672938
            ]
        },
        {
            "positions": [
                2.080021370250286,
                -1.5702255494014967,
                1.5523572424512824,
                -0.16409058562218215,
                0.898018292448121,
                -2.37188514626505
            ]
        },
        {
            "positions": [
                2.15464768303091,
                -1.506341574025082,
                1.6109915320536925,
                -0.24158549236819105,
                0.918920409257443,
                -2.4659926498571623
            ]
        },
        {
            "positions": [
                2.2292739958115337,
                -1.4424575986486676,
                1.6696258216561026,
                -0.31908039911419994,
                0.9398225260667648,
                -2.5601001534492744
            ]
        },
        {
            "positions": [
                2.303900308592157,
                -1.378573623272253,
                1.7282601112585128,
                -0.39657530586020884,
                0.9607246428760867,
                -2.654207657041387
            ]
        },
        {
            "positions": [
                2.3785266213727807,
                -1.3146896478958385,
                1.7868944008609229,
                -0.47407021260621773,
                0.9816267596854085,
                -2.7483151606334992
            ]
        },
        {
            "positions": [
                2.4531529341534046,
                -1.2508056725194239,
                1.845528690463333,
                -0.5515651193522266,
                1.0025288764947304,
                -2.8424226642256114
            ]
        },
        {
            "positions": [
                2.510550659286019,
                -1.1719408574065506,
                1.838520805977437,
                -0.6281713701987592,
                1.0165646528430485,
                -2.9256230480042267
            ]
        },
        {
            "positions": [
                2.567948384418633,
                -1.0930760422936772,
                1.8315129214915407,
                -0.7047776210452918,
                1.0306004291913666,
                -3.0088234317828415
            ]
        },
        {
            "positions": [
                2.625346109551247,
                -1.014211227180804,
                1.8245050370056446,
                -0.7813838718918245,
                1.0446362055396847,
                -3.092023815561457
            ]
        }
    ]
}