{
    "goal": {
        "global_pose": {
            "orientation": {
                "w": 0.5084816217422485,
                "x": -0.49083608388900757,
                "y": 0.5182115435600281,
                "z": -0.4816462993621826
            },
            "position": {
                "x": 0.5540239810943604,
                "y": 0.030875300988554955,
                "z": 0.16403168439865112
            }
        },
        "name": "move_to_storage_A"
    },
    "id": "SPARS_move_to_storage_A_135",
    "joint_names": [
        "shoulder_pan_joint",
        "shoulder_lift_joint",
        "elbow_joint",
        "wrist_1_joint",
        "wrist_2_joint",
        "wrist_3_joint"
    ],
    "metrics": {
        "cart_traj_len": 0.3522731259189607,
        "distance_elbow_joint": 0.4494730731265537,
        "distance_shoulder_lift_joint": 0.23468660188999912,
        "distance_shoulder_pan_joint": 0.460915869594681,
        "distance_wrist_1_joint": 0.2398097594133507,
        "distance_wrist_2_joint": 1.0962847057572969,
        "distance_wrist_3_joint": 0.09426990566973936,
        "smoothness": 2.2204460668324854e-16,
        "time": 5.021640154999999,
        "traj_len": 1.6048177203195448,
        "weighted_distance": 2.0248639934478923
    },
    "planner": "SPARS",
    "start": {
        "state": {
            "elbow_joint": 1.971548259319323,
            "shoulder_lift_joint": -1.1394851275133948,
            "shoulder_pan_joint": 0.1228115487234821,
            "wrist_1_joint": -0.7804723859257726,
            "wrist_2_joint": 0.12958671773740124,
            "wrist_3_joint": -3.192489227718131
        }
    },
    "waypoints": [
        {
            "positions": [
                0.1228115487234821,
                -1.1394851275133948,
                1.971548259319323,
                -0.7804723859257726,
                0.12958671773740124,
                -3.192489227718131
            ]
        },
        {
            "positions": [
                0.056966424495670534,
                -1.1730117849262518,
                2.035758698337402,
                -0.8147309229848227,
                0.2861988185598722,
                -3.17902209833674
            ]
        },
        {
            "positions": [
                -0.008878699732141032,
                -1.2065384423391088,
                2.0999691373554814,
                -0.8489894600438728,
                0.4428109193823432,
                -3.1655549689553486
            ]
        },
        {
            "positions": [
                -0.07472382395995261,
                -1.2400650997519658,
                2.1641795763735603,
                -0.8832479971029229,
                0.5994230202048142,
                -3.1520878395739573
            ]
        },
        {
            "positions": [
                -0.14056894818776416,
                -1.273591757164823,
                2.228390015391639,
                -0.917506534161973,
                0.7560351210272852,
                -3.1386207101925656
            ]
        },
        {
            "positions": [
                -0.20641407241557574,
                -1.30711841457768,
                2.2926004544097185,
                -0.951765071221023,
                0.9126472218497562,
                -3.1251535808111743
            ]
        },
        {
            "positions": [
                -0.2722591966433873,
                -1.340645071990537,
                2.356810893427798,
                -0.9860236082800732,
                1.0692593226722271,
                -3.111686451429783
            ]
        },
        {
            "positions": [
                -0.3381043208711989,
                -1.374171729403394,
                2.4210213324458767,
                -1.0202821453391233,
                1.2258714234946981,
                -3.098219322048392
            ]
        }
    ]
}{
    "goal": {
        "global_pose": {
            "orientation": {
                "w": 0.5084816217422485,
                "x": -0.49083608388900757,
                "y": 0.5182115435600281,
                "z": -0.4816462993621826
            },
            "position": {
                "x": 0.5540239810943604,
                "y": 0.030875300988554955,
                "z": 0.16403168439865112
            }
        },
        "name": "move_to_storage_A"
    },
    "id": "SPARS_move_to_storage_A_135",
    "joint_names": [
        "shoulder_pan_joint",
        "shoulder_lift_joint",
        "elbow_joint",
        "wrist_1_joint",
        "wrist_2_joint",
        "wrist_3_joint"
    ],
    "metrics": {
        "cart_traj_len": 0.35298816732537874,
        "distance_elbow_joint": 0.448507588858317,
        "distance_shoulder_lift_joint": 0.23486426545685224,
        "distance_shoulder_pan_joint": 0.4622201716994019,
        "distance_wrist_1_joint": 0.2390023362400997,
        "distance_wrist_2_joint": 1.0956626208321254,
        "distance_wrist_3_joint": 0.09462383834527621,
        "smoothness": 4.440892098500626e-16,
        "time": 5.033947851000001,
        "traj_len": 1.604643518490033,
        "weighted_distance": 2.02454771620598
    },
    "planner": "SPARS",
    "start": {
        "state": {
            "elbow_joint": 1.97154746011099,
            "shoulder_lift_joint": -1.13948474672311,
            "shoulder_pan_joint": 0.12281154466712228,
            "wrist_1_joint": -0.7804688027058302,
            "wrist_2_joint": 0.12958655903071145,
            "wrist_3_joint": 3.0906928834467795
        }
    },
    "waypoints": [
        {
            "positions": [
                0.12281154466712228,
                -1.13948474672311,
                1.97154746011099,
                -0.7804688027058302,
                0.12958655903071145,
                3.0906928834467795
            ]
        },
        {
            "positions": [
                0.05678009156720773,
                -1.1730367846455174,
                2.0356199728050353,
                -0.814611993597273,
                0.28610979057815794,
                3.104210574638962
            ]
        },
        {
            "positions": [
                -0.009251361532706823,
                -1.2065888225679249,
                2.0996924854990806,
                -0.8487551844887158,
                0.4426330221256044,
                3.1177282658311443
            ]
        },
        {
            "positions": [
                -0.07528281463262136,
                -1.2401408604903323,
                2.163764998193126,
                -0.8828983753801586,
                0.5991562536730509,
                3.1312459570233266
            ]
        },
        {
            "positions": [
                -0.14131426773253591,
                -1.2736928984127398,
                2.227837510887171,
                -0.9170415662716014,
                0.7556794852204974,
                3.1447636482155086
            ]
        },
        {
            "positions": [
                -0.2073457208324505,
                -1.3072449363351473,
                2.291910023581216,
                -0.9511847571630443,
                0.912202716767944,
                3.158281339407691
            ]
        },
        {
            "positions": [
                -0.273377173932365,
                -1.3407969742575547,
                2.3559825362752616,
                -0.9853279480544871,
                1.0687259483153904,
                3.1717990305998733
            ]
        },
        {
            "positions": [
                -0.3394086270322796,
                -1.3743490121799622,
                2.420055048969307,
                -1.0194711389459299,
                1.2252491798628369,
                3.1853167217920557
            ]
        }
    ]
}{
    "goal": {
        "global_pose": {
            "orientation": {
                "w": 0.5084816217422485,
                "x": -0.49083608388900757,
                "y": 0.5182115435600281,
                "z": -0.4816462993621826
            },
            "position": {
                "x": 0.5540239810943604,
                "y": 0.030875300988554955,
                "z": 0.16403168439865112
            }
        },
        "name": "move_to_storage_A"
    },
    "id": "SPARS_move_to_storage_A_135",
    "joint_names": [
        "shoulder_pan_joint",
        "shoulder_lift_joint",
        "elbow_joint",
        "wrist_1_joint",
        "wrist_2_joint",
        "wrist_3_joint"
    ],
    "metrics": {
        "cart_traj_len": 0.353417699567977,
        "distance_elbow_joint": 0.4485444868732369,
        "distance_shoulder_lift_joint": 0.2343761057355589,
        "distance_shoulder_pan_joint": 0.4641758746485006,
        "distance_wrist_1_joint": 0.24044056321153162,
        "distance_wrist_2_joint": 1.0901320599158877,
        "distance_wrist_3_joint": 0.09023380623999122,
        "smoothness": 0.0,
        "time": 5.014506482,
        "traj_len": 1.6024677521325372,
        "weighted_distance": 2.0196393569724544
    },
    "planner": "SPARS",
    "start": {
        "state": {
            "elbow_joint": 1.9715472970024885,
            "shoulder_lift_joint": -1.1394870060712896,
            "shoulder_pan_joint": 0.12281152778156021,
            "wrist_1_joint": -0.780463741449964,
            "wrist_2_joint": 0.12958659822042276,
            "wrist_3_joint": 3.090690232415272
        }
    },
    "waypoints": [
        {
            "positions": [
                0.12281152778156021,
                -1.1394870060712896,
                1.9715472970024885,
                -0.780463741449964,
                0.12958659822042276,
                3.090690232415272
            ]
        },
        {
            "positions": [
                0.056500688546060135,
                -1.1729693068906553,
                2.0356250808415224,
                -0.8148123933373257,
                0.28531974963697815,
                3.103580776163842
            ]
        },
        {
            "positions": [
                -0.00981015068943994,
                -1.2064516077100207,
                2.0997028646805562,
                -0.8491610452246873,
                0.44105290105353356,
                3.1164713199124123
            ]
        },
        {
            "positions": [
                -0.07612098992494001,
                -1.2399339085293863,
                2.16378064851959,
                -0.883509697112049,
                0.5967860524700889,
                3.1293618636609826
            ]
        },
        {
            "positions": [
                -0.1424318291604401,
                -1.2734162093487518,
                2.227858432358624,
                -0.9178583489994107,
                0.7525192038866443,
                3.1422524074095524
            ]
        },
        {
            "positions": [
                -0.20874266839594016,
                -1.3068985101681174,
                2.2919362161976577,
                -0.9522070008867722,
                0.9082523553031997,
                3.1551429511581226
            ]
        },
        {
            "positions": [
                -0.2750535076314402,
                -1.3403808109874829,
                2.3560140000366916,
                -0.9865556527741339,
                1.063985506719755,
                3.168033494906693
            ]
        },
        {
            "positions": [
                -0.34136434686694034,
                -1.3738631118068485,
                2.4200917838757254,
                -1.0209043046614956,
                1.2197186581363104,
                3.180924038655263
            ]
        }
    ]
}