{
    "goal": {
        "global_pose": {
            "orientation": {
                "w": -0.00223480608172531,
                "x": 0.0024358444001904467,
                "y": 0.7094548369677653,
                "z": -0.704743149386269
            },
            "position": {
                "x": 0.6205249238014221,
                "y": -0.6371506643295288,
                "z": 0.19426114857196808
            }
        },
        "name": "move_to_magneteinheit_B"
    },
    "id": "SPARStwo_move_to_magneteinheit_B_39",
    "joint_names": [
        "shoulder_pan_joint",
        "shoulder_lift_joint",
        "elbow_joint",
        "wrist_1_joint",
        "wrist_2_joint",
        "wrist_3_joint"
    ],
    "metrics": {
        "cart_traj_len": 1.5079407615819072,
        "distance_elbow_joint": 0.9582164381493079,
        "distance_shoulder_lift_joint": 0.7910574967732295,
        "distance_shoulder_pan_joint": 1.621711937851626,
        "distance_wrist_1_joint": 0.21274894270487588,
        "distance_wrist_2_joint": 1.6063138987306813,
        "distance_wrist_3_joint": 0.12454802479760037,
        "smoothness": 0.5691862449103565,
        "time": 5.0295068359999995,
        "traj_len": 2.3053409160051186,
        "weighted_distance": 2.7171226748231447
    },
    "planner": "SPARStwo",
    "start": {
        "state": {
            "elbow_joint": 2.6216224122426386,
            "shoulder_lift_joint": -1.4174107377796124,
            "shoulder_pan_joint": 0.7066234856936794,
            "wrist_1_joint": 1.9546482284002225,
            "wrist_2_joint": -0.7096286983471962,
            "wrist_3_joint": 0.005740856962016249
        }
    },
    "waypoints": [
        {
            "positions": [
                0.7066234856936794,
                -1.4174107377796124,
                2.6216224122426386,
                1.9546482284002225,
                -0.7096286983471962,
                0.005740856962016249
            ]
        },
        {
            "positions": [
                0.6027720788667701,
                -1.434124430285133,
                2.605233520981572,
                1.9398050373813405,
                -0.666799079842227,
                -0.05947013959792427
            ]
        },
        {
            "positions": [
                0.48601357648025345,
                -1.3745595222645401,
                2.5327852481440147,
                1.9550285567418015,
                -0.787067101398051,
                -0.054905752810411976
            ]
        },
        {
            "positions": [
                0.3692550740937368,
                -1.314994614243947,
                2.4603369753064577,
                1.9702520761022626,
                -0.907335122953875,
                -0.05034136602289968
            ]
        },
        {
            "positions": [
                0.2524965717072201,
                -1.2554297062233541,
                2.3878887024689006,
                1.9854755954627237,
                -1.027603144509699,
                -0.045776979235387386
            ]
        },
        {
            "positions": [
                0.13573806932070348,
                -1.195864798202761,
                2.3154404296313436,
                2.0006991148231847,
                -1.147871166065523,
                -0.04121259244787509
            ]
        },
        {
            "positions": [
                0.018979566934186787,
                -1.1362998901821681,
                2.242992156793787,
                2.015922634183646,
                -1.268139187621347,
                -0.036648205660362795
            ]
        },
        {
            "positions": [
                -0.09777893545232985,
                -1.076734982161575,
                2.17054388395623,
                2.031146153544107,
                -1.388407209177171,
                -0.0320838188728505
            ]
        },
        {
            "positions": [
                -0.21453743783884638,
                -1.0171700741409822,
                2.098095611118673,
                2.046369672904568,
                -1.508675230732995,
                -0.027519432085338212
            ]
        },
        {
            "positions": [
                -0.33129594022536313,
                -0.9576051661203892,
                2.0256473382811158,
                2.061593192265029,
                -1.6289432522888192,
                -0.02295504529782591
            ]
        },
        {
            "positions": [
                -0.44805444261187977,
                -0.8980402580997963,
                1.9531990654435587,
                2.07681671162549,
                -1.749211273844643,
                -0.018390658510313622
            ]
        },
        {
            "positions": [
                -0.5648129449983965,
                -0.8384753500792032,
                1.8807507926060016,
                2.092040230985951,
                -1.869479295400467,
                -0.01382627172280132
            ]
        },
        {
            "positions": [
                -0.681571447384913,
                -0.7789104420586103,
                1.8083025197684446,
                2.1072637503464122,
                -1.989747316956291,
                -0.009261884935289032
            ]
        },
        {
            "positions": [
                -0.7983299497714298,
                -0.7193455340380172,
                1.7358542469308875,
                2.1224872697068733,
                -2.110015338512115,
                -0.00469749814777673
            ]
        },
        {
            "positions": [
                -0.9150884521579464,
                -0.6597806260174243,
                1.6634059740933307,
                2.1377107890673344,
                -2.230283360067939,
                -0.0001331113602644399
            ]
        }
    ]
}