{
    "goal": {
        "global_pose": {
            "orientation": {
                "w": 0.7047431493862688,
                "x": -0.7094548369677653,
                "y": 0.0024358444001904,
                "z": -0.0022348060817251984
            },
            "position": {
                "x": -0.39052492380142206,
                "y": 0.3671506643295288,
                "z": 0.19426114857196808
            }
        },
        "name": "move_to_magneteinheit_D"
    },
    "id": "SPARS_move_to_magneteinheit_D_76",
    "joint_names": [
        "shoulder_pan_joint",
        "shoulder_lift_joint",
        "elbow_joint",
        "wrist_1_joint",
        "wrist_2_joint",
        "wrist_3_joint"
    ],
    "metrics": {
        "cart_traj_len": 4.614261039417252,
        "distance_elbow_joint": 3.931732504392945,
        "distance_shoulder_lift_joint": 1.153437682494761,
        "distance_shoulder_pan_joint": 3.1960667468957995,
        "distance_wrist_1_joint": 2.2309091061365582,
        "distance_wrist_2_joint": 1.0061944334833963,
        "distance_wrist_3_joint": 1.1775900388291376,
        "smoothness": 0.7160069099310452,
        "time": 5.067864899,
        "traj_len": 3.5631349275929196,
        "weighted_distance": 4.27647215932839
    },
    "planner": "SPARS",
    "start": {
        "state": {
            "elbow_joint": 0.749534889911806,
            "shoulder_lift_joint": -0.6476975780787326,
            "shoulder_pan_joint": -2.711696901376241,
            "wrist_1_joint": -0.07506478083263063,
            "wrist_2_joint": 0.43296659715538205,
            "wrist_3_joint": -3.14703540197715
        }
    },
    "waypoints": [
        {
            "positions": [
                -2.711696901376241,
                -0.6476975780787326,
                0.749534889911806,
                -0.07506478083263063,
                0.43296659715538205,
                -3.14703540197715
            ]
        },
        {
            "positions": [
                -2.7198813262993293,
                -0.7070220334140469,
                0.8317875300680321,
                -0.14428152552598578,
                0.4065815885583232,
                -3.0252827212594884
            ]
        },
        {
            "positions": [
                -2.7280657512224176,
                -0.7663464887493612,
                0.9140401702242582,
                -0.21349827021934095,
                0.3801965799612644,
                -2.9035300405418267
            ]
        },
        {
            "positions": [
                -2.7362501761455063,
                -0.8256709440846755,
                0.9962928103804845,
                -0.2827150149126961,
                0.3538115713642056,
                -2.781777359824165
            ]
        },
        {
            "positions": [
                -2.7444346010685945,
                -0.8849953994199897,
                1.0785454505367107,
                -0.3519317596060513,
                0.32742656276714677,
                -2.6600246791065034
            ]
        },
        {
            "positions": [
                -2.7526190259916827,
                -0.944319854755304,
                1.1607980906929367,
                -0.4211485042994064,
                0.30104155417008793,
                -2.5382719983888418
            ]
        },
        {
            "positions": [
                -2.642574307096515,
                -0.9762313598803709,
                1.0371830253883993,
                -0.4916469164797327,
                0.2748410895763119,
                -2.5574302232737973
            ]
        },
        {
            "positions": [
                -2.532529588201347,
                -1.0081428650054378,
                0.9135679600838619,
                -0.5621453286600588,
                0.2486406249825359,
                -2.576588448158753
            ]
        },
        {
            "positions": [
                -2.4224848693061793,
                -1.0400543701305047,
                0.7899528947793244,
                -0.6326437408403851,
                0.22244016038875988,
                -2.5957466730437084
            ]
        },
        {
            "positions": [
                -2.3124401504110113,
                -1.0719658752555716,
                0.666337829474787,
                -0.7031421530207114,
                0.19623969579498385,
                -2.614904897928664
            ]
        },
        {
            "positions": [
                -2.2023954315158436,
                -1.1038773803806385,
                0.5427227641702496,
                -0.7736405652010376,
                0.17003923120120784,
                -2.634063122813619
            ]
        },
        {
            "positions": [
                -2.0923507126206755,
                -1.1357888855057054,
                0.4191076988657121,
                -0.8441389773813639,
                0.14383876660743183,
                -2.6532213476985747
            ]
        },
        {
            "positions": [
                -1.9823059937255079,
                -1.1677003906307724,
                0.2954926335611747,
                -0.9146373895616899,
                0.11763830201365583,
                -2.67237957258353
            ]
        },
        {
            "positions": [
                -1.8722612748303398,
                -1.1996118957558393,
                0.17187756825663725,
                -0.9851358017420163,
                0.09143783741987979,
                -2.6915377974684858
            ]
        },
        {
            "positions": [
                -1.7622165559351721,
                -1.2315234008809062,
                0.04826250295209977,
                -1.0556342139223425,
                0.06523737282610378,
                -2.7106960223534413
            ]
        },
        {
            "positions": [
                -1.652171837040004,
                -1.263434906005973,
                -0.07535256235243759,
                -1.1261326261026687,
                0.03903690823232775,
                -2.729854247238397
            ]
        },
        {
            "positions": [
                -1.5421271181448364,
                -1.2953464111310402,
                -0.19896762765697495,
                -1.196631038282995,
                0.012836443638551742,
                -2.7490124721233524
            ]
        },
        {
            "positions": [
                -1.4320823992496685,
                -1.327257916256107,
                -0.32258269296151254,
                -1.2671294504633213,
                -0.013364020955224265,
                -2.768170697008308
            ]
        },
        {
            "positions": [
                -1.3220376803545006,
                -1.359169421381174,
                -0.4461977582660499,
                -1.3376278626436475,
                -0.03956448554900027,
                -2.7873289218932635
            ]
        },
        {
            "positions": [
                -1.2119929614593328,
                -1.3910809265062407,
                -0.5698128235705873,
                -1.4081262748239736,
                -0.06576495014277628,
                -2.8064871467782186
            ]
        },
        {
            "positions": [
                -1.1019482425641651,
                -1.4229924316313078,
                -0.6934278888751246,
                -1.4786246870042996,
                -0.09196541473655229,
                -2.825645371663174
            ]
        },
        {
            "positions": [
                -0.991903523668997,
                -1.4549039367563745,
                -0.8170429541796622,
                -1.549123099184626,
                -0.11816587933032835,
                -2.8448035965481298
            ]
        },
        {
            "positions": [
                -0.8818588047738292,
                -1.4868154418814417,
                -0.9406580194841998,
                -1.6196215113649521,
                -0.14436634392410436,
                -2.8639618214330853
            ]
        },
        {
            "positions": [
                -0.7718140858786615,
                -1.5187269470065083,
                -1.0642730847887372,
                -1.6901199235452786,
                -0.17056680851788036,
                -2.883120046318041
            ]
        },
        {
            "positions": [
                -0.6617693669834939,
                -1.5506384521315755,
                -1.1878881500932745,
                -1.7606183357256047,
                -0.19676727311165632,
                -2.9022782712029964
            ]
        },
        {
            "positions": [
                -0.5517246480883253,
                -1.5825499572566424,
                -1.311503215397812,
                -1.8311167479059312,
                -0.22296773770543243,
                -2.921436496087952
            ]
        },
        {
            "positions": [
                -0.4416799291931577,
                -1.6144614623817093,
                -1.4351182807023493,
                -1.9016151600862572,
                -0.24916820229920844,
                -2.9405947209729075
            ]
        },
        {
            "positions": [
                -0.33163521029799004,
                -1.6463729675067762,
                -1.5587333460068866,
                -1.9721135722665837,
                -0.27536866689298445,
                -2.959752945857863
            ]
        },
        {
            "positions": [
                -0.2215904914028224,
                -1.678284472631843,
                -1.682348411311424,
                -2.0426119844469097,
                -0.30156913148676046,
                -2.978911170742818
            ]
        },
        {
            "positions": [
                -0.1115457725076543,
                -1.71019597775691,
                -1.8059634766159618,
                -2.113110396627236,
                -0.32776959608053646,
                -2.9980693956277737
            ]
        },
        {
            "positions": [
                -0.0015010536124862028,
                -1.742107482881977,
                -1.9295785419204992,
                -2.1836088088075623,
                -0.35397006067431247,
                -3.0172276205127293
            ]
        },
        {
            "positions": [
                0.10854366528268133,
                -1.7740189880070438,
                -2.0531936072250363,
                -2.2541072209878883,
                -0.3801705252680884,
                -3.036385845397685
            ]
        },
        {
            "positions": [
                0.010549688280683409,
                -1.7649802304848938,
                -2.155352809122983,
                -2.236818332327455,
                -0.3158180882481132,
                -3.059956774808347
            ]
        },
        {
            "positions": [
                -0.08744428872131452,
                -1.755941472962744,
                -2.25751201102093,
                -2.2195294436670214,
                -0.2514656512281379,
                -3.083527704219009
            ]
        },
        {
            "positions": [
                -0.18543826572331248,
                -1.746902715440594,
                -2.359671212918877,
                -2.202240555006588,
                -0.18711321420816265,
                -3.107098633629671
            ]
        }
    ]
}