{
    "goal": {
        "global_pose": {
            "orientation": {
                "w": 0.005598929693374612,
                "x": 0.007748599140229565,
                "y": 0.7110244013736278,
                "z": -0.7031023480610252
            },
            "position": {
                "x": -0.8858502320852131,
                "y": -0.7141253447532654,
                "z": 0.3711530566215515
            }
        },
        "name": "move_to_auspresseinheit_C"
    },
    "id": "SPARS_move_to_auspresseinheit_C_13",
    "joint_names": [
        "shoulder_pan_joint",
        "shoulder_lift_joint",
        "elbow_joint",
        "wrist_1_joint",
        "wrist_2_joint",
        "wrist_3_joint"
    ],
    "metrics": {
        "cart_traj_len": 0.492009048638711,
        "distance_elbow_joint": 0.9897804226182385,
        "distance_shoulder_lift_joint": 0.3202717832837517,
        "distance_shoulder_pan_joint": 0.2560834203308868,
        "distance_wrist_1_joint": 0.6599689229903661,
        "distance_wrist_2_joint": 1.3086569961520984,
        "distance_wrist_3_joint": 0.03960524064738147,
        "smoothness": 9.689219149575433e-16,
        "time": 5.0296117350000005,
        "traj_len": 1.8905995837359963,
        "weighted_distance": 2.371118551751462
    },
    "planner": "SPARS",
    "start": {
        "state": {
            "elbow_joint": 1.7527959577737207,
            "shoulder_lift_joint": -0.9740617694225068,
            "shoulder_pan_joint": -2.967991417825858,
            "wrist_1_joint": -0.759517768980727,
            "wrist_2_joint": 1.7443932448377408,
            "wrist_3_joint": -3.0840537646736568
        }
    },
    "waypoints": [
        {
            "positions": [
                -2.967991417825858,
                -0.9740617694225068,
                1.7527959577737207,
                -0.759517768980727,
                1.7443932448377408,
                -3.0840537646736568
            ]
        },
        {
            "positions": [
                -2.9423830757927694,
                -0.9420345910941316,
                1.6538179155118968,
                -0.6935208766816904,
                1.613527545222531,
                -3.088014288738395
            ]
        },
        {
            "positions": [
                -2.9167747337596808,
                -0.9100074127657565,
                1.554839873250073,
                -0.6275239843826538,
                1.482661845607321,
                -3.0919748128031332
            ]
        },
        {
            "positions": [
                -2.8911663917265917,
                -0.8779802344373813,
                1.4558618309882492,
                -0.5615270920836172,
                1.3517961459921113,
                -3.0959353368678713
            ]
        },
        {
            "positions": [
                -2.865558049693503,
                -0.8459530561090061,
                1.3568837887264253,
                -0.4955301997845805,
                1.2209304463769013,
                -3.0998958609326093
            ]
        },
        {
            "positions": [
                -2.8399497076604145,
                -0.8139258777806309,
                1.2579057464646013,
                -0.4295333074855439,
                1.0900647467616915,
                -3.1038563849973473
            ]
        },
        {
            "positions": [
                -2.814341365627326,
                -0.7818986994522558,
                1.1589277042027777,
                -0.3635364151865073,
                0.9591990471464819,
                -3.1078169090620857
            ]
        },
        {
            "positions": [
                -2.7887330235942374,
                -0.7498715211238806,
                1.0599496619409536,
                -0.2975395228874707,
                0.828333347531272,
                -3.1117774331268238
            ]
        },
        {
            "positions": [
                -2.7631246815611483,
                -0.7178443427955055,
                0.9609716196791298,
                -0.23154263058843405,
                0.697467647916062,
                -3.1157379571915618
            ]
        },
        {
            "positions": [
                -2.7375163395280597,
                -0.6858171644671303,
                0.861993577417306,
                -0.16554573828939745,
                0.5666019483008522,
                -3.1196984812563002
            ]
        },
        {
            "positions": [
                -2.711907997494971,
                -0.653789986138755,
                0.7630155351554821,
                -0.09954884599036089,
                0.4357362486856424,
                -3.1236590053210382
            ]
        }
    ]
}