{
    "goal": {
        "global_pose": {
            "orientation": {
                "w": 0.5084816217422485,
                "x": -0.49083608388900757,
                "y": 0.5182115435600281,
                "z": -0.4816462993621826
            },
            "position": {
                "x": 0.5540239810943604,
                "y": 0.030875300988554955,
                "z": 0.16403168439865112
            }
        },
        "name": "move_to_storage_A"
    },
    "id": "SPARS_move_to_storage_A_112",
    "joint_names": [
        "shoulder_pan_joint",
        "shoulder_lift_joint",
        "elbow_joint",
        "wrist_1_joint",
        "wrist_2_joint",
        "wrist_3_joint"
    ],
    "metrics": {
        "cart_traj_len": 0.3531820639240518,
        "distance_elbow_joint": 0.45025227932429934,
        "distance_shoulder_lift_joint": 0.2342270442475496,
        "distance_shoulder_pan_joint": 0.4630908355244224,
        "distance_wrist_1_joint": 0.2412611210284169,
        "distance_wrist_2_joint": 1.0938341001132617,
        "distance_wrist_3_joint": 0.10382441928019537,
        "smoothness": 4.440892098500626e-16,
        "time": 5.009383185,
        "traj_len": 1.6082567579581766,
        "weighted_distance": 2.03205163793153
    },
    "planner": "SPARS",
    "start": {
        "state": {
            "elbow_joint": 1.971548259319323,
            "shoulder_lift_joint": -1.1394851275133948,
            "shoulder_pan_joint": 0.1228115487234821,
            "wrist_1_joint": -0.7804723859257726,
            "wrist_2_joint": 0.12958671773740124,
            "wrist_3_joint": -3.192489227718131
        }
    },
    "waypoints": [
        {
            "positions": [
                0.1228115487234821,
                -1.1394851275133948,
                1.971548259319323,
                -0.7804723859257726,
                0.12958671773740124,
                -3.192489227718131
            ]
        },
        {
            "positions": [
                0.05665571507713606,
                -1.1729461338344733,
                2.0358700135085086,
                -0.8149382603584036,
                0.2858487320392957,
                -3.17765716782096
            ]
        },
        {
            "positions": [
                -0.009500118569209987,
                -1.2064071401555518,
                2.1001917676976944,
                -0.8494041347910346,
                0.4421107463411903,
                -3.1628251079237897
            ]
        },
        {
            "positions": [
                -0.07565595221555604,
                -1.2398681464766304,
                2.16451352188688,
                -0.8838700092236655,
                0.5983727606430848,
                -3.1479930480266187
            ]
        },
        {
            "positions": [
                -0.14181178586190207,
                -1.2733291527977089,
                2.2288352760760652,
                -0.9183358836562966,
                0.7546347749449793,
                -3.133160988129448
            ]
        },
        {
            "positions": [
                -0.20796761950824816,
                -1.3067901591187874,
                2.293157030265251,
                -0.9528017580889275,
                0.9108967892468739,
                -3.1183289282322773
            ]
        },
        {
            "positions": [
                -0.2741234531545942,
                -1.3402511654398659,
                2.357478784454437,
                -0.9872676325215586,
                1.0671588035487682,
                -3.1034968683351067
            ]
        },
        {
            "positions": [
                -0.3402792868009403,
                -1.3737121717609444,
                2.4218005386436223,
                -1.0217335069541895,
                1.223420817850663,
                -3.088664808437936
            ]
        }
    ]
}{
    "goal": {
        "global_pose": {
            "orientation": {
                "w": 0.5084816217422485,
                "x": -0.49083608388900757,
                "y": 0.5182115435600281,
                "z": -0.4816462993621826
            },
            "position": {
                "x": 0.5540239810943604,
                "y": 0.030875300988554955,
                "z": 0.16403168439865112
            }
        },
        "name": "move_to_storage_A"
    },
    "id": "SPARS_move_to_storage_A_112",
    "joint_names": [
        "shoulder_pan_joint",
        "shoulder_lift_joint",
        "elbow_joint",
        "wrist_1_joint",
        "wrist_2_joint",
        "wrist_3_joint"
    ],
    "metrics": {
        "cart_traj_len": 0.35398423593018163,
        "distance_elbow_joint": 0.45343774513522517,
        "distance_shoulder_lift_joint": 0.23281910353013546,
        "distance_shoulder_pan_joint": 0.46420988246387584,
        "distance_wrist_1_joint": 0.2599745717229369,
        "distance_wrist_2_joint": 1.0943469471555145,
        "distance_wrist_3_joint": 0.09490953217982234,
        "smoothness": 0.0,
        "time": 5.015944541,
        "traj_len": 1.6123578331708845,
        "weighted_distance": 2.0356420032573523
    },
    "planner": "SPARS",
    "start": {
        "state": {
            "elbow_joint": 1.97154746011099,
            "shoulder_lift_joint": -1.13948474672311,
            "shoulder_pan_joint": 0.12281154466712228,
            "wrist_1_joint": -0.7804688027058302,
            "wrist_2_joint": 0.12958655903071145,
            "wrist_3_joint": 3.0906928834467795
        }
    },
    "waypoints": [
        {
            "positions": [
                0.12281154466712228,
                -1.13948474672311,
                1.97154746011099,
                -0.7804688027058302,
                0.12958655903071145,
                3.0906928834467795
            ]
        },
        {
            "positions": [
                0.056495847172282884,
                -1.1727446186559864,
                2.0363242808445934,
                -0.8176080272376783,
                0.28592183719578496,
                3.104251388043897
            ]
        },
        {
            "positions": [
                -0.009819850322556514,
                -1.206004490588863,
                2.1011011015781973,
                -0.8547472517695265,
                0.44225711536085843,
                3.1178098926410143
            ]
        },
        {
            "positions": [
                -0.07613554781739591,
                -1.2392643625217394,
                2.1658779223118008,
                -0.8918864763013745,
                0.598592393525932,
                3.131368397238132
            ]
        },
        {
            "positions": [
                -0.1424512453122353,
                -1.272524234454616,
                2.2306547430454042,
                -0.9290257008332227,
                0.7549276716910055,
                3.1449269018352495
            ]
        },
        {
            "positions": [
                -0.20876694280707475,
                -1.3057841063874924,
                2.295431563779008,
                -0.9661649253650708,
                0.911262949856079,
                3.158485406432367
            ]
        },
        {
            "positions": [
                -0.2750826403019141,
                -1.339043978320369,
                2.3602083845126116,
                -1.0033041498969189,
                1.0675982280211525,
                3.1720439110294842
            ]
        },
        {
            "positions": [
                -0.34139833779675355,
                -1.3723038502532454,
                2.424985205246215,
                -1.040443374428767,
                1.223933506186226,
                3.185602415626602
            ]
        }
    ]
}{
    "goal": {
        "global_pose": {
            "orientation": {
                "w": 0.5084816217422485,
                "x": -0.49083608388900757,
                "y": 0.5182115435600281,
                "z": -0.4816462993621826
            },
            "position": {
                "x": 0.5540239810943604,
                "y": 0.030875300988554955,
                "z": 0.16403168439865112
            }
        },
        "name": "move_to_storage_A"
    },
    "id": "SPARS_move_to_storage_A_112",
    "joint_names": [
        "shoulder_pan_joint",
        "shoulder_lift_joint",
        "elbow_joint",
        "wrist_1_joint",
        "wrist_2_joint",
        "wrist_3_joint"
    ],
    "metrics": {
        "cart_traj_len": 0.3530638972697537,
        "distance_elbow_joint": 0.4484179009591869,
        "distance_shoulder_lift_joint": 0.23375758732635532,
        "distance_shoulder_pan_joint": 0.46096188030727847,
        "distance_wrist_1_joint": 0.23797930773109965,
        "distance_wrist_2_joint": 1.101356269579736,
        "distance_wrist_3_joint": 0.10085975340510478,
        "smoothness": 6.661338165333112e-16,
        "time": 5.0109132359999995,
        "traj_len": 1.6072749295962907,
        "weighted_distance": 2.0308588782655
    },
    "planner": "SPARS",
    "start": {
        "state": {
            "elbow_joint": 1.9715472970024885,
            "shoulder_lift_joint": -1.1394870060712896,
            "shoulder_pan_joint": 0.12281152778156021,
            "wrist_1_joint": -0.780463741449964,
            "wrist_2_joint": 0.12958659822042276,
            "wrist_3_joint": 3.090690232415272
        }
    },
    "waypoints": [
        {
            "positions": [
                0.12281152778156021,
                -1.1394870060712896,
                1.9715472970024885,
                -0.780463741449964,
                0.12958659822042276,
                3.090690232415272
            ]
        },
        {
            "positions": [
                0.05695983059480615,
                -1.1728809471179118,
                2.0356069971395154,
                -0.8144607854115496,
                0.2869232081603851,
                3.105098768616001
            ]
        },
        {
            "positions": [
                -0.008891866591947906,
                -1.206274888164534,
                2.099666697276542,
                -0.8484578293731353,
                0.4442598181003473,
                3.1195073048167306
            ]
        },
        {
            "positions": [
                -0.07474356377870198,
                -1.2396688292111562,
                2.1637263974135688,
                -0.882454873334721,
                0.6015964280403097,
                3.1339158410174597
            ]
        },
        {
            "positions": [
                -0.14059526096545602,
                -1.2730627702577784,
                2.227786097550595,
                -0.9164519172963066,
                0.7589330379802719,
                3.148324377218189
            ]
        },
        {
            "positions": [
                -0.20644695815221012,
                -1.3064567113044006,
                2.291845797687622,
                -0.9504489612578924,
                0.9162696479202342,
                3.162732913418918
            ]
        },
        {
            "positions": [
                -0.27229865533896414,
                -1.3398506523510227,
                2.3559054978246485,
                -0.984446005219478,
                1.0736062578601966,
                3.1771414496196475
            ]
        },
        {
            "positions": [
                -0.33815035252571823,
                -1.373244593397645,
                2.4199651979616754,
                -1.0184430491810637,
                1.2309428678001588,
                3.1915499858203766
            ]
        }
    ]
}