{
    "goal": {
        "global_pose": {
            "orientation": {
                "w": -0.4816463035849501,
                "x": 0.5182115481033762,
                "y": 0.4908360881923453,
                "z": -0.5084816262002911
            },
            "position": {
                "x": -0.8240239810943604,
                "y": 0.19912469901144506,
                "z": 0.16403168439865112
            }
        },
        "name": "move_to_storage_D"
    },
    "id": "SPARS_move_to_storage_D_51",
    "joint_names": [
        "shoulder_pan_joint",
        "shoulder_lift_joint",
        "elbow_joint",
        "wrist_1_joint",
        "wrist_2_joint",
        "wrist_3_joint"
    ],
    "metrics": {
        "cart_traj_len": 3.701935679777813,
        "distance_elbow_joint": 4.211834207470039,
        "distance_shoulder_lift_joint": 1.2639018574151186,
        "distance_shoulder_pan_joint": 2.811264730595061,
        "distance_wrist_1_joint": 2.2614453513771084,
        "distance_wrist_2_joint": 0.8666308639470931,
        "distance_wrist_3_joint": 4.559612995080792,
        "smoothness": 0.16915517011071837,
        "time": 5.101132985,
        "traj_len": 3.9968349985814036,
        "weighted_distance": 5.312437501879057
    },
    "planner": "SPARS",
    "start": {
        "state": {
            "elbow_joint": -2.384821988534728,
            "shoulder_lift_joint": -2.2788054721415256,
            "shoulder_pan_joint": -0.1854694642142757,
            "wrist_1_joint": 1.4845938289331202,
            "wrist_2_joint": 0.17898776772866878,
            "wrist_3_joint": 0.037105688729662994
        }
    },
    "waypoints": [
        {
            "positions": [
                -0.1854694642142757,
                -2.2788054721415256,
                -2.384821988534728,
                1.4845938289331202,
                0.17898776772866878,
                0.037105688729662994
            ]
        },
        {
            "positions": [
                -0.17132585763121982,
                -2.2712515340168116,
                -2.3861434650383417,
                1.4846143704672663,
                0.18529824481812326,
                0.02917643253541283
            ]
        },
        {
            "positions": [
                -0.04664831788527027,
                -2.203864294472437,
                -2.310610218225401,
                1.4409260746871266,
                0.18972937846527865,
                -0.04906519876281376
            ]
        },
        {
            "positions": [
                0.07802922186067929,
                -2.1364770549280627,
                -2.23507697141246,
                1.3972377789069872,
                0.19416051211243404,
                -0.12730683006104035
            ]
        },
        {
            "positions": [
                0.20270676160662887,
                -2.069089815383688,
                -2.1595437245995193,
                1.3535494831268475,
                0.1985916457595894,
                -0.20554846135926694
            ]
        },
        {
            "positions": [
                0.3273843013525784,
                -2.0017025758393134,
                -2.0840104777865784,
                1.309861187346708,
                0.2030227794067448,
                -0.2837900926574935
            ]
        },
        {
            "positions": [
                0.45206184109852804,
                -1.934315336294939,
                -2.0084772309736376,
                1.2661728915665684,
                0.20745391305390018,
                -0.3620317239557201
            ]
        },
        {
            "positions": [
                0.5767393808444776,
                -1.8669280967505646,
                -1.9329439841606972,
                1.222484595786429,
                0.21188504670105557,
                -0.4402733552539467
            ]
        },
        {
            "positions": [
                0.701416920590427,
                -1.7995408572061902,
                -1.8574107373477564,
                1.1787963000062893,
                0.21631618034821093,
                -0.5185149865521733
            ]
        },
        {
            "positions": [
                0.8260944603363767,
                -1.7321536176618157,
                -1.7818774905348156,
                1.1351080042261499,
                0.22074731399536632,
                -0.5967566178503999
            ]
        },
        {
            "positions": [
                0.9507720000823263,
                -1.664766378117441,
                -1.7063442437218748,
                1.0914197084460102,
                0.2251784476425217,
                -0.6749982491486265
            ]
        },
        {
            "positions": [
                1.0031164771541532,
                -1.6444581667614713,
                -1.5960094465453136,
                1.033037516326582,
                0.25081720339356045,
                -0.5547635911110482
            ]
        },
        {
            "positions": [
                1.05546095422598,
                -1.6241499554055014,
                -1.4856746493687525,
                0.9746553242071536,
                0.2764559591445992,
                -0.43452893307346996
            ]
        },
        {
            "positions": [
                1.1078054312978067,
                -1.6038417440495316,
                -1.3753398521921911,
                0.9162731320877252,
                0.302094714895638,
                -0.3142942750358917
            ]
        },
        {
            "positions": [
                1.1601499083696336,
                -1.5835335326935618,
                -1.26500505501563,
                0.8578909399682969,
                0.32773347064667674,
                -0.19405961699831342
            ]
        },
        {
            "positions": [
                1.2124943854414605,
                -1.563225321337592,
                -1.1546702578390688,
                0.7995087478488686,
                0.3533722263977155,
                -0.07382495896073515
            ]
        },
        {
            "positions": [
                1.2648388625132871,
                -1.5429171099816221,
                -1.0443354606625075,
                0.7411265557294402,
                0.3790109821487542,
                0.046409699076843114
            ]
        },
        {
            "positions": [
                1.317183339585114,
                -1.5226088986256525,
                -0.9340006634859463,
                0.6827443636100119,
                0.40464973789979297,
                0.16664435711442138
            ]
        },
        {
            "positions": [
                1.369527816656941,
                -1.5023006872696825,
                -0.8236658663093852,
                0.6243621714905836,
                0.43028849365083177,
                0.28687901515199965
            ]
        },
        {
            "positions": [
                1.4218722937287678,
                -1.4819924759137129,
                -0.7133310691328241,
                0.5659799793711553,
                0.45592724940187046,
                0.4071136731895778
            ]
        },
        {
            "positions": [
                1.4742167708005947,
                -1.461684264557743,
                -0.6029962719562629,
                0.507597787251727,
                0.48156600515290926,
                0.5273483312271562
            ]
        },
        {
            "positions": [
                1.5265612478724213,
                -1.4413760532017732,
                -0.49266147477970157,
                0.4492155951322986,
                0.5072047609039481,
                0.6475829892647346
            ]
        },
        {
            "positions": [
                1.5789057249442482,
                -1.4210678418458034,
                -0.38232667760314043,
                0.3908334030128703,
                0.5328435166549867,
                0.7678176473023127
            ]
        },
        {
            "positions": [
                1.631250202016075,
                -1.4007596304898335,
                -0.2719918804265793,
                0.332451210893442,
                0.5584822724060254,
                0.8880523053398909
            ]
        },
        {
            "positions": [
                1.6835946790879017,
                -1.3804514191338637,
                -0.16165708325001793,
                0.2740690187740136,
                0.5841210281570643,
                1.0082869633774694
            ]
        },
        {
            "positions": [
                1.7359391561597286,
                -1.3601432077778939,
                -0.05132228607345679,
                0.21568682665458527,
                0.609759783908103,
                1.1285216214150475
            ]
        },
        {
            "positions": [
                1.7882836332315555,
                -1.339834996421924,
                0.05901251110310435,
                0.15730463453515697,
                0.6353985396591417,
                1.2487562794526257
            ]
        },
        {
            "positions": [
                1.8406281103033824,
                -1.3195267850659542,
                0.1693473082796655,
                0.09892244241572867,
                0.6610372954101805,
                1.3689909374902038
            ]
        },
        {
            "positions": [
                1.8929725873752092,
                -1.2992185737099844,
                0.2796821054562266,
                0.04054025029630037,
                0.6866760511612193,
                1.489225595527782
            ]
        },
        {
            "positions": [
                1.945317064447036,
                -1.2789103623540146,
                0.39001690263278777,
                -0.017841941823127927,
                0.712314806912258,
                1.6094602535653606
            ]
        },
        {
            "positions": [
                1.9976615415188628,
                -1.2586021509980447,
                0.5003516998093489,
                -0.07622413394255623,
                0.7379535626632968,
                1.7296949116029388
            ]
        },
        {
            "positions": [
                2.0500060185906896,
                -1.238293939642075,
                0.6106864969859105,
                -0.13460632606198475,
                0.7635923184143355,
                1.849929569640517
            ]
        },
        {
            "positions": [
                2.1023504956625163,
                -1.2179857282861053,
                0.7210212941624716,
                -0.19298851818141305,
                0.7892310741653743,
                1.9701642276780955
            ]
        },
        {
            "positions": [
                2.154694972734343,
                -1.1976775169301352,
                0.8313560913390328,
                -0.25137071030084135,
                0.8148698299164131,
                2.0903988857156737
            ]
        },
        {
            "positions": [
                2.20703944980617,
                -1.1773693055741656,
                0.9416908885155939,
                -0.30975290242026965,
                0.8405085856674518,
                2.210633543753252
            ]
        },
        {
            "positions": [
                2.259383926877997,
                -1.1570610942181956,
                1.052025685692155,
                -0.36813509453969795,
                0.8661473414184906,
                2.33086820179083
            ]
        },
        {
            "positions": [
                2.311728403949824,
                -1.136752882862226,
                1.1623604828687162,
                -0.42651728665912625,
                0.8917860971695293,
                2.451102859828408
            ]
        },
        {
            "positions": [
                2.3640728810216505,
                -1.116444671506256,
                1.2726952800452773,
                -0.48489947877855455,
                0.9174248529205681,
                2.5713375178659867
            ]
        },
        {
            "positions": [
                2.4164173580934776,
                -1.0961364601502863,
                1.383030077221839,
                -0.5432816708979831,
                0.9430636086716069,
                2.691572175903565
            ]
        },
        {
            "positions": [
                2.4687618351653042,
                -1.0758282487943165,
                1.4933648743984,
                -0.6016638630174114,
                0.9687023644226456,
                2.811806833941143
            ]
        },
        {
            "positions": [
                2.521106312237131,
                -1.0555200374383467,
                1.6036996715749612,
                -0.6600460551368397,
                0.9943411201736844,
                2.9320414919787217
            ]
        },
        {
            "positions": [
                2.573450789308958,
                -1.0352118260823768,
                1.7140344687515223,
                -0.718428247256268,
                1.0199798759247232,
                3.0522761500163
            ]
        },
        {
            "positions": [
                2.6257952663807846,
                -1.014903614726407,
                1.8243692659280832,
                -0.7768104393756962,
                1.0456186316757619,
                3.172510808053878
            ]
        }
    ]
}