{
    "goal": {
        "global_pose": {
            "orientation": {
                "w": 0.7031023480610252,
                "x": -0.7110244013736278,
                "y": 0.0077485991402295624,
                "z": 0.005598929693374583
            },
            "position": {
                "x": -0.8841497679147869,
                "y": 0.44412534475326537,
                "z": 0.3711530566215515
            }
        },
        "name": "move_to_auspresseinheit_D"
    },
    "id": "SPARS_move_to_auspresseinheit_D_18",
    "joint_names": [
        "shoulder_pan_joint",
        "shoulder_lift_joint",
        "elbow_joint",
        "wrist_1_joint",
        "wrist_2_joint",
        "wrist_3_joint"
    ],
    "metrics": {
        "cart_traj_len": 0.34311154817976935,
        "distance_elbow_joint": 0.6363281102571796,
        "distance_shoulder_lift_joint": 0.12049992093930006,
        "distance_shoulder_pan_joint": 0.1339981353391354,
        "distance_wrist_1_joint": 0.5187586866303153,
        "distance_wrist_2_joint": 1.444761375578728,
        "distance_wrist_3_joint": 0.003295372600310653,
        "smoothness": 7.894919348737726e-16,
        "time": 5.057031753,
        "traj_len": 1.6904560335438983,
        "weighted_distance": 2.1972146933685464
    },
    "planner": "SPARS",
    "start": {
        "state": {
            "elbow_joint": -1.8275523626775212,
            "shoulder_lift_joint": -2.126789852344167,
            "shoulder_pan_joint": -0.03513704404078235,
            "wrist_1_joint": -2.347782403156801,
            "wrist_2_joint": -1.6058999987535132,
            "wrist_3_joint": -3.0880379163319196
        }
    },
    "waypoints": [
        {
            "positions": [
                -0.03513704404078235,
                -2.126789852344167,
                -1.8275523626775212,
                -2.347782403156801,
                -1.6058999987535132,
                -3.0880379163319196
            ]
        },
        {
            "positions": [
                -0.051886810958174275,
                -2.141852342461579,
                -1.7480113488953737,
                -2.41262723898559,
                -1.425304826806172,
                -3.0884498379069583
            ]
        },
        {
            "positions": [
                -0.06863657787556621,
                -2.156914832578992,
                -1.6684703351132262,
                -2.4774720748143797,
                -1.2447096548588312,
                -3.0888617594819974
            ]
        },
        {
            "positions": [
                -0.08538634479295812,
                -2.1719773226964043,
                -1.588929321331079,
                -2.5423169106431693,
                -1.0641144829114901,
                -3.089273681057036
            ]
        },
        {
            "positions": [
                -0.10213611171035006,
                -2.1870398128138167,
                -1.5093883075489314,
                -2.6071617464719585,
                -0.8835193109641492,
                -3.089685602632075
            ]
        },
        {
            "positions": [
                -0.11888587862774197,
                -2.2021023029312294,
                -1.4298472937667839,
                -2.6720065823007477,
                -0.7029241390168082,
                -3.090097524207114
            ]
        },
        {
            "positions": [
                -0.1356356455451339,
                -2.217164793048642,
                -1.3503062799846366,
                -2.7368514181295374,
                -0.5223289670694671,
                -3.0905094457821525
            ]
        },
        {
            "positions": [
                -0.15238541246252582,
                -2.2322272831660546,
                -1.270765266202489,
                -2.801696253958327,
                -0.3417337951221262,
                -3.0909213673571916
            ]
        },
        {
            "positions": [
                -0.16913517937991776,
                -2.247289773283467,
                -1.1912242524203416,
                -2.866541089787116,
                -0.1611386231747852,
                -3.0913332889322302
            ]
        }
    ]
}