{
    "goal": {
        "global_pose": {
            "orientation": {
                "w": 0.5084816217422485,
                "x": -0.49083608388900757,
                "y": 0.5182115435600281,
                "z": -0.4816462993621826
            },
            "position": {
                "x": 0.5540239810943604,
                "y": 0.030875300988554955,
                "z": 0.16403168439865112
            }
        },
        "name": "move_to_storage_A"
    },
    "id": "SPARStwo_move_to_storage_A_101",
    "joint_names": [
        "shoulder_pan_joint",
        "shoulder_lift_joint",
        "elbow_joint",
        "wrist_1_joint",
        "wrist_2_joint",
        "wrist_3_joint"
    ],
    "metrics": {
        "cart_traj_len": 0.35291740321681125,
        "distance_elbow_joint": 0.4485712173710774,
        "distance_shoulder_lift_joint": 0.23545872582744987,
        "distance_shoulder_pan_joint": 0.46123920951391717,
        "distance_wrist_1_joint": 0.23676977240728259,
        "distance_wrist_2_joint": 1.0998364735443567,
        "distance_wrist_3_joint": 0.10281652920555251,
        "smoothness": 4.440892133664971e-16,
        "time": 5.000246137,
        "traj_len": 1.6076977103515562,
        "weighted_distance": 2.031484982034664
    },
    "planner": "SPARStwo",
    "start": {
        "state": {
            "elbow_joint": 1.9715481507254546,
            "shoulder_lift_joint": -1.1394850672790213,
            "shoulder_pan_joint": 0.12281154597544902,
            "wrist_1_joint": -0.7804720171073349,
            "wrist_2_joint": 0.12958658322886563,
            "wrist_3_joint": -3.1924895760937617
        }
    },
    "waypoints": [
        {
            "positions": [
                0.12281154597544902,
                -1.1394850672790213,
                1.9715481507254546,
                -0.7804720171073349,
                0.12958658322886563,
                -3.1924895760937617
            ]
        },
        {
            "positions": [
                0.05692023033060371,
                -1.1731220281115142,
                2.0356297532070373,
                -0.8142962703083753,
                0.286706079449488,
                -3.1778015004929685
            ]
        },
        {
            "positions": [
                -0.008971085314241595,
                -1.206758988944007,
                2.0997113556886196,
                -0.8481205235094157,
                0.4438255756701104,
                -3.1631134248921753
            ]
        },
        {
            "positions": [
                -0.07486240095908689,
                -1.2403959497764998,
                2.1637929581702022,
                -0.881944776710456,
                0.6009450718907328,
                -3.148425349291382
            ]
        },
        {
            "positions": [
                -0.1407537166039322,
                -1.2740329106089927,
                2.2278745606517845,
                -0.9157690299114964,
                0.7580645681113551,
                -3.133737273690589
            ]
        },
        {
            "positions": [
                -0.20664503224877756,
                -1.3076698714414856,
                2.291956163133367,
                -0.9495932831125368,
                0.9151840643319775,
                -3.1190491980897956
            ]
        },
        {
            "positions": [
                -0.2725363478936228,
                -1.3413068322739783,
                2.3560377656149494,
                -0.9834175363135771,
                1.0723035605526,
                -3.1043611224890024
            ]
        },
        {
            "positions": [
                -0.33842766353846815,
                -1.3749437931064712,
                2.420119368096532,
                -1.0172417895146175,
                1.2294230567732223,
                -3.089673046888209
            ]
        }
    ]
}