{
    "goal": {
        "global_pose": {
            "orientation": {
                "w": 0.005598929693374612,
                "x": 0.007748599140229565,
                "y": 0.7110244013736278,
                "z": -0.7031023480610252
            },
            "position": {
                "x": 0.1141497679147869,
                "y": -0.7141253447532654,
                "z": 0.3711530566215515
            }
        },
        "name": "move_to_auspresseinheit_B"
    },
    "id": "SPARStwo_move_to_auspresseinheit_B_16",
    "joint_names": [
        "shoulder_pan_joint",
        "shoulder_lift_joint",
        "elbow_joint",
        "wrist_1_joint",
        "wrist_2_joint",
        "wrist_3_joint"
    ],
    "metrics": {
        "cart_traj_len": 0.5639280722652478,
        "distance_elbow_joint": 0.059321883606394454,
        "distance_shoulder_lift_joint": 0.29574479825434374,
        "distance_shoulder_pan_joint": 0.577974668280516,
        "distance_wrist_1_joint": 0.32129440530192144,
        "distance_wrist_2_joint": 0.988508379358765,
        "distance_wrist_3_joint": 0.010371361326802386,
        "smoothness": 0.0,
        "time": 5.017506387,
        "traj_len": 1.5010714493749933,
        "weighted_distance": 1.89308240799048
    },
    "planner": "SPARStwo",
    "start": {
        "state": {
            "elbow_joint": 2.0193083361928714,
            "shoulder_lift_joint": -1.1220246554650708,
            "shoulder_pan_joint": -1.0952077554168747,
            "wrist_1_joint": -0.8559753972642168,
            "wrist_2_joint": 0.4759566250798843,
            "wrist_3_joint": -3.1240929996934557
        }
    },
    "waypoints": [
        {
            "positions": [
                -1.0952077554168747,
                -1.1220246554650708,
                2.0193083361928714,
                -0.8559753972642168,
                0.4759566250798843,
                -3.1240929996934557
            ]
        },
        {
            "positions": [
                -1.1915368667969606,
                -1.171315455174128,
                2.0094213555918055,
                -0.8024263297138965,
                0.6407080216396784,
                -3.122364439472322
            ]
        },
        {
            "positions": [
                -1.2878659781770467,
                -1.2206062548831853,
                1.99953437499074,
                -0.7488772621635763,
                0.8054594181994725,
                -3.1206358792511883
            ]
        },
        {
            "positions": [
                -1.3841950895571327,
                -1.2698970545922426,
                1.9896473943896742,
                -0.6953281946132561,
                0.9702108147592667,
                -3.1189073190300545
            ]
        },
        {
            "positions": [
                -1.4805242009372186,
                -1.3191878543013,
                1.9797604137886085,
                -0.6417791270629358,
                1.134962211319061,
                -3.1171787588089206
            ]
        },
        {
            "positions": [
                -1.5768533123173047,
                -1.3684786540103573,
                1.9698734331875427,
                -0.5882300595126155,
                1.2997136078788551,
                -3.115450198587787
            ]
        },
        {
            "positions": [
                -1.6731824236973907,
                -1.4177694537194145,
                1.959986452586477,
                -0.5346809919622953,
                1.4644650044386494,
                -3.1137216383666533
            ]
        }
    ]
}