{
    "goal": {
        "global_pose": {
            "orientation": {
                "w": -0.4816463035849501,
                "x": 0.5182115481033762,
                "y": 0.4908360881923453,
                "z": -0.5084816262002911
            },
            "position": {
                "x": -0.8240239810943604,
                "y": 0.19912469901144506,
                "z": 0.16403168439865112
            }
        },
        "name": "move_to_storage_D"
    },
    "id": "SPARStwo_move_to_storage_D_37",
    "joint_names": [
        "shoulder_pan_joint",
        "shoulder_lift_joint",
        "elbow_joint",
        "wrist_1_joint",
        "wrist_2_joint",
        "wrist_3_joint"
    ],
    "metrics": {
        "cart_traj_len": 0.5596076558547679,
        "distance_elbow_joint": 0.5555408270590982,
        "distance_shoulder_lift_joint": 0.15249903827837574,
        "distance_shoulder_pan_joint": 0.35696192195804816,
        "distance_wrist_1_joint": 3.8317892246443157,
        "distance_wrist_2_joint": 1.777934874078318,
        "distance_wrist_3_joint": 3.508903561091715,
        "smoothness": 0.2220905144691391,
        "time": 5.0306940099999995,
        "traj_len": 3.191179945899302,
        "weighted_distance": 4.776103083897577
    },
    "planner": "SPARStwo",
    "start": {
        "state": {
            "elbow_joint": -2.384821988534728,
            "shoulder_lift_joint": -2.2788054721415256,
            "shoulder_pan_joint": -0.1854694642142757,
            "wrist_1_joint": 1.4845938289331202,
            "wrist_2_joint": 0.17898776772866878,
            "wrist_3_joint": 0.037105688729662994
        }
    },
    "waypoints": [
        {
            "positions": [
                -0.1854694642142757,
                -2.2788054721415256,
                -2.384821988534728,
                1.4845938289331202,
                0.17898776772866878,
                0.037105688729662994
            ]
        },
        {
            "positions": [
                -0.10073095454313358,
                -2.2643103499401467,
                -2.35659702255986,
                1.4038158008987602,
                0.0776922884949708,
                0.10239181341789344
            ]
        },
        {
            "positions": [
                -0.015992444871991446,
                -2.249815227738768,
                -2.3283720565849917,
                1.3230377728644003,
                -0.023603190738727187,
                0.16767793810612389
            ]
        },
        {
            "positions": [
                0.06874606479915073,
                -2.2353201055373892,
                -2.300147090610124,
                1.2422597448300403,
                -0.12489866997242517,
                0.23296406279435433
            ]
        },
        {
            "positions": [
                0.06427883032329762,
                -2.2305803806819875,
                -2.279674658908624,
                1.0861964778499866,
                -0.18898773242360883,
                0.08891861988013591
            ]
        },
        {
            "positions": [
                0.05981159584744452,
                -2.2258406558265857,
                -2.2592022272071244,
                0.9301332108699327,
                -0.2530767948747925,
                -0.055126823034082506
            ]
        },
        {
            "positions": [
                0.05534436137159141,
                -2.221100930971184,
                -2.2387297955056247,
                0.774069943889879,
                -0.31716585732597613,
                -0.19917226594830095
            ]
        },
        {
            "positions": [
                0.05087712689573831,
                -2.2163612061157822,
                -2.218257363804125,
                0.6180066769098252,
                -0.3812549197771598,
                -0.34321770886251934
            ]
        },
        {
            "positions": [
                0.046409892419885204,
                -2.2116214812603805,
                -2.1977849321026253,
                0.46194340992977156,
                -0.4453439822283434,
                -0.48726315177673785
            ]
        },
        {
            "positions": [
                0.0419426579440321,
                -2.206881756404979,
                -2.1773125004011256,
                0.30588014294971777,
                -0.5094330446795271,
                -0.6313085946909562
            ]
        },
        {
            "positions": [
                0.037475423468178996,
                -2.2021420315495774,
                -2.1568400686996254,
                0.14981687596966387,
                -0.5735221071307108,
                -0.7753540376051749
            ]
        },
        {
            "positions": [
                0.033008188992325896,
                -2.1974023066941757,
                -2.1363676369981257,
                -0.006246391010389818,
                -0.6376111695818945,
                -0.919399480519393
            ]
        },
        {
            "positions": [
                0.02854095451647279,
                -2.192662581838774,
                -2.115895205296626,
                -0.1623096579904435,
                -0.7017002320330781,
                -1.0634449234336116
            ]
        },
        {
            "positions": [
                0.024073720040619688,
                -2.187922856983372,
                -2.0954227735951263,
                -0.3183729249704972,
                -0.7657892944842617,
                -1.20749036634783
            ]
        },
        {
            "positions": [
                0.01960648556476658,
                -2.1831831321279704,
                -2.0749503418936266,
                -0.4744361919505511,
                -0.8298783569354454,
                -1.3515358092620484
            ]
        },
        {
            "positions": [
                0.015139251088913473,
                -2.1784434072725687,
                -2.054477910192127,
                -0.6304994589306048,
                -0.893967419386629,
                -1.4955812521762668
            ]
        },
        {
            "positions": [
                0.010672016613060373,
                -2.173703682417167,
                -2.034005478490627,
                -0.7865627259106585,
                -0.9580564818378127,
                -1.6396266950904852
            ]
        },
        {
            "positions": [
                0.006204782137207265,
                -2.168963957561765,
                -2.0135330467891275,
                -0.9426259928907126,
                -1.0221455442889964,
                -1.783672138004704
            ]
        },
        {
            "positions": [
                0.001737547661354158,
                -2.1642242327063634,
                -1.9930606150876276,
                -1.0986892598707663,
                -1.08623460674018,
                -1.927717580918922
            ]
        },
        {
            "positions": [
                -0.0027296868144989356,
                -2.1594845078509617,
                -1.9725881833861278,
                -1.25475252685082,
                -1.1503236691913639,
                -2.0717630238331406
            ]
        },
        {
            "positions": [
                -0.007196921290352043,
                -2.15474478299556,
                -1.9521157516846281,
                -1.4108157938308736,
                -1.2144127316425475,
                -2.215808466747359
            ]
        },
        {
            "positions": [
                -0.01166415576620515,
                -2.1500050581401586,
                -1.9316433199831284,
                -1.5668790608109273,
                -1.278501794093731,
                -2.3598539096615774
            ]
        },
        {
            "positions": [
                -0.016131390242058258,
                -2.145265333284757,
                -1.9111708882816287,
                -1.722942327790981,
                -1.3425908565449147,
                -2.5038993525757958
            ]
        },
        {
            "positions": [
                -0.02059862471791135,
                -2.140525608429355,
                -1.8906984565801288,
                -1.8790055947710347,
                -1.4066799189960983,
                -2.647944795490014
            ]
        },
        {
            "positions": [
                -0.02506585919376446,
                -2.1357858835739534,
                -1.870226024878629,
                -2.035068861751088,
                -1.470768981447282,
                -2.7919902384042325
            ]
        },
        {
            "positions": [
                -0.029533093669617566,
                -2.1310461587185516,
                -1.8497535931771294,
                -2.1911321287311427,
                -1.5348580438984658,
                -2.936035681318451
            ]
        },
        {
            "positions": [
                -0.034000328145470674,
                -2.12630643386315,
                -1.8292811614756297,
                -2.347195395711196,
                -1.5989471063496494,
                -3.0800811242326698
            ]
        }
    ]
}