{
    "goal": {
        "global_pose": {
            "orientation": {
                "w": -0.4816463035849501,
                "x": 0.5182115481033762,
                "y": 0.4908360881923453,
                "z": -0.5084816262002911
            },
            "position": {
                "x": -0.8240239810943604,
                "y": 0.19912469901144506,
                "z": 0.16403168439865112
            }
        },
        "name": "move_to_storage_D"
    },
    "id": "SPARS_move_to_storage_D_130",
    "joint_names": [
        "shoulder_pan_joint",
        "shoulder_lift_joint",
        "elbow_joint",
        "wrist_1_joint",
        "wrist_2_joint",
        "wrist_3_joint"
    ],
    "metrics": {
        "cart_traj_len": 0.8128276573126356,
        "distance_elbow_joint": 0.5556646813634694,
        "distance_shoulder_lift_joint": 0.6777927348422152,
        "distance_shoulder_pan_joint": 0.731863757256206,
        "distance_wrist_1_joint": 3.8263586903845095,
        "distance_wrist_2_joint": 1.7882200504570673,
        "distance_wrist_3_joint": 3.2377375158404917,
        "smoothness": 0.1042931862503811,
        "time": 5.071988661000001,
        "traj_len": 3.2890176998830456,
        "weighted_distance": 4.786197990332883
    },
    "planner": "SPARS",
    "start": {
        "state": {
            "elbow_joint": -2.384821988534728,
            "shoulder_lift_joint": -2.2788054721415256,
            "shoulder_pan_joint": -0.1854694642142757,
            "wrist_1_joint": 1.4845938289331202,
            "wrist_2_joint": 0.17898776772866878,
            "wrist_3_joint": 0.037105688729662994
        }
    },
    "waypoints": [
        {
            "positions": [
                -0.1854694642142757,
                -2.2788054721415256,
                -2.384821988534728,
                1.4845938289331202,
                0.17898776772866878,
                0.037105688729662994
            ]
        },
        {
            "positions": [
                -0.11204134512331793,
                -2.209704613676067,
                -2.375968260826407,
                1.4012730511925962,
                0.09199128399163553,
                0.04722365941681908
            ]
        },
        {
            "positions": [
                -0.03861322603236014,
                -2.1406037552106087,
                -2.3671145331180856,
                1.317952273452072,
                0.004994800254602277,
                0.057341630103975166
            ]
        },
        {
            "positions": [
                0.03481489305859767,
                -2.0715028967451503,
                -2.3582608054097642,
                1.2346314957115483,
                -0.082001683482431,
                0.06745960079113125
            ]
        },
        {
            "positions": [
                0.10824301214955542,
                -2.002402038279692,
                -2.3494070777014433,
                1.1513107179710242,
                -0.16899816721946423,
                0.07757757147828734
            ]
        },
        {
            "positions": [
                0.1816711312405133,
                -1.9333011798142334,
                -2.3405533499931224,
                1.0679899402305002,
                -0.25599465095649754,
                0.08769554216544342
            ]
        },
        {
            "positions": [
                0.2550992503314711,
                -1.864200321348775,
                -2.331699622284801,
                0.9846691624899763,
                -0.3429911346935308,
                0.09781351285259951
            ]
        },
        {
            "positions": [
                0.2424342484744946,
                -1.8756432597857082,
                -2.309849956410299,
                0.840041596231656,
                -0.39804509765156854,
                -0.04031821287425069
            ]
        },
        {
            "positions": [
                0.22976924661751813,
                -1.8870861982226415,
                -2.2880002905357975,
                0.6954140299733358,
                -0.45309906060960625,
                -0.1784499386011009
            ]
        },
        {
            "positions": [
                0.21710424476054166,
                -1.8985291366595747,
                -2.2661506246612952,
                0.5507864637150155,
                -0.508153023567644,
                -0.3165816643279511
            ]
        },
        {
            "positions": [
                0.2044392429035652,
                -1.909972075096508,
                -2.2443009587867935,
                0.4061588974566952,
                -0.5632069865256817,
                -0.45471339005480127
            ]
        },
        {
            "positions": [
                0.19177424104658872,
                -1.9214150135334411,
                -2.2224512929122917,
                0.2615313311983749,
                -0.6182609494837195,
                -0.5928451157816516
            ]
        },
        {
            "positions": [
                0.17910923918961225,
                -1.9328579519703744,
                -2.20060162703779,
                0.11690376494005472,
                -0.6733149124417572,
                -0.7309768415085017
            ]
        },
        {
            "positions": [
                0.16644423733263575,
                -1.9443008904073078,
                -2.178751961163288,
                -0.027723801318265573,
                -0.7283688753997949,
                -0.869108567235352
            ]
        },
        {
            "positions": [
                0.1537792354756593,
                -1.955743828844241,
                -2.1569022952887864,
                -0.17235136757658587,
                -0.7834228383578326,
                -1.0072402929622022
            ]
        },
        {
            "positions": [
                0.1411142336186828,
                -1.9671867672811743,
                -2.135052629414284,
                -0.31697893383490616,
                -0.8384768013158703,
                -1.1453720186890526
            ]
        },
        {
            "positions": [
                0.12844923176170636,
                -1.9786297057181075,
                -2.1132029635397824,
                -0.46160650009322646,
                -0.8935307642739081,
                -1.2835037444159028
            ]
        },
        {
            "positions": [
                0.11578422990472986,
                -1.9900726441550407,
                -2.0913532976652807,
                -0.6062340663515468,
                -0.9485847272319458,
                -1.421635470142753
            ]
        },
        {
            "positions": [
                0.10311922804775342,
                -2.001515582591974,
                -2.069503631790779,
                -0.7508616326098668,
                -1.0036386901899834,
                -1.559767195869603
            ]
        },
        {
            "positions": [
                0.09045422619077695,
                -2.0129585210289074,
                -2.047653965916277,
                -0.8954891988681871,
                -1.0586926531480212,
                -1.6978989215964533
            ]
        },
        {
            "positions": [
                0.07778922433380045,
                -2.0244014594658406,
                -2.0258043000417754,
                -1.0401167651265073,
                -1.113746616106059,
                -1.8360306473233037
            ]
        },
        {
            "positions": [
                0.06512422247682398,
                -2.035844397902774,
                -2.003954634167273,
                -1.1847443313848278,
                -1.1688005790640967,
                -1.9741623730501536
            ]
        },
        {
            "positions": [
                0.052459220619847535,
                -2.047287336339707,
                -1.9821049682927714,
                -1.329371897643148,
                -1.2238545420221345,
                -2.112294098777004
            ]
        },
        {
            "positions": [
                0.039794218762871064,
                -2.0587302747766403,
                -1.9602553024182696,
                -1.473999463901468,
                -1.278908504980172,
                -2.250425824503854
            ]
        },
        {
            "positions": [
                0.027129216905894565,
                -2.0701732132135735,
                -1.9384056365437679,
                -1.6186270301597885,
                -1.33396246793821,
                -2.3885575502307046
            ]
        },
        {
            "positions": [
                0.014464215048918094,
                -2.0816161516505067,
                -1.916555970669266,
                -1.7632545964181086,
                -1.3890164308962476,
                -2.5266892759575548
            ]
        },
        {
            "positions": [
                0.001799213191941651,
                -2.09305909008744,
                -1.894706304794764,
                -1.907882162676429,
                -1.4440703938542854,
                -2.664821001684405
            ]
        },
        {
            "positions": [
                -0.010865788665034848,
                -2.104502028524373,
                -1.8728566389202623,
                -2.052509728934749,
                -1.499124356812323,
                -2.8029527274112547
            ]
        },
        {
            "positions": [
                -0.023530790522011347,
                -2.1159449669613064,
                -1.8510069730457603,
                -2.1971372951930697,
                -1.5541783197703607,
                -2.9410844531381053
            ]
        },
        {
            "positions": [
                -0.03619579237898777,
                -2.1273879053982396,
                -1.8291573071712586,
                -2.3417648614513897,
                -1.6092322827283985,
                -3.0792161788649555
            ]
        }
    ]
}