{
    "goal": {
        "global_pose": {
            "orientation": {
                "w": 0.5084816262002911,
                "x": -0.4908360881923452,
                "y": 0.5182115481033761,
                "z": -0.48164630358495003
            },
            "position": {
                "x": 0.5540239810943604,
                "y": -0.46912469901144505,
                "z": 0.16403168439865112
            }
        },
        "name": "move_to_storage_B"
    },
    "id": "SPARStwo_move_to_storage_B_61",
    "joint_names": [
        "shoulder_pan_joint",
        "shoulder_lift_joint",
        "elbow_joint",
        "wrist_1_joint",
        "wrist_2_joint",
        "wrist_3_joint"
    ],
    "metrics": {
        "cart_traj_len": 1.662516895175782,
        "distance_elbow_joint": 0.8706462047003778,
        "distance_shoulder_lift_joint": 0.6470771325456838,
        "distance_shoulder_pan_joint": 1.4403192084564884,
        "distance_wrist_1_joint": 3.8749457852586726,
        "distance_wrist_2_joint": 2.969082574928742,
        "distance_wrist_3_joint": 3.145726234385631,
        "smoothness": 0.38931805815752873,
        "time": 5.03188985,
        "traj_len": 3.598304759226988,
        "weighted_distance": 5.1071790617947075
    },
    "planner": "SPARStwo",
    "start": {
        "state": {
            "elbow_joint": 1.664933442143537,
            "shoulder_lift_joint": -0.6616394447335833,
            "shoulder_pan_joint": -0.9139842036674819,
            "wrist_1_joint": 2.1467570250598067,
            "wrist_2_joint": -2.234195602830096,
            "wrist_3_joint": 0.005471150212293033
        }
    },
    "waypoints": [
        {
            "positions": [
                -0.9139842036674819,
                -0.6616394447335833,
                1.664933442143537,
                2.1467570250598067,
                -2.234195602830096,
                0.005471150212293033
            ]
        },
        {
            "positions": [
                -0.8090028274520435,
                -0.753771344570329,
                1.621594583115814,
                2.2204132077359082,
                -2.256197691793995,
                0.04269204093752427
            ]
        },
        {
            "positions": [
                -0.7040214512366052,
                -0.8459032444070747,
                1.5782557240880914,
                2.29406939041201,
                -2.2781997807578938,
                0.07991293166275551
            ]
        },
        {
            "positions": [
                -0.5990400750211669,
                -0.9380351442438204,
                1.5349168650603686,
                2.3677255730881117,
                -2.3002018697217927,
                0.11713382238798675
            ]
        },
        {
            "positions": [
                -0.4940586988057285,
                -1.0301670440805661,
                1.4915780060326458,
                2.4413817557642132,
                -2.3222039586856917,
                0.15435471311321797
            ]
        },
        {
            "positions": [
                -0.38907732259029015,
                -1.1222989439173119,
                1.4482391470049232,
                2.515037938440315,
                -2.3442060476495903,
                0.1915756038384492
            ]
        },
        {
            "positions": [
                -0.2840959463748518,
                -1.2144308437540576,
                1.4049002879772003,
                2.5886941211164167,
                -2.3662081366134893,
                0.22879649456368045
            ]
        },
        {
            "positions": [
                -0.31303990891641814,
                -1.2110634961281572,
                1.4267078969248446,
                2.466086667930629,
                -2.264884206572584,
                0.33316795492204626
            ]
        },
        {
            "positions": [
                -0.3419838714579845,
                -1.207696148502257,
                1.448515505872489,
                2.343479214744841,
                -2.163560276531679,
                0.43753941528041207
            ]
        },
        {
            "positions": [
                -0.3709278339995508,
                -1.2043288008763566,
                1.4703231148201334,
                2.220871761559053,
                -2.0622363464907734,
                0.5419108756387779
            ]
        },
        {
            "positions": [
                -0.39987179654111715,
                -1.2009614532504562,
                1.4921307237677777,
                2.098264308373265,
                -1.960912416449868,
                0.6462823359971437
            ]
        },
        {
            "positions": [
                -0.4288157590826835,
                -1.197594105624556,
                1.5139383327154219,
                1.975656855187477,
                -1.8595884864089627,
                0.7506537963555097
            ]
        },
        {
            "positions": [
                -0.4577597216242498,
                -1.1942267579986556,
                1.5357459416630663,
                1.8530494020016892,
                -1.7582645563680575,
                0.8550252567138754
            ]
        },
        {
            "positions": [
                -0.48670368416581616,
                -1.1908594103727552,
                1.5575535506107108,
                1.730441948815901,
                -1.656940626327152,
                0.9593967170722413
            ]
        },
        {
            "positions": [
                -0.5156476467073825,
                -1.187492062746855,
                1.579361159558355,
                1.6078344956301132,
                -1.5556166962862468,
                1.0637681774306071
            ]
        },
        {
            "positions": [
                -0.5445916092489489,
                -1.1841247151209546,
                1.6011687685059994,
                1.485227042444325,
                -1.4542927662453413,
                1.168139637788973
            ]
        },
        {
            "positions": [
                -0.5735355717905152,
                -1.1807573674950542,
                1.6229763774536436,
                1.362619589258537,
                -1.352968836204436,
                1.2725110981473389
            ]
        },
        {
            "positions": [
                -0.6024795343320815,
                -1.177390019869154,
                1.644783986401288,
                1.2400121360727494,
                -1.2516449061635306,
                1.3768825585057045
            ]
        },
        {
            "positions": [
                -0.6314234968736478,
                -1.1740226722432536,
                1.6665915953489323,
                1.1174046828869615,
                -1.1503209761226254,
                1.4812540188640704
            ]
        },
        {
            "positions": [
                -0.6603674594152142,
                -1.1706553246173532,
                1.6883992042965765,
                0.9947972297011733,
                -1.04899704608172,
                1.5856254792224362
            ]
        },
        {
            "positions": [
                -0.6893114219567805,
                -1.167287976991453,
                1.710206813244221,
                0.8721897765153854,
                -0.9476731160408147,
                1.689996939580802
            ]
        },
        {
            "positions": [
                -0.7182553844983468,
                -1.1639206293655526,
                1.7320144221918654,
                0.7495823233295975,
                -0.8463491859999095,
                1.794368399939168
            ]
        },
        {
            "positions": [
                -0.7471993470399132,
                -1.1605532817396522,
                1.7538220311395096,
                0.6269748701438096,
                -0.7450252559590043,
                1.8987398602975336
            ]
        },
        {
            "positions": [
                -0.7761433095814795,
                -1.1571859341137518,
                1.7756296400871538,
                0.5043674169580217,
                -0.6437013259180988,
                2.0031113206558997
            ]
        },
        {
            "positions": [
                -0.8050872721230459,
                -1.1538185864878516,
                1.7974372490347983,
                0.3817599637722333,
                -0.5423773958771934,
                2.107482781014266
            ]
        },
        {
            "positions": [
                -0.8340312346646123,
                -1.1504512388619512,
                1.8192448579824427,
                0.2591525105864454,
                -0.4410534658362879,
                2.2118542413726314
            ]
        },
        {
            "positions": [
                -0.8629751972061785,
                -1.1470838912360508,
                1.841052466930087,
                0.13654505740065748,
                -0.3397295357953829,
                2.316225701730997
            ]
        },
        {
            "positions": [
                -0.8919191597477449,
                -1.1437165436101506,
                1.8628600758777312,
                0.013937604214869559,
                -0.23840560575447745,
                2.420597162089363
            ]
        },
        {
            "positions": [
                -0.9208631222893112,
                -1.1403491959842502,
                1.8846676848253756,
                -0.10866984897091791,
                -0.137081675713572,
                2.5249686224477284
            ]
        },
        {
            "positions": [
                -0.9498070848308775,
                -1.1369818483583498,
                1.90647529377302,
                -0.23127730215670583,
                -0.035757745672666985,
                2.6293400828060944
            ]
        },
        {
            "positions": [
                -0.9787510473724439,
                -1.1336145007324496,
                1.9282829027206643,
                -0.35388475534249375,
                0.06556618436823847,
                2.7337115431644605
            ]
        },
        {
            "positions": [
                -1.0076950099140103,
                -1.1302471531065492,
                1.9500905116683085,
                -0.4764922085282821,
                0.16689011440914392,
                2.8380830035228266
            ]
        },
        {
            "positions": [
                -1.0366389724555765,
                -1.1268798054806488,
                1.971898120615953,
                -0.59909966171407,
                0.26821404445004937,
                2.942454463881192
            ]
        },
        {
            "positions": [
                -1.0655829349971428,
                -1.1235124578547486,
                1.9937057295635974,
                -0.721707114899858,
                0.3695379744909544,
                3.046825924239558
            ]
        },
        {
            "positions": [
                -1.0945268975387092,
                -1.1201451102288482,
                2.0155133385112416,
                -0.8443145680856461,
                0.47086190453185994,
                3.151197384597924
            ]
        }
    ]
}