{
    "goal": {
        "global_pose": {
            "orientation": {
                "w": 0.7047431493862688,
                "x": -0.7094548369677653,
                "y": 0.0024358444001904,
                "z": -0.0022348060817251984
            },
            "position": {
                "x": -0.39052492380142206,
                "y": 0.3671506643295288,
                "z": 0.19426114857196808
            }
        },
        "name": "move_to_magneteinheit_D"
    },
    "id": "SPARS_move_to_magneteinheit_D_37",
    "joint_names": [
        "shoulder_pan_joint",
        "shoulder_lift_joint",
        "elbow_joint",
        "wrist_1_joint",
        "wrist_2_joint",
        "wrist_3_joint"
    ],
    "metrics": {
        "cart_traj_len": 5.207963586530146,
        "distance_elbow_joint": 3.518687092631178,
        "distance_shoulder_lift_joint": 1.6672419874299826,
        "distance_shoulder_pan_joint": 4.803810004486328,
        "distance_wrist_1_joint": 6.518395540928841,
        "distance_wrist_2_joint": 1.8737378142140295,
        "distance_wrist_3_joint": 4.320254487232845,
        "smoothness": 0.7515784795201818,
        "time": 5.073139945,
        "traj_len": 4.764674902543004,
        "weighted_distance": 6.303552114207656
    },
    "planner": "SPARS",
    "start": {
        "state": {
            "elbow_joint": 0.749534889911806,
            "shoulder_lift_joint": -0.6476975780787326,
            "shoulder_pan_joint": -2.711696901376241,
            "wrist_1_joint": -0.07506478083263063,
            "wrist_2_joint": 0.43296659715538205,
            "wrist_3_joint": -3.14703540197715
        }
    },
    "waypoints": [
        {
            "positions": [
                -2.711696901376241,
                -0.6476975780787326,
                0.749534889911806,
                -0.07506478083263063,
                0.43296659715538205,
                -3.14703540197715
            ]
        },
        {
            "positions": [
                -2.7819341167165565,
                -0.7021189998610533,
                0.7412191852614075,
                -0.1338340100737247,
                0.501340273104415,
                -3.0863282402816736
            ]
        },
        {
            "positions": [
                -2.8521713320568716,
                -0.7565404216433741,
                0.732903480611009,
                -0.1926032393148188,
                0.569713949053448,
                -3.025621078586197
            ]
        },
        {
            "positions": [
                -2.922408547397187,
                -0.8109618434256948,
                0.7245877759606105,
                -0.2513724685559129,
                0.638087625002481,
                -2.964913916890721
            ]
        },
        {
            "positions": [
                -2.992645762737502,
                -0.8653832652080156,
                0.716272071310212,
                -0.31014169779700695,
                0.7064613009515139,
                -2.9042067551952444
            ]
        },
        {
            "positions": [
                -3.0628829780778175,
                -0.9198046869903362,
                0.7079563666598135,
                -0.368910927038101,
                0.7748349769005469,
                -2.843499593499768
            ]
        },
        {
            "positions": [
                -2.9389147635552986,
                -0.930127721509368,
                0.6086077534580084,
                -0.4478721503335368,
                0.7545226430262589,
                -2.7839916997534533
            ]
        },
        {
            "positions": [
                -2.814946549032779,
                -0.9404507560283997,
                0.5092591402562033,
                -0.5268333736289725,
                0.7342103091519708,
                -2.724483806007138
            ]
        },
        {
            "positions": [
                -2.69097833451026,
                -0.9507737905474314,
                0.4099105270543982,
                -0.6057945969244083,
                0.7138979752776828,
                -2.6649759122608234
            ]
        },
        {
            "positions": [
                -2.567010119987741,
                -0.9610968250664631,
                0.3105619138525931,
                -0.684755820219844,
                0.6935856414033947,
                -2.6054680185145087
            ]
        },
        {
            "positions": [
                -2.443041905465222,
                -0.9714198595854948,
                0.21121330065078792,
                -0.7637170435152799,
                0.6732733075291067,
                -2.545960124768194
            ]
        },
        {
            "positions": [
                -2.3190736909427025,
                -0.9817428941045265,
                0.11186468744898281,
                -0.8426782668107156,
                0.6529609736548186,
                -2.486452231021879
            ]
        },
        {
            "positions": [
                -2.195105476420183,
                -0.9920659286235582,
                0.012516074247177711,
                -0.9216394901061514,
                0.6326486397805307,
                -2.426944337275564
            ]
        },
        {
            "positions": [
                -2.0711372618976642,
                -1.00238896314259,
                -0.08683253895462739,
                -1.000600713401587,
                0.6123363059062426,
                -2.3674364435292494
            ]
        },
        {
            "positions": [
                -1.947169047375145,
                -1.0127119976616217,
                -0.1861811521564326,
                -1.079561936697023,
                0.5920239720319546,
                -2.3079285497829343
            ]
        },
        {
            "positions": [
                -1.823200832852626,
                -1.0230350321806534,
                -0.2855297653582377,
                -1.1585231599924588,
                0.5717116381576665,
                -2.2484206560366196
            ]
        },
        {
            "positions": [
                -1.6992326183301067,
                -1.033358066699685,
                -0.3848783785600428,
                -1.2374843832878946,
                0.5513993042833785,
                -2.188912762290305
            ]
        },
        {
            "positions": [
                -1.5752644038075876,
                -1.0436811012187168,
                -0.4842269917618479,
                -1.31644560658333,
                0.5310869704090904,
                -2.12940486854399
            ]
        },
        {
            "positions": [
                -1.4512961892850684,
                -1.0540041357377485,
                -0.583575604963653,
                -1.395406829878766,
                0.5107746365348024,
                -2.069896974797675
            ]
        },
        {
            "positions": [
                -1.3273279747625493,
                -1.0643271702567803,
                -0.6829242181654581,
                -1.4743680531742018,
                0.4904623026605143,
                -2.0103890810513603
            ]
        },
        {
            "positions": [
                -1.20335976024003,
                -1.074650204775812,
                -0.7822728313672632,
                -1.5533292764696376,
                0.4701499687862263,
                -1.9508811873050456
            ]
        },
        {
            "positions": [
                -1.079391545717511,
                -1.0849732392948437,
                -0.8816214445690683,
                -1.6322904997650733,
                0.44983763491193823,
                -1.8913732935587306
            ]
        },
        {
            "positions": [
                -0.955423331194992,
                -1.0952962738138754,
                -0.9809700577708734,
                -1.711251723060509,
                0.42952530103765024,
                -1.831865399812416
            ]
        },
        {
            "positions": [
                -0.8314551166724726,
                -1.1056193083329071,
                -1.0803186709726789,
                -1.790212946355945,
                0.40921296716336214,
                -1.7723575060661008
            ]
        },
        {
            "positions": [
                -0.7074869021499532,
                -1.1159423428519388,
                -1.1796672841744837,
                -1.8691741696513808,
                0.3889006332890741,
                -1.712849612319786
            ]
        },
        {
            "positions": [
                -0.5835186876274343,
                -1.1262653773709705,
                -1.279015897376289,
                -1.9481353929468166,
                0.36858829941478605,
                -1.6533417185734711
            ]
        },
        {
            "positions": [
                -0.4595504731049149,
                -1.1365884118900023,
                -1.378364510578094,
                -2.027096616242252,
                0.348275965540498,
                -1.5938338248271564
            ]
        },
        {
            "positions": [
                -0.335582258582396,
                -1.146911446409034,
                -1.4777131237798993,
                -2.106057839537688,
                0.32796363166621,
                -1.5343259310808417
            ]
        },
        {
            "positions": [
                -0.21161404405987705,
                -1.1572344809280657,
                -1.5770617369817042,
                -2.1850190628331236,
                0.30765129779192196,
                -1.4748180373345268
            ]
        },
        {
            "positions": [
                -0.08764582953735767,
                -1.1675575154470974,
                -1.6764103501835095,
                -2.263980286128559,
                0.2873389639176339,
                -1.415310143588212
            ]
        },
        {
            "positions": [
                0.036322384985161715,
                -1.1778805499661291,
                -1.7757589633853148,
                -2.342941509423995,
                0.2670266300433458,
                -1.355802249841897
            ]
        },
        {
            "positions": [
                0.16029059950768065,
                -1.1882035844851608,
                -1.8751075765871197,
                -2.421902732719431,
                0.24671429616905782,
                -1.2962943560955822
            ]
        },
        {
            "positions": [
                0.28425881403020004,
                -1.1985266190041926,
                -1.974456189788925,
                -2.500863956014867,
                0.22640196229476972,
                -1.2367864623492673
            ]
        },
        {
            "positions": [
                0.408227028552719,
                -1.2088496535232243,
                -2.07380480299073,
                -2.5798251793103026,
                0.20608962842048173,
                -1.1772785686029525
            ]
        },
        {
            "positions": [
                0.38107591218845216,
                -1.2667606806832463,
                -2.092740211691096,
                -2.3634007858787007,
                0.2041872482638624,
                -1.104571716968843
            ]
        },
        {
            "positions": [
                0.3539247958241853,
                -1.3246717078432684,
                -2.1116756203914617,
                -2.1469763924470984,
                0.20228486810724305,
                -1.031864865334733
            ]
        },
        {
            "positions": [
                0.3267736794599184,
                -1.3825827350032904,
                -2.1306110290918276,
                -1.9305519990154965,
                0.20038248795062372,
                -0.9591580137006234
            ]
        },
        {
            "positions": [
                0.2996225630956516,
                -1.4404937621633125,
                -2.1495464377921936,
                -1.7141276055838945,
                0.19848010779400438,
                -0.8864511620665136
            ]
        },
        {
            "positions": [
                0.2724714467313848,
                -1.4984047893233345,
                -2.168481846492559,
                -1.4977032121522924,
                0.19657772763738504,
                -0.8137443104324038
            ]
        },
        {
            "positions": [
                0.24532033036711792,
                -1.5563158164833566,
                -2.187417255192925,
                -1.2812788187206903,
                0.1946753474807657,
                -0.7410374587982942
            ]
        },
        {
            "positions": [
                0.2181692140028511,
                -1.6142268436433787,
                -2.206352663893291,
                -1.0648544252890884,
                0.19277296732414637,
                -0.6683306071641845
            ]
        },
        {
            "positions": [
                0.19101809763858427,
                -1.6721378708034007,
                -2.225288072593657,
                -0.8484300318574862,
                0.19087058716752703,
                -0.5956237555300747
            ]
        },
        {
            "positions": [
                0.1638669812743174,
                -1.7300488979634228,
                -2.2442234812940227,
                -0.6320056384258843,
                0.1889682070109077,
                -0.5229169038959649
            ]
        },
        {
            "positions": [
                0.13671586491005056,
                -1.7879599251234448,
                -2.2631588899943886,
                -0.4155812449942822,
                0.18706582685428835,
                -0.4502100522618552
            ]
        },
        {
            "positions": [
                0.10956474854578374,
                -1.8458709522834669,
                -2.2820942986947546,
                -0.19915685156267982,
                0.18516344669766902,
                -0.37750320062774545
            ]
        },
        {
            "positions": [
                0.08241363218151687,
                -1.903781979443489,
                -2.3010297073951205,
                0.0172675418689221,
                0.18326106654104968,
                -0.3047963489936357
            ]
        },
        {
            "positions": [
                0.05526251581725006,
                -1.961693006603511,
                -2.319965116095486,
                0.23369193530052357,
                0.18135868638443034,
                -0.2320894973595261
            ]
        },
        {
            "positions": [
                0.028111399452983243,
                -2.019604033763533,
                -2.338900524795852,
                0.4501163287321259,
                0.179456306227811,
                -0.15938264572541638
            ]
        },
        {
            "positions": [
                0.0009602830887163738,
                -2.077515060923555,
                -2.357835933496218,
                0.6665407221637278,
                0.17755392607119166,
                -0.08667579409130655
            ]
        },
        {
            "positions": [
                -0.02619083327555044,
                -2.135426088083577,
                -2.3767713421965837,
                0.8829651155953302,
                0.17565154591457233,
                -0.013968942457196931
            ]
        },
        {
            "positions": [
                -0.053341949639817324,
                -2.193337115243599,
                -2.3957067508969496,
                1.099389509026932,
                0.173749165757953,
                0.058737909176912996
            ]
        },
        {
            "positions": [
                -0.10771715155019099,
                -2.2103136121176354,
                -2.4269022727460117,
                1.153552581670268,
                0.0959920038481031,
                0.1551456076259613
            ]
        },
        {
            "positions": [
                -0.16209235346056466,
                -2.227290108991672,
                -2.4580977945950733,
                1.207715654313604,
                0.0182348419382532,
                0.2515533060750096
            ]
        },
        {
            "positions": [
                -0.2164675553709383,
                -2.2442666058657084,
                -2.4892933164441353,
                1.26187872695694,
                -0.05952231997159671,
                0.3479610045240579
            ]
        },
        {
            "positions": [
                -0.27084275728131196,
                -2.2612431027397446,
                -2.5204888382931974,
                1.316041799600276,
                -0.1372794818814466,
                0.4443687029731062
            ]
        },
        {
            "positions": [
                -0.32521795919168567,
                -2.2782195996137813,
                -2.551684360142259,
                1.370204872243612,
                -0.21503664379129653,
                0.5407764014221546
            ]
        },
        {
            "positions": [
                -0.3795931611020593,
                -2.2951960964878175,
                -2.582879881991321,
                1.424367944886948,
                -0.29279380570114644,
                0.6371840998712028
            ]
        },
        {
            "positions": [
                -0.33116972822720026,
                -2.290260229232593,
                -2.5363118018093083,
                1.4267284494504278,
                -0.1767336427343536,
                0.5031753535250797
            ]
        },
        {
            "positions": [
                -0.2827462953523412,
                -2.2853243619773687,
                -2.4897437216272955,
                1.4290889540139076,
                -0.06067347976756077,
                0.36916660717895655
            ]
        },
        {
            "positions": [
                -0.23432286247748219,
                -2.2803884947221444,
                -2.4431756414452828,
                1.4314494585773874,
                0.05538668319923207,
                0.2351578608328334
            ]
        },
        {
            "positions": [
                -0.18589942960262312,
                -2.27545262746692,
                -2.39660756126327,
                1.4338099631408672,
                0.17144684616602487,
                0.10114911448671023
            ]
        }
    ]
}