{
    "goal": {
        "global_pose": {
            "orientation": {
                "w": 0.005598929693374612,
                "x": 0.007748599140229565,
                "y": 0.7110244013736278,
                "z": -0.7031023480610252
            },
            "position": {
                "x": 0.1141497679147869,
                "y": -0.7141253447532654,
                "z": 0.3711530566215515
            }
        },
        "name": "move_to_auspresseinheit_B"
    },
    "id": "SPARStwo_move_to_auspresseinheit_B_122",
    "joint_names": [
        "shoulder_pan_joint",
        "shoulder_lift_joint",
        "elbow_joint",
        "wrist_1_joint",
        "wrist_2_joint",
        "wrist_3_joint"
    ],
    "metrics": {
        "cart_traj_len": 0.5648800492286664,
        "distance_elbow_joint": 0.06513760294098025,
        "distance_shoulder_lift_joint": 0.2950363382858274,
        "distance_shoulder_pan_joint": 0.5778730654647379,
        "distance_wrist_1_joint": 0.3353972444990754,
        "distance_wrist_2_joint": 0.9878905256004309,
        "distance_wrist_3_joint": 0.008772591218185521,
        "smoothness": 0.0,
        "time": 5.020599082,
        "traj_len": 1.5066875482359432,
        "weighted_distance": 1.9002474366632138
    },
    "planner": "SPARStwo",
    "start": {
        "state": {
            "elbow_joint": 2.0193083361928714,
            "shoulder_lift_joint": -1.1220246554650708,
            "shoulder_pan_joint": -1.0952077554168747,
            "wrist_1_joint": -0.8559753972642168,
            "wrist_2_joint": 0.4759566250798843,
            "wrist_3_joint": -3.1240929996934557
        }
    },
    "waypoints": [
        {
            "positions": [
                -1.0952077554168747,
                -1.1220246554650708,
                2.0193083361928714,
                -0.8559753972642168,
                0.4759566250798843,
                -3.1240929996934557
            ]
        },
        {
            "positions": [
                -1.191519932994331,
                -1.1711973785127088,
                2.0084520690360415,
                -0.8000758565143709,
                0.6406050460132895,
                -3.122630901157091
            ]
        },
        {
            "positions": [
                -1.2878321105717874,
                -1.2203701015603465,
                1.9975958018792113,
                -0.744176315764525,
                0.8052534669466946,
                -3.121168802620727
            ]
        },
        {
            "positions": [
                -1.3841442881492436,
                -1.2695428246079845,
                1.9867395347223813,
                -0.6882767750146791,
                0.9699018878800998,
                -3.119706704084363
            ]
        },
        {
            "positions": [
                -1.4804564657266999,
                -1.3187155476556225,
                1.9758832675655513,
                -0.6323772342648333,
                1.134550308813505,
                -3.1182446055479986
            ]
        },
        {
            "positions": [
                -1.5767686433041563,
                -1.3678882707032602,
                1.9650270004087211,
                -0.5764776935149873,
                1.29919872974691,
                -3.116782507011634
            ]
        },
        {
            "positions": [
                -1.6730808208816126,
                -1.4170609937508982,
                1.9541707332518912,
                -0.5205781527651414,
                1.4638471506803152,
                -3.11532040847527
            ]
        }
    ]
}