{
    "goal": {
        "global_pose": {
            "orientation": {
                "w": -0.4816463035849501,
                "x": 0.5182115481033762,
                "y": 0.4908360881923453,
                "z": -0.5084816262002911
            },
            "position": {
                "x": -0.8240239810943604,
                "y": 0.19912469901144506,
                "z": 0.16403168439865112
            }
        },
        "name": "move_to_storage_D"
    },
    "id": "SPARStwo_move_to_storage_D_15",
    "joint_names": [
        "shoulder_pan_joint",
        "shoulder_lift_joint",
        "elbow_joint",
        "wrist_1_joint",
        "wrist_2_joint",
        "wrist_3_joint"
    ],
    "metrics": {
        "cart_traj_len": 0.5976585964028386,
        "distance_elbow_joint": 0.5576287498598971,
        "distance_shoulder_lift_joint": 0.15154991931133432,
        "distance_shoulder_pan_joint": 0.14907198722893483,
        "distance_wrist_1_joint": 4.099169438318333,
        "distance_wrist_2_joint": 1.793386875102663,
        "distance_wrist_3_joint": 3.1388478345732915,
        "smoothness": 0.22724699812137197,
        "time": 5.047995919,
        "traj_len": 3.144782155316081,
        "weighted_distance": 4.6967975032954135
    },
    "planner": "SPARStwo",
    "start": {
        "state": {
            "elbow_joint": -2.384821988534728,
            "shoulder_lift_joint": -2.2788054721415256,
            "shoulder_pan_joint": -0.1854694642142757,
            "wrist_1_joint": 1.4845938289331202,
            "wrist_2_joint": 0.17898776772866878,
            "wrist_3_joint": 0.037105688729662994
        }
    },
    "waypoints": [
        {
            "positions": [
                -0.1854694642142757,
                -2.2788054721415256,
                -2.384821988534728,
                1.4845938289331202,
                0.17898776772866878,
                0.037105688729662994
            ]
        },
        {
            "positions": [
                -0.12043892015836066,
                -2.2342553290652405,
                -2.336186369778323,
                1.5503419230000681,
                0.0269943664531071,
                0.04203241956246102
            ]
        },
        {
            "positions": [
                -0.05540837610244562,
                -2.1897051859889554,
                -2.287550751021919,
                1.616090017067016,
                -0.1249990348224546,
                0.04695915039525904
            ]
        },
        {
            "positions": [
                -0.054616255305899586,
                -2.1871031179406737,
                -2.268369188007457,
                1.4507702983093311,
                -0.18705737117876875,
                -0.08341561514256159
            ]
        },
        {
            "positions": [
                -0.05382413450935355,
                -2.1845010498923916,
                -2.2491876249929947,
                1.2854505795516462,
                -0.2491157075350829,
                -0.2137903806803822
            ]
        },
        {
            "positions": [
                -0.05303201371280752,
                -2.18189898184411,
                -2.230006061978533,
                1.1201308607939615,
                -0.311174043891397,
                -0.3441651462182029
            ]
        },
        {
            "positions": [
                -0.05223989291626148,
                -2.1792969137958282,
                -2.2108244989640706,
                0.9548111420362766,
                -0.37323238024771116,
                -0.47453991175602345
            ]
        },
        {
            "positions": [
                -0.05144777211971545,
                -2.176694845747546,
                -2.191642935949609,
                0.7894914232785917,
                -0.43529071660402535,
                -0.6049146772938443
            ]
        },
        {
            "positions": [
                -0.05065565132316942,
                -2.1740927776992645,
                -2.172461372935147,
                0.6241717045209069,
                -0.4973490529603395,
                -0.7352894428316649
            ]
        },
        {
            "positions": [
                -0.04986353052662338,
                -2.1714907096509823,
                -2.1532798099206847,
                0.45885198576322184,
                -0.5594073893166537,
                -0.8656642083694855
            ]
        },
        {
            "positions": [
                -0.04907140973007735,
                -2.1688886416027007,
                -2.134098246906223,
                0.29353226700553714,
                -0.6214657256729678,
                -0.996038973907306
            ]
        },
        {
            "positions": [
                -0.04827928893353131,
                -2.166286573554419,
                -2.114916683891761,
                0.12821254824785222,
                -0.6835240620292818,
                -1.1264137394451268
            ]
        },
        {
            "positions": [
                -0.04748716813698528,
                -2.163684505506137,
                -2.0957351208772987,
                -0.0371071705098327,
                -0.745582398385596,
                -1.2567885049829475
            ]
        },
        {
            "positions": [
                -0.04669504734043925,
                -2.161082437457855,
                -2.076553557862837,
                -0.2024268892675174,
                -0.8076407347419101,
                -1.387163270520768
            ]
        },
        {
            "positions": [
                -0.04590292654389321,
                -2.158480369409573,
                -2.057371994848375,
                -0.3677466080252023,
                -0.8696990710982243,
                -1.5175380360585886
            ]
        },
        {
            "positions": [
                -0.04511080574734718,
                -2.1558783013612914,
                -2.038190431833913,
                -0.5330663267828872,
                -0.9317574074545384,
                -1.647912801596409
            ]
        },
        {
            "positions": [
                -0.04431868495080114,
                -2.1532762333130098,
                -2.019008868819451,
                -0.6983860455405724,
                -0.9938157438108527,
                -1.77828756713423
            ]
        },
        {
            "positions": [
                -0.04352656415425511,
                -2.1506741652647277,
                -1.999827305804989,
                -0.8637057642982571,
                -1.0558740801671669,
                -1.9086623326720504
            ]
        },
        {
            "positions": [
                -0.04273444335770908,
                -2.148072097216446,
                -1.9806457427905269,
                -1.0290254830559418,
                -1.117932416523481,
                -2.039037098209871
            ]
        },
        {
            "positions": [
                -0.041942322561163044,
                -2.1454700291681643,
                -1.9614641797760648,
                -1.194345201813627,
                -1.179990752879795,
                -2.169411863747692
            ]
        },
        {
            "positions": [
                -0.041150201764617006,
                -2.142867961119882,
                -1.9422826167616027,
                -1.3596649205713116,
                -1.2420490892361091,
                -2.2997866292855127
            ]
        },
        {
            "positions": [
                -0.040358080968070975,
                -2.1402658930716005,
                -1.923101053747141,
                -1.5249846393289963,
                -1.3041074255924232,
                -2.430161394823333
            ]
        },
        {
            "positions": [
                -0.039565960171524944,
                -2.137663825023319,
                -1.9039194907326789,
                -1.6903043580866814,
                -1.3661657619487375,
                -2.560536160361154
            ]
        },
        {
            "positions": [
                -0.038773839374978906,
                -2.1350617569750368,
                -1.8847379277182168,
                -1.8556240768443661,
                -1.4282240983050516,
                -2.6909109258989745
            ]
        },
        {
            "positions": [
                -0.037981718578432876,
                -2.132459688926755,
                -1.865556364703755,
                -2.020943795602051,
                -1.4902824346613657,
                -2.821285691436795
            ]
        },
        {
            "positions": [
                -0.03718959778188684,
                -2.129857620878473,
                -1.846374801689293,
                -2.186263514359736,
                -1.55234077101768,
                -2.951660456974616
            ]
        },
        {
            "positions": [
                -0.03639747698534081,
                -2.1272555528301913,
                -1.8271932386748309,
                -2.3515832331174207,
                -1.614399107373994,
                -3.0820352225124363
            ]
        }
    ]
}