{
    "goal": {
        "global_pose": {
            "orientation": {
                "w": -0.4816463035849501,
                "x": 0.5182115481033762,
                "y": 0.4908360881923453,
                "z": -0.5084816262002911
            },
            "position": {
                "x": -0.8240239810943604,
                "y": -0.300875300988555,
                "z": 0.16403168439865112
            }
        },
        "name": "move_to_storage_C"
    },
    "id": "SPARS_move_to_storage_C_118",
    "joint_names": [
        "shoulder_pan_joint",
        "shoulder_lift_joint",
        "elbow_joint",
        "wrist_1_joint",
        "wrist_2_joint",
        "wrist_3_joint"
    ],
    "metrics": {
        "cart_traj_len": 0.5761216447244146,
        "distance_elbow_joint": 0.2608849504937638,
        "distance_shoulder_lift_joint": 0.1900901232563551,
        "distance_shoulder_pan_joint": 0.4941013313405138,
        "distance_wrist_1_joint": 0.08857538084588468,
        "distance_wrist_2_joint": 1.0651929834094935,
        "distance_wrist_3_joint": 0.0670751161333718,
        "smoothness": 5.075305295617109e-16,
        "time": 5.12411598,
        "traj_len": 1.4717064535699307,
        "weighted_distance": 1.8584505594719232
    },
    "planner": "SPARS",
    "start": {
        "state": {
            "elbow_joint": 2.010868314990456,
            "shoulder_lift_joint": -1.1634956873337592,
            "shoulder_pan_joint": -2.4736205022346125,
            "wrist_1_joint": -0.8367026794202681,
            "wrist_2_joint": 0.6746043897044499,
            "wrist_3_joint": -3.1496632123970403
        }
    },
    "waypoints": [
        {
            "positions": [
                -2.4736205022346125,
                -1.1634956873337592,
                2.010868314990456,
                -0.8367026794202681,
                0.6746043897044499,
                -3.1496632123970403
            ]
        },
        {
            "positions": [
                -2.5559707241246983,
                -1.1318140001243666,
                1.9673874899081618,
                -0.821940115945954,
                0.8521365536060321,
                -3.1384840263748117
            ]
        },
        {
            "positions": [
                -2.6383209460147836,
                -1.1001323129149743,
                1.9239066648258678,
                -0.8071775524716399,
                1.0296687175076145,
                -3.127304840352583
            ]
        },
        {
            "positions": [
                -2.7206711679048694,
                -1.0684506257055817,
                1.880425839743574,
                -0.7924149889973258,
                1.2072008814091966,
                -3.1161256543303546
            ]
        },
        {
            "positions": [
                -2.803021389794955,
                -1.0367689384961891,
                1.83694501466128,
                -0.7776524255230116,
                1.384733045310779,
                -3.1049464683081256
            ]
        },
        {
            "positions": [
                -2.8853716116850405,
                -1.0050872512867965,
                1.793464189578986,
                -0.7628898620486976,
                1.5622652092123612,
                -3.093767282285897
            ]
        },
        {
            "positions": [
                -2.9677218335751263,
                -0.9734055640774041,
                1.749983364496692,
                -0.7481272985743834,
                1.7397973731139433,
                -3.0825880962636685
            ]
        }
    ]
}