{
    "goal": {
        "global_pose": {
            "orientation": {
                "w": 0.7047431468963623,
                "x": -0.7094548344612122,
                "y": 0.0024358443915843964,
                "z": -0.0022348060738295317
            },
            "position": {
                "x": 0.6094750761985779,
                "y": 0.3671506643295288,
                "z": 0.19426114857196808
            }
        },
        "name": "move_to_magneteinheit_A"
    },
    "id": "SPARStwo_move_to_magneteinheit_A_91",
    "joint_names": [
        "shoulder_pan_joint",
        "shoulder_lift_joint",
        "elbow_joint",
        "wrist_1_joint",
        "wrist_2_joint",
        "wrist_3_joint"
    ],
    "metrics": {
        "cart_traj_len": 3.6672971651663473,
        "distance_elbow_joint": 3.9080405208381412,
        "distance_shoulder_lift_joint": 0.4702356801262729,
        "distance_shoulder_pan_joint": 2.946362466559739,
        "distance_wrist_1_joint": 3.4541283776688707,
        "distance_wrist_2_joint": 2.386596318697739,
        "distance_wrist_3_joint": 1.592212720165202,
        "smoothness": 0.22733707933109015,
        "time": 5.033134893,
        "traj_len": 3.8415590694477113,
        "weighted_distance": 4.876753655942953
    },
    "planner": "SPARStwo",
    "start": {
        "state": {
            "elbow_joint": -1.9196185241190666,
            "shoulder_lift_joint": -1.2443396400964142,
            "shoulder_pan_joint": 2.6996025414629847,
            "wrist_1_joint": -1.5485510000780065,
            "wrist_2_joint": -1.5709468930060704,
            "wrist_3_joint": 0.4420197071253992
        }
    },
    "waypoints": [
        {
            "positions": [
                2.6996025414629847,
                -1.2443396400964142,
                -1.9196185241190666,
                -1.5485510000780065,
                -1.5709468930060704,
                0.4420197071253992
            ]
        },
        {
            "positions": [
                2.6009566521765786,
                -1.2284182499061786,
                -1.8208934075673782,
                -1.471792130880601,
                -1.502499966429919,
                0.40624402503372237
            ]
        },
        {
            "positions": [
                2.502310762890172,
                -1.2124968597159431,
                -1.7221682910156897,
                -1.3950332616831957,
                -1.4340530398537679,
                0.37046834294204556
            ]
        },
        {
            "positions": [
                2.403664873603766,
                -1.1965754695257076,
                -1.623443174464001,
                -1.3182743924857903,
                -1.3656061132776165,
                0.33469266085036875
            ]
        },
        {
            "positions": [
                2.3050189843173596,
                -1.180654079335472,
                -1.5247180579123125,
                -1.2415155232883848,
                -1.2971591867014653,
                0.29891697875869194
            ]
        },
        {
            "positions": [
                2.206373095030953,
                -1.1647326891452365,
                -1.425992941360624,
                -1.1647566540909793,
                -1.228712260125314,
                0.26314129666701513
            ]
        },
        {
            "positions": [
                2.107727205744547,
                -1.148811298955001,
                -1.3272678248089353,
                -1.087997784893574,
                -1.1602653335491628,
                0.22736561457533833
            ]
        },
        {
            "positions": [
                2.0090813164581407,
                -1.1328899087647657,
                -1.2285427082572469,
                -1.0112389156961685,
                -1.0918184069730115,
                0.19158993248366152
            ]
        },
        {
            "positions": [
                1.9104354271717345,
                -1.1169685185745302,
                -1.1298175917055584,
                -0.9344800464987632,
                -1.02337148039686,
                0.1558142503919847
            ]
        },
        {
            "positions": [
                1.811789537885328,
                -1.1010471283842946,
                -1.0310924751538697,
                -0.8577211773013577,
                -0.9549245538207088,
                0.1200385683003079
            ]
        },
        {
            "positions": [
                1.7131436485989218,
                -1.085125738194059,
                -0.9323673586021812,
                -0.7809623081039523,
                -0.8864776272445576,
                0.0842628862086311
            ]
        },
        {
            "positions": [
                1.6144977593125156,
                -1.0692043480038236,
                -0.8336422420504928,
                -0.7042034389065468,
                -0.8180307006684064,
                0.048487204116954286
            ]
        },
        {
            "positions": [
                1.5158518700261092,
                -1.053282957813588,
                -0.7349171254988043,
                -0.6274445697091414,
                -0.7495837740922552,
                0.012711522025277477
            ]
        },
        {
            "positions": [
                1.4172059807397028,
                -1.0373615676233525,
                -0.6361920089471156,
                -0.5506857005117359,
                -0.6811368475161038,
                -0.02306416006639933
            ]
        },
        {
            "positions": [
                1.3185600914532967,
                -1.021440177433117,
                -0.5374668923954271,
                -0.47392683131433055,
                -0.6126899209399526,
                -0.05883984215807614
            ]
        },
        {
            "positions": [
                1.2199142021668905,
                -1.0055187872428815,
                -0.43874177584373864,
                -0.39716796211692507,
                -0.5442429943638014,
                -0.09461552424975295
            ]
        },
        {
            "positions": [
                1.1212683128804841,
                -0.9895973970526459,
                -0.34001665929205016,
                -0.3204090929195198,
                -0.47579606778765005,
                -0.13039120634142976
            ]
        },
        {
            "positions": [
                1.022622423594078,
                -0.9736760068624104,
                -0.2412915427403617,
                -0.2436502237221143,
                -0.4073491412114989,
                -0.16616688843310656
            ]
        },
        {
            "positions": [
                0.9239765343076713,
                -0.9577546166721749,
                -0.14256642618867277,
                -0.16689135452470882,
                -0.3389022146353473,
                -0.20194257052478337
            ]
        },
        {
            "positions": [
                0.8253306450212652,
                -0.9418332264819393,
                -0.043841309636984294,
                -0.09013248532730334,
                -0.27045528805919616,
                -0.23771825261646018
            ]
        },
        {
            "positions": [
                0.7266847557348588,
                -0.9259118362917039,
                0.05488380691470418,
                -0.01337361612989807,
                -0.2020083614830448,
                -0.273493934708137
            ]
        },
        {
            "positions": [
                0.6280388664484526,
                -0.9099904461014684,
                0.15360892346639288,
                0.06338525306750742,
                -0.13356143490689365,
                -0.3092696167998138
            ]
        },
        {
            "positions": [
                0.5293929771620465,
                -0.8940690559112329,
                0.25233404001808113,
                0.1401441222649129,
                -0.0651145083307425,
                -0.3450452988914906
            ]
        },
        {
            "positions": [
                0.4307470878756403,
                -0.8781476657209975,
                0.3510591565697698,
                0.21690299146231817,
                0.0033324182454088636,
                -0.3808209809831674
            ]
        },
        {
            "positions": [
                0.3321011985892337,
                -0.8622262755307619,
                0.4497842731214581,
                0.29366186065972366,
                0.07177934482156001,
                -0.4165966630748442
            ]
        },
        {
            "positions": [
                0.23345530930282754,
                -0.8463048853405264,
                0.5485093896731468,
                0.37042072985712915,
                0.1402262713977116,
                -0.45237234516652103
            ]
        },
        {
            "positions": [
                0.13480942001642093,
                -0.8303834951502909,
                0.6472345062248355,
                0.44717959905453464,
                0.20867319797386275,
                -0.48814802725819784
            ]
        },
        {
            "positions": [
                0.03616353073001477,
                -0.8144621049600553,
                0.7459596227765237,
                0.5239384682519399,
                0.2771201245500141,
                -0.5239237093498746
            ]
        },
        {
            "positions": [
                -0.06248235855639136,
                -0.7985407147698198,
                0.8446847393282124,
                0.6006973374493452,
                0.34556705112616526,
                -0.5596993914415515
            ]
        },
        {
            "positions": [
                -0.04405460190235509,
                -0.796097039289852,
                0.9590584650672985,
                0.7311853414634971,
                0.29855881366961506,
                -0.5006500292817263
            ]
        },
        {
            "positions": [
                -0.02562684524831882,
                -0.793653363809884,
                1.0734321908063846,
                0.8616733454776491,
                0.25155057621306487,
                -0.44160066712190116
            ]
        },
        {
            "positions": [
                -0.007199088594282546,
                -0.7912096883299162,
                1.1878059165454706,
                0.9921613494918009,
                0.20454233875651467,
                -0.382551304962076
            ]
        },
        {
            "positions": [
                0.01122866805975372,
                -0.7887660128499484,
                1.3021796422845568,
                1.122649353505953,
                0.15753410129996448,
                -0.32350194280225086
            ]
        },
        {
            "positions": [
                0.029656424713789993,
                -0.7863223373699806,
                1.416553368023643,
                1.2531373575201048,
                0.11052586384341428,
                -0.2644525806424257
            ]
        },
        {
            "positions": [
                0.048084181367826266,
                -0.7838786618900127,
                1.530927093762729,
                1.3836253615342566,
                0.06351762638686409,
                -0.20540321848260057
            ]
        },
        {
            "positions": [
                0.06651193802186253,
                -0.7814349864100448,
                1.645300819501815,
                1.5141133655484085,
                0.016509388930313895,
                -0.14635385632277542
            ]
        },
        {
            "positions": [
                0.08493969467589879,
                -0.778991310930077,
                1.7596745452409013,
                1.6446013695625605,
                -0.0304988485262363,
                -0.08730449416295027
            ]
        },
        {
            "positions": [
                0.10336745132993508,
                -0.7765476354501091,
                1.8740482709799875,
                1.7750893735767126,
                -0.0775070859827865,
                -0.028255132003125127
            ]
        },
        {
            "positions": [
                0.12179520798397135,
                -0.7741039599701413,
                1.9884219967190735,
                1.9055773775908644,
                -0.1245153234393367,
                0.030794230156699968
            ]
        }
    ]
}