{
    "goal": {
        "global_pose": {
            "orientation": {
                "w": 0.5084816262002911,
                "x": -0.4908360881923452,
                "y": 0.5182115481033761,
                "z": -0.48164630358495003
            },
            "position": {
                "x": 0.5540239810943604,
                "y": -0.46912469901144505,
                "z": 0.16403168439865112
            }
        },
        "name": "move_to_storage_B"
    },
    "id": "SPARStwo_move_to_storage_B_23",
    "joint_names": [
        "shoulder_pan_joint",
        "shoulder_lift_joint",
        "elbow_joint",
        "wrist_1_joint",
        "wrist_2_joint",
        "wrist_3_joint"
    ],
    "metrics": {
        "cart_traj_len": 0.80488048295523,
        "distance_elbow_joint": 0.36545517494986735,
        "distance_shoulder_lift_joint": 0.45853326191480115,
        "distance_shoulder_pan_joint": 0.3807618001526978,
        "distance_wrist_1_joint": 2.999281295198064,
        "distance_wrist_2_joint": 3.00065935368008,
        "distance_wrist_3_joint": 3.30008264008306,
        "smoothness": 0.4639454724215878,
        "time": 5.052408175,
        "traj_len": 3.2411068365573152,
        "weighted_distance": 4.806753525512082
    },
    "planner": "SPARStwo",
    "start": {
        "state": {
            "elbow_joint": 1.664933442143537,
            "shoulder_lift_joint": -0.6616394447335833,
            "shoulder_pan_joint": -0.9139842036674819,
            "wrist_1_joint": 2.1467570250598067,
            "wrist_2_joint": -2.234195602830096,
            "wrist_3_joint": 0.005471150212293033
        }
    },
    "waypoints": [
        {
            "positions": [
                -0.9139842036674819,
                -0.6616394447335833,
                1.664933442143537,
                2.1467570250598067,
                -2.234195602830096,
                0.005471150212293033
            ]
        },
        {
            "positions": [
                -0.8642599780744503,
                -0.7776576430572827,
                1.6615527660286502,
                2.1247275331820203,
                -2.308844532926357,
                0.04666275511487049
            ]
        },
        {
            "positions": [
                -0.8145357524814187,
                -0.8936758413809821,
                1.6581720899137637,
                2.1026980413042344,
                -2.383493463022618,
                0.08785436001744795
            ]
        },
        {
            "positions": [
                -0.8257882864400842,
                -0.9027357159916782,
                1.6725198428225676,
                1.9844891488465348,
                -2.2694390032831158,
                -0.04085361719366826
            ]
        },
        {
            "positions": [
                -0.8370408203987495,
                -0.9117955906023743,
                1.6868675957313712,
                1.8662802563888352,
                -2.1553845435436134,
                -0.16956159440478447
            ]
        },
        {
            "positions": [
                -0.8482933543574149,
                -0.9208554652130704,
                1.701215348640175,
                1.7480713639311354,
                -2.041330083804111,
                -0.2982695716159007
            ]
        },
        {
            "positions": [
                -0.8595458883160803,
                -0.9299153398237665,
                1.7155631015489787,
                1.6298624714734358,
                -1.9272756240646087,
                -0.4269775488270169
            ]
        },
        {
            "positions": [
                -0.8707984222747457,
                -0.9389752144344625,
                1.7299108544577826,
                1.5116535790157362,
                -1.8132211643251064,
                -0.5556855260381331
            ]
        },
        {
            "positions": [
                -0.882050956233411,
                -0.9480350890451587,
                1.7442586073665864,
                1.3934446865580365,
                -1.699166704585604,
                -0.6843935032492493
            ]
        },
        {
            "positions": [
                -0.8933034901920764,
                -0.9570949636558548,
                1.75860636027539,
                1.2752357941003367,
                -1.5851122448461017,
                -0.8131014804603657
            ]
        },
        {
            "positions": [
                -0.9045560241507418,
                -0.9661548382665508,
                1.772954113184194,
                1.157026901642637,
                -1.4710577851065993,
                -0.9418094576714817
            ]
        },
        {
            "positions": [
                -0.9158085581094072,
                -0.9752147128772469,
                1.7873018660929976,
                1.0388180091849375,
                -1.3570033253670972,
                -1.0705174348825979
            ]
        },
        {
            "positions": [
                -0.9270610920680726,
                -0.984274587487943,
                1.8016496190018014,
                0.9206091167272379,
                -1.2429488656275949,
                -1.1992254120937142
            ]
        },
        {
            "positions": [
                -0.938313626026738,
                -0.9933344620986391,
                1.8159973719106053,
                0.8024002242695383,
                -1.1288944058880925,
                -1.3279333893048304
            ]
        },
        {
            "positions": [
                -0.9495661599854034,
                -1.0023943367093353,
                1.830345124819409,
                0.6841913318118387,
                -1.0148399461485902,
                -1.4566413665159466
            ]
        },
        {
            "positions": [
                -0.9608186939440687,
                -1.0114542113200313,
                1.8446928777282128,
                0.5659824393541388,
                -0.9007854864090878,
                -1.585349343727063
            ]
        },
        {
            "positions": [
                -0.9720712279027341,
                -1.0205140859307273,
                1.8590406306370166,
                0.447773546896439,
                -0.7867310266695853,
                -1.7140573209381793
            ]
        },
        {
            "positions": [
                -0.9833237618613995,
                -1.0295739605414236,
                1.8733883835458203,
                0.3295646544387396,
                -0.6726765669300832,
                -1.8427652981492952
            ]
        },
        {
            "positions": [
                -0.9945762958200649,
                -1.0386338351521196,
                1.8877361364546241,
                0.21135576198104,
                -0.5586221071905808,
                -1.9714732753604114
            ]
        },
        {
            "positions": [
                -1.0058288297787303,
                -1.0476937097628156,
                1.9020838893634278,
                0.09314686952333995,
                -0.44456764745107846,
                -2.1001812525715278
            ]
        },
        {
            "positions": [
                -1.0170813637373957,
                -1.0567535843735119,
                1.9164316422722316,
                -0.02506202293435944,
                -0.33051318771157634,
                -2.2288892297826437
            ]
        },
        {
            "positions": [
                -1.028333897696061,
                -1.0658134589842079,
                1.9307793951810353,
                -0.14327091539205883,
                -0.216458727972074,
                -2.35759720699376
            ]
        },
        {
            "positions": [
                -1.0395864316547265,
                -1.074873333594904,
                1.945127148089839,
                -0.26147980784975866,
                -0.10240426823257165,
                -2.4863051842048765
            ]
        },
        {
            "positions": [
                -1.0508389656133919,
                -1.0839332082056001,
                1.959474900998643,
                -0.37968870030745805,
                0.011650191506930696,
                -2.6150131614159924
            ]
        },
        {
            "positions": [
                -1.0620914995720572,
                -1.0929930828162961,
                1.9738226539074466,
                -0.4978975927651579,
                0.12570465124643304,
                -2.7437211386271088
            ]
        },
        {
            "positions": [
                -1.0733440335307227,
                -1.1020529574269922,
                1.9881704068162505,
                -0.6161064852228577,
                0.2397591109859354,
                -2.872429115838225
            ]
        },
        {
            "positions": [
                -1.084596567489388,
                -1.1111128320376884,
                2.0025181597250543,
                -0.7343153776805571,
                0.35381357072543773,
                -3.001137093049341
            ]
        },
        {
            "positions": [
                -1.0958491014480534,
                -1.1201727066483844,
                2.016865912633858,
                -0.8525242701382572,
                0.46786803046494,
                -3.1298450702604574
            ]
        }
    ]
}