{
    "goal": {
        "global_pose": {
            "orientation": {
                "w": 0.005598929693374612,
                "x": 0.007748599140229565,
                "y": 0.7110244013736278,
                "z": -0.7031023480610252
            },
            "position": {
                "x": 0.1141497679147869,
                "y": -0.7141253447532654,
                "z": 0.3711530566215515
            }
        },
        "name": "move_to_auspresseinheit_B"
    },
    "id": "SPARS_move_to_auspresseinheit_B_104",
    "joint_names": [
        "shoulder_pan_joint",
        "shoulder_lift_joint",
        "elbow_joint",
        "wrist_1_joint",
        "wrist_2_joint",
        "wrist_3_joint"
    ],
    "metrics": {
        "cart_traj_len": 0.565129885928987,
        "distance_elbow_joint": 0.06527025679191856,
        "distance_shoulder_lift_joint": 0.29275668102707497,
        "distance_shoulder_pan_joint": 0.5767273522410896,
        "distance_wrist_1_joint": 0.33536493319267635,
        "distance_wrist_2_joint": 0.9996089047643983,
        "distance_wrist_3_joint": 0.004964639619275513,
        "smoothness": 2.5376526478085547e-16,
        "time": 5.01754373,
        "traj_len": 1.5082084629242847,
        "weighted_distance": 1.90252355697165
    },
    "planner": "SPARS",
    "start": {
        "state": {
            "elbow_joint": 2.0193083361928714,
            "shoulder_lift_joint": -1.1220246554650708,
            "shoulder_pan_joint": -1.0952077554168747,
            "wrist_1_joint": -0.8559753972642168,
            "wrist_2_joint": 0.4759566250798843,
            "wrist_3_joint": -3.1240929996934557
        }
    },
    "waypoints": [
        {
            "positions": [
                -1.0952077554168747,
                -1.1220246554650708,
                2.0193083361928714,
                -0.8559753972642168,
                0.4759566250798843,
                -3.1240929996934557
            ]
        },
        {
            "positions": [
                -1.1913289807903895,
                -1.17081743563625,
                2.008429960060885,
                -0.800081241732104,
                0.6425581092072841,
                -3.1249204396300017
            ]
        },
        {
            "positions": [
                -1.2874502061639046,
                -1.2196102158074291,
                1.9975515839288986,
                -0.7441870861999913,
                0.8091595933346838,
                -3.1257478795665476
            ]
        },
        {
            "positions": [
                -1.3835714315374195,
                -1.2684029959786083,
                1.9866732077969123,
                -0.6882929306678787,
                0.9757610774620835,
                -3.126575319503093
            ]
        },
        {
            "positions": [
                -1.4796926569109343,
                -1.3171957761497874,
                1.9757948316649256,
                -0.6323987751357659,
                1.1423625615894832,
                -3.127402759439639
            ]
        },
        {
            "positions": [
                -1.5758138822844494,
                -1.3659885563209666,
                1.9649164555329393,
                -0.5765046196036532,
                1.308964045716883,
                -3.128230199376185
            ]
        },
        {
            "positions": [
                -1.6719351076579643,
                -1.4147813364921458,
                1.9540380794009529,
                -0.5206104640715404,
                1.4755655298442827,
                -3.129057639312731
            ]
        }
    ]
}