{
    "goal": {
        "global_pose": {
            "orientation": {
                "w": 0.005598929693374612,
                "x": 0.007748599140229565,
                "y": 0.7110244013736278,
                "z": -0.7031023480610252
            },
            "position": {
                "x": 0.1141497679147869,
                "y": -0.7141253447532654,
                "z": 0.3711530566215515
            }
        },
        "name": "move_to_auspresseinheit_B"
    },
    "id": "SPARS_move_to_auspresseinheit_B_38",
    "joint_names": [
        "shoulder_pan_joint",
        "shoulder_lift_joint",
        "elbow_joint",
        "wrist_1_joint",
        "wrist_2_joint",
        "wrist_3_joint"
    ],
    "metrics": {
        "cart_traj_len": 0.5653949536844418,
        "distance_elbow_joint": 0.060494162121204065,
        "distance_shoulder_lift_joint": 0.29576503880589655,
        "distance_shoulder_pan_joint": 0.5793877214447374,
        "distance_wrist_1_joint": 0.31739772550581213,
        "distance_wrist_2_joint": 0.9844139097551836,
        "distance_wrist_3_joint": 0.002282748790045641,
        "smoothness": 2.5376526478085547e-16,
        "time": 5.049271953,
        "traj_len": 1.49657652875584,
        "weighted_distance": 1.8831140271539497
    },
    "planner": "SPARS",
    "start": {
        "state": {
            "elbow_joint": 2.0193083361928714,
            "shoulder_lift_joint": -1.1220246554650708,
            "shoulder_pan_joint": -1.0952077554168747,
            "wrist_1_joint": -0.8559753972642168,
            "wrist_2_joint": 0.4759566250798843,
            "wrist_3_joint": -3.1240929996934557
        }
    },
    "waypoints": [
        {
            "positions": [
                -1.0952077554168747,
                -1.1220246554650708,
                2.0193083361928714,
                -0.8559753972642168,
                0.4759566250798843,
                -3.1240929996934557
            ]
        },
        {
            "positions": [
                -1.1917723756576641,
                -1.171318828599387,
                2.0092259758393376,
                -0.8030757763465814,
                0.6400256100390815,
                -3.1237125415617815
            ]
        },
        {
            "positions": [
                -1.2883369958984539,
                -1.220613001733703,
                1.9991436154858033,
                -0.7501761554289461,
                0.8040945949982787,
                -3.1233320834301073
            ]
        },
        {
            "positions": [
                -1.3849016161392433,
                -1.269907174868019,
                1.9890612551322695,
                -0.6972765345113108,
                0.9681635799574762,
                -3.122951625298433
            ]
        },
        {
            "positions": [
                -1.4814662363800328,
                -1.3192013480023352,
                1.9789788947787355,
                -0.6443769135936754,
                1.1322325649166733,
                -3.1225711671667584
            ]
        },
        {
            "positions": [
                -1.5780308566208225,
                -1.3684955211366512,
                1.9688965344252014,
                -0.59147729267604,
                1.2963015498758708,
                -3.1221907090350842
            ]
        },
        {
            "positions": [
                -1.674595476861612,
                -1.4177896942709673,
                1.9588141740716674,
                -0.5385776717584047,
                1.460370534835068,
                -3.12181025090341
            ]
        }
    ]
}