{
    "goal": {
        "global_pose": {
            "orientation": {
                "w": 0.7047431468963623,
                "x": -0.7094548344612122,
                "y": 0.0024358443915843964,
                "z": -0.0022348060738295317
            },
            "position": {
                "x": 0.6094750761985779,
                "y": 0.3671506643295288,
                "z": 0.19426114857196808
            }
        },
        "name": "move_to_magneteinheit_A"
    },
    "id": "SPARS_move_to_magneteinheit_A_143",
    "joint_names": [
        "shoulder_pan_joint",
        "shoulder_lift_joint",
        "elbow_joint",
        "wrist_1_joint",
        "wrist_2_joint",
        "wrist_3_joint"
    ],
    "metrics": {
        "cart_traj_len": 3.3852675669172294,
        "distance_elbow_joint": 3.908579849719635,
        "distance_shoulder_lift_joint": 0.46763677960511985,
        "distance_shoulder_pan_joint": 3.9760111125764,
        "distance_wrist_1_joint": 3.4596745868840046,
        "distance_wrist_2_joint": 1.4467243516721908,
        "distance_wrist_3_joint": 0.7090855314668496,
        "smoothness": 0.19620037785718997,
        "time": 5.044864586,
        "traj_len": 3.7373402590511082,
        "weighted_distance": 4.504695573888884
    },
    "planner": "SPARS",
    "start": {
        "state": {
            "elbow_joint": -1.9196185241190666,
            "shoulder_lift_joint": -1.2443396400964142,
            "shoulder_pan_joint": 2.6996025414629847,
            "wrist_1_joint": -1.5485510000780065,
            "wrist_2_joint": -1.5709468930060704,
            "wrist_3_joint": 0.4420197071253992
        }
    },
    "waypoints": [
        {
            "positions": [
                2.6996025414629847,
                -1.2443396400964142,
                -1.9196185241190666,
                -1.5485510000780065,
                -1.5709468930060704,
                0.4420197071253992
            ]
        },
        {
            "positions": [
                2.573573910847454,
                -1.2429925013653442,
                -1.8095760073614982,
                -1.4387447059619267,
                -1.547587968542626,
                0.4201272872100089
            ]
        },
        {
            "positions": [
                2.4475452802319233,
                -1.241645362634274,
                -1.6995334906039297,
                -1.3289384118458467,
                -1.5242290440791815,
                0.39823486729461866
            ]
        },
        {
            "positions": [
                2.3215166496163926,
                -1.240298223903204,
                -1.5894909738463612,
                -1.219132117729767,
                -1.500870119615737,
                0.3763424473792284
            ]
        },
        {
            "positions": [
                2.195488019000862,
                -1.238951085172134,
                -1.4794484570887927,
                -1.1093258236136871,
                -1.4775111951522926,
                0.35445002746383814
            ]
        },
        {
            "positions": [
                2.069459388385331,
                -1.237603946441064,
                -1.3694059403312242,
                -0.9995195294976073,
                -1.4541522706888483,
                0.33255760754844793
            ]
        },
        {
            "positions": [
                1.9434307577698005,
                -1.2362568077099938,
                -1.2593634235736557,
                -0.8897132353815274,
                -1.4307933462254039,
                0.31066518763305767
            ]
        },
        {
            "positions": [
                1.8174021271542697,
                -1.2349096689789238,
                -1.1493209068160875,
                -0.7799069412654476,
                -1.4074344217619594,
                0.2887727677176674
            ]
        },
        {
            "positions": [
                1.691373496538739,
                -1.233562530247854,
                -1.0392783900585187,
                -0.6701006471493677,
                -1.384075497298515,
                0.26688034780227715
            ]
        },
        {
            "positions": [
                1.5653448659232085,
                -1.2322153915167837,
                -0.9292358733009505,
                -0.5602943530332879,
                -1.3607165728350705,
                0.24498792788688692
            ]
        },
        {
            "positions": [
                1.4393162353076776,
                -1.2308682527857138,
                -0.8191933565433818,
                -0.450488058917208,
                -1.337357648371626,
                0.22309550797149666
            ]
        },
        {
            "positions": [
                1.3132876046921471,
                -1.2295211140546436,
                -0.7091508397858135,
                -0.3406817648011282,
                -1.3139987239081816,
                0.2012030880561064
            ]
        },
        {
            "positions": [
                1.1872589740766164,
                -1.2281739753235736,
                -0.599108323028245,
                -0.2308754706850482,
                -1.2906397994447372,
                0.17931066814071617
            ]
        },
        {
            "positions": [
                1.0612303434610857,
                -1.2268268365925037,
                -0.48906580627067653,
                -0.12106917656896843,
                -1.2672808749812927,
                0.1574182482253259
            ]
        },
        {
            "positions": [
                0.935201712845555,
                -1.2254796978614335,
                -0.37902328951310804,
                -0.011262882452888645,
                -1.2439219505178485,
                0.13552582830993565
            ]
        },
        {
            "positions": [
                0.8091730822300245,
                -1.2241325591303636,
                -0.2689807727555398,
                0.09854341166319114,
                -1.220563026054404,
                0.11363340839454544
            ]
        },
        {
            "positions": [
                0.6831444516144933,
                -1.2227854203992934,
                -0.15893825599797107,
                0.20834970577927114,
                -1.1972041015909596,
                0.09174098847915513
            ]
        },
        {
            "positions": [
                0.5571158209989631,
                -1.2214382816682234,
                -0.04889573924040258,
                0.3181559998953509,
                -1.1738451771275151,
                0.06984856856376492
            ]
        },
        {
            "positions": [
                0.43108719038343235,
                -1.2200911429371533,
                0.061146777517165685,
                0.4279622940114307,
                -1.1504862526640707,
                0.047956148648374664
            ]
        },
        {
            "positions": [
                0.30505855976790164,
                -1.2187440042060833,
                0.17118929427473395,
                0.5377685881275107,
                -1.1271273282006262,
                0.026063728732984404
            ]
        },
        {
            "positions": [
                0.17902992915237048,
                -1.2173968654750134,
                0.2812318110323031,
                0.6475748822435905,
                -1.1037684037371818,
                0.004171308817594144
            ]
        },
        {
            "positions": [
                0.05300129853684021,
                -1.2160497267439432,
                0.39127432778987137,
                0.7573811763596703,
                -1.0804094792737375,
                -0.017721111097796116
            ]
        },
        {
            "positions": [
                -0.0730273320786905,
                -1.2147025880128732,
                0.5013168445474396,
                0.8671874704757501,
                -1.057050554810293,
                -0.039613531013186376
            ]
        },
        {
            "positions": [
                -0.1990559626942212,
                -1.213355449281803,
                0.6113593613050079,
                0.9769937645918298,
                -1.0336916303468486,
                -0.06150595092857658
            ]
        },
        {
            "positions": [
                -0.3250845933097519,
                -1.212008310550733,
                0.7214018780625766,
                1.08680005870791,
                -1.0103327058834042,
                -0.08339837084396684
            ]
        },
        {
            "positions": [
                -0.45111322392528264,
                -1.210661171819663,
                0.8314443948201453,
                1.1966063528239899,
                -0.9869737814199597,
                -0.1052907907593571
            ]
        },
        {
            "positions": [
                -0.5771418545408133,
                -1.209314033088593,
                0.9414869115777138,
                1.3064126469400696,
                -0.9636148569565153,
                -0.12718321067474736
            ]
        },
        {
            "positions": [
                -0.507215182883553,
                -1.166052915828863,
                1.0462343529799993,
                1.3668837409266625,
                -0.8796756253942517,
                -0.11319494930807707
            ]
        },
        {
            "positions": [
                -0.43728851122629286,
                -1.1227917985691334,
                1.1509817943822849,
                1.4273548349132554,
                -0.7957363938319881,
                -0.09920668794140679
            ]
        },
        {
            "positions": [
                -0.36736183956903257,
                -1.0795306813094034,
                1.2557292357845704,
                1.4878259288998483,
                -0.7117971622697246,
                -0.0852184265747365
            ]
        },
        {
            "positions": [
                -0.2974351679117723,
                -1.0362695640496735,
                1.360476677186856,
                1.5482970228864412,
                -0.627857930707461,
                -0.07123016520806622
            ]
        },
        {
            "positions": [
                -0.22750849625451208,
                -0.9930084467899436,
                1.4652241185891413,
                1.608768116873034,
                -0.5439186991451974,
                -0.05724190384139592
            ]
        },
        {
            "positions": [
                -0.15758182459725184,
                -0.9497473295302138,
                1.5699715599914268,
                1.6692392108596268,
                -0.45997946758293384,
                -0.04325364247472564
            ]
        },
        {
            "positions": [
                -0.0876551529399916,
                -0.906486212270484,
                1.6747190013937123,
                1.7297103048462197,
                -0.37604023602067027,
                -0.02926538110805535
            ]
        },
        {
            "positions": [
                -0.0177284812827313,
                -0.8632250950107541,
                1.7794664427959979,
                1.7901813988328126,
                -0.2921010044584067,
                -0.015277119741385056
            ]
        },
        {
            "positions": [
                0.052198190374529,
                -0.8199639777510241,
                1.8842138841982834,
                1.8506524928194055,
                -0.20816177289614313,
                -0.001288858374714763
            ]
        },
        {
            "positions": [
                0.12212486203178916,
                -0.7767028604912943,
                1.988961325600569,
                1.9111235868059984,
                -0.1242225413338795,
                0.012699402991955523
            ]
        }
    ]
}