{
    "goal": {
        "global_pose": {
            "orientation": {
                "w": -0.00223480608172531,
                "x": 0.0024358444001904467,
                "y": 0.7094548369677653,
                "z": -0.704743149386269
            },
            "position": {
                "x": -0.37947507619857795,
                "y": -0.6371506643295288,
                "z": 0.19426114857196808
            }
        },
        "name": "move_to_magneteinheit_C"
    },
    "id": "SPARS_move_to_magneteinheit_C_67",
    "joint_names": [
        "shoulder_pan_joint",
        "shoulder_lift_joint",
        "elbow_joint",
        "wrist_1_joint",
        "wrist_2_joint",
        "wrist_3_joint"
    ],
    "metrics": {
        "cart_traj_len": 0.8148401526439847,
        "distance_elbow_joint": 0.4042171687249727,
        "distance_shoulder_lift_joint": 0.34218816888422654,
        "distance_shoulder_pan_joint": 1.0417162943038776,
        "distance_wrist_1_joint": 0.4149840697274889,
        "distance_wrist_2_joint": 2.6779898510070685,
        "distance_wrist_3_joint": 6.372095295361348,
        "smoothness": 0.7781317396217,
        "time": 5.036978699,
        "traj_len": 3.3545775960631747,
        "weighted_distance": 5.204839609389155
    },
    "planner": "SPARS",
    "start": {
        "state": {
            "elbow_joint": 1.9565354010623817,
            "shoulder_lift_joint": -1.4165861575791021,
            "shoulder_pan_joint": -1.6717766225146293,
            "wrist_1_joint": -0.5286633292919765,
            "wrist_2_joint": 1.472756589071564,
            "wrist_3_joint": -3.1238370188695823
        }
    },
    "waypoints": [
        {
            "positions": [
                -1.6717766225146293,
                -1.4165861575791021,
                1.9565354010623817,
                -0.5286633292919765,
                1.472756589071564,
                -3.1238370188695823
            ]
        },
        {
            "positions": [
                -1.6610279199921159,
                -1.4277285188623845,
                1.9738862688045202,
                -0.5424150713166798,
                1.3834458137073309,
                -2.8877220690795515
            ]
        },
        {
            "positions": [
                -1.6502792174696024,
                -1.438870880145667,
                1.9912371365466586,
                -0.5561668133413831,
                1.2941350383430978,
                -2.6516071192895208
            ]
        },
        {
            "positions": [
                -1.639530514947089,
                -1.4500132414289495,
                2.008588004288797,
                -0.5699185553660863,
                1.204824262978865,
                -2.4154921694994904
            ]
        },
        {
            "positions": [
                -1.6287818124245754,
                -1.4611556027122319,
                2.0259388720309355,
                -0.5836702973907896,
                1.115513487614632,
                -2.1793772197094596
            ]
        },
        {
            "positions": [
                -1.6838136297378832,
                -1.4545653990609217,
                2.01601847345993,
                -0.5797846090726457,
                1.0000930928054101,
                -1.992935514680705
            ]
        },
        {
            "positions": [
                -1.7388454470511907,
                -1.4479751954096114,
                2.0060980748889237,
                -0.5758989207545019,
                0.8846726979961883,
                -1.8064938096519507
            ]
        },
        {
            "positions": [
                -1.7938772643644985,
                -1.441384991758301,
                1.996177676317918,
                -0.572013232436358,
                0.7692523031869664,
                -1.6200521046231962
            ]
        },
        {
            "positions": [
                -1.848909081677806,
                -1.434794788106991,
                1.986257277746912,
                -0.5681275441182142,
                0.6538319083777445,
                -1.4336103995944418
            ]
        },
        {
            "positions": [
                -1.9039408989911137,
                -1.4282045844556808,
                1.9763368791759062,
                -0.5642418558000704,
                0.5384115135685226,
                -1.247168694565687
            ]
        },
        {
            "positions": [
                -1.9589727163044213,
                -1.4216143808043704,
                1.9664164806049005,
                -0.5603561674819264,
                0.42299111875930073,
                -1.0607269895369327
            ]
        },
        {
            "positions": [
                -2.014004533617729,
                -1.41502417715306,
                1.9564960820338946,
                -0.5564704791637826,
                0.3075707239500788,
                -0.8742852845081781
            ]
        },
        {
            "positions": [
                -2.0690363509310368,
                -1.40843397350175,
                1.9465756834628887,
                -0.5525847908456387,
                0.19215032914085706,
                -0.6878435794794238
            ]
        },
        {
            "positions": [
                -2.1240681682443445,
                -1.4018437698504398,
                1.9366552848918828,
                -0.5486991025274949,
                0.07672993433163522,
                -0.5014018744506692
            ]
        },
        {
            "positions": [
                -2.1790999855576523,
                -1.3952535661991294,
                1.9267348863208769,
                -0.544813414209351,
                -0.03869046047758684,
                -0.3149601694219146
            ]
        },
        {
            "positions": [
                -2.2341318028709596,
                -1.388663362547819,
                1.9168144877498712,
                -0.5409277258912072,
                -0.15411085528680868,
                -0.1285184643931605
            ]
        },
        {
            "positions": [
                -2.2891636201842673,
                -1.382073158896509,
                1.9068940891788653,
                -0.5370420375730633,
                -0.2695312500960305,
                0.05792324063559418
            ]
        },
        {
            "positions": [
                -2.3524348178543537,
                -1.3556976418972841,
                1.8889075793642232,
                -0.5376895582239472,
                -0.23516796514439522,
                -0.1650331976821339
            ]
        },
        {
            "positions": [
                -2.41570601552444,
                -1.3293221248980591,
                1.8709210695495813,
                -0.538337078874831,
                -0.20080468019275993,
                -0.38798963599986197
            ]
        },
        {
            "positions": [
                -2.4789772131945265,
                -1.3029466078988343,
                1.8529345597349391,
                -0.5389845995257148,
                -0.1664413952411246,
                -0.6109460743175901
            ]
        },
        {
            "positions": [
                -2.5028719135017385,
                -1.2867854019124845,
                1.8526713099150154,
                -0.5523150215985371,
                -0.11601154234256836,
                -0.8079187029865353
            ]
        },
        {
            "positions": [
                -2.526766613808951,
                -1.2706241959261346,
                1.8524080600950918,
                -0.5656454436713595,
                -0.06558168944401209,
                -1.0048913316554806
            ]
        },
        {
            "positions": [
                -2.550661314116163,
                -1.2544629899397848,
                1.852144810275168,
                -0.5789758657441818,
                -0.015151836545455807,
                -1.201863960324426
            ]
        },
        {
            "positions": [
                -2.542123316058137,
                -1.2443600887199349,
                1.870035880941907,
                -0.6091330894819408,
                0.060550674375533034,
                -1.4163692753128876
            ]
        },
        {
            "positions": [
                -2.5335853180001107,
                -1.234257187500085,
                1.887926951608646,
                -0.6392903132196999,
                0.13625318529652186,
                -1.630874590301349
            ]
        },
        {
            "positions": [
                -2.5250473199420846,
                -1.2241542862802348,
                1.9058180222753853,
                -0.6694475369574588,
                0.2119556962175107,
                -1.8453799052898103
            ]
        },
        {
            "positions": [
                -2.516509321884058,
                -1.214051385060385,
                1.9237090929421243,
                -0.6996047606952178,
                0.28765820713849954,
                -2.0598852202782716
            ]
        },
        {
            "positions": [
                -2.507971323826032,
                -1.203948483840535,
                1.9416001636088633,
                -0.7297619844329769,
                0.36336071805948844,
                -2.2743905352667335
            ]
        },
        {
            "positions": [
                -2.4994333257680057,
                -1.193845582620685,
                1.9594912342756023,
                -0.7599192081707359,
                0.4390632289804772,
                -2.4888958502551946
            ]
        },
        {
            "positions": [
                -2.4908953277099797,
                -1.183742681400835,
                1.9773823049423416,
                -0.7900764319084949,
                0.5147657399014661,
                -2.7034011652436565
            ]
        },
        {
            "positions": [
                -2.482357329651953,
                -1.173639780180985,
                1.9952733756090806,
                -0.820233655646254,
                0.5904682508224549,
                -2.9179064802321175
            ]
        },
        {
            "positions": [
                -2.473819331593927,
                -1.1635368789611351,
                2.0131644462758196,
                -0.8503908793840129,
                0.6661707617434438,
                -3.132411795220579
            ]
        }
    ]
}