{
    "goal": {
        "global_pose": {
            "orientation": {
                "w": 0.7047431493862688,
                "x": -0.7094548369677653,
                "y": 0.0024358444001904,
                "z": -0.0022348060817251984
            },
            "position": {
                "x": -0.39052492380142206,
                "y": 0.3671506643295288,
                "z": 0.19426114857196808
            }
        },
        "name": "move_to_magneteinheit_D"
    },
    "id": "SPARS_move_to_magneteinheit_D_52",
    "joint_names": [
        "shoulder_pan_joint",
        "shoulder_lift_joint",
        "elbow_joint",
        "wrist_1_joint",
        "wrist_2_joint",
        "wrist_3_joint"
    ],
    "metrics": {
        "cart_traj_len": 4.363145574520017,
        "distance_elbow_joint": 3.3011074221543697,
        "distance_shoulder_lift_joint": 1.6332338472610857,
        "distance_shoulder_pan_joint": 2.9938058655111197,
        "distance_wrist_1_joint": 1.8831579927533448,
        "distance_wrist_2_joint": 0.33250447617384427,
        "distance_wrist_3_joint": 3.145371694165887,
        "smoothness": 0.47153581065227534,
        "time": 5.0428640090000005,
        "traj_len": 3.64543293698014,
        "weighted_distance": 4.668574424305413
    },
    "planner": "SPARS",
    "start": {
        "state": {
            "elbow_joint": 0.749534889911806,
            "shoulder_lift_joint": -0.6476975780787326,
            "shoulder_pan_joint": -2.711696901376241,
            "wrist_1_joint": -0.07506478083263063,
            "wrist_2_joint": 0.43296659715538205,
            "wrist_3_joint": -3.14703540197715
        }
    },
    "waypoints": [
        {
            "positions": [
                -2.711696901376241,
                -0.6476975780787326,
                0.749534889911806,
                -0.07506478083263063,
                0.43296659715538205,
                -3.14703540197715
            ]
        },
        {
            "positions": [
                -2.71315196933128,
                -0.6772170809786163,
                0.683516535906066,
                -0.10413376312117449,
                0.4381027412980974,
                -3.098638807043333
            ]
        },
        {
            "positions": [
                -2.713595608675094,
                -0.7264369998720217,
                0.5685816719126788,
                -0.15225173493490418,
                0.44950419989407464,
                -3.01235867345698
            ]
        },
        {
            "positions": [
                -2.7140392480189077,
                -0.775656918765427,
                0.4536468079192918,
                -0.20036970674863389,
                0.46090565849005194,
                -2.926078539870627
            ]
        },
        {
            "positions": [
                -2.5776894739581158,
                -0.8072016230286592,
                0.3753451053709369,
                -0.1647118558546031,
                0.4557779305658831,
                -2.8323413375818505
            ]
        },
        {
            "positions": [
                -2.4413396998973242,
                -0.8387463272918914,
                0.297043402822582,
                -0.1290540049605723,
                0.45065020264171435,
                -2.7386041352930737
            ]
        },
        {
            "positions": [
                -2.3049899258365323,
                -0.8702910315551237,
                0.21874170027422707,
                -0.09339615406654152,
                0.4455224747175455,
                -2.6448669330042973
            ]
        },
        {
            "positions": [
                -2.1686401517757403,
                -0.9018357358183559,
                0.14043999772587218,
                -0.05773830317251072,
                0.4403947467933767,
                -2.5511297307155205
            ]
        },
        {
            "positions": [
                -2.0322903777149484,
                -0.933380440081588,
                0.06213829517751718,
                -0.022080452278479934,
                0.43526701886920793,
                -2.457392528426744
            ]
        },
        {
            "positions": [
                -1.8959406036541566,
                -0.9649251443448202,
                -0.016163407370837657,
                0.01357739861555085,
                0.4301392909450391,
                -2.363655326137968
            ]
        },
        {
            "positions": [
                -1.7595908295933647,
                -0.9964698486080525,
                -0.09446510991919266,
                0.04923524950958166,
                0.4250115630208703,
                -2.269918123849191
            ]
        },
        {
            "positions": [
                -1.623241055532573,
                -1.0280145528712847,
                -0.17276681246754744,
                0.08489310040361245,
                0.4198838350967015,
                -2.1761809215604146
            ]
        },
        {
            "positions": [
                -1.486891281471781,
                -1.059559257134517,
                -0.25106851501590244,
                0.12055095129764323,
                0.4147561071725327,
                -2.0824437192716383
            ]
        },
        {
            "positions": [
                -1.350541507410989,
                -1.0911039613977491,
                -0.32937021756425744,
                0.15620880219167402,
                0.40962837924836387,
                -1.9887065169828615
            ]
        },
        {
            "positions": [
                -1.214191733350197,
                -1.1226486656609813,
                -0.40767192011261233,
                0.19186665308570486,
                0.4045006513241951,
                -1.894969314694085
            ]
        },
        {
            "positions": [
                -1.0778419592894055,
                -1.1541933699242135,
                -0.4859736226609671,
                0.2275245039797356,
                0.3993729234000263,
                -1.8012321124053086
            ]
        },
        {
            "positions": [
                -0.9414921852286136,
                -1.1857380741874457,
                -0.5642753252093221,
                0.2631823548737664,
                0.39424519547585746,
                -1.707494910116532
            ]
        },
        {
            "positions": [
                -0.8051424111678216,
                -1.2172827784506781,
                -0.6425770277576771,
                0.29884020576779724,
                0.3891174675516887,
                -1.6137577078277554
            ]
        },
        {
            "positions": [
                -0.6687926371070296,
                -1.2488274827139103,
                -0.7208787303060319,
                0.3344980566618281,
                0.38398973962751987,
                -1.5200205055389788
            ]
        },
        {
            "positions": [
                -0.5324428630462381,
                -1.2803721869771425,
                -0.7991804328543867,
                0.3701559075558588,
                0.3788620117033511,
                -1.4262833032502025
            ]
        },
        {
            "positions": [
                -0.39609308898544615,
                -1.3119168912403747,
                -0.8774821354027417,
                0.40581375844988954,
                0.3737342837791823,
                -1.332546100961426
            ]
        },
        {
            "positions": [
                -0.2597433149246543,
                -1.3434615955036069,
                -0.9557838379510967,
                0.4414716093439204,
                0.36860655585501345,
                -1.2388088986726493
            ]
        },
        {
            "positions": [
                -0.234260248136974,
                -1.4002682800040338,
                -1.0806389047096403,
                0.5266377887672802,
                0.36666833119720205,
                -1.1633849318612544
            ]
        },
        {
            "positions": [
                -0.2087771813492937,
                -1.457074964504461,
                -1.2054939714681838,
                0.6118039681906399,
                0.3647301065393907,
                -1.0879609650498592
            ]
        },
        {
            "positions": [
                -0.18329411456161343,
                -1.5138816490048879,
                -1.3303490382267273,
                0.6969701476139997,
                0.3627918818815793,
                -1.0125369982384642
            ]
        },
        {
            "positions": [
                -0.15781104777393312,
                -1.5706883335053148,
                -1.4552041049852709,
                0.7821363270373594,
                0.36085365722376794,
                -0.9371130314270691
            ]
        },
        {
            "positions": [
                -0.1323279809862528,
                -1.627495018005742,
                -1.5800591717438146,
                0.8673025064607192,
                0.35891543256595654,
                -0.8616890646156741
            ]
        },
        {
            "positions": [
                -0.10684491419857253,
                -1.6843017025061688,
                -1.704914238502358,
                0.952468685884079,
                0.35697720790814513,
                -0.7862650978042791
            ]
        },
        {
            "positions": [
                -0.08136184741089222,
                -1.7411083870065958,
                -1.8297693052609016,
                1.0376348653074388,
                0.3550389832503338,
                -0.7108411309928839
            ]
        },
        {
            "positions": [
                -0.05587878062321194,
                -1.7979150715070227,
                -1.954624372019445,
                1.1228010447307986,
                0.3531007585925224,
                -0.635417164181489
            ]
        },
        {
            "positions": [
                -0.030395713835531635,
                -1.8547217560074498,
                -2.0794794387779887,
                1.2079672241541584,
                0.35116253393471103,
                -0.5599931973700939
            ]
        },
        {
            "positions": [
                -0.004912647047851326,
                -1.911528440507877,
                -2.2043345055365324,
                1.2931334035775182,
                0.3492243092768996,
                -0.4845692305586988
            ]
        },
        {
            "positions": [
                0.020570419739828927,
                -1.9683351250083039,
                -2.3291895722950757,
                1.3782995830008777,
                0.3472860846190883,
                -0.40914526374730387
            ]
        },
        {
            "positions": [
                0.046053486527509235,
                -2.025141809508731,
                -2.4540446390536195,
                1.4634657624242375,
                0.34534785996127687,
                -0.3337212969359088
            ]
        },
        {
            "positions": [
                -0.0205740573483625,
                -2.1051761293887967,
                -2.4250524013712096,
                1.4897042062791317,
                0.2874333912946484,
                -0.22767931543274322
            ]
        },
        {
            "positions": [
                -0.08720160122423423,
                -2.1852104492688627,
                -2.3960601636888,
                1.5159426501340258,
                0.2295189226280199,
                -0.12163733392957762
            ]
        },
        {
            "positions": [
                -0.15382914510010598,
                -2.2652447691489286,
                -2.3670679260063903,
                1.54218109398892,
                0.1716044539613914,
                -0.015595352426412037
            ]
        },
        {
            "positions": [
                -0.18531729779452732,
                -2.2809314253398183,
                -2.3776191061481056,
                1.5268788278891325,
                0.1868686642719052,
                -0.001663707811264818
            ]
        }
    ]
}