{
    "goal": {
        "global_pose": {
            "orientation": {
                "w": -0.4816463035849501,
                "x": 0.5182115481033762,
                "y": 0.4908360881923453,
                "z": -0.5084816262002911
            },
            "position": {
                "x": -0.8240239810943604,
                "y": -0.300875300988555,
                "z": 0.16403168439865112
            }
        },
        "name": "move_to_storage_C"
    },
    "id": "SPARS_move_to_storage_C_1",
    "joint_names": [
        "shoulder_pan_joint",
        "shoulder_lift_joint",
        "elbow_joint",
        "wrist_1_joint",
        "wrist_2_joint",
        "wrist_3_joint"
    ],
    "metrics": {
        "cart_traj_len": 0.5768307983348593,
        "distance_elbow_joint": 0.2630699644702057,
        "distance_shoulder_lift_joint": 0.19015526559292806,
        "distance_shoulder_pan_joint": 0.49304296964564864,
        "distance_wrist_1_joint": 0.09033127404642094,
        "distance_wrist_2_joint": 1.0756298708152854,
        "distance_wrist_3_joint": 0.07139809128906505,
        "smoothness": 0.0,
        "time": 5.018941405,
        "traj_len": 1.4777102002285676,
        "weighted_distance": 1.8687923274937186
    },
    "planner": "SPARS",
    "start": {
        "state": {
            "elbow_joint": 2.010868314990456,
            "shoulder_lift_joint": -1.1634956873337592,
            "shoulder_pan_joint": -2.4736205022346125,
            "wrist_1_joint": -0.8367026794202681,
            "wrist_2_joint": 0.6746043897044499,
            "wrist_3_joint": -3.1496632123970403
        }
    },
    "waypoints": [
        {
            "positions": [
                -2.4736205022346125,
                -1.1634956873337592,
                2.010868314990456,
                -0.8367026794202681,
                0.6746043897044499,
                -3.1496632123970403
            ]
        },
        {
            "positions": [
                -2.5557943305088875,
                -1.1318031430682711,
                1.9670233209120882,
                -0.821647467079198,
                0.8538760348403308,
                -3.1377635305155294
            ]
        },
        {
            "positions": [
                -2.637968158783162,
                -1.1001105988027833,
                1.9231783268337206,
                -0.8065922547381278,
                1.0331476799762118,
                -3.1258638486340184
            ]
        },
        {
            "positions": [
                -2.7201419870574366,
                -1.0684180545372952,
                1.879333332755353,
                -0.7915370423970576,
                1.2124193251120925,
                -3.113964166752508
            ]
        },
        {
            "positions": [
                -2.8023158153317116,
                -1.0367255102718071,
                1.8354883386769854,
                -0.7764818300559875,
                1.3916909702479736,
                -3.102064484870997
            ]
        },
        {
            "positions": [
                -2.8844896436059866,
                -1.005032966006319,
                1.7916433445986177,
                -0.7614266177149174,
                1.5709626153838543,
                -3.090164802989486
            ]
        },
        {
            "positions": [
                -2.966663471880261,
                -0.9733404217408311,
                1.7477983505202501,
                -0.7463714053738472,
                1.7502342605197352,
                -3.0782651211079752
            ]
        }
    ]
}