{
    "goal": {
        "global_pose": {
            "orientation": {
                "w": -0.4816463035849501,
                "x": 0.5182115481033762,
                "y": 0.4908360881923453,
                "z": -0.5084816262002911
            },
            "position": {
                "x": -0.8240239810943604,
                "y": 0.19912469901144506,
                "z": 0.16403168439865112
            }
        },
        "name": "move_to_storage_D"
    },
    "id": "SPARS_move_to_storage_D_100",
    "joint_names": [
        "shoulder_pan_joint",
        "shoulder_lift_joint",
        "elbow_joint",
        "wrist_1_joint",
        "wrist_2_joint",
        "wrist_3_joint"
    ],
    "metrics": {
        "cart_traj_len": 3.5203080086077034,
        "distance_elbow_joint": 4.208184792207495,
        "distance_shoulder_lift_joint": 1.2643920686367849,
        "distance_shoulder_pan_joint": 2.8150693040976087,
        "distance_wrist_1_joint": 2.260265122230062,
        "distance_wrist_2_joint": 0.9642432291263585,
        "distance_wrist_3_joint": 3.1433283863040877,
        "smoothness": 0.0034731407261868693,
        "time": 5.053526401999999,
        "traj_len": 3.828248019995882,
        "weighted_distance": 4.915958505374816
    },
    "planner": "SPARS",
    "start": {
        "state": {
            "elbow_joint": -2.384821988534728,
            "shoulder_lift_joint": -2.2788054721415256,
            "shoulder_pan_joint": -0.1854694642142757,
            "wrist_1_joint": 1.4845938289331202,
            "wrist_2_joint": 0.17898776772866878,
            "wrist_3_joint": 0.037105688729662994
        }
    },
    "waypoints": [
        {
            "positions": [
                -0.1854694642142757,
                -2.2788054721415256,
                -2.384821988534728,
                1.4845938289331202,
                0.17898776772866878,
                0.037105688729662994
            ]
        },
        {
            "positions": [
                -0.08282126262759798,
                -2.2460518355792938,
                -2.2190780215320465,
                1.4053996974694534,
                0.17737882233197227,
                0.023176314572752432
            ]
        },
        {
            "positions": [
                0.01982693895907975,
                -2.2132981990170624,
                -2.053334054529365,
                1.3262055660057863,
                0.17576987693527577,
                0.00924694041584187
            ]
        },
        {
            "positions": [
                0.12247514054575745,
                -2.1805445624548305,
                -1.8875900875266838,
                1.2470114345421195,
                0.17416093153857926,
                -0.004682433741068685
            ]
        },
        {
            "positions": [
                0.2251233421324352,
                -2.1477909258925987,
                -1.7218461205240023,
                1.1678173030784524,
                0.17255198614188275,
                -0.018611807897979255
            ]
        },
        {
            "positions": [
                0.327771543719113,
                -2.1150372893303673,
                -1.556102153521321,
                1.0886231716147856,
                0.17094304074518624,
                -0.03254118205488982
            ]
        },
        {
            "positions": [
                0.43041974530579064,
                -2.0822836527681354,
                -1.3903581865186396,
                1.0094290401511186,
                0.16933409534848973,
                -0.046470556211800365
            ]
        },
        {
            "positions": [
                0.5330679468924685,
                -2.0495300162059036,
                -1.2246142195159582,
                0.9302349086874516,
                0.16772514995179322,
                -0.06039993036871094
            ]
        },
        {
            "positions": [
                0.6357161484791461,
                -2.016776379643672,
                -1.0588702525132767,
                0.8510407772237847,
                0.1661162045550967,
                -0.0743293045256215
            ]
        },
        {
            "positions": [
                0.7383643500658238,
                -1.9840227430814403,
                -0.8931262855105955,
                0.7718466457601179,
                0.1645072591584002,
                -0.08825867868253204
            ]
        },
        {
            "positions": [
                0.8410125516525017,
                -1.9512691065192085,
                -0.727382318507914,
                0.6926525142964508,
                0.1628983137617037,
                -0.10218805283944263
            ]
        },
        {
            "positions": [
                0.9436607532391793,
                -1.9185154699569769,
                -0.5616383515052326,
                0.6134583828327839,
                0.16128936836500718,
                -0.11611742699635319
            ]
        },
        {
            "positions": [
                1.0463089548258568,
                -1.8857618333947452,
                -0.3958943845025513,
                0.534264251369117,
                0.1596804229683107,
                -0.13004680115326372
            ]
        },
        {
            "positions": [
                1.1489571564125347,
                -1.8530081968325134,
                -0.23015041749986986,
                0.4550701199054501,
                0.15807147757161416,
                -0.14397617531017431
            ]
        },
        {
            "positions": [
                1.2516053579992126,
                -1.8202545602702818,
                -0.0644064504971884,
                0.37587598844178305,
                0.15646253217491768,
                -0.15790554946708488
            ]
        },
        {
            "positions": [
                1.35425355958589,
                -1.7875009237080501,
                0.10133751650549261,
                0.2966818569781162,
                0.15485358677822117,
                -0.1718349236239954
            ]
        },
        {
            "positions": [
                1.4569017611725679,
                -1.7547472871458183,
                0.2670814835081745,
                0.21748772551444917,
                0.15324464138152466,
                -0.185764297780906
            ]
        },
        {
            "positions": [
                1.5595499627592457,
                -1.7219936505835864,
                0.43282545051085597,
                0.13829359405078212,
                0.15163569598482815,
                -0.19969367193781656
            ]
        },
        {
            "positions": [
                1.6621981643459232,
                -1.689240014021355,
                0.598569417513537,
                0.059099462587115514,
                0.15002675058813164,
                -0.21362304609472707
            ]
        },
        {
            "positions": [
                1.764846365932601,
                -1.6564863774591232,
                0.7643133845162184,
                -0.020094668876551536,
                0.14841780519143513,
                -0.22755242025163766
            ]
        },
        {
            "positions": [
                1.867494567519279,
                -1.6237327408968913,
                0.9300573515188999,
                -0.09928880034021859,
                0.14680885979473862,
                -0.24148179440854825
            ]
        },
        {
            "positions": [
                1.9701427691059563,
                -1.59097910433466,
                1.095801318521581,
                -0.17848293180388541,
                0.1451999143980421,
                -0.25541116856545876
            ]
        },
        {
            "positions": [
                2.072790970692634,
                -1.558225467772428,
                1.2615452855242628,
                -0.25767706326755246,
                0.1435909690013456,
                -0.2693405427223694
            ]
        },
        {
            "positions": [
                2.175439172279312,
                -1.5254718312101962,
                1.4272892525269443,
                -0.3368711947312193,
                0.1419820236046491,
                -0.28326991687927994
            ]
        },
        {
            "positions": [
                2.2780873738659895,
                -1.4927181946479648,
                1.5930332195296253,
                -0.4160653261948861,
                0.14037307820795258,
                -0.29719929103619047
            ]
        },
        {
            "positions": [
                2.3807355754526673,
                -1.459964558085733,
                1.758777186532307,
                -0.49525945765855306,
                0.13876413281125607,
                -0.311128665193101
            ]
        },
        {
            "positions": [
                2.3998789804088725,
                -1.4256913923487335,
                1.7637453109277266,
                -0.5168295988615061,
                0.20984256313502114,
                -0.5261358984532029
            ]
        },
        {
            "positions": [
                2.4190223853650776,
                -1.391418226611734,
                1.7687134353231462,
                -0.5383997400644592,
                0.2809209934587862,
                -0.7411431317133046
            ]
        },
        {
            "positions": [
                2.4381657903212823,
                -1.3571450608747349,
                1.7736815597185658,
                -0.5599698812674123,
                0.3519994237825512,
                -0.9561503649734064
            ]
        },
        {
            "positions": [
                2.4573091952774875,
                -1.3228718951377354,
                1.7786496841139854,
                -0.5815400224703654,
                0.4230778541063164,
                -1.1711575982335083
            ]
        },
        {
            "positions": [
                2.4764526002336926,
                -1.288598729400736,
                1.783617808509405,
                -0.6031101636733185,
                0.4941562844300814,
                -1.38616483149361
            ]
        },
        {
            "positions": [
                2.4955960051898978,
                -1.2543255636637365,
                1.7885859329048246,
                -0.6246803048762717,
                0.5652347147538465,
                -1.6011720647537118
            ]
        },
        {
            "positions": [
                2.5147394101461025,
                -1.2200523979267373,
                1.7935540573002444,
                -0.6462504460792247,
                0.6363131450776115,
                -1.8161792980138136
            ]
        },
        {
            "positions": [
                2.5338828151023076,
                -1.1857792321897378,
                1.798522181695664,
                -0.6678205872821779,
                0.7073915754013766,
                -2.0311865312739155
            ]
        },
        {
            "positions": [
                2.5530262200585128,
                -1.1515060664527383,
                1.8034903060910836,
                -0.6893907284851309,
                0.7784700057251416,
                -2.2461937645340173
            ]
        },
        {
            "positions": [
                2.572169625014718,
                -1.1172329007157389,
                1.8084584304865032,
                -0.710960869688084,
                0.8495484360489067,
                -2.461200997794119
            ]
        },
        {
            "positions": [
                2.5913130299709226,
                -1.0829597349787394,
                1.8134265548819228,
                -0.7325310108910371,
                0.9206268663726718,
                -2.676208231054221
            ]
        },
        {
            "positions": [
                2.6104564349271278,
                -1.0486865692417402,
                1.8183946792773424,
                -0.7541011520939902,
                0.9917052966964368,
                -2.891215464314323
            ]
        },
        {
            "positions": [
                2.629599839883333,
                -1.0144134035047407,
                1.823362803672762,
                -0.7756712932969433,
                1.0627837270202019,
                -3.1062226975744247
            ]
        }
    ]
}