{
    "goal": {
        "global_pose": {
            "orientation": {
                "w": -0.00223480608172531,
                "x": 0.0024358444001904467,
                "y": 0.7094548369677653,
                "z": -0.704743149386269
            },
            "position": {
                "x": -0.37947507619857795,
                "y": -0.6371506643295288,
                "z": 0.19426114857196808
            }
        },
        "name": "move_to_magneteinheit_C"
    },
    "id": "SPARS_move_to_magneteinheit_C_75",
    "joint_names": [
        "shoulder_pan_joint",
        "shoulder_lift_joint",
        "elbow_joint",
        "wrist_1_joint",
        "wrist_2_joint",
        "wrist_3_joint"
    ],
    "metrics": {
        "cart_traj_len": 1.572911595073228,
        "distance_elbow_joint": 0.5116826536029055,
        "distance_shoulder_lift_joint": 0.9878532580165611,
        "distance_shoulder_pan_joint": 1.9109044005661684,
        "distance_wrist_1_joint": 1.5358393228454923,
        "distance_wrist_2_joint": 2.1040197863425214,
        "distance_wrist_3_joint": 6.6092823061543795,
        "smoothness": 0.7790442574151836,
        "time": 5.069165497999999,
        "traj_len": 3.6958871367410593,
        "weighted_distance": 5.5243104048401195
    },
    "planner": "SPARS",
    "start": {
        "state": {
            "elbow_joint": 1.9565354010623817,
            "shoulder_lift_joint": -1.4165861575791021,
            "shoulder_pan_joint": -1.6717766225146293,
            "wrist_1_joint": -0.5286633292919765,
            "wrist_2_joint": 1.472756589071564,
            "wrist_3_joint": -3.1238370188695823
        }
    },
    "waypoints": [
        {
            "positions": [
                -1.6717766225146293,
                -1.4165861575791021,
                1.9565354010623817,
                -0.5286633292919765,
                1.472756589071564,
                -3.1238370188695823
            ]
        },
        {
            "positions": [
                -1.5518063955737933,
                -1.4901921377080778,
                1.9383042015338394,
                -0.5077970960153156,
                1.4276557861714014,
                -3.068310811417942
            ]
        },
        {
            "positions": [
                -1.4318361686329575,
                -1.5637981178370535,
                1.9200730020052974,
                -0.4869308627386549,
                1.382554983271239,
                -3.0127846039663018
            ]
        },
        {
            "positions": [
                -1.4457268473965723,
                -1.5736290789887972,
                1.896365336436144,
                -0.5315319688357604,
                1.3013379109922352,
                -2.819689502385492
            ]
        },
        {
            "positions": [
                -1.4596175261601874,
                -1.5834600401405408,
                1.8726576708669904,
                -0.5761330749328659,
                1.2201208387132314,
                -2.6265944008046826
            ]
        },
        {
            "positions": [
                -1.4735082049238022,
                -1.5932910012922845,
                1.8489500052978367,
                -0.6207341810299714,
                1.1389037664342276,
                -2.4334992992238735
            ]
        },
        {
            "positions": [
                -1.4873988836874172,
                -1.603121962444028,
                1.8252423397286832,
                -0.665335287127077,
                1.0576866941552239,
                -2.240404197643064
            ]
        },
        {
            "positions": [
                -1.501289562451032,
                -1.6129529235957718,
                1.8015346741595297,
                -0.7099363932241824,
                0.9764696218762201,
                -2.0473090960622544
            ]
        },
        {
            "positions": [
                -1.5758315772703362,
                -1.626103589506183,
                1.8093762370508564,
                -0.7643576139511649,
                0.9031971495522895,
                -1.8761783767161062
            ]
        },
        {
            "positions": [
                -1.6503735920896405,
                -1.639254255416594,
                1.8172177999421832,
                -0.8187788346781473,
                0.8299246772283589,
                -1.705047657369958
            ]
        },
        {
            "positions": [
                -1.7249156069089446,
                -1.6524049213270053,
                1.82505936283351,
                -0.8732000554051296,
                0.7566522049044283,
                -1.5339169380238098
            ]
        },
        {
            "positions": [
                -1.7994576217282487,
                -1.6655555872374164,
                1.8329009257248368,
                -0.927621276132112,
                0.6833797325804978,
                -1.3627862186776616
            ]
        },
        {
            "positions": [
                -1.873999636547553,
                -1.6787062531478276,
                1.8407424886161634,
                -0.9820424968590944,
                0.6101072602565671,
                -1.1916554993315134
            ]
        },
        {
            "positions": [
                -1.9485416513668574,
                -1.6918569190582387,
                1.8485840515074903,
                -1.0364637175860767,
                0.5368347879326365,
                -1.0205247799853654
            ]
        },
        {
            "positions": [
                -2.0230836661861615,
                -1.70500758496865,
                1.856425614398817,
                -1.0908849383130592,
                0.463562315608706,
                -0.8493940606392172
            ]
        },
        {
            "positions": [
                -2.0976256810054656,
                -1.718158250879061,
                1.8642671772901438,
                -1.1453061590400415,
                0.39028984328477534,
                -0.678263341293069
            ]
        },
        {
            "positions": [
                -2.1721676958247698,
                -1.7313089167894722,
                1.8721087401814704,
                -1.1997273797670238,
                0.3170173709608448,
                -0.507132621946921
            ]
        },
        {
            "positions": [
                -2.2467097106440743,
                -1.7444595826998832,
                1.8799503030727973,
                -1.2541486004940063,
                0.24374489863691406,
                -0.33600190260077256
            ]
        },
        {
            "positions": [
                -2.3212517254633784,
                -1.7576102486102945,
                1.887791865964124,
                -1.3085698212209886,
                0.17047242631298354,
                -0.16487118325462458
            ]
        },
        {
            "positions": [
                -2.3957937402826825,
                -1.7707609145207055,
                1.8956334288554508,
                -1.3629910419479712,
                0.0971999539890529,
                0.006259536091523632
            ]
        },
        {
            "positions": [
                -2.4703357551019867,
                -1.7839115804311168,
                1.9034749917467775,
                -1.4174122626749535,
                0.023927481665122367,
                0.177390255437672
            ]
        },
        {
            "positions": [
                -2.533837393853343,
                -1.7566076879533485,
                1.9401263344970188,
                -1.401327863280845,
                0.05203238589938945,
                -0.010380954932092096
            ]
        },
        {
            "positions": [
                -2.5973390326046997,
                -1.72930379547558,
                1.97677767724726,
                -1.3852434638867366,
                0.08013729013365654,
                -0.1981521653018562
            ]
        },
        {
            "positions": [
                -2.660840671356056,
                -1.701999902997812,
                2.0134290199975013,
                -1.369159064492628,
                0.10824219436792362,
                -0.3859233756716202
            ]
        },
        {
            "positions": [
                -2.7243423101074127,
                -1.6746960105200435,
                2.0500803627477424,
                -1.3530746650985195,
                0.13634709860219071,
                -0.5736945860413845
            ]
        },
        {
            "positions": [
                -2.787843948858769,
                -1.6473921180422753,
                2.086731705497984,
                -1.336990265704411,
                0.1644520028364578,
                -0.7614657964111484
            ]
        },
        {
            "positions": [
                -2.7592115700897977,
                -1.6033913568808476,
                2.0802330786469296,
                -1.293062678487563,
                0.21123983536052543,
                -0.9768475218655398
            ]
        },
        {
            "positions": [
                -2.7305791913208264,
                -1.5593905957194198,
                2.073734451795875,
                -1.2491350912707146,
                0.2580276678845931,
                -1.1922292473199312
            ]
        },
        {
            "positions": [
                -2.7019468125518546,
                -1.5153898345579921,
                2.0672358249448206,
                -1.2052075040538666,
                0.3048155004086607,
                -1.4076109727743225
            ]
        },
        {
            "positions": [
                -2.6733144337828834,
                -1.4713890733965644,
                2.060737198093766,
                -1.1612799168370183,
                0.3516033329327284,
                -1.622992698228714
            ]
        },
        {
            "positions": [
                -2.644682055013912,
                -1.4273883122351367,
                2.0542385712427116,
                -1.1173523296201702,
                0.398391165456796,
                -1.8383744236831052
            ]
        },
        {
            "positions": [
                -2.616049676244941,
                -1.3833875510737088,
                2.047739944391657,
                -1.0734247424033219,
                0.4451789979808636,
                -2.0537561491374965
            ]
        },
        {
            "positions": [
                -2.5874172974759695,
                -1.339386789912281,
                2.0412413175406026,
                -1.0294971551864738,
                0.4919668305049313,
                -2.269137874591888
            ]
        },
        {
            "positions": [
                -2.5587849187069978,
                -1.2953860287508534,
                2.034742690689548,
                -0.9855695679696255,
                0.5387546630289989,
                -2.4845196000462795
            ]
        },
        {
            "positions": [
                -2.5301525399380265,
                -1.2513852675894257,
                2.0282440638384935,
                -0.9416419807527774,
                0.5855424955530666,
                -2.699901325500671
            ]
        },
        {
            "positions": [
                -2.501520161169055,
                -1.207384506427998,
                2.021745436987439,
                -0.8977143935359292,
                0.6323303280771342,
                -2.915283050955062
            ]
        },
        {
            "positions": [
                -2.472887782400084,
                -1.1633837452665703,
                2.0152468101363845,
                -0.853786806319081,
                0.6791181606012018,
                -3.1306647764094535
            ]
        }
    ]
}