{
    "goal": {
        "global_pose": {
            "orientation": {
                "w": 0.7047431493862688,
                "x": -0.7094548369677653,
                "y": 0.0024358444001904,
                "z": -0.0022348060817251984
            },
            "position": {
                "x": -0.39052492380142206,
                "y": 0.3671506643295288,
                "z": 0.19426114857196808
            }
        },
        "name": "move_to_magneteinheit_D"
    },
    "id": "SPARS_move_to_magneteinheit_D_33",
    "joint_names": [
        "shoulder_pan_joint",
        "shoulder_lift_joint",
        "elbow_joint",
        "wrist_1_joint",
        "wrist_2_joint",
        "wrist_3_joint"
    ],
    "metrics": {
        "cart_traj_len": 5.795560886851566,
        "distance_elbow_joint": 3.5908007405513387,
        "distance_shoulder_lift_joint": 1.9225866729458854,
        "distance_shoulder_pan_joint": 4.191177278843042,
        "distance_wrist_1_joint": 2.5516942654081767,
        "distance_wrist_2_joint": 1.2593154146818264,
        "distance_wrist_3_joint": 6.850742359139526,
        "smoothness": 1.1251062766682687,
        "time": 5.036891569,
        "traj_len": 4.512905575299554,
        "weighted_distance": 6.154576437898781
    },
    "planner": "SPARS",
    "start": {
        "state": {
            "elbow_joint": 0.749534889911806,
            "shoulder_lift_joint": -0.6476975780787326,
            "shoulder_pan_joint": -2.711696901376241,
            "wrist_1_joint": -0.07506478083263063,
            "wrist_2_joint": 0.43296659715538205,
            "wrist_3_joint": -3.14703540197715
        }
    },
    "waypoints": [
        {
            "positions": [
                -2.711696901376241,
                -0.6476975780787326,
                0.749534889911806,
                -0.07506478083263063,
                0.43296659715538205,
                -3.14703540197715
            ]
        },
        {
            "positions": [
                -2.780045905274772,
                -0.5702473867456685,
                0.7294365239888512,
                -0.10199252362212358,
                0.4692468502687002,
                -3.046556042839827
            ]
        },
        {
            "positions": [
                -2.8483949091733027,
                -0.49279719541260447,
                0.7093381580658963,
                -0.12892026641161652,
                0.5055271033820183,
                -2.946076683702504
            ]
        },
        {
            "positions": [
                -2.916743913071833,
                -0.4153470040795404,
                0.6892397921429414,
                -0.15584800920110947,
                0.5418073564953365,
                -2.845597324565181
            ]
        },
        {
            "positions": [
                -2.985092916970364,
                -0.3378968127464763,
                0.6691414262199866,
                -0.18277575199060242,
                0.5780876096086547,
                -2.745117965427858
            ]
        },
        {
            "positions": [
                -2.9396230513052397,
                -0.44893749251282783,
                0.7179883560455036,
                -0.20960173578282087,
                0.5223562945837438,
                -2.7975060441009996
            ]
        },
        {
            "positions": [
                -2.8941531856401155,
                -0.5599781722791793,
                0.7668352858710206,
                -0.2364277195750393,
                0.4666249795588328,
                -2.849894122774141
            ]
        },
        {
            "positions": [
                -2.848683319974991,
                -0.6710188520455308,
                0.8156822156965375,
                -0.26325370336725773,
                0.41089366453392184,
                -2.9022822014472824
            ]
        },
        {
            "positions": [
                -2.8032134543098666,
                -0.7820595318118824,
                0.8645291455220546,
                -0.2900796871594762,
                0.35516234950901093,
                -2.954670280120424
            ]
        },
        {
            "positions": [
                -2.7577435886447423,
                -0.8931002115782338,
                0.9133760753475716,
                -0.31690567095169464,
                0.29943103448409997,
                -3.0070583587935653
            ]
        },
        {
            "positions": [
                -2.6567246207280313,
                -0.9140331903010634,
                0.8530709170542161,
                -0.3844283255989048,
                0.2852101540045859,
                -2.877914301277276
            ]
        },
        {
            "positions": [
                -2.5557056528113202,
                -0.9349661690238931,
                0.7927657587608608,
                -0.4519509802461149,
                0.27098927352507174,
                -2.748770243760987
            ]
        },
        {
            "positions": [
                -2.4546866848946096,
                -0.9558991477467228,
                0.7324606004675053,
                -0.5194736348933251,
                0.25676839304555765,
                -2.6196261862446977
            ]
        },
        {
            "positions": [
                -2.3536677169778986,
                -0.9768321264695524,
                0.6721554421741498,
                -0.5869962895405352,
                0.24254751256604354,
                -2.4904821287284085
            ]
        },
        {
            "positions": [
                -2.2526487490611875,
                -0.997765105192382,
                0.6118502838807943,
                -0.6545189441877454,
                0.22832663208652942,
                -2.3613380712121192
            ]
        },
        {
            "positions": [
                -2.1516297811444764,
                -1.0186980839152118,
                0.5515451255874388,
                -0.7220415988349556,
                0.21410575160701534,
                -2.23219401369583
            ]
        },
        {
            "positions": [
                -2.050610813227766,
                -1.0396310626380414,
                0.4912399672940834,
                -0.7895642534821656,
                0.19988487112750122,
                -2.103049956179541
            ]
        },
        {
            "positions": [
                -1.9495918453110546,
                -1.060564041360871,
                0.430934809000728,
                -0.8570869081293758,
                0.1856639906479871,
                -1.9739058986632516
            ]
        },
        {
            "positions": [
                -1.8485728773943435,
                -1.0814970200837006,
                0.3706296507073725,
                -0.924609562776586,
                0.171443110168473,
                -1.8447618411469622
            ]
        },
        {
            "positions": [
                -1.7475539094776327,
                -1.1024299988065303,
                0.31032449241401705,
                -0.9921322174237961,
                0.1572222296889589,
                -1.7156177836306732
            ]
        },
        {
            "positions": [
                -1.6465349415609216,
                -1.1233629775293599,
                0.2500193341206616,
                -1.0596548720710062,
                0.1430013492094448,
                -1.5864737261143838
            ]
        },
        {
            "positions": [
                -1.5455159736442108,
                -1.1442959562521895,
                0.1897141758273062,
                -1.1271775267182165,
                0.1287804687299307,
                -1.4573296685980945
            ]
        },
        {
            "positions": [
                -1.4444970057274997,
                -1.1652289349750191,
                0.12940901753395073,
                -1.1947001813654268,
                0.1145595882504166,
                -1.3281856110818053
            ]
        },
        {
            "positions": [
                -1.343478037810789,
                -1.1861619136978487,
                0.06910385924059526,
                -1.2622228360126369,
                0.10033870777090248,
                -1.1990415535655161
            ]
        },
        {
            "positions": [
                -1.2424590698940778,
                -1.2070948924206784,
                0.00879870094723978,
                -1.329745490659847,
                0.08611782729138837,
                -1.069897496049227
            ]
        },
        {
            "positions": [
                -1.1414401019773668,
                -1.228027871143508,
                -0.051506457346115586,
                -1.397268145307057,
                0.07189694681187428,
                -0.9407534385329379
            ]
        },
        {
            "positions": [
                -1.040421134060656,
                -1.2489608498663376,
                -0.11181161563947095,
                -1.464790799954267,
                0.05767606633236019,
                -0.8116093810166487
            ]
        },
        {
            "positions": [
                -0.9394021661439447,
                -1.2698938285891674,
                -0.17211677393282654,
                -1.5323134546014774,
                0.04345518585284602,
                -0.682465323500359
            ]
        },
        {
            "positions": [
                -0.8383831982272338,
                -1.290826807311997,
                -0.2324219322261819,
                -1.5998361092486875,
                0.029234305373331937,
                -0.5533212659840698
            ]
        },
        {
            "positions": [
                -0.737364230310523,
                -1.3117597860348267,
                -0.2927270905195375,
                -1.6673587638958975,
                0.01501342489381785,
                -0.42417720846778106
            ]
        },
        {
            "positions": [
                -0.636345262393812,
                -1.3326927647576563,
                -0.35303224881289286,
                -1.7348814185431076,
                0.0007925444143037641,
                -0.29503315095149185
            ]
        },
        {
            "positions": [
                -0.5353262944771009,
                -1.353625743480486,
                -0.41333740710624844,
                -1.802404073190318,
                -0.013428336065210378,
                -0.1658890934352022
            ]
        },
        {
            "positions": [
                -0.43430732656038984,
                -1.3745587222033155,
                -0.4736425653996038,
                -1.869926727837528,
                -0.027649216544724464,
                -0.03674503591891298
            ]
        },
        {
            "positions": [
                -0.33328835864367923,
                -1.3954917009261454,
                -0.5339477236929592,
                -1.9374493824847383,
                -0.04187009702423855,
                0.09239902159737623
            ]
        },
        {
            "positions": [
                -0.23226939072696817,
                -1.416424679648975,
                -0.5942528819863145,
                -2.0049720371319486,
                -0.05609097750375264,
                0.221543079113665
            ]
        },
        {
            "positions": [
                -0.13125042281025712,
                -1.4373576583718046,
                -0.6545580402796701,
                -2.0724946917791587,
                -0.07031185798326678,
                0.35068713662995465
            ]
        },
        {
            "positions": [
                -0.03023145489354606,
                -1.4582906370946342,
                -0.7148631985730255,
                -2.1400173464263688,
                -0.08453273846278092,
                0.47983119414624387
            ]
        },
        {
            "positions": [
                0.07078751302316455,
                -1.4792236158174639,
                -0.7751683568663811,
                -2.207540001073579,
                -0.09875361894229501,
                0.6089752516625331
            ]
        },
        {
            "positions": [
                0.1718064809398756,
                -1.5001565945402935,
                -0.8354735151597364,
                -2.275062655720789,
                -0.1129744994218091,
                0.7381193091788218
            ]
        },
        {
            "positions": [
                0.27282544885658666,
                -1.521089573263123,
                -0.895778673453092,
                -2.3425853103679994,
                -0.12719537990132324,
                0.8672633666951115
            ]
        },
        {
            "positions": [
                0.3738444167732979,
                -1.5420225519859527,
                -0.9560838317464474,
                -2.4101079650152095,
                -0.14141626038083732,
                0.9964074242114012
            ]
        },
        {
            "positions": [
                0.33498372621389616,
                -1.5567925102306,
                -1.072939459352216,
                -2.3936057744154455,
                -0.14303727398895807,
                1.1853684167841219
            ]
        },
        {
            "positions": [
                0.29612303565449444,
                -1.5715624684752472,
                -1.1897950869579843,
                -2.377103583815682,
                -0.14465828759707886,
                1.3743294093568426
            ]
        },
        {
            "positions": [
                0.2572623450950927,
                -1.5863324267198944,
                -1.306650714563753,
                -2.360601393215918,
                -0.1462793012051996,
                1.5632904019295633
            ]
        },
        {
            "positions": [
                0.21840165453569102,
                -1.6011023849645416,
                -1.4235063421695213,
                -2.344099202616154,
                -0.14790031481332036,
                1.752251394502284
            ]
        },
        {
            "positions": [
                0.1795409639762893,
                -1.6158723432091888,
                -1.5403619697752897,
                -2.32759701201639,
                -0.1495213284214411,
                1.9412123870750044
            ]
        },
        {
            "positions": [
                0.1406802734168876,
                -1.6306423014538358,
                -1.6572175973810581,
                -2.3110948214166265,
                -0.1511423420295619,
                2.130173379647725
            ]
        },
        {
            "positions": [
                0.10181958285748588,
                -1.645412259698483,
                -1.7740732249868267,
                -2.2945926308168625,
                -0.15276335563768265,
                2.3191343722204456
            ]
        },
        {
            "positions": [
                0.06295889229808416,
                -1.6601822179431303,
                -1.8909288525925954,
                -2.2780904402170985,
                -0.1543843692458034,
                2.5080953647931663
            ]
        },
        {
            "positions": [
                0.02409820173868238,
                -1.6749521761877775,
                -2.0077844801983638,
                -2.2615882496173345,
                -0.15600538285392418,
                2.697056357365887
            ]
        },
        {
            "positions": [
                -0.014762488820719288,
                -1.6897221344324247,
                -2.124640107804132,
                -2.245086059017571,
                -0.15762639646204493,
                2.8860173499386077
            ]
        },
        {
            "positions": [
                -0.05362317938012098,
                -1.704492092677072,
                -2.2414957354099005,
                -2.228583868417807,
                -0.15924741007016568,
                3.0749783425113284
            ]
        },
        {
            "positions": [
                -0.09721695254008522,
                -1.654236194462021,
                -2.2948487723317976,
                -2.236086975248095,
                -0.06964838606724807,
                3.1016043821710415
            ]
        },
        {
            "positions": [
                -0.14081072570004946,
                -1.60398029624697,
                -2.348201809253695,
                -2.243590082078383,
                0.019950637935669535,
                3.128230421830755
            ]
        },
        {
            "positions": [
                -0.16290511921600437,
                -1.6768197118734358,
                -2.3504991808190296,
                -2.233529696594573,
                -0.07888002933627994,
                3.1540282961308588
            ]
        },
        {
            "positions": [
                -0.1849995127319593,
                -1.7496591274999016,
                -2.352796552384364,
                -2.2234693111107635,
                -0.1777106966082294,
                3.1798261704309625
            ]
        }
    ]
}