{
    "goal": {
        "global_pose": {
            "orientation": {
                "w": 0.7047431468963623,
                "x": -0.7094548344612122,
                "y": 0.0024358443915843964,
                "z": -0.0022348060738295317
            },
            "position": {
                "x": 0.6094750761985779,
                "y": 0.3671506643295288,
                "z": 0.19426114857196808
            }
        },
        "name": "move_to_magneteinheit_A"
    },
    "id": "SPARStwo_move_to_magneteinheit_A_72",
    "joint_names": [
        "shoulder_pan_joint",
        "shoulder_lift_joint",
        "elbow_joint",
        "wrist_1_joint",
        "wrist_2_joint",
        "wrist_3_joint"
    ],
    "metrics": {
        "cart_traj_len": 4.28300294559423,
        "distance_elbow_joint": 3.907145553950474,
        "distance_shoulder_lift_joint": 0.46906550468145225,
        "distance_shoulder_pan_joint": 4.68779391907996,
        "distance_wrist_1_joint": 3.4535422430430733,
        "distance_wrist_2_joint": 1.4382645274659067,
        "distance_wrist_3_joint": 1.0576896359348056,
        "smoothness": 0.2325733084948698,
        "time": 5.017089709,
        "traj_len": 3.8747259753633774,
        "weighted_distance": 4.692620528716791
    },
    "planner": "SPARStwo",
    "start": {
        "state": {
            "elbow_joint": -1.9196185241190666,
            "shoulder_lift_joint": -1.2443396400964142,
            "shoulder_pan_joint": 2.6996025414629847,
            "wrist_1_joint": -1.5485510000780065,
            "wrist_2_joint": -1.5709468930060704,
            "wrist_3_joint": 0.4420197071253992
        }
    },
    "waypoints": [
        {
            "positions": [
                2.6996025414629847,
                -1.2443396400964142,
                -1.9196185241190666,
                -1.5485510000780065,
                -1.5709468930060704,
                0.4420197071253992
            ]
        },
        {
            "positions": [
                2.559925500948071,
                -1.2308640910038646,
                -1.8253880811367704,
                -1.4764317814217802,
                -1.5282597103726554,
                0.4135921335629989
            ]
        },
        {
            "positions": [
                2.420248460433157,
                -1.217388541911315,
                -1.731157638154474,
                -1.404312562765554,
                -1.4855725277392402,
                0.3851645600005986
            ]
        },
        {
            "positions": [
                2.2805714199182425,
                -1.2039129928187655,
                -1.6369271951721778,
                -1.3321933441093277,
                -1.4428853451058252,
                0.3567369864381984
            ]
        },
        {
            "positions": [
                2.1408943794033286,
                -1.190437443726216,
                -1.5426967521898816,
                -1.2600741254531014,
                -1.4001981624724102,
                0.3283094128757981
            ]
        },
        {
            "positions": [
                2.0012173388884147,
                -1.1769618946336664,
                -1.4484663092075851,
                -1.187954906796875,
                -1.357510979838995,
                0.29988183931339785
            ]
        },
        {
            "positions": [
                1.8615402983735008,
                -1.1634863455411169,
                -1.354235866225289,
                -1.1158356881406488,
                -1.31482379720558,
                0.2714542657509976
            ]
        },
        {
            "positions": [
                1.7218632578585868,
                -1.1500107964485673,
                -1.2600054232429927,
                -1.0437164694844228,
                -1.272136614572165,
                0.24302669218859738
            ]
        },
        {
            "positions": [
                1.5821862173436727,
                -1.1365352473560177,
                -1.1657749802606965,
                -0.9715972508281963,
                -1.22944943193875,
                0.21459911862619707
            ]
        },
        {
            "positions": [
                1.4425091768287588,
                -1.1230596982634684,
                -1.0715445372784003,
                -0.8994780321719701,
                -1.186762249305335,
                0.18617154506379685
            ]
        },
        {
            "positions": [
                1.3028321363138449,
                -1.1095841491709186,
                -0.9773140942961037,
                -0.8273588135157437,
                -1.14407506667192,
                0.15774397150139657
            ]
        },
        {
            "positions": [
                1.163155095798931,
                -1.0961086000783693,
                -0.8830836513138076,
                -0.7552395948595175,
                -1.101387884038505,
                0.1293163979389963
            ]
        },
        {
            "positions": [
                1.0234780552840168,
                -1.0826330509858197,
                -0.7888532083315112,
                -0.6831203762032911,
                -1.0587007014050898,
                0.10088882437659602
            ]
        },
        {
            "positions": [
                0.8838010147691029,
                -1.0691575018932702,
                -0.694622765349215,
                -0.611001157547065,
                -1.0160135187716748,
                0.0724612508141958
            ]
        },
        {
            "positions": [
                0.744123974254189,
                -1.0556819528007206,
                -0.6003923223669188,
                -0.5388819388908388,
                -0.9733263361382598,
                0.04403367725179558
            ]
        },
        {
            "positions": [
                0.604446933739275,
                -1.042206403708171,
                -0.5061618793846225,
                -0.4667627202346125,
                -0.9306391535048447,
                0.015606103689395301
            ]
        },
        {
            "positions": [
                0.4647698932243607,
                -1.0287308546156215,
                -0.4119314364023261,
                -0.394643501578386,
                -0.8879519708714296,
                -0.012821469873005031
            ]
        },
        {
            "positions": [
                0.32509285270944677,
                -1.015255305523072,
                -0.3177009934200299,
                -0.32252428292215995,
                -0.8452647882380145,
                -0.04124904343540525
            ]
        },
        {
            "positions": [
                0.18541581219453285,
                -1.0017797564305224,
                -0.22347055043773367,
                -0.2504050642659337,
                -0.8025776056045996,
                -0.06967661699780547
            ]
        },
        {
            "positions": [
                0.04573877167961893,
                -0.9883042073379729,
                -0.12924010745543746,
                -0.1782858456097074,
                -0.7598904229711846,
                -0.0981041905602057
            ]
        },
        {
            "positions": [
                -0.09393826883529499,
                -0.9748286582454233,
                -0.0350096644731408,
                -0.10616662695348089,
                -0.7172032403377694,
                -0.12653176412260603
            ]
        },
        {
            "positions": [
                -0.2336153093502089,
                -0.9613531091528738,
                0.059220778509155414,
                -0.03404740829725483,
                -0.6745160577043544,
                -0.15495933768500625
            ]
        },
        {
            "positions": [
                -0.37329234986512283,
                -0.9478775600603242,
                0.1534512214914514,
                0.03807181035897145,
                -0.6318288750709394,
                -0.18338691124740658
            ]
        },
        {
            "positions": [
                -0.5129693903800367,
                -0.9344020109677748,
                0.24768166447374762,
                0.11019102901519773,
                -0.5891416924375243,
                -0.2118144848098068
            ]
        },
        {
            "positions": [
                -0.6526464308949511,
                -0.9209264618752251,
                0.3419121074560443,
                0.18231024767142423,
                -0.5464545098041091,
                -0.24024205837220713
            ]
        },
        {
            "positions": [
                -0.792323471409865,
                -0.9074509127826756,
                0.4361425504383405,
                0.2544294663276503,
                -0.5037673271706942,
                -0.26866963193460736
            ]
        },
        {
            "positions": [
                -0.932000511924779,
                -0.8939753636901261,
                0.5303729934206367,
                0.3265486849838765,
                -0.4610801445372793,
                -0.2970972054970076
            ]
        },
        {
            "positions": [
                -0.8507550607176871,
                -0.8848444999766519,
                0.6424617654522347,
                0.4479673432901221,
                -0.43581877692211657,
                -0.2725916113960538
            ]
        },
        {
            "positions": [
                -0.7695096095105952,
                -0.8757136362631778,
                0.7545505374838326,
                0.5693860015963677,
                -0.41055740930695384,
                -0.24808601729510008
            ]
        },
        {
            "positions": [
                -0.6882641583035034,
                -0.8665827725497036,
                0.8666393095154304,
                0.6908046599026132,
                -0.3852960416917911,
                -0.22358042319414634
            ]
        },
        {
            "positions": [
                -0.6070187070964115,
                -0.8574519088362295,
                0.9787280815470284,
                0.8122233182088587,
                -0.3600346740766283,
                -0.19907482909319257
            ]
        },
        {
            "positions": [
                -0.5257732558893197,
                -0.8483210451227553,
                1.0908168535786262,
                0.9336419765151043,
                -0.3347733064614656,
                -0.17456923499223884
            ]
        },
        {
            "positions": [
                -0.4445278046822278,
                -0.839190181409281,
                1.2029056256102242,
                1.0550606348213498,
                -0.30951193884630285,
                -0.15006364089128507
            ]
        },
        {
            "positions": [
                -0.36328235347513604,
                -0.8300593176958069,
                1.3149943976418221,
                1.1764792931275954,
                -0.2842505712311401,
                -0.12555804679033136
            ]
        },
        {
            "positions": [
                -0.2820369022680441,
                -0.8209284539823327,
                1.42708316967342,
                1.2978979514338411,
                -0.2589892036159773,
                -0.1010524526893776
            ]
        },
        {
            "positions": [
                -0.2007914510609523,
                -0.8117975902688586,
                1.539171941705018,
                1.4193166097400867,
                -0.23372783600081462,
                -0.07654685858842386
            ]
        },
        {
            "positions": [
                -0.11954599985386039,
                -0.8026667265553844,
                1.651260713736616,
                1.5407352680463322,
                -0.20846646838565186,
                -0.052041264487470096
            ]
        },
        {
            "positions": [
                -0.03830054864676857,
                -0.7935358628419102,
                1.7633494857682137,
                1.6621539263525777,
                -0.18320510077048913,
                -0.02753567038651633
            ]
        },
        {
            "positions": [
                0.04294490256032335,
                -0.7844049991284361,
                1.8754382577998117,
                1.7835725846588233,
                -0.1579437331553264,
                -0.0030300762855625663
            ]
        },
        {
            "positions": [
                0.12419035376741525,
                -0.7752741354149619,
                1.9875270298314096,
                1.9049912429650688,
                -0.13268236554016363,
                0.021475517815391115
            ]
        }
    ]
}