{
    "goal": {
        "global_pose": {
            "orientation": {
                "w": 0.7031023480610252,
                "x": -0.7110244013736278,
                "y": 0.0077485991402295624,
                "z": 0.005598929693374583
            },
            "position": {
                "x": -0.8841497679147869,
                "y": 0.44412534475326537,
                "z": 0.3711530566215515
            }
        },
        "name": "move_to_auspresseinheit_D"
    },
    "id": "SPARStwo_move_to_auspresseinheit_D_69",
    "joint_names": [
        "shoulder_pan_joint",
        "shoulder_lift_joint",
        "elbow_joint",
        "wrist_1_joint",
        "wrist_2_joint",
        "wrist_3_joint"
    ],
    "metrics": {
        "cart_traj_len": 0.344269824893686,
        "distance_elbow_joint": 0.6508284561735245,
        "distance_shoulder_lift_joint": 0.12761250828289983,
        "distance_shoulder_pan_joint": 0.13340672445415694,
        "distance_wrist_1_joint": 0.5564874562092981,
        "distance_wrist_2_joint": 1.4495646884699265,
        "distance_wrist_3_joint": 0.02190213593908119,
        "smoothness": 0.0,
        "time": 5.006014521,
        "traj_len": 1.7145850721177085,
        "weighted_distance": 2.233754325364872
    },
    "planner": "SPARStwo",
    "start": {
        "state": {
            "elbow_joint": -1.8275523626775212,
            "shoulder_lift_joint": -2.126789852344167,
            "shoulder_pan_joint": -0.03513704404078235,
            "wrist_1_joint": -2.347782403156801,
            "wrist_2_joint": -1.6058999987535132,
            "wrist_3_joint": -3.0880379163319196
        }
    },
    "waypoints": [
        {
            "positions": [
                -0.03513704404078235,
                -2.126789852344167,
                -1.8275523626775212,
                -2.347782403156801,
                -1.6058999987535132,
                -3.0880379163319196
            ]
        },
        {
            "positions": [
                -0.05181288459755197,
                -2.1427414158795295,
                -1.7461988056558306,
                -2.417343335182963,
                -1.4247044126947723,
                -3.0853001493395347
            ]
        },
        {
            "positions": [
                -0.06848872515432158,
                -2.1586929794148917,
                -1.66484524863414,
                -2.4869042672091255,
                -1.2435088266360315,
                -3.0825623823471493
            ]
        },
        {
            "positions": [
                -0.08516456571109121,
                -2.1746445429502543,
                -1.5834916916124495,
                -2.5564651992352876,
                -1.0623132405772908,
                -3.079824615354764
            ]
        },
        {
            "positions": [
                -0.10184040626786081,
                -2.190596106485617,
                -1.502138134590759,
                -2.62602613126145,
                -0.88111765451855,
                -3.077086848362379
            ]
        },
        {
            "positions": [
                -0.11851624682463044,
                -2.206547670020979,
                -1.4207845775690684,
                -2.695587063287612,
                -0.6999220684598091,
                -3.074349081369994
            ]
        },
        {
            "positions": [
                -0.13519208738140007,
                -2.222499233556342,
                -1.3394310205473778,
                -2.7651479953137743,
                -0.5187264824010684,
                -3.0716113143776087
            ]
        },
        {
            "positions": [
                -0.15186792793816967,
                -2.238450797091704,
                -1.2580774635256873,
                -2.834708927339937,
                -0.3375308963423276,
                -3.0688735473852233
            ]
        },
        {
            "positions": [
                -0.1685437684949393,
                -2.2544023606270667,
                -1.1767239065039967,
                -2.904269859366099,
                -0.1563353102835867,
                -3.0661357803928384
            ]
        }
    ]
}