{
    "goal": {
        "global_pose": {
            "orientation": {
                "w": 0.7031023480610252,
                "x": -0.7110244013736278,
                "y": 0.0077485991402295624,
                "z": 0.005598929693374583
            },
            "position": {
                "x": -0.8841497679147869,
                "y": 0.44412534475326537,
                "z": 0.3711530566215515
            }
        },
        "name": "move_to_auspresseinheit_D"
    },
    "id": "SPARStwo_move_to_auspresseinheit_D_100",
    "joint_names": [
        "shoulder_pan_joint",
        "shoulder_lift_joint",
        "elbow_joint",
        "wrist_1_joint",
        "wrist_2_joint",
        "wrist_3_joint"
    ],
    "metrics": {
        "cart_traj_len": 0.3432560270166535,
        "distance_elbow_joint": 0.6343454170676834,
        "distance_shoulder_lift_joint": 0.11902540380296545,
        "distance_shoulder_pan_joint": 0.13490100541560787,
        "distance_wrist_1_joint": 0.5280485342180405,
        "distance_wrist_2_joint": 1.4297447289005856,
        "distance_wrist_3_joint": 0.004154539243403477,
        "smoothness": 3.9474596431116675e-16,
        "time": 5.005345044,
        "traj_len": 1.6882593487519286,
        "weighted_distance": 2.1946120318301636
    },
    "planner": "SPARStwo",
    "start": {
        "state": {
            "elbow_joint": -1.8275523626775212,
            "shoulder_lift_joint": -2.126789852344167,
            "shoulder_pan_joint": -0.03513704404078235,
            "wrist_1_joint": -2.347782403156801,
            "wrist_2_joint": -1.6058999987535132,
            "wrist_3_joint": -3.0880379163319196
        }
    },
    "waypoints": [
        {
            "positions": [
                -0.03513704404078235,
                -2.126789852344167,
                -1.8275523626775212,
                -2.347782403156801,
                -1.6058999987535132,
                -3.0880379163319196
            ]
        },
        {
            "positions": [
                -0.05199966971773333,
                -2.1416680278195375,
                -1.7482591855440608,
                -2.413788469934056,
                -1.42718190764094,
                -3.0875185989264944
            ]
        },
        {
            "positions": [
                -0.06886229539468432,
                -2.156546203294908,
                -1.6689660084106004,
                -2.479794536711311,
                -1.2484638165283668,
                -3.0869992815210687
            ]
        },
        {
            "positions": [
                -0.08572492107163529,
                -2.1714243787702787,
                -1.58967283127714,
                -2.545800603488566,
                -1.0697457254157936,
                -3.086479964115643
            ]
        },
        {
            "positions": [
                -0.10258754674858628,
                -2.18630255424565,
                -1.5103796541436796,
                -2.611806670265821,
                -0.8910276343032204,
                -3.085960646710218
            ]
        },
        {
            "positions": [
                -0.11945017242553727,
                -2.2011807297210204,
                -1.431086477010219,
                -2.677812737043076,
                -0.7123095431906472,
                -3.0854413293047926
            ]
        },
        {
            "positions": [
                -0.13631279810248825,
                -2.216058905196391,
                -1.3517932998767586,
                -2.7438188038203313,
                -0.533591452078074,
                -3.084922011899367
            ]
        },
        {
            "positions": [
                -0.15317542377943924,
                -2.2309370806717617,
                -1.2725001227432982,
                -2.8098248705975863,
                -0.3548733609655008,
                -3.0844026944939413
            ]
        },
        {
            "positions": [
                -0.17003804945639023,
                -2.2458152561471323,
                -1.1932069456098378,
                -2.8758309373748414,
                -0.1761552698529276,
                -3.083883377088516
            ]
        }
    ]
}