{
    "goal": {
        "global_pose": {
            "orientation": {
                "w": -0.4816463035849501,
                "x": 0.5182115481033762,
                "y": 0.4908360881923453,
                "z": -0.5084816262002911
            },
            "position": {
                "x": -0.8240239810943604,
                "y": -0.300875300988555,
                "z": 0.16403168439865112
            }
        },
        "name": "move_to_storage_C"
    },
    "id": "SPARS_move_to_storage_C_47",
    "joint_names": [
        "shoulder_pan_joint",
        "shoulder_lift_joint",
        "elbow_joint",
        "wrist_1_joint",
        "wrist_2_joint",
        "wrist_3_joint"
    ],
    "metrics": {
        "cart_traj_len": 0.5774820945038476,
        "distance_elbow_joint": 0.2556198906101286,
        "distance_shoulder_lift_joint": 0.18987958080630152,
        "distance_shoulder_pan_joint": 0.4962078655357107,
        "distance_wrist_1_joint": 0.06576291404986778,
        "distance_wrist_2_joint": 1.0617870581888362,
        "distance_wrist_3_joint": 0.07016283519562672,
        "smoothness": 0.0,
        "time": 5.032583383,
        "traj_len": 1.462675679836946,
        "weighted_distance": 1.8458861793232078
    },
    "planner": "SPARS",
    "start": {
        "state": {
            "elbow_joint": 2.010868314990456,
            "shoulder_lift_joint": -1.1634956873337592,
            "shoulder_pan_joint": -2.4736205022346125,
            "wrist_1_joint": -0.8367026794202681,
            "wrist_2_joint": 0.6746043897044499,
            "wrist_3_joint": -3.1496632123970403
        }
    },
    "waypoints": [
        {
            "positions": [
                -2.4736205022346125,
                -1.1634956873337592,
                2.010868314990456,
                -0.8367026794202681,
                0.6746043897044499,
                -3.1496632123970403
            ]
        },
        {
            "positions": [
                -2.556321813157231,
                -1.131849090532709,
                1.9682649998887678,
                -0.8257421937452901,
                0.8515688994025893,
                -3.1379694065311026
            ]
        },
        {
            "positions": [
                -2.6390231240798494,
                -1.1002024937316586,
                1.9256616847870796,
                -0.8147817080703121,
                1.0285334091007288,
                -3.126275600665165
            ]
        },
        {
            "positions": [
                -2.721724435002468,
                -1.0685558969306084,
                1.8830583696853915,
                -0.8038212223953343,
                1.205497918798868,
                -3.1145817947992267
            ]
        },
        {
            "positions": [
                -2.8044257459250863,
                -1.0369093001295582,
                1.8404550545837035,
                -0.7928607367203563,
                1.3824624284970075,
                -3.102887988933289
            ]
        },
        {
            "positions": [
                -2.8871270568477048,
                -1.005262703328508,
                1.7978517394820153,
                -0.7819002510453783,
                1.5594269381951467,
                -3.0911941830673513
            ]
        },
        {
            "positions": [
                -2.969828367770323,
                -0.9736161065274577,
                1.7552484243803272,
                -0.7709397653704003,
                1.7363914478932863,
                -3.0795003772014136
            ]
        }
    ]
}