{
    "goal": {
        "global_pose": {
            "orientation": {
                "w": -0.00223480608172531,
                "x": 0.0024358444001904467,
                "y": 0.7094548369677653,
                "z": -0.704743149386269
            },
            "position": {
                "x": 0.6205249238014221,
                "y": -0.6371506643295288,
                "z": 0.19426114857196808
            }
        },
        "name": "move_to_magneteinheit_B"
    },
    "id": "SPARS_move_to_magneteinheit_B_113",
    "joint_names": [
        "shoulder_pan_joint",
        "shoulder_lift_joint",
        "elbow_joint",
        "wrist_1_joint",
        "wrist_2_joint",
        "wrist_3_joint"
    ],
    "metrics": {
        "cart_traj_len": 1.4803208171827036,
        "distance_elbow_joint": 0.9535571877394564,
        "distance_shoulder_lift_joint": 0.7536676315753343,
        "distance_shoulder_pan_joint": 1.620012286534073,
        "distance_wrist_1_joint": 0.6184251954698836,
        "distance_wrist_2_joint": 2.384336523563796,
        "distance_wrist_3_joint": 0.6438536901136555,
        "smoothness": 0.6726800068223434,
        "time": 5.062397442999999,
        "traj_len": 2.6408052777507462,
        "weighted_distance": 3.356236227421602
    },
    "planner": "SPARS",
    "start": {
        "state": {
            "elbow_joint": 2.6216224122426386,
            "shoulder_lift_joint": -1.4174107377796124,
            "shoulder_pan_joint": 0.7066234856936794,
            "wrist_1_joint": 1.9546482284002225,
            "wrist_2_joint": -0.7096286983471962,
            "wrist_3_joint": 0.005740856962016249
        }
    },
    "waypoints": [
        {
            "positions": [
                0.7066234856936794,
                -1.4174107377796124,
                2.6216224122426386,
                1.9546482284002225,
                -0.7096286983471962,
                0.005740856962016249
            ]
        },
        {
            "positions": [
                0.5826542932036339,
                -1.4153378377694472,
                2.5715490664194105,
                1.9131536806185376,
                -0.6246184057382878,
                -0.05726484677385185
            ]
        },
        {
            "positions": [
                0.4586851007135885,
                -1.4132649377592823,
                2.5214757205961824,
                1.8716591328368528,
                -0.5396081131293792,
                -0.12027055050971995
            ]
        },
        {
            "positions": [
                0.3347159082235431,
                -1.4111920377491172,
                2.471402374772954,
                1.8301645850551678,
                -0.4545978205204707,
                -0.18327625424558805
            ]
        },
        {
            "positions": [
                0.21074671573349762,
                -1.4091191377389523,
                2.421329028949726,
                1.788670037273483,
                -0.36958752791156213,
                -0.24628195798145613
            ]
        },
        {
            "positions": [
                0.08677752324345227,
                -1.4070462377287871,
                2.3712556831264977,
                1.7471754894917981,
                -0.28457723530265366,
                -0.30928766171732425
            ]
        },
        {
            "positions": [
                0.009841652160079525,
                -1.3498690737653634,
                2.3171641093862427,
                1.7787872169196026,
                -0.43529147072721164,
                -0.2839934177608385
            ]
        },
        {
            "positions": [
                -0.06709421892329322,
                -1.2926919098019396,
                2.2630725356459878,
                1.8103989443474073,
                -0.5860057061517696,
                -0.2586991738043527
            ]
        },
        {
            "positions": [
                -0.14403009000666595,
                -1.2355147458385158,
                2.2089809619057323,
                1.8420106717752118,
                -0.7367199415763275,
                -0.23340492984786693
            ]
        },
        {
            "positions": [
                -0.2209659610900387,
                -1.178337581875092,
                2.1548893881654774,
                1.8736223992030163,
                -0.8874341770008854,
                -0.20811068589138113
            ]
        },
        {
            "positions": [
                -0.29790183217341143,
                -1.121160417911668,
                2.1007978144252224,
                1.905234126630821,
                -1.0381484124254434,
                -0.18281644193489535
            ]
        },
        {
            "positions": [
                -0.37483770325678417,
                -1.0639832539482446,
                2.0467062406849674,
                1.9368458540586255,
                -1.1888626478500015,
                -0.15752219797840958
            ]
        },
        {
            "positions": [
                -0.4517735743401569,
                -1.0068060899848206,
                1.9926146669447125,
                1.96845758148643,
                -1.3395768832745591,
                -0.1322279540219238
            ]
        },
        {
            "positions": [
                -0.5287094454235297,
                -0.9496289260213968,
                1.9385230932044575,
                2.0000693089142345,
                -1.4902911186991172,
                -0.106933710065438
            ]
        },
        {
            "positions": [
                -0.6056453165069025,
                -0.8924517620579732,
                1.8844315194642023,
                2.031681036342039,
                -1.641005354123675,
                -0.08163946610895226
            ]
        },
        {
            "positions": [
                -0.6825811875902752,
                -0.8352745980945493,
                1.8303399457239473,
                2.063292763769844,
                -1.7917195895482332,
                -0.056345222152466456
            ]
        },
        {
            "positions": [
                -0.7595170586736479,
                -0.7780974341311255,
                1.7762483719836921,
                2.0949044911976484,
                -1.942433824972791,
                -0.031050978195980683
            ]
        },
        {
            "positions": [
                -0.8364529297570207,
                -0.7209202701677018,
                1.7221567982434371,
                2.126516218625453,
                -2.093148060397349,
                -0.0057567342394949095
            ]
        },
        {
            "positions": [
                -0.9133888008403933,
                -0.663743106204278,
                1.6680652245031822,
                2.1581279460532574,
                -2.243862295821907,
                0.019537509716990836
            ]
        }
    ]
}