{
    "goal": {
        "global_pose": {
            "orientation": {
                "w": 0.005598929693374612,
                "x": 0.007748599140229565,
                "y": 0.7110244013736278,
                "z": -0.7031023480610252
            },
            "position": {
                "x": 0.1141497679147869,
                "y": -0.7141253447532654,
                "z": 0.3711530566215515
            }
        },
        "name": "move_to_auspresseinheit_B"
    },
    "id": "SPARS_move_to_auspresseinheit_B_138",
    "joint_names": [
        "shoulder_pan_joint",
        "shoulder_lift_joint",
        "elbow_joint",
        "wrist_1_joint",
        "wrist_2_joint",
        "wrist_3_joint"
    ],
    "metrics": {
        "cart_traj_len": 0.5645863487875421,
        "distance_elbow_joint": 0.06409727319889558,
        "distance_shoulder_lift_joint": 0.29310208074821875,
        "distance_shoulder_pan_joint": 0.5774899699680314,
        "distance_wrist_1_joint": 0.33319832930952475,
        "distance_wrist_2_joint": 0.9927520719862155,
        "distance_wrist_3_joint": 0.008795869872570972,
        "smoothness": 0.0,
        "time": 5.008179253,
        "traj_len": 1.5064646013376672,
        "weighted_distance": 1.9007834532435142
    },
    "planner": "SPARS",
    "start": {
        "state": {
            "elbow_joint": 2.0193083361928714,
            "shoulder_lift_joint": -1.1220246554650708,
            "shoulder_pan_joint": -1.0952077554168747,
            "wrist_1_joint": -0.8559753972642168,
            "wrist_2_joint": 0.4759566250798843,
            "wrist_3_joint": -3.1240929996934557
        }
    },
    "waypoints": [
        {
            "positions": [
                -1.0952077554168747,
                -1.1220246554650708,
                2.0193083361928714,
                -0.8559753972642168,
                0.4759566250798843,
                -3.1240929996934557
            ]
        },
        {
            "positions": [
                -1.19145608374488,
                -1.1708750022564405,
                2.0086254573263886,
                -0.800442342379296,
                0.6414153037442536,
                -3.125558978005551
            ]
        },
        {
            "positions": [
                -1.287704412072885,
                -1.2197253490478104,
                1.9979425784599063,
                -0.7449092874943752,
                0.8068739824086228,
                -3.127024956317646
            ]
        },
        {
            "positions": [
                -1.3839527404008902,
                -1.2685756958391803,
                1.9872596995934235,
                -0.6893762326094544,
                0.9723326610729921,
                -3.128490934629741
            ]
        },
        {
            "positions": [
                -1.4802010687288956,
                -1.31742604263055,
                1.976576820726941,
                -0.6338431777245337,
                1.1377913397373614,
                -3.1299569129418363
            ]
        },
        {
            "positions": [
                -1.576449397056901,
                -1.3662763894219196,
                1.9658939418604584,
                -0.5783101228396128,
                1.3032500184017306,
                -3.1314228912539317
            ]
        },
        {
            "positions": [
                -1.672697725384906,
                -1.4151267362132895,
                1.9552110629939758,
                -0.522777067954692,
                1.4687086970660999,
                -3.1328888695660266
            ]
        }
    ]
}