{
    "goal": {
        "global_pose": {
            "orientation": {
                "w": 0.7047431468963623,
                "x": -0.7094548344612122,
                "y": 0.0024358443915843964,
                "z": -0.0022348060738295317
            },
            "position": {
                "x": 0.6094750761985779,
                "y": 0.3671506643295288,
                "z": 0.19426114857196808
            }
        },
        "name": "move_to_magneteinheit_A"
    },
    "id": "SPARS_move_to_magneteinheit_A_15",
    "joint_names": [
        "shoulder_pan_joint",
        "shoulder_lift_joint",
        "elbow_joint",
        "wrist_1_joint",
        "wrist_2_joint",
        "wrist_3_joint"
    ],
    "metrics": {
        "cart_traj_len": 3.5774943170782816,
        "distance_elbow_joint": 3.9249463006725307,
        "distance_shoulder_lift_joint": 0.462393493275687,
        "distance_shoulder_pan_joint": 3.673942610587899,
        "distance_wrist_1_joint": 3.511289933011925,
        "distance_wrist_2_joint": 1.9836008984571776,
        "distance_wrist_3_joint": 0.4763677520353287,
        "smoothness": 0.32166422230041936,
        "time": 5.03344517,
        "traj_len": 3.746003335294905,
        "weighted_distance": 4.525501886374627
    },
    "planner": "SPARS",
    "start": {
        "state": {
            "elbow_joint": -1.9196185241190666,
            "shoulder_lift_joint": -1.2443396400964142,
            "shoulder_pan_joint": 2.6996025414629847,
            "wrist_1_joint": -1.5485510000780065,
            "wrist_2_joint": -1.5709468930060704,
            "wrist_3_joint": 0.4420197071253992
        }
    },
    "waypoints": [
        {
            "positions": [
                2.6996025414629847,
                -1.2443396400964142,
                -1.9196185241190666,
                -1.5485510000780065,
                -1.5709468930060704,
                0.4420197071253992
            ]
        },
        {
            "positions": [
                2.5954230496072,
                -1.2378793642199006,
                -1.8067043585020495,
                -1.4503980870994369,
                -1.5137462096796235,
                0.43087255267425745
            ]
        },
        {
            "positions": [
                2.491243557751415,
                -1.231419088343387,
                -1.6937901928850323,
                -1.3522451741208672,
                -1.4565455263531766,
                0.4197253982231157
            ]
        },
        {
            "positions": [
                2.387064065895631,
                -1.2249588124668733,
                -1.5808760272680153,
                -1.2540922611422973,
                -1.3993448430267295,
                0.408578243771974
            ]
        },
        {
            "positions": [
                2.282884574039846,
                -1.2184985365903598,
                -1.4679618616509982,
                -1.1559393481637277,
                -1.3421441597002826,
                0.39743108932083226
            ]
        },
        {
            "positions": [
                2.1787050821840612,
                -1.2120382607138462,
                -1.355047696033981,
                -1.057786435185158,
                -1.2849434763738357,
                0.3862839348696906
            ]
        },
        {
            "positions": [
                2.0745255903282764,
                -1.2055779848373327,
                -1.2421335304169638,
                -0.9596335222065883,
                -1.2277427930473888,
                0.37513678041854887
            ]
        },
        {
            "positions": [
                1.9703460984724916,
                -1.1991177089608192,
                -1.1292193647999467,
                -0.8614806092280186,
                -1.1705421097209419,
                0.36398962596740714
            ]
        },
        {
            "positions": [
                1.8661666066167069,
                -1.1926574330843056,
                -1.0163051991829297,
                -0.763327696249449,
                -1.113341426394495,
                0.3528424715162654
            ]
        },
        {
            "positions": [
                1.7619871147609223,
                -1.186197157207792,
                -0.9033910335659125,
                -0.6651747832708793,
                -1.056140743068048,
                0.3416953170651237
            ]
        },
        {
            "positions": [
                1.6578076229051377,
                -1.1797368813312783,
                -0.7904768679488954,
                -0.5670218702923095,
                -0.9989400597416012,
                0.330548162613982
            ]
        },
        {
            "positions": [
                1.553628131049353,
                -1.1732766054547648,
                -0.6775627023318784,
                -0.4688689573137399,
                -0.9417393764151542,
                0.3194010081628402
            ]
        },
        {
            "positions": [
                1.4494486391935681,
                -1.1668163295782512,
                -0.564648536714861,
                -0.37071604433517,
                -0.8845386930887071,
                0.30825385371169856
            ]
        },
        {
            "positions": [
                1.3452691473377834,
                -1.1603560537017377,
                -0.45173437109784387,
                -0.2725631313566004,
                -0.8273380097622602,
                0.2971066992605568
            ]
        },
        {
            "positions": [
                1.2410896554819988,
                -1.1538957778252241,
                -0.3388202054808269,
                -0.17441021837803072,
                -0.7701373264358133,
                0.2859595448094151
            ]
        },
        {
            "positions": [
                1.136910163626214,
                -1.1474355019487104,
                -0.22590603986380975,
                -0.07625730539946107,
                -0.7129366431093664,
                0.2748123903582734
            ]
        },
        {
            "positions": [
                1.0327306717704292,
                -1.1409752260721968,
                -0.11299187424679258,
                0.021895607579108578,
                -0.6557359597829195,
                0.26366523590713165
            ]
        },
        {
            "positions": [
                0.9285511799146446,
                -1.1345149501956833,
                -7.77086297756302e-05,
                0.12004852055767823,
                -0.5985352764564726,
                0.25251808145599
            ]
        },
        {
            "positions": [
                0.8243716880588599,
                -1.1280546743191697,
                0.11283645698724154,
                0.21820143353624788,
                -0.5413345931300257,
                0.24137092700484822
            ]
        },
        {
            "positions": [
                0.7201921962030753,
                -1.1215943984426562,
                0.2257506226042585,
                0.31635434651481753,
                -0.48413390980357884,
                0.2302237725537065
            ]
        },
        {
            "positions": [
                0.6160127043472907,
                -1.1151341225661426,
                0.3386647882212759,
                0.4145072594933874,
                -0.42693322647713194,
                0.2190766181025648
            ]
        },
        {
            "positions": [
                0.5118332124915059,
                -1.108673846689629,
                0.45157895383829283,
                0.5126601724719568,
                -0.36973254315068504,
                0.20792946365142306
            ]
        },
        {
            "positions": [
                0.40765372063572114,
                -1.1022135708131153,
                0.5644931194553098,
                0.6108130854505267,
                -0.3125318598242379,
                0.19678230920028134
            ]
        },
        {
            "positions": [
                0.3034742287799359,
                -1.0957532949366018,
                0.6774072850723276,
                0.7089659984290966,
                -0.255331176497791,
                0.1856351547491396
            ]
        },
        {
            "positions": [
                0.19929473692415156,
                -1.0892930190600882,
                0.7903214506893446,
                0.8071189114076665,
                -0.1981304931713439,
                0.17448800029799788
            ]
        },
        {
            "positions": [
                0.09511524506836677,
                -1.0828327431835747,
                0.9032356163063615,
                0.9052718243862359,
                -0.140929809844897,
                0.16334084584685615
            ]
        },
        {
            "positions": [
                -0.009064246787418018,
                -1.0763724673070612,
                1.016149781923379,
                1.0034247373648058,
                -0.0837291265184501,
                0.15219369139571443
            ]
        },
        {
            "positions": [
                -0.11324373864320281,
                -1.0699121914305474,
                1.1290639475403959,
                1.1015776503433752,
                -0.026528443192003204,
                0.1410465369445727
            ]
        },
        {
            "positions": [
                -0.21742323049898715,
                -1.0634519155540338,
                1.2419781131574128,
                1.199730563321945,
                0.030672240134443696,
                0.12989938249343103
            ]
        },
        {
            "positions": [
                -0.32160272235477194,
                -1.0569916396775203,
                1.3548922787744302,
                1.2978834763005145,
                0.0878729234608906,
                0.1187522280422893
            ]
        },
        {
            "positions": [
                -0.4257822142105569,
                -1.0505313638010068,
                1.4678064443914474,
                1.3960363892790841,
                0.1450736067873375,
                0.10760507359114756
            ]
        },
        {
            "positions": [
                -0.3343559050581639,
                -1.0057671609709602,
                1.5573933330851168,
                1.4904868132215567,
                0.1004768736767092,
                0.0839462205076347
            ]
        },
        {
            "positions": [
                -0.2429295959057709,
                -0.9610029581409135,
                1.6469802217787863,
                1.5849372371640293,
                0.0558801405660809,
                0.060287367424121836
            ]
        },
        {
            "positions": [
                -0.15150328675337787,
                -0.916238755310867,
                1.7365671104724556,
                1.679387661106502,
                0.011283407455452588,
                0.03662851434060897
            ]
        },
        {
            "positions": [
                -0.060076977600984904,
                -0.8714745524808204,
                1.826153999166125,
                1.7738380850489746,
                -0.033313325655175696,
                0.012969661257096116
            ]
        },
        {
            "positions": [
                0.03134933155140818,
                -0.8267103496507737,
                1.9157408878597946,
                1.8682885089914472,
                -0.07791005876580404,
                -0.010689191826416755
            ]
        },
        {
            "positions": [
                0.12277564070380112,
                -0.7819461468207272,
                2.005327776553464,
                1.9627389329339198,
                -0.1225067918764323,
                -0.03434804490992961
            ]
        }
    ]
}