{
    "goal": {
        "global_pose": {
            "orientation": {
                "w": 0.7047431493862688,
                "x": -0.7094548369677653,
                "y": 0.0024358444001904,
                "z": -0.0022348060817251984
            },
            "position": {
                "x": -0.39052492380142206,
                "y": 0.3671506643295288,
                "z": 0.19426114857196808
            }
        },
        "name": "move_to_magneteinheit_D"
    },
    "id": "SPARS_move_to_magneteinheit_D_32",
    "joint_names": [
        "shoulder_pan_joint",
        "shoulder_lift_joint",
        "elbow_joint",
        "wrist_1_joint",
        "wrist_2_joint",
        "wrist_3_joint"
    ],
    "metrics": {
        "cart_traj_len": 4.453668444775939,
        "distance_elbow_joint": 3.129439549257373,
        "distance_shoulder_lift_joint": 1.6312290078074534,
        "distance_shoulder_pan_joint": 4.375307773915262,
        "distance_wrist_1_joint": 2.0433889740893467,
        "distance_wrist_2_joint": 0.8181241516392534,
        "distance_wrist_3_joint": 3.1468194834320515,
        "smoothness": 0.5311080357264056,
        "time": 5.064104996,
        "traj_len": 3.891568956107645,
        "weighted_distance": 4.929448349737875
    },
    "planner": "SPARS",
    "start": {
        "state": {
            "elbow_joint": 0.749534889911806,
            "shoulder_lift_joint": -0.6476975780787326,
            "shoulder_pan_joint": -2.711696901376241,
            "wrist_1_joint": -0.07506478083263063,
            "wrist_2_joint": 0.43296659715538205,
            "wrist_3_joint": -3.14703540197715
        }
    },
    "waypoints": [
        {
            "positions": [
                -2.711696901376241,
                -0.6476975780787326,
                0.749534889911806,
                -0.07506478083263063,
                0.43296659715538205,
                -3.14703540197715
            ]
        },
        {
            "positions": [
                -2.764808696364745,
                -0.7384329471704141,
                0.7301795436513356,
                -0.1516763557323007,
                0.34930124777895966,
                -3.0874472182017234
            ]
        },
        {
            "positions": [
                -2.8179204913532483,
                -0.8291683162620955,
                0.7108241973908653,
                -0.2282879306319708,
                0.2656358984025372,
                -3.027859034426297
            ]
        },
        {
            "positions": [
                -2.871032286341752,
                -0.919903685353777,
                0.691468851130395,
                -0.3048995055316409,
                0.18197054902611481,
                -2.96827085065087
            ]
        },
        {
            "positions": [
                -2.7520642372768034,
                -0.943862006146723,
                0.5993584305337725,
                -0.244778888158412,
                0.19184557240593614,
                -2.882214377178482
            ]
        },
        {
            "positions": [
                -2.6330961882118546,
                -0.967820326939669,
                0.5072480099371499,
                -0.1846582707851831,
                0.20172059578575746,
                -2.796157903706094
            ]
        },
        {
            "positions": [
                -2.514128139146906,
                -0.991778647732615,
                0.4151375893405273,
                -0.12453765341195419,
                0.21159561916557879,
                -2.710101430233706
            ]
        },
        {
            "positions": [
                -2.395160090081957,
                -1.015736968525561,
                0.3230271687439047,
                -0.06441703603872531,
                0.2214706425454001,
                -2.6240449567613178
            ]
        },
        {
            "positions": [
                -2.2761920410170084,
                -1.0396952893185072,
                0.23091674814728208,
                -0.004296418665496349,
                0.23134566592522143,
                -2.53798848328893
            ]
        },
        {
            "positions": [
                -2.15722399195206,
                -1.063653610111453,
                0.13880632755065958,
                0.05582419870773253,
                0.24122068930504273,
                -2.451932009816542
            ]
        },
        {
            "positions": [
                -2.0382559428871114,
                -1.0876119309043992,
                0.046695906954036914,
                0.11594481608096141,
                0.2510957126848641,
                -2.365875536344154
            ]
        },
        {
            "positions": [
                -1.9192878938221627,
                -1.1115702516973451,
                -0.04541451364258564,
                0.1760654334541903,
                0.26097073606468535,
                -2.279819062871766
            ]
        },
        {
            "positions": [
                -1.800319844757214,
                -1.1355285724902913,
                -0.1375249342392082,
                0.23618605082741928,
                0.27084575944450673,
                -2.1937625893993777
            ]
        },
        {
            "positions": [
                -1.6813517956922652,
                -1.1594868932832374,
                -0.22963535483583086,
                0.2963066682006482,
                0.280720782824328,
                -2.1077061159269896
            ]
        },
        {
            "positions": [
                -1.5623837466273167,
                -1.1834452140761833,
                -0.3217457754324533,
                0.35642728557387704,
                0.2905958062041493,
                -2.0216496424546015
            ]
        },
        {
            "positions": [
                -1.443415697562368,
                -1.2074035348691292,
                -0.41385619602907586,
                0.416547902947106,
                0.30047082958397064,
                -1.9355931689822137
            ]
        },
        {
            "positions": [
                -1.3244476484974192,
                -1.2313618556620753,
                -0.5059666166256984,
                0.4766685203203349,
                0.31034585296379197,
                -1.8495366955098258
            ]
        },
        {
            "positions": [
                -1.2054795994324705,
                -1.2553201764550215,
                -0.5980770372223212,
                0.5367891376935637,
                0.3202208763436133,
                -1.7634802220374377
            ]
        },
        {
            "positions": [
                -1.0865115503675218,
                -1.2792784972479674,
                -0.6901874578189438,
                0.5969097550667927,
                0.3300958997234346,
                -1.6774237485650496
            ]
        },
        {
            "positions": [
                -0.967543501302573,
                -1.3032368180409135,
                -0.7822978784155663,
                0.6570303724400215,
                0.33997092310325594,
                -1.5913672750926615
            ]
        },
        {
            "positions": [
                -0.8485754522376245,
                -1.3271951388338594,
                -0.8744082990121886,
                0.7171509898132503,
                0.3498459464830772,
                -1.5053108016202736
            ]
        },
        {
            "positions": [
                -0.7296074031726758,
                -1.3511534596268056,
                -0.9665187196088114,
                0.7772716071864795,
                0.3597209698628986,
                -1.4192543281478855
            ]
        },
        {
            "positions": [
                -0.6106393541077271,
                -1.3751117804197515,
                -1.058629140205434,
                0.8373922245597082,
                0.36959599324271986,
                -1.3331978546754975
            ]
        },
        {
            "positions": [
                -0.49167130504277834,
                -1.3990701012126976,
                -1.1507395608020567,
                0.8975128419329373,
                0.37947101662254124,
                -1.2471413812031094
            ]
        },
        {
            "positions": [
                -0.3727032559778296,
                -1.4230284220056437,
                -1.242849981398679,
                0.9576334593061661,
                0.3893460400023625,
                -1.1610849077307215
            ]
        },
        {
            "positions": [
                -0.2537352069128813,
                -1.4469867427985896,
                -1.3349604019953016,
                1.0177540766793949,
                0.3992210633821839,
                -1.0750284342583334
            ]
        },
        {
            "positions": [
                -0.13476715784793214,
                -1.4709450635915358,
                -1.4270708225919244,
                1.0778746940526238,
                0.40909608676200515,
                -0.9889719607859453
            ]
        },
        {
            "positions": [
                -0.01579910878298385,
                -1.4949033843844817,
                -1.5191812431885467,
                1.1379953114258528,
                0.41897111014182653,
                -0.9029154873135572
            ]
        },
        {
            "positions": [
                0.10316894028196488,
                -1.5188617051774278,
                -1.611291663785169,
                1.1981159287990817,
                0.4288461335216478,
                -0.8168590138411695
            ]
        },
        {
            "positions": [
                0.22213698934691362,
                -1.5428200259703737,
                -1.7034020843817919,
                1.2582365461723106,
                0.4387211569014691,
                -0.7308025403687815
            ]
        },
        {
            "positions": [
                0.34110503841186235,
                -1.5667783467633198,
                -1.7955125049784146,
                1.3183571635455396,
                0.44859618028129045,
                -0.6447460668963934
            ]
        },
        {
            "positions": [
                0.4600730874768111,
                -1.590736667556266,
                -1.8876229255750374,
                1.3784777809187685,
                0.45847120366111177,
                -0.5586895934240053
            ]
        },
        {
            "positions": [
                0.57904113654176,
                -1.6146949883492119,
                -1.97973334617166,
                1.4385983982919974,
                0.4683462270409331,
                -0.4726331199516172
            ]
        },
        {
            "positions": [
                0.4696269985322972,
                -1.7095852165687797,
                -2.0369006766250752,
                1.4486064476586686,
                0.42823873768448056,
                -0.40514494832211445
            ]
        },
        {
            "positions": [
                0.3602128605228344,
                -1.8044754447883473,
                -2.0940680070784907,
                1.4586144970253396,
                0.38813124832802803,
                -0.3376567766926116
            ]
        },
        {
            "positions": [
                0.25079872251337154,
                -1.8993656730079151,
                -2.1512353375319058,
                1.4686225463920108,
                0.34802375897157545,
                -0.2701686050631089
            ]
        },
        {
            "positions": [
                0.14138458450390873,
                -1.9942559012274828,
                -2.208402667985321,
                1.478630595758682,
                0.3079162696151229,
                -0.2026804334336061
            ]
        },
        {
            "positions": [
                0.0319704464944458,
                -2.089146129447051,
                -2.2655699984387363,
                1.4886386451253533,
                0.2678087802586704,
                -0.13519226180410326
            ]
        },
        {
            "positions": [
                -0.07744369151501695,
                -2.1840363576666184,
                -2.322737328892152,
                1.4986466944920243,
                0.22770129090221783,
                -0.06770409017460055
            ]
        },
        {
            "positions": [
                -0.18685782952447985,
                -2.278926585886186,
                -2.379904659345567,
                1.5086547438586955,
                0.18759380154576527,
                -0.00021591854509774675
            ]
        }
    ]
}