{
    "goal": {
        "global_pose": {
            "orientation": {
                "w": 0.5084816217422485,
                "x": -0.49083608388900757,
                "y": 0.5182115435600281,
                "z": -0.4816462993621826
            },
            "position": {
                "x": 0.5540239810943604,
                "y": 0.030875300988554955,
                "z": 0.16403168439865112
            }
        },
        "name": "move_to_storage_A"
    },
    "id": "SPARS_move_to_storage_A_36",
    "joint_names": [
        "shoulder_pan_joint",
        "shoulder_lift_joint",
        "elbow_joint",
        "wrist_1_joint",
        "wrist_2_joint",
        "wrist_3_joint"
    ],
    "metrics": {
        "cart_traj_len": 0.3533978245947705,
        "distance_elbow_joint": 0.4531319130162015,
        "distance_shoulder_lift_joint": 0.2329497120962427,
        "distance_shoulder_pan_joint": 0.4603052974481305,
        "distance_wrist_1_joint": 0.259516169257589,
        "distance_wrist_2_joint": 1.1067347002451748,
        "distance_wrist_3_joint": 0.11040873080824554,
        "smoothness": 2.2204460668324854e-16,
        "time": 5.023440085,
        "traj_len": 1.6195822062716,
        "weighted_distance": 2.0518564408824607
    },
    "planner": "SPARS",
    "start": {
        "state": {
            "elbow_joint": 1.971548259319323,
            "shoulder_lift_joint": -1.1394851275133948,
            "shoulder_pan_joint": 0.1228115487234821,
            "wrist_1_joint": -0.7804723859257726,
            "wrist_2_joint": 0.12958671773740124,
            "wrist_3_joint": -3.192489227718131
        }
    },
    "waypoints": [
        {
            "positions": [
                0.1228115487234821,
                -1.1394851275133948,
                1.971548259319323,
                -0.7804723859257726,
                0.12958671773740124,
                -3.192489227718131
            ]
        },
        {
            "positions": [
                0.0570536490880349,
                -1.172763657812858,
                2.036281389750209,
                -0.8175461243911425,
                0.28769167491528336,
                -3.176716551888382
            ]
        },
        {
            "positions": [
                -0.008704250547412307,
                -1.2060421881123213,
                2.101014520181095,
                -0.8546198628565124,
                0.44579663209316545,
                -3.1609438760586324
            ]
        },
        {
            "positions": [
                -0.07446215018285951,
                -1.2393207184117845,
                2.165747650611981,
                -0.8916936013218821,
                0.6039015892710475,
                -3.145171200228883
            ]
        },
        {
            "positions": [
                -0.1402200498183067,
                -1.2725992487112479,
                2.230480781042867,
                -0.928767339787252,
                0.7620065464489297,
                -3.1293985243991336
            ]
        },
        {
            "positions": [
                -0.20597794945375397,
                -1.305877779010711,
                2.295213911473753,
                -0.9658410782526219,
                0.9201115036268119,
                -3.1136258485693844
            ]
        },
        {
            "positions": [
                -0.2717358490892011,
                -1.3391563093101744,
                2.3599470419046384,
                -1.0029148167179918,
                1.0782164608046938,
                -3.097853172739635
            ]
        },
        {
            "positions": [
                -0.3374937487246484,
                -1.3724348396096375,
                2.4246801723355245,
                -1.0399885551833616,
                1.236321417982576,
                -3.0820804969098856
            ]
        }
    ]
}{
    "goal": {
        "global_pose": {
            "orientation": {
                "w": 0.5084816217422485,
                "x": -0.49083608388900757,
                "y": 0.5182115435600281,
                "z": -0.4816462993621826
            },
            "position": {
                "x": 0.5540239810943604,
                "y": 0.030875300988554955,
                "z": 0.16403168439865112
            }
        },
        "name": "move_to_storage_A"
    },
    "id": "SPARS_move_to_storage_A_36",
    "joint_names": [
        "shoulder_pan_joint",
        "shoulder_lift_joint",
        "elbow_joint",
        "wrist_1_joint",
        "wrist_2_joint",
        "wrist_3_joint"
    ],
    "metrics": {
        "cart_traj_len": 0.35271068434824665,
        "distance_elbow_joint": 0.4483230803476057,
        "distance_shoulder_lift_joint": 0.23290827314830675,
        "distance_shoulder_pan_joint": 0.45984506129809044,
        "distance_wrist_1_joint": 0.23974616975281182,
        "distance_wrist_2_joint": 1.1030053586751583,
        "distance_wrist_3_joint": 0.10218690052997426,
        "smoothness": 4.440892098500626e-16,
        "time": 5.003668387,
        "traj_len": 1.6081090895060406,
        "weighted_distance": 2.0330125856078376
    },
    "planner": "SPARS",
    "start": {
        "state": {
            "elbow_joint": 1.97154746011099,
            "shoulder_lift_joint": -1.13948474672311,
            "shoulder_pan_joint": 0.12281154466712228,
            "wrist_1_joint": -0.7804688027058302,
            "wrist_2_joint": 0.12958655903071145,
            "wrist_3_joint": 3.0906928834467795
        }
    },
    "waypoints": [
        {
            "positions": [
                0.12281154466712228,
                -1.13948474672311,
                1.97154746011099,
                -0.7804688027058302,
                0.12958655903071145,
                3.0906928834467795
            ]
        },
        {
            "positions": [
                0.05711939305310937,
                -1.172757357172868,
                2.035593614446362,
                -0.8147182555276604,
                0.28715875312716266,
                3.1052910120939186
            ]
        },
        {
            "positions": [
                -0.008572758560903546,
                -1.2060299676226263,
                2.0996397687817345,
                -0.8489677083494906,
                0.44473094722361384,
                3.119889140741058
            ]
        },
        {
            "positions": [
                -0.07426491017491647,
                -1.2393025780723843,
                2.163685923117107,
                -0.883217161171321,
                0.602303141320065,
                3.134487269388197
            ]
        },
        {
            "positions": [
                -0.13995706178892936,
                -1.2725751885221424,
                2.2277320774524787,
                -0.9174666139931512,
                0.7598753354165162,
                3.149085398035336
            ]
        },
        {
            "positions": [
                -0.2056492134029423,
                -1.3058477989719006,
                2.291778231787851,
                -0.9517160668149816,
                0.9174475295129674,
                3.163683526682475
            ]
        },
        {
            "positions": [
                -0.2713413650169552,
                -1.3391204094216587,
                2.3558243861232233,
                -0.9859655196368118,
                1.0750197236094186,
                3.1782816553296147
            ]
        },
        {
            "positions": [
                -0.33703351663096814,
                -1.3723930198714167,
                2.4198705404585956,
                -1.020214972458642,
                1.2325919177058697,
                3.1928797839767538
            ]
        }
    ]
}{
    "goal": {
        "global_pose": {
            "orientation": {
                "w": 0.5084816217422485,
                "x": -0.49083608388900757,
                "y": 0.5182115435600281,
                "z": -0.4816462993621826
            },
            "position": {
                "x": 0.5540239810943604,
                "y": 0.030875300988554955,
                "z": 0.16403168439865112
            }
        },
        "name": "move_to_storage_A"
    },
    "id": "SPARS_move_to_storage_A_36",
    "joint_names": [
        "shoulder_pan_joint",
        "shoulder_lift_joint",
        "elbow_joint",
        "wrist_1_joint",
        "wrist_2_joint",
        "wrist_3_joint"
    ],
    "metrics": {
        "cart_traj_len": 0.3532575191655477,
        "distance_elbow_joint": 0.4474131716191381,
        "distance_shoulder_lift_joint": 0.23290969365321845,
        "distance_shoulder_pan_joint": 0.46358813267618165,
        "distance_wrist_1_joint": 0.2359079670277553,
        "distance_wrist_2_joint": 1.0908271078832525,
        "distance_wrist_3_joint": 0.0908549212773977,
        "smoothness": 4.440892098500626e-16,
        "time": 5.056437208,
        "traj_len": 1.6004689919323474,
        "weighted_distance": 2.0174106948270962
    },
    "planner": "SPARS",
    "start": {
        "state": {
            "elbow_joint": 1.9715472970024885,
            "shoulder_lift_joint": -1.1394870060712896,
            "shoulder_pan_joint": 0.12281152778156021,
            "wrist_1_joint": -0.780463741449964,
            "wrist_2_joint": 0.12958659822042276,
            "wrist_3_joint": 3.090690232415272
        }
    },
    "waypoints": [
        {
            "positions": [
                0.12281152778156021,
                -1.1394870060712896,
                1.9715472970024885,
                -0.780463741449964,
                0.12958659822042276,
                3.090690232415272
            ]
        },
        {
            "positions": [
                0.056584651684962836,
                -1.1727598194503208,
                2.035463464376651,
                -0.8141648795967862,
                0.28541904220374453,
                3.1036695068834717
            ]
        },
        {
            "positions": [
                -0.009642224411634537,
                -1.206032632829352,
                2.0993796317508138,
                -0.8478660177436084,
                0.44125148618706633,
                3.116648781351671
            ]
        },
        {
            "positions": [
                -0.0758691005082319,
                -1.2393054462083832,
                2.163295799124976,
                -0.8815671558904306,
                0.5970839301703881,
                3.129628055819871
            ]
        },
        {
            "positions": [
                -0.14209597660482928,
                -1.2725782595874144,
                2.227211966499139,
                -0.9152682940372527,
                0.7529163741537098,
                3.1426073302880706
            ]
        },
        {
            "positions": [
                -0.20832285270142667,
                -1.3058510729664456,
                2.2911281338733014,
                -0.9489694321840749,
                0.9087488181370317,
                3.1555866047562704
            ]
        },
        {
            "positions": [
                -0.274549728798024,
                -1.3391238863454769,
                2.3550443012474638,
                -0.9826705703308971,
                1.0645812621203534,
                3.1685658792244698
            ]
        },
        {
            "positions": [
                -0.3407766048946214,
                -1.372396699724508,
                2.4189604686216266,
                -1.0163717084777193,
                1.2204137061036753,
                3.1815451536926695
            ]
        }
    ]
}