{
    "goal": {
        "global_pose": {
            "orientation": {
                "w": 0.7031023480610252,
                "x": -0.7110244013736278,
                "y": 0.0077485991402295624,
                "z": 0.005598929693374583
            },
            "position": {
                "x": -0.8841497679147869,
                "y": 0.44412534475326537,
                "z": 0.3711530566215515
            }
        },
        "name": "move_to_auspresseinheit_D"
    },
    "id": "SPARStwo_move_to_auspresseinheit_D_89",
    "joint_names": [
        "shoulder_pan_joint",
        "shoulder_lift_joint",
        "elbow_joint",
        "wrist_1_joint",
        "wrist_2_joint",
        "wrist_3_joint"
    ],
    "metrics": {
        "cart_traj_len": 0.3421428019880842,
        "distance_elbow_joint": 0.6317313033195828,
        "distance_shoulder_lift_joint": 0.11769905662249691,
        "distance_shoulder_pan_joint": 0.1330158796712659,
        "distance_wrist_1_joint": 0.5140399275627083,
        "distance_wrist_2_joint": 1.4362247943146627,
        "distance_wrist_3_joint": 0.011848969536264686,
        "smoothness": 0.0,
        "time": 5.005024415,
        "traj_len": 1.6865823226356256,
        "weighted_distance": 2.1951133437653922
    },
    "planner": "SPARStwo",
    "start": {
        "state": {
            "elbow_joint": -1.8275523626775212,
            "shoulder_lift_joint": -2.126789852344167,
            "shoulder_pan_joint": -0.03513704404078235,
            "wrist_1_joint": -2.347782403156801,
            "wrist_2_joint": -1.6058999987535132,
            "wrist_3_joint": -3.0880379163319196
        }
    },
    "waypoints": [
        {
            "positions": [
                -0.03513704404078235,
                -2.126789852344167,
                -1.8275523626775212,
                -2.347782403156801,
                -1.6058999987535132,
                -3.0880379163319196
            ]
        },
        {
            "positions": [
                -0.051764028999690584,
                -2.1415022344219787,
                -1.7485859497625733,
                -2.4120373941021396,
                -1.4263718994641803,
                -3.0895190375239525
            ]
        },
        {
            "positions": [
                -0.06839101395859883,
                -2.156214616499791,
                -1.6696195368476254,
                -2.476292385047478,
                -1.2468438001748474,
                -3.091000158715986
            ]
        },
        {
            "positions": [
                -0.08501799891750705,
                -2.1709269985776034,
                -1.5906531239326775,
                -2.5405473759928165,
                -1.0673157008855148,
                -3.092481279908019
            ]
        },
        {
            "positions": [
                -0.1016449838764153,
                -2.1856393806554153,
                -1.5116867110177297,
                -2.604802366938155,
                -0.8877876015961819,
                -3.093962401100052
            ]
        },
        {
            "positions": [
                -0.11827196883532354,
                -2.200351762733227,
                -1.4327202981027818,
                -2.6690573578834935,
                -0.708259502306849,
                -3.095443522292085
            ]
        },
        {
            "positions": [
                -0.13489895379423178,
                -2.2150641448110395,
                -1.3537538851878341,
                -2.7333123488288322,
                -0.5287314030175163,
                -3.096924643484118
            ]
        },
        {
            "positions": [
                -0.15152593875314002,
                -2.229776526888852,
                -1.2747874722728862,
                -2.7975673397741705,
                -0.3492033037281834,
                -3.0984057646761514
            ]
        },
        {
            "positions": [
                -0.16815292371204826,
                -2.2444889089666638,
                -1.1958210593579384,
                -2.861822330719509,
                -0.16967520443885062,
                -3.0998868858681843
            ]
        }
    ]
}