{
    "goal": {
        "global_pose": {
            "orientation": {
                "w": 0.5084816217422485,
                "x": -0.49083608388900757,
                "y": 0.5182115435600281,
                "z": -0.4816462993621826
            },
            "position": {
                "x": 0.5540239810943604,
                "y": 0.030875300988554955,
                "z": 0.16403168439865112
            }
        },
        "name": "move_to_storage_A"
    },
    "id": "SPARS_move_to_storage_A_137",
    "joint_names": [
        "shoulder_pan_joint",
        "shoulder_lift_joint",
        "elbow_joint",
        "wrist_1_joint",
        "wrist_2_joint",
        "wrist_3_joint"
    ],
    "metrics": {
        "cart_traj_len": 0.3533368780758174,
        "distance_elbow_joint": 0.44981264533431076,
        "distance_shoulder_lift_joint": 0.23586990896184612,
        "distance_shoulder_pan_joint": 0.463837309181133,
        "distance_wrist_1_joint": 0.24018342011104987,
        "distance_wrist_2_joint": 1.0922076890052175,
        "distance_wrist_3_joint": 0.09669110544917192,
        "smoothness": 6.661338165333112e-16,
        "time": 5.011542726,
        "traj_len": 1.6058026273620085,
        "weighted_distance": 2.0259258125749176
    },
    "planner": "SPARS",
    "start": {
        "state": {
            "elbow_joint": 1.971548259319323,
            "shoulder_lift_joint": -1.1394851275133948,
            "shoulder_pan_joint": 0.1228115487234821,
            "wrist_1_joint": -0.7804723859257726,
            "wrist_2_joint": 0.12958671773740124,
            "wrist_3_joint": -3.192489227718131
        }
    },
    "waypoints": [
        {
            "positions": [
                0.1228115487234821,
                -1.1394851275133948,
                1.971548259319323,
                -0.7804723859257726,
                0.12958671773740124,
                -3.192489227718131
            ]
        },
        {
            "positions": [
                0.05654907598332025,
                -1.1731808287936585,
                2.035807208652796,
                -0.814784303084494,
                0.28561638759528946,
                -3.1786762126539636
            ]
        },
        {
            "positions": [
                -0.009713396756841602,
                -1.2068765300739224,
                2.100066157986269,
                -0.8490962202432154,
                0.44164605745317764,
                -3.1648631975897965
            ]
        },
        {
            "positions": [
                -0.07597586949700344,
                -1.240572231354186,
                2.164325107319742,
                -0.8834081374019368,
                0.5976757273110659,
                -3.151050182525629
            ]
        },
        {
            "positions": [
                -0.1422383422371653,
                -1.2742679326344497,
                2.2285840566532147,
                -0.9177200545606583,
                0.7537053971689541,
                -3.1372371674614614
            ]
        },
        {
            "positions": [
                -0.2085008149773272,
                -1.3079636339147136,
                2.292843005986688,
                -0.9520319717193797,
                0.9097350670268424,
                -3.123424152397294
            ]
        },
        {
            "positions": [
                -0.274763287717489,
                -1.3416593351949773,
                2.357101955320161,
                -0.9863438888781011,
                1.0657647368847305,
                -3.1096111373331268
            ]
        },
        {
            "positions": [
                -0.3410257604576509,
                -1.375355036475241,
                2.4213609046536337,
                -1.0206558060368225,
                1.2217944067426187,
                -3.0957981222689592
            ]
        }
    ]
}{
    "goal": {
        "global_pose": {
            "orientation": {
                "w": 0.5084816217422485,
                "x": -0.49083608388900757,
                "y": 0.5182115435600281,
                "z": -0.4816462993621826
            },
            "position": {
                "x": 0.5540239810943604,
                "y": 0.030875300988554955,
                "z": 0.16403168439865112
            }
        },
        "name": "move_to_storage_A"
    },
    "id": "SPARS_move_to_storage_A_137",
    "joint_names": [
        "shoulder_pan_joint",
        "shoulder_lift_joint",
        "elbow_joint",
        "wrist_1_joint",
        "wrist_2_joint",
        "wrist_3_joint"
    ],
    "metrics": {
        "cart_traj_len": 0.3531211012033261,
        "distance_elbow_joint": 0.44873797932367676,
        "distance_shoulder_lift_joint": 0.23594771809162918,
        "distance_shoulder_pan_joint": 0.46149683869088004,
        "distance_wrist_1_joint": 0.239600248512146,
        "distance_wrist_2_joint": 1.1002185900522385,
        "distance_wrist_3_joint": 0.09625831929932716,
        "smoothness": 4.440892098500626e-16,
        "time": 5.031797182,
        "traj_len": 1.606941098475578,
        "weighted_distance": 2.0284464920556657
    },
    "planner": "SPARS",
    "start": {
        "state": {
            "elbow_joint": 1.97154746011099,
            "shoulder_lift_joint": -1.13948474672311,
            "shoulder_pan_joint": 0.12281154466712228,
            "wrist_1_joint": -0.7804688027058302,
            "wrist_2_joint": 0.12958655903071145,
            "wrist_3_joint": 3.0906928834467795
        }
    },
    "waypoints": [
        {
            "positions": [
                0.12281154466712228,
                -1.13948474672311,
                1.97154746011099,
                -0.7804688027058302,
                0.12958655903071145,
                3.0906928834467795
            ]
        },
        {
            "positions": [
                0.05688342485413943,
                -1.1731915635933428,
                2.035652885728658,
                -0.8146974096361368,
                0.2867606433238884,
                3.104444071918112
            ]
        },
        {
            "positions": [
                -0.009044694958843427,
                -1.2068983804635753,
                2.099758311346326,
                -0.8489260165664433,
                0.4439347276170653,
                3.1181952603894443
            ]
        },
        {
            "positions": [
                -0.07497281477182628,
                -1.2406051973338081,
                2.1638637369639944,
                -0.8831546234967499,
                0.6011088119102422,
                3.1319464488607767
            ]
        },
        {
            "positions": [
                -0.14090093458480912,
                -1.274312014204041,
                2.227969162581662,
                -0.9173832304270565,
                0.7582828962034192,
                3.1456976373321095
            ]
        },
        {
            "positions": [
                -0.20682905439779203,
                -1.3080188310742737,
                2.2920745881993305,
                -0.951611837357363,
                0.9154569804965962,
                3.159448825803442
            ]
        },
        {
            "positions": [
                -0.27275717421077483,
                -1.3417256479445063,
                2.3561800138169984,
                -0.9858404442876696,
                1.072631064789773,
                3.1732000142747743
            ]
        },
        {
            "positions": [
                -0.33868529402375774,
                -1.3754324648147391,
                2.4202854394346667,
                -1.0200690512179762,
                1.22980514908295,
                3.1869512027461067
            ]
        }
    ]
}{
    "goal": {
        "global_pose": {
            "orientation": {
                "w": 0.5084816217422485,
                "x": -0.49083608388900757,
                "y": 0.5182115435600281,
                "z": -0.4816462993621826
            },
            "position": {
                "x": 0.5540239810943604,
                "y": 0.030875300988554955,
                "z": 0.16403168439865112
            }
        },
        "name": "move_to_storage_A"
    },
    "id": "SPARS_move_to_storage_A_137",
    "joint_names": [
        "shoulder_pan_joint",
        "shoulder_lift_joint",
        "elbow_joint",
        "wrist_1_joint",
        "wrist_2_joint",
        "wrist_3_joint"
    ],
    "metrics": {
        "cart_traj_len": 0.35321735729574755,
        "distance_elbow_joint": 0.4519447239975154,
        "distance_shoulder_lift_joint": 0.23380957375166922,
        "distance_shoulder_pan_joint": 0.46307838226646086,
        "distance_wrist_1_joint": 0.25385709763582365,
        "distance_wrist_2_joint": 1.0936326711522197,
        "distance_wrist_3_joint": 0.09164804422449135,
        "smoothness": 4.440892098500626e-16,
        "time": 5.00727201,
        "traj_len": 1.6087170332374119,
        "weighted_distance": 2.0294719387725486
    },
    "planner": "SPARS",
    "start": {
        "state": {
            "elbow_joint": 1.9715472970024885,
            "shoulder_lift_joint": -1.1394870060712896,
            "shoulder_pan_joint": 0.12281152778156021,
            "wrist_1_joint": -0.780463741449964,
            "wrist_2_joint": 0.12958659822042276,
            "wrist_3_joint": 3.090690232415272
        }
    },
    "waypoints": [
        {
            "positions": [
                0.12281152778156021,
                -1.1394870060712896,
                1.9715472970024885,
                -0.780463741449964,
                0.12958659822042276,
                3.090690232415272
            ]
        },
        {
            "positions": [
                0.056657473172065806,
                -1.1728883737500995,
                2.0361108290021335,
                -0.8167290411122246,
                0.28581983695645413,
                3.103782810161628
            ]
        },
        {
            "positions": [
                -0.009496581437428597,
                -1.2062897414289093,
                2.100674361001779,
                -0.852994340774485,
                0.44205307569248553,
                3.116875387907984
            ]
        },
        {
            "positions": [
                -0.07565063604692299,
                -1.2396911091077192,
                2.1652378930014238,
                -0.8892596404367455,
                0.5982863144285169,
                3.1299679656543398
            ]
        },
        {
            "positions": [
                -0.1418046906564174,
                -1.273092476786529,
                2.2298014250010687,
                -0.9255249400990061,
                0.7545195531645482,
                3.1430605434006953
            ]
        },
        {
            "positions": [
                -0.20795874526591182,
                -1.3064938444653391,
                2.294364957000714,
                -0.9617902397612665,
                0.9107527919005797,
                3.1561531211470513
            ]
        },
        {
            "positions": [
                -0.27411279987540615,
                -1.339895212144149,
                2.358928489000359,
                -0.9980555394235271,
                1.066986030636611,
                3.1692456988934072
            ]
        },
        {
            "positions": [
                -0.3402668544849006,
                -1.3732965798229588,
                2.423492021000004,
                -1.0343208390857876,
                1.2232192693726425,
                3.182338276639763
            ]
        }
    ]
}