{
    "goal": {
        "global_pose": {
            "orientation": {
                "w": 0.7031023502349854,
                "x": -0.7110244035720825,
                "y": 0.007748599164187908,
                "z": 0.005598929710686207
            },
            "position": {
                "x": 0.11585023208521307,
                "y": 0.44412534475326537,
                "z": 0.3711530566215515
            }
        },
        "name": "move_to_auspresseinheit_A"
    },
    "id": "SPARS_move_to_auspresseinheit_A_29",
    "joint_names": [
        "shoulder_pan_joint",
        "shoulder_lift_joint",
        "elbow_joint",
        "wrist_1_joint",
        "wrist_2_joint",
        "wrist_3_joint"
    ],
    "metrics": {
        "cart_traj_len": 1.0811029618057169,
        "distance_elbow_joint": 0.2495143689035495,
        "distance_shoulder_lift_joint": 0.536647622333039,
        "distance_shoulder_pan_joint": 2.000958343621754,
        "distance_wrist_1_joint": 0.5672690954007498,
        "distance_wrist_2_joint": 0.6834754122233735,
        "distance_wrist_3_joint": 2.162965178958874,
        "smoothness": 1.0995083855911618,
        "time": 5.092433111,
        "traj_len": 2.4901465863361016,
        "weighted_distance": 3.4318369551864225
    },
    "planner": "SPARS",
    "start": {
        "state": {
            "elbow_joint": 2.4225746658250005,
            "shoulder_lift_joint": -1.3736534386056498,
            "shoulder_pan_joint": -0.3378633547517467,
            "wrist_1_joint": -1.0288598680537169,
            "wrist_2_joint": 1.233022673432363,
            "wrist_3_joint": -3.0940220416140027
        }
    },
    "waypoints": [
        {
            "positions": [
                -0.3378633547517467,
                -1.3736534386056498,
                2.4225746658250005,
                -1.0288598680537169,
                1.233022673432363,
                -3.0940220416140027
            ]
        },
        {
            "positions": [
                -0.3975393689493933,
                -1.4048445557889386,
                2.4051442869369977,
                -0.9751591184258727,
                1.1580228471298972,
                -2.961120235605968
            ]
        },
        {
            "positions": [
                -0.4572153831470399,
                -1.4360356729722275,
                2.387713908048995,
                -0.9214583687980283,
                1.0830230208274312,
                -2.828218429597933
            ]
        },
        {
            "positions": [
                -0.5168913973446865,
                -1.4672267901555163,
                2.3702835291609916,
                -0.8677576191701841,
                1.0080231945249654,
                -2.695316623589898
            ]
        },
        {
            "positions": [
                -0.576567411542333,
                -1.4984179073388053,
                2.352853150272989,
                -0.8140568695423398,
                0.9330233682224995,
                -2.562414817581863
            ]
        },
        {
            "positions": [
                -0.6362434257399796,
                -1.5296090245220941,
                2.335422771384986,
                -0.7603561199144956,
                0.8580235419200337,
                -2.429513011573828
            ]
        },
        {
            "positions": [
                -0.6959194399376263,
                -1.560800141705383,
                2.3179923924969827,
                -0.7066553702866514,
                0.7830237156175678,
                -2.2966112055657932
            ]
        },
        {
            "positions": [
                -0.7555954541352728,
                -1.5919912588886718,
                2.30056201360898,
                -0.652954620658807,
                0.7080238893151019,
                -2.1637093995577583
            ]
        },
        {
            "positions": [
                -0.8152714683329194,
                -1.6231823760719606,
                2.283131634720977,
                -0.5992538710309628,
                0.633024063012636,
                -2.0308075935497234
            ]
        },
        {
            "positions": [
                -0.6459881094395216,
                -1.6550844521682637,
                2.295361783365369,
                -0.5839579712111855,
                0.6422992632130412,
                -2.1530021192046784
            ]
        },
        {
            "positions": [
                -0.47670475054612366,
                -1.6869865282645669,
                2.307591932009761,
                -0.5686620713914082,
                0.6515744634134464,
                -2.2751966448596335
            ]
        },
        {
            "positions": [
                -0.30742139165272575,
                -1.71888860436087,
                2.3198220806541525,
                -0.5533661715716309,
                0.6608496636138516,
                -2.3973911705145885
            ]
        },
        {
            "positions": [
                -0.1381380327593279,
                -1.7507906804571731,
                2.332052229298544,
                -0.5380702717518536,
                0.6701248638142567,
                -2.5195856961695435
            ]
        },
        {
            "positions": [
                0.03114532613407006,
                -1.7826927565534763,
                2.3442823779429363,
                -0.5227743719320763,
                0.6794000640146618,
                -2.641780221824498
            ]
        },
        {
            "positions": [
                0.2004286850274679,
                -1.8145948326497794,
                2.356512526587328,
                -0.507478472112299,
                0.688675264215067,
                -2.763974747479453
            ]
        },
        {
            "positions": [
                0.3697120439208659,
                -1.8464969087460825,
                2.3687426752317196,
                -0.49218257229252177,
                0.6979504644154721,
                -2.886169273134408
            ]
        },
        {
            "positions": [
                0.5389954028142636,
                -1.8783989848423857,
                2.3809728238761116,
                -0.47688667247274447,
                0.7072256646158773,
                -3.008363798789363
            ]
        },
        {
            "positions": [
                0.7082787617076617,
                -1.9103010609386888,
                2.3932029725205033,
                -0.46159077265296716,
                0.7165008648162825,
                -3.1305583244443183
            ]
        }
    ]
}