{
    "goal": {
        "global_pose": {
            "orientation": {
                "w": 0.005598929693374612,
                "x": 0.007748599140229565,
                "y": 0.7110244013736278,
                "z": -0.7031023480610252
            },
            "position": {
                "x": 0.1141497679147869,
                "y": -0.7141253447532654,
                "z": 0.3711530566215515
            }
        },
        "name": "move_to_auspresseinheit_B"
    },
    "id": "SPARS_move_to_auspresseinheit_B_74",
    "joint_names": [
        "shoulder_pan_joint",
        "shoulder_lift_joint",
        "elbow_joint",
        "wrist_1_joint",
        "wrist_2_joint",
        "wrist_3_joint"
    ],
    "metrics": {
        "cart_traj_len": 0.5649510498392796,
        "distance_elbow_joint": 0.060196420422154784,
        "distance_shoulder_lift_joint": 0.294445760430754,
        "distance_shoulder_pan_joint": 0.5784297680131718,
        "distance_wrist_1_joint": 0.3163547069406847,
        "distance_wrist_2_joint": 0.9884549650269132,
        "distance_wrist_3_joint": 0.0055555990715707715,
        "smoothness": 0.0,
        "time": 5.0277729749999995,
        "traj_len": 1.4978108091161744,
        "weighted_distance": 1.886626112937057
    },
    "planner": "SPARS",
    "start": {
        "state": {
            "elbow_joint": 2.0193083361928714,
            "shoulder_lift_joint": -1.1220246554650708,
            "shoulder_pan_joint": -1.0952077554168747,
            "wrist_1_joint": -0.8559753972642168,
            "wrist_2_joint": 0.4759566250798843,
            "wrist_3_joint": -3.1240929996934557
        }
    },
    "waypoints": [
        {
            "positions": [
                -1.0952077554168747,
                -1.1220246554650708,
                2.0193083361928714,
                -0.8559753972642168,
                0.4759566250798843,
                -3.1240929996934557
            ]
        },
        {
            "positions": [
                -1.1916127167524033,
                -1.1710989488701964,
                2.0092755994558456,
                -0.8032496127741027,
                0.6406991192510365,
                -3.1250189328720506
            ]
        },
        {
            "positions": [
                -1.288017678087932,
                -1.2201732422753222,
                1.99924286271882,
                -0.7505238282839886,
                0.8054416134221887,
                -3.125944866050646
            ]
        },
        {
            "positions": [
                -1.3844226394234607,
                -1.2692475356804478,
                1.989210125981794,
                -0.6977980437938744,
                0.9701841075933408,
                -3.1268707992292413
            ]
        },
        {
            "positions": [
                -1.4808276007589891,
                -1.3183218290855734,
                1.9791773892447682,
                -0.6450722593037603,
                1.134926601764493,
                -3.127796732407836
            ]
        },
        {
            "positions": [
                -1.5772325620945178,
                -1.3673961224906992,
                1.9691446525077425,
                -0.5923464748136462,
                1.2996690959356454,
                -3.128722665586431
            ]
        },
        {
            "positions": [
                -1.6736375234300465,
                -1.4164704158958248,
                1.9591119157707166,
                -0.5396206903235321,
                1.4644115901067976,
                -3.1296485987650264
            ]
        }
    ]
}