{
    "goal": {
        "global_pose": {
            "orientation": {
                "w": 0.7047431493862688,
                "x": -0.7094548369677653,
                "y": 0.0024358444001904,
                "z": -0.0022348060817251984
            },
            "position": {
                "x": -0.39052492380142206,
                "y": 0.3671506643295288,
                "z": 0.19426114857196808
            }
        },
        "name": "move_to_magneteinheit_D"
    },
    "id": "SPARS_move_to_magneteinheit_D_4",
    "joint_names": [
        "shoulder_pan_joint",
        "shoulder_lift_joint",
        "elbow_joint",
        "wrist_1_joint",
        "wrist_2_joint",
        "wrist_3_joint"
    ],
    "metrics": {
        "cart_traj_len": 5.057908554807981,
        "distance_elbow_joint": 3.215905419066079,
        "distance_shoulder_lift_joint": 1.2070198356073232,
        "distance_shoulder_pan_joint": 3.7421342737450494,
        "distance_wrist_1_joint": 2.3839425691992657,
        "distance_wrist_2_joint": 3.151799858051406,
        "distance_wrist_3_joint": 6.277603329736198,
        "smoothness": 0.34715086514653987,
        "time": 5.046969359,
        "traj_len": 4.469720940439717,
        "weighted_distance": 6.170036820970225
    },
    "planner": "SPARS",
    "start": {
        "state": {
            "elbow_joint": 0.749534889911806,
            "shoulder_lift_joint": -0.6476975780787326,
            "shoulder_pan_joint": -2.711696901376241,
            "wrist_1_joint": -0.07506478083263063,
            "wrist_2_joint": 0.43296659715538205,
            "wrist_3_joint": -3.14703540197715
        }
    },
    "waypoints": [
        {
            "positions": [
                -2.711696901376241,
                -0.6476975780787326,
                0.749534889911806,
                -0.07506478083263063,
                0.43296659715538205,
                -3.14703540197715
            ]
        },
        {
            "positions": [
                -2.830507333415,
                -0.6865817639426782,
                0.766362145646065,
                -0.11728796230727295,
                0.34336913688422077,
                -3.0835511221141823
            ]
        },
        {
            "positions": [
                -2.9493177654537583,
                -0.7254659498066237,
                0.783189401380324,
                -0.15951114378191528,
                0.25377167661305944,
                -3.020066842251214
            ]
        },
        {
            "positions": [
                -3.068128197492517,
                -0.7643501356705693,
                0.800016657114583,
                -0.2017343252565576,
                0.1641742163418982,
                -2.9565825623882462
            ]
        },
        {
            "positions": [
                -2.9856604573551406,
                -0.7915623847990116,
                0.7431734754806822,
                -0.2572969113284762,
                0.19747962815980338,
                -2.819888669060171
            ]
        },
        {
            "positions": [
                -2.903192717217764,
                -0.818774633927454,
                0.6863302938467815,
                -0.31285949740039487,
                0.2307850399777086,
                -2.6831947757320953
            ]
        },
        {
            "positions": [
                -2.8207249770803875,
                -0.8459868830558963,
                0.6294871122128807,
                -0.36842208347231353,
                0.2640904517956138,
                -2.54650088240402
            ]
        },
        {
            "positions": [
                -2.738257236943011,
                -0.8731991321843386,
                0.5726439305789799,
                -0.42398466954423214,
                0.297395863613519,
                -2.4098069890759444
            ]
        },
        {
            "positions": [
                -2.6557894968056344,
                -0.900411381312781,
                0.5158007489450791,
                -0.4795472556161508,
                0.3307012754314242,
                -2.273113095747869
            ]
        },
        {
            "positions": [
                -2.573321756668258,
                -0.9276236304412233,
                0.4589575673111784,
                -0.5351098416880694,
                0.3640066872493294,
                -2.1364192024197934
            ]
        },
        {
            "positions": [
                -2.4908540165308812,
                -0.9548358795696656,
                0.40211438567727764,
                -0.5906724277599881,
                0.39731209906723464,
                -1.9997253090917182
            ]
        },
        {
            "positions": [
                -2.4083862763935047,
                -0.982048128698108,
                0.34527120404337686,
                -0.6462350138319066,
                0.4306175108851398,
                -1.8630314157636427
            ]
        },
        {
            "positions": [
                -2.325918536256128,
                -1.0092603778265503,
                0.28842802240947607,
                -0.7017975999038253,
                0.463922922703045,
                -1.7263375224355673
            ]
        },
        {
            "positions": [
                -2.2434507961187515,
                -1.0364726269549926,
                0.23158484077557528,
                -0.757360185975744,
                0.49722833452095017,
                -1.5896436291074918
            ]
        },
        {
            "positions": [
                -2.160983055981375,
                -1.063684876083435,
                0.1747416591416745,
                -0.8129227720476626,
                0.5305337463388554,
                -1.452949735779416
            ]
        },
        {
            "positions": [
                -2.0785153158439984,
                -1.0908971252118773,
                0.11789847750777382,
                -0.8684853581195813,
                0.5638391581567606,
                -1.3162558424513409
            ]
        },
        {
            "positions": [
                -1.996047575706622,
                -1.1181093743403197,
                0.06105529587387293,
                -0.9240479441914999,
                0.5971445699746658,
                -1.1795619491232652
            ]
        },
        {
            "positions": [
                -1.9135798355692455,
                -1.145321623468762,
                0.004212114239972253,
                -0.9796105302634186,
                0.6304499817925711,
                -1.04286805579519
            ]
        },
        {
            "positions": [
                -1.831112095431869,
                -1.1725338725972043,
                -0.05263106739392864,
                -1.0351731163353373,
                0.6637553936104763,
                -0.9061741624671145
            ]
        },
        {
            "positions": [
                -1.7486443552944924,
                -1.1997461217256467,
                -0.10947424902782932,
                -1.0907357024072557,
                0.6970608054283814,
                -0.7694802691390392
            ]
        },
        {
            "positions": [
                -1.6661766151571158,
                -1.226958370854089,
                -0.1663174306617301,
                -1.1462982884791744,
                0.7303662172462867,
                -0.6327863758109635
            ]
        },
        {
            "positions": [
                -1.5837088750197392,
                -1.2541706199825313,
                -0.2231606122956309,
                -1.201860874551093,
                0.7636716290641918,
                -0.4960924824828883
            ]
        },
        {
            "positions": [
                -1.5012411348823627,
                -1.2813828691109737,
                -0.2800037939295317,
                -1.2574234606230117,
                0.7969770408820971,
                -0.3593985891548126
            ]
        },
        {
            "positions": [
                -1.418773394744986,
                -1.308595118239416,
                -0.33684697556343246,
                -1.3129860466949304,
                0.8302824527000022,
                -0.22270469582673735
            ]
        },
        {
            "positions": [
                -1.3363056546076093,
                -1.3358073673678583,
                -0.39369015719733325,
                -1.368548632766849,
                0.8635878645179076,
                -0.08601080249866122
            ]
        },
        {
            "positions": [
                -1.253837914470233,
                -1.3630196164963007,
                -0.45053333883123403,
                -1.4241112188387677,
                0.8968932763358127,
                0.050683090829414024
            ]
        },
        {
            "positions": [
                -1.1713701743328564,
                -1.390231865624743,
                -0.5073765204651348,
                -1.4796738049106863,
                0.9301986881537179,
                0.18737698415748927
            ]
        },
        {
            "positions": [
                -1.08890243419548,
                -1.4174441147531853,
                -0.5642197020990354,
                -1.5352363909826048,
                0.963504099971623,
                0.3240708774855645
            ]
        },
        {
            "positions": [
                -1.006434694058103,
                -1.4446563638816277,
                -0.6210628837329364,
                -1.5907989770545237,
                0.9968095117895284,
                0.4607647708136402
            ]
        },
        {
            "positions": [
                -0.9239669539207269,
                -1.47186861301007,
                -0.6779060653668372,
                -1.646361563126442,
                1.0301149236074334,
                0.5974586641417159
            ]
        },
        {
            "positions": [
                -0.8414992137833504,
                -1.4990808621385123,
                -0.7347492470007377,
                -1.7019241491983608,
                1.0634203354253386,
                0.7341525574697911
            ]
        },
        {
            "positions": [
                -0.7590314736459738,
                -1.5262931112669547,
                -0.7915924286346385,
                -1.7574867352702794,
                1.096725747243244,
                0.8708464507978664
            ]
        },
        {
            "positions": [
                -0.6765637335085968,
                -1.553505360395397,
                -0.8484356102685395,
                -1.813049321342198,
                1.1300311590611491,
                1.007540344125942
            ]
        },
        {
            "positions": [
                -0.5940959933712207,
                -1.5807176095238393,
                -0.9052787919024403,
                -1.8686119074141168,
                1.1633365708790544,
                1.1442342374540173
            ]
        },
        {
            "positions": [
                -0.5116282532338441,
                -1.6079298586522817,
                -0.9621219735363409,
                -1.9241744934860354,
                1.1966419826969594,
                1.280928130782093
            ]
        },
        {
            "positions": [
                -0.4291605130964675,
                -1.635142107780724,
                -1.0189651551702417,
                -1.9797370795579539,
                1.2299473945148647,
                1.4176220241101678
            ]
        },
        {
            "positions": [
                -0.34669277295909096,
                -1.6623543569091663,
                -1.0758083368041427,
                -2.0352996656298727,
                1.26325280633277,
                1.5543159174382444
            ]
        },
        {
            "positions": [
                -0.2642250328217144,
                -1.6895666060376087,
                -1.1326515184380432,
                -2.0908622517017914,
                1.2965582181506752,
                1.6910098107663192
            ]
        },
        {
            "positions": [
                -0.18175729268433782,
                -1.716778855166051,
                -1.189494700071944,
                -2.14642483777371,
                1.3298636299685802,
                1.8277037040943949
            ]
        },
        {
            "positions": [
                -0.09928955254696126,
                -1.7439911042944933,
                -1.2463378817058448,
                -2.2019874238456287,
                1.3631690417864855,
                1.9643975974224697
            ]
        },
        {
            "positions": [
                -0.01682181240958469,
                -1.7712033534229357,
                -1.3031810633397458,
                -2.2575500099175474,
                1.3964744536043907,
                2.1010914907505454
            ]
        },
        {
            "positions": [
                0.06564592772779168,
                -1.798415602551378,
                -1.3600242449736462,
                -2.313112595989466,
                1.429779865422296,
                2.2377853840786206
            ]
        },
        {
            "positions": [
                0.044574101769854484,
                -1.7933235036447588,
                -1.4606283185980837,
                -2.2980911840818354,
                1.286436916334904,
                2.316795425232373
            ]
        },
        {
            "positions": [
                0.023502275811917286,
                -1.7882314047381396,
                -1.5612323922225213,
                -2.283069772174205,
                1.1430939672475122,
                2.395805466386125
            ]
        },
        {
            "positions": [
                0.0024304498539800823,
                -1.7831393058315201,
                -1.6618364658469589,
                -2.268048360266574,
                0.9997510181601206,
                2.4748155075398772
            ]
        },
        {
            "positions": [
                -0.018641376103957108,
                -1.778047206924901,
                -1.7624405394713965,
                -2.2530269483589436,
                0.8564080690727287,
                2.5538255486936294
            ]
        },
        {
            "positions": [
                -0.039713202061894326,
                -1.7729551080182817,
                -1.863044613095834,
                -2.2380055364513134,
                0.7130651199853368,
                2.6328355898473816
            ]
        },
        {
            "positions": [
                -0.060785028019831516,
                -1.7678630091116625,
                -1.9636486867202716,
                -2.2229841245436828,
                0.5697221708979451,
                2.711845631001134
            ]
        },
        {
            "positions": [
                -0.0818568539777687,
                -1.762770910205043,
                -2.064252760344709,
                -2.207962712636052,
                0.4263792218105531,
                2.790855672154886
            ]
        },
        {
            "positions": [
                -0.1029286799357059,
                -1.7576788112984238,
                -2.1648568339691465,
                -2.1929413007284215,
                0.28303627272316145,
                2.8698657133086383
            ]
        },
        {
            "positions": [
                -0.1240005058936431,
                -1.7525867123918046,
                -2.2654609075935843,
                -2.177919888820791,
                0.13969332363576958,
                2.9488757544623905
            ]
        },
        {
            "positions": [
                -0.15514171528715764,
                -1.7473502519042525,
                -2.3154339511711513,
                -2.172568865383913,
                -0.023964319549729052,
                3.0397218411107176
            ]
        },
        {
            "positions": [
                -0.1862829246806722,
                -1.7421137914167002,
                -2.3654069947487177,
                -2.1672178419470356,
                -0.1876219627352277,
                3.130567927759045
            ]
        }
    ]
}