{
    "goal": {
        "global_pose": {
            "orientation": {
                "w": -0.4816463035849501,
                "x": 0.5182115481033762,
                "y": 0.4908360881923453,
                "z": -0.5084816262002911
            },
            "position": {
                "x": -0.8240239810943604,
                "y": 0.19912469901144506,
                "z": 0.16403168439865112
            }
        },
        "name": "move_to_storage_D"
    },
    "id": "SPARS_move_to_storage_D_12",
    "joint_names": [
        "shoulder_pan_joint",
        "shoulder_lift_joint",
        "elbow_joint",
        "wrist_1_joint",
        "wrist_2_joint",
        "wrist_3_joint"
    ],
    "metrics": {
        "cart_traj_len": 3.816279562915487,
        "distance_elbow_joint": 4.438323125472465,
        "distance_shoulder_lift_joint": 1.2647381982889307,
        "distance_shoulder_pan_joint": 2.812650568062054,
        "distance_wrist_1_joint": 2.3571513823282686,
        "distance_wrist_2_joint": 2.248271916955074,
        "distance_wrist_3_joint": 3.1431008236506264,
        "smoothness": 0.28741711909430856,
        "time": 5.076922334,
        "traj_len": 4.0328942479015515,
        "weighted_distance": 5.2111285688746944
    },
    "planner": "SPARS",
    "start": {
        "state": {
            "elbow_joint": -2.384821988534728,
            "shoulder_lift_joint": -2.2788054721415256,
            "shoulder_pan_joint": -0.1854694642142757,
            "wrist_1_joint": 1.4845938289331202,
            "wrist_2_joint": 0.17898776772866878,
            "wrist_3_joint": 0.037105688729662994
        }
    },
    "waypoints": [
        {
            "positions": [
                -0.1854694642142757,
                -2.2788054721415256,
                -2.384821988534728,
                1.4845938289331202,
                0.17898776772866878,
                0.037105688729662994
            ]
        },
        {
            "positions": [
                -0.14777120421015724,
                -2.25312265835035,
                -2.498126459729042,
                1.5223421669171056,
                0.0789631788196813,
                0.048744375556071654
            ]
        },
        {
            "positions": [
                -0.06899978039965761,
                -2.204894643754606,
                -2.4438070487810153,
                1.4035382412661934,
                0.037106716583130486,
                0.08449071193558101
            ]
        },
        {
            "positions": [
                0.009771643410842024,
                -2.156666629158862,
                -2.3894876378329886,
                1.2847343156152815,
                -0.004749745653420331,
                0.12023704831509037
            ]
        },
        {
            "positions": [
                0.08854306722134164,
                -2.1084386145631178,
                -2.335168226884962,
                1.1659303899643694,
                -0.04660620788997115,
                0.1559833846945997
            ]
        },
        {
            "positions": [
                0.1673144910318413,
                -2.0602105999673737,
                -2.2808488159369347,
                1.0471264643134572,
                -0.08846267012652197,
                0.19172972107410907
            ]
        },
        {
            "positions": [
                0.24608591484234096,
                -2.0119825853716296,
                -2.226529404988908,
                0.9283225386625452,
                -0.1303191323630728,
                0.22747605745361843
            ]
        },
        {
            "positions": [
                0.3248573386528405,
                -1.9637545707758854,
                -2.172209994040881,
                0.8095186130116332,
                -0.17217559459962362,
                0.2632223938331278
            ]
        },
        {
            "positions": [
                0.40362876246334023,
                -1.9155265561801413,
                -2.1178905830928545,
                0.6907146873607211,
                -0.21403205683617443,
                0.29896873021263715
            ]
        },
        {
            "positions": [
                0.48240018627383985,
                -1.8672985415843972,
                -2.0635711721448278,
                0.571910761709809,
                -0.25588851907272525,
                0.3347150665921465
            ]
        },
        {
            "positions": [
                0.5611716100843396,
                -1.8190705269886531,
                -2.0092517611968006,
                0.4531068360588968,
                -0.2977449813092761,
                0.37046140297165586
            ]
        },
        {
            "positions": [
                0.6399430338948392,
                -1.770842512392909,
                -1.9549323502487739,
                0.3343029104079849,
                -0.3396014435458269,
                0.4062077393511652
            ]
        },
        {
            "positions": [
                0.7187144577053387,
                -1.722614497797165,
                -1.9006129393007472,
                0.21549898475707274,
                -0.3814579057823777,
                0.4419540757306746
            ]
        },
        {
            "positions": [
                0.7974858815158383,
                -1.6743864832014208,
                -1.8462935283527204,
                0.09669505910616083,
                -0.4233143680189285,
                0.47770041211018394
            ]
        },
        {
            "positions": [
                0.8762573053263382,
                -1.6261584686056767,
                -1.7919741174046935,
                -0.022108866544751526,
                -0.46517083025547934,
                0.5134467484896933
            ]
        },
        {
            "positions": [
                0.9550287291368376,
                -1.5779304540099326,
                -1.7376547064566668,
                -0.14091279219566333,
                -0.5070272924920302,
                0.5491930848692027
            ]
        },
        {
            "positions": [
                1.0169602985705761,
                -1.5570466325226238,
                -1.6056344508638603,
                -0.16521457313016388,
                -0.449165927427794,
                0.6466380266288726
            ]
        },
        {
            "positions": [
                1.0788918680043147,
                -1.536162811035315,
                -1.4736141952710538,
                -0.18951635406466444,
                -0.3913045623635578,
                0.7440829683885425
            ]
        },
        {
            "positions": [
                1.1408234374380533,
                -1.515278989548006,
                -1.3415939396782472,
                -0.21381813499916502,
                -0.3334431972993217,
                0.8415279101482123
            ]
        },
        {
            "positions": [
                1.2027550068717918,
                -1.4943951680606973,
                -1.2095736840854405,
                -0.23811991593366558,
                -0.2755818322350855,
                0.9389728519078822
            ]
        },
        {
            "positions": [
                1.2646865763055302,
                -1.4735113465733887,
                -1.077553428492634,
                -0.26242169686816613,
                -0.21772046717084936,
                1.036417793667552
            ]
        },
        {
            "positions": [
                1.3266181457392687,
                -1.4526275250860798,
                -0.9455331728998275,
                -0.2867234778026667,
                -0.1598591021066132,
                1.133862735427222
            ]
        },
        {
            "positions": [
                1.3885497151730073,
                -1.431743703598771,
                -0.813512917307021,
                -0.31102525873716724,
                -0.10199773704237702,
                1.2313076771868918
            ]
        },
        {
            "positions": [
                1.4504812846067459,
                -1.4108598821114622,
                -0.6814926617142145,
                -0.3353270396716678,
                -0.044136371978140854,
                1.3287526189465617
            ]
        },
        {
            "positions": [
                1.5124128540404844,
                -1.3899760606241534,
                -0.549472406121408,
                -0.3596288206061684,
                0.013724993086095316,
                1.4261975607062316
            ]
        },
        {
            "positions": [
                1.5743444234742228,
                -1.3690922391368445,
                -0.4174521505286013,
                -0.38393060154066894,
                0.07158635815033143,
                1.5236425024659015
            ]
        },
        {
            "positions": [
                1.6362759929079616,
                -1.3482084176495357,
                -0.2854318949357948,
                -0.4082323824751695,
                0.12944772321456766,
                1.6210874442255712
            ]
        },
        {
            "positions": [
                1.6982075623417,
                -1.327324596162227,
                -0.1534116393429883,
                -0.4325341634096701,
                0.18730908827880377,
                1.7185323859852413
            ]
        },
        {
            "positions": [
                1.7601391317754387,
                -1.3064407746749183,
                -0.02139138375018179,
                -0.45683594434417063,
                0.24517045334303988,
                1.815977327744911
            ]
        },
        {
            "positions": [
                1.822070701209177,
                -1.2855569531876094,
                0.11062887184262471,
                -0.4811377252786712,
                0.3030318184072761,
                1.913422269504581
            ]
        },
        {
            "positions": [
                1.8840022706429158,
                -1.2646731317003006,
                0.24264912743543143,
                -0.5054395062131718,
                0.36089318347151234,
                2.010867211264251
            ]
        },
        {
            "positions": [
                1.9459338400766542,
                -1.2437893102129918,
                0.3746693830282377,
                -0.5297412871476723,
                0.41875454853574845,
                2.108312153023921
            ]
        },
        {
            "positions": [
                2.0078654095103925,
                -1.222905488725683,
                0.5066896386210444,
                -0.554043068082173,
                0.4766159135999847,
                2.205757094783591
            ]
        },
        {
            "positions": [
                2.0697969789441313,
                -1.2020216672383741,
                0.6387098942138507,
                -0.5783448490166735,
                0.5344772786642208,
                2.3032020365432606
            ]
        },
        {
            "positions": [
                2.13172854837787,
                -1.1811378457510653,
                0.7707301498066574,
                -0.6026466299511741,
                0.5923386437284569,
                2.4006469783029303
            ]
        },
        {
            "positions": [
                2.193660117811608,
                -1.1602540242637565,
                0.9027504053994642,
                -0.6269484108856747,
                0.650200008792693,
                2.4980919200626004
            ]
        },
        {
            "positions": [
                2.2555916872453468,
                -1.1393702027764476,
                1.0347706609922709,
                -0.6512501918201752,
                0.7080613738569294,
                2.59553686182227
            ]
        },
        {
            "positions": [
                2.3175232566790855,
                -1.1184863812891388,
                1.1667909165850772,
                -0.6755519727546757,
                0.7659227389211655,
                2.6929818035819397
            ]
        },
        {
            "positions": [
                2.3794548261128243,
                -1.09760255980183,
                1.2988111721778839,
                -0.6998537536891763,
                0.8237841039854016,
                2.79042674534161
            ]
        },
        {
            "positions": [
                2.4413863955465622,
                -1.0767187383145214,
                1.4308314277706902,
                -0.7241555346236769,
                0.8816454690496377,
                2.8878716871012795
            ]
        },
        {
            "positions": [
                2.503317964980301,
                -1.0558349168272125,
                1.562851683363497,
                -0.7484573155581774,
                0.939506834113874,
                2.9853166288609496
            ]
        },
        {
            "positions": [
                2.56524953441404,
                -1.0349510953399037,
                1.6948719389563032,
                -0.7727590964926779,
                0.9973681991781099,
                3.0827615706206193
            ]
        },
        {
            "positions": [
                2.627181103847778,
                -1.0140672738525949,
                1.8268921945491097,
                -0.7970608774271786,
                1.0552295642423462,
                3.1802065123802894
            ]
        }
    ]
}