{
    "goal": {
        "global_pose": {
            "orientation": {
                "w": 0.005598929693374612,
                "x": 0.007748599140229565,
                "y": 0.7110244013736278,
                "z": -0.7031023480610252
            },
            "position": {
                "x": -0.8858502320852131,
                "y": -0.7141253447532654,
                "z": 0.3711530566215515
            }
        },
        "name": "move_to_auspresseinheit_C"
    },
    "id": "SPARS_move_to_auspresseinheit_C_22",
    "joint_names": [
        "shoulder_pan_joint",
        "shoulder_lift_joint",
        "elbow_joint",
        "wrist_1_joint",
        "wrist_2_joint",
        "wrist_3_joint"
    ],
    "metrics": {
        "cart_traj_len": 0.49325455375899424,
        "distance_elbow_joint": 1.0053078973361869,
        "distance_shoulder_lift_joint": 0.3265676290033581,
        "distance_shoulder_pan_joint": 0.25632794065576103,
        "distance_wrist_1_joint": 0.6969260338058965,
        "distance_wrist_2_joint": 1.3088407107900548,
        "distance_wrist_3_joint": 0.07746381604728825,
        "smoothness": 1.6148698667872622e-16,
        "time": 5.054508217,
        "traj_len": 1.9160986476793267,
        "weighted_distance": 2.4149800008134794
    },
    "planner": "SPARS",
    "start": {
        "state": {
            "elbow_joint": 1.7527959577737207,
            "shoulder_lift_joint": -0.9740617694225068,
            "shoulder_pan_joint": -2.967991417825858,
            "wrist_1_joint": -0.759517768980727,
            "wrist_2_joint": 1.7443932448377408,
            "wrist_3_joint": -3.0840537646736568
        }
    },
    "waypoints": [
        {
            "positions": [
                -2.967991417825858,
                -0.9740617694225068,
                1.7527959577737207,
                -0.759517768980727,
                1.7443932448377408,
                -3.0840537646736568
            ]
        },
        {
            "positions": [
                -2.9423586237602817,
                -0.941405006522171,
                1.652265168040102,
                -0.6898251656001373,
                1.6135091737587353,
                -3.0918001462783855
            ]
        },
        {
            "positions": [
                -2.916725829694706,
                -0.9087482436218352,
                1.5517343783064832,
                -0.6201325622195477,
                1.48262510267973,
                -3.0995465278831142
            ]
        },
        {
            "positions": [
                -2.8910930356291296,
                -0.8760914807214993,
                1.4512035885728647,
                -0.550439958838958,
                1.3517410316007243,
                -3.1072929094878434
            ]
        },
        {
            "positions": [
                -2.8654602415635537,
                -0.8434347178211635,
                1.350672798839246,
                -0.4807473554583684,
                1.220856960521719,
                -3.115039291092572
            ]
        },
        {
            "positions": [
                -2.8398274474979774,
                -0.8107779549208277,
                1.2501420091056272,
                -0.41105475207777875,
                1.0899728894427134,
                -3.122785672697301
            ]
        },
        {
            "positions": [
                -2.814194653432401,
                -0.7781211920204919,
                1.1496112193720087,
                -0.3413621486971891,
                0.959088818363708,
                -3.1305320543020296
            ]
        },
        {
            "positions": [
                -2.7885618593668253,
                -0.7454644291201561,
                1.0490804296383898,
                -0.2716695453165995,
                0.8282047472847025,
                -3.1382784359067584
            ]
        },
        {
            "positions": [
                -2.762929065301249,
                -0.7128076662198203,
                0.9485496399047711,
                -0.2019769419360098,
                0.6973206762056969,
                -3.1460248175114875
            ]
        },
        {
            "positions": [
                -2.737296271235673,
                -0.6801509033194845,
                0.8480188501711524,
                -0.1322843385554201,
                0.5664366051266914,
                -3.1537711991162163
            ]
        },
        {
            "positions": [
                -2.711663477170097,
                -0.6474941404191487,
                0.7474880604375339,
                -0.06259173517483047,
                0.435552534047686,
                -3.161517580720945
            ]
        }
    ]
}