{
    "goal": {
        "global_pose": {
            "orientation": {
                "w": 0.7047431493862688,
                "x": -0.7094548369677653,
                "y": 0.0024358444001904,
                "z": -0.0022348060817251984
            },
            "position": {
                "x": -0.39052492380142206,
                "y": 0.3671506643295288,
                "z": 0.19426114857196808
            }
        },
        "name": "move_to_magneteinheit_D"
    },
    "id": "SPARS_move_to_magneteinheit_D_12",
    "joint_names": [
        "shoulder_pan_joint",
        "shoulder_lift_joint",
        "elbow_joint",
        "wrist_1_joint",
        "wrist_2_joint",
        "wrist_3_joint"
    ],
    "metrics": {
        "cart_traj_len": 4.536482409191593,
        "distance_elbow_joint": 3.481948310154828,
        "distance_shoulder_lift_joint": 1.1793154690699783,
        "distance_shoulder_pan_joint": 3.2484200506852257,
        "distance_wrist_1_joint": 2.2146391620180443,
        "distance_wrist_2_joint": 2.4523745143118205,
        "distance_wrist_3_joint": 1.1021421278763968,
        "smoothness": 0.5191344345472011,
        "time": 5.051913828,
        "traj_len": 3.698491534952635,
        "weighted_distance": 4.533225955784573
    },
    "planner": "SPARS",
    "start": {
        "state": {
            "elbow_joint": 0.749534889911806,
            "shoulder_lift_joint": -0.6476975780787326,
            "shoulder_pan_joint": -2.711696901376241,
            "wrist_1_joint": -0.07506478083263063,
            "wrist_2_joint": 0.43296659715538205,
            "wrist_3_joint": -3.14703540197715
        }
    },
    "waypoints": [
        {
            "positions": [
                -2.711696901376241,
                -0.6476975780787326,
                0.749534889911806,
                -0.07506478083263063,
                0.43296659715538205,
                -3.14703540197715
            ]
        },
        {
            "positions": [
                -2.7284023873501524,
                -0.6760155201669534,
                0.774748132709746,
                -0.09405754242741624,
                0.22173357659371895,
                -3.061919531239329
            ]
        },
        {
            "positions": [
                -2.7451078733240637,
                -0.7043334622551741,
                0.7999613755076861,
                -0.11305030402220184,
                0.010500556032055852,
                -2.9768036605015085
            ]
        },
        {
            "positions": [
                -2.761813359297975,
                -0.7326514043433949,
                0.8251746183056261,
                -0.13204306561698745,
                -0.2007324645296073,
                -2.8916877897636875
            ]
        },
        {
            "positions": [
                -2.7256140651972007,
                -0.781828502811134,
                0.8460476783906111,
                -0.1533944529369243,
                -0.3531612341755502,
                -2.8270157549177206
            ]
        },
        {
            "positions": [
                -2.689414771096426,
                -0.8310056012788731,
                0.8669207384755961,
                -0.17474584025686118,
                -0.5055900038214931,
                -2.7623437200717533
            ]
        },
        {
            "positions": [
                -2.6532154769956517,
                -0.8801826997466123,
                0.8877937985605812,
                -0.19609722757679804,
                -0.6580187734674359,
                -2.697671685225786
            ]
        },
        {
            "positions": [
                -2.6170161828948775,
                -0.9293597982143514,
                0.9086668586455662,
                -0.2174486148967349,
                -0.8104475431133789,
                -2.632999650379819
            ]
        },
        {
            "positions": [
                -2.5635537383896017,
                -0.971381551122706,
                0.9185865850687842,
                -0.23167462272378778,
                -0.8666222543515124,
                -2.606462731007351
            ]
        },
        {
            "positions": [
                -2.5100912938843254,
                -1.0134033040310604,
                0.9285063114920021,
                -0.24590063055084066,
                -0.922796965589646,
                -2.5799258116348827
            ]
        },
        {
            "positions": [
                -2.359172032216634,
                -1.111302340742562,
                0.94235229388828,
                -0.27434027062558886,
                -0.9669796852771706,
                -2.5517186286772113
            ]
        },
        {
            "positions": [
                -2.251135128981325,
                -1.1388511123052365,
                0.8233994990938684,
                -0.3522191123743547,
                -0.9271539272853483,
                -2.570127151046096
            ]
        },
        {
            "positions": [
                -2.143098225746016,
                -1.1663998838679113,
                0.7044467042994569,
                -0.4300979541231206,
                -0.8873281692935259,
                -2.58853567341498
            ]
        },
        {
            "positions": [
                -2.0350613225107064,
                -1.1939486554305858,
                0.5854939095050453,
                -0.5079767958718864,
                -0.8475024113017036,
                -2.6069441957838646
            ]
        },
        {
            "positions": [
                -1.9270244192753974,
                -1.2214974269932606,
                0.4665411147106338,
                -0.5858556376206523,
                -0.8076766533098813,
                -2.625352718152749
            ]
        },
        {
            "positions": [
                -1.8189875160400883,
                -1.2490461985559351,
                0.3475883199162223,
                -0.6637344793694181,
                -0.7678508953180588,
                -2.6437612405216337
            ]
        },
        {
            "positions": [
                -1.7109506128047793,
                -1.27659497011861,
                0.22863552512181073,
                -0.7416133211181839,
                -0.7280251373262365,
                -2.662169762890518
            ]
        },
        {
            "positions": [
                -1.6029137095694699,
                -1.3041437416812844,
                0.10968273032739906,
                -0.8194921628669498,
                -0.6881993793344141,
                -2.6805782852594024
            ]
        },
        {
            "positions": [
                -1.4948768063341609,
                -1.3316925132439592,
                -0.009270064467012396,
                -0.8973710046157156,
                -0.6483736213425919,
                -2.698986807628287
            ]
        },
        {
            "positions": [
                -1.3868399030988519,
                -1.3592412848066338,
                -0.12822285926142407,
                -0.9752498463644815,
                -0.6085478633507695,
                -2.7173953299971716
            ]
        },
        {
            "positions": [
                -1.2788029998635428,
                -1.3867900563693085,
                -0.24717565405583541,
                -1.0531286881132473,
                -0.5687221053589471,
                -2.7358038523660557
            ]
        },
        {
            "positions": [
                -1.1707660966282336,
                -1.414338827931983,
                -0.3661284488502472,
                -1.1310075298620133,
                -0.5288963473671248,
                -2.7542123747349403
            ]
        },
        {
            "positions": [
                -1.0627291933929246,
                -1.4418875994946578,
                -0.48508124364465854,
                -1.208886371610779,
                -0.48907058937530246,
                -2.772620897103825
            ]
        },
        {
            "positions": [
                -0.9546922901576156,
                -1.4694363710573324,
                -0.6040340384390701,
                -1.2867652133595449,
                -0.44924483138348015,
                -2.7910294194727094
            ]
        },
        {
            "positions": [
                -0.8466553869223061,
                -1.4969851426200071,
                -0.7229868332334819,
                -1.3646440551083108,
                -0.40941907339165773,
                -2.8094379418415936
            ]
        },
        {
            "positions": [
                -0.7386184836869971,
                -1.5245339141826817,
                -0.8419396280278932,
                -1.4425228968570767,
                -0.3695933153998354,
                -2.827846464210478
            ]
        },
        {
            "positions": [
                -0.6305815804516881,
                -1.5520826857453565,
                -0.9608924228223048,
                -1.5204017386058424,
                -0.3297675574080131,
                -2.8462549865793627
            ]
        },
        {
            "positions": [
                -0.5225446772163791,
                -1.579631457308031,
                -1.0798452176167164,
                -1.598280580354608,
                -0.2899417994161907,
                -2.8646635089482473
            ]
        },
        {
            "positions": [
                -0.41450777398106986,
                -1.6071802288707058,
                -1.1987980124111282,
                -1.6761594221033742,
                -0.2501160414243683,
                -2.8830720313171314
            ]
        },
        {
            "positions": [
                -0.30647087074576085,
                -1.6347290004333803,
                -1.3177508072055395,
                -1.75403826385214,
                -0.21029028343254597,
                -2.901480553686016
            ]
        },
        {
            "positions": [
                -0.19843396751045184,
                -1.662277771996055,
                -1.4367036019999508,
                -1.8319171056009058,
                -0.17046452544072366,
                -2.9198890760549006
            ]
        },
        {
            "positions": [
                -0.09039706427514282,
                -1.6898265435587296,
                -1.5556563967943626,
                -1.9097959473496715,
                -0.13063876744890135,
                -2.9382975984237847
            ]
        },
        {
            "positions": [
                0.01763983896016663,
                -1.7173753151214042,
                -1.6746091915887744,
                -1.9876747890984376,
                -0.09081300945707893,
                -2.9567061207926693
            ]
        },
        {
            "positions": [
                0.12567674219547548,
                -1.744924086684079,
                -1.793561986383186,
                -2.0655536308472033,
                -0.050987251465256636,
                -2.975114643161554
            ]
        },
        {
            "positions": [
                0.06354686595642364,
                -1.7325716015585635,
                -1.9574363469937353,
                -2.137295180997149,
                -0.08617220991293173,
                -2.9923330050500963
            ]
        },
        {
            "positions": [
                0.0014169897173717944,
                -1.720219116433048,
                -2.1213107076042848,
                -2.209036731147095,
                -0.12135716836060684,
                -3.0095513669386382
            ]
        },
        {
            "positions": [
                -0.06071288652168007,
                -1.7078666313075326,
                -2.285185068214834,
                -2.280778281297041,
                -0.15654212680828195,
                -3.0267697288271806
            ]
        },
        {
            "positions": [
                -0.18513674907456573,
                -1.7528981363956182,
                -2.3467786122900742,
                -2.2718526197434072,
                -0.18742304953261116,
                -3.0585439832536694
            ]
        }
    ]
}