{
    "goal": {
        "global_pose": {
            "orientation": {
                "w": 0.7047431493862688,
                "x": -0.7094548369677653,
                "y": 0.0024358444001904,
                "z": -0.0022348060817251984
            },
            "position": {
                "x": -0.39052492380142206,
                "y": 0.3671506643295288,
                "z": 0.19426114857196808
            }
        },
        "name": "move_to_magneteinheit_D"
    },
    "id": "SPARS_move_to_magneteinheit_D_149",
    "joint_names": [
        "shoulder_pan_joint",
        "shoulder_lift_joint",
        "elbow_joint",
        "wrist_1_joint",
        "wrist_2_joint",
        "wrist_3_joint"
    ],
    "metrics": {
        "cart_traj_len": 4.38835133103674,
        "distance_elbow_joint": 3.130192672067334,
        "distance_shoulder_lift_joint": 1.6337902258739787,
        "distance_shoulder_pan_joint": 3.442899590538323,
        "distance_wrist_1_joint": 1.7487493396551357,
        "distance_wrist_2_joint": 0.8109851016445931,
        "distance_wrist_3_joint": 3.1571731113029005,
        "smoothness": 0.3769804015870683,
        "time": 5.058072578,
        "traj_len": 3.7314595054860593,
        "weighted_distance": 4.774711583434939
    },
    "planner": "SPARS",
    "start": {
        "state": {
            "elbow_joint": 0.749534889911806,
            "shoulder_lift_joint": -0.6476975780787326,
            "shoulder_pan_joint": -2.711696901376241,
            "wrist_1_joint": -0.07506478083263063,
            "wrist_2_joint": 0.43296659715538205,
            "wrist_3_joint": -3.14703540197715
        }
    },
    "waypoints": [
        {
            "positions": [
                -2.711696901376241,
                -0.6476975780787326,
                0.749534889911806,
                -0.07506478083263063,
                0.43296659715538205,
                -3.14703540197715
            ]
        },
        {
            "positions": [
                -2.7233349061185534,
                -0.6567457623870512,
                0.6194272072397049,
                -0.10156372608492306,
                0.34421907524813167,
                -3.059317901323015
            ]
        },
        {
            "positions": [
                -2.7349729108608662,
                -0.6657939466953697,
                0.48931952456760386,
                -0.1280626713372155,
                0.25547155334088123,
                -2.9716004006688794
            ]
        },
        {
            "positions": [
                -2.7466109156031786,
                -0.6748421310036883,
                0.3592118418955028,
                -0.15456161658950796,
                0.16672403143363082,
                -2.8838829000147443
            ]
        },
        {
            "positions": [
                -2.64368704257667,
                -0.7220236512439622,
                0.27465676109850934,
                -0.10436074562830919,
                0.17648117608321168,
                -2.7888778266058116
            ]
        },
        {
            "positions": [
                -2.5407631695501616,
                -0.7692051714842361,
                0.1901016803015158,
                -0.05415987466711043,
                0.18623832073279253,
                -2.6938727531968794
            ]
        },
        {
            "positions": [
                -2.437839296523653,
                -0.81638669172451,
                0.10554659950452228,
                -0.003959003705911679,
                0.1959954653823734,
                -2.598867679787947
            ]
        },
        {
            "positions": [
                -2.3349154234971445,
                -0.8635682119647838,
                0.0209915187075288,
                0.04624186725528709,
                0.20575261003195425,
                -2.5038626063790144
            ]
        },
        {
            "positions": [
                -2.231991550470636,
                -0.9107497322050577,
                -0.06356356208946473,
                0.09644273821648586,
                0.2155097546815351,
                -2.4088575329700816
            ]
        },
        {
            "positions": [
                -2.1290676774441275,
                -0.9579312524453316,
                -0.14811864288645826,
                0.1466436091776846,
                0.22526689933111596,
                -2.3138524595611494
            ]
        },
        {
            "positions": [
                -2.026143804417619,
                -1.0051127726856055,
                -0.23267372368345174,
                0.1968444801388834,
                0.23502404398069682,
                -2.2188473861522167
            ]
        },
        {
            "positions": [
                -1.9232199313911107,
                -1.0522942929258794,
                -0.3172288044804452,
                0.24704535110008213,
                0.24478118863027767,
                -2.1238423127432844
            ]
        },
        {
            "positions": [
                -1.8202960583646022,
                -1.0994758131661533,
                -0.4017838852774388,
                0.29724622206128093,
                0.25453833327985853,
                -2.0288372393343517
            ]
        },
        {
            "positions": [
                -1.7173721853380937,
                -1.1466573334064272,
                -0.4863389660744323,
                0.34744709302247967,
                0.2642954779294394,
                -1.9338321659254194
            ]
        },
        {
            "positions": [
                -1.6144483123115854,
                -1.1938388536467008,
                -0.5708940468714258,
                0.3976479639836784,
                0.27405262257902024,
                -1.838827092516487
            ]
        },
        {
            "positions": [
                -1.5115244392850768,
                -1.241020373886975,
                -0.6554491276684193,
                0.44784883494487715,
                0.28380976722860113,
                -1.7438220191075544
            ]
        },
        {
            "positions": [
                -1.4086005662585683,
                -1.2882018941272486,
                -0.7400042084654128,
                0.498049705906076,
                0.29356691187818196,
                -1.6488169456986217
            ]
        },
        {
            "positions": [
                -1.3056766932320598,
                -1.3353834143675227,
                -0.8245592892624063,
                0.5482505768672747,
                0.30332405652776284,
                -1.5538118722896892
            ]
        },
        {
            "positions": [
                -1.2027528202055513,
                -1.3825649346077964,
                -0.9091143700593998,
                0.5984514478284736,
                0.3130812011773437,
                -1.4588067988807567
            ]
        },
        {
            "positions": [
                -1.0998289471790428,
                -1.4297464548480705,
                -0.9936694508563932,
                0.6486523187896722,
                0.3228383458269245,
                -1.3638017254718244
            ]
        },
        {
            "positions": [
                -0.9969050741525345,
                -1.4769279750883442,
                -1.0782245316533867,
                0.698853189750871,
                0.3325954904765054,
                -1.268796652062892
            ]
        },
        {
            "positions": [
                -0.8939812011260257,
                -1.5241094953286183,
                -1.1627796124503804,
                0.7490540607120698,
                0.34235263512608627,
                -1.1737915786539592
            ]
        },
        {
            "positions": [
                -0.7910573280995175,
                -1.571291015568892,
                -1.2473346932473737,
                0.7992549316732686,
                0.3521097797756671,
                -1.078786505245027
            ]
        },
        {
            "positions": [
                -0.6881334550730087,
                -1.618472535809166,
                -1.3318897740443674,
                0.8494558026344673,
                0.361866924425248,
                -0.9837814318360942
            ]
        },
        {
            "positions": [
                -0.5852095820465002,
                -1.6656540560494397,
                -1.4164448548413608,
                0.899656673595666,
                0.3716240690748288,
                -0.8887763584271617
            ]
        },
        {
            "positions": [
                -0.4822857090199921,
                -1.7128355762897136,
                -1.5009999356383543,
                0.9498575445568648,
                0.3813812137244097,
                -0.7937712850182295
            ]
        },
        {
            "positions": [
                -0.37936183599348317,
                -1.7600170965299875,
                -1.585555016435348,
                1.0000584155180636,
                0.3911383583739906,
                -0.6987662116092968
            ]
        },
        {
            "positions": [
                -0.2764379629669751,
                -1.8071986167702614,
                -1.6701100972323415,
                1.0502592864792621,
                0.4008955030235714,
                -0.6037611382003645
            ]
        },
        {
            "positions": [
                -0.17351408994046658,
                -1.8543801370105353,
                -1.7546651780293345,
                1.100460157440461,
                0.41065264767315224,
                -0.5087560647914318
            ]
        },
        {
            "positions": [
                -0.07059021691395806,
                -1.9015616572508092,
                -1.8392202588263284,
                1.15066102840166,
                0.4204097923227331,
                -0.41375099138249904
            ]
        },
        {
            "positions": [
                0.03233365611255046,
                -1.948743177491083,
                -1.923775339623322,
                1.2008618993628586,
                0.430166936972314,
                -0.3187459179735668
            ]
        },
        {
            "positions": [
                0.13525752913905897,
                -1.995924697731357,
                -2.0083304204203154,
                1.2510627703240575,
                0.4399240816218949,
                -0.22374084456463406
            ]
        },
        {
            "positions": [
                0.2381814021655675,
                -2.043106217971631,
                -2.092885501217309,
                1.3012636412852563,
                0.44968122627147566,
                -0.128735771155702
            ]
        },
        {
            "positions": [
                0.1323830875299079,
                -2.102701614466901,
                -2.1648285714518636,
                1.3546204527911299,
                0.38423489100022645,
                -0.09401740103533884
            ]
        },
        {
            "positions": [
                0.02658477289424832,
                -2.1622970109621713,
                -2.2367716416864187,
                1.4079772642970032,
                0.31878855572897724,
                -0.05929903091497567
            ]
        },
        {
            "positions": [
                -0.07921354174141126,
                -2.221892407457441,
                -2.3087147119209734,
                1.4613340758028768,
                0.2533422204577281,
                -0.02458066079461249
            ]
        },
        {
            "positions": [
                -0.18501185637707088,
                -2.2814878039527113,
                -2.380657782155528,
                1.5146908873087503,
                0.18789588518647887,
                0.010137709325750664
            ]
        }
    ]
}