{
    "goal": {
        "global_pose": {
            "orientation": {
                "w": 0.7031023502349854,
                "x": -0.7110244035720825,
                "y": 0.007748599164187908,
                "z": 0.005598929710686207
            },
            "position": {
                "x": 0.11585023208521307,
                "y": 0.44412534475326537,
                "z": 0.3711530566215515
            }
        },
        "name": "move_to_auspresseinheit_A"
    },
    "id": "SPARS_move_to_auspresseinheit_A_114",
    "joint_names": [
        "shoulder_pan_joint",
        "shoulder_lift_joint",
        "elbow_joint",
        "wrist_1_joint",
        "wrist_2_joint",
        "wrist_3_joint"
    ],
    "metrics": {
        "cart_traj_len": 1.976391413415896,
        "distance_elbow_joint": 0.5400562435779843,
        "distance_shoulder_lift_joint": 0.5347970276618383,
        "distance_shoulder_pan_joint": 3.07475719101953,
        "distance_wrist_1_joint": 6.983502655280287,
        "distance_wrist_2_joint": 4.625339821881134,
        "distance_wrist_3_joint": 3.2359130243456047,
        "smoothness": 0.658486268958011,
        "time": 5.095104296,
        "traj_len": 4.3582526273457765,
        "weighted_distance": 6.0889272035079385
    },
    "planner": "SPARS",
    "start": {
        "state": {
            "elbow_joint": 2.4225746658250005,
            "shoulder_lift_joint": -1.3736534386056498,
            "shoulder_pan_joint": -0.3378633547517467,
            "wrist_1_joint": -1.0288598680537169,
            "wrist_2_joint": 1.233022673432363,
            "wrist_3_joint": -3.0940220416140027
        }
    },
    "waypoints": [
        {
            "positions": [
                -0.3378633547517467,
                -1.3736534386056498,
                2.4225746658250005,
                -1.0288598680537169,
                1.233022673432363,
                -3.0940220416140027
            ]
        },
        {
            "positions": [
                -0.3784602053718054,
                -1.392616935992846,
                2.411224004979223,
                -0.8782707257024969,
                1.1299522602496281,
                -3.029836037856827
            ]
        },
        {
            "positions": [
                -0.41905705599186405,
                -1.4115804333800424,
                2.3998733441334457,
                -0.7276815833512768,
                1.0268818470668934,
                -2.9656500340996517
            ]
        },
        {
            "positions": [
                -0.45965390661192274,
                -1.4305439307672385,
                2.3885226832876683,
                -0.5770924410000566,
                0.9238114338841585,
                -2.901464030342476
            ]
        },
        {
            "positions": [
                -0.5002507572319814,
                -1.4495074281544347,
                2.377172022441891,
                -0.4265032986488366,
                0.8207410207014237,
                -2.8372780265853006
            ]
        },
        {
            "positions": [
                -0.5408476078520401,
                -1.468470925541631,
                2.3658213615961134,
                -0.2759141562976165,
                0.7176706075186889,
                -2.773092022828125
            ]
        },
        {
            "positions": [
                -0.5814444584720988,
                -1.4874344229288272,
                2.354470700750336,
                -0.1253250139463965,
                0.6146001943359541,
                -2.7089060190709495
            ]
        },
        {
            "positions": [
                -0.6220413090921575,
                -1.5063979203160234,
                2.3431200399045586,
                0.025264128404823616,
                0.5115297811532192,
                -2.6447200153137738
            ]
        },
        {
            "positions": [
                -0.6626381597122162,
                -1.5253614177032198,
                2.3317693790587812,
                0.17585327075604362,
                0.40845936797048443,
                -2.5805340115565985
            ]
        },
        {
            "positions": [
                -0.7032350103322748,
                -1.544324915090416,
                2.320418718213004,
                0.32644241310726363,
                0.30538895478774974,
                -2.5163480077994227
            ]
        },
        {
            "positions": [
                -0.7438318609523334,
                -1.563288412477612,
                2.3090680573672264,
                0.47703155545848386,
                0.20231854160501483,
                -2.4521620040422474
            ]
        },
        {
            "positions": [
                -0.7844287115723921,
                -1.5822519098648082,
                2.297717396521449,
                0.6276206978097039,
                0.09924812842227992,
                -2.3879760002850716
            ]
        },
        {
            "positions": [
                -0.8250255621924507,
                -1.6012154072520046,
                2.2863667356756716,
                0.7782098401609239,
                -0.003822284760454764,
                -2.3237899965278963
            ]
        },
        {
            "positions": [
                -0.8656224128125094,
                -1.6201789046392008,
                2.275016074829894,
                0.9287989825121441,
                -0.10689269794318967,
                -2.2596039927707205
            ]
        },
        {
            "positions": [
                -0.9062192634325681,
                -1.6391424020263972,
                2.263665413984117,
                1.079388124863364,
                -0.20996311112592458,
                -2.195417989013545
            ]
        },
        {
            "positions": [
                -0.9468161140526268,
                -1.6581058994135933,
                2.2523147531383394,
                1.229977267214584,
                -0.31303352430865927,
                -2.1312319852563695
            ]
        },
        {
            "positions": [
                -0.9874129646726855,
                -1.6770693968007895,
                2.240964092292562,
                1.3805664095658041,
                -0.4161039374913942,
                -2.067045981499194
            ]
        },
        {
            "positions": [
                -1.0280098152927442,
                -1.6960328941879856,
                2.2296134314467846,
                1.5311555519170243,
                -0.5191743506741291,
                -2.0028599777420184
            ]
        },
        {
            "positions": [
                -1.0686066659128028,
                -1.714996391575182,
                2.218262770601007,
                1.6817446942682441,
                -0.6222447638568636,
                -1.9386739739848429
            ]
        },
        {
            "positions": [
                -1.1092035165328615,
                -1.7339598889623782,
                2.20691210975523,
                1.8323338366194644,
                -0.7253151770395987,
                -1.8744879702276673
            ]
        },
        {
            "positions": [
                -1.1498003671529202,
                -1.7529233863495746,
                2.1955614489094524,
                1.9829229789706846,
                -0.8283855902223334,
                -1.8103019664704918
            ]
        },
        {
            "positions": [
                -1.1903972177729787,
                -1.7718868837367707,
                2.184210788063675,
                2.133512121321904,
                -0.9314560034050683,
                -1.7461159627133163
            ]
        },
        {
            "positions": [
                -1.2309940683930376,
                -1.7908503811239669,
                2.1728601272178976,
                2.284101263673125,
                -1.0345264165878032,
                -1.6819299589561407
            ]
        },
        {
            "positions": [
                -1.2715909190130963,
                -1.809813878511163,
                2.16150946637212,
                2.4346904060243446,
                -1.137596829770538,
                -1.6177439551989652
            ]
        },
        {
            "positions": [
                -1.3121877696331548,
                -1.8287773758983592,
                2.1501588055263428,
                2.5852795483755644,
                -1.2406672429532726,
                -1.5535579514417897
            ]
        },
        {
            "positions": [
                -1.3527846202532134,
                -1.8477408732855556,
                2.1388081446805653,
                2.7358686907267846,
                -1.3437376561360075,
                -1.4893719476846141
            ]
        },
        {
            "positions": [
                -1.2669581233566276,
                -1.8502704396598029,
                2.1494868831152965,
                2.6017531033726273,
                -1.2583801772896424,
                -1.5573412364519565
            ]
        },
        {
            "positions": [
                -1.1811316264600416,
                -1.85280000603405,
                2.1601656215500276,
                2.46763751601847,
                -1.1730226984432772,
                -1.6253105252192988
            ]
        },
        {
            "positions": [
                -1.0953051295634557,
                -1.8553295724082972,
                2.170844359984759,
                2.3335219286643123,
                -1.087665219596912,
                -1.6932798139866412
            ]
        },
        {
            "positions": [
                -1.0094786326668697,
                -1.8578591387825443,
                2.18152309841949,
                2.199406341310155,
                -1.0023077407505472,
                -1.7612491027539834
            ]
        },
        {
            "positions": [
                -0.9236521357702838,
                -1.8603887051567916,
                2.1922018368542213,
                2.0652907539559977,
                -0.916950261904182,
                -1.8292183915213258
            ]
        },
        {
            "positions": [
                -0.8378256388736979,
                -1.8629182715310386,
                2.202880575288953,
                1.9311751666018404,
                -0.8315927830578169,
                -1.8971876802886682
            ]
        },
        {
            "positions": [
                -0.7519991419771119,
                -1.865447837905286,
                2.213559313723684,
                1.797059579247683,
                -0.7462353042114518,
                -1.9651569690560104
            ]
        },
        {
            "positions": [
                -0.6661726450805261,
                -1.8679774042795332,
                2.224238052158415,
                1.6629439918935256,
                -0.6608778253650868,
                -2.0331262578233527
            ]
        },
        {
            "positions": [
                -0.58034614818394,
                -1.8705069706537802,
                2.234916790593146,
                1.528828404539368,
                -0.5755203465187216,
                -2.1010955465906953
            ]
        },
        {
            "positions": [
                -0.4945196512873541,
                -1.8730365370280275,
                2.2455955290278773,
                1.3947128171852108,
                -0.4901628676723565,
                -2.1690648353580375
            ]
        },
        {
            "positions": [
                -0.40869315439076825,
                -1.8755661034022746,
                2.256274267462609,
                1.2605972298310535,
                -0.4048053888259915,
                -2.2370341241253797
            ]
        },
        {
            "positions": [
                -0.3228666574941823,
                -1.8780956697765219,
                2.26695300589734,
                1.126481642476896,
                -0.31944790997962635,
                -2.305003412892722
            ]
        },
        {
            "positions": [
                -0.23704016059759647,
                -1.8806252361507692,
                2.277631744332071,
                0.9923660551227387,
                -0.23409043113326145,
                -2.3729727016600646
            ]
        },
        {
            "positions": [
                -0.15121366370101041,
                -1.8831548025250162,
                2.2883104827668026,
                0.8582504677685812,
                -0.1487329522868961,
                -2.440941990427407
            ]
        },
        {
            "positions": [
                -0.06538716680442458,
                -1.8856843688992635,
                2.2989892212015337,
                0.7241348804144239,
                -0.06337547344053118,
                -2.5089112791947494
            ]
        },
        {
            "positions": [
                0.020439330092161256,
                -1.8882139352735106,
                2.309667959636265,
                0.5900192930602666,
                0.02198200540583395,
                -2.5768805679620916
            ]
        },
        {
            "positions": [
                0.10626582698874731,
                -1.8907435016477578,
                2.320346698070996,
                0.45590370570610883,
                0.1073394842521993,
                -2.644849856729434
            ]
        },
        {
            "positions": [
                0.19209232388533337,
                -1.8932730680220051,
                2.331025436505727,
                0.32178811835195154,
                0.1926969630985642,
                -2.712819145496776
            ]
        },
        {
            "positions": [
                0.2779188207819192,
                -1.8958026343962522,
                2.3417041749404586,
                0.18767253099779424,
                0.2780544419449291,
                -2.7807884342641183
            ]
        },
        {
            "positions": [
                0.36374531767850526,
                -1.8983322007704995,
                2.3523829133751897,
                0.053556943643636945,
                0.3634119207912945,
                -2.848757723031461
            ]
        },
        {
            "positions": [
                0.4495718145750911,
                -1.9008617671447465,
                2.363061651809921,
                -0.08055864371052035,
                0.4487693996376596,
                -2.916727011798803
            ]
        },
        {
            "positions": [
                0.5353983114716769,
                -1.9033913335189938,
                2.3737403902446523,
                -0.21467423106467765,
                0.5341268784840245,
                -2.9846963005661458
            ]
        },
        {
            "positions": [
                0.621224808368263,
                -1.9059208998932409,
                2.3844191286793834,
                -0.3487898184188354,
                0.6194843573303899,
                -3.052665589333488
            ]
        },
        {
            "positions": [
                0.7070513052648489,
                -1.9084504662674882,
                2.3950978671141145,
                -0.4829054057729928,
                0.7048418361767548,
                -3.12063487810083
            ]
        }
    ]
}