{
    "goal": {
        "global_pose": {
            "orientation": {
                "w": -0.4816463035849501,
                "x": 0.5182115481033762,
                "y": 0.4908360881923453,
                "z": -0.5084816262002911
            },
            "position": {
                "x": -0.8240239810943604,
                "y": 0.19912469901144506,
                "z": 0.16403168439865112
            }
        },
        "name": "move_to_storage_D"
    },
    "id": "SPARS_move_to_storage_D_21",
    "joint_names": [
        "shoulder_pan_joint",
        "shoulder_lift_joint",
        "elbow_joint",
        "wrist_1_joint",
        "wrist_2_joint",
        "wrist_3_joint"
    ],
    "metrics": {
        "cart_traj_len": 4.181063425080016,
        "distance_elbow_joint": 4.209311518443568,
        "distance_shoulder_lift_joint": 1.2650978164693314,
        "distance_shoulder_pan_joint": 2.815650040744184,
        "distance_wrist_1_joint": 2.267218632124843,
        "distance_wrist_2_joint": 1.6848985337833977,
        "distance_wrist_3_joint": 3.1422969447394227,
        "smoothness": 0.06282419696235642,
        "time": 5.032233229,
        "traj_len": 3.922304614165599,
        "weighted_distance": 5.061737304690142
    },
    "planner": "SPARS",
    "start": {
        "state": {
            "elbow_joint": -2.384821988534728,
            "shoulder_lift_joint": -2.2788054721415256,
            "shoulder_pan_joint": -0.1854694642142757,
            "wrist_1_joint": 1.4845938289331202,
            "wrist_2_joint": 0.17898776772866878,
            "wrist_3_joint": 0.037105688729662994
        }
    },
    "waypoints": [
        {
            "positions": [
                -0.1854694642142757,
                -2.2788054721415256,
                -2.384821988534728,
                1.4845938289331202,
                0.17898776772866878,
                0.037105688729662994
            ]
        },
        {
            "positions": [
                -0.08187958302080087,
                -2.2323966422762287,
                -2.340993989959082,
                1.4128367482387485,
                0.24627276967566186,
                0.0904000741671953
            ]
        },
        {
            "positions": [
                0.021710298172673975,
                -2.1859878124109313,
                -2.297165991383436,
                1.3410796675443766,
                0.31355777162265497,
                0.1436944596047276
            ]
        },
        {
            "positions": [
                0.12530017936614882,
                -2.1395789825456344,
                -2.25333799280779,
                1.2693225868500049,
                0.380842773569648,
                0.1969888450422599
            ]
        },
        {
            "positions": [
                0.21375722986840945,
                -2.099901939794375,
                -2.176615249790233,
                1.2039229705636934,
                0.4260703969260055,
                0.2645513625623206
            ]
        },
        {
            "positions": [
                0.3022142803706701,
                -2.060224897043115,
                -2.099892506772676,
                1.138523354277382,
                0.47129802028236295,
                0.3321138800823813
            ]
        },
        {
            "positions": [
                0.3906713308729307,
                -2.020547854291855,
                -2.023169763755119,
                1.0731237379910705,
                0.5165256436387204,
                0.39967639760244206
            ]
        },
        {
            "positions": [
                0.4791283813751913,
                -1.9808708115405955,
                -1.946447020737562,
                1.0077241217047592,
                0.5617532669950779,
                0.4672389151225027
            ]
        },
        {
            "positions": [
                0.567585431877452,
                -1.941193768789336,
                -1.869724277720005,
                0.9423245054184477,
                0.6069808903514354,
                0.5348014326425635
            ]
        },
        {
            "positions": [
                0.6560424823797126,
                -1.9015167260380763,
                -1.793001534702448,
                0.8769248891321363,
                0.6522085137077929,
                0.6023639501626242
            ]
        },
        {
            "positions": [
                0.7444995328819733,
                -1.8618396832868165,
                -1.716278791684891,
                0.8115252728458249,
                0.6974361370641504,
                0.6699264676826849
            ]
        },
        {
            "positions": [
                0.8329565833842338,
                -1.8221626405355569,
                -1.639556048667334,
                0.7461256565595135,
                0.7426637604205077,
                0.7374889852027455
            ]
        },
        {
            "positions": [
                0.9214136338864946,
                -1.782485597784297,
                -1.562833305649777,
                0.680726040273202,
                0.7878913837768653,
                0.8050515027228063
            ]
        },
        {
            "positions": [
                1.0098706843887553,
                -1.7428085550330374,
                -1.48611056263222,
                0.6153264239868905,
                0.8331190071332228,
                0.872614020242867
            ]
        },
        {
            "positions": [
                1.0983277348910159,
                -1.7031315122817778,
                -1.409387819614663,
                0.5499268077005791,
                0.8783466304895802,
                0.9401765377629278
            ]
        },
        {
            "positions": [
                1.1867847853932765,
                -1.6634544695305182,
                -1.332665076597106,
                0.4845271914142677,
                0.9235742538459377,
                1.0077390552829886
            ]
        },
        {
            "positions": [
                1.275241835895537,
                -1.6237774267792586,
                -1.2559423335795492,
                0.4191275751279563,
                0.9688018772022952,
                1.0753015728030493
            ]
        },
        {
            "positions": [
                1.363698886397798,
                -1.5841003840279986,
                -1.179219590561992,
                0.35372795884164476,
                1.0140295005586526,
                1.14286409032311
            ]
        },
        {
            "positions": [
                1.4521559369000583,
                -1.544423341276739,
                -1.1024968475444352,
                0.28832834255533335,
                1.0592571239150101,
                1.2104266078431707
            ]
        },
        {
            "positions": [
                1.540612987402319,
                -1.5047462985254794,
                -1.0257741045268782,
                0.22292872626902205,
                1.1044847472713677,
                1.2779891253632312
            ]
        },
        {
            "positions": [
                1.6290700379045797,
                -1.4650692557742198,
                -0.949051361509321,
                0.15752910998271052,
                1.149712370627725,
                1.345551642883292
            ]
        },
        {
            "positions": [
                1.7175270884068403,
                -1.42539221302296,
                -0.8723286184917642,
                0.09212949369639922,
                1.1949399939840826,
                1.4131141604033528
            ]
        },
        {
            "positions": [
                1.805984138909101,
                -1.3857151702717003,
                -0.7956058754742072,
                0.0267298774100877,
                1.2401676173404401,
                1.4806766779234135
            ]
        },
        {
            "positions": [
                1.8944411894113617,
                -1.3460381275204405,
                -0.7188831324566503,
                -0.038669738876223825,
                1.2853952406967974,
                1.5482391954434742
            ]
        },
        {
            "positions": [
                1.9828982399136224,
                -1.306361084769181,
                -0.6421603894390933,
                -0.10406935516253513,
                1.330622864053155,
                1.615801712963535
            ]
        },
        {
            "positions": [
                2.071355290415883,
                -1.2666840420179213,
                -0.5654376464215363,
                -0.16946897144884665,
                1.3758504874095125,
                1.6833642304835956
            ]
        },
        {
            "positions": [
                2.1598123409181436,
                -1.2270069992666615,
                -0.4887149034039793,
                -0.23486858773515817,
                1.42107811076587,
                1.7509267480036563
            ]
        },
        {
            "positions": [
                2.248269391420404,
                -1.1873299565154019,
                -0.4119921603864223,
                -0.30026820402146953,
                1.4663057341222274,
                1.818489265523717
            ]
        },
        {
            "positions": [
                2.277647174890366,
                -1.1739743949120782,
                -0.2399551072867867,
                -0.3373725578037966,
                1.4357226135537782,
                1.9231749092118222
            ]
        },
        {
            "positions": [
                2.3070249583603277,
                -1.1606188333087546,
                -0.06791805418715113,
                -0.37447691158612373,
                1.4051394929853291,
                2.0278605528999276
            ]
        },
        {
            "positions": [
                2.3364027418302897,
                -1.147263271705431,
                0.10411899891248444,
                -0.41158126536845085,
                1.37455637241688,
                2.132546196588033
            ]
        },
        {
            "positions": [
                2.3657805253002517,
                -1.1339077101021071,
                0.27615605201212,
                -0.4486856191507779,
                1.3439732518484306,
                2.237231840276138
            ]
        },
        {
            "positions": [
                2.3951583087702133,
                -1.1205521484987835,
                0.4481931051117556,
                -0.485789972933105,
                1.3133901312799816,
                2.3419174839642434
            ]
        },
        {
            "positions": [
                2.4245360922401753,
                -1.1071965868954599,
                0.6202301582113912,
                -0.5228943267154321,
                1.2828070107115324,
                2.4466031276523488
            ]
        },
        {
            "positions": [
                2.4539138757101373,
                -1.0938410252921362,
                0.7922672113110265,
                -0.5599986804977592,
                1.2522238901430833,
                2.551288771340454
            ]
        },
        {
            "positions": [
                2.4832916591800993,
                -1.0804854636888126,
                0.9643042644106623,
                -0.5971030342800863,
                1.221640769574634,
                2.6559744150285596
            ]
        },
        {
            "positions": [
                2.512669442650061,
                -1.067129902085489,
                1.1363413175102977,
                -0.6342073880624134,
                1.191057649006185,
                2.7606600587166645
            ]
        },
        {
            "positions": [
                2.542047226120023,
                -1.0537743404821651,
                1.3083783706099334,
                -0.6713117418447405,
                1.1604745284377358,
                2.86534570240477
            ]
        },
        {
            "positions": [
                2.571425009589985,
                -1.0404187788788415,
                1.4804154237095688,
                -0.7084160956270675,
                1.1298914078692865,
                2.970031346092875
            ]
        },
        {
            "positions": [
                2.6008027930599464,
                -1.0270632172755179,
                1.6524524768092046,
                -0.7455204494093948,
                1.0993082873008375,
                3.0747169897809803
            ]
        },
        {
            "positions": [
                2.6301805765299084,
                -1.0137076556721942,
                1.8244895299088397,
                -0.7826248031917218,
                1.0687251667323883,
                3.1794026334690857
            ]
        }
    ]
}