{
    "goal": {
        "global_pose": {
            "orientation": {
                "w": 0.7047431468963623,
                "x": -0.7094548344612122,
                "y": 0.0024358443915843964,
                "z": -0.0022348060738295317
            },
            "position": {
                "x": 0.6094750761985779,
                "y": 0.3671506643295288,
                "z": 0.19426114857196808
            }
        },
        "name": "move_to_magneteinheit_A"
    },
    "id": "SPARStwo_move_to_magneteinheit_A_18",
    "joint_names": [
        "shoulder_pan_joint",
        "shoulder_lift_joint",
        "elbow_joint",
        "wrist_1_joint",
        "wrist_2_joint",
        "wrist_3_joint"
    ],
    "metrics": {
        "cart_traj_len": 3.173011902970059,
        "distance_elbow_joint": 4.229305819071859,
        "distance_shoulder_lift_joint": 1.2411141507573453,
        "distance_shoulder_pan_joint": 2.8169357608072603,
        "distance_wrist_1_joint": 0.7028440513029888,
        "distance_wrist_2_joint": 2.2288221581889673,
        "distance_wrist_3_joint": 2.7518105645095283,
        "smoothness": 0.07423924705115983,
        "time": 5.0353394719999995,
        "traj_len": 3.7377576840450684,
        "weighted_distance": 4.733510308761243
    },
    "planner": "SPARStwo",
    "start": {
        "state": {
            "elbow_joint": -1.9196185241190666,
            "shoulder_lift_joint": -1.2443396400964142,
            "shoulder_pan_joint": 2.6996025414629847,
            "wrist_1_joint": -1.5485510000780065,
            "wrist_2_joint": -1.5709468930060704,
            "wrist_3_joint": 0.4420197071253992
        }
    },
    "waypoints": [
        {
            "positions": [
                2.6996025414629847,
                -1.2443396400964142,
                -1.9196185241190666,
                -1.5485510000780065,
                -1.5709468930060704,
                0.4420197071253992
            ]
        },
        {
            "positions": [
                2.5937094838312587,
                -1.2692428209977866,
                -1.7509825458137798,
                -1.54877740593025,
                -1.4865317077355011,
                0.44131449955061347
            ]
        },
        {
            "positions": [
                2.487816426199532,
                -1.2941460018991588,
                -1.582346567508493,
                -1.5490038117824931,
                -1.402116522464932,
                0.4406092919758277
            ]
        },
        {
            "positions": [
                2.381923368567806,
                -1.3190491828005313,
                -1.4137105892032062,
                -1.5492302176347366,
                -1.3177013371943627,
                0.439904084401042
            ]
        },
        {
            "positions": [
                2.27603031093608,
                -1.3439523637019037,
                -1.2450746108979192,
                -1.5494566234869798,
                -1.2332861519237932,
                0.43919887682625625
            ]
        },
        {
            "positions": [
                2.1701372533043535,
                -1.3688555446032762,
                -1.0764386325926325,
                -1.5496830293392232,
                -1.1488709666532242,
                0.43849366925147054
            ]
        },
        {
            "positions": [
                2.0642441956726274,
                -1.3937587255046484,
                -0.9078026542873456,
                -1.5499094351914664,
                -1.0644557813826547,
                0.43778846167668484
            ]
        },
        {
            "positions": [
                1.958351138040901,
                -1.4186619064060209,
                -0.7391666759820588,
                -1.5501358410437098,
                -0.9800405961120855,
                0.4370832541018991
            ]
        },
        {
            "positions": [
                1.8524580804091748,
                -1.4435650873073933,
                -0.5705306976767719,
                -1.550362246895953,
                -0.8956254108415163,
                0.4363780465271134
            ]
        },
        {
            "positions": [
                1.7465650227774487,
                -1.4684682682087657,
                -0.401894719371485,
                -1.5505886527481965,
                -0.8112102255709469,
                0.4356728389523276
            ]
        },
        {
            "positions": [
                1.6406719651457224,
                -1.493371449110138,
                -0.23325874106619837,
                -1.5508150586004397,
                -0.7267950403003778,
                0.4349676313775419
            ]
        },
        {
            "positions": [
                1.5347789075139961,
                -1.5182746300115104,
                -0.06462276276091128,
                -1.551041464452683,
                -0.6423798550298084,
                0.4342624238027562
            ]
        },
        {
            "positions": [
                1.42888584988227,
                -1.5431778109128829,
                0.10401321554437537,
                -1.5512678703049263,
                -0.5579646697592393,
                0.43355721622797044
            ]
        },
        {
            "positions": [
                1.3229927922505438,
                -1.5680809918142553,
                0.272649193849662,
                -1.5514942761571697,
                -0.47354948448867007,
                0.43285200865318474
            ]
        },
        {
            "positions": [
                1.2170997346188175,
                -1.5929841727156275,
                0.4412851721549491,
                -1.551720682009413,
                -0.3891342992181006,
                0.432146801078399
            ]
        },
        {
            "positions": [
                1.1112066769870912,
                -1.617887353617,
                0.6099211504602362,
                -1.5519470878616564,
                -0.3047191139475314,
                0.4314415935036133
            ]
        },
        {
            "positions": [
                1.0053136193553651,
                -1.6427905345183724,
                0.7785571287655229,
                -1.5521734937138996,
                -0.22030392867696214,
                0.43073638592882757
            ]
        },
        {
            "positions": [
                0.899420561723639,
                -1.6676937154197446,
                0.9471931070708095,
                -1.552399899566143,
                -0.1358887434063929,
                0.4300311783540418
            ]
        },
        {
            "positions": [
                0.7935275040919125,
                -1.6925968963211173,
                1.1158290853760966,
                -1.5526263054183862,
                -0.05147355813582344,
                0.4293259707792561
            ]
        },
        {
            "positions": [
                0.6876344464601862,
                -1.7175000772224895,
                1.2844650636813832,
                -1.5528527112706296,
                0.0329416271347458,
                0.4286207632044704
            ]
        },
        {
            "positions": [
                0.5817413888284602,
                -1.742403258123862,
                1.45310104198667,
                -1.5530791171228728,
                0.11735681240531481,
                0.42791555562968464
            ]
        },
        {
            "positions": [
                0.4758483311967341,
                -1.7673064390252344,
                1.621737020291957,
                -1.5533055229751163,
                0.20177199767588405,
                0.42721034805489894
            ]
        },
        {
            "positions": [
                0.36995527356500757,
                -1.7922096199266067,
                1.790372998597244,
                -1.5535319288273595,
                0.2861871829464535,
                0.4265051404801132
            ]
        },
        {
            "positions": [
                0.26406221593328133,
                -1.817112800827979,
                1.9590089769025305,
                -1.553758334679603,
                0.3706023682170228,
                0.42579993290532747
            ]
        },
        {
            "positions": [
                0.2084489786956979,
                -1.8085041028596482,
                2.004251582907045,
                -1.5148220646183241,
                0.3770282901865533,
                0.5912329845761393
            ]
        },
        {
            "positions": [
                0.1528357414581145,
                -1.7998954048913174,
                2.0494941889115594,
                -1.4758857945570456,
                0.3834542121560838,
                0.7566660362469511
            ]
        },
        {
            "positions": [
                0.09722250422053108,
                -1.7912867069229865,
                2.094736794916074,
                -1.436949524495767,
                0.3898801341256143,
                0.9220990879177628
            ]
        },
        {
            "positions": [
                0.041609266982947646,
                -1.7826780089546557,
                2.1399794009205886,
                -1.3980132544344883,
                0.3963060560951448,
                1.0875321395885746
            ]
        },
        {
            "positions": [
                0.02845322945768487,
                -1.7436699051476054,
                2.1431180116193356,
                -1.353351232593423,
                0.381457997375433,
                1.2647139492703428
            ]
        },
        {
            "positions": [
                0.015297191932422093,
                -1.704661801340555,
                2.1462566223180826,
                -1.3086892107523578,
                0.3666099386557213,
                1.4418957589521106
            ]
        },
        {
            "positions": [
                0.0021411544071593125,
                -1.6656536975335048,
                2.1493952330168296,
                -1.2640271889112924,
                0.3517618799360095,
                1.6190775686338787
            ]
        },
        {
            "positions": [
                0.012750366573882631,
                -1.6006616249237813,
                2.132272879687382,
                -1.2099752762240144,
                0.32477804927219106,
                1.825105311646878
            ]
        },
        {
            "positions": [
                0.02335957874060595,
                -1.5356695523140578,
                2.1151505263579344,
                -1.155923363536736,
                0.2977942186083727,
                2.0311330546598776
            ]
        },
        {
            "positions": [
                0.033968790907329266,
                -1.4706774797043343,
                2.0980281730284873,
                -1.101871450849458,
                0.27081038794455425,
                2.237160797672877
            ]
        },
        {
            "positions": [
                0.04457800307405259,
                -1.4056854070946108,
                2.0809058196990398,
                -1.04781953816218,
                0.24382655728073585,
                2.443188540685876
            ]
        },
        {
            "positions": [
                0.055187215240775904,
                -1.3406933344848873,
                2.063783466369592,
                -0.9937676254749018,
                0.21684272661691745,
                2.6492162836988755
            ]
        },
        {
            "positions": [
                0.07732998621338186,
                -1.2767194932573245,
                2.038890034606684,
                -0.9478856229760048,
                0.1894741000804093,
                2.8199410968641785
            ]
        },
        {
            "positions": [
                0.0994727571859878,
                -1.2127456520297615,
                2.0139966028437755,
                -0.9020036204771076,
                0.16210547354390117,
                2.990665910029481
            ]
        },
        {
            "positions": [
                0.12161552815859374,
                -1.1487718108021987,
                1.989103171080867,
                -0.8561216179782105,
                0.13473684700739302,
                3.161390723194784
            ]
        }
    ]
}