{
    "goal": {
        "global_pose": {
            "orientation": {
                "w": -0.00223480608172531,
                "x": 0.0024358444001904467,
                "y": 0.7094548369677653,
                "z": -0.704743149386269
            },
            "position": {
                "x": 0.6205249238014221,
                "y": -0.6371506643295288,
                "z": 0.19426114857196808
            }
        },
        "name": "move_to_magneteinheit_B"
    },
    "id": "SPARS_move_to_magneteinheit_B_71",
    "joint_names": [
        "shoulder_pan_joint",
        "shoulder_lift_joint",
        "elbow_joint",
        "wrist_1_joint",
        "wrist_2_joint",
        "wrist_3_joint"
    ],
    "metrics": {
        "cart_traj_len": 4.045701745920824,
        "distance_elbow_joint": 2.4485703873293883,
        "distance_shoulder_lift_joint": 1.7199772138939093,
        "distance_shoulder_pan_joint": 4.399482696769094,
        "distance_wrist_1_joint": 0.5743860713051081,
        "distance_wrist_2_joint": 1.5956032350225597,
        "distance_wrist_3_joint": 0.7235909205244776,
        "smoothness": 0.8234177160135285,
        "time": 5.155756536,
        "traj_len": 3.385500040591424,
        "weighted_distance": 3.8831406969386464
    },
    "planner": "SPARS",
    "start": {
        "state": {
            "elbow_joint": 2.6216224122426386,
            "shoulder_lift_joint": -1.4174107377796124,
            "shoulder_pan_joint": 0.7066234856936794,
            "wrist_1_joint": 1.9546482284002225,
            "wrist_2_joint": -0.7096286983471962,
            "wrist_3_joint": 0.005740856962016249
        }
    },
    "waypoints": [
        {
            "positions": [
                0.7066234856936794,
                -1.4174107377796124,
                2.6216224122426386,
                1.9546482284002225,
                -0.7096286983471962,
                0.005740856962016249
            ]
        },
        {
            "positions": [
                0.7867229126505633,
                -1.4626207551548398,
                2.622261206090276,
                1.9527583206076276,
                -0.6996609016907159,
                0.014289481065156111
            ]
        },
        {
            "positions": [
                0.8724934018756302,
                -1.5493851317894924,
                2.676941236249121,
                1.9064622416909396,
                -0.7049504051115307,
                -0.04104291171030001
            ]
        },
        {
            "positions": [
                0.9582638911006971,
                -1.636149508424145,
                2.7316212664079655,
                1.8601661627742514,
                -0.7102399085323456,
                -0.09637530448575612
            ]
        },
        {
            "positions": [
                1.0440343803257641,
                -1.7229138850587975,
                2.78630129656681,
                1.8138700838575634,
                -0.7155294119531604,
                -0.15170769726121222
            ]
        },
        {
            "positions": [
                1.129804869550831,
                -1.8096782616934501,
                2.840981326725655,
                1.7675740049408755,
                -0.7208189153739752,
                -0.20704009003666834
            ]
        },
        {
            "positions": [
                1.2504591932894877,
                -1.821091736617845,
                2.6600260494739274,
                1.8037210490460391,
                -0.7169118292919218,
                -0.22472268515393884
            ]
        },
        {
            "positions": [
                1.3711135170281448,
                -1.8325052115422398,
                2.4790707722222,
                1.8398680931512028,
                -0.7130047432098683,
                -0.24240528027120933
            ]
        },
        {
            "positions": [
                1.4917678407668018,
                -1.8439186864666346,
                2.2981154949704723,
                1.8760151372563667,
                -0.7090976571278147,
                -0.26008787538847983
            ]
        },
        {
            "positions": [
                1.6124221645054586,
                -1.8553321613910292,
                2.1171602177187445,
                1.9121621813615304,
                -0.7051905710457612,
                -0.2777704705057503
            ]
        },
        {
            "positions": [
                1.7330764882441154,
                -1.866745636315424,
                1.9362049404670172,
                1.948309225466694,
                -0.7012834849637077,
                -0.29545306562302076
            ]
        },
        {
            "positions": [
                1.8537308119827725,
                -1.8781591112398188,
                1.7552496632152894,
                1.984456269571858,
                -0.6973763988816541,
                -0.31313566074029126
            ]
        },
        {
            "positions": [
                1.9743851357214295,
                -1.8895725861642136,
                1.5742943859635619,
                2.0206033136770216,
                -0.6934693127996007,
                -0.33081825585756175
            ]
        },
        {
            "positions": [
                2.0950394594600863,
                -1.9009860610886085,
                1.3933391087118343,
                2.0567503577821853,
                -0.6895622267175472,
                -0.34850085097483224
            ]
        },
        {
            "positions": [
                1.9260043914145948,
                -1.8235726167609538,
                1.3652273700988105,
                2.0673911054883005,
                -0.7888015597121033,
                -0.3427917402304058
            ]
        },
        {
            "positions": [
                1.7569693233691033,
                -1.7461591724332994,
                1.3371156314857866,
                2.0780318531944153,
                -0.8880408927066594,
                -0.3370826294859794
            ]
        },
        {
            "positions": [
                1.587934255323612,
                -1.6687457281056448,
                1.3090038928727625,
                2.0886726009005305,
                -0.9872802257012155,
                -0.331373518741553
            ]
        },
        {
            "positions": [
                1.4188991872781205,
                -1.5913322837779904,
                1.2808921542597387,
                2.0993133486066453,
                -1.0865195586957717,
                -0.3256644079971266
            ]
        },
        {
            "positions": [
                1.249864119232629,
                -1.5139188394503358,
                1.2527804156467148,
                2.1099540963127605,
                -1.1857588916903279,
                -0.31995529725270017
            ]
        },
        {
            "positions": [
                1.0808290511871377,
                -1.4365053951226814,
                1.224668677033691,
                2.1205948440188753,
                -1.284998224684884,
                -0.31424618650827374
            ]
        },
        {
            "positions": [
                0.911793983141646,
                -1.3590919507950268,
                1.196556938420667,
                2.1312355917249906,
                -1.3842375576794401,
                -0.30853707576384737
            ]
        },
        {
            "positions": [
                0.7427589150961547,
                -1.2816785064673724,
                1.168445199807643,
                2.1418763394311053,
                -1.4834768906739961,
                -0.30282796501942094
            ]
        },
        {
            "positions": [
                0.5737238470506631,
                -1.2042650621397177,
                1.1403334611946192,
                2.1525170871372206,
                -1.5827162236685524,
                -0.2971188542749945
            ]
        },
        {
            "positions": [
                0.40819594587363384,
                -1.1443005186246042,
                1.199062750896323,
                2.152780283320489,
                -1.6538347502324842,
                -0.26368885786593765
            ]
        },
        {
            "positions": [
                0.24266804469660452,
                -1.0843359751094905,
                1.2577920405980267,
                2.1530434795037574,
                -1.7249532767964162,
                -0.23025886145688085
            ]
        },
        {
            "positions": [
                0.07714014351957521,
                -1.024371431594377,
                1.3165213302997305,
                2.153306675687026,
                -1.796071803360348,
                -0.19682886504782401
            ]
        },
        {
            "positions": [
                -0.0883877576574541,
                -0.9644068880792634,
                1.3752506200014343,
                2.1535698718702943,
                -1.8671903299242798,
                -0.16339886863876718
            ]
        },
        {
            "positions": [
                -0.2539156588344835,
                -0.9044423445641498,
                1.433979909703138,
                2.153833068053563,
                -1.9383088564882118,
                -0.12996887222971032
            ]
        },
        {
            "positions": [
                -0.41944356001151273,
                -0.8444778010490364,
                1.4927091994048418,
                2.154096264236831,
                -2.0094273830521434,
                -0.09653887582065351
            ]
        },
        {
            "positions": [
                -0.5849714611885422,
                -0.7845132575339226,
                1.5514384891065456,
                2.1543594604200997,
                -2.0805459096160757,
                -0.06310887941159665
            ]
        },
        {
            "positions": [
                -0.7504993623655714,
                -0.7245487140188092,
                1.6101677788082494,
                2.154622656603368,
                -2.1516644361800075,
                -0.029678883002539846
            ]
        },
        {
            "positions": [
                -0.9160272635426009,
                -0.6645841705036956,
                1.6688970685099531,
                2.1548858527866366,
                -2.2227829627439393,
                0.0037511134065170144
            ]
        }
    ]
}