{
    "goal": {
        "global_pose": {
            "orientation": {
                "w": 0.5084816262002911,
                "x": -0.4908360881923452,
                "y": 0.5182115481033761,
                "z": -0.48164630358495003
            },
            "position": {
                "x": 0.5540239810943604,
                "y": -0.46912469901144505,
                "z": 0.16403168439865112
            }
        },
        "name": "move_to_storage_B"
    },
    "id": "SPARStwo_move_to_storage_B_6",
    "joint_names": [
        "shoulder_pan_joint",
        "shoulder_lift_joint",
        "elbow_joint",
        "wrist_1_joint",
        "wrist_2_joint",
        "wrist_3_joint"
    ],
    "metrics": {
        "cart_traj_len": 1.8000223736690133,
        "distance_elbow_joint": 1.14071899257834,
        "distance_shoulder_lift_joint": 0.7737981110603561,
        "distance_shoulder_pan_joint": 1.7224315754809296,
        "distance_wrist_1_joint": 2.986475558267499,
        "distance_wrist_2_joint": 3.784019261472876,
        "distance_wrist_3_joint": 3.1671544895064616,
        "smoothness": 0.27241980149963985,
        "time": 5.053828365,
        "traj_len": 3.6843721294633727,
        "weighted_distance": 5.165210720495318
    },
    "planner": "SPARStwo",
    "start": {
        "state": {
            "elbow_joint": 1.664933442143537,
            "shoulder_lift_joint": -0.6616394447335833,
            "shoulder_pan_joint": -0.9139842036674819,
            "wrist_1_joint": 2.1467570250598067,
            "wrist_2_joint": -2.234195602830096,
            "wrist_3_joint": 0.005471150212293033
        }
    },
    "waypoints": [
        {
            "positions": [
                -0.9139842036674819,
                -0.6616394447335833,
                1.664933442143537,
                2.1467570250598067,
                -2.234195602830096,
                0.005471150212293033
            ]
        },
        {
            "positions": [
                -0.7864924291782728,
                -0.7594618776346478,
                1.6635853074923888,
                2.1134652977628248,
                -2.206050777661714,
                -0.004790091945059603
            ]
        },
        {
            "positions": [
                -0.7558876371713713,
                -0.7841381118333425,
                1.6448418014329222,
                2.056377846839904,
                -2.0527926993266683,
                0.10228022397636263
            ]
        },
        {
            "positions": [
                -0.7252828451644698,
                -0.8088143460320372,
                1.6260982953734557,
                1.9992903959169828,
                -1.8995346209916226,
                0.20935053989778485
            ]
        },
        {
            "positions": [
                -0.6946780531575684,
                -0.8334905802307319,
                1.6073547893139892,
                1.9422029449940619,
                -1.746276542656577,
                0.3164208558192071
            ]
        },
        {
            "positions": [
                -0.6640732611506668,
                -0.8581668144294265,
                1.5886112832545227,
                1.8851154940711408,
                -1.5930184643215313,
                0.42349117174062934
            ]
        },
        {
            "positions": [
                -0.6334684691437653,
                -0.8828430486281212,
                1.5698677771950562,
                1.8280280431482199,
                -1.4397603859864856,
                0.5305614876620515
            ]
        },
        {
            "positions": [
                -0.6028636771368638,
                -0.9075192828268159,
                1.5511242711355897,
                1.7709405922252988,
                -1.2865023076514401,
                0.6376318035834737
            ]
        },
        {
            "positions": [
                -0.5722588851299624,
                -0.9321955170255105,
                1.5323807650761232,
                1.7138531413023779,
                -1.1332442293163945,
                0.744702119504896
            ]
        },
        {
            "positions": [
                -0.5416540931230609,
                -0.9568717512242053,
                1.5136372590166567,
                1.6567656903794568,
                -0.9799861509813488,
                0.8517724354263182
            ]
        },
        {
            "positions": [
                -0.5110493011161594,
                -0.9815479854228999,
                1.4948937529571902,
                1.5996782394565359,
                -0.8267280726463031,
                0.9588427513477404
            ]
        },
        {
            "positions": [
                -0.4804445091092579,
                -1.0062242196215947,
                1.4761502468977237,
                1.542590788533615,
                -0.6734699943112574,
                1.0659130672691626
            ]
        },
        {
            "positions": [
                -0.44983971710235643,
                -1.0309004538202893,
                1.4574067408382572,
                1.4855033376106936,
                -0.5202119159762117,
                1.1729833831905851
            ]
        },
        {
            "positions": [
                -0.41923492509545496,
                -1.055576688018984,
                1.4386632347787907,
                1.4284158866877728,
                -0.3669538376411663,
                1.280053699112007
            ]
        },
        {
            "positions": [
                -0.38863013308855343,
                -1.0802529222176787,
                1.4199197287193241,
                1.3713284357648519,
                -0.2136957593061204,
                1.3871240150334294
            ]
        },
        {
            "positions": [
                -0.35802534108165196,
                -1.1049291564163735,
                1.4011762226598576,
                1.314240984841931,
                -0.060437680971074936,
                1.4941943309548515
            ]
        },
        {
            "positions": [
                -0.3274205490747505,
                -1.129605390615068,
                1.3824327166003911,
                1.2571535339190099,
                0.09282039736397074,
                1.601264646876274
            ]
        },
        {
            "positions": [
                -0.296815757067849,
                -1.1542816248137626,
                1.3636892105409246,
                1.2000660829960887,
                0.24607847569901642,
                1.708334962797696
            ]
        },
        {
            "positions": [
                -0.26621096506094755,
                -1.1789578590124574,
                1.3449457044814581,
                1.1429786320731679,
                0.3993365540340621,
                1.8154052787191184
            ]
        },
        {
            "positions": [
                -0.23560617305404608,
                -1.2036340932111522,
                1.3262021984219916,
                1.085891181150247,
                0.5525946323691078,
                1.9224755946405405
            ]
        },
        {
            "positions": [
                -0.2050013810471445,
                -1.2283103274098468,
                1.307458692362525,
                1.0288037302273259,
                0.7058527107041535,
                2.0295459105619633
            ]
        },
        {
            "positions": [
                -0.17439658904024302,
                -1.2529865616085414,
                1.2887151863030586,
                0.971716279304405,
                0.8591107890391991,
                2.136616226483385
            ]
        },
        {
            "positions": [
                -0.14379179703334152,
                -1.2776627958072362,
                1.269971680243592,
                0.9146288283814838,
                1.012368867374245,
                2.2436865424048076
            ]
        },
        {
            "positions": [
                -0.21704096386770994,
                -1.265526275808259,
                1.3273376210650072,
                0.7796790313361626,
                0.9710261911228191,
                2.3135647434047493
            ]
        },
        {
            "positions": [
                -0.2902901307020783,
                -1.253389755809282,
                1.384703561886422,
                0.6447292342908414,
                0.9296835148713932,
                2.383442944404691
            ]
        },
        {
            "positions": [
                -0.3635392975364467,
                -1.2412532358103048,
                1.4420695027078372,
                0.5097794372455201,
                0.8883408386199673,
                2.4533211454046326
            ]
        },
        {
            "positions": [
                -0.4367884643708151,
                -1.2291167158113274,
                1.499435443529252,
                0.37482964020019893,
                0.8469981623685414,
                2.5231993464045743
            ]
        },
        {
            "positions": [
                -0.5100376312051835,
                -1.2169801958123503,
                1.5568013843506672,
                0.23987984315487765,
                0.8056554861171155,
                2.593077547404516
            ]
        },
        {
            "positions": [
                -0.5832867980395519,
                -1.2048436758133731,
                1.6141673251720823,
                0.10493004610955636,
                0.7643128098656896,
                2.6629557484044577
            ]
        },
        {
            "positions": [
                -0.6565359648739203,
                -1.192707155814396,
                1.6715332659934972,
                -0.0300197509357647,
                0.7229701336142638,
                2.7328339494043994
            ]
        },
        {
            "positions": [
                -0.7297851317082887,
                -1.1805706358154189,
                1.7288992068149123,
                -0.16496954798108598,
                0.6816274573628378,
                2.802712150404341
            ]
        },
        {
            "positions": [
                -0.8030342985426571,
                -1.1684341158164417,
                1.7862651476363274,
                -0.29991934502640727,
                0.6402847811114118,
                2.8725903514042828
            ]
        },
        {
            "positions": [
                -0.8762834653770255,
                -1.1562975958174644,
                1.8436310884577423,
                -0.43486914207172855,
                0.5989421048599859,
                2.9424685524042244
            ]
        },
        {
            "positions": [
                -0.9495326322113938,
                -1.1441610758184872,
                1.9009970292791571,
                -0.5698189391170496,
                0.55759942860856,
                3.012346753404166
            ]
        },
        {
            "positions": [
                -1.0227817990457622,
                -1.1320245558195101,
                1.9583629701005725,
                -0.7047687361623711,
                0.5162567523571342,
                3.082224954404108
            ]
        },
        {
            "positions": [
                -1.0960309658801306,
                -1.119888035820533,
                2.0157289109219874,
                -0.8397185332076922,
                0.4749140761057083,
                3.1521031554040495
            ]
        }
    ]
}