{
    "goal": {
        "global_pose": {
            "orientation": {
                "w": 0.7047431493862688,
                "x": -0.7094548369677653,
                "y": 0.0024358444001904,
                "z": -0.0022348060817251984
            },
            "position": {
                "x": -0.39052492380142206,
                "y": 0.3671506643295288,
                "z": 0.19426114857196808
            }
        },
        "name": "move_to_magneteinheit_D"
    },
    "id": "SPARS_move_to_magneteinheit_D_122",
    "joint_names": [
        "shoulder_pan_joint",
        "shoulder_lift_joint",
        "elbow_joint",
        "wrist_1_joint",
        "wrist_2_joint",
        "wrist_3_joint"
    ],
    "metrics": {
        "cart_traj_len": 4.750092846695337,
        "distance_elbow_joint": 3.6312423688020536,
        "distance_shoulder_lift_joint": 1.6253298867671286,
        "distance_shoulder_pan_joint": 3.2962933814330286,
        "distance_wrist_1_joint": 2.523826179037547,
        "distance_wrist_2_joint": 0.5759766352433024,
        "distance_wrist_3_joint": 3.3063020213365286,
        "smoothness": 0.24908828935299346,
        "time": 5.041898002,
        "traj_len": 3.8676828298891825,
        "weighted_distance": 4.967029024434375
    },
    "planner": "SPARS",
    "start": {
        "state": {
            "elbow_joint": 0.749534889911806,
            "shoulder_lift_joint": -0.6476975780787326,
            "shoulder_pan_joint": -2.711696901376241,
            "wrist_1_joint": -0.07506478083263063,
            "wrist_2_joint": 0.43296659715538205,
            "wrist_3_joint": -3.14703540197715
        }
    },
    "waypoints": [
        {
            "positions": [
                -2.711696901376241,
                -0.6476975780787326,
                0.749534889911806,
                -0.07506478083263063,
                0.43296659715538205,
                -3.14703540197715
            ]
        },
        {
            "positions": [
                -2.730341292317229,
                -0.7009979321966969,
                0.7842517106938373,
                -0.09847356517695194,
                0.45571424074368067,
                -2.9553734782905936
            ]
        },
        {
            "positions": [
                -2.748985683258217,
                -0.7542982863146612,
                0.8189685314758686,
                -0.12188234952127325,
                0.4784618843319793,
                -2.763711554604037
            ]
        },
        {
            "positions": [
                -2.767630074199205,
                -0.8075986404326255,
                0.8536853522578999,
                -0.14529113386559456,
                0.501209527920278,
                -2.5720496309174803
            ]
        },
        {
            "positions": [
                -2.7862744651401927,
                -0.8608989945505898,
                0.8884021730399312,
                -0.16869991820991587,
                0.5239571715085766,
                -2.380387707230924
            ]
        },
        {
            "positions": [
                -2.804918856081181,
                -0.9141993486685542,
                0.9231189938219626,
                -0.19210870255423718,
                0.5467048150968752,
                -2.188725783544367
            ]
        },
        {
            "positions": [
                -2.8235632470221685,
                -0.9674997027865184,
                0.9578358146039939,
                -0.21551748689855849,
                0.5694524586851738,
                -1.9970638598578108
            ]
        },
        {
            "positions": [
                -2.8422076379631567,
                -1.0208000569044828,
                0.9925526353860252,
                -0.2389262712428798,
                0.5922001022734724,
                -1.805401936171254
            ]
        },
        {
            "positions": [
                -2.6924135539639815,
                -1.0484424028736243,
                0.8981628034325293,
                -0.25805109959707695,
                0.5831425580316836,
                -1.7201111618485059
            ]
        },
        {
            "positions": [
                -2.542619469964807,
                -1.076084748842766,
                0.8037729714790334,
                -0.27717592795127405,
                0.5740850137898947,
                -1.6348203875257576
            ]
        },
        {
            "positions": [
                -2.3928253859656317,
                -1.1037270948119076,
                0.7093831395255376,
                -0.2963007563054712,
                0.565027469548106,
                -1.5495296132030094
            ]
        },
        {
            "positions": [
                -2.2430313019664565,
                -1.1313694407810493,
                0.6149933075720416,
                -0.3154255846596683,
                0.5559699253063172,
                -1.464238838880261
            ]
        },
        {
            "positions": [
                -2.0932372179672813,
                -1.1590117867501908,
                0.5206034756185457,
                -0.33455041301386546,
                0.5469123810645283,
                -1.3789480645575127
            ]
        },
        {
            "positions": [
                -1.9434431339681064,
                -1.1866541327193325,
                0.4262136436650499,
                -0.3536752413680626,
                0.5378548368227395,
                -1.2936572902347645
            ]
        },
        {
            "positions": [
                -1.7936490499689313,
                -1.214296478688474,
                0.33182381171155384,
                -0.37280006972225976,
                0.5287972925809508,
                -1.208366515912016
            ]
        },
        {
            "positions": [
                -1.6438549659697563,
                -1.2419388246576157,
                0.23743397975805802,
                -0.39192489807645686,
                0.5197397483391619,
                -1.1230757415892678
            ]
        },
        {
            "positions": [
                -1.4940608819705812,
                -1.2695811706267572,
                0.1430441478045621,
                -0.411049726430654,
                0.5106822040973731,
                -1.0377849672665196
            ]
        },
        {
            "positions": [
                -1.344266797971406,
                -1.2972235165958987,
                0.048654315851066166,
                -0.43017455478485117,
                0.5016246598555842,
                -0.9524941929437712
            ]
        },
        {
            "positions": [
                -1.1944727139722309,
                -1.3248658625650405,
                -0.04573551610242976,
                -0.44929938313904827,
                0.49256711561379546,
                -0.8672034186210229
            ]
        },
        {
            "positions": [
                -1.0446786299730562,
                -1.352508208534182,
                -0.14012534805592547,
                -0.4684242114932454,
                0.4835095713720067,
                -0.7819126442982749
            ]
        },
        {
            "positions": [
                -0.894884545973881,
                -1.3801505545033237,
                -0.2345151800094214,
                -0.4875490398474426,
                0.47445202713021783,
                -0.6966218699755264
            ]
        },
        {
            "positions": [
                -0.7450904619747059,
                -1.4077929004724652,
                -0.32890501196291755,
                -0.5066738682016396,
                0.465394482888429,
                -0.6113310956527782
            ]
        },
        {
            "positions": [
                -0.5952963779755307,
                -1.435435246441607,
                -0.4232948439164135,
                -0.5257986965558368,
                0.45633693864664016,
                -0.5260403213300298
            ]
        },
        {
            "positions": [
                -0.445502293976356,
                -1.4630775924107484,
                -0.5176846758699092,
                -0.5449235249100339,
                0.4472793944048514,
                -0.44074954700728175
            ]
        },
        {
            "positions": [
                -0.29570820997718084,
                -1.4907199383798901,
                -0.6120745078234051,
                -0.5640483532642311,
                0.4382218501630626,
                -0.3554587726845333
            ]
        },
        {
            "positions": [
                -0.1459141259780059,
                -1.5183622843490316,
                -0.7064643397769012,
                -0.5831731816184282,
                0.42916430592127375,
                -0.27016799836178507
            ]
        },
        {
            "positions": [
                -0.12941943258909613,
                -1.5645593669057427,
                -0.8311636376348498,
                -0.44115411609021987,
                0.41513458734283376,
                -0.23979745754050122
            ]
        },
        {
            "positions": [
                -0.11292473920018638,
                -1.6107564494624536,
                -0.9558629354927984,
                -0.2991350505620115,
                0.4011048687643938,
                -0.20942691671921737
            ]
        },
        {
            "positions": [
                -0.09643004581127661,
                -1.6569535320191646,
                -1.0805622333507472,
                -0.15711598503380314,
                0.3870751501859538,
                -0.1790563758979335
            ]
        },
        {
            "positions": [
                -0.07993535242236685,
                -1.7031506145758755,
                -1.2052615312086958,
                -0.015096919505594775,
                0.3730454316075138,
                -0.14868583507664968
            ]
        },
        {
            "positions": [
                -0.06344065903345708,
                -1.7493476971325865,
                -1.3299608290666445,
                0.12692214602261365,
                0.3590157130290738,
                -0.1183152942553658
            ]
        },
        {
            "positions": [
                -0.04694596564454731,
                -1.7955447796892974,
                -1.4546601269245931,
                0.26894121155082196,
                0.3449859944506338,
                -0.08794475343408195
            ]
        },
        {
            "positions": [
                -0.030451272255637568,
                -1.8417418622460084,
                -1.5793594247825418,
                0.41096027707903027,
                0.3309562758721939,
                -0.05757421261279813
            ]
        },
        {
            "positions": [
                -0.013956578866727798,
                -1.8879389448027193,
                -1.7040587226404904,
                0.5529793426072387,
                0.31692655729375385,
                -0.027203671791514256
            ]
        },
        {
            "positions": [
                0.0025381145221819723,
                -1.9341360273594304,
                -1.828758020498439,
                0.694998408135447,
                0.3028968387153139,
                0.0031668690297695923
            ]
        },
        {
            "positions": [
                0.019032807911091743,
                -1.9803331099161414,
                -1.9534573183563877,
                0.8370174736636555,
                0.2888671201368739,
                0.03353740985105347
            ]
        },
        {
            "positions": [
                0.035527501300001485,
                -2.026530192472852,
                -2.0781566162143363,
                0.9790365391918636,
                0.27483740155843395,
                0.06390795067233729
            ]
        },
        {
            "positions": [
                0.05202219468891128,
                -2.072727275029563,
                -2.202855914072285,
                1.1210556047200722,
                0.26080768297999396,
                0.09427849149362116
            ]
        },
        {
            "positions": [
                0.06851688807782103,
                -2.118924357586274,
                -2.3275552119302336,
                1.2630746702482805,
                0.24677796440155397,
                0.12464903231490497
            ]
        },
        {
            "positions": [
                -0.05901217132474754,
                -2.1959759112160677,
                -2.3616135999360215,
                1.347809633440801,
                0.2111174682749072,
                0.1073402387926673
            ]
        },
        {
            "positions": [
                -0.1865412307273161,
                -2.2730274648458613,
                -2.3956719879418094,
                1.4325445966333212,
                0.17545697214826045,
                0.09003144527042964
            ]
        }
    ]
}