{
    "goal": {
        "global_pose": {
            "orientation": {
                "w": -0.00223480608172531,
                "x": 0.0024358444001904467,
                "y": 0.7094548369677653,
                "z": -0.704743149386269
            },
            "position": {
                "x": -0.37947507619857795,
                "y": -0.6371506643295288,
                "z": 0.19426114857196808
            }
        },
        "name": "move_to_magneteinheit_C"
    },
    "id": "SPARS_move_to_magneteinheit_C_15",
    "joint_names": [
        "shoulder_pan_joint",
        "shoulder_lift_joint",
        "elbow_joint",
        "wrist_1_joint",
        "wrist_2_joint",
        "wrist_3_joint"
    ],
    "metrics": {
        "cart_traj_len": 3.4380806912960638,
        "distance_elbow_joint": 2.1110049789855156,
        "distance_shoulder_lift_joint": 0.8098668711190615,
        "distance_shoulder_pan_joint": 3.5794195296352314,
        "distance_wrist_1_joint": 1.104857972856406,
        "distance_wrist_2_joint": 1.3493944633705581,
        "distance_wrist_3_joint": 8.813704306006395,
        "smoothness": 0.7903335520919967,
        "time": 5.078432439999999,
        "traj_len": 4.215239983912323,
        "weighted_distance": 6.152227984251959
    },
    "planner": "SPARS",
    "start": {
        "state": {
            "elbow_joint": 1.9565354010623817,
            "shoulder_lift_joint": -1.4165861575791021,
            "shoulder_pan_joint": -1.6717766225146293,
            "wrist_1_joint": -0.5286633292919765,
            "wrist_2_joint": 1.472756589071564,
            "wrist_3_joint": -3.1238370188695823
        }
    },
    "waypoints": [
        {
            "positions": [
                -1.6717766225146293,
                -1.4165861575791021,
                1.9565354010623817,
                -0.5286633292919765,
                1.472756589071564,
                -3.1238370188695823
            ]
        },
        {
            "positions": [
                -1.6346040457160065,
                -1.5270227834814505,
                1.9629512592040386,
                -0.5497807288450042,
                1.5291438797152612,
                -3.2384503656948516
            ]
        },
        {
            "positions": [
                -1.5974314689173839,
                -1.637459409383799,
                1.9693671173456953,
                -0.5708981283980319,
                1.5855311703589585,
                -3.3530637125201213
            ]
        },
        {
            "positions": [
                -1.4691832593383705,
                -1.6088703821074408,
                1.8597682212280129,
                -0.5480754971527079,
                1.5853513441295406,
                -3.2818047254197213
            ]
        },
        {
            "positions": [
                -1.3409350497593568,
                -1.5802813548310826,
                1.7501693251103307,
                -0.5252528659073838,
                1.5851715179001227,
                -3.210545738319321
            ]
        },
        {
            "positions": [
                -1.2126868401803432,
                -1.551692327554724,
                1.6405704289926484,
                -0.5024302346620599,
                1.5849916916707045,
                -3.139286751218921
            ]
        },
        {
            "positions": [
                -1.0844386306013298,
                -1.5231033002783658,
                1.530971532874966,
                -0.4796076034167359,
                1.5848118654412866,
                -3.068027764118521
            ]
        },
        {
            "positions": [
                -0.9561904210223163,
                -1.4945142730020076,
                1.4213726367572839,
                -0.4567849721714119,
                1.5846320392118687,
                -2.996768777018121
            ]
        },
        {
            "positions": [
                -0.8279422114433028,
                -1.465925245725649,
                1.3117737406396015,
                -0.43396234092608793,
                1.5844522129824505,
                -2.925509789917721
            ]
        },
        {
            "positions": [
                -0.6996940018642893,
                -1.4373362184492908,
                1.2021748445219194,
                -0.41113970968076397,
                1.5842723867530326,
                -2.8542508028173206
            ]
        },
        {
            "positions": [
                -0.5714457922852758,
                -1.4087471911729326,
                1.092575948404237,
                -0.38831707843543994,
                1.5840925605236147,
                -2.7829918157169207
            ]
        },
        {
            "positions": [
                -0.6688633083915617,
                -1.4042250343732323,
                1.0963141624114605,
                -0.4025164543435718,
                1.5274034298694135,
                -2.581549578388225
            ]
        },
        {
            "positions": [
                -0.7662808244978476,
                -1.399702877573532,
                1.100052376418684,
                -0.4167158302517036,
                1.4707142992152122,
                -2.3801073410595297
            ]
        },
        {
            "positions": [
                -0.8636983406041334,
                -1.3951807207738318,
                1.1037905904259075,
                -0.4309152061598355,
                1.414025168561011,
                -2.178665103730834
            ]
        },
        {
            "positions": [
                -0.9611158567104193,
                -1.3906585639741316,
                1.107528804433131,
                -0.44511458206796733,
                1.3573360379068098,
                -1.9772228664021387
            ]
        },
        {
            "positions": [
                -1.0585333728167052,
                -1.3861364071744313,
                1.1112670184403544,
                -0.4593139579760992,
                1.3006469072526086,
                -1.7757806290734433
            ]
        },
        {
            "positions": [
                -1.155950888922991,
                -1.381614250374731,
                1.1150052324475779,
                -0.473513333884231,
                1.2439577765984076,
                -1.5743383917447478
            ]
        },
        {
            "positions": [
                -1.253368405029277,
                -1.3770920935750308,
                1.1187434464548014,
                -0.48771270979236286,
                1.1872686459442063,
                -1.3728961544160523
            ]
        },
        {
            "positions": [
                -1.3507859211355628,
                -1.3725699367753306,
                1.122481660462025,
                -0.5019120857004947,
                1.130579515290005,
                -1.1714539170873568
            ]
        },
        {
            "positions": [
                -1.4482034372418489,
                -1.3680477799756303,
                1.1262198744692484,
                -0.5161114616086265,
                1.0738903846358039,
                -0.9700116797586613
            ]
        },
        {
            "positions": [
                -1.5456209533481347,
                -1.36352562317593,
                1.129958088476472,
                -0.5303108375167584,
                1.0172012539816027,
                -0.7685694424299658
            ]
        },
        {
            "positions": [
                -1.6430384694544207,
                -1.3590034663762296,
                1.1336963024836955,
                -0.5445102134248903,
                0.9605121233274014,
                -0.5671272051012703
            ]
        },
        {
            "positions": [
                -1.7404559855607065,
                -1.3544813095765293,
                1.137434516490919,
                -0.5587095893330221,
                0.9038229926732003,
                -0.36568496777257486
            ]
        },
        {
            "positions": [
                -1.8378735016669925,
                -1.349959152776829,
                1.1411727304981425,
                -0.572908965241154,
                0.8471338620189991,
                -0.16424273044387938
            ]
        },
        {
            "positions": [
                -1.9352910177732783,
                -1.3454369959771288,
                1.1449109445053658,
                -0.5871083411492858,
                0.7904447313647979,
                0.0371995068848161
            ]
        },
        {
            "positions": [
                -2.032708533879564,
                -1.3409148391774286,
                1.1486491585125893,
                -0.6013077170574177,
                0.7337556007105966,
                0.2386417442135116
            ]
        },
        {
            "positions": [
                -2.13012604998585,
                -1.3363926823777283,
                1.1523873725198128,
                -0.6155070929655495,
                0.6770664700563955,
                0.44008398154220707
            ]
        },
        {
            "positions": [
                -2.2275435660921357,
                -1.331870525578028,
                1.1561255865270363,
                -0.6297064688736813,
                0.6203773394021943,
                0.6415262188709026
            ]
        },
        {
            "positions": [
                -2.3249610821984215,
                -1.3273483687783278,
                1.1598638005342599,
                -0.6439058447818131,
                0.5636882087479931,
                0.842968456199598
            ]
        },
        {
            "positions": [
                -2.4223785983047077,
                -1.3228262119786276,
                1.1636020145414834,
                -0.658105220689945,
                0.5069990780937917,
                1.0444106935282935
            ]
        },
        {
            "positions": [
                -2.479137176032715,
                -1.3324017971110997,
                1.2911921339160592,
                -0.7247896456843392,
                0.5165039506807243,
                0.9377609506903778
            ]
        },
        {
            "positions": [
                -2.5358957537607223,
                -1.3419773822435717,
                1.4187822532906351,
                -0.7914740706787335,
                0.526008823267657,
                0.8311112078524621
            ]
        },
        {
            "positions": [
                -2.5926543314887294,
                -1.3515529673760438,
                1.546372372665211,
                -0.8581584956731279,
                0.5355136958545896,
                0.7244614650145462
            ]
        },
        {
            "positions": [
                -2.649412909216737,
                -1.361128552508516,
                1.673962492039787,
                -0.924842920667522,
                0.5450185684415222,
                0.6178117221766305
            ]
        },
        {
            "positions": [
                -2.7061714869447444,
                -1.3707041376409879,
                1.801552611414363,
                -0.9915273456619162,
                0.5545234410284547,
                0.5111619793387147
            ]
        },
        {
            "positions": [
                -2.7629300646727515,
                -1.38027972277346,
                1.9291427307889388,
                -1.0582117706563106,
                0.5640283136153874,
                0.4045122365007989
            ]
        },
        {
            "positions": [
                -2.7496089899415286,
                -1.3648100594005106,
                1.9583359233556978,
                -1.0534975229147245,
                0.573923644352377,
                0.10471523269420357
            ]
        },
        {
            "positions": [
                -2.736287915210306,
                -1.3493403960275612,
                1.9875291159224568,
                -1.0487832751731383,
                0.5838189750893666,
                -0.19508177111239178
            ]
        },
        {
            "positions": [
                -2.722966840479083,
                -1.3338707326546118,
                2.016722308489216,
                -1.0440690274315523,
                0.5937143058263562,
                -0.49487877491898713
            ]
        },
        {
            "positions": [
                -2.7096457657478608,
                -1.3184010692816623,
                2.0459155010559753,
                -1.0393547796899663,
                0.6036096365633459,
                -0.7946757787255825
            ]
        },
        {
            "positions": [
                -2.696324691016638,
                -1.302931405908713,
                2.075108693622734,
                -1.0346405319483802,
                0.6135049673003354,
                -1.0944727825321778
            ]
        },
        {
            "positions": [
                -2.683003616285415,
                -1.2874617425357635,
                2.1043018861894933,
                -1.0299262842067942,
                0.623400298037325,
                -1.3942697863387732
            ]
        },
        {
            "positions": [
                -2.6696825415541925,
                -1.271992079162814,
                2.133495078756252,
                -1.025212036465208,
                0.6332956287743147,
                -1.6940667901453685
            ]
        },
        {
            "positions": [
                -2.6563614668229696,
                -1.2565224157898647,
                2.1626882713230113,
                -1.020497788723622,
                0.6431909595113042,
                -1.9938637939519641
            ]
        },
        {
            "positions": [
                -2.6201543009892454,
                -1.2378924949637116,
                2.1324343171546176,
                -0.9860110987967821,
                0.647570141191401,
                -2.2236095377174
            ]
        },
        {
            "positions": [
                -2.583947135155521,
                -1.2192625741375585,
                2.1021803629862235,
                -0.9515244088699423,
                0.6519493228714979,
                -2.453355281482836
            ]
        },
        {
            "positions": [
                -2.547739969321797,
                -1.2006326533114056,
                2.0719264088178297,
                -0.9170377189431024,
                0.6563285045515946,
                -2.6831010252482717
            ]
        },
        {
            "positions": [
                -2.511532803488073,
                -1.1820027324852524,
                2.0416724546494356,
                -0.8825510290162626,
                0.6607076862316915,
                -2.9128467690137074
            ]
        },
        {
            "positions": [
                -2.4753256376543487,
                -1.1633728116590993,
                2.011418500481042,
                -0.8480643390894227,
                0.6650868679117883,
                -3.142592512779143
            ]
        }
    ]
}