{
    "goal": {
        "global_pose": {
            "orientation": {
                "w": -0.00223480608172531,
                "x": 0.0024358444001904467,
                "y": 0.7094548369677653,
                "z": -0.704743149386269
            },
            "position": {
                "x": 0.6205249238014221,
                "y": -0.6371506643295288,
                "z": 0.19426114857196808
            }
        },
        "name": "move_to_magneteinheit_B"
    },
    "id": "SPARStwo_move_to_magneteinheit_B_91",
    "joint_names": [
        "shoulder_pan_joint",
        "shoulder_lift_joint",
        "elbow_joint",
        "wrist_1_joint",
        "wrist_2_joint",
        "wrist_3_joint"
    ],
    "metrics": {
        "cart_traj_len": 1.4153019379434637,
        "distance_elbow_joint": 0.9584499305954199,
        "distance_shoulder_lift_joint": 0.9188763038474141,
        "distance_shoulder_pan_joint": 1.6207098004993274,
        "distance_wrist_1_joint": 0.184042287769691,
        "distance_wrist_2_joint": 1.517594972344402,
        "distance_wrist_3_joint": 0.3928533556708706,
        "smoothness": 0.2151174000679948,
        "time": 5.0172846579999995,
        "traj_len": 2.3648523528387826,
        "weighted_distance": 2.842511323140677
    },
    "planner": "SPARStwo",
    "start": {
        "state": {
            "elbow_joint": 2.6216224122426386,
            "shoulder_lift_joint": -1.4174107377796124,
            "shoulder_pan_joint": 0.7066234856936794,
            "wrist_1_joint": 1.9546482284002225,
            "wrist_2_joint": -0.7096286983471962,
            "wrist_3_joint": 0.005740856962016249
        }
    },
    "waypoints": [
        {
            "positions": [
                0.7066234856936794,
                -1.4174107377796124,
                2.6216224122426386,
                1.9546482284002225,
                -0.7096286983471962,
                0.005740856962016249
            ]
        },
        {
            "positions": [
                0.5293440032506633,
                -1.4376679032523598,
                2.5999826513153628,
                1.9739620592097813,
                -0.7584482169227558,
                -0.043712289523600734
            ]
        },
        {
            "positions": [
                0.35206452080764716,
                -1.4579250687251075,
                2.578342890388087,
                1.99327589001934,
                -0.8072677354983153,
                -0.09316543600921771
            ]
        },
        {
            "positions": [
                0.1747850383646311,
                -1.4781822341978552,
                2.556703129460811,
                2.0125897208288985,
                -0.8560872540738749,
                -0.14261858249483467
            ]
        },
        {
            "positions": [
                -0.0024944440783850053,
                -1.4984393996706027,
                2.5350633685335353,
                2.0319035516384574,
                -0.9049067726494344,
                -0.19207172898045166
            ]
        },
        {
            "positions": [
                -0.08536643232631803,
                -1.4222714322200187,
                2.4558005606347795,
                2.0416114575049535,
                -1.0251173997441767,
                -0.17434074991423323
            ]
        },
        {
            "positions": [
                -0.16823842057425106,
                -1.3461034647694348,
                2.376537752736023,
                2.0513193633714493,
                -1.1453280268389188,
                -0.1566097708480148
            ]
        },
        {
            "positions": [
                -0.25111040882218405,
                -1.2699354973188508,
                2.2972749448372674,
                2.0610272692379454,
                -1.2655386539336608,
                -0.1388787917817964
            ]
        },
        {
            "positions": [
                -0.3339823970701171,
                -1.1937675298682668,
                2.218012136938511,
                2.0707351751044416,
                -1.3857492810284031,
                -0.12114781271557797
            ]
        },
        {
            "positions": [
                -0.4168543853180501,
                -1.1175995624176829,
                2.1387493290397552,
                2.0804430809709373,
                -1.5059599081231452,
                -0.10341683364935955
            ]
        },
        {
            "positions": [
                -0.4997263735659831,
                -1.041431594967099,
                2.059486521140999,
                2.0901509868374335,
                -1.6261705352178875,
                -0.08568585458314114
            ]
        },
        {
            "positions": [
                -0.5825983618139161,
                -0.9652636275165148,
                1.9802237132422429,
                2.0998588927039292,
                -1.7463811623126295,
                -0.06795487551692271
            ]
        },
        {
            "positions": [
                -0.6654703500618493,
                -0.8890956600659308,
                1.9009609053434868,
                2.1095667985704254,
                -1.8665917894073718,
                -0.05022389645070427
            ]
        },
        {
            "positions": [
                -0.7483423383097823,
                -0.8129276926153468,
                1.8216980974447308,
                2.1192747044369216,
                -1.9868024165021139,
                -0.03249291738448584
            ]
        },
        {
            "positions": [
                -0.8312143265577152,
                -0.7367597251647628,
                1.7424352895459747,
                2.1289826103034173,
                -2.107013043596856,
                -0.014761938318267442
            ]
        },
        {
            "positions": [
                -0.9140863148056483,
                -0.6605917577141789,
                1.6631724816472186,
                2.1386905161699135,
                -2.227223670691598,
                0.0029690407479509976
            ]
        }
    ]
}