{
    "goal": {
        "global_pose": {
            "orientation": {
                "w": 0.7047431468963623,
                "x": -0.7094548344612122,
                "y": 0.0024358443915843964,
                "z": -0.0022348060738295317
            },
            "position": {
                "x": 0.6094750761985779,
                "y": 0.3671506643295288,
                "z": 0.19426114857196808
            }
        },
        "name": "move_to_magneteinheit_A"
    },
    "id": "SPARStwo_move_to_magneteinheit_A_49",
    "joint_names": [
        "shoulder_pan_joint",
        "shoulder_lift_joint",
        "elbow_joint",
        "wrist_1_joint",
        "wrist_2_joint",
        "wrist_3_joint"
    ],
    "metrics": {
        "cart_traj_len": 3.0180121886558666,
        "distance_elbow_joint": 3.914641898426771,
        "distance_shoulder_lift_joint": 0.8130014473281049,
        "distance_shoulder_pan_joint": 2.801400360540151,
        "distance_wrist_1_joint": 3.470760782789548,
        "distance_wrist_2_joint": 2.2522530711908955,
        "distance_wrist_3_joint": 0.5711764154632009,
        "smoothness": 0.1256699955623111,
        "time": 5.034876463,
        "traj_len": 3.717960997070662,
        "weighted_distance": 4.548472343616647
    },
    "planner": "SPARStwo",
    "start": {
        "state": {
            "elbow_joint": -1.9196185241190666,
            "shoulder_lift_joint": -1.2443396400964142,
            "shoulder_pan_joint": 2.6996025414629847,
            "wrist_1_joint": -1.5485510000780065,
            "wrist_2_joint": -1.5709468930060704,
            "wrist_3_joint": 0.4420197071253992
        }
    },
    "waypoints": [
        {
            "positions": [
                2.6996025414629847,
                -1.2443396400964142,
                -1.9196185241190666,
                -1.5485510000780065,
                -1.5709468930060704,
                0.4420197071253992
            ]
        },
        {
            "positions": [
                2.6009318008978872,
                -1.2507782107054999,
                -1.8083261339617314,
                -1.4487771741927424,
                -1.5061260812131514,
                0.43186927034870676
            ]
        },
        {
            "positions": [
                2.50226106033279,
                -1.2572167813145854,
                -1.6970337438043959,
                -1.3490033483074781,
                -1.4413052694202322,
                0.4217188335720143
            ]
        },
        {
            "positions": [
                2.4035903197676927,
                -1.263655351923671,
                -1.5857413536470606,
                -1.249229522422214,
                -1.3764844576273132,
                0.41156839679532187
            ]
        },
        {
            "positions": [
                2.3049195792025956,
                -1.2700939225327568,
                -1.4744489634897253,
                -1.1494556965369498,
                -1.3116636458343942,
                0.4014179600186294
            ]
        },
        {
            "positions": [
                2.206248838637498,
                -1.2765324931418425,
                -1.36315657333239,
                -1.0496818706516857,
                -1.246842834041475,
                0.391267523241937
            ]
        },
        {
            "positions": [
                2.107578098072401,
                -1.282971063750928,
                -1.2518641831750545,
                -0.9499080447664215,
                -1.182022022248556,
                0.38111708646524456
            ]
        },
        {
            "positions": [
                2.0089073575073035,
                -1.2894096343600137,
                -1.1405717930177193,
                -0.8501342188811574,
                -1.1172012104556368,
                0.3709666496885521
            ]
        },
        {
            "positions": [
                1.9102366169422065,
                -1.2958482049690994,
                -1.029279402860384,
                -0.7503603929958932,
                -1.0523803986627178,
                0.36081621291185967
            ]
        },
        {
            "positions": [
                1.811565876377109,
                -1.3022867755781848,
                -0.9179870127030485,
                -0.650586567110629,
                -0.9875595868697987,
                0.35066577613516725
            ]
        },
        {
            "positions": [
                1.7128951358120117,
                -1.3087253461872705,
                -0.8066946225457132,
                -0.5508127412253649,
                -0.9227387750768796,
                0.3405153393584748
            ]
        },
        {
            "positions": [
                1.6142243952469144,
                -1.3151639167963562,
                -0.695402232388378,
                -0.45103891534010065,
                -0.8579179632839605,
                0.33036490258178236
            ]
        },
        {
            "positions": [
                1.5155536546818171,
                -1.3216024874054417,
                -0.5841098422310425,
                -0.3512650894548366,
                -0.7930971514910415,
                0.3202144658050899
            ]
        },
        {
            "positions": [
                1.4168829141167198,
                -1.3280410580145274,
                -0.4728174520737072,
                -0.2514912635695725,
                -0.7282763396981224,
                0.31006402902839747
            ]
        },
        {
            "positions": [
                1.3182121735516226,
                -1.3344796286236131,
                -0.3615250619163719,
                -0.15171743768430823,
                -0.6634555279052033,
                0.299913592251705
            ]
        },
        {
            "positions": [
                1.219541432986525,
                -1.3409181992326988,
                -0.2502326717590364,
                -0.05194361179904394,
                -0.5986347161122841,
                0.2897631554750126
            ]
        },
        {
            "positions": [
                1.120870692421428,
                -1.3473567698417843,
                -0.13894028160170113,
                0.047830214086220124,
                -0.5338139043193653,
                0.27961271869832016
            ]
        },
        {
            "positions": [
                1.0221999518563305,
                -1.35379534045087,
                -0.027647891444365635,
                0.1476040399714844,
                -0.46899309252644605,
                0.2694622819216277
            ]
        },
        {
            "positions": [
                0.9235292112912332,
                -1.3602339110599557,
                0.08364449871296964,
                0.24737786585674848,
                -0.40417228073352707,
                0.25931184514493527
            ]
        },
        {
            "positions": [
                0.8248584707261359,
                -1.3666724816690412,
                0.19493688887030514,
                0.34715169174201277,
                -0.33935146894060786,
                0.2491614083682428
            ]
        },
        {
            "positions": [
                0.7261877301610387,
                -1.373111052278127,
                0.3062292790276402,
                0.4469255176272766,
                -0.2745306571476889,
                0.23901097159155038
            ]
        },
        {
            "positions": [
                0.6275169895959412,
                -1.3795496228872126,
                0.4175216691849757,
                0.5466993435125411,
                -0.20970984535476966,
                0.22886053481485794
            ]
        },
        {
            "positions": [
                0.5288462490308441,
                -1.3859881934962983,
                0.5288140593423107,
                0.6464731693978052,
                -0.14488903356185068,
                0.21871009803816552
            ]
        },
        {
            "positions": [
                0.4301755084657466,
                -1.3924267641053838,
                0.6401064494996462,
                0.7462469952830693,
                -0.08006822176893169,
                0.20855966126147304
            ]
        },
        {
            "positions": [
                0.33150476790064953,
                -1.3988653347144695,
                0.7513988396569817,
                0.8460208211683333,
                -0.015247409976012705,
                0.19840922448478063
            ]
        },
        {
            "positions": [
                0.23283402733555203,
                -1.4053039053235552,
                0.8626912298143172,
                0.9457946470535978,
                0.049573401816906504,
                0.18825878770808818
            ]
        },
        {
            "positions": [
                0.13416328677045497,
                -1.4117424759326407,
                0.9739836199716523,
                1.0455684729388615,
                0.11439421360982549,
                0.17810835093139576
            ]
        },
        {
            "positions": [
                0.03549254620535744,
                -1.4181810465417264,
                1.0852760101289878,
                1.1453422988241257,
                0.17921502540274464,
                0.16795791415470326
            ]
        },
        {
            "positions": [
                0.03052032406226588,
                -1.323767045918677,
                1.2371328955521523,
                1.24745352790798,
                0.19779227865977367,
                0.18037714740113484
            ]
        },
        {
            "positions": [
                0.025548101919174324,
                -1.2293530452956278,
                1.3889897809753167,
                1.349564756991834,
                0.21636953191680267,
                0.19279638064756643
            ]
        },
        {
            "positions": [
                0.020575879776082766,
                -1.1349390446725784,
                1.5408466663984812,
                1.4516759860756883,
                0.2349467851738317,
                0.205215613893998
            ]
        },
        {
            "positions": [
                0.015603657632991208,
                -1.040525044049529,
                1.6927035518216456,
                1.5537872151595424,
                0.2535240384308607,
                0.21763484714042958
            ]
        },
        {
            "positions": [
                0.010631435489899648,
                -0.9461110434264799,
                1.8445604372448101,
                1.6558984442433966,
                0.2721012916878897,
                0.23005408038686115
            ]
        },
        {
            "positions": [
                0.038738749131666333,
                -0.9043385339845933,
                1.8821761715105338,
                1.7224762788604333,
                0.16980007006365588,
                0.17129946632177434
            ]
        },
        {
            "positions": [
                0.06684606277343302,
                -0.8625660245427068,
                1.9197919057762576,
                1.7890541134774698,
                0.06749884843942205,
                0.11254485225668756
            ]
        },
        {
            "positions": [
                0.0949533764151997,
                -0.8207935151008203,
                1.957407640041981,
                1.8556319480945063,
                -0.034802373184811775,
                0.05379023819160078
            ]
        },
        {
            "positions": [
                0.12306069005696639,
                -0.7790210056589337,
                1.9950233743077048,
                1.922209782711543,
                -0.13710359480904558,
                -0.00496437587348603
            ]
        }
    ]
}