{
    "goal": {
        "global_pose": {
            "orientation": {
                "w": 0.5084816262002911,
                "x": -0.4908360881923452,
                "y": 0.5182115481033761,
                "z": -0.48164630358495003
            },
            "position": {
                "x": 0.5540239810943604,
                "y": -0.46912469901144505,
                "z": 0.16403168439865112
            }
        },
        "name": "move_to_storage_B"
    },
    "id": "SPARS_move_to_storage_B_48",
    "joint_names": [
        "shoulder_pan_joint",
        "shoulder_lift_joint",
        "elbow_joint",
        "wrist_1_joint",
        "wrist_2_joint",
        "wrist_3_joint"
    ],
    "metrics": {
        "cart_traj_len": 0.702620992510318,
        "distance_elbow_joint": 0.35951024578051616,
        "distance_shoulder_lift_joint": 0.4621041375868793,
        "distance_shoulder_pan_joint": 0.2217745008228703,
        "distance_wrist_1_joint": 3.023874967534042,
        "distance_wrist_2_joint": 2.702706280167557,
        "distance_wrist_3_joint": 3.1077852718653034,
        "smoothness": 0.027295925411966127,
        "time": 5.072303299,
        "traj_len": 3.14288965822174,
        "weighted_distance": 4.671178351892526
    },
    "planner": "SPARS",
    "start": {
        "state": {
            "elbow_joint": 1.664937868594044,
            "shoulder_lift_joint": -0.661644460510453,
            "shoulder_pan_joint": -0.9139846352900073,
            "wrist_1_joint": 2.146753192139373,
            "wrist_2_joint": -2.2341966793290973,
            "wrist_3_joint": 0.005466555786416001
        }
    },
    "waypoints": [
        {
            "positions": [
                -0.9139846352900073,
                -0.661644460510453,
                1.664937868594044,
                2.146753192139373,
                -2.2341966793290973,
                0.005466555786416001
            ]
        },
        {
            "positions": [
                -0.8939416545792269,
                -0.8287576265844494,
                1.7734466804591795,
                2.1387394798236565,
                -2.2258547476562267,
                -0.008380351090304022
            ]
        },
        {
            "positions": [
                -0.9020109153837105,
                -0.8405572654449647,
                1.7834867378157948,
                2.0181050296149237,
                -2.1180801737164394,
                -0.13213788568984736
            ]
        },
        {
            "positions": [
                -0.9100801761881941,
                -0.8523569043054801,
                1.7935267951724099,
                1.8974705794061906,
                -2.0103055997766517,
                -0.25589542028939066
            ]
        },
        {
            "positions": [
                -0.9181494369926777,
                -0.8641565431659953,
                1.8035668525290252,
                1.7768361291974575,
                -1.9025310258368644,
                -0.3796529548889339
            ]
        },
        {
            "positions": [
                -0.9262186977971613,
                -0.8759561820265107,
                1.8136069098856404,
                1.6562016789887246,
                -1.7947564518970769,
                -0.5034104894884773
            ]
        },
        {
            "positions": [
                -0.9342879586016449,
                -0.887755820887026,
                1.8236469672422557,
                1.5355672287799913,
                -1.6869818779572894,
                -0.6271680240880206
            ]
        },
        {
            "positions": [
                -0.9423572194061285,
                -0.8995554597475413,
                1.8336870245988708,
                1.4149327785712584,
                -1.579207304017502,
                -0.7509255586875638
            ]
        },
        {
            "positions": [
                -0.9504264802106122,
                -0.9113550986080566,
                1.843727081955486,
                1.2942983283625253,
                -1.4714327300777144,
                -0.8746830932871074
            ]
        },
        {
            "positions": [
                -0.9584957410150957,
                -0.9231547374685719,
                1.8537671393121014,
                1.1736638781537925,
                -1.363658156137927,
                -0.9984406278866506
            ]
        },
        {
            "positions": [
                -0.9665650018195793,
                -0.9349543763290873,
                1.8638071966687164,
                1.0530294279450594,
                -1.2558835821981396,
                -1.1221981624861939
            ]
        },
        {
            "positions": [
                -0.9746342626240629,
                -0.9467540151896026,
                1.8738472540253317,
                0.9323949777363263,
                -1.148109008258352,
                -1.2459556970857373
            ]
        },
        {
            "positions": [
                -0.9827035234285465,
                -0.9585536540501178,
                1.883887311381947,
                0.8117605275275934,
                -1.0403344343185645,
                -1.3697132316852805
            ]
        },
        {
            "positions": [
                -0.9907727842330301,
                -0.9703532929106332,
                1.8939273687385623,
                0.6911260773188606,
                -0.9325598603787773,
                -1.4934707662848237
            ]
        },
        {
            "positions": [
                -0.9988420450375137,
                -0.9821529317711485,
                1.9039674260951773,
                0.5704916271101272,
                -0.8247852864389895,
                -1.6172283008843673
            ]
        },
        {
            "positions": [
                -1.0069113058419974,
                -0.9939525706316639,
                1.9140074834517926,
                0.44985717690139415,
                -0.717010712499202,
                -1.7409858354839107
            ]
        },
        {
            "positions": [
                -1.0149805666464808,
                -1.0057522094921791,
                1.924047540808408,
                0.3292227266926615,
                -0.6092361385594147,
                -1.8647433700834537
            ]
        },
        {
            "positions": [
                -1.0230498274509645,
                -1.0175518483526944,
                1.9340875981650232,
                0.20858827648392841,
                -0.5014615646196272,
                -1.9885009046829971
            ]
        },
        {
            "positions": [
                -1.0311190882554482,
                -1.02935148721321,
                1.9441276555216382,
                0.0879538262751951,
                -0.3936869906798397,
                -2.1122584392825408
            ]
        },
        {
            "positions": [
                -1.0391883490599316,
                -1.0411511260737252,
                1.9541677128782535,
                -0.03268062393353777,
                -0.2859124167400524,
                -2.236015973882084
            ]
        },
        {
            "positions": [
                -1.0472576098644153,
                -1.0529507649342404,
                1.9642077702348688,
                -0.15331507414227064,
                -0.17813784280026468,
                -2.359773508481627
            ]
        },
        {
            "positions": [
                -1.055326870668899,
                -1.0647504037947557,
                1.9742478275914839,
                -0.27394952435100395,
                -0.07036326886047739,
                -2.483531043081171
            ]
        },
        {
            "positions": [
                -1.0633961314733824,
                -1.076550042655271,
                1.9842878849480992,
                -0.3945839745597368,
                0.0374113050793099,
                -2.607288577680714
            ]
        },
        {
            "positions": [
                -1.071465392277866,
                -1.0883496815157865,
                1.9943279423047144,
                -0.5152184247684697,
                0.14518587901909763,
                -2.731046112280257
            ]
        },
        {
            "positions": [
                -1.0795346530823497,
                -1.1001493203763018,
                2.0043679996613295,
                -0.635852874977203,
                0.2529604529588849,
                -2.854803646879801
            ]
        },
        {
            "positions": [
                -1.0876039138868332,
                -1.111948959236817,
                2.014408057017945,
                -0.7564873251859354,
                0.3607350268986722,
                -2.9785611814793436
            ]
        },
        {
            "positions": [
                -1.0956731746913169,
                -1.1237485980973323,
                2.02444811437456,
                -0.8771217753946686,
                0.4685096008384599,
                -3.102318716078887
            ]
        }
    ]
}