{
    "goal": {
        "global_pose": {
            "orientation": {
                "w": -0.00223480608172531,
                "x": 0.0024358444001904467,
                "y": 0.7094548369677653,
                "z": -0.704743149386269
            },
            "position": {
                "x": -0.37947507619857795,
                "y": -0.6371506643295288,
                "z": 0.19426114857196808
            }
        },
        "name": "move_to_magneteinheit_C"
    },
    "id": "SPARS_move_to_magneteinheit_C_128",
    "joint_names": [
        "shoulder_pan_joint",
        "shoulder_lift_joint",
        "elbow_joint",
        "wrist_1_joint",
        "wrist_2_joint",
        "wrist_3_joint"
    ],
    "metrics": {
        "cart_traj_len": 1.9432163303781869,
        "distance_elbow_joint": 1.1256041974351336,
        "distance_shoulder_lift_joint": 0.42492932970689146,
        "distance_shoulder_pan_joint": 2.251580645063011,
        "distance_wrist_1_joint": 0.9330557779807884,
        "distance_wrist_2_joint": 1.4891077454584698,
        "distance_wrist_3_joint": 0.9378912190990509,
        "smoothness": 1.261048890696578,
        "time": 5.022143177,
        "traj_len": 2.6762228821126515,
        "weighted_distance": 3.3852791430516787
    },
    "planner": "SPARS",
    "start": {
        "state": {
            "elbow_joint": 1.9565354010623817,
            "shoulder_lift_joint": -1.4165861575791021,
            "shoulder_pan_joint": -1.6717766225146293,
            "wrist_1_joint": -0.5286633292919765,
            "wrist_2_joint": 1.472756589071564,
            "wrist_3_joint": -3.1238370188695823
        }
    },
    "waypoints": [
        {
            "positions": [
                -1.6717766225146293,
                -1.4165861575791021,
                1.9565354010623817,
                -0.5286633292919765,
                1.472756589071564,
                -3.1238370188695823
            ]
        },
        {
            "positions": [
                -1.591284925967071,
                -1.4261431971601517,
                2.022211870694323,
                -0.49460774223787163,
                1.3453350979292287,
                -3.072657467284805
            ]
        },
        {
            "positions": [
                -1.5107932294195128,
                -1.4357002367412013,
                2.0878883403262645,
                -0.46055215518376674,
                1.2179136067868934,
                -3.0214779157000278
            ]
        },
        {
            "positions": [
                -1.4303015328719544,
                -1.4452572763222509,
                2.1535648099582057,
                -0.4264965681296619,
                1.0904921156445584,
                -2.9702983641152505
            ]
        },
        {
            "positions": [
                -1.3498098363243962,
                -1.4548143159033005,
                2.219241279590147,
                -0.392440981075557,
                0.9630706245022231,
                -2.9191188125304732
            ]
        },
        {
            "positions": [
                -1.2693181397768378,
                -1.4643713554843498,
                2.2849177492220885,
                -0.3583853940214522,
                0.8356491333598879,
                -2.8679392609456955
            ]
        },
        {
            "positions": [
                -1.1888264432292797,
                -1.4739283950653994,
                2.3505942188540296,
                -0.32432980696734737,
                0.7082276422175527,
                -2.8167597093609182
            ]
        },
        {
            "positions": [
                -1.1083347466817213,
                -1.483485434646449,
                2.416270688485971,
                -0.2902742199132425,
                0.5808061510752175,
                -2.765580157776141
            ]
        },
        {
            "positions": [
                -1.0278430501341629,
                -1.4930424742274986,
                2.4819471581179124,
                -0.25621863285913765,
                0.45338465993288235,
                -2.7144006061913637
            ]
        },
        {
            "positions": [
                -0.9473513535866047,
                -1.5025995138085482,
                2.5476236277498536,
                -0.22216304580503277,
                0.3259631687905471,
                -2.6632210546065864
            ]
        },
        {
            "positions": [
                -1.1000668912001035,
                -1.4687079164608037,
                2.4941720306750876,
                -0.2848185952544172,
                0.36019460130829245,
                -2.710948580090192
            ]
        },
        {
            "positions": [
                -1.252782428813602,
                -1.4348163191130592,
                2.440720433600321,
                -0.3474741447038017,
                0.39442603382603786,
                -2.7586761055737976
            ]
        },
        {
            "positions": [
                -1.4054979664271006,
                -1.4009247217653145,
                2.387268836525555,
                -0.4101296941531862,
                0.4286574663437832,
                -2.8064036310574028
            ]
        },
        {
            "positions": [
                -1.5582135040405993,
                -1.36703312441757,
                2.333817239450789,
                -0.4727852436025707,
                0.4628888988615286,
                -2.8541311565410084
            ]
        },
        {
            "positions": [
                -1.7109290416540979,
                -1.3331415270698255,
                2.280365642376023,
                -0.5354407930519551,
                0.49712033137927397,
                -2.901858682024614
            ]
        },
        {
            "positions": [
                -1.8636445792675964,
                -1.299249929722081,
                2.226914045301257,
                -0.5980963425013396,
                0.5313517638970193,
                -2.9495862075082195
            ]
        },
        {
            "positions": [
                -2.0163601168810947,
                -1.2653583323743365,
                2.1734624482264904,
                -0.660751891950724,
                0.5655831964147647,
                -2.9973137329918247
            ]
        },
        {
            "positions": [
                -2.169075654494594,
                -1.2314667350265918,
                2.1200108511517244,
                -0.7234074414001086,
                0.5998146289325101,
                -3.0450412584754307
            ]
        },
        {
            "positions": [
                -2.3217911921080923,
                -1.1975751376788473,
                2.066559254076958,
                -0.786062990849493,
                0.6340460614502554,
                -3.092768783959036
            ]
        },
        {
            "positions": [
                -2.474506729721591,
                -1.1636835403311028,
                2.013107657002192,
                -0.8487185402988775,
                0.6682774939680008,
                -3.1404963094426415
            ]
        }
    ]
}