{
    "goal": {
        "global_pose": {
            "orientation": {
                "w": 0.7031023480610252,
                "x": -0.7110244013736278,
                "y": 0.0077485991402295624,
                "z": 0.005598929693374583
            },
            "position": {
                "x": -0.8841497679147869,
                "y": 0.44412534475326537,
                "z": 0.3711530566215515
            }
        },
        "name": "move_to_auspresseinheit_D"
    },
    "id": "SPARS_move_to_auspresseinheit_D_92",
    "joint_names": [
        "shoulder_pan_joint",
        "shoulder_lift_joint",
        "elbow_joint",
        "wrist_1_joint",
        "wrist_2_joint",
        "wrist_3_joint"
    ],
    "metrics": {
        "cart_traj_len": 0.34231636676252153,
        "distance_elbow_joint": 0.6343368362484383,
        "distance_shoulder_lift_joint": 0.11967886547584161,
        "distance_shoulder_pan_joint": 0.13331159042870935,
        "distance_wrist_1_joint": 0.5165423641228082,
        "distance_wrist_2_joint": 1.4390538952998337,
        "distance_wrist_3_joint": 0.007085974099599657,
        "smoothness": 1.9737298371844314e-16,
        "time": 5.017355437,
        "traj_len": 1.6881971228725725,
        "weighted_distance": 2.195399219571937
    },
    "planner": "SPARS",
    "start": {
        "state": {
            "elbow_joint": -1.8275523626775212,
            "shoulder_lift_joint": -2.126789852344167,
            "shoulder_pan_joint": -0.03513704404078235,
            "wrist_1_joint": -2.347782403156801,
            "wrist_2_joint": -1.6058999987535132,
            "wrist_3_joint": -3.0880379163319196
        }
    },
    "waypoints": [
        {
            "positions": [
                -0.03513704404078235,
                -2.126789852344167,
                -1.8275523626775212,
                -2.347782403156801,
                -1.6058999987535132,
                -3.0880379163319196
            ]
        },
        {
            "positions": [
                -0.05180099284437102,
                -2.141749710528647,
                -1.7482602581464664,
                -2.412350198672152,
                -1.426018261841034,
                -3.0889236630943695
            ]
        },
        {
            "positions": [
                -0.06846494164795969,
                -2.1567095687131275,
                -1.6689681536154115,
                -2.476917994187503,
                -1.2461365249285548,
                -3.0898094098568194
            ]
        },
        {
            "positions": [
                -0.08512889045154837,
                -2.1716694268976076,
                -1.589676049084357,
                -2.541485789702854,
                -1.0662547880160755,
                -3.0906951566192693
            ]
        },
        {
            "positions": [
                -0.10179283925513702,
                -2.1866292850820876,
                -1.510383944553302,
                -2.6060535852182047,
                -0.8863730511035963,
                -3.091580903381719
            ]
        },
        {
            "positions": [
                -0.1184567880587257,
                -2.2015891432665677,
                -1.4310918400222472,
                -2.670621380733556,
                -0.7064913141911171,
                -3.0924666501441695
            ]
        },
        {
            "positions": [
                -0.13512073686231438,
                -2.216549001451048,
                -1.3517997354911926,
                -2.735189176248907,
                -0.5266095772786379,
                -3.0933523969066195
            ]
        },
        {
            "positions": [
                -0.15178468566590303,
                -2.2315088596355284,
                -1.2725076309601377,
                -2.799756971764258,
                -0.34672784036615867,
                -3.0942381436690694
            ]
        },
        {
            "positions": [
                -0.1684486344694917,
                -2.2464687178200085,
                -1.193215526429083,
                -2.864324767279609,
                -0.16684610345367948,
                -3.0951238904315193
            ]
        }
    ]
}