{
    "goal": {
        "global_pose": {
            "orientation": {
                "w": 0.7031023480610252,
                "x": -0.7110244013736278,
                "y": 0.0077485991402295624,
                "z": 0.005598929693374583
            },
            "position": {
                "x": -0.8841497679147869,
                "y": 0.44412534475326537,
                "z": 0.3711530566215515
            }
        },
        "name": "move_to_auspresseinheit_D"
    },
    "id": "SPARS_move_to_auspresseinheit_D_102",
    "joint_names": [
        "shoulder_pan_joint",
        "shoulder_lift_joint",
        "elbow_joint",
        "wrist_1_joint",
        "wrist_2_joint",
        "wrist_3_joint"
    ],
    "metrics": {
        "cart_traj_len": 0.3449364333190921,
        "distance_elbow_joint": 0.6636108691535216,
        "distance_shoulder_lift_joint": 0.13512844534002522,
        "distance_shoulder_pan_joint": 0.1336321092476706,
        "distance_wrist_1_joint": 0.5947889577484129,
        "distance_wrist_2_joint": 1.448870689697184,
        "distance_wrist_3_joint": 0.053538610802444264,
        "smoothness": 2.2697892994827824e-15,
        "time": 5.053735666000001,
        "traj_len": 1.7405659085450509,
        "weighted_distance": 2.276028679748949
    },
    "planner": "SPARS",
    "start": {
        "state": {
            "elbow_joint": -1.8275523626775212,
            "shoulder_lift_joint": -2.126789852344167,
            "shoulder_pan_joint": -0.03513704404078235,
            "wrist_1_joint": -2.347782403156801,
            "wrist_2_joint": -1.6058999987535132,
            "wrist_3_joint": -3.0880379163319196
        }
    },
    "waypoints": [
        {
            "positions": [
                -0.03513704404078235,
                -2.126789852344167,
                -1.8275523626775212,
                -2.347782403156801,
                -1.6058999987535132,
                -3.0880379163319196
            ]
        },
        {
            "positions": [
                -0.051841057696741175,
                -2.14368090801167,
                -1.744601004033331,
                -2.4221310228753525,
                -1.4247911625413652,
                -3.081345589981614
            ]
        },
        {
            "positions": [
                -0.0685450713527,
                -2.160571963679173,
                -1.6616496453891407,
                -2.496479642593904,
                -1.2436823263292172,
                -3.0746532636313084
            ]
        },
        {
            "positions": [
                -0.08524908500865883,
                -2.177463019346676,
                -1.5786982867449506,
                -2.570828262312456,
                -1.0625734901170691,
                -3.067960937281003
            ]
        },
        {
            "positions": [
                -0.10195309866461766,
                -2.1943540750141795,
                -1.4957469281007603,
                -2.6451768820310075,
                -0.8814646539049212,
                -3.0612686109306972
            ]
        },
        {
            "positions": [
                -0.11865711232057649,
                -2.2112451306816827,
                -1.4127955694565701,
                -2.7195255017495588,
                -0.7003558176927732,
                -3.054576284580392
            ]
        },
        {
            "positions": [
                -0.1353611259765353,
                -2.228136186349186,
                -1.32984421081238,
                -2.7938741214681104,
                -0.5192469814806253,
                -3.0478839582300865
            ]
        },
        {
            "positions": [
                -0.15206513963249413,
                -2.245027242016689,
                -1.2468928521681897,
                -2.868222741186662,
                -0.3381381452684773,
                -3.041191631879781
            ]
        },
        {
            "positions": [
                -0.16876915328845296,
                -2.261918297684192,
                -1.1639414935239996,
                -2.9425713609052138,
                -0.15702930905632936,
                -3.0344993055294753
            ]
        }
    ]
}