{
    "goal": {
        "global_pose": {
            "orientation": {
                "w": 0.005598929693374612,
                "x": 0.007748599140229565,
                "y": 0.7110244013736278,
                "z": -0.7031023480610252
            },
            "position": {
                "x": 0.1141497679147869,
                "y": -0.7141253447532654,
                "z": 0.3711530566215515
            }
        },
        "name": "move_to_auspresseinheit_B"
    },
    "id": "SPARStwo_move_to_auspresseinheit_B_34",
    "joint_names": [
        "shoulder_pan_joint",
        "shoulder_lift_joint",
        "elbow_joint",
        "wrist_1_joint",
        "wrist_2_joint",
        "wrist_3_joint"
    ],
    "metrics": {
        "cart_traj_len": 0.5651911488315118,
        "distance_elbow_joint": 0.06714482972542068,
        "distance_shoulder_lift_joint": 0.29313956759570736,
        "distance_shoulder_pan_joint": 0.5751282788654153,
        "distance_wrist_1_joint": 0.3374116028657984,
        "distance_wrist_2_joint": 1.0031640728247144,
        "distance_wrist_3_joint": 0.00801481984401109,
        "smoothness": 6.344131583732827e-16,
        "time": 5.018910583,
        "traj_len": 1.5112918883263642,
        "weighted_distance": 1.9080378631200174
    },
    "planner": "SPARStwo",
    "start": {
        "state": {
            "elbow_joint": 2.0193083361928714,
            "shoulder_lift_joint": -1.1220246554650708,
            "shoulder_pan_joint": -1.0952077554168747,
            "wrist_1_joint": -0.8559753972642168,
            "wrist_2_joint": 0.4759566250798843,
            "wrist_3_joint": -3.1240929996934557
        }
    },
    "waypoints": [
        {
            "positions": [
                -1.0952077554168747,
                -1.1220246554650708,
                2.0193083361928714,
                -0.8559753972642168,
                0.4759566250798843,
                -3.1240929996934557
            ]
        },
        {
            "positions": [
                -1.1910624685611104,
                -1.1708812500643553,
                2.008117531238635,
                -0.7997401301199171,
                0.6431506372173367,
                -3.1227571963861207
            ]
        },
        {
            "positions": [
                -1.2869171817053464,
                -1.21973784466364,
                1.996926726284398,
                -0.7435048629756174,
                0.810344649354789,
                -3.1214213930787853
            ]
        },
        {
            "positions": [
                -1.3827718948495824,
                -1.2685944392629245,
                1.985735921330161,
                -0.6872695958313175,
                0.9775386614922414,
                -3.12008558977145
            ]
        },
        {
            "positions": [
                -1.4786266079938182,
                -1.317451033862209,
                1.9745451163759242,
                -0.6310343286870179,
                1.1447326736296939,
                -3.118749786464115
            ]
        },
        {
            "positions": [
                -1.574481321138054,
                -1.3663076284614937,
                1.9633543114216876,
                -0.5747990615427181,
                1.3119266857671463,
                -3.11741398315678
            ]
        },
        {
            "positions": [
                -1.67033603428229,
                -1.4151642230607782,
                1.9521635064674507,
                -0.5185637943984184,
                1.4791206979045988,
                -3.1160781798494446
            ]
        }
    ]
}