{
    "goal": {
        "global_pose": {
            "orientation": {
                "w": 0.5084816262002911,
                "x": -0.4908360881923452,
                "y": 0.5182115481033761,
                "z": -0.48164630358495003
            },
            "position": {
                "x": 0.5540239810943604,
                "y": -0.46912469901144505,
                "z": 0.16403168439865112
            }
        },
        "name": "move_to_storage_B"
    },
    "id": "SPARStwo_move_to_storage_B_18",
    "joint_names": [
        "shoulder_pan_joint",
        "shoulder_lift_joint",
        "elbow_joint",
        "wrist_1_joint",
        "wrist_2_joint",
        "wrist_3_joint"
    ],
    "metrics": {
        "cart_traj_len": 2.4698871941848277,
        "distance_elbow_joint": 2.1933708987368146,
        "distance_shoulder_lift_joint": 0.5491380868182562,
        "distance_shoulder_pan_joint": 1.8983587650028861,
        "distance_wrist_1_joint": 2.9800043206043565,
        "distance_wrist_2_joint": 2.7103464895113207,
        "distance_wrist_3_joint": 3.6006435897086018,
        "smoothness": 0.2663299913719124,
        "time": 5.0491917079999995,
        "traj_len": 3.7325409777231155,
        "weighted_distance": 5.17914086890047
    },
    "planner": "SPARStwo",
    "start": {
        "state": {
            "elbow_joint": 1.664933442143537,
            "shoulder_lift_joint": -0.6616394447335833,
            "shoulder_pan_joint": -0.9139842036674819,
            "wrist_1_joint": 2.1467570250598067,
            "wrist_2_joint": -2.234195602830096,
            "wrist_3_joint": 0.005471150212293033
        }
    },
    "waypoints": [
        {
            "positions": [
                -0.9139842036674819,
                -0.6616394447335833,
                1.664933442143537,
                2.1467570250598067,
                -2.234195602830096,
                0.005471150212293033
            ]
        },
        {
            "positions": [
                -0.8281844249939141,
                -0.7120324734504032,
                1.5727459016499072,
                2.1024124591652207,
                -2.1436133295961115,
                0.027879823683270383
            ]
        },
        {
            "positions": [
                -0.7423846463203464,
                -0.762425502167223,
                1.4805583611562776,
                2.058067893270634,
                -2.0530310563621263,
                0.050288497154247734
            ]
        },
        {
            "positions": [
                -0.6565848676467787,
                -0.812818530884043,
                1.388370820662648,
                2.0137233273760478,
                -1.9624487831281416,
                0.07269717062522509
            ]
        },
        {
            "positions": [
                -0.5707850889732109,
                -0.8632115596008629,
                1.2961832801690183,
                1.9693787614814617,
                -1.8718665098941567,
                0.09510584409620244
            ]
        },
        {
            "positions": [
                -0.4849853102996432,
                -0.9136045883176829,
                1.2039957396753886,
                1.9250341955868755,
                -1.7812842366601718,
                0.11751451756717979
            ]
        },
        {
            "positions": [
                -0.3991855316260755,
                -0.9639976170345027,
                1.111808199181759,
                1.8806896296922893,
                -1.690701963426187,
                0.13992319103815712
            ]
        },
        {
            "positions": [
                -0.3133857529525078,
                -1.0143906457513225,
                1.0196206586881293,
                1.836345063797703,
                -1.600119690192202,
                0.16233186450913448
            ]
        },
        {
            "positions": [
                -0.2275859742789399,
                -1.0647836744681425,
                0.9274331181944996,
                1.7920004979031168,
                -1.5095374169582172,
                0.18474053798011184
            ]
        },
        {
            "positions": [
                -0.1417861956053722,
                -1.1151767031849624,
                0.8352455777008699,
                1.7476559320085305,
                -1.418955143724232,
                0.20714921145108917
            ]
        },
        {
            "positions": [
                -0.055986416931804506,
                -1.1655697319017824,
                0.7430580372072403,
                1.7033113661139443,
                -1.3283728704902473,
                0.22955788492206652
            ]
        },
        {
            "positions": [
                -0.09600030071131253,
                -1.1638309703767802,
                0.7919617100457217,
                1.6057514175886176,
                -1.258968110599037,
                0.09969031357595776
            ]
        },
        {
            "positions": [
                -0.13601418449082056,
                -1.162092208851778,
                0.8408653828842032,
                1.508191469063291,
                -1.1895633507078265,
                -0.03017725777015101
            ]
        },
        {
            "positions": [
                -0.1760280682703286,
                -1.1603534473267758,
                0.8897690557226846,
                1.4106315205379643,
                -1.120158590816616,
                -0.16004482911625983
            ]
        },
        {
            "positions": [
                -0.21604195204983662,
                -1.1586146858017736,
                0.9386727285611661,
                1.3130715720126376,
                -1.0507538309254056,
                -0.28991240046236855
            ]
        },
        {
            "positions": [
                -0.25605583582934466,
                -1.1568759242767714,
                0.9875764013996475,
                1.215511623487311,
                -0.981349071034195,
                -0.41977997180847737
            ]
        },
        {
            "positions": [
                -0.2960697196088527,
                -1.1551371627517693,
                1.036480074238129,
                1.1179516749619842,
                -0.9119443111429846,
                -0.5496475431545862
            ]
        },
        {
            "positions": [
                -0.3360836033883607,
                -1.153398401226767,
                1.0853837470766103,
                1.0203917264366575,
                -0.8425395512517742,
                -0.6795151145006948
            ]
        },
        {
            "positions": [
                -0.3760974871678687,
                -1.1516596397017649,
                1.1342874199150919,
                0.9228317779113309,
                -0.7731347913605637,
                -0.8093826858468036
            ]
        },
        {
            "positions": [
                -0.41611137094737677,
                -1.1499208781767627,
                1.1831910927535734,
                0.8252718293860042,
                -0.7037300314693533,
                -0.9392502571929124
            ]
        },
        {
            "positions": [
                -0.4561252547268848,
                -1.1481821166517605,
                1.2320947655920547,
                0.7277118808606775,
                -0.6343252715781428,
                -1.0691178285390213
            ]
        },
        {
            "positions": [
                -0.4961391385063928,
                -1.1464433551267583,
                1.2809984384305362,
                0.6301519323353508,
                -0.5649205116869325,
                -1.1989853998851299
            ]
        },
        {
            "positions": [
                -0.5361530222859009,
                -1.1447045936017561,
                1.3299021112690177,
                0.5325919838100241,
                -0.49551575179572194,
                -1.328852971231239
            ]
        },
        {
            "positions": [
                -0.5761669060654089,
                -1.142965832076754,
                1.3788057841074992,
                0.43503203528469747,
                -0.4261109919045115,
                -1.4587205425773475
            ]
        },
        {
            "positions": [
                -0.6161807898449169,
                -1.1412270705517515,
                1.4277094569459805,
                0.3374720867593708,
                -0.3567062320133011,
                -1.5885881139234561
            ]
        },
        {
            "positions": [
                -0.6561946736244249,
                -1.1394883090267494,
                1.4766131297844618,
                0.23991213823404434,
                -0.2873014721220908,
                -1.718455685269565
            ]
        },
        {
            "positions": [
                -0.696208557403933,
                -1.1377495475017472,
                1.5255168026229435,
                0.14235218970871744,
                -0.21789671223088014,
                -1.8483232566156738
            ]
        },
        {
            "positions": [
                -0.736222441183441,
                -1.136010785976745,
                1.5744204754614248,
                0.04479224118339076,
                -0.14849195233966972,
                -1.9781908279617828
            ]
        },
        {
            "positions": [
                -0.776236324962949,
                -1.1342720244517428,
                1.6233241482999063,
                -0.05276770734193592,
                -0.0790871924484593,
                -2.1080583993078914
            ]
        },
        {
            "positions": [
                -0.816250208742457,
                -1.1325332629267406,
                1.6722278211383879,
                -0.1503276558672626,
                -0.009682432557248877,
                -2.237925970654
            ]
        },
        {
            "positions": [
                -0.8562640925219651,
                -1.1307945014017384,
                1.7211314939768694,
                -0.24788760439258928,
                0.05972232733396177,
                -2.367793542000109
            ]
        },
        {
            "positions": [
                -0.8962779763014731,
                -1.1290557398767362,
                1.770035166815351,
                -0.34544755291791596,
                0.1291270872251722,
                -2.4976611133462177
            ]
        },
        {
            "positions": [
                -0.9362918600809811,
                -1.127316978351734,
                1.818938839653832,
                -0.44300750144324264,
                0.1985318471163824,
                -2.6275286846923263
            ]
        },
        {
            "positions": [
                -0.9763057438604892,
                -1.1255782168267319,
                1.8678425124923135,
                -0.5405674499685693,
                0.2679366070075928,
                -2.7573962560384353
            ]
        },
        {
            "positions": [
                -1.0163196276399973,
                -1.1238394553017297,
                1.916746185330795,
                -0.638127398493896,
                0.33734136689880345,
                -2.8872638273845443
            ]
        },
        {
            "positions": [
                -1.0563335114195052,
                -1.1221006937767275,
                1.9656498581692765,
                -0.7356873470192227,
                0.4067461267900139,
                -3.017131398730653
            ]
        },
        {
            "positions": [
                -1.0963473951990133,
                -1.1203619322517253,
                2.014553531007758,
                -0.8332472955445496,
                0.47615088668122435,
                -3.1469989700767615
            ]
        }
    ]
}