{
    "goal": {
        "global_pose": {
            "orientation": {
                "w": 0.7031023480610252,
                "x": -0.7110244013736278,
                "y": 0.0077485991402295624,
                "z": 0.005598929693374583
            },
            "position": {
                "x": -0.8841497679147869,
                "y": 0.44412534475326537,
                "z": 0.3711530566215515
            }
        },
        "name": "move_to_auspresseinheit_D"
    },
    "id": "SPARStwo_move_to_auspresseinheit_D_46",
    "joint_names": [
        "shoulder_pan_joint",
        "shoulder_lift_joint",
        "elbow_joint",
        "wrist_1_joint",
        "wrist_2_joint",
        "wrist_3_joint"
    ],
    "metrics": {
        "cart_traj_len": 0.34446332035832344,
        "distance_elbow_joint": 0.6765554550301107,
        "distance_shoulder_lift_joint": 0.14346745448643672,
        "distance_shoulder_pan_joint": 0.13309973874210823,
        "distance_wrist_1_joint": 0.648734124847238,
        "distance_wrist_2_joint": 1.4473945789167693,
        "distance_wrist_3_joint": 0.10367396193810974,
        "smoothness": 0.0,
        "time": 5.004743133,
        "traj_len": 1.7756478575327859,
        "weighted_distance": 2.335894248805155
    },
    "planner": "SPARStwo",
    "start": {
        "state": {
            "elbow_joint": -1.8275523626775212,
            "shoulder_lift_joint": -2.126789852344167,
            "shoulder_pan_joint": -0.03513704404078235,
            "wrist_1_joint": -2.347782403156801,
            "wrist_2_joint": -1.6058999987535132,
            "wrist_3_joint": -3.0880379163319196
        }
    },
    "waypoints": [
        {
            "positions": [
                -0.03513704404078235,
                -2.126789852344167,
                -1.8275523626775212,
                -2.347782403156801,
                -1.6058999987535132,
                -3.0880379163319196
            ]
        },
        {
            "positions": [
                -0.05177451138354588,
                -2.1447232841549715,
                -1.7429829307987574,
                -2.4288741687627056,
                -1.424975676388917,
                -3.075078671089656
            ]
        },
        {
            "positions": [
                -0.06841197872630941,
                -2.162656715965776,
                -1.6584134989199935,
                -2.5099659343686103,
                -1.2440513540243208,
                -3.062119425847392
            ]
        },
        {
            "positions": [
                -0.08504944606907294,
                -2.180590147776581,
                -1.5738440670412297,
                -2.591057699974515,
                -1.0631270316597248,
                -3.0491601806051283
            ]
        },
        {
            "positions": [
                -0.10168691341183647,
                -2.198523579587385,
                -1.4892746351624657,
                -2.6721494655804197,
                -0.8822027092951286,
                -3.0362009353628645
            ]
        },
        {
            "positions": [
                -0.1183243807546,
                -2.2164570113981896,
                -1.404705203283702,
                -2.753241231186325,
                -0.7012783869305323,
                -3.023241690120601
            ]
        },
        {
            "positions": [
                -0.13496184809736353,
                -2.2343904432089943,
                -1.3201357714049382,
                -2.8343329967922295,
                -0.5203540645659364,
                -3.0102824448783374
            ]
        },
        {
            "positions": [
                -0.15159931544012706,
                -2.252323875019799,
                -1.2355663395261742,
                -2.915424762398134,
                -0.33942974220134015,
                -2.9973231996360736
            ]
        },
        {
            "positions": [
                -0.1682367827828906,
                -2.2702573068306036,
                -1.1509969076474105,
                -2.996516528004039,
                -0.15850541983674402,
                -2.98436395439381
            ]
        }
    ]
}