{
    "goal": {
        "global_pose": {
            "orientation": {
                "w": 0.7031023502349854,
                "x": -0.7110244035720825,
                "y": 0.007748599164187908,
                "z": 0.005598929710686207
            },
            "position": {
                "x": 0.11585023208521307,
                "y": 0.44412534475326537,
                "z": 0.3711530566215515
            }
        },
        "name": "move_to_auspresseinheit_A"
    },
    "id": "SPARStwo_move_to_auspresseinheit_A_91",
    "joint_names": [
        "shoulder_pan_joint",
        "shoulder_lift_joint",
        "elbow_joint",
        "wrist_1_joint",
        "wrist_2_joint",
        "wrist_3_joint"
    ],
    "metrics": {
        "cart_traj_len": 2.2355552738305353,
        "distance_elbow_joint": 1.3475412529742923,
        "distance_shoulder_lift_joint": 1.2948951004476725,
        "distance_shoulder_pan_joint": 3.016220695915103,
        "distance_wrist_1_joint": 1.6464142490421279,
        "distance_wrist_2_joint": 3.0884588015758263,
        "distance_wrist_3_joint": 2.3365358027259333,
        "smoothness": 1.0044629537817609,
        "time": 5.025150259,
        "traj_len": 3.5679217904378118,
        "weighted_distance": 4.705104734089431
    },
    "planner": "SPARStwo",
    "start": {
        "state": {
            "elbow_joint": 2.4225746658250005,
            "shoulder_lift_joint": -1.3736534386056498,
            "shoulder_pan_joint": -0.3378633547517467,
            "wrist_1_joint": -1.0288598680537169,
            "wrist_2_joint": 1.233022673432363,
            "wrist_3_joint": -3.0940220416140027
        }
    },
    "waypoints": [
        {
            "positions": [
                -0.3378633547517467,
                -1.3736534386056498,
                2.4225746658250005,
                -1.0288598680537169,
                1.233022673432363,
                -3.0940220416140027
            ]
        },
        {
            "positions": [
                -0.3100196178327997,
                -1.4510385876627405,
                2.3803892898239014,
                -0.9266421624506428,
                1.263185773586511,
                -2.9795016945418458
            ]
        },
        {
            "positions": [
                -0.2821758809138526,
                -1.5284237367198312,
                2.338203913822803,
                -0.8244244568475687,
                1.293348873740659,
                -2.864981347469689
            ]
        },
        {
            "positions": [
                -0.25433214399490556,
                -1.605808885776922,
                2.2960185378217037,
                -0.7222067512444947,
                1.3235119738948071,
                -2.7504610003975323
            ]
        },
        {
            "positions": [
                -0.22648840707595852,
                -1.6831940348340129,
                2.253833161820605,
                -0.6199890456414205,
                1.3536750740489552,
                -2.6359406533253753
            ]
        },
        {
            "positions": [
                -0.19864467015701148,
                -1.7605791838911036,
                2.211647785819506,
                -0.5177713400383466,
                1.3838381742031032,
                -2.5214203062532183
            ]
        },
        {
            "positions": [
                -0.17080093323806445,
                -1.8379643329481943,
                2.169462409818407,
                -0.4155536344352725,
                1.4140012743572512,
                -2.406899959181062
            ]
        },
        {
            "positions": [
                -0.1429571963191174,
                -1.915349482005285,
                2.1272770338173084,
                -0.3133359288321985,
                1.4441643745113992,
                -2.292379612108905
            ]
        },
        {
            "positions": [
                -0.11511345940017031,
                -1.9927346310623757,
                2.0850916578162093,
                -0.21111822322912432,
                1.4743274746655473,
                -2.177859265036748
            ]
        },
        {
            "positions": [
                -0.08726972248122328,
                -2.0701197801194664,
                2.0429062818151107,
                -0.10890051762605035,
                1.5044905748196953,
                -2.063338917964591
            ]
        },
        {
            "positions": [
                -0.05942598556227621,
                -2.147504929176557,
                2.0007209058140116,
                -0.0066828120229762145,
                1.5346536749738433,
                -1.9488185708924342
            ]
        },
        {
            "positions": [
                0.08656671190641699,
                -2.1412122021828632,
                2.0234084766529996,
                -0.03154330038028177,
                1.383970877151493,
                -1.9831328907286518
            ]
        },
        {
            "positions": [
                0.2325594093751102,
                -2.1349194751891694,
                2.046096047491988,
                -0.05640378873758732,
                1.2332880793291428,
                -2.0174472105648698
            ]
        },
        {
            "positions": [
                0.37855210684380347,
                -2.1286267481954755,
                2.068783618330976,
                -0.08126427709489288,
                1.0826052815067926,
                -2.0517615304010874
            ]
        },
        {
            "positions": [
                0.5245448043124966,
                -2.1223340212017816,
                2.091471189169964,
                -0.10612476545219843,
                0.9319224836844422,
                -2.086075850237305
            ]
        },
        {
            "positions": [
                0.67053750178119,
                -2.1160412942080877,
                2.1141587600089524,
                -0.130985253809504,
                0.7812396858620919,
                -2.1203901700735233
            ]
        },
        {
            "positions": [
                0.8165301992498831,
                -2.1097485672143943,
                2.1368463308479404,
                -0.15584574216680955,
                0.6305568880397416,
                -2.154704489909741
            ]
        },
        {
            "positions": [
                0.9625228967185765,
                -2.1034558402207004,
                2.1595339016869284,
                -0.1807062305241151,
                0.47987409021739125,
                -2.1890188097459586
            ]
        },
        {
            "positions": [
                1.1085155941872693,
                -2.0971631132270065,
                2.182221472525917,
                -0.20556671888142064,
                0.3291912923950411,
                -2.2233331295821763
            ]
        },
        {
            "positions": [
                1.2545082916559627,
                -2.0908703862333127,
                2.204909043364905,
                -0.23042720723872623,
                0.1785084945726909,
                -2.257647449418394
            ]
        },
        {
            "positions": [
                1.400500989124656,
                -2.084577659239619,
                2.2275966142038928,
                -0.2552876955960318,
                0.027825696750340523,
                -2.291961769254612
            ]
        },
        {
            "positions": [
                1.546493686593349,
                -2.078284932245925,
                2.250284185042881,
                -0.2801481839533373,
                -0.12285710107200964,
                -2.32627608909083
            ]
        },
        {
            "positions": [
                1.6924863840620423,
                -2.071992205252231,
                2.272971755881869,
                -0.3050086723106429,
                -0.27353989889436003,
                -2.3605904089270475
            ]
        },
        {
            "positions": [
                1.6276735622887675,
                -2.0210920716064895,
                2.3372943472097405,
                -0.2904158055147616,
                -0.18436465123515985,
                -2.4508567647291217
            ]
        },
        {
            "positions": [
                1.5628607405154926,
                -1.9701919379607482,
                2.4016169385376123,
                -0.27582293871888025,
                -0.09518940357595967,
                -2.5411231205311955
            ]
        },
        {
            "positions": [
                1.4980479187422178,
                -1.9192918043150067,
                2.4659395298654836,
                -0.26123007192299896,
                -0.006014155916759467,
                -2.6313894763332697
            ]
        },
        {
            "positions": [
                1.433235096968943,
                -1.8683916706692651,
                2.530262121193355,
                -0.24663720512711768,
                0.08316109174244068,
                -2.721655832135344
            ]
        },
        {
            "positions": [
                1.368422275195668,
                -1.8174915370235238,
                2.5945847125212267,
                -0.23204433833123633,
                0.17233633940164095,
                -2.8119221879374177
            ]
        },
        {
            "positions": [
                1.3036094534223932,
                -1.7665914033777823,
                2.658907303849098,
                -0.21745147153535505,
                0.26151158706084116,
                -2.902188543739492
            ]
        },
        {
            "positions": [
                1.1842106481300605,
                -1.7946174201933804,
                2.6054070848634545,
                -0.2651222979250416,
                0.3502281351030293,
                -2.949781015570953
            ]
        },
        {
            "positions": [
                1.0648118428377278,
                -1.8226434370089786,
                2.551906865877811,
                -0.3127931243147281,
                0.4389446831452174,
                -2.9973734874024145
            ]
        },
        {
            "positions": [
                0.9454130375453951,
                -1.8506694538245765,
                2.498406646892168,
                -0.3604639507044146,
                0.5276612311874056,
                -3.0449659592338763
            ]
        },
        {
            "positions": [
                0.8260142322530624,
                -1.8786954706401746,
                2.4449064279065245,
                -0.4081347770941012,
                0.6163777792295937,
                -3.0925584310653376
            ]
        },
        {
            "positions": [
                0.7066154269607298,
                -1.9067214874557727,
                2.391406208920881,
                -0.45580560348378774,
                0.7050943272717818,
                -3.140150902896799
            ]
        }
    ]
}