{
    "goal": {
        "global_pose": {
            "orientation": {
                "w": 0.005598929693374612,
                "x": 0.007748599140229565,
                "y": 0.7110244013736278,
                "z": -0.7031023480610252
            },
            "position": {
                "x": 0.1141497679147869,
                "y": -0.7141253447532654,
                "z": 0.3711530566215515
            }
        },
        "name": "move_to_auspresseinheit_B"
    },
    "id": "SPARStwo_move_to_auspresseinheit_B_8",
    "joint_names": [
        "shoulder_pan_joint",
        "shoulder_lift_joint",
        "elbow_joint",
        "wrist_1_joint",
        "wrist_2_joint",
        "wrist_3_joint"
    ],
    "metrics": {
        "cart_traj_len": 0.5646270268172477,
        "distance_elbow_joint": 0.06498921598563268,
        "distance_shoulder_lift_joint": 0.29283910981236794,
        "distance_shoulder_pan_joint": 0.5786452482881284,
        "distance_wrist_1_joint": 0.335459561890989,
        "distance_wrist_2_joint": 0.9853089727312578,
        "distance_wrist_3_joint": 0.00044173469232200446,
        "smoothness": 5.075305255429287e-16,
        "time": 5.004624068,
        "traj_len": 1.5025590981391375,
        "weighted_distance": 1.89191327692566
    },
    "planner": "SPARStwo",
    "start": {
        "state": {
            "elbow_joint": 2.0193083361928714,
            "shoulder_lift_joint": -1.1220246554650708,
            "shoulder_pan_joint": -1.0952077554168747,
            "wrist_1_joint": -0.8559753972642168,
            "wrist_2_joint": 0.4759566250798843,
            "wrist_3_joint": -3.1240929996934557
        }
    },
    "waypoints": [
        {
            "positions": [
                -1.0952077554168747,
                -1.1220246554650708,
                2.0193083361928714,
                -0.8559753972642168,
                0.4759566250798843,
                -3.1240929996934557
            ]
        },
        {
            "positions": [
                -1.1916486301315627,
                -1.1708311737671322,
                2.008476800195266,
                -0.8000654702823853,
                0.6401747872017606,
                -3.1240193772447356
            ]
        },
        {
            "positions": [
                -1.2880895048462508,
                -1.2196376920691934,
                1.9976452641976605,
                -0.7441555433005538,
                0.8043929493236368,
                -3.123945754796015
            ]
        },
        {
            "positions": [
                -1.384530379560939,
                -1.2684442103712548,
                1.986813728200055,
                -0.6882456163187223,
                0.9686111114455132,
                -3.1238721323472944
            ]
        },
        {
            "positions": [
                -1.4809712542756268,
                -1.3172507286733162,
                1.9759821922024496,
                -0.6323356893368908,
                1.1328292735673895,
                -3.1237985098985743
            ]
        },
        {
            "positions": [
                -1.577412128990315,
                -1.3660572469753773,
                1.9651506562048442,
                -0.5764257623550593,
                1.2970474356892658,
                -3.123724887449854
            ]
        },
        {
            "positions": [
                -1.673853003705003,
                -1.4148637652774387,
                1.9543191202072387,
                -0.5205158353732278,
                1.4612655978111422,
                -3.1236512650011337
            ]
        }
    ]
}