{
    "goal": {
        "global_pose": {
            "orientation": {
                "w": 0.7031023480610252,
                "x": -0.7110244013736278,
                "y": 0.0077485991402295624,
                "z": 0.005598929693374583
            },
            "position": {
                "x": -0.8841497679147869,
                "y": 0.44412534475326537,
                "z": 0.3711530566215515
            }
        },
        "name": "move_to_auspresseinheit_D"
    },
    "id": "SPARStwo_move_to_auspresseinheit_D_128",
    "joint_names": [
        "shoulder_pan_joint",
        "shoulder_lift_joint",
        "elbow_joint",
        "wrist_1_joint",
        "wrist_2_joint",
        "wrist_3_joint"
    ],
    "metrics": {
        "cart_traj_len": 0.34399831170483725,
        "distance_elbow_joint": 0.658573420255246,
        "distance_shoulder_lift_joint": 0.13202335141434007,
        "distance_shoulder_pan_joint": 0.13345266081778892,
        "distance_wrist_1_joint": 0.6008119354625658,
        "distance_wrist_2_joint": 1.4301963166637217,
        "distance_wrist_3_joint": 0.06253372790073275,
        "smoothness": 1.1842378960592198e-15,
        "time": 5.014132377,
        "traj_len": 1.7371215882932305,
        "weighted_distance": 2.274569656098082
    },
    "planner": "SPARStwo",
    "start": {
        "state": {
            "elbow_joint": -1.8275523626775212,
            "shoulder_lift_joint": -2.126789852344167,
            "shoulder_pan_joint": -0.03513704404078235,
            "wrist_1_joint": -2.347782403156801,
            "wrist_2_joint": -1.6058999987535132,
            "wrist_3_joint": -3.0880379163319196
        }
    },
    "waypoints": [
        {
            "positions": [
                -0.03513704404078235,
                -2.126789852344167,
                -1.8275523626775212,
                -2.347782403156801,
                -1.6058999987535132,
                -3.0880379163319196
            ]
        },
        {
            "positions": [
                -0.05181862664300596,
                -2.1432927712709593,
                -1.7452306851456154,
                -2.4228838950896217,
                -1.427125459170548,
                -3.080221200344328
            ]
        },
        {
            "positions": [
                -0.06850020924522958,
                -2.1597956901977517,
                -1.6629090076137096,
                -2.4979853870224424,
                -1.2483509195875828,
                -3.0724044843567366
            ]
        },
        {
            "positions": [
                -0.0851817918474532,
                -2.176298609124544,
                -1.5805873300818039,
                -2.5730868789552632,
                -1.0695763800046176,
                -3.0645877683691447
            ]
        },
        {
            "positions": [
                -0.1018633744496768,
                -2.192801528051337,
                -1.498265652549898,
                -2.648188370888084,
                -0.8908018404216523,
                -3.0567710523815532
            ]
        },
        {
            "positions": [
                -0.11854495705190043,
                -2.2093044469781296,
                -1.4159439750179925,
                -2.7232898628209044,
                -0.7120273008386871,
                -3.0489543363939617
            ]
        },
        {
            "positions": [
                -0.13522653965412404,
                -2.225807365904922,
                -1.3336222974860867,
                -2.798391354753725,
                -0.5332527612557219,
                -3.04113762040637
            ]
        },
        {
            "positions": [
                -0.15190812225634764,
                -2.2423102848317145,
                -1.251300619954181,
                -2.873492846686546,
                -0.35447822167275667,
                -3.0333209044187783
            ]
        },
        {
            "positions": [
                -0.16858970485857128,
                -2.258813203758507,
                -1.1689789424222752,
                -2.9485943386193667,
                -0.17570368208979148,
                -3.025504188431187
            ]
        }
    ]
}