{
    "goal": {
        "global_pose": {
            "orientation": {
                "w": -0.4816463035849501,
                "x": 0.5182115481033762,
                "y": 0.4908360881923453,
                "z": -0.5084816262002911
            },
            "position": {
                "x": -0.8240239810943604,
                "y": 0.19912469901144506,
                "z": 0.16403168439865112
            }
        },
        "name": "move_to_storage_D"
    },
    "id": "SPARStwo_move_to_storage_D_86",
    "joint_names": [
        "shoulder_pan_joint",
        "shoulder_lift_joint",
        "elbow_joint",
        "wrist_1_joint",
        "wrist_2_joint",
        "wrist_3_joint"
    ],
    "metrics": {
        "cart_traj_len": 3.9666586706272016,
        "distance_elbow_joint": 4.212852600707694,
        "distance_shoulder_lift_joint": 1.6343513516007513,
        "distance_shoulder_pan_joint": 2.8127208282756264,
        "distance_wrist_1_joint": 2.7671652425171995,
        "distance_wrist_2_joint": 0.87524332427391,
        "distance_wrist_3_joint": 3.3978625937645393,
        "smoothness": 0.2669351691355413,
        "time": 5.054095803,
        "traj_len": 3.962347276695939,
        "weighted_distance": 5.112565862212429
    },
    "planner": "SPARStwo",
    "start": {
        "state": {
            "elbow_joint": -2.384821988534728,
            "shoulder_lift_joint": -2.2788054721415256,
            "shoulder_pan_joint": -0.1854694642142757,
            "wrist_1_joint": 1.4845938289331202,
            "wrist_2_joint": 0.17898776772866878,
            "wrist_3_joint": 0.037105688729662994
        }
    },
    "waypoints": [
        {
            "positions": [
                -0.1854694642142757,
                -2.2788054721415256,
                -2.384821988534728,
                1.4845938289331202,
                0.17898776772866878,
                0.037105688729662994
            ]
        },
        {
            "positions": [
                -0.12780644944537467,
                -2.2319413682663347,
                -2.3630953364561007,
                1.493089073443497,
                0.18008736763496563,
                0.10574379104839353
            ]
        },
        {
            "positions": [
                -0.07014343467647363,
                -2.1850772643911442,
                -2.341368684377473,
                1.5015843179538737,
                0.18118696754126248,
                0.17438189336712406
            ]
        },
        {
            "positions": [
                0.015409827112014579,
                -2.1383311387613615,
                -2.246178913199463,
                1.4144829197437843,
                0.20664807053633938,
                0.12083680768806401
            ]
        },
        {
            "positions": [
                0.10096308890050279,
                -2.0915850131315783,
                -2.1509891420214533,
                1.327381521533695,
                0.2321091735314163,
                0.06729172200900396
            ]
        },
        {
            "positions": [
                0.186516350688991,
                -2.0448388875017955,
                -2.055799370843443,
                1.2402801233236056,
                0.2575702765264932,
                0.013746636329943912
            ]
        },
        {
            "positions": [
                0.2720696124774792,
                -1.9980927618720126,
                -1.9606095996654331,
                1.1531787251135164,
                0.2830313795215701,
                -0.03979844934911614
            ]
        },
        {
            "positions": [
                0.3576228742659675,
                -1.9513466362422296,
                -1.8654198284874233,
                1.066077326903427,
                0.308492482516647,
                -0.09334353502817622
            ]
        },
        {
            "positions": [
                0.4431761360544556,
                -1.9046005106124468,
                -1.7702300573094134,
                0.9789759286933376,
                0.33395358551172394,
                -0.14688862070723624
            ]
        },
        {
            "positions": [
                0.5287293978429438,
                -1.8578543849826639,
                -1.6750402861314033,
                0.8918745304832483,
                0.3594146885068008,
                -0.20043370638629632
            ]
        },
        {
            "positions": [
                0.614282659631432,
                -1.811108259352881,
                -1.5798505149533932,
                0.8047731322731589,
                0.38487579150187773,
                -0.25397879206535634
            ]
        },
        {
            "positions": [
                0.6998359214199202,
                -1.764362133723098,
                -1.4846607437753834,
                0.7176717340630695,
                0.41033689449695465,
                -0.3075238777444164
            ]
        },
        {
            "positions": [
                0.7853891832084086,
                -1.717616008093315,
                -1.3894709725973735,
                0.6305703358529802,
                0.4357979974920315,
                -0.3610689634234765
            ]
        },
        {
            "positions": [
                0.8709424449968967,
                -1.6708698824635322,
                -1.2942812014193636,
                0.543468937642891,
                0.4612591004871084,
                -0.4146140491025365
            ]
        },
        {
            "positions": [
                0.9564957067853849,
                -1.6241237568337492,
                -1.1990914302413536,
                0.4563675394328015,
                0.48672020348218537,
                -0.46815913478159654
            ]
        },
        {
            "positions": [
                1.0420489685738732,
                -1.5773776312039662,
                -1.1039016590633437,
                0.36926614122271206,
                0.5121813064772622,
                -0.5217042204606567
            ]
        },
        {
            "positions": [
                1.1276022303623614,
                -1.5306315055741835,
                -1.0087118878853336,
                0.28216474301262284,
                0.5376424094723392,
                -0.5752493061397167
            ]
        },
        {
            "positions": [
                1.2131554921508496,
                -1.4838853799444003,
                -0.9135221167073235,
                0.1950633448025334,
                0.5631035124674161,
                -0.6287943918187768
            ]
        },
        {
            "positions": [
                1.2987087539393378,
                -1.4371392543146175,
                -0.8183323455293137,
                0.10796194659244418,
                0.588564615462493,
                -0.6823394774978367
            ]
        },
        {
            "positions": [
                1.3842620157278258,
                -1.3903931286848348,
                -0.723142574351304,
                0.02086054838235496,
                0.6140257184575698,
                -0.7358845631768968
            ]
        },
        {
            "positions": [
                1.4698152775163142,
                -1.3436470030550516,
                -0.6279528031732937,
                -0.0662408498277347,
                0.6394868214526468,
                -0.7894296488559569
            ]
        },
        {
            "positions": [
                1.5553685393048025,
                -1.2969008774252688,
                -0.5327630319952839,
                -0.15334224803782392,
                0.6649479244477237,
                -0.8429747345350168
            ]
        },
        {
            "positions": [
                1.6409218010932909,
                -1.2501547517954856,
                -0.43757326081727377,
                -0.24044364624791337,
                0.6904090274428006,
                -0.8965198202140771
            ]
        },
        {
            "positions": [
                1.7264750628817789,
                -1.2034086261657029,
                -0.3423834896392639,
                -0.3275450444580026,
                0.7158701304378775,
                -0.9500649058931371
            ]
        },
        {
            "positions": [
                1.812028324670267,
                -1.1566625005359201,
                -0.24719371846125426,
                -0.4146464426680918,
                0.7413312334329544,
                -1.0036099915721972
            ]
        },
        {
            "positions": [
                1.8975815864587553,
                -1.109916374906137,
                -0.15200394728324396,
                -0.5017478408781813,
                0.7667923364280314,
                -1.0571550772512572
            ]
        },
        {
            "positions": [
                1.9831348482472435,
                -1.0631702492763542,
                -0.05681417610523409,
                -0.5888492390882707,
                0.7922534394231082,
                -1.1107001629303173
            ]
        },
        {
            "positions": [
                2.0686881100357315,
                -1.0164241236465712,
                0.03837559507277577,
                -0.6759506372983601,
                0.8177145424181851,
                -1.1642452486093773
            ]
        },
        {
            "positions": [
                2.1542413718242197,
                -0.9696779980167882,
                0.13356536625078563,
                -0.7630520355084496,
                0.8431756454132621,
                -1.2177903342884373
            ]
        },
        {
            "positions": [
                2.239794633612708,
                -0.9229318723870055,
                0.2287551374287955,
                -0.8501534337185386,
                0.8686367484083389,
                -1.2713354199674973
            ]
        },
        {
            "positions": [
                2.325347895401196,
                -0.8761857467572225,
                0.3239449086068058,
                -0.937254831928628,
                0.8940978514034159,
                -1.3248805056465573
            ]
        },
        {
            "positions": [
                2.4109011571896843,
                -0.8294396211274395,
                0.41913467978481544,
                -1.0243562301387175,
                0.9195589543984928,
                -1.3784255913256176
            ]
        },
        {
            "positions": [
                2.432536177876851,
                -0.847938171186106,
                0.5600242730236303,
                -1.0019328095983318,
                0.9330261681589014,
                -1.5492034817690512
            ]
        },
        {
            "positions": [
                2.4541711985640178,
                -0.8664367212447726,
                0.7009138662624452,
                -0.9795093890579463,
                0.94649338191931,
                -1.7199813722124848
            ]
        },
        {
            "positions": [
                2.4758062192511843,
                -0.8849352713034391,
                0.84180345950126,
                -0.9570859685175607,
                0.9599605956797186,
                -1.8907592626559184
            ]
        },
        {
            "positions": [
                2.497441239938351,
                -0.9034338213621056,
                0.9826930527400749,
                -0.9346625479771751,
                0.9734278094401272,
                -2.0615371530993523
            ]
        },
        {
            "positions": [
                2.5190762606255177,
                -0.9219323714207721,
                1.1235826459788898,
                -0.9122391274367894,
                0.9868950232005358,
                -2.2323150435427856
            ]
        },
        {
            "positions": [
                2.540711281312684,
                -0.9404309214794386,
                1.2644722392177048,
                -0.8898157068964039,
                1.0003622369609444,
                -2.403092933986219
            ]
        },
        {
            "positions": [
                2.562346301999851,
                -0.9589294715381051,
                1.4053618324565194,
                -0.8673922863560182,
                1.013829450721353,
                -2.573870824429653
            ]
        },
        {
            "positions": [
                2.5839813226870176,
                -0.9774280215967717,
                1.5462514256953344,
                -0.8449688658156326,
                1.0272966644817616,
                -2.7446487148730867
            ]
        },
        {
            "positions": [
                2.6056163433741846,
                -0.9959265716554382,
                1.6871410189341494,
                -0.822545445275247,
                1.0407638782421702,
                -2.9154266053165205
            ]
        },
        {
            "positions": [
                2.627251364061351,
                -1.0144251217141047,
                1.8280306121729641,
                -0.8001220247348614,
                1.0542310920025788,
                -3.086204495759954
            ]
        }
    ]
}