{
    "goal": {
        "global_pose": {
            "orientation": {
                "w": 0.005598929693374612,
                "x": 0.007748599140229565,
                "y": 0.7110244013736278,
                "z": -0.7031023480610252
            },
            "position": {
                "x": -0.8858502320852131,
                "y": -0.7141253447532654,
                "z": 0.3711530566215515
            }
        },
        "name": "move_to_auspresseinheit_C"
    },
    "id": "SPARStwo_move_to_auspresseinheit_C_98",
    "joint_names": [
        "shoulder_pan_joint",
        "shoulder_lift_joint",
        "elbow_joint",
        "wrist_1_joint",
        "wrist_2_joint",
        "wrist_3_joint"
    ],
    "metrics": {
        "cart_traj_len": 0.49440730308836095,
        "distance_elbow_joint": 1.0172458413044727,
        "distance_shoulder_lift_joint": 0.3335201560488652,
        "distance_shoulder_pan_joint": 0.2563793113204964,
        "distance_wrist_1_joint": 0.7083955250647992,
        "distance_wrist_2_joint": 1.3160902800518466,
        "distance_wrist_3_joint": 0.07011635800219063,
        "smoothness": 4.844609574787718e-16,
        "time": 5.00513995,
        "traj_len": 1.9239925862104228,
        "weighted_distance": 2.4220788576992485
    },
    "planner": "SPARStwo",
    "start": {
        "state": {
            "elbow_joint": 1.7527959577737207,
            "shoulder_lift_joint": -0.9740617694225068,
            "shoulder_pan_joint": -2.967991417825858,
            "wrist_1_joint": -0.759517768980727,
            "wrist_2_joint": 1.7443932448377408,
            "wrist_3_joint": -3.0840537646736568
        }
    },
    "waypoints": [
        {
            "positions": [
                -2.967991417825858,
                -0.9740617694225068,
                1.7527959577737207,
                -0.759517768980727,
                1.7443932448377408,
                -3.0840537646736568
            ]
        },
        {
            "positions": [
                -2.942353486693808,
                -0.9407097538176202,
                1.6510713736432734,
                -0.6886782164742471,
                1.6127842168325561,
                -3.091065400473876
            ]
        },
        {
            "positions": [
                -2.9167155555617588,
                -0.9073577382127337,
                1.5493467895128261,
                -0.6178386639677671,
                1.4811751888273714,
                -3.098077036274095
            ]
        },
        {
            "positions": [
                -2.891077624429709,
                -0.8740057226078473,
                1.4476222053823788,
                -0.5469991114612872,
                1.349566160822187,
                -3.105088672074314
            ]
        },
        {
            "positions": [
                -2.8654396932976596,
                -0.8406537070029607,
                1.3458976212519316,
                -0.47615955895480727,
                1.217957132817002,
                -3.112100307874533
            ]
        },
        {
            "positions": [
                -2.8398017621656098,
                -0.8073016913980742,
                1.2441730371214843,
                -0.4053200064483274,
                1.0863481048118175,
                -3.119111943674752
            ]
        },
        {
            "positions": [
                -2.81416383103356,
                -0.7739496757931876,
                1.142448452991037,
                -0.3344804539418475,
                0.954739076806633,
                -3.1261235794749713
            ]
        },
        {
            "positions": [
                -2.7885258999015106,
                -0.7405976601883011,
                1.0407238688605898,
                -0.26364090143536756,
                0.8231300488014482,
                -3.1331352152751903
            ]
        },
        {
            "positions": [
                -2.7628879687694607,
                -0.7072456445834145,
                0.9389992847301425,
                -0.19280134892888756,
                0.6915210207962634,
                -3.1401468510754094
            ]
        },
        {
            "positions": [
                -2.7372500376374114,
                -0.673893628978528,
                0.8372747005996952,
                -0.12196179642240768,
                0.559911992791079,
                -3.1471584868756284
            ]
        },
        {
            "positions": [
                -2.7116121065053616,
                -0.6405416133736416,
                0.7355501164692481,
                -0.05112224391592777,
                0.4283029647858943,
                -3.1541701226758474
            ]
        }
    ]
}