{
    "goal": {
        "global_pose": {
            "orientation": {
                "w": 0.7031023480610252,
                "x": -0.7110244013736278,
                "y": 0.0077485991402295624,
                "z": 0.005598929693374583
            },
            "position": {
                "x": -0.8841497679147869,
                "y": 0.44412534475326537,
                "z": 0.3711530566215515
            }
        },
        "name": "move_to_auspresseinheit_D"
    },
    "id": "SPARStwo_move_to_auspresseinheit_D_19",
    "joint_names": [
        "shoulder_pan_joint",
        "shoulder_lift_joint",
        "elbow_joint",
        "wrist_1_joint",
        "wrist_2_joint",
        "wrist_3_joint"
    ],
    "metrics": {
        "cart_traj_len": 0.34313459113350353,
        "distance_elbow_joint": 0.6334427090614962,
        "distance_shoulder_lift_joint": 0.11877311800706725,
        "distance_shoulder_pan_joint": 0.13423479228529453,
        "distance_wrist_1_joint": 0.5114600543764238,
        "distance_wrist_2_joint": 1.4396038147641337,
        "distance_wrist_3_joint": 0.012533736956509944,
        "smoothness": 1.9737298371844314e-16,
        "time": 5.005910612,
        "traj_len": 1.6882085846988593,
        "weighted_distance": 2.196856747378969
    },
    "planner": "SPARStwo",
    "start": {
        "state": {
            "elbow_joint": -1.8275523626775212,
            "shoulder_lift_joint": -2.126789852344167,
            "shoulder_pan_joint": -0.03513704404078235,
            "wrist_1_joint": -2.347782403156801,
            "wrist_2_joint": -1.6058999987535132,
            "wrist_3_joint": -3.0880379163319196
        }
    },
    "waypoints": [
        {
            "positions": [
                -0.03513704404078235,
                -2.126789852344167,
                -1.8275523626775212,
                -2.347782403156801,
                -1.6058999987535132,
                -3.0880379163319196
            ]
        },
        {
            "positions": [
                -0.05191639307644416,
                -2.14163649209505,
                -1.7483720240448342,
                -2.411714909953854,
                -1.4259495219079965,
                -3.0896046334514833
            ]
        },
        {
            "positions": [
                -0.06869574211210598,
                -2.156483131845934,
                -1.6691916854121471,
                -2.475647416750907,
                -1.2459990450624798,
                -3.091171350571047
            ]
        },
        {
            "positions": [
                -0.0854750911477678,
                -2.171329771596817,
                -1.59001134677946,
                -2.5395799235479597,
                -1.0660485682169631,
                -3.0927380676906107
            ]
        },
        {
            "positions": [
                -0.1022544401834296,
                -2.1861764113477005,
                -1.510831008146773,
                -2.603512430345013,
                -0.8860980913714464,
                -3.0943047848101743
            ]
        },
        {
            "positions": [
                -0.11903378921909144,
                -2.2010230510985838,
                -1.431650669514086,
                -2.667444937142066,
                -0.7061476145259297,
                -3.0958715019297385
            ]
        },
        {
            "positions": [
                -0.13581313825475325,
                -2.215869690849467,
                -1.352470330881399,
                -2.7313774439391185,
                -0.5261971376804129,
                -3.097438219049302
            ]
        },
        {
            "positions": [
                -0.15259248729041505,
                -2.230716330600351,
                -1.273289992248712,
                -2.7953099507361716,
                -0.3462466608348962,
                -3.099004936168866
            ]
        },
        {
            "positions": [
                -0.16937183632607689,
                -2.245562970351234,
                -1.194109653616025,
                -2.8592424575332247,
                -0.1662961839893795,
                -3.1005716532884295
            ]
        }
    ]
}