{
    "goal": {
        "global_pose": {
            "orientation": {
                "w": 0.7047431468963623,
                "x": -0.7094548344612122,
                "y": 0.0024358443915843964,
                "z": -0.0022348060738295317
            },
            "position": {
                "x": 0.6094750761985779,
                "y": 0.3671506643295288,
                "z": 0.19426114857196808
            }
        },
        "name": "move_to_magneteinheit_A"
    },
    "id": "SPARS_move_to_magneteinheit_A_82",
    "joint_names": [
        "shoulder_pan_joint",
        "shoulder_lift_joint",
        "elbow_joint",
        "wrist_1_joint",
        "wrist_2_joint",
        "wrist_3_joint"
    ],
    "metrics": {
        "cart_traj_len": 3.6880795653061185,
        "distance_elbow_joint": 3.891260295389108,
        "distance_shoulder_lift_joint": 0.6255772950483405,
        "distance_shoulder_pan_joint": 2.633817627871329,
        "distance_wrist_1_joint": 0.816675904882456,
        "distance_wrist_2_joint": 1.8942989044822924,
        "distance_wrist_3_joint": 3.7789295606505644,
        "smoothness": 0.6983907575566956,
        "time": 5.044634935,
        "traj_len": 3.6933128202636842,
        "weighted_distance": 4.8897232558693915
    },
    "planner": "SPARS",
    "start": {
        "state": {
            "elbow_joint": -1.9196185241190666,
            "shoulder_lift_joint": -1.2443396400964142,
            "shoulder_pan_joint": 2.6996025414629847,
            "wrist_1_joint": -1.5485510000780065,
            "wrist_2_joint": -1.5709468930060704,
            "wrist_3_joint": 0.4420197071253992
        }
    },
    "waypoints": [
        {
            "positions": [
                2.6996025414629847,
                -1.2443396400964142,
                -1.9196185241190666,
                -1.5485510000780065,
                -1.5709468930060704,
                0.4420197071253992
            ]
        },
        {
            "positions": [
                2.6074132669880674,
                -1.2297038274378522,
                -1.8201747178691419,
                -1.5375605636631273,
                -1.516128198274442,
                0.3243396587763473
            ]
        },
        {
            "positions": [
                2.5152239925131497,
                -1.2150680147792903,
                -1.720730911619217,
                -1.5265701272482481,
                -1.4613095035428134,
                0.2066596104272954
            ]
        },
        {
            "positions": [
                2.4230347180382323,
                -1.200432202120728,
                -1.6212871053692925,
                -1.515579690833369,
                -1.406490808811185,
                0.08897956207824348
            ]
        },
        {
            "positions": [
                2.3308454435633146,
                -1.1857963894621661,
                -1.5218432991193678,
                -1.50458925441849,
                -1.3516721140795562,
                -0.0287004862708084
            ]
        },
        {
            "positions": [
                2.2386561690883973,
                -1.1711605768036042,
                -1.422399492869443,
                -1.4935988180036108,
                -1.2968534193479277,
                -0.14638053461986034
            ]
        },
        {
            "positions": [
                2.1464668946134795,
                -1.1565247641450422,
                -1.3229556866195185,
                -1.4826083815887316,
                -1.2420347246162993,
                -0.2640605829689122
            ]
        },
        {
            "positions": [
                2.054277620138562,
                -1.14188895148648,
                -1.2235118803695935,
                -1.4716179451738525,
                -1.1872160298846708,
                -0.3817406313179642
            ]
        },
        {
            "positions": [
                1.9620883456636447,
                -1.127253138827918,
                -1.124068074119669,
                -1.4606275087589733,
                -1.1323973351530423,
                -0.499420679667016
            ]
        },
        {
            "positions": [
                1.8698990711887271,
                -1.1126173261693562,
                -1.0246242678697444,
                -1.4496370723440941,
                -1.0775786404214138,
                -0.617100728016068
            ]
        },
        {
            "positions": [
                1.7777097967138096,
                -1.0979815135107942,
                -0.9251804616198195,
                -1.4386466359292152,
                -1.0227599456897853,
                -0.7347807763651198
            ]
        },
        {
            "positions": [
                1.685520522238892,
                -1.083345700852232,
                -0.8257366553698948,
                -1.427656199514336,
                -0.9679412509581566,
                -0.8524608247141717
            ]
        },
        {
            "positions": [
                1.5933312477639747,
                -1.06870988819367,
                -0.7262928491199703,
                -1.4166657630994568,
                -0.9131225562265282,
                -0.9701408730632236
            ]
        },
        {
            "positions": [
                1.501141973289057,
                -1.0540740755351081,
                -0.6268490428700453,
                -1.4056753266845776,
                -0.8583038614948997,
                -1.0878209214122756
            ]
        },
        {
            "positions": [
                1.4089526988141394,
                -1.039438262876546,
                -0.5274052366201205,
                -1.3946848902696984,
                -0.8034851667632711,
                -1.2055009697613275
            ]
        },
        {
            "positions": [
                1.316763424339222,
                -1.024802450217984,
                -0.42796143037019596,
                -1.3836944538548193,
                -0.7486664720316426,
                -1.3231810181103794
            ]
        },
        {
            "positions": [
                1.2245741498643046,
                -1.010166637559422,
                -0.3285176241202712,
                -1.3727040174399403,
                -0.6938477773000141,
                -1.4408610664594312
            ]
        },
        {
            "positions": [
                1.132384875389387,
                -0.9955308249008601,
                -0.22907381787034642,
                -1.3617135810250611,
                -0.6390290825683855,
                -1.5585411148084831
            ]
        },
        {
            "positions": [
                1.0401956009144695,
                -0.9808950122422981,
                -0.12963001162042187,
                -1.350723144610182,
                -0.5842103878367572,
                -1.676221163157535
            ]
        },
        {
            "positions": [
                0.948006326439552,
                -0.9662591995837361,
                -0.0301862053704971,
                -1.3397327081953028,
                -0.5293916931051286,
                -1.7939012115065869
            ]
        },
        {
            "positions": [
                0.8558170519646344,
                -0.951623386925174,
                0.06925760087942767,
                -1.3287422717804236,
                -0.4745729983735001,
                -1.9115812598556388
            ]
        },
        {
            "positions": [
                0.7636277774897171,
                -0.9369875742666121,
                0.168701407129352,
                -1.3177518353655444,
                -0.4197543036418716,
                -2.0292613082046906
            ]
        },
        {
            "positions": [
                0.6714385030147993,
                -0.9223517616080501,
                0.268145213379277,
                -1.3067613989506652,
                -0.3649356089102429,
                -2.1469413565537425
            ]
        },
        {
            "positions": [
                0.579249228539882,
                -0.907715948949488,
                0.367589019629202,
                -1.2957709625357863,
                -0.3101169141786144,
                -2.2646214049027944
            ]
        },
        {
            "positions": [
                0.4870599540649647,
                -0.893080136290926,
                0.4670328258791261,
                -1.284780526120907,
                -0.25529821944698594,
                -2.3823014532518463
            ]
        },
        {
            "positions": [
                0.39487067959004707,
                -0.878444323632364,
                0.5664766321290511,
                -1.273790089706028,
                -0.20047952471535743,
                -2.499981501600898
            ]
        },
        {
            "positions": [
                0.3572946667469044,
                -0.8986926372299193,
                0.7032170926293799,
                -1.2301060343998524,
                -0.16415086783891808,
                -2.5770918109330623
            ]
        },
        {
            "positions": [
                0.31971865390376175,
                -0.9189409508274746,
                0.8399575531297087,
                -1.1864219790936772,
                -0.1278222109624787,
                -2.654202120265226
            ]
        },
        {
            "positions": [
                0.2821426410606191,
                -0.9391892644250298,
                0.9766980136300374,
                -1.142737923787502,
                -0.09149355408603933,
                -2.7313124295973896
            ]
        },
        {
            "positions": [
                0.24456662821747643,
                -0.9594375780225851,
                1.1134384741303662,
                -1.0990538684813265,
                -0.05516489720959997,
                -2.8084227389295537
            ]
        },
        {
            "positions": [
                0.20699061537433378,
                -0.9796858916201404,
                1.250178934630695,
                -1.055369813175151,
                -0.018836240333160587,
                -2.885533048261718
            ]
        },
        {
            "positions": [
                0.16941460253119112,
                -0.9999342052176956,
                1.3869193951310237,
                -1.0116857578689757,
                0.017492416543278766,
                -2.9626433575938815
            ]
        },
        {
            "positions": [
                0.13183858968804846,
                -1.020182518815251,
                1.5236598556313525,
                -0.9680017025628004,
                0.05382107341971812,
                -3.039753666926045
            ]
        },
        {
            "positions": [
                0.09426257684490578,
                -1.0404308324128062,
                1.6604003161316814,
                -0.924317647256625,
                0.0901497302961575,
                -3.1168639762582093
            ]
        },
        {
            "positions": [
                0.10077520963132779,
                -1.048158029921075,
                1.7720040625919675,
                -0.9384400053916434,
                0.040042583365059316,
                -3.078662211046673
            ]
        },
        {
            "positions": [
                0.10728784241774979,
                -1.055885227429344,
                1.883607809052254,
                -0.9525623635266618,
                -0.010064563566038867,
                -3.0404604458351367
            ]
        },
        {
            "positions": [
                0.11501404125795266,
                -1.0970057648229992,
                1.9276247901611474,
                -0.8704634456311429,
                0.056429430092895264,
                -3.1122816192570784
            ]
        },
        {
            "positions": [
                0.12274024009815553,
                -1.1381263022166543,
                1.971641771270041,
                -0.788364527735624,
                0.12292342375182941,
                -3.18410279267902
            ]
        }
    ]
}