{
    "goal": {
        "global_pose": {
            "orientation": {
                "w": 0.005598929693374612,
                "x": 0.007748599140229565,
                "y": 0.7110244013736278,
                "z": -0.7031023480610252
            },
            "position": {
                "x": 0.1141497679147869,
                "y": -0.7141253447532654,
                "z": 0.3711530566215515
            }
        },
        "name": "move_to_auspresseinheit_B"
    },
    "id": "SPARS_move_to_auspresseinheit_B_24",
    "joint_names": [
        "shoulder_pan_joint",
        "shoulder_lift_joint",
        "elbow_joint",
        "wrist_1_joint",
        "wrist_2_joint",
        "wrist_3_joint"
    ],
    "metrics": {
        "cart_traj_len": 0.5641196967329726,
        "distance_elbow_joint": 0.06259134928968968,
        "distance_shoulder_lift_joint": 0.2941739799836005,
        "distance_shoulder_pan_joint": 0.5765055675929047,
        "distance_wrist_1_joint": 0.33109947823679753,
        "distance_wrist_2_joint": 0.9969668600785537,
        "distance_wrist_3_joint": 0.0043166290994398615,
        "smoothness": 5.075305255429287e-16,
        "time": 5.047536569,
        "traj_len": 1.505208910510759,
        "weighted_distance": 1.8979866861480397
    },
    "planner": "SPARS",
    "start": {
        "state": {
            "elbow_joint": 2.0193083361928714,
            "shoulder_lift_joint": -1.1220246554650708,
            "shoulder_pan_joint": -1.0952077554168747,
            "wrist_1_joint": -0.8559753972642168,
            "wrist_2_joint": 0.4759566250798843,
            "wrist_3_joint": -3.1240929996934557
        }
    },
    "waypoints": [
        {
            "positions": [
                -1.0952077554168747,
                -1.1220246554650708,
                2.0193083361928714,
                -0.8559753972642168,
                0.4759566250798843,
                -3.1240929996934557
            ]
        },
        {
            "positions": [
                -1.1912920166823588,
                -1.1710536521290043,
                2.00887644464459,
                -0.8007921508914172,
                0.64211776842631,
                -3.1248124378766957
            ]
        },
        {
            "positions": [
                -1.2873762779478428,
                -1.2200826487929377,
                1.9984445530963082,
                -0.7456089045186176,
                0.8082789117727356,
                -3.1255318760599358
            ]
        },
        {
            "positions": [
                -1.383460539213327,
                -1.2691116454568712,
                1.9880126615480265,
                -0.690425658145818,
                0.9744400551191612,
                -3.1262513142431754
            ]
        },
        {
            "positions": [
                -1.479544800478811,
                -1.3181406421208044,
                1.977580769999745,
                -0.6352424117730184,
                1.1406011984655868,
                -3.1269707524264154
            ]
        },
        {
            "positions": [
                -1.5756290617442952,
                -1.3671696387847379,
                1.9671488784514635,
                -0.5800591654002188,
                1.3067623418120125,
                -3.1276901906096555
            ]
        },
        {
            "positions": [
                -1.6717133230097794,
                -1.4161986354486713,
                1.9567169869031817,
                -0.5248759190274193,
                1.472923485158438,
                -3.1284096287928955
            ]
        }
    ]
}