{
    "goal": {
        "global_pose": {
            "orientation": {
                "w": 0.7047431493862688,
                "x": -0.7094548369677653,
                "y": 0.0024358444001904,
                "z": -0.0022348060817251984
            },
            "position": {
                "x": -0.39052492380142206,
                "y": 0.3671506643295288,
                "z": 0.19426114857196808
            }
        },
        "name": "move_to_magneteinheit_D"
    },
    "id": "SPARS_move_to_magneteinheit_D_6",
    "joint_names": [
        "shoulder_pan_joint",
        "shoulder_lift_joint",
        "elbow_joint",
        "wrist_1_joint",
        "wrist_2_joint",
        "wrist_3_joint"
    ],
    "metrics": {
        "cart_traj_len": 4.724925253631367,
        "distance_elbow_joint": 3.7091947668158443,
        "distance_shoulder_lift_joint": 2.2628214257340877,
        "distance_shoulder_pan_joint": 2.8597556400228665,
        "distance_wrist_1_joint": 3.1602871694232784,
        "distance_wrist_2_joint": 2.092142744313135,
        "distance_wrist_3_joint": 0.4534315348905813,
        "smoothness": 1.3656604644303008,
        "time": 5.046587745,
        "traj_len": 3.8128248427117377,
        "weighted_distance": 4.549387460385999
    },
    "planner": "SPARS",
    "start": {
        "state": {
            "elbow_joint": 0.749534889911806,
            "shoulder_lift_joint": -0.6476975780787326,
            "shoulder_pan_joint": -2.711696901376241,
            "wrist_1_joint": -0.07506478083263063,
            "wrist_2_joint": 0.43296659715538205,
            "wrist_3_joint": -3.14703540197715
        }
    },
    "waypoints": [
        {
            "positions": [
                -2.711696901376241,
                -0.6476975780787326,
                0.749534889911806,
                -0.07506478083263063,
                0.43296659715538205,
                -3.14703540197715
            ]
        },
        {
            "positions": [
                -2.7087936146134455,
                -0.7754988187968159,
                0.6713127593514255,
                -0.00646127380212505,
                0.4841184371159347,
                -3.1249649444894443
            ]
        },
        {
            "positions": [
                -2.70589032785065,
                -0.9033000595148992,
                0.5930906287910451,
                0.062142233228380514,
                0.5352702770764873,
                -3.1028944870017385
            ]
        },
        {
            "positions": [
                -2.5905261492277365,
                -0.9403595524561279,
                0.48073444289001754,
                -0.017845105527578634,
                0.495949868530146,
                -3.0986418743973303
            ]
        },
        {
            "positions": [
                -2.475161970604823,
                -0.9774190453973567,
                0.36837825698898996,
                -0.09783244428353778,
                0.4566294599838046,
                -3.0943892617929225
            ]
        },
        {
            "positions": [
                -2.3597977919819098,
                -1.0144785383385853,
                0.2560220710879624,
                -0.17781978303949691,
                0.4173090514374633,
                -3.0901366491885143
            ]
        },
        {
            "positions": [
                -2.244433613358996,
                -1.0515380312798142,
                0.1436658851869348,
                -0.25780712179545606,
                0.3779886428911219,
                -3.0858840365841065
            ]
        },
        {
            "positions": [
                -2.1290694347360826,
                -1.0885975242210428,
                0.03130969928590721,
                -0.3377944605514152,
                0.33866823434478055,
                -3.0816314239796982
            ]
        },
        {
            "positions": [
                -2.013705256113169,
                -1.1256570171622715,
                -0.08104648661512037,
                -0.41778179930737436,
                0.2993478257984392,
                -3.0773788113752905
            ]
        },
        {
            "positions": [
                -1.8983410774902558,
                -1.1627165101035002,
                -0.19340267251614796,
                -0.49776913806333356,
                0.2600274172520978,
                -3.0731261987708822
            ]
        },
        {
            "positions": [
                -1.7829768988673425,
                -1.1997760030447289,
                -0.30575885841717554,
                -0.5777564768192927,
                0.2207070087057565,
                -3.068873586166474
            ]
        },
        {
            "positions": [
                -1.6676127202444289,
                -1.2368354959859578,
                -0.4181150443182031,
                -0.6577438155752519,
                0.1813866001594151,
                -3.064620973562066
            ]
        },
        {
            "positions": [
                -1.5522485416215155,
                -1.2738949889271864,
                -0.5304712302192307,
                -0.737731154331211,
                0.14206619161307377,
                -3.060368360957658
            ]
        },
        {
            "positions": [
                -1.436884362998602,
                -1.3109544818684151,
                -0.6428274161202583,
                -0.8177184930871702,
                0.10274578306673238,
                -3.05611574835325
            ]
        },
        {
            "positions": [
                -1.3215201843756885,
                -1.3480139748096438,
                -0.7551836020212859,
                -0.8977058318431292,
                0.06342537452039104,
                -3.051863135748842
            ]
        },
        {
            "positions": [
                -1.2061560057527752,
                -1.3850734677508725,
                -0.8675397879223132,
                -0.9776931705990883,
                0.024104965974049763,
                -3.047610523144434
            ]
        },
        {
            "positions": [
                -1.0907918271298616,
                -1.4221329606921014,
                -0.979895973823341,
                -1.0576805093550476,
                -0.015215442572291682,
                -3.043357910540026
            ]
        },
        {
            "positions": [
                -0.9754276485069482,
                -1.4591924536333298,
                -1.0922521597243686,
                -1.1376678481110067,
                -0.054535851118633016,
                -3.039105297935618
            ]
        },
        {
            "positions": [
                -0.8600634698840348,
                -1.4962519465745587,
                -1.2046083456253962,
                -1.2176551868669658,
                -0.09385625966497435,
                -3.03485268533121
            ]
        },
        {
            "positions": [
                -0.7446992912611214,
                -1.5333114395157874,
                -1.3169645315264236,
                -1.297642525622925,
                -0.13317666821131569,
                -3.0306000727268017
            ]
        },
        {
            "positions": [
                -0.6293351126382078,
                -1.570370932457016,
                -1.4293207174274514,
                -1.3776298643788842,
                -0.17249707675765713,
                -3.026347460122394
            ]
        },
        {
            "positions": [
                -0.5139709340152945,
                -1.607430425398245,
                -1.541676903328479,
                -1.4576172031348433,
                -0.21181748530399847,
                -3.0220948475179856
            ]
        },
        {
            "positions": [
                -0.3986067553923811,
                -1.6444899183394734,
                -1.6540330892295065,
                -1.5376045418908024,
                -0.2511378938503398,
                -3.017842234913578
            ]
        },
        {
            "positions": [
                -0.28324257676946774,
                -1.6815494112807023,
                -1.7663892751305341,
                -1.6175918806467615,
                -0.29045830239668113,
                -3.0135896223091696
            ]
        },
        {
            "positions": [
                -0.16787839814655392,
                -1.718608904221931,
                -1.8787454610315617,
                -1.6975792194027208,
                -0.3297787109430226,
                -3.009337009704762
            ]
        },
        {
            "positions": [
                -0.05251421952364051,
                -1.7556683971631597,
                -1.9911016469325893,
                -1.77756655815868,
                -0.3690991194893639,
                -3.0050843971003536
            ]
        },
        {
            "positions": [
                -0.0411880697899829,
                -1.7245329743037339,
                -2.062058731399336,
                -1.9183007472212743,
                -0.33190364386454674,
                -3.001210064053805
            ]
        },
        {
            "positions": [
                -0.02986192005632529,
                -1.6933975514443083,
                -2.133015815866083,
                -2.0590349362838687,
                -0.29470816823972956,
                -2.9973357310072557
            ]
        },
        {
            "positions": [
                -0.018535770322667677,
                -1.6622621285848824,
                -2.20397290033283,
                -2.199769125346463,
                -0.25751269261491233,
                -2.993461397960707
            ]
        },
        {
            "positions": [
                -0.035690971984160824,
                -1.564510625971065,
                -2.295046311408956,
                -2.2766441804818935,
                -0.347408396540083,
                -2.9746689840607714
            ]
        },
        {
            "positions": [
                -0.05284617364565397,
                -1.4667591233572477,
                -2.386119722485082,
                -2.353519235617324,
                -0.4373041004652537,
                -2.955876570160836
            ]
        },
        {
            "positions": [
                -0.07000137530714712,
                -1.3690076207434303,
                -2.477193133561208,
                -2.4303942907527545,
                -0.5271998043904242,
                -2.9370841562609007
            ]
        },
        {
            "positions": [
                -0.08715657696864026,
                -1.271256118129613,
                -2.568266544637334,
                -2.5072693458881847,
                -0.617095508315595,
                -2.918291742360965
            ]
        },
        {
            "positions": [
                -0.10431177863013341,
                -1.1735046155157955,
                -2.65933995571346,
                -2.5841444010236154,
                -0.7069912122407657,
                -2.8994993284610295
            ]
        },
        {
            "positions": [
                -0.11778152874043799,
                -1.268952419682845,
                -2.6092866355150304,
                -2.52134548083857,
                -0.61959042535312,
                -2.9338152386901064
            ]
        },
        {
            "positions": [
                -0.13125127885074256,
                -1.3644002238498942,
                -2.5592333153166007,
                -2.458546560653525,
                -0.5321896384654745,
                -2.9681311489191833
            ]
        },
        {
            "positions": [
                -0.1447210289610471,
                -1.4598480280169437,
                -2.509179995118171,
                -2.3957476404684797,
                -0.4447888515778288,
                -3.0024470591482597
            ]
        },
        {
            "positions": [
                -0.15819077907135168,
                -1.555295832183993,
                -2.4591266749197414,
                -2.3329487202834343,
                -0.35738806469018325,
                -3.0367629693773366
            ]
        },
        {
            "positions": [
                -0.17166052918165625,
                -1.6507436363510424,
                -2.4090733547213117,
                -2.2701498000983893,
                -0.26998727780253756,
                -3.0710788796064135
            ]
        },
        {
            "positions": [
                -0.18513027929196083,
                -1.7461914405180918,
                -2.359020034522882,
                -2.207350879913344,
                -0.182586490914892,
                -3.1053947898354903
            ]
        }
    ]
}