{
    "goal": {
        "global_pose": {
            "orientation": {
                "w": 0.7047431468963623,
                "x": -0.7094548344612122,
                "y": 0.0024358443915843964,
                "z": -0.0022348060738295317
            },
            "position": {
                "x": 0.6094750761985779,
                "y": 0.3671506643295288,
                "z": 0.19426114857196808
            }
        },
        "name": "move_to_magneteinheit_A"
    },
    "id": "SPARS_move_to_magneteinheit_A_142",
    "joint_names": [
        "shoulder_pan_joint",
        "shoulder_lift_joint",
        "elbow_joint",
        "wrist_1_joint",
        "wrist_2_joint",
        "wrist_3_joint"
    ],
    "metrics": {
        "cart_traj_len": 3.287235286697319,
        "distance_elbow_joint": 3.929902765647234,
        "distance_shoulder_lift_joint": 0.7220559625354908,
        "distance_shoulder_pan_joint": 4.119619050586062,
        "distance_wrist_1_joint": 3.539017395312648,
        "distance_wrist_2_joint": 2.0865745179514787,
        "distance_wrist_3_joint": 0.5194837258132479,
        "smoothness": 0.2091558044282266,
        "time": 5.04123246,
        "traj_len": 3.862208360232027,
        "weighted_distance": 4.645558392996131
    },
    "planner": "SPARS",
    "start": {
        "state": {
            "elbow_joint": -1.9196185241190666,
            "shoulder_lift_joint": -1.2443396400964142,
            "shoulder_pan_joint": 2.6996025414629847,
            "wrist_1_joint": -1.5485510000780065,
            "wrist_2_joint": -1.5709468930060704,
            "wrist_3_joint": 0.4420197071253992
        }
    },
    "waypoints": [
        {
            "positions": [
                2.6996025414629847,
                -1.2443396400964142,
                -1.9196185241190666,
                -1.5485510000780065,
                -1.5709468930060704,
                0.4420197071253992
            ]
        },
        {
            "positions": [
                2.575594578547948,
                -1.2492038653033641,
                -1.8518170307296395,
                -1.4468446303924707,
                -1.5054371478636306,
                0.42290585416805876
            ]
        },
        {
            "positions": [
                2.451586615632911,
                -1.254068090510314,
                -1.7840155373402125,
                -1.3451382607069347,
                -1.439927402721191,
                0.40379200121071834
            ]
        },
        {
            "positions": [
                2.3275786527178743,
                -1.2589323157172638,
                -1.7162140439507854,
                -1.2434318910213988,
                -1.3744176575787512,
                0.3846781482533779
            ]
        },
        {
            "positions": [
                2.203570689802838,
                -1.2637965409242138,
                -1.6484125505613583,
                -1.1417255213358628,
                -1.3089079124363117,
                0.3655642952960375
            ]
        },
        {
            "positions": [
                2.079562726887801,
                -1.2686607661311637,
                -1.580611057171931,
                -1.040019151650327,
                -1.2433981672938719,
                0.3464504423386971
            ]
        },
        {
            "positions": [
                1.9555547639727644,
                -1.2735249913381137,
                -1.512809563782504,
                -0.9383127819647911,
                -1.1778884221514323,
                0.3273365893813567
            ]
        },
        {
            "positions": [
                1.8315468010577276,
                -1.2783892165450637,
                -1.4450080703930768,
                -0.8366064122792551,
                -1.1123786770089925,
                0.3082227364240163
            ]
        },
        {
            "positions": [
                1.7075388381426908,
                -1.2832534417520134,
                -1.3772065770036497,
                -0.7349000425937192,
                -1.0468689318665527,
                0.28910888346667585
            ]
        },
        {
            "positions": [
                1.583530875227654,
                -1.2881176669589633,
                -1.3094050836142226,
                -0.6331936729081833,
                -0.9813591867241132,
                0.2699950305093355
            ]
        },
        {
            "positions": [
                1.4595229123126174,
                -1.2929818921659133,
                -1.2416035902247955,
                -0.5314873032226473,
                -0.9158494415816734,
                0.250881177551995
            ]
        },
        {
            "positions": [
                1.3355149493975806,
                -1.2978461173728633,
                -1.1738020968353684,
                -0.42978093353711144,
                -0.8503396964392337,
                0.23176732459465463
            ]
        },
        {
            "positions": [
                1.2115069864825438,
                -1.3027103425798132,
                -1.1060006034459413,
                -0.32807456385157563,
                -0.784829951296794,
                0.2126534716373142
            ]
        },
        {
            "positions": [
                1.087499023567507,
                -1.3075745677867632,
                -1.0381991100565142,
                -0.2263681941660396,
                -0.7193202061543543,
                0.1935396186799738
            ]
        },
        {
            "positions": [
                0.9634910606524705,
                -1.312438792993713,
                -0.970397616667087,
                -0.12466182448050378,
                -0.6538104610119146,
                0.1744257657226334
            ]
        },
        {
            "positions": [
                0.8394830977374335,
                -1.3173030182006629,
                -0.9025961232776598,
                -0.022955454794967523,
                -0.5883007158694749,
                0.15531191276529294
            ]
        },
        {
            "positions": [
                0.7154751348223969,
                -1.3221672434076128,
                -0.8347946298882327,
                0.07875091489056807,
                -0.5227909707270353,
                0.13619805980795258
            ]
        },
        {
            "positions": [
                0.5914671719073601,
                -1.3270314686145628,
                -0.7669931364988056,
                0.1804572845761041,
                -0.4572812255845955,
                0.1170842068506121
            ]
        },
        {
            "positions": [
                0.4674592089923233,
                -1.3318956938215127,
                -0.6991916431093785,
                0.2821636542616399,
                -0.39177148044215593,
                0.09797035389327174
            ]
        },
        {
            "positions": [
                0.3434512460772865,
                -1.3367599190284625,
                -0.6313901497199514,
                0.38387002394717595,
                -0.32626173529971614,
                0.07885650093593133
            ]
        },
        {
            "positions": [
                0.21944328316225015,
                -1.3416241442354124,
                -0.5635886563305244,
                0.485576393632712,
                -0.26075199015727635,
                0.05974264797859091
            ]
        },
        {
            "positions": [
                0.09543532024721291,
                -1.3464883694423624,
                -0.49578716294109726,
                0.587282763318248,
                -0.19524224501483656,
                0.0406287950212505
            ]
        },
        {
            "positions": [
                -0.028572642667823445,
                -1.3513525946493123,
                -0.42798566955167017,
                0.6889891330037836,
                -0.129732499872397,
                0.02151494206391008
            ]
        },
        {
            "positions": [
                -0.15258060558286068,
                -1.3562168198562623,
                -0.36018417616224285,
                0.7906955026893197,
                -0.0642227547299572,
                0.002401089106569665
            ]
        },
        {
            "positions": [
                -0.27658856849789704,
                -1.3610810450632123,
                -0.292382682772816,
                0.8924018723748552,
                0.0012869904124823695,
                -0.01671276385077075
            ]
        },
        {
            "positions": [
                -0.40059653141293383,
                -1.365945270270162,
                -0.22458118938338867,
                0.9941082420603917,
                0.06679673555492216,
                -0.03582661680811117
            ]
        },
        {
            "positions": [
                -0.5246044943279706,
                -1.370809495477112,
                -0.1567796959939618,
                1.0958146117459273,
                0.13230648069736173,
                -0.05494046976545158
            ]
        },
        {
            "positions": [
                -0.6486124572430072,
                -1.375673720684062,
                -0.08897820260453437,
                1.1975209814314631,
                0.19781622583980152,
                -0.07405432272279198
            ]
        },
        {
            "positions": [
                -0.5843287862530014,
                -1.3264468971884082,
                0.08596033440652412,
                1.2635997659150613,
                0.17133194258100096,
                -0.07433846405321336
            ]
        },
        {
            "positions": [
                -0.5200451152629957,
                -1.2772200736927548,
                0.2608988714175826,
                1.3296785503986595,
                0.1448476593222004,
                -0.07462260538363474
            ]
        },
        {
            "positions": [
                -0.4557614442729899,
                -1.2279932501971011,
                0.43583740842864116,
                1.3957573348822576,
                0.11836337606339982,
                -0.07490674671405612
            ]
        },
        {
            "positions": [
                -0.39147777328298416,
                -1.1787664267014475,
                0.6107759454396996,
                1.4618361193658558,
                0.09187909280459926,
                -0.07519088804447749
            ]
        },
        {
            "positions": [
                -0.3271941022929784,
                -1.129539603205794,
                0.7857144824507583,
                1.5279149038494542,
                0.06539480954579868,
                -0.07547502937489887
            ]
        },
        {
            "positions": [
                -0.26291043130297265,
                -1.0803127797101404,
                0.9606530194618167,
                1.5939936883330523,
                0.03891052628699812,
                -0.07575917070532025
            ]
        },
        {
            "positions": [
                -0.19862676031296683,
                -1.0310859562144867,
                1.1355915564728751,
                1.6600724728166505,
                0.012426243028197531,
                -0.07604331203574162
            ]
        },
        {
            "positions": [
                -0.13434308932296113,
                -0.9818591327188333,
                1.3105300934839335,
                1.7261512573002487,
                -0.014058040230603003,
                -0.076327453366163
            ]
        },
        {
            "positions": [
                -0.07005941833295537,
                -0.9326323092231796,
                1.4854686304949922,
                1.792230041783847,
                -0.040542323489403564,
                -0.07661159469658438
            ]
        },
        {
            "positions": [
                -0.005775747342949611,
                -0.883405485727526,
                1.660407167506051,
                1.8583088262674452,
                -0.06702660674820415,
                -0.07689573602700575
            ]
        },
        {
            "positions": [
                0.05850792364705615,
                -0.8341786622318725,
                1.8353457045171093,
                1.9243876107510434,
                -0.09351089000700469,
                -0.07717987735742714
            ]
        },
        {
            "positions": [
                0.1227915946370619,
                -0.7849518387362189,
                2.0102842415281676,
                1.9904663952346415,
                -0.11999517326580528,
                -0.07746401868784851
            ]
        }
    ]
}