{
    "goal": {
        "global_pose": {
            "orientation": {
                "w": 0.005598929693374612,
                "x": 0.007748599140229565,
                "y": 0.7110244013736278,
                "z": -0.7031023480610252
            },
            "position": {
                "x": 0.1141497679147869,
                "y": -0.7141253447532654,
                "z": 0.3711530566215515
            }
        },
        "name": "move_to_auspresseinheit_B"
    },
    "id": "SPARStwo_move_to_auspresseinheit_B_68",
    "joint_names": [
        "shoulder_pan_joint",
        "shoulder_lift_joint",
        "elbow_joint",
        "wrist_1_joint",
        "wrist_2_joint",
        "wrist_3_joint"
    ],
    "metrics": {
        "cart_traj_len": 0.5637255738995848,
        "distance_elbow_joint": 0.05965438750917529,
        "distance_shoulder_lift_joint": 0.2949990376407974,
        "distance_shoulder_pan_joint": 0.575787543207877,
        "distance_wrist_1_joint": 0.31465027466793527,
        "distance_wrist_2_joint": 0.9931158312021571,
        "distance_wrist_3_joint": 0.002630304525455429,
        "smoothness": 5.075305255429287e-16,
        "time": 5.013328401,
        "traj_len": 1.4969426771768508,
        "weighted_distance": 1.8851695132465942
    },
    "planner": "SPARStwo",
    "start": {
        "state": {
            "elbow_joint": 2.0193083361928714,
            "shoulder_lift_joint": -1.1220246554650708,
            "shoulder_pan_joint": -1.0952077554168747,
            "wrist_1_joint": -0.8559753972642168,
            "wrist_2_joint": 0.4759566250798843,
            "wrist_3_joint": -3.1240929996934557
        }
    },
    "waypoints": [
        {
            "positions": [
                -1.0952077554168747,
                -1.1220246554650708,
                2.0193083361928714,
                -0.8559753972642168,
                0.4759566250798843,
                -3.1240929996934557
            ]
        },
        {
            "positions": [
                -1.1911723459515209,
                -1.171191161738537,
                2.0093659382746756,
                -0.8035336848195609,
                0.6414759302802437,
                -3.1245313837810316
            ]
        },
        {
            "positions": [
                -1.287136936486167,
                -1.2203576680120032,
                1.9994235403564797,
                -0.751091972374905,
                0.8069952354806034,
                -3.1249697678686075
            ]
        },
        {
            "positions": [
                -1.3831015270208131,
                -1.2695241742854695,
                1.989481142438284,
                -0.6986502599302491,
                0.9725145406809628,
                -3.1254081519561834
            ]
        },
        {
            "positions": [
                -1.4790661175554591,
                -1.3186906805589358,
                1.9795387445200878,
                -0.6462085474855933,
                1.1380338458813224,
                -3.1258465360437593
            ]
        },
        {
            "positions": [
                -1.5750307080901056,
                -1.3678571868324019,
                1.969596346601892,
                -0.5937668350409373,
                1.3035531510816818,
                -3.126284920131335
            ]
        },
        {
            "positions": [
                -1.6709952986247516,
                -1.4170236931058682,
                1.9596539486836961,
                -0.5413251225962815,
                1.4690724562820414,
                -3.126723304218911
            ]
        }
    ]
}