{
    "goal": {
        "global_pose": {
            "orientation": {
                "w": 0.5084816217422485,
                "x": -0.49083608388900757,
                "y": 0.5182115435600281,
                "z": -0.4816462993621826
            },
            "position": {
                "x": 0.5540239810943604,
                "y": 0.030875300988554955,
                "z": 0.16403168439865112
            }
        },
        "name": "move_to_storage_A"
    },
    "id": "SPARStwo_move_to_storage_A_135",
    "joint_names": [
        "shoulder_pan_joint",
        "shoulder_lift_joint",
        "elbow_joint",
        "wrist_1_joint",
        "wrist_2_joint",
        "wrist_3_joint"
    ],
    "metrics": {
        "cart_traj_len": 0.35320533611165617,
        "distance_elbow_joint": 0.4507106507316987,
        "distance_shoulder_lift_joint": 0.2368343474431851,
        "distance_shoulder_pan_joint": 0.4619304692874429,
        "distance_wrist_1_joint": 0.23928301006613362,
        "distance_wrist_2_joint": 1.100348832080541,
        "distance_wrist_3_joint": 0.09255110317979565,
        "smoothness": 4.440892098500626e-16,
        "time": 5.004442276000001,
        "traj_len": 1.6067539988401451,
        "weighted_distance": 2.0264235641383226
    },
    "planner": "SPARStwo",
    "start": {
        "state": {
            "elbow_joint": 1.9715481507254546,
            "shoulder_lift_joint": -1.1394850672790213,
            "shoulder_pan_joint": 0.12281154597544902,
            "wrist_1_joint": -0.7804720171073349,
            "wrist_2_joint": 0.12958658322886563,
            "wrist_3_joint": -3.1924895760937617
        }
    },
    "waypoints": [
        {
            "positions": [
                0.12281154597544902,
                -1.1394850672790213,
                1.9715481507254546,
                -0.7804720171073349,
                0.12958658322886563,
                -3.1924895760937617
            ]
        },
        {
            "positions": [
                0.05682147893438576,
                -1.1733185454851907,
                2.035935386544269,
                -0.8146553042596397,
                0.2867792735260858,
                -3.1792679899252194
            ]
        },
        {
            "positions": [
                -0.009168588106677505,
                -1.20715202369136,
                2.1003226223630826,
                -0.8488385914119445,
                0.4439719638233059,
                -3.166046403756677
            ]
        },
        {
            "positions": [
                -0.07515865514774078,
                -1.2409855018975293,
                2.164709858181897,
                -0.8830218785642493,
                0.601164654120526,
                -3.152824817588135
            ]
        },
        {
            "positions": [
                -0.14114872218880403,
                -1.2748189801036984,
                2.229097094000711,
                -0.9172051657165541,
                0.7583573444177462,
                -3.139603231419593
            ]
        },
        {
            "positions": [
                -0.20713878922986734,
                -1.3086524583098678,
                2.2934843298195253,
                -0.951388452868859,
                0.9155500347149663,
                -3.1263816452510507
            ]
        },
        {
            "positions": [
                -0.2731288562709306,
                -1.342485936516037,
                2.357871565638339,
                -0.9855717400211638,
                1.0727427250121866,
                -3.1131600590825084
            ]
        },
        {
            "positions": [
                -0.3391189233119939,
                -1.3763194147222064,
                2.4222588014571533,
                -1.0197550271734686,
                1.2299354153094066,
                -3.099938472913966
            ]
        }
    ]
}