{
    "goal": {
        "global_pose": {
            "orientation": {
                "w": 0.5084816217422485,
                "x": -0.49083608388900757,
                "y": 0.5182115435600281,
                "z": -0.4816462993621826
            },
            "position": {
                "x": 0.5540239810943604,
                "y": 0.030875300988554955,
                "z": 0.16403168439865112
            }
        },
        "name": "move_to_storage_A"
    },
    "id": "SPARStwo_move_to_storage_A_113",
    "joint_names": [
        "shoulder_pan_joint",
        "shoulder_lift_joint",
        "elbow_joint",
        "wrist_1_joint",
        "wrist_2_joint",
        "wrist_3_joint"
    ],
    "metrics": {
        "cart_traj_len": 0.3537066873576873,
        "distance_elbow_joint": 0.45356461029896433,
        "distance_shoulder_lift_joint": 0.23242330002853673,
        "distance_shoulder_pan_joint": 0.4627632115442584,
        "distance_wrist_1_joint": 0.2607348115521799,
        "distance_wrist_2_joint": 1.09836602344336,
        "distance_wrist_3_joint": 0.10882092321554593,
        "smoothness": 4.440892133664971e-16,
        "time": 5.010812743,
        "traj_len": 1.6176133283584324,
        "weighted_distance": 2.0477830845842724
    },
    "planner": "SPARStwo",
    "start": {
        "state": {
            "elbow_joint": 1.9715481507254546,
            "shoulder_lift_joint": -1.1394850672790213,
            "shoulder_pan_joint": 0.12281154597544902,
            "wrist_1_joint": -0.7804720171073349,
            "wrist_2_joint": 0.12958658322886563,
            "wrist_3_joint": -3.1924895760937617
        }
    },
    "waypoints": [
        {
            "positions": [
                0.12281154597544902,
                -1.1394850672790213,
                1.9715481507254546,
                -0.7804720171073349,
                0.12958658322886563,
                -3.1924895760937617
            ]
        },
        {
            "positions": [
                0.056702515754840685,
                -1.1726883958545267,
                2.036343095053878,
                -0.8177198473290749,
                0.28649601514934564,
                -3.1769437299201124
            ]
        },
        {
            "positions": [
                -0.009406514465767651,
                -1.2058917244300318,
                2.1011380393823016,
                -0.8549676775508149,
                0.44340544706982565,
                -3.1613978837464627
            ]
        },
        {
            "positions": [
                -0.075515544686376,
                -1.2390950530055371,
                2.165932983710725,
                -0.8922155077725549,
                0.6003148789903057,
                -3.1458520375728134
            ]
        },
        {
            "positions": [
                -0.14162457490698432,
                -1.2722983815810422,
                2.2307279280391485,
                -0.9294633379942949,
                0.7572243109107857,
                -3.130306191399164
            ]
        },
        {
            "positions": [
                -0.2077336051275927,
                -1.3055017101565476,
                2.295522872367572,
                -0.9667111682160349,
                0.9141337428312657,
                -3.114760345225515
            ]
        },
        {
            "positions": [
                -0.273842635348201,
                -1.3387050387320527,
                2.3603178166959955,
                -1.0039589984377748,
                1.0710431747517457,
                -3.099214499051865
            ]
        },
        {
            "positions": [
                -0.3399516655688094,
                -1.371908367307558,
                2.425112761024419,
                -1.0412068286595149,
                1.2279526066722257,
                -3.083668652878216
            ]
        }
    ]
}