{
    "goal": {
        "global_pose": {
            "orientation": {
                "w": 0.005598929693374612,
                "x": 0.007748599140229565,
                "y": 0.7110244013736278,
                "z": -0.7031023480610252
            },
            "position": {
                "x": -0.8858502320852131,
                "y": -0.7141253447532654,
                "z": 0.3711530566215515
            }
        },
        "name": "move_to_auspresseinheit_C"
    },
    "id": "SPARStwo_move_to_auspresseinheit_C_47",
    "joint_names": [
        "shoulder_pan_joint",
        "shoulder_lift_joint",
        "elbow_joint",
        "wrist_1_joint",
        "wrist_2_joint",
        "wrist_3_joint"
    ],
    "metrics": {
        "cart_traj_len": 0.4930761172601887,
        "distance_elbow_joint": 0.9937063682530468,
        "distance_shoulder_lift_joint": 0.3225625074890689,
        "distance_shoulder_pan_joint": 0.2563370701565102,
        "distance_wrist_1_joint": 0.6567126739633024,
        "distance_wrist_2_joint": 1.320026105268493,
        "distance_wrist_3_joint": 0.04508065154322827,
        "smoothness": 4.844609574787718e-16,
        "time": 5.006906447,
        "traj_len": 1.8958969847208602,
        "weighted_distance": 2.379354000352176
    },
    "planner": "SPARStwo",
    "start": {
        "state": {
            "elbow_joint": 1.7527959577737207,
            "shoulder_lift_joint": -0.9740617694225068,
            "shoulder_pan_joint": -2.967991417825858,
            "wrist_1_joint": -0.759517768980727,
            "wrist_2_joint": 1.7443932448377408,
            "wrist_3_joint": -3.0840537646736568
        }
    },
    "waypoints": [
        {
            "positions": [
                -2.967991417825858,
                -0.9740617694225068,
                1.7527959577737207,
                -0.759517768980727,
                1.7443932448377408,
                -3.0840537646736568
            ]
        },
        {
            "positions": [
                -2.942357710810207,
                -0.9418055186735999,
                1.653425320948416,
                -0.6938465015843968,
                1.6123906343108916,
                -3.0885618298279796
            ]
        },
        {
            "positions": [
                -2.916724003794556,
                -0.909549267924693,
                1.5540546841231113,
                -0.6281752341880665,
                1.4803880237840423,
                -3.0930698949823023
            ]
        },
        {
            "positions": [
                -2.8910902967789047,
                -0.8772930171757861,
                1.4546840472978066,
                -0.5625039667917363,
                1.3483854132571929,
                -3.097577960136625
            ]
        },
        {
            "positions": [
                -2.865456589763254,
                -0.8450367664268792,
                1.355313410472502,
                -0.49683269939540603,
                1.2163828027303436,
                -3.102086025290948
            ]
        },
        {
            "positions": [
                -2.839822882747603,
                -0.8127805156779724,
                1.2559427736471973,
                -0.4311614319990758,
                1.0843801922034944,
                -3.106594090445271
            ]
        },
        {
            "positions": [
                -2.814189175731952,
                -0.7805242649290655,
                1.1565721368218926,
                -0.3654901646027456,
                0.9523775816766451,
                -3.111102155599594
            ]
        },
        {
            "positions": [
                -2.788555468716301,
                -0.7482680141801585,
                1.057201499996588,
                -0.29981889720641536,
                0.8203749711497959,
                -3.1156102207539167
            ]
        },
        {
            "positions": [
                -2.7629217617006496,
                -0.7160117634312517,
                0.9578308631712832,
                -0.23414762981008508,
                0.6883723606229464,
                -3.1201182859082395
            ]
        },
        {
            "positions": [
                -2.7372880546849987,
                -0.6837555126823447,
                0.8584602263459785,
                -0.16847636241375485,
                0.5563697500960971,
                -3.1246263510625623
            ]
        },
        {
            "positions": [
                -2.7116543476693478,
                -0.6514992619334379,
                0.7590895895206738,
                -0.10280509501742467,
                0.42436713956924776,
                -3.129134416216885
            ]
        }
    ]
}