{
    "goal": {
        "global_pose": {
            "orientation": {
                "w": 0.5084816262002911,
                "x": -0.4908360881923452,
                "y": 0.5182115481033761,
                "z": -0.48164630358495003
            },
            "position": {
                "x": 0.5540239810943604,
                "y": -0.46912469901144505,
                "z": 0.16403168439865112
            }
        },
        "name": "move_to_storage_B"
    },
    "id": "SPARS_move_to_storage_B_127",
    "joint_names": [
        "shoulder_pan_joint",
        "shoulder_lift_joint",
        "elbow_joint",
        "wrist_1_joint",
        "wrist_2_joint",
        "wrist_3_joint"
    ],
    "metrics": {
        "cart_traj_len": 0.823352067347186,
        "distance_elbow_joint": 0.9114206525868722,
        "distance_shoulder_lift_joint": 0.4596630256434979,
        "distance_shoulder_pan_joint": 0.18352375432208723,
        "distance_wrist_1_joint": 3.002590914983954,
        "distance_wrist_2_joint": 2.698413614891101,
        "distance_wrist_3_joint": 3.1295365056934092,
        "smoothness": 0.04362924916270696,
        "time": 5.032126027,
        "traj_len": 3.222599644405262,
        "weighted_distance": 4.727073725824763
    },
    "planner": "SPARS",
    "start": {
        "state": {
            "elbow_joint": 1.664937868594044,
            "shoulder_lift_joint": -0.661644460510453,
            "shoulder_pan_joint": -0.9139846352900073,
            "wrist_1_joint": 2.146753192139373,
            "wrist_2_joint": -2.2341966793290973,
            "wrist_3_joint": 0.005466555786416001
        }
    },
    "waypoints": [
        {
            "positions": [
                -0.9139846352900073,
                -0.661644460510453,
                1.664937868594044,
                2.146753192139373,
                -2.2341966793290973,
                0.005466555786416001
            ]
        },
        {
            "positions": [
                -0.916452455244563,
                -0.6957636254232965,
                1.7439810710973003,
                2.0369457529860417,
                -2.119817424109992,
                -0.048643178137460705
            ]
        },
        {
            "positions": [
                -0.9189202751991186,
                -0.72988279033614,
                1.8230242736005569,
                1.9271383138327107,
                -2.005438168890887,
                -0.10275291206133741
            ]
        },
        {
            "positions": [
                -0.9213880951536743,
                -0.7640019552489835,
                1.9020674761038134,
                1.8173308746793793,
                -1.8910589136717815,
                -0.15686264598521413
            ]
        },
        {
            "positions": [
                -0.92385591510823,
                -0.798121120161827,
                1.9811106786070698,
                1.707523435526048,
                -1.776679658452676,
                -0.21097237990909082
            ]
        },
        {
            "positions": [
                -0.9263237350627856,
                -0.8322402850746705,
                2.060153881110326,
                1.5977159963727168,
                -1.6623004032335709,
                -0.2650821138329675
            ]
        },
        {
            "positions": [
                -0.9287915550173413,
                -0.866359449987514,
                2.139197083613583,
                1.4879085572193853,
                -1.5479211480144657,
                -0.3191918477568442
            ]
        },
        {
            "positions": [
                -0.9312593749718969,
                -0.9004786149003575,
                2.2182402861168393,
                1.378101118066054,
                -1.4335418927953603,
                -0.3733015816807209
            ]
        },
        {
            "positions": [
                -0.9337271949264526,
                -0.934597779813201,
                2.2972834886200957,
                1.2682936789127228,
                -1.319162637576255,
                -0.4274113156045976
            ]
        },
        {
            "positions": [
                -0.9423472578046443,
                -0.9444246064627142,
                2.2825953290116314,
                1.156497289346549,
                -1.2253005547795046,
                -0.5693407174099868
            ]
        },
        {
            "positions": [
                -0.950967320682836,
                -0.9542514331122274,
                2.267907169403167,
                1.044700899780375,
                -1.131438471982754,
                -0.7112701192153761
            ]
        },
        {
            "positions": [
                -0.9595873835610277,
                -0.9640782597617404,
                2.253219009794703,
                0.9329045102142013,
                -1.0375763891860035,
                -0.8531995210207652
            ]
        },
        {
            "positions": [
                -0.9682074464392193,
                -0.9739050864112536,
                2.2385308501862387,
                0.8211081206480275,
                -0.9437143063892529,
                -0.9951289228261544
            ]
        },
        {
            "positions": [
                -0.976827509317411,
                -0.9837319130607668,
                2.2238426905777744,
                0.7093117310818536,
                -0.8498522235925023,
                -1.1370583246315438
            ]
        },
        {
            "positions": [
                -0.9854475721956026,
                -0.99355873971028,
                2.20915453096931,
                0.5975153415156798,
                -0.7559901407957518,
                -1.278987726436933
            ]
        },
        {
            "positions": [
                -0.9940676350737944,
                -1.003385566359793,
                2.194466371360846,
                0.4857189519495059,
                -0.6621280579990012,
                -1.420917128242322
            ]
        },
        {
            "positions": [
                -1.002687697951986,
                -1.0132123930093062,
                2.1797782117523816,
                0.3739225623833321,
                -0.5682659752022508,
                -1.5628465300477112
            ]
        },
        {
            "positions": [
                -1.0113077608301777,
                -1.0230392196588194,
                2.165090052143918,
                0.2621261728171582,
                -0.4744038924055002,
                -1.7047759318531006
            ]
        },
        {
            "positions": [
                -1.0199278237083693,
                -1.0328660463083326,
                2.1504018925354536,
                0.15032978325098445,
                -0.3805418096087496,
                -1.8467053336584898
            ]
        },
        {
            "positions": [
                -1.0285478865865612,
                -1.0426928729578457,
                2.1357137329269893,
                0.03853339368481046,
                -0.28667972681199894,
                -1.9886347354638791
            ]
        },
        {
            "positions": [
                -1.0371679494647528,
                -1.052519699607359,
                2.121025573318525,
                -0.07326299588136331,
                -0.19281764401524848,
                -2.130564137269268
            ]
        },
        {
            "positions": [
                -1.0457880123429444,
                -1.062346526256872,
                2.106337413710061,
                -0.1850593854475373,
                -0.0989555612184978,
                -2.2724935390746577
            ]
        },
        {
            "positions": [
                -1.054408075221136,
                -1.0721733529063853,
                2.0916492541015965,
                -0.2968557750137111,
                -0.005093478421747344,
                -2.414422940880047
            ]
        },
        {
            "positions": [
                -1.0630281380993278,
                -1.0820001795558982,
                2.0769610944931323,
                -0.40865216457988507,
                0.08876860437500311,
                -2.556352342685436
            ]
        },
        {
            "positions": [
                -1.0716482009775194,
                -1.0918270062054114,
                2.062272934884668,
                -0.5204485541460586,
                0.18263068717175357,
                -2.698281744490825
            ]
        },
        {
            "positions": [
                -1.080268263855711,
                -1.1016538328549246,
                2.0475847752762038,
                -0.6322449437122326,
                0.27649276996850425,
                -2.8402111462962147
            ]
        },
        {
            "positions": [
                -1.088888326733903,
                -1.1114806595044378,
                2.0328966156677395,
                -0.7440413332784064,
                0.3703548527652547,
                -2.982140548101604
            ]
        },
        {
            "positions": [
                -1.0975083896120945,
                -1.121307486153951,
                2.0182084560592752,
                -0.8558377228445806,
                0.46421693556200533,
                -3.124069949906993
            ]
        }
    ]
}