{
    "goal": {
        "global_pose": {
            "orientation": {
                "w": -0.4816463035849501,
                "x": 0.5182115481033762,
                "y": 0.4908360881923453,
                "z": -0.5084816262002911
            },
            "position": {
                "x": -0.8240239810943604,
                "y": 0.19912469901144506,
                "z": 0.16403168439865112
            }
        },
        "name": "move_to_storage_D"
    },
    "id": "SPARStwo_move_to_storage_D_5",
    "joint_names": [
        "shoulder_pan_joint",
        "shoulder_lift_joint",
        "elbow_joint",
        "wrist_1_joint",
        "wrist_2_joint",
        "wrist_3_joint"
    ],
    "metrics": {
        "cart_traj_len": 0.6494941066743561,
        "distance_elbow_joint": 0.6935671714636102,
        "distance_shoulder_lift_joint": 0.1691150692554495,
        "distance_shoulder_pan_joint": 0.851325654377085,
        "distance_wrist_1_joint": 3.8206376578866736,
        "distance_wrist_2_joint": 1.7913037367386555,
        "distance_wrist_3_joint": 3.133859140280987,
        "smoothness": 0.10377947985839671,
        "time": 5.015265106,
        "traj_len": 3.2341627092653304,
        "weighted_distance": 4.726464651850236
    },
    "planner": "SPARStwo",
    "start": {
        "state": {
            "elbow_joint": -2.384821988534728,
            "shoulder_lift_joint": -2.2788054721415256,
            "shoulder_pan_joint": -0.1854694642142757,
            "wrist_1_joint": 1.4845938289331202,
            "wrist_2_joint": 0.17898776772866878,
            "wrist_3_joint": 0.037105688729662994
        }
    },
    "waypoints": [
        {
            "positions": [
                -0.1854694642142757,
                -2.2788054721415256,
                -2.384821988534728,
                1.4845938289331202,
                0.17898776772866878,
                0.037105688729662994
            ]
        },
        {
            "positions": [
                -0.06032039024247188,
                -2.2386339136197977,
                -2.402244367282088,
                1.4255323384788259,
                0.16657734167814786,
                -0.056207476684990265
            ]
        },
        {
            "positions": [
                0.06482868372933195,
                -2.1984623550980693,
                -2.4196667460294474,
                1.3664708480245313,
                0.15416691562762697,
                -0.14952064209964352
            ]
        },
        {
            "positions": [
                0.18997775770113576,
                -2.158290796576341,
                -2.437089124776807,
                1.3074093575702368,
                0.14175648957710604,
                -0.24283380751429676
            ]
        },
        {
            "positions": [
                0.31512683167293964,
                -2.118119238054613,
                -2.454511503524167,
                1.2483478671159425,
                0.12934606352658512,
                -0.33614697292895
            ]
        },
        {
            "positions": [
                0.2998777291299018,
                -2.118485709148897,
                -2.42738638802529,
                1.0925047498955296,
                0.05362162732934288,
                -0.4561733415647054
            ]
        },
        {
            "positions": [
                0.284628626586864,
                -2.1188521802431812,
                -2.400261272526413,
                0.9366616326751167,
                -0.022102808867899365,
                -0.5761997102004608
            ]
        },
        {
            "positions": [
                0.26937952404382615,
                -2.119218651337466,
                -2.373136157027536,
                0.7808185154547038,
                -0.09782724506514162,
                -0.6962260788362162
            ]
        },
        {
            "positions": [
                0.25413042150078835,
                -2.11958512243175,
                -2.346011041528659,
                0.624975398234291,
                -0.17355168126238385,
                -0.8162524474719716
            ]
        },
        {
            "positions": [
                0.2388813189577505,
                -2.119951593526034,
                -2.318885926029782,
                0.46913228101387816,
                -0.24927611745962613,
                -0.9362788161077269
            ]
        },
        {
            "positions": [
                0.2236322164147127,
                -2.120318064620318,
                -2.2917608105309046,
                0.3132891637934653,
                -0.32500055365686836,
                -1.0563051847434823
            ]
        },
        {
            "positions": [
                0.20838311387167485,
                -2.1206845357146027,
                -2.2646356950320277,
                0.15744604657305228,
                -0.4007249898541107,
                -1.1763315533792378
            ]
        },
        {
            "positions": [
                0.19313401132863703,
                -2.121051006808887,
                -2.2375105795331507,
                0.0016029293526396149,
                -0.4764494260513528,
                -1.2963579220149932
            ]
        },
        {
            "positions": [
                0.1778849087855992,
                -2.121417477903171,
                -2.2103854640342737,
                -0.15424018786777327,
                -0.5521738622485952,
                -1.4163842906507487
            ]
        },
        {
            "positions": [
                0.16263580624256138,
                -2.121783948997455,
                -2.1832603485353967,
                -0.31008330508818616,
                -0.6278982984458374,
                -1.5364106592865037
            ]
        },
        {
            "positions": [
                0.14738670369952353,
                -2.122150420091739,
                -2.1561352330365198,
                -0.46592642230859904,
                -0.7036227346430797,
                -1.656437027922259
            ]
        },
        {
            "positions": [
                0.13213760115648573,
                -2.1225168911860237,
                -2.129010117537643,
                -0.6217695395290119,
                -0.7793471708403219,
                -1.7764633965580146
            ]
        },
        {
            "positions": [
                0.11688849861344791,
                -2.122883362280308,
                -2.101885002038766,
                -0.7776126567494246,
                -0.8550716070375641,
                -1.89648976519377
            ]
        },
        {
            "positions": [
                0.10163939607041006,
                -2.123249833374592,
                -2.074759886539889,
                -0.9334557739698379,
                -0.9307960432348066,
                -2.0165161338295254
            ]
        },
        {
            "positions": [
                0.08639029352737224,
                -2.123616304468876,
                -2.047634771041012,
                -1.0892988911902504,
                -1.0065204794320486,
                -2.136542502465281
            ]
        },
        {
            "positions": [
                0.07114119098433441,
                -2.12398277556316,
                -2.020509655542135,
                -1.2451420084106632,
                -1.0822449156292908,
                -2.2565688711010363
            ]
        },
        {
            "positions": [
                0.05589208844129662,
                -2.1243492466574447,
                -1.9933845400432577,
                -1.4009851256310761,
                -1.157969351826533,
                -2.3765952397367913
            ]
        },
        {
            "positions": [
                0.040642985898258766,
                -2.124715717751729,
                -1.9662594245443807,
                -1.556828242851489,
                -1.2336937880237755,
                -2.496621608372547
            ]
        },
        {
            "positions": [
                0.025393883355220914,
                -2.125082188846013,
                -1.9391343090455035,
                -1.712671360071902,
                -1.3094182242210177,
                -2.6166479770083027
            ]
        },
        {
            "positions": [
                0.010144780812183118,
                -2.125448659940297,
                -1.9120091935466266,
                -1.8685144772923148,
                -1.38514266041826,
                -2.7366743456440576
            ]
        },
        {
            "positions": [
                -0.005104321730854733,
                -2.1258151310345816,
                -1.8848840780477496,
                -2.0243575945127277,
                -1.460867096615502,
                -2.856700714279813
            ]
        },
        {
            "positions": [
                -0.020353424273892584,
                -2.1261816021288658,
                -1.8577589625488726,
                -2.1802007117331406,
                -1.5365915328127444,
                -2.9767270829155685
            ]
        },
        {
            "positions": [
                -0.035602526816930366,
                -2.12654807322315,
                -1.8306338470499957,
                -2.3360438289535534,
                -1.6123159690099866,
                -3.096753451551324
            ]
        }
    ]
}