{
    "goal": {
        "global_pose": {
            "orientation": {
                "w": -0.00223480608172531,
                "x": 0.0024358444001904467,
                "y": 0.7094548369677653,
                "z": -0.704743149386269
            },
            "position": {
                "x": -0.37947507619857795,
                "y": -0.6371506643295288,
                "z": 0.19426114857196808
            }
        },
        "name": "move_to_magneteinheit_C"
    },
    "id": "SPARS_move_to_magneteinheit_C_12",
    "joint_names": [
        "shoulder_pan_joint",
        "shoulder_lift_joint",
        "elbow_joint",
        "wrist_1_joint",
        "wrist_2_joint",
        "wrist_3_joint"
    ],
    "metrics": {
        "cart_traj_len": 3.0506355058507366,
        "distance_elbow_joint": 2.0719321609163,
        "distance_shoulder_lift_joint": 2.026637674158346,
        "distance_shoulder_pan_joint": 2.4262497693287814,
        "distance_wrist_1_joint": 2.3432347097181676,
        "distance_wrist_2_joint": 1.745094768921875,
        "distance_wrist_3_joint": 2.076529842182706,
        "smoothness": 1.2765609522195414,
        "time": 5.057717824,
        "traj_len": 3.562257560203385,
        "weighted_distance": 4.575048424687068
    },
    "planner": "SPARS",
    "start": {
        "state": {
            "elbow_joint": 1.9565354010623817,
            "shoulder_lift_joint": -1.4165861575791021,
            "shoulder_pan_joint": -1.6717766225146293,
            "wrist_1_joint": -0.5286633292919765,
            "wrist_2_joint": 1.472756589071564,
            "wrist_3_joint": -3.1238370188695823
        }
    },
    "waypoints": [
        {
            "positions": [
                -1.6717766225146293,
                -1.4165861575791021,
                1.9565354010623817,
                -0.5286633292919765,
                1.472756589071564,
                -3.1238370188695823
            ]
        },
        {
            "positions": [
                -1.6126055078514097,
                -1.4329285453657468,
                2.0068180942358,
                -0.6472386588906972,
                1.5078423041488227,
                -3.081707037920145
            ]
        },
        {
            "positions": [
                -1.55343439318819,
                -1.4492709331523914,
                2.0571007874092184,
                -0.765813988489418,
                1.5429280192260817,
                -3.039577056970708
            ]
        },
        {
            "positions": [
                -1.5133165452508985,
                -1.554174575452009,
                2.0152073873535468,
                -0.8296867403980577,
                1.5516362612098247,
                -2.9057566459854796
            ]
        },
        {
            "positions": [
                -1.473198697313607,
                -1.6590782177516268,
                1.9733139872978753,
                -0.8935594923066975,
                1.5603445031935674,
                -2.7719362350002514
            ]
        },
        {
            "positions": [
                -1.4330808493763156,
                -1.7639818600512445,
                1.931420587242204,
                -0.9574322442153373,
                1.5690527451773102,
                -2.638115824015023
            ]
        },
        {
            "positions": [
                -1.3929630014390242,
                -1.8688855023508621,
                1.8895271871865322,
                -1.021304996123977,
                1.5777609871610532,
                -2.5042954130297943
            ]
        },
        {
            "positions": [
                -1.5018117844489092,
                -1.814460891934975,
                1.8183577324597167,
                -0.9326767074399311,
                1.538554110172984,
                -2.4938885257051773
            ]
        },
        {
            "positions": [
                -1.610660567458794,
                -1.7600362815190878,
                1.747188277732901,
                -0.8440484187558852,
                1.4993472331849151,
                -2.4834816383805602
            ]
        },
        {
            "positions": [
                -1.719509350468679,
                -1.7056116711032006,
                1.6760188230060857,
                -0.7554201300718393,
                1.460140356196846,
                -2.4730747510559437
            ]
        },
        {
            "positions": [
                -1.828358133478564,
                -1.6511870606873134,
                1.6048493682792702,
                -0.6667918413877933,
                1.4209334792087769,
                -2.4626678637313266
            ]
        },
        {
            "positions": [
                -1.9372069164884487,
                -1.5967624502714262,
                1.5336799135524546,
                -0.5781635527037474,
                1.381726602220708,
                -2.4522609764067096
            ]
        },
        {
            "positions": [
                -2.046055699498334,
                -1.542337839855539,
                1.4625104588256392,
                -0.4895352640197014,
                1.3425197252326388,
                -2.441854089082093
            ]
        },
        {
            "positions": [
                -2.1549044825082184,
                -1.4879132294396518,
                1.3913410040988237,
                -0.40090697533565545,
                1.3033128482445697,
                -2.431447201757476
            ]
        },
        {
            "positions": [
                -2.2637532655181034,
                -1.4334886190237646,
                1.320171549372008,
                -0.3122786866516095,
                1.2641059712565008,
                -2.421040314432859
            ]
        },
        {
            "positions": [
                -2.3462697727740798,
                -1.3551566836409101,
                1.289803684990472,
                -0.277199716460275,
                1.30533990642785,
                -2.5378419702453634
            ]
        },
        {
            "positions": [
                -2.4287862800300566,
                -1.2768247482580557,
                1.259435820608936,
                -0.2421207462689405,
                1.346573841599199,
                -2.654643626057868
            ]
        },
        {
            "positions": [
                -2.511302787286033,
                -1.1984928128752013,
                1.2290679562273998,
                -0.207041776077606,
                1.3878077767705481,
                -2.7714452818703728
            ]
        },
        {
            "positions": [
                -2.5938192945420098,
                -1.1201608774923468,
                1.1987000918458637,
                -0.1719628058862715,
                1.4290417119418972,
                -2.888246937682877
            ]
        },
        {
            "positions": [
                -2.676335801797986,
                -1.0418289421094922,
                1.1683322274643277,
                -0.13688383569493695,
                1.470275647113246,
                -3.0050485934953817
            ]
        },
        {
            "positions": [
                -2.758852309053963,
                -0.9634970067266379,
                1.1379643630827916,
                -0.10180486550360246,
                1.5115095822845952,
                -3.121850249307886
            ]
        },
        {
            "positions": [
                -2.8413688163099393,
                -0.8851650713437833,
                1.1075964987012554,
                -0.06672589531226794,
                1.5527435174559443,
                -3.238651905120391
            ]
        },
        {
            "positions": [
                -2.9238853235659157,
                -0.806833135960929,
                1.0772286343197195,
                -0.03164692512093348,
                1.5939774526272934,
                -3.3554535609328955
            ]
        },
        {
            "positions": [
                -3.0064018308218925,
                -0.7285012005780744,
                1.0468607699381833,
                0.0034320450704010685,
                1.6352113877986425,
                -3.4722552167454
            ]
        },
        {
            "positions": [
                -2.9578566200155008,
                -0.7679515667247834,
                1.134235929674404,
                -0.07164577326521607,
                1.5483632115817614,
                -3.4429353771605418
            ]
        },
        {
            "positions": [
                -2.9093114092091095,
                -0.8074019328714923,
                1.221611089410625,
                -0.1467235916008332,
                1.4615150353648803,
                -3.413615537575683
            ]
        },
        {
            "positions": [
                -2.8607661984027177,
                -0.8468522990182012,
                1.3089862491468456,
                -0.2218014099364503,
                1.3746668591479994,
                -3.384295697990825
            ]
        },
        {
            "positions": [
                -2.812220987596326,
                -0.8863026651649102,
                1.3963614088830663,
                -0.2968792282720675,
                1.2878186829311182,
                -3.354975858405967
            ]
        },
        {
            "positions": [
                -2.7636757767899343,
                -0.9257530313116191,
                1.4837365686192872,
                -0.3719570466076846,
                1.200970506714237,
                -3.325656018821108
            ]
        },
        {
            "positions": [
                -2.715130565983543,
                -0.9652033974583281,
                1.5711117283555078,
                -0.4470348649433017,
                1.1141223304973562,
                -3.29633617923625
            ]
        },
        {
            "positions": [
                -2.6665853551771512,
                -1.004653763605037,
                1.6584868880917285,
                -0.5221126832789188,
                1.027274154280475,
                -3.2670163396513914
            ]
        },
        {
            "positions": [
                -2.6180401443707595,
                -1.044104129751746,
                1.7458620478279494,
                -0.597190501614536,
                0.940425978063594,
                -3.237696500066533
            ]
        },
        {
            "positions": [
                -2.5694949335643678,
                -1.0835544958984549,
                1.8332372075641703,
                -0.6722683199501531,
                0.8535778018467128,
                -3.208376660481675
            ]
        },
        {
            "positions": [
                -2.5209497227579765,
                -1.1230048620451638,
                1.9206123673003908,
                -0.7473461382857702,
                0.7667296256298319,
                -3.1790568208968164
            ]
        },
        {
            "positions": [
                -2.4724045119515847,
                -1.1624552281918727,
                2.0079875270366117,
                -0.8224239566213873,
                0.6798814494129508,
                -3.1497369813119582
            ]
        }
    ]
}