{
    "goal": {
        "global_pose": {
            "orientation": {
                "w": -0.4816463035849501,
                "x": 0.5182115481033762,
                "y": 0.4908360881923453,
                "z": -0.5084816262002911
            },
            "position": {
                "x": -0.8240239810943604,
                "y": 0.19912469901144506,
                "z": 0.16403168439865112
            }
        },
        "name": "move_to_storage_D"
    },
    "id": "SPARS_move_to_storage_D_55",
    "joint_names": [
        "shoulder_pan_joint",
        "shoulder_lift_joint",
        "elbow_joint",
        "wrist_1_joint",
        "wrist_2_joint",
        "wrist_3_joint"
    ],
    "metrics": {
        "cart_traj_len": 0.6096505184144713,
        "distance_elbow_joint": 0.5553007699139443,
        "distance_shoulder_lift_joint": 0.15241413806564008,
        "distance_shoulder_pan_joint": 0.3376581355936073,
        "distance_wrist_1_joint": 3.821556737385496,
        "distance_wrist_2_joint": 2.237848757290311,
        "distance_wrist_3_joint": 3.133415102309572,
        "smoothness": 0.25033815007827664,
        "time": 5.050524862,
        "traj_len": 3.199717743889072,
        "weighted_distance": 4.750203084064251
    },
    "planner": "SPARS",
    "start": {
        "state": {
            "elbow_joint": -2.384821988534728,
            "shoulder_lift_joint": -2.2788054721415256,
            "shoulder_pan_joint": -0.1854694642142757,
            "wrist_1_joint": 1.4845938289331202,
            "wrist_2_joint": 0.17898776772866878,
            "wrist_3_joint": 0.037105688729662994
        }
    },
    "waypoints": [
        {
            "positions": [
                -0.1854694642142757,
                -2.2788054721415256,
                -2.384821988534728,
                1.4845938289331202,
                0.17898776772866878,
                0.037105688729662994
            ]
        },
        {
            "positions": [
                -0.10428653932441687,
                -2.2765890216745017,
                -2.271624677378134,
                1.430072115430005,
                0.25375916241202834,
                -0.01523133521106191
            ]
        },
        {
            "positions": [
                -0.023103614434558023,
                -2.2743725712074783,
                -2.15842736622154,
                1.3755504019268898,
                0.3285305570953879,
                -0.06756835915178681
            ]
        },
        {
            "positions": [
                0.05807931045530082,
                -2.2721561207404544,
                -2.045230055064946,
                1.3210286884237745,
                0.40330195177874745,
                -0.11990538309251174
            ]
        },
        {
            "positions": [
                0.053987599110777724,
                -2.2658185213202557,
                -2.0358514100021563,
                1.1619855755161157,
                0.31575697033351996,
                -0.24931425398326817
            ]
        },
        {
            "positions": [
                0.049895887766254636,
                -2.259480921900057,
                -2.0264727649393666,
                1.002942462608457,
                0.2282119888882925,
                -0.3787231248740246
            ]
        },
        {
            "positions": [
                0.04580417642173154,
                -2.2531433224798585,
                -2.017094119876577,
                0.8438993497007984,
                0.14066700744306498,
                -0.508131995764781
            ]
        },
        {
            "positions": [
                0.04171246507720845,
                -2.24680572305966,
                -2.0077154748137875,
                0.6848562367931397,
                0.05312202599783755,
                -0.6375408666555374
            ]
        },
        {
            "positions": [
                0.03762075373268536,
                -2.2404681236394612,
                -1.9983368297509978,
                0.525813123885481,
                -0.034422955447389936,
                -0.7669497375462938
            ]
        },
        {
            "positions": [
                0.03352904238816226,
                -2.2341305242192626,
                -1.988958184688208,
                0.36677001097782225,
                -0.12196793689261748,
                -0.8963586084370502
            ]
        },
        {
            "positions": [
                0.02943733104363917,
                -2.227792924799064,
                -1.9795795396254183,
                0.20772689807016342,
                -0.20951291833784497,
                -1.0257674793278067
            ]
        },
        {
            "positions": [
                0.025345619699116077,
                -2.2214553253788654,
                -1.9702008945626286,
                0.04868378516250482,
                -0.29705789978307234,
                -1.155176350218563
            ]
        },
        {
            "positions": [
                0.021253908354592982,
                -2.2151177259586667,
                -1.960822249499839,
                -0.110359327745154,
                -0.38460288122829994,
                -1.2845852211093194
            ]
        },
        {
            "positions": [
                0.017162197010069893,
                -2.208780126538468,
                -1.9514436044370493,
                -0.2694024406528126,
                -0.4721478626735273,
                -1.4139940920000758
            ]
        },
        {
            "positions": [
                0.013070485665546798,
                -2.2024425271182695,
                -1.9420649593742596,
                -0.4284455535604712,
                -0.559692844118755,
                -1.5434029628908323
            ]
        },
        {
            "positions": [
                0.00897877432102371,
                -2.1961049276980704,
                -1.93268631431147,
                -0.58748866646813,
                -0.6472378255639823,
                -1.6728118337815885
            ]
        },
        {
            "positions": [
                0.004887062976500621,
                -2.189767328277872,
                -1.9233076692486804,
                -0.7465317793757884,
                -0.7347828070092097,
                -1.8022207046723449
            ]
        },
        {
            "positions": [
                0.0007953516319775186,
                -2.183429728857673,
                -1.9139290241858906,
                -0.9055748922834477,
                -0.8223277884544373,
                -1.9316295755631017
            ]
        },
        {
            "positions": [
                -0.00329635971254557,
                -2.1770921294374745,
                -1.9045503791231009,
                -1.064618005191106,
                -0.9098727698996647,
                -2.061038446453858
            ]
        },
        {
            "positions": [
                -0.007388071057068665,
                -2.170754530017276,
                -1.8951717340603114,
                -1.2236611180987649,
                -0.9974177513448921,
                -2.1904473173446144
            ]
        },
        {
            "positions": [
                -0.011479782401591754,
                -2.1644169305970773,
                -1.8857930889975216,
                -1.3827042310064233,
                -1.0849627327901197,
                -2.3198561882353705
            ]
        },
        {
            "positions": [
                -0.015571493746114856,
                -2.1580793311768787,
                -1.8764144439347321,
                -1.5417473439140825,
                -1.1725077142353473,
                -2.449265059126127
            ]
        },
        {
            "positions": [
                -0.019663205090637945,
                -2.15174173175668,
                -1.8670357988719424,
                -1.700790456821741,
                -1.2600526956805747,
                -2.5786739300168837
            ]
        },
        {
            "positions": [
                -0.023754916435161033,
                -2.1454041323364814,
                -1.8576571538091526,
                -1.8598335697293997,
                -1.347597677125802,
                -2.70808280090764
            ]
        },
        {
            "positions": [
                -0.02784662777968412,
                -2.139066532916283,
                -1.848278508746363,
                -2.018876682637058,
                -1.4351426585710296,
                -2.837491671798396
            ]
        },
        {
            "positions": [
                -0.031938339124207224,
                -2.132728933496084,
                -1.8388998636835734,
                -2.177919795544717,
                -1.5226876400162572,
                -2.966900542689153
            ]
        },
        {
            "positions": [
                -0.03603005046873031,
                -2.1263913340758855,
                -1.8295212186207837,
                -2.3369629084523758,
                -1.6102326214614848,
                -3.096309413579909
            ]
        }
    ]
}