{
    "goal": {
        "global_pose": {
            "orientation": {
                "w": 0.7047431468963623,
                "x": -0.7094548344612122,
                "y": 0.0024358443915843964,
                "z": -0.0022348060738295317
            },
            "position": {
                "x": 0.6094750761985779,
                "y": 0.3671506643295288,
                "z": 0.19426114857196808
            }
        },
        "name": "move_to_magneteinheit_A"
    },
    "id": "SPARS_move_to_magneteinheit_A_8",
    "joint_names": [
        "shoulder_pan_joint",
        "shoulder_lift_joint",
        "elbow_joint",
        "wrist_1_joint",
        "wrist_2_joint",
        "wrist_3_joint"
    ],
    "metrics": {
        "cart_traj_len": 2.9931108150104415,
        "distance_elbow_joint": 3.910626145020137,
        "distance_shoulder_lift_joint": 1.2428732747093925,
        "distance_shoulder_pan_joint": 2.90198185894357,
        "distance_wrist_1_joint": 3.451506957582967,
        "distance_wrist_2_joint": 1.4309285671429766,
        "distance_wrist_3_joint": 1.0353765027596726,
        "smoothness": 0.12466514092713907,
        "time": 5.050106081,
        "traj_len": 3.738086851072178,
        "weighted_distance": 4.574547172825307
    },
    "planner": "SPARS",
    "start": {
        "state": {
            "elbow_joint": -1.9196185241190666,
            "shoulder_lift_joint": -1.2443396400964142,
            "shoulder_pan_joint": 2.6996025414629847,
            "wrist_1_joint": -1.5485510000780065,
            "wrist_2_joint": -1.5709468930060704,
            "wrist_3_joint": 0.4420197071253992
        }
    },
    "waypoints": [
        {
            "positions": [
                2.6996025414629847,
                -1.2443396400964142,
                -1.9196185241190666,
                -1.5485510000780065,
                -1.5709468930060704,
                0.4420197071253992
            ]
        },
        {
            "positions": [
                2.595498325976866,
                -1.2598347900367741,
                -1.7756382503445318,
                -1.4849422028020645,
                -1.5172608061674029,
                0.45451134198902327
            ]
        },
        {
            "positions": [
                2.4913941104907478,
                -1.2753299399771338,
                -1.6316579765699972,
                -1.4213334055261224,
                -1.4635747193287356,
                0.46700297685264736
            ]
        },
        {
            "positions": [
                2.387289895004629,
                -1.2908250899174938,
                -1.4876777027954624,
                -1.3577246082501804,
                -1.4098886324900683,
                0.4794946117162714
            ]
        },
        {
            "positions": [
                2.2831856795185104,
                -1.3063202398578537,
                -1.3436974290209278,
                -1.2941158109742383,
                -1.3562025456514009,
                0.4919862465798955
            ]
        },
        {
            "positions": [
                2.1790814640323917,
                -1.3218153897982134,
                -1.199717155246393,
                -1.2305070136982963,
                -1.3025164588127334,
                0.5044778814435196
            ]
        },
        {
            "positions": [
                2.074977248546273,
                -1.3373105397385734,
                -1.0557368814718584,
                -1.1668982164223545,
                -1.248830371974066,
                0.5169695163071436
            ]
        },
        {
            "positions": [
                1.9708730330601545,
                -1.3528056896789333,
                -0.9117566076973236,
                -1.1032894191464122,
                -1.1951442851353988,
                0.5294611511707678
            ]
        },
        {
            "positions": [
                1.866768817574036,
                -1.368300839619293,
                -0.7677763339227888,
                -1.0396806218704704,
                -1.1414581982967313,
                0.5419527860343918
            ]
        },
        {
            "positions": [
                1.7626646020879173,
                -1.383795989559653,
                -0.6237960601482542,
                -0.9760718245945283,
                -1.087772111458064,
                0.5544444208980159
            ]
        },
        {
            "positions": [
                1.6585603866017988,
                -1.399291139500013,
                -0.47981578637371936,
                -0.9124630273185862,
                -1.0340860246193966,
                0.56693605576164
            ]
        },
        {
            "positions": [
                1.5544561711156801,
                -1.4147862894403729,
                -0.33583551259918476,
                -0.8488542300426443,
                -0.9803999377807292,
                0.579427690625264
            ]
        },
        {
            "positions": [
                1.4503519556295617,
                -1.4302814393807326,
                -0.19185523882465016,
                -0.7852454327667022,
                -0.9267138509420619,
                0.5919193254888881
            ]
        },
        {
            "positions": [
                1.346247740143443,
                -1.4457765893210925,
                -0.047874965050115126,
                -0.7216366354907602,
                -0.8730277641033944,
                0.6044109603525122
            ]
        },
        {
            "positions": [
                1.2421435246573242,
                -1.4612717392614525,
                0.09610530872441947,
                -0.658027838214818,
                -0.8193416772647271,
                0.6169025952161363
            ]
        },
        {
            "positions": [
                1.1380393091712058,
                -1.4767668892018122,
                0.24008558249895406,
                -0.5944190409388762,
                -0.7656555904260598,
                0.6293942300797604
            ]
        },
        {
            "positions": [
                1.0339350936850873,
                -1.4922620391421721,
                0.3840658562734891,
                -0.5308102436629341,
                -0.7119695035873923,
                0.6418858649433845
            ]
        },
        {
            "positions": [
                0.9298308781989686,
                -1.507757189082532,
                0.5280461300480237,
                -0.467201446386992,
                -0.6582834167487249,
                0.6543774998070085
            ]
        },
        {
            "positions": [
                0.8257266627128501,
                -1.5232523390228918,
                0.6720264038225583,
                -0.4035926491110502,
                -0.6045973299100577,
                0.6668691346706326
            ]
        },
        {
            "positions": [
                0.7216224472267314,
                -1.5387474889632518,
                0.8160066775970929,
                -0.33998385183510793,
                -0.5509112430713903,
                0.6793607695342567
            ]
        },
        {
            "positions": [
                0.6175182317406129,
                -1.5542426389036117,
                0.9599869513716279,
                -0.2763750545591659,
                -0.4972251562327228,
                0.6918524043978808
            ]
        },
        {
            "positions": [
                0.5134140162544942,
                -1.5697377888439714,
                1.1039672251461625,
                -0.21276625728322407,
                -0.4435390693940555,
                0.7043440392615048
            ]
        },
        {
            "positions": [
                0.40930980076837553,
                -1.5852329387843314,
                1.2479474989206971,
                -0.14915746000728203,
                -0.38985298255538803,
                0.7168356741251289
            ]
        },
        {
            "positions": [
                0.30520558528225683,
                -1.6007280887246913,
                1.3919277726952322,
                -0.08554866273133999,
                -0.33616689571672076,
                0.7293273089887531
            ]
        },
        {
            "positions": [
                0.20110136979613857,
                -1.616223238665051,
                1.5359080464697663,
                -0.021939865455397944,
                -0.2824808088780535,
                0.741818943852377
            ]
        },
        {
            "positions": [
                0.09699715431001976,
                -1.631718388605411,
                1.6798883202443013,
                0.04166893182054415,
                -0.2287947220393859,
                0.7543105787160012
            ]
        },
        {
            "positions": [
                0.06972927116414633,
                -1.57318063804754,
                1.7206185422213998,
                0.17899120536416835,
                -0.21739286016550835,
                0.7005493902549333
            ]
        },
        {
            "positions": [
                0.0424613880182729,
                -1.514642887489669,
                1.7613487641984982,
                0.31631347890779254,
                -0.2059909982916308,
                0.6467882017938655
            ]
        },
        {
            "positions": [
                0.015193504872399483,
                -1.4561051369317977,
                1.8020789861755966,
                0.4536357524514167,
                -0.19458913641775327,
                0.5930270133327978
            ]
        },
        {
            "positions": [
                -0.012074378273473962,
                -1.3975673863739266,
                1.842809208152695,
                0.5909580259950409,
                -0.18318727454387573,
                0.53926582487173
            ]
        },
        {
            "positions": [
                -0.03934226141934737,
                -1.3390296358160556,
                1.8835394301297934,
                0.7282802995386651,
                -0.1717854126699982,
                0.4855046364106622
            ]
        },
        {
            "positions": [
                -0.016051253410599,
                -1.25862881104305,
                1.8988920288114044,
                0.8960911078195646,
                -0.16724725741186897,
                0.4206075380015577
            ]
        },
        {
            "positions": [
                0.007239754598149371,
                -1.178227986270044,
                1.9142446274930154,
                1.063901916100464,
                -0.1627091021537397,
                0.3557104395924532
            ]
        },
        {
            "positions": [
                0.030530762606897736,
                -1.0978271614970383,
                1.9295972261746264,
                1.2317127243813635,
                -0.15817094689561048,
                0.2908133411833486
            ]
        },
        {
            "positions": [
                0.053821770615646115,
                -1.0174263367240326,
                1.9449498248562374,
                1.399523532662263,
                -0.15363279163748125,
                0.2259162427742441
            ]
        },
        {
            "positions": [
                0.0771127786243945,
                -0.9370255119510267,
                1.9603024235378483,
                1.5673343409431624,
                -0.149094636379352,
                0.16101914436513953
            ]
        },
        {
            "positions": [
                0.10040378663314284,
                -0.856624687178021,
                1.9756550222194593,
                1.7351451492240617,
                -0.14455648112122277,
                0.09612204595603502
            ]
        },
        {
            "positions": [
                0.12369479464189125,
                -0.7762238624050152,
                1.9910076209010703,
                1.9029559575049613,
                -0.14001832586309354,
                0.031224947546930466
            ]
        }
    ]
}