{
    "goal": {
        "global_pose": {
            "orientation": {
                "w": 0.5084816217422485,
                "x": -0.49083608388900757,
                "y": 0.5182115435600281,
                "z": -0.4816462993621826
            },
            "position": {
                "x": 0.5540239810943604,
                "y": 0.030875300988554955,
                "z": 0.16403168439865112
            }
        },
        "name": "move_to_storage_A"
    },
    "id": "SPARS_move_to_storage_A_98",
    "joint_names": [
        "shoulder_pan_joint",
        "shoulder_lift_joint",
        "elbow_joint",
        "wrist_1_joint",
        "wrist_2_joint",
        "wrist_3_joint"
    ],
    "metrics": {
        "cart_traj_len": 0.3537476160274067,
        "distance_elbow_joint": 0.45052479242291743,
        "distance_shoulder_lift_joint": 0.23539116325655574,
        "distance_shoulder_pan_joint": 0.4643594181169056,
        "distance_wrist_1_joint": 0.23924587275754028,
        "distance_wrist_2_joint": 1.0933601095873746,
        "distance_wrist_3_joint": 0.10137524441945889,
        "smoothness": 2.2204460668324854e-16,
        "time": 5.0052413079999996,
        "traj_len": 1.6075623162293748,
        "weighted_distance": 2.029682997845867
    },
    "planner": "SPARS",
    "start": {
        "state": {
            "elbow_joint": 1.971548259319323,
            "shoulder_lift_joint": -1.1394851275133948,
            "shoulder_pan_joint": 0.1228115487234821,
            "wrist_1_joint": -0.7804723859257726,
            "wrist_2_joint": 0.12958671773740124,
            "wrist_3_joint": -3.192489227718131
        }
    },
    "waypoints": [
        {
            "positions": [
                0.1228115487234821,
                -1.1394851275133948,
                1.971548259319323,
                -0.7804723859257726,
                0.12958671773740124,
                -3.192489227718131
            ]
        },
        {
            "positions": [
                0.05647448899249559,
                -1.1731124365500456,
                2.0359089439511684,
                -0.8146503677482784,
                0.2857810191070262,
                -3.178007049943923
            ]
        },
        {
            "positions": [
                -0.009862570738490922,
                -1.2067397455866964,
                2.1002696285830136,
                -0.8488283495707841,
                0.4419753204766511,
                -3.1635248721697145
            ]
        },
        {
            "positions": [
                -0.07619963046947745,
                -1.2403670546233472,
                2.164630313214859,
                -0.8830063313932899,
                0.5981696218462761,
                -3.149042694395506
            ]
        },
        {
            "positions": [
                -0.14253669020046394,
                -1.2739943636599982,
                2.2289909978467044,
                -0.9171843132157956,
                0.7543639232159011,
                -3.1345605166212973
            ]
        },
        {
            "positions": [
                -0.20887374993145047,
                -1.307621672696649,
                2.2933516824785496,
                -0.9513622950383014,
                0.910558224585526,
                -3.120078338847089
            ]
        },
        {
            "positions": [
                -0.275210809662437,
                -1.3412489817332998,
                2.3577123671103952,
                -0.9855402768608071,
                1.066752525955151,
                -3.1055961610728806
            ]
        },
        {
            "positions": [
                -0.3415478693934235,
                -1.3748762907699505,
                2.4220730517422404,
                -1.019718258683313,
                1.2229468273247759,
                -3.0911139832986723
            ]
        }
    ]
}{
    "goal": {
        "global_pose": {
            "orientation": {
                "w": 0.5084816217422485,
                "x": -0.49083608388900757,
                "y": 0.5182115435600281,
                "z": -0.4816462993621826
            },
            "position": {
                "x": 0.5540239810943604,
                "y": 0.030875300988554955,
                "z": 0.16403168439865112
            }
        },
        "name": "move_to_storage_A"
    },
    "id": "SPARS_move_to_storage_A_98",
    "joint_names": [
        "shoulder_pan_joint",
        "shoulder_lift_joint",
        "elbow_joint",
        "wrist_1_joint",
        "wrist_2_joint",
        "wrist_3_joint"
    ],
    "metrics": {
        "cart_traj_len": 0.3534082933700178,
        "distance_elbow_joint": 0.4503487439359932,
        "distance_shoulder_lift_joint": 0.2349910442828984,
        "distance_shoulder_pan_joint": 0.4626210549787152,
        "distance_wrist_1_joint": 0.24066683677036327,
        "distance_wrist_2_joint": 1.0979433728300705,
        "distance_wrist_3_joint": 0.10621792076646219,
        "smoothness": 1.3322676295501878e-15,
        "time": 5.011597589,
        "traj_len": 1.61021395272942,
        "weighted_distance": 2.0356411826984293
    },
    "planner": "SPARS",
    "start": {
        "state": {
            "elbow_joint": 1.97154746011099,
            "shoulder_lift_joint": -1.13948474672311,
            "shoulder_pan_joint": 0.12281154466712228,
            "wrist_1_joint": -0.7804688027058302,
            "wrist_2_joint": 0.12958655903071145,
            "wrist_3_joint": 3.0906928834467795
        }
    },
    "waypoints": [
        {
            "positions": [
                0.12281154466712228,
                -1.13948474672311,
                1.97154746011099,
                -0.7804688027058302,
                0.12958655903071145,
                3.0906928834467795
            ]
        },
        {
            "positions": [
                0.05672282252730583,
                -1.1730548959063811,
                2.035882994958989,
                -0.8148497793873106,
                0.2864356122921501,
                3.1058668721277027
            ]
        },
        {
            "positions": [
                -0.009365899612510623,
                -1.2066250450896523,
                2.100218529806988,
                -0.8492307560687911,
                0.4432846655535887,
                3.121040860808626
            ]
        },
        {
            "positions": [
                -0.07545462175232708,
                -1.2401951942729235,
                2.164554064654987,
                -0.8836117327502716,
                0.6001337188150273,
                3.136214849489549
            ]
        },
        {
            "positions": [
                -0.14154334389214351,
                -1.2737653434561946,
                2.228889599502986,
                -0.917992709431752,
                0.756982772076466,
                3.151388838170472
            ]
        },
        {
            "positions": [
                -0.20763206603196,
                -1.307335492639466,
                2.293225134350985,
                -0.9523736861132326,
                0.9138318253379047,
                3.1665628268513952
            ]
        },
        {
            "positions": [
                -0.2737207881717764,
                -1.3409056418227372,
                2.357560669198984,
                -0.986754662794713,
                1.0706808785993431,
                3.1817368155323185
            ]
        },
        {
            "positions": [
                -0.3398095103115929,
                -1.3744757910060084,
                2.421896204046983,
                -1.0211356394761935,
                1.227529931860782,
                3.1969108042132417
            ]
        }
    ]
}{
    "goal": {
        "global_pose": {
            "orientation": {
                "w": 0.5084816217422485,
                "x": -0.49083608388900757,
                "y": 0.5182115435600281,
                "z": -0.4816462993621826
            },
            "position": {
                "x": 0.5540239810943604,
                "y": 0.030875300988554955,
                "z": 0.16403168439865112
            }
        },
        "name": "move_to_storage_A"
    },
    "id": "SPARS_move_to_storage_A_98",
    "joint_names": [
        "shoulder_pan_joint",
        "shoulder_lift_joint",
        "elbow_joint",
        "wrist_1_joint",
        "wrist_2_joint",
        "wrist_3_joint"
    ],
    "metrics": {
        "cart_traj_len": 0.35344429021201124,
        "distance_elbow_joint": 0.4510111349470707,
        "distance_shoulder_lift_joint": 0.23529406483064896,
        "distance_shoulder_pan_joint": 0.46372804782927124,
        "distance_wrist_1_joint": 0.24526390676892618,
        "distance_wrist_2_joint": 1.093417665742316,
        "distance_wrist_3_joint": 0.10299946228161305,
        "smoothness": 4.440892098500626e-16,
        "time": 5.057863835,
        "traj_len": 1.6098802074688183,
        "weighted_distance": 2.033812867368656
    },
    "planner": "SPARS",
    "start": {
        "state": {
            "elbow_joint": 1.9715472970024885,
            "shoulder_lift_joint": -1.1394870060712896,
            "shoulder_pan_joint": 0.12281152778156021,
            "wrist_1_joint": -0.780463741449964,
            "wrist_2_joint": 0.12958659822042276,
            "wrist_3_joint": 3.090690232415272
        }
    },
    "waypoints": [
        {
            "positions": [
                0.12281152778156021,
                -1.1394870060712896,
                1.9715472970024885,
                -0.780463741449964,
                0.12958659822042276,
                3.090690232415272
            ]
        },
        {
            "positions": [
                0.05656466380595003,
                -1.1731004439042394,
                2.035977459137784,
                -0.8155014424169534,
                0.28578912189789646,
                3.105404441312645
            ]
        },
        {
            "positions": [
                -0.009682200169660149,
                -1.2067138817371894,
                2.1004076212730802,
                -0.8505391433839429,
                0.4419916455753702,
                3.1201186502100184
            ]
        },
        {
            "positions": [
                -0.07592906414527031,
                -1.2403273195701392,
                2.164837783408376,
                -0.8855768443509323,
                0.5981941692528439,
                3.1348328591073917
            ]
        },
        {
            "positions": [
                -0.1421759281208805,
                -1.273940757403089,
                2.229267945543672,
                -0.9206145453179218,
                0.7543966929303175,
                3.149547068004765
            ]
        },
        {
            "positions": [
                -0.2084227920964907,
                -1.307554195236039,
                2.2936981076789675,
                -0.9556522462849113,
                0.9105992166077913,
                3.1642612769021383
            ]
        },
        {
            "positions": [
                -0.2746696560721008,
                -1.3411676330689888,
                2.358128269814263,
                -0.9906899472519007,
                1.066801740285265,
                3.1789754857995116
            ]
        },
        {
            "positions": [
                -0.340916520047711,
                -1.3747810709019386,
                2.422558431949559,
                -1.0257276482188902,
                1.2230042639627388,
                3.193689694696885
            ]
        }
    ]
}