{
    "goal": {
        "global_pose": {
            "orientation": {
                "w": 0.7047431493862688,
                "x": -0.7094548369677653,
                "y": 0.0024358444001904,
                "z": -0.0022348060817251984
            },
            "position": {
                "x": -0.39052492380142206,
                "y": 0.3671506643295288,
                "z": 0.19426114857196808
            }
        },
        "name": "move_to_magneteinheit_D"
    },
    "id": "SPARS_move_to_magneteinheit_D_88",
    "joint_names": [
        "shoulder_pan_joint",
        "shoulder_lift_joint",
        "elbow_joint",
        "wrist_1_joint",
        "wrist_2_joint",
        "wrist_3_joint"
    ],
    "metrics": {
        "cart_traj_len": 3.9721216448506445,
        "distance_elbow_joint": 3.1231873650743363,
        "distance_shoulder_lift_joint": 1.6331946746987198,
        "distance_shoulder_pan_joint": 3.067884967377299,
        "distance_wrist_1_joint": 2.7238780019422366,
        "distance_wrist_2_joint": 4.2868098228082125,
        "distance_wrist_3_joint": 3.1319657487216457,
        "smoothness": 0.2997306846535021,
        "time": 5.056599266999999,
        "traj_len": 4.23874044742332,
        "weighted_distance": 5.589413198432926
    },
    "planner": "SPARS",
    "start": {
        "state": {
            "elbow_joint": 0.749534889911806,
            "shoulder_lift_joint": -0.6476975780787326,
            "shoulder_pan_joint": -2.711696901376241,
            "wrist_1_joint": -0.07506478083263063,
            "wrist_2_joint": 0.43296659715538205,
            "wrist_3_joint": -3.14703540197715
        }
    },
    "waypoints": [
        {
            "positions": [
                -2.711696901376241,
                -0.6476975780787326,
                0.749534889911806,
                -0.07506478083263063,
                0.43296659715538205,
                -3.14703540197715
            ]
        },
        {
            "positions": [
                -2.7585644446726723,
                -0.6648752130483637,
                0.6765920132339681,
                -0.02091410374874507,
                0.3164282617077776,
                -3.105347798200458
            ]
        },
        {
            "positions": [
                -2.8054319879691034,
                -0.6820528480179947,
                0.6036491365561303,
                0.03323657333514049,
                0.19988992626017316,
                -3.063660194423765
            ]
        },
        {
            "positions": [
                -2.8522995312655346,
                -0.6992304829876257,
                0.5307062598782923,
                0.08738725041902606,
                0.08335159081256871,
                -3.0219725906470725
            ]
        },
        {
            "positions": [
                -2.8991670745619658,
                -0.7164081179572568,
                0.4577633832004545,
                0.1415379275029116,
                -0.03318674463503571,
                -2.9802849868703802
            ]
        },
        {
            "positions": [
                -2.798490413312519,
                -0.7591661162233829,
                0.3972263121935126,
                0.2163660104804576,
                -0.10274771411313698,
                -2.946687760064774
            ]
        },
        {
            "positions": [
                -2.6978137520630723,
                -0.8019241144895092,
                0.33668924118657073,
                0.29119409345800357,
                -0.17230868359123824,
                -2.9130905332591683
            ]
        },
        {
            "positions": [
                -2.597137090813626,
                -0.8446821127556353,
                0.2761521701796289,
                0.3660221764355495,
                -0.24186965306933952,
                -2.879493306453562
            ]
        },
        {
            "positions": [
                -2.4964604295641792,
                -0.8874401110217615,
                0.21561509917268698,
                0.4408502594130955,
                -0.3114306225474408,
                -2.845896079647956
            ]
        },
        {
            "positions": [
                -2.3957837683147325,
                -0.9301981092878877,
                0.15507802816574512,
                0.5156783423906415,
                -0.3809915920255421,
                -2.81229885284235
            ]
        },
        {
            "positions": [
                -2.2951071070652858,
                -0.9729561075540138,
                0.09454095715880323,
                0.5905064253681874,
                -0.4505525615036433,
                -2.778701626036744
            ]
        },
        {
            "positions": [
                -2.1944304458158395,
                -1.01571410582014,
                0.034003886151861396,
                0.6653345083457334,
                -0.5201135309817445,
                -2.745104399231138
            ]
        },
        {
            "positions": [
                -2.0937537845663927,
                -1.0584721040862661,
                -0.02653318485508055,
                0.7401625913232794,
                -0.5896745004598458,
                -2.7115071724255317
            ]
        },
        {
            "positions": [
                -1.993077123316946,
                -1.1012301023523923,
                -0.08707025586202233,
                0.8149906743008253,
                -0.659235469937947,
                -2.677909945619926
            ]
        },
        {
            "positions": [
                -1.8924004620674992,
                -1.1439881006185186,
                -0.14760732686896427,
                0.8898187572783713,
                -0.7287964394160484,
                -2.64431271881432
            ]
        },
        {
            "positions": [
                -1.7917238008180527,
                -1.1867460988846448,
                -0.2081443978759061,
                0.9646468402559173,
                -0.7983574088941496,
                -2.6107154920087137
            ]
        },
        {
            "positions": [
                -1.691047139568606,
                -1.229504097150771,
                -0.26868146888284805,
                1.0394749232334632,
                -0.8679183783722509,
                -2.577118265203108
            ]
        },
        {
            "positions": [
                -1.5903704783191595,
                -1.272262095416897,
                -0.3292185398897899,
                1.114303006211009,
                -0.9374793478503521,
                -2.5435210383975018
            ]
        },
        {
            "positions": [
                -1.489693817069713,
                -1.3150200936830232,
                -0.3897556108967317,
                1.1891310891885551,
                -1.0070403173284534,
                -2.5099238115918956
            ]
        },
        {
            "positions": [
                -1.3890171558202664,
                -1.3577780919491493,
                -0.45029268190367355,
                1.263959172166101,
                -1.0766012868065546,
                -2.47632658478629
            ]
        },
        {
            "positions": [
                -1.2883404945708195,
                -1.4005360902152755,
                -0.5108297529106156,
                1.3387872551436473,
                -1.146162256284656,
                -2.4427293579806837
            ]
        },
        {
            "positions": [
                -1.187663833321373,
                -1.4432940884814016,
                -0.5713668239175574,
                1.413615338121193,
                -1.2157232257627573,
                -2.4091321311750775
            ]
        },
        {
            "positions": [
                -1.0869871720719264,
                -1.4860520867475278,
                -0.6319038949244992,
                1.488443421098739,
                -1.2852841952408585,
                -2.375534904369472
            ]
        },
        {
            "positions": [
                -0.9863105108224797,
                -1.528810085013654,
                -0.6924409659314411,
                1.563271504076285,
                -1.3548451647189597,
                -2.3419376775638656
            ]
        },
        {
            "positions": [
                -0.8856338495730327,
                -1.5715680832797805,
                -0.752978036938383,
                1.638099587053831,
                -1.4244061341970613,
                -2.3083404507582594
            ]
        },
        {
            "positions": [
                -0.7849571883235864,
                -1.6143260815459066,
                -0.813515107945325,
                1.712927670031377,
                -1.4939671036751625,
                -2.2747432239526537
            ]
        },
        {
            "positions": [
                -0.6842805270741397,
                -1.6570840798120328,
                -0.8740521789522667,
                1.787755753008923,
                -1.5635280731532637,
                -2.2411459971470475
            ]
        },
        {
            "positions": [
                -0.5836038658246934,
                -1.699842078078159,
                -0.9345892499592087,
                1.8625838359864688,
                -1.633089042631365,
                -2.2075487703414414
            ]
        },
        {
            "positions": [
                -0.4829272045752462,
                -1.742600076344285,
                -0.9951263209661506,
                1.9374119189640149,
                -1.7026500121094663,
                -2.173951543535835
            ]
        },
        {
            "positions": [
                -0.3822505433257999,
                -1.7853580746104112,
                -1.0556633919730922,
                2.012240001941561,
                -1.7722109815875675,
                -2.1403543167302295
            ]
        },
        {
            "positions": [
                -0.2815738820763531,
                -1.8281160728765373,
                -1.1162004629800344,
                2.087068084919107,
                -1.8417719510656687,
                -2.1067570899246233
            ]
        },
        {
            "positions": [
                -0.2665444348302892,
                -1.8569691660626144,
                -1.1941596590460821,
                2.0532817161348786,
                -1.7276004644486105,
                -1.9829302270167193
            ]
        },
        {
            "positions": [
                -0.2515149875842253,
                -1.8858222592486915,
                -1.2721188551121299,
                2.0194953473506505,
                -1.613428977831552,
                -1.8591033641088155
            ]
        },
        {
            "positions": [
                -0.23648554033816144,
                -1.9146753524347686,
                -1.3500780511781776,
                1.9857089785664228,
                -1.4992574912144936,
                -1.7352765012009115
            ]
        },
        {
            "positions": [
                -0.22145609309209754,
                -1.9435284456208457,
                -1.4280372472442253,
                1.9519226097821947,
                -1.3850860045974354,
                -1.6114496382930077
            ]
        },
        {
            "positions": [
                -0.20642664584603365,
                -1.9723815388069228,
                -1.505996443310273,
                1.9181362409979665,
                -1.2709145179803771,
                -1.4876227753851037
            ]
        },
        {
            "positions": [
                -0.1913971985999698,
                -2.001234631993,
                -1.5839556393763208,
                1.8843498722137386,
                -1.1567430313633187,
                -1.3637959124771997
            ]
        },
        {
            "positions": [
                -0.17636775135390587,
                -2.0300877251790768,
                -1.6619148354423685,
                1.8505635034295105,
                -1.0425715447462602,
                -1.2399690495692957
            ]
        },
        {
            "positions": [
                -0.161338304107842,
                -2.058940818365154,
                -1.7398740315084162,
                1.8167771346452826,
                -0.928400058129202,
                -1.1161421866613919
            ]
        },
        {
            "positions": [
                -0.1463088568617781,
                -2.0877939115512314,
                -1.817833227574464,
                1.7829907658610544,
                -0.8142285715121436,
                -0.9923153237534879
            ]
        },
        {
            "positions": [
                -0.13127940961571422,
                -2.1166470047373083,
                -1.8957924236405117,
                1.7492043970768265,
                -0.7000570848950853,
                -0.8684884608455838
            ]
        },
        {
            "positions": [
                -0.11624996236965035,
                -2.145500097923385,
                -1.9737516197065594,
                1.7154180282925986,
                -0.5858855982780271,
                -0.74466159793768
            ]
        },
        {
            "positions": [
                -0.10122051512358646,
                -2.1743531911094625,
                -2.051710815772607,
                1.6816316595083705,
                -0.47171411166096855,
                -0.6208347350297759
            ]
        },
        {
            "positions": [
                -0.11771416207422548,
                -2.1956610034430604,
                -2.116099147650592,
                1.650369917352418,
                -0.34331142462447634,
                -0.4996817186749216
            ]
        },
        {
            "positions": [
                -0.1342078090248645,
                -2.2169688157766583,
                -2.1804874795285767,
                1.6191081751964653,
                -0.21490873758798412,
                -0.37852870232006725
            ]
        },
        {
            "positions": [
                -0.15070145597550355,
                -2.2382766281102566,
                -2.244875811406561,
                1.5878464330405129,
                -0.08650605055149196,
                -0.25737568596521293
            ]
        },
        {
            "positions": [
                -0.1671951029261426,
                -2.2595844404438545,
                -2.3092641432845458,
                1.5565846908845602,
                0.041896636485000305,
                -0.13622266961035856
            ]
        },
        {
            "positions": [
                -0.1836887498767816,
                -2.2808922527774524,
                -2.3736524751625305,
                1.5253229487286077,
                0.1702993235214925,
                -0.015069653255504283
            ]
        }
    ]
}