{
    "goal": {
        "global_pose": {
            "orientation": {
                "w": 0.005598929693374612,
                "x": 0.007748599140229565,
                "y": 0.7110244013736278,
                "z": -0.7031023480610252
            },
            "position": {
                "x": 0.1141497679147869,
                "y": -0.7141253447532654,
                "z": 0.3711530566215515
            }
        },
        "name": "move_to_auspresseinheit_B"
    },
    "id": "SPARS_move_to_auspresseinheit_B_3",
    "joint_names": [
        "shoulder_pan_joint",
        "shoulder_lift_joint",
        "elbow_joint",
        "wrist_1_joint",
        "wrist_2_joint",
        "wrist_3_joint"
    ],
    "metrics": {
        "cart_traj_len": 0.564664186195951,
        "distance_elbow_joint": 0.0672011210416037,
        "distance_shoulder_lift_joint": 0.2925097436992452,
        "distance_shoulder_pan_joint": 0.5767502303337693,
        "distance_wrist_1_joint": 0.3385239198975606,
        "distance_wrist_2_joint": 0.9910423653578397,
        "distance_wrist_3_joint": 0.008558245795479369,
        "smoothness": 2.5376526478085547e-16,
        "time": 5.016188347,
        "traj_len": 1.5081729430425073,
        "weighted_distance": 1.9029630587512354
    },
    "planner": "SPARS",
    "start": {
        "state": {
            "elbow_joint": 2.0193083361928714,
            "shoulder_lift_joint": -1.1220246554650708,
            "shoulder_pan_joint": -1.0952077554168747,
            "wrist_1_joint": -0.8559753972642168,
            "wrist_2_joint": 0.4759566250798843,
            "wrist_3_joint": -3.1240929996934557
        }
    },
    "waypoints": [
        {
            "positions": [
                -1.0952077554168747,
                -1.1220246554650708,
                2.0193083361928714,
                -0.8559753972642168,
                0.4759566250798843,
                -3.1240929996934557
            ]
        },
        {
            "positions": [
                -1.1913327938058362,
                -1.170776279414945,
                2.008108149352604,
                -0.7995547439479567,
                0.6411303526395242,
                -3.122666625394209
            ]
        },
        {
            "positions": [
                -1.2874578321947978,
                -1.2195279033648192,
                1.996907962512337,
                -0.7431340906316966,
                0.8063040801991641,
                -3.1212402510949624
            ]
        },
        {
            "positions": [
                -1.3835828705837594,
                -1.2682795273146934,
                1.9857077756720696,
                -0.6867134373154364,
                0.9714778077588042,
                -3.1198138767957158
            ]
        },
        {
            "positions": [
                -1.4797079089727208,
                -1.3170311512645676,
                1.9745075888318022,
                -0.6302927839991764,
                1.136651535318444,
                -3.1183875024964696
            ]
        },
        {
            "positions": [
                -1.5758329473616823,
                -1.3657827752144418,
                1.963307401991535,
                -0.5738721306829162,
                1.3018252628780842,
                -3.116961128197223
            ]
        },
        {
            "positions": [
                -1.671957985750644,
                -1.414534399164316,
                1.9521072151512677,
                -0.5174514773666562,
                1.466998990437724,
                -3.1155347538979763
            ]
        }
    ]
}