{
    "goal": {
        "global_pose": {
            "orientation": {
                "w": -0.4816463035849501,
                "x": 0.5182115481033762,
                "y": 0.4908360881923453,
                "z": -0.5084816262002911
            },
            "position": {
                "x": -0.8240239810943604,
                "y": -0.300875300988555,
                "z": 0.16403168439865112
            }
        },
        "name": "move_to_storage_C"
    },
    "id": "SPARS_move_to_storage_C_73",
    "joint_names": [
        "shoulder_pan_joint",
        "shoulder_lift_joint",
        "elbow_joint",
        "wrist_1_joint",
        "wrist_2_joint",
        "wrist_3_joint"
    ],
    "metrics": {
        "cart_traj_len": 0.576171643630004,
        "distance_elbow_joint": 0.25405575891822463,
        "distance_shoulder_lift_joint": 0.1893610531578197,
        "distance_shoulder_pan_joint": 0.4938722020297406,
        "distance_wrist_1_joint": 0.06367129318855225,
        "distance_wrist_2_joint": 1.0721437513132392,
        "distance_wrist_3_joint": 0.0703369142449537,
        "smoothness": 0.0,
        "time": 5.047417924,
        "traj_len": 1.4640495117490153,
        "weighted_distance": 1.8493052332820097
    },
    "planner": "SPARS",
    "start": {
        "state": {
            "elbow_joint": 2.010868314990456,
            "shoulder_lift_joint": -1.1634956873337592,
            "shoulder_pan_joint": -2.4736205022346125,
            "wrist_1_joint": -0.8367026794202681,
            "wrist_2_joint": 0.6746043897044499,
            "wrist_3_joint": -3.1496632123970403
        }
    },
    "waypoints": [
        {
            "positions": [
                -2.4736205022346125,
                -1.1634956873337592,
                2.010868314990456,
                -0.8367026794202681,
                0.6746043897044499,
                -3.1496632123970403
            ]
        },
        {
            "positions": [
                -2.555932535906236,
                -1.1319355118074559,
                1.968525688504085,
                -0.826090797222176,
                0.8532950149233232,
                -3.1379403933562147
            ]
        },
        {
            "positions": [
                -2.6382445695778594,
                -1.1003753362811526,
                1.9261830620177143,
                -0.815478915024084,
                1.0319856401421963,
                -3.126217574315389
            ]
        },
        {
            "positions": [
                -2.7205566032494826,
                -1.0688151607548493,
                1.8838404355313436,
                -0.8048670328259919,
                1.2106762653610694,
                -3.1144947552745634
            ]
        },
        {
            "positions": [
                -2.802868636921106,
                -1.037254985228546,
                1.8414978090449727,
                -0.7942551506279,
                1.3893668905799426,
                -3.102771936233738
            ]
        },
        {
            "positions": [
                -2.88518067059273,
                -1.0056948097022427,
                1.7991551825586019,
                -0.7836432684298079,
                1.5680575157988161,
                -3.091049117192912
            ]
        },
        {
            "positions": [
                -2.967492704264353,
                -0.9741346341759395,
                1.7568125560722312,
                -0.7730313862317159,
                1.746748141017689,
                -3.0793262981520866
            ]
        }
    ]
}