{
    "goal": {
        "global_pose": {
            "orientation": {
                "w": 0.5084816262002911,
                "x": -0.4908360881923452,
                "y": 0.5182115481033761,
                "z": -0.48164630358495003
            },
            "position": {
                "x": 0.5540239810943604,
                "y": -0.46912469901144505,
                "z": 0.16403168439865112
            }
        },
        "name": "move_to_storage_B"
    },
    "id": "SPARS_move_to_storage_B_20",
    "joint_names": [
        "shoulder_pan_joint",
        "shoulder_lift_joint",
        "elbow_joint",
        "wrist_1_joint",
        "wrist_2_joint",
        "wrist_3_joint"
    ],
    "metrics": {
        "cart_traj_len": 1.633855438608881,
        "distance_elbow_joint": 0.8547677139967034,
        "distance_shoulder_lift_joint": 1.4618982019050482,
        "distance_shoulder_pan_joint": 1.6024265754207614,
        "distance_wrist_1_joint": 3.0259939283348887,
        "distance_wrist_2_joint": 3.637118593991754,
        "distance_wrist_3_joint": 3.1101685667286083,
        "smoothness": 0.28559258660551334,
        "time": 5.096955584,
        "traj_len": 3.700320740203174,
        "weighted_distance": 5.15517441374796
    },
    "planner": "SPARS",
    "start": {
        "state": {
            "elbow_joint": 1.664937868594044,
            "shoulder_lift_joint": -0.661644460510453,
            "shoulder_pan_joint": -0.9139846352900073,
            "wrist_1_joint": 2.146753192139373,
            "wrist_2_joint": -2.2341966793290973,
            "wrist_3_joint": 0.005466555786416001
        }
    },
    "waypoints": [
        {
            "positions": [
                -0.9139846352900073,
                -0.661644460510453,
                1.664937868594044,
                2.146753192139373,
                -2.2341966793290973,
                0.005466555786416001
            ]
        },
        {
            "positions": [
                -0.881663056661556,
                -0.7053585401035386,
                1.6925574594234167,
                2.0491176942590354,
                -2.0898801178046744,
                -0.030591223857270124
            ]
        },
        {
            "positions": [
                -0.8493414780331047,
                -0.7490726196966242,
                1.7201770502527893,
                1.9514821963786972,
                -1.9455635562802518,
                -0.06664900350095625
            ]
        },
        {
            "positions": [
                -0.8170198994046534,
                -0.7927866992897099,
                1.7477966410821622,
                1.8538466984983595,
                -1.8012469947558292,
                -0.10270678314464236
            ]
        },
        {
            "positions": [
                -0.784698320776202,
                -0.8365007788827955,
                1.775416231911535,
                1.7562112006180215,
                -1.6569304332314063,
                -0.1387645627883285
            ]
        },
        {
            "positions": [
                -0.7523767421477507,
                -0.8802148584758811,
                1.8030358227409078,
                1.6585757027376835,
                -1.5126138717069837,
                -0.1748223424320146
            ]
        },
        {
            "positions": [
                -0.7200551635192995,
                -0.9239289380689667,
                1.8306554135702804,
                1.5609402048573457,
                -1.368297310182561,
                -0.21088012207570073
            ]
        },
        {
            "positions": [
                -0.6877335848908481,
                -0.9676430176620523,
                1.8582750043996532,
                1.4633047069770078,
                -1.2239807486581382,
                -0.24693790171938687
            ]
        },
        {
            "positions": [
                -0.6554120062623969,
                -1.011357097255138,
                1.885894595229026,
                1.3656692090966698,
                -1.0796641871337154,
                -0.28299568136307296
            ]
        },
        {
            "positions": [
                -0.6230904276339455,
                -1.0550711768482235,
                1.9135141860583988,
                1.2680337112163318,
                -0.9353476256092927,
                -0.3190534610067591
            ]
        },
        {
            "positions": [
                -0.5907688490054943,
                -1.0987852564413092,
                1.9411337768877714,
                1.170398213335994,
                -0.7910310640848701,
                -0.3551112406504452
            ]
        },
        {
            "positions": [
                -0.5584472703770429,
                -1.142499336034395,
                1.9687533677171443,
                1.072762715455656,
                -0.6467145025604473,
                -0.3911690202941313
            ]
        },
        {
            "positions": [
                -0.5261256917485917,
                -1.1862134156274804,
                1.9963729585465169,
                0.9751272175753183,
                -0.5023979410360246,
                -0.4272267999378174
            ]
        },
        {
            "positions": [
                -0.49380411312014033,
                -1.229927495220566,
                2.02399254937589,
                0.8774917196949801,
                -0.3580813795116018,
                -0.4632845795815036
            ]
        },
        {
            "positions": [
                -0.461482534491689,
                -1.2736415748136516,
                2.0516121402052625,
                0.7798562218146423,
                -0.21376481798717917,
                -0.4993423592251897
            ]
        },
        {
            "positions": [
                -0.42916095586323777,
                -1.3173556544067373,
                2.079231731034635,
                0.6822207239343046,
                -0.06944825646275632,
                -0.5354001388688758
            ]
        },
        {
            "positions": [
                -0.39683937723478646,
                -1.3610697339998228,
                2.106851321864008,
                0.5845852260539663,
                0.07486830506166653,
                -0.571457918512562
            ]
        },
        {
            "positions": [
                -0.36451779860633515,
                -1.4047838135929085,
                2.1344709126933807,
                0.4869497281736286,
                0.21918486658608893,
                -0.6075156981562481
            ]
        },
        {
            "positions": [
                -0.33219621997788373,
                -1.4484978931859942,
                2.162090503522754,
                0.3893142302932904,
                0.3635014281105118,
                -0.6435734777999342
            ]
        },
        {
            "positions": [
                -0.29987464134943254,
                -1.4922119727790797,
                2.1897100943521264,
                0.2916787324129526,
                0.5078179896349346,
                -0.6796312574436203
            ]
        },
        {
            "positions": [
                -0.2675530627209812,
                -1.5359260523721652,
                2.217329685181499,
                0.19404323453261485,
                0.652134551159357,
                -0.7156890370873065
            ]
        },
        {
            "positions": [
                -0.23523148409252992,
                -1.579640131965251,
                2.244949276010872,
                0.09640773665227664,
                0.7964511126837803,
                -0.7517468167309926
            ]
        },
        {
            "positions": [
                -0.2029099054640786,
                -1.6233542115583366,
                2.2725688668402446,
                -0.0012277612280611194,
                0.940767674208203,
                -0.7878045963746787
            ]
        },
        {
            "positions": [
                -0.26657789443513813,
                -1.5876264650685392,
                2.2549162442866373,
                -0.06394297372573646,
                0.907756657032885,
                -0.9532972688437868
            ]
        },
        {
            "positions": [
                -0.33024588340619765,
                -1.5518987185787416,
                2.23726362173303,
                -0.1266581862234118,
                0.874745639857567,
                -1.118789941312895
            ]
        },
        {
            "positions": [
                -0.39391387237725717,
                -1.5161709720889442,
                2.2196109991794226,
                -0.18937339872108713,
                0.841734622682249,
                -1.2842826137820031
            ]
        },
        {
            "positions": [
                -0.4575818613483167,
                -1.4804432255991467,
                2.2019583766258153,
                -0.25208861121876247,
                0.808723605506931,
                -1.449775286251111
            ]
        },
        {
            "positions": [
                -0.5212498503193762,
                -1.4447154791093493,
                2.184305754072208,
                -0.31480382371643784,
                0.775712588331613,
                -1.6152679587202194
            ]
        },
        {
            "positions": [
                -0.5849178392904357,
                -1.408987732619552,
                2.1666531315186006,
                -0.37751903621411315,
                0.742701571156295,
                -1.7807606311893274
            ]
        },
        {
            "positions": [
                -0.6485858282614952,
                -1.3732599861297543,
                2.1490005089649933,
                -0.4402342487117885,
                0.709690553980977,
                -1.9462533036584355
            ]
        },
        {
            "positions": [
                -0.7122538172325548,
                -1.337532239639957,
                2.131347886411386,
                -0.5029494612094638,
                0.6766795368056591,
                -2.1117459761275437
            ]
        },
        {
            "positions": [
                -0.7759218062036143,
                -1.3018044931501593,
                2.1136952638577786,
                -0.5656646737071392,
                0.6436685196303411,
                -2.2772386485966516
            ]
        },
        {
            "positions": [
                -0.8395897951746738,
                -1.266076746660362,
                2.0960426413041713,
                -0.6283798862048146,
                0.6106575024550231,
                -2.44273132106576
            ]
        },
        {
            "positions": [
                -0.9032577841457333,
                -1.2303490001705644,
                2.078390018750564,
                -0.6910950987024899,
                0.5776464852797052,
                -2.608223993534868
            ]
        },
        {
            "positions": [
                -0.9669257731167928,
                -1.194621253680767,
                2.0607373961969566,
                -0.7538103112001652,
                0.5446354681043871,
                -2.773716666003976
            ]
        },
        {
            "positions": [
                -1.0305937620878525,
                -1.1588935071909694,
                2.0430847736433493,
                -0.8165255236978406,
                0.511624450929069,
                -2.939209338473084
            ]
        },
        {
            "positions": [
                -1.0942617510589119,
                -1.123165760701172,
                2.025432151089742,
                -0.8792407361955159,
                0.47861343375375115,
                -3.1047020109421926
            ]
        }
    ]
}