{
    "goal": {
        "global_pose": {
            "orientation": {
                "w": 0.5084816217422485,
                "x": -0.49083608388900757,
                "y": 0.5182115435600281,
                "z": -0.4816462993621826
            },
            "position": {
                "x": 0.5540239810943604,
                "y": 0.030875300988554955,
                "z": 0.16403168439865112
            }
        },
        "name": "move_to_storage_A"
    },
    "id": "SPARStwo_move_to_storage_A_58",
    "joint_names": [
        "shoulder_pan_joint",
        "shoulder_lift_joint",
        "elbow_joint",
        "wrist_1_joint",
        "wrist_2_joint",
        "wrist_3_joint"
    ],
    "metrics": {
        "cart_traj_len": 0.3526966070105745,
        "distance_elbow_joint": 0.4508554838246819,
        "distance_shoulder_lift_joint": 0.23624816201819732,
        "distance_shoulder_pan_joint": 0.4615652344887622,
        "distance_wrist_1_joint": 0.24474609431185024,
        "distance_wrist_2_joint": 1.0974260848092645,
        "distance_wrist_3_joint": 0.10175856844066677,
        "smoothness": 1.7763568394002505e-15,
        "time": 5.00024595,
        "traj_len": 1.6101551564658056,
        "weighted_distance": 2.034278482385308
    },
    "planner": "SPARStwo",
    "start": {
        "state": {
            "elbow_joint": 1.9715481507254546,
            "shoulder_lift_joint": -1.1394850672790213,
            "shoulder_pan_joint": 0.12281154597544902,
            "wrist_1_joint": -0.7804720171073349,
            "wrist_2_joint": 0.12958658322886563,
            "wrist_3_joint": -3.1924895760937617
        }
    },
    "waypoints": [
        {
            "positions": [
                0.12281154597544902,
                -1.1394850672790213,
                1.9715481507254546,
                -0.7804720171073349,
                0.12958658322886563,
                -3.1924895760937617
            ]
        },
        {
            "positions": [
                0.05687365533419729,
                -1.1732348047101924,
                2.0359560769861234,
                -0.8154357448661707,
                0.2863617382016177,
                -3.177952637745095
            ]
        },
        {
            "positions": [
                -0.009064235307054441,
                -1.2069845421413634,
                2.1003640032467925,
                -0.8503994726250064,
                0.4431368931743698,
                -3.1634156993964284
            ]
        },
        {
            "positions": [
                -0.07500212594830619,
                -1.2407342795725345,
                2.1647719295074612,
                -0.8853632003838422,
                0.5999120481471218,
                -3.1488787610477615
            ]
        },
        {
            "positions": [
                -0.1409400165895579,
                -1.2744840170037055,
                2.22917985576813,
                -0.9203269281426779,
                0.7566872031198739,
                -3.134341822699095
            ]
        },
        {
            "positions": [
                -0.20687790723080968,
                -1.3082337544348766,
                2.2935877820287986,
                -0.9552906559015137,
                0.913462358092626,
                -3.1198048843504282
            ]
        },
        {
            "positions": [
                -0.2728157978720614,
                -1.3419834918660476,
                2.357995708289468,
                -0.9902543836603495,
                1.070237513065378,
                -3.105267946001762
            ]
        },
        {
            "positions": [
                -0.33875368851331317,
                -1.3757332292972186,
                2.4224036345501365,
                -1.0252181114191852,
                1.2270126680381301,
                -3.090731007653095
            ]
        }
    ]
}