{
    "goal": {
        "global_pose": {
            "orientation": {
                "w": 0.7031023502349854,
                "x": -0.7110244035720825,
                "y": 0.007748599164187908,
                "z": 0.005598929710686207
            },
            "position": {
                "x": 0.11585023208521307,
                "y": 0.44412534475326537,
                "z": 0.3711530566215515
            }
        },
        "name": "move_to_auspresseinheit_A"
    },
    "id": "SPARStwo_move_to_auspresseinheit_A_137",
    "joint_names": [
        "shoulder_pan_joint",
        "shoulder_lift_joint",
        "elbow_joint",
        "wrist_1_joint",
        "wrist_2_joint",
        "wrist_3_joint"
    ],
    "metrics": {
        "cart_traj_len": 1.0146034971537308,
        "distance_elbow_joint": 0.1410426246924814,
        "distance_shoulder_lift_joint": 1.7374547605685975,
        "distance_shoulder_pan_joint": 1.0418032955010947,
        "distance_wrist_1_joint": 2.6125073237507186,
        "distance_wrist_2_joint": 2.414673896800168,
        "distance_wrist_3_joint": 3.440997473643636,
        "smoothness": 0.9774603802190274,
        "time": 5.016393289,
        "traj_len": 3.3746821146526815,
        "weighted_distance": 4.826764500449017
    },
    "planner": "SPARStwo",
    "start": {
        "state": {
            "elbow_joint": 2.4225746658250005,
            "shoulder_lift_joint": -1.3736534386056498,
            "shoulder_pan_joint": -0.3378633547517467,
            "wrist_1_joint": -1.0288598680537169,
            "wrist_2_joint": 1.233022673432363,
            "wrist_3_joint": -3.0940220416140027
        }
    },
    "waypoints": [
        {
            "positions": [
                -0.3378633547517467,
                -1.3736534386056498,
                2.4225746658250005,
                -1.0288598680537169,
                1.233022673432363,
                -3.0940220416140027
            ]
        },
        {
            "positions": [
                -0.32064335224061324,
                -1.4446362577164442,
                2.417251499810736,
                -0.9297434580579266,
                1.1408144193268654,
                -2.9875707582456212
            ]
        },
        {
            "positions": [
                -0.30342334972947976,
                -1.5156190768272386,
                2.4119283337964714,
                -0.8306270480621363,
                1.048606165221368,
                -2.8811194748772393
            ]
        },
        {
            "positions": [
                -0.2862033472183463,
                -1.586601895938033,
                2.406605167782207,
                -0.7315106380663461,
                0.9563979111158705,
                -2.774668191508858
            ]
        },
        {
            "positions": [
                -0.26898334470721286,
                -1.6575847150488274,
                2.401282001767943,
                -0.6323942280705558,
                0.8641896570103729,
                -2.668216908140476
            ]
        },
        {
            "positions": [
                -0.2517633421960793,
                -1.7285675341596218,
                2.395958835753678,
                -0.5332778180747655,
                0.7719814029048753,
                -2.5617656247720944
            ]
        },
        {
            "positions": [
                -0.2345433396849459,
                -1.7995503532704165,
                2.3906356697394138,
                -0.4341614080789753,
                0.6797731487993778,
                -2.455314341403713
            ]
        },
        {
            "positions": [
                -0.21732333717381241,
                -1.8705331723812106,
                2.3853125037251495,
                -0.335044998083185,
                0.5875648946938803,
                -2.348863058035331
            ]
        },
        {
            "positions": [
                -0.20010333466267893,
                -1.9415159914920053,
                2.379989337710885,
                -0.2359285880873947,
                0.4953566405883827,
                -2.2424117746669494
            ]
        },
        {
            "positions": [
                -0.18288333215154545,
                -2.0124988106027994,
                2.3746661716966204,
                -0.1368121780916044,
                0.4031483864828851,
                -2.135960491298568
            ]
        },
        {
            "positions": [
                -0.16566332964041197,
                -2.083481629713594,
                2.369343005682356,
                -0.0376957680958141,
                0.3109401323773876,
                -2.029509207930186
            ]
        },
        {
            "positions": [
                -0.14844332712927852,
                -2.1544644488243883,
                2.364019839668092,
                0.06142064189997609,
                0.2187318782718901,
                -1.9230579245618045
            ]
        },
        {
            "positions": [
                -0.13122332461814504,
                -2.225447267935183,
                2.358696673653827,
                0.16053705189576628,
                0.1265236241663925,
                -1.8166066411934227
            ]
        },
        {
            "positions": [
                -0.11400332210701156,
                -2.2964300870459775,
                2.3533735076395628,
                0.2596534618915567,
                0.03431537006089491,
                -1.710155357825041
            ]
        },
        {
            "positions": [
                -0.0967833195958781,
                -2.3674129061567717,
                2.3480503416252985,
                0.3587698718873469,
                -0.057892884044602466,
                -1.6037040744566595
            ]
        },
        {
            "positions": [
                -0.07956331708474462,
                -2.438395725267566,
                2.3427271756110337,
                0.4578862818831373,
                -0.15010113815010007,
                -1.4972527910882778
            ]
        },
        {
            "positions": [
                -0.06234331457361114,
                -2.5093785443783605,
                2.3374040095967694,
                0.5570026918789274,
                -0.24230939225559767,
                -1.390801507719896
            ]
        },
        {
            "positions": [
                -0.0033984487795373497,
                -2.4630916478555998,
                2.3417018533247886,
                0.4780300177390755,
                -0.17005232832388942,
                -1.5244766569313983
            ]
        },
        {
            "positions": [
                0.05554641701453644,
                -2.4168047513328395,
                2.345999697052808,
                0.39905734359922357,
                -0.09779526439218117,
                -1.6581518061429006
            ]
        },
        {
            "positions": [
                0.11449128280861023,
                -2.370517854810079,
                2.350297540780827,
                0.32008466945937164,
                -0.02553820046047292,
                -1.7918269553544028
            ]
        },
        {
            "positions": [
                0.17343614860268403,
                -2.3242309582873184,
                2.3545953845088463,
                0.24111199531951977,
                0.04671886347123533,
                -1.925502104565905
            ]
        },
        {
            "positions": [
                0.23238101439675785,
                -2.2779440617645577,
                2.3588932282368655,
                0.16213932117966784,
                0.11897592740294355,
                -2.0591772537774076
            ]
        },
        {
            "positions": [
                0.2913258801908316,
                -2.2316571652417974,
                2.3631910719648848,
                0.08316664703981597,
                0.19123299133465183,
                -2.1928524029889096
            ]
        },
        {
            "positions": [
                0.3502707459849054,
                -2.185370268719037,
                2.3674889156929044,
                0.004193972899964149,
                0.26349005526636005,
                -2.326527552200412
            ]
        },
        {
            "positions": [
                0.4092156117789792,
                -2.1390833721962763,
                2.3717867594209237,
                -0.07477870123988783,
                0.3357471191980683,
                -2.460202701411914
            ]
        },
        {
            "positions": [
                0.46816047757305296,
                -2.0927964756735156,
                2.376084603148943,
                -0.1537513753797397,
                0.4080041831297765,
                -2.5938778506234166
            ]
        },
        {
            "positions": [
                0.5271053433671269,
                -2.0465095791507553,
                2.380382446876962,
                -0.2327240495195917,
                0.48026124706148476,
                -2.727552999834919
            ]
        },
        {
            "positions": [
                0.5860502091612005,
                -2.000222682627995,
                2.3846802906049813,
                -0.31169672365944345,
                0.552518310993193,
                -2.861228149046421
            ]
        },
        {
            "positions": [
                0.6449950749552744,
                -1.9539357861052342,
                2.3889781343330005,
                -0.39066939779929544,
                0.6247753749249013,
                -2.994903298257923
            ]
        },
        {
            "positions": [
                0.7039399407493481,
                -1.9076488895824737,
                2.3932759780610198,
                -0.46964207193914737,
                0.6970324388566095,
                -3.1285784474694256
            ]
        }
    ]
}