{
    "goal": {
        "global_pose": {
            "orientation": {
                "w": 0.7031023502349854,
                "x": -0.7110244035720825,
                "y": 0.007748599164187908,
                "z": 0.005598929710686207
            },
            "position": {
                "x": 0.11585023208521307,
                "y": 0.44412534475326537,
                "z": 0.3711530566215515
            }
        },
        "name": "move_to_auspresseinheit_A"
    },
    "id": "SPARS_move_to_auspresseinheit_A_47",
    "joint_names": [
        "shoulder_pan_joint",
        "shoulder_lift_joint",
        "elbow_joint",
        "wrist_1_joint",
        "wrist_2_joint",
        "wrist_3_joint"
    ],
    "metrics": {
        "cart_traj_len": 0.7293270040309083,
        "distance_elbow_joint": 0.07799072506199023,
        "distance_shoulder_lift_joint": 0.6677231253257694,
        "distance_shoulder_pan_joint": 1.0430315084397364,
        "distance_wrist_1_joint": 0.8933425115051514,
        "distance_wrist_2_joint": 0.7358295282173474,
        "distance_wrist_3_joint": 0.30504139300411426,
        "smoothness": 1.8913741759780598,
        "time": 5.053281018,
        "traj_len": 1.9294970307191741,
        "weighted_distance": 2.4417644475429725
    },
    "planner": "SPARS",
    "start": {
        "state": {
            "elbow_joint": 2.4225746658250005,
            "shoulder_lift_joint": -1.3736534386056498,
            "shoulder_pan_joint": -0.3378633547517467,
            "wrist_1_joint": -1.0288598680537169,
            "wrist_2_joint": 1.233022673432363,
            "wrist_3_joint": -3.0940220416140027
        }
    },
    "waypoints": [
        {
            "positions": [
                -0.3378633547517467,
                -1.3736534386056498,
                2.4225746658250005,
                -1.0288598680537169,
                1.233022673432363,
                -3.0940220416140027
            ]
        },
        {
            "positions": [
                -0.21395201668062283,
                -1.448864939436326,
                2.415905548064243,
                -0.9378597450979705,
                1.1544504092286405,
                -3.0772884360158397
            ]
        },
        {
            "positions": [
                -0.09004067860949894,
                -1.524076440267002,
                2.409236430303485,
                -0.8468596221422242,
                1.075878145024918,
                -3.060554830417677
            ]
        },
        {
            "positions": [
                0.033870659461624986,
                -1.5992879410976781,
                2.402567312542728,
                -0.755859499186478,
                0.9973058808211954,
                -3.0438212248195144
            ]
        },
        {
            "positions": [
                0.15778199753274885,
                -1.6744994419283543,
                2.3958981947819704,
                -0.6648593762307317,
                0.9187336166174729,
                -3.0270876192213514
            ]
        },
        {
            "positions": [
                0.2816933356038727,
                -1.7497109427590305,
                2.389229077021213,
                -0.5738592532749853,
                0.8401613524137503,
                -3.0103540136231883
            ]
        },
        {
            "positions": [
                0.4056046736749967,
                -1.8249224435897067,
                2.3825599592604556,
                -0.4828591303192391,
                0.7615890882100277,
                -2.9936204080250257
            ]
        },
        {
            "positions": [
                0.5295160117461206,
                -1.9001339444203826,
                2.375890841499698,
                -0.3918590073634928,
                0.6830168240063051,
                -2.976886802426863
            ]
        },
        {
            "positions": [
                0.6534273498172445,
                -1.9753454452510588,
                2.3692217237389404,
                -0.30085888440774644,
                0.6044445598025826,
                -2.9601531968287
            ]
        },
        {
            "positions": [
                0.6792977517526171,
                -1.9423298859108786,
                2.381540615226905,
                -0.38352964833733694,
                0.6580702670963661,
                -3.0457394709381056
            ]
        },
        {
            "positions": [
                0.7051681536879897,
                -1.9093143265706984,
                2.3938595067148705,
                -0.46620041226692743,
                0.7116959743901495,
                -3.1313257450475116
            ]
        }
    ]
}