{
    "goal": {
        "global_pose": {
            "orientation": {
                "w": 0.7031023502349854,
                "x": -0.7110244035720825,
                "y": 0.007748599164187908,
                "z": 0.005598929710686207
            },
            "position": {
                "x": 0.11585023208521307,
                "y": 0.44412534475326537,
                "z": 0.3711530566215515
            }
        },
        "name": "move_to_auspresseinheit_A"
    },
    "id": "SPARS_move_to_auspresseinheit_A_3",
    "joint_names": [
        "shoulder_pan_joint",
        "shoulder_lift_joint",
        "elbow_joint",
        "wrist_1_joint",
        "wrist_2_joint",
        "wrist_3_joint"
    ],
    "metrics": {
        "cart_traj_len": 0.8898006830376084,
        "distance_elbow_joint": 0.10658440489756948,
        "distance_shoulder_lift_joint": 0.5374173869651853,
        "distance_shoulder_pan_joint": 1.4915132441210084,
        "distance_wrist_1_joint": 0.8933219839622769,
        "distance_wrist_2_joint": 0.5330227007587666,
        "distance_wrist_3_joint": 0.4487626502747064,
        "smoothness": 1.8189528246531863,
        "time": 5.024977691,
        "traj_len": 2.0026538320387557,
        "weighted_distance": 2.51684174239263
    },
    "planner": "SPARS",
    "start": {
        "state": {
            "elbow_joint": 2.4225746658250005,
            "shoulder_lift_joint": -1.3736534386056498,
            "shoulder_pan_joint": -0.3378633547517467,
            "wrist_1_joint": -1.0288598680537169,
            "wrist_2_joint": 1.233022673432363,
            "wrist_3_joint": -3.0940220416140027
        }
    },
    "waypoints": [
        {
            "positions": [
                -0.3378633547517467,
                -1.3736534386056498,
                2.4225746658250005,
                -1.0288598680537169,
                1.233022673432363,
                -3.0940220416140027
            ]
        },
        {
            "positions": [
                -0.45006018830147065,
                -1.3918613031354403,
                2.4428372740628372,
                -1.1150318526727667,
                1.184886206612752,
                -2.991019147606089
            ]
        },
        {
            "positions": [
                -0.5622570218511946,
                -1.410069167665231,
                2.463099882300674,
                -1.2012038372918168,
                1.136749739793141,
                -2.888016253598175
            ]
        },
        {
            "positions": [
                -0.4214659577376879,
                -1.4657360185436314,
                2.455759972476019,
                -1.1210951689891304,
                1.0882219878909694,
                -2.9149892382936056
            ]
        },
        {
            "positions": [
                -0.28067489362418124,
                -1.5214028694220318,
                2.4484200626513637,
                -1.040986500686444,
                1.0396942359887977,
                -2.9419622229890368
            ]
        },
        {
            "positions": [
                -0.13988382951067452,
                -1.5770697203004325,
                2.4410801528267085,
                -0.9608778323837578,
                0.9911664840866261,
                -2.9689352076844675
            ]
        },
        {
            "positions": [
                0.0009072346028321521,
                -1.6327365711788329,
                2.4337402430020534,
                -0.8807691640810715,
                0.9426387321844545,
                -2.9959081923798987
            ]
        },
        {
            "positions": [
                0.141698298716339,
                -1.6884034220572333,
                2.4264003331773987,
                -0.8006604957783852,
                0.8941109802822829,
                -3.0228811770753294
            ]
        },
        {
            "positions": [
                0.2824893628298456,
                -1.7440702729356337,
                2.4190604233527435,
                -0.7205518274756988,
                0.8455832283801114,
                -3.0498541617707606
            ]
        },
        {
            "positions": [
                0.42328042694335233,
                -1.799737123814034,
                2.4117205135280884,
                -0.6404431591730124,
                0.7970554764779396,
                -3.0768271464661914
            ]
        },
        {
            "positions": [
                0.5640714910568589,
                -1.8554039746924347,
                2.404380603703433,
                -0.5603344908703262,
                0.7485277245757681,
                -3.1038001311616226
            ]
        },
        {
            "positions": [
                0.7048625551703658,
                -1.911070825570835,
                2.397040693878778,
                -0.4802258225676398,
                0.6999999726735965,
                -3.1307731158570533
            ]
        }
    ]
}