{
    "goal": {
        "global_pose": {
            "orientation": {
                "w": 0.7047431468963623,
                "x": -0.7094548344612122,
                "y": 0.0024358443915843964,
                "z": -0.0022348060738295317
            },
            "position": {
                "x": 0.6094750761985779,
                "y": 0.3671506643295288,
                "z": 0.19426114857196808
            }
        },
        "name": "move_to_magneteinheit_A"
    },
    "id": "SPARS_move_to_magneteinheit_A_24",
    "joint_names": [
        "shoulder_pan_joint",
        "shoulder_lift_joint",
        "elbow_joint",
        "wrist_1_joint",
        "wrist_2_joint",
        "wrist_3_joint"
    ],
    "metrics": {
        "cart_traj_len": 3.8264354471414683,
        "distance_elbow_joint": 4.549136812976654,
        "distance_shoulder_lift_joint": 0.46448043363916447,
        "distance_shoulder_pan_joint": 4.6255366582350925,
        "distance_wrist_1_joint": 3.493105723719373,
        "distance_wrist_2_joint": 2.2679404172366917,
        "distance_wrist_3_joint": 1.9172303116468394,
        "smoothness": 0.43949100597139906,
        "time": 5.041974423,
        "traj_len": 4.161421675035325,
        "weighted_distance": 5.1877680289025605
    },
    "planner": "SPARS",
    "start": {
        "state": {
            "elbow_joint": -1.9196185241190666,
            "shoulder_lift_joint": -1.2443396400964142,
            "shoulder_pan_joint": 2.6996025414629847,
            "wrist_1_joint": -1.5485510000780065,
            "wrist_2_joint": -1.5709468930060704,
            "wrist_3_joint": 0.4420197071253992
        }
    },
    "waypoints": [
        {
            "positions": [
                2.6996025414629847,
                -1.2443396400964142,
                -1.9196185241190666,
                -1.5485510000780065,
                -1.5709468930060704,
                0.4420197071253992
            ]
        },
        {
            "positions": [
                2.596722527370517,
                -1.2436170414504053,
                -1.798657865437627,
                -1.4644874300822417,
                -1.5178564661237346,
                0.40804829562986844
            ]
        },
        {
            "positions": [
                2.493842513278049,
                -1.2428944428043964,
                -1.6776972067561875,
                -1.3804238600864767,
                -1.4647660392413988,
                0.3740768841343377
            ]
        },
        {
            "positions": [
                2.390962499185581,
                -1.2421718441583876,
                -1.5567365480747477,
                -1.2963602900907119,
                -1.411675612359063,
                0.3401054726388069
            ]
        },
        {
            "positions": [
                2.288082485093113,
                -1.2414492455123787,
                -1.4357758893933081,
                -1.212296720094947,
                -1.3585851854767275,
                0.3061340611432762
            ]
        },
        {
            "positions": [
                2.185202471000645,
                -1.2407266468663696,
                -1.3148152307118686,
                -1.128233150099182,
                -1.3054947585943917,
                0.27216264964774545
            ]
        },
        {
            "positions": [
                2.082322456908177,
                -1.2400040482203607,
                -1.1938545720304288,
                -1.044169580103417,
                -1.252404331712056,
                0.23819123815221468
            ]
        },
        {
            "positions": [
                1.9794424428157091,
                -1.2392814495743518,
                -1.0728939133489892,
                -0.9601060101076522,
                -1.1993139048297201,
                0.20421982665668392
            ]
        },
        {
            "positions": [
                1.8765624287232412,
                -1.238558850928343,
                -0.9519332546675496,
                -0.8760424401118874,
                -1.1462234779473843,
                0.1702484151611532
            ]
        },
        {
            "positions": [
                1.7736824146307733,
                -1.237836252282334,
                -0.8309725959861101,
                -0.7919788701161224,
                -1.0931330510650485,
                0.13627700366562245
            ]
        },
        {
            "positions": [
                1.6708024005383053,
                -1.2371136536363252,
                -0.7100119373046705,
                -0.7079153001203575,
                -1.0400426241827128,
                0.10230559217009172
            ]
        },
        {
            "positions": [
                1.5679223864458371,
                -1.2363910549903163,
                -0.5890512786232307,
                -0.6238517301245926,
                -0.9869521973003771,
                0.06833418067456098
            ]
        },
        {
            "positions": [
                1.4650423723533692,
                -1.2356684563443074,
                -0.46809061994179113,
                -0.5397881601288277,
                -0.9338617704180413,
                0.034362769179030195
            ]
        },
        {
            "positions": [
                1.3621623582609013,
                -1.2349458576982986,
                -0.34712996126035134,
                -0.4557245901330629,
                -0.8807713435357055,
                0.0003913576834994603
            ]
        },
        {
            "positions": [
                1.2592823441684333,
                -1.2342232590522895,
                -0.22616930257891177,
                -0.37166102013729785,
                -0.8276809166533697,
                -0.03358005381203133
            ]
        },
        {
            "positions": [
                1.1564023300759656,
                -1.2335006604062806,
                -0.10520864389747242,
                -0.28759745014153304,
                -0.7745904897710341,
                -0.06755146530756195
            ]
        },
        {
            "positions": [
                1.0535223159834974,
                -1.2327780617602717,
                0.015752014783967372,
                -0.20353388014576823,
                -0.7215000628886983,
                -0.1015228768030928
            ]
        },
        {
            "positions": [
                0.9506423018910295,
                -1.2320554631142628,
                0.13671267346540716,
                -0.1194703101500032,
                -0.6684096360063625,
                -0.13549428829862353
            ]
        },
        {
            "positions": [
                0.8477622877985618,
                -1.231332864468254,
                0.2576733321468465,
                -0.03540674015423839,
                -0.6153192091240268,
                -0.16946569979415427
            ]
        },
        {
            "positions": [
                0.7448822737060938,
                -1.230610265822245,
                0.3786339908282863,
                0.04865682984152642,
                -0.5622287822416911,
                -0.203437111289685
            ]
        },
        {
            "positions": [
                0.6420022596136259,
                -1.2298876671762362,
                0.49959464950972565,
                0.13272039983729145,
                -0.5091383553593554,
                -0.23740852278521574
            ]
        },
        {
            "positions": [
                0.539122245521158,
                -1.2291650685302273,
                0.6205553081911654,
                0.21678396983305626,
                -0.4560479284770196,
                -0.27137993428074647
            ]
        },
        {
            "positions": [
                0.43624223142868956,
                -1.2284424698842182,
                0.7415159668726052,
                0.3008475398288213,
                -0.4029575015946838,
                -0.3053513457762772
            ]
        },
        {
            "positions": [
                0.3333622173362216,
                -1.2277198712382094,
                0.8624766255540446,
                0.3849111098245861,
                -0.349867074712348,
                -0.33932275727180805
            ]
        },
        {
            "positions": [
                0.23048220324375368,
                -1.2269972725922005,
                0.9834372842354844,
                0.4689746798203511,
                -0.29677664783001223,
                -0.3732941687673388
            ]
        },
        {
            "positions": [
                0.12760218915128574,
                -1.2262746739461916,
                1.1043979429169242,
                0.5530382498161159,
                -0.24368622094767645,
                -0.4072655802628695
            ]
        },
        {
            "positions": [
                0.024722175058817797,
                -1.2255520753001827,
                1.225358601598364,
                0.6371018198118807,
                -0.19059579406534066,
                -0.44123699175840025
            ]
        },
        {
            "positions": [
                -0.07815783903365014,
                -1.2248294766541739,
                1.3463192602798033,
                0.721165389807646,
                -0.13750536718300488,
                -0.475208403253931
            ]
        },
        {
            "positions": [
                -0.1810378531261181,
                -1.224106878008165,
                1.467279918961243,
                0.8052289598034108,
                -0.0844149403006691,
                -0.5091798147494618
            ]
        },
        {
            "positions": [
                -0.28391786721858603,
                -1.223384279362156,
                1.588240577642683,
                0.8892925297991756,
                -0.03132451341833331,
                -0.5431512262449926
            ]
        },
        {
            "positions": [
                -0.3867978813110535,
                -1.2226616807161472,
                1.7092012363241218,
                0.9733560997949404,
                0.02176591346400225,
                -0.5771226377405231
            ]
        },
        {
            "positions": [
                -0.4896778954035219,
                -1.2219390820701381,
                1.8301618950055616,
                1.0574196697907052,
                0.07485634034633804,
                -0.611094049236054
            ]
        },
        {
            "positions": [
                -0.5925579094959899,
                -1.2212164834241293,
                1.9511225536870014,
                1.14148323978647,
                0.12794676722867382,
                -0.6450654607315848
            ]
        },
        {
            "positions": [
                -0.6954379235884578,
                -1.2204938847781204,
                2.072083212368441,
                1.2255468097822348,
                0.1810371941110096,
                -0.6790368722271155
            ]
        },
        {
            "positions": [
                -0.7983179376809257,
                -1.2197712861321115,
                2.193043871049881,
                1.309610379778,
                0.2341276209933454,
                -0.7130082837226462
            ]
        },
        {
            "positions": [
                -0.9011979517733939,
                -1.2190486874861026,
                2.31400452973132,
                1.393673949773765,
                0.2872180478756813,
                -0.746979695218177
            ]
        },
        {
            "positions": [
                -0.7873383778846478,
                -1.1702498562606745,
                2.2789474453839573,
                1.4548829246479429,
                0.24168743939179904,
                -0.6660651497400367
            ]
        },
        {
            "positions": [
                -0.6734788039959017,
                -1.1214510250352465,
                2.243890361036595,
                1.5160918995221206,
                0.19615683090791683,
                -0.5851506042618964
            ]
        },
        {
            "positions": [
                -0.5596192301071555,
                -1.0726521938098184,
                2.2088332766892322,
                1.5773008743962986,
                0.15062622242403462,
                -0.5042360587837561
            ]
        },
        {
            "positions": [
                -0.4457596562184094,
                -1.0238533625843902,
                2.1737761923418697,
                1.6385098492704764,
                0.10509561394015238,
                -0.4233215133056158
            ]
        },
        {
            "positions": [
                -0.33190008232966317,
                -0.9750545313589621,
                2.138719107994507,
                1.6997188241446544,
                0.05956500545627014,
                -0.34240696782747543
            ]
        },
        {
            "positions": [
                -0.21804050844091716,
                -0.9262557001335341,
                2.1036620236471446,
                1.7609277990188321,
                0.014034396972387952,
                -0.2614924223493352
            ]
        },
        {
            "positions": [
                -0.10418093455217092,
                -0.8774568689081059,
                2.068604939299782,
                1.82213677389301,
                -0.03149621151149434,
                -0.18057787687119486
            ]
        },
        {
            "positions": [
                0.00967863933657509,
                -0.8286580376826778,
                2.0335478549524195,
                1.8833457487671879,
                -0.07702681999537653,
                -0.09966333139305461
            ]
        },
        {
            "positions": [
                0.12353821322532128,
                -0.7798592064572497,
                1.998490770605057,
                1.9445547236413658,
                -0.12255742847925875,
                -0.018748785914914263
            ]
        }
    ]
}