{
    "goal": {
        "global_pose": {
            "orientation": {
                "w": -0.4816463035849501,
                "x": 0.5182115481033762,
                "y": 0.4908360881923453,
                "z": -0.5084816262002911
            },
            "position": {
                "x": -0.8240239810943604,
                "y": 0.19912469901144506,
                "z": 0.16403168439865112
            }
        },
        "name": "move_to_storage_D"
    },
    "id": "SPARS_move_to_storage_D_68",
    "joint_names": [
        "shoulder_pan_joint",
        "shoulder_lift_joint",
        "elbow_joint",
        "wrist_1_joint",
        "wrist_2_joint",
        "wrist_3_joint"
    ],
    "metrics": {
        "cart_traj_len": 3.8698448930080094,
        "distance_elbow_joint": 4.21140546479633,
        "distance_shoulder_lift_joint": 1.3307624932385487,
        "distance_shoulder_pan_joint": 2.8124867277096954,
        "distance_wrist_1_joint": 5.395826600481374,
        "distance_wrist_2_joint": 1.9481519925962847,
        "distance_wrist_3_joint": 3.362469645141241,
        "smoothness": 0.20948451386482633,
        "time": 5.054112587,
        "traj_len": 4.365902303529418,
        "weighted_distance": 5.7558683799513375
    },
    "planner": "SPARS",
    "start": {
        "state": {
            "elbow_joint": -2.384821988534728,
            "shoulder_lift_joint": -2.2788054721415256,
            "shoulder_pan_joint": -0.1854694642142757,
            "wrist_1_joint": 1.4845938289331202,
            "wrist_2_joint": 0.17898776772866878,
            "wrist_3_joint": 0.037105688729662994
        }
    },
    "waypoints": [
        {
            "positions": [
                -0.1854694642142757,
                -2.2788054721415256,
                -2.384821988534728,
                1.4845938289331202,
                0.17898776772866878,
                0.037105688729662994
            ]
        },
        {
            "positions": [
                -0.11490281684312002,
                -2.2182230363061617,
                -2.3796487117924148,
                1.398505696889055,
                0.13064668689418546,
                0.009072156424608346
            ]
        },
        {
            "positions": [
                -0.04433616947196434,
                -2.1576406004707978,
                -2.374475435050102,
                1.3124175648449896,
                0.08230560605970214,
                -0.018961375880446302
            ]
        },
        {
            "positions": [
                0.026230477899191335,
                -2.097058164635434,
                -2.369302158307789,
                1.2263294328009242,
                0.03396452522521881,
                -0.04699490818550095
            ]
        },
        {
            "positions": [
                0.09679712527034703,
                -2.03647572880007,
                -2.3641288815654757,
                1.140241300756859,
                -0.014376555609264513,
                -0.0750284404905556
            ]
        },
        {
            "positions": [
                0.1778367017485813,
                -1.9958722948657188,
                -2.317496257193299,
                1.0060009426741143,
                -0.02763573079339244,
                0.0017160679397914824
            ]
        },
        {
            "positions": [
                0.2588762782268156,
                -1.9552688609313678,
                -2.270863632821122,
                0.8717605845913696,
                -0.040894905977520365,
                0.07846057637013856
            ]
        },
        {
            "positions": [
                0.33991585470504987,
                -1.9146654269970167,
                -2.224231008448945,
                0.7375202265086249,
                -0.05415408116164829,
                0.15520508480048564
            ]
        },
        {
            "positions": [
                0.42095543118328416,
                -1.8740619930626656,
                -2.1775983840767683,
                0.6032798684258802,
                -0.06741325634577622,
                0.23194959323083272
            ]
        },
        {
            "positions": [
                0.5019950076615184,
                -1.8334585591283146,
                -2.1309657597045915,
                0.4690395103431355,
                -0.08067243152990415,
                0.30869410166117983
            ]
        },
        {
            "positions": [
                0.5830345841397527,
                -1.7928551251939635,
                -2.084333135332414,
                0.3347991522603909,
                -0.09393160671403207,
                0.3854386100915269
            ]
        },
        {
            "positions": [
                0.6640741606179869,
                -1.7522516912596124,
                -2.0377005109602373,
                0.20055879417764622,
                -0.10719078189815999,
                0.4621831185218739
            ]
        },
        {
            "positions": [
                0.7451137370962212,
                -1.7116482573252614,
                -1.9910678865880604,
                0.0663184360949014,
                -0.12044995708228792,
                0.5389276269522211
            ]
        },
        {
            "positions": [
                0.8261533135744554,
                -1.6710448233909103,
                -1.9444352622158836,
                -0.06792192198784308,
                -0.13370913226641584,
                0.615672135382568
            ]
        },
        {
            "positions": [
                0.9071928900526898,
                -1.6304413894565593,
                -1.8978026378437067,
                -0.202162280070588,
                -0.1469683074505438,
                0.6924166438129152
            ]
        },
        {
            "positions": [
                0.988232466530924,
                -1.5898379555222082,
                -1.8511700134715299,
                -0.3364026381533325,
                -0.16022748263467168,
                0.7691611522432622
            ]
        },
        {
            "positions": [
                1.0692720430091585,
                -1.5492345215878571,
                -1.804537389099353,
                -0.4706429962360772,
                -0.17348665781879963,
                0.8459056606736094
            ]
        },
        {
            "positions": [
                1.1503116194873926,
                -1.508631087653506,
                -1.7579047647271762,
                -0.6048833543188219,
                -0.18674583300292755,
                0.9226501691039564
            ]
        },
        {
            "positions": [
                1.2313511959656267,
                -1.468027653719155,
                -1.7112721403549993,
                -0.7391237124015666,
                -0.20000500818705547,
                0.9993946775343033
            ]
        },
        {
            "positions": [
                1.312390772443861,
                -1.4274242197848042,
                -1.6646395159828224,
                -0.8733640704843113,
                -0.21326418337118339,
                1.0761391859646503
            ]
        },
        {
            "positions": [
                1.3934303489220954,
                -1.3868207858504529,
                -1.6180068916106451,
                -1.0076044285670562,
                -0.22652335855531133,
                1.1528836943949976
            ]
        },
        {
            "positions": [
                1.4744699254003297,
                -1.3462173519161018,
                -1.5713742672384683,
                -1.1418447866498007,
                -0.23978253373943925,
                1.2296282028253445
            ]
        },
        {
            "positions": [
                1.5555095018785638,
                -1.305613917981751,
                -1.5247416428662914,
                -1.2760851447325452,
                -0.25304170892356714,
                1.3063727112556915
            ]
        },
        {
            "positions": [
                1.6365490783567982,
                -1.2650104840474,
                -1.4781090184941146,
                -1.4103255028152897,
                -0.26630088410769504,
                1.3831172196860386
            ]
        },
        {
            "positions": [
                1.7175886548350325,
                -1.2244070501130486,
                -1.4314763941219377,
                -1.544565860898035,
                -0.27956005929182304,
                1.459861728116386
            ]
        },
        {
            "positions": [
                1.7986282313132669,
                -1.1838036161786976,
                -1.3848437697497609,
                -1.6788062189807795,
                -0.29281923447595093,
                1.5366062365467328
            ]
        },
        {
            "positions": [
                1.879667807791501,
                -1.1432001822443467,
                -1.338211145377584,
                -1.813046577063524,
                -0.3060784096600788,
                1.6133507449770799
            ]
        },
        {
            "positions": [
                1.9607073842697353,
                -1.1025967483099957,
                -1.2915785210054072,
                -1.9472869351462685,
                -0.3193375848442068,
                1.690095253407427
            ]
        },
        {
            "positions": [
                2.04174696074797,
                -1.0619933143756444,
                -1.24494589663323,
                -2.0815272932290134,
                -0.3325967600283347,
                1.7668397618377742
            ]
        },
        {
            "positions": [
                2.122786537226204,
                -1.0213898804412935,
                -1.1983132722610532,
                -2.2157676513117583,
                -0.3458559352124627,
                1.843584270268121
            ]
        },
        {
            "positions": [
                2.203826113704438,
                -0.9807864465069425,
                -1.1516806478888764,
                -2.350008009394503,
                -0.3591151103965906,
                1.9203287786984682
            ]
        },
        {
            "positions": [
                2.2249856711939873,
                -0.9824236198871408,
                -1.0027674416813523,
                -2.271946771286815,
                -0.2886126546730393,
                1.983077693535068
            ]
        },
        {
            "positions": [
                2.2461452286835364,
                -0.984060793267339,
                -0.8538542354738283,
                -2.193885533179128,
                -0.21811019894948805,
                2.045826608371668
            ]
        },
        {
            "positions": [
                2.2673047861730855,
                -0.9856979666475372,
                -0.7049410292663045,
                -2.11582429507144,
                -0.14760774322593676,
                2.108575523208268
            ]
        },
        {
            "positions": [
                2.288464343662634,
                -0.9873351400277355,
                -0.5560278230587804,
                -2.0377630569637524,
                -0.07710528750238549,
                2.1713244380448677
            ]
        },
        {
            "positions": [
                2.3096239011521833,
                -0.9889723134079338,
                -0.4071146168512565,
                -1.959701818856065,
                -0.006602831778834195,
                2.234073352881468
            ]
        },
        {
            "positions": [
                2.3307834586417324,
                -0.990609486788132,
                -0.2582014106437326,
                -1.8816405807483774,
                0.0638996239447171,
                2.296822267718068
            ]
        },
        {
            "positions": [
                2.3519430161312815,
                -0.9922466601683302,
                -0.10928820443620868,
                -1.8035793426406899,
                0.13440207966826834,
                2.3595711825546677
            ]
        },
        {
            "positions": [
                2.3731025736208307,
                -0.9938838335485285,
                0.03962500177131556,
                -1.7255181045330024,
                0.20490453539181963,
                2.4223200973912675
            ]
        },
        {
            "positions": [
                2.3942621311103798,
                -0.9955210069287268,
                0.18853820797883936,
                -1.6474568664253146,
                0.2754069911153709,
                2.485069012227868
            ]
        },
        {
            "positions": [
                2.4154216885999285,
                -0.997158180308925,
                0.3374514141863634,
                -1.5693956283176271,
                0.3459094468389222,
                2.5478179270644676
            ]
        },
        {
            "positions": [
                2.4365812460894776,
                -0.9987953536891232,
                0.4863646203938874,
                -1.4913343902099396,
                0.4164119025624735,
                2.6105668419010675
            ]
        },
        {
            "positions": [
                2.4577408035790267,
                -1.0004325270693215,
                0.6352778266014112,
                -1.413273152102252,
                0.4869143582860248,
                2.6733157567376673
            ]
        },
        {
            "positions": [
                2.478900361068576,
                -1.0020697004495198,
                0.7841910328089354,
                -1.3352119139945644,
                0.5574168140095761,
                2.736064671574267
            ]
        },
        {
            "positions": [
                2.500059918558125,
                -1.0037068738297181,
                0.933104239016459,
                -1.257150675886877,
                0.6279192697331273,
                2.7988135864108674
            ]
        },
        {
            "positions": [
                2.521219476047674,
                -1.0053440472099162,
                1.0820174452239832,
                -1.1790894377791892,
                0.6984217254566787,
                2.8615625012474672
            ]
        },
        {
            "positions": [
                2.542379033537223,
                -1.0069812205901145,
                1.2309306514315075,
                -1.1010281996715017,
                0.7689241811802299,
                2.924311416084067
            ]
        },
        {
            "positions": [
                2.563538591026772,
                -1.0086183939703128,
                1.3798438576390313,
                -1.0229669615638142,
                0.8394266369037813,
                2.9870603309206674
            ]
        },
        {
            "positions": [
                2.584698148516321,
                -1.010255567350511,
                1.528757063846555,
                -0.9449057234561264,
                0.9099290926273325,
                3.0498092457572668
            ]
        },
        {
            "positions": [
                2.60585770600587,
                -1.0118927407307092,
                1.6776702700540789,
                -0.8668444853484392,
                0.9804315483508836,
                3.112558160593867
            ]
        },
        {
            "positions": [
                2.627017263495419,
                -1.0135299141109075,
                1.8265834762616033,
                -0.7887832472407516,
                1.050934004074435,
                3.175307075430467
            ]
        }
    ]
}