{
    "goal": {
        "global_pose": {
            "orientation": {
                "w": -0.4816463035849501,
                "x": 0.5182115481033762,
                "y": 0.4908360881923453,
                "z": -0.5084816262002911
            },
            "position": {
                "x": -0.8240239810943604,
                "y": 0.19912469901144506,
                "z": 0.16403168439865112
            }
        },
        "name": "move_to_storage_D"
    },
    "id": "SPARS_move_to_storage_D_45",
    "joint_names": [
        "shoulder_pan_joint",
        "shoulder_lift_joint",
        "elbow_joint",
        "wrist_1_joint",
        "wrist_2_joint",
        "wrist_3_joint"
    ],
    "metrics": {
        "cart_traj_len": 3.91824132377365,
        "distance_elbow_joint": 4.213245506964923,
        "distance_shoulder_lift_joint": 1.472302437725331,
        "distance_shoulder_pan_joint": 2.8136619565408907,
        "distance_wrist_1_joint": 3.45550663965485,
        "distance_wrist_2_joint": 0.9858157793829841,
        "distance_wrist_3_joint": 3.3449922231397062,
        "smoothness": 0.220786591912046,
        "time": 5.051274667,
        "traj_len": 4.035532745921991,
        "weighted_distance": 5.236108422170605
    },
    "planner": "SPARS",
    "start": {
        "state": {
            "elbow_joint": -2.384821988534728,
            "shoulder_lift_joint": -2.2788054721415256,
            "shoulder_pan_joint": -0.1854694642142757,
            "wrist_1_joint": 1.4845938289331202,
            "wrist_2_joint": 0.17898776772866878,
            "wrist_3_joint": 0.037105688729662994
        }
    },
    "waypoints": [
        {
            "positions": [
                -0.1854694642142757,
                -2.2788054721415256,
                -2.384821988534728,
                1.4845938289331202,
                0.17898776772866878,
                0.037105688729662994
            ]
        },
        {
            "positions": [
                -0.12309456897271623,
                -2.1989540306273394,
                -2.3630434140009453,
                1.4618170628754306,
                0.12149429031219033,
                -0.061207804148901424
            ]
        },
        {
            "positions": [
                -0.0362725862339085,
                -2.1559981887146606,
                -2.256491971920094,
                1.3668445471776325,
                0.13262802709627375,
                -0.020288128443030948
            ]
        },
        {
            "positions": [
                0.05054939650489923,
                -2.113042346801982,
                -2.1499405298392427,
                1.2718720314798344,
                0.1437617638803572,
                0.020631547262839528
            ]
        },
        {
            "positions": [
                0.137371379243707,
                -2.070086504889303,
                -2.043389087758391,
                1.176899515782036,
                0.15489550066444063,
                0.061551222968710004
            ]
        },
        {
            "positions": [
                0.2241933619825147,
                -2.0271306629766244,
                -1.93683764567754,
                1.081927000084238,
                0.16602923744852405,
                0.10247089867458048
            ]
        },
        {
            "positions": [
                0.3110153447213224,
                -1.9841748210639456,
                -1.830286203596689,
                0.98695448438644,
                0.17716297423260746,
                0.14339057438045094
            ]
        },
        {
            "positions": [
                0.39783732746013023,
                -1.9412189791512668,
                -1.7237347615158374,
                0.8919819686886418,
                0.1882967110166909,
                0.18431025008632143
            ]
        },
        {
            "positions": [
                0.48465931019893793,
                -1.898263137238588,
                -1.6171833194349863,
                0.7970094529908437,
                0.19943044780077435,
                0.22522992579219187
            ]
        },
        {
            "positions": [
                0.5714812929377456,
                -1.8553072953259093,
                -1.5106318773541347,
                0.7020369372930456,
                0.21056418458485776,
                0.2661496014980624
            ]
        },
        {
            "positions": [
                0.6583032756765533,
                -1.8123514534132306,
                -1.4040804352732836,
                0.6070644215952475,
                0.22169792136894118,
                0.30706927720393284
            ]
        },
        {
            "positions": [
                0.745125258415361,
                -1.7693956115005518,
                -1.2975289931924323,
                0.5120919058974494,
                0.2328316581530246,
                0.3479889529098033
            ]
        },
        {
            "positions": [
                0.8319472411541687,
                -1.726439769587873,
                -1.190977551111581,
                0.4171193901996513,
                0.24396539493710803,
                0.38890862861567377
            ]
        },
        {
            "positions": [
                0.9187692238929767,
                -1.683483927675194,
                -1.0844261090307294,
                0.322146874501853,
                0.2550991317211915,
                0.4298283043215443
            ]
        },
        {
            "positions": [
                1.0055912066317843,
                -1.6405280857625153,
                -0.9778746669498783,
                0.2271743588040549,
                0.2662328685052749,
                0.47074798002741475
            ]
        },
        {
            "positions": [
                1.092413189370592,
                -1.5975722438498365,
                -0.871323224869027,
                0.13220184310625682,
                0.2773666052893583,
                0.5116676557332851
            ]
        },
        {
            "positions": [
                1.1792351721093997,
                -1.5546164019371578,
                -0.7647717827881757,
                0.037229327408458746,
                0.2885003420734418,
                0.5525873314391556
            ]
        },
        {
            "positions": [
                1.2660571548482074,
                -1.511660560024479,
                -0.6582203407073244,
                -0.05774318828933933,
                0.29963407885752513,
                0.5935070071450261
            ]
        },
        {
            "positions": [
                1.352879137587015,
                -1.4687047181118003,
                -0.5516688986264731,
                -0.1527157039871374,
                0.3107678156416086,
                0.6344266828508967
            ]
        },
        {
            "positions": [
                1.4397011203258228,
                -1.4257488761991215,
                -0.44511745654562196,
                -0.24768821968493548,
                0.321901552425692,
                0.6753463585567672
            ]
        },
        {
            "positions": [
                1.5265231030646305,
                -1.3827930342864427,
                -0.3385660144647704,
                -0.34266073538273356,
                0.33303528920977543,
                0.7162660342626375
            ]
        },
        {
            "positions": [
                1.6133450858034382,
                -1.339837192373764,
                -0.23201457238391932,
                -0.43763325108053186,
                0.3441690259938589,
                0.757185709968508
            ]
        },
        {
            "positions": [
                1.7001670685422459,
                -1.2968813504610852,
                -0.12546313030306822,
                -0.5326057667783299,
                0.35530276277794226,
                0.7981053856743785
            ]
        },
        {
            "positions": [
                1.7869890512810536,
                -1.2539255085484065,
                -0.01891168822221667,
                -0.627578282476128,
                0.36643649956202573,
                0.839025061380249
            ]
        },
        {
            "positions": [
                1.8738110340198617,
                -1.2109696666357275,
                0.08763975385863487,
                -0.7225507981739265,
                0.3775702363461092,
                0.8799447370861195
            ]
        },
        {
            "positions": [
                1.9606330167586694,
                -1.1680138247230487,
                0.19419119593948642,
                -0.8175233138717246,
                0.3887039731301926,
                0.92086441279199
            ]
        },
        {
            "positions": [
                2.0474549994974773,
                -1.12505798281037,
                0.3007426380203375,
                -0.9124958295695227,
                0.39983770991427603,
                0.9617840884978603
            ]
        },
        {
            "positions": [
                2.134276982236285,
                -1.0821021408976912,
                0.4072940801011886,
                -1.0074683452673208,
                0.41097144669835944,
                1.0027037642037309
            ]
        },
        {
            "positions": [
                2.2210989649750927,
                -1.0391462989850124,
                0.5138455221820402,
                -1.1024408609651188,
                0.42210518348244286,
                1.0436234399096014
            ]
        },
        {
            "positions": [
                2.3079209477139004,
                -0.9961904570723337,
                0.6203969642628913,
                -1.197413376662917,
                0.43323892026652633,
                1.0845431156154717
            ]
        },
        {
            "positions": [
                2.394742930452708,
                -0.9532346151596549,
                0.7269484063437428,
                -1.292385892360715,
                0.44437265705060974,
                1.1254627913213422
            ]
        },
        {
            "positions": [
                2.481564913191516,
                -0.9102787732469763,
                0.8334998484245939,
                -1.387358408058513,
                0.45550639383469316,
                1.1663824670272127
            ]
        },
        {
            "positions": [
                2.493783878119441,
                -0.9189267514828747,
                0.9164101542583939,
                -1.338728874503245,
                0.5050322437050268,
                1.3346398386176317
            ]
        },
        {
            "positions": [
                2.5060028430473658,
                -0.9275747297187733,
                0.9993204600921939,
                -1.2900993409479768,
                0.5545580935753602,
                1.5028972102080507
            ]
        },
        {
            "positions": [
                2.5182218079752907,
                -0.9362227079546718,
                1.082230765925994,
                -1.2414698073927088,
                0.6040839434456938,
                1.6711545817984697
            ]
        },
        {
            "positions": [
                2.5304407729032157,
                -0.9448706861905702,
                1.1651410717597939,
                -1.1928402738374406,
                0.6536097933160274,
                1.8394119533888886
            ]
        },
        {
            "positions": [
                2.5426597378311406,
                -0.9535186644264687,
                1.248051377593594,
                -1.1442107402821726,
                0.703135643186361,
                2.0076693249793074
            ]
        },
        {
            "positions": [
                2.5548787027590656,
                -0.9621666426623672,
                1.330961683427394,
                -1.0955812067269046,
                0.7526614930566946,
                2.175926696569727
            ]
        },
        {
            "positions": [
                2.56709766768699,
                -0.9708146208982658,
                1.413871989261194,
                -1.0469516731716364,
                0.8021873429270281,
                2.3441840681601454
            ]
        },
        {
            "positions": [
                2.579316632614915,
                -0.9794625991341642,
                1.4967822950949938,
                -0.9983221396163684,
                0.8517131927973617,
                2.5124414397505648
            ]
        },
        {
            "positions": [
                2.59153559754284,
                -0.9881105773700627,
                1.579692600928794,
                -0.9496926060611002,
                0.9012390426676953,
                2.6806988113409833
            ]
        },
        {
            "positions": [
                2.603754562470765,
                -0.9967585556059613,
                1.662602906762594,
                -0.9010630725058322,
                0.9507648925380288,
                2.8489561829314027
            ]
        },
        {
            "positions": [
                2.61597352739869,
                -1.0054065338418596,
                1.7455132125963941,
                -0.8524335389505641,
                1.0002907424083625,
                3.0172135545218213
            ]
        },
        {
            "positions": [
                2.628192492326615,
                -1.0140545120777582,
                1.828423518430194,
                -0.803804005395296,
                1.049816592278696,
                3.1854709261122407
            ]
        }
    ]
}