{
    "goal": {
        "global_pose": {
            "orientation": {
                "w": -0.4816463035849501,
                "x": 0.5182115481033762,
                "y": 0.4908360881923453,
                "z": -0.5084816262002911
            },
            "position": {
                "x": -0.8240239810943604,
                "y": -0.300875300988555,
                "z": 0.16403168439865112
            }
        },
        "name": "move_to_storage_C"
    },
    "id": "SPARS_move_to_storage_C_98",
    "joint_names": [
        "shoulder_pan_joint",
        "shoulder_lift_joint",
        "elbow_joint",
        "wrist_1_joint",
        "wrist_2_joint",
        "wrist_3_joint"
    ],
    "metrics": {
        "cart_traj_len": 0.5760426204639189,
        "distance_elbow_joint": 0.25386407926655785,
        "distance_shoulder_lift_joint": 0.1883029531013648,
        "distance_shoulder_pan_joint": 0.4942128093536904,
        "distance_wrist_1_joint": 0.06427963410378701,
        "distance_wrist_2_joint": 1.069422431058594,
        "distance_wrist_3_joint": 0.06911641549688019,
        "smoothness": 2.5376526478085547e-16,
        "time": 5.041200535000001,
        "traj_len": 1.4625998503968451,
        "weighted_distance": 1.8469253418958265
    },
    "planner": "SPARS",
    "start": {
        "state": {
            "elbow_joint": 2.010868314990456,
            "shoulder_lift_joint": -1.1634956873337592,
            "shoulder_pan_joint": -2.4736205022346125,
            "wrist_1_joint": -0.8367026794202681,
            "wrist_2_joint": 0.6746043897044499,
            "wrist_3_joint": -3.1496632123970403
        }
    },
    "waypoints": [
        {
            "positions": [
                -2.4736205022346125,
                -1.1634956873337592,
                2.010868314990456,
                -0.8367026794202681,
                0.6746043897044499,
                -3.1496632123970403
            ]
        },
        {
            "positions": [
                -2.555989303793561,
                -1.132111861816865,
                1.968557635112696,
                -0.825989407069637,
                0.8528414615475489,
                -3.1381438098142267
            ]
        },
        {
            "positions": [
                -2.638358105352509,
                -1.100728036299971,
                1.9262469552349366,
                -0.8152761347190057,
                1.031078533390648,
                -3.1266244072314135
            ]
        },
        {
            "positions": [
                -2.720726906911458,
                -1.0693442107830768,
                1.883936275357177,
                -0.8045628623683746,
                1.2093156052337468,
                -3.1151050046486004
            ]
        },
        {
            "positions": [
                -2.8030957084704062,
                -1.0379603852661827,
                1.8416255954794172,
                -0.7938495900177435,
                1.387552677076846,
                -3.103585602065787
            ]
        },
        {
            "positions": [
                -2.8854645100293546,
                -1.0065765597492886,
                1.7993149156016577,
                -0.7831363176671122,
                1.5657897489199448,
                -3.0920661994829732
            ]
        },
        {
            "positions": [
                -2.967833311588303,
                -0.9751927342323944,
                1.757004235723898,
                -0.7724230453164811,
                1.7440268207630438,
                -3.08054679690016
            ]
        }
    ]
}