{
    "goal": {
        "global_pose": {
            "orientation": {
                "w": -0.00223480608172531,
                "x": 0.0024358444001904467,
                "y": 0.7094548369677653,
                "z": -0.704743149386269
            },
            "position": {
                "x": -0.37947507619857795,
                "y": -0.6371506643295288,
                "z": 0.19426114857196808
            }
        },
        "name": "move_to_magneteinheit_C"
    },
    "id": "SPARS_move_to_magneteinheit_C_47",
    "joint_names": [
        "shoulder_pan_joint",
        "shoulder_lift_joint",
        "elbow_joint",
        "wrist_1_joint",
        "wrist_2_joint",
        "wrist_3_joint"
    ],
    "metrics": {
        "cart_traj_len": 2.2602191355991255,
        "distance_elbow_joint": 0.29632172265878287,
        "distance_shoulder_lift_joint": 1.591341411990083,
        "distance_shoulder_pan_joint": 2.709171171399265,
        "distance_wrist_1_joint": 1.1773273329581437,
        "distance_wrist_2_joint": 3.121390601701717,
        "distance_wrist_3_joint": 0.6489644423119065,
        "smoothness": 1.0886346985469415,
        "time": 5.048063732999999,
        "traj_len": 3.08942012083496,
        "weighted_distance": 3.891164800198466
    },
    "planner": "SPARS",
    "start": {
        "state": {
            "elbow_joint": 1.9565354010623817,
            "shoulder_lift_joint": -1.4165861575791021,
            "shoulder_pan_joint": -1.6717766225146293,
            "wrist_1_joint": -0.5286633292919765,
            "wrist_2_joint": 1.472756589071564,
            "wrist_3_joint": -3.1238370188695823
        }
    },
    "waypoints": [
        {
            "positions": [
                -1.6717766225146293,
                -1.4165861575791021,
                1.9565354010623817,
                -0.5286633292919765,
                1.472756589071564,
                -3.1238370188695823
            ]
        },
        {
            "positions": [
                -1.5985169912585406,
                -1.4680732769058327,
                1.9701772714449912,
                -0.586539558169778,
                1.3215299142544041,
                -3.099698058822148
            ]
        },
        {
            "positions": [
                -1.5252573600024517,
                -1.5195603962325632,
                1.9838191418276006,
                -0.6444157870475794,
                1.1703032394372443,
                -3.075559098774714
            ]
        },
        {
            "positions": [
                -1.451997728746363,
                -1.5710475155592938,
                1.99746101221021,
                -0.7022920159253809,
                1.0190765646200848,
                -3.0514201387272797
            ]
        },
        {
            "positions": [
                -1.3787380974902743,
                -1.6225346348860243,
                2.0111028825928194,
                -0.7601682448031823,
                0.867849889802925,
                -3.027281178679845
            ]
        },
        {
            "positions": [
                -1.3054784662341854,
                -1.6740217542127551,
                2.024744752975429,
                -0.8180444736809839,
                0.7166232149857653,
                -3.003142218632411
            ]
        },
        {
            "positions": [
                -1.2322188349780967,
                -1.7255088735394857,
                2.0383866233580386,
                -0.8759207025587854,
                0.5653965401686055,
                -2.9790032585849766
            ]
        },
        {
            "positions": [
                -1.158959203722008,
                -1.7769959928662162,
                2.052028493740648,
                -0.9337969314365868,
                0.41416986535144584,
                -2.9548642985375424
            ]
        },
        {
            "positions": [
                -1.085699572465919,
                -1.8284831121929468,
                2.065670364123257,
                -0.9916731603143883,
                0.26294319053428605,
                -2.930725338490108
            ]
        },
        {
            "positions": [
                -1.0124399412098306,
                -1.8799702315196773,
                2.079312234505867,
                -1.0495493891921899,
                0.11171651571712649,
                -2.906586378442674
            ]
        },
        {
            "positions": [
                -0.9391803099537416,
                -1.931457350846408,
                2.0929541048884763,
                -1.1074256180699913,
                -0.039510159100033304,
                -2.8824474183952393
            ]
        },
        {
            "positions": [
                -0.8659206786976529,
                -1.9829444701731385,
                2.1065959752710857,
                -1.1653018469477927,
                -0.1907368339171931,
                -2.858308458347805
            ]
        },
        {
            "positions": [
                -0.7926610474415641,
                -2.034431589499869,
                2.1202378456536954,
                -1.2231780758255943,
                -0.3419635087343529,
                -2.834169498300371
            ]
        },
        {
            "positions": [
                -0.7194014161854754,
                -2.0859187088265996,
                2.1338797160363048,
                -1.2810543047033958,
                -0.49319018355151245,
                -2.8100305382529367
            ]
        },
        {
            "positions": [
                -0.8658010799413179,
                -2.009084637098051,
                2.1239649320625666,
                -1.245642941574502,
                -0.3969031977949591,
                -2.8379603683942083
            ]
        },
        {
            "positions": [
                -1.0122007436971605,
                -1.932250565369502,
                2.114050148088828,
                -1.2102315784456084,
                -0.3006162120384057,
                -2.8658901985354803
            ]
        },
        {
            "positions": [
                -1.1586004074530032,
                -1.8554164936409532,
                2.10413536411509,
                -1.1748202153167147,
                -0.20432922628185235,
                -2.893820028676752
            ]
        },
        {
            "positions": [
                -1.3050000712088456,
                -1.7785824219124045,
                2.0942205801413514,
                -1.139408852187821,
                -0.10804224052529898,
                -2.9217498588180235
            ]
        },
        {
            "positions": [
                -1.4513997349646885,
                -1.7017483501838555,
                2.0843057961676132,
                -1.1039974890589273,
                -0.011755254768745615,
                -2.9496796889592956
            ]
        },
        {
            "positions": [
                -1.597799398720531,
                -1.6249142784553068,
                2.0743910121938747,
                -1.0685861259300335,
                0.08453173098780775,
                -2.977609519100567
            ]
        },
        {
            "positions": [
                -1.7441990624763737,
                -1.548080206726758,
                2.0644762282201365,
                -1.0331747628011398,
                0.18081871674436112,
                -3.0055393492418387
            ]
        },
        {
            "positions": [
                -1.8905987262322161,
                -1.4712461349982093,
                2.0545614442463984,
                -0.9977633996722461,
                0.2771057025009145,
                -3.033469179383111
            ]
        },
        {
            "positions": [
                -2.036998389988059,
                -1.3944120632696604,
                2.04464666027266,
                -0.9623520365433524,
                0.37339268825746785,
                -3.0613990095243824
            ]
        },
        {
            "positions": [
                -2.1833980537439013,
                -1.3175779915411114,
                2.0347318762989217,
                -0.9269406734144587,
                0.4696796740140212,
                -3.089328839665654
            ]
        },
        {
            "positions": [
                -2.329797717499744,
                -1.2407439198125627,
                2.024817092325183,
                -0.891529310285565,
                0.5659666597705746,
                -3.117258669806926
            ]
        },
        {
            "positions": [
                -2.4761973812555866,
                -1.163909848084014,
                2.014902308351445,
                -0.8561179471566713,
                0.662253645527128,
                -3.1451884999481976
            ]
        }
    ]
}