{
    "goal": {
        "global_pose": {
            "orientation": {
                "w": 0.7031023502349854,
                "x": -0.7110244035720825,
                "y": 0.007748599164187908,
                "z": 0.005598929710686207
            },
            "position": {
                "x": 0.11585023208521307,
                "y": 0.44412534475326537,
                "z": 0.3711530566215515
            }
        },
        "name": "move_to_auspresseinheit_A"
    },
    "id": "SPARS_move_to_auspresseinheit_A_82",
    "joint_names": [
        "shoulder_pan_joint",
        "shoulder_lift_joint",
        "elbow_joint",
        "wrist_1_joint",
        "wrist_2_joint",
        "wrist_3_joint"
    ],
    "metrics": {
        "cart_traj_len": 1.5506231485969793,
        "distance_elbow_joint": 0.3148345929626415,
        "distance_shoulder_lift_joint": 0.5339217029365353,
        "distance_shoulder_pan_joint": 2.6140604334695716,
        "distance_wrist_1_joint": 0.5621476896956081,
        "distance_wrist_2_joint": 0.5094551315763807,
        "distance_wrist_3_joint": 3.345530832450226,
        "smoothness": 1.050017545525731,
        "time": 5.034405861,
        "traj_len": 2.8071249318637324,
        "weighted_distance": 3.955074571896642
    },
    "planner": "SPARS",
    "start": {
        "state": {
            "elbow_joint": 2.4225746658250005,
            "shoulder_lift_joint": -1.3736534386056498,
            "shoulder_pan_joint": -0.3378633547517467,
            "wrist_1_joint": -1.0288598680537169,
            "wrist_2_joint": 1.233022673432363,
            "wrist_3_joint": -3.0940220416140027
        }
    },
    "waypoints": [
        {
            "positions": [
                -0.3378633547517467,
                -1.3736534386056498,
                2.4225746658250005,
                -1.0288598680537169,
                1.233022673432363,
                -3.0940220416140027
            ]
        },
        {
            "positions": [
                -0.4248239473517836,
                -1.400988978061383,
                2.4034767705309092,
                -0.9933093504659345,
                1.211906287462893,
                -2.9100831403077803
            ]
        },
        {
            "positions": [
                -0.5117845399518205,
                -1.428324517517116,
                2.3843788752368185,
                -0.957758832878152,
                1.190789901493423,
                -2.7261442390015573
            ]
        },
        {
            "positions": [
                -0.5987451325518574,
                -1.4556600569728488,
                2.3652809799427272,
                -0.9222083152903696,
                1.1696735155239528,
                -2.542205337695335
            ]
        },
        {
            "positions": [
                -0.6857057251518942,
                -1.482995596428582,
                2.3461830846486365,
                -0.8866577977025871,
                1.1485571295544827,
                -2.3582664363891124
            ]
        },
        {
            "positions": [
                -0.7726663177519311,
                -1.510331135884315,
                2.3270851893545452,
                -0.8511072801148047,
                1.1274407435850125,
                -2.1743275350828895
            ]
        },
        {
            "positions": [
                -0.8596269103519678,
                -1.537666675340048,
                2.3079872940604544,
                -0.8155567625270224,
                1.1063243576155424,
                -1.990388633776667
            ]
        },
        {
            "positions": [
                -0.9465875029520048,
                -1.565002214795781,
                2.288889398766363,
                -0.7800062449392399,
                1.0852079716460723,
                -1.8064497324704443
            ]
        },
        {
            "positions": [
                -1.0335480955520417,
                -1.592337754251514,
                2.2697915034722724,
                -0.7444557273514574,
                1.0640915856766022,
                -1.6225108311642218
            ]
        },
        {
            "positions": [
                -1.1205086881520785,
                -1.619673293707247,
                2.250693608178181,
                -0.708905209763675,
                1.0429751997071322,
                -1.438571929857999
            ]
        },
        {
            "positions": [
                -0.9678907631463085,
                -1.6436651143601586,
                2.262606402787833,
                -0.6887224571465445,
                1.016357894886203,
                -1.579411989915851
            ]
        },
        {
            "positions": [
                -0.8152728381405384,
                -1.66765693501307,
                2.2745191973974848,
                -0.6685397045294139,
                0.9897405900652738,
                -1.7202520499737028
            ]
        },
        {
            "positions": [
                -0.6626549131347683,
                -1.6916487556659816,
                2.2864319920071368,
                -0.6483569519122834,
                0.9631232852443448,
                -1.8610921100315547
            ]
        },
        {
            "positions": [
                -0.5100369881289983,
                -1.715640576318893,
                2.2983447866167888,
                -0.628174199295153,
                0.9365059804234156,
                -2.0019321700894066
            ]
        },
        {
            "positions": [
                -0.35741906312322813,
                -1.7396323969718046,
                2.3102575812264403,
                -0.6079914466780224,
                0.9098886756024864,
                -2.1427722301472585
            ]
        },
        {
            "positions": [
                -0.20480113811745815,
                -1.763624217624716,
                2.3221703758360923,
                -0.5878086940608919,
                0.8832713707815573,
                -2.2836122902051104
            ]
        },
        {
            "positions": [
                -0.05218321311168794,
                -1.7876160382776276,
                2.3340831704457443,
                -0.5676259414437613,
                0.8566540659606281,
                -2.4244523502629622
            ]
        },
        {
            "positions": [
                0.10043471189408182,
                -1.811607858930539,
                2.345995965055396,
                -0.5474431888266309,
                0.830036761139699,
                -2.565292410320814
            ]
        },
        {
            "positions": [
                0.253052636899852,
                -1.8355996795834506,
                2.357908759665048,
                -0.5272604362095004,
                0.8034194563187698,
                -2.706132470378666
            ]
        },
        {
            "positions": [
                0.40567056190562223,
                -1.859591500236362,
                2.3698215542747,
                -0.5070776835923698,
                0.7768021514978407,
                -2.846972530436518
            ]
        },
        {
            "positions": [
                0.558288486911392,
                -1.8835833208892736,
                2.3817343488843514,
                -0.4868949309752393,
                0.7501848466769115,
                -2.9878125904943698
            ]
        },
        {
            "positions": [
                0.7109064119171622,
                -1.907575141542185,
                2.3936471434940034,
                -0.46671217835810874,
                0.7235675418559824,
                -3.1286526505522216
            ]
        }
    ]
}