{
    "goal": {
        "global_pose": {
            "orientation": {
                "w": 0.005598929693374612,
                "x": 0.007748599140229565,
                "y": 0.7110244013736278,
                "z": -0.7031023480610252
            },
            "position": {
                "x": -0.8858502320852131,
                "y": -0.7141253447532654,
                "z": 0.3711530566215515
            }
        },
        "name": "move_to_auspresseinheit_C"
    },
    "id": "SPARS_move_to_auspresseinheit_C_129",
    "joint_names": [
        "shoulder_pan_joint",
        "shoulder_lift_joint",
        "elbow_joint",
        "wrist_1_joint",
        "wrist_2_joint",
        "wrist_3_joint"
    ],
    "metrics": {
        "cart_traj_len": 0.4928455008960961,
        "distance_elbow_joint": 1.0009675727052785,
        "distance_shoulder_lift_joint": 0.325202021530124,
        "distance_shoulder_pan_joint": 0.2556434005592543,
        "distance_wrist_1_joint": 0.6787332304913072,
        "distance_wrist_2_joint": 1.3147900084491981,
        "distance_wrist_3_joint": 0.049940524576582046,
        "smoothness": 0.0,
        "time": 5.016452126000001,
        "traj_len": 1.904015955372156,
        "weighted_distance": 2.391376391621656
    },
    "planner": "SPARS",
    "start": {
        "state": {
            "elbow_joint": 1.7527959577737207,
            "shoulder_lift_joint": -0.9740617694225068,
            "shoulder_pan_joint": -2.967991417825858,
            "wrist_1_joint": -0.759517768980727,
            "wrist_2_joint": 1.7443932448377408,
            "wrist_3_joint": -3.0840537646736568
        }
    },
    "waypoints": [
        {
            "positions": [
                -2.967991417825858,
                -0.9740617694225068,
                1.7527959577737207,
                -0.759517768980727,
                1.7443932448377408,
                -3.0840537646736568
            ]
        },
        {
            "positions": [
                -2.9424270777699326,
                -0.9415415672694943,
                1.6526992005031929,
                -0.6916444459315962,
                1.612914243992821,
                -3.089047817131315
            ]
        },
        {
            "positions": [
                -2.9168627377140073,
                -0.909021365116482,
                1.552602443232665,
                -0.6237711228824655,
                1.4814352431479012,
                -3.094041869588973
            ]
        },
        {
            "positions": [
                -2.8912983976580815,
                -0.8765011629634696,
                1.4525056859621372,
                -0.5558977998333349,
                1.3499562423029814,
                -3.0990359220466313
            ]
        },
        {
            "positions": [
                -2.865734057602156,
                -0.8439809608104571,
                1.3524089286916092,
                -0.4880244767842041,
                1.2184772414580616,
                -3.1040299745042894
            ]
        },
        {
            "positions": [
                -2.840169717546231,
                -0.8114607586574447,
                1.2523121714210814,
                -0.4201511537350734,
                1.0869982406131418,
                -3.109024026961948
            ]
        },
        {
            "positions": [
                -2.8146053774903055,
                -0.7789405565044324,
                1.1522154141505536,
                -0.3522778306859427,
                0.955519239768222,
                -3.114018079419606
            ]
        },
        {
            "positions": [
                -2.78904103743438,
                -0.74642035435142,
                1.0521186568800258,
                -0.28440450763681197,
                0.8240402389233022,
                -3.1190121318772643
            ]
        },
        {
            "positions": [
                -2.7634766973784544,
                -0.7139001521984076,
                0.9520218996094978,
                -0.21653118458768117,
                0.6925612380783823,
                -3.1240061843349225
            ]
        },
        {
            "positions": [
                -2.737912357322529,
                -0.6813799500453952,
                0.85192514233897,
                -0.14865786153855054,
                0.5610822372334625,
                -3.1290002367925807
            ]
        },
        {
            "positions": [
                -2.7123480172666037,
                -0.6488597478923828,
                0.7518283850684423,
                -0.08078453848941981,
                0.4296032363885428,
                -3.133994289250239
            ]
        }
    ]
}