{
    "goal": {
        "global_pose": {
            "orientation": {
                "w": 0.005598929693374612,
                "x": 0.007748599140229565,
                "y": 0.7110244013736278,
                "z": -0.7031023480610252
            },
            "position": {
                "x": -0.8858502320852131,
                "y": -0.7141253447532654,
                "z": 0.3711530566215515
            }
        },
        "name": "move_to_auspresseinheit_C"
    },
    "id": "SPARStwo_move_to_auspresseinheit_C_33",
    "joint_names": [
        "shoulder_pan_joint",
        "shoulder_lift_joint",
        "elbow_joint",
        "wrist_1_joint",
        "wrist_2_joint",
        "wrist_3_joint"
    ],
    "metrics": {
        "cart_traj_len": 0.49286184208409817,
        "distance_elbow_joint": 0.9880858320198791,
        "distance_shoulder_lift_joint": 0.31941892650538095,
        "distance_shoulder_pan_joint": 0.2573995597545369,
        "distance_wrist_1_joint": 0.6568407500841289,
        "distance_wrist_2_joint": 1.3026912091935905,
        "distance_wrist_3_joint": 0.047562892498889564,
        "smoothness": 4.844609574787718e-16,
        "time": 5.0009668629999995,
        "traj_len": 1.8899733252235085,
        "weighted_distance": 2.372057527618566
    },
    "planner": "SPARStwo",
    "start": {
        "state": {
            "elbow_joint": 1.7527959577737207,
            "shoulder_lift_joint": -0.9740617694225068,
            "shoulder_pan_joint": -2.967991417825858,
            "wrist_1_joint": -0.759517768980727,
            "wrist_2_joint": 1.7443932448377408,
            "wrist_3_joint": -3.0840537646736568
        }
    },
    "waypoints": [
        {
            "positions": [
                -2.967991417825858,
                -0.9740617694225068,
                1.7527959577737207,
                -0.759517768980727,
                1.7443932448377408,
                -3.0840537646736568
            ]
        },
        {
            "positions": [
                -2.9422514618504043,
                -0.9421198767719687,
                1.6539873745717328,
                -0.6938336939723141,
                1.6141241239183817,
                -3.0888100539235457
            ]
        },
        {
            "positions": [
                -2.9165115058749507,
                -0.9101779841214306,
                1.5551787913697448,
                -0.6281496189639012,
                1.4838550029990227,
                -3.0935663431734346
            ]
        },
        {
            "positions": [
                -2.890771549899497,
                -0.8782360914708924,
                1.456370208167757,
                -0.5624655439554883,
                1.3535858820796638,
                -3.0983226324233235
            ]
        },
        {
            "positions": [
                -2.8650315939240434,
                -0.8462941988203544,
                1.357561624965769,
                -0.4967814689470754,
                1.2233167611603046,
                -3.1030789216732124
            ]
        },
        {
            "positions": [
                -2.8392916379485893,
                -0.8143523061698164,
                1.2587530417637811,
                -0.43109739393866253,
                1.0930476402409455,
                -3.1078352109231018
            ]
        },
        {
            "positions": [
                -2.8135516819731357,
                -0.7824104135192782,
                1.1599444585617933,
                -0.36541331893024964,
                0.9627785193215865,
                -3.1125915001729907
            ]
        },
        {
            "positions": [
                -2.787811725997682,
                -0.7504685208687402,
                1.0611358753598052,
                -0.2997292439218368,
                0.8325093984022276,
                -3.1173477894228796
            ]
        },
        {
            "positions": [
                -2.7620717700222284,
                -0.718526628218202,
                0.9623272921578173,
                -0.23404516891342386,
                0.7022402774828684,
                -3.1221040786727685
            ]
        },
        {
            "positions": [
                -2.7363318140467747,
                -0.686584735567664,
                0.8635187089558295,
                -0.16836109390501097,
                0.5719711565635093,
                -3.1268603679226574
            ]
        },
        {
            "positions": [
                -2.710591858071321,
                -0.6546428429171258,
                0.7647101257538416,
                -0.10267701889659811,
                0.4417020356441504,
                -3.1316166571725463
            ]
        }
    ]
}