{
    "goal": {
        "global_pose": {
            "orientation": {
                "w": 0.005598929693374612,
                "x": 0.007748599140229565,
                "y": 0.7110244013736278,
                "z": -0.7031023480610252
            },
            "position": {
                "x": 0.1141497679147869,
                "y": -0.7141253447532654,
                "z": 0.3711530566215515
            }
        },
        "name": "move_to_auspresseinheit_B"
    },
    "id": "SPARStwo_move_to_auspresseinheit_B_93",
    "joint_names": [
        "shoulder_pan_joint",
        "shoulder_lift_joint",
        "elbow_joint",
        "wrist_1_joint",
        "wrist_2_joint",
        "wrist_3_joint"
    ],
    "metrics": {
        "cart_traj_len": 0.5650182729913268,
        "distance_elbow_joint": 0.06619036270451883,
        "distance_shoulder_lift_joint": 0.29231177564228084,
        "distance_shoulder_pan_joint": 0.5758562994239185,
        "distance_wrist_1_joint": 0.3374853215195943,
        "distance_wrist_2_joint": 1.0026631753206514,
        "distance_wrist_3_joint": 0.007585755730870503,
        "smoothness": 3.806478935924272e-16,
        "time": 5.016689599999999,
        "traj_len": 1.510659687137323,
        "weighted_distance": 1.9072002251058542
    },
    "planner": "SPARStwo",
    "start": {
        "state": {
            "elbow_joint": 2.0193083361928714,
            "shoulder_lift_joint": -1.1220246554650708,
            "shoulder_pan_joint": -1.0952077554168747,
            "wrist_1_joint": -0.8559753972642168,
            "wrist_2_joint": 0.4759566250798843,
            "wrist_3_joint": -3.1240929996934557
        }
    },
    "waypoints": [
        {
            "positions": [
                -1.0952077554168747,
                -1.1220246554650708,
                2.0193083361928714,
                -0.8559753972642168,
                0.4759566250798843,
                -3.1240929996934557
            ]
        },
        {
            "positions": [
                -1.191183805320861,
                -1.1707432847387842,
                2.008276609075452,
                -0.7997278436776177,
                0.6430671542999928,
                -3.122828707071644
            ]
        },
        {
            "positions": [
                -1.2871598552248475,
                -1.2194619140124978,
                1.9972448819580317,
                -0.7434802900910187,
                0.8101776835201013,
                -3.121564414449832
            ]
        },
        {
            "positions": [
                -1.3831359051288339,
                -1.2681805432862112,
                1.9862131548406121,
                -0.6872327365044196,
                0.97728821274021,
                -3.1203001218280204
            ]
        },
        {
            "positions": [
                -1.4791119550328202,
                -1.3168991725599246,
                1.9751814277231923,
                -0.6309851829178206,
                1.1443987419603185,
                -3.119035829206209
            ]
        },
        {
            "positions": [
                -1.5750880049368068,
                -1.3656178018336382,
                1.9641497006057724,
                -0.5747376293312215,
                1.3115092711804273,
                -3.1177715365843968
            ]
        },
        {
            "positions": [
                -1.6710640548407931,
                -1.4143364311073516,
                1.9531179734883526,
                -0.5184900757446225,
                1.4786198004005358,
                -3.116507243962585
            ]
        }
    ]
}