{
    "goal": {
        "global_pose": {
            "orientation": {
                "w": 0.005598929693374612,
                "x": 0.007748599140229565,
                "y": 0.7110244013736278,
                "z": -0.7031023480610252
            },
            "position": {
                "x": 0.1141497679147869,
                "y": -0.7141253447532654,
                "z": 0.3711530566215515
            }
        },
        "name": "move_to_auspresseinheit_B"
    },
    "id": "SPARStwo_move_to_auspresseinheit_B_110",
    "joint_names": [
        "shoulder_pan_joint",
        "shoulder_lift_joint",
        "elbow_joint",
        "wrist_1_joint",
        "wrist_2_joint",
        "wrist_3_joint"
    ],
    "metrics": {
        "cart_traj_len": 0.5640392453628078,
        "distance_elbow_joint": 0.059625826055403675,
        "distance_shoulder_lift_joint": 0.2952220819873459,
        "distance_shoulder_pan_joint": 0.5738430075773095,
        "distance_wrist_1_joint": 0.3165597668505733,
        "distance_wrist_2_joint": 1.008606662443657,
        "distance_wrist_3_joint": 0.009976278950353024,
        "smoothness": 0.0,
        "time": 5.013504458,
        "traj_len": 1.5046041419139595,
        "weighted_distance": 1.899724351336156
    },
    "planner": "SPARStwo",
    "start": {
        "state": {
            "elbow_joint": 2.0193083361928714,
            "shoulder_lift_joint": -1.1220246554650708,
            "shoulder_pan_joint": -1.0952077554168747,
            "wrist_1_joint": -0.8559753972642168,
            "wrist_2_joint": 0.4759566250798843,
            "wrist_3_joint": -3.1240929996934557
        }
    },
    "waypoints": [
        {
            "positions": [
                -1.0952077554168747,
                -1.1220246554650708,
                2.0193083361928714,
                -0.8559753972642168,
                0.4759566250798843,
                -3.1240929996934557
            ]
        },
        {
            "positions": [
                -1.1908482566797596,
                -1.1712283357962952,
                2.009370698516971,
                -0.8032154361224546,
                0.6440577354871604,
                -3.1224302865350637
            ]
        },
        {
            "positions": [
                -1.2864887579426445,
                -1.2204320161275195,
                1.9994330608410702,
                -0.7504554749806923,
                0.8121588458944367,
                -3.1207675733766713
            ]
        },
        {
            "positions": [
                -1.3821292592055294,
                -1.2696356964587436,
                1.9894954231651696,
                -0.6976955138389301,
                0.9802599563017127,
                -3.119104860218279
            ]
        },
        {
            "positions": [
                -1.4777697604684144,
                -1.318839376789968,
                1.979557785489269,
                -0.644935552697168,
                1.148361066708989,
                -3.117442147059887
            ]
        },
        {
            "positions": [
                -1.5734102617312993,
                -1.3680430571211923,
                1.9696201478133684,
                -0.5921755915554057,
                1.316462177116265,
                -3.115779433901495
            ]
        },
        {
            "positions": [
                -1.6690507629941842,
                -1.4172467374524167,
                1.9596825101374677,
                -0.5394156304136435,
                1.4845632875235413,
                -3.1141167207431026
            ]
        }
    ]
}