{
    "goal": {
        "global_pose": {
            "orientation": {
                "w": -0.00223480608172531,
                "x": 0.0024358444001904467,
                "y": 0.7094548369677653,
                "z": -0.704743149386269
            },
            "position": {
                "x": -0.37947507619857795,
                "y": -0.6371506643295288,
                "z": 0.19426114857196808
            }
        },
        "name": "move_to_magneteinheit_C"
    },
    "id": "SPARS_move_to_magneteinheit_C_54",
    "joint_names": [
        "shoulder_pan_joint",
        "shoulder_lift_joint",
        "elbow_joint",
        "wrist_1_joint",
        "wrist_2_joint",
        "wrist_3_joint"
    ],
    "metrics": {
        "cart_traj_len": 0.9985573843135199,
        "distance_elbow_joint": 0.37255862450507804,
        "distance_shoulder_lift_joint": 0.8231997085581662,
        "distance_shoulder_pan_joint": 0.9063797171509924,
        "distance_wrist_1_joint": 0.5741920974859743,
        "distance_wrist_2_joint": 1.5459346996255876,
        "distance_wrist_3_joint": 1.8959584031775214,
        "smoothness": 1.050729065066892,
        "time": 5.0301985039999995,
        "traj_len": 2.4735042450950675,
        "weighted_distance": 3.468467507988207
    },
    "planner": "SPARS",
    "start": {
        "state": {
            "elbow_joint": 1.9565354010623817,
            "shoulder_lift_joint": -1.4165861575791021,
            "shoulder_pan_joint": -1.6717766225146293,
            "wrist_1_joint": -0.5286633292919765,
            "wrist_2_joint": 1.472756589071564,
            "wrist_3_joint": -3.1238370188695823
        }
    },
    "waypoints": [
        {
            "positions": [
                -1.6717766225146293,
                -1.4165861575791021,
                1.9565354010623817,
                -0.5286633292919765,
                1.472756589071564,
                -3.1238370188695823
            ]
        },
        {
            "positions": [
                -1.6688982485217418,
                -1.457457501612559,
                1.975789444858101,
                -0.5567373771649201,
                1.3050331446194314,
                -2.989659891175578
            ]
        },
        {
            "positions": [
                -1.6660198745288544,
                -1.498328845646016,
                1.9950434886538206,
                -0.5848114250378637,
                1.1373097001672987,
                -2.8554827634815734
            ]
        },
        {
            "positions": [
                -1.6631415005359669,
                -1.539200189679473,
                2.01429753244954,
                -0.6128854729108073,
                0.9695862557151662,
                -2.721305635787569
            ]
        },
        {
            "positions": [
                -1.6602631265430796,
                -1.58007153371293,
                2.0335515762452596,
                -0.6409595207837508,
                0.8018628112630336,
                -2.5871285080935644
            ]
        },
        {
            "positions": [
                -1.6573847525501921,
                -1.620942877746387,
                2.052805620040979,
                -0.6690335686566945,
                0.634139366810901,
                -2.45295138039956
            ]
        },
        {
            "positions": [
                -1.6545063785573046,
                -1.661814221779844,
                2.0720596638366984,
                -0.697107616529638,
                0.4664159223587685,
                -2.3187742527055555
            ]
        },
        {
            "positions": [
                -1.6516280045644172,
                -1.7026855658133009,
                2.091313707632418,
                -0.7251816644025817,
                0.2986924779066357,
                -2.184597125011551
            ]
        },
        {
            "positions": [
                -1.7853776322589268,
                -1.6737856894685708,
                2.1047813855000435,
                -0.7673940635315253,
                0.324677278370476,
                -2.277390552103863
            ]
        },
        {
            "positions": [
                -1.9191272599534361,
                -1.6448858131238406,
                2.1182490633676685,
                -0.8096064626604689,
                0.35066207883431627,
                -2.370183979196175
            ]
        },
        {
            "positions": [
                -2.0528768876479457,
                -1.6159859367791105,
                2.1317167412352935,
                -0.8518188617894125,
                0.37664687929815654,
                -2.4629774062884877
            ]
        },
        {
            "positions": [
                -2.1866265153424553,
                -1.5870860604343804,
                2.145184419102919,
                -0.894031260918356,
                0.40263167976199676,
                -2.5557708333808
            ]
        },
        {
            "positions": [
                -2.320376143036965,
                -1.5581861840896503,
                2.1586520969705445,
                -0.9362436600472996,
                0.4286164802258371,
                -2.648564260473112
            ]
        },
        {
            "positions": [
                -2.4541257707314745,
                -1.5292863077449201,
                2.1721197748381695,
                -0.9784560591762432,
                0.4546012806896773,
                -2.741357687565424
            ]
        },
        {
            "positions": [
                -2.4800267887691936,
                -1.4666128901359952,
                2.149151585659472,
                -0.9631610851641783,
                0.5204814887050533,
                -2.8375003198968978
            ]
        },
        {
            "positions": [
                -2.5059278068069126,
                -1.4039394725270702,
                2.126183396480774,
                -0.9478661111521134,
                0.5863616967204291,
                -2.9336429522283716
            ]
        },
        {
            "positions": [
                -2.4899621583277702,
                -1.284762369008202,
                2.070664460294827,
                -0.9009614013633245,
                0.628462381543862,
                -3.0374792932797066
            ]
        },
        {
            "positions": [
                -2.473996509848628,
                -1.1655852654893335,
                2.0151455241088794,
                -0.8540566915745357,
                0.6705630663672949,
                -3.141315634331041
            ]
        }
    ]
}