{
    "goal": {
        "global_pose": {
            "orientation": {
                "w": 0.7047431493862688,
                "x": -0.7094548369677653,
                "y": 0.0024358444001904,
                "z": -0.0022348060817251984
            },
            "position": {
                "x": -0.39052492380142206,
                "y": 0.3671506643295288,
                "z": 0.19426114857196808
            }
        },
        "name": "move_to_magneteinheit_D"
    },
    "id": "SPARS_move_to_magneteinheit_D_28",
    "joint_names": [
        "shoulder_pan_joint",
        "shoulder_lift_joint",
        "elbow_joint",
        "wrist_1_joint",
        "wrist_2_joint",
        "wrist_3_joint"
    ],
    "metrics": {
        "cart_traj_len": 5.100020338257168,
        "distance_elbow_joint": 3.14392426757715,
        "distance_shoulder_lift_joint": 2.006370576653314,
        "distance_shoulder_pan_joint": 3.660432394701431,
        "distance_wrist_1_joint": 2.3293586233800814,
        "distance_wrist_2_joint": 0.25569890994082545,
        "distance_wrist_3_joint": 4.5036391747368825,
        "smoothness": 0.5413017443604599,
        "time": 5.060171983,
        "traj_len": 3.9874081741138174,
        "weighted_distance": 5.243258512583979
    },
    "planner": "SPARS",
    "start": {
        "state": {
            "elbow_joint": 0.749534889911806,
            "shoulder_lift_joint": -0.6476975780787326,
            "shoulder_pan_joint": -2.711696901376241,
            "wrist_1_joint": -0.07506478083263063,
            "wrist_2_joint": 0.43296659715538205,
            "wrist_3_joint": -3.14703540197715
        }
    },
    "waypoints": [
        {
            "positions": [
                -2.711696901376241,
                -0.6476975780787326,
                0.749534889911806,
                -0.07506478083263063,
                0.43296659715538205,
                -3.14703540197715
            ]
        },
        {
            "positions": [
                -2.7188385456176123,
                -0.7177126740119932,
                0.7435369833211783,
                -0.13473399483710097,
                0.4096409929970951,
                -3.0671029822093523
            ]
        },
        {
            "positions": [
                -2.755617950569431,
                -0.8151836126623832,
                0.6925000653683904,
                -0.2491811729302809,
                0.392450504155073,
                -3.005568365745596
            ]
        },
        {
            "positions": [
                -2.79239735552125,
                -0.912654551312773,
                0.6414631474156023,
                -0.3636283510234608,
                0.3752600153130509,
                -2.9440337492818394
            ]
        },
        {
            "positions": [
                -2.829176760473069,
                -1.0101254899631629,
                0.5904262294628143,
                -0.47807552911664075,
                0.3580695264710288,
                -2.882499132818083
            ]
        },
        {
            "positions": [
                -2.7260834455499157,
                -1.0586078869547901,
                0.5399710706731266,
                -0.41514929850346277,
                0.3542124527469607,
                -2.762513792965567
            ]
        },
        {
            "positions": [
                -2.622990130626763,
                -1.1070902839464174,
                0.48951591188343874,
                -0.3522230678902848,
                0.35035537902289265,
                -2.642528453113052
            ]
        },
        {
            "positions": [
                -2.5198968157036097,
                -1.1555726809380444,
                0.4390607530937509,
                -0.28929683727710687,
                0.3464983052988246,
                -2.5225431132605363
            ]
        },
        {
            "positions": [
                -2.416803500780457,
                -1.2040550779296717,
                0.38860559430406316,
                -0.22637060666392889,
                0.3426412315747565,
                -2.402557773408021
            ]
        },
        {
            "positions": [
                -2.3137101858573037,
                -1.252537474921299,
                0.33815043551437535,
                -0.16344437605075096,
                0.33878415785068844,
                -2.2825724335555053
            ]
        },
        {
            "positions": [
                -2.2106168709341505,
                -1.3010198719129262,
                0.28769527672468753,
                -0.10051814543757298,
                0.33492708412662037,
                -2.1625870937029896
            ]
        },
        {
            "positions": [
                -2.1075235560109977,
                -1.3495022689045535,
                0.23724011793499972,
                -0.037591914824395,
                0.33107001040255224,
                -2.042601753850474
            ]
        },
        {
            "positions": [
                -2.004430241087845,
                -1.3979846658961805,
                0.18678495914531196,
                0.02533431578878298,
                0.32721293667848417,
                -1.9226164139979587
            ]
        },
        {
            "positions": [
                -1.9013369261646917,
                -1.4464670628878078,
                0.13632980035562414,
                0.0882605464019609,
                0.3233558629544161,
                -1.8026310741454432
            ]
        },
        {
            "positions": [
                -1.7982436112415388,
                -1.494949459879435,
                0.08587464156593638,
                0.15118677701513883,
                0.319498789230348,
                -1.6826457342929277
            ]
        },
        {
            "positions": [
                -1.6951502963183858,
                -1.543431856871062,
                0.03541948277624862,
                0.21411300762831675,
                0.31564171550627995,
                -1.562660394440412
            ]
        },
        {
            "positions": [
                -1.5920569813952326,
                -1.5919142538626896,
                -0.015035676013439248,
                0.2770392382414948,
                0.3117846417822119,
                -1.4426750545878964
            ]
        },
        {
            "positions": [
                -1.4889636664720796,
                -1.6403966508543166,
                -0.06549083480312712,
                0.3399654688546728,
                0.3079275680581438,
                -1.3226897147353809
            ]
        },
        {
            "positions": [
                -1.3858703515489266,
                -1.688879047845944,
                -0.11594599359281488,
                0.40289169946785075,
                0.30407049433407574,
                -1.2027043748828654
            ]
        },
        {
            "positions": [
                -1.2827770366257736,
                -1.7373614448375712,
                -0.16640115238250264,
                0.4658179300810287,
                0.30021342061000766,
                -1.08271903503035
            ]
        },
        {
            "positions": [
                -1.1796837217026206,
                -1.7858438418291984,
                -0.2168563111721904,
                0.5287441606942067,
                0.2963563468859396,
                -0.9627336951778345
            ]
        },
        {
            "positions": [
                -1.0765904067794676,
                -1.8343262388208257,
                -0.26731146996187816,
                0.5916703913073846,
                0.2924992731618715,
                -0.8427483553253188
            ]
        },
        {
            "positions": [
                -0.9734970918563146,
                -1.8828086358124527,
                -0.317766628751566,
                0.6545966219205626,
                0.28864219943780345,
                -0.7227630154728035
            ]
        },
        {
            "positions": [
                -0.8704037769331616,
                -1.93129103280408,
                -0.3682217875412538,
                0.7175228525337405,
                0.2847851257137354,
                -0.6027776756202878
            ]
        },
        {
            "positions": [
                -0.7673104620100086,
                -1.9797734297957073,
                -0.41867694633094155,
                0.7804490831469184,
                0.2809280519896673,
                -0.4827923357677726
            ]
        },
        {
            "positions": [
                -0.6642171470868554,
                -2.0282558267873343,
                -0.4691321051206293,
                0.8433753137600963,
                0.27707097826559923,
                -0.3628069959152569
            ]
        },
        {
            "positions": [
                -0.5611238321637027,
                -2.0767382237789613,
                -0.5195872639103171,
                0.9063015443732743,
                0.27321390454153116,
                -0.2428216560627412
            ]
        },
        {
            "positions": [
                -0.45803051724054944,
                -2.1252206207705893,
                -0.570042422700005,
                0.9692277749864524,
                0.26935683081746303,
                -0.1228363162102255
            ]
        },
        {
            "positions": [
                -0.3549372023173962,
                -2.1737030177622163,
                -0.6204975814896928,
                1.0321540055996303,
                0.26549975709339496,
                -0.0028509763577098113
            ]
        },
        {
            "positions": [
                -0.25184388739424346,
                -2.2221854147538433,
                -0.6709527402793806,
                1.0950802362128083,
                0.2616426833693269,
                0.11713436349480544
            ]
        },
        {
            "positions": [
                -0.14875057247109025,
                -2.2706678117454704,
                -0.7214078990690685,
                1.1580064668259864,
                0.2577856096452588,
                0.23711970334732113
            ]
        },
        {
            "positions": [
                -0.04565725754793748,
                -2.319150208737098,
                -0.7718630578587563,
                1.2209326974391643,
                0.25392853592119075,
                0.3571050431998364
            ]
        },
        {
            "positions": [
                0.05743605737521573,
                -2.367632605728725,
                -0.8223182166484441,
                1.2838589280523423,
                0.2500714621971227,
                0.4770903830523521
            ]
        },
        {
            "positions": [
                0.1605293722983685,
                -2.4161150027203524,
                -0.8727733754381318,
                1.3467851586655202,
                0.2462143884730546,
                0.5970757229048673
            ]
        },
        {
            "positions": [
                0.2636226872215218,
                -2.4645973997119794,
                -0.9232285342278196,
                1.409711389278698,
                0.24235731474898653,
                0.7170610627573829
            ]
        },
        {
            "positions": [
                0.21082966452172008,
                -2.4422798597135715,
                -1.104500273235303,
                1.4137619898765503,
                0.23576981412686862,
                0.6378735506059592
            ]
        },
        {
            "positions": [
                0.15803664182191834,
                -2.4199623197151636,
                -1.2857720122427865,
                1.4178125904744026,
                0.2291823135047507,
                0.5586860384545356
            ]
        },
        {
            "positions": [
                0.1052436191221166,
                -2.3976447797167557,
                -1.4670437512502699,
                1.421863191072255,
                0.22259481288263283,
                0.4794985263031119
            ]
        },
        {
            "positions": [
                0.052450596422314866,
                -2.375327239718348,
                -1.6483154902577533,
                1.4259137916701072,
                0.21600731226051492,
                0.40031101415168824
            ]
        },
        {
            "positions": [
                -0.0003424262774868736,
                -2.35300969971994,
                -1.8295872292652366,
                1.4299643922679595,
                0.209419811638397,
                0.32112350200026457
            ]
        },
        {
            "positions": [
                -0.05313544897728861,
                -2.330692159721532,
                -2.01085896827272,
                1.4340149928658117,
                0.2028323110162791,
                0.24193598984884093
            ]
        },
        {
            "positions": [
                -0.11983292483288926,
                -2.302909402206722,
                -2.202624172969032,
                1.4411436694226212,
                0.19004999911541784,
                0.15972717130193687
            ]
        },
        {
            "positions": [
                -0.18653040068848992,
                -2.275126644691912,
                -2.394389377665344,
                1.4482723459794307,
                0.17726768721455657,
                0.07751835275503277
            ]
        }
    ]
}