{
    "goal": {
        "global_pose": {
            "orientation": {
                "w": 0.005598929693374612,
                "x": 0.007748599140229565,
                "y": 0.7110244013736278,
                "z": -0.7031023480610252
            },
            "position": {
                "x": 0.1141497679147869,
                "y": -0.7141253447532654,
                "z": 0.3711530566215515
            }
        },
        "name": "move_to_auspresseinheit_B"
    },
    "id": "SPARStwo_move_to_auspresseinheit_B_62",
    "joint_names": [
        "shoulder_pan_joint",
        "shoulder_lift_joint",
        "elbow_joint",
        "wrist_1_joint",
        "wrist_2_joint",
        "wrist_3_joint"
    ],
    "metrics": {
        "cart_traj_len": 0.5645006802452023,
        "distance_elbow_joint": 0.06105995397590824,
        "distance_shoulder_lift_joint": 0.29352748610290225,
        "distance_shoulder_pan_joint": 0.5772142326919669,
        "distance_wrist_1_joint": 0.31855044175572367,
        "distance_wrist_2_joint": 0.9916416450531476,
        "distance_wrist_3_joint": 0.0007907369194155578,
        "smoothness": 0.0,
        "time": 5.00590986,
        "traj_len": 1.4975929007908206,
        "weighted_distance": 1.8853535629018676
    },
    "planner": "SPARStwo",
    "start": {
        "state": {
            "elbow_joint": 2.0193083361928714,
            "shoulder_lift_joint": -1.1220246554650708,
            "shoulder_pan_joint": -1.0952077554168747,
            "wrist_1_joint": -0.8559753972642168,
            "wrist_2_joint": 0.4759566250798843,
            "wrist_3_joint": -3.1240929996934557
        }
    },
    "waypoints": [
        {
            "positions": [
                -1.0952077554168747,
                -1.1220246554650708,
                2.0193083361928714,
                -0.8559753972642168,
                0.4759566250798843,
                -3.1240929996934557
            ]
        },
        {
            "positions": [
                -1.1914101275322024,
                -1.1709459031488878,
                2.0091316771968866,
                -0.8028836569715961,
                0.6412302325887422,
                -3.1239612102068866
            ]
        },
        {
            "positions": [
                -1.2876124996475302,
                -1.2198671508327048,
                1.998955018200902,
                -0.7497919166789756,
                0.8065038400976001,
                -3.123829420720317
            ]
        },
        {
            "positions": [
                -1.383814871762858,
                -1.2687883985165218,
                1.9887783592049173,
                -0.696700176386355,
                0.971777447606458,
                -3.123697631233748
            ]
        },
        {
            "positions": [
                -1.4800172438781858,
                -1.317709646200339,
                1.9786017002089327,
                -0.6436084360937344,
                1.137051055115316,
                -3.1235658417471788
            ]
        },
        {
            "positions": [
                -1.5762196159935138,
                -1.366630893884156,
                1.9684250412129478,
                -0.5905166958011137,
                1.302324662624174,
                -3.123434052260609
            ]
        },
        {
            "positions": [
                -1.6724219881088416,
                -1.415552141567973,
                1.9582483822169632,
                -0.5374249555084931,
                1.467598270133032,
                -3.12330226277404
            ]
        }
    ]
}