{
    "goal": {
        "global_pose": {
            "orientation": {
                "w": 0.005598929693374612,
                "x": 0.007748599140229565,
                "y": 0.7110244013736278,
                "z": -0.7031023480610252
            },
            "position": {
                "x": 0.1141497679147869,
                "y": -0.7141253447532654,
                "z": 0.3711530566215515
            }
        },
        "name": "move_to_auspresseinheit_B"
    },
    "id": "SPARS_move_to_auspresseinheit_B_20",
    "joint_names": [
        "shoulder_pan_joint",
        "shoulder_lift_joint",
        "elbow_joint",
        "wrist_1_joint",
        "wrist_2_joint",
        "wrist_3_joint"
    ],
    "metrics": {
        "cart_traj_len": 0.5639209891789391,
        "distance_elbow_joint": 0.060874345980602484,
        "distance_shoulder_lift_joint": 0.29490184306382394,
        "distance_shoulder_pan_joint": 0.5764579306052577,
        "distance_wrist_1_joint": 0.3202707197633927,
        "distance_wrist_2_joint": 0.9913277847445918,
        "distance_wrist_3_joint": 3.6806776906761485e-05,
        "smoothness": 5.075305255429287e-16,
        "time": 5.020005672000001,
        "traj_len": 1.497955083083126,
        "weighted_distance": 1.885614369110602
    },
    "planner": "SPARS",
    "start": {
        "state": {
            "elbow_joint": 2.0193083361928714,
            "shoulder_lift_joint": -1.1220246554650708,
            "shoulder_pan_joint": -1.0952077554168747,
            "wrist_1_joint": -0.8559753972642168,
            "wrist_2_joint": 0.4759566250798843,
            "wrist_3_joint": -3.1240929996934557
        }
    },
    "waypoints": [
        {
            "positions": [
                -1.0952077554168747,
                -1.1220246554650708,
                2.0193083361928714,
                -0.8559753972642168,
                0.4759566250798843,
                -3.1240929996934557
            ]
        },
        {
            "positions": [
                -1.1912840771844175,
                -1.1711749626423749,
                2.009162611862771,
                -0.802596943970318,
                0.6411779225373162,
                -3.1240991341562734
            ]
        },
        {
            "positions": [
                -1.2873603989519606,
                -1.2203252698196787,
                1.9990168875326706,
                -0.7492184906764192,
                0.8063992199947483,
                -3.124105268619091
            ]
        },
        {
            "positions": [
                -1.3834367207195035,
                -1.2694755769969828,
                1.9888711632025702,
                -0.6958400373825204,
                0.9716205174521801,
                -3.1241114030819093
            ]
        },
        {
            "positions": [
                -1.4795130424870464,
                -1.3186258841742868,
                1.9787254388724698,
                -0.6424615840886216,
                1.1368418149096122,
                -3.124117537544727
            ]
        },
        {
            "positions": [
                -1.5755893642545895,
                -1.3677761913515907,
                1.9685797145423694,
                -0.5890831307947229,
                1.302063112367044,
                -3.1241236720075447
            ]
        },
        {
            "positions": [
                -1.6716656860221324,
                -1.4169264985288947,
                1.958433990212269,
                -0.5357046775008241,
                1.4672844098244762,
                -3.1241298064703624
            ]
        }
    ]
}