{
    "goal": {
        "global_pose": {
            "orientation": {
                "w": 0.7047431468963623,
                "x": -0.7094548344612122,
                "y": 0.0024358443915843964,
                "z": -0.0022348060738295317
            },
            "position": {
                "x": 0.6094750761985779,
                "y": 0.3671506643295288,
                "z": 0.19426114857196808
            }
        },
        "name": "move_to_magneteinheit_A"
    },
    "id": "SPARS_move_to_magneteinheit_A_121",
    "joint_names": [
        "shoulder_pan_joint",
        "shoulder_lift_joint",
        "elbow_joint",
        "wrist_1_joint",
        "wrist_2_joint",
        "wrist_3_joint"
    ],
    "metrics": {
        "cart_traj_len": 3.6150538250584674,
        "distance_elbow_joint": 3.8747446051607963,
        "distance_shoulder_lift_joint": 0.4836158132133077,
        "distance_shoulder_pan_joint": 3.8146359851659923,
        "distance_wrist_1_joint": 0.8429372469492705,
        "distance_wrist_2_joint": 1.693878843387097,
        "distance_wrist_3_joint": 2.5718024374620536,
        "smoothness": 0.12141397137600309,
        "time": 5.111964901,
        "traj_len": 3.6443950021009672,
        "weighted_distance": 4.578431597894522
    },
    "planner": "SPARS",
    "start": {
        "state": {
            "elbow_joint": -1.9196185241190666,
            "shoulder_lift_joint": -1.2443396400964142,
            "shoulder_pan_joint": 2.6996025414629847,
            "wrist_1_joint": -1.5485510000780065,
            "wrist_2_joint": -1.5709468930060704,
            "wrist_3_joint": 0.4420197071253992
        }
    },
    "waypoints": [
        {
            "positions": [
                2.6996025414629847,
                -1.2443396400964142,
                -1.9196185241190666,
                -1.5485510000780065,
                -1.5709468930060704,
                0.4420197071253992
            ]
        },
        {
            "positions": [
                2.53980783278287,
                -1.253577972654086,
                -1.7725814410215688,
                -1.5292358850638383,
                -1.5561789071403618,
                0.47815555660530573
            ]
        },
        {
            "positions": [
                2.3800131241027547,
                -1.2628163052117582,
                -1.625544357924071,
                -1.5099207700496702,
                -1.541410921274653,
                0.5142914060852123
            ]
        },
        {
            "positions": [
                2.22021841542264,
                -1.2720546377694302,
                -1.478507274826573,
                -1.490605655035502,
                -1.5266429354089444,
                0.5504272555651188
            ]
        },
        {
            "positions": [
                2.060423706742525,
                -1.281292970327102,
                -1.331470191729075,
                -1.4712905400213339,
                -1.5118749495432355,
                0.5865631050450255
            ]
        },
        {
            "positions": [
                1.9006289980624103,
                -1.2905313028847742,
                -1.1844331086315771,
                -1.4519754250071657,
                -1.497106963677527,
                0.6226989545249321
            ]
        },
        {
            "positions": [
                1.7408342893822952,
                -1.2997696354424462,
                -1.0373960255340793,
                -1.4326603099929975,
                -1.4823389778118181,
                0.6588348040048386
            ]
        },
        {
            "positions": [
                1.5810395807021804,
                -1.309007968000118,
                -0.8903589424365814,
                -1.4133451949788294,
                -1.4675709919461095,
                0.6949706534847452
            ]
        },
        {
            "positions": [
                1.4212448720220654,
                -1.31824630055779,
                -0.7433218593390833,
                -1.3940300799646612,
                -1.4528030060804007,
                0.7311065029646517
            ]
        },
        {
            "positions": [
                1.2614501633419504,
                -1.3274846331154622,
                -0.5962847762415855,
                -1.374714964950493,
                -1.438035020214692,
                0.7672423524445584
            ]
        },
        {
            "positions": [
                1.1016554546618356,
                -1.336722965673134,
                -0.44924769314408763,
                -1.3553998499363251,
                -1.4232670343489833,
                0.8033782019244649
            ]
        },
        {
            "positions": [
                0.9418607459817205,
                -1.345961298230806,
                -0.30221061004658956,
                -1.336084734922157,
                -1.4084990484832747,
                0.8395140514043715
            ]
        },
        {
            "positions": [
                0.7820660373016057,
                -1.3551996307884782,
                -0.15517352694909192,
                -1.3167696199079888,
                -1.393731062617566,
                0.875649900884278
            ]
        },
        {
            "positions": [
                0.6222713286214909,
                -1.36443796334615,
                -0.008136443851593844,
                -1.2974545048938206,
                -1.3789630767518573,
                0.9117857503641846
            ]
        },
        {
            "positions": [
                0.4624766199413761,
                -1.373676295903822,
                0.1389006392459038,
                -1.2781393898796525,
                -1.3641950908861487,
                0.9479215998440912
            ]
        },
        {
            "positions": [
                0.30268191126126087,
                -1.382914628461494,
                0.2859377223434021,
                -1.2588242748654843,
                -1.3494271050204398,
                0.9840574493239977
            ]
        },
        {
            "positions": [
                0.14288720258114607,
                -1.392152961019166,
                0.43297480544089995,
                -1.2395091598513162,
                -1.3346591191547312,
                1.0201932988039044
            ]
        },
        {
            "positions": [
                -0.01690750609896874,
                -1.401391293576838,
                0.5800118885383978,
                -1.220194044837148,
                -1.3198911332890226,
                1.0563291482838109
            ]
        },
        {
            "positions": [
                -0.176702214779084,
                -1.41062962613451,
                0.7270489716358957,
                -1.2008789298229798,
                -1.3051231474233138,
                1.0924649977637175
            ]
        },
        {
            "positions": [
                -0.33649692345919835,
                -1.419867958692182,
                0.8740860547333935,
                -1.1815638148088117,
                -1.290355161557605,
                1.1286008472436242
            ]
        },
        {
            "positions": [
                -0.4962916321393135,
                -1.429106291249854,
                1.0211231378308914,
                -1.1622486997946435,
                -1.2755871756918964,
                1.1647366967235306
            ]
        },
        {
            "positions": [
                -0.45504217803506736,
                -1.409183013779196,
                1.0833900007116137,
                -1.1318063700169163,
                -1.1823525672870348,
                1.2880090599144587
            ]
        },
        {
            "positions": [
                -0.4137927239308212,
                -1.3892597363085384,
                1.1456568635923363,
                -1.101364040239189,
                -1.0891179588821733,
                1.411281423105387
            ]
        },
        {
            "positions": [
                -0.3725432698265751,
                -1.3693364588378805,
                1.2079237264730587,
                -1.070921710461462,
                -0.9958833504773117,
                1.534553786296315
            ]
        },
        {
            "positions": [
                -0.33129381572232897,
                -1.3494131813672225,
                1.270190589353781,
                -1.040479380683735,
                -0.90264874207245,
                1.6578261494872433
            ]
        },
        {
            "positions": [
                -0.2900443616180829,
                -1.3294899038965646,
                1.3324574522345034,
                -1.0100370509060077,
                -0.8094141336675886,
                1.7810985126781713
            ]
        },
        {
            "positions": [
                -0.2487949075138367,
                -1.309566626425907,
                1.394724315115226,
                -0.9795947211282805,
                -0.716179525262727,
                1.9043708758690996
            ]
        },
        {
            "positions": [
                -0.20754545340959057,
                -1.289643348955249,
                1.4569911779959483,
                -0.9491523913505533,
                -0.6229449168578655,
                2.0276432390600276
            ]
        },
        {
            "positions": [
                -0.1662959993053445,
                -1.269720071484591,
                1.519258040876671,
                -0.9187100615728262,
                -0.5297103084530038,
                2.1509156022509557
            ]
        },
        {
            "positions": [
                -0.12504654520109837,
                -1.2497967940139332,
                1.5815249037573933,
                -0.888267731795099,
                -0.4364757000481423,
                2.274187965441884
            ]
        },
        {
            "positions": [
                -0.08379709109685224,
                -1.2298735165432755,
                1.6437917666381157,
                -0.8578254020173719,
                -0.34324109164328076,
                2.397460328632812
            ]
        },
        {
            "positions": [
                -0.04254763699260611,
                -1.2099502390726176,
                1.706058629518838,
                -0.8273830722396447,
                -0.25000648323841923,
                2.5207326918237403
            ]
        },
        {
            "positions": [
                -0.0012981828883599222,
                -1.1900269616019596,
                1.7683254923995606,
                -0.7969407424619175,
                -0.1567718748335576,
                2.6440050550146683
            ]
        },
        {
            "positions": [
                0.03995127121588615,
                -1.170103684131302,
                1.8305923552802832,
                -0.7664984126841903,
                -0.06353726642869595,
                2.7672774182055964
            ]
        },
        {
            "positions": [
                0.08120072532013234,
                -1.150180406660644,
                1.8928592181610053,
                -0.7360560829064631,
                0.02969734197616547,
                2.890549781396525
            ]
        },
        {
            "positions": [
                0.12245017942437844,
                -1.130257129189986,
                1.955126081041728,
                -0.705613753128736,
                0.12293195038102718,
                3.013822144587453
            ]
        }
    ]
}