{
    "goal": {
        "global_pose": {
            "orientation": {
                "w": 0.005598929693374612,
                "x": 0.007748599140229565,
                "y": 0.7110244013736278,
                "z": -0.7031023480610252
            },
            "position": {
                "x": -0.8858502320852131,
                "y": -0.7141253447532654,
                "z": 0.3711530566215515
            }
        },
        "name": "move_to_auspresseinheit_C"
    },
    "id": "SPARS_move_to_auspresseinheit_C_148",
    "joint_names": [
        "shoulder_pan_joint",
        "shoulder_lift_joint",
        "elbow_joint",
        "wrist_1_joint",
        "wrist_2_joint",
        "wrist_3_joint"
    ],
    "metrics": {
        "cart_traj_len": 0.49284815465948056,
        "distance_elbow_joint": 0.9921236162749799,
        "distance_shoulder_lift_joint": 0.3209038760891728,
        "distance_shoulder_pan_joint": 0.2561059366702336,
        "distance_wrist_1_joint": 0.6582956398681639,
        "distance_wrist_2_joint": 1.3144194279094088,
        "distance_wrist_3_joint": 0.04262594257212271,
        "smoothness": 1.6148698667872622e-16,
        "time": 5.0180892020000005,
        "traj_len": 1.8932708309653117,
        "weighted_distance": 2.3753823676001935
    },
    "planner": "SPARS",
    "start": {
        "state": {
            "elbow_joint": 1.7527959577737207,
            "shoulder_lift_joint": -0.9740617694225068,
            "shoulder_pan_joint": -2.967991417825858,
            "wrist_1_joint": -0.759517768980727,
            "wrist_2_joint": 1.7443932448377408,
            "wrist_3_joint": -3.0840537646736568
        }
    },
    "waypoints": [
        {
            "positions": [
                -2.967991417825858,
                -0.9740617694225068,
                1.7527959577737207,
                -0.759517768980727,
                1.7443932448377408,
                -3.0840537646736568
            ]
        },
        {
            "positions": [
                -2.9423808241588345,
                -0.9419713818135895,
                1.6535835961462226,
                -0.6936882049939106,
                1.6129513020468,
                -3.088316358930869
            ]
        },
        {
            "positions": [
                -2.916770230491811,
                -0.9098809942046722,
                1.5543712345187246,
                -0.6278586410070942,
                1.481509359255859,
                -3.0925789531880814
            ]
        },
        {
            "positions": [
                -2.891159636824788,
                -0.8777906065957549,
                1.4551588728912268,
                -0.5620290770202778,
                1.3500674164649182,
                -3.0968415474452935
            ]
        },
        {
            "positions": [
                -2.8655490431577646,
                -0.8457002189868377,
                1.3559465112637286,
                -0.49619951303346144,
                1.2186254736739772,
                -3.101104141702506
            ]
        },
        {
            "positions": [
                -2.839938449490741,
                -0.8136098313779203,
                1.2567341496362308,
                -0.43036994904664505,
                1.0871835308830364,
                -3.105366735959718
            ]
        },
        {
            "positions": [
                -2.8143278558237177,
                -0.7815194437690031,
                1.1575217880087327,
                -0.36454038505982866,
                0.9557415880920955,
                -3.10962933021693
            ]
        },
        {
            "positions": [
                -2.7887172621566942,
                -0.7494290561600858,
                1.0583094263812347,
                -0.29871082107301233,
                0.8242996453011547,
                -3.1138919244741428
            ]
        },
        {
            "positions": [
                -2.7631066684896712,
                -0.7173386685511685,
                0.9590970647537367,
                -0.2328812570861959,
                0.6928577025102138,
                -3.118154518731355
            ]
        },
        {
            "positions": [
                -2.737496074822648,
                -0.6852482809422512,
                0.8598847031262388,
                -0.1670516930993795,
                0.5614157597192728,
                -3.1224171129885674
            ]
        },
        {
            "positions": [
                -2.7118854811556243,
                -0.653157893333334,
                0.7606723414987407,
                -0.10122212911256312,
                0.4299738169283319,
                -3.1266797072457795
            ]
        }
    ]
}