{
    "goal": {
        "global_pose": {
            "orientation": {
                "w": 0.005598929693374612,
                "x": 0.007748599140229565,
                "y": 0.7110244013736278,
                "z": -0.7031023480610252
            },
            "position": {
                "x": -0.8858502320852131,
                "y": -0.7141253447532654,
                "z": 0.3711530566215515
            }
        },
        "name": "move_to_auspresseinheit_C"
    },
    "id": "SPARS_move_to_auspresseinheit_C_89",
    "joint_names": [
        "shoulder_pan_joint",
        "shoulder_lift_joint",
        "elbow_joint",
        "wrist_1_joint",
        "wrist_2_joint",
        "wrist_3_joint"
    ],
    "metrics": {
        "cart_traj_len": 0.49357565725880853,
        "distance_elbow_joint": 0.9948424611344657,
        "distance_shoulder_lift_joint": 0.32242909900061656,
        "distance_shoulder_pan_joint": 0.25647529733175656,
        "distance_wrist_1_joint": 0.6582493817128572,
        "distance_wrist_2_joint": 1.3114189187155108,
        "distance_wrist_3_joint": 0.04183174165098302,
        "smoothness": 1.6148698667872622e-16,
        "time": 5.016378101,
        "traj_len": 1.8934748214714103,
        "weighted_distance": 2.374569157400248
    },
    "planner": "SPARS",
    "start": {
        "state": {
            "elbow_joint": 1.7527959577737207,
            "shoulder_lift_joint": -0.9740617694225068,
            "shoulder_pan_joint": -2.967991417825858,
            "wrist_1_joint": -0.759517768980727,
            "wrist_2_joint": 1.7443932448377408,
            "wrist_3_joint": -3.0840537646736568
        }
    },
    "waypoints": [
        {
            "positions": [
                -2.967991417825858,
                -0.9740617694225068,
                1.7527959577737207,
                -0.759517768980727,
                1.7443932448377408,
                -3.0840537646736568
            ]
        },
        {
            "positions": [
                -2.942343888092682,
                -0.9418188595224452,
                1.653311711660274,
                -0.6936928308094412,
                1.6132513529661898,
                -3.088236938838755
            ]
        },
        {
            "positions": [
                -2.9166963583595065,
                -0.9095759496223834,
                1.5538274655468274,
                -0.6278678926381556,
                1.4821094610946386,
                -3.0924201130038536
            ]
        },
        {
            "positions": [
                -2.891048828626331,
                -0.8773330397223218,
                1.454343219433381,
                -0.5620429544668698,
                1.3509675692230876,
                -3.0966032871689517
            ]
        },
        {
            "positions": [
                -2.8654012988931554,
                -0.8450901298222602,
                1.3548589733199343,
                -0.4962180162955841,
                1.2198256773515364,
                -3.10078646133405
            ]
        },
        {
            "positions": [
                -2.8397537691599797,
                -0.8128472199221985,
                1.2553747272064877,
                -0.4303930781242984,
                1.0886837854799856,
                -3.104969635499148
            ]
        },
        {
            "positions": [
                -2.814106239426804,
                -0.7806043100221368,
                1.1558904810930413,
                -0.3645681399530127,
                0.9575418936084344,
                -3.1091528096642467
            ]
        },
        {
            "positions": [
                -2.788458709693628,
                -0.7483614001220752,
                1.0564062349795948,
                -0.298743201781727,
                0.8264000017368833,
                -3.113335983829345
            ]
        },
        {
            "positions": [
                -2.762811179960453,
                -0.7161184902220135,
                0.956921988866148,
                -0.2329182636104412,
                0.6952581098653321,
                -3.117519157994443
            ]
        },
        {
            "positions": [
                -2.737163650227277,
                -0.6838755803219518,
                0.8574377427527015,
                -0.16709332543915545,
                0.5641162179937811,
                -3.1217023321595416
            ]
        },
        {
            "positions": [
                -2.7115161204941014,
                -0.6516326704218902,
                0.7579534966392549,
                -0.10126838726786984,
                0.43297432612223014,
                -3.12588550632464
            ]
        }
    ]
}