{
    "goal": {
        "global_pose": {
            "orientation": {
                "w": 0.005598929693374612,
                "x": 0.007748599140229565,
                "y": 0.7110244013736278,
                "z": -0.7031023480610252
            },
            "position": {
                "x": 0.1141497679147869,
                "y": -0.7141253447532654,
                "z": 0.3711530566215515
            }
        },
        "name": "move_to_auspresseinheit_B"
    },
    "id": "SPARS_move_to_auspresseinheit_B_144",
    "joint_names": [
        "shoulder_pan_joint",
        "shoulder_lift_joint",
        "elbow_joint",
        "wrist_1_joint",
        "wrist_2_joint",
        "wrist_3_joint"
    ],
    "metrics": {
        "cart_traj_len": 0.5642338561667812,
        "distance_elbow_joint": 0.06290737176601979,
        "distance_shoulder_lift_joint": 0.29474435153147427,
        "distance_shoulder_pan_joint": 0.5747149399216442,
        "distance_wrist_1_joint": 0.33253273451289234,
        "distance_wrist_2_joint": 1.0074988270860508,
        "distance_wrist_3_joint": 0.0059710218877655485,
        "smoothness": 3.806478935924272e-16,
        "time": 5.020927128,
        "traj_len": 1.5094267940863668,
        "weighted_distance": 1.9053458615380887
    },
    "planner": "SPARS",
    "start": {
        "state": {
            "elbow_joint": 2.0193083361928714,
            "shoulder_lift_joint": -1.1220246554650708,
            "shoulder_pan_joint": -1.0952077554168747,
            "wrist_1_joint": -0.8559753972642168,
            "wrist_2_joint": 0.4759566250798843,
            "wrist_3_joint": -3.1240929996934557
        }
    },
    "waypoints": [
        {
            "positions": [
                -1.0952077554168747,
                -1.1220246554650708,
                2.0193083361928714,
                -0.8559753972642168,
                0.4759566250798843,
                -3.1240929996934557
            ]
        },
        {
            "positions": [
                -1.1909935787371486,
                -1.1711487140536498,
                2.008823774231868,
                -0.8005532748454014,
                0.6438730962608927,
                -3.125088170008083
            ]
        },
        {
            "positions": [
                -1.2867794020574228,
                -1.2202727726422289,
                1.9983392122708648,
                -0.745131152426586,
                0.8117895674419011,
                -3.126083340322711
            ]
        },
        {
            "positions": [
                -1.3825652253776968,
                -1.269396831230808,
                1.9878546503098615,
                -0.6897090300077706,
                0.9797060386229097,
                -3.1270785106373387
            ]
        },
        {
            "positions": [
                -1.4783510486979707,
                -1.318520889819387,
                1.9773700883488583,
                -0.6342869075889552,
                1.1476225098039181,
                -3.128073680951966
            ]
        },
        {
            "positions": [
                -1.574136872018245,
                -1.367644948407966,
                1.9668855263878549,
                -0.5788647851701398,
                1.3155389809849267,
                -3.1290688512665934
            ]
        },
        {
            "positions": [
                -1.669922695338519,
                -1.416769006996545,
                1.9564009644268516,
                -0.5234426627513245,
                1.483455452165935,
                -3.130064021581221
            ]
        }
    ]
}