{
    "goal": {
        "global_pose": {
            "orientation": {
                "w": 0.005598929693374612,
                "x": 0.007748599140229565,
                "y": 0.7110244013736278,
                "z": -0.7031023480610252
            },
            "position": {
                "x": -0.8858502320852131,
                "y": -0.7141253447532654,
                "z": 0.3711530566215515
            }
        },
        "name": "move_to_auspresseinheit_C"
    },
    "id": "SPARS_move_to_auspresseinheit_C_138",
    "joint_names": [
        "shoulder_pan_joint",
        "shoulder_lift_joint",
        "elbow_joint",
        "wrist_1_joint",
        "wrist_2_joint",
        "wrist_3_joint"
    ],
    "metrics": {
        "cart_traj_len": 0.49311471638104776,
        "distance_elbow_joint": 0.9974705365837121,
        "distance_shoulder_lift_joint": 0.3229355617519244,
        "distance_shoulder_pan_joint": 0.2563474934403014,
        "distance_wrist_1_joint": 0.6756953881588993,
        "distance_wrist_2_joint": 1.3110788702169687,
        "distance_wrist_3_joint": 0.05190282712119609,
        "smoothness": 8.074349282788172e-16,
        "time": 5.009197196,
        "traj_len": 1.9014285885283733,
        "weighted_distance": 2.388725725128622
    },
    "planner": "SPARS",
    "start": {
        "state": {
            "elbow_joint": 1.7527959577737207,
            "shoulder_lift_joint": -0.9740617694225068,
            "shoulder_pan_joint": -2.967991417825858,
            "wrist_1_joint": -0.759517768980727,
            "wrist_2_joint": 1.7443932448377408,
            "wrist_3_joint": -3.0840537646736568
        }
    },
    "waypoints": [
        {
            "positions": [
                -2.967991417825858,
                -0.9740617694225068,
                1.7527959577737207,
                -0.759517768980727,
                1.7443932448377408,
                -3.0840537646736568
            ]
        },
        {
            "positions": [
                -2.942356668481828,
                -0.9417682132473143,
                1.6530489041153493,
                -0.6919482301648371,
                1.613285357816044,
                -3.0892440473857765
            ]
        },
        {
            "positions": [
                -2.9167219191377978,
                -0.9094746570721219,
                1.5533018504569782,
                -0.6243786913489471,
                1.4821774707943471,
                -3.094434330097896
            ]
        },
        {
            "positions": [
                -2.8910871697937677,
                -0.8771811008969295,
                1.453554796798607,
                -0.5568091525330572,
                1.3510695837726503,
                -3.0996246128100156
            ]
        },
        {
            "positions": [
                -2.8654524204497376,
                -0.844887544721737,
                1.3538077431402358,
                -0.48923961371716723,
                1.2199616967509535,
                -3.1048148955221353
            ]
        },
        {
            "positions": [
                -2.839817671105707,
                -0.8125939885465445,
                1.2540606894818647,
                -0.42167007490127734,
                1.0888538097292564,
                -3.110005178234255
            ]
        },
        {
            "positions": [
                -2.814182921761677,
                -0.7803004323713522,
                1.1543136358234936,
                -0.35410053608538744,
                0.9577459227075596,
                -3.1151954609463743
            ]
        },
        {
            "positions": [
                -2.788548172417647,
                -0.7480068761961597,
                1.0545665821651222,
                -0.2865309972694975,
                0.8266380356858628,
                -3.120385743658494
            ]
        },
        {
            "positions": [
                -2.7629134230736168,
                -0.7157133200209673,
                0.9548195285067509,
                -0.21896145845360748,
                0.6955301486641658,
                -3.125576026370614
            ]
        },
        {
            "positions": [
                -2.7372786737295867,
                -0.6834197638457749,
                0.8550724748483798,
                -0.1513919196377176,
                0.564422261642469,
                -3.130766309082733
            ]
        },
        {
            "positions": [
                -2.7116439243855566,
                -0.6511262076705824,
                0.7553254211900086,
                -0.08382238082182766,
                0.43331437462077216,
                -3.135956591794853
            ]
        }
    ]
}