{
    "goal": {
        "global_pose": {
            "orientation": {
                "w": -0.00223480608172531,
                "x": 0.0024358444001904467,
                "y": 0.7094548369677653,
                "z": -0.704743149386269
            },
            "position": {
                "x": -0.37947507619857795,
                "y": -0.6371506643295288,
                "z": 0.19426114857196808
            }
        },
        "name": "move_to_magneteinheit_C"
    },
    "id": "SPARS_move_to_magneteinheit_C_124",
    "joint_names": [
        "shoulder_pan_joint",
        "shoulder_lift_joint",
        "elbow_joint",
        "wrist_1_joint",
        "wrist_2_joint",
        "wrist_3_joint"
    ],
    "metrics": {
        "cart_traj_len": 1.5151639610207803,
        "distance_elbow_joint": 0.6937803776961298,
        "distance_shoulder_lift_joint": 1.158023957343637,
        "distance_shoulder_pan_joint": 1.4287988108891498,
        "distance_wrist_1_joint": 2.733886620950578,
        "distance_wrist_2_joint": 2.9413159152371025,
        "distance_wrist_3_joint": 1.1223249081626383,
        "smoothness": 0.9092347933939965,
        "time": 5.037228827,
        "traj_len": 3.1746071552680712,
        "weighted_distance": 4.242402967987859
    },
    "planner": "SPARS",
    "start": {
        "state": {
            "elbow_joint": 1.9565354010623817,
            "shoulder_lift_joint": -1.4165861575791021,
            "shoulder_pan_joint": -1.6717766225146293,
            "wrist_1_joint": -0.5286633292919765,
            "wrist_2_joint": 1.472756589071564,
            "wrist_3_joint": -3.1238370188695823
        }
    },
    "waypoints": [
        {
            "positions": [
                -1.6717766225146293,
                -1.4165861575791021,
                1.9565354010623817,
                -0.5286633292919765,
                1.472756589071564,
                -3.1238370188695823
            ]
        },
        {
            "positions": [
                -1.6849785101783967,
                -1.4479698322232648,
                1.9501505114705862,
                -0.4609029724446768,
                1.2645593101489152,
                -3.0625638270801785
            ]
        },
        {
            "positions": [
                -1.698180397842164,
                -1.4793535068674275,
                1.9437656218787907,
                -0.3931426155973772,
                1.0563620312262665,
                -3.001290635290775
            ]
        },
        {
            "positions": [
                -1.7113822855059313,
                -1.5107371815115902,
                1.9373807322869951,
                -0.32538225875007754,
                0.8481647523036177,
                -2.9400174435013713
            ]
        },
        {
            "positions": [
                -1.7245841731696985,
                -1.542120856155753,
                1.9309958426951996,
                -0.2576219019027779,
                0.6399674733809689,
                -2.8787442517119675
            ]
        },
        {
            "positions": [
                -1.7377860608334659,
                -1.5735045307999156,
                1.9246109531034041,
                -0.18986154505547825,
                0.4317701944583201,
                -2.817471059922564
            ]
        },
        {
            "positions": [
                -1.750987948497233,
                -1.6048882054440783,
                1.9182260635116086,
                -0.12210118820817861,
                0.22357291553567138,
                -2.7561978681331603
            ]
        },
        {
            "positions": [
                -1.7641898361610004,
                -1.636271880088241,
                1.9118411739198131,
                -0.05434083136087897,
                0.015375636613022436,
                -2.6949246763437564
            ]
        },
        {
            "positions": [
                -1.7773917238247676,
                -1.6676555547324037,
                1.9054562843280176,
                0.01341952548642067,
                -0.19282164230962606,
                -2.633651484554353
            ]
        },
        {
            "positions": [
                -1.790593611488535,
                -1.6990392293765664,
                1.899071394736222,
                0.08117988233372035,
                -0.401018921232275,
                -2.5723782927649492
            ]
        },
        {
            "positions": [
                -1.933080721283881,
                -1.7233118712286073,
                1.8615979786403634,
                0.16746521506805337,
                -0.3634079184118475,
                -2.637194410183098
            ]
        },
        {
            "positions": [
                -2.0755678310792267,
                -1.747584513080648,
                1.8241245625445044,
                0.2537505478023864,
                -0.32579691559142004,
                -2.702010527601247
            ]
        },
        {
            "positions": [
                -2.2180549408745724,
                -1.771857154932689,
                1.7866511464486456,
                0.3400358805367194,
                -0.2881859127709926,
                -2.766826645019396
            ]
        },
        {
            "positions": [
                -2.3605420506699186,
                -1.7961297967847298,
                1.749177730352787,
                0.42632121327105243,
                -0.2505749099505651,
                -2.8316427624375446
            ]
        },
        {
            "positions": [
                -2.5030291604652644,
                -1.8204024386367708,
                1.7117043142569281,
                0.5126065460053855,
                -0.21296390713013758,
                -2.8964588798556936
            ]
        },
        {
            "positions": [
                -2.64551627026061,
                -1.8446750804888115,
                1.6742308981610692,
                0.5988918787397184,
                -0.17535290430971012,
                -2.9612749972738426
            ]
        },
        {
            "positions": [
                -2.7880033800559563,
                -1.8689477223408524,
                1.6367574820652104,
                0.6851772114740514,
                -0.13774190148928261,
                -3.0260911146919915
            ]
        },
        {
            "positions": [
                -2.756746174721174,
                -1.7983814830826637,
                1.6741577279351063,
                0.5331726034555964,
                -0.0573155629702556,
                -3.0378064507050877
            ]
        },
        {
            "positions": [
                -2.7254889693863915,
                -1.727815243824475,
                1.7115579738050022,
                0.38116799543714125,
                0.023110775548771417,
                -3.0495217867181843
            ]
        },
        {
            "positions": [
                -2.6942317640516094,
                -1.6572490045662864,
                1.748958219674898,
                0.2291633874186862,
                0.10353711406779839,
                -3.0612371227312805
            ]
        },
        {
            "positions": [
                -2.662974558716827,
                -1.5866827653080977,
                1.786358465544794,
                0.07715877940023108,
                0.18396345258682545,
                -3.0729524587443766
            ]
        },
        {
            "positions": [
                -2.6317173533820446,
                -1.516116526049909,
                1.8237587114146896,
                -0.07484582861822398,
                0.2643897911058524,
                -3.0846677947574728
            ]
        },
        {
            "positions": [
                -2.6004601480472624,
                -1.4455502867917203,
                1.8611589572845855,
                -0.22685043663667903,
                0.3448161296248794,
                -3.0963831307705694
            ]
        },
        {
            "positions": [
                -2.5692029427124803,
                -1.3749840475335318,
                1.8985592031544813,
                -0.3788550446551341,
                0.42524246814390637,
                -3.1080984667836655
            ]
        },
        {
            "positions": [
                -2.537945737377698,
                -1.304417808275343,
                1.9359594490243772,
                -0.5308596526735893,
                0.5056688066629336,
                -3.1198138027967617
            ]
        },
        {
            "positions": [
                -2.5066885320429155,
                -1.2338515690171543,
                1.973359694894273,
                -0.6828642606920444,
                0.5860951451819605,
                -3.1315291388098583
            ]
        },
        {
            "positions": [
                -2.4754313267081334,
                -1.1632853297589656,
                2.010759940764169,
                -0.8348688687104993,
                0.6665214837009874,
                -3.1432444748229544
            ]
        }
    ]
}