{
    "goal": {
        "global_pose": {
            "orientation": {
                "w": 0.7047431493862688,
                "x": -0.7094548369677653,
                "y": 0.0024358444001904,
                "z": -0.0022348060817251984
            },
            "position": {
                "x": -0.39052492380142206,
                "y": 0.3671506643295288,
                "z": 0.19426114857196808
            }
        },
        "name": "move_to_magneteinheit_D"
    },
    "id": "SPARS_move_to_magneteinheit_D_148",
    "joint_names": [
        "shoulder_pan_joint",
        "shoulder_lift_joint",
        "elbow_joint",
        "wrist_1_joint",
        "wrist_2_joint",
        "wrist_3_joint"
    ],
    "metrics": {
        "cart_traj_len": 6.138516778492023,
        "distance_elbow_joint": 4.4172412388805675,
        "distance_shoulder_lift_joint": 1.9903812712151034,
        "distance_shoulder_pan_joint": 4.7820156701172065,
        "distance_wrist_1_joint": 5.372181652095572,
        "distance_wrist_2_joint": 3.435393978496662,
        "distance_wrist_3_joint": 5.97298965359242,
        "smoothness": 0.6622808910833718,
        "time": 5.0584211539999995,
        "traj_len": 5.096096885303253,
        "weighted_distance": 6.8354779205388825
    },
    "planner": "SPARS",
    "start": {
        "state": {
            "elbow_joint": 0.749534889911806,
            "shoulder_lift_joint": -0.6476975780787326,
            "shoulder_pan_joint": -2.711696901376241,
            "wrist_1_joint": -0.07506478083263063,
            "wrist_2_joint": 0.43296659715538205,
            "wrist_3_joint": -3.14703540197715
        }
    },
    "waypoints": [
        {
            "positions": [
                -2.711696901376241,
                -0.6476975780787326,
                0.749534889911806,
                -0.07506478083263063,
                0.43296659715538205,
                -3.14703540197715
            ]
        },
        {
            "positions": [
                -2.7095831449747307,
                -0.6685184606368964,
                0.7977860248920734,
                -0.08365792008996811,
                0.518968258780282,
                -2.9963111575296195
            ]
        },
        {
            "positions": [
                -2.7074693885732204,
                -0.6893393431950602,
                0.8460371598723407,
                -0.09225105934730558,
                0.6049699204051819,
                -2.845586913082089
            ]
        },
        {
            "positions": [
                -2.70535563217171,
                -0.710160225753224,
                0.8942882948526081,
                -0.10084419860464305,
                0.6909715820300819,
                -2.6948626686345585
            ]
        },
        {
            "positions": [
                -2.7032418757701997,
                -0.7309811083113877,
                0.9425394298328755,
                -0.10943733786198054,
                0.7769732436549819,
                -2.544138424187028
            ]
        },
        {
            "positions": [
                -2.728018253136041,
                -0.7526864205809708,
                0.9632963235040328,
                -0.2125726215814988,
                0.8255308985605023,
                -2.387610367996106
            ]
        },
        {
            "positions": [
                -2.7527946305018824,
                -0.7743917328505538,
                0.9840532171751901,
                -0.3157079053010171,
                0.8740885534660228,
                -2.2310823118051837
            ]
        },
        {
            "positions": [
                -2.777571007867724,
                -0.7960970451201369,
                1.0048101108463474,
                -0.4188431890205354,
                0.9226462083715432,
                -2.0745542556142613
            ]
        },
        {
            "positions": [
                -2.802347385233565,
                -0.81780235738972,
                1.0255670045175047,
                -0.5219784727400537,
                0.9712038632770638,
                -1.9180261994233394
            ]
        },
        {
            "positions": [
                -2.8271237625994066,
                -0.839507669659303,
                1.046323898188662,
                -0.625113756459572,
                1.0197615181825843,
                -1.7614981432324173
            ]
        },
        {
            "positions": [
                -2.851900139965248,
                -0.8612129819288861,
                1.0670807918598193,
                -0.7282490401790902,
                1.0683191730881045,
                -1.6049700870414951
            ]
        },
        {
            "positions": [
                -2.8766765173310893,
                -0.8829182941984691,
                1.0878376855309766,
                -0.8313843238986085,
                1.1168768279936252,
                -1.448442030850573
            ]
        },
        {
            "positions": [
                -2.9014528946969307,
                -0.9046236064680522,
                1.108594579202134,
                -0.9345196076181268,
                1.1654344828991456,
                -1.2919139746596509
            ]
        },
        {
            "positions": [
                -2.9262292720627716,
                -0.9263289187376352,
                1.1293514728732912,
                -1.037654891337645,
                1.213992137804666,
                -1.1353859184687287
            ]
        },
        {
            "positions": [
                -2.9510056494286134,
                -0.9480342310072183,
                1.1501083665444485,
                -1.1407901750571636,
                1.2625497927101865,
                -0.9788578622778066
            ]
        },
        {
            "positions": [
                -2.9757820267944544,
                -0.9697395432768013,
                1.1708652602156058,
                -1.243925458776682,
                1.311107447615707,
                -0.8223298060868842
            ]
        },
        {
            "positions": [
                -3.0005584041602957,
                -0.9914448555463844,
                1.191622153886763,
                -1.3470607424962,
                1.3596651025212274,
                -0.6658017498959623
            ]
        },
        {
            "positions": [
                -3.025334781526137,
                -1.0131501678159673,
                1.2123790475579204,
                -1.4501960262157183,
                1.4082227574267479,
                -0.5092736937050404
            ]
        },
        {
            "positions": [
                -3.0501111588919785,
                -1.0348554800855505,
                1.2331359412290777,
                -1.5533313099352366,
                1.4567804123322685,
                -0.352745637514118
            ]
        },
        {
            "positions": [
                -3.07488753625782,
                -1.0565607923551337,
                1.253892834900235,
                -1.656466593654755,
                1.505338067237789,
                -0.19621758132319567
            ]
        },
        {
            "positions": [
                -3.0996639136236612,
                -1.0782661046247166,
                1.2746497285713922,
                -1.7596018773742732,
                1.5538957221433094,
                -0.03968952513227375
            ]
        },
        {
            "positions": [
                -3.1244402909895026,
                -1.0999714168942996,
                1.2954066222425495,
                -1.8627371610937915,
                1.6024533770488298,
                0.11683853105864817
            ]
        },
        {
            "positions": [
                -3.149216668355344,
                -1.1216767291638827,
                1.3161635159137068,
                -1.9658724448133098,
                1.6510110319543503,
                0.2733665872495705
            ]
        },
        {
            "positions": [
                -3.056170415617215,
                -1.1067682046482181,
                1.244934487163701,
                -1.8653928825475354,
                1.620613677000014,
                0.19752146939700324
            ]
        },
        {
            "positions": [
                -2.9631241628790863,
                -1.0918596801325537,
                1.173705458413695,
                -1.7649133202817613,
                1.5902163220456778,
                0.12167635154443596
            ]
        },
        {
            "positions": [
                -2.8700779101409575,
                -1.0769511556168891,
                1.1024764296636889,
                -1.6644337580159871,
                1.5598189670913414,
                0.045831233691868645
            ]
        },
        {
            "positions": [
                -2.7770316574028286,
                -1.0620426311012248,
                1.031247400913683,
                -1.5639541957502128,
                1.5294216121370052,
                -0.030013884160698612
            ]
        },
        {
            "positions": [
                -2.6839854046647,
                -1.0471341065855602,
                0.960018372163677,
                -1.4634746334844384,
                1.4990242571826689,
                -0.10585900201326598
            ]
        },
        {
            "positions": [
                -2.5909391519265705,
                -1.0322255820698958,
                0.888789343413671,
                -1.3629950712186643,
                1.4686269022283325,
                -0.18170411986583324
            ]
        },
        {
            "positions": [
                -2.4978928991884417,
                -1.0173170575542312,
                0.817560314663665,
                -1.26251550895289,
                1.4382295472739963,
                -0.25754923771840055
            ]
        },
        {
            "positions": [
                -2.404846646450313,
                -1.0024085330385668,
                0.746331285913659,
                -1.1620359466871157,
                1.40783219231966,
                -0.33339435557096775
            ]
        },
        {
            "positions": [
                -2.311800393712184,
                -0.9875000085229022,
                0.6751022571636531,
                -1.0615563844213414,
                1.3774348373653238,
                -0.40923947342353517
            ]
        },
        {
            "positions": [
                -2.218754140974055,
                -0.9725914840072377,
                0.6038732284136471,
                -0.9610768221555672,
                1.3470374824109874,
                -0.4850845912761025
            ]
        },
        {
            "positions": [
                -2.1257078882359264,
                -0.9576829594915732,
                0.5326441996636412,
                -0.8605972598897931,
                1.3166401274566513,
                -0.5609297091286697
            ]
        },
        {
            "positions": [
                -2.0326616354977975,
                -0.9427744349759087,
                0.4614151709136351,
                -0.7601176976240188,
                1.286242772502315,
                -0.636774826981237
            ]
        },
        {
            "positions": [
                -1.9354191465155235,
                -0.9922103356555377,
                0.34919063375589526,
                -0.6838541121986952,
                1.30079277356707,
                -0.5929204037082919
            ]
        },
        {
            "positions": [
                -1.8381766575332494,
                -1.0416462363351668,
                0.2369660965981554,
                -0.6075905267733717,
                1.3153427746318247,
                -0.5490659804353469
            ]
        },
        {
            "positions": [
                -1.7409341685509752,
                -1.0910821370147958,
                0.12474155944041554,
                -0.531326941348048,
                1.3298927756965797,
                -0.5052115571624018
            ]
        },
        {
            "positions": [
                -1.643691679568701,
                -1.1405180376944248,
                0.012517022282675705,
                -0.45506335592272446,
                1.3444427767613347,
                -0.46135713388945676
            ]
        },
        {
            "positions": [
                -1.546449190586427,
                -1.1899539383740538,
                -0.09970751487506418,
                -0.3787997704974008,
                1.3589927778260895,
                -0.41750271061651173
            ]
        },
        {
            "positions": [
                -1.4492067016041528,
                -1.239389839053683,
                -0.21193205203280402,
                -0.30253618507207725,
                1.3735427788908445,
                -0.37364828734356664
            ]
        },
        {
            "positions": [
                -1.351964212621879,
                -1.288825739733312,
                -0.32415658919054374,
                -0.22627259964675372,
                1.3880927799555995,
                -0.32979386407062167
            ]
        },
        {
            "positions": [
                -1.2547217236396047,
                -1.338261640412941,
                -0.4363811263482837,
                -0.1500090142214301,
                1.4026427810203546,
                -0.2859394407976766
            ]
        },
        {
            "positions": [
                -1.1574792346573306,
                -1.38769754109257,
                -0.5486056635060235,
                -0.07374542879610657,
                1.4171927820851093,
                -0.24208501752473155
            ]
        },
        {
            "positions": [
                -1.0602367456750565,
                -1.437133441772199,
                -0.6608302006637634,
                0.002518156629217172,
                1.4317427831498644,
                -0.19823059425178646
            ]
        },
        {
            "positions": [
                -0.9629942566927825,
                -1.486569342451828,
                -0.7730547378215031,
                0.0787817420545407,
                1.4462927842146194,
                -0.15437617097884143
            ]
        },
        {
            "positions": [
                -0.8657517677105082,
                -1.536005243131457,
                -0.8852792749792431,
                0.15504532747986433,
                1.4608427852793742,
                -0.11052174770589629
            ]
        },
        {
            "positions": [
                -0.7685092787282342,
                -1.585441143811086,
                -0.9975038121369828,
                0.23130891290518785,
                1.4753927863441292,
                -0.06666732443295131
            ]
        },
        {
            "positions": [
                -0.6712667897459601,
                -1.634877044490715,
                -1.1097283492947225,
                0.30757249833051137,
                1.4899427874088842,
                -0.022812901160006338
            ]
        },
        {
            "positions": [
                -0.574024300763686,
                -1.684312945170344,
                -1.2219528864524623,
                0.3838360837558349,
                1.504492788473639,
                0.02104152211293875
            ]
        },
        {
            "positions": [
                -0.47678181178141177,
                -1.7337488458499732,
                -1.3341774236102024,
                0.46009966918115863,
                1.519042789538394,
                0.06489594538588384
            ]
        },
        {
            "positions": [
                -0.3795393227991377,
                -1.7831847465296022,
                -1.4464019607679421,
                0.5363632546064822,
                1.533592790603149,
                0.10875036865882892
            ]
        },
        {
            "positions": [
                -0.28229683381686366,
                -1.8326206472092312,
                -1.558626497925682,
                0.6126268400318057,
                1.548142791667904,
                0.1526047919317739
            ]
        },
        {
            "positions": [
                -0.1850543448345896,
                -1.8820565478888602,
                -1.6708510350834216,
                0.6888904254571292,
                1.5626927927326588,
                0.19645921520471898
            ]
        },
        {
            "positions": [
                -0.08781185585231532,
                -1.9314924485684895,
                -1.783075572241162,
                0.7651540108824532,
                1.5772427937974138,
                0.24031363847766407
            ]
        },
        {
            "positions": [
                0.009430633129958732,
                -1.9809283492481184,
                -1.8953001093989015,
                0.8414175963077767,
                1.5917927948621688,
                0.28416806175060916
            ]
        },
        {
            "positions": [
                0.10667312211223257,
                -2.0303642499277474,
                -2.0075246465566416,
                0.9176811817331002,
                1.6063427959269236,
                0.32802248502355413
            ]
        },
        {
            "positions": [
                0.20391561109450684,
                -2.0798001506073764,
                -2.119749183714381,
                0.9939447671584237,
                1.6208927969916787,
                0.3718769082964992
            ]
        },
        {
            "positions": [
                0.3011581000767811,
                -2.1292360512870054,
                -2.2319737208721215,
                1.0702083525837476,
                1.6354427980564337,
                0.4157313315694444
            ]
        },
        {
            "positions": [
                0.3984005890590554,
                -2.1786719519666344,
                -2.344198258029861,
                1.1464719380090709,
                1.6499927991211885,
                0.4595857548423894
            ]
        },
        {
            "positions": [
                0.49564307804132945,
                -2.2281078526462634,
                -2.456422795187601,
                1.2227355234343946,
                1.6645428001859435,
                0.5034401781153344
            ]
        },
        {
            "positions": [
                0.41030231485016133,
                -2.2346286536802165,
                -2.4466695074654314,
                1.2593312759177933,
                1.4802576431156897,
                0.4406612724855449
            ]
        },
        {
            "positions": [
                0.3249615516589932,
                -2.2411494547141695,
                -2.436916219743262,
                1.295927028401192,
                1.2959724860454358,
                0.3778823668557554
            ]
        },
        {
            "positions": [
                0.23962078846782509,
                -2.2476702557481225,
                -2.4271629320210923,
                1.3325227808845903,
                1.111687328975182,
                0.31510346122596594
            ]
        },
        {
            "positions": [
                0.15428002527665696,
                -2.2541910567820755,
                -2.417409644298923,
                1.369118533367989,
                0.9274021719049282,
                0.25232455559617645
            ]
        },
        {
            "positions": [
                0.06893926208548884,
                -2.260711857816029,
                -2.4076563565767533,
                1.4057142858513876,
                0.7431170148346744,
                0.18954564996638695
            ]
        },
        {
            "positions": [
                -0.016401501105679284,
                -2.267232658849982,
                -2.3979030688545837,
                1.442310038334786,
                0.5588318577644207,
                0.12676674433659751
            ]
        },
        {
            "positions": [
                -0.1017422642968474,
                -2.273753459883935,
                -2.388149781132414,
                1.4789057908181846,
                0.37454670069416673,
                0.06398783870680802
            ]
        },
        {
            "positions": [
                -0.18708302748801556,
                -2.280274260917888,
                -2.3783964934102446,
                1.5155015433015833,
                0.19026154362391293,
                0.0012089330770185336
            ]
        }
    ]
}