{
    "goal": {
        "global_pose": {
            "orientation": {
                "w": 0.7047431493862688,
                "x": -0.7094548369677653,
                "y": 0.0024358444001904,
                "z": -0.0022348060817251984
            },
            "position": {
                "x": -0.39052492380142206,
                "y": 0.3671506643295288,
                "z": 0.19426114857196808
            }
        },
        "name": "move_to_magneteinheit_D"
    },
    "id": "SPARStwo_move_to_magneteinheit_D_82",
    "joint_names": [
        "shoulder_pan_joint",
        "shoulder_lift_joint",
        "elbow_joint",
        "wrist_1_joint",
        "wrist_2_joint",
        "wrist_3_joint"
    ],
    "metrics": {
        "cart_traj_len": 5.282015190310072,
        "distance_elbow_joint": 3.114858467211429,
        "distance_shoulder_lift_joint": 1.385302076193911,
        "distance_shoulder_pan_joint": 3.6846750480791384,
        "distance_wrist_1_joint": 2.671374702183222,
        "distance_wrist_2_joint": 1.2574668266836806,
        "distance_wrist_3_joint": 6.286777738998158,
        "smoothness": 0.3452006259515097,
        "time": 5.043583351,
        "traj_len": 4.289575137394092,
        "weighted_distance": 5.907863561915827
    },
    "planner": "SPARStwo",
    "start": {
        "state": {
            "elbow_joint": 0.749534889911806,
            "shoulder_lift_joint": -0.6476975780787326,
            "shoulder_pan_joint": -2.711696901376241,
            "wrist_1_joint": -0.07506478083263063,
            "wrist_2_joint": 0.43296659715538205,
            "wrist_3_joint": -3.14703540197715
        }
    },
    "waypoints": [
        {
            "positions": [
                -2.711696901376241,
                -0.6476975780787326,
                0.749534889911806,
                -0.07506478083263063,
                0.43296659715538205,
                -3.14703540197715
            ]
        },
        {
            "positions": [
                -2.7307366797674844,
                -0.6865432712831284,
                0.7457265764477407,
                -0.2190965425899465,
                0.35868288545966487,
                -3.0519696176843376
            ]
        },
        {
            "positions": [
                -2.749776458158728,
                -0.7253889644875242,
                0.7419182629836752,
                -0.3631283043472624,
                0.28439917376394763,
                -2.9569038333915247
            ]
        },
        {
            "positions": [
                -2.7688162365499713,
                -0.76423465769192,
                0.73810994951961,
                -0.5071600661045782,
                0.2101154620682305,
                -2.8618380490987123
            ]
        },
        {
            "positions": [
                -2.7878560149412146,
                -0.8030803508963158,
                0.7343016360555447,
                -0.6511918278618942,
                0.13583175037251327,
                -2.7667722648058994
            ]
        },
        {
            "positions": [
                -2.806895793332458,
                -0.8419260441007117,
                0.7304933225914794,
                -0.7952235896192099,
                0.061548038676796146,
                -2.671706480513087
            ]
        },
        {
            "positions": [
                -2.8259355717237016,
                -0.8807717373051074,
                0.726685009127414,
                -0.9392553513765258,
                -0.012735673018921034,
                -2.576640696220274
            ]
        },
        {
            "positions": [
                -2.844975350114945,
                -0.9196174305095033,
                0.7228766956633487,
                -1.0832871131338417,
                -0.08701938471463827,
                -2.4815749119274617
            ]
        },
        {
            "positions": [
                -2.864015128506188,
                -0.9584631237138991,
                0.7190683821992834,
                -1.2273188748911577,
                -0.1613030964103555,
                -2.386509127634649
            ]
        },
        {
            "positions": [
                -2.8830549068974314,
                -0.9973088169182949,
                0.715260068735218,
                -1.3713506366484736,
                -0.23558680810607263,
                -2.2914433433418364
            ]
        },
        {
            "positions": [
                -2.902094685288675,
                -1.0361545101226906,
                0.7114517552711527,
                -1.5153823984057893,
                -0.30987051980178976,
                -2.196377559049024
            ]
        },
        {
            "positions": [
                -2.9211344636799184,
                -1.0750002033270865,
                0.7076434418070874,
                -1.6594141601631052,
                -0.38415423149750694,
                -2.101311774756211
            ]
        },
        {
            "positions": [
                -2.767850085829142,
                -1.0880612115950397,
                0.665112075008501,
                -1.6401531365358595,
                -0.3629720938568346,
                -1.9646723849550187
            ]
        },
        {
            "positions": [
                -2.614565707978366,
                -1.1011222198629929,
                0.6225807082099145,
                -1.6208921129086138,
                -0.34178995621616226,
                -1.8280329951538263
            ]
        },
        {
            "positions": [
                -2.4612813301275898,
                -1.1141832281309463,
                0.5800493414113281,
                -1.601631089281368,
                -0.3206078185754899,
                -1.691393605352634
            ]
        },
        {
            "positions": [
                -2.307996952276814,
                -1.1272442363988995,
                0.5375179746127416,
                -1.5823700656541224,
                -0.29942568093481764,
                -1.5547542155514416
            ]
        },
        {
            "positions": [
                -2.1547125744260374,
                -1.1403052446668527,
                0.49498660781415527,
                -1.5631090420268767,
                -0.2782435432941453,
                -1.418114825750249
            ]
        },
        {
            "positions": [
                -2.0014281965752616,
                -1.1533662529348059,
                0.45245524101556883,
                -1.543848018399631,
                -0.25706140565347296,
                -1.2814754359490566
            ]
        },
        {
            "positions": [
                -1.8481438187244852,
                -1.166427261202759,
                0.4099238742169824,
                -1.5245869947723854,
                -0.23587926801280062,
                -1.144836046147864
            ]
        },
        {
            "positions": [
                -1.6948594408737092,
                -1.1794882694707123,
                0.367392507418396,
                -1.5053259711451397,
                -0.21469713037212831,
                -1.0081966563466718
            ]
        },
        {
            "positions": [
                -1.541575063022933,
                -1.1925492777386655,
                0.32486114061980953,
                -1.486064947517894,
                -0.19351499273145598,
                -0.8715572665454792
            ]
        },
        {
            "positions": [
                -1.3882906851721566,
                -1.205610286006619,
                0.2823297738212231,
                -1.4668039238906483,
                -0.17233285509078364,
                -0.7349178767442868
            ]
        },
        {
            "positions": [
                -1.2350063073213806,
                -1.218671294274572,
                0.23979840702263672,
                -1.4475429002634026,
                -0.15115071745011133,
                -0.5982784869430944
            ]
        },
        {
            "positions": [
                -1.0817219294706044,
                -1.2317323025425253,
                0.19726704022405028,
                -1.428281876636157,
                -0.129968579809439,
                -0.461639097141902
            ]
        },
        {
            "positions": [
                -1.024138898325174,
                -1.2615783093309183,
                0.08907892805910471,
                -1.4644178850569305,
                -0.12680167114822635,
                -0.30566914992449007
            ]
        },
        {
            "positions": [
                -0.9665558671797434,
                -1.2914243161193113,
                -0.019109184105840865,
                -1.500553893477704,
                -0.12363476248701373,
                -0.14969920270707815
            ]
        },
        {
            "positions": [
                -0.908972836034313,
                -1.321270322907704,
                -0.1272972962707864,
                -1.5366899018984777,
                -0.12046785382580111,
                0.00627074451033377
            ]
        },
        {
            "positions": [
                -0.8513898048888824,
                -1.351116329696097,
                -0.235485408435732,
                -1.572825910319251,
                -0.11730094516458847,
                0.1622406917277457
            ]
        },
        {
            "positions": [
                -0.793806773743452,
                -1.38096233648449,
                -0.3436735206006776,
                -1.6089619187400246,
                -0.11413403650337585,
                0.31821063894515755
            ]
        },
        {
            "positions": [
                -0.7362237425980215,
                -1.410808343272883,
                -0.4518616327656231,
                -1.6450979271607982,
                -0.11096712784216321,
                0.47418058616256953
            ]
        },
        {
            "positions": [
                -0.678640711452591,
                -1.4406543500612758,
                -0.5600497449305687,
                -1.6812339355815717,
                -0.10780021918095059,
                0.6301505333799815
            ]
        },
        {
            "positions": [
                -0.6210576803071604,
                -1.4705003568496688,
                -0.6682378570955143,
                -1.7173699440023453,
                -0.10463331051973795,
                0.7861204805973934
            ]
        },
        {
            "positions": [
                -0.56347464916173,
                -1.5003463636380618,
                -0.7764259692604598,
                -1.753505952423119,
                -0.10146640185852533,
                0.9420904278148055
            ]
        },
        {
            "positions": [
                -0.5058916180162994,
                -1.5301923704264548,
                -0.8846140814254054,
                -1.7896419608438925,
                -0.09829949319731271,
                1.098060375032217
            ]
        },
        {
            "positions": [
                -0.44830858687086894,
                -1.5600383772148478,
                -0.9928021935903509,
                -1.8257779692646658,
                -0.09513258453610007,
                1.2540303222496292
            ]
        },
        {
            "positions": [
                -0.39072555572543854,
                -1.5898843840032406,
                -1.1009903057552965,
                -1.8619139776854394,
                -0.09196567587488744,
                1.410000269467041
            ]
        },
        {
            "positions": [
                -0.3331425245800079,
                -1.6197303907916336,
                -1.209178417920242,
                -1.898049986106213,
                -0.08879876721367481,
                1.5659702166844531
            ]
        },
        {
            "positions": [
                -0.2755594934345774,
                -1.6495763975800266,
                -1.3173665300851876,
                -1.9341859945269866,
                -0.08563185855246219,
                1.721940163901865
            ]
        },
        {
            "positions": [
                -0.21797646228914702,
                -1.6794224043684194,
                -1.425554642250133,
                -1.9703220029477602,
                -0.08246494989124956,
                1.8779101111192769
            ]
        },
        {
            "positions": [
                -0.1603934311437164,
                -1.7092684111568124,
                -1.533742754415079,
                -2.006458011368534,
                -0.07929804123003692,
                2.0338800583366887
            ]
        },
        {
            "positions": [
                -0.102810399998286,
                -1.7391144179452054,
                -1.641930866580024,
                -2.0425940197893073,
                -0.07613113256882431,
                2.1898500055541006
            ]
        },
        {
            "positions": [
                -0.0452273688528555,
                -1.7689604247335984,
                -1.75011897874497,
                -2.0787300282100807,
                -0.07296422390761167,
                2.345819952771513
            ]
        },
        {
            "positions": [
                0.01235566229257512,
                -1.7988064315219914,
                -1.8583070909099155,
                -2.1148660366308545,
                -0.06979731524639904,
                2.5017898999889248
            ]
        },
        {
            "positions": [
                0.06993869343800552,
                -1.8286524383103844,
                -1.966495203074861,
                -2.151002045051628,
                -0.06663040658518642,
                2.657759847206336
            ]
        },
        {
            "positions": [
                0.12752172458343614,
                -1.8584984450987774,
                -2.0746833152398065,
                -2.1871380534724016,
                -0.06346349792397378,
                2.8137297944237485
            ]
        },
        {
            "positions": [
                0.18510475572886648,
                -1.8883444518871702,
                -2.182871427404752,
                -2.223274061893175,
                -0.06029658926276116,
                2.9696997416411604
            ]
        },
        {
            "positions": [
                0.062105333606640556,
                -1.8401260510920123,
                -2.2436888107030426,
                -2.2029737772035807,
                -0.09912604119477578,
                3.0263806067677756
            ]
        },
        {
            "positions": [
                -0.060894088515585365,
                -1.7919076502968545,
                -2.3045061940013327,
                -2.182673492513987,
                -0.1379554931267904,
                3.0830614718943914
            ]
        },
        {
            "positions": [
                -0.1838935106378113,
                -1.7436892495016967,
                -2.3653235772996233,
                -2.1623732078243925,
                -0.17678494505880502,
                3.1397423370210067
            ]
        }
    ]
}