{
    "goal": {
        "global_pose": {
            "orientation": {
                "w": 0.7031023502349854,
                "x": -0.7110244035720825,
                "y": 0.007748599164187908,
                "z": 0.005598929710686207
            },
            "position": {
                "x": 0.11585023208521307,
                "y": 0.44412534475326537,
                "z": 0.3711530566215515
            }
        },
        "name": "move_to_auspresseinheit_A"
    },
    "id": "SPARS_move_to_auspresseinheit_A_4",
    "joint_names": [
        "shoulder_pan_joint",
        "shoulder_lift_joint",
        "elbow_joint",
        "wrist_1_joint",
        "wrist_2_joint",
        "wrist_3_joint"
    ],
    "metrics": {
        "cart_traj_len": 0.6928871530001747,
        "distance_elbow_joint": 0.048961707600438054,
        "distance_shoulder_lift_joint": 0.5321817489359792,
        "distance_shoulder_pan_joint": 1.0479676345941484,
        "distance_wrist_1_joint": 0.5740174387420423,
        "distance_wrist_2_joint": 0.5143496252366653,
        "distance_wrist_3_joint": 0.09820412406197132,
        "smoothness": 0.16970609465010386,
        "time": 5.043338752,
        "traj_len": 1.6779994872380757,
        "weighted_distance": 2.0249586640901818
    },
    "planner": "SPARS",
    "start": {
        "state": {
            "elbow_joint": 2.4225746658250005,
            "shoulder_lift_joint": -1.3736534386056498,
            "shoulder_pan_joint": -0.3378633547517467,
            "wrist_1_joint": -1.0288598680537169,
            "wrist_2_joint": 1.233022673432363,
            "wrist_3_joint": -3.0940220416140027
        }
    },
    "waypoints": [
        {
            "positions": [
                -0.3378633547517467,
                -1.3736534386056498,
                2.4225746658250005,
                -1.0288598680537169,
                1.233022673432363,
                -3.0940220416140027
            ]
        },
        {
            "positions": [
                -0.2198892453662022,
                -1.462169375395332,
                2.415712217733449,
                -0.9461477870036741,
                1.1504938186075644,
                -3.1070844856826785
            ]
        },
        {
            "positions": [
                -0.10191513598065766,
                -1.5506853121850142,
                2.408849769641898,
                -0.8634357059536313,
                1.067964963782766,
                -3.1201469297513547
            ]
        },
        {
            "positions": [
                0.016058973404886878,
                -1.6392012489746963,
                2.4019873215503464,
                -0.7807236249035884,
                0.9854361089579673,
                -3.1332093738200304
            ]
        },
        {
            "positions": [
                0.1340330827904314,
                -1.7277171857643783,
                2.3951248734587947,
                -0.6980115438535456,
                0.9029072541331686,
                -3.146271817888706
            ]
        },
        {
            "positions": [
                0.25200719217597595,
                -1.8162331225540604,
                2.3882624253672433,
                -0.6152994628035027,
                0.82037839930837,
                -3.1593342619573823
            ]
        },
        {
            "positions": [
                0.3699813015615204,
                -1.9047490593437426,
                2.381399977275692,
                -0.5325873817534599,
                0.7378495444835714,
                -3.172396706026058
            ]
        },
        {
            "positions": [
                0.540042790701961,
                -1.9052921234426858,
                2.385293486801257,
                -0.49371490553256725,
                0.7282612963396347,
                -3.1624819762011
            ]
        },
        {
            "positions": [
                0.7101042798424017,
                -1.905835187541629,
                2.3891869963268215,
                -0.45484242931167457,
                0.7186730481956978,
                -3.152567246376142
            ]
        }
    ]
}