{
    "goal": {
        "global_pose": {
            "orientation": {
                "w": -0.4816463035849501,
                "x": 0.5182115481033762,
                "y": 0.4908360881923453,
                "z": -0.5084816262002911
            },
            "position": {
                "x": -0.8240239810943604,
                "y": 0.19912469901144506,
                "z": 0.16403168439865112
            }
        },
        "name": "move_to_storage_D"
    },
    "id": "SPARS_move_to_storage_D_119",
    "joint_names": [
        "shoulder_pan_joint",
        "shoulder_lift_joint",
        "elbow_joint",
        "wrist_1_joint",
        "wrist_2_joint",
        "wrist_3_joint"
    ],
    "metrics": {
        "cart_traj_len": 3.057062858017623,
        "distance_elbow_joint": 4.208690506556212,
        "distance_shoulder_lift_joint": 1.2877064547267427,
        "distance_shoulder_pan_joint": 2.812543179195281,
        "distance_wrist_1_joint": 2.9418447187464865,
        "distance_wrist_2_joint": 1.6580035548726686,
        "distance_wrist_3_joint": 3.135861840547711,
        "smoothness": 0.10049718887794659,
        "time": 5.070077248,
        "traj_len": 4.005577393415972,
        "weighted_distance": 5.188084637836942
    },
    "planner": "SPARS",
    "start": {
        "state": {
            "elbow_joint": -2.384821988534728,
            "shoulder_lift_joint": -2.2788054721415256,
            "shoulder_pan_joint": -0.1854694642142757,
            "wrist_1_joint": 1.4845938289331202,
            "wrist_2_joint": 0.17898776772866878,
            "wrist_3_joint": 0.037105688729662994
        }
    },
    "waypoints": [
        {
            "positions": [
                -0.1854694642142757,
                -2.2788054721415256,
                -2.384821988534728,
                1.4845938289331202,
                0.17898776772866878,
                0.037105688729662994
            ]
        },
        {
            "positions": [
                -0.05518526832923995,
                -2.197114825526108,
                -2.2958812857590294,
                1.5070373912452255,
                0.15274060059186817,
                0.002375547630740292
            ]
        },
        {
            "positions": [
                0.07509892755579581,
                -2.1154241789106902,
                -2.206940582983331,
                1.529480953557331,
                0.12649343345506758,
                -0.03235459346818241
            ]
        },
        {
            "positions": [
                0.20538312344083162,
                -2.0337335322952725,
                -2.1179998802076323,
                1.5519245158694364,
                0.10024626631826697,
                -0.06708473456710512
            ]
        },
        {
            "positions": [
                0.33566731932586735,
                -1.952042885679855,
                -2.0290591774319333,
                1.574368078181542,
                0.07399909918146637,
                -0.10181487566602782
            ]
        },
        {
            "positions": [
                0.46595151521090317,
                -1.8703522390644374,
                -1.9401184746562348,
                1.5968116404936472,
                0.04775193204466577,
                -0.1365450167649505
            ]
        },
        {
            "positions": [
                0.596235711095939,
                -1.7886615924490197,
                -1.8511777718805362,
                1.6192552028057525,
                0.021504764907865154,
                -0.17127515786387323
            ]
        },
        {
            "positions": [
                0.7265199069809747,
                -1.7069709458336022,
                -1.7622370691048377,
                1.641698765117858,
                -0.004742402228935461,
                -0.20600529896279593
            ]
        },
        {
            "positions": [
                0.8568041028660104,
                -1.6252802992181845,
                -1.6732963663291391,
                1.6641423274299634,
                -0.030989569365736047,
                -0.24073544006171863
            ]
        },
        {
            "positions": [
                0.9870882987510462,
                -1.5435896526027668,
                -1.5843556635534404,
                1.686585889742069,
                -0.05723673650253666,
                -0.27546558116064135
            ]
        },
        {
            "positions": [
                1.117372494636082,
                -1.4618990059873491,
                -1.4954149607777418,
                1.7090294520541742,
                -0.08348390363933725,
                -0.31019572225956404
            ]
        },
        {
            "positions": [
                1.2476566905211175,
                -1.3802083593719314,
                -1.406474258002043,
                1.7314730143662795,
                -0.10973107077613783,
                -0.34492586335848674
            ]
        },
        {
            "positions": [
                1.3779408864061535,
                -1.2985177127565137,
                -1.3175335552263445,
                1.753916576678385,
                -0.13597823791293848,
                -0.37965600445740944
            ]
        },
        {
            "positions": [
                1.5082250822911893,
                -1.216827066141096,
                -1.2285928524506458,
                1.7763601389904904,
                -0.16222540504973912,
                -0.41438614555633213
            ]
        },
        {
            "positions": [
                1.638509278176225,
                -1.1351364195256786,
                -1.1396521496749472,
                1.798803701302596,
                -0.1884725721865397,
                -0.4491162866552548
            ]
        },
        {
            "positions": [
                1.7687934740612608,
                -1.0534457729102609,
                -1.0507114468992487,
                1.8212472636147012,
                -0.2147197393233403,
                -0.4838464277541775
            ]
        },
        {
            "positions": [
                1.8024897875586903,
                -1.051298208475946,
                -0.9385721356387116,
                1.7282263862350327,
                -0.1736469444612216,
                -0.5886483076726363
            ]
        },
        {
            "positions": [
                1.8361861010561198,
                -1.0491506440416307,
                -0.8264328243781744,
                1.635205508855364,
                -0.13257414959910288,
                -0.6934501875910952
            ]
        },
        {
            "positions": [
                1.8698824145535493,
                -1.0470030796073158,
                -0.7142935131176372,
                1.5421846314756955,
                -0.09150135473698416,
                -0.7982520675095541
            ]
        },
        {
            "positions": [
                1.9035787280509788,
                -1.0448555151730008,
                -0.6021542018571001,
                1.4491637540960272,
                -0.05042855987486547,
                -0.9030539474280129
            ]
        },
        {
            "positions": [
                1.9372750415484083,
                -1.0427079507386858,
                -0.4900148905965629,
                1.3561428767163586,
                -0.009355765012746736,
                -1.007855827346472
            ]
        },
        {
            "positions": [
                1.9709713550458379,
                -1.0405603863043706,
                -0.3778755793360258,
                1.26312199933669,
                0.03171702984937197,
                -1.1126577072649306
            ]
        },
        {
            "positions": [
                2.0046676685432674,
                -1.0384128218700557,
                -0.26573626807548856,
                1.1701011219570214,
                0.07278982471149067,
                -1.2174595871833895
            ]
        },
        {
            "positions": [
                2.038363982040697,
                -1.0362652574357407,
                -0.15359695681495156,
                1.077080244577353,
                0.11386261957360935,
                -1.3222614671018484
            ]
        },
        {
            "positions": [
                2.0720602955381264,
                -1.0341176930014255,
                -0.041457645554414446,
                0.9840593671976844,
                0.15493541443572809,
                -1.4270633470203071
            ]
        },
        {
            "positions": [
                2.105756609035556,
                -1.0319701285671106,
                0.07068166570612289,
                0.8910384898180158,
                0.19600820929784682,
                -1.5318652269387663
            ]
        },
        {
            "positions": [
                2.1394529225329855,
                -1.0298225641327956,
                0.18282097696666,
                0.7980176124383473,
                0.2370810041599655,
                -1.636667106857225
            ]
        },
        {
            "positions": [
                2.173149236030415,
                -1.0276749996984806,
                0.2949602882271971,
                0.7049967350586788,
                0.27815379902208426,
                -1.7414689867756836
            ]
        },
        {
            "positions": [
                2.2068455495278445,
                -1.0255274352641655,
                0.4070995994877342,
                0.6119758576790104,
                0.3192265938842028,
                -1.8462708666941423
            ]
        },
        {
            "positions": [
                2.2405418630252742,
                -1.0233798708298505,
                0.5192389107482716,
                0.5189549802993416,
                0.3602993887463216,
                -1.9510727466126014
            ]
        },
        {
            "positions": [
                2.2742381765227035,
                -1.0212323063955355,
                0.6313782220088087,
                0.42593410291967304,
                0.4013721836084403,
                -2.05587462653106
            ]
        },
        {
            "positions": [
                2.3079344900201333,
                -1.0190847419612203,
                0.7435175332693456,
                0.3329132255400047,
                0.44244497847055897,
                -2.1606765064495193
            ]
        },
        {
            "positions": [
                2.341630803517563,
                -1.0169371775269054,
                0.8556568445298829,
                0.2398923481603359,
                0.48351777333267776,
                -2.265478386367978
            ]
        },
        {
            "positions": [
                2.3753271170149923,
                -1.0147896130925904,
                0.9677961557904198,
                0.14687147078066753,
                0.5245905681947964,
                -2.370280266286437
            ]
        },
        {
            "positions": [
                2.4090234305124216,
                -1.0126420486582752,
                1.079935467050957,
                0.05385059340099918,
                0.5656633630569151,
                -2.4750821462048957
            ]
        },
        {
            "positions": [
                2.4427197440098514,
                -1.0104944842239603,
                1.1920747783114944,
                -0.03917028397866962,
                0.6067361579190339,
                -2.579884026123355
            ]
        },
        {
            "positions": [
                2.476416057507281,
                -1.0083469197896453,
                1.3042140895720313,
                -0.13219116135833797,
                0.6478089527811526,
                -2.6846859060418136
            ]
        },
        {
            "positions": [
                2.5101123710047104,
                -1.0061993553553303,
                1.4163534008325687,
                -0.22521203873800655,
                0.6888817476432713,
                -2.7894877859602722
            ]
        },
        {
            "positions": [
                2.5438086845021397,
                -1.0040517909210152,
                1.528492712093106,
                -0.3182329161176751,
                0.72995454250539,
                -2.8942896658787314
            ]
        },
        {
            "positions": [
                2.5775049979995694,
                -1.0019042264867002,
                1.6406320233536427,
                -0.4112537934973435,
                0.7710273373675087,
                -2.99909154579719
            ]
        },
        {
            "positions": [
                2.5940279036600478,
                -1.005505962844006,
                1.7017108549095894,
                -0.5354838691482968,
                0.8638769944107789,
                -3.032313081137476
            ]
        },
        {
            "positions": [
                2.6105508093205256,
                -1.0091076992013117,
                1.762789686465536,
                -0.6597139447992502,
                0.9567266514540491,
                -3.065534616477762
            ]
        },
        {
            "positions": [
                2.627073714981004,
                -1.0127094355586175,
                1.8238685180214826,
                -0.7839440204502036,
                1.0495763084973193,
                -3.098756151818048
            ]
        }
    ]
}