{
    "goal": {
        "global_pose": {
            "orientation": {
                "w": 0.7031023480610252,
                "x": -0.7110244013736278,
                "y": 0.0077485991402295624,
                "z": 0.005598929693374583
            },
            "position": {
                "x": -0.8841497679147869,
                "y": 0.44412534475326537,
                "z": 0.3711530566215515
            }
        },
        "name": "move_to_auspresseinheit_D"
    },
    "id": "SPARStwo_move_to_auspresseinheit_D_121",
    "joint_names": [
        "shoulder_pan_joint",
        "shoulder_lift_joint",
        "elbow_joint",
        "wrist_1_joint",
        "wrist_2_joint",
        "wrist_3_joint"
    ],
    "metrics": {
        "cart_traj_len": 0.34449984232728686,
        "distance_elbow_joint": 0.6651569200621708,
        "distance_shoulder_lift_joint": 0.13633434834261093,
        "distance_shoulder_pan_joint": 0.13347801300070725,
        "distance_wrist_1_joint": 0.6087631153632214,
        "distance_wrist_2_joint": 1.4478155345913708,
        "distance_wrist_3_joint": 0.07217170387564087,
        "smoothness": 1.1842378969563694e-15,
        "time": 5.018164524,
        "traj_len": 1.7503484325229997,
        "weighted_distance": 2.2944807022377844
    },
    "planner": "SPARStwo",
    "start": {
        "state": {
            "elbow_joint": -1.8275523626775212,
            "shoulder_lift_joint": -2.126789852344167,
            "shoulder_pan_joint": -0.03513704404078235,
            "wrist_1_joint": -2.347782403156801,
            "wrist_2_joint": -1.6058999987535132,
            "wrist_3_joint": -3.0880379163319196
        }
    },
    "waypoints": [
        {
            "positions": [
                -0.03513704404078235,
                -2.126789852344167,
                -1.8275523626775212,
                -2.347782403156801,
                -1.6058999987535132,
                -3.0880379163319196
            ]
        },
        {
            "positions": [
                -0.05182179566587075,
                -2.1438316458869933,
                -1.74440774766975,
                -2.4238777925772035,
                -1.4249230569295919,
                -3.0790164533474647
            ]
        },
        {
            "positions": [
                -0.06850654729095916,
                -2.1608734394298197,
                -1.6612631326619784,
                -2.499973181997606,
                -1.2439461151056705,
                -3.0699949903630093
            ]
        },
        {
            "positions": [
                -0.08519129891604757,
                -2.177915232972646,
                -1.5781185176542072,
                -2.5760685714180087,
                -1.0629691732817492,
                -3.0609735273785543
            ]
        },
        {
            "positions": [
                -0.10187605054113597,
                -2.194957026515472,
                -1.4949739026464357,
                -2.6521639608384113,
                -0.8819922314578278,
                -3.051952064394099
            ]
        },
        {
            "positions": [
                -0.11856080216622439,
                -2.2119988200582985,
                -1.4118292876386644,
                -2.7282593502588144,
                -0.7010152896339065,
                -3.042930601409644
            ]
        },
        {
            "positions": [
                -0.13524555379131278,
                -2.229040613601125,
                -1.3286846726308932,
                -2.804354739679217,
                -0.520038347809985,
                -3.033909138425189
            ]
        },
        {
            "positions": [
                -0.15193030541640118,
                -2.2460824071439514,
                -1.245540057623122,
                -2.8804501290996196,
                -0.3390614059860637,
                -3.0248876754407337
            ]
        },
        {
            "positions": [
                -0.1686150570414896,
                -2.2631242006867778,
                -1.1623954426153504,
                -2.9565455185200222,
                -0.15808446416214247,
                -3.0158662124562787
            ]
        }
    ]
}