{
    "goal": {
        "global_pose": {
            "orientation": {
                "w": 0.5084816262002911,
                "x": -0.4908360881923452,
                "y": 0.5182115481033761,
                "z": -0.48164630358495003
            },
            "position": {
                "x": 0.5540239810943604,
                "y": -0.46912469901144505,
                "z": 0.16403168439865112
            }
        },
        "name": "move_to_storage_B"
    },
    "id": "SPARStwo_move_to_storage_B_98",
    "joint_names": [
        "shoulder_pan_joint",
        "shoulder_lift_joint",
        "elbow_joint",
        "wrist_1_joint",
        "wrist_2_joint",
        "wrist_3_joint"
    ],
    "metrics": {
        "cart_traj_len": 0.7284278825081605,
        "distance_elbow_joint": 0.3524038751099994,
        "distance_shoulder_lift_joint": 0.46075633015126294,
        "distance_shoulder_pan_joint": 0.4460796285034977,
        "distance_wrist_1_joint": 2.996258879171587,
        "distance_wrist_2_joint": 2.7073776005378125,
        "distance_wrist_3_joint": 3.125713678640086,
        "smoothness": 0.04473167929057773,
        "time": 5.048433632,
        "traj_len": 3.176254081794189,
        "weighted_distance": 4.69506696747808
    },
    "planner": "SPARStwo",
    "start": {
        "state": {
            "elbow_joint": 1.664937868594044,
            "shoulder_lift_joint": -0.661644460510453,
            "shoulder_pan_joint": -0.9139846352900073,
            "wrist_1_joint": 2.146753192139373,
            "wrist_2_joint": -2.2341966793290973,
            "wrist_3_joint": 0.005466555786416001
        }
    },
    "waypoints": [
        {
            "positions": [
                -0.9139846352900073,
                -0.661644460510453,
                1.664937868594044,
                2.146753192139373,
                -2.2341966793290973,
                0.005466555786416001
            ]
        },
        {
            "positions": [
                -0.847625373604552,
                -0.7185767722498322,
                1.684766057309799,
                2.1297190309122334,
                -2.207597826351546,
                -0.08724846019268276
            ]
        },
        {
            "positions": [
                -0.7812661119190967,
                -0.7755090839892114,
                1.7045942460255539,
                2.112684869685093,
                -2.1809989733739954,
                -0.17996347617178152
            ]
        },
        {
            "positions": [
                -0.7938005561244001,
                -0.7893847522561116,
                1.7171041459326934,
                1.9941972474164007,
                -2.074831777590687,
                -0.29757482203905705
            ]
        },
        {
            "positions": [
                -0.8063350003297036,
                -0.8032604205230117,
                1.729614045839833,
                1.8757096251477086,
                -1.9686645818073785,
                -0.41518616790633267
            ]
        },
        {
            "positions": [
                -0.8188694445350071,
                -0.817136088789912,
                1.7421239457469726,
                1.7572220028790162,
                -1.8624973860240701,
                -0.5327975137736082
            ]
        },
        {
            "positions": [
                -0.8314038887403106,
                -0.8310117570568121,
                1.7546338456541122,
                1.638734380610324,
                -1.7563301902407618,
                -0.6504088596408838
            ]
        },
        {
            "positions": [
                -0.843938332945614,
                -0.8448874253237123,
                1.7671437455612518,
                1.5202467583416315,
                -1.6501629944574532,
                -0.7680202055081593
            ]
        },
        {
            "positions": [
                -0.8564727771509175,
                -0.8587630935906124,
                1.7796536454683913,
                1.4017591360729393,
                -1.5439957986741448,
                -0.8856315513754348
            ]
        },
        {
            "positions": [
                -0.8690072213562211,
                -0.8726387618575127,
                1.792163545375531,
                1.283271513804247,
                -1.4378286028908365,
                -1.0032428972427105
            ]
        },
        {
            "positions": [
                -0.8815416655615246,
                -0.8865144301244128,
                1.8046734452826705,
                1.1647838915355548,
                -1.3316614071075281,
                -1.120854243109986
            ]
        },
        {
            "positions": [
                -0.894076109766828,
                -0.900390098391313,
                1.81718334518981,
                1.0462962692668625,
                -1.2254942113242198,
                -1.2384655889772613
            ]
        },
        {
            "positions": [
                -0.9066105539721315,
                -0.9142657666582132,
                1.8296932450969496,
                0.9278086469981701,
                -1.1193270155409112,
                -1.356076934844537
            ]
        },
        {
            "positions": [
                -0.919144998177435,
                -0.9281414349251134,
                1.8422031450040892,
                0.809321024729478,
                -1.0131598197576026,
                -1.4736882807118126
            ]
        },
        {
            "positions": [
                -0.9316794423827385,
                -0.9420171031920136,
                1.8547130449112288,
                0.6908334024607858,
                -0.9069926239742943,
                -1.591299626579088
            ]
        },
        {
            "positions": [
                -0.944213886588042,
                -0.9558927714589137,
                1.8672229448183684,
                0.5723457801920933,
                -0.8008254281909859,
                -1.7089109724463638
            ]
        },
        {
            "positions": [
                -0.9567483307933454,
                -0.969768439725814,
                1.879732844725508,
                0.4538581579234009,
                -0.6946582324076773,
                -1.8265223183136394
            ]
        },
        {
            "positions": [
                -0.9692827749986489,
                -0.9836441079927141,
                1.8922427446326475,
                0.335370535654709,
                -0.588491036624369,
                -1.9441336641809148
            ]
        },
        {
            "positions": [
                -0.9818172192039524,
                -0.9975197762596143,
                1.904752644539787,
                0.21688291338601662,
                -0.4823238408410606,
                -2.0617450100481904
            ]
        },
        {
            "positions": [
                -0.994351663409256,
                -1.0113954445265145,
                1.9172625444469267,
                0.09839529111732404,
                -0.37615664505775204,
                -2.1793563559154663
            ]
        },
        {
            "positions": [
                -1.0068861076145594,
                -1.0252711127934147,
                1.9297724443540663,
                -0.020092331151368104,
                -0.2699894492744439,
                -2.2969677017827412
            ]
        },
        {
            "positions": [
                -1.019420551819863,
                -1.0391467810603148,
                1.9422823442612058,
                -0.13857995342006024,
                -0.16382225349113533,
                -2.414579047650017
            ]
        },
        {
            "positions": [
                -1.0319549960251664,
                -1.0530224493272151,
                1.9547922441683454,
                -0.2570675756887528,
                -0.05765505770782697,
                -2.5321903935172925
            ]
        },
        {
            "positions": [
                -1.0444894402304699,
                -1.0668981175941152,
                1.967302144075485,
                -0.37555519795744496,
                0.04851213807548138,
                -2.649801739384568
            ]
        },
        {
            "positions": [
                -1.0570238844357733,
                -1.0807737858610154,
                1.9798120439826246,
                -0.4940428202261371,
                0.15467933385879018,
                -2.7674130852518437
            ]
        },
        {
            "positions": [
                -1.0695583286410768,
                -1.0946494541279157,
                1.9923219438897641,
                -0.6125304424948297,
                0.26084652964209853,
                -2.8850244311191195
            ]
        },
        {
            "positions": [
                -1.0820927728463803,
                -1.1085251223948158,
                2.0048318437969037,
                -0.7310180647635214,
                0.3670137254254069,
                -3.0026357769863945
            ]
        },
        {
            "positions": [
                -1.0946272170516838,
                -1.122400790661716,
                2.0173417437040433,
                -0.8495056870322139,
                0.47318092120871535,
                -3.1202471228536703
            ]
        }
    ]
}