{
    "goal": {
        "global_pose": {
            "orientation": {
                "w": 0.7047431468963623,
                "x": -0.7094548344612122,
                "y": 0.0024358443915843964,
                "z": -0.0022348060738295317
            },
            "position": {
                "x": 0.6094750761985779,
                "y": 0.3671506643295288,
                "z": 0.19426114857196808
            }
        },
        "name": "move_to_magneteinheit_A"
    },
    "id": "SPARStwo_move_to_magneteinheit_A_95",
    "joint_names": [
        "shoulder_pan_joint",
        "shoulder_lift_joint",
        "elbow_joint",
        "wrist_1_joint",
        "wrist_2_joint",
        "wrist_3_joint"
    ],
    "metrics": {
        "cart_traj_len": 3.0809147768955785,
        "distance_elbow_joint": 3.9033130951038286,
        "distance_shoulder_lift_joint": 0.12627951839258955,
        "distance_shoulder_pan_joint": 2.707258655464381,
        "distance_wrist_1_joint": 3.4995162038277225,
        "distance_wrist_2_joint": 1.7977797928876402,
        "distance_wrist_3_joint": 3.5841530638578263,
        "smoothness": 0.3485300001032796,
        "time": 5.041390993,
        "traj_len": 3.9519995356191506,
        "weighted_distance": 5.299424728587529
    },
    "planner": "SPARStwo",
    "start": {
        "state": {
            "elbow_joint": -1.9196185241190666,
            "shoulder_lift_joint": -1.2443396400964142,
            "shoulder_pan_joint": 2.6996025414629847,
            "wrist_1_joint": -1.5485510000780065,
            "wrist_2_joint": -1.5709468930060704,
            "wrist_3_joint": 0.4420197071253992
        }
    },
    "waypoints": [
        {
            "positions": [
                2.6996025414629847,
                -1.2443396400964142,
                -1.9196185241190666,
                -1.5485510000780065,
                -1.5709468930060704,
                0.4420197071253992
            ]
        },
        {
            "positions": [
                2.6045203082140325,
                -1.2440351855775909,
                -1.811875469703054,
                -1.4739775444356424,
                -1.5292714592606915,
                0.3768680926890198
            ]
        },
        {
            "positions": [
                2.50943807496508,
                -1.2437307310587675,
                -1.7041324152870414,
                -1.3994040887932784,
                -1.487596025515313,
                0.3117164782526403
            ]
        },
        {
            "positions": [
                2.414355841716128,
                -1.243426276539944,
                -1.5963893608710287,
                -1.3248306331509145,
                -1.445920591769934,
                0.2465648638162609
            ]
        },
        {
            "positions": [
                2.3192736084671757,
                -1.2431218220211206,
                -1.4886463064550162,
                -1.2502571775085505,
                -1.4042451580245552,
                0.18141324937988146
            ]
        },
        {
            "positions": [
                2.2241913752182234,
                -1.2428173675022973,
                -1.3809032520390034,
                -1.1756837218661864,
                -1.3625697242791766,
                0.116261634943502
            ]
        },
        {
            "positions": [
                2.129109141969271,
                -1.242512912983474,
                -1.2731601976229907,
                -1.1011102662238224,
                -1.3208942905337977,
                0.0511100205071226
            ]
        },
        {
            "positions": [
                2.034026908720319,
                -1.2422084584646504,
                -1.1654171432069782,
                -1.0265368105814585,
                -1.279218856788419,
                -0.014041593929256801
            ]
        },
        {
            "positions": [
                1.9389446754713664,
                -1.2419040039458271,
                -1.0576740887909655,
                -0.9519633549390943,
                -1.2375434230430402,
                -0.07919320836563626
            ]
        },
        {
            "positions": [
                1.8438624422224144,
                -1.2415995494270038,
                -0.9499310343749529,
                -0.8773898992967304,
                -1.1958679892976614,
                -0.14434482280201566
            ]
        },
        {
            "positions": [
                1.7487802089734619,
                -1.2412950949081805,
                -0.8421879799589402,
                -0.8028164436543663,
                -1.1541925555522827,
                -0.20949643723839517
            ]
        },
        {
            "positions": [
                1.6536979757245096,
                -1.240990640389357,
                -0.7344449255429275,
                -0.7282429880120024,
                -1.1125171218069039,
                -0.27464805167477446
            ]
        },
        {
            "positions": [
                1.5586157424755573,
                -1.2406861858705336,
                -0.6267018711269148,
                -0.6536695323696383,
                -1.0708416880615252,
                -0.339799666111154
            ]
        },
        {
            "positions": [
                1.463533509226605,
                -1.2403817313517103,
                -0.5189588167109023,
                -0.5790960767272744,
                -1.0291662543161464,
                -0.4049512805475334
            ]
        },
        {
            "positions": [
                1.3684512759776528,
                -1.240077276832887,
                -0.41121576229488976,
                -0.5045226210849103,
                -0.9874908205707676,
                -0.4701028949839128
            ]
        },
        {
            "positions": [
                1.2733690427287006,
                -1.2397728223140636,
                -0.30347270787887703,
                -0.42994916544254647,
                -0.9458153868253889,
                -0.5352545094202922
            ]
        },
        {
            "positions": [
                1.178286809479748,
                -1.23946836779524,
                -0.1957296534628643,
                -0.3553757098001822,
                -0.90413995308001,
                -0.6004061238566717
            ]
        },
        {
            "positions": [
                1.083204576230796,
                -1.2391639132764167,
                -0.08798659904685158,
                -0.28080225415781834,
                -0.8624645193346313,
                -0.6655577382930512
            ]
        },
        {
            "positions": [
                0.9881223429818438,
                -1.2388594587575934,
                0.01975645536916093,
                -0.20622879851545428,
                -0.8207890855892526,
                -0.7307093527294305
            ]
        },
        {
            "positions": [
                0.8930401097328915,
                -1.23855500423877,
                0.12749950978517344,
                -0.13165534287309044,
                -0.7791136518438738,
                -0.7958609671658098
            ]
        },
        {
            "positions": [
                0.797957876483939,
                -1.2382505497199465,
                0.23524256420118617,
                -0.05708188723072616,
                -0.737438218098495,
                -0.8610125816021895
            ]
        },
        {
            "positions": [
                0.7028756432349867,
                -1.2379460952011232,
                0.3429856186171989,
                0.01749156841163768,
                -0.6957627843531162,
                -0.9261641960385688
            ]
        },
        {
            "positions": [
                0.6077934099860345,
                -1.2376416406822999,
                0.4507286730332116,
                0.09206502405400174,
                -0.6540873506077375,
                -0.9913158104749481
            ]
        },
        {
            "positions": [
                0.5127111767370822,
                -1.2373371861634765,
                0.5584717274492239,
                0.16663847969636558,
                -0.6124119168623587,
                -1.0564674249113275
            ]
        },
        {
            "positions": [
                0.41762894348812996,
                -1.237032731644653,
                0.6662147818652371,
                0.24121193533872987,
                -0.5707364831169799,
                -1.1216190393477072
            ]
        },
        {
            "positions": [
                0.3225467102391777,
                -1.2367282771258297,
                0.7739578362812494,
                0.3157853909810937,
                -0.529061049371601,
                -1.1867706537840865
            ]
        },
        {
            "positions": [
                0.2274644769902256,
                -1.2364238226070063,
                0.881700890697262,
                0.3903588466234577,
                -0.4873856156262224,
                -1.251922268220466
            ]
        },
        {
            "positions": [
                0.18490848800919757,
                -1.2103507728172562,
                1.0035730950584474,
                0.34227289123100135,
                -0.5005966689719841,
                -1.29964019762484
            ]
        },
        {
            "positions": [
                0.14235249902816954,
                -1.1842777230275061,
                1.1254452994196327,
                0.294186935838545,
                -0.5138077223177456,
                -1.3473581270292136
            ]
        },
        {
            "positions": [
                0.09979651004714152,
                -1.158204673237756,
                1.2473175037808182,
                0.24610098044608864,
                -0.5270187756635072,
                -1.3950760564335876
            ]
        },
        {
            "positions": [
                0.05724052106611349,
                -1.1321316234480059,
                1.3691897081420035,
                0.19801502505363228,
                -0.5402298290092689,
                -1.4427939858379615
            ]
        },
        {
            "positions": [
                0.05906061597243087,
                -1.1332168330919876,
                1.4452869330885518,
                0.08475935026078403,
                -0.5212015329967289,
                -1.5506548890505194
            ]
        },
        {
            "positions": [
                0.060880710878748245,
                -1.1343020427359694,
                1.5213841580351002,
                -0.028496324532064216,
                -0.5021732369841888,
                -1.6585157922630773
            ]
        },
        {
            "positions": [
                0.06270080578506562,
                -1.1353872523799509,
                1.5974813829816485,
                -0.14175199932491245,
                -0.48314494097164884,
                -1.7663766954756355
            ]
        },
        {
            "positions": [
                0.064520900691383,
                -1.1364724620239326,
                1.673578607928197,
                -0.2550076741177607,
                -0.4641166449591088,
                -1.8742375986881934
            ]
        },
        {
            "positions": [
                0.06634099559770038,
                -1.1375576716679143,
                1.7496758328747453,
                -0.36826334891060897,
                -0.4450883489465688,
                -1.9820985019007513
            ]
        },
        {
            "positions": [
                0.07015471910543322,
                -1.1389587900737768,
                1.7846683735701196,
                -0.47437374572941393,
                -0.38166025038518775,
                -2.1173707382212474
            ]
        },
        {
            "positions": [
                0.07396844261316605,
                -1.140359908479639,
                1.819660914265494,
                -0.5804841425482188,
                -0.3182321518238067,
                -2.252642974541744
            ]
        },
        {
            "positions": [
                0.0777821661208989,
                -1.1417610268855014,
                1.8546534549608684,
                -0.6865945393670239,
                -0.2548040532624256,
                -2.38791521086224
            ]
        },
        {
            "positions": [
                0.08159588962863175,
                -1.1431621452913638,
                1.889645995656243,
                -0.7927049361858287,
                -0.19137595470104457,
                -2.5231874471827362
            ]
        },
        {
            "positions": [
                0.08540961313636458,
                -1.144563263697226,
                1.9246385363516174,
                -0.8988153330046337,
                -0.12794785613966347,
                -2.658459683503233
            ]
        },
        {
            "positions": [
                0.08922333664409743,
                -1.1459643821030885,
                1.9596310770469918,
                -1.0049257298234386,
                -0.0645197575782824,
                -2.793731919823729
            ]
        },
        {
            "positions": [
                0.10568024638886041,
                -1.1460837536476378,
                1.9716628240158764,
                -0.9222648394837584,
                0.028312357768597085,
                -2.967932638278078
            ]
        },
        {
            "positions": [
                0.12213715613362339,
                -1.1462031251921871,
                1.983694570984761,
                -0.8396039491440781,
                0.12114447311547659,
                -3.1421333567324274
            ]
        }
    ]
}