{
    "goal": {
        "global_pose": {
            "orientation": {
                "w": 0.7047431468963623,
                "x": -0.7094548344612122,
                "y": 0.0024358443915843964,
                "z": -0.0022348060738295317
            },
            "position": {
                "x": 0.6094750761985779,
                "y": 0.3671506643295288,
                "z": 0.19426114857196808
            }
        },
        "name": "move_to_magneteinheit_A"
    },
    "id": "SPARStwo_move_to_magneteinheit_A_28",
    "joint_names": [
        "shoulder_pan_joint",
        "shoulder_lift_joint",
        "elbow_joint",
        "wrist_1_joint",
        "wrist_2_joint",
        "wrist_3_joint"
    ],
    "metrics": {
        "cart_traj_len": 3.3021072580208686,
        "distance_elbow_joint": 3.9043323908181424,
        "distance_shoulder_lift_joint": 0.7869348908218738,
        "distance_shoulder_pan_joint": 2.7645116238965746,
        "distance_wrist_1_joint": 0.9381988412037375,
        "distance_wrist_2_joint": 2.562384073732377,
        "distance_wrist_3_joint": 3.580020229503398,
        "smoothness": 0.27758634807758525,
        "time": 5.034932195,
        "traj_len": 3.812660757263371,
        "weighted_distance": 5.019661883425917
    },
    "planner": "SPARStwo",
    "start": {
        "state": {
            "elbow_joint": -1.9196185241190666,
            "shoulder_lift_joint": -1.2443396400964142,
            "shoulder_pan_joint": 2.6996025414629847,
            "wrist_1_joint": -1.5485510000780065,
            "wrist_2_joint": -1.5709468930060704,
            "wrist_3_joint": 0.4420197071253992
        }
    },
    "waypoints": [
        {
            "positions": [
                2.6996025414629847,
                -1.2443396400964142,
                -1.9196185241190666,
                -1.5485510000780065,
                -1.5709468930060704,
                0.4420197071253992
            ]
        },
        {
            "positions": [
                2.6171023144052445,
                -1.255124008799723,
                -1.804123008216611,
                -1.5232737355259753,
                -1.5042232537336149,
                0.358394030639134
            ]
        },
        {
            "positions": [
                2.534602087347505,
                -1.2659083775030318,
                -1.6886274923141558,
                -1.4979964709739442,
                -1.4374996144611596,
                0.2747683541528688
            ]
        },
        {
            "positions": [
                2.4521018602897646,
                -1.2766927462063407,
                -1.5731319764117004,
                -1.4727192064219128,
                -1.370775975188704,
                0.1911426776666037
            ]
        },
        {
            "positions": [
                2.3696016332320244,
                -1.2874771149096493,
                -1.457636460509245,
                -1.4474419418698816,
                -1.3040523359162486,
                0.10751700118033852
            ]
        },
        {
            "positions": [
                2.2871014061742843,
                -1.2982614836129582,
                -1.3421409446067893,
                -1.4221646773178505,
                -1.2373286966437933,
                0.023891324694073346
            ]
        },
        {
            "positions": [
                2.2046011791165445,
                -1.3090458523162671,
                -1.226645428704334,
                -1.3968874127658193,
                -1.1706050573713378,
                -0.059734351792191775
            ]
        },
        {
            "positions": [
                2.1221009520588043,
                -1.3198302210195758,
                -1.1111499128018787,
                -1.371610148213788,
                -1.1038814180988825,
                -0.14336002827845695
            ]
        },
        {
            "positions": [
                2.0396007250010646,
                -1.3306145897228847,
                -0.9956543968994231,
                -1.3463328836617567,
                -1.037157778826427,
                -0.22698570476472213
            ]
        },
        {
            "positions": [
                1.9571004979433244,
                -1.3413989584261936,
                -0.8801588809969676,
                -1.3210556191097256,
                -0.9704341395539716,
                -0.3106113812509873
            ]
        },
        {
            "positions": [
                1.8746002708855842,
                -1.3521833271295023,
                -0.7646633650945123,
                -1.2957783545576944,
                -0.9037105002815162,
                -0.3942370577372525
            ]
        },
        {
            "positions": [
                1.7921000438278443,
                -1.3629676958328112,
                -0.649167849192057,
                -1.2705010900056632,
                -0.8369868610090607,
                -0.47786273422351766
            ]
        },
        {
            "positions": [
                1.7095998167701043,
                -1.37375206453612,
                -0.5336723332896014,
                -1.2452238254536319,
                -0.7702632217366053,
                -0.5614884107097827
            ]
        },
        {
            "positions": [
                1.6270995897123641,
                -1.3845364332394288,
                -0.41817681738714585,
                -1.2199465609016007,
                -0.7035395824641499,
                -0.645114087196048
            ]
        },
        {
            "positions": [
                1.5445993626546242,
                -1.3953208019427377,
                -0.3026813014846905,
                -1.1946692963495695,
                -0.6368159431916944,
                -0.7287397636823131
            ]
        },
        {
            "positions": [
                1.462099135596884,
                -1.4061051706460463,
                -0.1871857855822352,
                -1.1693920317975384,
                -0.5700923039192392,
                -0.8123654401685784
            ]
        },
        {
            "positions": [
                1.379598908539144,
                -1.4168895393493552,
                -0.07169026967977965,
                -1.1441147672455072,
                -0.5033686646467836,
                -0.8959911166548434
            ]
        },
        {
            "positions": [
                1.297098681481404,
                -1.4276739080526641,
                0.0438052462226759,
                -1.1188375026934758,
                -0.43664502537432814,
                -0.9796167931411085
            ]
        },
        {
            "positions": [
                1.2145984544236639,
                -1.4384582767559728,
                0.15930076212513145,
                -1.0935602381414447,
                -0.36992138610187286,
                -1.0632424696273737
            ]
        },
        {
            "positions": [
                1.132098227365924,
                -1.4492426454592817,
                0.27479627802758655,
                -1.0682829735894135,
                -0.30319774682941736,
                -1.146868146113639
            ]
        },
        {
            "positions": [
                1.0495980003081837,
                -1.4600270141625904,
                0.3902917939300421,
                -1.043005709037382,
                -0.23647410755696208,
                -1.2304938225999043
            ]
        },
        {
            "positions": [
                0.9670977732504438,
                -1.4708113828658993,
                0.5057873098324976,
                -1.0177284444853512,
                -0.16975046828450657,
                -1.314119499086169
            ]
        },
        {
            "positions": [
                0.8845975461927038,
                -1.4815957515692082,
                0.6212828257349527,
                -0.9924511799333198,
                -0.10302682901205107,
                -1.3977451755724344
            ]
        },
        {
            "positions": [
                0.8020973191349636,
                -1.4923801202725169,
                0.7367783416374083,
                -0.9671739153812886,
                -0.03630318973959579,
                -1.4813708520586997
            ]
        },
        {
            "positions": [
                0.7195970920772237,
                -1.5031644889758258,
                0.8522738575398638,
                -0.9418966508292574,
                0.030420449532859717,
                -1.5649965285449645
            ]
        },
        {
            "positions": [
                0.6370968650194837,
                -1.5139488576791345,
                0.9677693734423194,
                -0.9166193862772262,
                0.09714408880531522,
                -1.6486222050312298
            ]
        },
        {
            "positions": [
                0.5545966379617435,
                -1.5247332263824434,
                1.083264889344775,
                -0.891342121725195,
                0.1638677280777705,
                -1.732247881517495
            ]
        },
        {
            "positions": [
                0.47209641090400334,
                -1.5355175950857523,
                1.19876040524723,
                -0.8660648571731637,
                0.230591367350226,
                -1.81587355800376
            ]
        },
        {
            "positions": [
                0.3895961838462636,
                -1.5463019637890612,
                1.3142559211496856,
                -0.8407875926211326,
                0.2973150066226815,
                -1.8994992344900252
            ]
        },
        {
            "positions": [
                0.3070959567885234,
                -1.5570863324923698,
                1.4297514370521411,
                -0.8155103280691013,
                0.3640386458951368,
                -1.9831249109762905
            ]
        },
        {
            "positions": [
                0.22459572973078323,
                -1.5678707011956787,
                1.5452469529545962,
                -0.7902330635170701,
                0.4307622851675921,
                -2.066750587462556
            ]
        },
        {
            "positions": [
                0.1420955026730435,
                -1.5786550698989874,
                1.6607424688570518,
                -0.7649557989650388,
                0.4974859244400476,
                -2.1503762639488206
            ]
        },
        {
            "positions": [
                0.05959527561530341,
                -1.5894394386022963,
                1.7762379847595073,
                -0.7396785344130077,
                0.5642095637125031,
                -2.234001940435086
            ]
        },
        {
            "positions": [
                0.053479635678777074,
                -1.5167051903159006,
                1.817901368516246,
                -0.7622429425818289,
                0.49033400179319675,
                -2.3968600131959965
            ]
        },
        {
            "positions": [
                0.04736399574225074,
                -1.4439709420295048,
                1.8595647522729846,
                -0.7848073507506501,
                0.4164584398738904,
                -2.559718085956907
            ]
        },
        {
            "positions": [
                0.041248355805724404,
                -1.3712366937431093,
                1.901228136029723,
                -0.8073717589194712,
                0.3425828779545842,
                -2.722576158717817
            ]
        },
        {
            "positions": [
                0.03513271586919806,
                -1.2985024454567136,
                1.9428915197864616,
                -0.8299361670882924,
                0.2687073160352778,
                -2.885434231478728
            ]
        },
        {
            "positions": [
                0.029017075932671728,
                -1.2257681971703178,
                1.9845549035432002,
                -0.8525005752571136,
                0.19483175411597153,
                -3.0482923042396384
            ]
        },
        {
            "positions": [
                0.12294323429893324,
                -1.1476043462863046,
                1.9847138666990762,
                -0.8359962405624809,
                0.13698194669869962,
                -3.1380005223779985
            ]
        }
    ]
}