{
    "goal": {
        "global_pose": {
            "orientation": {
                "w": 0.5084816217422485,
                "x": -0.49083608388900757,
                "y": 0.5182115435600281,
                "z": -0.4816462993621826
            },
            "position": {
                "x": 0.5540239810943604,
                "y": 0.030875300988554955,
                "z": 0.16403168439865112
            }
        },
        "name": "move_to_storage_A"
    },
    "id": "SPARStwo_move_to_storage_A_60",
    "joint_names": [
        "shoulder_pan_joint",
        "shoulder_lift_joint",
        "elbow_joint",
        "wrist_1_joint",
        "wrist_2_joint",
        "wrist_3_joint"
    ],
    "metrics": {
        "cart_traj_len": 0.3527597265381689,
        "distance_elbow_joint": 0.4476138235222722,
        "distance_shoulder_lift_joint": 0.23556180926339376,
        "distance_shoulder_pan_joint": 0.45828031592540425,
        "distance_wrist_1_joint": 0.23533420631351443,
        "distance_wrist_2_joint": 1.111105810264922,
        "distance_wrist_3_joint": 0.09748997957844852,
        "smoothness": 7.771561204992932e-16,
        "time": 5.0096818679999995,
        "traj_len": 1.6079135377463414,
        "weighted_distance": 2.0314541394290173
    },
    "planner": "SPARStwo",
    "start": {
        "state": {
            "elbow_joint": 1.9715481507254546,
            "shoulder_lift_joint": -1.1394850672790213,
            "shoulder_pan_joint": 0.12281154597544902,
            "wrist_1_joint": -0.7804720171073349,
            "wrist_2_joint": 0.12958658322886563,
            "wrist_3_joint": -3.1924895760937617
        }
    },
    "waypoints": [
        {
            "positions": [
                0.12281154597544902,
                -1.1394850672790213,
                1.9715481507254546,
                -0.7804720171073349,
                0.12958658322886563,
                -3.1924895760937617
            ]
        },
        {
            "positions": [
                0.05734292941467699,
                -1.173136754316649,
                2.0354929826572077,
                -0.814091189437837,
                0.2883159846952831,
                -3.1785624361539835
            ]
        },
        {
            "positions": [
                -0.008125687146095045,
                -1.2067884413542767,
                2.099437814588961,
                -0.847710361768339,
                0.4470453861617005,
                -3.164635296214205
            ]
        },
        {
            "positions": [
                -0.07359430370686706,
                -1.2404401283919044,
                2.163382646520714,
                -0.8813295340988411,
                0.6057747876281179,
                -3.1507081562744266
            ]
        },
        {
            "positions": [
                -0.1390629202676391,
                -1.274091815429532,
                2.2273274784524673,
                -0.9149487064293431,
                0.7645041890945353,
                -3.1367810163346483
            ]
        },
        {
            "positions": [
                -0.2045315368284112,
                -1.3077435024671598,
                2.2912723103842207,
                -0.9485678787598453,
                0.9232335905609528,
                -3.12285387639487
            ]
        },
        {
            "positions": [
                -0.27000015338918315,
                -1.3413951895047873,
                2.355217142315974,
                -0.9821870510903473,
                1.0819629920273703,
                -3.1089267364550914
            ]
        },
        {
            "positions": [
                -0.3354687699499552,
                -1.375046876542415,
                2.419161974247727,
                -1.0158062234208494,
                1.2406923934937877,
                -3.094999596515313
            ]
        }
    ]
}