{
    "goal": {
        "global_pose": {
            "orientation": {
                "w": 0.7031023480610252,
                "x": -0.7110244013736278,
                "y": 0.0077485991402295624,
                "z": 0.005598929693374583
            },
            "position": {
                "x": -0.8841497679147869,
                "y": 0.44412534475326537,
                "z": 0.3711530566215515
            }
        },
        "name": "move_to_auspresseinheit_D"
    },
    "id": "SPARStwo_move_to_auspresseinheit_D_140",
    "joint_names": [
        "shoulder_pan_joint",
        "shoulder_lift_joint",
        "elbow_joint",
        "wrist_1_joint",
        "wrist_2_joint",
        "wrist_3_joint"
    ],
    "metrics": {
        "cart_traj_len": 0.3431364736917998,
        "distance_elbow_joint": 0.6486496578429386,
        "distance_shoulder_lift_joint": 0.12706900344050753,
        "distance_shoulder_pan_joint": 0.1337358577946987,
        "distance_wrist_1_joint": 0.5755977729678388,
        "distance_wrist_2_joint": 1.4309972333792182,
        "distance_wrist_3_joint": 0.045655060898166955,
        "smoothness": 6.908054304474895e-16,
        "time": 5.004978953,
        "traj_len": 1.7209603674470162,
        "weighted_distance": 2.2493576226262375
    },
    "planner": "SPARStwo",
    "start": {
        "state": {
            "elbow_joint": -1.8275523626775212,
            "shoulder_lift_joint": -2.126789852344167,
            "shoulder_pan_joint": -0.03513704404078235,
            "wrist_1_joint": -2.347782403156801,
            "wrist_2_joint": -1.6058999987535132,
            "wrist_3_joint": -3.0880379163319196
        }
    },
    "waypoints": [
        {
            "positions": [
                -0.03513704404078235,
                -2.126789852344167,
                -1.8275523626775212,
                -2.347782403156801,
                -1.6058999987535132,
                -3.0880379163319196
            ]
        },
        {
            "positions": [
                -0.05185402626511969,
                -2.1426734777742302,
                -1.746471155447154,
                -2.4197321247777808,
                -1.427025344581111,
                -3.082331033719649
            ]
        },
        {
            "positions": [
                -0.06857100848945702,
                -2.1585571032042936,
                -1.6653899482167867,
                -2.4916818463987607,
                -1.2481506904087087,
                -3.076624151107378
            ]
        },
        {
            "positions": [
                -0.08528799071379436,
                -2.174440728634357,
                -1.5843087409864192,
                -2.5636315680197406,
                -1.0692760362363063,
                -3.070917268495107
            ]
        },
        {
            "positions": [
                -0.10200497293813171,
                -2.190324354064421,
                -1.503227533756052,
                -2.6355812896407205,
                -0.8904013820639041,
                -3.0652103858828363
            ]
        },
        {
            "positions": [
                -0.11872195516246906,
                -2.206207979494484,
                -1.4221463265256846,
                -2.7075310112617,
                -0.7115267278915018,
                -3.059503503270565
            ]
        },
        {
            "positions": [
                -0.13543893738680637,
                -2.2220916049245476,
                -1.3410651192953171,
                -2.77948073288268,
                -0.5326520737190994,
                -3.0537966206582943
            ]
        },
        {
            "positions": [
                -0.15215591961114372,
                -2.237975230354611,
                -1.2599839120649499,
                -2.8514304545036597,
                -0.35377741954669717,
                -3.0480897380460235
            ]
        },
        {
            "positions": [
                -0.16887290183548107,
                -2.2538588557846744,
                -1.1789027048345826,
                -2.9233801761246396,
                -0.17490276537429505,
                -3.0423828554337526
            ]
        }
    ]
}