{
    "goal": {
        "global_pose": {
            "orientation": {
                "w": -0.00223480608172531,
                "x": 0.0024358444001904467,
                "y": 0.7094548369677653,
                "z": -0.704743149386269
            },
            "position": {
                "x": 0.6205249238014221,
                "y": -0.6371506643295288,
                "z": 0.19426114857196808
            }
        },
        "name": "move_to_magneteinheit_B"
    },
    "id": "SPARS_move_to_magneteinheit_B_32",
    "joint_names": [
        "shoulder_pan_joint",
        "shoulder_lift_joint",
        "elbow_joint",
        "wrist_1_joint",
        "wrist_2_joint",
        "wrist_3_joint"
    ],
    "metrics": {
        "cart_traj_len": 1.4263851072281457,
        "distance_elbow_joint": 0.9577549299465671,
        "distance_shoulder_lift_joint": 1.043503472547355,
        "distance_shoulder_pan_joint": 1.6224194506932499,
        "distance_wrist_1_joint": 0.1807851584550626,
        "distance_wrist_2_joint": 1.6052102914479496,
        "distance_wrist_3_joint": 0.7601737257340045,
        "smoothness": 0.4051835573856898,
        "time": 5.048116373999999,
        "traj_len": 2.4839176775457332,
        "weighted_distance": 3.0783420749155237
    },
    "planner": "SPARS",
    "start": {
        "state": {
            "elbow_joint": 2.6216224122426386,
            "shoulder_lift_joint": -1.4174107377796124,
            "shoulder_pan_joint": 0.7066234856936794,
            "wrist_1_joint": 1.9546482284002225,
            "wrist_2_joint": -0.7096286983471962,
            "wrist_3_joint": 0.005740856962016249
        }
    },
    "waypoints": [
        {
            "positions": [
                0.7066234856936794,
                -1.4174107377796124,
                2.6216224122426386,
                1.9546482284002225,
                -0.7096286983471962,
                0.005740856962016249
            ]
        },
        {
            "positions": [
                0.5575148042604233,
                -1.4532000915255456,
                2.6168059901394867,
                1.9804528854402266,
                -0.6986460417003364,
                0.10090079383151104
            ]
        },
        {
            "positions": [
                0.4084061228271673,
                -1.488989445271479,
                2.6119895680363348,
                2.0062575424802302,
                -0.6876633850534767,
                0.19606073070100585
            ]
        },
        {
            "positions": [
                0.2592974413939113,
                -1.5247787990174124,
                2.607173145933183,
                2.0320621995202344,
                -0.676680728406617,
                0.29122066757050064
            ]
        },
        {
            "positions": [
                0.11018875996065525,
                -1.5605681527633457,
                2.602356723830031,
                2.0578668565602385,
                -0.6656980717597571,
                0.38638060443999545
            ]
        },
        {
            "positions": [
                0.03126685804063785,
                -1.4913107637199903,
                2.530165243712034,
                2.0638335127367804,
                -0.785796507518258,
                0.3571856830356858
            ]
        },
        {
            "positions": [
                -0.04765504387937955,
                -1.4220533746766346,
                2.4579737635940373,
                2.0698001689133227,
                -0.9058949432767588,
                0.32799076163137614
            ]
        },
        {
            "positions": [
                -0.12657694579939693,
                -1.3527959856332792,
                2.3857822834760403,
                2.0757668250898647,
                -1.0259933790352596,
                0.2987958402270665
            ]
        },
        {
            "positions": [
                -0.20549884771941435,
                -1.2835385965899238,
                2.3135908033580432,
                2.0817334812664066,
                -1.1460918147937604,
                0.26960091882275683
            ]
        },
        {
            "positions": [
                -0.2844207496394317,
                -1.214281207546568,
                2.2413993232400466,
                2.087700137442949,
                -1.266190250552261,
                0.2404059974184472
            ]
        },
        {
            "positions": [
                -0.3633426515594491,
                -1.1450238185032124,
                2.1692078431220496,
                2.093666793619491,
                -1.386288686310762,
                0.21121107601413755
            ]
        },
        {
            "positions": [
                -0.44226455347946647,
                -1.0757664294598572,
                2.0970163630040526,
                2.0996334497960327,
                -1.5063871220692628,
                0.18201615460982792
            ]
        },
        {
            "positions": [
                -0.5211864553994839,
                -1.0065090404165016,
                2.024824882886056,
                2.1056001059725746,
                -1.6264855578277637,
                0.15282123320551824
            ]
        },
        {
            "positions": [
                -0.6001083573195013,
                -0.937251651373146,
                1.952633402768059,
                2.111566762149117,
                -1.7465839935862644,
                0.12362631180120864
            ]
        },
        {
            "positions": [
                -0.6790302592395187,
                -0.8679942623297905,
                1.880441922650062,
                2.117533418325659,
                -1.8666824293447652,
                0.09443139039689896
            ]
        },
        {
            "positions": [
                -0.757952161159536,
                -0.7987368732864351,
                1.8082504425320653,
                2.123500074502201,
                -1.9867808651032661,
                0.06523646899258934
            ]
        },
        {
            "positions": [
                -0.8368740630795535,
                -0.7294794842430794,
                1.7360589624140683,
                2.129466730678743,
                -2.106879300861767,
                0.036041547588279654
            ]
        },
        {
            "positions": [
                -0.9157959649995708,
                -0.660222095199724,
                1.6638674822960715,
                2.135433386855285,
                -2.2269777366202677,
                0.0068466261839700325
            ]
        }
    ]
}