{
    "goal": {
        "global_pose": {
            "orientation": {
                "w": -0.00223480608172531,
                "x": 0.0024358444001904467,
                "y": 0.7094548369677653,
                "z": -0.704743149386269
            },
            "position": {
                "x": -0.37947507619857795,
                "y": -0.6371506643295288,
                "z": 0.19426114857196808
            }
        },
        "name": "move_to_magneteinheit_C"
    },
    "id": "SPARStwo_move_to_magneteinheit_C_74",
    "joint_names": [
        "shoulder_pan_joint",
        "shoulder_lift_joint",
        "elbow_joint",
        "wrist_1_joint",
        "wrist_2_joint",
        "wrist_3_joint"
    ],
    "metrics": {
        "cart_traj_len": 3.509797682711364,
        "distance_elbow_joint": 1.1936867558489066,
        "distance_shoulder_lift_joint": 0.7488927573171253,
        "distance_shoulder_pan_joint": 4.154613588377638,
        "distance_wrist_1_joint": 0.6703893872759357,
        "distance_wrist_2_joint": 2.976113452880453,
        "distance_wrist_3_joint": 2.401830010821621,
        "smoothness": 0.841587711672792,
        "time": 5.04951435,
        "traj_len": 3.4850431779996183,
        "weighted_distance": 4.538247328465176
    },
    "planner": "SPARStwo",
    "start": {
        "state": {
            "elbow_joint": 1.9565354010623817,
            "shoulder_lift_joint": -1.4165861575791021,
            "shoulder_pan_joint": -1.6717766225146293,
            "wrist_1_joint": -0.5286633292919765,
            "wrist_2_joint": 1.472756589071564,
            "wrist_3_joint": -3.1238370188695823
        }
    },
    "waypoints": [
        {
            "positions": [
                -1.6717766225146293,
                -1.4165861575791021,
                1.9565354010623817,
                -0.5286633292919765,
                1.472756589071564,
                -3.1238370188695823
            ]
        },
        {
            "positions": [
                -1.5481851371742612,
                -1.4356079333413714,
                1.9125695871408834,
                -0.5491216074820024,
                1.3770172388313484,
                -3.0328055028984733
            ]
        },
        {
            "positions": [
                -1.4245936518338929,
                -1.4546297091036409,
                1.8686037732193852,
                -0.5695798856720286,
                1.281277888591133,
                -2.9417739869273642
            ]
        },
        {
            "positions": [
                -1.3010021664935247,
                -1.4736514848659101,
                1.824637959297887,
                -0.5900381638620545,
                1.1855385383509174,
                -2.850742470956255
            ]
        },
        {
            "positions": [
                -1.1774106811531566,
                -1.4926732606281796,
                1.7806721453763887,
                -0.6104964420520806,
                1.0897991881107019,
                -2.759710954985146
            ]
        },
        {
            "positions": [
                -1.0538191958127885,
                -1.5116950363904489,
                1.7367063314548905,
                -0.6309547202421066,
                0.9940598378704864,
                -2.668679439014037
            ]
        },
        {
            "positions": [
                -0.9302277104724201,
                -1.5307168121527184,
                1.6927405175333923,
                -0.6514129984321327,
                0.898320487630271,
                -2.577647923042928
            ]
        },
        {
            "positions": [
                -0.806636225132052,
                -1.5497385879149876,
                1.648774703611894,
                -0.6718712766221587,
                0.8025811373900554,
                -2.486616407071819
            ]
        },
        {
            "positions": [
                -0.6830447397916838,
                -1.5687603636772571,
                1.6048088896903958,
                -0.6923295548121848,
                0.7068417871498399,
                -2.39558489110071
            ]
        },
        {
            "positions": [
                -0.5594532544513156,
                -1.5877821394395264,
                1.5608430757688976,
                -0.7127878330022108,
                0.6111024369096245,
                -2.3045533751296015
            ]
        },
        {
            "positions": [
                -0.43586176911094743,
                -1.6068039152017959,
                1.5168772618473993,
                -0.7332461111922369,
                0.5153630866694089,
                -2.213521859158492
            ]
        },
        {
            "positions": [
                -0.3122702837705793,
                -1.6258256909640652,
                1.4729114479259011,
                -0.7537043893822629,
                0.4196237364291935,
                -2.1224903431873834
            ]
        },
        {
            "positions": [
                -0.18867879843021096,
                -1.6448474667263346,
                1.4289456340044029,
                -0.774162667572289,
                0.32388438618897797,
                -2.031458827216274
            ]
        },
        {
            "positions": [
                -0.06508731308984295,
                -1.663869242488604,
                1.3849798200829047,
                -0.794620945762315,
                0.2281450359487624,
                -1.940427311245165
            ]
        },
        {
            "positions": [
                -0.2557467517101776,
                -1.6305803732909467,
                1.41858980672806,
                -0.7800924331440029,
                0.17872644044509808,
                -1.9856367515559683
            ]
        },
        {
            "positions": [
                -0.44640619033051215,
                -1.5972915040932896,
                1.4521997933732154,
                -0.7655639205256907,
                0.12930784494143377,
                -2.0308461918667713
            ]
        },
        {
            "positions": [
                -0.6370656289508467,
                -1.5640026348956324,
                1.485809780018371,
                -0.7510354079073785,
                0.07988924943776946,
                -2.0760556321775745
            ]
        },
        {
            "positions": [
                -0.8277250675711814,
                -1.5307137656979752,
                1.5194197666635263,
                -0.7365068952890664,
                0.03047065393410517,
                -2.1212650724883777
            ]
        },
        {
            "positions": [
                -1.018384506191516,
                -1.497424896500318,
                1.5530297533086816,
                -0.7219783826707542,
                -0.018947941569559146,
                -2.166474512799181
            ]
        },
        {
            "positions": [
                -1.2090439448118504,
                -1.464136027302661,
                1.586639739953837,
                -0.7074498700524421,
                -0.06836653707322349,
                -2.211683953109984
            ]
        },
        {
            "positions": [
                -1.3997033834321848,
                -1.4308471581050037,
                1.6202497265989926,
                -0.69292135743413,
                -0.11778513257688772,
                -2.2568933934207873
            ]
        },
        {
            "positions": [
                -1.5903628220525197,
                -1.3975582889073466,
                1.653859713244148,
                -0.6783928448158179,
                -0.16720372808055206,
                -2.3021028337315905
            ]
        },
        {
            "positions": [
                -1.781022260672854,
                -1.3642694197096894,
                1.6874696998893033,
                -0.6638643321975056,
                -0.21662232358421635,
                -2.3473122740423937
            ]
        },
        {
            "positions": [
                -1.971681699293189,
                -1.3309805505120322,
                1.7210796865344586,
                -0.6493358195791935,
                -0.2660409190878807,
                -2.392521714353197
            ]
        },
        {
            "positions": [
                -2.1623411379135233,
                -1.297691681314375,
                1.7546896731796142,
                -0.6348073069608814,
                -0.31545951459154503,
                -2.437731154664
            ]
        },
        {
            "positions": [
                -2.353000576533858,
                -1.264402812116718,
                1.7882996598247696,
                -0.6202787943425692,
                -0.3648781100952094,
                -2.4829405949748033
            ]
        },
        {
            "positions": [
                -2.5436600151541926,
                -1.2311139429190607,
                1.821909646469925,
                -0.605750281724257,
                -0.41429670559887355,
                -2.5281500352856066
            ]
        },
        {
            "positions": [
                -2.543044868336508,
                -1.2189182834841112,
                1.8542705117524616,
                -0.6342470877268939,
                -0.2627527396252568,
                -2.6258250770161564
            ]
        },
        {
            "positions": [
                -2.542429721518823,
                -1.2067226240491618,
                1.8866313770349983,
                -0.6627438937295307,
                -0.11120877365164006,
                -2.723500118746706
            ]
        },
        {
            "positions": [
                -2.5418145747011387,
                -1.1945269646142123,
                1.9189922423175352,
                -0.6912406997321675,
                0.040335192321976576,
                -2.8211751604772557
            ]
        },
        {
            "positions": [
                -2.5411994278834538,
                -1.1823313051792628,
                1.9513531076000719,
                -0.7197375057348043,
                0.19187915829559343,
                -2.918850202207805
            ]
        },
        {
            "positions": [
                -2.5405842810657693,
                -1.1701356457443133,
                1.9837139728826085,
                -0.7482343117374411,
                0.34342312426921007,
                -3.016525243938355
            ]
        },
        {
            "positions": [
                -2.5074463596657313,
                -1.1661976079126468,
                1.9954124839174714,
                -0.7847728501146187,
                0.5090932884401758,
                -3.087686429190362
            ]
        },
        {
            "positions": [
                -2.4743084382656932,
                -1.1622595700809804,
                2.0071109949523342,
                -0.8213113884917962,
                0.6747634526111416,
                -3.1588476144423687
            ]
        }
    ]
}