{
    "goal": {
        "global_pose": {
            "orientation": {
                "w": 0.005598929693374612,
                "x": 0.007748599140229565,
                "y": 0.7110244013736278,
                "z": -0.7031023480610252
            },
            "position": {
                "x": 0.1141497679147869,
                "y": -0.7141253447532654,
                "z": 0.3711530566215515
            }
        },
        "name": "move_to_auspresseinheit_B"
    },
    "id": "SPARS_move_to_auspresseinheit_B_40",
    "joint_names": [
        "shoulder_pan_joint",
        "shoulder_lift_joint",
        "elbow_joint",
        "wrist_1_joint",
        "wrist_2_joint",
        "wrist_3_joint"
    ],
    "metrics": {
        "cart_traj_len": 0.5639700332446996,
        "distance_elbow_joint": 0.06024145844383422,
        "distance_shoulder_lift_joint": 0.29401205495424065,
        "distance_shoulder_pan_joint": 0.5754791507408907,
        "distance_wrist_1_joint": 0.3162190611395945,
        "distance_wrist_2_joint": 0.9975924713656297,
        "distance_wrist_3_joint": 0.010634548490177753,
        "smoothness": 2.5376526478085547e-16,
        "time": 5.03268427,
        "traj_len": 1.5013922689072192,
        "weighted_distance": 1.8945340785058333
    },
    "planner": "SPARS",
    "start": {
        "state": {
            "elbow_joint": 2.0193083361928714,
            "shoulder_lift_joint": -1.1220246554650708,
            "shoulder_pan_joint": -1.0952077554168747,
            "wrist_1_joint": -0.8559753972642168,
            "wrist_2_joint": 0.4759566250798843,
            "wrist_3_joint": -3.1240929996934557
        }
    },
    "waypoints": [
        {
            "positions": [
                -1.0952077554168747,
                -1.1220246554650708,
                2.0193083361928714,
                -0.8559753972642168,
                0.4759566250798843,
                -3.1240929996934557
            ]
        },
        {
            "positions": [
                -1.1911209472070232,
                -1.171026664624111,
                2.009268093118899,
                -0.8032722204076177,
                0.6422220369741559,
                -3.1223205749450926
            ]
        },
        {
            "positions": [
                -1.2870341389971716,
                -1.220028673783151,
                1.9992278500449268,
                -0.7505690435510186,
                0.8084874488684275,
                -3.1205481501967296
            ]
        },
        {
            "positions": [
                -1.38294733078732,
                -1.2690306829421911,
                1.9891876069709542,
                -0.6978658666944195,
                0.9747528607626992,
                -3.1187757254483666
            ]
        },
        {
            "positions": [
                -1.4788605225774685,
                -1.3180326921012313,
                1.9791473638969819,
                -0.6451626898378204,
                1.1410182726569706,
                -3.117003300700004
            ]
        },
        {
            "positions": [
                -1.574773714367617,
                -1.3670347012602713,
                1.9691071208230095,
                -0.5924595129812213,
                1.3072836845512423,
                -3.115230875951641
            ]
        },
        {
            "positions": [
                -1.6706869061577654,
                -1.4160367104193115,
                1.9590668777490372,
                -0.5397563361246223,
                1.473549096445514,
                -3.113458451203278
            ]
        }
    ]
}