{
    "goal": {
        "global_pose": {
            "orientation": {
                "w": 0.5084816217422485,
                "x": -0.49083608388900757,
                "y": 0.5182115435600281,
                "z": -0.4816462993621826
            },
            "position": {
                "x": 0.5540239810943604,
                "y": 0.030875300988554955,
                "z": 0.16403168439865112
            }
        },
        "name": "move_to_storage_A"
    },
    "id": "SPARStwo_move_to_storage_A_79",
    "joint_names": [
        "shoulder_pan_joint",
        "shoulder_lift_joint",
        "elbow_joint",
        "wrist_1_joint",
        "wrist_2_joint",
        "wrist_3_joint"
    ],
    "metrics": {
        "cart_traj_len": 0.3532314452167027,
        "distance_elbow_joint": 0.4508054597225204,
        "distance_shoulder_lift_joint": 0.23393536958729388,
        "distance_shoulder_pan_joint": 0.4627682906672919,
        "distance_wrist_1_joint": 0.24207542538075622,
        "distance_wrist_2_joint": 1.0957071794638773,
        "distance_wrist_3_joint": 0.10276154737715837,
        "smoothness": 4.440892098500626e-16,
        "time": 5.004391213,
        "traj_len": 1.6087427613508938,
        "weighted_distance": 2.0325744689427365
    },
    "planner": "SPARStwo",
    "start": {
        "state": {
            "elbow_joint": 1.9715481507254546,
            "shoulder_lift_joint": -1.1394850672790213,
            "shoulder_pan_joint": 0.12281154597544902,
            "wrist_1_joint": -0.7804720171073349,
            "wrist_2_joint": 0.12958658322886563,
            "wrist_3_joint": -3.1924895760937617
        }
    },
    "waypoints": [
        {
            "positions": [
                0.12281154597544902,
                -1.1394850672790213,
                1.9715481507254546,
                -0.7804720171073349,
                0.12958658322886563,
                -3.1924895760937617
            ]
        },
        {
            "positions": [
                0.05670179016583589,
                -1.172904405791492,
                2.0359489306858145,
                -0.8150542207331573,
                0.2861161802951338,
                -3.177809355039882
            ]
        },
        {
            "positions": [
                -0.009407965643777244,
                -1.2063237443039625,
                2.100349710646175,
                -0.8496364243589796,
                0.442645777361402,
                -3.1631291339860024
            ]
        },
        {
            "positions": [
                -0.07551772145339036,
                -1.239743082816433,
                2.1647504906065347,
                -0.8842186279848019,
                0.5991753744276702,
                -3.1484489129321225
            ]
        },
        {
            "positions": [
                -0.1416274772630035,
                -1.2731624213289034,
                2.229151270566895,
                -0.9188008316106242,
                0.7557049714939383,
                -3.1337686918782426
            ]
        },
        {
            "positions": [
                -0.20773723307261666,
                -1.306581759841374,
                2.293552050527255,
                -0.9533830352364465,
                0.9122345685602066,
                -3.1190884708243627
            ]
        },
        {
            "positions": [
                -0.27384698888222975,
                -1.3400010983538446,
                2.3579528304876147,
                -0.9879652388622688,
                1.0687641656264746,
                -3.1044082497704832
            ]
        },
        {
            "positions": [
                -0.3399567446918429,
                -1.3734204368663152,
                2.422353610447975,
                -1.0225474424880912,
                1.225293762692743,
                -3.0897280287166033
            ]
        }
    ]
}