{
    "goal": {
        "global_pose": {
            "orientation": {
                "w": -0.4816463035849501,
                "x": 0.5182115481033762,
                "y": 0.4908360881923453,
                "z": -0.5084816262002911
            },
            "position": {
                "x": -0.8240239810943604,
                "y": 0.19912469901144506,
                "z": 0.16403168439865112
            }
        },
        "name": "move_to_storage_D"
    },
    "id": "SPARStwo_move_to_storage_D_93",
    "joint_names": [
        "shoulder_pan_joint",
        "shoulder_lift_joint",
        "elbow_joint",
        "wrist_1_joint",
        "wrist_2_joint",
        "wrist_3_joint"
    ],
    "metrics": {
        "cart_traj_len": 3.710023721350487,
        "distance_elbow_joint": 4.208140434513085,
        "distance_shoulder_lift_joint": 1.264567223833335,
        "distance_shoulder_pan_joint": 2.8116705754625055,
        "distance_wrist_1_joint": 2.2609332593621856,
        "distance_wrist_2_joint": 0.995903563115568,
        "distance_wrist_3_joint": 3.1492468129911435,
        "smoothness": 0.014363157855808675,
        "time": 5.047289881,
        "traj_len": 3.832813831805273,
        "weighted_distance": 4.924001656959293
    },
    "planner": "SPARStwo",
    "start": {
        "state": {
            "elbow_joint": -2.384821988534728,
            "shoulder_lift_joint": -2.2788054721415256,
            "shoulder_pan_joint": -0.1854694642142757,
            "wrist_1_joint": 1.4845938289331202,
            "wrist_2_joint": 0.17898776772866878,
            "wrist_3_joint": 0.037105688729662994
        }
    },
    "waypoints": [
        {
            "positions": [
                -0.1854694642142757,
                -2.2788054721415256,
                -2.384821988534728,
                1.4845938289331202,
                0.17898776772866878,
                0.037105688729662994
            ]
        },
        {
            "positions": [
                -0.09029964290843417,
                -2.227407109151958,
                -2.2427572783617897,
                1.4139832221050566,
                0.17979060360192192,
                0.0024814193920307814
            ]
        },
        {
            "positions": [
                0.00487017839740736,
                -2.1760087461623905,
                -2.100692568188852,
                1.3433726152769931,
                0.18059343947517506,
                -0.03214284994560143
            ]
        },
        {
            "positions": [
                0.10003999970324892,
                -2.124610383172823,
                -1.958627858015914,
                1.2727620084489295,
                0.1813962753484282,
                -0.06676711928323364
            ]
        },
        {
            "positions": [
                0.19520982100909043,
                -2.0732120201832553,
                -1.816563147842976,
                1.202151401620866,
                0.1821991112216813,
                -0.10139138862086586
            ]
        },
        {
            "positions": [
                0.29037964231493196,
                -2.0218136571936878,
                -1.674498437670038,
                1.1315407947928025,
                0.18300194709493445,
                -0.13601565795849807
            ]
        },
        {
            "positions": [
                0.3855494636207736,
                -1.9704152942041204,
                -1.5324337274971,
                1.0609301879647388,
                0.18380478296818759,
                -0.17063992729613028
            ]
        },
        {
            "positions": [
                0.4807192849266151,
                -1.919016931214553,
                -1.390369017324162,
                0.9903195811366753,
                0.18460761884144072,
                -0.20526419663376252
            ]
        },
        {
            "positions": [
                0.5758891062324566,
                -1.8676185682249855,
                -1.248304307151224,
                0.9197089743086118,
                0.18541045471469386,
                -0.2398884659713947
            ]
        },
        {
            "positions": [
                0.6710589275382982,
                -1.816220205235418,
                -1.106239596978286,
                0.8490983674805481,
                0.186213290587947,
                -0.274512735309027
            ]
        },
        {
            "positions": [
                0.7662287488441397,
                -1.7648218422458504,
                -0.9641748868053481,
                0.7784877606524846,
                0.18701612646120014,
                -0.30913700464665916
            ]
        },
        {
            "positions": [
                0.8613985701499814,
                -1.7134234792562828,
                -0.8221101766324099,
                0.707877153824421,
                0.18781896233445325,
                -0.34376127398429146
            ]
        },
        {
            "positions": [
                0.9565683914558228,
                -1.6620251162667152,
                -0.6800454664594722,
                0.6372665469963574,
                0.1886217982077064,
                -0.37838554332192353
            ]
        },
        {
            "positions": [
                1.0517382127616643,
                -1.6106267532771477,
                -0.537980756286534,
                0.5666559401682938,
                0.18942463408095953,
                -0.41300981265955583
            ]
        },
        {
            "positions": [
                1.1469080340675057,
                -1.5592283902875803,
                -0.3959160461135962,
                0.4960453333402304,
                0.19022746995421266,
                -0.447634081997188
            ]
        },
        {
            "positions": [
                1.2420778553733474,
                -1.5078300272980127,
                -0.253851335940658,
                0.42543472651216674,
                0.1910303058274658,
                -0.4822583513348202
            ]
        },
        {
            "positions": [
                1.3372476766791888,
                -1.4564316643084454,
                -0.11178662576772025,
                0.3548241196841033,
                0.19183314170071894,
                -0.5168826206724524
            ]
        },
        {
            "positions": [
                1.4324174979850304,
                -1.4050333013188776,
                0.030278084405217953,
                0.2842135128560397,
                0.19263597757397208,
                -0.5515068900100847
            ]
        },
        {
            "positions": [
                1.527587319290872,
                -1.3536349383293103,
                0.1723427945781557,
                0.21360290602797605,
                0.1934388134472252,
                -0.5861311593477169
            ]
        },
        {
            "positions": [
                1.6227571405967136,
                -1.3022365753397427,
                0.3144075047510939,
                0.1429922991999124,
                0.19424164932047833,
                -0.620755428685349
            ]
        },
        {
            "positions": [
                1.717926961902555,
                -1.2508382123501751,
                0.45647221492403167,
                0.072381692371849,
                0.19504448519373146,
                -0.6553796980229812
            ]
        },
        {
            "positions": [
                1.8130967832083966,
                -1.1994398493606075,
                0.5985369250969698,
                0.0017710855437853973,
                0.1958473210669846,
                -0.6900039673606135
            ]
        },
        {
            "positions": [
                1.857149165244875,
                -1.1916921250654824,
                0.641149414918915,
                -0.0467472697585301,
                0.1880092422858116,
                -0.840240218718511
            ]
        },
        {
            "positions": [
                1.9012015472813537,
                -1.1839444007703575,
                0.6837619047408602,
                -0.0952656250608456,
                0.1801711635046386,
                -0.9904764700764084
            ]
        },
        {
            "positions": [
                1.9452539293178321,
                -1.1761966764752323,
                0.7263743945628054,
                -0.1437839803631611,
                0.1723330847234656,
                -1.1407127214343058
            ]
        },
        {
            "positions": [
                2.0024108741937456,
                -1.1669005417994276,
                0.7837510598727401,
                -0.20508551532260402,
                0.16662194651342255,
                -1.3330678369276663
            ]
        },
        {
            "positions": [
                2.0595678190696587,
                -1.157604407123623,
                0.8411277251826749,
                -0.26638705028204696,
                0.1609108083033795,
                -1.5254229524210268
            ]
        },
        {
            "positions": [
                2.116724763945572,
                -1.1483082724478182,
                0.8985043904926096,
                -0.3276885852414899,
                0.15519967009333646,
                -1.717778067914387
            ]
        },
        {
            "positions": [
                2.1738817088214857,
                -1.1390121377720137,
                0.9558810558025443,
                -0.3889901202009328,
                0.14948853188329342,
                -1.9101331834077475
            ]
        },
        {
            "positions": [
                2.231038653697399,
                -1.129716003096209,
                1.013257721112479,
                -0.4502916551603758,
                0.14377739367325038,
                -2.102488298901108
            ]
        },
        {
            "positions": [
                2.2881955985733122,
                -1.1204198684204043,
                1.0706343864224137,
                -0.5115931901198187,
                0.13806625546320733,
                -2.2948434143944683
            ]
        },
        {
            "positions": [
                2.3453525434492257,
                -1.1111237337445996,
                1.1280110517323485,
                -0.5728947250792616,
                0.1323551172531643,
                -2.487198529887829
            ]
        },
        {
            "positions": [
                2.3804586144241013,
                -1.0990130480650484,
                1.2149244760130997,
                -0.5983253132479872,
                0.2467990929985933,
                -2.565316354184535
            ]
        },
        {
            "positions": [
                2.4155646853989765,
                -1.0869023623854974,
                1.3018379002938507,
                -0.6237559014167128,
                0.3612430687440223,
                -2.643434178481242
            ]
        },
        {
            "positions": [
                2.450670756373852,
                -1.0747916767059462,
                1.388751324574602,
                -0.6491864895854383,
                0.4756870444894513,
                -2.7215520027779485
            ]
        },
        {
            "positions": [
                2.4857768273487277,
                -1.062680991026395,
                1.475664748855353,
                -0.674617077754164,
                0.5901310202348803,
                -2.7996698270746547
            ]
        },
        {
            "positions": [
                2.5208828983236033,
                -1.050570305346844,
                1.5625781731361041,
                -0.7000476659228896,
                0.7045749959803093,
                -2.877787651371361
            ]
        },
        {
            "positions": [
                2.555988969298479,
                -1.0384596196672928,
                1.6494915974168554,
                -0.7254782540916151,
                0.8190189717257383,
                -2.9559054756680676
            ]
        },
        {
            "positions": [
                2.591095040273354,
                -1.0263489339877419,
                1.7364050216976064,
                -0.7509088422603407,
                0.9334629474711673,
                -3.0340232999647743
            ]
        },
        {
            "positions": [
                2.6262011112482297,
                -1.0142382483081906,
                1.8233184459783576,
                -0.7763394304290663,
                1.0479069232165963,
                -3.1121411242614805
            ]
        }
    ]
}