{
    "goal": {
        "global_pose": {
            "orientation": {
                "w": 0.005598929693374612,
                "x": 0.007748599140229565,
                "y": 0.7110244013736278,
                "z": -0.7031023480610252
            },
            "position": {
                "x": -0.8858502320852131,
                "y": -0.7141253447532654,
                "z": 0.3711530566215515
            }
        },
        "name": "move_to_auspresseinheit_C"
    },
    "id": "SPARS_move_to_auspresseinheit_C_102",
    "joint_names": [
        "shoulder_pan_joint",
        "shoulder_lift_joint",
        "elbow_joint",
        "wrist_1_joint",
        "wrist_2_joint",
        "wrist_3_joint"
    ],
    "metrics": {
        "cart_traj_len": 0.49245105535961436,
        "distance_elbow_joint": 0.9889273990415784,
        "distance_shoulder_lift_joint": 0.3191148433048958,
        "distance_shoulder_pan_joint": 0.2563843005733806,
        "distance_wrist_1_joint": 0.6588393327725766,
        "distance_wrist_2_joint": 1.3054622719578874,
        "distance_wrist_3_joint": 0.04215812178196021,
        "smoothness": 9.689219124001365e-16,
        "time": 5.0241280989999995,
        "traj_len": 1.8896788799773045,
        "weighted_distance": 2.370549328262684
    },
    "planner": "SPARS",
    "start": {
        "state": {
            "elbow_joint": 1.7527959577737207,
            "shoulder_lift_joint": -0.9740617694225068,
            "shoulder_pan_joint": -2.967991417825858,
            "wrist_1_joint": -0.759517768980727,
            "wrist_2_joint": 1.7443932448377408,
            "wrist_3_joint": -3.0840537646736568
        }
    },
    "waypoints": [
        {
            "positions": [
                -2.967991417825858,
                -0.9740617694225068,
                1.7527959577737207,
                -0.759517768980727,
                1.7443932448377408,
                -3.0840537646736568
            ]
        },
        {
            "positions": [
                -2.94235298776852,
                -0.9421502850920171,
                1.6539032178695627,
                -0.6936338357034694,
                1.6138470176419522,
                -3.088269576851853
            ]
        },
        {
            "positions": [
                -2.916714557711182,
                -0.9102388007615276,
                1.555010477965405,
                -0.6277499024262116,
                1.4833007904461633,
                -3.092485389030049
            ]
        },
        {
            "positions": [
                -2.891076127653844,
                -0.878327316431038,
                1.4561177380612471,
                -0.561865969148954,
                1.3527545632503746,
                -3.0967012012082447
            ]
        },
        {
            "positions": [
                -2.865437697596506,
                -0.8464158321005484,
                1.3572249981570892,
                -0.49598203587169637,
                1.2222083360545857,
                -3.1009170133864408
            ]
        },
        {
            "positions": [
                -2.839799267539168,
                -0.8145043477700589,
                1.2583322582529315,
                -0.4300981025944387,
                1.091662108858797,
                -3.105132825564637
            ]
        },
        {
            "positions": [
                -2.8141608374818294,
                -0.7825928634395694,
                1.1594395183487736,
                -0.36421416931718104,
                0.9611158816630084,
                -3.109348637742833
            ]
        },
        {
            "positions": [
                -2.7885224074244914,
                -0.7506813791090797,
                1.0605467784446159,
                -0.2983302360399234,
                0.8305696544672196,
                -3.113564449921029
            ]
        },
        {
            "positions": [
                -2.7628839773671534,
                -0.7187698947785901,
                0.9616540385404578,
                -0.23244630276266576,
                0.7000234272714307,
                -3.1177802620992248
            ]
        },
        {
            "positions": [
                -2.7372455473098154,
                -0.6868584104481006,
                0.8627612986363,
                -0.16656236948540803,
                0.5694772000756421,
                -3.121996074277421
            ]
        },
        {
            "positions": [
                -2.7116071172524774,
                -0.654946926117611,
                0.7638685587321422,
                -0.10067843620815045,
                0.4389309728798534,
                -3.126211886455617
            ]
        }
    ]
}