{
    "goal": {
        "global_pose": {
            "orientation": {
                "w": 0.5084816217422485,
                "x": -0.49083608388900757,
                "y": 0.5182115435600281,
                "z": -0.4816462993621826
            },
            "position": {
                "x": 0.5540239810943604,
                "y": 0.030875300988554955,
                "z": 0.16403168439865112
            }
        },
        "name": "move_to_storage_A"
    },
    "id": "SPARStwo_move_to_storage_A_36",
    "joint_names": [
        "shoulder_pan_joint",
        "shoulder_lift_joint",
        "elbow_joint",
        "wrist_1_joint",
        "wrist_2_joint",
        "wrist_3_joint"
    ],
    "metrics": {
        "cart_traj_len": 0.3530394698276792,
        "distance_elbow_joint": 0.45183258467688026,
        "distance_shoulder_lift_joint": 0.23640864566469877,
        "distance_shoulder_pan_joint": 0.459303507310015,
        "distance_wrist_1_joint": 0.2456179791280142,
        "distance_wrist_2_joint": 1.110233899178874,
        "distance_wrist_3_joint": 0.1053569679737345,
        "smoothness": 6.661338165333112e-16,
        "time": 5.0054646709999995,
        "traj_len": 1.6151636399858118,
        "weighted_distance": 2.0433598308145764
    },
    "planner": "SPARStwo",
    "start": {
        "state": {
            "elbow_joint": 1.9715481507254546,
            "shoulder_lift_joint": -1.1394850672790213,
            "shoulder_pan_joint": 0.12281154597544902,
            "wrist_1_joint": -0.7804720171073349,
            "wrist_2_joint": 0.12958658322886563,
            "wrist_3_joint": -3.1924895760937617
        }
    },
    "waypoints": [
        {
            "positions": [
                0.12281154597544902,
                -1.1394850672790213,
                1.9715481507254546,
                -0.7804720171073349,
                0.12958658322886563,
                -3.1924895760937617
            ]
        },
        {
            "positions": [
                0.05719675921687545,
                -1.1732577309454069,
                2.036095662822152,
                -0.8155602998399084,
                0.28819142596870473,
                -3.1774385806689427
            ]
        },
        {
            "positions": [
                -0.008418027541698125,
                -1.2070303946117924,
                2.100643174918849,
                -0.8506485825724819,
                0.4467962687085439,
                -3.1623875852441232
            ]
        },
        {
            "positions": [
                -0.0740328143002717,
                -1.240803058278178,
                2.165190687015546,
                -0.8857368653050552,
                0.605401111448383,
                -3.147336589819304
            ]
        },
        {
            "positions": [
                -0.13964760105884527,
                -1.2745757219445635,
                2.2297381991122434,
                -0.9208251480376287,
                0.7640059541882221,
                -3.1322855943944847
            ]
        },
        {
            "positions": [
                -0.20526238781741885,
                -1.308348385610949,
                2.2942857112089405,
                -0.9559134307702022,
                0.9226107969280614,
                -3.1172345989696657
            ]
        },
        {
            "positions": [
                -0.2708771745759924,
                -1.3421210492773346,
                2.3588332233056377,
                -0.9910017135027757,
                1.0812156396679005,
                -3.1021836035448462
            ]
        },
        {
            "positions": [
                -0.336491961334566,
                -1.37589371294372,
                2.423380735402335,
                -1.0260899962353491,
                1.2398204824077397,
                -3.087132608120027
            ]
        }
    ]
}