{
    "goal": {
        "global_pose": {
            "orientation": {
                "w": 0.5084816217422485,
                "x": -0.49083608388900757,
                "y": 0.5182115435600281,
                "z": -0.4816462993621826
            },
            "position": {
                "x": 0.5540239810943604,
                "y": 0.030875300988554955,
                "z": 0.16403168439865112
            }
        },
        "name": "move_to_storage_A"
    },
    "id": "SPARS_move_to_storage_A_63",
    "joint_names": [
        "shoulder_pan_joint",
        "shoulder_lift_joint",
        "elbow_joint",
        "wrist_1_joint",
        "wrist_2_joint",
        "wrist_3_joint"
    ],
    "metrics": {
        "cart_traj_len": 0.3534427769789541,
        "distance_elbow_joint": 0.4508660260965469,
        "distance_shoulder_lift_joint": 0.2357580144025233,
        "distance_shoulder_pan_joint": 0.46334790267574,
        "distance_wrist_1_joint": 0.23942518243845068,
        "distance_wrist_2_joint": 1.0957199114152292,
        "distance_wrist_3_joint": 0.09936440835134475,
        "smoothness": 6.661338165333112e-16,
        "time": 5.009955219,
        "traj_len": 1.607632248177373,
        "weighted_distance": 2.0293731435929185
    },
    "planner": "SPARS",
    "start": {
        "state": {
            "elbow_joint": 1.971548259319323,
            "shoulder_lift_joint": -1.1394851275133948,
            "shoulder_pan_joint": 0.1228115487234821,
            "wrist_1_joint": -0.7804723859257726,
            "wrist_2_joint": 0.12958671773740124,
            "wrist_3_joint": -3.192489227718131
        }
    },
    "waypoints": [
        {
            "positions": [
                0.1228115487234821,
                -1.1394851275133948,
                1.971548259319323,
                -0.7804723859257726,
                0.12958671773740124,
                -3.192489227718131
            ]
        },
        {
            "positions": [
                0.05661899119837639,
                -1.1731648438566125,
                2.0359576916188296,
                -0.8146759834169799,
                0.2861181336538625,
                -3.1782943122393674
            ]
        },
        {
            "positions": [
                -0.009573566326729316,
                -1.20684456019983,
                2.1003671239183364,
                -0.848879580908187,
                0.4426495495703239,
                -3.164099396760604
            ]
        },
        {
            "positions": [
                -0.07576612385183504,
                -1.2405242765430478,
                2.164776556217843,
                -0.8830831783993943,
                0.5991809654867851,
                -3.1499044812818404
            ]
        },
        {
            "positions": [
                -0.14195868137694073,
                -1.2742039928862652,
                2.22918598851735,
                -0.9172867758906016,
                0.7557123814032465,
                -3.135709565803077
            ]
        },
        {
            "positions": [
                -0.20815123890204645,
                -1.3078837092294828,
                2.2935954208168567,
                -0.9514903733818088,
                0.9122437973197078,
                -3.1215146503243134
            ]
        },
        {
            "positions": [
                -0.2743437964271522,
                -1.3415634255727005,
                2.358004853116363,
                -0.985693970873016,
                1.068775213236169,
                -3.10731973484555
            ]
        },
        {
            "positions": [
                -0.3405363539522579,
                -1.3752431419159181,
                2.42241428541587,
                -1.0198975683642233,
                1.2253066291526304,
                -3.0931248193667864
            ]
        }
    ]
}{
    "goal": {
        "global_pose": {
            "orientation": {
                "w": 0.5084816217422485,
                "x": -0.49083608388900757,
                "y": 0.5182115435600281,
                "z": -0.4816462993621826
            },
            "position": {
                "x": 0.5540239810943604,
                "y": 0.030875300988554955,
                "z": 0.16403168439865112
            }
        },
        "name": "move_to_storage_A"
    },
    "id": "SPARS_move_to_storage_A_63",
    "joint_names": [
        "shoulder_pan_joint",
        "shoulder_lift_joint",
        "elbow_joint",
        "wrist_1_joint",
        "wrist_2_joint",
        "wrist_3_joint"
    ],
    "metrics": {
        "cart_traj_len": 0.3527865698708009,
        "distance_elbow_joint": 0.4478683026162442,
        "distance_shoulder_lift_joint": 0.23675239702221007,
        "distance_shoulder_pan_joint": 0.4607438229085102,
        "distance_wrist_1_joint": 0.23241635737425437,
        "distance_wrist_2_joint": 1.101495897226512,
        "distance_wrist_3_joint": 0.08689282441381785,
        "smoothness": 1.998401449599933e-15,
        "time": 5.021144879,
        "traj_len": 1.6019268402650444,
        "weighted_distance": 2.0183823981074425
    },
    "planner": "SPARS",
    "start": {
        "state": {
            "elbow_joint": 1.97154746011099,
            "shoulder_lift_joint": -1.13948474672311,
            "shoulder_pan_joint": 0.12281154466712228,
            "wrist_1_joint": -0.7804688027058302,
            "wrist_2_joint": 0.12958655903071145,
            "wrist_3_joint": 3.0906928834467795
        }
    },
    "waypoints": [
        {
            "positions": [
                0.12281154466712228,
                -1.13948474672311,
                1.97154746011099,
                -0.7804688027058302,
                0.12958655903071145,
                3.0906928834467795
            ]
        },
        {
            "positions": [
                0.05699099853733512,
                -1.173306517726283,
                2.0355286461990247,
                -0.8136711394735808,
                0.28694311577735604,
                3.103106144077325
            ]
        },
        {
            "positions": [
                -0.008829547592452039,
                -1.2071282887294557,
                2.0995098322870596,
                -0.8468734762413315,
                0.4442996725240006,
                3.1155194047078703
            ]
        },
        {
            "positions": [
                -0.0746500937222392,
                -1.2409500597326286,
                2.1634910183750944,
                -0.880075813009082,
                0.6016562292706452,
                3.127932665338416
            ]
        },
        {
            "positions": [
                -0.14047063985202635,
                -1.2747718307358014,
                2.2274722044631297,
                -0.9132781497768326,
                0.7590127860172898,
                3.140345925968961
            ]
        },
        {
            "positions": [
                -0.20629118598181356,
                -1.3085936017389743,
                2.2914533905511645,
                -0.9464804865445833,
                0.9163693427639344,
                3.1527591865995066
            ]
        },
        {
            "positions": [
                -0.27211173211160067,
                -1.342415372742147,
                2.3554345766391993,
                -0.9796828233123339,
                1.073725899510579,
                3.1651724472300518
            ]
        },
        {
            "positions": [
                -0.3379322782413879,
                -1.37623714374532,
                2.419415762727234,
                -1.0128851600800846,
                1.2310824562572236,
                3.1775857078605974
            ]
        }
    ]
}{
    "goal": {
        "global_pose": {
            "orientation": {
                "w": 0.5084816217422485,
                "x": -0.49083608388900757,
                "y": 0.5182115435600281,
                "z": -0.4816462993621826
            },
            "position": {
                "x": 0.5540239810943604,
                "y": 0.030875300988554955,
                "z": 0.16403168439865112
            }
        },
        "name": "move_to_storage_A"
    },
    "id": "SPARS_move_to_storage_A_63",
    "joint_names": [
        "shoulder_pan_joint",
        "shoulder_lift_joint",
        "elbow_joint",
        "wrist_1_joint",
        "wrist_2_joint",
        "wrist_3_joint"
    ],
    "metrics": {
        "cart_traj_len": 0.3526871033181654,
        "distance_elbow_joint": 0.44721934573523825,
        "distance_shoulder_lift_joint": 0.2356343658963458,
        "distance_shoulder_pan_joint": 0.4609904726318899,
        "distance_wrist_1_joint": 0.23396995153179745,
        "distance_wrist_2_joint": 1.0988065508177718,
        "distance_wrist_3_joint": 0.09412850374240422,
        "smoothness": 8.881784197001252e-16,
        "time": 5.065674019,
        "traj_len": 1.603355603213288,
        "weighted_distance": 2.022815537855547
    },
    "planner": "SPARS",
    "start": {
        "state": {
            "elbow_joint": 1.9715472970024885,
            "shoulder_lift_joint": -1.1394870060712896,
            "shoulder_pan_joint": 0.12281152778156021,
            "wrist_1_joint": -0.780463741449964,
            "wrist_2_joint": 0.12958659822042276,
            "wrist_3_joint": 3.090690232415272
        }
    },
    "waypoints": [
        {
            "positions": [
                0.12281152778156021,
                -1.1394870060712896,
                1.9715472970024885,
                -0.780463741449964,
                0.12958659822042276,
                3.090690232415272
            ]
        },
        {
            "positions": [
                0.05695574597700452,
                -1.1731490583421962,
                2.0354357749646654,
                -0.8138880202402208,
                0.28655896262296154,
                3.10413716152133
            ]
        },
        {
            "positions": [
                -0.008900035827551167,
                -1.2068111106131028,
                2.0993242529268423,
                -0.8473122990304776,
                0.44353132702550035,
                3.1175840906273873
            ]
        },
        {
            "positions": [
                -0.07475581763210687,
                -1.2404731628840093,
                2.163212730889019,
                -0.8807365778207343,
                0.6005036914280392,
                3.131031019733445
            ]
        },
        {
            "positions": [
                -0.14061159943666254,
                -1.2741352151549157,
                2.227101208851196,
                -0.9141608566109911,
                0.757476055830578,
                3.1444779488395027
            ]
        },
        {
            "positions": [
                -0.20646738124121825,
                -1.3077972674258223,
                2.290989686813373,
                -0.9475851354012479,
                0.9144484202331169,
                3.1579248779455606
            ]
        },
        {
            "positions": [
                -0.272323163045774,
                -1.3414593196967288,
                2.35487816477555,
                -0.9810094141915047,
                1.0714207846356556,
                3.171371807051618
            ]
        },
        {
            "positions": [
                -0.3381789448503297,
                -1.3751213719676354,
                2.418766642737727,
                -1.0144336929817614,
                1.2283931490381945,
                3.184818736157676
            ]
        }
    ]
}