{
    "goal": {
        "global_pose": {
            "orientation": {
                "w": 0.005598929693374612,
                "x": 0.007748599140229565,
                "y": 0.7110244013736278,
                "z": -0.7031023480610252
            },
            "position": {
                "x": 0.1141497679147869,
                "y": -0.7141253447532654,
                "z": 0.3711530566215515
            }
        },
        "name": "move_to_auspresseinheit_B"
    },
    "id": "SPARStwo_move_to_auspresseinheit_B_108",
    "joint_names": [
        "shoulder_pan_joint",
        "shoulder_lift_joint",
        "elbow_joint",
        "wrist_1_joint",
        "wrist_2_joint",
        "wrist_3_joint"
    ],
    "metrics": {
        "cart_traj_len": 0.5645340392938302,
        "distance_elbow_joint": 0.06443577043176907,
        "distance_shoulder_lift_joint": 0.2939643038752531,
        "distance_shoulder_pan_joint": 0.5752089689557016,
        "distance_wrist_1_joint": 0.3355989247526072,
        "distance_wrist_2_joint": 1.0050731895737957,
        "distance_wrist_3_joint": 0.005038307854384971,
        "smoothness": 3.806478935924272e-16,
        "time": 5.003921674,
        "traj_len": 1.5097415227261626,
        "weighted_distance": 1.9052737849135186
    },
    "planner": "SPARStwo",
    "start": {
        "state": {
            "elbow_joint": 2.0193083361928714,
            "shoulder_lift_joint": -1.1220246554650708,
            "shoulder_pan_joint": -1.0952077554168747,
            "wrist_1_joint": -0.8559753972642168,
            "wrist_2_joint": 0.4759566250798843,
            "wrist_3_joint": -3.1240929996934557
        }
    },
    "waypoints": [
        {
            "positions": [
                -1.0952077554168747,
                -1.1220246554650708,
                2.0193083361928714,
                -0.8559753972642168,
                0.4759566250798843,
                -3.1240929996934557
            ]
        },
        {
            "positions": [
                -1.1910759169094915,
                -1.1710187061109463,
                2.00856904112091,
                -0.8000422431387822,
                0.6434688233421836,
                -3.1249327176691866
            ]
        },
        {
            "positions": [
                -1.2869440784021084,
                -1.2200127567568217,
                1.9978297460489485,
                -0.7441090890133477,
                0.8109810216044828,
                -3.1257724356449175
            ]
        },
        {
            "positions": [
                -1.3828122398947253,
                -1.2690068074026972,
                1.9870904509769869,
                -0.6881759348879132,
                0.9784932198667822,
                -3.1266121536206484
            ]
        },
        {
            "positions": [
                -1.4786804013873422,
                -1.318000858048573,
                1.9763511559050253,
                -0.6322427807624786,
                1.1460054181290813,
                -3.127451871596379
            ]
        },
        {
            "positions": [
                -1.5745485628799594,
                -1.3669949086944484,
                1.965611860833064,
                -0.5763096266370441,
                1.3135176163913806,
                -3.1282915895721097
            ]
        },
        {
            "positions": [
                -1.6704167243725763,
                -1.4159889593403239,
                1.9548725657611024,
                -0.5203764725116096,
                1.48102981465368,
                -3.1291313075478406
            ]
        }
    ]
}