{
    "goal": {
        "global_pose": {
            "orientation": {
                "w": 0.7031023502349854,
                "x": -0.7110244035720825,
                "y": 0.007748599164187908,
                "z": 0.005598929710686207
            },
            "position": {
                "x": 0.11585023208521307,
                "y": 0.44412534475326537,
                "z": 0.3711530566215515
            }
        },
        "name": "move_to_auspresseinheit_A"
    },
    "id": "SPARS_move_to_auspresseinheit_A_49",
    "joint_names": [
        "shoulder_pan_joint",
        "shoulder_lift_joint",
        "elbow_joint",
        "wrist_1_joint",
        "wrist_2_joint",
        "wrist_3_joint"
    ],
    "metrics": {
        "cart_traj_len": 2.282507035286757,
        "distance_elbow_joint": 3.8163403851797413,
        "distance_shoulder_lift_joint": 0.5938340194323675,
        "distance_shoulder_pan_joint": 1.5700282973643271,
        "distance_wrist_1_joint": 3.777654613758078,
        "distance_wrist_2_joint": 2.3340514862748165,
        "distance_wrist_3_joint": 2.5843774897161618,
        "smoothness": 0.5329365578003148,
        "time": 5.085052825,
        "traj_len": 3.8309641464943907,
        "weighted_distance": 5.0947764790215
    },
    "planner": "SPARS",
    "start": {
        "state": {
            "elbow_joint": 2.4225746658250005,
            "shoulder_lift_joint": -1.3736534386056498,
            "shoulder_pan_joint": -0.3378633547517467,
            "wrist_1_joint": -1.0288598680537169,
            "wrist_2_joint": 1.233022673432363,
            "wrist_3_joint": -3.0940220416140027
        }
    },
    "waypoints": [
        {
            "positions": [
                -0.3378633547517467,
                -1.3736534386056498,
                2.4225746658250005,
                -1.0288598680537169,
                1.233022673432363,
                -3.0940220416140027
            ]
        },
        {
            "positions": [
                -0.3014509708249008,
                -1.3755319348088808,
                2.321419206632601,
                -0.9148642206773693,
                1.1579159758932764,
                -3.0267766261146662
            ]
        },
        {
            "positions": [
                -0.26503858689805493,
                -1.377410431012112,
                2.2202637474402014,
                -0.8008685733010217,
                1.08280927835419,
                -2.95953121061533
            ]
        },
        {
            "positions": [
                -0.228626202971209,
                -1.379288927215343,
                2.119108288247802,
                -0.6868729259246742,
                1.0077025808151034,
                -2.8922857951159937
            ]
        },
        {
            "positions": [
                -0.1922138190443631,
                -1.381167423418574,
                2.0179528290554023,
                -0.5728772785483265,
                0.932595883276017,
                -2.8250403796166577
            ]
        },
        {
            "positions": [
                -0.1558014351175172,
                -1.383045919621805,
                1.9167973698630025,
                -0.458881631171979,
                0.8574891857369304,
                -2.757794964117321
            ]
        },
        {
            "positions": [
                -0.11938905119067131,
                -1.3849244158250362,
                1.815641910670603,
                -0.3448859837956314,
                0.7823824881978438,
                -2.6905495486179847
            ]
        },
        {
            "positions": [
                -0.08297666726382541,
                -1.3868029120282672,
                1.7144864514782032,
                -0.2308903364192838,
                0.7072757906587573,
                -2.6233041331186486
            ]
        },
        {
            "positions": [
                -0.046564283336979484,
                -1.3886814082314982,
                1.6133309922858037,
                -0.1168946890429362,
                0.6321690931196708,
                -2.556058717619312
            ]
        },
        {
            "positions": [
                -0.010151899410133614,
                -1.3905599044347292,
                1.5121755330934041,
                -0.0028990416665886087,
                0.5570623955805843,
                -2.488813302119976
            ]
        },
        {
            "positions": [
                0.026260484516712312,
                -1.3924384006379604,
                1.4110200739010046,
                0.11109660570975888,
                0.48195569804149785,
                -2.4215678866206396
            ]
        },
        {
            "positions": [
                0.06267286844355824,
                -1.3943168968411914,
                1.3098646147086048,
                0.2250922530861066,
                0.40684900050241124,
                -2.354322471121303
            ]
        },
        {
            "positions": [
                0.09908525237040411,
                -1.3961953930444224,
                1.2087091555162055,
                0.3390879004624541,
                0.33174230296332474,
                -2.287077055621967
            ]
        },
        {
            "positions": [
                0.13549763629725003,
                -1.3980738892476534,
                1.1075536963238057,
                0.4530835478388018,
                0.25663560542423813,
                -2.2198316401226306
            ]
        },
        {
            "positions": [
                0.1719100202240959,
                -1.3999523854508846,
                1.0063982371314062,
                0.5670791952151493,
                0.18152890788515164,
                -2.1525862246232945
            ]
        },
        {
            "positions": [
                0.2083224041509419,
                -1.4018308816541156,
                0.9052427779390066,
                0.681074842591497,
                0.10642221034606503,
                -2.085340809123958
            ]
        },
        {
            "positions": [
                0.24473478807778776,
                -1.4037093778573466,
                0.8040873187466071,
                0.7950704899678445,
                0.03131551280697864,
                -2.0180953936246215
            ]
        },
        {
            "positions": [
                0.2811471720046336,
                -1.4055878740605776,
                0.7029318595542073,
                0.9090661373441922,
                -0.04379118473210797,
                -1.9508499781252853
            ]
        },
        {
            "positions": [
                0.3175595559314795,
                -1.4074663702638088,
                0.601776400361808,
                1.0230617847205397,
                -0.11889788227119436,
                -1.8836045626259492
            ]
        },
        {
            "positions": [
                0.3539719398583255,
                -1.4093448664670398,
                0.5006209411694083,
                1.1370574320968876,
                -0.19400457981028088,
                -1.8163591471266127
            ]
        },
        {
            "positions": [
                0.43095483814325025,
                -1.4660413404611061,
                0.6419491784856282,
                1.1123852196961788,
                -0.18799645500365272,
                -1.8865872811421667
            ]
        },
        {
            "positions": [
                0.507937736428175,
                -1.5227378144551726,
                0.7832774158018481,
                1.08771300729547,
                -0.18198833019702457,
                -1.9568154151577206
            ]
        },
        {
            "positions": [
                0.5849206347130997,
                -1.579434288449239,
                0.924605653118068,
                1.0630407948947609,
                -0.1759802053903964,
                -2.027043549173275
            ]
        },
        {
            "positions": [
                0.6619035329980245,
                -1.6361307624433055,
                1.0659338904342879,
                1.038368582494052,
                -0.16997208058376823,
                -2.0972716831888287
            ]
        },
        {
            "positions": [
                0.7388864312829493,
                -1.6928272364373718,
                1.2072621277505078,
                1.0136963700933432,
                -0.16396395577714007,
                -2.1674998172043827
            ]
        },
        {
            "positions": [
                0.8158693295678741,
                -1.749523710431438,
                1.3485903650667277,
                0.9890241576926343,
                -0.1579558309705119,
                -2.2377279512199366
            ]
        },
        {
            "positions": [
                0.8928522278527988,
                -1.8062201844255044,
                1.4899186023829476,
                0.9643519452919254,
                -0.15194770616388376,
                -2.3079560852354906
            ]
        },
        {
            "positions": [
                0.9698351261377236,
                -1.8629166584195709,
                1.6312468396991675,
                0.9396797328912165,
                -0.1459395813572556,
                -2.3781842192510445
            ]
        },
        {
            "positions": [
                0.9470930720481855,
                -1.8705232054240644,
                1.7059601668327415,
                0.8134538276791865,
                -0.06969364176264228,
                -2.44758548944733
            ]
        },
        {
            "positions": [
                0.9243510179586473,
                -1.8781297524285578,
                1.7806734939663156,
                0.6872279224671565,
                0.006552297831971032,
                -2.516986759643615
            ]
        },
        {
            "positions": [
                0.9016089638691092,
                -1.8857362994330513,
                1.8553868210998896,
                0.5610020172551264,
                0.08279823742658432,
                -2.5863880298399
            ]
        },
        {
            "positions": [
                0.8788669097795709,
                -1.8933428464375448,
                1.9301001482334637,
                0.4347761120430964,
                0.15904417702119766,
                -2.655789300036185
            ]
        },
        {
            "positions": [
                0.8561248556900328,
                -1.9009493934420383,
                2.0048134753670377,
                0.3085502068310664,
                0.23529011661581095,
                -2.7251905702324706
            ]
        },
        {
            "positions": [
                0.8333828016004947,
                -1.908555940446532,
                2.0795268025006117,
                0.18232430161903634,
                0.31153605621042424,
                -2.7945918404287555
            ]
        },
        {
            "positions": [
                0.8106407475109565,
                -1.9161624874510255,
                2.1542401296341858,
                0.05609839640700642,
                0.3877819958050376,
                -2.8639931106250405
            ]
        },
        {
            "positions": [
                0.7878986934214184,
                -1.923769034455519,
                2.22895345676776,
                -0.07012750880502372,
                0.4640279353996509,
                -2.933394380821326
            ]
        },
        {
            "positions": [
                0.7651566393318802,
                -1.9313755814600124,
                2.303666783901334,
                -0.19635341401705375,
                0.5402738749942642,
                -3.0027956510176113
            ]
        },
        {
            "positions": [
                0.742414585242342,
                -1.938982128464506,
                2.378380111034908,
                -0.3225793192290839,
                0.6165198145888775,
                -3.072196921213896
            ]
        },
        {
            "positions": [
                0.7075053096628675,
                -1.9104767988909945,
                2.3950076016935586,
                -0.47467988151058665,
                0.7130196532218915,
                -3.1230737423553845
            ]
        }
    ]
}