{
    "goal": {
        "global_pose": {
            "orientation": {
                "w": 0.7047431468963623,
                "x": -0.7094548344612122,
                "y": 0.0024358443915843964,
                "z": -0.0022348060738295317
            },
            "position": {
                "x": 0.6094750761985779,
                "y": 0.3671506643295288,
                "z": 0.19426114857196808
            }
        },
        "name": "move_to_magneteinheit_A"
    },
    "id": "SPARS_move_to_magneteinheit_A_59",
    "joint_names": [
        "shoulder_pan_joint",
        "shoulder_lift_joint",
        "elbow_joint",
        "wrist_1_joint",
        "wrist_2_joint",
        "wrist_3_joint"
    ],
    "metrics": {
        "cart_traj_len": 4.128495711536618,
        "distance_elbow_joint": 3.9022888566876395,
        "distance_shoulder_lift_joint": 0.4377745203843302,
        "distance_shoulder_pan_joint": 4.312110225425654,
        "distance_wrist_1_joint": 0.721707861812787,
        "distance_wrist_2_joint": 3.3612208176533955,
        "distance_wrist_3_joint": 3.6022077723527195,
        "smoothness": 0.2596894093507878,
        "time": 5.049736138,
        "traj_len": 4.041943846012278,
        "weighted_distance": 5.255916121713525
    },
    "planner": "SPARS",
    "start": {
        "state": {
            "elbow_joint": -1.9196185241190666,
            "shoulder_lift_joint": -1.2443396400964142,
            "shoulder_pan_joint": 2.6996025414629847,
            "wrist_1_joint": -1.5485510000780065,
            "wrist_2_joint": -1.5709468930060704,
            "wrist_3_joint": 0.4420197071253992
        }
    },
    "waypoints": [
        {
            "positions": [
                2.6996025414629847,
                -1.2443396400964142,
                -1.9196185241190666,
                -1.5485510000780065,
                -1.5709468930060704,
                0.4420197071253992
            ]
        },
        {
            "positions": [
                2.5808261269718478,
                -1.2501651050469806,
                -1.8201836018273032,
                -1.5444931790108025,
                -1.4835148556636244,
                0.37241481170314505
            ]
        },
        {
            "positions": [
                2.4620497124807112,
                -1.2559905699975469,
                -1.7207486795355398,
                -1.5404353579435988,
                -1.3960828183211786,
                0.302809916280891
            ]
        },
        {
            "positions": [
                2.3432732979895743,
                -1.2618160349481133,
                -1.6213137572437764,
                -1.5363775368763948,
                -1.3086507809787327,
                0.2332050208586369
            ]
        },
        {
            "positions": [
                2.2244968834984373,
                -1.2676414998986798,
                -1.5218788349520127,
                -1.5323197158091908,
                -1.2212187436362867,
                0.1636001254363828
            ]
        },
        {
            "positions": [
                2.105720469007301,
                -1.2734669648492463,
                -1.4224439126602493,
                -1.5282618947419868,
                -1.133786706293841,
                0.09399523001412868
            ]
        },
        {
            "positions": [
                1.9869440545161638,
                -1.2792924297998125,
                -1.3230089903684858,
                -1.524204073674783,
                -1.046354668951395,
                0.02439033459187462
            ]
        },
        {
            "positions": [
                1.8681676400250269,
                -1.285117894750379,
                -1.2235740680767222,
                -1.520146252607579,
                -0.958922631608949,
                -0.0452145608303795
            ]
        },
        {
            "positions": [
                1.7493912255338904,
                -1.2909433597009454,
                -1.1241391457849588,
                -1.516088431540375,
                -0.8714905942665031,
                -0.11481945625263357
            ]
        },
        {
            "positions": [
                1.6306148110427534,
                -1.2967688246515119,
                -1.0247042234931953,
                -1.512030610473171,
                -0.7840585569240571,
                -0.1844243516748877
            ]
        },
        {
            "positions": [
                1.5118383965516167,
                -1.3025942896020781,
                -0.9252693012014318,
                -1.5079727894059674,
                -0.6966265195816113,
                -0.2540292470971418
            ]
        },
        {
            "positions": [
                1.39306198206048,
                -1.3084197545526446,
                -0.8258343789096685,
                -1.5039149683387634,
                -0.6091944822391654,
                -0.3236341425193958
            ]
        },
        {
            "positions": [
                1.274285567569343,
                -1.314245219503211,
                -0.7263994566179051,
                -1.4998571472715594,
                -0.5217624448967195,
                -0.39323903794164994
            ]
        },
        {
            "positions": [
                1.1555091530782062,
                -1.3200706844537773,
                -0.6269645343261414,
                -1.4957993262043556,
                -0.43433040755427355,
                -0.46284393336390406
            ]
        },
        {
            "positions": [
                1.0367327385870693,
                -1.3258961494043437,
                -0.527529612034378,
                -1.4917415051371516,
                -0.34689837021182757,
                -0.5324488287861582
            ]
        },
        {
            "positions": [
                0.9179563240959325,
                -1.3317216143549102,
                -0.42809468974261433,
                -1.4876836840699477,
                -0.2594663328693816,
                -0.6020537242084122
            ]
        },
        {
            "positions": [
                0.7991799096047958,
                -1.3375470793054767,
                -0.3286597674508511,
                -1.4836258630027437,
                -0.17203429552693583,
                -0.6716586196306663
            ]
        },
        {
            "positions": [
                0.680403495113659,
                -1.343372544256043,
                -0.2292248451590877,
                -1.47956804193554,
                -0.08460225818449008,
                -0.7412635150529202
            ]
        },
        {
            "positions": [
                0.5616270806225221,
                -1.3491980092066094,
                -0.12978992286732405,
                -1.475510220868336,
                0.002829779157956125,
                -0.8108684104751746
            ]
        },
        {
            "positions": [
                0.4428506661313856,
                -1.3550234741571758,
                -0.03035500057556062,
                -1.471452399801132,
                0.09026181650040188,
                -0.8804733058974284
            ]
        },
        {
            "positions": [
                0.3240742516402486,
                -1.360848939107742,
                0.06907992171620303,
                -1.467394578733928,
                0.17769385384284786,
                -0.9500782013196828
            ]
        },
        {
            "positions": [
                0.20529783714911165,
                -1.3666744040583085,
                0.16851484400796624,
                -1.4633367576667242,
                0.26512589118529384,
                -1.0196830967419368
            ]
        },
        {
            "positions": [
                0.08652142265797513,
                -1.372499869008875,
                0.26794976629972966,
                -1.4592789365995202,
                0.3525579285277396,
                -1.089287992164191
            ]
        },
        {
            "positions": [
                -0.03225499183316183,
                -1.3783253339594415,
                0.36738468859149354,
                -1.4552211155323163,
                0.4399899658701856,
                -1.158892887586445
            ]
        },
        {
            "positions": [
                -0.1510314063242988,
                -1.3841507989100077,
                0.4668196108832565,
                -1.4511632944651125,
                0.5274220032126313,
                -1.2284977830086992
            ]
        },
        {
            "positions": [
                -0.2698078208154353,
                -1.3899762638605742,
                0.56625453317502,
                -1.4471054733979085,
                0.6148540405550771,
                -1.2981026784309528
            ]
        },
        {
            "positions": [
                -0.38858423530657227,
                -1.3958017288111406,
                0.6656894554667838,
                -1.4430476523307045,
                0.7022860778975233,
                -1.3677075738532074
            ]
        },
        {
            "positions": [
                -0.5073606497977088,
                -1.401627193761707,
                0.7651243777585472,
                -1.4389898312635006,
                0.789718115239969,
                -1.437312469275461
            ]
        },
        {
            "positions": [
                -0.6261370642888462,
                -1.4074526587122733,
                0.8645593000503107,
                -1.4349320101962968,
                0.8771501525824152,
                -1.5069173646977156
            ]
        },
        {
            "positions": [
                -0.7449134787799827,
                -1.4132781236628398,
                0.963994222342074,
                -1.4308741891290928,
                0.9645821899248609,
                -1.5765222601199693
            ]
        },
        {
            "positions": [
                -0.6829424641240766,
                -1.394075549604418,
                1.0367568016439668,
                -1.3877291140673875,
                0.9056042088732563,
                -1.6896412461990657
            ]
        },
        {
            "positions": [
                -0.6209714494681704,
                -1.3748729755459963,
                1.1095193809458597,
                -1.3445840390056822,
                0.8466262278216516,
                -1.8027602322781622
            ]
        },
        {
            "positions": [
                -0.5590004348122644,
                -1.3556704014875745,
                1.1822819602477526,
                -1.3014389639439772,
                0.7876482467700471,
                -1.9158792183572588
            ]
        },
        {
            "positions": [
                -0.4970294201563582,
                -1.3364678274291528,
                1.2550445395496452,
                -1.258293888882272,
                0.7286702657184425,
                -2.0289982044363555
            ]
        },
        {
            "positions": [
                -0.43505840550045205,
                -1.317265253370731,
                1.3278071188515381,
                -1.2151488138205666,
                0.6696922846668378,
                -2.1421171905154517
            ]
        },
        {
            "positions": [
                -0.37308739084454595,
                -1.2980626793123093,
                1.400569698153431,
                -1.1720037387588613,
                0.6107143036152332,
                -2.2552361765945483
            ]
        },
        {
            "positions": [
                -0.3111163761886398,
                -1.2788601052538875,
                1.4733322774553237,
                -1.128858663697156,
                0.5517363225636286,
                -2.3683551626736445
            ]
        },
        {
            "positions": [
                -0.2491453615327337,
                -1.2596575311954656,
                1.5460948567572166,
                -1.085713588635451,
                0.492758341512024,
                -2.481474148752741
            ]
        },
        {
            "positions": [
                -0.18717434687682755,
                -1.240454957137044,
                1.6188574360591095,
                -1.0425685135737457,
                0.43378036046041935,
                -2.594593134831838
            ]
        },
        {
            "positions": [
                -0.1252033322209214,
                -1.2212523830786222,
                1.6916200153610021,
                -0.9994234385120404,
                0.3748023794088148,
                -2.7077121209109345
            ]
        },
        {
            "positions": [
                -0.06323231756501524,
                -1.2020498090202005,
                1.7643825946628953,
                -0.9562783634503352,
                0.3158243983572101,
                -2.8208311069900307
            ]
        },
        {
            "positions": [
                -0.0012613029091091965,
                -1.1828472349617787,
                1.837145173964788,
                -0.91313328838863,
                0.25684641730560553,
                -2.933950093069127
            ]
        },
        {
            "positions": [
                0.06070971174679696,
                -1.163644660903357,
                1.9099077532666808,
                -0.8699882133269247,
                0.19786843625400086,
                -3.0470690791482236
            ]
        },
        {
            "positions": [
                0.1226807264027031,
                -1.1444420868449352,
                1.9826703325685735,
                -0.8268431382652195,
                0.13889045520239635,
                -3.16018806522732
            ]
        }
    ]
}