{
    "goal": {
        "global_pose": {
            "orientation": {
                "w": 0.7031023502349854,
                "x": -0.7110244035720825,
                "y": 0.007748599164187908,
                "z": 0.005598929710686207
            },
            "position": {
                "x": 0.11585023208521307,
                "y": 0.44412534475326537,
                "z": 0.3711530566215515
            }
        },
        "name": "move_to_auspresseinheit_A"
    },
    "id": "SPARS_move_to_auspresseinheit_A_71",
    "joint_names": [
        "shoulder_pan_joint",
        "shoulder_lift_joint",
        "elbow_joint",
        "wrist_1_joint",
        "wrist_2_joint",
        "wrist_3_joint"
    ],
    "metrics": {
        "cart_traj_len": 0.7586892740738838,
        "distance_elbow_joint": 0.0781617285336007,
        "distance_shoulder_lift_joint": 0.5328490389300233,
        "distance_shoulder_pan_joint": 1.0420743448276792,
        "distance_wrist_1_joint": 1.976867579301138,
        "distance_wrist_2_joint": 3.004943431213934,
        "distance_wrist_3_joint": 1.1962261406880694,
        "smoothness": 1.2030311798660527,
        "time": 5.02389377,
        "traj_len": 2.7984142408682895,
        "weighted_distance": 3.8994083596599185
    },
    "planner": "SPARS",
    "start": {
        "state": {
            "elbow_joint": 2.4225746658250005,
            "shoulder_lift_joint": -1.3736534386056498,
            "shoulder_pan_joint": -0.3378633547517467,
            "wrist_1_joint": -1.0288598680537169,
            "wrist_2_joint": 1.233022673432363,
            "wrist_3_joint": -3.0940220416140027
        }
    },
    "waypoints": [
        {
            "positions": [
                -0.3378633547517467,
                -1.3736534386056498,
                2.4225746658250005,
                -1.0288598680537169,
                1.233022673432363,
                -3.0940220416140027
            ]
        },
        {
            "positions": [
                -0.32923287867907786,
                -1.419746936738158,
                2.417635825619354,
                -0.9131325572260375,
                1.0723013753927724,
                -3.0415982212824795
            ]
        },
        {
            "positions": [
                -0.320602402606409,
                -1.4658404348706664,
                2.4126969854137075,
                -0.7974052463983581,
                0.9115800773531819,
                -2.989174400950956
            ]
        },
        {
            "positions": [
                -0.3119719265337401,
                -1.5119339330031745,
                2.407758145208061,
                -0.6816779355706787,
                0.7508587793135914,
                -2.936750580619433
            ]
        },
        {
            "positions": [
                -0.30334145046107125,
                -1.5580274311356828,
                2.4028193050024145,
                -0.5659506247429993,
                0.5901374812740007,
                -2.8843267602879097
            ]
        },
        {
            "positions": [
                -0.2947109743884024,
                -1.604120929268191,
                2.397880464796768,
                -0.4502233139153199,
                0.4294161832344102,
                -2.8319029399563864
            ]
        },
        {
            "positions": [
                -0.28608049831573346,
                -1.6502144274006993,
                2.392941624591121,
                -0.3344960030876405,
                0.26869488519481965,
                -2.779479119624863
            ]
        },
        {
            "positions": [
                -0.2774500222430646,
                -1.6963079255332076,
                2.3880027843854745,
                -0.21876869225996098,
                0.10797358715522898,
                -2.7270552992933395
            ]
        },
        {
            "positions": [
                -0.2688195461703957,
                -1.742401423665716,
                2.383063944179828,
                -0.10304138143228159,
                -0.0527477108843617,
                -2.674631478961816
            ]
        },
        {
            "positions": [
                -0.26018907009772685,
                -1.788494921798224,
                2.3781251039741815,
                0.01268592939539781,
                -0.21346900892395215,
                -2.622207658630293
            ]
        },
        {
            "positions": [
                -0.251558594025058,
                -1.8345884199307323,
                2.373186263768535,
                0.1284132402230771,
                -0.3741903069635426,
                -2.5697838382987697
            ]
        },
        {
            "positions": [
                -0.2429281179523891,
                -1.8806819180632406,
                2.3682474235628885,
                0.2441405510507565,
                -0.5349116050031334,
                -2.5173600179672464
            ]
        },
        {
            "positions": [
                -0.13769043928257557,
                -1.883550869115733,
                2.3708956998152764,
                0.16593308880668264,
                -0.397466143583307,
                -2.5862004754162813
            ]
        },
        {
            "positions": [
                -0.03245276061276206,
                -1.8864198201682256,
                2.3735439760676638,
                0.0877256265626088,
                -0.26002068216348057,
                -2.655040932865316
            ]
        },
        {
            "positions": [
                0.07278491805705145,
                -1.889288771220718,
                2.3761922523200516,
                0.009518164318534916,
                -0.12257522074365418,
                -2.7238813903143506
            ]
        },
        {
            "positions": [
                0.178022596726865,
                -1.8921577222732107,
                2.378840528572439,
                -0.0686892979255389,
                0.014870240676172264,
                -2.7927218477633855
            ]
        },
        {
            "positions": [
                0.28326027539667853,
                -1.895026673325703,
                2.381488804824827,
                -0.14689676016961284,
                0.15231570209599865,
                -2.8615623052124204
            ]
        },
        {
            "positions": [
                0.388497954066492,
                -1.8978956243781957,
                2.3841370810772142,
                -0.22510422241368666,
                0.28976116351582504,
                -2.9304027626614553
            ]
        },
        {
            "positions": [
                0.4937356327363056,
                -1.900764575430688,
                2.386785357329602,
                -0.3033116846577605,
                0.42720662493565154,
                -2.9992432201104897
            ]
        },
        {
            "positions": [
                0.5989733114061191,
                -1.9036335264831807,
                2.3894336335819895,
                -0.3815191469018343,
                0.5646520863554779,
                -3.0680836775595246
            ]
        },
        {
            "positions": [
                0.7042109900759327,
                -1.9065024775356731,
                2.3920819098343773,
                -0.45972660914590824,
                0.7020975477753043,
                -3.1369241350085595
            ]
        }
    ]
}