{
    "goal": {
        "global_pose": {
            "orientation": {
                "w": 0.7031023480610252,
                "x": -0.7110244013736278,
                "y": 0.0077485991402295624,
                "z": 0.005598929693374583
            },
            "position": {
                "x": -0.8841497679147869,
                "y": 0.44412534475326537,
                "z": 0.3711530566215515
            }
        },
        "name": "move_to_auspresseinheit_D"
    },
    "id": "SPARStwo_move_to_auspresseinheit_D_108",
    "joint_names": [
        "shoulder_pan_joint",
        "shoulder_lift_joint",
        "elbow_joint",
        "wrist_1_joint",
        "wrist_2_joint",
        "wrist_3_joint"
    ],
    "metrics": {
        "cart_traj_len": 0.3442434928537822,
        "distance_elbow_joint": 0.6655131081390093,
        "distance_shoulder_lift_joint": 0.13698582185408448,
        "distance_shoulder_pan_joint": 0.13423313452148117,
        "distance_wrist_1_joint": 0.6235262231920706,
        "distance_wrist_2_joint": 1.4333034553142803,
        "distance_wrist_3_joint": 0.08370778879132201,
        "smoothness": 5.921189511553294e-16,
        "time": 5.0291819779999996,
        "traj_len": 1.754214790671954,
        "weighted_distance": 2.3025018540494693
    },
    "planner": "SPARStwo",
    "start": {
        "state": {
            "elbow_joint": -1.8275523626775212,
            "shoulder_lift_joint": -2.126789852344167,
            "shoulder_pan_joint": -0.03513704404078235,
            "wrist_1_joint": -2.347782403156801,
            "wrist_2_joint": -1.6058999987535132,
            "wrist_3_joint": -3.0880379163319196
        }
    },
    "waypoints": [
        {
            "positions": [
                -0.03513704404078235,
                -2.126789852344167,
                -1.8275523626775212,
                -2.347782403156801,
                -1.6058999987535132,
                -3.0880379163319196
            ]
        },
        {
            "positions": [
                -0.051916185855967495,
                -2.1439130800759276,
                -1.744363224160145,
                -2.4257231810558095,
                -1.426737066839228,
                -3.0775744427330043
            ]
        },
        {
            "positions": [
                -0.06869532767115263,
                -2.161036307807688,
                -1.6611740856427688,
                -2.5036639589548186,
                -1.2475741349249432,
                -3.067110969134089
            ]
        },
        {
            "positions": [
                -0.08547446948633779,
                -2.1781595355394483,
                -1.5779849471253926,
                -2.5816047368538273,
                -1.068411203010658,
                -3.0566474955351737
            ]
        },
        {
            "positions": [
                -0.10225361130152294,
                -2.195282763271209,
                -1.4947958086080164,
                -2.6595455147528364,
                -0.889248271096373,
                -3.0461840219362584
            ]
        },
        {
            "positions": [
                -0.11903275311670808,
                -2.21240599100297,
                -1.4116066700906402,
                -2.737486292651845,
                -0.710085339182088,
                -3.0357205483373435
            ]
        },
        {
            "positions": [
                -0.13581189493189322,
                -2.22952921873473,
                -1.3284175315732643,
                -2.8154270705508537,
                -0.5309224072678029,
                -3.025257074738428
            ]
        },
        {
            "positions": [
                -0.15259103674707838,
                -2.2466524464664905,
                -1.245228393055888,
                -2.893367848449863,
                -0.35175947535351804,
                -3.014793601139513
            ]
        },
        {
            "positions": [
                -0.16937017856226352,
                -2.2637756741982513,
                -1.1620392545385119,
                -2.9713086263488715,
                -0.1725965434392329,
                -3.0043301275405976
            ]
        }
    ]
}