{
    "goal": {
        "global_pose": {
            "orientation": {
                "w": 0.5084816262002911,
                "x": -0.4908360881923452,
                "y": 0.5182115481033761,
                "z": -0.48164630358495003
            },
            "position": {
                "x": 0.5540239810943604,
                "y": -0.46912469901144505,
                "z": 0.16403168439865112
            }
        },
        "name": "move_to_storage_B"
    },
    "id": "SPARStwo_move_to_storage_B_53",
    "joint_names": [
        "shoulder_pan_joint",
        "shoulder_lift_joint",
        "elbow_joint",
        "wrist_1_joint",
        "wrist_2_joint",
        "wrist_3_joint"
    ],
    "metrics": {
        "cart_traj_len": 1.642451402894626,
        "distance_elbow_joint": 1.14557815342758,
        "distance_shoulder_lift_joint": 0.79703125019375,
        "distance_shoulder_pan_joint": 0.9805225599220541,
        "distance_wrist_1_joint": 3.149122095138061,
        "distance_wrist_2_joint": 2.710699701725845,
        "distance_wrist_3_joint": 4.442113539706594,
        "smoothness": 0.48624743167967055,
        "time": 5.049415356,
        "traj_len": 3.6366285622969365,
        "weighted_distance": 5.288583569954339
    },
    "planner": "SPARStwo",
    "start": {
        "state": {
            "elbow_joint": 1.664937868594044,
            "shoulder_lift_joint": -0.661644460510453,
            "shoulder_pan_joint": -0.9139846352900073,
            "wrist_1_joint": 2.146753192139373,
            "wrist_2_joint": -2.2341966793290973,
            "wrist_3_joint": 0.005466555786416001
        }
    },
    "waypoints": [
        {
            "positions": [
                -0.9139846352900073,
                -0.661644460510453,
                1.664937868594044,
                2.146753192139373,
                -2.2341966793290973,
                0.005466555786416001
            ]
        },
        {
            "positions": [
                -0.8919272025881539,
                -0.6993912001101104,
                1.6711317512639592,
                2.153481095341293,
                -2.2281147276788524,
                -0.0168255482293674
            ]
        },
        {
            "positions": [
                -0.8516066837282097,
                -0.746410257633219,
                1.7124120107965357,
                2.1906049293687877,
                -2.200168323771297,
                -0.11707497162931962
            ]
        },
        {
            "positions": [
                -0.8112861648682653,
                -0.7934293151563275,
                1.7536922703291122,
                2.227728763396282,
                -2.1722219198637416,
                -0.21732439502927187
            ]
        },
        {
            "positions": [
                -0.7741434709597235,
                -0.8554012859402265,
                1.703953872694242,
                2.1254552882846802,
                -2.087313494007716,
                -0.2711104552563481
            ]
        },
        {
            "positions": [
                -0.7370007770511815,
                -0.9173732567241255,
                1.6542154750593718,
                2.0231818131730783,
                -2.00240506815169,
                -0.3248965154834243
            ]
        },
        {
            "positions": [
                -0.6998580831426396,
                -0.9793452275080244,
                1.6044770774245016,
                1.9209083380614767,
                -1.9174966422956645,
                -0.37868257571050046
            ]
        },
        {
            "positions": [
                -0.6627153892340978,
                -1.0413171982919234,
                1.5547386797896317,
                1.8186348629498748,
                -1.832588216439639,
                -0.4324686359375767
            ]
        },
        {
            "positions": [
                -0.6255726953255558,
                -1.1032891690758224,
                1.5050002821547614,
                1.7163613878382729,
                -1.7476797905836132,
                -0.4862546961646529
            ]
        },
        {
            "positions": [
                -0.588430001417014,
                -1.1652611398597212,
                1.4552618845198912,
                1.6140879127266712,
                -1.6627713647275875,
                -0.5400407563917291
            ]
        },
        {
            "positions": [
                -0.5512873075084721,
                -1.2272331106436203,
                1.405523486885021,
                1.5118144376150693,
                -1.577862938871562,
                -0.5938268166188053
            ]
        },
        {
            "positions": [
                -0.5141446135999301,
                -1.2892050814275193,
                1.3557850892501508,
                1.4095409625034674,
                -1.4929545130155362,
                -0.6476128768458815
            ]
        },
        {
            "positions": [
                -0.5383397193595958,
                -1.2821438052076575,
                1.3832399463590488,
                1.3157926823789534,
                -1.4108937823733576,
                -0.48973645571778585
            ]
        },
        {
            "positions": [
                -0.5625348251192616,
                -1.2750825289877956,
                1.4106948034679467,
                1.2220444022544392,
                -1.3288330517311793,
                -0.33186003458969016
            ]
        },
        {
            "positions": [
                -0.5867299308789272,
                -1.2680212527679338,
                1.4381496605768447,
                1.128296122129925,
                -1.2467723210890007,
                -0.1739836134615944
            ]
        },
        {
            "positions": [
                -0.610925036638593,
                -1.2609599765480721,
                1.4656045176857426,
                1.034547842005411,
                -1.1647115904468222,
                -0.016107192333498777
            ]
        },
        {
            "positions": [
                -0.6351201423982586,
                -1.2538987003282103,
                1.4930593747946406,
                0.940799561880897,
                -1.0826508598046436,
                0.14176922879459708
            ]
        },
        {
            "positions": [
                -0.6593152481579243,
                -1.2468374241083484,
                1.5205142319035385,
                0.8470512817563829,
                -1.0005901291624653,
                0.2996456499226927
            ]
        },
        {
            "positions": [
                -0.6835103539175901,
                -1.2397761478884866,
                1.5479690890124362,
                0.7533030016318688,
                -0.9185293985202867,
                0.45752207105078857
            ]
        },
        {
            "positions": [
                -0.7077054596772557,
                -1.2327148716686247,
                1.5754239461213342,
                0.6595547215073547,
                -0.8364686678781084,
                0.615398492178884
            ]
        },
        {
            "positions": [
                -0.7319005654369215,
                -1.225653595448763,
                1.6028788032302321,
                0.5658064413828406,
                -0.7544079372359298,
                0.7732749133069798
            ]
        },
        {
            "positions": [
                -0.7560956711965872,
                -1.2185923192289012,
                1.63033366033913,
                0.47205816125832656,
                -0.6723472065937512,
                0.9311513344350757
            ]
        },
        {
            "positions": [
                -0.7802907769562528,
                -1.2115310430090394,
                1.657788517448028,
                0.3783098811338126,
                -0.5902864759515729,
                1.089027755563171
            ]
        },
        {
            "positions": [
                -0.8044858827159186,
                -1.2044697667891775,
                1.685243374556926,
                0.2845616010092984,
                -0.5082257453093944,
                1.246904176691267
            ]
        },
        {
            "positions": [
                -0.8286809884755842,
                -1.1974084905693156,
                1.712698231665824,
                0.19081332088478442,
                -0.426165014667216,
                1.4047805978193624
            ]
        },
        {
            "positions": [
                -0.85287609423525,
                -1.1903472143494538,
                1.7401530887747219,
                0.09706504076027023,
                -0.34410428402503723,
                1.5626570189474587
            ]
        },
        {
            "positions": [
                -0.8770711999949157,
                -1.183285938129592,
                1.7676079458836198,
                0.003316760635756033,
                -0.2620435533828589,
                1.720533440075554
            ]
        },
        {
            "positions": [
                -0.9012663057545813,
                -1.1762246619097303,
                1.7950628029925175,
                -0.09043151948875794,
                -0.17998282274068056,
                1.8784098612036495
            ]
        },
        {
            "positions": [
                -0.9254614115142472,
                -1.1691633856898684,
                1.8225176601014157,
                -0.18417979961327213,
                -0.09792209209850178,
                2.036286282331746
            ]
        },
        {
            "positions": [
                -0.9496565172739129,
                -1.1621021094700066,
                1.8499725172103134,
                -0.2779280797377861,
                -0.015861361456323442,
                2.194162703459841
            ]
        },
        {
            "positions": [
                -0.9738516230335785,
                -1.1550408332501447,
                1.8774273743192116,
                -0.3716763598623001,
                0.0661993691858549,
                2.352039124587937
            ]
        },
        {
            "positions": [
                -0.9980467287932442,
                -1.1479795570302829,
                1.9048822314281093,
                -0.46542463998681427,
                0.14826009982803368,
                2.5099155457160327
            ]
        },
        {
            "positions": [
                -1.02224183455291,
                -1.1409182808104212,
                1.9323370885370073,
                -0.5591729201113282,
                0.230320830470212,
                2.6677919668441286
            ]
        },
        {
            "positions": [
                -1.0464369403125757,
                -1.1338570045905594,
                1.9597919456459052,
                -0.6529212002358422,
                0.31238156111239035,
                2.8256683879722235
            ]
        },
        {
            "positions": [
                -1.0706320460722414,
                -1.1267957283706975,
                1.9872468027548031,
                -0.7466694803603566,
                0.39444229175456913,
                2.9835448091003203
            ]
        },
        {
            "positions": [
                -1.094827151831907,
                -1.1197344521508357,
                2.014701659863701,
                -0.8404177604848708,
                0.4765030223967475,
                3.1414212302284152
            ]
        }
    ]
}