{
    "goal": {
        "global_pose": {
            "orientation": {
                "w": 0.5084816262002911,
                "x": -0.4908360881923452,
                "y": 0.5182115481033761,
                "z": -0.48164630358495003
            },
            "position": {
                "x": 0.5540239810943604,
                "y": -0.46912469901144505,
                "z": 0.16403168439865112
            }
        },
        "name": "move_to_storage_B"
    },
    "id": "SPARStwo_move_to_storage_B_45",
    "joint_names": [
        "shoulder_pan_joint",
        "shoulder_lift_joint",
        "elbow_joint",
        "wrist_1_joint",
        "wrist_2_joint",
        "wrist_3_joint"
    ],
    "metrics": {
        "cart_traj_len": 0.7566210190918292,
        "distance_elbow_joint": 0.4744743043779174,
        "distance_shoulder_lift_joint": 0.45912136654336644,
        "distance_shoulder_pan_joint": 0.49087530804129076,
        "distance_wrist_1_joint": 3.048982019509744,
        "distance_wrist_2_joint": 2.702926878406088,
        "distance_wrist_3_joint": 3.114095929650162,
        "smoothness": 0.1484115181399612,
        "time": 5.094448934,
        "traj_len": 3.207877149538082,
        "weighted_distance": 4.719171173388895
    },
    "planner": "SPARStwo",
    "start": {
        "state": {
            "elbow_joint": 1.664937868594044,
            "shoulder_lift_joint": -0.661644460510453,
            "shoulder_pan_joint": -0.9139846352900073,
            "wrist_1_joint": 2.146753192139373,
            "wrist_2_joint": -2.2341966793290973,
            "wrist_3_joint": 0.005466555786416001
        }
    },
    "waypoints": [
        {
            "positions": [
                -0.9139846352900073,
                -0.661644460510453,
                1.664937868594044,
                2.146753192139373,
                -2.2341966793290973,
                0.005466555786416001
            ]
        },
        {
            "positions": [
                -0.7596370525177272,
                -0.7386090413559774,
                1.604537972695474,
                2.1656422195287512,
                -2.1856452908471335,
                -0.005679866293035273
            ]
        },
        {
            "positions": [
                -0.7725804265665352,
                -0.7533073792674329,
                1.6204639114831412,
                2.049100181370276,
                -2.083553925850052,
                -0.125024078122678
            ]
        },
        {
            "positions": [
                -0.7855238006153433,
                -0.7680057171788883,
                1.6363898502708085,
                1.9325581432118,
                -1.9814625608529701,
                -0.2443682899523207
            ]
        },
        {
            "positions": [
                -0.7984671746641515,
                -0.7827040550903438,
                1.6523157890584756,
                1.8160161050533243,
                -1.8793711958558883,
                -0.36371250178196346
            ]
        },
        {
            "positions": [
                -0.8114105487129596,
                -0.7974023930017993,
                1.668241727846143,
                1.6994740668948487,
                -1.7772798308588067,
                -0.4830567136116062
            ]
        },
        {
            "positions": [
                -0.8243539227617677,
                -0.8121007309132547,
                1.6841676666338101,
                1.582932028736373,
                -1.675188465861725,
                -0.6024009254412489
            ]
        },
        {
            "positions": [
                -0.8372972968105757,
                -0.8267990688247102,
                1.7000936054214772,
                1.4663899905778974,
                -1.5730971008646433,
                -0.7217451372708916
            ]
        },
        {
            "positions": [
                -0.8502406708593839,
                -0.8414974067361656,
                1.7160195442091446,
                1.349847952419422,
                -1.4710057358675617,
                -0.8410893491005342
            ]
        },
        {
            "positions": [
                -0.863184044908192,
                -0.8561957446476212,
                1.7319454829968117,
                1.2333059142609462,
                -1.3689143708704798,
                -0.9604335609301771
            ]
        },
        {
            "positions": [
                -0.8761274189570001,
                -0.8708940825590765,
                1.7478714217844789,
                1.1167638761024707,
                -1.2668230058733982,
                -1.0797777727598197
            ]
        },
        {
            "positions": [
                -0.8890707930058082,
                -0.885592420470532,
                1.7637973605721462,
                1.0002218379439949,
                -1.1647316408763164,
                -1.1991219845894625
            ]
        },
        {
            "positions": [
                -0.9020141670546162,
                -0.9002907583819875,
                1.7797232993598133,
                0.8836797997855195,
                -1.0626402758792348,
                -1.3184661964191051
            ]
        },
        {
            "positions": [
                -0.9149575411034244,
                -0.9149890962934429,
                1.7956492381474807,
                0.7671377616270438,
                -0.960548910882153,
                -1.437810408248748
            ]
        },
        {
            "positions": [
                -0.9279009151522325,
                -0.9296874342048984,
                1.8115751769351478,
                0.6505957234685682,
                -0.8584575458850714,
                -1.5571546200783906
            ]
        },
        {
            "positions": [
                -0.9408442892010406,
                -0.9443857721163539,
                1.827501115722815,
                0.5340536853100926,
                -0.7563661808879898,
                -1.6764988319080332
            ]
        },
        {
            "positions": [
                -0.9537876632498486,
                -0.9590841100278094,
                1.8434270545104823,
                0.41751164715161715,
                -0.6542748158909082,
                -1.7958430437376758
            ]
        },
        {
            "positions": [
                -0.9667310372986568,
                -0.9737824479392648,
                1.8593529932981494,
                0.3009696089931413,
                -0.5521834508938261,
                -1.9151872555673188
            ]
        },
        {
            "positions": [
                -0.9796744113474649,
                -0.9884807858507203,
                1.8752789320858168,
                0.18442757083466566,
                -0.45009208589674454,
                -2.0345314673969614
            ]
        },
        {
            "positions": [
                -0.992617785396273,
                -1.0031791237621757,
                1.8912048708734839,
                0.06788553267619024,
                -0.34800072089966294,
                -2.153875679226604
            ]
        },
        {
            "positions": [
                -1.005561159445081,
                -1.0178774616736312,
                1.907130809661151,
                -0.04865650548228517,
                -0.24590935590258134,
                -2.2732198910562467
            ]
        },
        {
            "positions": [
                -1.0185045334938891,
                -1.0325757995850866,
                1.9230567484488184,
                -0.16519854364076147,
                -0.1438179909054993,
                -2.3925641028858897
            ]
        },
        {
            "positions": [
                -1.0314479075426974,
                -1.0472741374965422,
                1.9389826872364855,
                -0.2817405817992369,
                -0.04172662590841769,
                -2.5119083147155323
            ]
        },
        {
            "positions": [
                -1.0443912815915053,
                -1.0619724754079976,
                1.9549086260241526,
                -0.3982826199577123,
                0.06036473908866391,
                -2.631252526545175
            ]
        },
        {
            "positions": [
                -1.0573346556403136,
                -1.0766708133194531,
                1.97083456481182,
                -0.5148246581161877,
                0.1624561040857455,
                -2.7505967383748176
            ]
        },
        {
            "positions": [
                -1.0702780296891217,
                -1.0913691512309085,
                1.986760503599487,
                -0.6313666962746636,
                0.26454746908282756,
                -2.8699409502044606
            ]
        },
        {
            "positions": [
                -1.0832214037379297,
                -1.1060674891423639,
                2.002686442387154,
                -0.7479087344331394,
                0.36663883407990916,
                -2.989285162034103
            ]
        },
        {
            "positions": [
                -1.0961647777867378,
                -1.1207658270538194,
                2.0186123811748216,
                -0.8644507725916148,
                0.4687301990769907,
                -3.108629373863746
            ]
        }
    ]
}{
    "goal": {
        "global_pose": {
            "orientation": {
                "w": 0.5084816262002911,
                "x": -0.4908360881923452,
                "y": 0.5182115481033761,
                "z": -0.48164630358495003
            },
            "position": {
                "x": 0.5540239810943604,
                "y": -0.46912469901144505,
                "z": 0.16403168439865112
            }
        },
        "name": "move_to_storage_B"
    },
    "id": "SPARStwo_move_to_storage_B_45",
    "joint_names": [
        "shoulder_pan_joint",
        "shoulder_lift_joint",
        "elbow_joint",
        "wrist_1_joint",
        "wrist_2_joint",
        "wrist_3_joint"
    ],
    "metrics": {
        "cart_traj_len": 0.5927898952112182,
        "distance_elbow_joint": 0.35010759514497813,
        "distance_shoulder_lift_joint": 0.45858673909518866,
        "distance_shoulder_pan_joint": 0.19905885889998887,
        "distance_wrist_1_joint": 2.98987710013154,
        "distance_wrist_2_joint": 2.7063714369125664,
        "distance_wrist_3_joint": 3.132189491939717,
        "smoothness": 0.07648254207571682,
        "time": 5.043968757999999,
        "traj_len": 3.1362702724931055,
        "weighted_distance": 4.668706324352338
    },
    "planner": "SPARStwo",
    "start": {
        "state": {
            "elbow_joint": 1.664933442143537,
            "shoulder_lift_joint": -0.6616394447335833,
            "shoulder_pan_joint": -0.9139842036674819,
            "wrist_1_joint": 2.1467570250598067,
            "wrist_2_joint": -2.234195602830096,
            "wrist_3_joint": 0.005471150212293033
        }
    },
    "waypoints": [
        {
            "positions": [
                -0.9139842036674819,
                -0.6616394447335833,
                1.664933442143537,
                2.1467570250598067,
                -2.234195602830096,
                0.005471150212293033
            ]
        },
        {
            "positions": [
                -0.9046645299450531,
                -0.6718398778351731,
                1.6722418077931565,
                2.1244803467348103,
                -2.2169980086801178,
                0.00033578414313847286
            ]
        },
        {
            "positions": [
                -0.9122540973521555,
                -0.689775330074917,
                1.6859537769729709,
                2.0057763298625484,
                -2.109431054969614,
                -0.12474638089168402
            ]
        },
        {
            "positions": [
                -0.9198436647592579,
                -0.707710782314661,
                1.699665746152785,
                1.8870723129902869,
                -2.0018641012591107,
                -0.24982854592650652
            ]
        },
        {
            "positions": [
                -0.9274332321663603,
                -0.7256462345544049,
                1.7133777153325995,
                1.7683682961180252,
                -1.8942971475486072,
                -0.374910710961329
            ]
        },
        {
            "positions": [
                -0.9350227995734627,
                -0.7435816867941489,
                1.7270896845124137,
                1.6496642792457634,
                -1.7867301938381037,
                -0.49999287599615155
            ]
        },
        {
            "positions": [
                -0.942612366980565,
                -0.7615171390338928,
                1.7408016536922282,
                1.5309602623735015,
                -1.6791632401276,
                -0.625075041030974
            ]
        },
        {
            "positions": [
                -0.9502019343876675,
                -0.7794525912736368,
                1.7545136228720426,
                1.41225624550124,
                -1.5715962864170967,
                -0.7501572060657964
            ]
        },
        {
            "positions": [
                -0.9577915017947699,
                -0.7973880435133808,
                1.7682255920518568,
                1.293552228628978,
                -1.464029332706593,
                -0.875239371100619
            ]
        },
        {
            "positions": [
                -0.9653810692018723,
                -0.8153234957531247,
                1.7819375612316712,
                1.1748482117567165,
                -1.3564623789960897,
                -1.0003215361354416
            ]
        },
        {
            "positions": [
                -0.9729706366089748,
                -0.8332589479928687,
                1.7956495304114855,
                1.0561441948844548,
                -1.2488954252855862,
                -1.125403701170264
            ]
        },
        {
            "positions": [
                -0.9805602040160771,
                -0.8511944002326126,
                1.8093614995912999,
                0.9374401780121928,
                -1.1413284715750824,
                -1.2504858662050866
            ]
        },
        {
            "positions": [
                -0.9881497714231795,
                -0.8691298524723565,
                1.8230734687711143,
                0.8187361611399313,
                -1.0337615178645791,
                -1.375568031239909
            ]
        },
        {
            "positions": [
                -0.9957393388302819,
                -0.8870653047121005,
                1.8367854379509285,
                0.7000321442676696,
                -0.9261945641540756,
                -1.5006501962747314
            ]
        },
        {
            "positions": [
                -1.0033289062373842,
                -0.9050007569518445,
                1.850497407130743,
                0.5813281273954076,
                -0.8186276104435719,
                -1.625732361309554
            ]
        },
        {
            "positions": [
                -1.0109184736444867,
                -0.9229362091915885,
                1.8642093763105572,
                0.4626241105231459,
                -0.7110606567330684,
                -1.7508145263443766
            ]
        },
        {
            "positions": [
                -1.0185080410515892,
                -0.9408716614313324,
                1.8779213454903716,
                0.3439200936508844,
                -0.6034937030225651,
                -1.8758966913791988
            ]
        },
        {
            "positions": [
                -1.0260976084586915,
                -0.9588071136710763,
                1.891633314670186,
                0.22521607677862243,
                -0.4959267493120614,
                -2.0009788564140214
            ]
        },
        {
            "positions": [
                -1.033687175865794,
                -0.9767425659108203,
                1.9053452838500002,
                0.1065120599063607,
                -0.38835979560155787,
                -2.126061021448844
            ]
        },
        {
            "positions": [
                -1.0412767432728964,
                -0.9946780181505642,
                1.9190572530298147,
                -0.012191956965900808,
                -0.2807928418910546,
                -2.251143186483666
            ]
        },
        {
            "positions": [
                -1.0488663106799987,
                -1.0126134703903082,
                1.9327692222096289,
                -0.13089597383816276,
                -0.17322588818055085,
                -2.376225351518489
            ]
        },
        {
            "positions": [
                -1.0564558780871012,
                -1.0305489226300522,
                1.9464811913894433,
                -0.2495999907104247,
                -0.06565893447004711,
                -2.5013075165533114
            ]
        },
        {
            "positions": [
                -1.0640454454942034,
                -1.048484374869796,
                1.9601931605692577,
                -0.3683040075826862,
                0.041908019240456174,
                -2.6263896815881336
            ]
        },
        {
            "positions": [
                -1.071635012901306,
                -1.0664198271095402,
                1.973905129749072,
                -0.48700802445494773,
                0.14947497295095946,
                -2.751471846622956
            ]
        },
        {
            "positions": [
                -1.0792245803084084,
                -1.084355279349284,
                1.9876170989288864,
                -0.6057120413272097,
                0.2570419266614632,
                -2.876554011657779
            ]
        },
        {
            "positions": [
                -1.0868141477155107,
                -1.102290731589028,
                2.0013290681087006,
                -0.7244160581994712,
                0.3646088803719665,
                -3.001636176692601
            ]
        },
        {
            "positions": [
                -1.0944037151226131,
                -1.120226183828772,
                2.015041037288515,
                -0.8431200750717331,
                0.47217583408247016,
                -3.1267183417274236
            ]
        }
    ]
}