{
    "goal": {
        "global_pose": {
            "orientation": {
                "w": 0.7031023480610252,
                "x": -0.7110244013736278,
                "y": 0.0077485991402295624,
                "z": 0.005598929693374583
            },
            "position": {
                "x": -0.8841497679147869,
                "y": 0.44412534475326537,
                "z": 0.3711530566215515
            }
        },
        "name": "move_to_auspresseinheit_D"
    },
    "id": "SPARStwo_move_to_auspresseinheit_D_126",
    "joint_names": [
        "shoulder_pan_joint",
        "shoulder_lift_joint",
        "elbow_joint",
        "wrist_1_joint",
        "wrist_2_joint",
        "wrist_3_joint"
    ],
    "metrics": {
        "cart_traj_len": 0.3442716047103206,
        "distance_elbow_joint": 0.6533372332246854,
        "distance_shoulder_lift_joint": 0.12917825907036562,
        "distance_shoulder_pan_joint": 0.13357864575822878,
        "distance_wrist_1_joint": 0.5692264092467019,
        "distance_wrist_2_joint": 1.44913008657078,
        "distance_wrist_3_joint": 0.02960803556373559,
        "smoothness": 1.5789838603703863e-15,
        "time": 5.005284843,
        "traj_len": 1.721644176197421,
        "weighted_distance": 2.245357707889647
    },
    "planner": "SPARStwo",
    "start": {
        "state": {
            "elbow_joint": -1.8275523626775212,
            "shoulder_lift_joint": -2.126789852344167,
            "shoulder_pan_joint": -0.03513704404078235,
            "wrist_1_joint": -2.347782403156801,
            "wrist_2_joint": -1.6058999987535132,
            "wrist_3_joint": -3.0880379163319196
        }
    },
    "waypoints": [
        {
            "positions": [
                -0.03513704404078235,
                -2.126789852344167,
                -1.8275523626775212,
                -2.347782403156801,
                -1.6058999987535132,
                -3.0880379163319196
            ]
        },
        {
            "positions": [
                -0.05183437476056095,
                -2.1429371347279624,
                -1.7458852085244354,
                -2.4189357043126387,
                -1.4247587379321658,
                -3.0843369118864525
            ]
        },
        {
            "positions": [
                -0.06853170548033954,
                -2.1590844171117585,
                -1.6642180543713498,
                -2.4900890054684766,
                -1.2436174771108182,
                -3.0806359074409855
            ]
        },
        {
            "positions": [
                -0.08522903620011815,
                -2.175231699495554,
                -1.5825509002182643,
                -2.561242306624314,
                -1.0624762162894708,
                -3.076934902995519
            ]
        },
        {
            "positions": [
                -0.10192636691989673,
                -2.1913789818793497,
                -1.5008837460651785,
                -2.632395607780152,
                -0.8813349554681232,
                -3.073233898550052
            ]
        },
        {
            "positions": [
                -0.11862369763967534,
                -2.2075262642631452,
                -1.4192165919120927,
                -2.7035489089359896,
                -0.7001936946467757,
                -3.0695328941045847
            ]
        },
        {
            "positions": [
                -0.13532102835945395,
                -2.223673546646941,
                -1.3375494377590071,
                -2.774702210091827,
                -0.5190524338254283,
                -3.065831889659118
            ]
        },
        {
            "positions": [
                -0.15201835907923253,
                -2.239820829030737,
                -1.2558822836059216,
                -2.845855511247665,
                -0.3379111730040807,
                -3.062130885213651
            ]
        },
        {
            "positions": [
                -0.16871568979901114,
                -2.2559681114145325,
                -1.1742151294528358,
                -2.9170088124035027,
                -0.15676991218273323,
                -3.058429880768184
            ]
        }
    ]
}