{
    "goal": {
        "global_pose": {
            "orientation": {
                "w": 0.7031023480610252,
                "x": -0.7110244013736278,
                "y": 0.0077485991402295624,
                "z": 0.005598929693374583
            },
            "position": {
                "x": -0.8841497679147869,
                "y": 0.44412534475326537,
                "z": 0.3711530566215515
            }
        },
        "name": "move_to_auspresseinheit_D"
    },
    "id": "SPARS_move_to_auspresseinheit_D_127",
    "joint_names": [
        "shoulder_pan_joint",
        "shoulder_lift_joint",
        "elbow_joint",
        "wrist_1_joint",
        "wrist_2_joint",
        "wrist_3_joint"
    ],
    "metrics": {
        "cart_traj_len": 0.3440160857000777,
        "distance_elbow_joint": 0.6651516079591162,
        "distance_shoulder_lift_joint": 0.13667494376605704,
        "distance_shoulder_pan_joint": 0.13375702723532412,
        "distance_wrist_1_joint": 0.6207923065243715,
        "distance_wrist_2_joint": 1.4304976096853412,
        "distance_wrist_3_joint": 0.08056744287895601,
        "smoothness": 6.908054404438162e-16,
        "time": 5.032118752,
        "traj_len": 1.7514111276479793,
        "weighted_distance": 2.2977958438505346
    },
    "planner": "SPARS",
    "start": {
        "state": {
            "elbow_joint": -1.8275523626775212,
            "shoulder_lift_joint": -2.126789852344167,
            "shoulder_pan_joint": -0.03513704404078235,
            "wrist_1_joint": -2.347782403156801,
            "wrist_2_joint": -1.6058999987535132,
            "wrist_3_joint": -3.0880379163319196
        }
    },
    "waypoints": [
        {
            "positions": [
                -0.03513704404078235,
                -2.126789852344167,
                -1.8275523626775212,
                -2.347782403156801,
                -1.6058999987535132,
                -3.0880379163319196
            ]
        },
        {
            "positions": [
                -0.051856672445197864,
                -2.143874220314924,
                -1.7444084116826317,
                -2.4253814414723474,
                -1.4270877975428455,
                -3.07796698597205
            ]
        },
        {
            "positions": [
                -0.06857630084961339,
                -2.160958588285681,
                -1.6612644606877423,
                -2.502980479787894,
                -1.2482755963321779,
                -3.067896055612181
            ]
        },
        {
            "positions": [
                -0.0852959292540289,
                -2.178042956256438,
                -1.5781205096928526,
                -2.5805795181034403,
                -1.0694633951215102,
                -3.057825125252311
            ]
        },
        {
            "positions": [
                -0.10201555765844442,
                -2.1951273242271956,
                -1.494976558697963,
                -2.658178556418987,
                -0.8906511939108426,
                -3.0477541948924416
            ]
        },
        {
            "positions": [
                -0.11873518606285993,
                -2.2122116921979527,
                -1.4118326077030736,
                -2.735777594734533,
                -0.7118389927001749,
                -3.037683264532572
            ]
        },
        {
            "positions": [
                -0.13545481446727545,
                -2.2292960601687097,
                -1.328688656708184,
                -2.8133766330500793,
                -0.5330267914895073,
                -3.0276123341727024
            ]
        },
        {
            "positions": [
                -0.15217444287169096,
                -2.246380428139467,
                -1.2455447057132945,
                -2.890975671365626,
                -0.3542145902788396,
                -3.017541403812833
            ]
        },
        {
            "positions": [
                -0.16889407127610648,
                -2.263464796110224,
                -1.162400754718405,
                -2.9685747096811723,
                -0.17540238906817204,
                -3.0074704734529636
            ]
        }
    ]
}