{
    "goal": {
        "global_pose": {
            "orientation": {
                "w": 0.005598929693374612,
                "x": 0.007748599140229565,
                "y": 0.7110244013736278,
                "z": -0.7031023480610252
            },
            "position": {
                "x": 0.1141497679147869,
                "y": -0.7141253447532654,
                "z": 0.3711530566215515
            }
        },
        "name": "move_to_auspresseinheit_B"
    },
    "id": "SPARS_move_to_auspresseinheit_B_136",
    "joint_names": [
        "shoulder_pan_joint",
        "shoulder_lift_joint",
        "elbow_joint",
        "wrist_1_joint",
        "wrist_2_joint",
        "wrist_3_joint"
    ],
    "metrics": {
        "cart_traj_len": 0.565054945594468,
        "distance_elbow_joint": 0.06044058837160726,
        "distance_shoulder_lift_joint": 0.2960687666721922,
        "distance_shoulder_pan_joint": 0.5782810440069219,
        "distance_wrist_1_joint": 0.3236407611519785,
        "distance_wrist_2_joint": 0.9934635657896684,
        "distance_wrist_3_joint": 0.0060507166310519445,
        "smoothness": 0.0,
        "time": 5.0391676610000005,
        "traj_len": 1.5026461468434342,
        "weighted_distance": 1.8939776141304232
    },
    "planner": "SPARS",
    "start": {
        "state": {
            "elbow_joint": 2.0193083361928714,
            "shoulder_lift_joint": -1.1220246554650708,
            "shoulder_pan_joint": -1.0952077554168747,
            "wrist_1_joint": -0.8559753972642168,
            "wrist_2_joint": 0.4759566250798843,
            "wrist_3_joint": -3.1240929996934557
        }
    },
    "waypoints": [
        {
            "positions": [
                -1.0952077554168747,
                -1.1220246554650708,
                2.0193083361928714,
                -0.8559753972642168,
                0.4759566250798843,
                -3.1240929996934557
            ]
        },
        {
            "positions": [
                -1.1915879294180283,
                -1.1713694499104361,
                2.0092349047976037,
                -0.8020352704055537,
                0.641533886044829,
                -3.1230845469216137
            ]
        },
        {
            "positions": [
                -1.2879681034191819,
                -1.2207142443558014,
                1.9991614734023357,
                -0.7480951435468907,
                0.8071111470097738,
                -3.122076094149772
            ]
        },
        {
            "positions": [
                -1.3843482774203357,
                -1.270059038801167,
                1.9890880420070678,
                -0.6941550166882275,
                0.9726884079747184,
                -3.1210676413779295
            ]
        },
        {
            "positions": [
                -1.4807284514214891,
                -1.3194038332465323,
                1.9790146106117998,
                -0.6402148898295645,
                1.1382656689396633,
                -3.1200591886060876
            ]
        },
        {
            "positions": [
                -1.577108625422643,
                -1.3687486276918976,
                1.9689411792165321,
                -0.5862747629709013,
                1.303842929904608,
                -3.1190507358342456
            ]
        },
        {
            "positions": [
                -1.6734887994237966,
                -1.418093422137263,
                1.9588677478212642,
                -0.5323346361122383,
                1.4694201908695528,
                -3.1180422830624037
            ]
        }
    ]
}