{
    "goal": {
        "global_pose": {
            "orientation": {
                "w": 0.5084816262002911,
                "x": -0.4908360881923452,
                "y": 0.5182115481033761,
                "z": -0.48164630358495003
            },
            "position": {
                "x": 0.5540239810943604,
                "y": -0.46912469901144505,
                "z": 0.16403168439865112
            }
        },
        "name": "move_to_storage_B"
    },
    "id": "SPARStwo_move_to_storage_B_52",
    "joint_names": [
        "shoulder_pan_joint",
        "shoulder_lift_joint",
        "elbow_joint",
        "wrist_1_joint",
        "wrist_2_joint",
        "wrist_3_joint"
    ],
    "metrics": {
        "cart_traj_len": 0.8780593118604135,
        "distance_elbow_joint": 0.6554030527062582,
        "distance_shoulder_lift_joint": 0.458711792842883,
        "distance_shoulder_pan_joint": 0.5073446142020918,
        "distance_wrist_1_joint": 4.220148294523658,
        "distance_wrist_2_joint": 2.7006784598117246,
        "distance_wrist_3_joint": 3.338715666956633,
        "smoothness": 0.2813060496883606,
        "time": 5.051300901,
        "traj_len": 3.446882922445038,
        "weighted_distance": 5.047698482406798
    },
    "planner": "SPARStwo",
    "start": {
        "state": {
            "elbow_joint": 1.664937868594044,
            "shoulder_lift_joint": -0.661644460510453,
            "shoulder_pan_joint": -0.9139846352900073,
            "wrist_1_joint": 2.146753192139373,
            "wrist_2_joint": -2.2341966793290973,
            "wrist_3_joint": 0.005466555786416001
        }
    },
    "waypoints": [
        {
            "positions": [
                -0.9139846352900073,
                -0.661644460510453,
                1.664937868594044,
                2.146753192139373,
                -2.2341966793290973,
                0.005466555786416001
            ]
        },
        {
            "positions": [
                -0.9571093575304421,
                -0.7122831537924811,
                1.7279403722535225,
                2.2229791275354636,
                -2.105129423273201,
                -0.006697416897355177
            ]
        },
        {
            "positions": [
                -1.0002340797708769,
                -0.7629218470745092,
                1.790942875913001,
                2.299205062931554,
                -1.976062167217305,
                -0.018861389581126355
            ]
        },
        {
            "positions": [
                -1.0433588020113118,
                -0.8135605403565371,
                1.8539453795724798,
                2.3754309983276447,
                -1.8469949111614092,
                -0.031025362264897535
            ]
        },
        {
            "positions": [
                -1.0864835242517465,
                -0.8641992336385652,
                1.9169478832319584,
                2.451656933723735,
                -1.7179276551055132,
                -0.04318933494866871
            ]
        },
        {
            "positions": [
                -1.1296082464921815,
                -0.9148379269205933,
                1.979950386891437,
                2.5278828691198254,
                -1.588860399049617,
                -0.05535330763243988
            ]
        },
        {
            "positions": [
                -1.1727329687326162,
                -0.9654766202026213,
                2.042952890550916,
                2.604108804515916,
                -1.4597931429937212,
                -0.06751728031621107
            ]
        },
        {
            "positions": [
                -1.215857690973051,
                -1.0161153134846495,
                2.1059553942103943,
                2.6803347399120065,
                -1.3307258869378251,
                -0.07968125299998224
            ]
        },
        {
            "positions": [
                -1.258982413213486,
                -1.0667540067666774,
                2.168957897869873,
                2.756560675308097,
                -1.201658630881929,
                -0.09184522568375342
            ]
        },
        {
            "positions": [
                -1.2519238551144158,
                -1.069084539226967,
                2.162376027285941,
                2.5995893356839694,
                -1.129130786909557,
                0.049085378033049354
            ]
        },
        {
            "positions": [
                -1.2448652970153455,
                -1.0714150716872564,
                2.1557941567020094,
                2.442617996059842,
                -1.056602942937185,
                0.19001598174985213
            ]
        },
        {
            "positions": [
                -1.2378067389162755,
                -1.073745604147546,
                2.149212286118078,
                2.285646656435714,
                -0.984075098964813,
                0.3309465854666549
            ]
        },
        {
            "positions": [
                -1.2307481808172054,
                -1.0760761366078355,
                2.1426304155341462,
                2.1286753168115866,
                -0.911547254992441,
                0.47187718918345767
            ]
        },
        {
            "positions": [
                -1.2236896227181353,
                -1.0784066690681249,
                2.1360485449502145,
                1.9717039771874592,
                -0.839019411020069,
                0.6128077929002604
            ]
        },
        {
            "positions": [
                -1.216631064619065,
                -1.0807372015284145,
                2.1294666743662827,
                1.8147326375633315,
                -0.766491567047697,
                0.7537383966170632
            ]
        },
        {
            "positions": [
                -1.209572506519995,
                -1.083067733988704,
                2.122884803782351,
                1.6577612979392038,
                -0.693963723075325,
                0.8946690003338661
            ]
        },
        {
            "positions": [
                -1.2025139484209248,
                -1.0853982664489934,
                2.116302933198419,
                1.5007899583150763,
                -0.621435879102953,
                1.0355996040506688
            ]
        },
        {
            "positions": [
                -1.1954553903218548,
                -1.087728798909283,
                2.1097210626144878,
                1.3438186186909487,
                -0.548908035130581,
                1.1765302077674715
            ]
        },
        {
            "positions": [
                -1.1883968322227845,
                -1.0900593313695726,
                2.103139192030556,
                1.1868472790668212,
                -0.47638019115820895,
                1.3174608114842743
            ]
        },
        {
            "positions": [
                -1.1813382741237144,
                -1.092389863829862,
                2.096557321446624,
                1.0298759394426935,
                -0.40385234718583696,
                1.458391415201077
            ]
        },
        {
            "positions": [
                -1.1742797160246443,
                -1.0947203962901515,
                2.0899754508626924,
                0.872904599818566,
                -0.33132450321346496,
                1.5993220189178798
            ]
        },
        {
            "positions": [
                -1.1672211579255742,
                -1.0970509287504409,
                2.0833935802787606,
                0.7159332601944386,
                -0.2587966592410931,
                1.7402526226346824
            ]
        },
        {
            "positions": [
                -1.160162599826504,
                -1.0993814612107304,
                2.076811709694829,
                0.5589619205703107,
                -0.18626881526872086,
                1.8811832263514856
            ]
        },
        {
            "positions": [
                -1.1531040417274339,
                -1.10171199367102,
                2.0702298391108975,
                0.40199058094618323,
                -0.11374097129634886,
                2.022113830068288
            ]
        },
        {
            "positions": [
                -1.1460454836283638,
                -1.1040425261313094,
                2.0636479685269657,
                0.24501924132205577,
                -0.04121312732397686,
                2.1630444337850907
            ]
        },
        {
            "positions": [
                -1.1389869255292937,
                -1.106373058591599,
                2.057066097943034,
                0.08804790169792831,
                0.031314716648394914,
                2.3039750375018935
            ]
        },
        {
            "positions": [
                -1.1319283674302234,
                -1.1087035910518885,
                2.050484227359102,
                -0.0689234379261996,
                0.10384256062076713,
                2.4449056412186962
            ]
        },
        {
            "positions": [
                -1.1248698093311533,
                -1.111034123512178,
                2.0439023567751704,
                -0.22589477755032705,
                0.17637040459313913,
                2.585836244935499
            ]
        },
        {
            "positions": [
                -1.1178112512320832,
                -1.1133646559724675,
                2.0373204861912386,
                -0.3828661171744545,
                0.24889824856551113,
                2.726766848652302
            ]
        },
        {
            "positions": [
                -1.110752693133013,
                -1.115695188432757,
                2.0307386156073073,
                -0.539837456798582,
                0.3214260925378831,
                2.8676974523691046
            ]
        },
        {
            "positions": [
                -1.1036941350339429,
                -1.1180257208930464,
                2.0241567450233755,
                -0.6968087964227099,
                0.3939539365102551,
                3.0086280560859073
            ]
        },
        {
            "positions": [
                -1.0966355769348728,
                -1.120356253353336,
                2.0175748744394437,
                -0.8537801360468371,
                0.4664817804826271,
                3.14955865980271
            ]
        }
    ]
}