{
    "goal": {
        "global_pose": {
            "orientation": {
                "w": 0.7047431493862688,
                "x": -0.7094548369677653,
                "y": 0.0024358444001904,
                "z": -0.0022348060817251984
            },
            "position": {
                "x": -0.39052492380142206,
                "y": 0.3671506643295288,
                "z": 0.19426114857196808
            }
        },
        "name": "move_to_magneteinheit_D"
    },
    "id": "SPARS_move_to_magneteinheit_D_50",
    "joint_names": [
        "shoulder_pan_joint",
        "shoulder_lift_joint",
        "elbow_joint",
        "wrist_1_joint",
        "wrist_2_joint",
        "wrist_3_joint"
    ],
    "metrics": {
        "cart_traj_len": 5.544073914989998,
        "distance_elbow_joint": 3.270235102754387,
        "distance_shoulder_lift_joint": 1.094184265430375,
        "distance_shoulder_pan_joint": 7.522211154397063,
        "distance_wrist_1_joint": 5.6108669159600435,
        "distance_wrist_2_joint": 2.0941308711105413,
        "distance_wrist_3_joint": 6.2742003829035955,
        "smoothness": 0.41513991062067174,
        "time": 5.0854259410000004,
        "traj_len": 5.0858459171072035,
        "weighted_distance": 6.791113844240414
    },
    "planner": "SPARS",
    "start": {
        "state": {
            "elbow_joint": 0.749534889911806,
            "shoulder_lift_joint": -0.6476975780787326,
            "shoulder_pan_joint": -2.711696901376241,
            "wrist_1_joint": -0.07506478083263063,
            "wrist_2_joint": 0.43296659715538205,
            "wrist_3_joint": -3.14703540197715
        }
    },
    "waypoints": [
        {
            "positions": [
                -2.711696901376241,
                -0.6476975780787326,
                0.749534889911806,
                -0.07506478083263063,
                0.43296659715538205,
                -3.14703540197715
            ]
        },
        {
            "positions": [
                -2.725741075951972,
                -0.7340712388079333,
                0.7776606051849704,
                -0.03565612575318092,
                0.41074242948551865,
                -3.115898985348511
            ]
        },
        {
            "positions": [
                -2.7397852505277034,
                -0.8204448995371341,
                0.8057863204581348,
                0.003752529326268794,
                0.3885182618156552,
                -3.084762568719872
            ]
        },
        {
            "positions": [
                -2.6963598819699754,
                -0.8898955794124924,
                0.8099372113949647,
                0.1288306612454663,
                0.37173092079151854,
                -2.9512686914769604
            ]
        },
        {
            "positions": [
                -2.652934513412247,
                -0.9593462592878508,
                0.8140881023317945,
                0.2539087931646638,
                0.3549435797673819,
                -2.8177748142340486
            ]
        },
        {
            "positions": [
                -2.609509144854519,
                -1.0287969391632092,
                0.8182389932686245,
                0.3789869250838613,
                0.3381562387432453,
                -2.684280936991137
            ]
        },
        {
            "positions": [
                -2.5660837762967907,
                -1.0982476190385677,
                0.8223898842054543,
                0.5040650570030588,
                0.32136889771910865,
                -2.550787059748225
            ]
        },
        {
            "positions": [
                -2.522658407739063,
                -1.167698298913926,
                0.8265407751422842,
                0.6291431889222563,
                0.304581556694972,
                -2.4172931825053134
            ]
        },
        {
            "positions": [
                -2.4108876593220727,
                -1.168463561757557,
                0.7675875921335836,
                0.5396913860986202,
                0.32181257549285863,
                -2.303992418205771
            ]
        },
        {
            "positions": [
                -2.2991169109050826,
                -1.169228824601188,
                0.7086344091248831,
                0.4502395832749841,
                0.33904359429074526,
                -2.1906916539062284
            ]
        },
        {
            "positions": [
                -2.187346162488092,
                -1.1699940874448187,
                0.6496812261161825,
                0.360787780451348,
                0.35627461308863184,
                -2.0773908896066855
            ]
        },
        {
            "positions": [
                -2.075575414071102,
                -1.1707593502884497,
                0.590728043107482,
                0.2713359776277119,
                0.3735056318865185,
                -1.964090125307143
            ]
        },
        {
            "positions": [
                -1.963804665654112,
                -1.1715246131320807,
                0.5317748600987815,
                0.18188417480407582,
                0.3907366506844051,
                -1.8507893610076005
            ]
        },
        {
            "positions": [
                -1.8520339172371216,
                -1.1722898759757117,
                0.4728216770900809,
                0.09243237198043974,
                0.40796766948229174,
                -1.737488596708058
            ]
        },
        {
            "positions": [
                -1.7402631688201313,
                -1.1730551388193426,
                0.41386849408138027,
                0.0029805691568035586,
                0.42519868828017837,
                -1.624187832408515
            ]
        },
        {
            "positions": [
                -1.6284924204031412,
                -1.1738204016629736,
                0.35491531107267976,
                -0.08647123366683251,
                0.44242970707806495,
                -1.5108870681089726
            ]
        },
        {
            "positions": [
                -1.516721671986151,
                -1.1745856645066044,
                0.29596212806397915,
                -0.1759230364904686,
                0.45966072587595164,
                -1.39758630380943
            ]
        },
        {
            "positions": [
                -1.4049509235691608,
                -1.1753509273502354,
                0.2370089450552787,
                -0.26537483931410466,
                0.4768917446738382,
                -1.2842855395098873
            ]
        },
        {
            "positions": [
                -1.2931801751521705,
                -1.1761161901938664,
                0.17805576204657814,
                -0.35482664213774084,
                0.49412276347172485,
                -1.1709847752103448
            ]
        },
        {
            "positions": [
                -1.1814094267351805,
                -1.1768814530374974,
                0.11910257903787758,
                -0.4442784449613768,
                0.5113537822696115,
                -1.0576840109108023
            ]
        },
        {
            "positions": [
                -1.0696386783181904,
                -1.1776467158811283,
                0.060149396029177016,
                -0.533730247785013,
                0.5285848010674981,
                -0.9443832466112596
            ]
        },
        {
            "positions": [
                -0.9578679299011998,
                -1.1784119787247591,
                0.0011962130204763444,
                -0.6231820506086492,
                0.5458158198653847,
                -0.8310824823117169
            ]
        },
        {
            "positions": [
                -0.8460971814842098,
                -1.17917724156839,
                -0.057756969988224105,
                -0.7126338534322851,
                0.5630468386632713,
                -0.7177817180121744
            ]
        },
        {
            "positions": [
                -0.7343264330672197,
                -1.179942504412021,
                -0.11671015299692467,
                -0.8020856562559213,
                0.580277857461158,
                -0.6044809537126319
            ]
        },
        {
            "positions": [
                -0.6225556846502296,
                -1.180707767255652,
                -0.17566333600562523,
                -0.8915374590795573,
                0.5975088762590446,
                -0.4911801894130894
            ]
        },
        {
            "positions": [
                -0.5107849362332391,
                -1.181473030099283,
                -0.2346165190143259,
                -0.9809892619031935,
                0.6147398950569312,
                -0.37787942511354666
            ]
        },
        {
            "positions": [
                -0.399014187816249,
                -1.1822382929429138,
                -0.29356970202302635,
                -1.0704410647268296,
                0.6319709138548177,
                -0.2645786608140037
            ]
        },
        {
            "positions": [
                -0.2872434393992589,
                -1.1830035557865448,
                -0.3525228850317268,
                -1.1598928675504656,
                0.6492019326527044,
                -0.15127789651446122
            ]
        },
        {
            "positions": [
                -0.1754726909822688,
                -1.1837688186301758,
                -0.41147606804042747,
                -1.2493446703741016,
                0.666432951450591,
                -0.03797713221491872
            ]
        },
        {
            "positions": [
                -0.06370194256527828,
                -1.1845340814738068,
                -0.4704292510491279,
                -1.338796473197738,
                0.6836639702484777,
                0.07532363208462378
            ]
        },
        {
            "positions": [
                0.04806880585171136,
                -1.1852993443174378,
                -0.5293824340578284,
                -1.428248276021374,
                0.7008949890463643,
                0.18862439638416628
            ]
        },
        {
            "positions": [
                0.1598395542687019,
                -1.1860646071610688,
                -0.588335617066529,
                -1.51770007884501,
                0.7181260078442508,
                0.3019251606837088
            ]
        },
        {
            "positions": [
                0.2716103026856924,
                -1.1868298700046995,
                -0.6472888000752297,
                -1.6071518816686463,
                0.7353570266421375,
                0.4152259249832517
            ]
        },
        {
            "positions": [
                0.38338105110268206,
                -1.1875951328483305,
                -0.7062419830839302,
                -1.6966036844922823,
                0.7525880454400241,
                0.5285266892827942
            ]
        },
        {
            "positions": [
                0.4951517995196726,
                -1.1883603956919615,
                -0.7651951660926308,
                -1.7860554873159182,
                0.7698190642379108,
                0.6418274535823367
            ]
        },
        {
            "positions": [
                0.6069225479366631,
                -1.1891256585355925,
                -0.8241483491013315,
                -1.8755072901395546,
                0.7870500830357974,
                0.7551282178818797
            ]
        },
        {
            "positions": [
                0.7186932963536528,
                -1.1898909213792235,
                -0.8831015321100317,
                -1.9649590929631906,
                0.804281101833684,
                0.8684289821814217
            ]
        },
        {
            "positions": [
                0.8304640447706433,
                -1.1906561842228542,
                -0.9420547151187324,
                -2.054410895786827,
                0.8215121206315706,
                0.9817297464809647
            ]
        },
        {
            "positions": [
                0.9422347931876329,
                -1.1914214470664852,
                -1.0010078981274328,
                -2.1438626986104623,
                0.8387431394294572,
                1.0950305107805072
            ]
        },
        {
            "positions": [
                1.0540055416046235,
                -1.1921867099101162,
                -1.0599610811361335,
                -2.2333145014340987,
                0.8559741582273439,
                1.2083312750800497
            ]
        },
        {
            "positions": [
                1.165776290021614,
                -1.1929519727537472,
                -1.1189142641448342,
                -2.322766304257735,
                0.8732051770252305,
                1.3216320393795926
            ]
        },
        {
            "positions": [
                1.2775470384386036,
                -1.1937172355973782,
                -1.1778674471535346,
                -2.4122181070813706,
                0.8904361958231171,
                1.4349328036791347
            ]
        },
        {
            "positions": [
                1.3893177868555942,
                -1.194482498441009,
                -1.236820630162235,
                -2.501669909905007,
                0.9076672146210037,
                1.5482335679786776
            ]
        },
        {
            "positions": [
                1.5010885352725847,
                -1.19524776128464,
                -1.295773813170936,
                -2.5911217127286434,
                0.9248982334188904,
                1.6615343322782201
            ]
        },
        {
            "positions": [
                1.6128592836895743,
                -1.196013024128271,
                -1.354726996179636,
                -2.680573515552279,
                0.9421292522167769,
                1.7748350965777626
            ]
        },
        {
            "positions": [
                1.7246300321065648,
                -1.196778286971902,
                -1.4136801791883369,
                -2.7700253183759154,
                0.9593602710146636,
                1.888135860877306
            ]
        },
        {
            "positions": [
                1.8364007805235545,
                -1.197543549815533,
                -1.4726333621970373,
                -2.859477121199551,
                0.9765912898125502,
                2.0014366251768476
            ]
        },
        {
            "positions": [
                1.948171528940545,
                -1.198308812659164,
                -1.5315865452057378,
                -2.9489289240231873,
                0.9938223086104369,
                2.114737389476391
            ]
        },
        {
            "positions": [
                2.0599422773575355,
                -1.1990740755027947,
                -1.5905397282144387,
                -3.0383807268468237,
                1.0110533274083235,
                2.2280381537759335
            ]
        },
        {
            "positions": [
                2.171713025774525,
                -1.1998393383464256,
                -1.6494929112231391,
                -3.127832529670459,
                1.0282843462062101,
                2.341338918075476
            ]
        },
        {
            "positions": [
                2.2834837741915153,
                -1.2006046011900566,
                -1.7084460942318396,
                -3.2172843324940956,
                1.0455153650040967,
                2.4546396823750185
            ]
        },
        {
            "positions": [
                2.1381394341605517,
                -1.2324444389735303,
                -1.7471662323582975,
                -3.1549177780947537,
                0.9734675989840375,
                2.4941999940545143
            ]
        },
        {
            "positions": [
                1.9927950941295882,
                -1.2642842767570037,
                -1.7858863704847554,
                -3.092551223695412,
                0.9014198329639782,
                2.5337603057340097
            ]
        },
        {
            "positions": [
                1.8474507540986245,
                -1.2961241145404774,
                -1.8246065086112133,
                -3.03018466929607,
                0.8293720669439191,
                2.5733206174135055
            ]
        },
        {
            "positions": [
                1.702106414067661,
                -1.327963952323951,
                -1.8633266467376712,
                -2.967818114896728,
                0.7573243009238598,
                2.6128809290930013
            ]
        },
        {
            "positions": [
                1.5567620740366972,
                -1.3598037901074247,
                -1.9020467848641291,
                -2.905451560497386,
                0.6852765349038006,
                2.652441240772497
            ]
        },
        {
            "positions": [
                1.4114177340057337,
                -1.3916436278908981,
                -1.940766922990587,
                -2.843085006098044,
                0.6132287688837414,
                2.6920015524519925
            ]
        },
        {
            "positions": [
                1.2660733939747704,
                -1.4234834656743718,
                -1.979487061117045,
                -2.7807184516987022,
                0.5411810028636822,
                2.7315618641314883
            ]
        },
        {
            "positions": [
                1.1207290539438066,
                -1.4553233034578454,
                -2.018207199243503,
                -2.7183518972993603,
                0.46913323684362296,
                2.771122175810984
            ]
        },
        {
            "positions": [
                0.9753847139128431,
                -1.4871631412413189,
                -2.056927337369961,
                -2.6559853429000184,
                0.3970854708235638,
                2.8106824874904794
            ]
        },
        {
            "positions": [
                0.8300403738818793,
                -1.5190029790247925,
                -2.0956474754964187,
                -2.5936187885006765,
                0.3250377048035046,
                2.8502427991699752
            ]
        },
        {
            "positions": [
                0.6846960338509158,
                -1.5508428168082662,
                -2.1343676136228766,
                -2.5312522341013346,
                0.25298993878344533,
                2.889803110849471
            ]
        },
        {
            "positions": [
                0.5393516938199523,
                -1.5826826545917396,
                -2.1730877517493346,
                -2.4688856797019927,
                0.1809421727633861,
                2.929363422528967
            ]
        },
        {
            "positions": [
                0.394007353788989,
                -1.6145224923752133,
                -2.2118078898757925,
                -2.4065191253026508,
                0.10889440674332695,
                2.9689237342084622
            ]
        },
        {
            "positions": [
                0.24866301375802546,
                -1.646362330158687,
                -2.2505280280022504,
                -2.344152570903309,
                0.03684664072326771,
                3.008484045887958
            ]
        },
        {
            "positions": [
                0.1033186737270615,
                -1.6782021679421604,
                -2.2892481661287083,
                -2.281786016503967,
                -0.035201125296791425,
                3.048044357567454
            ]
        },
        {
            "positions": [
                -0.04202566630390203,
                -1.7100420057256343,
                -2.327968304255166,
                -2.219419462104625,
                -0.10724889131685078,
                3.087604669246949
            ]
        },
        {
            "positions": [
                -0.18737000633486545,
                -1.7418818435091077,
                -2.366688442381624,
                -2.157052907705283,
                -0.1792966573369099,
                3.127164980926445
            ]
        }
    ]
}