{
    "goal": {
        "global_pose": {
            "orientation": {
                "w": 0.7047431468963623,
                "x": -0.7094548344612122,
                "y": 0.0024358443915843964,
                "z": -0.0022348060738295317
            },
            "position": {
                "x": 0.6094750761985779,
                "y": 0.3671506643295288,
                "z": 0.19426114857196808
            }
        },
        "name": "move_to_magneteinheit_A"
    },
    "id": "SPARS_move_to_magneteinheit_A_135",
    "joint_names": [
        "shoulder_pan_joint",
        "shoulder_lift_joint",
        "elbow_joint",
        "wrist_1_joint",
        "wrist_2_joint",
        "wrist_3_joint"
    ],
    "metrics": {
        "cart_traj_len": 3.050082460233649,
        "distance_elbow_joint": 3.8774431362914914,
        "distance_shoulder_lift_joint": 0.8994440466982088,
        "distance_shoulder_pan_joint": 3.0351818517602243,
        "distance_wrist_1_joint": 0.8482784090112907,
        "distance_wrist_2_joint": 1.6998775781638138,
        "distance_wrist_3_joint": 3.866789657591175,
        "smoothness": 0.2826228775180633,
        "time": 5.040738072000001,
        "traj_len": 3.7718715088820565,
        "weighted_distance": 4.950631271047528
    },
    "planner": "SPARS",
    "start": {
        "state": {
            "elbow_joint": -1.9196185241190666,
            "shoulder_lift_joint": -1.2443396400964142,
            "shoulder_pan_joint": 2.6996025414629847,
            "wrist_1_joint": -1.5485510000780065,
            "wrist_2_joint": -1.5709468930060704,
            "wrist_3_joint": 0.4420197071253992
        }
    },
    "waypoints": [
        {
            "positions": [
                2.6996025414629847,
                -1.2443396400964142,
                -1.9196185241190666,
                -1.5485510000780065,
                -1.5709468930060704,
                0.4420197071253992
            ]
        },
        {
            "positions": [
                2.5652144166958952,
                -1.2674994608804164,
                -1.7583519830497158,
                -1.523723450861947,
                -1.5621606714911775,
                0.40431308396518584
            ]
        },
        {
            "positions": [
                2.4308262919288057,
                -1.2906592816644187,
                -1.597085441980365,
                -1.4988959016458874,
                -1.5533744499762847,
                0.3666064608049725
            ]
        },
        {
            "positions": [
                2.296438167161716,
                -1.313819102448421,
                -1.4358189009110145,
                -1.474068352429828,
                -1.544588228461392,
                0.32889983764475916
            ]
        },
        {
            "positions": [
                2.1620500423946263,
                -1.3369789232324232,
                -1.2745523598416635,
                -1.4492408032137682,
                -1.5358020069464993,
                0.2911932144845458
            ]
        },
        {
            "positions": [
                2.027661917627537,
                -1.3601387440164254,
                -1.113285818772313,
                -1.4244132539977088,
                -1.5270157854316064,
                0.2534865913243325
            ]
        },
        {
            "positions": [
                1.8932737928604473,
                -1.3832985648004277,
                -0.9520192777029621,
                -1.3995857047816491,
                -1.5182295639167136,
                0.21577996816411912
            ]
        },
        {
            "positions": [
                1.7588856680933578,
                -1.40645838558443,
                -0.7907527366336113,
                -1.3747581555655897,
                -1.509443342401821,
                0.17807334500390581
            ]
        },
        {
            "positions": [
                1.624497543326268,
                -1.4296182063684322,
                -0.6294861955642606,
                -1.3499306063495302,
                -1.5006571208869282,
                0.14036672184369248
            ]
        },
        {
            "positions": [
                1.4901094185591786,
                -1.4527780271524344,
                -0.46821965449491,
                -1.3251030571334705,
                -1.4918708993720353,
                0.10266009868347914
            ]
        },
        {
            "positions": [
                1.3557212937920888,
                -1.4759378479364367,
                -0.3069531134255592,
                -1.300275507917411,
                -1.4830846778571425,
                0.0649534755232658
            ]
        },
        {
            "positions": [
                1.2213331690249993,
                -1.499097668720439,
                -0.1456865723562084,
                -1.2754479587013514,
                -1.4742984563422499,
                0.027246852363052465
            ]
        },
        {
            "positions": [
                1.0869450442579096,
                -1.5222574895044412,
                0.015579968713142378,
                -1.250620409485292,
                -1.465512234827357,
                -0.010459770797160928
            ]
        },
        {
            "positions": [
                0.9525569194908203,
                -1.5454173102884434,
                0.17684650978249294,
                -1.2257928602692325,
                -1.4567260133124642,
                -0.048166393957374154
            ]
        },
        {
            "positions": [
                0.8181687947237306,
                -1.5685771310724457,
                0.33811305085184395,
                -1.2009653110531728,
                -1.4479397917975714,
                -0.08587301711758755
            ]
        },
        {
            "positions": [
                0.6837806699566409,
                -1.591736951856448,
                0.4993795919211945,
                -1.1761377618371134,
                -1.4391535702826785,
                -0.12357964027780088
            ]
        },
        {
            "positions": [
                0.5493925451895514,
                -1.6148967726404502,
                0.6606461329905455,
                -1.1513102126210537,
                -1.430367348767786,
                -0.16128626343801422
            ]
        },
        {
            "positions": [
                0.4150044204224618,
                -1.6380565934244524,
                0.821912674059896,
                -1.1264826634049943,
                -1.421581127252893,
                -0.19899288659822753
            ]
        },
        {
            "positions": [
                0.3675478186420133,
                -1.6241452589846006,
                0.8987947255597978,
                -1.0977445160493744,
                -1.3486207082983948,
                -0.06830171691172174
            ]
        },
        {
            "positions": [
                0.3200912168615649,
                -1.6102339245447486,
                0.9756767770596997,
                -1.0690063686937545,
                -1.2756602893438966,
                0.062389452774784054
            ]
        },
        {
            "positions": [
                0.2726346150811164,
                -1.5963225901048967,
                1.0525588285596015,
                -1.0402682213381347,
                -1.2026998703893983,
                0.1930806224612898
            ]
        },
        {
            "positions": [
                0.22517801330066797,
                -1.582411255665045,
                1.1294408800595033,
                -1.0115300739825148,
                -1.1297394514349,
                0.3237717921477956
            ]
        },
        {
            "positions": [
                0.17772141152021956,
                -1.5684999212251929,
                1.206322931559405,
                -0.982791926626895,
                -1.0567790324804016,
                0.45446296183430135
            ]
        },
        {
            "positions": [
                0.13026480973977111,
                -1.554588586785341,
                1.2832049830593069,
                -0.9540537792712751,
                -0.9838186135259035,
                0.5851541315208071
            ]
        },
        {
            "positions": [
                0.08280820795932264,
                -1.540677252345489,
                1.3600870345592089,
                -0.9253156319156552,
                -0.9108581945714052,
                0.7158453012073129
            ]
        },
        {
            "positions": [
                0.03535160617887417,
                -1.5267659179056372,
                1.4369690860591104,
                -0.8965774845600354,
                -0.8378977756169068,
                0.8465364708938188
            ]
        },
        {
            "positions": [
                -0.012104995601574242,
                -1.5128545834657854,
                1.5138511375590125,
                -0.8678393372044155,
                -0.7649373566624086,
                0.9772276405803246
            ]
        },
        {
            "positions": [
                -0.05956159738202266,
                -1.4989432490259333,
                1.590733189058914,
                -0.8391011898487957,
                -0.6919769377079104,
                1.1079188102668303
            ]
        },
        {
            "positions": [
                -0.1070181991624711,
                -1.4850319145860815,
                1.667615240558816,
                -0.8103630424931758,
                -0.619016518753412,
                1.238609979953336
            ]
        },
        {
            "positions": [
                -0.08346627754193767,
                -1.4465950733465869,
                1.6998194563472224,
                -0.7990534315985347,
                -0.5361977022909983,
                1.4360500393603308
            ]
        },
        {
            "positions": [
                -0.05991435592140423,
                -1.4081582321070922,
                1.7320236721356286,
                -0.7877438207038935,
                -0.45337888582858454,
                1.6334900987673255
            ]
        },
        {
            "positions": [
                -0.0363624343008708,
                -1.3697213908675976,
                1.764227887924035,
                -0.7764342098092524,
                -0.37056006936617086,
                1.8309301581743203
            ]
        },
        {
            "positions": [
                -0.012810512680337366,
                -1.331284549628103,
                1.796432103712441,
                -0.7651245989146113,
                -0.2877412529037571,
                2.028370217581315
            ]
        },
        {
            "positions": [
                0.010741408940196068,
                -1.2928477083886083,
                1.8286363195008475,
                -0.75381498801997,
                -0.2049224364413434,
                2.2258102769883097
            ]
        },
        {
            "positions": [
                0.0342933305607295,
                -1.2544108671491137,
                1.8608405352892536,
                -0.7425053771253289,
                -0.12210361997892971,
                2.4232503363953044
            ]
        },
        {
            "positions": [
                0.057845252181262935,
                -1.215974025909619,
                1.89304475107766,
                -0.7311957662306878,
                -0.039284803516515976,
                2.620690395802299
            ]
        },
        {
            "positions": [
                0.08139717380179637,
                -1.1775371846701244,
                1.9252489668660662,
                -0.7198861553360466,
                0.04353401294589776,
                2.818130455209294
            ]
        },
        {
            "positions": [
                0.10494909542232979,
                -1.1391003434306297,
                1.9574531826544725,
                -0.7085765444414055,
                0.12635282940831152,
                3.0155705146162886
            ]
        },
        {
            "positions": [
                0.12154291197229569,
                -1.132329500054282,
                1.9578246121724243,
                -0.7168804978160952,
                0.12377497365887971,
                3.0267841772693207
            ]
        }
    ]
}