{
    "goal": {
        "global_pose": {
            "orientation": {
                "w": -0.00223480608172531,
                "x": 0.0024358444001904467,
                "y": 0.7094548369677653,
                "z": -0.704743149386269
            },
            "position": {
                "x": -0.37947507619857795,
                "y": -0.6371506643295288,
                "z": 0.19426114857196808
            }
        },
        "name": "move_to_magneteinheit_C"
    },
    "id": "SPARS_move_to_magneteinheit_C_5",
    "joint_names": [
        "shoulder_pan_joint",
        "shoulder_lift_joint",
        "elbow_joint",
        "wrist_1_joint",
        "wrist_2_joint",
        "wrist_3_joint"
    ],
    "metrics": {
        "cart_traj_len": 1.3984739842316474,
        "distance_elbow_joint": 0.8850201328741387,
        "distance_shoulder_lift_joint": 0.7069967625044871,
        "distance_shoulder_pan_joint": 1.4442551379832025,
        "distance_wrist_1_joint": 0.8663792446152928,
        "distance_wrist_2_joint": 2.643263806157517,
        "distance_wrist_3_joint": 2.0177337355631506,
        "smoothness": 1.0619274002809647,
        "time": 5.0634912409999995,
        "traj_len": 2.9263712716772265,
        "weighted_distance": 4.013571893164105
    },
    "planner": "SPARS",
    "start": {
        "state": {
            "elbow_joint": 1.9565354010623817,
            "shoulder_lift_joint": -1.4165861575791021,
            "shoulder_pan_joint": -1.6717766225146293,
            "wrist_1_joint": -0.5286633292919765,
            "wrist_2_joint": 1.472756589071564,
            "wrist_3_joint": -3.1238370188695823
        }
    },
    "waypoints": [
        {
            "positions": [
                -1.6717766225146293,
                -1.4165861575791021,
                1.9565354010623817,
                -0.5286633292919765,
                1.472756589071564,
                -3.1238370188695823
            ]
        },
        {
            "positions": [
                -1.595774338978229,
                -1.4270402183916444,
                1.9523591854631095,
                -0.5961125156191591,
                1.4309935294363032,
                -3.0497942494902266
            ]
        },
        {
            "positions": [
                -1.519772055441829,
                -1.437494279204187,
                1.948182969863837,
                -0.6635617019463418,
                1.3892304698010427,
                -2.975751480110871
            ]
        },
        {
            "positions": [
                -1.4437697719054288,
                -1.4479483400167292,
                1.944006754264565,
                -0.7310108882735245,
                1.347467410165782,
                -2.901708710731515
            ]
        },
        {
            "positions": [
                -1.496683570375378,
                -1.4696169066645157,
                1.8990948600020296,
                -0.7292705192440633,
                1.1697170624800906,
                -2.815883602109356
            ]
        },
        {
            "positions": [
                -1.549597368845327,
                -1.4912854733123024,
                1.8541829657394944,
                -0.7275301502146021,
                0.9919667147943991,
                -2.730058493487197
            ]
        },
        {
            "positions": [
                -1.6025111673152763,
                -1.512954039960089,
                1.809271071476959,
                -0.7257897811851408,
                0.8142163671087076,
                -2.6442333848650383
            ]
        },
        {
            "positions": [
                -1.6554249657852254,
                -1.5346226066078756,
                1.7643591772144238,
                -0.7240494121556796,
                0.6364660194230162,
                -2.5584082762428793
            ]
        },
        {
            "positions": [
                -1.7083387642551746,
                -1.5562911732556621,
                1.7194472829518888,
                -0.7223090431262185,
                0.4587156717373245,
                -2.47258316762072
            ]
        },
        {
            "positions": [
                -1.7612525627251236,
                -1.5779597399034488,
                1.6745353886893535,
                -0.7205686740967573,
                0.2809653240516332,
                -2.386758058998561
            ]
        },
        {
            "positions": [
                -1.814166361195073,
                -1.5996283065512353,
                1.6296234944268182,
                -0.718828305067296,
                0.10321497636594157,
                -2.300932950376402
            ]
        },
        {
            "positions": [
                -1.867080159665022,
                -1.621296873199022,
                1.584711600164283,
                -0.7170879360378348,
                -0.07453537131974963,
                -2.2151078417542434
            ]
        },
        {
            "positions": [
                -1.9199939581349712,
                -1.6429654398468085,
                1.5397997059017476,
                -0.7153475670083737,
                -0.25228571900544133,
                -2.1292827331320843
            ]
        },
        {
            "positions": [
                -2.0495275349588455,
                -1.629167181395872,
                1.6105198289446618,
                -0.6615263633661629,
                -0.22172147826838073,
                -2.2252879778710537
            ]
        },
        {
            "positions": [
                -2.1790611117827194,
                -1.615368922944935,
                1.681239951987576,
                -0.607705159723952,
                -0.19115723753132013,
                -2.3212932226100236
            ]
        },
        {
            "positions": [
                -2.308594688606594,
                -1.6015706644939984,
                1.7519600750304902,
                -0.5538839560817412,
                -0.16059299679425953,
                -2.417298467348993
            ]
        },
        {
            "positions": [
                -2.4381282654304677,
                -1.5877724060430616,
                1.8226801980734044,
                -0.5000627524395305,
                -0.13002875605719894,
                -2.513303712087963
            ]
        },
        {
            "positions": [
                -2.567661842254342,
                -1.573974147592125,
                1.8934003211163186,
                -0.4462415487973197,
                -0.09946451532013834,
                -2.6093089568269323
            ]
        },
        {
            "positions": [
                -2.5614720920510554,
                -1.513080912030072,
                1.9156805582921983,
                -0.4989442619300316,
                0.015188765729287387,
                -2.6946957062330155
            ]
        },
        {
            "positions": [
                -2.555282341847769,
                -1.4521876764680188,
                1.9379607954680782,
                -0.5516469750627435,
                0.1298420467787131,
                -2.780082455639099
            ]
        },
        {
            "positions": [
                -2.549092591644482,
                -1.3912944409059658,
                1.9602410326439579,
                -0.6043496881954553,
                0.24449532782813882,
                -2.865469205045182
            ]
        },
        {
            "positions": [
                -2.5429028414411956,
                -1.3304012053439127,
                1.9825212698198378,
                -0.6570524013281672,
                0.35914860887756456,
                -2.950855954451266
            ]
        },
        {
            "positions": [
                -2.536713091237909,
                -1.2695079697818596,
                2.0048015069957175,
                -0.7097551144608791,
                0.4738018899269902,
                -3.036242703857349
            ]
        },
        {
            "positions": [
                -2.506009358233581,
                -1.2159279646959438,
                2.006442825305485,
                -0.7676295047078694,
                0.5698688345010303,
                -3.094352443407543
            ]
        },
        {
            "positions": [
                -2.4753056252292533,
                -1.162347959610028,
                2.0080841436152523,
                -0.8255038949548598,
                0.6659357790750705,
                -3.152462182957737
            ]
        }
    ]
}