{
    "goal": {
        "global_pose": {
            "orientation": {
                "w": -0.4816463035849501,
                "x": 0.5182115481033762,
                "y": 0.4908360881923453,
                "z": -0.5084816262002911
            },
            "position": {
                "x": -0.8240239810943604,
                "y": 0.19912469901144506,
                "z": 0.16403168439865112
            }
        },
        "name": "move_to_storage_D"
    },
    "id": "SPARStwo_move_to_storage_D_51",
    "joint_names": [
        "shoulder_pan_joint",
        "shoulder_lift_joint",
        "elbow_joint",
        "wrist_1_joint",
        "wrist_2_joint",
        "wrist_3_joint"
    ],
    "metrics": {
        "cart_traj_len": 3.3372722220454003,
        "distance_elbow_joint": 4.2080487603641,
        "distance_shoulder_lift_joint": 1.2642489961925094,
        "distance_shoulder_pan_joint": 2.8134406481516545,
        "distance_wrist_1_joint": 2.261197725812035,
        "distance_wrist_2_joint": 2.4402837458504125,
        "distance_wrist_3_joint": 3.6353015390217926,
        "smoothness": 0.09888000500006956,
        "time": 5.044591521,
        "traj_len": 4.07707265269979,
        "weighted_distance": 5.3473924453979
    },
    "planner": "SPARStwo",
    "start": {
        "state": {
            "elbow_joint": -2.384821988534728,
            "shoulder_lift_joint": -2.2788054721415256,
            "shoulder_pan_joint": -0.1854694642142757,
            "wrist_1_joint": 1.4845938289331202,
            "wrist_2_joint": 0.17898776772866878,
            "wrist_3_joint": 0.037105688729662994
        }
    },
    "waypoints": [
        {
            "positions": [
                -0.1854694642142757,
                -2.2788054721415256,
                -2.384821988534728,
                1.4845938289331202,
                0.17898776772866878,
                0.037105688729662994
            ]
        },
        {
            "positions": [
                -0.08270541827951124,
                -2.2526232126521295,
                -2.2236013060338284,
                1.4343596901423532,
                0.1400332087524075,
                0.024645801346877175
            ]
        },
        {
            "positions": [
                0.020058627655253236,
                -2.226440953162733,
                -2.0623806235329294,
                1.384125551351586,
                0.1010786497761462,
                0.012185913964091351
            ]
        },
        {
            "positions": [
                0.12282267359001767,
                -2.200258693673337,
                -1.90115994103203,
                1.333891412560819,
                0.06212409079988493,
                -0.0002739734186944648
            ]
        },
        {
            "positions": [
                0.22558671952478218,
                -2.1740764341839403,
                -1.7399392585311304,
                1.283657273770052,
                0.023169531823623607,
                -0.012733860801480291
            ]
        },
        {
            "positions": [
                0.32835076545954667,
                -2.147894174694544,
                -1.5787185760302311,
                1.2334231349792848,
                -0.01578502715263766,
                -0.02519374818426611
            ]
        },
        {
            "positions": [
                0.43111481139431107,
                -2.121711915205148,
                -1.4174978935293319,
                1.1831889961885178,
                -0.054739586128898926,
                -0.037653635567051924
            ]
        },
        {
            "positions": [
                0.5338788573290756,
                -2.0955296557157514,
                -1.2562772110284326,
                1.1329548573977508,
                -0.09369414510516019,
                -0.050113522949837744
            ]
        },
        {
            "positions": [
                0.6366429032638401,
                -2.0693473962263553,
                -1.0950565285275329,
                1.0827207186069838,
                -0.13264870408142157,
                -0.06257341033262358
            ]
        },
        {
            "positions": [
                0.7394069491986046,
                -2.0431651367369588,
                -0.9338358460266336,
                1.0324865798162166,
                -0.17160326305768284,
                -0.0750332977154094
            ]
        },
        {
            "positions": [
                0.842170995133369,
                -2.0169828772475626,
                -0.7726151635257343,
                0.9822524410254496,
                -0.2105578220339441,
                -0.08749318509819522
            ]
        },
        {
            "positions": [
                0.9449350410681335,
                -1.9908006177581663,
                -0.6113944810248348,
                0.9320183022346825,
                -0.24951238101020543,
                -0.09995307248098104
            ]
        },
        {
            "positions": [
                1.0476990870028977,
                -1.96461835826877,
                -0.4501737985239358,
                0.8817841634439155,
                -0.28846693998646666,
                -0.11241295986376684
            ]
        },
        {
            "positions": [
                1.1504631329376624,
                -1.9384360987793738,
                -0.2889531160230363,
                0.8315500246531484,
                -0.327421498962728,
                -0.12487284724655268
            ]
        },
        {
            "positions": [
                1.2532271788724267,
                -1.9122538392899775,
                -0.12773243352213726,
                0.7813158858623814,
                -0.3663760579389892,
                -0.13733273462933848
            ]
        },
        {
            "positions": [
                1.3559912248071913,
                -1.8860715798005812,
                0.03348824897876268,
                0.7310817470716143,
                -0.4053306169152505,
                -0.14979262201212432
            ]
        },
        {
            "positions": [
                1.4587552707419558,
                -1.8598893203111848,
                0.19470893147966217,
                0.6808476082808472,
                -0.44428517589151195,
                -0.16225250939491015
            ]
        },
        {
            "positions": [
                1.56151931667672,
                -1.8337070608217885,
                0.3559296139805612,
                0.6306134694900802,
                -0.48323973486777316,
                -0.17471239677769596
            ]
        },
        {
            "positions": [
                1.6642833626114848,
                -1.8075248013323924,
                0.5171502964814607,
                0.5803793306993131,
                -0.5221942938440345,
                -0.1871722841604818
            ]
        },
        {
            "positions": [
                1.767047408546249,
                -1.781342541842996,
                0.6783709789823598,
                0.5301451919085461,
                -0.5611488528202957,
                -0.1996321715432676
            ]
        },
        {
            "positions": [
                1.8698114544810136,
                -1.7551602823535997,
                0.8395916614832593,
                0.47991105311777915,
                -0.600103411796557,
                -0.21209205892605343
            ]
        },
        {
            "positions": [
                1.9027749209791165,
                -1.7229601168577482,
                0.882358405411351,
                0.42527996833531423,
                -0.5278776480432881,
                -0.06487015495361534
            ]
        },
        {
            "positions": [
                1.9357383874772192,
                -1.6907599513618967,
                0.9251251493394428,
                0.3706488835528493,
                -0.4556518842900191,
                0.08235174901882275
            ]
        },
        {
            "positions": [
                1.968701853975322,
                -1.6585597858660452,
                0.9678918932675347,
                0.3160177987703844,
                -0.3834261205367502,
                0.2295736529912608
            ]
        },
        {
            "positions": [
                2.0016653204734247,
                -1.6263596203701938,
                1.0106586371956263,
                0.26138671398791946,
                -0.31120035678348124,
                0.37679555696369893
            ]
        },
        {
            "positions": [
                2.0346287869715276,
                -1.5941594548743425,
                1.0534253811237182,
                0.20675562920545448,
                -0.23897459303021235,
                0.524017460936137
            ]
        },
        {
            "positions": [
                2.0675922534696305,
                -1.5619592893784908,
                1.09619212505181,
                0.15212454442298956,
                -0.1667488292769434,
                0.671239364908575
            ]
        },
        {
            "positions": [
                2.1005557199677334,
                -1.5297591238826396,
                1.1389588689799017,
                0.09749345964052458,
                -0.0945230655236744,
                0.8184612688810132
            ]
        },
        {
            "positions": [
                2.1335191864658363,
                -1.497558958386788,
                1.1817256129079936,
                0.042862374858059715,
                -0.022297301770405453,
                0.9656831728534513
            ]
        },
        {
            "positions": [
                2.166482652963939,
                -1.4653587928909366,
                1.2244923568360853,
                -0.011768709924405263,
                0.04992846198286349,
                1.1129050768258892
            ]
        },
        {
            "positions": [
                2.1994461194620416,
                -1.4331586273950851,
                1.2672591007641771,
                -0.06639979470687019,
                0.12215422573613233,
                1.2601269807983275
            ]
        },
        {
            "positions": [
                2.2324095859601445,
                -1.4009584618992337,
                1.310025844692269,
                -0.12103087948933511,
                0.19437998948940138,
                1.4073488847707658
            ]
        },
        {
            "positions": [
                2.2653730524582474,
                -1.3687582964033822,
                1.3527925886203607,
                -0.17566196427180003,
                0.2666057532426702,
                1.5545707887432036
            ]
        },
        {
            "positions": [
                2.2983365189563503,
                -1.3365581309075307,
                1.3955593325484523,
                -0.23029304905426495,
                0.33883151699593916,
                1.7017926927156415
            ]
        },
        {
            "positions": [
                2.331299985454453,
                -1.3043579654116793,
                1.4383260764765442,
                -0.28492413383673,
                0.4110572807492082,
                1.8490145966880798
            ]
        },
        {
            "positions": [
                2.3642634519525556,
                -1.2721577999158278,
                1.481092820404636,
                -0.3395552186191948,
                0.48328304450247705,
                1.996236500660518
            ]
        },
        {
            "positions": [
                2.3972269184506585,
                -1.2399576344199765,
                1.523859564332728,
                -0.3941863034016597,
                0.5555088082557461,
                2.143458404632956
            ]
        },
        {
            "positions": [
                2.4301903849487614,
                -1.2077574689241248,
                1.5666263082608196,
                -0.44881738818412464,
                0.627734572009015,
                2.2906803086053937
            ]
        },
        {
            "positions": [
                2.4631538514468643,
                -1.1755573034282736,
                1.6093930521889115,
                -0.5034484729665897,
                0.699960335762284,
                2.437902212577832
            ]
        },
        {
            "positions": [
                2.496117317944967,
                -1.1433571379324219,
                1.6521597961170031,
                -0.5580795577490546,
                0.7721860995155528,
                2.5851241165502703
            ]
        },
        {
            "positions": [
                2.52908078444307,
                -1.1111569724365706,
                1.694926540045095,
                -0.6127106425315195,
                0.8444118632688217,
                2.732346020522708
            ]
        },
        {
            "positions": [
                2.5620442509411725,
                -1.0789568069407192,
                1.737693283973187,
                -0.6673417273139844,
                0.9166376270220907,
                2.879567924495146
            ]
        },
        {
            "positions": [
                2.5950077174392754,
                -1.0467566414448677,
                1.7804600279012788,
                -0.7219728120964494,
                0.9888633907753598,
                3.0267898284675847
            ]
        },
        {
            "positions": [
                2.6279711839373783,
                -1.0145564759490162,
                1.8232267718293704,
                -0.7766038968789142,
                1.0610891545286287,
                3.1740117324400225
            ]
        }
    ]
}