{
    "goal": {
        "global_pose": {
            "orientation": {
                "w": 0.005598929693374612,
                "x": 0.007748599140229565,
                "y": 0.7110244013736278,
                "z": -0.7031023480610252
            },
            "position": {
                "x": -0.8858502320852131,
                "y": -0.7141253447532654,
                "z": 0.3711530566215515
            }
        },
        "name": "move_to_auspresseinheit_C"
    },
    "id": "SPARS_move_to_auspresseinheit_C_9",
    "joint_names": [
        "shoulder_pan_joint",
        "shoulder_lift_joint",
        "elbow_joint",
        "wrist_1_joint",
        "wrist_2_joint",
        "wrist_3_joint"
    ],
    "metrics": {
        "cart_traj_len": 0.4930725818035233,
        "distance_elbow_joint": 1.0064113211767496,
        "distance_shoulder_lift_joint": 0.32845015939301236,
        "distance_shoulder_pan_joint": 0.25567895985851186,
        "distance_wrist_1_joint": 0.6879347382847512,
        "distance_wrist_2_joint": 1.3189860840404122,
        "distance_wrist_3_joint": 0.07233610365172272,
        "smoothness": 9.689219175149503e-16,
        "time": 5.025996026,
        "traj_len": 1.9156715183990078,
        "weighted_distance": 2.412755768003419
    },
    "planner": "SPARS",
    "start": {
        "state": {
            "elbow_joint": 1.7527959577737207,
            "shoulder_lift_joint": -0.9740617694225068,
            "shoulder_pan_joint": -2.967991417825858,
            "wrist_1_joint": -0.759517768980727,
            "wrist_2_joint": 1.7443932448377408,
            "wrist_3_joint": -3.0840537646736568
        }
    },
    "waypoints": [
        {
            "positions": [
                -2.967991417825858,
                -0.9740617694225068,
                1.7527959577737207,
                -0.759517768980727,
                1.7443932448377408,
                -3.0840537646736568
            ]
        },
        {
            "positions": [
                -2.9424235218400066,
                -0.9412167534832055,
                1.6521548256560457,
                -0.6907242951522519,
                1.6124946364336996,
                -3.091287375038829
            ]
        },
        {
            "positions": [
                -2.9168556258541556,
                -0.9083717375439043,
                1.5515136935383707,
                -0.6219308213237768,
                1.4805960280296584,
                -3.0985209854040012
            ]
        },
        {
            "positions": [
                -2.8912877298683046,
                -0.8755267216046031,
                1.4508725614206959,
                -0.5531373474953016,
                1.3486974196256172,
                -3.1057545957691737
            ]
        },
        {
            "positions": [
                -2.865719833882453,
                -0.8426817056653018,
                1.3502314293030209,
                -0.4843438736668265,
                1.216798811221576,
                -3.1129882061343457
            ]
        },
        {
            "positions": [
                -2.840151937896602,
                -0.8098366897260005,
                1.2495902971853459,
                -0.4155503998383514,
                1.0849002028175347,
                -3.120221816499518
            ]
        },
        {
            "positions": [
                -2.814584041910751,
                -0.7769916737866993,
                1.148949165067671,
                -0.3467569260098763,
                0.9530015944134935,
                -3.1274554268646906
            ]
        },
        {
            "positions": [
                -2.7890161459249,
                -0.7441466578473981,
                1.048308032949996,
                -0.2779634521814012,
                0.8211029860094524,
                -3.1346890372298626
            ]
        },
        {
            "positions": [
                -2.7634482499390485,
                -0.7113016419080969,
                0.947666900832321,
                -0.20916997835292606,
                0.6892043776054111,
                -3.141922647595035
            ]
        },
        {
            "positions": [
                -2.737880353953197,
                -0.6784566259687956,
                0.847025768714646,
                -0.14037650452445094,
                0.5573057692013699,
                -3.149156257960207
            ]
        },
        {
            "positions": [
                -2.712312457967346,
                -0.6456116100294944,
                0.746384636596971,
                -0.07158303069597581,
                0.42540716079732854,
                -3.1563898683253795
            ]
        }
    ]
}