{
    "goal": {
        "global_pose": {
            "orientation": {
                "w": 0.7047431468963623,
                "x": -0.7094548344612122,
                "y": 0.0024358443915843964,
                "z": -0.0022348060738295317
            },
            "position": {
                "x": 0.6094750761985779,
                "y": 0.3671506643295288,
                "z": 0.19426114857196808
            }
        },
        "name": "move_to_magneteinheit_A"
    },
    "id": "SPARS_move_to_magneteinheit_A_93",
    "joint_names": [
        "shoulder_pan_joint",
        "shoulder_lift_joint",
        "elbow_joint",
        "wrist_1_joint",
        "wrist_2_joint",
        "wrist_3_joint"
    ],
    "metrics": {
        "cart_traj_len": 3.4478514113349137,
        "distance_elbow_joint": 3.939584630712061,
        "distance_shoulder_lift_joint": 0.9206783411324891,
        "distance_shoulder_pan_joint": 3.0535744476574305,
        "distance_wrist_1_joint": 4.486723284599291,
        "distance_wrist_2_joint": 1.4300127915660257,
        "distance_wrist_3_joint": 2.52596611439127,
        "smoothness": 0.14810637571529683,
        "time": 5.034619726000001,
        "traj_len": 4.044321897433309,
        "weighted_distance": 5.22735190273301
    },
    "planner": "SPARS",
    "start": {
        "state": {
            "elbow_joint": -1.9196185241190666,
            "shoulder_lift_joint": -1.2443396400964142,
            "shoulder_pan_joint": 2.6996025414629847,
            "wrist_1_joint": -1.5485510000780065,
            "wrist_2_joint": -1.5709468930060704,
            "wrist_3_joint": 0.4420197071253992
        }
    },
    "waypoints": [
        {
            "positions": [
                2.6996025414629847,
                -1.2443396400964142,
                -1.9196185241190666,
                -1.5485510000780065,
                -1.5709468930060704,
                0.4420197071253992
            ]
        },
        {
            "positions": [
                2.5905142403328796,
                -1.2609216442234072,
                -1.7917645130573878,
                -1.5817631390020828,
                -1.5386266621791165,
                0.3666610687198639
            ]
        },
        {
            "positions": [
                2.481425939202774,
                -1.2775036483504003,
                -1.6639105019957088,
                -1.614975277926159,
                -1.5063064313521626,
                0.2913024303143286
            ]
        },
        {
            "positions": [
                2.372337638072669,
                -1.2940856524773934,
                -1.53605649093403,
                -1.648187416850235,
                -1.4739862005252087,
                0.21594379190879334
            ]
        },
        {
            "positions": [
                2.2632493369425637,
                -1.3106676566043864,
                -1.408202479872351,
                -1.6813995557743113,
                -1.4416659696982548,
                0.14058515350325806
            ]
        },
        {
            "positions": [
                2.154161035812458,
                -1.3272496607313795,
                -1.280348468810672,
                -1.7146116946983876,
                -1.4093457388713009,
                0.06522651509772276
            ]
        },
        {
            "positions": [
                2.045072734682353,
                -1.3438316648583726,
                -1.1524944577489933,
                -1.7478238336224639,
                -1.3770255080443472,
                -0.01013212330781249
            ]
        },
        {
            "positions": [
                1.9359844335522474,
                -1.3604136689853656,
                -1.0246404466873142,
                -1.78103597254654,
                -1.3447052772173933,
                -0.0854907617133478
            ]
        },
        {
            "positions": [
                1.8268961324221422,
                -1.3769956731123587,
                -0.8967864356256354,
                -1.8142481114706162,
                -1.3123850463904394,
                -0.16084940011888305
            ]
        },
        {
            "positions": [
                1.7178078312920366,
                -1.3935776772393518,
                -0.7689324245639564,
                -1.8474602503946924,
                -1.2800648155634855,
                -0.2362080385244184
            ]
        },
        {
            "positions": [
                1.6087195301619315,
                -1.4101596813663448,
                -0.6410784135022776,
                -1.8806723893187687,
                -1.2477445847365316,
                -0.31156667692995366
            ]
        },
        {
            "positions": [
                1.499631229031826,
                -1.426741685493338,
                -0.5132244024405985,
                -1.913884528242845,
                -1.2154243539095777,
                -0.3869253153354889
            ]
        },
        {
            "positions": [
                1.390542927901721,
                -1.443323689620331,
                -0.3853703913789197,
                -1.947096667166921,
                -1.1831041230826238,
                -0.46228395374102416
            ]
        },
        {
            "positions": [
                1.2814546267716156,
                -1.459905693747324,
                -0.25751638031724067,
                -1.9803088060909972,
                -1.15078389225567,
                -0.5376425921465595
            ]
        },
        {
            "positions": [
                1.1723663256415102,
                -1.476487697874317,
                -0.12966236925556196,
                -2.0135209450150735,
                -1.118463661428716,
                -0.6130012305520948
            ]
        },
        {
            "positions": [
                1.0758078645569595,
                -1.472873866645317,
                0.0033728294295393424,
                -1.9492728099414784,
                -1.0754684462702526,
                -0.6531196596589506
            ]
        },
        {
            "positions": [
                0.9792494034724087,
                -1.469260035416317,
                0.13640802811464064,
                -1.8850246748678832,
                -1.0324732311117892,
                -0.6932380887658065
            ]
        },
        {
            "positions": [
                0.882690942387858,
                -1.4656462041873168,
                0.269443226799742,
                -1.820776539794288,
                -0.989478015953326,
                -0.7333565178726623
            ]
        },
        {
            "positions": [
                0.7861324813033073,
                -1.4620323729583167,
                0.40247842548484325,
                -1.756528404720693,
                -0.9464828007948627,
                -0.7734749469795181
            ]
        },
        {
            "positions": [
                0.6895740202187564,
                -1.4584185417293167,
                0.5355136241699446,
                -1.6922802696470978,
                -0.9034875856363993,
                -0.813593376086374
            ]
        },
        {
            "positions": [
                0.5930155591342057,
                -1.4548047105003166,
                0.6685488228550459,
                -1.6280321345735027,
                -0.8604923704779359,
                -0.85371180519323
            ]
        },
        {
            "positions": [
                0.4964570980496549,
                -1.4511908792713164,
                0.8015840215401473,
                -1.5637839994999077,
                -0.8174971553194725,
                -0.8938302343000858
            ]
        },
        {
            "positions": [
                0.3998986369651042,
                -1.4475770480423165,
                0.9346192202252485,
                -1.4995358644263126,
                -0.7745019401610094,
                -0.9339486634069416
            ]
        },
        {
            "positions": [
                0.3033401758805534,
                -1.4439632168133163,
                1.06765441891035,
                -1.4352877293527173,
                -0.731506725002546,
                -0.9740670925137975
            ]
        },
        {
            "positions": [
                0.2067817147960026,
                -1.4403493855843161,
                1.2006896175954513,
                -1.371039594279122,
                -0.6885115098440826,
                -1.0141855216206535
            ]
        },
        {
            "positions": [
                0.11022325371145203,
                -1.4367355543553162,
                1.3337248162805526,
                -1.306791459205527,
                -0.6455162946856193,
                -1.0543039507275092
            ]
        },
        {
            "positions": [
                0.013664792626901179,
                -1.433121723126316,
                1.4667600149656537,
                -1.242543324131932,
                -0.602521079527156,
                -1.094422379834365
            ]
        },
        {
            "positions": [
                -0.018499050526413666,
                -1.4107695354700946,
                1.5340440283145242,
                -1.112868694912526,
                -0.5715646399076715,
                -1.0770487394307755
            ]
        },
        {
            "positions": [
                -0.05066289367972851,
                -1.388417347813873,
                1.6013280416633946,
                -0.9831940656931197,
                -0.5406082002881871,
                -1.059675099027186
            ]
        },
        {
            "positions": [
                -0.08282673683304335,
                -1.3660651601576514,
                1.6686120550122652,
                -0.8535194364737138,
                -0.5096517606687027,
                -1.0423014586235961
            ]
        },
        {
            "positions": [
                -0.11499057998635819,
                -1.34371297250143,
                1.7358960683611357,
                -0.7238448072543077,
                -0.4786953210492182,
                -1.0249278182200066
            ]
        },
        {
            "positions": [
                -0.09660740104727458,
                -1.3009625449643762,
                1.7577476097635865,
                -0.5136850224926569,
                -0.4527136887715894,
                -0.9541563208494567
            ]
        },
        {
            "positions": [
                -0.07822422210819097,
                -1.2582121174273224,
                1.7795991511660372,
                -0.30352523773100615,
                -0.4267320564939607,
                -0.8833848234789069
            ]
        },
        {
            "positions": [
                -0.059841043169107364,
                -1.2154616898902688,
                1.8014506925684879,
                -0.09336545296935539,
                -0.4007504242163319,
                -0.812613326108357
            ]
        },
        {
            "positions": [
                -0.04145786423002376,
                -1.172711262353215,
                1.8233022339709384,
                0.11679433179229537,
                -0.37476879193870316,
                -0.7418418287378072
            ]
        },
        {
            "positions": [
                -0.023074685290940145,
                -1.1299608348161612,
                1.845153775373389,
                0.32695411655394613,
                -0.3487871596610744,
                -0.6710703313672574
            ]
        },
        {
            "positions": [
                -0.004691506351856542,
                -1.0872104072791073,
                1.8670053167758398,
                0.5371139013155969,
                -0.3228055273834456,
                -0.6002988339967075
            ]
        },
        {
            "positions": [
                0.013691672587227047,
                -1.0444599797420535,
                1.8888568581782905,
                0.7472736860772476,
                -0.29682389510581686,
                -0.5295273366261577
            ]
        },
        {
            "positions": [
                0.03207485152631066,
                -1.001709552205,
                1.9107083995807412,
                0.9574334708388984,
                -0.27084226282818813,
                -0.4587558392556078
            ]
        },
        {
            "positions": [
                0.05045803046539425,
                -0.9589591246679461,
                1.932559940983192,
                1.1675932556005493,
                -0.24486063055055937,
                -0.38798434188505804
            ]
        },
        {
            "positions": [
                0.0688412094044779,
                -0.9162086971308923,
                1.9544114823856424,
                1.3777530403622,
                -0.21887899827293056,
                -0.31721284451450815
            ]
        },
        {
            "positions": [
                0.08722438834356148,
                -0.8734582695938384,
                1.9762630237880932,
                1.5879128251238508,
                -0.19289736599530183,
                -0.24644134714395838
            ]
        },
        {
            "positions": [
                0.1056075672826451,
                -0.8307078420567846,
                1.9981145651905439,
                1.7980726098855015,
                -0.16691573371767304,
                -0.1756698497734085
            ]
        },
        {
            "positions": [
                0.12399074622172869,
                -0.7879574145197309,
                2.0199661065929946,
                2.0082323946471523,
                -0.1409341014400443,
                -0.10489835240285872
            ]
        }
    ]
}