{
    "goal": {
        "global_pose": {
            "orientation": {
                "w": 0.005598929693374612,
                "x": 0.007748599140229565,
                "y": 0.7110244013736278,
                "z": -0.7031023480610252
            },
            "position": {
                "x": 0.1141497679147869,
                "y": -0.7141253447532654,
                "z": 0.3711530566215515
            }
        },
        "name": "move_to_auspresseinheit_B"
    },
    "id": "SPARS_move_to_auspresseinheit_B_7",
    "joint_names": [
        "shoulder_pan_joint",
        "shoulder_lift_joint",
        "elbow_joint",
        "wrist_1_joint",
        "wrist_2_joint",
        "wrist_3_joint"
    ],
    "metrics": {
        "cart_traj_len": 0.5653857328565902,
        "distance_elbow_joint": 0.06496062464312868,
        "distance_shoulder_lift_joint": 0.2948400361672976,
        "distance_shoulder_pan_joint": 0.5790058132049509,
        "distance_wrist_1_joint": 0.3355929918422096,
        "distance_wrist_2_joint": 0.9868226031348719,
        "distance_wrist_3_joint": 0.009531536690668307,
        "smoothness": 3.806478935924272e-16,
        "time": 5.011245951,
        "traj_len": 1.506901989408444,
        "weighted_distance": 1.9005873497531087
    },
    "planner": "SPARS",
    "start": {
        "state": {
            "elbow_joint": 2.0193083361928714,
            "shoulder_lift_joint": -1.1220246554650708,
            "shoulder_pan_joint": -1.0952077554168747,
            "wrist_1_joint": -0.8559753972642168,
            "wrist_2_joint": 0.4759566250798843,
            "wrist_3_joint": -3.1240929996934557
        }
    },
    "waypoints": [
        {
            "positions": [
                -1.0952077554168747,
                -1.1220246554650708,
                2.0193083361928714,
                -0.8559753972642168,
                0.4759566250798843,
                -3.1240929996934557
            ]
        },
        {
            "positions": [
                -1.1917087242843665,
                -1.1711646614929538,
                2.0084815654190167,
                -0.8000432319571819,
                0.6404270589356963,
                -3.122504410245011
            ]
        },
        {
            "positions": [
                -1.2882096931518583,
                -1.2203046675208367,
                1.997654794645162,
                -0.7441110666501469,
                0.8048974927915082,
                -3.1209158207965664
            ]
        },
        {
            "positions": [
                -1.3847106620193501,
                -1.2694446735487195,
                1.9868280238713072,
                -0.688178901343112,
                0.9693679266473203,
                -3.1193272313481213
            ]
        },
        {
            "positions": [
                -1.481211630886842,
                -1.3185846795766025,
                1.9760012530974522,
                -0.6322467360360771,
                1.1338383605031321,
                -3.1177386418996766
            ]
        },
        {
            "positions": [
                -1.5777125997543338,
                -1.3677246856044856,
                1.9651744823235975,
                -0.5763145707290421,
                1.2983087943589442,
                -3.116150052451232
            ]
        },
        {
            "positions": [
                -1.6742135686218256,
                -1.4168646916323684,
                1.9543477115497427,
                -0.5203824054220072,
                1.4627792282147563,
                -3.1145614630027874
            ]
        }
    ]
}