{
    "goal": {
        "global_pose": {
            "orientation": {
                "w": 0.7047431468963623,
                "x": -0.7094548344612122,
                "y": 0.0024358443915843964,
                "z": -0.0022348060738295317
            },
            "position": {
                "x": 0.6094750761985779,
                "y": 0.3671506643295288,
                "z": 0.19426114857196808
            }
        },
        "name": "move_to_magneteinheit_A"
    },
    "id": "SPARStwo_move_to_magneteinheit_A_139",
    "joint_names": [
        "shoulder_pan_joint",
        "shoulder_lift_joint",
        "elbow_joint",
        "wrist_1_joint",
        "wrist_2_joint",
        "wrist_3_joint"
    ],
    "metrics": {
        "cart_traj_len": 3.889101748846829,
        "distance_elbow_joint": 3.910458641993827,
        "distance_shoulder_lift_joint": 0.4668871549733409,
        "distance_shoulder_pan_joint": 3.6363229294633377,
        "distance_wrist_1_joint": 3.4602535066195284,
        "distance_wrist_2_joint": 1.9938024952811375,
        "distance_wrist_3_joint": 0.42581405320863397,
        "smoothness": 0.27576520146741795,
        "time": 5.030842267,
        "traj_len": 3.7274037588568003,
        "weighted_distance": 4.49435455764871
    },
    "planner": "SPARStwo",
    "start": {
        "state": {
            "elbow_joint": -1.9196185241190666,
            "shoulder_lift_joint": -1.2443396400964142,
            "shoulder_pan_joint": 2.6996025414629847,
            "wrist_1_joint": -1.5485510000780065,
            "wrist_2_joint": -1.5709468930060704,
            "wrist_3_joint": 0.4420197071253992
        }
    },
    "waypoints": [
        {
            "positions": [
                2.6996025414629847,
                -1.2443396400964142,
                -1.9196185241190666,
                -1.5485510000780065,
                -1.5709468930060704,
                0.4420197071253992
            ]
        },
        {
            "positions": [
                2.5924755806272,
                -1.2283410346789723,
                -1.8172821483998503,
                -1.4573925963549748,
                -1.5117431980262899,
                0.42900611621854884
            ]
        },
        {
            "positions": [
                2.4853486197914147,
                -1.2123424292615304,
                -1.7149457726806339,
                -1.366234192631943,
                -1.4525395030465094,
                0.4159925253116985
            ]
        },
        {
            "positions": [
                2.37822165895563,
                -1.1963438238440884,
                -1.6126093969614175,
                -1.2750757889089113,
                -1.3933358080667289,
                0.40297893440484817
            ]
        },
        {
            "positions": [
                2.271094698119845,
                -1.1803452184266465,
                -1.510273021242201,
                -1.1839173851858797,
                -1.3341321130869486,
                0.38996534349799783
            ]
        },
        {
            "positions": [
                2.16396773728406,
                -1.1643466130092046,
                -1.4079366455229847,
                -1.0927589814628478,
                -1.274928418107168,
                0.3769517525911475
            ]
        },
        {
            "positions": [
                2.0568407764482752,
                -1.1483480075917627,
                -1.3056002698037685,
                -1.0016005777398163,
                -1.2157247231273876,
                0.36393816168429716
            ]
        },
        {
            "positions": [
                1.9497138156124905,
                -1.1323494021743208,
                -1.2032638940845521,
                -0.9104421740167844,
                -1.156521028147607,
                0.3509245707774469
            ]
        },
        {
            "positions": [
                1.8425868547767055,
                -1.1163507967568789,
                -1.1009275183653358,
                -0.8192837702937528,
                -1.0973173331678265,
                0.3379109798705965
            ]
        },
        {
            "positions": [
                1.7354598939409205,
                -1.1003521913394372,
                -0.9985911426461194,
                -0.728125366570721,
                -1.038113638188046,
                0.3248973889637462
            ]
        },
        {
            "positions": [
                1.6283329331051355,
                -1.084353585921995,
                -0.896254766926903,
                -0.6369669628476893,
                -0.9789099432082655,
                0.3118837980568958
            ]
        },
        {
            "positions": [
                1.5212059722693507,
                -1.0683549805045534,
                -0.7939183912076868,
                -0.5458085591246575,
                -0.9197062482284851,
                0.29887020715004553
            ]
        },
        {
            "positions": [
                1.414079011433566,
                -1.0523563750871114,
                -0.6915820154884704,
                -0.4546501554016258,
                -0.8605025532487046,
                0.2858566162431952
            ]
        },
        {
            "positions": [
                1.306952050597781,
                -1.0363577696696695,
                -0.589245639769254,
                -0.36349175167859404,
                -0.8012988582689241,
                0.27284302533634486
            ]
        },
        {
            "positions": [
                1.199825089761996,
                -1.0203591642522276,
                -0.48690926405003765,
                -0.2723333479555623,
                -0.7420951632891437,
                0.2598294344294945
            ]
        },
        {
            "positions": [
                1.092698128926211,
                -1.0043605588347857,
                -0.38457288833082126,
                -0.18117494423253055,
                -0.6828914683093632,
                0.24681584352264418
            ]
        },
        {
            "positions": [
                0.9855711680904262,
                -0.9883619534173438,
                -0.2822365126116049,
                -0.09001654050949903,
                -0.6236877733295828,
                0.23380225261579385
            ]
        },
        {
            "positions": [
                0.8784442072546415,
                -0.9723633479999019,
                -0.1799001368923887,
                0.0011418632135327123,
                -0.5644840783498024,
                0.22078866170894354
            ]
        },
        {
            "positions": [
                0.7713172464188565,
                -0.95636474258246,
                -0.0775637611731721,
                0.09230026693656446,
                -0.5052803833700217,
                0.20777507080209318
            ]
        },
        {
            "positions": [
                0.6641902855830715,
                -0.940366137165018,
                0.02477261454604407,
                0.1834586706595962,
                -0.4460766883902414,
                0.19476147989524287
            ]
        },
        {
            "positions": [
                0.5570633247472863,
                -0.9243675317475761,
                0.12710899026526068,
                0.27461707438262795,
                -0.38687299341046066,
                0.1817478889883925
            ]
        },
        {
            "positions": [
                0.4499363639115015,
                -0.9083689263301342,
                0.22944536598447707,
                0.3657754781056597,
                -0.3276692984306804,
                0.16873429808154217
            ]
        },
        {
            "positions": [
                0.3428094030757167,
                -0.8923703209126923,
                0.331781741703693,
                0.45693388182869143,
                -0.26846560345089987,
                0.15572070717469189
            ]
        },
        {
            "positions": [
                0.23568244223993196,
                -0.8763717154952504,
                0.43411811742290984,
                0.548092285551723,
                -0.20926190847111936,
                0.1427071162678415
            ]
        },
        {
            "positions": [
                0.1285554814041472,
                -0.8603731100778085,
                0.5364544931421258,
                0.6392506892747549,
                -0.15005821349133885,
                0.1296935253609912
            ]
        },
        {
            "positions": [
                0.02142852056836242,
                -0.8443745046603667,
                0.6387908688613422,
                0.7304090929977864,
                -0.09085451851155857,
                0.11667993445414088
            ]
        },
        {
            "positions": [
                -0.08569844026742279,
                -0.8283758992429247,
                0.7411272445805586,
                0.8215674967208184,
                -0.03165082353177784,
                0.10366634354729054
            ]
        },
        {
            "positions": [
                -0.19282540110320756,
                -0.8123772938254828,
                0.843463620299775,
                0.9127259004438499,
                0.027552871448002447,
                0.0906527526404402
            ]
        },
        {
            "positions": [
                -0.2999523619389928,
                -0.7963786884080408,
                0.9457999960189913,
                1.003884304166882,
                0.08675656642778296,
                0.07763916173358987
            ]
        },
        {
            "positions": [
                -0.40707932277477754,
                -0.780380082990599,
                1.0481363717382077,
                1.0950427078899134,
                0.14596026140756335,
                0.06462557082673952
            ]
        },
        {
            "positions": [
                -0.3314163134568383,
                -0.7799618547238096,
                1.1828083354720011,
                1.211708393411572,
                0.10640378414077711,
                0.05770843983960034
            ]
        },
        {
            "positions": [
                -0.255753304138899,
                -0.7795436264570202,
                1.3174802992057946,
                1.3283740789332303,
                0.06684730687399086,
                0.050791308852461164
            ]
        },
        {
            "positions": [
                -0.18009029482095976,
                -0.7791253981902309,
                1.452152262939588,
                1.445039764454889,
                0.027290829607204622,
                0.043874177865321995
            ]
        },
        {
            "positions": [
                -0.1044272855030205,
                -0.7787071699234415,
                1.5868242266733814,
                1.5617054499765475,
                -0.01226564765958163,
                0.03695704687818282
            ]
        },
        {
            "positions": [
                -0.028764276185081206,
                -0.7782889416566521,
                1.7214961904071748,
                1.6783711354982058,
                -0.051822124926367896,
                0.030039915891043642
            ]
        },
        {
            "positions": [
                0.04689873313285803,
                -0.7778707133898627,
                1.8561681541409683,
                1.7950368210198644,
                -0.09137860219315411,
                0.023122784903904466
            ]
        },
        {
            "positions": [
                0.12256174245079732,
                -0.7774524851230733,
                1.9908401178747617,
                1.911702506541523,
                -0.13093507945994037,
                0.016205653916765286
            ]
        }
    ]
}