{
    "goal": {
        "global_pose": {
            "orientation": {
                "w": 0.5084816217422485,
                "x": -0.49083608388900757,
                "y": 0.5182115435600281,
                "z": -0.4816462993621826
            },
            "position": {
                "x": 0.5540239810943604,
                "y": 0.030875300988554955,
                "z": 0.16403168439865112
            }
        },
        "name": "move_to_storage_A"
    },
    "id": "SPARStwo_move_to_storage_A_5",
    "joint_names": [
        "shoulder_pan_joint",
        "shoulder_lift_joint",
        "elbow_joint",
        "wrist_1_joint",
        "wrist_2_joint",
        "wrist_3_joint"
    ],
    "metrics": {
        "cart_traj_len": 0.35393454952439535,
        "distance_elbow_joint": 0.45316783498012914,
        "distance_shoulder_lift_joint": 0.23281022115456507,
        "distance_shoulder_pan_joint": 0.46479650882605517,
        "distance_wrist_1_joint": 0.2599603725234094,
        "distance_wrist_2_joint": 1.091285531098314,
        "distance_wrist_3_joint": 0.10768542504460932,
        "smoothness": 0.0,
        "time": 5.000147662000001,
        "traj_len": 1.6154584159386718,
        "weighted_distance": 2.043605306153325
    },
    "planner": "SPARStwo",
    "start": {
        "state": {
            "elbow_joint": 1.9715481507254546,
            "shoulder_lift_joint": -1.1394850672790213,
            "shoulder_pan_joint": 0.12281154597544902,
            "wrist_1_joint": -0.7804720171073349,
            "wrist_2_joint": 0.12958658322886563,
            "wrist_3_joint": -3.1924895760937617
        }
    },
    "waypoints": [
        {
            "positions": [
                0.12281154597544902,
                -1.1394850672790213,
                1.9715481507254546,
                -0.7804720171073349,
                0.12958658322886563,
                -3.1924895760937617
            ]
        },
        {
            "positions": [
                0.056412044714584,
                -1.172743670301102,
                2.036286412865473,
                -0.8176092131821077,
                0.2854845162429105,
                -3.177105943944532
            ]
        },
        {
            "positions": [
                -0.009987456546281026,
                -1.2060022733231828,
                2.1010246750054917,
                -0.8547464092568805,
                0.44138244925695536,
                -3.1617223117953017
            ]
        },
        {
            "positions": [
                -0.07638695780714605,
                -1.2392608763452635,
                2.16576293714551,
                -0.8918836053316532,
                0.5972803822710002,
                -3.146338679646072
            ]
        },
        {
            "positions": [
                -0.14278645906801107,
                -1.2725194793673442,
                2.2305011992855284,
                -0.9290208014064261,
                0.7531783152850451,
                -3.130955047496842
            ]
        },
        {
            "positions": [
                -0.2091859603288761,
                -1.305778082389425,
                2.295239461425547,
                -0.9661579974811988,
                0.90907624829909,
                -3.1155714153476124
            ]
        },
        {
            "positions": [
                -0.2755854615897411,
                -1.3390366854115057,
                2.3599777235655655,
                -1.0032951935559715,
                1.0649741813131348,
                -3.100187783198382
            ]
        },
        {
            "positions": [
                -0.34198496285060614,
                -1.3722952884335864,
                2.4247159857055838,
                -1.0404323896307444,
                1.2208721143271797,
                -3.0848041510491524
            ]
        }
    ]
}