{
    "goal": {
        "global_pose": {
            "orientation": {
                "w": 0.005598929693374612,
                "x": 0.007748599140229565,
                "y": 0.7110244013736278,
                "z": -0.7031023480610252
            },
            "position": {
                "x": 0.1141497679147869,
                "y": -0.7141253447532654,
                "z": 0.3711530566215515
            }
        },
        "name": "move_to_auspresseinheit_B"
    },
    "id": "SPARS_move_to_auspresseinheit_B_67",
    "joint_names": [
        "shoulder_pan_joint",
        "shoulder_lift_joint",
        "elbow_joint",
        "wrist_1_joint",
        "wrist_2_joint",
        "wrist_3_joint"
    ],
    "metrics": {
        "cart_traj_len": 0.5639136954704858,
        "distance_elbow_joint": 0.05829947311236561,
        "distance_shoulder_lift_joint": 0.29587664297674054,
        "distance_shoulder_pan_joint": 0.5776407683969371,
        "distance_wrist_1_joint": 0.31634936720423623,
        "distance_wrist_2_joint": 0.9896587375359829,
        "distance_wrist_3_joint": 0.004835484589458705,
        "smoothness": 0.0,
        "time": 5.0011945010000005,
        "traj_len": 1.4975514928761953,
        "weighted_distance": 1.8863561561208047
    },
    "planner": "SPARS",
    "start": {
        "state": {
            "elbow_joint": 2.0193083361928714,
            "shoulder_lift_joint": -1.1220246554650708,
            "shoulder_pan_joint": -1.0952077554168747,
            "wrist_1_joint": -0.8559753972642168,
            "wrist_2_joint": 0.4759566250798843,
            "wrist_3_joint": -3.1240929996934557
        }
    },
    "waypoints": [
        {
            "positions": [
                -1.0952077554168747,
                -1.1220246554650708,
                2.0193083361928714,
                -0.8559753972642168,
                0.4759566250798843,
                -3.1240929996934557
            ]
        },
        {
            "positions": [
                -1.1914812168163642,
                -1.1713374292945276,
                2.0095917573408104,
                -0.8032505027301774,
                0.6408997480025481,
                -3.1232870855952126
            ]
        },
        {
            "positions": [
                -1.2877546782158538,
                -1.2206502031239843,
                1.9998751784887496,
                -0.750525608196138,
                0.8058428709252119,
                -3.1224811714969696
            ]
        },
        {
            "positions": [
                -1.384028139615343,
                -1.269962976953441,
                1.9901585996366886,
                -0.6978007136620987,
                0.9707859938478758,
                -3.121675257398726
            ]
        },
        {
            "positions": [
                -1.4803016010148327,
                -1.3192757507828978,
                1.9804420207846276,
                -0.6450758191280593,
                1.1357291167705394,
                -3.120869343300483
            ]
        },
        {
            "positions": [
                -1.5765750624143222,
                -1.3685885246123546,
                1.9707254419325668,
                -0.59235092459402,
                1.3006722396932033,
                -3.12006342920224
            ]
        },
        {
            "positions": [
                -1.6728485238138118,
                -1.4179012984418113,
                1.9610088630805058,
                -0.5396260300599806,
                1.4656153626158672,
                -3.119257515103997
            ]
        }
    ]
}