{
    "goal": {
        "global_pose": {
            "orientation": {
                "w": 0.7031023502349854,
                "x": -0.7110244035720825,
                "y": 0.007748599164187908,
                "z": 0.005598929710686207
            },
            "position": {
                "x": 0.11585023208521307,
                "y": 0.44412534475326537,
                "z": 0.3711530566215515
            }
        },
        "name": "move_to_auspresseinheit_A"
    },
    "id": "SPARStwo_move_to_auspresseinheit_A_99",
    "joint_names": [
        "shoulder_pan_joint",
        "shoulder_lift_joint",
        "elbow_joint",
        "wrist_1_joint",
        "wrist_2_joint",
        "wrist_3_joint"
    ],
    "metrics": {
        "cart_traj_len": 0.7358443250305764,
        "distance_elbow_joint": 0.0973664824748508,
        "distance_shoulder_lift_joint": 0.5370062902572306,
        "distance_shoulder_pan_joint": 1.250924099611539,
        "distance_wrist_1_joint": 0.5571371474334386,
        "distance_wrist_2_joint": 0.5557749538844161,
        "distance_wrist_3_joint": 1.4623240596692382,
        "smoothness": 0.9587492868418882,
        "time": 5.012226523,
        "traj_len": 2.1119974037225315,
        "weighted_distance": 2.915148924838497
    },
    "planner": "SPARStwo",
    "start": {
        "state": {
            "elbow_joint": 2.4225746658250005,
            "shoulder_lift_joint": -1.3736534386056498,
            "shoulder_pan_joint": -0.3378633547517467,
            "wrist_1_joint": -1.0288598680537169,
            "wrist_2_joint": 1.233022673432363,
            "wrist_3_joint": -3.0940220416140027
        }
    },
    "waypoints": [
        {
            "positions": [
                -0.3378633547517467,
                -1.3736534386056498,
                2.4225746658250005,
                -1.0288598680537169,
                1.233022673432363,
                -3.0940220416140027
            ]
        },
        {
            "positions": [
                -0.3633422432896192,
                -1.40264023235145,
                2.431208199351223,
                -0.9370537772657342,
                1.2385075109793242,
                -2.9147192193407863
            ]
        },
        {
            "positions": [
                -0.3888211318274917,
                -1.4316270260972503,
                2.4398417328774453,
                -0.8452476864777516,
                1.2439923485262856,
                -2.7354163970675702
            ]
        },
        {
            "positions": [
                -0.4143000203653642,
                -1.4606138198430505,
                2.4484752664036677,
                -0.753441595689769,
                1.2494771860732468,
                -2.556113574794354
            ]
        },
        {
            "positions": [
                -0.4397789089032367,
                -1.4896006135888507,
                2.45710879992989,
                -0.6616355049017864,
                1.254962023620208,
                -2.3768107525211377
            ]
        },
        {
            "positions": [
                -0.29615284072073056,
                -1.5422330029981044,
                2.449254756383645,
                -0.6378964068665979,
                1.1882325731581365,
                -2.4699498488431844
            ]
        },
        {
            "positions": [
                -0.15252677253822444,
                -1.5948653924073581,
                2.4414007128374,
                -0.6141573088314093,
                1.121503122696065,
                -2.563088945165231
            ]
        },
        {
            "positions": [
                -0.008900704355718325,
                -1.6474977818166119,
                2.4335466692911547,
                -0.5904182107962208,
                1.0547736722339938,
                -2.6562280414872776
            ]
        },
        {
            "positions": [
                0.1347253638267878,
                -1.7001301712258656,
                2.42569262574491,
                -0.5666791127610323,
                0.9880442217719223,
                -2.7493671378093243
            ]
        },
        {
            "positions": [
                0.2783514320092939,
                -1.7527625606351194,
                2.4178385821986645,
                -0.5429400147258439,
                0.9213147713098508,
                -2.842506234131371
            ]
        },
        {
            "positions": [
                0.4219775001918,
                -1.805394950044373,
                2.4099845386524192,
                -0.5192009166906553,
                0.8545853208477795,
                -2.9356453304534176
            ]
        },
        {
            "positions": [
                0.5656035683743061,
                -1.8580273394536266,
                2.4021304951061744,
                -0.4954618186554668,
                0.7878558703857081,
                -3.0287844267754642
            ]
        },
        {
            "positions": [
                0.7092296365568121,
                -1.9106597288628804,
                2.394276451559929,
                -0.47172272062027826,
                0.7211264199236367,
                -3.121923523097511
            ]
        }
    ]
}