{
    "goal": {
        "global_pose": {
            "orientation": {
                "w": 0.7031023502349854,
                "x": -0.7110244035720825,
                "y": 0.007748599164187908,
                "z": 0.005598929710686207
            },
            "position": {
                "x": 0.11585023208521307,
                "y": 0.44412534475326537,
                "z": 0.3711530566215515
            }
        },
        "name": "move_to_auspresseinheit_A"
    },
    "id": "SPARS_move_to_auspresseinheit_A_132",
    "joint_names": [
        "shoulder_pan_joint",
        "shoulder_lift_joint",
        "elbow_joint",
        "wrist_1_joint",
        "wrist_2_joint",
        "wrist_3_joint"
    ],
    "metrics": {
        "cart_traj_len": 0.9195275132778018,
        "distance_elbow_joint": 0.3540403303164217,
        "distance_shoulder_lift_joint": 1.0751413072886666,
        "distance_shoulder_pan_joint": 1.041967299811224,
        "distance_wrist_1_joint": 1.1891269308853745,
        "distance_wrist_2_joint": 0.9937020747125943,
        "distance_wrist_3_joint": 0.13945442018380794,
        "smoothness": 1.7397758976596442,
        "time": 5.041738656000001,
        "traj_len": 2.1893908657884937,
        "weighted_distance": 2.6935423162006704
    },
    "planner": "SPARS",
    "start": {
        "state": {
            "elbow_joint": 2.4225746658250005,
            "shoulder_lift_joint": -1.3736534386056498,
            "shoulder_pan_joint": -0.3378633547517467,
            "wrist_1_joint": -1.0288598680537169,
            "wrist_2_joint": 1.233022673432363,
            "wrist_3_joint": -3.0940220416140027
        }
    },
    "waypoints": [
        {
            "positions": [
                -0.3378633547517467,
                -1.3736534386056498,
                2.4225746658250005,
                -1.0288598680537169,
                1.233022673432363,
                -3.0940220416140027
            ]
        },
        {
            "positions": [
                -0.24419201212359054,
                -1.4630187877750662,
                2.4012302733273354,
                -0.9317545429194247,
                1.1482436966609293,
                -3.08802362553551
            ]
        },
        {
            "positions": [
                -0.15052066949543438,
                -1.5523841369444826,
                2.37988588082967,
                -0.8346492177851326,
                1.0634647198894958,
                -3.0820252094570164
            ]
        },
        {
            "positions": [
                -0.05684932686727823,
                -1.641749486113899,
                2.358541488332005,
                -0.7375438926508404,
                0.978685743118062,
                -3.0760267933785235
            ]
        },
        {
            "positions": [
                0.03682201576087796,
                -1.7311148352833154,
                2.3371970958343398,
                -0.6404385675165483,
                0.8939067663466284,
                -3.0700283773000305
            ]
        },
        {
            "positions": [
                0.1304933583890342,
                -1.820480184452732,
                2.3158527033366743,
                -0.5433332423822559,
                0.8091277895751946,
                -3.064029961221537
            ]
        },
        {
            "positions": [
                0.22416470101719027,
                -1.9098455336221485,
                2.294508310839009,
                -0.44622791724796385,
                0.724348812803761,
                -3.058031545143044
            ]
        },
        {
            "positions": [
                0.3178360436453465,
                -1.999210882791565,
                2.273163918341344,
                -0.3491225921136716,
                0.6395698360323273,
                -3.0520331290645513
            ]
        },
        {
            "positions": [
                0.41150738627350264,
                -2.0885762319609813,
                2.2518195258436786,
                -0.25201726697937954,
                0.5547908592608937,
                -3.046034712986058
            ]
        },
        {
            "positions": [
                0.5051787289016589,
                -2.1779415811303977,
                2.2304751333460135,
                -0.15491194184508733,
                0.4700118824894599,
                -3.040036296907565
            ]
        },
        {
            "positions": [
                0.5549100329411135,
                -2.110228289939418,
                2.2709603328053722,
                -0.23370669301427355,
                0.5276847034318827,
                -3.0614034657769076
            ]
        },
        {
            "positions": [
                0.6046413369805681,
                -2.0425149987484383,
                2.311445532264731,
                -0.3125014441834597,
                0.5853575243743054,
                -3.0827706346462502
            ]
        },
        {
            "positions": [
                0.6543726410200226,
                -1.9748017075574587,
                2.3519307317240896,
                -0.3912961953526459,
                0.6430303453167283,
                -3.1041378035155924
            ]
        },
        {
            "positions": [
                0.7041039450594772,
                -1.907088416366479,
                2.3924159311834483,
                -0.47009094652183214,
                0.7007031662591511,
                -3.125504972384935
            ]
        }
    ]
}