{
    "goal": {
        "global_pose": {
            "orientation": {
                "w": 0.7031023502349854,
                "x": -0.7110244035720825,
                "y": 0.007748599164187908,
                "z": 0.005598929710686207
            },
            "position": {
                "x": 0.11585023208521307,
                "y": 0.44412534475326537,
                "z": 0.3711530566215515
            }
        },
        "name": "move_to_auspresseinheit_A"
    },
    "id": "SPARS_move_to_auspresseinheit_A_51",
    "joint_names": [
        "shoulder_pan_joint",
        "shoulder_lift_joint",
        "elbow_joint",
        "wrist_1_joint",
        "wrist_2_joint",
        "wrist_3_joint"
    ],
    "metrics": {
        "cart_traj_len": 0.9134241053106369,
        "distance_elbow_joint": 0.0458946796426436,
        "distance_shoulder_lift_joint": 0.5406771515342401,
        "distance_shoulder_pan_joint": 1.4279246800365262,
        "distance_wrist_1_joint": 0.5508350483307249,
        "distance_wrist_2_joint": 0.5392469191158724,
        "distance_wrist_3_joint": 0.2665486122376284,
        "smoothness": 1.366671465728271,
        "time": 5.0508896530000005,
        "traj_len": 1.836062932172434,
        "weighted_distance": 2.2347944609783448
    },
    "planner": "SPARS",
    "start": {
        "state": {
            "elbow_joint": 2.4225746658250005,
            "shoulder_lift_joint": -1.3736534386056498,
            "shoulder_pan_joint": -0.3378633547517467,
            "wrist_1_joint": -1.0288598680537169,
            "wrist_2_joint": 1.233022673432363,
            "wrist_3_joint": -3.0940220416140027
        }
    },
    "waypoints": [
        {
            "positions": [
                -0.3378633547517467,
                -1.3736534386056498,
                2.4225746658250005,
                -1.0288598680537169,
                1.233022673432363,
                -3.0940220416140027
            ]
        },
        {
            "positions": [
                -0.43320557229855194,
                -1.3939202426487465,
                2.4074006153126564,
                -1.026903909098952,
                1.238738744708201,
                -3.03417607090306
            ]
        },
        {
            "positions": [
                -0.5285477898453572,
                -1.4141870466918434,
                2.3922265648003123,
                -1.024947950144187,
                1.2444548159840387,
                -2.9743301001921165
            ]
        },
        {
            "positions": [
                -0.3857170409608087,
                -1.4765958353086832,
                2.391558663688847,
                -0.9581471967840037,
                1.1806193627354846,
                -2.987253751647871
            ]
        },
        {
            "positions": [
                -0.24288629207626022,
                -1.539004623925523,
                2.3908907625773814,
                -0.8913464434238205,
                1.1167839094869307,
                -3.000177403103625
            ]
        },
        {
            "positions": [
                -0.10005554319171173,
                -1.601413412542363,
                2.3902228614659156,
                -0.8245456900636372,
                1.0529484562383766,
                -3.0131010545593795
            ]
        },
        {
            "positions": [
                0.04277520569283677,
                -1.6638222011592028,
                2.38955496035445,
                -0.7577449367034541,
                0.9891130029898225,
                -3.026024706015134
            ]
        },
        {
            "positions": [
                0.18560595457738527,
                -1.7262309897760426,
                2.3888870592429847,
                -0.6909441833432708,
                0.9252775497412685,
                -3.038948357470888
            ]
        },
        {
            "positions": [
                0.32843670346193377,
                -1.7886397783928827,
                2.388219158131519,
                -0.6241434299830876,
                0.8614420964927145,
                -3.0518720089266425
            ]
        },
        {
            "positions": [
                0.47126745234648226,
                -1.8510485670097225,
                2.3875512570200534,
                -0.5573426766229044,
                0.7976066432441604,
                -3.0647956603823965
            ]
        },
        {
            "positions": [
                0.6140982012310306,
                -1.9134573556265624,
                2.386883355908588,
                -0.49054192326272117,
                0.7337711899956064,
                -3.077719311838151
            ]
        },
        {
            "positions": [
                0.7086924550975584,
                -1.9125841211132348,
                2.397086725634819,
                -0.4780248197229919,
                0.716640039419842,
                -3.1211867710078587
            ]
        }
    ]
}