{
    "goal": {
        "global_pose": {
            "orientation": {
                "w": 0.5084816262002911,
                "x": -0.4908360881923452,
                "y": 0.5182115481033761,
                "z": -0.48164630358495003
            },
            "position": {
                "x": 0.5540239810943604,
                "y": -0.46912469901144505,
                "z": 0.16403168439865112
            }
        },
        "name": "move_to_storage_B"
    },
    "id": "SPARS_move_to_storage_B_132",
    "joint_names": [
        "shoulder_pan_joint",
        "shoulder_lift_joint",
        "elbow_joint",
        "wrist_1_joint",
        "wrist_2_joint",
        "wrist_3_joint"
    ],
    "metrics": {
        "cart_traj_len": 5.578501153377662,
        "distance_elbow_joint": 4.765479421639195,
        "distance_shoulder_lift_joint": 0.614351675095443,
        "distance_shoulder_pan_joint": 5.233637830544653,
        "distance_wrist_1_joint": 3.0286236854425352,
        "distance_wrist_2_joint": 2.719313651323003,
        "distance_wrist_3_joint": 3.173396446837597,
        "smoothness": 0.3112500600189204,
        "time": 5.061607543999999,
        "traj_len": 4.4198193074923795,
        "weighted_distance": 5.624013952803029
    },
    "planner": "SPARS",
    "start": {
        "state": {
            "elbow_joint": 1.664937868594044,
            "shoulder_lift_joint": -0.661644460510453,
            "shoulder_pan_joint": -0.9139846352900073,
            "wrist_1_joint": 2.146753192139373,
            "wrist_2_joint": -2.2341966793290973,
            "wrist_3_joint": 0.005466555786416001
        }
    },
    "waypoints": [
        {
            "positions": [
                -0.9139846352900073,
                -0.661644460510453,
                1.664937868594044,
                2.146753192139373,
                -2.2341966793290973,
                0.005466555786416001
            ]
        },
        {
            "positions": [
                -0.8204015756264149,
                -0.6815992288211452,
                1.5833956812345629,
                2.077842880036539,
                -2.141381172599337,
                0.03615854690073698
            ]
        },
        {
            "positions": [
                -0.7268185159628225,
                -0.7015539971318375,
                1.5018534938750816,
                2.0089325679337047,
                -2.048565665869577,
                0.06685053801505796
            ]
        },
        {
            "positions": [
                -0.6332354562992302,
                -0.7215087654425297,
                1.4203113065156003,
                1.9400222558308704,
                -1.9557501591398168,
                0.09754252912937893
            ]
        },
        {
            "positions": [
                -0.5396523966356377,
                -0.7414635337532219,
                1.3387691191561193,
                1.8711119437280361,
                -1.8629346524100565,
                0.1282345202436999
            ]
        },
        {
            "positions": [
                -0.44606933697204537,
                -0.7614183020639141,
                1.2572269317966382,
                1.8022016316252019,
                -1.7701191456802965,
                0.15892651135802086
            ]
        },
        {
            "positions": [
                -0.35248627730845306,
                -0.7813730703746065,
                1.175684744437157,
                1.7332913195223676,
                -1.6773036389505362,
                0.18961850247234185
            ]
        },
        {
            "positions": [
                -0.2589032176448607,
                -0.8013278386852987,
                1.0941425570776757,
                1.6643810074195335,
                -1.584488132220776,
                0.22031049358666283
            ]
        },
        {
            "positions": [
                -0.1653201579812682,
                -0.8212826069959909,
                1.0126003697181947,
                1.595470695316699,
                -1.4916726254910158,
                0.2510024847009838
            ]
        },
        {
            "positions": [
                -0.07173709831767583,
                -0.8412373753066831,
                0.9310581823587135,
                1.526560383213865,
                -1.3988571187612557,
                0.28169447581530477
            ]
        },
        {
            "positions": [
                0.021845961345916542,
                -0.8611921436173754,
                0.8495159949992324,
                1.4576500711110305,
                -1.3060416120314955,
                0.31238646692962574
            ]
        },
        {
            "positions": [
                0.11542902100950891,
                -0.8811469119280676,
                0.7679738076397512,
                1.3887397590081965,
                -1.2132261053017355,
                0.3430784580439467
            ]
        },
        {
            "positions": [
                0.20901208067310117,
                -0.9011016802387599,
                0.68643162028027,
                1.319829446905362,
                -1.1204105985719752,
                0.37377044915826774
            ]
        },
        {
            "positions": [
                0.30259514033669366,
                -0.9210564485494521,
                0.604889432920789,
                1.250919134802528,
                -1.027595091842215,
                0.4044624402725887
            ]
        },
        {
            "positions": [
                0.3961782000002859,
                -0.9410112168601443,
                0.5233472455613077,
                1.1820088226996937,
                -0.9347795851124547,
                0.4351544313869097
            ]
        },
        {
            "positions": [
                0.4897612596638786,
                -0.9609659851708365,
                0.4418050582018265,
                1.1130985105968592,
                -0.8419640783826945,
                0.46584642250123065
            ]
        },
        {
            "positions": [
                0.5833443193274709,
                -0.9809207534815287,
                0.36026287084234543,
                1.044188198494025,
                -0.7491485716529345,
                0.4965384136155516
            ]
        },
        {
            "positions": [
                0.6769273789910634,
                -1.0008755217922212,
                0.27872068348286416,
                0.9752778863911906,
                -0.6563330649231742,
                0.5272304047298726
            ]
        },
        {
            "positions": [
                0.7705104386546556,
                -1.0208302901029134,
                0.19717849612338312,
                0.9063675742883566,
                -0.5635175581934142,
                0.5579223958441935
            ]
        },
        {
            "positions": [
                0.8640934983182481,
                -1.0407850584136056,
                0.11563630876390185,
                0.8374572621855223,
                -0.47070205146365374,
                0.5886143869585145
            ]
        },
        {
            "positions": [
                0.9576765579818404,
                -1.0607398267242978,
                0.03409412140442081,
                0.768546950082688,
                -0.3778865447338937,
                0.6193063780728354
            ]
        },
        {
            "positions": [
                1.051259617645433,
                -1.08069459503499,
                -0.04744806595506046,
                0.6996366379798538,
                -0.28507103800413347,
                0.6499983691871565
            ]
        },
        {
            "positions": [
                1.144842677309025,
                -1.1006493633456822,
                -0.1289902533145415,
                0.6307263258770195,
                -0.19225553127437367,
                0.6806903603014773
            ]
        },
        {
            "positions": [
                1.2384257369726175,
                -1.1206041316563744,
                -0.21053244067402277,
                0.5618160137741852,
                -0.09944002454461298,
                0.7113823514157984
            ]
        },
        {
            "positions": [
                1.3320087966362095,
                -1.1405588999670666,
                -0.2920746280335038,
                0.49290570167135095,
                -0.006624517814853181,
                0.7420743425301194
            ]
        },
        {
            "positions": [
                1.425591856299802,
                -1.160513668277759,
                -0.3736168153929853,
                0.4239953895685167,
                0.08619098891490706,
                0.7727663336444404
            ]
        },
        {
            "positions": [
                1.5191749159633945,
                -1.180468436588451,
                -0.4551590027524659,
                0.3550850774656824,
                0.1790064956446673,
                0.8034583247587613
            ]
        },
        {
            "positions": [
                1.612757975626987,
                -1.2004232048991434,
                -0.5367011901119475,
                0.28617476536284825,
                0.2718220023744278,
                0.8341503158730823
            ]
        },
        {
            "positions": [
                1.4950668791214365,
                -1.1971374253031977,
                -0.42522986998441703,
                0.2353901888991087,
                0.2810956967057093,
                0.9360943457318185
            ]
        },
        {
            "positions": [
                1.3773757826158861,
                -1.1938516457072519,
                -0.3137585498568865,
                0.18460561243536916,
                0.2903693910369908,
                1.0380383755905545
            ]
        },
        {
            "positions": [
                1.259684686110336,
                -1.190565866111306,
                -0.20228722972935598,
                0.13382103597162961,
                0.29964308536827233,
                1.1399824054492906
            ]
        },
        {
            "positions": [
                1.1419935896047855,
                -1.1872800865153603,
                -0.0908159096018255,
                0.08303645950789007,
                0.30891677969955383,
                1.2419264353080268
            ]
        },
        {
            "positions": [
                1.0243024930992353,
                -1.1839943069194145,
                0.020655410525704965,
                0.03225188304415055,
                0.31819047403083534,
                1.343870465166763
            ]
        },
        {
            "positions": [
                0.9066113965936847,
                -1.180708527323469,
                0.13212673065323555,
                -0.01853269341958902,
                0.3274641683621169,
                1.4458144950254992
            ]
        },
        {
            "positions": [
                0.7889203000881343,
                -1.1774227477275232,
                0.24359805078076613,
                -0.06931726988332859,
                0.3367378626933984,
                1.5477585248842352
            ]
        },
        {
            "positions": [
                0.671229203582584,
                -1.1741369681315774,
                0.3550693709082965,
                -0.12010184634706811,
                0.3460115570246799,
                1.6497025547429713
            ]
        },
        {
            "positions": [
                0.5535381070770335,
                -1.1708511885356316,
                0.46654069103582707,
                -0.17088642281080768,
                0.35528525135596145,
                1.7516465846017075
            ]
        },
        {
            "positions": [
                0.43584701057148334,
                -1.1675654089396859,
                0.5780120111633574,
                -0.22167099927454714,
                0.3645589456872429,
                1.8535906144604437
            ]
        },
        {
            "positions": [
                0.3181559140659329,
                -1.16427962934374,
                0.689483331290888,
                -0.2724555757382867,
                0.37383264001852445,
                1.95553464431918
            ]
        },
        {
            "positions": [
                0.20046481756038248,
                -1.1609938497477943,
                0.8009546514184186,
                -0.3232401522020263,
                0.38310633434980595,
                2.057478674177916
            ]
        },
        {
            "positions": [
                0.08277372105483227,
                -1.1577080701518485,
                0.912425971545949,
                -0.37402472866576575,
                0.39238002868108746,
                2.1594227040366523
            ]
        },
        {
            "positions": [
                -0.03491737545071838,
                -1.1544222905559027,
                1.0238972916734799,
                -0.42480930512950543,
                0.401653723012369,
                2.2613667338953882
            ]
        },
        {
            "positions": [
                -0.1526084719562686,
                -1.151136510959957,
                1.13536861180101,
                -0.4755938815932449,
                0.4109274173436505,
                2.363310763754124
            ]
        },
        {
            "positions": [
                -0.270299568461819,
                -1.1478507313640112,
                1.2468399319285406,
                -0.5263784580569845,
                0.420201111674932,
                2.4652547936128606
            ]
        },
        {
            "positions": [
                -0.387990664967369,
                -1.1445649517680656,
                1.3583112520560712,
                -0.5771630345207239,
                0.4294748060062135,
                2.5671988234715966
            ]
        },
        {
            "positions": [
                -0.5056817614729199,
                -1.1412791721721198,
                1.4697825721836018,
                -0.6279476109844636,
                0.4387485003374951,
                2.6691428533303325
            ]
        },
        {
            "positions": [
                -0.6233728579784703,
                -1.137993392576174,
                1.5812538923111323,
                -0.6787321874482031,
                0.4480221946687766,
                2.771086883189069
            ]
        },
        {
            "positions": [
                -0.7410639544840203,
                -1.1347076129802283,
                1.6927252124386625,
                -0.7295167639119425,
                0.4572958890000581,
                2.8730309130478053
            ]
        },
        {
            "positions": [
                -0.8587550509895707,
                -1.1314218333842825,
                1.804196532566193,
                -0.7803013403756821,
                0.4665695833313396,
                2.974974942906541
            ]
        },
        {
            "positions": [
                -0.9764461474951212,
                -1.1281360537883367,
                1.9156678526937236,
                -0.8310859168394217,
                0.47584327766262113,
                3.0769189727652773
            ]
        },
        {
            "positions": [
                -1.0941372440006716,
                -1.124850274192391,
                2.027139172821254,
                -0.8818704933031613,
                0.48511697199390263,
                3.1788630026240132
            ]
        }
    ]
}