{
    "goal": {
        "global_pose": {
            "orientation": {
                "w": 0.7031023502349854,
                "x": -0.7110244035720825,
                "y": 0.007748599164187908,
                "z": 0.005598929710686207
            },
            "position": {
                "x": 0.11585023208521307,
                "y": 0.44412534475326537,
                "z": 0.3711530566215515
            }
        },
        "name": "move_to_auspresseinheit_A"
    },
    "id": "SPARStwo_move_to_auspresseinheit_A_38",
    "joint_names": [
        "shoulder_pan_joint",
        "shoulder_lift_joint",
        "elbow_joint",
        "wrist_1_joint",
        "wrist_2_joint",
        "wrist_3_joint"
    ],
    "metrics": {
        "cart_traj_len": 2.8612595441516255,
        "distance_elbow_joint": 1.1987267355647782,
        "distance_shoulder_lift_joint": 0.5357189063437471,
        "distance_shoulder_pan_joint": 4.136344662869172,
        "distance_wrist_1_joint": 0.8147696459600348,
        "distance_wrist_2_joint": 0.5335803432403852,
        "distance_wrist_3_joint": 0.8083139872847176,
        "smoothness": 1.1782441860610688,
        "time": 5.009872069,
        "traj_len": 2.8332762451379208,
        "weighted_distance": 3.315483712074709
    },
    "planner": "SPARStwo",
    "start": {
        "state": {
            "elbow_joint": 2.4225746658250005,
            "shoulder_lift_joint": -1.3736534386056498,
            "shoulder_pan_joint": -0.3378633547517467,
            "wrist_1_joint": -1.0288598680537169,
            "wrist_2_joint": 1.233022673432363,
            "wrist_3_joint": -3.0940220416140027
        }
    },
    "waypoints": [
        {
            "positions": [
                -0.3378633547517467,
                -1.3736534386056498,
                2.4225746658250005,
                -1.0288598680537169,
                1.233022673432363,
                -3.0940220416140027
            ]
        },
        {
            "positions": [
                -0.509746403047825,
                -1.4172300627056618,
                2.354375608024789,
                -1.0432702656206079,
                1.192395094009702,
                -3.0508287564424927
            ]
        },
        {
            "positions": [
                -0.6816294513439034,
                -1.4608066868056737,
                2.286176550224577,
                -1.0576806631874986,
                1.151767514587041,
                -3.0076354712709827
            ]
        },
        {
            "positions": [
                -0.8535124996399817,
                -1.5043833109056857,
                2.2179774924243656,
                -1.0720910607543896,
                1.1111399351643798,
                -2.9644421860994727
            ]
        },
        {
            "positions": [
                -1.02539554793606,
                -1.5479599350056976,
                2.149778434624154,
                -1.0865014583212804,
                1.0705123557417189,
                -2.9212489009279627
            ]
        },
        {
            "positions": [
                -1.1972785962321384,
                -1.5915365591057098,
                2.0815793768239423,
                -1.1009118558881714,
                1.0298847763190577,
                -2.8780556157564523
            ]
        },
        {
            "positions": [
                -1.3691616445282166,
                -1.6351131832057217,
                2.013380319023731,
                -1.1153222534550622,
                0.9892571968963967,
                -2.8348623305849423
            ]
        },
        {
            "positions": [
                -1.541044692824295,
                -1.6786898073057337,
                1.9451812612235195,
                -1.1297326510219532,
                0.9486296174737356,
                -2.7916690454134323
            ]
        },
        {
            "positions": [
                -1.7129277411203732,
                -1.7222664314057456,
                1.876982203423308,
                -1.144143048588844,
                0.9080020380510745,
                -2.7484757602419223
            ]
        },
        {
            "positions": [
                -1.8848107894164516,
                -1.7658430555057576,
                1.8087831456230963,
                -1.158553446155735,
                0.8673744586284134,
                -2.7052824750704123
            ]
        },
        {
            "positions": [
                -1.6690276870660794,
                -1.7778038296260608,
                1.8575277469033358,
                -1.1014637738342337,
                0.8533801145920438,
                -2.740247010132173
            ]
        },
        {
            "positions": [
                -1.4532445847157072,
                -1.7897646037463641,
                1.9062723481835753,
                -1.0443741015127321,
                0.8393857705556742,
                -2.7752115451939336
            ]
        },
        {
            "positions": [
                -1.2374614823653347,
                -1.8017253778666675,
                1.9550169494638148,
                -0.9872844291912308,
                0.8253914265193045,
                -2.810176080255694
            ]
        },
        {
            "positions": [
                -1.0216783800149625,
                -1.8136861519869707,
                2.0037615507440543,
                -0.9301947568697294,
                0.811397082482935,
                -2.8451406153174545
            ]
        },
        {
            "positions": [
                -0.80589527766459,
                -1.8256469261072739,
                2.0525061520242938,
                -0.873105084548228,
                0.7974027384465653,
                -2.880105150379215
            ]
        },
        {
            "positions": [
                -0.5901121753142178,
                -1.8376077002275772,
                2.1012507533045333,
                -0.8160154122267267,
                0.7834083944101957,
                -2.915069685440976
            ]
        },
        {
            "positions": [
                -0.3743290729638453,
                -1.8495684743478806,
                2.1499953545847728,
                -0.7589257399052252,
                0.769414050373826,
                -2.9500342205027366
            ]
        },
        {
            "positions": [
                -0.1585459706134733,
                -1.8615292484681838,
                2.1987399558650123,
                -0.7018360675837239,
                0.7554197063374564,
                -2.9849987555644972
            ]
        },
        {
            "positions": [
                0.05723713173689915,
                -1.873490022588487,
                2.2474845571452517,
                -0.6447463952622224,
                0.7414253623010868,
                -3.019963290626258
            ]
        },
        {
            "positions": [
                0.2730202340872716,
                -1.8854507967087903,
                2.2962291584254912,
                -0.587656722940721,
                0.7274310182647171,
                -3.054927825688018
            ]
        },
        {
            "positions": [
                0.48880333643764384,
                -1.8974115708290937,
                2.3449737597057307,
                -0.5305670506192197,
                0.7134366742283476,
                -3.089892360749779
            ]
        },
        {
            "positions": [
                0.7045864387880162,
                -1.909372344949397,
                2.3937183609859702,
                -0.4734773782977183,
                0.6994423301919779,
                -3.1248568958115395
            ]
        }
    ]
}