{
    "goal": {
        "global_pose": {
            "orientation": {
                "w": -0.00223480608172531,
                "x": 0.0024358444001904467,
                "y": 0.7094548369677653,
                "z": -0.704743149386269
            },
            "position": {
                "x": -0.37947507619857795,
                "y": -0.6371506643295288,
                "z": 0.19426114857196808
            }
        },
        "name": "move_to_magneteinheit_C"
    },
    "id": "SPARS_move_to_magneteinheit_C_2",
    "joint_names": [
        "shoulder_pan_joint",
        "shoulder_lift_joint",
        "elbow_joint",
        "wrist_1_joint",
        "wrist_2_joint",
        "wrist_3_joint"
    ],
    "metrics": {
        "cart_traj_len": 3.3303356675859375,
        "distance_elbow_joint": 3.0052413141047456,
        "distance_shoulder_lift_joint": 0.820484622260381,
        "distance_shoulder_pan_joint": 3.1964792324717415,
        "distance_wrist_1_joint": 2.6107160461907375,
        "distance_wrist_2_joint": 1.9251387484734193,
        "distance_wrist_3_joint": 6.183511923338379,
        "smoothness": 0.744837103592805,
        "time": 5.078467571,
        "traj_len": 4.212074534815286,
        "weighted_distance": 5.8859536634414935
    },
    "planner": "SPARS",
    "start": {
        "state": {
            "elbow_joint": 1.9565354010623817,
            "shoulder_lift_joint": -1.4165861575791021,
            "shoulder_pan_joint": -1.6717766225146293,
            "wrist_1_joint": -0.5286633292919765,
            "wrist_2_joint": 1.472756589071564,
            "wrist_3_joint": -3.1238370188695823
        }
    },
    "waypoints": [
        {
            "positions": [
                -1.6717766225146293,
                -1.4165861575791021,
                1.9565354010623817,
                -0.5286633292919765,
                1.472756589071564,
                -3.1238370188695823
            ]
        },
        {
            "positions": [
                -1.6311566343615866,
                -1.428521589238347,
                1.9149774691855388,
                -0.44768593535605294,
                1.4502850294544736,
                -2.9866501312446623
            ]
        },
        {
            "positions": [
                -1.5905366462085442,
                -1.440457020897592,
                1.873419537308696,
                -0.36670854142012943,
                1.4278134698373832,
                -2.8494632436197422
            ]
        },
        {
            "positions": [
                -1.5499166580555015,
                -1.452392452556837,
                1.831861605431853,
                -0.28573114748420586,
                1.405341910220293,
                -2.7122763559948218
            ]
        },
        {
            "positions": [
                -1.5092966699024588,
                -1.4643278842160818,
                1.7903036735550102,
                -0.20475375354828235,
                1.3828703506032027,
                -2.5750894683699017
            ]
        },
        {
            "positions": [
                -1.4531857324731827,
                -1.4739592075993138,
                1.7084200766474678,
                -0.15707875034953248,
                1.3479562015494955,
                -2.41693894919337
            ]
        },
        {
            "positions": [
                -1.3970747950439069,
                -1.4835905309825455,
                1.6265364797399253,
                -0.1094037471507826,
                1.3130420524957882,
                -2.258788430016838
            ]
        },
        {
            "positions": [
                -1.3409638576146308,
                -1.4932218543657774,
                1.544652882832383,
                -0.06172874395203273,
                1.278127903442081,
                -2.1006379108403066
            ]
        },
        {
            "positions": [
                -1.284852920185355,
                -1.502853177749009,
                1.4627692859248405,
                -0.014053740753282862,
                1.2432137543883737,
                -1.942487391663775
            ]
        },
        {
            "positions": [
                -1.2287419827560788,
                -1.512484501132241,
                1.380885689017298,
                0.03362126244546701,
                1.2082996053346664,
                -1.7843368724872435
            ]
        },
        {
            "positions": [
                -1.1726310453268027,
                -1.5221158245154727,
                1.2990020921097554,
                0.08129626564421688,
                1.1733854562809591,
                -1.6261863533107117
            ]
        },
        {
            "positions": [
                -1.1165201078975269,
                -1.5317471478987046,
                1.217118495202213,
                0.12897126884296678,
                1.138471307227252,
                -1.46803583413418
            ]
        },
        {
            "positions": [
                -1.060409170468251,
                -1.5413784712819365,
                1.1352348982946705,
                0.17664627204171662,
                1.1035571581735448,
                -1.3098853149576484
            ]
        },
        {
            "positions": [
                -1.004298233038975,
                -1.5510097946651682,
                1.053351301387128,
                0.22432127524046647,
                1.0686430091198376,
                -1.1517347957811168
            ]
        },
        {
            "positions": [
                -0.9481872956096989,
                -1.5606411180484001,
                0.9714677044795856,
                0.27199627843921637,
                1.0337288600661303,
                -0.993584276604585
            ]
        },
        {
            "positions": [
                -0.892076358180423,
                -1.5702724414316318,
                0.8895841075720431,
                0.31967128163796626,
                0.998814711012423,
                -0.8354337574280533
            ]
        },
        {
            "positions": [
                -0.8359654207511469,
                -1.5799037648148637,
                0.8077005106645007,
                0.3673462848367161,
                0.9639005619587158,
                -0.6772832382515217
            ]
        },
        {
            "positions": [
                -0.7798544833218709,
                -1.5895350881980954,
                0.7258169137569581,
                0.41502128803546595,
                0.9289864129050085,
                -0.5191327190749901
            ]
        },
        {
            "positions": [
                -0.7237435458925949,
                -1.5991664115813273,
                0.6439333168494157,
                0.4626962912342159,
                0.8940722638513012,
                -0.36098219989845814
            ]
        },
        {
            "positions": [
                -0.667632608463319,
                -1.608797734964559,
                0.5620497199418732,
                0.5103712944329657,
                0.859158114797594,
                -0.2028316807219266
            ]
        },
        {
            "positions": [
                -0.611521671034043,
                -1.618429058347791,
                0.4801661230343308,
                0.5580462976317155,
                0.8242439657438867,
                -0.04468116154539481
            ]
        },
        {
            "positions": [
                -0.706757000793708,
                -1.6223211729134424,
                0.5381998139285994,
                0.49186943482419787,
                0.7902089509468659,
                -0.17071794753276975
            ]
        },
        {
            "positions": [
                -0.8019923305533729,
                -1.6262132874790938,
                0.596233504822868,
                0.42569257201668015,
                0.7561739361498452,
                -0.2967547335201447
            ]
        },
        {
            "positions": [
                -0.8972276603130378,
                -1.6301054020447452,
                0.6542671957171364,
                0.3595157092091624,
                0.7221389213528244,
                -0.42279151950751964
            ]
        },
        {
            "positions": [
                -0.9924629900727028,
                -1.6339975166103964,
                0.712300886611405,
                0.29333884640164476,
                0.6881039065558037,
                -0.5488283054948946
            ]
        },
        {
            "positions": [
                -1.0876983198323678,
                -1.6378896311760478,
                0.7703345775056736,
                0.22716198359412704,
                0.6540688917587829,
                -0.6748650914822695
            ]
        },
        {
            "positions": [
                -1.1829336495920326,
                -1.6417817457416992,
                0.8283682683999422,
                0.16098512078660937,
                0.6200338769617622,
                -0.8009018774696445
            ]
        },
        {
            "positions": [
                -1.2781689793516975,
                -1.6456738603073506,
                0.8864019592942107,
                0.09480825797909165,
                0.5859988621647414,
                -0.9269386634570194
            ]
        },
        {
            "positions": [
                -1.3734043091113626,
                -1.649565974873002,
                0.9444356501884792,
                0.02863139517157398,
                0.5519638473677206,
                -1.0529754494443944
            ]
        },
        {
            "positions": [
                -1.4686396388710274,
                -1.6534580894386535,
                1.0024693410827479,
                -0.037545467635943686,
                0.5179288325706999,
                -1.1790122354317694
            ]
        },
        {
            "positions": [
                -1.5638749686306923,
                -1.6573502040043049,
                1.0605030319770163,
                -0.10372233044346146,
                0.48389381777367907,
                -1.3050490214191441
            ]
        },
        {
            "positions": [
                -1.6591102983903574,
                -1.661242318569956,
                1.118536722871285,
                -0.16989919325097913,
                0.4498588029766583,
                -1.4310858074065194
            ]
        },
        {
            "positions": [
                -1.7543456281500223,
                -1.6651344331356075,
                1.1765704137655535,
                -0.2360760560584968,
                0.41582378817963755,
                -1.5571225933938941
            ]
        },
        {
            "positions": [
                -1.8495809579096874,
                -1.669026547701259,
                1.2346041046598222,
                -0.3022529188660146,
                0.38178877338261674,
                -1.6831593793812691
            ]
        },
        {
            "positions": [
                -1.9448162876693522,
                -1.6729186622669103,
                1.2926377955540906,
                -0.36842978167353224,
                0.34775375858559604,
                -1.809196165368644
            ]
        },
        {
            "positions": [
                -2.0400516174290173,
                -1.6768107768325617,
                1.350671486448359,
                -0.4346066444810499,
                0.3137187437885752,
                -1.9352329513560191
            ]
        },
        {
            "positions": [
                -2.135286947188682,
                -1.6807028913982132,
                1.4087051773426276,
                -0.5007835072885676,
                0.2796837289915546,
                -2.0612697373433937
            ]
        },
        {
            "positions": [
                -2.2305222769483475,
                -1.6845950059638646,
                1.4667388682368965,
                -0.5669603700960852,
                0.2456487141945337,
                -2.1873065233307694
            ]
        },
        {
            "positions": [
                -2.325757606708012,
                -1.6884871205295158,
                1.5247725591311647,
                -0.6331372329036029,
                0.21161369939751296,
                -2.313343309318144
            ]
        },
        {
            "positions": [
                -2.4209929364676768,
                -1.6923792350951672,
                1.5828062500254334,
                -0.6993140957111208,
                0.1775786846004922,
                -2.439380095305519
            ]
        },
        {
            "positions": [
                -2.516228266227342,
                -1.6962713496608186,
                1.6408399409197019,
                -0.7654909585186385,
                0.14354366980347144,
                -2.5654168812928937
            ]
        },
        {
            "positions": [
                -2.611463595987007,
                -1.70016346422647,
                1.6988736318139706,
                -0.831667821326156,
                0.10950865500645068,
                -2.6914536672802685
            ]
        },
        {
            "positions": [
                -2.609167745220452,
                -1.630529377818637,
                1.740198696040606,
                -0.7974289833784357,
                0.19167645700736102,
                -2.8221862919670606
            ]
        },
        {
            "positions": [
                -2.6068718944538967,
                -1.560895291410804,
                1.7815237602672416,
                -0.7631901454307154,
                0.27384425900827136,
                -2.9529189166538528
            ]
        },
        {
            "positions": [
                -2.5739492308276266,
                -1.4614855057114673,
                1.8384023599781878,
                -0.7796438015341491,
                0.37323306160989267,
                -3.001948494380287
            ]
        },
        {
            "positions": [
                -2.5410265672013566,
                -1.3620757200121305,
                1.895280959689134,
                -0.7960974576375828,
                0.472621864211514,
                -3.0509780721067212
            ]
        },
        {
            "positions": [
                -2.508103903575086,
                -1.2626659343127937,
                1.9521595594000802,
                -0.8125511137410164,
                0.5720106668131353,
                -3.100007649833155
            ]
        },
        {
            "positions": [
                -2.475181239948816,
                -1.163256148613457,
                2.0090381591110265,
                -0.8290047698444502,
                0.6713994694147566,
                -3.1490372275595893
            ]
        }
    ]
}