{
    "goal": {
        "global_pose": {
            "orientation": {
                "w": -0.4816463035849501,
                "x": 0.5182115481033762,
                "y": 0.4908360881923453,
                "z": -0.5084816262002911
            },
            "position": {
                "x": -0.8240239810943604,
                "y": 0.19912469901144506,
                "z": 0.16403168439865112
            }
        },
        "name": "move_to_storage_D"
    },
    "id": "SPARS_move_to_storage_D_140",
    "joint_names": [
        "shoulder_pan_joint",
        "shoulder_lift_joint",
        "elbow_joint",
        "wrist_1_joint",
        "wrist_2_joint",
        "wrist_3_joint"
    ],
    "metrics": {
        "cart_traj_len": 3.8143800586349967,
        "distance_elbow_joint": 4.21033523926533,
        "distance_shoulder_lift_joint": 1.844776654281039,
        "distance_shoulder_pan_joint": 2.8134947029168687,
        "distance_wrist_1_joint": 2.271745704791905,
        "distance_wrist_2_joint": 0.9879214177435568,
        "distance_wrist_3_joint": 3.1313034064693133,
        "smoothness": 0.05503361168518278,
        "time": 5.041939353,
        "traj_len": 3.9063508707575174,
        "weighted_distance": 4.97813730836566
    },
    "planner": "SPARS",
    "start": {
        "state": {
            "elbow_joint": -2.384821988534728,
            "shoulder_lift_joint": -2.2788054721415256,
            "shoulder_pan_joint": -0.1854694642142757,
            "wrist_1_joint": 1.4845938289331202,
            "wrist_2_joint": 0.17898776772866878,
            "wrist_3_joint": 0.037105688729662994
        }
    },
    "waypoints": [
        {
            "positions": [
                -0.1854694642142757,
                -2.2788054721415256,
                -2.384821988534728,
                1.4845938289331202,
                0.17898776772866878,
                0.037105688729662994
            ]
        },
        {
            "positions": [
                -0.08342401278203739,
                -2.218983843007396,
                -2.284637864760085,
                1.431985024031432,
                0.21485741358106655,
                -0.0062547348976342634
            ]
        },
        {
            "positions": [
                0.01862143865020094,
                -2.1591622138732665,
                -2.1844537409854423,
                1.3793762191297436,
                0.2507270594334643,
                -0.04961515852493152
            ]
        },
        {
            "positions": [
                0.12066689008243928,
                -2.099340584739137,
                -2.0842696172107993,
                1.3267674142280552,
                0.2865967052858621,
                -0.09297558215222879
            ]
        },
        {
            "positions": [
                0.2227123415146776,
                -2.0395189556050073,
                -1.9840854934361567,
                1.274158609326367,
                0.32246635113825983,
                -0.13633600577952604
            ]
        },
        {
            "positions": [
                0.324757792946916,
                -1.9796973264708775,
                -1.8839013696615137,
                1.2215498044246789,
                0.35833599699065766,
                -0.1796964294068233
            ]
        },
        {
            "positions": [
                0.4268032443791543,
                -1.919875697336748,
                -1.783717245886871,
                1.1689409995229905,
                0.39420564284305537,
                -0.22305685303412057
            ]
        },
        {
            "positions": [
                0.5288486958113925,
                -1.8600540682026183,
                -1.683533122112228,
                1.116332194621302,
                0.4300752886954532,
                -0.2664172766614178
            ]
        },
        {
            "positions": [
                0.6308941472436309,
                -1.8002324390684885,
                -1.5833489983375852,
                1.0637233897196139,
                0.4659449345478509,
                -0.3097777002887151
            ]
        },
        {
            "positions": [
                0.7329395986758691,
                -1.740410809934359,
                -1.4831648745629424,
                1.0111145848179257,
                0.5018145804002487,
                -0.3531381239160123
            ]
        },
        {
            "positions": [
                0.8349850501081076,
                -1.6805891808002293,
                -1.3829807507882996,
                0.9585057799162373,
                0.5376842262526464,
                -0.3964985475433096
            ]
        },
        {
            "positions": [
                0.9370305015403458,
                -1.6207675516660998,
                -1.2827966270136568,
                0.905896975014549,
                0.5735538721050443,
                -0.4398589711706068
            ]
        },
        {
            "positions": [
                1.0390759529725841,
                -1.5609459225319702,
                -1.182612503239014,
                0.8532881701128607,
                0.609423517957442,
                -0.4832193947979041
            ]
        },
        {
            "positions": [
                1.1411214044048223,
                -1.5011242933978406,
                -1.0824283794643712,
                0.8006793652111724,
                0.6452931638098398,
                -0.5265798184252013
            ]
        },
        {
            "positions": [
                1.2431668558370605,
                -1.441302664263711,
                -0.9822442556897284,
                0.7480705603094842,
                0.6811628096622375,
                -0.5699402420524985
            ]
        },
        {
            "positions": [
                1.3452123072692987,
                -1.3814810351295814,
                -0.8820601319150856,
                0.695461755407796,
                0.7170324555146352,
                -0.6133006656797958
            ]
        },
        {
            "positions": [
                1.4472577587015374,
                -1.3216594059954514,
                -0.7818760081404426,
                0.6428529505061076,
                0.7529021013670331,
                -0.6566610893070931
            ]
        },
        {
            "positions": [
                1.5493032101337756,
                -1.261837776861322,
                -0.6816918843658,
                0.5902441456044193,
                0.7887717472194309,
                -0.7000215129343903
            ]
        },
        {
            "positions": [
                1.6513486615660138,
                -1.2020161477271925,
                -0.5815077605911572,
                0.537635340702731,
                0.8246413930718286,
                -0.7433819365616876
            ]
        },
        {
            "positions": [
                1.7533941129982522,
                -1.1421945185930629,
                -0.48132363681651436,
                0.4850265358010428,
                0.8605110389242263,
                -0.7867423601889848
            ]
        },
        {
            "positions": [
                1.8554395644304909,
                -1.082372889458933,
                -0.3811395130418713,
                0.4324177308993544,
                0.8963806847766241,
                -0.8301027838162821
            ]
        },
        {
            "positions": [
                1.957485015862729,
                -1.0225512603248035,
                -0.28095538926722874,
                0.379808925997666,
                0.932250330629022,
                -0.8734632074435793
            ]
        },
        {
            "positions": [
                2.0595304672949672,
                -0.9627296311906739,
                -0.1807712654925857,
                0.32720012109597785,
                0.9681199764814197,
                -0.9168236310708766
            ]
        },
        {
            "positions": [
                2.1615759187272054,
                -0.9029080020565443,
                -0.08058714171794312,
                0.27459131619428967,
                1.0039896223338174,
                -0.9601840546981738
            ]
        },
        {
            "positions": [
                2.263621370159444,
                -0.8430863729224145,
                0.019596982056699908,
                0.22198251129260127,
                1.0398592681862153,
                -1.0035444783254712
            ]
        },
        {
            "positions": [
                2.3656668215916823,
                -0.7832647437882849,
                0.11978110583134294,
                0.16937370639091287,
                1.075728914038613,
                -1.0469049019527683
            ]
        },
        {
            "positions": [
                2.4677122730239205,
                -0.7234431146541553,
                0.2199652296059857,
                0.11676490148922469,
                1.1115985598910108,
                -1.0902653255800656
            ]
        },
        {
            "positions": [
                2.4800440396145875,
                -0.7457057528690529,
                0.3434689235386484,
                0.04723284169322403,
                1.1073438963847635,
                -1.2444139711308029
            ]
        },
        {
            "positions": [
                2.4923758062052546,
                -0.7679683910839505,
                0.4669726174713111,
                -0.02229921810277663,
                1.1030892328785162,
                -1.3985626166815401
            ]
        },
        {
            "positions": [
                2.5047075727959216,
                -0.7902310292988481,
                0.5904763114039737,
                -0.09183127789877726,
                1.098834569372269,
                -1.5527112622322774
            ]
        },
        {
            "positions": [
                2.517039339386589,
                -0.8124936675137457,
                0.7139800053366365,
                -0.16136333769477795,
                1.0945799058660215,
                -1.7068599077830147
            ]
        },
        {
            "positions": [
                2.529371105977256,
                -0.8347563057286433,
                0.8374836992692991,
                -0.2308953974907786,
                1.0903252423597742,
                -1.8610085533337521
            ]
        },
        {
            "positions": [
                2.541702872567923,
                -0.857018943943541,
                0.9609873932019619,
                -0.3004274572867792,
                1.086070578853527,
                -2.015157198884489
            ]
        },
        {
            "positions": [
                2.55403463915859,
                -0.8792815821584385,
                1.0844910871346245,
                -0.36995951708277985,
                1.0818159153472797,
                -2.1693058444352262
            ]
        },
        {
            "positions": [
                2.5663664057492572,
                -0.9015442203733361,
                1.2079947810672873,
                -0.4394915768787806,
                1.0775612518410325,
                -2.3234544899859637
            ]
        },
        {
            "positions": [
                2.5786981723399243,
                -0.9238068585882337,
                1.3314984749999499,
                -0.5090236366747811,
                1.0733065883347852,
                -2.477603135536701
            ]
        },
        {
            "positions": [
                2.5910299389305917,
                -0.9460694968031313,
                1.4550021689326127,
                -0.5785556964707819,
                1.0690519248285377,
                -2.6317517810874387
            ]
        },
        {
            "positions": [
                2.603361705521259,
                -0.968332135018029,
                1.5785058628652753,
                -0.6480877562667825,
                1.0647972613222905,
                -2.7859004266381757
            ]
        },
        {
            "positions": [
                2.615693472111926,
                -0.9905947732329266,
                1.702009556797938,
                -0.7176198160627831,
                1.0605425978160432,
                -2.9400490721889128
            ]
        },
        {
            "positions": [
                2.628025238702593,
                -1.0128574114478242,
                1.8255132507306007,
                -0.7871518758587838,
                1.056287934309796,
                -3.0941977177396502
            ]
        }
    ]
}