{
    "goal": {
        "global_pose": {
            "orientation": {
                "w": 0.005598929693374612,
                "x": 0.007748599140229565,
                "y": 0.7110244013736278,
                "z": -0.7031023480610252
            },
            "position": {
                "x": 0.1141497679147869,
                "y": -0.7141253447532654,
                "z": 0.3711530566215515
            }
        },
        "name": "move_to_auspresseinheit_B"
    },
    "id": "SPARStwo_move_to_auspresseinheit_B_89",
    "joint_names": [
        "shoulder_pan_joint",
        "shoulder_lift_joint",
        "elbow_joint",
        "wrist_1_joint",
        "wrist_2_joint",
        "wrist_3_joint"
    ],
    "metrics": {
        "cart_traj_len": 0.5648267765936253,
        "distance_elbow_joint": 0.06206998697568,
        "distance_shoulder_lift_joint": 0.29408208817523107,
        "distance_shoulder_pan_joint": 0.5781581190521075,
        "distance_wrist_1_joint": 0.3207864925431221,
        "distance_wrist_2_joint": 0.9860864423894042,
        "distance_wrist_3_joint": 0.001739572887403007,
        "smoothness": 2.5376526478085547e-16,
        "time": 5.011314457,
        "traj_len": 1.4976390426344222,
        "weighted_distance": 1.8850132049219923
    },
    "planner": "SPARStwo",
    "start": {
        "state": {
            "elbow_joint": 2.0193083361928714,
            "shoulder_lift_joint": -1.1220246554650708,
            "shoulder_pan_joint": -1.0952077554168747,
            "wrist_1_joint": -0.8559753972642168,
            "wrist_2_joint": 0.4759566250798843,
            "wrist_3_joint": -3.1240929996934557
        }
    },
    "waypoints": [
        {
            "positions": [
                -1.0952077554168747,
                -1.1220246554650708,
                2.0193083361928714,
                -0.8559753972642168,
                0.4759566250798843,
                -3.1240929996934557
            ]
        },
        {
            "positions": [
                -1.1915674419255593,
                -1.1710383368276094,
                2.0089633383635914,
                -0.8025109818403631,
                0.6403043654781183,
                -3.1238030708788886
            ]
        },
        {
            "positions": [
                -1.2879271284342437,
                -1.2200520181901477,
                1.9986183405343114,
                -0.7490465664165095,
                0.8046521058763523,
                -3.123513142064321
            ]
        },
        {
            "positions": [
                -1.3842868149429284,
                -1.2690656995526863,
                1.9882733427050314,
                -0.6955821509926557,
                0.9689998462745864,
                -3.123223213249754
            ]
        },
        {
            "positions": [
                -1.4806465014516128,
                -1.318079380915225,
                1.9779283448757514,
                -0.6421177355688021,
                1.1333475866728204,
                -3.122933284435187
            ]
        },
        {
            "positions": [
                -1.5770061879602975,
                -1.3670930622777633,
                1.9675833470464714,
                -0.5886533201449484,
                1.2976953270710545,
                -3.1226433556206197
            ]
        },
        {
            "positions": [
                -1.673365874468982,
                -1.4161067436403019,
                1.9572383492171914,
                -0.5351889047210947,
                1.4620430674692886,
                -3.1223534268060527
            ]
        }
    ]
}