{
    "goal": {
        "global_pose": {
            "orientation": {
                "w": 0.5084816262002911,
                "x": -0.4908360881923452,
                "y": 0.5182115481033761,
                "z": -0.48164630358495003
            },
            "position": {
                "x": 0.5540239810943604,
                "y": -0.46912469901144505,
                "z": 0.16403168439865112
            }
        },
        "name": "move_to_storage_B"
    },
    "id": "SPARStwo_move_to_storage_B_83",
    "joint_names": [
        "shoulder_pan_joint",
        "shoulder_lift_joint",
        "elbow_joint",
        "wrist_1_joint",
        "wrist_2_joint",
        "wrist_3_joint"
    ],
    "metrics": {
        "cart_traj_len": 4.426807672992572,
        "distance_elbow_joint": 3.6832479363305213,
        "distance_shoulder_lift_joint": 1.3577835841753556,
        "distance_shoulder_pan_joint": 3.892192787586061,
        "distance_wrist_1_joint": 3.785783319987087,
        "distance_wrist_2_joint": 1.042970468484379,
        "distance_wrist_3_joint": 4.306385259574704,
        "smoothness": 0.330544831537457,
        "time": 5.058020582,
        "traj_len": 4.250689750633197,
        "weighted_distance": 5.613366874145942
    },
    "planner": "SPARStwo",
    "start": {
        "state": {
            "elbow_joint": -1.6666013991110213,
            "shoulder_lift_joint": -2.479295265494141,
            "shoulder_pan_joint": 2.6606783912885628,
            "wrist_1_joint": 0.9897123657714939,
            "wrist_2_joint": 0.474351758749468,
            "wrist_3_joint": 0.013243222496468381
        }
    },
    "waypoints": [
        {
            "positions": [
                2.6606783912885628,
                -2.479295265494141,
                -1.6666013991110213,
                0.9897123657714939,
                0.474351758749468,
                0.013243222496468381
            ]
        },
        {
            "positions": [
                2.6833206475064633,
                -2.404814245865707,
                -1.6575143415520206,
                1.1329865006395146,
                0.45597266898921046,
                0.024573153853307085
            ]
        },
        {
            "positions": [
                2.7059629037243633,
                -2.3303332262372725,
                -1.64842728399302,
                1.2762606355075352,
                0.437593579228953,
                0.03590308521014579
            ]
        },
        {
            "positions": [
                2.728605159942264,
                -2.2558522066088385,
                -1.6393402264340193,
                1.4195347703755559,
                0.41921448946869544,
                0.0472330165669845
            ]
        },
        {
            "positions": [
                2.66762239361616,
                -2.1707166421339337,
                -1.6072671726773904,
                1.4884278956317036,
                0.361208117595598,
                0.11545622415098586
            ]
        },
        {
            "positions": [
                2.606639627290056,
                -2.0855810776590293,
                -1.5751941189207617,
                1.5573210208878516,
                0.30320174572250064,
                0.18367943173498721
            ]
        },
        {
            "positions": [
                2.5456568609639514,
                -2.0004455131841246,
                -1.5431210651641327,
                1.6262141461439994,
                0.24519537384940324,
                0.25190263931898854
            ]
        },
        {
            "positions": [
                2.4846740946378474,
                -1.9153099487092202,
                -1.511048011407504,
                1.6951072714001474,
                0.18718900197630584,
                0.3201258469029899
            ]
        },
        {
            "positions": [
                2.4236913283117434,
                -1.8301743842343154,
                -1.478974957650875,
                1.7640003966562952,
                0.1291826301032084,
                0.38834905448699125
            ]
        },
        {
            "positions": [
                2.362708561985639,
                -1.7450388197594109,
                -1.446901903894246,
                1.832893521912443,
                0.07117625823011103,
                0.4565722620709926
            ]
        },
        {
            "positions": [
                2.301725795659535,
                -1.6599032552845063,
                -1.4148288501376174,
                1.9017866471685907,
                0.01316988635701366,
                0.524795469654994
            ]
        },
        {
            "positions": [
                2.240743029333431,
                -1.5747676908096018,
                -1.3827557963809884,
                1.9706797724247387,
                -0.04483648551608377,
                0.5930186772389954
            ]
        },
        {
            "positions": [
                2.1480651435466664,
                -1.5621772461015235,
                -1.2883279537809749,
                1.8927682192765765,
                -0.030286979287783015,
                0.4895017382158794
            ]
        },
        {
            "positions": [
                2.0553872577599015,
                -1.5495868013934453,
                -1.1939001111809613,
                1.814856666128414,
                -0.01573747305948226,
                0.38598479919276335
            ]
        },
        {
            "positions": [
                1.962709371973137,
                -1.536996356685367,
                -1.0994722685809477,
                1.7369451129802518,
                -0.0011879668311815111,
                0.2824678601696473
            ]
        },
        {
            "positions": [
                1.8700314861863725,
                -1.5244059119772888,
                -1.0050444259809341,
                1.6590335598320893,
                0.013361539397119246,
                0.17895092114653133
            ]
        },
        {
            "positions": [
                1.7773536003996078,
                -1.5118154672692106,
                -0.9106165833809206,
                1.581122006683927,
                0.027911045625420003,
                0.07543398212341523
            ]
        },
        {
            "positions": [
                1.6846757146128433,
                -1.4992250225611323,
                -0.816188740780907,
                1.5032104535357647,
                0.042460551853720746,
                -0.02808295689970075
            ]
        },
        {
            "positions": [
                1.5919978288260785,
                -1.486634577853054,
                -0.7217608981808934,
                1.4252989003876024,
                0.05701005808202152,
                -0.13159989592281673
            ]
        },
        {
            "positions": [
                1.499319943039314,
                -1.4740441331449758,
                -0.6273330555808798,
                1.3473873472394402,
                0.07155956431032226,
                -0.23511683494593272
            ]
        },
        {
            "positions": [
                1.4066420572525493,
                -1.4614536884368976,
                -0.5329052129808662,
                1.2694757940912778,
                0.08610907053862302,
                -0.3386337739690488
            ]
        },
        {
            "positions": [
                1.3139641714657846,
                -1.4488632437288194,
                -0.43847737038085266,
                1.1915642409431153,
                0.10065857676692377,
                -0.4421507129921649
            ]
        },
        {
            "positions": [
                1.22128628567902,
                -1.4362727990207411,
                -0.3440495277808391,
                1.113652687794953,
                0.11520808299522453,
                -0.545667652015281
            ]
        },
        {
            "positions": [
                1.1286083998922556,
                -1.4236823543126629,
                -0.2496216851808255,
                1.0357411346467909,
                0.12975758922352526,
                -0.6491845910383969
            ]
        },
        {
            "positions": [
                1.0359305141054909,
                -1.4110919096045846,
                -0.15519384258081192,
                0.9578295814986284,
                0.14430709545182602,
                -0.752701530061513
            ]
        },
        {
            "positions": [
                0.9432526283187261,
                -1.3985014648965064,
                -0.060765999980798346,
                0.8799180283504662,
                0.1588566016801268,
                -0.8562184690846288
            ]
        },
        {
            "positions": [
                0.8505747425319614,
                -1.3859110201884282,
                0.03366184261921523,
                0.8020064752023037,
                0.17340610790842756,
                -0.9597354081077449
            ]
        },
        {
            "positions": [
                0.7578968567451969,
                -1.3733205754803501,
                0.1280896852192288,
                0.7240949220541415,
                0.1879556141367283,
                -1.0632523471308608
            ]
        },
        {
            "positions": [
                0.6652189709584324,
                -1.360730130772272,
                0.2225175278192424,
                0.6461833689059793,
                0.20250512036502905,
                -1.166769286153977
            ]
        },
        {
            "positions": [
                0.5725410851716677,
                -1.3481396860641937,
                0.31694537041925597,
                0.5682718157578168,
                0.2170546265933298,
                -1.270286225177093
            ]
        },
        {
            "positions": [
                0.47986319938490296,
                -1.3355492413561154,
                0.41137321301926955,
                0.4903602626096544,
                0.23160413282163056,
                -1.373803164200209
            ]
        },
        {
            "positions": [
                0.38718531359813846,
                -1.3229587966480372,
                0.5058010556192831,
                0.41244870946149215,
                0.24615363904993132,
                -1.4773201032233252
            ]
        },
        {
            "positions": [
                0.29450742781137373,
                -1.310368351939959,
                0.6002288982192969,
                0.3345371563133297,
                0.2607031452782321,
                -1.5808370422464413
            ]
        },
        {
            "positions": [
                0.20182954202460923,
                -1.2977779072318807,
                0.6946567408193103,
                0.25662560316516747,
                0.27525265150653283,
                -1.6843539812695574
            ]
        },
        {
            "positions": [
                0.10915165623784473,
                -1.2851874625238024,
                0.7890845834193236,
                0.17871405001700524,
                0.28980215773483353,
                -1.787870920292673
            ]
        },
        {
            "positions": [
                0.016473770451080227,
                -1.2725970178157242,
                0.8835124260193374,
                0.10080249686884302,
                0.3043516639631343,
                -1.8913878593157891
            ]
        },
        {
            "positions": [
                -0.07620411533568472,
                -1.260006573107646,
                0.9779402686193508,
                0.022890943720680568,
                0.31890117019143505,
                -1.9949047983389052
            ]
        },
        {
            "positions": [
                -0.16888200112244922,
                -1.2474161283995677,
                1.0723681112193646,
                -0.05502060942748188,
                0.3334506764197358,
                -2.0984217373620213
            ]
        },
        {
            "positions": [
                -0.2615598869092137,
                -1.2348256836914895,
                1.1667959538193784,
                -0.1329321625756441,
                0.34800018264803656,
                -2.2019386763851374
            ]
        },
        {
            "positions": [
                -0.35423777269597867,
                -1.2222352389834112,
                1.2612237964193918,
                -0.21084371572380634,
                0.3625496888763374,
                -2.305455615408253
            ]
        },
        {
            "positions": [
                -0.44691565848274317,
                -1.209644794275333,
                1.3556516390194056,
                -0.288755268871969,
                0.37709919510463813,
                -2.408972554431369
            ]
        },
        {
            "positions": [
                -0.5395935442695081,
                -1.1970543495672548,
                1.450079481619419,
                -0.36666682202013123,
                0.3916487013329389,
                -2.5124894934544852
            ]
        },
        {
            "positions": [
                -0.6322714300562726,
                -1.1844639048591765,
                1.5445073242194327,
                -0.44457837516829346,
                0.40619820756123964,
                -2.6160064324776013
            ]
        },
        {
            "positions": [
                -0.7249493158430371,
                -1.1718734601510983,
                1.638935166819446,
                -0.5224899283164557,
                0.42074771378954035,
                -2.719523371500717
            ]
        },
        {
            "positions": [
                -0.8176272016298016,
                -1.15928301544302,
                1.7333630094194594,
                -0.6004014814646179,
                0.4352972200178411,
                -2.823040310523833
            ]
        },
        {
            "positions": [
                -0.9103050874165661,
                -1.1466925707349418,
                1.8277908520194732,
                -0.6783130346127801,
                0.44984672624614186,
                -2.926557249546949
            ]
        },
        {
            "positions": [
                -1.002982973203331,
                -1.1341021260268636,
                1.9222186946194866,
                -0.7562245877609428,
                0.4643962324744426,
                -3.0300741885700653
            ]
        },
        {
            "positions": [
                -1.0956608589900958,
                -1.1215116813187853,
                2.0166465372195006,
                -0.8341361409091052,
                0.4789457387027434,
                -3.1335911275931814
            ]
        }
    ]
}