{
    "goal": {
        "global_pose": {
            "orientation": {
                "w": 0.7031023502349854,
                "x": -0.7110244035720825,
                "y": 0.007748599164187908,
                "z": 0.005598929710686207
            },
            "position": {
                "x": 0.11585023208521307,
                "y": 0.44412534475326537,
                "z": 0.3711530566215515
            }
        },
        "name": "move_to_auspresseinheit_A"
    },
    "id": "STRIDE_move_to_auspresseinheit_A_133",
    "joint_names": [
        "shoulder_pan_joint",
        "shoulder_lift_joint",
        "elbow_joint",
        "wrist_1_joint",
        "wrist_2_joint",
        "wrist_3_joint"
    ],
    "metrics": {
        "cart_traj_len": 0.7127046741213199,
        "distance_elbow_joint": 0.21921365193633235,
        "distance_shoulder_lift_joint": 0.5334371153200619,
        "distance_shoulder_pan_joint": 1.0443691228287242,
        "distance_wrist_1_joint": 0.5576851355666899,
        "distance_wrist_2_joint": 1.670097770214657,
        "distance_wrist_3_joint": 0.13287039967509662,
        "smoothness": 1.2746427009744474,
        "time": 0.40488164299999996,
        "traj_len": 2.0390373207819326,
        "weighted_distance": 2.5789914502908116
    },
    "planner": "STRIDE",
    "start": {
        "state": {
            "elbow_joint": 2.4225746658250005,
            "shoulder_lift_joint": -1.3736534386056498,
            "shoulder_pan_joint": -0.3378633547517467,
            "wrist_1_joint": -1.0288598680537169,
            "wrist_2_joint": 1.233022673432363,
            "wrist_3_joint": -3.0940220416140027
        }
    },
    "waypoints": [
        {
            "positions": [
                -0.3378633547517467,
                -1.3736534386056498,
                2.4225746658250005,
                -1.0288598680537169,
                1.233022673432363,
                -3.0940220416140027
            ]
        },
        {
            "positions": [
                -0.25996532980454856,
                -1.4335040673259467,
                2.4070441385522465,
                -0.960635400274259,
                1.0958238846541817,
                -3.0881101321968436
            ]
        },
        {
            "positions": [
                -0.18206730485735034,
                -1.4933546960462438,
                2.391513611279493,
                -0.892410932494801,
                0.9586250958760002,
                -3.0821982227796845
            ]
        },
        {
            "positions": [
                -0.10416927991015215,
                -1.5532053247665407,
                2.375983084006739,
                -0.824186464715343,
                0.8214263070978187,
                -3.076286313362525
            ]
        },
        {
            "positions": [
                -0.02627125496295396,
                -1.6130559534868376,
                2.3604525567339856,
                -0.7559619969358851,
                0.6842275183196374,
                -3.0703744039453658
            ]
        },
        {
            "positions": [
                0.05162676998424426,
                -1.6729065822071347,
                2.3449220294612316,
                -0.6877375291564272,
                0.547028729541456,
                -3.0644624945282066
            ]
        },
        {
            "positions": [
                0.12952479493144242,
                -1.7327572109274316,
                2.3293915021884777,
                -0.6195130613769692,
                0.4098299407632745,
                -3.058550585111047
            ]
        },
        {
            "positions": [
                0.20742281987864059,
                -1.7926078396477285,
                2.313860974915724,
                -0.5512885935975111,
                0.272631151985093,
                -3.052638675693888
            ]
        },
        {
            "positions": [
                0.28532084482583886,
                -1.8524584683680256,
                2.2983304476429702,
                -0.4830641258180533,
                0.13543236320691154,
                -3.046726766276729
            ]
        },
        {
            "positions": [
                0.39061707563862347,
                -1.8661164897574471,
                2.322072806081546,
                -0.48009177748529674,
                0.2785592282042131,
                -3.0681205473611843
            ]
        },
        {
            "positions": [
                0.49591330645140813,
                -1.8797745111468687,
                2.345815164520121,
                -0.47711942915254024,
                0.42168609320151457,
                -3.08951432844564
            ]
        },
        {
            "positions": [
                0.6012095372641928,
                -1.8934325325362902,
                2.3695575229586967,
                -0.47414708081978374,
                0.564812958198816,
                -3.110908109530096
            ]
        },
        {
            "positions": [
                0.7065057680769774,
                -1.9070905539257117,
                2.3932998813972723,
                -0.4711747324870272,
                0.7079398231961176,
                -3.1323018906145514
            ]
        }
    ]
}