{
    "goal": {
        "global_pose": {
            "orientation": {
                "w": -0.00223480608172531,
                "x": 0.0024358444001904467,
                "y": 0.7094548369677653,
                "z": -0.704743149386269
            },
            "position": {
                "x": -0.37947507619857795,
                "y": -0.6371506643295288,
                "z": 0.19426114857196808
            }
        },
        "name": "move_to_magneteinheit_C"
    },
    "id": "STRIDE_move_to_magneteinheit_C_73",
    "joint_names": [
        "shoulder_pan_joint",
        "shoulder_lift_joint",
        "elbow_joint",
        "wrist_1_joint",
        "wrist_2_joint",
        "wrist_3_joint"
    ],
    "metrics": {
        "cart_traj_len": 0.7687409731260013,
        "distance_elbow_joint": 1.025523835776538,
        "distance_shoulder_lift_joint": 0.7412447537490017,
        "distance_shoulder_pan_joint": 0.8716959874690005,
        "distance_wrist_1_joint": 0.9786747849794727,
        "distance_wrist_2_joint": 2.076295348942678,
        "distance_wrist_3_joint": 0.8693511503809996,
        "smoothness": 1.3355059082168839,
        "time": 3.585794833,
        "traj_len": 2.5617934852945683,
        "weighted_distance": 3.3699344646419815
    },
    "planner": "STRIDE",
    "start": {
        "state": {
            "elbow_joint": 1.9565354010623817,
            "shoulder_lift_joint": -1.4165861575791021,
            "shoulder_pan_joint": -1.6717766225146293,
            "wrist_1_joint": -0.5286633292919765,
            "wrist_2_joint": 1.472756589071564,
            "wrist_3_joint": -3.1238370188695823
        }
    },
    "waypoints": [
        {
            "positions": [
                -1.6717766225146293,
                -1.4165861575791021,
                1.9565354010623817,
                -0.5286633292919765,
                1.472756589071564,
                -3.1238370188695823
            ]
        },
        {
            "positions": [
                -1.7457547551448278,
                -1.438781838079578,
                2.0058231140825304,
                -0.5879706094836289,
                1.3426233047085292,
                -3.0845545434910115
            ]
        },
        {
            "positions": [
                -1.8197328877750265,
                -1.4609775185800538,
                2.055110827102679,
                -0.6472778896752813,
                1.2124900203454947,
                -3.045272068112441
            ]
        },
        {
            "positions": [
                -1.893711020405225,
                -1.4831731990805297,
                2.1043985401228276,
                -0.7065851698669338,
                1.0823567359824602,
                -3.0059895927338705
            ]
        },
        {
            "positions": [
                -1.9676891530354235,
                -1.5053688795810056,
                2.1536862531429763,
                -0.7658924500585862,
                0.9522234516194255,
                -2.9667071173552997
            ]
        },
        {
            "positions": [
                -2.041667285665622,
                -1.5275645600814816,
                2.2029739661631247,
                -0.8251997302502387,
                0.8220901672563908,
                -2.927424641976729
            ]
        },
        {
            "positions": [
                -2.115645418295821,
                -1.5497602405819573,
                2.2522616791832735,
                -0.8845070104418911,
                0.6919568828933562,
                -2.8881421665981586
            ]
        },
        {
            "positions": [
                -2.189623550926019,
                -1.5719559210824332,
                2.3015493922034223,
                -0.9438142906335436,
                0.5618235985303215,
                -2.848859691219588
            ]
        },
        {
            "positions": [
                -2.263601683556218,
                -1.5941516015829091,
                2.3508371052235706,
                -1.0031215708251962,
                0.431690314167287,
                -2.809577215841017
            ]
        },
        {
            "positions": [
                -2.3375798161864165,
                -1.616347282083385,
                2.4001248182437194,
                -1.0624288510168485,
                0.30155702980425225,
                -2.7702947404624463
            ]
        },
        {
            "positions": [
                -2.411557948816615,
                -1.6385429625838608,
                2.4494125312638677,
                -1.1217361312085008,
                0.17142374544121775,
                -2.731012265083876
            ]
        },
        {
            "positions": [
                -2.4855360814468135,
                -1.6607386430843367,
                2.4987002442840165,
                -1.1810434114001533,
                0.0412904610781831,
                -2.691729789705305
            ]
        },
        {
            "positions": [
                -2.489941693279632,
                -1.579915739857081,
                2.4090650636960573,
                -1.1469247657389183,
                0.15741900862014951,
                -2.7173719134075416
            ]
        },
        {
            "positions": [
                -2.4943473051124507,
                -1.4990928366298248,
                2.3194298831080977,
                -1.1128061200776835,
                0.27354755616211596,
                -2.7430140371097775
            ]
        },
        {
            "positions": [
                -2.498752916945269,
                -1.418269933402569,
                2.2297947025201386,
                -1.0786874744164485,
                0.38967610370408234,
                -2.768656160812014
            ]
        },
        {
            "positions": [
                -2.503158528778088,
                -1.337447030175313,
                2.140159521932179,
                -1.0445688287552137,
                0.5058046512460488,
                -2.79429828451425
            ]
        },
        {
            "positions": [
                -2.5075641406109064,
                -1.2566241269480571,
                2.05052434134422,
                -1.0104501830939787,
                0.6219331987880152,
                -2.8199404082164863
            ]
        },
        {
            "positions": [
                -2.489609905924545,
                -1.2101352508943135,
                2.0329327965366666,
                -0.9325994458114182,
                0.6540264404077475,
                -2.974457059569257
            ]
        },
        {
            "positions": [
                -2.471655671238183,
                -1.1636463748405697,
                2.0153412517291134,
                -0.8547487085288575,
                0.6861196820274797,
                -3.1289737109220277
            ]
        }
    ]
}