{
    "goal": {
        "global_pose": {
            "orientation": {
                "w": 0.7047431468963623,
                "x": -0.7094548344612122,
                "y": 0.0024358443915843964,
                "z": -0.0022348060738295317
            },
            "position": {
                "x": 0.6094750761985779,
                "y": 0.3671506643295288,
                "z": 0.19426114857196808
            }
        },
        "name": "move_to_magneteinheit_A"
    },
    "id": "STRIDE_move_to_magneteinheit_A_86",
    "joint_names": [
        "shoulder_pan_joint",
        "shoulder_lift_joint",
        "elbow_joint",
        "wrist_1_joint",
        "wrist_2_joint",
        "wrist_3_joint"
    ],
    "metrics": {
        "cart_traj_len": 4.971899449072523,
        "distance_elbow_joint": 3.911447171683192,
        "distance_shoulder_lift_joint": 1.5301129156778575,
        "distance_shoulder_pan_joint": 6.43940802364962,
        "distance_wrist_1_joint": 3.4701422967375786,
        "distance_wrist_2_joint": 6.1719037313294205,
        "distance_wrist_3_joint": 0.4267615001895353,
        "smoothness": 0.3453489585460796,
        "time": 0.102787827,
        "traj_len": 4.68505876582858,
        "weighted_distance": 5.6960815187032985
    },
    "planner": "STRIDE",
    "start": {
        "state": {
            "elbow_joint": -1.9196185241190666,
            "shoulder_lift_joint": -1.2443396400964142,
            "shoulder_pan_joint": 2.6996025414629847,
            "wrist_1_joint": -1.5485510000780065,
            "wrist_2_joint": -1.5709468930060704,
            "wrist_3_joint": 0.4420197071253992
        }
    },
    "waypoints": [
        {
            "positions": [
                2.6996025414629847,
                -1.2443396400964142,
                -1.9196185241190666,
                -1.5485510000780065,
                -1.5709468930060704,
                0.4420197071253992
            ]
        },
        {
            "positions": [
                2.574395318975693,
                -1.259104421795855,
                -1.8140340230455763,
                -1.512077199333828,
                -1.4651999987472426,
                0.43661498030803675
            ]
        },
        {
            "positions": [
                2.4491880964884016,
                -1.2738692034952956,
                -1.7084495219720859,
                -1.4756033985896495,
                -1.3594531044884146,
                0.4312102534906744
            ]
        },
        {
            "positions": [
                2.32398087400111,
                -1.2886339851947366,
                -1.6028650208985955,
                -1.439129597845471,
                -1.2537062102295868,
                0.42580552667331195
            ]
        },
        {
            "positions": [
                2.198773651513818,
                -1.3033987668941773,
                -1.4972805198251051,
                -1.4026557971012925,
                -1.147959315970759,
                0.4204007998559496
            ]
        },
        {
            "positions": [
                2.0735664290265268,
                -1.318163548593618,
                -1.3916960187516145,
                -1.3661819963571138,
                -1.042212421711931,
                0.41499607303858715
            ]
        },
        {
            "positions": [
                1.948359206539235,
                -1.3329283302930588,
                -1.2861115176781244,
                -1.3297081956129353,
                -0.9364655274531033,
                0.4095913462212248
            ]
        },
        {
            "positions": [
                1.8231519840519432,
                -1.3476931119924997,
                -1.1805270166046338,
                -1.2932343948687568,
                -0.8307186331942754,
                0.40418661940386236
            ]
        },
        {
            "positions": [
                1.697944761564652,
                -1.3624578936919405,
                -1.0749425155311436,
                -1.2567605941245783,
                -0.7249717389354476,
                0.3987818925865
            ]
        },
        {
            "positions": [
                1.5727375390773601,
                -1.3772226753913812,
                -0.969358014457653,
                -1.2202867933803998,
                -0.6192248446766198,
                0.39337716576913756
            ]
        },
        {
            "positions": [
                1.4475303165900684,
                -1.391987457090822,
                -0.8637735133841626,
                -1.1838129926362213,
                -0.5134779504177918,
                0.38797243895177513
            ]
        },
        {
            "positions": [
                1.3223230941027768,
                -1.4067522387902627,
                -0.758189012310672,
                -1.1473391918920428,
                -0.407731056158964,
                0.38256771213441276
            ]
        },
        {
            "positions": [
                1.1971158716154853,
                -1.4215170204897036,
                -0.6526045112371819,
                -1.1108653911478643,
                -0.3019841619001362,
                0.37716298531705034
            ]
        },
        {
            "positions": [
                1.0719086491281937,
                -1.4362818021891444,
                -0.5470200101636915,
                -1.0743915904036858,
                -0.19623726764130844,
                0.3717582584996879
            ]
        },
        {
            "positions": [
                0.946701426640902,
                -1.451046583888585,
                -0.4414355090902009,
                -1.0379177896595073,
                -0.09049037338248045,
                0.36635353168232554
            ]
        },
        {
            "positions": [
                0.8214942041536104,
                -1.4658113655880258,
                -0.33585100801671053,
                -1.0014439889153288,
                0.015256520876347324,
                0.36094880486496317
            ]
        },
        {
            "positions": [
                0.6962869816663191,
                -1.4805761472874668,
                -0.23026650694322037,
                -0.9649701881711503,
                0.1210034151351751,
                0.35554407804760074
            ]
        },
        {
            "positions": [
                0.5710797591790273,
                -1.4953409289869075,
                -0.12468200586972977,
                -0.9284963874269717,
                0.22675030939400287,
                0.3501393512302383
            ]
        },
        {
            "positions": [
                0.44587253669173554,
                -1.5101057106863482,
                -0.019097504796239395,
                -0.8920225866827932,
                0.33249720365283086,
                0.34473462441287595
            ]
        },
        {
            "positions": [
                0.3206653142044438,
                -1.524870492385789,
                0.0864869962772512,
                -0.8555487859386147,
                0.43824409791165864,
                0.3393298975955135
            ]
        },
        {
            "positions": [
                0.195458091717152,
                -1.5396352740852297,
                0.19207149735074136,
                -0.8190749851944361,
                0.5439909921704869,
                0.3339251707781511
            ]
        },
        {
            "positions": [
                0.07025086922986068,
                -1.5544000557846707,
                0.29765599842423196,
                -0.7826011844502576,
                0.6497378864293146,
                0.3285204439607887
            ]
        },
        {
            "positions": [
                -0.05495635325743109,
                -1.5691648374841114,
                0.40324049949772256,
                -0.7461273837060791,
                0.7554847806881424,
                0.3231157171434263
            ]
        },
        {
            "positions": [
                -0.18016357574472242,
                -1.5839296191835521,
                0.5088250005712123,
                -0.7096535829619007,
                0.8612316749469697,
                0.3177109903260639
            ]
        },
        {
            "positions": [
                -0.3053707982320142,
                -1.5986944008829929,
                0.6144095016447029,
                -0.6731797822177221,
                0.9669785692057979,
                0.3123062635087015
            ]
        },
        {
            "positions": [
                -0.4305780207193055,
                -1.6134591825824338,
                0.7199940027181935,
                -0.6367059814735436,
                1.0727254634646257,
                0.3069015366913391
            ]
        },
        {
            "positions": [
                -0.5557852432065973,
                -1.6282239642818745,
                0.8255785037916836,
                -0.6002321807293651,
                1.1784723577234535,
                0.3014968098739767
            ]
        },
        {
            "positions": [
                -0.680992465693889,
                -1.6429887459813153,
                0.9311630048651742,
                -0.5637583799851866,
                1.2842192519822813,
                0.2960920830566143
            ]
        },
        {
            "positions": [
                -0.8061996881811808,
                -1.657753527680756,
                1.0367475059386648,
                -0.5272845792410081,
                1.3899661462411095,
                0.2906873562392519
            ]
        },
        {
            "positions": [
                -0.9314069106684726,
                -1.6725183093801967,
                1.142332007012155,
                -0.4908107784968294,
                1.4957130404999373,
                0.28528262942188953
            ]
        },
        {
            "positions": [
                -1.056614133155764,
                -1.6872830910796377,
                1.2479165080856456,
                -0.4543369777526509,
                1.601459934758765,
                0.2798779026045271
            ]
        },
        {
            "positions": [
                -1.1818213556430557,
                -1.7020478727790784,
                1.3535010091591362,
                -0.4178631770084724,
                1.7072068290175932,
                0.2744731757871647
            ]
        },
        {
            "positions": [
                -1.3070285781303466,
                -1.7168126544785192,
                1.459085510232626,
                -0.38138937626429414,
                1.8129537232764206,
                0.2690684489698023
            ]
        },
        {
            "positions": [
                -1.4322358006176388,
                -1.73157743617796,
                1.5646700113061165,
                -0.3449155755201154,
                1.9187006175352483,
                0.26366372215243994
            ]
        },
        {
            "positions": [
                -1.55744302310493,
                -1.7463422178774008,
                1.670254512379607,
                -0.3084417747759369,
                2.024447511794076,
                0.25825899533507746
            ]
        },
        {
            "positions": [
                -1.6826502455922223,
                -1.7611069995768416,
                1.7758390134530972,
                -0.27196797403175843,
                2.1301944060529046,
                0.2528542685177151
            ]
        },
        {
            "positions": [
                -1.8078574680795132,
                -1.7758717812762823,
                1.881423514526588,
                -0.23549417328757993,
                2.235941300311732,
                0.2474495417003527
            ]
        },
        {
            "positions": [
                -1.711260067374157,
                -1.725942742551383,
                1.8869437711784651,
                -0.12763989979022233,
                2.117690523411151,
                0.23583997496212825
            ]
        },
        {
            "positions": [
                -1.6146626666688007,
                -1.6760137038264833,
                1.892464027830342,
                -0.019785626292864733,
                1.99943974651057,
                0.2242304082239038
            ]
        },
        {
            "positions": [
                -1.5180652659634442,
                -1.626084665101584,
                1.897984284482219,
                0.08806864720449281,
                1.881188969609989,
                0.2126208414856794
            ]
        },
        {
            "positions": [
                -1.4214678652580879,
                -1.5761556263766843,
                1.9035045411340958,
                0.19592292070185047,
                1.762938192709408,
                0.20101127474745495
            ]
        },
        {
            "positions": [
                -1.3248704645527316,
                -1.5262265876517849,
                1.909024797785973,
                0.303777194199208,
                1.6446874158088272,
                0.1894017080092305
            ]
        },
        {
            "positions": [
                -1.2282730638473753,
                -1.4762975489268855,
                1.9145450544378497,
                0.41163146769656556,
                1.5264366389082462,
                0.17779214127100607
            ]
        },
        {
            "positions": [
                -1.131675663142019,
                -1.426368510201986,
                1.9200653110897268,
                0.5194857411939231,
                1.4081858620076653,
                0.16618257453278162
            ]
        },
        {
            "positions": [
                -1.0350782624366626,
                -1.3764394714770865,
                1.9255855677416036,
                0.6273400146912809,
                1.2899350851070843,
                0.15457300779455718
            ]
        },
        {
            "positions": [
                -0.9384808617313064,
                -1.3265104327521868,
                1.9311058243934807,
                0.7351942881886384,
                1.1716843082065034,
                0.14296344105633274
            ]
        },
        {
            "positions": [
                -0.8418834610259501,
                -1.2765813940272874,
                1.9366260810453575,
                0.843048561685996,
                1.0534335313059224,
                0.1313538743181083
            ]
        },
        {
            "positions": [
                -0.7452860603205937,
                -1.226652355302388,
                1.9421463376972345,
                0.9509028351833537,
                0.9351827544053415,
                0.11974430757988386
            ]
        },
        {
            "positions": [
                -0.6486886596152375,
                -1.1767233165774886,
                1.9476665943491116,
                1.058757108680711,
                0.8169319775047605,
                0.10813474084165944
            ]
        },
        {
            "positions": [
                -0.5520912589098812,
                -1.126794277852589,
                1.9531868510009884,
                1.1666113821780688,
                0.6986812006041796,
                0.096525174103435
            ]
        },
        {
            "positions": [
                -0.4554938582045249,
                -1.0768652391276896,
                1.9587071076528655,
                1.2744656556754261,
                0.5804304237035987,
                0.08491560736521056
            ]
        },
        {
            "positions": [
                -0.35889645749916865,
                -1.02693620040279,
                1.9642273643047423,
                1.382319929172784,
                0.4621796468030177,
                0.07330604062698612
            ]
        },
        {
            "positions": [
                -0.26229905679381216,
                -0.9770071616778906,
                1.9697476209566194,
                1.4901742026701417,
                0.34392886990243676,
                0.06169647388876168
            ]
        },
        {
            "positions": [
                -0.1657016560884561,
                -0.9270781229529911,
                1.9752678776084962,
                1.598028476167499,
                0.22567809300185582,
                0.05008690715053726
            ]
        },
        {
            "positions": [
                -0.06910425538309961,
                -0.8771490842280916,
                1.9807881342603733,
                1.7058827496648568,
                0.10742731610127487,
                0.03847734041231282
            ]
        },
        {
            "positions": [
                0.02749314532225644,
                -0.8272200455031922,
                1.98630839091225,
                1.813737023162214,
                -0.010823460799306073,
                0.02686777367408838
            ]
        },
        {
            "positions": [
                0.12409054602761302,
                -0.7772910067782927,
                1.9918286475641271,
                1.921591296659572,
                -0.12907423769988716,
                0.015258206935863933
            ]
        }
    ]
}