{
    "goal": {
        "global_pose": {
            "orientation": {
                "w": 0.005598929693374612,
                "x": 0.007748599140229565,
                "y": 0.7110244013736278,
                "z": -0.7031023480610252
            },
            "position": {
                "x": -0.8858502320852131,
                "y": -0.7141253447532654,
                "z": 0.3711530566215515
            }
        },
        "name": "move_to_auspresseinheit_C"
    },
    "id": "STRIDE_move_to_auspresseinheit_C_29",
    "joint_names": [
        "shoulder_pan_joint",
        "shoulder_lift_joint",
        "elbow_joint",
        "wrist_1_joint",
        "wrist_2_joint",
        "wrist_3_joint"
    ],
    "metrics": {
        "cart_traj_len": 0.49507926890784304,
        "distance_elbow_joint": 1.0162401961145808,
        "distance_shoulder_lift_joint": 0.3323511475718224,
        "distance_shoulder_pan_joint": 0.25683159986785986,
        "distance_wrist_1_joint": 0.7048167251037942,
        "distance_wrist_2_joint": 1.3150280999265158,
        "distance_wrist_3_joint": 0.07187241768098884,
        "smoothness": 3.2297397335745243e-16,
        "time": 0.649272897,
        "traj_len": 1.9227948892863123,
        "weighted_distance": 2.4208944311262006
    },
    "planner": "STRIDE",
    "start": {
        "state": {
            "elbow_joint": 1.7527959577737207,
            "shoulder_lift_joint": -0.9740617694225068,
            "shoulder_pan_joint": -2.967991417825858,
            "wrist_1_joint": -0.759517768980727,
            "wrist_2_joint": 1.7443932448377408,
            "wrist_3_joint": -3.0840537646736568
        }
    },
    "waypoints": [
        {
            "positions": [
                -2.967991417825858,
                -0.9740617694225068,
                1.7527959577737207,
                -0.759517768980727,
                1.7443932448377408,
                -3.0840537646736568
            ]
        },
        {
            "positions": [
                -2.942308257839072,
                -0.9408266546653246,
                1.6511719381622625,
                -0.6890360964703476,
                1.6128904348450892,
                -3.0912410064417557
            ]
        },
        {
            "positions": [
                -2.916625097852286,
                -0.9075915399081423,
                1.5495479185508045,
                -0.6185544239599681,
                1.4813876248524376,
                -3.0984282482098546
            ]
        },
        {
            "positions": [
                -2.8909419378655,
                -0.87435642515096,
                1.4479238989393464,
                -0.5480727514495887,
                1.3498848148597862,
                -3.1056154899779536
            ]
        },
        {
            "positions": [
                -2.865258777878714,
                -0.8411213103937778,
                1.3462998793278884,
                -0.47759107893920927,
                1.2183820048671343,
                -3.1128027317460525
            ]
        },
        {
            "positions": [
                -2.839575617891928,
                -0.8078861956365956,
                1.2446758597164302,
                -0.40710940642882987,
                1.086879194874483,
                -3.1199899735141514
            ]
        },
        {
            "positions": [
                -2.813892457905142,
                -0.7746510808794134,
                1.143051840104972,
                -0.33662773391845047,
                0.9553763848818314,
                -3.12717721528225
            ]
        },
        {
            "positions": [
                -2.788209297918356,
                -0.7414159661222312,
                1.0414278204935141,
                -0.26614606140807107,
                0.8238735748891798,
                -3.134364457050349
            ]
        },
        {
            "positions": [
                -2.76252613793157,
                -0.7081808513650489,
                0.939803800882056,
                -0.19566438889769155,
                0.692370764896528,
                -3.1415516988184478
            ]
        },
        {
            "positions": [
                -2.736842977944784,
                -0.6749457366078666,
                0.8381797812705979,
                -0.12518271638731215,
                0.5608679549038766,
                -3.1487389405865467
            ]
        },
        {
            "positions": [
                -2.711159817957998,
                -0.6417106218506844,
                0.7365557616591398,
                -0.05470104387693278,
                0.4293651449112249,
                -3.1559261823546456
            ]
        }
    ]
}