{
    "goal": {
        "global_pose": {
            "orientation": {
                "w": 0.7031023502349854,
                "x": -0.7110244035720825,
                "y": 0.007748599164187908,
                "z": 0.005598929710686207
            },
            "position": {
                "x": 0.11585023208521307,
                "y": 0.44412534475326537,
                "z": 0.3711530566215515
            }
        },
        "name": "move_to_auspresseinheit_A"
    },
    "id": "STRIDE_move_to_auspresseinheit_A_48",
    "joint_names": [
        "shoulder_pan_joint",
        "shoulder_lift_joint",
        "elbow_joint",
        "wrist_1_joint",
        "wrist_2_joint",
        "wrist_3_joint"
    ],
    "metrics": {
        "cart_traj_len": 0.7010430886506496,
        "distance_elbow_joint": 0.15104912298725992,
        "distance_shoulder_lift_joint": 0.6527346320262533,
        "distance_shoulder_pan_joint": 1.0420529685328912,
        "distance_wrist_1_joint": 1.192250355687784,
        "distance_wrist_2_joint": 0.8462479664128488,
        "distance_wrist_3_joint": 0.3322119258038452,
        "smoothness": 1.6229444522938918,
        "time": 0.456040725,
        "traj_len": 2.0534232324221136,
        "weighted_distance": 2.6304883852925878
    },
    "planner": "STRIDE",
    "start": {
        "state": {
            "elbow_joint": 2.4225746658250005,
            "shoulder_lift_joint": -1.3736534386056498,
            "shoulder_pan_joint": -0.3378633547517467,
            "wrist_1_joint": -1.0288598680537169,
            "wrist_2_joint": 1.233022673432363,
            "wrist_3_joint": -3.0940220416140027
        }
    },
    "waypoints": [
        {
            "positions": [
                -0.3378633547517467,
                -1.3736534386056498,
                2.4225746658250005,
                -1.0288598680537169,
                1.233022673432363,
                -3.0940220416140027
            ]
        },
        {
            "positions": [
                -0.2502762137341652,
                -1.4479140448242929,
                2.4114355990362433,
                -0.9196247946057778,
                1.1471361494393524,
                -3.075115553787832
            ]
        },
        {
            "positions": [
                -0.16268907271658367,
                -1.5221746510429357,
                2.400296532247486,
                -0.8103897211578389,
                1.061249625446342,
                -3.0562090659616614
            ]
        },
        {
            "positions": [
                -0.07510193169900214,
                -1.5964352572615788,
                2.3891574654587293,
                -0.7011546477099,
                0.9753631014533313,
                -3.037302578135491
            ]
        },
        {
            "positions": [
                0.012485209318579382,
                -1.6706958634802218,
                2.378018398669972,
                -0.591919574261961,
                0.8894765774603206,
                -3.01839609030932
            ]
        },
        {
            "positions": [
                0.10007235033616091,
                -1.7449564696988646,
                2.366879331881215,
                -0.4826845008140219,
                0.8035900534673099,
                -2.999489602483149
            ]
        },
        {
            "positions": [
                0.18765949135374244,
                -1.8192170759175077,
                2.355740265092458,
                -0.373449427366083,
                0.7177035294742994,
                -2.980583114656979
            ]
        },
        {
            "positions": [
                0.275246632371324,
                -1.8934776821361505,
                2.344601198303701,
                -0.2642143539181441,
                0.6318170054812888,
                -2.9616766268308083
            ]
        },
        {
            "positions": [
                0.36283377338890543,
                -1.9677382883547936,
                2.3334621315149437,
                -0.15497928047020498,
                0.5459304814882782,
                -2.9427701390046375
            ]
        },
        {
            "positions": [
                0.4766190535196517,
                -1.9481883609290904,
                2.3541076610740115,
                -0.2611025365049623,
                0.5989824063111995,
                -3.0030901467361306
            ]
        },
        {
            "positions": [
                0.590404333650398,
                -1.9286384335033873,
                2.374753190633079,
                -0.36722579253971965,
                0.6520343311341208,
                -3.063410154467624
            ]
        },
        {
            "positions": [
                0.7041896137811443,
                -1.909088506077684,
                2.395398720192147,
                -0.47334904857447696,
                0.7050862559570421,
                -3.1237301621991174
            ]
        }
    ]
}