{
    "goal": {
        "global_pose": {
            "orientation": {
                "w": -0.4816463035849501,
                "x": 0.5182115481033762,
                "y": 0.4908360881923453,
                "z": -0.5084816262002911
            },
            "position": {
                "x": -0.8240239810943604,
                "y": -0.300875300988555,
                "z": 0.16403168439865112
            }
        },
        "name": "move_to_storage_C"
    },
    "id": "STRIDE_move_to_storage_C_1",
    "joint_names": [
        "shoulder_pan_joint",
        "shoulder_lift_joint",
        "elbow_joint",
        "wrist_1_joint",
        "wrist_2_joint",
        "wrist_3_joint"
    ],
    "metrics": {
        "cart_traj_len": 0.5762409620320155,
        "distance_elbow_joint": 0.2578899064764253,
        "distance_shoulder_lift_joint": 0.1890866654760761,
        "distance_shoulder_pan_joint": 0.49517792923473714,
        "distance_wrist_1_joint": 0.07900707920537986,
        "distance_wrist_2_joint": 1.0604182660455357,
        "distance_wrist_3_joint": 0.0726961922176379,
        "smoothness": 0.0,
        "time": 0.107966963,
        "traj_len": 1.467745222664953,
        "weighted_distance": 1.8544793793250933
    },
    "planner": "STRIDE",
    "start": {
        "state": {
            "elbow_joint": 2.010868314990456,
            "shoulder_lift_joint": -1.1634956873337592,
            "shoulder_pan_joint": -2.4736205022346125,
            "wrist_1_joint": -0.8367026794202681,
            "wrist_2_joint": 0.6746043897044499,
            "wrist_3_joint": -3.1496632123970403
        }
    },
    "waypoints": [
        {
            "positions": [
                -2.4736205022346125,
                -1.1634956873337592,
                2.010868314990456,
                -0.8367026794202681,
                0.6746043897044499,
                -3.1496632123970403
            ]
        },
        {
            "positions": [
                -2.556150157107069,
                -1.1319812430877465,
                1.9678866639110515,
                -0.8235348328860381,
                0.8513407673787059,
                -3.1375471803607673
            ]
        },
        {
            "positions": [
                -2.6386798119795247,
                -1.1004667988417338,
                1.9249050128316474,
                -0.8103669863518081,
                1.0280771450529618,
                -3.1254311483244943
            ]
        },
        {
            "positions": [
                -2.721209466851981,
                -1.0689523545957211,
                1.8819233617522433,
                -0.7971991398175782,
                1.2048135227272176,
                -3.1133151162882213
            ]
        },
        {
            "positions": [
                -2.8037391217244374,
                -1.0374379103497084,
                1.838941710672839,
                -0.7840312932833482,
                1.3815499004014735,
                -3.1011990842519483
            ]
        },
        {
            "positions": [
                -2.8862687765968933,
                -1.0059234661036958,
                1.7959600595934346,
                -0.7708634467491182,
                1.5582862780757298,
                -3.0890830522156754
            ]
        },
        {
            "positions": [
                -2.9687984314693496,
                -0.9744090218576831,
                1.7529784085140305,
                -0.7576956002148882,
                1.7350226557499857,
                -3.0769670201794024
            ]
        }
    ]
}