{
    "goal": {
        "global_pose": {
            "orientation": {
                "w": -0.4816463035849501,
                "x": 0.5182115481033762,
                "y": 0.4908360881923453,
                "z": -0.5084816262002911
            },
            "position": {
                "x": -0.8240239810943604,
                "y": 0.19912469901144506,
                "z": 0.16403168439865112
            }
        },
        "name": "move_to_storage_D"
    },
    "id": "STRIDE_move_to_storage_D_104",
    "joint_names": [
        "shoulder_pan_joint",
        "shoulder_lift_joint",
        "elbow_joint",
        "wrist_1_joint",
        "wrist_2_joint",
        "wrist_3_joint"
    ],
    "metrics": {
        "cart_traj_len": 3.6856513642861586,
        "distance_elbow_joint": 4.209650045445403,
        "distance_shoulder_lift_joint": 1.2640611449106924,
        "distance_shoulder_pan_joint": 2.8111000433845397,
        "distance_wrist_1_joint": 2.2673083855611287,
        "distance_wrist_2_joint": 1.5297762743292715,
        "distance_wrist_3_joint": 3.328622518407459,
        "smoothness": 0.10026775085769055,
        "time": 0.14712382499999999,
        "traj_len": 3.925623315097679,
        "weighted_distance": 5.085749512976805
    },
    "planner": "STRIDE",
    "start": {
        "state": {
            "elbow_joint": -2.384821988534728,
            "shoulder_lift_joint": -2.2788054721415256,
            "shoulder_pan_joint": -0.1854694642142757,
            "wrist_1_joint": 1.4845938289331202,
            "wrist_2_joint": 0.17898776772866878,
            "wrist_3_joint": 0.037105688729662994
        }
    },
    "waypoints": [
        {
            "positions": [
                -0.1854694642142757,
                -2.2788054721415256,
                -2.384821988534728,
                1.4845938289331202,
                0.17898776772866878,
                0.037105688729662994
            ]
        },
        {
            "positions": [
                -0.16049606010395823,
                -2.2169792871067178,
                -2.3666317251654005,
                1.3354371557671927,
                0.096061273800163,
                0.060208424619128544
            ]
        },
        {
            "positions": [
                -0.13552265599364074,
                -2.15515310207191,
                -2.3484414617960736,
                1.186280482601265,
                0.013134779871657204,
                0.08331116050859409
            ]
        },
        {
            "positions": [
                -0.11054925188332326,
                -2.093326917037102,
                -2.330251198426746,
                1.0371238094353372,
                -0.06979171405684859,
                0.10641389639805965
            ]
        },
        {
            "positions": [
                -0.08557584777300578,
                -2.031500732002294,
                -2.312060935057419,
                0.8879671362694097,
                -0.15271820798535435,
                0.1295166322875252
            ]
        },
        {
            "positions": [
                -0.004350306870574874,
                -1.9992630327080252,
                -2.195953127135788,
                0.8386892794056816,
                -0.12891796494304075,
                0.04529272582473001
            ]
        },
        {
            "positions": [
                0.07687523403185603,
                -1.9670253334137564,
                -2.0798453192141575,
                0.7894114225419535,
                -0.10511772190072713,
                -0.038931180638065166
            ]
        },
        {
            "positions": [
                0.15810077493428695,
                -1.9347876341194874,
                -1.9637375112925268,
                0.7401335656782255,
                -0.08131747885841352,
                -0.12315508710086037
            ]
        },
        {
            "positions": [
                0.23932631583671785,
                -1.9025499348252184,
                -1.8476297033708962,
                0.6908557088144974,
                -0.057517235816099924,
                -0.20737899356365552
            ]
        },
        {
            "positions": [
                0.32055185673914877,
                -1.8703122355309494,
                -1.7315218954492655,
                0.6415778519507693,
                -0.033716992773786314,
                -0.2916029000264507
            ]
        },
        {
            "positions": [
                0.4017773976415797,
                -1.8380745362366806,
                -1.6154140875276348,
                0.5922999950870412,
                -0.00991674973147269,
                -0.37582680648924593
            ]
        },
        {
            "positions": [
                0.48300293854401055,
                -1.8058368369424116,
                -1.499306279606004,
                0.5430221382233131,
                0.013883493310840905,
                -0.46005071295204103
            ]
        },
        {
            "positions": [
                0.5642284794464415,
                -1.7735991376481426,
                -1.3831984716843735,
                0.4937442813595851,
                0.0376837363531545,
                -0.5442746194148362
            ]
        },
        {
            "positions": [
                0.6454540203488723,
                -1.7413614383538736,
                -1.2670906637627428,
                0.44446642449585705,
                0.0614839793954681,
                -0.6284985258776313
            ]
        },
        {
            "positions": [
                0.7266795612513033,
                -1.7091237390596048,
                -1.1509828558411122,
                0.39518856763212895,
                0.08528422243778172,
                -0.7127224323404265
            ]
        },
        {
            "positions": [
                0.8079051021537341,
                -1.6768860397653358,
                -1.0348750479194815,
                0.34591071076840096,
                0.10908446548009532,
                -0.7969463388032216
            ]
        },
        {
            "positions": [
                0.8891306430561652,
                -1.6446483404710668,
                -0.9187672399978506,
                0.29663285390467276,
                0.13288470852240897,
                -0.8811702452660171
            ]
        },
        {
            "positions": [
                0.9703561839585961,
                -1.612410641176798,
                -0.8026594320762199,
                0.24735499704094466,
                0.15668495156472256,
                -0.965394151728812
            ]
        },
        {
            "positions": [
                1.0515817248610269,
                -1.580172941882529,
                -0.6865516241545893,
                0.19807714017721667,
                0.18048519460703616,
                -1.0496180581916073
            ]
        },
        {
            "positions": [
                1.1328072657634578,
                -1.54793524258826,
                -0.5704438162329586,
                0.14879928331348857,
                0.20428543764934975,
                -1.1338419646544025
            ]
        },
        {
            "positions": [
                1.2140328066658888,
                -1.515697543293991,
                -0.4543360083113279,
                0.09952142644976048,
                0.22808568069166335,
                -1.2180658711171977
            ]
        },
        {
            "positions": [
                1.2952583475683195,
                -1.483459843999722,
                -0.33822820038969725,
                0.05024356958603249,
                0.25188592373397695,
                -1.3022897775799929
            ]
        },
        {
            "positions": [
                1.3764838884707504,
                -1.4512221447054532,
                -0.2221203924680668,
                0.0009657127223043904,
                0.27568616677629054,
                -1.3865136840427879
            ]
        },
        {
            "positions": [
                1.4577094293731814,
                -1.4189844454111842,
                -0.10601258454643592,
                -0.04831214414142371,
                0.29948640981860414,
                -1.470737590505583
            ]
        },
        {
            "positions": [
                1.5389349702756123,
                -1.3867467461169154,
                0.010095223375194529,
                -0.0975900010051518,
                0.3232866528609178,
                -1.5549614969683783
            ]
        },
        {
            "positions": [
                1.620160511178043,
                -1.3545090468226464,
                0.12620303129682542,
                -0.1468678578688798,
                0.3470868959032314,
                -1.6391854034311735
            ]
        },
        {
            "positions": [
                1.701386052080474,
                -1.3222713475283774,
                0.24231083921845586,
                -0.19614571473260778,
                0.370887138945545,
                -1.7234093098939685
            ]
        },
        {
            "positions": [
                1.7826115929829052,
                -1.2900336482341084,
                0.3584186471400872,
                -0.2454235715963362,
                0.39468738198785863,
                -1.807633216356764
            ]
        },
        {
            "positions": [
                1.8638371338853361,
                -1.2577959489398394,
                0.47452645506171764,
                -0.2947014284600642,
                0.4184876250301723,
                -1.8918571228195593
            ]
        },
        {
            "positions": [
                1.9450626747877668,
                -1.2255582496455704,
                0.5906342629833485,
                -0.3439792853237922,
                0.4422878680724858,
                -1.9760810292823545
            ]
        },
        {
            "positions": [
                2.026288215690198,
                -1.1933205503513016,
                0.706742070904979,
                -0.3932571421875204,
                0.4660881111147995,
                -2.0603049357451493
            ]
        },
        {
            "positions": [
                2.1075137565926285,
                -1.1610828510570326,
                0.8228498788266099,
                -0.4425349990512484,
                0.489888354157113,
                -2.1445288422079445
            ]
        },
        {
            "positions": [
                2.1887392974950592,
                -1.1288451517627638,
                0.9389576867482403,
                -0.49181285591497637,
                0.5136885971994267,
                -2.2287527486707397
            ]
        },
        {
            "positions": [
                2.2699648383974904,
                -1.0966074524684948,
                1.0550654946698712,
                -0.5410907127787046,
                0.5374888402417402,
                -2.312976655133535
            ]
        },
        {
            "positions": [
                2.351190379299921,
                -1.0643697531742258,
                1.1711733025915017,
                -0.5903685696424325,
                0.5612890832840538,
                -2.39720056159633
            ]
        },
        {
            "positions": [
                2.396930412611645,
                -1.056098848850327,
                1.2801157616446974,
                -0.6224262341400284,
                0.6419662511750271,
                -2.5154496250906204
            ]
        },
        {
            "positions": [
                2.4426704459233686,
                -1.0478279445264282,
                1.389058220697893,
                -0.6544838986376244,
                0.7226434190660004,
                -2.6336986885849107
            ]
        },
        {
            "positions": [
                2.4884104792350925,
                -1.0395570402025296,
                1.4980006797510885,
                -0.6865415631352203,
                0.8033205869569737,
                -2.751947752079201
            ]
        },
        {
            "positions": [
                2.5341505125468164,
                -1.0312861358786307,
                1.6069431388042843,
                -0.7185992276328161,
                0.883997754847947,
                -2.870196815573491
            ]
        },
        {
            "positions": [
                2.57989054585854,
                -1.0230152315547318,
                1.71588559785748,
                -0.7506568921304121,
                0.9646749227389204,
                -2.9884458790677813
            ]
        },
        {
            "positions": [
                2.625630579170264,
                -1.0147443272308332,
                1.8248280569106756,
                -0.782714556628008,
                1.0453520906298936,
                -3.1066949425620716
            ]
        }
    ]
}