{
    "goal": {
        "global_pose": {
            "orientation": {
                "w": 0.7031023502349854,
                "x": -0.7110244035720825,
                "y": 0.007748599164187908,
                "z": 0.005598929710686207
            },
            "position": {
                "x": 0.11585023208521307,
                "y": 0.44412534475326537,
                "z": 0.3711530566215515
            }
        },
        "name": "move_to_auspresseinheit_A"
    },
    "id": "STRIDE_move_to_auspresseinheit_A_112",
    "joint_names": [
        "shoulder_pan_joint",
        "shoulder_lift_joint",
        "elbow_joint",
        "wrist_1_joint",
        "wrist_2_joint",
        "wrist_3_joint"
    ],
    "metrics": {
        "cart_traj_len": 1.8980353753924402,
        "distance_elbow_joint": 1.598628773750074,
        "distance_shoulder_lift_joint": 1.1704185723068885,
        "distance_shoulder_pan_joint": 1.7244880365261879,
        "distance_wrist_1_joint": 2.54688225388114,
        "distance_wrist_2_joint": 1.3119960808486648,
        "distance_wrist_3_joint": 2.8769498738073285,
        "smoothness": 0.9699870459125507,
        "time": 0.36951463,
        "traj_len": 3.351024260001751,
        "weighted_distance": 4.5653194492242
    },
    "planner": "STRIDE",
    "start": {
        "state": {
            "elbow_joint": 2.4225746658250005,
            "shoulder_lift_joint": -1.3736534386056498,
            "shoulder_pan_joint": -0.3378633547517467,
            "wrist_1_joint": -1.0288598680537169,
            "wrist_2_joint": 1.233022673432363,
            "wrist_3_joint": -3.0940220416140027
        }
    },
    "waypoints": [
        {
            "positions": [
                -0.3378633547517467,
                -1.3736534386056498,
                2.4225746658250005,
                -1.0288598680537169,
                1.233022673432363,
                -3.0940220416140027
            ]
        },
        {
            "positions": [
                -0.30815976599895384,
                -1.4063033728252972,
                2.341142039536359,
                -0.925149292336277,
                1.2366006084101264,
                -2.9521712530967323
            ]
        },
        {
            "positions": [
                -0.27845617724616095,
                -1.4389533070449443,
                2.2597094132477173,
                -0.8214387166188372,
                1.2401785433878898,
                -2.810320464579462
            ]
        },
        {
            "positions": [
                -0.24875258849336812,
                -1.4716032412645914,
                2.178276786959076,
                -0.7177281409013974,
                1.2437564783656532,
                -2.6684696760621915
            ]
        },
        {
            "positions": [
                -0.21904899974057523,
                -1.5042531754842388,
                2.096844160670434,
                -0.6140175651839574,
                1.2473344133434165,
                -2.526618887544921
            ]
        },
        {
            "positions": [
                -0.18934541098778235,
                -1.536903109703886,
                2.015411534381793,
                -0.5103069894665176,
                1.25091234832118,
                -2.3847680990276507
            ]
        },
        {
            "positions": [
                -0.1596418222349895,
                -1.5695530439235332,
                1.9339789080931515,
                -0.40659641374907785,
                1.2544902832989435,
                -2.2429173105103803
            ]
        },
        {
            "positions": [
                -0.1299382334821966,
                -1.6022029781431804,
                1.8525462818045102,
                -0.30288583803163804,
                1.258068218276707,
                -2.10106652199311
            ]
        },
        {
            "positions": [
                -0.10023464472940372,
                -1.6348529123628277,
                1.7711136555158684,
                -0.19917526231419802,
                1.2616461532544703,
                -1.9592157334758395
            ]
        },
        {
            "positions": [
                -0.07053105597661086,
                -1.667502846582475,
                1.689681029227227,
                -0.09546468659675822,
                1.2652240882322336,
                -1.8173649449585692
            ]
        },
        {
            "positions": [
                -0.040827467223818,
                -1.7001527808021222,
                1.6082484029385855,
                0.008245889120681582,
                1.268802023209997,
                -1.6755141564412988
            ]
        },
        {
            "positions": [
                0.042768988195896834,
                -1.7406102126694663,
                1.6491999586212769,
                0.04818233808591682,
                1.1981134180899216,
                -1.7718033248826772
            ]
        },
        {
            "positions": [
                0.12636544361561167,
                -1.7810676445368103,
                1.6901515143039683,
                0.08811878705115206,
                1.127424812969846,
                -1.8680924933240557
            ]
        },
        {
            "positions": [
                0.2099618990353265,
                -1.8215250764041544,
                1.7311030699866596,
                0.1280552360163873,
                1.0567362078497706,
                -1.964381661765434
            ]
        },
        {
            "positions": [
                0.2935583544550413,
                -1.8619825082714985,
                1.7720546256693508,
                0.16799168498162254,
                0.9860476027296949,
                -2.0606708302068126
            ]
        },
        {
            "positions": [
                0.37715480987475614,
                -1.9024399401388425,
                1.8130061813520422,
                0.20792813394685777,
                0.9153589976096195,
                -2.156959998648191
            ]
        },
        {
            "positions": [
                0.46075126529447097,
                -1.9428973720061866,
                1.8539577370347335,
                0.247864582912093,
                0.844670392489544,
                -2.253249167089569
            ]
        },
        {
            "positions": [
                0.5443477207141858,
                -1.9833548038735307,
                1.894909292717425,
                0.2878010318773282,
                0.7739817873694685,
                -2.349538335530948
            ]
        },
        {
            "positions": [
                0.6279441761339006,
                -2.0238122357408748,
                1.9358608484001163,
                0.3277374808425635,
                0.703293182249393,
                -2.445827503972326
            ]
        },
        {
            "positions": [
                0.7115406315536155,
                -2.064269667608219,
                1.9768124040828075,
                0.36767392980779867,
                0.6326045771293175,
                -2.5421166724137043
            ]
        },
        {
            "positions": [
                0.7951370869733303,
                -2.104727099475563,
                2.017763959765499,
                0.40761037877303397,
                0.561915972009242,
                -2.638405840855083
            ]
        },
        {
            "positions": [
                0.8787335423930451,
                -2.145184531342907,
                2.05871551544819,
                0.44754682773826915,
                0.4912273668891666,
                -2.7346950092964613
            ]
        },
        {
            "positions": [
                0.96232999781276,
                -2.185641963210251,
                2.099667071130882,
                0.48748327670350444,
                0.420538761769091,
                -2.83098417773784
            ]
        },
        {
            "positions": [
                1.0459264532324748,
                -2.226099395077595,
                2.140618626813573,
                0.5274197256687396,
                0.34985015664901553,
                -2.927273346179218
            ]
        },
        {
            "positions": [
                0.9972552777264796,
                -2.180674735672603,
                2.1766089535262405,
                0.3859050599317847,
                0.4008879944361655,
                -2.956799460307319
            ]
        },
        {
            "positions": [
                0.9485841022204844,
                -2.1352500762676114,
                2.2125992802389076,
                0.24439039419482972,
                0.45192583222331545,
                -2.9863255744354196
            ]
        },
        {
            "positions": [
                0.8999129267144892,
                -2.0898254168626194,
                2.248589606951575,
                0.10287572845787474,
                0.5029636700104654,
                -3.0158516885635205
            ]
        },
        {
            "positions": [
                0.851241751208494,
                -2.0444007574576277,
                2.2845799336642423,
                -0.03863893727908019,
                0.5540015077976154,
                -3.045377802691621
            ]
        },
        {
            "positions": [
                0.8025705757024988,
                -1.9989760980526357,
                2.32057026037691,
                -0.18015360301603522,
                0.6050393455847654,
                -3.074903916819722
            ]
        },
        {
            "positions": [
                0.7538994001965036,
                -1.9535514386476438,
                2.356560587089577,
                -0.32166826875299015,
                0.6560771833719153,
                -3.1044300309478223
            ]
        },
        {
            "positions": [
                0.7052282246905084,
                -1.908126779242652,
                2.3925509138022445,
                -0.4631829344899452,
                0.7071150211590653,
                -3.1339561450759232
            ]
        }
    ]
}