{
    "goal": {
        "global_pose": {
            "orientation": {
                "w": 0.005598929693374612,
                "x": 0.007748599140229565,
                "y": 0.7110244013736278,
                "z": -0.7031023480610252
            },
            "position": {
                "x": 0.1141497679147869,
                "y": -0.7141253447532654,
                "z": 0.3711530566215515
            }
        },
        "name": "move_to_auspresseinheit_B"
    },
    "id": "STRIDE_move_to_auspresseinheit_B_91",
    "joint_names": [
        "shoulder_pan_joint",
        "shoulder_lift_joint",
        "elbow_joint",
        "wrist_1_joint",
        "wrist_2_joint",
        "wrist_3_joint"
    ],
    "metrics": {
        "cart_traj_len": 0.564827789001805,
        "distance_elbow_joint": 0.0613352948410415,
        "distance_shoulder_lift_joint": 0.29386547002272834,
        "distance_shoulder_pan_joint": 0.5749457130554954,
        "distance_wrist_1_joint": 0.32044994742400956,
        "distance_wrist_2_joint": 1.0077238522561383,
        "distance_wrist_3_joint": 0.004590990931527372,
        "smoothness": 5.075305255429287e-16,
        "time": 0.126748238,
        "traj_len": 1.5042975997225219,
        "weighted_distance": 1.8974369686696164
    },
    "planner": "STRIDE",
    "start": {
        "state": {
            "elbow_joint": 2.0193083361928714,
            "shoulder_lift_joint": -1.1220246554650708,
            "shoulder_pan_joint": -1.0952077554168747,
            "wrist_1_joint": -0.8559753972642168,
            "wrist_2_joint": 0.4759566250798843,
            "wrist_3_joint": -3.1240929996934557
        }
    },
    "waypoints": [
        {
            "positions": [
                -1.0952077554168747,
                -1.1220246554650708,
                2.0193083361928714,
                -0.8559753972642168,
                0.4759566250798843,
                -3.1240929996934557
            ]
        },
        {
            "positions": [
                -1.191032040926124,
                -1.1710022338021921,
                2.009085787052698,
                -0.8025670726935485,
                0.6439106004559073,
                -3.123327834538201
            ]
        },
        {
            "positions": [
                -1.2868563264353732,
                -1.2199798121393135,
                1.9988632379125242,
                -0.7491587481228803,
                0.8118645758319303,
                -3.1225626693829467
            ]
        },
        {
            "positions": [
                -1.3826806119446222,
                -1.268957390476435,
                1.9886406887723507,
                -0.6957504235522121,
                0.9798185512079534,
                -3.121797504227692
            ]
        },
        {
            "positions": [
                -1.4785048974538715,
                -1.3179349688135564,
                1.9784181396321772,
                -0.6423420989815438,
                1.1477725265839764,
                -3.1210323390724373
            ]
        },
        {
            "positions": [
                -1.5743291829631207,
                -1.3669125471506778,
                1.9681955904920034,
                -0.5889337744108755,
                1.3157265019599995,
                -3.120267173917183
            ]
        },
        {
            "positions": [
                -1.67015346847237,
                -1.4158901254877991,
                1.95797304135183,
                -0.5355254498402072,
                1.4836804773360226,
                -3.1195020087619283
            ]
        }
    ]
}