{
    "goal": {
        "global_pose": {
            "orientation": {
                "w": 0.005598929693374612,
                "x": 0.007748599140229565,
                "y": 0.7110244013736278,
                "z": -0.7031023480610252
            },
            "position": {
                "x": 0.1141497679147869,
                "y": -0.7141253447532654,
                "z": 0.3711530566215515
            }
        },
        "name": "move_to_auspresseinheit_B"
    },
    "id": "STRIDE_move_to_auspresseinheit_B_143",
    "joint_names": [
        "shoulder_pan_joint",
        "shoulder_lift_joint",
        "elbow_joint",
        "wrist_1_joint",
        "wrist_2_joint",
        "wrist_3_joint"
    ],
    "metrics": {
        "cart_traj_len": 0.5655263814772499,
        "distance_elbow_joint": 0.06393635341696657,
        "distance_shoulder_lift_joint": 0.2948766679152337,
        "distance_shoulder_pan_joint": 0.5793240370956592,
        "distance_wrist_1_joint": 0.3308065810220263,
        "distance_wrist_2_joint": 0.9858107662887656,
        "distance_wrist_3_joint": 0.00916123045103312,
        "smoothness": 5.075305255429287e-16,
        "time": 0.218280538,
        "traj_len": 1.5046313954552737,
        "weighted_distance": 1.897064955240738
    },
    "planner": "STRIDE",
    "start": {
        "state": {
            "elbow_joint": 2.0193083361928714,
            "shoulder_lift_joint": -1.1220246554650708,
            "shoulder_pan_joint": -1.0952077554168747,
            "wrist_1_joint": -0.8559753972642168,
            "wrist_2_joint": 0.4759566250798843,
            "wrist_3_joint": -3.1240929996934557
        }
    },
    "waypoints": [
        {
            "positions": [
                -1.0952077554168747,
                -1.1220246554650708,
                2.0193083361928714,
                -0.8559753972642168,
                0.4759566250798843,
                -3.1240929996934557
            ]
        },
        {
            "positions": [
                -1.1917617615994844,
                -1.1711707667842763,
                2.0086522772900435,
                -0.8008409670938791,
                0.6402584194613452,
                -3.122566127951617
            ]
        },
        {
            "positions": [
                -1.2883157677820944,
                -1.220316878103482,
                1.997996218387216,
                -0.7457065369235414,
                0.8045602138428061,
                -3.121039256209778
            ]
        },
        {
            "positions": [
                -1.3848697739647042,
                -1.2694629894226876,
                1.987340159484388,
                -0.6905721067532036,
                0.9688620082242672,
                -3.119512384467939
            ]
        },
        {
            "positions": [
                -1.481423780147314,
                -1.3186091007418932,
                1.9766841005815603,
                -0.635437676582866,
                1.133163802605728,
                -3.1179855127261003
            ]
        },
        {
            "positions": [
                -1.577977786329924,
                -1.367755212061099,
                1.9660280416787326,
                -0.5803032464125282,
                1.297465596987189,
                -3.1164586409842614
            ]
        },
        {
            "positions": [
                -1.6745317925125338,
                -1.4169013233803045,
                1.9553719827759048,
                -0.5251688162421905,
                1.46176739136865,
                -3.1149317692424225
            ]
        }
    ]
}