{
    "goal": {
        "global_pose": {
            "orientation": {
                "w": 0.5084816262002911,
                "x": -0.4908360881923452,
                "y": 0.5182115481033761,
                "z": -0.48164630358495003
            },
            "position": {
                "x": 0.5540239810943604,
                "y": -0.46912469901144505,
                "z": 0.16403168439865112
            }
        },
        "name": "move_to_storage_B"
    },
    "id": "STRIDE_move_to_storage_B_97",
    "joint_names": [
        "shoulder_pan_joint",
        "shoulder_lift_joint",
        "elbow_joint",
        "wrist_1_joint",
        "wrist_2_joint",
        "wrist_3_joint"
    ],
    "metrics": {
        "cart_traj_len": 0.8305382856907655,
        "distance_elbow_joint": 0.600411144558024,
        "distance_shoulder_lift_joint": 0.4823274755219271,
        "distance_shoulder_pan_joint": 0.5965081144826149,
        "distance_wrist_1_joint": 3.35365624453573,
        "distance_wrist_2_joint": 2.710780571353161,
        "distance_wrist_3_joint": 3.1504367508385105,
        "smoothness": 0.40042204035134865,
        "time": 0.12157973799999999,
        "traj_len": 3.3006242290345567,
        "weighted_distance": 4.82280319097264
    },
    "planner": "STRIDE",
    "start": {
        "state": {
            "elbow_joint": 1.664937868594044,
            "shoulder_lift_joint": -0.661644460510453,
            "shoulder_pan_joint": -0.9139846352900073,
            "wrist_1_joint": 2.146753192139373,
            "wrist_2_joint": -2.2341966793290973,
            "wrist_3_joint": 0.005466555786416001
        }
    },
    "waypoints": [
        {
            "positions": [
                -0.9139846352900073,
                -0.661644460510453,
                1.664937868594044,
                2.146753192139373,
                -2.2341966793290973,
                0.005466555786416001
            ]
        },
        {
            "positions": [
                -0.8101821929161435,
                -0.6564124572139011,
                1.6038168774494914,
                2.2334499417550266,
                -2.162516155428117,
                0.0220735755859007
            ]
        },
        {
            "positions": [
                -0.7063797505422797,
                -0.6511804539173491,
                1.5426958863049391,
                2.32014669137068,
                -2.090835631527137,
                0.0386805953853854
            ]
        },
        {
            "positions": [
                -0.7213375670705446,
                -0.6693290488761501,
                1.561087007930667,
                2.197828893474356,
                -1.9920887267751677,
                0.15857377658690625
            ]
        },
        {
            "positions": [
                -0.7362953835988095,
                -0.6874776438349509,
                1.5794781295563944,
                2.0755110955780323,
                -1.8933418220231986,
                0.27846695778842706
            ]
        },
        {
            "positions": [
                -0.7512532001270744,
                -0.7056262387937519,
                1.5978692511821222,
                1.9531932976817084,
                -1.7945949172712292,
                0.39836013898994793
            ]
        },
        {
            "positions": [
                -0.7662110166553393,
                -0.7237748337525527,
                1.6162603728078497,
                1.8308754997853842,
                -1.69584801251926,
                0.5182533201914687
            ]
        },
        {
            "positions": [
                -0.7811688331836042,
                -0.7419234287113536,
                1.6346514944335775,
                1.7085577018890603,
                -1.5971011077672908,
                0.6381465013929896
            ]
        },
        {
            "positions": [
                -0.7961266497118691,
                -0.7600720236701545,
                1.653042616059305,
                1.5862399039927364,
                -1.4983542030153214,
                0.7580396825945104
            ]
        },
        {
            "positions": [
                -0.811084466240134,
                -0.7782206186289554,
                1.6714337376850328,
                1.4639221060964125,
                -1.3996072982633523,
                0.8779328637960311
            ]
        },
        {
            "positions": [
                -0.826042282768399,
                -0.7963692135877563,
                1.6898248593107605,
                1.3416043082000884,
                -1.3008603935113832,
                0.997826044997552
            ]
        },
        {
            "positions": [
                -0.8410000992966639,
                -0.8145178085465572,
                1.708215980936488,
                1.2192865103037647,
                -1.202113488759414,
                1.117719226199073
            ]
        },
        {
            "positions": [
                -0.8559579158249288,
                -0.8326664035053581,
                1.7266071025622158,
                1.0969687124074405,
                -1.1033665840074445,
                1.2376124074005939
            ]
        },
        {
            "positions": [
                -0.8709157323531936,
                -0.850814998464159,
                1.7449982241879434,
                0.9746509145111166,
                -1.0046196792554754,
                1.3575055886021146
            ]
        },
        {
            "positions": [
                -0.8858735488814585,
                -0.8689635934229598,
                1.7633893458136711,
                0.8523331166147927,
                -0.905872774503506,
                1.4773987698036355
            ]
        },
        {
            "positions": [
                -0.9008313654097234,
                -0.8871121883817608,
                1.7817804674393987,
                0.7300153187184688,
                -0.8071258697515369,
                1.5972919510051562
            ]
        },
        {
            "positions": [
                -0.9157891819379883,
                -0.9052607833405617,
                1.8001715890651264,
                0.6076975208221449,
                -0.7083789649995678,
                1.717185132206677
            ]
        },
        {
            "positions": [
                -0.9307469984662532,
                -0.9234093782993625,
                1.8185627106908542,
                0.485379722925821,
                -0.6096320602475986,
                1.8370783134081976
            ]
        },
        {
            "positions": [
                -0.9457048149945181,
                -0.9415579732581635,
                1.8369538323165817,
                0.36306192502949686,
                -0.5108851554956291,
                1.9569714946097188
            ]
        },
        {
            "positions": [
                -0.9606626315227831,
                -0.9597065682169643,
                1.8553449539423095,
                0.24074412713317317,
                -0.41213825074365995,
                2.0768646758112395
            ]
        },
        {
            "positions": [
                -0.975620448051048,
                -0.9778551631757653,
                1.873736075568037,
                0.11842632923684926,
                -0.31339134599169083,
                2.19675785701276
            ]
        },
        {
            "positions": [
                -0.9905782645793129,
                -0.9960037581345661,
                1.8921271971937648,
                -0.0038914686594746506,
                -0.21464444123972148,
                2.316651038214281
            ]
        },
        {
            "positions": [
                -1.0055360811075778,
                -1.0141523530933672,
                1.9105183188194925,
                -0.126209266555799,
                -0.11589753648775214,
                2.436544219415802
            ]
        },
        {
            "positions": [
                -1.0204938976358426,
                -1.0323009480521679,
                1.92890944044522,
                -0.24852706445212291,
                -0.017150631735782795,
                2.5564374006173227
            ]
        },
        {
            "positions": [
                -1.0354517141641075,
                -1.0504495430109688,
                1.9473005620709478,
                -0.3708448623484468,
                0.08159627301618633,
                2.6763305818188434
            ]
        },
        {
            "positions": [
                -1.0504095306923724,
                -1.0685981379697695,
                1.9656916836966754,
                -0.49316266024477073,
                0.18034317776815545,
                2.796223763020364
            ]
        },
        {
            "positions": [
                -1.0653673472206373,
                -1.0867467329285705,
                1.984082805322403,
                -0.6154804581410946,
                0.279090082520125,
                2.9161169442218853
            ]
        },
        {
            "positions": [
                -1.0803251637489022,
                -1.1048953278873714,
                2.002473926948131,
                -0.7377982560374186,
                0.37783698727209414,
                3.036010125423406
            ]
        },
        {
            "positions": [
                -1.095282980277167,
                -1.1230439228461724,
                2.0208650485738584,
                -0.8601160539337426,
                0.4765838920240633,
                3.1559033066249267
            ]
        }
    ]
}