{
    "goal": {
        "global_pose": {
            "orientation": {
                "w": -0.4816463035849501,
                "x": 0.5182115481033762,
                "y": 0.4908360881923453,
                "z": -0.5084816262002911
            },
            "position": {
                "x": -0.8240239810943604,
                "y": -0.300875300988555,
                "z": 0.16403168439865112
            }
        },
        "name": "move_to_storage_C"
    },
    "id": "STRIDE_move_to_storage_C_41",
    "joint_names": [
        "shoulder_pan_joint",
        "shoulder_lift_joint",
        "elbow_joint",
        "wrist_1_joint",
        "wrist_2_joint",
        "wrist_3_joint"
    ],
    "metrics": {
        "cart_traj_len": 0.5768176161932258,
        "distance_elbow_joint": 0.2592101372592577,
        "distance_shoulder_lift_joint": 0.1880058617866721,
        "distance_shoulder_pan_joint": 0.49657140775157416,
        "distance_wrist_1_joint": 0.08871251760382926,
        "distance_wrist_2_joint": 1.0586264872558715,
        "distance_wrist_3_joint": 0.06251042889818814,
        "smoothness": 2.5376526478085547e-16,
        "time": 0.125663791,
        "traj_len": 1.4675274581946987,
        "weighted_distance": 1.8509448136590863
    },
    "planner": "STRIDE",
    "start": {
        "state": {
            "elbow_joint": 2.010868314990456,
            "shoulder_lift_joint": -1.1634956873337592,
            "shoulder_pan_joint": -2.4736205022346125,
            "wrist_1_joint": -0.8367026794202681,
            "wrist_2_joint": 0.6746043897044499,
            "wrist_3_joint": -3.1496632123970403
        }
    },
    "waypoints": [
        {
            "positions": [
                -2.4736205022346125,
                -1.1634956873337592,
                2.010868314990456,
                -0.8367026794202681,
                0.6746043897044499,
                -3.1496632123970403
            ]
        },
        {
            "positions": [
                -2.5563824035265417,
                -1.1321613770359804,
                1.9676666254472461,
                -0.8219172598196299,
                0.8510421375804285,
                -3.139244807580676
            ]
        },
        {
            "positions": [
                -2.6391443048184704,
                -1.1008270667382019,
                1.9244649359040367,
                -0.8071318402189916,
                1.0274798854564071,
                -3.128826402764311
            ]
        },
        {
            "positions": [
                -2.7219062061103996,
                -1.069492756440423,
                1.881263246360827,
                -0.7923464206183535,
                1.2039176333323858,
                -3.118407997947946
            ]
        },
        {
            "positions": [
                -2.8046681074023287,
                -1.0381584461426445,
                1.8380615568176173,
                -0.7775610010177153,
                1.3803553812083642,
                -3.1079895931315815
            ]
        },
        {
            "positions": [
                -2.8874300086942575,
                -1.0068241358448657,
                1.7948598672744078,
                -0.762775581417077,
                1.5567931290843429,
                -3.097571188315217
            ]
        },
        {
            "positions": [
                -2.9701919099861867,
                -0.9754898255470871,
                1.7516581777311981,
                -0.7479901618164388,
                1.7332308769603213,
                -3.087152783498852
            ]
        }
    ]
}