{
    "goal": {
        "global_pose": {
            "orientation": {
                "w": 0.7031023480610252,
                "x": -0.7110244013736278,
                "y": 0.0077485991402295624,
                "z": 0.005598929693374583
            },
            "position": {
                "x": -0.8841497679147869,
                "y": 0.44412534475326537,
                "z": 0.3711530566215515
            }
        },
        "name": "move_to_auspresseinheit_D"
    },
    "id": "STRIDE_move_to_auspresseinheit_D_37",
    "joint_names": [
        "shoulder_pan_joint",
        "shoulder_lift_joint",
        "elbow_joint",
        "wrist_1_joint",
        "wrist_2_joint",
        "wrist_3_joint"
    ],
    "metrics": {
        "cart_traj_len": 0.34412643155814737,
        "distance_elbow_joint": 0.6648264178223202,
        "distance_shoulder_lift_joint": 0.13618143215268708,
        "distance_shoulder_pan_joint": 0.13355809025338164,
        "distance_wrist_1_joint": 0.6175509917391082,
        "distance_wrist_2_joint": 1.431731078006164,
        "distance_wrist_3_joint": 0.0688359401286438,
        "smoothness": 1.9737298371844314e-16,
        "time": 0.37080456,
        "traj_len": 1.7471931633629707,
        "weighted_distance": 2.289025535048673
    },
    "planner": "STRIDE",
    "start": {
        "state": {
            "elbow_joint": -1.8275523626775212,
            "shoulder_lift_joint": -2.126789852344167,
            "shoulder_pan_joint": -0.03513704404078235,
            "wrist_1_joint": -2.347782403156801,
            "wrist_2_joint": -1.6058999987535132,
            "wrist_3_joint": -3.0880379163319196
        }
    },
    "waypoints": [
        {
            "positions": [
                -0.03513704404078235,
                -2.126789852344167,
                -1.8275523626775212,
                -2.347782403156801,
                -1.6058999987535132,
                -3.0880379163319196
            ]
        },
        {
            "positions": [
                -0.05183180532245506,
                -2.1438125313632526,
                -1.7444490604497311,
                -2.4249762771241894,
                -1.4269336140027427,
                -3.079433423815839
            ]
        },
        {
            "positions": [
                -0.06852656660412776,
                -2.1608352103823387,
                -1.661345758221941,
                -2.502170151091578,
                -1.2479672292519721,
                -3.0708289312997588
            ]
        },
        {
            "positions": [
                -0.08522132788580047,
                -2.1778578894014244,
                -1.578242455994151,
                -2.5793640250589664,
                -1.0690008445012018,
                -3.0622244387836783
            ]
        },
        {
            "positions": [
                -0.10191608916747316,
                -2.19488056842051,
                -1.495139153766361,
                -2.656557899026355,
                -0.8900344597504312,
                -3.053619946267598
            ]
        },
        {
            "positions": [
                -0.11861085044914588,
                -2.2119032474395963,
                -1.4120358515385711,
                -2.7337517729937435,
                -0.7110680749996606,
                -3.045015453751517
            ]
        },
        {
            "positions": [
                -0.1353056117308186,
                -2.228925926458682,
                -1.328932549310781,
                -2.810945646961132,
                -0.5321016902488902,
                -3.0364109612354366
            ]
        },
        {
            "positions": [
                -0.15200037301249128,
                -2.245948605477768,
                -1.245829247082991,
                -2.8881395209285206,
                -0.35313530549811967,
                -3.027806468719356
            ]
        },
        {
            "positions": [
                -0.168695134294164,
                -2.262971284496854,
                -1.162725944855201,
                -2.965333394895909,
                -0.1741689207473492,
                -3.019201976203276
            ]
        }
    ]
}