{
    "goal": {
        "global_pose": {
            "orientation": {
                "w": 0.005598929693374612,
                "x": 0.007748599140229565,
                "y": 0.7110244013736278,
                "z": -0.7031023480610252
            },
            "position": {
                "x": 0.1141497679147869,
                "y": -0.7141253447532654,
                "z": 0.3711530566215515
            }
        },
        "name": "move_to_auspresseinheit_B"
    },
    "id": "STRIDE_move_to_auspresseinheit_B_89",
    "joint_names": [
        "shoulder_pan_joint",
        "shoulder_lift_joint",
        "elbow_joint",
        "wrist_1_joint",
        "wrist_2_joint",
        "wrist_3_joint"
    ],
    "metrics": {
        "cart_traj_len": 0.5656276385496569,
        "distance_elbow_joint": 0.06414808921662152,
        "distance_shoulder_lift_joint": 0.2942719647505361,
        "distance_shoulder_pan_joint": 0.5792499192530154,
        "distance_wrist_1_joint": 0.3316708669505469,
        "distance_wrist_2_joint": 0.9879756710461969,
        "distance_wrist_3_joint": 0.004650823102301249,
        "smoothness": 0.0,
        "time": 0.402412448,
        "traj_len": 1.5039838211627206,
        "weighted_distance": 1.894971112845936
    },
    "planner": "STRIDE",
    "start": {
        "state": {
            "elbow_joint": 2.0193083361928714,
            "shoulder_lift_joint": -1.1220246554650708,
            "shoulder_pan_joint": -1.0952077554168747,
            "wrist_1_joint": -0.8559753972642168,
            "wrist_2_joint": 0.4759566250798843,
            "wrist_3_joint": -3.1240929996934557
        }
    },
    "waypoints": [
        {
            "positions": [
                -1.0952077554168747,
                -1.1220246554650708,
                2.0193083361928714,
                -0.8559753972642168,
                0.4759566250798843,
                -3.1240929996934557
            ]
        },
        {
            "positions": [
                -1.1917494086257105,
                -1.1710699829234934,
                2.0086169879901012,
                -0.8006969194391256,
                0.6406192369209172,
                -3.123317862509739
            ]
        },
        {
            "positions": [
                -1.2882910618345464,
                -1.2201153103819162,
                1.9979256397873308,
                -0.7454184416140345,
                0.80528184876195,
                -3.122542725326022
            ]
        },
        {
            "positions": [
                -1.3848327150433823,
                -1.2691606378403388,
                1.9872342915845607,
                -0.6901399637889434,
                0.9699444606029828,
                -3.121767588142305
            ]
        },
        {
            "positions": [
                -1.4813743682522182,
                -1.3182059652987614,
                1.9765429433817905,
                -0.6348614859638522,
                1.1346070724440156,
                -3.120992450958588
            ]
        },
        {
            "positions": [
                -1.5779160214610541,
                -1.3672512927571843,
                1.96585159517902,
                -0.579583008138761,
                1.2992696842850484,
                -3.120217313774871
            ]
        },
        {
            "positions": [
                -1.67445767466989,
                -1.4162966202156069,
                1.95516024697625,
                -0.5243045303136699,
                1.4639322961260812,
                -3.1194421765911544
            ]
        }
    ]
}