{
    "goal": {
        "global_pose": {
            "orientation": {
                "w": 0.005598929693374612,
                "x": 0.007748599140229565,
                "y": 0.7110244013736278,
                "z": -0.7031023480610252
            },
            "position": {
                "x": 0.1141497679147869,
                "y": -0.7141253447532654,
                "z": 0.3711530566215515
            }
        },
        "name": "move_to_auspresseinheit_B"
    },
    "id": "STRIDE_move_to_auspresseinheit_B_4",
    "joint_names": [
        "shoulder_pan_joint",
        "shoulder_lift_joint",
        "elbow_joint",
        "wrist_1_joint",
        "wrist_2_joint",
        "wrist_3_joint"
    ],
    "metrics": {
        "cart_traj_len": 0.5648269655944017,
        "distance_elbow_joint": 0.06506665906087084,
        "distance_shoulder_lift_joint": 0.2936104209004502,
        "distance_shoulder_pan_joint": 0.5772274072821473,
        "distance_wrist_1_joint": 0.33685164948939395,
        "distance_wrist_2_joint": 0.9950146481312578,
        "distance_wrist_3_joint": 0.007390471100428453,
        "smoothness": 2.5376526478085547e-16,
        "time": 0.088073969,
        "traj_len": 1.5083637677843327,
        "weighted_distance": 1.903104961841584
    },
    "planner": "STRIDE",
    "start": {
        "state": {
            "elbow_joint": 2.0193083361928714,
            "shoulder_lift_joint": -1.1220246554650708,
            "shoulder_pan_joint": -1.0952077554168747,
            "wrist_1_joint": -0.8559753972642168,
            "wrist_2_joint": 0.4759566250798843,
            "wrist_3_joint": -3.1240929996934557
        }
    },
    "waypoints": [
        {
            "positions": [
                -1.0952077554168747,
                -1.1220246554650708,
                2.0193083361928714,
                -0.8559753972642168,
                0.4759566250798843,
                -3.1240929996934557
            ]
        },
        {
            "positions": [
                -1.1914123232972325,
                -1.1709597256151458,
                2.0084638930160597,
                -0.7998334556826512,
                0.6417923997684273,
                -3.1228612545100507
            ]
        },
        {
            "positions": [
                -1.2876168911775905,
                -1.2198947957652209,
                1.9976194498392479,
                -0.7436915141010855,
                0.8076281744569702,
                -3.121629509326646
            ]
        },
        {
            "positions": [
                -1.3838214590579483,
                -1.268829865915296,
                1.9867750066624361,
                -0.6875495725195198,
                0.9734639491455133,
                -3.1203977641432417
            ]
        },
        {
            "positions": [
                -1.480026026938306,
                -1.317764936065371,
                1.9759305634856241,
                -0.6314076309379542,
                1.139299723834056,
                -3.1191660189598367
            ]
        },
        {
            "positions": [
                -1.5762305948186641,
                -1.366700006215446,
                1.9650861203088124,
                -0.5752656893563886,
                1.3051354985225991,
                -3.1179342737764317
            ]
        },
        {
            "positions": [
                -1.672435162699022,
                -1.415635076365521,
                1.9542416771320006,
                -0.5191237477748228,
                1.4709712732111422,
                -3.116702528593027
            ]
        }
    ]
}