{
    "goal": {
        "global_pose": {
            "orientation": {
                "w": 0.005598929693374612,
                "x": 0.007748599140229565,
                "y": 0.7110244013736278,
                "z": -0.7031023480610252
            },
            "position": {
                "x": -0.8858502320852131,
                "y": -0.7141253447532654,
                "z": 0.3711530566215515
            }
        },
        "name": "move_to_auspresseinheit_C"
    },
    "id": "STRIDE_move_to_auspresseinheit_C_51",
    "joint_names": [
        "shoulder_pan_joint",
        "shoulder_lift_joint",
        "elbow_joint",
        "wrist_1_joint",
        "wrist_2_joint",
        "wrist_3_joint"
    ],
    "metrics": {
        "cart_traj_len": 0.49354098515666317,
        "distance_elbow_joint": 1.0052993123813323,
        "distance_shoulder_lift_joint": 0.3275616715498906,
        "distance_shoulder_pan_joint": 0.2560284842495819,
        "distance_wrist_1_joint": 0.683487485711899,
        "distance_wrist_2_joint": 1.311128999995716,
        "distance_wrist_3_joint": 0.07098732564480592,
        "smoothness": 8.074349308362242e-16,
        "time": 0.4195234,
        "traj_len": 1.9116729007686504,
        "weighted_distance": 2.406467206618543
    },
    "planner": "STRIDE",
    "start": {
        "state": {
            "elbow_joint": 1.7527959577737207,
            "shoulder_lift_joint": -0.9740617694225068,
            "shoulder_pan_joint": -2.967991417825858,
            "wrist_1_joint": -0.759517768980727,
            "wrist_2_joint": 1.7443932448377408,
            "wrist_3_joint": -3.0840537646736568
        }
    },
    "waypoints": [
        {
            "positions": [
                -2.967991417825858,
                -0.9740617694225068,
                1.7527959577737207,
                -0.759517768980727,
                1.7443932448377408,
                -3.0840537646736568
            ]
        },
        {
            "positions": [
                -2.9423885694009,
                -0.9413056022675177,
                1.6522660265355875,
                -0.6911690204095371,
                1.6132803448381692,
                -3.0911524972381375
            ]
        },
        {
            "positions": [
                -2.9167857209759416,
                -0.9085494351125286,
                1.5517360952974542,
                -0.6228202718383472,
                1.4821674448385975,
                -3.098251229802618
            ]
        },
        {
            "positions": [
                -2.891182872550983,
                -0.8757932679575396,
                1.451206164059321,
                -0.5544715232671573,
                1.351054544839026,
                -3.1053499623670984
            ]
        },
        {
            "positions": [
                -2.865580024126025,
                -0.8430371008025506,
                1.3506762328211877,
                -0.4861227746959674,
                1.2199416448394542,
                -3.112448694931579
            ]
        },
        {
            "positions": [
                -2.8399771757010672,
                -0.8102809336475615,
                1.2501463015830545,
                -0.4177740261247775,
                1.0888287448398828,
                -3.1195474274960597
            ]
        },
        {
            "positions": [
                -2.814374327276109,
                -0.7775247664925724,
                1.1496163703449214,
                -0.3494252775535876,
                0.9577158448403112,
                -3.1266461600605404
            ]
        },
        {
            "positions": [
                -2.7887714788511504,
                -0.7447685993375834,
                1.0490864391067882,
                -0.2810765289823977,
                0.8266029448407396,
                -3.133744892625021
            ]
        },
        {
            "positions": [
                -2.7631686304261924,
                -0.7120124321825942,
                0.9485565078686548,
                -0.21272778041120777,
                0.6954900448411678,
                -3.1408436251895013
            ]
        },
        {
            "positions": [
                -2.7375657820012345,
                -0.6792562650276053,
                0.8480265766305216,
                -0.14437903184001788,
                0.5643771448415964,
                -3.147942357753982
            ]
        },
        {
            "positions": [
                -2.711962933576276,
                -0.6465000978726162,
                0.7474966453923884,
                -0.07603028326882803,
                0.43326424484202475,
                -3.1550410903184627
            ]
        }
    ]
}