{
    "goal": {
        "global_pose": {
            "orientation": {
                "w": 0.005598929693374612,
                "x": 0.007748599140229565,
                "y": 0.7110244013736278,
                "z": -0.7031023480610252
            },
            "position": {
                "x": 0.1141497679147869,
                "y": -0.7141253447532654,
                "z": 0.3711530566215515
            }
        },
        "name": "move_to_auspresseinheit_B"
    },
    "id": "STRIDE_move_to_auspresseinheit_B_123",
    "joint_names": [
        "shoulder_pan_joint",
        "shoulder_lift_joint",
        "elbow_joint",
        "wrist_1_joint",
        "wrist_2_joint",
        "wrist_3_joint"
    ],
    "metrics": {
        "cart_traj_len": 0.5644386232408775,
        "distance_elbow_joint": 0.06582927305856967,
        "distance_shoulder_lift_joint": 0.29331615113455833,
        "distance_shoulder_pan_joint": 0.5745325656204578,
        "distance_wrist_1_joint": 0.3344587979186382,
        "distance_wrist_2_joint": 1.002517863497198,
        "distance_wrist_3_joint": 0.007000219940660912,
        "smoothness": 0.0,
        "time": 0.10508055999999999,
        "traj_len": 1.5091901375141843,
        "weighted_distance": 1.9048968403741031
    },
    "planner": "STRIDE",
    "start": {
        "state": {
            "elbow_joint": 2.0193083361928714,
            "shoulder_lift_joint": -1.1220246554650708,
            "shoulder_pan_joint": -1.0952077554168747,
            "wrist_1_joint": -0.8559753972642168,
            "wrist_2_joint": 0.4759566250798843,
            "wrist_3_joint": -3.1240929996934557
        }
    },
    "waypoints": [
        {
            "positions": [
                -1.0952077554168747,
                -1.1220246554650708,
                2.0193083361928714,
                -0.8559753972642168,
                0.4759566250798843,
                -3.1240929996934557
            ]
        },
        {
            "positions": [
                -1.1909631830202843,
                -1.1709106806541638,
                2.00833679068311,
                -0.800232264277777,
                0.6430429356627506,
                -3.122926296370012
            ]
        },
        {
            "positions": [
                -1.2867186106236939,
                -1.2197967058432568,
                1.9973652451733481,
                -0.7444891312913374,
                0.8101292462456169,
                -3.1217595930465687
            ]
        },
        {
            "positions": [
                -1.3824740382271035,
                -1.2686827310323499,
                1.9863936996635867,
                -0.6887459983048977,
                0.9772155568284833,
                -3.120592889723125
            ]
        },
        {
            "positions": [
                -1.478229465830513,
                -1.317568756221443,
                1.975422154153825,
                -0.6330028653184581,
                1.1443018674113496,
                -3.1194261863996817
            ]
        },
        {
            "positions": [
                -1.573984893433923,
                -1.3664547814105361,
                1.9644506086440634,
                -0.5772597323320183,
                1.311388177994216,
                -3.1182594830762382
            ]
        },
        {
            "positions": [
                -1.6697403210373325,
                -1.4153408065996291,
                1.9534790631343018,
                -0.5215165993455786,
                1.4784744885770824,
                -3.1170927797527948
            ]
        }
    ]
}