{
    "goal": {
        "global_pose": {
            "orientation": {
                "w": -0.4816463035849501,
                "x": 0.5182115481033762,
                "y": 0.4908360881923453,
                "z": -0.5084816262002911
            },
            "position": {
                "x": -0.8240239810943604,
                "y": 0.19912469901144506,
                "z": 0.16403168439865112
            }
        },
        "name": "move_to_storage_D"
    },
    "id": "STRIDE_move_to_storage_D_145",
    "joint_names": [
        "shoulder_pan_joint",
        "shoulder_lift_joint",
        "elbow_joint",
        "wrist_1_joint",
        "wrist_2_joint",
        "wrist_3_joint"
    ],
    "metrics": {
        "cart_traj_len": 4.328807085566747,
        "distance_elbow_joint": 4.209391339758071,
        "distance_shoulder_lift_joint": 1.2653489717831075,
        "distance_shoulder_pan_joint": 2.8129872885089897,
        "distance_wrist_1_joint": 2.267225073745666,
        "distance_wrist_2_joint": 2.92711545104304,
        "distance_wrist_3_joint": 5.287920065068943,
        "smoothness": 0.15777398691966418,
        "time": 0.112079191,
        "traj_len": 4.332434441501432,
        "weighted_distance": 5.877088466650337
    },
    "planner": "STRIDE",
    "start": {
        "state": {
            "elbow_joint": -2.384821988534728,
            "shoulder_lift_joint": -2.2788054721415256,
            "shoulder_pan_joint": -0.1854694642142757,
            "wrist_1_joint": 1.4845938289331202,
            "wrist_2_joint": 0.17898776772866878,
            "wrist_3_joint": 0.037105688729662994
        }
    },
    "waypoints": [
        {
            "positions": [
                -0.1854694642142757,
                -2.2788054721415256,
                -2.384821988534728,
                1.4845938289331202,
                0.17898776772866878,
                0.037105688729662994
            ]
        },
        {
            "positions": [
                -0.09083337638468263,
                -2.2219178744049093,
                -2.3703584338048413,
                1.411210064939553,
                0.27399499622045115,
                0.09106386762017002
            ]
        },
        {
            "positions": [
                0.003802711444910456,
                -2.165030276668293,
                -2.3558948790749543,
                1.3378263009459854,
                0.36900222471223354,
                0.14502204651067704
            ]
        },
        {
            "positions": [
                0.09843879927450352,
                -2.1081426789316766,
                -2.3414313243450677,
                1.264442536952418,
                0.4640094532040159,
                0.19898022540118407
            ]
        },
        {
            "positions": [
                0.19307488710409662,
                -2.0512550811950603,
                -2.326967769615181,
                1.1910587729588507,
                0.5590166816957982,
                0.2529384042916911
            ]
        },
        {
            "positions": [
                0.2877109749336897,
                -1.994367483458444,
                -2.312504214885294,
                1.1176750089652834,
                0.6540239101875805,
                0.30689658318219815
            ]
        },
        {
            "positions": [
                0.3823470627632828,
                -1.9374798857218276,
                -2.2980406601554075,
                1.0442912449717159,
                0.7490311386793629,
                0.36085476207270517
            ]
        },
        {
            "positions": [
                0.47698315059287577,
                -1.8805922879852113,
                -2.283577105425521,
                0.9709074809781485,
                0.8440383671711452,
                0.4148129409632122
            ]
        },
        {
            "positions": [
                0.571619238422469,
                -1.8237046902485947,
                -2.269113550695634,
                0.8975237169845811,
                0.9390455956629277,
                0.4687711198537192
            ]
        },
        {
            "positions": [
                0.666255326252062,
                -1.7668170925119784,
                -2.2546499959657473,
                0.8241399529910137,
                1.03405282415471,
                0.5227292987442262
            ]
        },
        {
            "positions": [
                0.7608914140816551,
                -1.709929494775362,
                -2.2401864412358607,
                0.7507561889974463,
                1.1290600526464925,
                0.5766874776347333
            ]
        },
        {
            "positions": [
                0.8555275019112482,
                -1.6530418970387455,
                -2.2257228865059737,
                0.6773724250038788,
                1.224067281138275,
                0.6306456565252403
            ]
        },
        {
            "positions": [
                0.9501635897408413,
                -1.5961542993021294,
                -2.211259331776087,
                0.6039886610103116,
                1.3190745096300571,
                0.6846038354157473
            ]
        },
        {
            "positions": [
                1.0447996775704342,
                -1.5392667015655128,
                -2.1967957770462,
                0.5306048970167442,
                1.4140817381218396,
                0.7385620143062543
            ]
        },
        {
            "positions": [
                1.1394357654000271,
                -1.4823791038288967,
                -2.1823322223163135,
                0.4572211330231768,
                1.5090889666136218,
                0.7925201931967614
            ]
        },
        {
            "positions": [
                1.2340718532296204,
                -1.4254915060922801,
                -2.167868667586427,
                0.3838373690296093,
                1.6040961951054042,
                0.8464783720872684
            ]
        },
        {
            "positions": [
                1.3287079410592135,
                -1.3686039083556638,
                -2.15340511285654,
                0.310453605036042,
                1.6991034235971867,
                0.9004365509777754
            ]
        },
        {
            "positions": [
                1.4233440288888064,
                -1.3117163106190475,
                -2.1389415581266533,
                0.23706984104247475,
                1.794110652088969,
                0.9543947298682824
            ]
        },
        {
            "positions": [
                1.5179801167183995,
                -1.2548287128824311,
                -2.1244780033967667,
                0.16368607704890725,
                1.8891178805807514,
                1.0083529087587895
            ]
        },
        {
            "positions": [
                1.6126162045479926,
                -1.1979411151458148,
                -2.1100144486668797,
                0.09030231305533998,
                1.9841251090725336,
                1.0623110876492965
            ]
        },
        {
            "positions": [
                1.7072522923775857,
                -1.1410535174091985,
                -2.095550893936993,
                0.01691854906177237,
                2.079132337564316,
                1.1162692665398035
            ]
        },
        {
            "positions": [
                1.740118918517483,
                -1.1364964810859564,
                -1.9555465994669812,
                -0.011636800719453312,
                2.0424548060926235,
                0.9659565348519891
            ]
        },
        {
            "positions": [
                1.7729855446573806,
                -1.1319394447627142,
                -1.8155423049969692,
                -0.040192150500678994,
                2.0057772746209306,
                0.8156438031641746
            ]
        },
        {
            "positions": [
                1.8058521707972779,
                -1.127382408439472,
                -1.6755380105269573,
                -0.06874750028190467,
                1.9690997431492379,
                0.6653310714763602
            ]
        },
        {
            "positions": [
                1.8387187969371754,
                -1.1228253721162298,
                -1.5355337160569453,
                -0.09730285006313036,
                1.9324222116775451,
                0.5150183397885457
            ]
        },
        {
            "positions": [
                1.8715854230770728,
                -1.1182683357929877,
                -1.3955294215869332,
                -0.12585819984435606,
                1.8957446802058526,
                0.36470560810073116
            ]
        },
        {
            "positions": [
                1.90445204921697,
                -1.1137112994697456,
                -1.2555251271169214,
                -0.1544135496255817,
                1.85906714873416,
                0.21439287641291682
            ]
        },
        {
            "positions": [
                1.9373186753568676,
                -1.1091542631465034,
                -1.1155208326469093,
                -0.1829688994068074,
                1.8223896172624672,
                0.06408014472510226
            ]
        },
        {
            "positions": [
                1.970185301496765,
                -1.1045972268232613,
                -0.9755165381768973,
                -0.2115242491880331,
                1.7857120857907745,
                -0.08623258696271208
            ]
        },
        {
            "positions": [
                2.0030519276366627,
                -1.100040190500019,
                -0.8355122437068851,
                -0.2400795989692588,
                1.7490345543190817,
                -0.23654531865052686
            ]
        },
        {
            "positions": [
                2.03591855377656,
                -1.0954831541767769,
                -0.6955079492368732,
                -0.2686349487504845,
                1.712357022847389,
                -0.3868580503383412
            ]
        },
        {
            "positions": [
                2.0687851799164574,
                -1.0909261178535348,
                -0.5555036547668615,
                -0.29719029853171014,
                1.6756794913756963,
                -0.5371707820261555
            ]
        },
        {
            "positions": [
                2.1016518060563545,
                -1.0863690815302927,
                -0.41549936029684953,
                -0.3257456483129358,
                1.6390019599040038,
                -0.6874835137139699
            ]
        },
        {
            "positions": [
                2.134518432196252,
                -1.0818120452070505,
                -0.27549506582683736,
                -0.35430099809416155,
                1.6023244284323108,
                -0.8377962454017847
            ]
        },
        {
            "positions": [
                2.1673850583361496,
                -1.0772550088838084,
                -0.1354907713568254,
                -0.3828563478753872,
                1.5656468969606183,
                -0.988108977089599
            ]
        },
        {
            "positions": [
                2.200251684476047,
                -1.072697972560566,
                0.004513523113186313,
                -0.41141169765661284,
                1.5289693654889254,
                -1.1384217087774133
            ]
        },
        {
            "positions": [
                2.2331183106159442,
                -1.068140936237324,
                0.14451781758319848,
                -0.43996704743783854,
                1.4922918340172329,
                -1.2887344404652277
            ]
        },
        {
            "positions": [
                2.265984936755842,
                -1.0635838999140819,
                0.2845221120532102,
                -0.4685223972190642,
                1.4556143025455401,
                -1.439047172153042
            ]
        },
        {
            "positions": [
                2.2988515628957393,
                -1.0590268635908398,
                0.4245264065232228,
                -0.49707774700028995,
                1.4189367710738474,
                -1.5893599038408572
            ]
        },
        {
            "positions": [
                2.331718189035637,
                -1.0544698272675976,
                0.5645307009932345,
                -0.5256330967815156,
                1.3822592396021547,
                -1.7396726355286716
            ]
        },
        {
            "positions": [
                2.364584815175534,
                -1.0499127909443553,
                0.7045349954632467,
                -0.5541884465627414,
                1.345581708130462,
                -1.889985367216486
            ]
        },
        {
            "positions": [
                2.3974514413154315,
                -1.0453557546211132,
                0.8445392899332584,
                -0.582743796343967,
                1.3089041766587692,
                -2.0402980989043003
            ]
        },
        {
            "positions": [
                2.430318067455329,
                -1.040798718297871,
                0.9845435844032702,
                -0.6112991461251926,
                1.2722266451870765,
                -2.1906108305921146
            ]
        },
        {
            "positions": [
                2.463184693595226,
                -1.036241681974629,
                1.1245478788732823,
                -0.6398544959064183,
                1.235549113715384,
                -2.340923562279929
            ]
        },
        {
            "positions": [
                2.4960513197351237,
                -1.0316846456513868,
                1.264552173343294,
                -0.6684098456876439,
                1.1988715822436913,
                -2.4912362939677433
            ]
        },
        {
            "positions": [
                2.5289179458750213,
                -1.0271276093281445,
                1.4045564678133067,
                -0.6969651954688697,
                1.1621940507719986,
                -2.6415490256555585
            ]
        },
        {
            "positions": [
                2.561784572014919,
                -1.0225705730049024,
                1.5445607622833184,
                -0.7255205452500955,
                1.1255165193003056,
                -2.791861757343373
            ]
        },
        {
            "positions": [
                2.594651198154816,
                -1.0180135366816603,
                1.6845650567533306,
                -0.7540758950313211,
                1.088838987828613,
                -2.9421744890311867
            ]
        },
        {
            "positions": [
                2.6275178242947135,
                -1.0134565003584182,
                1.8245693512233425,
                -0.7826312448125468,
                1.0521614563569204,
                -3.0924872207190015
            ]
        }
    ]
}