{
    "goal": {
        "global_pose": {
            "orientation": {
                "w": 0.7031023480610252,
                "x": -0.7110244013736278,
                "y": 0.0077485991402295624,
                "z": 0.005598929693374583
            },
            "position": {
                "x": -0.8841497679147869,
                "y": 0.44412534475326537,
                "z": 0.3711530566215515
            }
        },
        "name": "move_to_auspresseinheit_D"
    },
    "id": "STRIDE_move_to_auspresseinheit_D_69",
    "joint_names": [
        "shoulder_pan_joint",
        "shoulder_lift_joint",
        "elbow_joint",
        "wrist_1_joint",
        "wrist_2_joint",
        "wrist_3_joint"
    ],
    "metrics": {
        "cart_traj_len": 0.3438960274789197,
        "distance_elbow_joint": 0.6557141906575881,
        "distance_shoulder_lift_joint": 0.131252193370349,
        "distance_shoulder_pan_joint": 0.13335239425875028,
        "distance_wrist_1_joint": 0.5742269913258475,
        "distance_wrist_2_joint": 1.4466011971403483,
        "distance_wrist_3_joint": 0.03652685568441383,
        "smoothness": 0.0,
        "time": 0.40934102800000005,
        "traj_len": 1.7255937593875614,
        "weighted_distance": 2.252011483601343
    },
    "planner": "STRIDE",
    "start": {
        "state": {
            "elbow_joint": -1.8275523626775212,
            "shoulder_lift_joint": -2.126789852344167,
            "shoulder_pan_joint": -0.03513704404078235,
            "wrist_1_joint": -2.347782403156801,
            "wrist_2_joint": -1.6058999987535132,
            "wrist_3_joint": -3.0880379163319196
        }
    },
    "waypoints": [
        {
            "positions": [
                -0.03513704404078235,
                -2.126789852344167,
                -1.8275523626775212,
                -2.347782403156801,
                -1.6058999987535132,
                -3.0880379163319196
            ]
        },
        {
            "positions": [
                -0.051806093323126134,
                -2.1431963765154602,
                -1.7455880888453228,
                -2.419560777072532,
                -1.4250748491109697,
                -3.083472059371368
            ]
        },
        {
            "positions": [
                -0.06847514260546991,
                -2.159602900686754,
                -1.6636238150131242,
                -2.4913391509882628,
                -1.2442496994684262,
                -3.078906202410816
            ]
        },
        {
            "positions": [
                -0.0851441918878137,
                -2.176009424858048,
                -1.5816595411809256,
                -2.5631175249039937,
                -1.0634245498258825,
                -3.0743403454502642
            ]
        },
        {
            "positions": [
                -0.1018132411701575,
                -2.1924159490293413,
                -1.4996952673487272,
                -2.6348958988197246,
                -0.882599400183339,
                -3.0697744884897125
            ]
        },
        {
            "positions": [
                -0.11848229045250128,
                -2.2088224732006347,
                -1.4177309935165288,
                -2.7066742727354556,
                -0.7017742505407956,
                -3.065208631529161
            ]
        },
        {
            "positions": [
                -0.13515133973484506,
                -2.2252289973719286,
                -1.3357667196843301,
                -2.7784526466511865,
                -0.5209491008982519,
                -3.0606427745686093
            ]
        },
        {
            "positions": [
                -0.15182038901718886,
                -2.2416355215432224,
                -1.2538024458521315,
                -2.8502310205669175,
                -0.3401239512557084,
                -3.0560769176080576
            ]
        },
        {
            "positions": [
                -0.16848943829953264,
                -2.258042045714516,
                -1.1718381720199331,
                -2.9220093944826484,
                -0.1592988016131648,
                -3.0515110606475058
            ]
        }
    ]
}