{
    "goal": {
        "global_pose": {
            "orientation": {
                "w": -0.4816463035849501,
                "x": 0.5182115481033762,
                "y": 0.4908360881923453,
                "z": -0.5084816262002911
            },
            "position": {
                "x": -0.8240239810943604,
                "y": -0.300875300988555,
                "z": 0.16403168439865112
            }
        },
        "name": "move_to_storage_C"
    },
    "id": "STRIDE_move_to_storage_C_130",
    "joint_names": [
        "shoulder_pan_joint",
        "shoulder_lift_joint",
        "elbow_joint",
        "wrist_1_joint",
        "wrist_2_joint",
        "wrist_3_joint"
    ],
    "metrics": {
        "cart_traj_len": 0.5771420841222772,
        "distance_elbow_joint": 0.25739919328633465,
        "distance_shoulder_lift_joint": 0.1897159672752694,
        "distance_shoulder_pan_joint": 0.49391242583627326,
        "distance_wrist_1_joint": 0.07189843867252499,
        "distance_wrist_2_joint": 1.0769256286300748,
        "distance_wrist_3_joint": 0.06926137949494127,
        "smoothness": 7.612957943425664e-16,
        "time": 0.15602744400000002,
        "traj_len": 1.4693920624514816,
        "weighted_distance": 1.8564643437157367
    },
    "planner": "STRIDE",
    "start": {
        "state": {
            "elbow_joint": 2.010868314990456,
            "shoulder_lift_joint": -1.1634956873337592,
            "shoulder_pan_joint": -2.4736205022346125,
            "wrist_1_joint": -0.8367026794202681,
            "wrist_2_joint": 0.6746043897044499,
            "wrist_3_joint": -3.1496632123970403
        }
    },
    "waypoints": [
        {
            "positions": [
                -2.4736205022346125,
                -1.1634956873337592,
                2.010868314990456,
                -0.8367026794202681,
                0.6746043897044499,
                -3.1496632123970403
            ]
        },
        {
            "positions": [
                -2.5559392398739913,
                -1.1318763594545476,
                1.9679684494427334,
                -0.8247196063081806,
                0.854091994476129,
                -3.1381196491478835
            ]
        },
        {
            "positions": [
                -2.63825797751337,
                -1.1002570315753362,
                1.925068583895011,
                -0.8127365331960931,
                1.0335795992478083,
                -3.1265760858987264
            ]
        },
        {
            "positions": [
                -2.720576715152749,
                -1.0686377036961245,
                1.8821687183472884,
                -0.8007534600840056,
                1.2130672040194872,
                -3.1150325226495696
            ]
        },
        {
            "positions": [
                -2.802895452792128,
                -1.037018375816913,
                1.839268852799566,
                -0.7887703869719181,
                1.3925548087911666,
                -3.103488959400413
            ]
        },
        {
            "positions": [
                -2.885214190431507,
                -1.0053990479377013,
                1.7963689872518436,
                -0.7767873138598306,
                1.5720424135628455,
                -3.0919453961512557
            ]
        },
        {
            "positions": [
                -2.9675329280708858,
                -0.9737797200584898,
                1.7534691217041212,
                -0.7648042407477431,
                1.7515300183345248,
                -3.080401832902099
            ]
        }
    ]
}