{
    "goal": {
        "global_pose": {
            "orientation": {
                "w": -0.00223480608172531,
                "x": 0.0024358444001904467,
                "y": 0.7094548369677653,
                "z": -0.704743149386269
            },
            "position": {
                "x": -0.37947507619857795,
                "y": -0.6371506643295288,
                "z": 0.19426114857196808
            }
        },
        "name": "move_to_magneteinheit_C"
    },
    "id": "STRIDE_move_to_magneteinheit_C_70",
    "joint_names": [
        "shoulder_pan_joint",
        "shoulder_lift_joint",
        "elbow_joint",
        "wrist_1_joint",
        "wrist_2_joint",
        "wrist_3_joint"
    ],
    "metrics": {
        "cart_traj_len": 1.6188216702863552,
        "distance_elbow_joint": 1.2635710259334547,
        "distance_shoulder_lift_joint": 0.8181628671177263,
        "distance_shoulder_pan_joint": 1.371787510777813,
        "distance_wrist_1_joint": 1.3939610128466506,
        "distance_wrist_2_joint": 1.6683826721595296,
        "distance_wrist_3_joint": 1.9674962604568362,
        "smoothness": 1.0603211086210778,
        "time": 2.599507061,
        "traj_len": 2.9126210445734286,
        "weighted_distance": 3.9345517603930262
    },
    "planner": "STRIDE",
    "start": {
        "state": {
            "elbow_joint": 1.9565354010623817,
            "shoulder_lift_joint": -1.4165861575791021,
            "shoulder_pan_joint": -1.6717766225146293,
            "wrist_1_joint": -0.5286633292919765,
            "wrist_2_joint": 1.472756589071564,
            "wrist_3_joint": -3.1238370188695823
        }
    },
    "waypoints": [
        {
            "positions": [
                -1.6717766225146293,
                -1.4165861575791021,
                1.9565354010623817,
                -0.5286633292919765,
                1.472756589071564,
                -3.1238370188695823
            ]
        },
        {
            "positions": [
                -1.5792538348545946,
                -1.433624305796103,
                1.9193419612432416,
                -0.4776598531476554,
                1.4414630335345704,
                -3.0521014553317505
            ]
        },
        {
            "positions": [
                -1.4867310471945598,
                -1.4506624540131037,
                1.8821485214241016,
                -0.42665637700333436,
                1.4101694779975766,
                -2.980365891793918
            ]
        },
        {
            "positions": [
                -1.5235932598107769,
                -1.4781962274729863,
                1.8230647127864454,
                -0.3918909901631108,
                1.2898341362113404,
                -2.888306281417828
            ]
        },
        {
            "positions": [
                -1.560455472426994,
                -1.505730000932869,
                1.7639809041487893,
                -0.35712560332288723,
                1.1694987944251038,
                -2.796246671041738
            ]
        },
        {
            "positions": [
                -1.5973176850432111,
                -1.5332637743927513,
                1.704897095511133,
                -0.32236021648266366,
                1.0491634526388676,
                -2.7041870606656477
            ]
        },
        {
            "positions": [
                -1.6341798976594282,
                -1.560797547852634,
                1.645813286873477,
                -0.2875948296424401,
                0.9288281108526313,
                -2.6121274502895577
            ]
        },
        {
            "positions": [
                -1.6710421102756452,
                -1.5883313213125165,
                1.5867294782358208,
                -0.25282944280221653,
                0.8084927690663948,
                -2.5200678399134677
            ]
        },
        {
            "positions": [
                -1.7079043228918622,
                -1.6158650947723991,
                1.5276456695981648,
                -0.21806405596199302,
                0.6881574272801585,
                -2.4280082295373777
            ]
        },
        {
            "positions": [
                -1.7447665355080795,
                -1.6433988682322815,
                1.4685618609605087,
                -0.18329866912176943,
                0.5678220854939221,
                -2.3359486191612877
            ]
        },
        {
            "positions": [
                -1.7816287481242965,
                -1.6709326416921642,
                1.4094780523228525,
                -0.1485332822815459,
                0.4474867437076858,
                -2.2438890087851973
            ]
        },
        {
            "positions": [
                -1.8184909607405135,
                -1.6984664151520468,
                1.3503942436851963,
                -0.11376789544132232,
                0.3271514019214494,
                -2.1518293984091073
            ]
        },
        {
            "positions": [
                -1.9320931054732178,
                -1.6729268264819324,
                1.4125078978813626,
                -0.09150173237597321,
                0.3118626882913641,
                -2.2724510817862624
            ]
        },
        {
            "positions": [
                -2.045695250205922,
                -1.647387237811818,
                1.4746215520775288,
                -0.0692355693106241,
                0.2965739746612787,
                -2.393072765163417
            ]
        },
        {
            "positions": [
                -2.1592973949386263,
                -1.6218476491417033,
                1.5367352062736952,
                -0.046969406245274986,
                0.2812852610311934,
                -2.513694448540572
            ]
        },
        {
            "positions": [
                -2.2728995396713305,
                -1.596308060471589,
                1.5988488604698614,
                -0.02470324317992588,
                0.26599654740110806,
                -2.634316131917727
            ]
        },
        {
            "positions": [
                -2.3865016844040348,
                -1.5707684718014745,
                1.6609625146660276,
                -0.002437080114576759,
                0.2507078337710227,
                -2.7549378152948822
            ]
        },
        {
            "positions": [
                -2.500103829136739,
                -1.54522888313136,
                1.7230761688621938,
                0.01982908295077235,
                0.23541912014093735,
                -2.875559498672037
            ]
        },
        {
            "positions": [
                -2.5248431041302095,
                -1.5036812532842991,
                1.7755776377469024,
                -0.056756333035547,
                0.298548755822694,
                -2.942677526233197
            ]
        },
        {
            "positions": [
                -2.5495823791236805,
                -1.4621336234372382,
                1.8280791066316109,
                -0.13334174902186635,
                0.3616783915044507,
                -3.009795553794357
            ]
        },
        {
            "positions": [
                -2.574321654117151,
                -1.4205859935901772,
                1.8805805755163194,
                -0.2099271650081857,
                0.42480802718620736,
                -3.076913581355517
            ]
        },
        {
            "positions": [
                -2.549533821983363,
                -1.3559854465944492,
                1.912391459697606,
                -0.3638552531694217,
                0.4852221012321156,
                -3.0945146956180047
            ]
        },
        {
            "positions": [
                -2.524745989849575,
                -1.2913848995987212,
                1.9442023438788927,
                -0.5177833413306576,
                0.5456361752780239,
                -3.1121158098804926
            ]
        },
        {
            "positions": [
                -2.4999581577157866,
                -1.2267843526029931,
                1.9760132280601792,
                -0.6717114294918937,
                0.606050249323932,
                -3.1297169241429805
            ]
        },
        {
            "positions": [
                -2.4751703255819986,
                -1.162183805607265,
                2.0078241122414657,
                -0.8256395176531296,
                0.6664643233698403,
                -3.1473180384054684
            ]
        }
    ]
}