{
    "goal": {
        "global_pose": {
            "orientation": {
                "w": 0.005598929693374612,
                "x": 0.007748599140229565,
                "y": 0.7110244013736278,
                "z": -0.7031023480610252
            },
            "position": {
                "x": -0.8858502320852131,
                "y": -0.7141253447532654,
                "z": 0.3711530566215515
            }
        },
        "name": "move_to_auspresseinheit_C"
    },
    "id": "STRIDE_move_to_auspresseinheit_C_54",
    "joint_names": [
        "shoulder_pan_joint",
        "shoulder_lift_joint",
        "elbow_joint",
        "wrist_1_joint",
        "wrist_2_joint",
        "wrist_3_joint"
    ],
    "metrics": {
        "cart_traj_len": 0.4939450561762769,
        "distance_elbow_joint": 1.0179806425377163,
        "distance_shoulder_lift_joint": 0.3334702673632167,
        "distance_shoulder_pan_joint": 0.25601564499169127,
        "distance_wrist_1_joint": 0.7158025931636913,
        "distance_wrist_2_joint": 1.314682261068495,
        "distance_wrist_3_joint": 0.09344482555625744,
        "smoothness": 6.45947944157498e-16,
        "time": 1.401141,
        "traj_len": 1.931682229219151,
        "weighted_distance": 2.4390101967859357
    },
    "planner": "STRIDE",
    "start": {
        "state": {
            "elbow_joint": 1.7527959577737207,
            "shoulder_lift_joint": -0.9740617694225068,
            "shoulder_pan_joint": -2.967991417825858,
            "wrist_1_joint": -0.759517768980727,
            "wrist_2_joint": 1.7443932448377408,
            "wrist_3_joint": -3.0840537646736568
        }
    },
    "waypoints": [
        {
            "positions": [
                -2.967991417825858,
                -0.9740617694225068,
                1.7527959577737207,
                -0.759517768980727,
                1.7443932448377408,
                -3.0840537646736568
            ]
        },
        {
            "positions": [
                -2.942389853326689,
                -0.940714742686185,
                1.650997893519949,
                -0.6879375096643578,
                1.6129250187308912,
                -3.0933982472292825
            ]
        },
        {
            "positions": [
                -2.9167882888275196,
                -0.9073677159498634,
                1.5491998292661773,
                -0.6163572503479887,
                1.4814567926240418,
                -3.102742729784908
            ]
        },
        {
            "positions": [
                -2.8911867243283504,
                -0.8740206892135418,
                1.4474017650124058,
                -0.5447769910316196,
                1.3499885665171925,
                -3.112087212340534
            ]
        },
        {
            "positions": [
                -2.8655851598291813,
                -0.8406736624772201,
                1.3456037007586341,
                -0.4731967317152505,
                1.2185203404103429,
                -3.1214316948961596
            ]
        },
        {
            "positions": [
                -2.839983595330012,
                -0.8073266357408984,
                1.2438056365048626,
                -0.4016164723988814,
                1.0870521143034932,
                -3.1307761774517857
            ]
        },
        {
            "positions": [
                -2.8143820308308434,
                -0.7739796090045767,
                1.142007572251091,
                -0.33003621308251224,
                0.9555838881966439,
                -3.1401206600074114
            ]
        },
        {
            "positions": [
                -2.788780466331674,
                -0.7406325822682551,
                1.0402095079973193,
                -0.25845595376614316,
                0.8241156620897945,
                -3.149465142563037
            ]
        },
        {
            "positions": [
                -2.763178901832505,
                -0.7072855555319334,
                0.9384114437435476,
                -0.18687569444977403,
                0.6926474359829449,
                -3.158809625118663
            ]
        },
        {
            "positions": [
                -2.737577337333336,
                -0.6739385287956117,
                0.836613379489776,
                -0.1152954351334049,
                0.5611792098760953,
                -3.1681541076742885
            ]
        },
        {
            "positions": [
                -2.7119757728341667,
                -0.64059150205929,
                0.7348153152360044,
                -0.04371517581703572,
                0.42971098376924594,
                -3.177498590229914
            ]
        }
    ]
}