{
    "goal": {
        "global_pose": {
            "orientation": {
                "w": 0.7031023480610252,
                "x": -0.7110244013736278,
                "y": 0.0077485991402295624,
                "z": 0.005598929693374583
            },
            "position": {
                "x": -0.8841497679147869,
                "y": 0.44412534475326537,
                "z": 0.3711530566215515
            }
        },
        "name": "move_to_auspresseinheit_D"
    },
    "id": "STRIDE_move_to_auspresseinheit_D_79",
    "joint_names": [
        "shoulder_pan_joint",
        "shoulder_lift_joint",
        "elbow_joint",
        "wrist_1_joint",
        "wrist_2_joint",
        "wrist_3_joint"
    ],
    "metrics": {
        "cart_traj_len": 0.3441164290855341,
        "distance_elbow_joint": 0.6674545645941794,
        "distance_shoulder_lift_joint": 0.1374567499948136,
        "distance_shoulder_pan_joint": 0.13289112708313766,
        "distance_wrist_1_joint": 0.6255063835994048,
        "distance_wrist_2_joint": 1.4435392014360844,
        "distance_wrist_3_joint": 0.08507120271008839,
        "smoothness": 1.9737298371844314e-16,
        "time": 0.182614002,
        "traj_len": 1.758385404118707,
        "weighted_distance": 2.308919058753116
    },
    "planner": "STRIDE",
    "start": {
        "state": {
            "elbow_joint": -1.8275523626775212,
            "shoulder_lift_joint": -2.126789852344167,
            "shoulder_pan_joint": -0.03513704404078235,
            "wrist_1_joint": -2.347782403156801,
            "wrist_2_joint": -1.6058999987535132,
            "wrist_3_joint": -3.0880379163319196
        }
    },
    "waypoints": [
        {
            "positions": [
                -0.03513704404078235,
                -2.126789852344167,
                -1.8275523626775212,
                -2.347782403156801,
                -1.6058999987535132,
                -3.0880379163319196
            ]
        },
        {
            "positions": [
                -0.05174843492617456,
                -2.1439719460935187,
                -1.7441205421032488,
                -2.4259707011067264,
                -1.4254575985740026,
                -3.0774040159931584
            ]
        },
        {
            "positions": [
                -0.06835982581156677,
                -2.16115403984287,
                -1.6606887215289763,
                -2.504158999056652,
                -1.2450151983944922,
                -3.0667701156543976
            ]
        },
        {
            "positions": [
                -0.08497121669695898,
                -2.178336133592222,
                -1.577256900954704,
                -2.5823472970065775,
                -1.0645727982149815,
                -3.0561362153156364
            ]
        },
        {
            "positions": [
                -0.10158260758235119,
                -2.195518227341574,
                -1.4938250803804314,
                -2.660535594956503,
                -0.884130398035471,
                -3.0455023149768756
            ]
        },
        {
            "positions": [
                -0.1181939984677434,
                -2.2127003210909253,
                -1.410393259806159,
                -2.738723892906429,
                -0.7036879978559605,
                -3.0348684146381144
            ]
        },
        {
            "positions": [
                -0.1348053893531356,
                -2.229882414840277,
                -1.3269614392318867,
                -2.8169121908563546,
                -0.5232455976764498,
                -3.024234514299353
            ]
        },
        {
            "positions": [
                -0.1514167802385278,
                -2.2470645085896286,
                -1.2435296186576141,
                -2.89510048880628,
                -0.34280319749693944,
                -3.0136006139605924
            ]
        },
        {
            "positions": [
                -0.16802817112392002,
                -2.2642466023389805,
                -1.1600977980833418,
                -2.9732887867562057,
                -0.16236079731742875,
                -3.002966713621831
            ]
        }
    ]
}