{
    "goal": {
        "global_pose": {
            "orientation": {
                "w": -0.00223480608172531,
                "x": 0.0024358444001904467,
                "y": 0.7094548369677653,
                "z": -0.704743149386269
            },
            "position": {
                "x": 0.6205249238014221,
                "y": -0.6371506643295288,
                "z": 0.19426114857196808
            }
        },
        "name": "move_to_magneteinheit_B"
    },
    "id": "STRIDE_move_to_magneteinheit_B_102",
    "joint_names": [
        "shoulder_pan_joint",
        "shoulder_lift_joint",
        "elbow_joint",
        "wrist_1_joint",
        "wrist_2_joint",
        "wrist_3_joint"
    ],
    "metrics": {
        "cart_traj_len": 3.650217819357127,
        "distance_elbow_joint": 4.269309098437383,
        "distance_shoulder_lift_joint": 0.77606594100719,
        "distance_shoulder_pan_joint": 2.151462140574754,
        "distance_wrist_1_joint": 4.406811926370565,
        "distance_wrist_2_joint": 3.4814674984381346,
        "distance_wrist_3_joint": 3.1385858322620797,
        "smoothness": 0.23121586791608076,
        "time": 3.088767044,
        "traj_len": 4.268922866144353,
        "weighted_distance": 5.691146942965273
    },
    "planner": "STRIDE",
    "start": {
        "state": {
            "elbow_joint": 2.6216224122426386,
            "shoulder_lift_joint": -1.4174107377796124,
            "shoulder_pan_joint": 0.7066234856936794,
            "wrist_1_joint": 1.9546482284002225,
            "wrist_2_joint": -0.7096286983471962,
            "wrist_3_joint": 0.005740856962016249
        }
    },
    "waypoints": [
        {
            "positions": [
                0.7066234856936794,
                -1.4174107377796124,
                2.6216224122426386,
                1.9546482284002225,
                -0.7096286983471962,
                0.005740856962016249
            ]
        },
        {
            "positions": [
                0.7435788566861794,
                -1.449426307771631,
                2.6118350998204574,
                1.8267783620671425,
                -0.8016269782951104,
                0.05708720850198912
            ]
        },
        {
            "positions": [
                0.7805342276786794,
                -1.4814418777636498,
                2.602047787398276,
                1.6989084957340626,
                -0.8936252582430245,
                0.10843356004196199
            ]
        },
        {
            "positions": [
                0.8174895986711794,
                -1.5134574477556684,
                2.592260474976095,
                1.5710386294009824,
                -0.9856235381909387,
                0.15977991158193489
            ]
        },
        {
            "positions": [
                0.8809187919972843,
                -1.5321320544489738,
                2.4772520821119146,
                1.4590656092262748,
                -0.9235005832069572,
                0.18428989531286666
            ]
        },
        {
            "positions": [
                0.9443479853233891,
                -1.550806661142279,
                2.3622436892477343,
                1.3470925890515673,
                -0.8613776282229756,
                0.2087998790437984
            ]
        },
        {
            "positions": [
                1.007777178649494,
                -1.5694812678355845,
                2.247235296383554,
                1.2351195688768597,
                -0.799254673238994,
                0.23330986277473018
            ]
        },
        {
            "positions": [
                1.0712063719755989,
                -1.58815587452889,
                2.1322269035193737,
                1.1231465487021524,
                -0.7371317182550124,
                0.2578198465056619
            ]
        },
        {
            "positions": [
                1.1346355653017037,
                -1.6068304812221954,
                2.0172185106551934,
                1.0111735285274448,
                -0.6750087632710309,
                0.2823298302365937
            ]
        },
        {
            "positions": [
                1.1980647586278086,
                -1.6255050879155006,
                1.9022101177910131,
                0.8992005083527371,
                -0.6128858082870493,
                0.30683981396752547
            ]
        },
        {
            "positions": [
                1.2614939519539137,
                -1.644179694608806,
                1.7872017249268328,
                0.7872274881780297,
                -0.5507628533030677,
                0.3313497976984572
            ]
        },
        {
            "positions": [
                1.3249231452800183,
                -1.6628543013021115,
                1.6721933320626525,
                0.6752544680033221,
                -0.4886398983190862,
                0.355859781429389
            ]
        },
        {
            "positions": [
                1.3883523386061234,
                -1.681528907995417,
                1.5571849391984725,
                0.5632814478286146,
                -0.4265169433351047,
                0.3803697651603207
            ]
        },
        {
            "positions": [
                1.451781531932228,
                -1.7002035146887222,
                1.4421765463342922,
                0.4513084276539072,
                -0.36439398835112313,
                0.4048797488912525
            ]
        },
        {
            "positions": [
                1.5152107252583331,
                -1.7188781213820277,
                1.3271681534701119,
                0.33933540747919966,
                -0.30227103336714156,
                0.4293897326221842
            ]
        },
        {
            "positions": [
                1.578639918584438,
                -1.7375527280753331,
                1.2121597606059313,
                0.22736238730449188,
                -0.24014807838315988,
                0.45389971635311605
            ]
        },
        {
            "positions": [
                1.6420691119105428,
                -1.7562273347686386,
                1.0971513677417513,
                0.11538936712978454,
                -0.17802512339917842,
                0.4784097000840478
            ]
        },
        {
            "positions": [
                1.7054983052366477,
                -1.7749019414619438,
                0.982142974877571,
                0.0034163469550769765,
                -0.11590216841519685,
                0.5029196838149795
            ]
        },
        {
            "positions": [
                1.7689274985627526,
                -1.7935765481552493,
                0.8671345820133907,
                -0.10855667321963058,
                -0.05377921343121528,
                0.5274296675459114
            ]
        },
        {
            "positions": [
                1.8323566918888574,
                -1.8122511548485547,
                0.7521261891492104,
                -0.22052969339433814,
                0.008343741552766293,
                0.5519396512768431
            ]
        },
        {
            "positions": [
                1.8957858852149623,
                -1.83092576154186,
                0.6371177962850301,
                -0.3325027135690457,
                0.07046669653674786,
                0.5764496350077748
            ]
        },
        {
            "positions": [
                1.9592150785410671,
                -1.8496003682351654,
                0.52210940342085,
                -0.44447573374375327,
                0.13258965152072932,
                0.6009596187387065
            ]
        },
        {
            "positions": [
                2.022644271867172,
                -1.8682749749284708,
                0.4071010105566697,
                -0.5564487539184608,
                0.194712606504711,
                0.6254696024696383
            ]
        },
        {
            "positions": [
                2.0860734651932766,
                -1.886949581621776,
                0.2920926176924894,
                -0.6684217740931679,
                0.25683556148869247,
                0.6499795862005702
            ]
        },
        {
            "positions": [
                2.1495026585193817,
                -1.9056241883150815,
                0.1770842248283091,
                -0.7803947942678755,
                0.3189585164726739,
                0.6744895699315019
            ]
        },
        {
            "positions": [
                2.212931851845487,
                -1.924298795008387,
                0.0620758319641288,
                -0.8923678144425831,
                0.3810814714566556,
                0.6989995536624336
            ]
        },
        {
            "positions": [
                2.2763610451715914,
                -1.9429734017016924,
                -0.05293256090005194,
                -1.004340834617291,
                0.4432044264406373,
                0.7235095373933655
            ]
        },
        {
            "positions": [
                2.3397902384976965,
                -1.9616480083949979,
                -0.16794095376423224,
                -1.1163138547919986,
                0.505327381424619,
                0.7480195211242973
            ]
        },
        {
            "positions": [
                2.4032194318238016,
                -1.980322615088303,
                -0.2829493466284121,
                -1.2282868749667062,
                0.5674503364086004,
                0.772529504855229
            ]
        },
        {
            "positions": [
                2.4666486251499062,
                -1.9989972217816085,
                -0.3979577394925924,
                -1.3402598951414133,
                0.6295732913925819,
                0.7970394885861607
            ]
        },
        {
            "positions": [
                2.530077818476011,
                -2.017671828474914,
                -0.5129661323567727,
                -1.4522329153161209,
                0.6916962463765636,
                0.8215494723170924
            ]
        },
        {
            "positions": [
                2.593507011802116,
                -2.0363464351682192,
                -0.627974525220953,
                -1.5642059354908284,
                0.753819201360545,
                0.8460594560480241
            ]
        },
        {
            "positions": [
                2.656936205128221,
                -2.055021041861525,
                -0.7429829180851333,
                -1.676178955665536,
                0.8159421563445267,
                0.8705694397789561
            ]
        },
        {
            "positions": [
                2.7203653984543257,
                -2.07369564855483,
                -0.8579913109493136,
                -1.7881519758402433,
                0.8780651113285081,
                0.8950794235098878
            ]
        },
        {
            "positions": [
                2.725308469300245,
                -2.087851462905086,
                -0.9178547622014454,
                -1.8554118278787204,
                0.7889272983132309,
                1.0380926938138821
            ]
        },
        {
            "positions": [
                2.7302515401461647,
                -2.1020072772553418,
                -0.9777182134535771,
                -1.9226716799171977,
                0.6997894852979538,
                1.1811059641178767
            ]
        },
        {
            "positions": [
                2.7351946109920844,
                -2.116163091605597,
                -1.037581664705709,
                -1.989931531955675,
                0.6106516722826767,
                1.324119234421871
            ]
        },
        {
            "positions": [
                2.7401376818380037,
                -2.130318905955853,
                -1.0974451159578407,
                -2.057191383994152,
                0.5215138592673996,
                1.4671325047258654
            ]
        },
        {
            "positions": [
                2.745080752683923,
                -2.1444747203061088,
                -1.1573085672099723,
                -2.124451236032629,
                0.4323760462521224,
                1.61014577502986
            ]
        },
        {
            "positions": [
                2.7500238235298426,
                -2.158630534656364,
                -1.2171720184621042,
                -2.1917110880711066,
                0.3432382332368452,
                1.7531590453338544
            ]
        },
        {
            "positions": [
                2.7549668943757624,
                -2.17278634900662,
                -1.277035469714236,
                -2.2589709401095837,
                0.2541004202215681,
                1.896172315637849
            ]
        },
        {
            "positions": [
                2.7599099652216816,
                -2.1869421633568757,
                -1.3368989209663678,
                -2.3262307921480607,
                0.16496260720629097,
                2.0391855859418433
            ]
        },
        {
            "positions": [
                2.746844773362394,
                -2.187962884094749,
                -1.3812927826552497,
                -2.346576336975824,
                0.07659301441602918,
                2.1934433406684946
            ]
        },
        {
            "positions": [
                2.7337795815031063,
                -2.1889836048326226,
                -1.4256866443441316,
                -2.366921881803587,
                -0.011776578374232599,
                2.347701095395146
            ]
        },
        {
            "positions": [
                2.7207143896438186,
                -2.1900043255704955,
                -1.4700805060330133,
                -2.3872674266313503,
                -0.10014617116449437,
                2.5019588501217966
            ]
        },
        {
            "positions": [
                2.707649197784531,
                -2.191025046308369,
                -1.5144743677218953,
                -2.4076129714591135,
                -0.18851576395475617,
                2.656216604848448
            ]
        },
        {
            "positions": [
                2.692344233247997,
                -2.1902078354822243,
                -1.5588784738795123,
                -2.422463213629523,
                -0.2802501418853159,
                2.8189199663069973
            ]
        },
        {
            "positions": [
                2.6770392687114635,
                -2.18939062465608,
                -1.6032825800371295,
                -2.437313455799933,
                -0.37198451981587566,
                2.9816233277655466
            ]
        },
        {
            "positions": [
                2.6617343041749297,
                -2.1885734138299355,
                -1.6476866861947466,
                -2.4521636979703425,
                -0.4637188977464354,
                3.144326689224096
            ]
        }
    ]
}