{
    "goal": {
        "global_pose": {
            "orientation": {
                "w": 0.7047431468963623,
                "x": -0.7094548344612122,
                "y": 0.0024358443915843964,
                "z": -0.0022348060738295317
            },
            "position": {
                "x": 0.6094750761985779,
                "y": 0.3671506643295288,
                "z": 0.19426114857196808
            }
        },
        "name": "move_to_magneteinheit_A"
    },
    "id": "STRIDE_move_to_magneteinheit_A_103",
    "joint_names": [
        "shoulder_pan_joint",
        "shoulder_lift_joint",
        "elbow_joint",
        "wrist_1_joint",
        "wrist_2_joint",
        "wrist_3_joint"
    ],
    "metrics": {
        "cart_traj_len": 3.1755112576023343,
        "distance_elbow_joint": 3.9131587777899974,
        "distance_shoulder_lift_joint": 0.5829612946767316,
        "distance_shoulder_pan_joint": 2.6048866418584606,
        "distance_wrist_1_joint": 3.4686738107237938,
        "distance_wrist_2_joint": 1.4342681810867266,
        "distance_wrist_3_joint": 0.8681403997881812,
        "smoothness": 0.1551357498580032,
        "time": 0.13546150099999998,
        "traj_len": 3.5877693774717314,
        "weighted_distance": 4.417161067621461
    },
    "planner": "STRIDE",
    "start": {
        "state": {
            "elbow_joint": -1.9196185241190666,
            "shoulder_lift_joint": -1.2443396400964142,
            "shoulder_pan_joint": 2.6996025414629847,
            "wrist_1_joint": -1.5485510000780065,
            "wrist_2_joint": -1.5709468930060704,
            "wrist_3_joint": 0.4420197071253992
        }
    },
    "waypoints": [
        {
            "positions": [
                2.6996025414629847,
                -1.2443396400964142,
                -1.9196185241190666,
                -1.5485510000780065,
                -1.5709468930060704,
                0.4420197071253992
            ]
        },
        {
            "positions": [
                2.6034647512283895,
                -1.2243302157074274,
                -1.8317141194944164,
                -1.4352445319488492,
                -1.5274700142493673,
                0.4175158865114812
            ]
        },
        {
            "positions": [
                2.5073269609937943,
                -1.2043207913184406,
                -1.7438097148697664,
                -1.3219380638196918,
                -1.4839931354926645,
                0.3930120658975632
            ]
        },
        {
            "positions": [
                2.411189170759199,
                -1.184311366929454,
                -1.6559053102451164,
                -1.2086315956905345,
                -1.4405162567359615,
                0.3685082452836453
            ]
        },
        {
            "positions": [
                2.3150513805246042,
                -1.1643019425404673,
                -1.5680009056204662,
                -1.0953251275613771,
                -1.3970393779792587,
                0.3440044246697273
            ]
        },
        {
            "positions": [
                2.218913590290009,
                -1.1442925181514805,
                -1.480096500995816,
                -0.9820186594322198,
                -1.3535624992225557,
                0.3195006040558093
            ]
        },
        {
            "positions": [
                2.1227758000554138,
                -1.1242830937624937,
                -1.392192096371166,
                -0.8687121913030624,
                -1.3100856204658529,
                0.2949967834418914
            ]
        },
        {
            "positions": [
                2.0266380098208185,
                -1.104273669373507,
                -1.3042876917465158,
                -0.755405723173905,
                -1.2666087417091498,
                0.2704929628279734
            ]
        },
        {
            "positions": [
                1.9305002195862233,
                -1.0842642449845201,
                -1.2163832871218658,
                -0.6420992550447477,
                -1.223131862952447,
                0.24598914221405543
            ]
        },
        {
            "positions": [
                1.8343624293516283,
                -1.0642548205955333,
                -1.1284788824972156,
                -0.5287927869155904,
                -1.1796549841957442,
                0.22148532160013748
            ]
        },
        {
            "positions": [
                1.738224639117033,
                -1.0442453962065468,
                -1.0405744778725654,
                -0.41548631878643305,
                -1.1361781054390412,
                0.19698150098621947
            ]
        },
        {
            "positions": [
                1.6420868488824378,
                -1.02423597181756,
                -0.9526700732479155,
                -0.3021798506572757,
                -1.0927012266823382,
                0.17247768037230155
            ]
        },
        {
            "positions": [
                1.5459490586478428,
                -1.0042265474285732,
                -0.8647656686232654,
                -0.18887338252811836,
                -1.0492243479256353,
                0.14797385975838356
            ]
        },
        {
            "positions": [
                1.4498112684132476,
                -0.9842171230395864,
                -0.7768612639986152,
                -0.07556691439896102,
                -1.0057474691689323,
                0.12347003914446558
            ]
        },
        {
            "positions": [
                1.3536734781786524,
                -0.9642076986505996,
                -0.688956859373965,
                0.03773955373019655,
                -0.9622705904122294,
                0.0989662185305476
            ]
        },
        {
            "positions": [
                1.2575356879440573,
                -0.944198274261613,
                -0.601052454749315,
                0.15104602185935367,
                -0.9187937116555266,
                0.07446239791662967
            ]
        },
        {
            "positions": [
                1.1613978977094621,
                -0.9241888498726262,
                -0.513148050124665,
                0.264352489988511,
                -0.8753168328988236,
                0.04995857730271169
            ]
        },
        {
            "positions": [
                1.0652601074748669,
                -0.9041794254836394,
                -0.4252436455000148,
                0.3776589581176686,
                -0.8318399541421206,
                0.02545475668879371
            ]
        },
        {
            "positions": [
                0.9691223172402719,
                -0.8841700010946527,
                -0.3373392408753648,
                0.4909654262468257,
                -0.7883630753854178,
                0.0009509360748757856
            ]
        },
        {
            "positions": [
                0.8729845270056766,
                -0.8641605767056659,
                -0.2494348362507146,
                0.604271894375983,
                -0.7448861966287148,
                -0.02355288453904225
            ]
        },
        {
            "positions": [
                0.7768467367710814,
                -0.8441511523166791,
                -0.1615304316260644,
                0.7175783625051404,
                -0.7014093178720119,
                -0.04805670515296023
            ]
        },
        {
            "positions": [
                0.6807089465364866,
                -0.8241417279276925,
                -0.0736260270014144,
                0.8308848306342977,
                -0.657932439115309,
                -0.0725605257668781
            ]
        },
        {
            "positions": [
                0.5845711563018909,
                -0.8041323035387057,
                0.014278377623235583,
                0.9441912987634551,
                -0.614455560358606,
                -0.09706434638079608
            ]
        },
        {
            "positions": [
                0.4884333660672957,
                -0.7841228791497189,
                0.10218278224788602,
                1.0574977668926124,
                -0.5709786816019031,
                -0.12156816699471407
            ]
        },
        {
            "positions": [
                0.3922955758327009,
                -0.7641134547607322,
                0.19008718687253578,
                1.1708042350217698,
                -0.5275018028452003,
                -0.14607198760863205
            ]
        },
        {
            "positions": [
                0.2961577855981056,
                -0.7441040303717454,
                0.27799159149718594,
                1.284110703150927,
                -0.4840249240884974,
                -0.17057580822255003
            ]
        },
        {
            "positions": [
                0.26312469602906263,
                -0.7379271129349694,
                0.4517522246874764,
                1.3320484305917715,
                -0.4596766408232482,
                -0.1344346603238911
            ]
        },
        {
            "positions": [
                0.2300916064600197,
                -0.7317501954981934,
                0.6255128578777669,
                1.379986158032616,
                -0.43532835755799903,
                -0.09829351242523217
            ]
        },
        {
            "positions": [
                0.19705851689097673,
                -0.7255732780614175,
                0.7992734910680572,
                1.4279238854734606,
                -0.41098007429274985,
                -0.062152364526573245
            ]
        },
        {
            "positions": [
                0.16402542732193376,
                -0.7193963606246414,
                0.9730341242583477,
                1.4758616129143052,
                -0.38663179102750067,
                -0.0260112166279143
            ]
        },
        {
            "positions": [
                0.15294131894042196,
                -0.7285434572035827,
                1.1546056311349826,
                1.563592088972077,
                -0.34373307483642596,
                -0.033138585976853756
            ]
        },
        {
            "positions": [
                0.14185721055891012,
                -0.737690553782524,
                1.3361771380116174,
                1.6513225650298486,
                -0.30083435864535124,
                -0.04026595532579321
            ]
        },
        {
            "positions": [
                0.13077310217739832,
                -0.7468376503614653,
                1.5177486448882525,
                1.7390530410876206,
                -0.2579356424542766,
                -0.04739332467473266
            ]
        },
        {
            "positions": [
                0.11968899379588649,
                -0.7559847469404066,
                1.6993201517648875,
                1.8267835171453923,
                -0.2150369262632018,
                -0.054520694023672114
            ]
        },
        {
            "positions": [
                0.10860488541437469,
                -0.7651318435193479,
                1.8808916586415223,
                1.914513993203164,
                -0.17213821007212712,
                -0.06164806337261157
            ]
        },
        {
            "positions": [
                0.12249387122422617,
                -0.7774143758296003,
                1.9935402536709308,
                1.9201228106457873,
                -0.1366787119193445,
                0.013695382728287521
            ]
        }
    ]
}