{
    "goal": {
        "global_pose": {
            "orientation": {
                "w": 0.7031023480610252,
                "x": -0.7110244013736278,
                "y": 0.0077485991402295624,
                "z": 0.005598929693374583
            },
            "position": {
                "x": -0.8841497679147869,
                "y": 0.44412534475326537,
                "z": 0.3711530566215515
            }
        },
        "name": "move_to_auspresseinheit_D"
    },
    "id": "STRIDE_move_to_auspresseinheit_D_114",
    "joint_names": [
        "shoulder_pan_joint",
        "shoulder_lift_joint",
        "elbow_joint",
        "wrist_1_joint",
        "wrist_2_joint",
        "wrist_3_joint"
    ],
    "metrics": {
        "cart_traj_len": 0.34357171778820633,
        "distance_elbow_joint": 0.6379628607341077,
        "distance_shoulder_lift_joint": 0.12143977182712806,
        "distance_shoulder_pan_joint": 0.13424377784172783,
        "distance_wrist_1_joint": 0.5157929438850299,
        "distance_wrist_2_joint": 1.449317161185385,
        "distance_wrist_3_joint": 0.022463693621689984,
        "smoothness": 0.0,
        "time": 0.12249017000000001,
        "traj_len": 1.6974157443287334,
        "weighted_distance": 2.2116187965851766
    },
    "planner": "STRIDE",
    "start": {
        "state": {
            "elbow_joint": -1.8275523626775212,
            "shoulder_lift_joint": -2.126789852344167,
            "shoulder_pan_joint": -0.03513704404078235,
            "wrist_1_joint": -2.347782403156801,
            "wrist_2_joint": -1.6058999987535132,
            "wrist_3_joint": -3.0880379163319196
        }
    },
    "waypoints": [
        {
            "positions": [
                -0.03513704404078235,
                -2.126789852344167,
                -1.8275523626775212,
                -2.347782403156801,
                -1.6058999987535132,
                -3.0880379163319196
            ]
        },
        {
            "positions": [
                -0.05191751627099833,
                -2.1419698238225577,
                -1.7478070050857577,
                -2.41225652114243,
                -1.42473535360534,
                -3.0908458780346306
            ]
        },
        {
            "positions": [
                -0.06869798850121431,
                -2.157149795300949,
                -1.6680616474939942,
                -2.4767306391280584,
                -1.243570708457167,
                -3.093653839737342
            ]
        },
        {
            "positions": [
                -0.08547846073143028,
                -2.17232976677934,
                -1.5883162899022307,
                -2.541204757113687,
                -1.0624060633089938,
                -3.0964618014400536
            ]
        },
        {
            "positions": [
                -0.10225893296164626,
                -2.187509738257731,
                -1.5085709323104672,
                -2.605678875099316,
                -0.8812414181608207,
                -3.0992697631427646
            ]
        },
        {
            "positions": [
                -0.11903940519186224,
                -2.2026897097361218,
                -1.428825574718704,
                -2.670152993084945,
                -0.7000767730126476,
                -3.1020777248454756
            ]
        },
        {
            "positions": [
                -0.13581987742207824,
                -2.2178696812145127,
                -1.3490802171269405,
                -2.7346271110705733,
                -0.5189121278644744,
                -3.104885686548187
            ]
        },
        {
            "positions": [
                -0.15260034965229421,
                -2.233049652692904,
                -1.269334859535177,
                -2.799101229056202,
                -0.3377474827163014,
                -3.1076936482508986
            ]
        },
        {
            "positions": [
                -0.1693808218825102,
                -2.248229624171295,
                -1.1895895019434135,
                -2.863575347041831,
                -0.15658283756812813,
                -3.1105016099536096
            ]
        }
    ]
}