{
    "goal": {
        "global_pose": {
            "orientation": {
                "w": 0.7047431468963623,
                "x": -0.7094548344612122,
                "y": 0.0024358443915843964,
                "z": -0.0022348060738295317
            },
            "position": {
                "x": 0.6094750761985779,
                "y": 0.3671506643295288,
                "z": 0.19426114857196808
            }
        },
        "name": "move_to_magneteinheit_A"
    },
    "id": "STRIDE_move_to_magneteinheit_A_52",
    "joint_names": [
        "shoulder_pan_joint",
        "shoulder_lift_joint",
        "elbow_joint",
        "wrist_1_joint",
        "wrist_2_joint",
        "wrist_3_joint"
    ],
    "metrics": {
        "cart_traj_len": 4.412500050594018,
        "distance_elbow_joint": 3.9031244275775654,
        "distance_shoulder_lift_joint": 0.12779806760086787,
        "distance_shoulder_pan_joint": 4.543892932211218,
        "distance_wrist_1_joint": 0.7067962300851277,
        "distance_wrist_2_joint": 1.7009810782241195,
        "distance_wrist_3_joint": 3.572370537836975,
        "smoothness": 0.14778194198026787,
        "time": 0.501996023,
        "traj_len": 3.8150967580830595,
        "weighted_distance": 4.909937031930153
    },
    "planner": "STRIDE",
    "start": {
        "state": {
            "elbow_joint": -1.9196185241190666,
            "shoulder_lift_joint": -1.2443396400964142,
            "shoulder_pan_joint": 2.6996025414629847,
            "wrist_1_joint": -1.5485510000780065,
            "wrist_2_joint": -1.5709468930060704,
            "wrist_3_joint": 0.4420197071253992
        }
    },
    "waypoints": [
        {
            "positions": [
                2.6996025414629847,
                -1.2443396400964142,
                -1.9196185241190666,
                -1.5485510000780065,
                -1.5709468930060704,
                0.4420197071253992
            ]
        },
        {
            "positions": [
                2.5448125010002043,
                -1.2394268164747955,
                -1.7644061830541191,
                -1.5178406723214664,
                -1.529786258241483,
                0.4392097415029036
            ]
        },
        {
            "positions": [
                2.3900224605374243,
                -1.2345139928531768,
                -1.6091938419891716,
                -1.4871303445649262,
                -1.4886256234768958,
                0.43639977588040807
            ]
        },
        {
            "positions": [
                2.235232420074644,
                -1.229601169231558,
                -1.4539815009242243,
                -1.4564200168083858,
                -1.4474649887123083,
                0.4335898102579125
            ]
        },
        {
            "positions": [
                2.0804423796118634,
                -1.2246883456099393,
                -1.2987691598592768,
                -1.4257096890518457,
                -1.4063043539477211,
                0.4307798446354169
            ]
        },
        {
            "positions": [
                1.9256523391490832,
                -1.2197755219883206,
                -1.1435568187943295,
                -1.3949993612953056,
                -1.3651437191831337,
                0.4279698790129214
            ]
        },
        {
            "positions": [
                1.770862298686303,
                -1.214862698366702,
                -0.9883444777293818,
                -1.3642890335387654,
                -1.3239830844185465,
                0.4251599133904258
            ]
        },
        {
            "positions": [
                1.6160722582235225,
                -1.2099498747450832,
                -0.8331321366644344,
                -1.333578705782225,
                -1.282822449653959,
                0.4223499477679302
            ]
        },
        {
            "positions": [
                1.4612822177607423,
                -1.2050370511234645,
                -0.6779197955994869,
                -1.302868378025685,
                -1.2416618148893719,
                0.4195399821454347
            ]
        },
        {
            "positions": [
                1.3064921772979619,
                -1.2001242275018458,
                -0.5227074545345394,
                -1.2721580502691447,
                -1.2005011801247845,
                0.4167300165229391
            ]
        },
        {
            "positions": [
                1.1517021368351816,
                -1.195211403880227,
                -0.36749511346959207,
                -1.2414477225126046,
                -1.1593405453601973,
                0.4139200509004436
            ]
        },
        {
            "positions": [
                0.9969120963724012,
                -1.1902985802586084,
                -0.21228277240464455,
                -1.2107373947560642,
                -1.1181799105956098,
                0.411110085277948
            ]
        },
        {
            "positions": [
                0.8421220559096212,
                -1.1853857566369899,
                -0.057070431339697025,
                -1.180027066999524,
                -1.0770192758310226,
                0.40830011965545243
            ]
        },
        {
            "positions": [
                0.6873320154468407,
                -1.1804729330153712,
                0.09814190972525028,
                -1.149316739242984,
                -1.0358586410664352,
                0.4054901540329569
            ]
        },
        {
            "positions": [
                0.5325419749840603,
                -1.1755601093937524,
                0.2533542507901978,
                -1.1186064114864438,
                -0.9946980063018479,
                0.4026801884104613
            ]
        },
        {
            "positions": [
                0.37775193452127986,
                -1.1706472857721337,
                0.4085665918551453,
                -1.0878960837299037,
                -0.9535373715372606,
                0.39987022278796575
            ]
        },
        {
            "positions": [
                0.22296189405849987,
                -1.165734462150515,
                0.5637789329200928,
                -1.0571857559733635,
                -0.9123767367726733,
                0.3970602571654702
            ]
        },
        {
            "positions": [
                0.06817185359571987,
                -1.1608216385288963,
                0.7189912739850399,
                -1.0264754282168234,
                -0.8712161020080861,
                0.39425029154297464
            ]
        },
        {
            "positions": [
                -0.08661818686706102,
                -1.1559088149072776,
                0.8742036150499879,
                -0.995765100460283,
                -0.8300554672434987,
                0.39144032592047906
            ]
        },
        {
            "positions": [
                -0.24140822732984102,
                -1.1509959912856589,
                1.0294159561149354,
                -0.9650547727037428,
                -0.7888948324789113,
                0.38863036029798353
            ]
        },
        {
            "positions": [
                -0.39619826779262146,
                -1.1460831676640402,
                1.1846282971798825,
                -0.9343444449472026,
                -0.747734197714324,
                0.38582039467548795
            ]
        },
        {
            "positions": [
                -0.5509883082554015,
                -1.1411703440424215,
                1.33984063824483,
                -0.9036341171906624,
                -0.7065735629497368,
                0.3830104290529924
            ]
        },
        {
            "positions": [
                -0.7057783487181823,
                -1.1362575204208027,
                1.4950529793097775,
                -0.8729237894341222,
                -0.6654129281851494,
                0.38020046343049685
            ]
        },
        {
            "positions": [
                -0.8605683891809626,
                -1.131344696799184,
                1.650265320374725,
                -0.842213461677582,
                -0.6242522934205621,
                0.37739049780800127
            ]
        },
        {
            "positions": [
                -0.7949869224098112,
                -1.1323315717527598,
                1.6724813592469767,
                -0.8422440411232289,
                -0.573966528177988,
                0.14354107590669615
            ]
        },
        {
            "positions": [
                -0.7294054556386598,
                -1.1333184467063357,
                1.6946973981192284,
                -0.8422746205688758,
                -0.5236807629354139,
                -0.09030834599460896
            ]
        },
        {
            "positions": [
                -0.6638239888675084,
                -1.1343053216599115,
                1.71691343699148,
                -0.8423052000145227,
                -0.4733949976928399,
                -0.3241577678959141
            ]
        },
        {
            "positions": [
                -0.598242522096357,
                -1.1352921966134875,
                1.7391294758637317,
                -0.8423357794601696,
                -0.42310923245026577,
                -0.5580071897972192
            ]
        },
        {
            "positions": [
                -0.5326610553252056,
                -1.1362790715670632,
                1.7613455147359836,
                -0.8423663589058165,
                -0.3728234672076917,
                -0.7918566116985243
            ]
        },
        {
            "positions": [
                -0.4670795885540541,
                -1.1372659465206392,
                1.7835615536082352,
                -0.8423969383514633,
                -0.3225377019651176,
                -1.0257060335998296
            ]
        },
        {
            "positions": [
                -0.40149812178290273,
                -1.138252821474215,
                1.8057775924804869,
                -0.8424275177971102,
                -0.27225193672254355,
                -1.2595554555011343
            ]
        },
        {
            "positions": [
                -0.3359166550117514,
                -1.1392396964277909,
                1.8279936313527385,
                -0.8424580972427571,
                -0.22196617147996944,
                -1.4934048774024395
            ]
        },
        {
            "positions": [
                -0.2703351882406,
                -1.1402265713813666,
                1.8502096702249902,
                -0.842488676688404,
                -0.1716804062373954,
                -1.7272542993037447
            ]
        },
        {
            "positions": [
                -0.2047537214694486,
                -1.1412134463349426,
                1.8724257090972418,
                -0.8425192561340509,
                -0.12139464099482133,
                -1.96110372120505
            ]
        },
        {
            "positions": [
                -0.1391722546982972,
                -1.1422003212885183,
                1.8946417479694935,
                -0.8425498355796978,
                -0.07110887575224722,
                -2.1949531431063547
            ]
        },
        {
            "positions": [
                -0.07359078792714568,
                -1.1431871962420943,
                1.9168577868417453,
                -0.8425804150253446,
                -0.020823110509673115,
                -2.4288025650076603
            ]
        },
        {
            "positions": [
                -0.008009321155994287,
                -1.14417407119567,
                1.939073825713997,
                -0.8426109944709915,
                0.029462654732900995,
                -2.6626519869089655
            ]
        },
        {
            "positions": [
                0.05757214561515711,
                -1.145160946149246,
                1.9612898645862487,
                -0.8426415739166384,
                0.079748419975475,
                -2.8965014088102703
            ]
        },
        {
            "positions": [
                0.12315361238630848,
                -1.1461478211028218,
                1.9835059034585003,
                -0.8426721533622853,
                0.13003418521804908,
                -3.1303508307115755
            ]
        }
    ]
}