{
    "goal": {
        "global_pose": {
            "orientation": {
                "w": -0.00223480608172531,
                "x": 0.0024358444001904467,
                "y": 0.7094548369677653,
                "z": -0.704743149386269
            },
            "position": {
                "x": -0.37947507619857795,
                "y": -0.6371506643295288,
                "z": 0.19426114857196808
            }
        },
        "name": "move_to_magneteinheit_C"
    },
    "id": "STRIDE_move_to_magneteinheit_C_55",
    "joint_names": [
        "shoulder_pan_joint",
        "shoulder_lift_joint",
        "elbow_joint",
        "wrist_1_joint",
        "wrist_2_joint",
        "wrist_3_joint"
    ],
    "metrics": {
        "cart_traj_len": 1.6280744203095203,
        "distance_elbow_joint": 1.1234699883932056,
        "distance_shoulder_lift_joint": 0.6510482208564201,
        "distance_shoulder_pan_joint": 1.7895989923672715,
        "distance_wrist_1_joint": 1.466231279049118,
        "distance_wrist_2_joint": 1.281443682118354,
        "distance_wrist_3_joint": 0.24892544816211437,
        "smoothness": 1.5391333455176248,
        "time": 0.21422650599999998,
        "traj_len": 2.561389781143527,
        "weighted_distance": 3.1314922111412287
    },
    "planner": "STRIDE",
    "start": {
        "state": {
            "elbow_joint": 1.9565354010623817,
            "shoulder_lift_joint": -1.4165861575791021,
            "shoulder_pan_joint": -1.6717766225146293,
            "wrist_1_joint": -0.5286633292919765,
            "wrist_2_joint": 1.472756589071564,
            "wrist_3_joint": -3.1238370188695823
        }
    },
    "waypoints": [
        {
            "positions": [
                -1.6717766225146293,
                -1.4165861575791021,
                1.9565354010623817,
                -0.5286633292919765,
                1.472756589071564,
                -3.1238370188695823
            ]
        },
        {
            "positions": [
                -1.6013685955481494,
                -1.4449762400806194,
                1.9334948490771313,
                -0.4446890155582303,
                1.3233658416940837,
                -3.1086794589382274
            ]
        },
        {
            "positions": [
                -1.5309605685816694,
                -1.4733663225821365,
                1.9104542970918812,
                -0.3607147018244842,
                1.1739750943166034,
                -3.093521899006872
            ]
        },
        {
            "positions": [
                -1.4605525416151894,
                -1.5017564050836538,
                1.8874137451066308,
                -0.2767403880907381,
                1.024584346939123,
                -3.078364339075517
            ]
        },
        {
            "positions": [
                -1.3901445146487095,
                -1.5301464875851711,
                1.8643731931213805,
                -0.19276607435699195,
                0.8751935995616427,
                -3.0632067791441617
            ]
        },
        {
            "positions": [
                -1.3197364876822295,
                -1.5585365700866884,
                1.8413326411361302,
                -0.1087917606232458,
                0.7258028521841623,
                -3.048049219212807
            ]
        },
        {
            "positions": [
                -1.2493284607157495,
                -1.5869266525882055,
                1.81829208915088,
                -0.024817446889499717,
                0.576412104806682,
                -3.0328916592814514
            ]
        },
        {
            "positions": [
                -1.1789204337492696,
                -1.6153167350897228,
                1.7952515371656297,
                0.05915686684424652,
                0.4270213574292018,
                -3.0177340993500965
            ]
        },
        {
            "positions": [
                -1.3329961786134996,
                -1.577396348037945,
                1.8685896952647079,
                -0.028051774361285836,
                0.443396744555205,
                -3.0258647424823932
            ]
        },
        {
            "positions": [
                -1.4870719234777294,
                -1.539475960986167,
                1.941927853363786,
                -0.1152604155668182,
                0.45977213168120823,
                -3.03399538561469
            ]
        },
        {
            "positions": [
                -1.6411476683419592,
                -1.501555573934389,
                2.015266011462864,
                -0.20246905677235055,
                0.4761475188072114,
                -3.0421260287469867
            ]
        },
        {
            "positions": [
                -1.7952234132061893,
                -1.4636351868826112,
                2.0886041695619424,
                -0.2896776979778829,
                0.4925229059332146,
                -3.050256671879284
            ]
        },
        {
            "positions": [
                -1.9492991580704193,
                -1.4257147998308333,
                2.161942327661021,
                -0.37688633918341524,
                0.5088982930592179,
                -3.0583873150115806
            ]
        },
        {
            "positions": [
                -2.1033749029346493,
                -1.3877944127790554,
                2.2352804857600987,
                -0.46409498038894764,
                0.525273680185221,
                -3.0665179581438773
            ]
        },
        {
            "positions": [
                -2.257450647798879,
                -1.3498740257272774,
                2.3086186438591767,
                -0.55130362159448,
                0.5416490673112243,
                -3.074648601276174
            ]
        },
        {
            "positions": [
                -2.411526392663109,
                -1.3119536386754995,
                2.381956801958255,
                -0.6385122628000124,
                0.5580244544372275,
                -3.0827792444084707
            ]
        },
        {
            "positions": [
                -2.4329053408924666,
                -1.262302123031641,
                2.2567965153903122,
                -0.6987595805562244,
                0.5929262389265493,
                -3.1087050389365554
            ]
        },
        {
            "positions": [
                -2.4542842891218237,
                -1.212650607387782,
                2.13163622882237,
                -0.7590068983124364,
                0.6278280234158712,
                -3.1346308334646404
            ]
        },
        {
            "positions": [
                -2.4756632373511813,
                -1.1629990917439235,
                2.006475942254427,
                -0.8192542160686485,
                0.662729807905193,
                -3.160556627992725
            ]
        }
    ]
}