{
    "goal": {
        "global_pose": {
            "orientation": {
                "w": -0.4816463035849501,
                "x": 0.5182115481033762,
                "y": 0.4908360881923453,
                "z": -0.5084816262002911
            },
            "position": {
                "x": -0.8240239810943604,
                "y": -0.300875300988555,
                "z": 0.16403168439865112
            }
        },
        "name": "move_to_storage_C"
    },
    "id": "STRIDE_move_to_storage_C_25",
    "joint_names": [
        "shoulder_pan_joint",
        "shoulder_lift_joint",
        "elbow_joint",
        "wrist_1_joint",
        "wrist_2_joint",
        "wrist_3_joint"
    ],
    "metrics": {
        "cart_traj_len": 0.5759458462843104,
        "distance_elbow_joint": 0.255190680872718,
        "distance_shoulder_lift_joint": 0.18909562754038212,
        "distance_shoulder_pan_joint": 0.4950656428397524,
        "distance_wrist_1_joint": 0.07256483535306368,
        "distance_wrist_2_joint": 1.0627290585284062,
        "distance_wrist_3_joint": 0.07109274472186122,
        "smoothness": 0.0,
        "time": 0.278461655,
        "traj_len": 1.4648339803049981,
        "weighted_distance": 1.8501940366300438
    },
    "planner": "STRIDE",
    "start": {
        "state": {
            "elbow_joint": 2.010868314990456,
            "shoulder_lift_joint": -1.1634956873337592,
            "shoulder_pan_joint": -2.4736205022346125,
            "wrist_1_joint": -0.8367026794202681,
            "wrist_2_joint": 0.6746043897044499,
            "wrist_3_joint": -3.1496632123970403
        }
    },
    "waypoints": [
        {
            "positions": [
                -2.4736205022346125,
                -1.1634956873337592,
                2.010868314990456,
                -0.8367026794202681,
                0.6746043897044499,
                -3.1496632123970403
            ]
        },
        {
            "positions": [
                -2.5561314427079047,
                -1.131979749410362,
                1.9683365348450028,
                -0.8246085401947575,
                0.8517258994591843,
                -3.1378144216100634
            ]
        },
        {
            "positions": [
                -2.6386423831811965,
                -1.1004638114869651,
                1.9258047546995498,
                -0.8125144009692469,
                1.0288474092139186,
                -3.1259656308230865
            ]
        },
        {
            "positions": [
                -2.7211533236544887,
                -1.0689478735635682,
                1.8832729745540968,
                -0.8004202617437363,
                1.205968918968653,
                -3.1141168400361097
            ]
        },
        {
            "positions": [
                -2.803664264127781,
                -1.037431935640171,
                1.8407411944086438,
                -0.7883261225182256,
                1.3830904287233872,
                -3.102268049249133
            ]
        },
        {
            "positions": [
                -2.8861752046010727,
                -1.005915997716774,
                1.7982094142631908,
                -0.776231983292715,
                1.5602119384781217,
                -3.090419258462156
            ]
        },
        {
            "positions": [
                -2.968686145074365,
                -0.9744000597933771,
                1.7556776341177378,
                -0.7641378440672044,
                1.737333448232856,
                -3.078570467675179
            ]
        }
    ]
}