{
    "goal": {
        "global_pose": {
            "orientation": {
                "w": -0.00223480608172531,
                "x": 0.0024358444001904467,
                "y": 0.7094548369677653,
                "z": -0.704743149386269
            },
            "position": {
                "x": -0.37947507619857795,
                "y": -0.6371506643295288,
                "z": 0.19426114857196808
            }
        },
        "name": "move_to_magneteinheit_C"
    },
    "id": "STRIDE_move_to_magneteinheit_C_119",
    "joint_names": [
        "shoulder_pan_joint",
        "shoulder_lift_joint",
        "elbow_joint",
        "wrist_1_joint",
        "wrist_2_joint",
        "wrist_3_joint"
    ],
    "metrics": {
        "cart_traj_len": 2.9327347322325763,
        "distance_elbow_joint": 0.650339526281468,
        "distance_shoulder_lift_joint": 0.9035853000637051,
        "distance_shoulder_pan_joint": 3.6849159266269096,
        "distance_wrist_1_joint": 2.7152749016614313,
        "distance_wrist_2_joint": 1.713788652225039,
        "distance_wrist_3_joint": 0.32723506009909187,
        "smoothness": 1.1553586223357348,
        "time": 1.1002461620000001,
        "traj_len": 3.16150903319248,
        "weighted_distance": 3.883126709372526
    },
    "planner": "STRIDE",
    "start": {
        "state": {
            "elbow_joint": 1.9565354010623817,
            "shoulder_lift_joint": -1.4165861575791021,
            "shoulder_pan_joint": -1.6717766225146293,
            "wrist_1_joint": -0.5286633292919765,
            "wrist_2_joint": 1.472756589071564,
            "wrist_3_joint": -3.1238370188695823
        }
    },
    "waypoints": [
        {
            "positions": [
                -1.6717766225146293,
                -1.4165861575791021,
                1.9565354010623817,
                -0.5286633292919765,
                1.472756589071564,
                -3.1238370188695823
            ]
        },
        {
            "positions": [
                -1.551634484822614,
                -1.4436498637903523,
                1.9315394458522859,
                -0.4278529171084731,
                1.3677191494276424,
                -3.111413190802045
            ]
        },
        {
            "positions": [
                -1.4314923471305987,
                -1.4707135700016025,
                1.9065434906421899,
                -0.3270425049249698,
                1.2626817097837209,
                -3.0989893627345078
            ]
        },
        {
            "positions": [
                -1.3113502094385834,
                -1.4977772762128527,
                1.881547535432094,
                -0.22623209274146638,
                1.1576442701397993,
                -3.0865655346669705
            ]
        },
        {
            "positions": [
                -1.1912080717465683,
                -1.524840982424103,
                1.8565515802219983,
                -0.12542168055796304,
                1.0526068304958778,
                -3.0741417065994328
            ]
        },
        {
            "positions": [
                -1.0710659340545527,
                -1.5519046886353531,
                1.8315556250119023,
                -0.024611268374459594,
                0.947569390851956,
                -3.0617178785318955
            ]
        },
        {
            "positions": [
                -0.9509237963625377,
                -1.5789683948466036,
                1.8065596698018065,
                0.07619914380904369,
                0.8425319512080345,
                -3.049294050464358
            ]
        },
        {
            "positions": [
                -0.8307816586705223,
                -1.6060321010578538,
                1.7815637145917107,
                0.17700955599254709,
                0.7374945115641128,
                -3.036870222396821
            ]
        },
        {
            "positions": [
                -0.7106395209785071,
                -1.633095807269104,
                1.7565677593816147,
                0.27781996817605037,
                0.6324570719201914,
                -3.0244463943292836
            ]
        },
        {
            "positions": [
                -0.5904973832864917,
                -1.6601595134803542,
                1.731571804171519,
                0.37863038035955376,
                0.5274196322762698,
                -3.012022566261746
            ]
        },
        {
            "positions": [
                -0.4703552455944764,
                -1.6872232196916044,
                1.7065758489614231,
                0.47944079254305727,
                0.4223821926323481,
                -2.9995987381942086
            ]
        },
        {
            "positions": [
                -0.3502131079024613,
                -1.7142869259028546,
                1.6815798937513273,
                0.5802512047265604,
                0.31734475298842657,
                -2.9871749101266714
            ]
        },
        {
            "positions": [
                -0.23007097021044598,
                -1.7413506321141048,
                1.6565839385412313,
                0.681061616910064,
                0.21230731334450514,
                -2.974751082059134
            ]
        },
        {
            "positions": [
                -0.3903002755192122,
                -1.7000062874334831,
                1.681611657381254,
                0.5735223343772503,
                0.2446886973800752,
                -2.9874760194368943
            ]
        },
        {
            "positions": [
                -0.5505295808279784,
                -1.6586619427528615,
                1.7066393762212766,
                0.46598305184443667,
                0.27707008141564526,
                -3.0002009568146546
            ]
        },
        {
            "positions": [
                -0.7107588861367445,
                -1.61731759807224,
                1.7316670950612993,
                0.35844376931162303,
                0.30945146545121527,
                -3.012925894192415
            ]
        },
        {
            "positions": [
                -0.8709881914455108,
                -1.5759732533916184,
                1.756694813901322,
                0.2509044867788094,
                0.3418328494867854,
                -3.025650831570175
            ]
        },
        {
            "positions": [
                -1.031217496754277,
                -1.5346289087109968,
                1.7817225327413448,
                0.14336520424599575,
                0.3742142335223554,
                -3.0383757689479354
            ]
        },
        {
            "positions": [
                -1.191446802063043,
                -1.4932845640303751,
                1.8067502515813674,
                0.03582592171318211,
                0.40659561755792545,
                -3.0511007063256956
            ]
        },
        {
            "positions": [
                -1.3516761073718093,
                -1.4519402193497535,
                1.8317779704213901,
                -0.07171336081963153,
                0.4389770015934955,
                -3.063825643703456
            ]
        },
        {
            "positions": [
                -1.5119054126805755,
                -1.410595874669132,
                1.8568056892614129,
                -0.17925264335244517,
                0.47135838562906557,
                -3.076550581081216
            ]
        },
        {
            "positions": [
                -1.6721347179893418,
                -1.3692515299885104,
                1.8818334081014356,
                -0.2867919258852589,
                0.5037397696646356,
                -3.0892755184589764
            ]
        },
        {
            "positions": [
                -1.832364023298108,
                -1.3279071853078888,
                1.9068611269414582,
                -0.39433120841807245,
                0.5361211537002057,
                -3.1020004558367367
            ]
        },
        {
            "positions": [
                -1.992593328606874,
                -1.2865628406272673,
                1.931888845781481,
                -0.5018704909508861,
                0.5685025377357757,
                -3.114725393214497
            ]
        },
        {
            "positions": [
                -2.1528226339156404,
                -1.2452184959466457,
                1.9569165646215034,
                -0.6094097734836997,
                0.6008839217713458,
                -3.127450330592257
            ]
        },
        {
            "positions": [
                -2.3130519392244064,
                -1.203874151266024,
                1.9819442834615262,
                -0.7169490560165134,
                0.6332653058069158,
                -3.1401752679700174
            ]
        },
        {
            "positions": [
                -2.473281244533173,
                -1.1625298065854024,
                2.006972002301549,
                -0.8244883385493271,
                0.6656466898424859,
                -3.1529002053477777
            ]
        }
    ]
}