{
    "goal": {
        "global_pose": {
            "orientation": {
                "w": 0.7047431468963623,
                "x": -0.7094548344612122,
                "y": 0.0024358443915843964,
                "z": -0.0022348060738295317
            },
            "position": {
                "x": 0.6094750761985779,
                "y": 0.3671506643295288,
                "z": 0.19426114857196808
            }
        },
        "name": "move_to_magneteinheit_A"
    },
    "id": "STRIDE_move_to_magneteinheit_A_8",
    "joint_names": [
        "shoulder_pan_joint",
        "shoulder_lift_joint",
        "elbow_joint",
        "wrist_1_joint",
        "wrist_2_joint",
        "wrist_3_joint"
    ],
    "metrics": {
        "cart_traj_len": 3.13457525040589,
        "distance_elbow_joint": 3.915681068666449,
        "distance_shoulder_lift_joint": 0.4648620813583155,
        "distance_shoulder_pan_joint": 2.6460741094460376,
        "distance_wrist_1_joint": 3.48215984915834,
        "distance_wrist_2_joint": 1.4479198322784332,
        "distance_wrist_3_joint": 2.2817076763441033,
        "smoothness": 0.12365543058710986,
        "time": 0.25587028900000003,
        "traj_len": 3.773381059110208,
        "weighted_distance": 4.87153976185935
    },
    "planner": "STRIDE",
    "start": {
        "state": {
            "elbow_joint": -1.9196185241190666,
            "shoulder_lift_joint": -1.2443396400964142,
            "shoulder_pan_joint": 2.6996025414629847,
            "wrist_1_joint": -1.5485510000780065,
            "wrist_2_joint": -1.5709468930060704,
            "wrist_3_joint": 0.4420197071253992
        }
    },
    "waypoints": [
        {
            "positions": [
                2.6996025414629847,
                -1.2443396400964142,
                -1.9196185241190666,
                -1.5485510000780065,
                -1.5709468930060704,
                0.4420197071253992
            ]
        },
        {
            "positions": [
                2.605930794427328,
                -1.2355594689772975,
                -1.830056915411134,
                -1.4466357490438022,
                -1.5196708917683985,
                0.3913900373766629
            ]
        },
        {
            "positions": [
                2.512259047391671,
                -1.2267792978581809,
                -1.7404953067032012,
                -1.3447204980095977,
                -1.468394890530727,
                0.3407603676279266
            ]
        },
        {
            "positions": [
                2.4185873003560134,
                -1.217999126739064,
                -1.6509336979952685,
                -1.2428052469753934,
                -1.417118889293055,
                0.2901306978791903
            ]
        },
        {
            "positions": [
                2.3249155533203565,
                -1.2092189556199473,
                -1.5613720892873357,
                -1.1408899959411891,
                -1.3658428880553832,
                0.23950102813045399
            ]
        },
        {
            "positions": [
                2.2312438062846995,
                -1.2004387845008306,
                -1.4718104805794028,
                -1.0389747449069846,
                -1.3145668868177116,
                0.1888713583817177
            ]
        },
        {
            "positions": [
                2.1375720592490426,
                -1.191658613381714,
                -1.38224887187147,
                -0.9370594938727803,
                -1.2632908855800398,
                0.13824168863298142
            ]
        },
        {
            "positions": [
                2.0439003122133856,
                -1.1828784422625973,
                -1.2926872631635373,
                -0.835144242838576,
                -1.2120148843423681,
                0.08761201888424508
            ]
        },
        {
            "positions": [
                1.9502285651777282,
                -1.1740982711434806,
                -1.2031256544556046,
                -0.7332289918043716,
                -1.1607388831046963,
                0.036982349135508796
            ]
        },
        {
            "positions": [
                1.8565568181420713,
                -1.1653181000243638,
                -1.1135640457476719,
                -0.6313137407701672,
                -1.1094628818670245,
                -0.013647320613227487
            ]
        },
        {
            "positions": [
                1.7628850711064143,
                -1.156537928905247,
                -1.024002437039739,
                -0.5293984897359629,
                -1.0581868806293528,
                -0.06427699036196377
            ]
        },
        {
            "positions": [
                1.6692133240707572,
                -1.1477577577861304,
                -0.9344408283318063,
                -0.42748323870175864,
                -1.006910879391681,
                -0.11490666011070005
            ]
        },
        {
            "positions": [
                1.5755415770351002,
                -1.1389775866670138,
                -0.8448792196238735,
                -0.3255679876675541,
                -0.9556348781540093,
                -0.16553632985943634
            ]
        },
        {
            "positions": [
                1.4818698299994433,
                -1.130197415547897,
                -0.7553176109159407,
                -0.22365273663334984,
                -0.9043588769163375,
                -0.21616599960817273
            ]
        },
        {
            "positions": [
                1.388198082963786,
                -1.1214172444287802,
                -0.665756002208008,
                -0.12173748559914555,
                -0.8530828756786658,
                -0.266795669356909
            ]
        },
        {
            "positions": [
                1.294526335928129,
                -1.1126370733096635,
                -0.5761943935000753,
                -0.019822234564941033,
                -0.801806874440994,
                -0.3174253391056454
            ]
        },
        {
            "positions": [
                1.200854588892472,
                -1.1038569021905469,
                -0.48663278479214256,
                0.08209301646926326,
                -0.7505308732033222,
                -0.3680550088543816
            ]
        },
        {
            "positions": [
                1.1071828418568148,
                -1.0950767310714302,
                -0.3970711760842096,
                0.18400826750346777,
                -0.6992548719656504,
                -0.418684678603118
            ]
        },
        {
            "positions": [
                1.0135110948211579,
                -1.0862965599523136,
                -0.3075095673762771,
                0.28592351853767206,
                -0.6479788707279788,
                -0.46931434835185415
            ]
        },
        {
            "positions": [
                0.9198393477855007,
                -1.077516388833197,
                -0.21794795866834415,
                0.3878387695718766,
                -0.5967028694903069,
                -0.5199440181005905
            ]
        },
        {
            "positions": [
                0.826167600749844,
                -1.06873621771408,
                -0.12838634996041143,
                0.48975402060608064,
                -0.5454268682526353,
                -0.5705736878493267
            ]
        },
        {
            "positions": [
                0.7324958537141868,
                -1.0599560465949633,
                -0.0388247412524787,
                0.5916692716402852,
                -0.49415086701496347,
                -0.6212033575980632
            ]
        },
        {
            "positions": [
                0.6388241066785296,
                -1.0511758754758467,
                0.05073686745545403,
                0.6935845226744892,
                -0.4428748657772916,
                -0.6718330273467993
            ]
        },
        {
            "positions": [
                0.5451523596428727,
                -1.04239570435673,
                0.14029847616338698,
                0.7954997737086937,
                -0.3915988645396198,
                -0.7224626970955358
            ]
        },
        {
            "positions": [
                0.4514806126072157,
                -1.0336155332376133,
                0.2298600848713197,
                0.8974150247428982,
                -0.34032286330194816,
                -0.7730923668442718
            ]
        },
        {
            "positions": [
                0.35780886557155833,
                -1.0248353621184965,
                0.31942169357925243,
                0.9993302757771028,
                -0.2890468620642763,
                -0.8237220365930084
            ]
        },
        {
            "positions": [
                0.2641371185359018,
                -1.0160551909993798,
                0.40898330228718516,
                1.1012455268113068,
                -0.2377708608266047,
                -0.8743517063417446
            ]
        },
        {
            "positions": [
                0.17046537150024438,
                -1.0072750198802631,
                0.4985449109951178,
                1.2031607778455116,
                -0.18649485958893286,
                -0.924981376090481
            ]
        },
        {
            "positions": [
                0.1491471872916587,
                -0.9793325336727787,
                0.6542041182766005,
                1.2769887993815208,
                -0.17789663613445725,
                -0.8223600332642436
            ]
        },
        {
            "positions": [
                0.12782900308307307,
                -0.9513900474652943,
                0.8098633255580834,
                1.35081682091753,
                -0.16929841267998166,
                -0.7197386904380062
            ]
        },
        {
            "positions": [
                0.1065108188744874,
                -0.9234475612578099,
                0.9655225328395661,
                1.4246448424535392,
                -0.16070018922550605,
                -0.6171173476117687
            ]
        },
        {
            "positions": [
                0.10343673251735128,
                -0.9001911271927471,
                1.1218011182866268,
                1.5013123204959924,
                -0.15459422393313277,
                -0.5223034949127108
            ]
        },
        {
            "positions": [
                0.10036264616021515,
                -0.8769346931276842,
                1.2780797037336875,
                1.5779797985384454,
                -0.14848825864075949,
                -0.42748964221365293
            ]
        },
        {
            "positions": [
                0.09728855980307902,
                -0.8536782590626215,
                1.4343582891807483,
                1.6546472765808984,
                -0.1423822933483862,
                -0.332675789514595
            ]
        },
        {
            "positions": [
                0.09421447344594287,
                -0.8304218249975587,
                1.590636874627809,
                1.7313147546233516,
                -0.13627632805601295,
                -0.23786193681553708
            ]
        },
        {
            "positions": [
                0.09114038708880674,
                -0.8071653909324958,
                1.7469154600748698,
                1.8079822326658048,
                -0.13017036276363966,
                -0.14304808411647912
            ]
        },
        {
            "positions": [
                0.08806630073167061,
                -0.783908956867433,
                1.9031940455219305,
                1.8846497107082578,
                -0.12406439747126638,
                -0.04823423141742117
            ]
        },
        {
            "positions": [
                0.12260416944639345,
                -0.7794775587380987,
                1.9960625445473823,
                1.933608849080333,
                -0.12510173421489534,
                -0.01027478296225746
            ]
        }
    ]
}