{
    "goal": {
        "global_pose": {
            "orientation": {
                "w": 0.005598929693374612,
                "x": 0.007748599140229565,
                "y": 0.7110244013736278,
                "z": -0.7031023480610252
            },
            "position": {
                "x": 0.1141497679147869,
                "y": -0.7141253447532654,
                "z": 0.3711530566215515
            }
        },
        "name": "move_to_auspresseinheit_B"
    },
    "id": "STRIDE_move_to_auspresseinheit_B_100",
    "joint_names": [
        "shoulder_pan_joint",
        "shoulder_lift_joint",
        "elbow_joint",
        "wrist_1_joint",
        "wrist_2_joint",
        "wrist_3_joint"
    ],
    "metrics": {
        "cart_traj_len": 0.5654380908329457,
        "distance_elbow_joint": 0.06054151390619089,
        "distance_shoulder_lift_joint": 0.2940915934015502,
        "distance_shoulder_pan_joint": 0.5758469756546929,
        "distance_wrist_1_joint": 0.3147680298917428,
        "distance_wrist_2_joint": 1.0052648861250923,
        "distance_wrist_3_joint": 0.009394454675739627,
        "smoothness": 0.0,
        "time": 0.304687133,
        "traj_len": 1.5032988570656896,
        "weighted_distance": 1.8970317021661296
    },
    "planner": "STRIDE",
    "start": {
        "state": {
            "elbow_joint": 2.0193083361928714,
            "shoulder_lift_joint": -1.1220246554650708,
            "shoulder_pan_joint": -1.0952077554168747,
            "wrist_1_joint": -0.8559753972642168,
            "wrist_2_joint": 0.4759566250798843,
            "wrist_3_joint": -3.1240929996934557
        }
    },
    "waypoints": [
        {
            "positions": [
                -1.0952077554168747,
                -1.1220246554650708,
                2.0193083361928714,
                -0.8559753972642168,
                0.4759566250798843,
                -3.1240929996934557
            ]
        },
        {
            "positions": [
                -1.1911822513593235,
                -1.171039921031996,
                2.0092180838751728,
                -0.8035140589489264,
                0.6435007727673997,
                -3.122527257247499
            ]
        },
        {
            "positions": [
                -1.2871567473017722,
                -1.2200551865989209,
                1.9991278315574745,
                -0.7510527206336358,
                0.811044920454915,
                -3.1209615148015426
            ]
        },
        {
            "positions": [
                -1.383131243244221,
                -1.2690704521658458,
                1.9890375792397759,
                -0.6985913823183454,
                0.9785890681424305,
                -3.1193957723555856
            ]
        },
        {
            "positions": [
                -1.4791057391866698,
                -1.318085717732771,
                1.9789473269220774,
                -0.646130044003055,
                1.1461332158299458,
                -3.117830029909629
            ]
        },
        {
            "positions": [
                -1.5750802351291187,
                -1.367100983299696,
                1.968857074604379,
                -0.5936687056877644,
                1.3136773635174612,
                -3.1162642874636726
            ]
        },
        {
            "positions": [
                -1.6710547310715675,
                -1.416116248866621,
                1.9587668222866805,
                -0.541207367372474,
                1.4812215112049767,
                -3.114698545017716
            ]
        }
    ]
}