{
    "goal": {
        "global_pose": {
            "orientation": {
                "w": -0.4816463035849501,
                "x": 0.5182115481033762,
                "y": 0.4908360881923453,
                "z": -0.5084816262002911
            },
            "position": {
                "x": -0.8240239810943604,
                "y": -0.300875300988555,
                "z": 0.16403168439865112
            }
        },
        "name": "move_to_storage_C"
    },
    "id": "STRIDE_move_to_storage_C_141",
    "joint_names": [
        "shoulder_pan_joint",
        "shoulder_lift_joint",
        "elbow_joint",
        "wrist_1_joint",
        "wrist_2_joint",
        "wrist_3_joint"
    ],
    "metrics": {
        "cart_traj_len": 0.5763150384220506,
        "distance_elbow_joint": 0.25733001661599486,
        "distance_shoulder_lift_joint": 0.18898460035677123,
        "distance_shoulder_pan_joint": 0.49363778901417366,
        "distance_wrist_1_joint": 0.07650351923459875,
        "distance_wrist_2_joint": 1.0747731493487467,
        "distance_wrist_3_joint": 0.06485284477841002,
        "smoothness": 7.612957943425664e-16,
        "time": 0.021052385,
        "traj_len": 1.4683602825426378,
        "weighted_distance": 1.853932112427222
    },
    "planner": "STRIDE",
    "start": {
        "state": {
            "elbow_joint": 2.010868314990456,
            "shoulder_lift_joint": -1.1634956873337592,
            "shoulder_pan_joint": -2.4736205022346125,
            "wrist_1_joint": -0.8367026794202681,
            "wrist_2_joint": 0.6746043897044499,
            "wrist_3_joint": -3.1496632123970403
        }
    },
    "waypoints": [
        {
            "positions": [
                -2.4736205022346125,
                -1.1634956873337592,
                2.010868314990456,
                -0.8367026794202681,
                0.6746043897044499,
                -3.1496632123970403
            ]
        },
        {
            "positions": [
                -2.555893467070308,
                -1.131998253940964,
                1.96797997888779,
                -0.8239520928811683,
                0.853733247929241,
                -3.138854404933972
            ]
        },
        {
            "positions": [
                -2.638166431906004,
                -1.1005008205481688,
                1.9250916427851241,
                -0.8112015063420686,
                1.0328621061540322,
                -3.1280455974709036
            ]
        },
        {
            "positions": [
                -2.7204393967416993,
                -1.0690033871553735,
                1.8822033066824584,
                -0.7984509198029688,
                1.2119909643788231,
                -3.1172367900078353
            ]
        },
        {
            "positions": [
                -2.802712361577395,
                -1.0375059537625784,
                1.8393149705797927,
                -0.7857003332638689,
                1.3911198226036143,
                -3.106427982544767
            ]
        },
        {
            "positions": [
                -2.8849853264130907,
                -1.0060085203697833,
                1.7964266344771267,
                -0.7729497467247691,
                1.5702486808284055,
                -3.0956191750816986
            ]
        },
        {
            "positions": [
                -2.967258291248786,
                -0.974511086976988,
                1.753538298374461,
                -0.7601991601856694,
                1.7493775390531967,
                -3.0848103676186303
            ]
        }
    ]
}