{
    "goal": {
        "global_pose": {
            "orientation": {
                "w": 0.7031023480610252,
                "x": -0.7110244013736278,
                "y": 0.0077485991402295624,
                "z": 0.005598929693374583
            },
            "position": {
                "x": -0.8841497679147869,
                "y": 0.44412534475326537,
                "z": 0.3711530566215515
            }
        },
        "name": "move_to_auspresseinheit_D"
    },
    "id": "STRIDE_move_to_auspresseinheit_D_47",
    "joint_names": [
        "shoulder_pan_joint",
        "shoulder_lift_joint",
        "elbow_joint",
        "wrist_1_joint",
        "wrist_2_joint",
        "wrist_3_joint"
    ],
    "metrics": {
        "cart_traj_len": 0.342799660113273,
        "distance_elbow_joint": 0.6470671012550044,
        "distance_shoulder_lift_joint": 0.12646369335008378,
        "distance_shoulder_pan_joint": 0.13273553037313113,
        "distance_wrist_1_joint": 0.5558171975156534,
        "distance_wrist_2_joint": 1.4460247106029205,
        "distance_wrist_3_joint": 0.026309510734217056,
        "smoothness": 1.1842378960592198e-15,
        "time": 0.026954534000000002,
        "traj_len": 1.713014227562343,
        "weighted_distance": 2.2335797889079356
    },
    "planner": "STRIDE",
    "start": {
        "state": {
            "elbow_joint": -1.8275523626775212,
            "shoulder_lift_joint": -2.126789852344167,
            "shoulder_pan_joint": -0.03513704404078235,
            "wrist_1_joint": -2.347782403156801,
            "wrist_2_joint": -1.6058999987535132,
            "wrist_3_joint": -3.0880379163319196
        }
    },
    "waypoints": [
        {
            "positions": [
                -0.03513704404078235,
                -2.126789852344167,
                -1.8275523626775212,
                -2.347782403156801,
                -1.6058999987535132,
                -3.0880379163319196
            ]
        },
        {
            "positions": [
                -0.05172898533742374,
                -2.142597814012927,
                -1.7466689750206457,
                -2.4172595528462577,
                -1.4251469099281482,
                -3.0847492274901427
            ]
        },
        {
            "positions": [
                -0.06832092663406514,
                -2.158405775681688,
                -1.6657855873637701,
                -2.486736702535714,
                -1.2443938211027832,
                -3.0814605386483653
            ]
        },
        {
            "positions": [
                -0.08491286793070651,
                -2.174213737350448,
                -1.5849021997068946,
                -2.556213852225171,
                -1.063640732277418,
                -3.078171849806588
            ]
        },
        {
            "positions": [
                -0.10150480922734792,
                -2.1900216990192085,
                -1.504018812050019,
                -2.6256910019146273,
                -0.882887643452053,
                -3.074883160964811
            ]
        },
        {
            "positions": [
                -0.1180967505239893,
                -2.2058296606879693,
                -1.4231354243931436,
                -2.695168151604084,
                -0.702134554626688,
                -3.071594472123034
            ]
        },
        {
            "positions": [
                -0.1346886918206307,
                -2.2216376223567296,
                -1.3422520367362678,
                -2.764645301293541,
                -0.5213814658013227,
                -3.068305783281257
            ]
        },
        {
            "positions": [
                -0.15128063311727208,
                -2.2374455840254903,
                -1.2613686490793923,
                -2.8341224509829974,
                -0.3406283769759577,
                -3.0650170944394795
            ]
        },
        {
            "positions": [
                -0.16787257441391348,
                -2.2532535456942506,
                -1.1804852614225168,
                -2.9035996006724543,
                -0.15987528815059265,
                -3.0617284055977025
            ]
        }
    ]
}