{
    "goal": {
        "global_pose": {
            "orientation": {
                "w": 0.7031023480610252,
                "x": -0.7110244013736278,
                "y": 0.0077485991402295624,
                "z": 0.005598929693374583
            },
            "position": {
                "x": -0.8841497679147869,
                "y": 0.44412534475326537,
                "z": 0.3711530566215515
            }
        },
        "name": "move_to_auspresseinheit_D"
    },
    "id": "STRIDE_move_to_auspresseinheit_D_134",
    "joint_names": [
        "shoulder_pan_joint",
        "shoulder_lift_joint",
        "elbow_joint",
        "wrist_1_joint",
        "wrist_2_joint",
        "wrist_3_joint"
    ],
    "metrics": {
        "cart_traj_len": 0.34253825761028417,
        "distance_elbow_joint": 0.6352075966427086,
        "distance_shoulder_lift_joint": 0.12001184338275195,
        "distance_shoulder_pan_joint": 0.13343355382588534,
        "distance_wrist_1_joint": 0.5186771781840633,
        "distance_wrist_2_joint": 1.4457953344792809,
        "distance_wrist_3_joint": 0.014728032877284303,
        "smoothness": 9.868649185922157e-16,
        "time": 0.101133928,
        "traj_len": 1.69347380829819,
        "weighted_distance": 2.204944923985605
    },
    "planner": "STRIDE",
    "start": {
        "state": {
            "elbow_joint": -1.8275523626775212,
            "shoulder_lift_joint": -2.126789852344167,
            "shoulder_pan_joint": -0.03513704404078235,
            "wrist_1_joint": -2.347782403156801,
            "wrist_2_joint": -1.6058999987535132,
            "wrist_3_joint": -3.0880379163319196
        }
    },
    "waypoints": [
        {
            "positions": [
                -0.03513704404078235,
                -2.126789852344167,
                -1.8275523626775212,
                -2.347782403156801,
                -1.6058999987535132,
                -3.0880379163319196
            ]
        },
        {
            "positions": [
                -0.05181623826901802,
                -2.141791332767011,
                -1.7481514130971827,
                -2.412617050429809,
                -1.4251755819436032,
                -3.08987892044158
            ]
        },
        {
            "positions": [
                -0.06849543249725368,
                -2.156792813189855,
                -1.668750463516844,
                -2.4774516977028167,
                -1.244451165133693,
                -3.091719924551241
            ]
        },
        {
            "positions": [
                -0.08517462672548935,
                -2.171794293612699,
                -1.5893495139365055,
                -2.5422863449758246,
                -1.0637267483237829,
                -3.093560928660901
            ]
        },
        {
            "positions": [
                -0.10185382095372503,
                -2.186795774035543,
                -1.5099485643561668,
                -2.6071209922488325,
                -0.8830023315138728,
                -3.095401932770562
            ]
        },
        {
            "positions": [
                -0.11853301518196069,
                -2.201797254458387,
                -1.4305476147758283,
                -2.6719556395218405,
                -0.7022779147039626,
                -3.0972429368802223
            ]
        },
        {
            "positions": [
                -0.13521220941019635,
                -2.216798734881231,
                -1.3511466651954898,
                -2.7367902867948484,
                -0.5215534978940526,
                -3.0990839409898827
            ]
        },
        {
            "positions": [
                -0.15189140363843204,
                -2.231800215304075,
                -1.2717457156151513,
                -2.8016249340678563,
                -0.34082908108414234,
                -3.1009249450995435
            ]
        },
        {
            "positions": [
                -0.1685705978666677,
                -2.246801695726919,
                -1.1923447660348125,
                -2.866459581340864,
                -0.16010466427423223,
                -3.102765949209204
            ]
        }
    ]
}