{
    "goal": {
        "global_pose": {
            "orientation": {
                "w": 0.5084816217422485,
                "x": -0.49083608388900757,
                "y": 0.5182115435600281,
                "z": -0.4816462993621826
            },
            "position": {
                "x": 0.5540239810943604,
                "y": 0.030875300988554955,
                "z": 0.16403168439865112
            }
        },
        "name": "move_to_storage_A"
    },
    "id": "STRIDE_move_to_storage_A_15",
    "joint_names": [
        "shoulder_pan_joint",
        "shoulder_lift_joint",
        "elbow_joint",
        "wrist_1_joint",
        "wrist_2_joint",
        "wrist_3_joint"
    ],
    "metrics": {
        "cart_traj_len": 0.3532332943123676,
        "distance_elbow_joint": 0.4541265961804537,
        "distance_shoulder_lift_joint": 0.23260848013128843,
        "distance_shoulder_pan_joint": 0.46291084746765254,
        "distance_wrist_1_joint": 0.2606762240869892,
        "distance_wrist_2_joint": 1.0945258197053411,
        "distance_wrist_3_joint": 0.09925096337935413,
        "smoothness": 2.2204460668324854e-16,
        "time": 0.074924545,
        "traj_len": 1.6137220736394107,
        "weighted_distance": 2.039069126219638
    },
    "planner": "STRIDE",
    "start": {
        "state": {
            "elbow_joint": 1.971548259319323,
            "shoulder_lift_joint": -1.1394851275133948,
            "shoulder_pan_joint": 0.1228115487234821,
            "wrist_1_joint": -0.7804723859257726,
            "wrist_2_joint": 0.12958671773740124,
            "wrist_3_joint": -3.192489227718131
        }
    },
    "waypoints": [
        {
            "positions": [
                0.1228115487234821,
                -1.1394851275133948,
                1.971548259319323,
                -0.7804723859257726,
                0.12958671773740124,
                -3.192489227718131
            ]
        },
        {
            "positions": [
                0.056681427656674596,
                -1.172714910389293,
                2.036423487345102,
                -0.8177118465096282,
                0.28594754912387854,
                -3.1783105186639378
            ]
        },
        {
            "positions": [
                -0.009448693410132908,
                -1.2059446932651916,
                2.101298715370881,
                -0.8549513070934838,
                0.4423083805103558,
                -3.1641318096097444
            ]
        },
        {
            "positions": [
                -0.0755788144769404,
                -1.2391744761410899,
                2.1661739433966605,
                -0.8921907676773394,
                0.5986692118968331,
                -3.149953100555551
            ]
        },
        {
            "positions": [
                -0.14170893554374792,
                -1.2724042590169882,
                2.2310491714224394,
                -0.929430228261195,
                0.7550300432833105,
                -3.135774391501357
            ]
        },
        {
            "positions": [
                -0.20783905661055546,
                -1.3056340418928865,
                2.2959243994482184,
                -0.9666696888450506,
                0.9113908746697879,
                -3.121595682447164
            ]
        },
        {
            "positions": [
                -0.2739691776773629,
                -1.338863824768785,
                2.3607996274739977,
                -1.0039091494289063,
                1.067751706056265,
                -3.1074169733929704
            ]
        },
        {
            "positions": [
                -0.34009929874417044,
                -1.3720936076446832,
                2.4256748554997767,
                -1.0411486100127618,
                1.2241125374427424,
                -3.093238264338777
            ]
        }
    ]
}{
    "goal": {
        "global_pose": {
            "orientation": {
                "w": 0.5084816217422485,
                "x": -0.49083608388900757,
                "y": 0.5182115435600281,
                "z": -0.4816462993621826
            },
            "position": {
                "x": 0.5540239810943604,
                "y": 0.030875300988554955,
                "z": 0.16403168439865112
            }
        },
        "name": "move_to_storage_A"
    },
    "id": "STRIDE_move_to_storage_A_15",
    "joint_names": [
        "shoulder_pan_joint",
        "shoulder_lift_joint",
        "elbow_joint",
        "wrist_1_joint",
        "wrist_2_joint",
        "wrist_3_joint"
    ],
    "metrics": {
        "cart_traj_len": 0.3534155245247085,
        "distance_elbow_joint": 0.44993289417139515,
        "distance_shoulder_lift_joint": 0.23316890980560645,
        "distance_shoulder_pan_joint": 0.4637305063432734,
        "distance_wrist_1_joint": 0.24685304001469688,
        "distance_wrist_2_joint": 1.0917194744127503,
        "distance_wrist_3_joint": 0.09244279607756134,
        "smoothness": 0.0,
        "time": 0.06018124800000001,
        "traj_len": 1.6055676942518753,
        "weighted_distance": 2.0251680738664266
    },
    "planner": "STRIDE",
    "start": {
        "state": {
            "elbow_joint": 1.97154746011099,
            "shoulder_lift_joint": -1.13948474672311,
            "shoulder_pan_joint": 0.12281154466712228,
            "wrist_1_joint": -0.7804688027058302,
            "wrist_2_joint": 0.12958655903071145,
            "wrist_3_joint": 3.0906928834467795
        }
    },
    "waypoints": [
        {
            "positions": [
                0.12281154466712228,
                -1.13948474672311,
                1.97154746011099,
                -0.7804688027058302,
                0.12958655903071145,
                3.0906928834467795
            ]
        },
        {
            "positions": [
                0.05656432947522609,
                -1.1727945909810538,
                2.0358235878497606,
                -0.8157335227079298,
                0.28554648394681864,
                3.1038989971721453
            ]
        },
        {
            "positions": [
                -0.0096828857166701,
                -1.2061044352389976,
                2.1000997155885313,
                -0.8509982427100293,
                0.4415064088629258,
                3.117105110897511
            ]
        },
        {
            "positions": [
                -0.07593010090856629,
                -1.2394142794969414,
                2.164375843327302,
                -0.8862629627121288,
                0.597466333779033,
                3.130311224622877
            ]
        },
        {
            "positions": [
                -0.14217731610046247,
                -1.272724123754885,
                2.228651971066073,
                -0.9215276827142284,
                0.7534262586951402,
                3.1435173383482433
            ]
        },
        {
            "positions": [
                -0.20842453129235872,
                -1.3060339680128288,
                2.2929280988048437,
                -0.9567924027163279,
                0.9093861836112475,
                3.156723452073609
            ]
        },
        {
            "positions": [
                -0.27467174648425485,
                -1.3393438122707726,
                2.3572042265436144,
                -0.9920571227184275,
                1.0653461085273546,
                3.169929565798975
            ]
        },
        {
            "positions": [
                -0.3409189616761511,
                -1.3726536565287164,
                2.421480354282385,
                -1.027321842720527,
                1.2213060334434618,
                3.183135679524341
            ]
        }
    ]
}{
    "goal": {
        "global_pose": {
            "orientation": {
                "w": 0.5084816217422485,
                "x": -0.49083608388900757,
                "y": 0.5182115435600281,
                "z": -0.4816462993621826
            },
            "position": {
                "x": 0.5540239810943604,
                "y": 0.030875300988554955,
                "z": 0.16403168439865112
            }
        },
        "name": "move_to_storage_A"
    },
    "id": "STRIDE_move_to_storage_A_15",
    "joint_names": [
        "shoulder_pan_joint",
        "shoulder_lift_joint",
        "elbow_joint",
        "wrist_1_joint",
        "wrist_2_joint",
        "wrist_3_joint"
    ],
    "metrics": {
        "cart_traj_len": 0.35362062795981203,
        "distance_elbow_joint": 0.4486708088121949,
        "distance_shoulder_lift_joint": 0.23601350836601043,
        "distance_shoulder_pan_joint": 0.46431385459856495,
        "distance_wrist_1_joint": 0.23526599271969295,
        "distance_wrist_2_joint": 1.0922274317426304,
        "distance_wrist_3_joint": 0.0895268180665818,
        "smoothness": 6.661338165333112e-16,
        "time": 0.13173091,
        "traj_len": 1.6018796503812873,
        "weighted_distance": 2.0180598293661074
    },
    "planner": "STRIDE",
    "start": {
        "state": {
            "elbow_joint": 1.9715472970024885,
            "shoulder_lift_joint": -1.1394870060712896,
            "shoulder_pan_joint": 0.12281152778156021,
            "wrist_1_joint": -0.780463741449964,
            "wrist_2_joint": 0.12958659822042276,
            "wrist_3_joint": 3.090690232415272
        }
    },
    "waypoints": [
        {
            "positions": [
                0.12281152778156021,
                -1.1394870060712896,
                1.9715472970024885,
                -0.780463741449964,
                0.12958659822042276,
                3.090690232415272
            ]
        },
        {
            "positions": [
                0.05648097712462237,
                -1.1732032215521482,
                2.035643126832802,
                -0.8140731689813487,
                0.28561908846936995,
                3.103479777853355
            ]
        },
        {
            "positions": [
                -0.00984957353231547,
                -1.206919437033007,
                2.0997389566631157,
                -0.8476825965127334,
                0.4416515787183172,
                3.116269323291438
            ]
        },
        {
            "positions": [
                -0.0761801241892533,
                -1.2406356525138655,
                2.163834786493429,
                -0.8812920240441181,
                0.5976840689672643,
                3.1290588687295213
            ]
        },
        {
            "positions": [
                -0.14251067484619115,
                -1.274351867994724,
                2.227930616323743,
                -0.9149014515755028,
                0.7537165592162115,
                3.141848414167604
            ]
        },
        {
            "positions": [
                -0.20884122550312903,
                -1.308068083475583,
                2.2920264461540563,
                -0.9485108791068875,
                0.9097490494651588,
                3.1546379596056875
            ]
        },
        {
            "positions": [
                -0.27517177616006683,
                -1.3417842989564415,
                2.3561222759843696,
                -0.9821203066382722,
                1.065781539714106,
                3.1674275050437704
            ]
        },
        {
            "positions": [
                -0.3415023268170047,
                -1.3755005144373,
                2.4202181058146834,
                -1.015729734169657,
                1.221814029963053,
                3.1802170504818537
            ]
        }
    ]
}