{
    "goal": {
        "global_pose": {
            "orientation": {
                "w": 0.005598929693374612,
                "x": 0.007748599140229565,
                "y": 0.7110244013736278,
                "z": -0.7031023480610252
            },
            "position": {
                "x": -0.8858502320852131,
                "y": -0.7141253447532654,
                "z": 0.3711530566215515
            }
        },
        "name": "move_to_auspresseinheit_C"
    },
    "id": "STRIDE_move_to_auspresseinheit_C_75",
    "joint_names": [
        "shoulder_pan_joint",
        "shoulder_lift_joint",
        "elbow_joint",
        "wrist_1_joint",
        "wrist_2_joint",
        "wrist_3_joint"
    ],
    "metrics": {
        "cart_traj_len": 0.49205966917037647,
        "distance_elbow_joint": 0.9964449555417215,
        "distance_shoulder_lift_joint": 0.32355815610298544,
        "distance_shoulder_pan_joint": 0.2555059867205558,
        "distance_wrist_1_joint": 0.672011087576976,
        "distance_wrist_2_joint": 1.311872241339301,
        "distance_wrist_3_joint": 0.0453413159134155,
        "smoothness": 0.0,
        "time": 0.401333295,
        "traj_len": 1.898613637156058,
        "weighted_distance": 2.383128134183738
    },
    "planner": "STRIDE",
    "start": {
        "state": {
            "elbow_joint": 1.7527959577737207,
            "shoulder_lift_joint": -0.9740617694225068,
            "shoulder_pan_joint": -2.967991417825858,
            "wrist_1_joint": -0.759517768980727,
            "wrist_2_joint": 1.7443932448377408,
            "wrist_3_joint": -3.0840537646736568
        }
    },
    "waypoints": [
        {
            "positions": [
                -2.967991417825858,
                -0.9740617694225068,
                1.7527959577737207,
                -0.759517768980727,
                1.7443932448377408,
                -3.0840537646736568
            ]
        },
        {
            "positions": [
                -2.9424408191538025,
                -0.9417059538122082,
                1.6531514622195485,
                -0.6923166602230294,
                1.6132060207038108,
                -3.088587896264998
            ]
        },
        {
            "positions": [
                -2.9168902204817466,
                -0.9093501382019097,
                1.5535069666653762,
                -0.6251155514653317,
                1.4820187965698806,
                -3.09312202785634
            ]
        },
        {
            "positions": [
                -2.891339621809691,
                -0.8769943225916111,
                1.4538624711112043,
                -0.5579144427076341,
                1.3508315724359505,
                -3.0976561594476815
            ]
        },
        {
            "positions": [
                -2.8657890231376357,
                -0.8446385069813126,
                1.354217975557032,
                -0.49071333394993655,
                1.2196443483020203,
                -3.102190291039023
            ]
        },
        {
            "positions": [
                -2.8402384244655803,
                -0.812282691371014,
                1.2545734800028598,
                -0.42351222519223897,
                1.0884571241680905,
                -3.1067244226303643
            ]
        },
        {
            "positions": [
                -2.8146878257935244,
                -0.7799268757607155,
                1.1549289844486879,
                -0.3563111164345414,
                0.9572699000341603,
                -3.111258554221706
            ]
        },
        {
            "positions": [
                -2.789137227121469,
                -0.747571060150417,
                1.0552844888945156,
                -0.2891100076768438,
                0.8260826759002302,
                -3.1157926858130476
            ]
        },
        {
            "positions": [
                -2.7635866284494135,
                -0.7152152445401184,
                0.9556399933403434,
                -0.2219088989191461,
                0.6948954517663,
                -3.120326817404389
            ]
        },
        {
            "positions": [
                -2.7380360297773576,
                -0.6828594289298199,
                0.8559954977861712,
                -0.15470779016144853,
                0.5637082276323699,
                -3.124860948995731
            ]
        },
        {
            "positions": [
                -2.712485431105302,
                -0.6505036133195213,
                0.7563510022319991,
                -0.0875066814037509,
                0.43252100349843997,
                -3.1293950805870723
            ]
        }
    ]
}