{
    "goal": {
        "global_pose": {
            "orientation": {
                "w": 0.5084816262002911,
                "x": -0.4908360881923452,
                "y": 0.5182115481033761,
                "z": -0.48164630358495003
            },
            "position": {
                "x": 0.5540239810943604,
                "y": -0.46912469901144505,
                "z": 0.16403168439865112
            }
        },
        "name": "move_to_storage_B"
    },
    "id": "STRIDE_move_to_storage_B_71",
    "joint_names": [
        "shoulder_pan_joint",
        "shoulder_lift_joint",
        "elbow_joint",
        "wrist_1_joint",
        "wrist_2_joint",
        "wrist_3_joint"
    ],
    "metrics": {
        "cart_traj_len": 5.342019673164896,
        "distance_elbow_joint": 4.07205390988697,
        "distance_shoulder_lift_joint": 1.1509299219790665,
        "distance_shoulder_pan_joint": 4.907566689764828,
        "distance_wrist_1_joint": 2.998435489930698,
        "distance_wrist_2_joint": 2.7016580875057175,
        "distance_wrist_3_joint": 3.1272727830004796,
        "smoothness": 0.3481275163434294,
        "time": 0.114469053,
        "traj_len": 4.354069002906105,
        "weighted_distance": 5.559906116608906
    },
    "planner": "STRIDE",
    "start": {
        "state": {
            "elbow_joint": 1.664937868594044,
            "shoulder_lift_joint": -0.661644460510453,
            "shoulder_pan_joint": -0.9139846352900073,
            "wrist_1_joint": 2.146753192139373,
            "wrist_2_joint": -2.2341966793290973,
            "wrist_3_joint": 0.005466555786416001
        }
    },
    "waypoints": [
        {
            "positions": [
                -0.9139846352900073,
                -0.661644460510453,
                1.664937868594044,
                2.146753192139373,
                -2.2341966793290973,
                0.005466555786416001
            ]
        },
        {
            "positions": [
                -0.8112322336139137,
                -0.696639664169847,
                1.584077938860211,
                2.1350289651399006,
                -2.1599478861806833,
                -0.07598713205202959
            ]
        },
        {
            "positions": [
                -0.7084798319378202,
                -0.731634867829241,
                1.5032180091263783,
                2.1233047381404284,
                -2.08569909303227,
                -0.15744081989047518
            ]
        },
        {
            "positions": [
                -0.6057274302617266,
                -0.766630071488635,
                1.4223580793925454,
                2.111580511140956,
                -2.011450299883856,
                -0.23889450772892076
            ]
        },
        {
            "positions": [
                -0.5029750285856331,
                -0.8016252751480291,
                1.3414981496587126,
                2.099856284141483,
                -1.9372015067354424,
                -0.3203481955673663
            ]
        },
        {
            "positions": [
                -0.4002226269095396,
                -0.836620478807423,
                1.2606382199248798,
                2.088132057142011,
                -1.8629527135870287,
                -0.4018018834058119
            ]
        },
        {
            "positions": [
                -0.297470225233446,
                -0.871615682466817,
                1.1797782901910467,
                2.0764078301425384,
                -1.788703920438615,
                -0.4832555712442575
            ]
        },
        {
            "positions": [
                -0.19471782355735245,
                -0.906610886126211,
                1.098918360457214,
                2.0646836031430658,
                -1.714455127290201,
                -0.5647092590827032
            ]
        },
        {
            "positions": [
                -0.09196542188125889,
                -0.941606089785605,
                1.018058430723381,
                2.0529593761435936,
                -1.6402063341417876,
                -0.6461629469211487
            ]
        },
        {
            "positions": [
                0.010786979794834672,
                -0.976601293444999,
                0.9371985009895482,
                2.041235149144121,
                -1.5659575409933737,
                -0.7276166347595944
            ]
        },
        {
            "positions": [
                0.11353938147092812,
                -1.011596497104393,
                0.8563385712557154,
                2.0295109221446483,
                -1.4917087478449602,
                -0.8090703225980399
            ]
        },
        {
            "positions": [
                0.2162917831470218,
                -1.046591700763787,
                0.7754786415218825,
                2.017786695145176,
                -1.4174599546965463,
                -0.8905240104364855
            ]
        },
        {
            "positions": [
                0.31904418482311525,
                -1.081586904423181,
                0.6946187117880497,
                2.0060624681457035,
                -1.3432111615481328,
                -0.9719776982749311
            ]
        },
        {
            "positions": [
                0.4217965864992087,
                -1.116582108082575,
                0.613758782054217,
                1.994338241146231,
                -1.268962368399719,
                -1.0534313861133766
            ]
        },
        {
            "positions": [
                0.5245489881753024,
                -1.151577311741969,
                0.5328988523203839,
                1.9826140141467585,
                -1.1947135752513052,
                -1.1348850739518224
            ]
        },
        {
            "positions": [
                0.627301389851396,
                -1.1865725154013629,
                0.4520389225865511,
                1.9708897871472861,
                -1.1204647821028915,
                -1.216338761790268
            ]
        },
        {
            "positions": [
                0.7300537915274895,
                -1.221567719060757,
                0.37117899285271827,
                1.9591655601478135,
                -1.0462159889544778,
                -1.2977924496287134
            ]
        },
        {
            "positions": [
                0.832806193203583,
                -1.256562922720151,
                0.29031906311888545,
                1.9474413331483411,
                -0.9719671958060643,
                -1.379246137467159
            ]
        },
        {
            "positions": [
                0.9355585948796766,
                -1.291558126379545,
                0.2094591333850524,
                1.9357171061488687,
                -0.8977184026576503,
                -1.4606998253056047
            ]
        },
        {
            "positions": [
                1.03831099655577,
                -1.326553330038939,
                0.12859920365121957,
                1.923992879149396,
                -0.8234696095092366,
                -1.5421535131440502
            ]
        },
        {
            "positions": [
                1.1410633982318634,
                -1.361548533698333,
                0.04773927391738697,
                1.9122686521499237,
                -0.7492208163608229,
                -1.6236072009824958
            ]
        },
        {
            "positions": [
                1.2438157999079569,
                -1.396543737357727,
                -0.033120655816445854,
                1.9005444251504513,
                -0.6749720232124092,
                -1.7050608888209413
            ]
        },
        {
            "positions": [
                1.3465682015840508,
                -1.4315389410171209,
                -0.1139805855502789,
                1.8888201981509787,
                -0.6007232300639955,
                -1.786514576659387
            ]
        },
        {
            "positions": [
                1.4493206032601444,
                -1.466534144676515,
                -0.19484051528411164,
                1.8770959711515063,
                -0.5264744369155817,
                -1.8679682644978326
            ]
        },
        {
            "positions": [
                1.3514643935980417,
                -1.4532249047606303,
                -0.10975299505300339,
                1.7721429608075512,
                -0.48824613518126614,
                -1.91619280152538
            ]
        },
        {
            "positions": [
                1.253608183935939,
                -1.4399156648447453,
                -0.024665474821895128,
                1.6671899504635963,
                -0.45001783344695057,
                -1.9644173385529273
            ]
        },
        {
            "positions": [
                1.1557519742738362,
                -1.4266064249288606,
                0.06042204540921317,
                1.5622369401196412,
                -0.41178953171263505,
                -2.0126418755804747
            ]
        },
        {
            "positions": [
                1.0578957646117335,
                -1.4132971850129759,
                0.1455095656403214,
                1.457283929775686,
                -0.3735612299783195,
                -2.060866412608022
            ]
        },
        {
            "positions": [
                0.9600395549496308,
                -1.3999879450970911,
                0.23059708587142966,
                1.3523309194317312,
                -0.33533292824400396,
                -2.1090909496355694
            ]
        },
        {
            "positions": [
                0.862183345287528,
                -1.3866787051812062,
                0.315684606102538,
                1.2473779090877761,
                -0.2971046265096884,
                -2.1573154866631166
            ]
        },
        {
            "positions": [
                0.7643271356254253,
                -1.3733694652653214,
                0.4007721263336461,
                1.1424248987438212,
                -0.2588763247753728,
                -2.205540023690664
            ]
        },
        {
            "positions": [
                0.6664709259633226,
                -1.3600602253494367,
                0.48585964656475444,
                1.0374718883998661,
                -0.22064802304105724,
                -2.2537645607182113
            ]
        },
        {
            "positions": [
                0.5686147163012198,
                -1.346750985433552,
                0.5709471667958627,
                0.9325188780559112,
                -0.18241972130674172,
                -2.301989097745759
            ]
        },
        {
            "positions": [
                0.4707585066391171,
                -1.333441745517667,
                0.656034687026971,
                0.8275658677119562,
                -0.14419141957242615,
                -2.350213634773306
            ]
        },
        {
            "positions": [
                0.3729022969770144,
                -1.3201325056017823,
                0.7411222072580792,
                0.7226128573680011,
                -0.10596311783811058,
                -2.3984381718008536
            ]
        },
        {
            "positions": [
                0.27504608731491165,
                -1.3068232656858976,
                0.8262097274891876,
                0.617659847024046,
                -0.067734816103795,
                -2.4466627088284008
            ]
        },
        {
            "positions": [
                0.1771898776528089,
                -1.2935140257700128,
                0.9112972477202957,
                0.5127068366800911,
                -0.029506514369479486,
                -2.4948872458559483
            ]
        },
        {
            "positions": [
                0.07933366799070618,
                -1.280204785854128,
                0.9963847679514038,
                0.4077538263361362,
                0.008721787364836087,
                -2.5431117828834955
            ]
        },
        {
            "positions": [
                -0.01852254167139633,
                -1.2668955459382432,
                1.081472288182512,
                0.3028008159921811,
                0.04695008909915155,
                -2.5913363199110426
            ]
        },
        {
            "positions": [
                -0.11637875133349929,
                -1.2535863060223584,
                1.1665598084136204,
                0.19784780564822602,
                0.08517839083346723,
                -2.63956085693859
            ]
        },
        {
            "positions": [
                -0.21423496099560202,
                -1.2402770661064735,
                1.2516473286447287,
                0.09289479530427092,
                0.1234066925677827,
                -2.687785393966138
            ]
        },
        {
            "positions": [
                -0.31209117065770475,
                -1.2269678261905888,
                1.3367348488758368,
                -0.012058215039683962,
                0.16163499430209827,
                -2.736009930993685
            ]
        },
        {
            "positions": [
                -0.4099473803198075,
                -1.213658586274704,
                1.4218223691069451,
                -0.11701122538363884,
                0.19986329603641384,
                -2.784234468021232
            ]
        },
        {
            "positions": [
                -0.5078035899819102,
                -1.200349346358819,
                1.5069098893380535,
                -0.22196423572759394,
                0.2380915977707294,
                -2.8324590050487797
            ]
        },
        {
            "positions": [
                -0.6056597996440132,
                -1.1870401064429343,
                1.5919974095691618,
                -0.32691724607154904,
                0.276319899505045,
                -2.8806835420763273
            ]
        },
        {
            "positions": [
                -0.7035160093061157,
                -1.1737308665270496,
                1.67708492980027,
                -0.43187025641550414,
                0.31454820123936056,
                -2.9289080791038744
            ]
        },
        {
            "positions": [
                -0.8013722189682182,
                -1.1604216266111649,
                1.7621724500313782,
                -0.5368232667594588,
                0.352776502973676,
                -2.9771326161314215
            ]
        },
        {
            "positions": [
                -0.8992284286303212,
                -1.1471123866952802,
                1.8472599702624868,
                -0.6417762771034143,
                0.3910048047079917,
                -3.025357153158969
            ]
        },
        {
            "positions": [
                -0.9970846382924241,
                -1.1338031467793952,
                1.9323474904935949,
                -0.746729287447369,
                0.42923310644230717,
                -3.0735816901865167
            ]
        },
        {
            "positions": [
                -1.0949408479545266,
                -1.1204939068635105,
                2.017435010724703,
                -0.851682297791324,
                0.4674614081766228,
                -3.121806227214064
            ]
        }
    ]
}