{
    "goal": {
        "global_pose": {
            "orientation": {
                "w": 0.7031023480610252,
                "x": -0.7110244013736278,
                "y": 0.0077485991402295624,
                "z": 0.005598929693374583
            },
            "position": {
                "x": -0.8841497679147869,
                "y": 0.44412534475326537,
                "z": 0.3711530566215515
            }
        },
        "name": "move_to_auspresseinheit_D"
    },
    "id": "STRIDE_move_to_auspresseinheit_D_40",
    "joint_names": [
        "shoulder_pan_joint",
        "shoulder_lift_joint",
        "elbow_joint",
        "wrist_1_joint",
        "wrist_2_joint",
        "wrist_3_joint"
    ],
    "metrics": {
        "cart_traj_len": 0.34265270711180207,
        "distance_elbow_joint": 0.6271753193153358,
        "distance_shoulder_lift_joint": 0.11498786948974438,
        "distance_shoulder_pan_joint": 0.13420380991999753,
        "distance_wrist_1_joint": 0.5028542476023223,
        "distance_wrist_2_joint": 1.4339906890555247,
        "distance_wrist_3_joint": 0.0177639664615441,
        "smoothness": 3.9474596431116675e-16,
        "time": 0.07943144099999999,
        "traj_len": 1.6825504158403306,
        "weighted_distance": 2.191654345791189
    },
    "planner": "STRIDE",
    "start": {
        "state": {
            "elbow_joint": -1.8275523626775212,
            "shoulder_lift_joint": -2.126789852344167,
            "shoulder_pan_joint": -0.03513704404078235,
            "wrist_1_joint": -2.347782403156801,
            "wrist_2_joint": -1.6058999987535132,
            "wrist_3_joint": -3.0880379163319196
        }
    },
    "waypoints": [
        {
            "positions": [
                -0.03513704404078235,
                -2.126789852344167,
                -1.8275523626775212,
                -2.347782403156801,
                -1.6058999987535132,
                -3.0880379163319196
            ]
        },
        {
            "positions": [
                -0.05191252028078204,
                -2.141163336030385,
                -1.7491554477631042,
                -2.410639184107091,
                -1.4266511626215725,
                -3.0902584121396126
            ]
        },
        {
            "positions": [
                -0.06868799652078172,
                -2.1555368197166027,
                -1.6707585328486871,
                -2.4734959650573813,
                -1.247402326489632,
                -3.0924789079473056
            ]
        },
        {
            "positions": [
                -0.08546347276078142,
                -2.169910303402821,
                -1.5923616179342703,
                -2.5363527460076716,
                -1.0681534903576915,
                -3.0946994037549986
            ]
        },
        {
            "positions": [
                -0.10223894900078112,
                -2.184283787089039,
                -1.5139647030198533,
                -2.599209526957962,
                -0.8889046542257508,
                -3.0969198995626916
            ]
        },
        {
            "positions": [
                -0.11901442524078082,
                -2.198657270775257,
                -1.4355677881054363,
                -2.6620663079082525,
                -0.7096558180938102,
                -3.0991403953703847
            ]
        },
        {
            "positions": [
                -0.1357899014807805,
                -2.2130307544614753,
                -1.3571708731910195,
                -2.7249230888585427,
                -0.5304069819618698,
                -3.1013608911780777
            ]
        },
        {
            "positions": [
                -0.1525653777207802,
                -2.227404238147693,
                -1.2787739582766025,
                -2.787779869808833,
                -0.3511581458299291,
                -3.1035813869857707
            ]
        },
        {
            "positions": [
                -0.16934085396077989,
                -2.241777721833911,
                -1.2003770433621854,
                -2.850636650759123,
                -0.17190930969798843,
                -3.1058018827934637
            ]
        }
    ]
}