{
    "goal": {
        "global_pose": {
            "orientation": {
                "w": 0.7047431468963623,
                "x": -0.7094548344612122,
                "y": 0.0024358443915843964,
                "z": -0.0022348060738295317
            },
            "position": {
                "x": 0.6094750761985779,
                "y": 0.3671506643295288,
                "z": 0.19426114857196808
            }
        },
        "name": "move_to_magneteinheit_A"
    },
    "id": "STRIDE_move_to_magneteinheit_A_105",
    "joint_names": [
        "shoulder_pan_joint",
        "shoulder_lift_joint",
        "elbow_joint",
        "wrist_1_joint",
        "wrist_2_joint",
        "wrist_3_joint"
    ],
    "metrics": {
        "cart_traj_len": 4.269869479279164,
        "distance_elbow_joint": 3.880423100717488,
        "distance_shoulder_lift_joint": 0.26378245209804096,
        "distance_shoulder_pan_joint": 3.8605233311779794,
        "distance_wrist_1_joint": 0.9505411903098981,
        "distance_wrist_2_joint": 2.599527763137763,
        "distance_wrist_3_joint": 2.5883975934340326,
        "smoothness": 0.3217171415440521,
        "time": 0.085791024,
        "traj_len": 3.76074399964624,
        "weighted_distance": 4.782265108836077
    },
    "planner": "STRIDE",
    "start": {
        "state": {
            "elbow_joint": -1.9196185241190666,
            "shoulder_lift_joint": -1.2443396400964142,
            "shoulder_pan_joint": 2.6996025414629847,
            "wrist_1_joint": -1.5485510000780065,
            "wrist_2_joint": -1.5709468930060704,
            "wrist_3_joint": 0.4420197071253992
        }
    },
    "waypoints": [
        {
            "positions": [
                2.6996025414629847,
                -1.2443396400964142,
                -1.9196185241190666,
                -1.5485510000780065,
                -1.5709468930060704,
                0.4420197071253992
            ]
        },
        {
            "positions": [
                2.5846619198543794,
                -1.2376413267688795,
                -1.8187514210967832,
                -1.5168445174297096,
                -1.4940154222236621,
                0.4991119829424824
            ]
        },
        {
            "positions": [
                2.4697212982457746,
                -1.230943013441345,
                -1.7178843180744998,
                -1.485138034781413,
                -1.417083951441254,
                0.5562042587595656
            ]
        },
        {
            "positions": [
                2.3547806766371693,
                -1.2242447001138106,
                -1.6170172150522162,
                -1.453431552133116,
                -1.3401524806588458,
                0.6132965345766488
            ]
        },
        {
            "positions": [
                2.2398400550285644,
                -1.217546386786276,
                -1.5161501120299328,
                -1.4217250694848194,
                -1.2632210098764376,
                0.6703888103937319
            ]
        },
        {
            "positions": [
                2.124899433419959,
                -1.2108480734587412,
                -1.4152830090076494,
                -1.3900185868365225,
                -1.1862895390940293,
                0.7274810862108152
            ]
        },
        {
            "positions": [
                2.0099588118113543,
                -1.2041497601312068,
                -1.3144159059853657,
                -1.3583121041882258,
                -1.1093580683116213,
                0.7845733620278983
            ]
        },
        {
            "positions": [
                1.895018190202749,
                -1.1974514468036723,
                -1.2135488029630823,
                -1.326605621539929,
                -1.032426597529213,
                0.8416656378449815
            ]
        },
        {
            "positions": [
                1.780077568594144,
                -1.1907531334761376,
                -1.112681699940799,
                -1.2948991388916322,
                -0.9554951267468049,
                0.8987579136620647
            ]
        },
        {
            "positions": [
                1.6651369469855386,
                -1.184054820148603,
                -1.0118145969185153,
                -1.2631926562433353,
                -0.8785636559643967,
                0.9558501894791479
            ]
        },
        {
            "positions": [
                1.5501963253769335,
                -1.1773565068210685,
                -0.9109474938962319,
                -1.2314861735950386,
                -0.8016321851819885,
                1.012942465296231
            ]
        },
        {
            "positions": [
                1.4352557037683287,
                -1.170658193493534,
                -0.8100803908739485,
                -1.1997796909467418,
                -0.7247007143995803,
                1.0700347411133142
            ]
        },
        {
            "positions": [
                1.3203150821597236,
                -1.1639598801659994,
                -0.709213287851665,
                -1.1680732082984449,
                -0.6477692436171721,
                1.1271270169303973
            ]
        },
        {
            "positions": [
                1.2053744605511183,
                -1.1572615668384647,
                -0.6083461848293814,
                -1.1363667256501482,
                -0.570837772834764,
                1.1842192927474806
            ]
        },
        {
            "positions": [
                1.0904338389425132,
                -1.1505632535109303,
                -0.507479081807098,
                -1.1046602430018513,
                -0.49390630205235575,
                1.241311568564564
            ]
        },
        {
            "positions": [
                0.9754932173339081,
                -1.1438649401833958,
                -0.4066119787848146,
                -1.0729537603535546,
                -0.4169748312699475,
                1.298403844381647
            ]
        },
        {
            "positions": [
                0.8605525957253031,
                -1.1371666268558611,
                -0.3057448757625312,
                -1.0412472777052577,
                -0.34004336048753947,
                1.3554961201987301
            ]
        },
        {
            "positions": [
                0.745611974116698,
                -1.1304683135283267,
                -0.20487777274024777,
                -1.009540795056961,
                -0.2631118897051312,
                1.4125883960158134
            ]
        },
        {
            "positions": [
                0.6306713525080925,
                -1.123770000200792,
                -0.10401066971796391,
                -0.9778343124086641,
                -0.18618041892272297,
                1.4696806718328967
            ]
        },
        {
            "positions": [
                0.5157307308994876,
                -1.1170716868732575,
                -0.0031435666956804997,
                -0.9461278297603674,
                -0.10924894814031472,
                1.5267729476499796
            ]
        },
        {
            "positions": [
                0.4007901092908823,
                -1.1103733735457229,
                0.09772353632660291,
                -0.9144213471120706,
                -0.03231747735790669,
                1.583865223467063
            ]
        },
        {
            "positions": [
                0.28584948768227747,
                -1.1036750602181882,
                0.19859063934888654,
                -0.8827148644637738,
                0.044613993424501563,
                1.6409574992841462
            ]
        },
        {
            "positions": [
                0.17090886607367262,
                -1.0969767468906537,
                0.29945774237116973,
                -0.851008381815477,
                0.12154546420690981,
                1.6980497751012291
            ]
        },
        {
            "positions": [
                0.05596824446506732,
                -1.0902784335631193,
                0.40032484539345337,
                -0.8193018991671802,
                0.19847693498931784,
                1.7551420509183124
            ]
        },
        {
            "positions": [
                -0.058972377143537535,
                -1.0835801202355846,
                0.5011919484157366,
                -0.7875954165188834,
                0.2754084057717261,
                1.8122343267353958
            ]
        },
        {
            "positions": [
                -0.17391299875214328,
                -1.07688180690805,
                0.6020590514380202,
                -0.7558889338705865,
                0.35233987655413435,
                1.869326602552479
            ]
        },
        {
            "positions": [
                -0.28885362036074813,
                -1.0701834935805155,
                0.7029261544603038,
                -0.7241824512222897,
                0.4292713473365424,
                1.926418878369562
            ]
        },
        {
            "positions": [
                -0.40379424196935343,
                -1.063485180252981,
                0.803793257482587,
                -0.692475968573993,
                0.5062028181189506,
                1.9835111541866453
            ]
        },
        {
            "positions": [
                -0.5187348635779584,
                -1.0567868669254463,
                0.9046603605048704,
                -0.6607694859256962,
                0.5831342889013591,
                2.0406034300037286
            ]
        },
        {
            "positions": [
                -0.4473808717849543,
                -1.0652568312506767,
                1.0220097178485985,
                -0.6677427832765392,
                0.5336402243202109,
                2.150582748954362
            ]
        },
        {
            "positions": [
                -0.37602687999195017,
                -1.0737267955759071,
                1.1393590751923264,
                -0.6747160806273823,
                0.48414615973906255,
                2.260562067904996
            ]
        },
        {
            "positions": [
                -0.304672888198946,
                -1.0821967599011373,
                1.2567084325360545,
                -0.6816893779782255,
                0.43465209515791425,
                2.3705413868556295
            ]
        },
        {
            "positions": [
                -0.2333188964059419,
                -1.0906667242263677,
                1.3740577898797826,
                -0.6886626753290686,
                0.385158030576766,
                2.4805207058062635
            ]
        },
        {
            "positions": [
                -0.16196490461293772,
                -1.099136688551598,
                1.4914071472235106,
                -0.6956359726799116,
                0.33566396599561765,
                2.590500024756897
            ]
        },
        {
            "positions": [
                -0.09061091281993361,
                -1.1076066528768285,
                1.6087565045672387,
                -0.7026092700307547,
                0.2861699014144694,
                2.7004793437075305
            ]
        },
        {
            "positions": [
                -0.019256921026929497,
                -1.1160766172020586,
                1.7261058619109666,
                -0.7095825673815979,
                0.2366758368333211,
                2.8104586626581645
            ]
        },
        {
            "positions": [
                0.052097070766074616,
                -1.124546581527289,
                1.8434552192546947,
                -0.7165558647324409,
                0.18718177225217286,
                2.9204379816087984
            ]
        },
        {
            "positions": [
                0.12345106255907883,
                -1.1330165458525194,
                1.9608045765984228,
                -0.723529162083284,
                0.13768770767102453,
                3.030417300559432
            ]
        }
    ]
}