{
    "goal": {
        "global_pose": {
            "orientation": {
                "w": 0.5084816217422485,
                "x": -0.49083608388900757,
                "y": 0.5182115435600281,
                "z": -0.4816462993621826
            },
            "position": {
                "x": 0.5540239810943604,
                "y": 0.030875300988554955,
                "z": 0.16403168439865112
            }
        },
        "name": "move_to_storage_A"
    },
    "id": "STRIDE_move_to_storage_A_62",
    "joint_names": [
        "shoulder_pan_joint",
        "shoulder_lift_joint",
        "elbow_joint",
        "wrist_1_joint",
        "wrist_2_joint",
        "wrist_3_joint"
    ],
    "metrics": {
        "cart_traj_len": 0.352874622735449,
        "distance_elbow_joint": 0.45051056332461026,
        "distance_shoulder_lift_joint": 0.23324180292007668,
        "distance_shoulder_pan_joint": 0.4618097894426556,
        "distance_wrist_1_joint": 0.24912239717956342,
        "distance_wrist_2_joint": 1.0960639960663996,
        "distance_wrist_3_joint": 0.10809178867424762,
        "smoothness": 8.881784197001252e-16,
        "time": 0.079076989,
        "traj_len": 1.6120919135109988,
        "weighted_distance": 2.0396593608252362
    },
    "planner": "STRIDE",
    "start": {
        "state": {
            "elbow_joint": 1.971548259319323,
            "shoulder_lift_joint": -1.1394851275133948,
            "shoulder_pan_joint": 0.1228115487234821,
            "wrist_1_joint": -0.7804723859257726,
            "wrist_2_joint": 0.12958671773740124,
            "wrist_3_joint": -3.192489227718131
        }
    },
    "waypoints": [
        {
            "positions": [
                0.1228115487234821,
                -1.1394851275133948,
                1.971548259319323,
                -0.7804723859257726,
                0.12958671773740124,
                -3.192489227718131
            ]
        },
        {
            "positions": [
                0.05683872166024559,
                -1.1728053850734057,
                2.0359069112228387,
                -0.8160612998085673,
                0.28616728860402973,
                -3.17704754362181
            ]
        },
        {
            "positions": [
                -0.009134105402990922,
                -1.2061256426334168,
                2.1002655631263547,
                -0.8516502136913622,
                0.4427478594706582,
                -3.161605859525489
            ]
        },
        {
            "positions": [
                -0.07510693246622743,
                -1.2394459001934277,
                2.1646242150298702,
                -0.8872391275741569,
                0.5993284303372868,
                -3.146164175429168
            ]
        },
        {
            "positions": [
                -0.14107975952946394,
                -1.2727661577534386,
                2.2289828669333858,
                -0.9228280414569517,
                0.7559090012039152,
                -3.130722491332847
            ]
        },
        {
            "positions": [
                -0.20705258659270048,
                -1.3060864153134495,
                2.2933415188369017,
                -0.9584169553397465,
                0.9124895720705438,
                -3.115280807236526
            ]
        },
        {
            "positions": [
                -0.27302541365593697,
                -1.3394066728734606,
                2.3577001707404177,
                -0.9940058692225413,
                1.0690701429371723,
                -3.0998391231402045
            ]
        },
        {
            "positions": [
                -0.3389982407191735,
                -1.3727269304334715,
                2.4220588226439332,
                -1.029594783105336,
                1.2256507138038009,
                -3.0843974390438835
            ]
        }
    ]
}{
    "goal": {
        "global_pose": {
            "orientation": {
                "w": 0.5084816217422485,
                "x": -0.49083608388900757,
                "y": 0.5182115435600281,
                "z": -0.4816462993621826
            },
            "position": {
                "x": 0.5540239810943604,
                "y": 0.030875300988554955,
                "z": 0.16403168439865112
            }
        },
        "name": "move_to_storage_A"
    },
    "id": "STRIDE_move_to_storage_A_62",
    "joint_names": [
        "shoulder_pan_joint",
        "shoulder_lift_joint",
        "elbow_joint",
        "wrist_1_joint",
        "wrist_2_joint",
        "wrist_3_joint"
    ],
    "metrics": {
        "cart_traj_len": 0.35258411567734177,
        "distance_elbow_joint": 0.45227355736771013,
        "distance_shoulder_lift_joint": 0.2331670205472367,
        "distance_shoulder_pan_joint": 0.45790931379199146,
        "distance_wrist_1_joint": 0.26034573700702435,
        "distance_wrist_2_joint": 1.1105101102166566,
        "distance_wrist_3_joint": 0.1083768227677746,
        "smoothness": 4.440892098500626e-16,
        "time": 0.151256033,
        "traj_len": 1.619438965104395,
        "weighted_distance": 2.0518752531422626
    },
    "planner": "STRIDE",
    "start": {
        "state": {
            "elbow_joint": 1.97154746011099,
            "shoulder_lift_joint": -1.13948474672311,
            "shoulder_pan_joint": 0.12281154466712228,
            "wrist_1_joint": -0.7804688027058302,
            "wrist_2_joint": 0.12958655903071145,
            "wrist_3_joint": 3.0906928834467795
        }
    },
    "waypoints": [
        {
            "positions": [
                0.12281154466712228,
                -1.13948474672311,
                1.97154746011099,
                -0.7804688027058302,
                0.12958655903071145,
                3.0906928834467795
            ]
        },
        {
            "positions": [
                0.05739592841112351,
                -1.1727943210870009,
                2.036157968306377,
                -0.8176610508496908,
                0.28823086049023383,
                3.106175286699319
            ]
        },
        {
            "positions": [
                -0.008019687844875265,
                -1.2061038954508918,
                2.1007684765017642,
                -0.8548532989935514,
                0.4468751619497562,
                3.1216576899518578
            ]
        },
        {
            "positions": [
                -0.07343530410087405,
                -1.2394134698147827,
                2.1653789846971514,
                -0.892045547137412,
                0.6055194634092785,
                3.137140093204397
            ]
        },
        {
            "positions": [
                -0.1388509203568728,
                -1.2727230441786737,
                2.2299894928925386,
                -0.9292377952812727,
                0.7641637648688009,
                3.1526224964569365
            ]
        },
        {
            "positions": [
                -0.20426653661287159,
                -1.3060326185425648,
                2.2946000010879257,
                -0.9664300434251333,
                0.9228080663283234,
                3.168104899709476
            ]
        },
        {
            "positions": [
                -0.2696821528688704,
                -1.3393421929064557,
                2.359210509283313,
                -1.0036222915689939,
                1.0814523677878456,
                3.1835873029620148
            ]
        },
        {
            "positions": [
                -0.33509776912486916,
                -1.3726517672703467,
                2.4238210174787,
                -1.0408145397128545,
                1.240096669247368,
                3.199069706214554
            ]
        }
    ]
}{
    "goal": {
        "global_pose": {
            "orientation": {
                "w": 0.5084816217422485,
                "x": -0.49083608388900757,
                "y": 0.5182115435600281,
                "z": -0.4816462993621826
            },
            "position": {
                "x": 0.5540239810943604,
                "y": 0.030875300988554955,
                "z": 0.16403168439865112
            }
        },
        "name": "move_to_storage_A"
    },
    "id": "STRIDE_move_to_storage_A_62",
    "joint_names": [
        "shoulder_pan_joint",
        "shoulder_lift_joint",
        "elbow_joint",
        "wrist_1_joint",
        "wrist_2_joint",
        "wrist_3_joint"
    ],
    "metrics": {
        "cart_traj_len": 0.3527965072505326,
        "distance_elbow_joint": 0.45125669007606684,
        "distance_shoulder_lift_joint": 0.23416519852656692,
        "distance_shoulder_pan_joint": 0.4622678084984442,
        "distance_wrist_1_joint": 0.24503841623854727,
        "distance_wrist_2_joint": 1.0946129317680144,
        "distance_wrist_3_joint": 0.09193756578397139,
        "smoothness": 2.2204460668324854e-16,
        "time": 0.09757578900000001,
        "traj_len": 1.606013266100754,
        "weighted_distance": 2.0255382224154928
    },
    "planner": "STRIDE",
    "start": {
        "state": {
            "elbow_joint": 1.9715472970024885,
            "shoulder_lift_joint": -1.1394870060712896,
            "shoulder_pan_joint": 0.12281152778156021,
            "wrist_1_joint": -0.780463741449964,
            "wrist_2_joint": 0.12958659822042276,
            "wrist_3_joint": 3.090690232415272
        }
    },
    "waypoints": [
        {
            "positions": [
                0.12281152778156021,
                -1.1394870060712896,
                1.9715472970024885,
                -0.780463741449964,
                0.12958659822042276,
                3.090690232415272
            ]
        },
        {
            "positions": [
                0.056773269424639616,
                -1.1729391772893707,
                2.0360125384419265,
                -0.8154692294840422,
                0.28595987418728197,
                3.1038241703844105
            ]
        },
        {
            "positions": [
                -0.009264988932280976,
                -1.2063913485074516,
                2.100477779881365,
                -0.8504747175181203,
                0.4423331501541412,
                3.1169581083535496
            ]
        },
        {
            "positions": [
                -0.07530324728920157,
                -1.2398435197255326,
                2.164943021320803,
                -0.8854802055521985,
                0.5987064261210003,
                3.1300920463226882
            ]
        },
        {
            "positions": [
                -0.14134150564612216,
                -1.2732956909436135,
                2.229408262760241,
                -0.9204856935862767,
                0.7550797020878596,
                3.143225984291827
            ]
        },
        {
            "positions": [
                -0.20737976400304278,
                -1.3067478621616946,
                2.293873504199679,
                -0.9554911816203548,
                0.9114529780547188,
                3.1563599222609655
            ]
        },
        {
            "positions": [
                -0.2734180223599634,
                -1.3402000333797754,
                2.3583387456391174,
                -0.9904966696544331,
                1.067826254021578,
                3.1694938602301046
            ]
        },
        {
            "positions": [
                -0.33945628071688394,
                -1.3736522045978565,
                2.4228039870785554,
                -1.0255021576885113,
                1.2241995299884372,
                3.1826277981992432
            ]
        }
    ]
}