{
    "goal": {
        "global_pose": {
            "orientation": {
                "w": -0.4816463035849501,
                "x": 0.5182115481033762,
                "y": 0.4908360881923453,
                "z": -0.5084816262002911
            },
            "position": {
                "x": -0.8240239810943604,
                "y": -0.300875300988555,
                "z": 0.16403168439865112
            }
        },
        "name": "move_to_storage_C"
    },
    "id": "STRIDE_move_to_storage_C_37",
    "joint_names": [
        "shoulder_pan_joint",
        "shoulder_lift_joint",
        "elbow_joint",
        "wrist_1_joint",
        "wrist_2_joint",
        "wrist_3_joint"
    ],
    "metrics": {
        "cart_traj_len": 0.5762429490221526,
        "distance_elbow_joint": 0.2592903017734498,
        "distance_shoulder_lift_joint": 0.1884474894922249,
        "distance_shoulder_pan_joint": 0.49526189323385905,
        "distance_wrist_1_joint": 0.08794072865973956,
        "distance_wrist_2_joint": 1.0625619069620718,
        "distance_wrist_3_joint": 0.06872641032716542,
        "smoothness": 0.0,
        "time": 0.264402019,
        "traj_len": 1.470451879677982,
        "weighted_distance": 1.8574671428385088
    },
    "planner": "STRIDE",
    "start": {
        "state": {
            "elbow_joint": 2.010868314990456,
            "shoulder_lift_joint": -1.1634956873337592,
            "shoulder_pan_joint": -2.4736205022346125,
            "wrist_1_joint": -0.8367026794202681,
            "wrist_2_joint": 0.6746043897044499,
            "wrist_3_joint": -3.1496632123970403
        }
    },
    "waypoints": [
        {
            "positions": [
                -2.4736205022346125,
                -1.1634956873337592,
                2.010868314990456,
                -0.8367026794202681,
                0.6746043897044499,
                -3.1496632123970403
            ]
        },
        {
            "positions": [
                -2.5561641511069224,
                -1.1320877724183884,
                1.9676532646948808,
                -0.8220458913103115,
                0.8516980408647952,
                -3.138208810675846
            ]
        },
        {
            "positions": [
                -2.6387077999792323,
                -1.1006798575030174,
                1.924438214399306,
                -0.807389103200355,
                1.0287916920251405,
                -3.126754408954652
            ]
        },
        {
            "positions": [
                -2.7212514488515422,
                -1.0692719425876467,
                1.881223164103731,
                -0.7927323150903983,
                1.2058853431854857,
                -3.115300007233458
            ]
        },
        {
            "positions": [
                -2.8037950977238517,
                -1.037864027672276,
                1.8380081138081559,
                -0.7780755269804417,
                1.382978994345831,
                -3.103845605512263
            ]
        },
        {
            "positions": [
                -2.8863387465961616,
                -1.0064561127569052,
                1.794793063512581,
                -0.7634187388704852,
                1.5600726455061764,
                -3.092391203791069
            ]
        },
        {
            "positions": [
                -2.9688823954684715,
                -0.9750481978415343,
                1.751578013217006,
                -0.7487619507605285,
                1.7371662966665216,
                -3.080936802069875
            ]
        }
    ]
}