{
    "goal": {
        "global_pose": {
            "orientation": {
                "w": 0.7031023502349854,
                "x": -0.7110244035720825,
                "y": 0.007748599164187908,
                "z": 0.005598929710686207
            },
            "position": {
                "x": 0.11585023208521307,
                "y": 0.44412534475326537,
                "z": 0.3711530566215515
            }
        },
        "name": "move_to_auspresseinheit_A"
    },
    "id": "STRIDE_move_to_auspresseinheit_A_144",
    "joint_names": [
        "shoulder_pan_joint",
        "shoulder_lift_joint",
        "elbow_joint",
        "wrist_1_joint",
        "wrist_2_joint",
        "wrist_3_joint"
    ],
    "metrics": {
        "cart_traj_len": 1.1062232262329323,
        "distance_elbow_joint": 0.6684340737904391,
        "distance_shoulder_lift_joint": 1.7074374041396934,
        "distance_shoulder_pan_joint": 3.876018246252832,
        "distance_wrist_1_joint": 3.1649873773848274,
        "distance_wrist_2_joint": 3.1663915699005942,
        "distance_wrist_3_joint": 8.952105794507633,
        "smoothness": 0.7301273685823784,
        "time": 0.452793367,
        "traj_len": 4.6406222067709875,
        "weighted_distance": 6.765424229290928
    },
    "planner": "STRIDE",
    "start": {
        "state": {
            "elbow_joint": 2.4225746658250005,
            "shoulder_lift_joint": -1.3736534386056498,
            "shoulder_pan_joint": -0.3378633547517467,
            "wrist_1_joint": -1.0288598680537169,
            "wrist_2_joint": 1.233022673432363,
            "wrist_3_joint": -3.0940220416140027
        }
    },
    "waypoints": [
        {
            "positions": [
                -0.3378633547517467,
                -1.3736534386056498,
                2.4225746658250005,
                -1.0288598680537169,
                1.233022673432363,
                -3.0940220416140027
            ]
        },
        {
            "positions": [
                -0.27885088320298645,
                -1.4496057371346895,
                2.4055138964784692,
                -0.9989818541079619,
                1.0846301282315136,
                -3.0298936364022415
            ]
        },
        {
            "positions": [
                -0.2198384116542262,
                -1.5255580356637295,
                2.3884531271319376,
                -0.969103840162207,
                0.9362375830306644,
                -2.9657652311904807
            ]
        },
        {
            "positions": [
                -0.16082594010546594,
                -1.6015103341927692,
                2.3713923577854064,
                -0.939225826216452,
                0.787845037829815,
                -2.9016368259787195
            ]
        },
        {
            "positions": [
                -0.1018134685567057,
                -1.677462632721809,
                2.354331588438875,
                -0.909347812270697,
                0.6394524926289656,
                -2.8375084207669583
            ]
        },
        {
            "positions": [
                -0.04280099700794543,
                -1.7534149312508487,
                2.337270819092344,
                -0.879469798324942,
                0.4910599474281162,
                -2.773380015555197
            ]
        },
        {
            "positions": [
                0.01621147454081484,
                -1.8293672297798884,
                2.3202100497458122,
                -0.849591784379187,
                0.3426674022272669,
                -2.7092516103434363
            ]
        },
        {
            "positions": [
                0.07522394608957511,
                -1.9053195283089284,
                2.303149280399281,
                -0.8197137704334321,
                0.19427485702641742,
                -2.645123205131675
            ]
        },
        {
            "positions": [
                0.01358465491435882,
                -1.9309804924384364,
                2.317105849891101,
                -0.7480185699643072,
                0.1589584585400357,
                -2.4707303109314536
            ]
        },
        {
            "positions": [
                -0.04805463626085747,
                -1.9566414565679444,
                2.33106241938292,
                -0.6763233694951822,
                0.12364206005365397,
                -2.296337416731232
            ]
        },
        {
            "positions": [
                -0.10969392743607376,
                -1.9823024206974527,
                2.34501898887474,
                -0.6046281690260573,
                0.08832566156727224,
                -2.12194452253101
            ]
        },
        {
            "positions": [
                -0.17133321861129006,
                -2.0079633848269607,
                2.3589755583665597,
                -0.5329329685569324,
                0.05300926308089052,
                -1.9475516283307885
            ]
        },
        {
            "positions": [
                -0.23297250978650635,
                -2.0336243489564687,
                2.372932127858379,
                -0.46123776808780753,
                0.017692864594508778,
                -1.773158734130567
            ]
        },
        {
            "positions": [
                -0.2946118009617226,
                -2.0592853130859767,
                2.386888697350199,
                -0.3895425676186826,
                -0.017623533891872933,
                -1.5987658399303453
            ]
        },
        {
            "positions": [
                -0.356251092136939,
                -2.0849462772154848,
                2.4008452668420186,
                -0.31784736714955764,
                -0.0529399323782547,
                -1.4243729457301235
            ]
        },
        {
            "positions": [
                -0.4178903833121552,
                -2.110607241344993,
                2.4148018363338384,
                -0.24615216668043283,
                -0.08825633086463638,
                -1.249980051529902
            ]
        },
        {
            "positions": [
                -0.47952967448737155,
                -2.136268205474501,
                2.4287584058256577,
                -0.1744569662113079,
                -0.12357272935101812,
                -1.0755871573296802
            ]
        },
        {
            "positions": [
                -0.5411689656625878,
                -2.1619291696040093,
                2.4427149753174775,
                -0.10276176574218299,
                -0.15888912783739986,
                -0.9011942631294587
            ]
        },
        {
            "positions": [
                -0.6028082568378041,
                -2.1875901337335173,
                2.4566715448092973,
                -0.031066565273058067,
                -0.1942055263237816,
                -0.726801368929237
            ]
        },
        {
            "positions": [
                -0.6644475480130203,
                -2.2132510978630253,
                2.4706281143011166,
                0.040628635196066853,
                -0.22952192481016329,
                -0.5524084747290154
            ]
        },
        {
            "positions": [
                -0.7260868391882367,
                -2.2389120619925333,
                2.4845846837929364,
                0.11232383566519166,
                -0.264838323296545,
                -0.3780155805287939
            ]
        },
        {
            "positions": [
                -0.7877261303634531,
                -2.2645730261220414,
                2.498541253284756,
                0.1840190361343168,
                -0.3001547217829268,
                -0.20362268632857194
            ]
        },
        {
            "positions": [
                -0.8493654215386692,
                -2.2902339902515494,
                2.5124978227765755,
                0.2557142366034415,
                -0.3354711202693085,
                -0.029229792128350418
            ]
        },
        {
            "positions": [
                -0.9110047127138856,
                -2.3158949543810574,
                2.5264543922683953,
                0.3274094370725664,
                -0.37078751875569016,
                0.1451631020718711
            ]
        },
        {
            "positions": [
                -0.9726440038891018,
                -2.3415559185105654,
                2.540410961760215,
                0.39910463754169134,
                -0.40610391724207184,
                0.31955599627209264
            ]
        },
        {
            "positions": [
                -1.0342832950643182,
                -2.367216882640074,
                2.5543675312520344,
                0.47079983801081626,
                -0.44142031572845364,
                0.4939488904723146
            ]
        },
        {
            "positions": [
                -1.0959225862395345,
                -2.392877846769582,
                2.568324100743854,
                0.5424950384799412,
                -0.4767367142148353,
                0.6683417846725361
            ]
        },
        {
            "positions": [
                -1.1575618774147507,
                -2.41853881089909,
                2.582280670235674,
                0.6141902389490661,
                -0.5120531127012171,
                0.8427346788727577
            ]
        },
        {
            "positions": [
                -1.2192011685899669,
                -2.444199775028598,
                2.5962372397274938,
                0.685885439418191,
                -0.5473695111875988,
                1.0171275730729792
            ]
        },
        {
            "positions": [
                -1.2808404597651835,
                -2.469860739158106,
                2.610193809219313,
                0.7575806398873159,
                -0.5826859096739806,
                1.1915204672732012
            ]
        },
        {
            "positions": [
                -1.3424797509403996,
                -2.495521703287614,
                2.624150378711133,
                0.8292758403564409,
                -0.6180023081603623,
                1.3659133614734222
            ]
        },
        {
            "positions": [
                -1.263817164464187,
                -2.4729998133084705,
                2.6153808560167917,
                0.7790123146266458,
                -0.5674112855331366,
                1.1931375771880295
            ]
        },
        {
            "positions": [
                -1.1851545779879742,
                -2.450477923329327,
                2.6066113333224505,
                0.7287487888968508,
                -0.5168202629059109,
                1.0203617929026367
            ]
        },
        {
            "positions": [
                -1.1064919915117613,
                -2.427956033350184,
                2.59784181062811,
                0.6784852631670557,
                -0.4662292402786852,
                0.847586008617244
            ]
        },
        {
            "positions": [
                -1.0278294050355485,
                -2.4054341433710404,
                2.5890722879337686,
                0.6282217374372607,
                -0.4156382176514595,
                0.6748102243318512
            ]
        },
        {
            "positions": [
                -0.9491668185593358,
                -2.382912253391897,
                2.5803027652394275,
                0.5779582117074656,
                -0.3650471950242338,
                0.5020344400464585
            ]
        },
        {
            "positions": [
                -0.8705042320831231,
                -2.3603903634127534,
                2.5715332425450863,
                0.5276946859776706,
                -0.31445617239700807,
                0.3292586557610657
            ]
        },
        {
            "positions": [
                -0.7918416456069104,
                -2.33786847343361,
                2.5627637198507456,
                0.4774311602478756,
                -0.26386514976978237,
                0.15648287147567297
            ]
        },
        {
            "positions": [
                -0.7131790591306976,
                -2.3153465834544664,
                2.5539941971564044,
                0.4271676345180805,
                -0.21327412714255667,
                -0.016292912809719784
            ]
        },
        {
            "positions": [
                -0.6345164726544849,
                -2.2928246934753234,
                2.5452246744620632,
                0.37690410878828545,
                -0.16268310451533097,
                -0.18906869709511254
            ]
        },
        {
            "positions": [
                -0.5558538861782721,
                -2.27030280349618,
                2.536455151767722,
                0.3266405830584904,
                -0.11209208188810527,
                -0.3618444813805053
            ]
        },
        {
            "positions": [
                -0.4771912997020594,
                -2.2477809135170363,
                2.5276856290733813,
                0.27637705732869533,
                -0.061501059260879565,
                -0.534620265665898
            ]
        },
        {
            "positions": [
                -0.3985287132258466,
                -2.225259023537893,
                2.51891610637904,
                0.22611353159890024,
                -0.010910036633653863,
                -0.7073960499512908
            ]
        },
        {
            "positions": [
                -0.3198661267496339,
                -2.2027371335587493,
                2.510146583684699,
                0.17585000586910526,
                0.03968098599357184,
                -0.8801718342366835
            ]
        },
        {
            "positions": [
                -0.24120354027342117,
                -2.180215243579606,
                2.501377060990358,
                0.12558648013931029,
                0.09027200862079754,
                -1.0529476185220763
            ]
        },
        {
            "positions": [
                -0.16254095379720845,
                -2.1576933536004628,
                2.492607538296017,
                0.0753229544095152,
                0.14086303124802313,
                -1.2257234028074686
            ]
        },
        {
            "positions": [
                -0.08387836732099552,
                -2.1351714636213193,
                2.483838015601676,
                0.025059428679720108,
                0.19145405387524894,
                -1.3984991870928618
            ]
        },
        {
            "positions": [
                -0.0052157808447828025,
                -2.1126495736421758,
                2.4750684929073348,
                -0.02520409705007498,
                0.24204507650247464,
                -1.5712749713782546
            ]
        },
        {
            "positions": [
                0.07344680563142991,
                -2.0901276836630323,
                2.4662989702129936,
                -0.07546762277986996,
                0.29263609912970034,
                -1.7440507556636473
            ]
        },
        {
            "positions": [
                0.15210939210764263,
                -2.0676057936838887,
                2.4575294475186524,
                -0.12573114850966494,
                0.34322712175692593,
                -1.91682653994904
            ]
        },
        {
            "positions": [
                0.23077197858385534,
                -2.0450839037047452,
                2.4487599248243117,
                -0.17599467423946002,
                0.39381814438415175,
                -2.089602324234433
            ]
        },
        {
            "positions": [
                0.30943456506006806,
                -2.022562013725602,
                2.4399904021299705,
                -0.22625819996925522,
                0.44440916701137745,
                -2.2623781085198256
            ]
        },
        {
            "positions": [
                0.38809715153628077,
                -2.0000401237464587,
                2.4312208794356294,
                -0.2765217256990502,
                0.49500018963860315,
                -2.4351538928052183
            ]
        },
        {
            "positions": [
                0.4667597380124935,
                -1.9775182337673152,
                2.422451356741288,
                -0.3267852514288452,
                0.5455912122658289,
                -2.607929677090611
            ]
        },
        {
            "positions": [
                0.5454223244887064,
                -1.9549963437881717,
                2.4136818340469475,
                -0.3770487771586404,
                0.5961822348930546,
                -2.780705461376004
            ]
        },
        {
            "positions": [
                0.6240849109649191,
                -1.9324744538090282,
                2.4049123113526063,
                -0.42731230288843536,
                0.6467732575202803,
                -2.9534812456613966
            ]
        },
        {
            "positions": [
                0.7027474974411317,
                -1.9099525638298849,
                2.396142788658265,
                -0.4775758286182304,
                0.697364280147506,
                -3.1262570299467898
            ]
        }
    ]
}