{
    "goal": {
        "global_pose": {
            "orientation": {
                "w": -0.4816463035849501,
                "x": 0.5182115481033762,
                "y": 0.4908360881923453,
                "z": -0.5084816262002911
            },
            "position": {
                "x": -0.8240239810943604,
                "y": -0.300875300988555,
                "z": 0.16403168439865112
            }
        },
        "name": "move_to_storage_C"
    },
    "id": "STRIDE_move_to_storage_C_96",
    "joint_names": [
        "shoulder_pan_joint",
        "shoulder_lift_joint",
        "elbow_joint",
        "wrist_1_joint",
        "wrist_2_joint",
        "wrist_3_joint"
    ],
    "metrics": {
        "cart_traj_len": 0.5769849137597479,
        "distance_elbow_joint": 0.25539621078117425,
        "distance_shoulder_lift_joint": 0.18920621867693088,
        "distance_shoulder_pan_joint": 0.4944197921812141,
        "distance_wrist_1_joint": 0.06511590347058271,
        "distance_wrist_2_joint": 1.0725837261743605,
        "distance_wrist_3_joint": 0.06488131149114462,
        "smoothness": 2.5376526478085547e-16,
        "time": 0.011919813,
        "traj_len": 1.4634217310042263,
        "weighted_distance": 1.8463654609536648
    },
    "planner": "STRIDE",
    "start": {
        "state": {
            "elbow_joint": 2.010868314990456,
            "shoulder_lift_joint": -1.1634956873337592,
            "shoulder_pan_joint": -2.4736205022346125,
            "wrist_1_joint": -0.8367026794202681,
            "wrist_2_joint": 0.6746043897044499,
            "wrist_3_joint": -3.1496632123970403
        }
    },
    "waypoints": [
        {
            "positions": [
                -2.4736205022346125,
                -1.1634956873337592,
                2.010868314990456,
                -0.8367026794202681,
                0.6746043897044499,
                -3.1496632123970403
            ]
        },
        {
            "positions": [
                -2.5560238009314817,
                -1.1319613175542707,
                1.96830227986026,
                -0.8258500288418377,
                0.8533683440668434,
                -3.1388496604818497
            ]
        },
        {
            "positions": [
                -2.6384270996283505,
                -1.1004269477747823,
                1.9257362447300643,
                -0.8149973782634072,
                1.0321322984292367,
                -3.1280361085666586
            ]
        },
        {
            "positions": [
                -2.7208303983252193,
                -1.0688925779952938,
                1.8831702095998688,
                -0.8041447276849767,
                1.2108962527916303,
                -3.117222556651468
            ]
        },
        {
            "positions": [
                -2.8032336970220886,
                -1.0373582082158053,
                1.840604174469673,
                -0.7932920771065463,
                1.3896602071540234,
                -3.1064090047362773
            ]
        },
        {
            "positions": [
                -2.885636995718958,
                -1.0058238384363167,
                1.7980381393394773,
                -0.7824394265281158,
                1.568424161516417,
                -3.0955954528210863
            ]
        },
        {
            "positions": [
                -2.9680402944158266,
                -0.9742894686568283,
                1.7554721042092816,
                -0.7715867759496854,
                1.7471881158788103,
                -3.0847819009058957
            ]
        }
    ]
}