{
    "goal": {
        "global_pose": {
            "orientation": {
                "w": 0.005598929693374612,
                "x": 0.007748599140229565,
                "y": 0.7110244013736278,
                "z": -0.7031023480610252
            },
            "position": {
                "x": 0.1141497679147869,
                "y": -0.7141253447532654,
                "z": 0.3711530566215515
            }
        },
        "name": "move_to_auspresseinheit_B"
    },
    "id": "STRIDE_move_to_auspresseinheit_B_68",
    "joint_names": [
        "shoulder_pan_joint",
        "shoulder_lift_joint",
        "elbow_joint",
        "wrist_1_joint",
        "wrist_2_joint",
        "wrist_3_joint"
    ],
    "metrics": {
        "cart_traj_len": 0.5646798214030918,
        "distance_elbow_joint": 0.06490379054286843,
        "distance_shoulder_lift_joint": 0.29568060489708925,
        "distance_shoulder_pan_joint": 0.578273635524865,
        "distance_wrist_1_joint": 0.33938387452085517,
        "distance_wrist_2_joint": 0.9875149052381758,
        "distance_wrist_3_joint": 0.004449767131220028,
        "smoothness": 2.5376526478085547e-16,
        "time": 0.26012285700000004,
        "traj_len": 1.5067204710413522,
        "weighted_distance": 1.898948364720996
    },
    "planner": "STRIDE",
    "start": {
        "state": {
            "elbow_joint": 2.0193083361928714,
            "shoulder_lift_joint": -1.1220246554650708,
            "shoulder_pan_joint": -1.0952077554168747,
            "wrist_1_joint": -0.8559753972642168,
            "wrist_2_joint": 0.4759566250798843,
            "wrist_3_joint": -3.1240929996934557
        }
    },
    "waypoints": [
        {
            "positions": [
                -1.0952077554168747,
                -1.1220246554650708,
                2.0193083361928714,
                -0.8559753972642168,
                0.4759566250798843,
                -3.1240929996934557
            ]
        },
        {
            "positions": [
                -1.1915866946710187,
                -1.1713047562812524,
                2.00849103776906,
                -0.7994114181774076,
                0.6405424426195803,
                -3.123351371838252
            ]
        },
        {
            "positions": [
                -1.287965633925163,
                -1.2205848570974338,
                1.9976737393452486,
                -0.7428474390905984,
                0.8051282601592762,
                -3.122609743983049
            ]
        },
        {
            "positions": [
                -1.3843445731793071,
                -1.2698649579136154,
                1.986856440921437,
                -0.6862834600037893,
                0.9697140776989721,
                -3.1218681161278456
            ]
        },
        {
            "positions": [
                -1.4807235124334512,
                -1.319145058729797,
                1.9760391424976258,
                -0.62971948091698,
                1.134299895238668,
                -3.121126488272642
            ]
        },
        {
            "positions": [
                -1.5771024516875956,
                -1.3684251595459784,
                1.9652218440738145,
                -0.5731555018301708,
                1.2988857127783642,
                -3.120384860417439
            ]
        },
        {
            "positions": [
                -1.6734813909417396,
                -1.41770526036216,
                1.954404545650003,
                -0.5165915227433616,
                1.46347153031806,
                -3.1196432325622356
            ]
        }
    ]
}