{
    "goal": {
        "global_pose": {
            "orientation": {
                "w": -0.4816463035849501,
                "x": 0.5182115481033762,
                "y": 0.4908360881923453,
                "z": -0.5084816262002911
            },
            "position": {
                "x": -0.8240239810943604,
                "y": 0.19912469901144506,
                "z": 0.16403168439865112
            }
        },
        "name": "move_to_storage_D"
    },
    "id": "STRIDE_move_to_storage_D_85",
    "joint_names": [
        "shoulder_pan_joint",
        "shoulder_lift_joint",
        "elbow_joint",
        "wrist_1_joint",
        "wrist_2_joint",
        "wrist_3_joint"
    ],
    "metrics": {
        "cart_traj_len": 4.085068838874293,
        "distance_elbow_joint": 4.323425465959971,
        "distance_shoulder_lift_joint": 1.2965526671678285,
        "distance_shoulder_pan_joint": 3.1662059499739827,
        "distance_wrist_1_joint": 2.739089607811584,
        "distance_wrist_2_joint": 0.8711308460437365,
        "distance_wrist_3_joint": 3.126055004761209,
        "smoothness": 0.3499003550097203,
        "time": 0.113041392,
        "traj_len": 3.9398552691334126,
        "weighted_distance": 5.038332065782887
    },
    "planner": "STRIDE",
    "start": {
        "state": {
            "elbow_joint": -2.384821988534728,
            "shoulder_lift_joint": -2.2788054721415256,
            "shoulder_pan_joint": -0.1854694642142757,
            "wrist_1_joint": 1.4845938289331202,
            "wrist_2_joint": 0.17898776772866878,
            "wrist_3_joint": 0.037105688729662994
        }
    },
    "waypoints": [
        {
            "positions": [
                -0.1854694642142757,
                -2.2788054721415256,
                -2.384821988534728,
                1.4845938289331202,
                0.17898776772866878,
                0.037105688729662994
            ]
        },
        {
            "positions": [
                -0.05952327194531992,
                -2.2950149832430244,
                -2.440425957605922,
                1.494094989261983,
                0.1889950773085825,
                -0.007006862451467588
            ]
        },
        {
            "positions": [
                0.027252823544184804,
                -2.259906733163481,
                -2.3381611677780842,
                1.4179963687558192,
                0.2034368329656233,
                -0.08569041259935968
            ]
        },
        {
            "positions": [
                0.11402891903368953,
                -2.224798483083937,
                -2.2358963779502465,
                1.3418977482496552,
                0.21787858862266404,
                -0.16437396274725177
            ]
        },
        {
            "positions": [
                0.20080501452319427,
                -2.1896902330043937,
                -2.1336315881224093,
                1.2657991277434915,
                0.23232034427970483,
                -0.24305751289514385
            ]
        },
        {
            "positions": [
                0.287581110012699,
                -2.15458198292485,
                -2.0313667982945716,
                1.1897005072373275,
                0.24676209993674558,
                -0.32174106304303596
            ]
        },
        {
            "positions": [
                0.3743572055022037,
                -2.1194737328453064,
                -1.9291020084667339,
                1.1136018867311637,
                0.26120385559378634,
                -0.40042461319092804
            ]
        },
        {
            "positions": [
                0.46113330099170846,
                -2.0843654827657625,
                -1.8268372186388961,
                1.0375032662249999,
                0.27564561125082715,
                -0.4791081633388201
            ]
        },
        {
            "positions": [
                0.5479093964812132,
                -2.049257232686219,
                -1.7245724288110587,
                0.961404645718836,
                0.2900873669078679,
                -0.5577917134867123
            ]
        },
        {
            "positions": [
                0.6346854919707179,
                -2.0141489826066756,
                -1.6223076389832212,
                0.8853060252126721,
                0.30452912256490866,
                -0.6364752636346043
            ]
        },
        {
            "positions": [
                0.7214615874602226,
                -1.9790407325271318,
                -1.5200428491553835,
                0.8092074047065083,
                0.31897087822194947,
                -0.7151588137824962
            ]
        },
        {
            "positions": [
                0.8082376829497273,
                -1.9439324824475883,
                -1.4177780593275457,
                0.7331087842003444,
                0.33341263387899023,
                -0.7938423639303884
            ]
        },
        {
            "positions": [
                0.895013778439232,
                -1.9088242323680447,
                -1.3155132694997083,
                0.6570101636941805,
                0.347854389536031,
                -0.8725259140782806
            ]
        },
        {
            "positions": [
                0.9817898739287368,
                -1.873715982288501,
                -1.2132484796718705,
                0.5809115431880166,
                0.36229614519307174,
                -0.9512094642261726
            ]
        },
        {
            "positions": [
                1.0685659694182417,
                -1.8386077322089573,
                -1.110983689844033,
                0.5048129226818528,
                0.3767379008501125,
                -1.0298930143740648
            ]
        },
        {
            "positions": [
                1.1553420649077464,
                -1.8034994821294137,
                -1.0087189000161954,
                0.42871430217568895,
                0.3911796565071533,
                -1.108576564521957
            ]
        },
        {
            "positions": [
                1.242118160397251,
                -1.7683912320498703,
                -0.9064541101883579,
                0.35261568166952517,
                0.40562141216419406,
                -1.187260114669849
            ]
        },
        {
            "positions": [
                1.3288942558867558,
                -1.7332829819703264,
                -0.8041893203605202,
                0.27651706116336117,
                0.4200631678212349,
                -1.2659436648177411
            ]
        },
        {
            "positions": [
                1.4156703513762605,
                -1.698174731890783,
                -0.7019245305326824,
                0.20041844065719738,
                0.43450492347827563,
                -1.344627214965633
            ]
        },
        {
            "positions": [
                1.5024464468657652,
                -1.6630664818112393,
                -0.599659740704845,
                0.1243198201510336,
                0.4489466791353164,
                -1.423310765113525
            ]
        },
        {
            "positions": [
                1.58922254235527,
                -1.6279582317316956,
                -0.497394950877007,
                0.048221199644869595,
                0.4633884347923572,
                -1.5019943152614175
            ]
        },
        {
            "positions": [
                1.6759986378447747,
                -1.592849981652152,
                -0.39513016104916954,
                -0.02787742086129419,
                0.47783019044939795,
                -1.5806778654093094
            ]
        },
        {
            "positions": [
                1.7627747333342794,
                -1.5577417315726083,
                -0.29286537122133227,
                -0.1039760413674582,
                0.4922719461064387,
                -1.6593614155572014
            ]
        },
        {
            "positions": [
                1.849550828823784,
                -1.5226334814930649,
                -0.19060058139349456,
                -0.18007466187362198,
                0.5067137017634795,
                -1.7380449657050936
            ]
        },
        {
            "positions": [
                1.9363269243132888,
                -1.487525231413521,
                -0.08833579156565685,
                -0.256173282379786,
                0.5211554574205203,
                -1.8167285158529858
            ]
        },
        {
            "positions": [
                2.0231030198027935,
                -1.4524169813339776,
                0.013928998262180858,
                -0.33227190288594977,
                0.535597213077561,
                -1.8954120660008777
            ]
        },
        {
            "positions": [
                2.109879115292298,
                -1.417308731254434,
                0.11619378809001857,
                -0.40837052339211355,
                0.5500389687346018,
                -1.97409561614877
            ]
        },
        {
            "positions": [
                2.196655210781803,
                -1.3822004811748902,
                0.21845857791785583,
                -0.48446914389827733,
                0.5644807243916425,
                -2.052779166296662
            ]
        },
        {
            "positions": [
                2.2834313062713076,
                -1.3470922310953466,
                0.320723367745694,
                -0.5605677644044413,
                0.5789224800486834,
                -2.1314627164445543
            ]
        },
        {
            "positions": [
                2.3702074017608123,
                -1.311983981015803,
                0.42298815757353125,
                -0.6366663849106051,
                0.593364235705724,
                -2.2101462665924463
            ]
        },
        {
            "positions": [
                2.456983497250317,
                -1.2768757309362593,
                0.525252947401369,
                -0.7127650054167689,
                0.6078059913627649,
                -2.2888298167403383
            ]
        },
        {
            "positions": [
                2.5437595927398218,
                -1.2417674808567158,
                0.6275177372292062,
                -0.7888636259229327,
                0.6222477470198056,
                -2.36751336688823
            ]
        },
        {
            "positions": [
                2.6305356882293265,
                -1.206659230777172,
                0.7297825270570444,
                -0.8649622464290969,
                0.6366895026768464,
                -2.4461969170361226
            ]
        },
        {
            "positions": [
                2.717311783718831,
                -1.1715509806976285,
                0.8320473168848816,
                -0.9410608669352607,
                0.6511312583338872,
                -2.5248804671840146
            ]
        },
        {
            "positions": [
                2.804087879208336,
                -1.1364427306180849,
                0.9343121067127192,
                -1.0171594874414243,
                0.6655730139909279,
                -2.6035640173319066
            ]
        },
        {
            "positions": [
                2.7746464447831074,
                -1.1161475800445197,
                1.0831593454744084,
                -0.9807704923115385,
                0.7296639472878408,
                -2.68446156711518
            ]
        },
        {
            "positions": [
                2.745205010357879,
                -1.0958524294709548,
                1.2320065842360974,
                -0.9443814971816525,
                0.7937548805847536,
                -2.765359116898453
            ]
        },
        {
            "positions": [
                2.7157635759326504,
                -1.07555727889739,
                1.3808538229977867,
                -0.9079925020517667,
                0.8578458138816666,
                -2.846256666681726
            ]
        },
        {
            "positions": [
                2.686322141507422,
                -1.0552621283238248,
                1.5297010617594757,
                -0.8716035069218809,
                0.9219367471785794,
                -2.9271542164649995
            ]
        },
        {
            "positions": [
                2.6568807070821934,
                -1.0349669777502597,
                1.678548300521165,
                -0.835214511791995,
                0.9860276804754924,
                -3.0080517662482724
            ]
        },
        {
            "positions": [
                2.627439272656965,
                -1.0146718271766948,
                1.827395539282854,
                -0.7988255166621092,
                1.0501186137724052,
                -3.0889493160315458
            ]
        }
    ]
}