{
    "goal": {
        "global_pose": {
            "orientation": {
                "w": -0.00223480608172531,
                "x": 0.0024358444001904467,
                "y": 0.7094548369677653,
                "z": -0.704743149386269
            },
            "position": {
                "x": -0.37947507619857795,
                "y": -0.6371506643295288,
                "z": 0.19426114857196808
            }
        },
        "name": "move_to_magneteinheit_C"
    },
    "id": "STRIDE_move_to_magneteinheit_C_135",
    "joint_names": [
        "shoulder_pan_joint",
        "shoulder_lift_joint",
        "elbow_joint",
        "wrist_1_joint",
        "wrist_2_joint",
        "wrist_3_joint"
    ],
    "metrics": {
        "cart_traj_len": 1.5328045040678935,
        "distance_elbow_joint": 0.3329561736109161,
        "distance_shoulder_lift_joint": 0.39334116686875564,
        "distance_shoulder_pan_joint": 1.781185755671878,
        "distance_wrist_1_joint": 0.30993949893485395,
        "distance_wrist_2_joint": 1.8602118869318462,
        "distance_wrist_3_joint": 0.5764438052314418,
        "smoothness": 1.2953604059059158,
        "time": 0.190834804,
        "traj_len": 2.2921776299514165,
        "weighted_distance": 2.9286715902571387
    },
    "planner": "STRIDE",
    "start": {
        "state": {
            "elbow_joint": 1.9565354010623817,
            "shoulder_lift_joint": -1.4165861575791021,
            "shoulder_pan_joint": -1.6717766225146293,
            "wrist_1_joint": -0.5286633292919765,
            "wrist_2_joint": 1.472756589071564,
            "wrist_3_joint": -3.1238370188695823
        }
    },
    "waypoints": [
        {
            "positions": [
                -1.6717766225146293,
                -1.4165861575791021,
                1.9565354010623817,
                -0.5286633292919765,
                1.472756589071564,
                -3.1238370188695823
            ]
        },
        {
            "positions": [
                -1.6018155755846648,
                -1.4265620245965476,
                1.9365161047447361,
                -0.5382463678266021,
                1.2823636904493778,
                -3.0836547259865834
            ]
        },
        {
            "positions": [
                -1.5318545286547005,
                -1.436537891613993,
                1.9164968084270908,
                -0.5478294063612276,
                1.0919707918271917,
                -3.043472433103585
            ]
        },
        {
            "positions": [
                -1.461893481724736,
                -1.4465137586314385,
                1.8964775121094453,
                -0.5574124448958532,
                0.9015778932050057,
                -3.003290140220586
            ]
        },
        {
            "positions": [
                -1.3919324347947717,
                -1.456489625648884,
                1.8764582157917997,
                -0.5669954834304787,
                0.7111849945828197,
                -2.9631078473375876
            ]
        },
        {
            "positions": [
                -1.3219713878648072,
                -1.4664654926663294,
                1.8564389194741542,
                -0.5765785219651043,
                0.5207920959606335,
                -2.9229255544545887
            ]
        },
        {
            "positions": [
                -1.2520103409348429,
                -1.4764413596837749,
                1.8364196231565089,
                -0.5861615604997298,
                0.33039919733844747,
                -2.88274326157159
            ]
        },
        {
            "positions": [
                -1.1820492940048783,
                -1.4864172267012203,
                1.8164003268388633,
                -0.5957445990343554,
                0.14000629871626138,
                -2.8425609686885913
            ]
        },
        {
            "positions": [
                -1.3434815974001442,
                -1.4459784644828906,
                1.840502964262288,
                -0.6261018776834147,
                0.2059389982883294,
                -2.8794569380698976
            ]
        },
        {
            "positions": [
                -1.50491390079541,
                -1.405539702264561,
                1.8646056016857129,
                -0.6564591563324742,
                0.27187169786039744,
                -2.916352907451204
            ]
        },
        {
            "positions": [
                -1.666346204190676,
                -1.3651009400462313,
                1.8887082391091374,
                -0.6868164349815336,
                0.33780439743246543,
                -2.9532488768325105
            ]
        },
        {
            "positions": [
                -1.8277785075859418,
                -1.3246621778279017,
                1.9128108765325622,
                -0.7171737136305929,
                0.4037370970045334,
                -2.9901448462138167
            ]
        },
        {
            "positions": [
                -1.9892108109812077,
                -1.284223415609572,
                1.936913513955987,
                -0.7475309922796523,
                0.46966979657660146,
                -3.027040815595123
            ]
        },
        {
            "positions": [
                -2.1506431143764737,
                -1.2437846533912422,
                1.9610161513794115,
                -0.7778882709287116,
                0.5356024961486695,
                -3.0639367849764296
            ]
        },
        {
            "positions": [
                -2.3120754177717395,
                -1.2033458911729125,
                1.9851187888028363,
                -0.8082455495777711,
                0.6015351957207374,
                -3.100832754357736
            ]
        },
        {
            "positions": [
                -2.4735077211670053,
                -1.162907128954583,
                2.009221426226261,
                -0.8386028282268304,
                0.6674678952928055,
                -3.137728723739042
            ]
        }
    ]
}