{
    "goal": {
        "global_pose": {
            "orientation": {
                "w": 0.5084816217422485,
                "x": -0.49083608388900757,
                "y": 0.5182115435600281,
                "z": -0.4816462993621826
            },
            "position": {
                "x": 0.5540239810943604,
                "y": 0.030875300988554955,
                "z": 0.16403168439865112
            }
        },
        "name": "move_to_storage_A"
    },
    "id": "STRIDE_move_to_storage_A_45",
    "joint_names": [
        "shoulder_pan_joint",
        "shoulder_lift_joint",
        "elbow_joint",
        "wrist_1_joint",
        "wrist_2_joint",
        "wrist_3_joint"
    ],
    "metrics": {
        "cart_traj_len": 0.3539272636469789,
        "distance_elbow_joint": 0.44974541471256146,
        "distance_shoulder_lift_joint": 0.2354627974451955,
        "distance_shoulder_pan_joint": 0.4638062992921453,
        "distance_wrist_1_joint": 0.23563473494333065,
        "distance_wrist_2_joint": 1.097082294836434,
        "distance_wrist_3_joint": 0.0995004408830309,
        "smoothness": 6.661338165333112e-16,
        "time": 0.22090763200000002,
        "traj_len": 1.6066212939310551,
        "weighted_distance": 2.028040900390947
    },
    "planner": "STRIDE",
    "start": {
        "state": {
            "elbow_joint": 1.971548259319323,
            "shoulder_lift_joint": -1.1394851275133948,
            "shoulder_pan_joint": 0.1228115487234821,
            "wrist_1_joint": -0.7804723859257726,
            "wrist_2_joint": 0.12958671773740124,
            "wrist_3_joint": -3.192489227718131
        }
    },
    "waypoints": [
        {
            "positions": [
                0.1228115487234821,
                -1.1394851275133948,
                1.971548259319323,
                -0.7804723859257726,
                0.12958671773740124,
                -3.192489227718131
            ]
        },
        {
            "positions": [
                0.05655350596746135,
                -1.1731226700055657,
                2.0357976042782604,
                -0.814134490917677,
                0.2863127598568918,
                -3.1782748790205555
            ]
        },
        {
            "positions": [
                -0.009704536788559398,
                -1.2067602124977364,
                2.1000469492371976,
                -0.8477965959095813,
                0.44303880197638235,
                -3.1640605303229794
            ]
        },
        {
            "positions": [
                -0.07596257954458016,
                -1.2403977549899072,
                2.1642962941961352,
                -0.8814587009014857,
                0.5997648440958729,
                -3.1498461816254038
            ]
        },
        {
            "positions": [
                -0.1422206223006009,
                -1.2740352974820779,
                2.2285456391550724,
                -0.9151208058933902,
                0.7564908862153635,
                -3.1356318329278277
            ]
        },
        {
            "positions": [
                -0.20847866505662166,
                -1.3076728399742488,
                2.2927949841140096,
                -0.9487829108852945,
                0.9132169283348541,
                -3.121417484230252
            ]
        },
        {
            "positions": [
                -0.2747367078126424,
                -1.3413103824664194,
                2.3570443290729473,
                -0.9824450158771989,
                1.0699429704543446,
                -3.107203135532676
            ]
        },
        {
            "positions": [
                -0.3409947505686632,
                -1.3749479249585903,
                2.4212936740318844,
                -1.0161071208691033,
                1.2266690125738353,
                -3.0929887868351003
            ]
        }
    ]
}{
    "goal": {
        "global_pose": {
            "orientation": {
                "w": 0.5084816217422485,
                "x": -0.49083608388900757,
                "y": 0.5182115435600281,
                "z": -0.4816462993621826
            },
            "position": {
                "x": 0.5540239810943604,
                "y": 0.030875300988554955,
                "z": 0.16403168439865112
            }
        },
        "name": "move_to_storage_A"
    },
    "id": "STRIDE_move_to_storage_A_45",
    "joint_names": [
        "shoulder_pan_joint",
        "shoulder_lift_joint",
        "elbow_joint",
        "wrist_1_joint",
        "wrist_2_joint",
        "wrist_3_joint"
    ],
    "metrics": {
        "cart_traj_len": 0.35346560032573854,
        "distance_elbow_joint": 0.4499722363973522,
        "distance_shoulder_lift_joint": 0.237125557588856,
        "distance_shoulder_pan_joint": 0.46308867668713843,
        "distance_wrist_1_joint": 0.23560157484850652,
        "distance_wrist_2_joint": 1.0973891235353137,
        "distance_wrist_3_joint": 0.08651614876107727,
        "smoothness": 2.2204460668324854e-16,
        "time": 0.131536205,
        "traj_len": 1.6030262997899454,
        "weighted_distance": 2.018840338839161
    },
    "planner": "STRIDE",
    "start": {
        "state": {
            "elbow_joint": 1.97154746011099,
            "shoulder_lift_joint": -1.13948474672311,
            "shoulder_pan_joint": 0.12281154466712228,
            "wrist_1_joint": -0.7804688027058302,
            "wrist_2_joint": 0.12958655903071145,
            "wrist_3_joint": 3.0906928834467795
        }
    },
    "waypoints": [
        {
            "positions": [
                0.12281154466712228,
                -1.13948474672311,
                1.97154746011099,
                -0.7804688027058302,
                0.12958655903071145,
                3.0906928834467795
            ]
        },
        {
            "positions": [
                0.056656019426102516,
                -1.1733598263786609,
                2.0358292081677547,
                -0.8141261705413311,
                0.2863564338214706,
                3.1030523332697904
            ]
        },
        {
            "positions": [
                -0.00949950581491725,
                -1.2072349060342116,
                2.100110956224519,
                -0.8477835383768321,
                0.4431263086122297,
                3.1154117830928016
            ]
        },
        {
            "positions": [
                -0.07565503105593703,
                -1.2411099856897625,
                2.164392704281284,
                -0.881440906212333,
                0.5998961834029888,
                3.1277712329158125
            ]
        },
        {
            "positions": [
                -0.14181055629695677,
                -1.2749850653453134,
                2.228674452338048,
                -0.915098274047834,
                0.7566660581937479,
                3.140130682738824
            ]
        },
        {
            "positions": [
                -0.20796608153797658,
                -1.3088601450008643,
                2.292956200394813,
                -0.9487556418833348,
                0.913435932984507,
                3.1524901325618346
            ]
        },
        {
            "positions": [
                -0.27412160677899633,
                -1.342735224656415,
                2.3572379484515773,
                -0.9824130097188357,
                1.070205807775266,
                3.164849582384846
            ]
        },
        {
            "positions": [
                -0.34027713202001614,
                -1.376610304311966,
                2.421519696508342,
                -1.0160703775543367,
                1.2269756825660252,
                3.1772090322078568
            ]
        }
    ]
}{
    "goal": {
        "global_pose": {
            "orientation": {
                "w": 0.5084816217422485,
                "x": -0.49083608388900757,
                "y": 0.5182115435600281,
                "z": -0.4816462993621826
            },
            "position": {
                "x": 0.5540239810943604,
                "y": 0.030875300988554955,
                "z": 0.16403168439865112
            }
        },
        "name": "move_to_storage_A"
    },
    "id": "STRIDE_move_to_storage_A_45",
    "joint_names": [
        "shoulder_pan_joint",
        "shoulder_lift_joint",
        "elbow_joint",
        "wrist_1_joint",
        "wrist_2_joint",
        "wrist_3_joint"
    ],
    "metrics": {
        "cart_traj_len": 0.3537537550682269,
        "distance_elbow_joint": 0.449289867829445,
        "distance_shoulder_lift_joint": 0.23654678525203376,
        "distance_shoulder_pan_joint": 0.45970363398562625,
        "distance_wrist_1_joint": 0.23415490438832687,
        "distance_wrist_2_joint": 1.1137411744945913,
        "distance_wrist_3_joint": 0.09058953387302893,
        "smoothness": 0.0,
        "time": 0.070393906,
        "traj_len": 1.6074905597928257,
        "weighted_distance": 2.028078165764828
    },
    "planner": "STRIDE",
    "start": {
        "state": {
            "elbow_joint": 1.9715472970024885,
            "shoulder_lift_joint": -1.1394870060712896,
            "shoulder_pan_joint": 0.12281152778156021,
            "wrist_1_joint": -0.780463741449964,
            "wrist_2_joint": 0.12958659822042276,
            "wrist_3_joint": 3.090690232415272
        }
    },
    "waypoints": [
        {
            "positions": [
                0.12281152778156021,
                -1.1394870060712896,
                1.9715472970024885,
                -0.780463741449964,
                0.12958659822042276,
                3.090690232415272
            ]
        },
        {
            "positions": [
                0.0571395800693279,
                -1.1732794039644372,
                2.035731563835266,
                -0.8139144420768678,
                0.28869248029107863,
                3.1036315943971333
            ]
        },
        {
            "positions": [
                -0.00853236764290441,
                -1.207071801857585,
                2.0999158306680443,
                -0.8473651427037716,
                0.44779836236173454,
                3.1165729563789943
            ]
        },
        {
            "positions": [
                -0.07420431535513672,
                -1.2408641997507326,
                2.164100097500822,
                -0.8808158433306755,
                0.6069042444323904,
                3.129514318360856
            ]
        },
        {
            "positions": [
                -0.13987626306736903,
                -1.2746565976438804,
                2.2282843643336,
                -0.9142665439575793,
                0.7660101265030463,
                3.142455680342717
            ]
        },
        {
            "positions": [
                -0.20554821077960136,
                -1.308448995537028,
                2.292468631166378,
                -0.9477172445844833,
                0.9251160085737022,
                3.1553970423245783
            ]
        },
        {
            "positions": [
                -0.2712201584918337,
                -1.3422413934301756,
                2.3566528979991554,
                -0.9811679452113871,
                1.0842218906443581,
                3.1683384043064393
            ]
        },
        {
            "positions": [
                -0.336892106204066,
                -1.3760337913233234,
                2.4208371648319336,
                -1.0146186458382909,
                1.243327772715014,
                3.181279766288301
            ]
        }
    ]
}