{
    "goal": {
        "global_pose": {
            "orientation": {
                "w": 0.7031023502349854,
                "x": -0.7110244035720825,
                "y": 0.007748599164187908,
                "z": 0.005598929710686207
            },
            "position": {
                "x": 0.11585023208521307,
                "y": 0.44412534475326537,
                "z": 0.3711530566215515
            }
        },
        "name": "move_to_auspresseinheit_A"
    },
    "id": "STRIDE_move_to_auspresseinheit_A_120",
    "joint_names": [
        "shoulder_pan_joint",
        "shoulder_lift_joint",
        "elbow_joint",
        "wrist_1_joint",
        "wrist_2_joint",
        "wrist_3_joint"
    ],
    "metrics": {
        "cart_traj_len": 2.2622305967874903,
        "distance_elbow_joint": 1.6172642204479728,
        "distance_shoulder_lift_joint": 0.6077871319273909,
        "distance_shoulder_pan_joint": 2.712899184414156,
        "distance_wrist_1_joint": 2.3887780916781645,
        "distance_wrist_2_joint": 1.3549574305400993,
        "distance_wrist_3_joint": 1.6092263973426717,
        "smoothness": 0.9687991677260903,
        "time": 0.389653081,
        "traj_len": 3.207945207816127,
        "weighted_distance": 4.153685203918811
    },
    "planner": "STRIDE",
    "start": {
        "state": {
            "elbow_joint": 2.4225746658250005,
            "shoulder_lift_joint": -1.3736534386056498,
            "shoulder_pan_joint": -0.3378633547517467,
            "wrist_1_joint": -1.0288598680537169,
            "wrist_2_joint": 1.233022673432363,
            "wrist_3_joint": -3.0940220416140027
        }
    },
    "waypoints": [
        {
            "positions": [
                -0.3378633547517467,
                -1.3736534386056498,
                2.4225746658250005,
                -1.0288598680537169,
                1.233022673432363,
                -3.0940220416140027
            ]
        },
        {
            "positions": [
                -0.4021613734765468,
                -1.4095846351682872,
                2.3591871944314615,
                -1.0986997624661177,
                1.1603411633857725,
                -3.034041910996258
            ]
        },
        {
            "positions": [
                -0.4664593922013468,
                -1.445515831730925,
                2.2957997230379226,
                -1.1685396568785185,
                1.087659653339182,
                -2.974061780378514
            ]
        },
        {
            "positions": [
                -0.5307574109261469,
                -1.4814470282935623,
                2.232412251644383,
                -1.2383795512909193,
                1.0149781432925913,
                -2.9140816497607696
            ]
        },
        {
            "positions": [
                -0.5950554296509469,
                -1.5173782248561998,
                2.169024780250844,
                -1.3082194457033203,
                0.9422966332460008,
                -2.8541015191430255
            ]
        },
        {
            "positions": [
                -0.659353448375747,
                -1.5533094214188374,
                2.1056373088573053,
                -1.378059340115721,
                0.8696151231994103,
                -2.794121388525281
            ]
        },
        {
            "positions": [
                -0.7236514671005471,
                -1.5892406179814749,
                2.0422498374637663,
                -1.4478992345281219,
                0.7969336131528197,
                -2.734141257907537
            ]
        },
        {
            "positions": [
                -0.7879494858253471,
                -1.6251718145441123,
                1.9788623660702274,
                -1.5177391289405227,
                0.7242521031062292,
                -2.6741611272897923
            ]
        },
        {
            "positions": [
                -0.8522475045501472,
                -1.66110301110675,
                1.9154748946766882,
                -1.5875790233529234,
                0.6515705930596386,
                -2.614180996672048
            ]
        },
        {
            "positions": [
                -0.9165455232749471,
                -1.6970342076693874,
                1.852087423283149,
                -1.6574189177653245,
                0.5788890830130481,
                -2.5542008660543036
            ]
        },
        {
            "positions": [
                -0.9808435419997472,
                -1.7329654042320248,
                1.78869995188961,
                -1.727258812177725,
                0.5062075729664576,
                -2.494220735436559
            ]
        },
        {
            "positions": [
                -1.0451415607245473,
                -1.7688966007946623,
                1.725312480496071,
                -1.797098706590126,
                0.43352606291986706,
                -2.434240604818815
            ]
        },
        {
            "positions": [
                -1.1094395794493475,
                -1.8048277973573,
                1.661925009102532,
                -1.8669386010025268,
                0.36084455287327644,
                -2.374260474201071
            ]
        },
        {
            "positions": [
                -1.1737375981741474,
                -1.8407589939199374,
                1.598537537708993,
                -1.9367784954149276,
                0.28816304282668587,
                -2.3142803435833263
            ]
        },
        {
            "positions": [
                -1.048643882143785,
                -1.8481064838197079,
                1.6551899221236885,
                -1.836652853930718,
                0.3118481261965212,
                -2.3732537972805328
            ]
        },
        {
            "positions": [
                -0.9235501661134227,
                -1.8554539737194782,
                1.7118423065383843,
                -1.7365272124465088,
                0.33553320956635657,
                -2.4322272509777396
            ]
        },
        {
            "positions": [
                -0.7984564500830603,
                -1.8628014636192485,
                1.76849469095308,
                -1.6364015709622992,
                0.3592182929361919,
                -2.491200704674946
            ]
        },
        {
            "positions": [
                -0.673362734052698,
                -1.870148953519019,
                1.8251470753677757,
                -1.5362759294780899,
                0.3829033763060272,
                -2.5501741583721524
            ]
        },
        {
            "positions": [
                -0.5482690180223356,
                -1.8774964434187895,
                1.8817994597824712,
                -1.4361502879938803,
                0.4065884596758626,
                -2.6091476120693593
            ]
        },
        {
            "positions": [
                -0.4231753019919733,
                -1.8848439333185598,
                1.938451844197167,
                -1.3360246465096708,
                0.4302735430456979,
                -2.6681210657665657
            ]
        },
        {
            "positions": [
                -0.29808158596161094,
                -1.8921914232183301,
                1.9951042286118628,
                -1.2358990050254615,
                0.4539586264155333,
                -2.7270945194637726
            ]
        },
        {
            "positions": [
                -0.1729878699312486,
                -1.8995389131181006,
                2.0517566130265585,
                -1.1357733635412521,
                0.47764370978536863,
                -2.786067973160979
            ]
        },
        {
            "positions": [
                -0.04789415390088614,
                -1.9068864030178712,
                2.108408997441254,
                -1.0356477220570426,
                0.501328793155204,
                -2.8450414268581854
            ]
        },
        {
            "positions": [
                0.0771995621294761,
                -1.9142338929176415,
                2.1650613818559497,
                -0.935522080572833,
                0.5250138765250393,
                -2.9040148805553923
            ]
        },
        {
            "positions": [
                0.20229327815983833,
                -1.9215813828174118,
                2.2217137662706454,
                -0.8353964390886237,
                0.5486989598948746,
                -2.9629883342525987
            ]
        },
        {
            "positions": [
                0.3273869941902008,
                -1.9289288727171823,
                2.2783661506853408,
                -0.7352707976044142,
                0.57238404326471,
                -3.021961787949805
            ]
        },
        {
            "positions": [
                0.45248071022056324,
                -1.9362763626169528,
                2.3350185351000365,
                -0.6351451561202046,
                0.5960691266345454,
                -3.080935241647012
            ]
        },
        {
            "positions": [
                0.5775744262509255,
                -1.943623852516723,
                2.3916709195147323,
                -0.5350195146359953,
                0.6197542100043807,
                -3.1399086953442183
            ]
        },
        {
            "positions": [
                0.7032873428176089,
                -1.9058071345004055,
                2.3917646300409583,
                -0.45591903109797405,
                0.6982608427611072,
                -3.1437650428953217
            ]
        }
    ]
}