{
    "goal": {
        "global_pose": {
            "orientation": {
                "w": 0.7031023502349854,
                "x": -0.7110244035720825,
                "y": 0.007748599164187908,
                "z": 0.005598929710686207
            },
            "position": {
                "x": 0.11585023208521307,
                "y": 0.44412534475326537,
                "z": 0.3711530566215515
            }
        },
        "name": "move_to_auspresseinheit_A"
    },
    "id": "STRIDE_move_to_auspresseinheit_A_66",
    "joint_names": [
        "shoulder_pan_joint",
        "shoulder_lift_joint",
        "elbow_joint",
        "wrist_1_joint",
        "wrist_2_joint",
        "wrist_3_joint"
    ],
    "metrics": {
        "cart_traj_len": 1.5212068385094768,
        "distance_elbow_joint": 0.7328646345112535,
        "distance_shoulder_lift_joint": 1.1461060075050153,
        "distance_shoulder_pan_joint": 1.5931253907705307,
        "distance_wrist_1_joint": 0.5569290130355966,
        "distance_wrist_2_joint": 1.017309359017005,
        "distance_wrist_3_joint": 3.801985628918346,
        "smoothness": 0.9215914705805706,
        "time": 0.387637091,
        "traj_len": 2.9746125854903775,
        "weighted_distance": 4.245766086779516
    },
    "planner": "STRIDE",
    "start": {
        "state": {
            "elbow_joint": 2.4225746658250005,
            "shoulder_lift_joint": -1.3736534386056498,
            "shoulder_pan_joint": -0.3378633547517467,
            "wrist_1_joint": -1.0288598680537169,
            "wrist_2_joint": 1.233022673432363,
            "wrist_3_joint": -3.0940220416140027
        }
    },
    "waypoints": [
        {
            "positions": [
                -0.3378633547517467,
                -1.3736534386056498,
                2.4225746658250005,
                -1.0288598680537169,
                1.233022673432363,
                -3.0940220416140027
            ]
        },
        {
            "positions": [
                -0.2390536121595752,
                -1.4373640381756454,
                2.380413660424701,
                -1.0204951953004955,
                1.250630634027629,
                -3.011738271622205
            ]
        },
        {
            "positions": [
                -0.1402438695674037,
                -1.501074637745641,
                2.338252655024402,
                -1.012130522547274,
                1.2682385946228947,
                -2.9294545016304068
            ]
        },
        {
            "positions": [
                -0.04143412697523219,
                -1.5647852373156366,
                2.2960916496241026,
                -1.0037658497940527,
                1.2858465552181606,
                -2.847170731638609
            ]
        },
        {
            "positions": [
                0.05160266381395251,
                -1.6237881594213226,
                2.2729869255276594,
                -0.9811834258326825,
                1.258599470313388,
                -2.6983841724308943
            ]
        },
        {
            "positions": [
                0.1446394546031372,
                -1.6827910815270084,
                2.2498822014312165,
                -0.9586010018713124,
                1.2313523854086157,
                -2.5495976132231792
            ]
        },
        {
            "positions": [
                0.2376762453923219,
                -1.7417940036326944,
                2.2267774773347733,
                -0.9360185779099421,
                1.2041053005038431,
                -2.4008110540154646
            ]
        },
        {
            "positions": [
                0.3307130361815066,
                -1.8007969257383805,
                2.20367275323833,
                -0.9134361539485719,
                1.1768582155990706,
                -2.25202449480775
            ]
        },
        {
            "positions": [
                0.4237498269706913,
                -1.8597998478440663,
                2.180568029141887,
                -0.8908537299872017,
                1.1496111306942982,
                -2.103237935600035
            ]
        },
        {
            "positions": [
                0.516786617759876,
                -1.9188027699497523,
                2.157463305045444,
                -0.8682713060258316,
                1.1223640457895256,
                -1.9544513763923201
            ]
        },
        {
            "positions": [
                0.6098234085490607,
                -1.9778056920554383,
                2.134358580949001,
                -0.8456888820644614,
                1.095116960884753,
                -1.8056648171846053
            ]
        },
        {
            "positions": [
                0.7028601993382454,
                -2.0368086141611244,
                2.111253856852558,
                -0.8231064581030911,
                1.0678698759799807,
                -1.6568782579768904
            ]
        },
        {
            "positions": [
                0.7958969901274301,
                -2.09581153626681,
                2.0881491327561146,
                -0.8005240341417209,
                1.0406227910752082,
                -1.5080916987691755
            ]
        },
        {
            "positions": [
                0.8889337809166148,
                -2.154814458372496,
                2.0650444086596718,
                -0.7779416101803508,
                1.0133757061704358,
                -1.3593051395614608
            ]
        },
        {
            "positions": [
                0.9819705717057995,
                -2.213817380478182,
                2.0419396845632285,
                -0.7553591862189806,
                0.9861286212656633,
                -1.210518580353746
            ]
        },
        {
            "positions": [
                0.9505439785563824,
                -2.1784287728103284,
                2.1046690422970213,
                -0.7032748953210906,
                0.8923016979742743,
                -1.313092550253684
            ]
        },
        {
            "positions": [
                0.9191173854069653,
                -2.1430401651424744,
                2.167398400030814,
                -0.6511906044232004,
                0.7984747746828853,
                -1.4156665201536223
            ]
        },
        {
            "positions": [
                0.8876907922575483,
                -2.107651557474621,
                2.2301277577646066,
                -0.5991063135253104,
                0.7046478513914964,
                -1.5182404900535604
            ]
        },
        {
            "positions": [
                0.8562641991081312,
                -2.072262949806767,
                2.2928571154983994,
                -0.5470220226274203,
                0.6108209281001074,
                -1.6208144599534986
            ]
        },
        {
            "positions": [
                0.8248376059587141,
                -2.0368743421389133,
                2.3555864732321923,
                -0.49493773172953026,
                0.5169940048087185,
                -1.7233884298534368
            ]
        },
        {
            "positions": [
                0.8016059062455342,
                -2.0110745366802703,
                2.363303046148296,
                -0.49033635638724826,
                0.5561205901730716,
                -2.0045108934851164
            ]
        },
        {
            "positions": [
                0.7783742065323543,
                -1.9852747312216275,
                2.3710196190643993,
                -0.48573498104496626,
                0.5952471755374247,
                -2.2856333571167964
            ]
        },
        {
            "positions": [
                0.7551425068191744,
                -1.9594749257629847,
                2.378736191980503,
                -0.48113360570268426,
                0.6343737609017778,
                -2.566755820748476
            ]
        },
        {
            "positions": [
                0.7319108071059945,
                -1.9336751203043416,
                2.3864527648966063,
                -0.47653223036040226,
                0.6735003462661309,
                -2.8478782843801556
            ]
        },
        {
            "positions": [
                0.7086791073928146,
                -1.9078753148456988,
                2.39416933781271,
                -0.47193085501812027,
                0.712626931630484,
                -3.129000748011835
            ]
        }
    ]
}