{
    "goal": {
        "global_pose": {
            "orientation": {
                "w": -0.00223480608172531,
                "x": 0.0024358444001904467,
                "y": 0.7094548369677653,
                "z": -0.704743149386269
            },
            "position": {
                "x": -0.37947507619857795,
                "y": -0.6371506643295288,
                "z": 0.19426114857196808
            }
        },
        "name": "move_to_magneteinheit_C"
    },
    "id": "STRIDE_move_to_magneteinheit_C_126",
    "joint_names": [
        "shoulder_pan_joint",
        "shoulder_lift_joint",
        "elbow_joint",
        "wrist_1_joint",
        "wrist_2_joint",
        "wrist_3_joint"
    ],
    "metrics": {
        "cart_traj_len": 2.073777463030847,
        "distance_elbow_joint": 0.8597845839480871,
        "distance_shoulder_lift_joint": 1.5265085702024206,
        "distance_shoulder_pan_joint": 1.5510555812623716,
        "distance_wrist_1_joint": 0.5978878601447193,
        "distance_wrist_2_joint": 2.2457793343970653,
        "distance_wrist_3_joint": 3.246934677192946,
        "smoothness": 0.8296743533014984,
        "time": 2.786635028,
        "traj_len": 3.1666939553969544,
        "weighted_distance": 4.400623496287234
    },
    "planner": "STRIDE",
    "start": {
        "state": {
            "elbow_joint": 1.9565354010623817,
            "shoulder_lift_joint": -1.4165861575791021,
            "shoulder_pan_joint": -1.6717766225146293,
            "wrist_1_joint": -0.5286633292919765,
            "wrist_2_joint": 1.472756589071564,
            "wrist_3_joint": -3.1238370188695823
        }
    },
    "waypoints": [
        {
            "positions": [
                -1.6717766225146293,
                -1.4165861575791021,
                1.9565354010623817,
                -0.5286633292919765,
                1.472756589071564,
                -3.1238370188695823
            ]
        },
        {
            "positions": [
                -1.6041788559336536,
                -1.451247148934454,
                1.936434410522311,
                -0.4762005613608439,
                1.4368755899359251,
                -2.985178452580036
            ]
        },
        {
            "positions": [
                -1.587109102112979,
                -1.5059174299177223,
                1.901676363772467,
                -0.46818163402736057,
                1.301689453789382,
                -2.850696142735899
            ]
        },
        {
            "positions": [
                -1.5700393482923047,
                -1.5605877109009902,
                1.866918317022623,
                -0.46016270669387727,
                1.1665033176428385,
                -2.7162138328917624
            ]
        },
        {
            "positions": [
                -1.5529695944716302,
                -1.6152579918842584,
                1.8321602702727788,
                -0.45214377936039396,
                1.0313171814962954,
                -2.581731523047625
            ]
        },
        {
            "positions": [
                -1.5358998406509556,
                -1.6699282728675267,
                1.7974022235229346,
                -0.4441248520269106,
                0.8961310453497521,
                -2.4472492132034884
            ]
        },
        {
            "positions": [
                -1.518830086830281,
                -1.7245985538507949,
                1.7626441767730905,
                -0.4361059246934273,
                0.7609449092032089,
                -2.3127669033593516
            ]
        },
        {
            "positions": [
                -1.5017603330096068,
                -1.7792688348340628,
                1.7278861300232464,
                -0.428086997359944,
                0.6257587730566656,
                -2.1782845935152144
            ]
        },
        {
            "positions": [
                -1.4846905791889322,
                -1.833939115817331,
                1.6931280832734024,
                -0.4200680700264607,
                0.4905726369101223,
                -2.0438022836710776
            ]
        },
        {
            "positions": [
                -1.4676208253682577,
                -1.8886093968005992,
                1.658370036523558,
                -0.4120491426929773,
                0.355386500763579,
                -1.9093199738269409
            ]
        },
        {
            "positions": [
                -1.4505510715475831,
                -1.9432796777838675,
                1.623611989773714,
                -0.404030215359494,
                0.22020036461703563,
                -1.7748376639828038
            ]
        },
        {
            "positions": [
                -1.4334813177269088,
                -1.9979499587671354,
                1.58885394302387,
                -0.3960112880260107,
                0.08501422847049267,
                -1.640355354138667
            ]
        },
        {
            "positions": [
                -1.4164115639062342,
                -2.0526202397504036,
                1.554095896274026,
                -0.3879923606925274,
                -0.05017190767605065,
                -1.50587304429453
            ]
        },
        {
            "positions": [
                -1.5519151203583006,
                -1.991286594882348,
                1.5942650959692843,
                -0.40418150562614186,
                -0.016627192705492483,
                -1.5895920042641318
            ]
        },
        {
            "positions": [
                -1.687418676810367,
                -1.9299529500142922,
                1.6344342956645428,
                -0.4203706505597563,
                0.016917522265065682,
                -1.6733109642337334
            ]
        },
        {
            "positions": [
                -1.822922233262433,
                -1.8686193051462368,
                1.6746034953598012,
                -0.4365597954933707,
                0.05046223723562385,
                -1.757029924203335
            ]
        },
        {
            "positions": [
                -1.9584257897144994,
                -1.807285660278181,
                1.7147726950550597,
                -0.45274894042698516,
                0.08400695220618201,
                -1.8407488841729367
            ]
        },
        {
            "positions": [
                -2.093929346166566,
                -1.7459520154101253,
                1.7549418947503181,
                -0.4689380853605996,
                0.11755166717674018,
                -1.9244678441425385
            ]
        },
        {
            "positions": [
                -2.229432902618632,
                -1.6846183705420699,
                1.7951110944455766,
                -0.485127230294214,
                0.15109638214729834,
                -2.00818680411214
            ]
        },
        {
            "positions": [
                -2.364936459070698,
                -1.6232847256740142,
                1.835280294140835,
                -0.5013163752278285,
                0.1846410971178565,
                -2.0919057640817416
            ]
        },
        {
            "positions": [
                -2.5004400155227646,
                -1.5619510808059585,
                1.8754494938360935,
                -0.5175055201614429,
                0.21818581208841464,
                -2.1756247240513433
            ]
        },
        {
            "positions": [
                -2.592975247560836,
                -1.4893001811062752,
                1.915867780595788,
                -0.5315227456406586,
                0.28850464817053734,
                -2.277013765117241
            ]
        },
        {
            "positions": [
                -2.579220302281087,
                -1.4252858719700758,
                1.9361647960706938,
                -0.5882847316022536,
                0.36266674261140847,
                -2.4380709170721957
            ]
        },
        {
            "positions": [
                -2.5654653570013384,
                -1.3612715628338765,
                1.9564618115455996,
                -0.6450467175638486,
                0.4368288370522796,
                -2.5991280690271505
            ]
        },
        {
            "positions": [
                -2.542561119891369,
                -1.3114901100552285,
                1.970206602517639,
                -0.6950873512323359,
                0.4957913602825599,
                -2.733056988498469
            ]
        },
        {
            "positions": [
                -2.5196568827813994,
                -1.2617086572765805,
                1.9839513934896784,
                -0.7451279849008231,
                0.55475388351284,
                -2.866985907969787
            ]
        },
        {
            "positions": [
                -2.4967526456714304,
                -1.2119272044979326,
                1.9976961844617178,
                -0.7951686185693103,
                0.6137164067431203,
                -3.0009148274411057
            ]
        },
        {
            "positions": [
                -2.473848408561461,
                -1.1621457517192846,
                2.011440975433757,
                -0.8452092522377976,
                0.6726789299734006,
                -3.134843746912424
            ]
        }
    ]
}