{
    "goal": {
        "global_pose": {
            "orientation": {
                "w": 0.5084816217422485,
                "x": -0.49083608388900757,
                "y": 0.5182115435600281,
                "z": -0.4816462993621826
            },
            "position": {
                "x": 0.5540239810943604,
                "y": 0.030875300988554955,
                "z": 0.16403168439865112
            }
        },
        "name": "move_to_storage_A"
    },
    "id": "STRIDE_move_to_storage_A_119",
    "joint_names": [
        "shoulder_pan_joint",
        "shoulder_lift_joint",
        "elbow_joint",
        "wrist_1_joint",
        "wrist_2_joint",
        "wrist_3_joint"
    ],
    "metrics": {
        "cart_traj_len": 0.35352850991960444,
        "distance_elbow_joint": 0.4516642052385038,
        "distance_shoulder_lift_joint": 0.23603096058189532,
        "distance_shoulder_pan_joint": 0.46258908626681805,
        "distance_wrist_1_joint": 0.24581656343307123,
        "distance_wrist_2_joint": 1.0995128442452489,
        "distance_wrist_3_joint": 0.09756153693837977,
        "smoothness": 2.2204460668324854e-16,
        "time": 0.040352847,
        "traj_len": 1.6103338774005584,
        "weighted_distance": 2.033132479269119
    },
    "planner": "STRIDE",
    "start": {
        "state": {
            "elbow_joint": 1.971548259319323,
            "shoulder_lift_joint": -1.1394851275133948,
            "shoulder_pan_joint": 0.1228115487234821,
            "wrist_1_joint": -0.7804723859257726,
            "wrist_2_joint": 0.12958671773740124,
            "wrist_3_joint": -3.192489227718131
        }
    },
    "waypoints": [
        {
            "positions": [
                0.1228115487234821,
                -1.1394851275133948,
                1.971548259319323,
                -0.7804723859257726,
                0.12958671773740124,
                -3.192489227718131
            ]
        },
        {
            "positions": [
                0.056727393542508095,
                -1.1732038361679513,
                2.036071717210538,
                -0.8155890378447828,
                0.2866599812010082,
                -3.1785518652983624
            ]
        },
        {
            "positions": [
                -0.00935676163846591,
                -1.2069225448225078,
                2.100595175101753,
                -0.850705689763793,
                0.44373324466461517,
                -3.164614502878594
            ]
        },
        {
            "positions": [
                -0.0754409168194399,
                -1.2406412534770643,
                2.1651186329929675,
                -0.8858223416828032,
                0.6008065081282221,
                -3.1506771404588254
            ]
        },
        {
            "positions": [
                -0.14152507200041392,
                -1.2743599621316206,
                2.229642090884182,
                -0.9209389936018133,
                0.7578797715918292,
                -3.136739778039057
            ]
        },
        {
            "positions": [
                -0.20760922718138797,
                -1.3080786707861771,
                2.294165548775397,
                -0.9560556455208236,
                0.9149530350554362,
                -3.1228024156192884
            ]
        },
        {
            "positions": [
                -0.2736933823623619,
                -1.3417973794407336,
                2.358689006666612,
                -0.9911722974398336,
                1.072026298519043,
                -3.10886505319952
            ]
        },
        {
            "positions": [
                -0.33977753754333595,
                -1.3755160880952901,
                2.423212464557827,
                -1.0262889493588438,
                1.2290995619826501,
                -3.0949276907797514
            ]
        }
    ]
}{
    "goal": {
        "global_pose": {
            "orientation": {
                "w": 0.5084816217422485,
                "x": -0.49083608388900757,
                "y": 0.5182115435600281,
                "z": -0.4816462993621826
            },
            "position": {
                "x": 0.5540239810943604,
                "y": 0.030875300988554955,
                "z": 0.16403168439865112
            }
        },
        "name": "move_to_storage_A"
    },
    "id": "STRIDE_move_to_storage_A_119",
    "joint_names": [
        "shoulder_pan_joint",
        "shoulder_lift_joint",
        "elbow_joint",
        "wrist_1_joint",
        "wrist_2_joint",
        "wrist_3_joint"
    ],
    "metrics": {
        "cart_traj_len": 0.35349581043995737,
        "distance_elbow_joint": 0.4495738532384026,
        "distance_shoulder_lift_joint": 0.23348997663043258,
        "distance_shoulder_pan_joint": 0.46107716704574014,
        "distance_wrist_1_joint": 0.24029092242609296,
        "distance_wrist_2_joint": 1.1043841758039536,
        "distance_wrist_3_joint": 0.09007113447641935,
        "smoothness": 2.2204460668324854e-16,
        "time": 0.128885734,
        "traj_len": 1.6058914127739277,
        "weighted_distance": 2.025760251560862
    },
    "planner": "STRIDE",
    "start": {
        "state": {
            "elbow_joint": 1.97154746011099,
            "shoulder_lift_joint": -1.13948474672311,
            "shoulder_pan_joint": 0.12281154466712228,
            "wrist_1_joint": -0.7804688027058302,
            "wrist_2_joint": 0.12958655903071145,
            "wrist_3_joint": 3.0906928834467795
        }
    },
    "waypoints": [
        {
            "positions": [
                0.12281154466712228,
                -1.13948474672311,
                1.97154746011099,
                -0.7804688027058302,
                0.12958655903071145,
                3.0906928834467795
            ]
        },
        {
            "positions": [
                0.05694337794630226,
                -1.1728404576703146,
                2.0357722962879046,
                -0.8147960773381292,
                0.28735572700270484,
                3.1035601883719823
            ]
        },
        {
            "positions": [
                -0.008924788774517758,
                -1.2061961686175193,
                2.0999971324648192,
                -0.8491233519704282,
                0.4451248949746982,
                3.116427493297185
            ]
        },
        {
            "positions": [
                -0.07479295549533778,
                -1.239551879564724,
                2.164221968641734,
                -0.8834506266027271,
                0.6028940629466916,
                3.129294798222388
            ]
        },
        {
            "positions": [
                -0.14066112221615779,
                -1.2729075905119285,
                2.2284468048186485,
                -0.9177779012350261,
                0.7606632309186849,
                3.1421621031475904
            ]
        },
        {
            "positions": [
                -0.2065292889369778,
                -1.3062633014591332,
                2.292671640995563,
                -0.9521051758673251,
                0.9184323988906784,
                3.155029408072793
            ]
        },
        {
            "positions": [
                -0.2723974556577978,
                -1.3396190124063379,
                2.356896477172478,
                -0.9864324504996241,
                1.0762015668626717,
                3.167896712997996
            ]
        },
        {
            "positions": [
                -0.33826562237861785,
                -1.3729747233535425,
                2.4211213133493925,
                -1.0207597251319231,
                1.2339707348346651,
                3.180764017923199
            ]
        }
    ]
}{
    "goal": {
        "global_pose": {
            "orientation": {
                "w": 0.5084816217422485,
                "x": -0.49083608388900757,
                "y": 0.5182115435600281,
                "z": -0.4816462993621826
            },
            "position": {
                "x": 0.5540239810943604,
                "y": 0.030875300988554955,
                "z": 0.16403168439865112
            }
        },
        "name": "move_to_storage_A"
    },
    "id": "STRIDE_move_to_storage_A_119",
    "joint_names": [
        "shoulder_pan_joint",
        "shoulder_lift_joint",
        "elbow_joint",
        "wrist_1_joint",
        "wrist_2_joint",
        "wrist_3_joint"
    ],
    "metrics": {
        "cart_traj_len": 0.3532492461355559,
        "distance_elbow_joint": 0.45456361519100463,
        "distance_shoulder_lift_joint": 0.23566115483284,
        "distance_shoulder_pan_joint": 0.45888676303894,
        "distance_wrist_1_joint": 0.26036285805770576,
        "distance_wrist_2_joint": 1.1133054059036371,
        "distance_wrist_3_joint": 0.1103653236234563,
        "smoothness": 4.440892098500626e-16,
        "time": 0.066348474,
        "traj_len": 1.6226968665304016,
        "weighted_distance": 2.056099227142464
    },
    "planner": "STRIDE",
    "start": {
        "state": {
            "elbow_joint": 1.9715472970024885,
            "shoulder_lift_joint": -1.1394870060712896,
            "shoulder_pan_joint": 0.12281152778156021,
            "wrist_1_joint": -0.780463741449964,
            "wrist_2_joint": 0.12958659822042276,
            "wrist_3_joint": 3.090690232415272
        }
    },
    "waypoints": [
        {
            "positions": [
                0.12281152778156021,
                -1.1394870060712896,
                1.9715472970024885,
                -0.780463741449964,
                0.12958659822042276,
                3.090690232415272
            ]
        },
        {
            "positions": [
                0.0572562759188545,
                -1.173152885333124,
                2.036484956315489,
                -0.8176584354582077,
                0.28863022763522805,
                3.106456707218623
            ]
        },
        {
            "positions": [
                -0.008298975943851206,
                -1.2068187645949582,
                2.10142261562849,
                -0.8548531294664513,
                0.4476738570500334,
                3.1222231820219735
            ]
        },
        {
            "positions": [
                -0.0738542278065569,
                -1.2404846438567925,
                2.1663602749414905,
                -0.892047823474695,
                0.6067174864648387,
                3.1379896568253245
            ]
        },
        {
            "positions": [
                -0.13940947966926262,
                -1.2741505231186268,
                2.231297934254491,
                -0.9292425174829387,
                0.7657611158796439,
                3.1537561316286755
            ]
        },
        {
            "positions": [
                -0.20496473153196834,
                -1.307816402380461,
                2.296235593567492,
                -0.9664372114911823,
                0.9248047452944492,
                3.1695226064320265
            ]
        },
        {
            "positions": [
                -0.270519983394674,
                -1.3414822816422953,
                2.3611732528804925,
                -1.003631905499426,
                1.0838483747092547,
                3.185289081235377
            ]
        },
        {
            "positions": [
                -0.33607523525737976,
                -1.3751481609041296,
                2.426110912193493,
                -1.0408265995076698,
                1.2428920041240599,
                3.201055556038728
            ]
        }
    ]
}