{
    "goal": {
        "global_pose": {
            "orientation": {
                "w": 0.005598929693374612,
                "x": 0.007748599140229565,
                "y": 0.7110244013736278,
                "z": -0.7031023480610252
            },
            "position": {
                "x": 0.1141497679147869,
                "y": -0.7141253447532654,
                "z": 0.3711530566215515
            }
        },
        "name": "move_to_auspresseinheit_B"
    },
    "id": "STRIDE_move_to_auspresseinheit_B_122",
    "joint_names": [
        "shoulder_pan_joint",
        "shoulder_lift_joint",
        "elbow_joint",
        "wrist_1_joint",
        "wrist_2_joint",
        "wrist_3_joint"
    ],
    "metrics": {
        "cart_traj_len": 0.564156155331685,
        "distance_elbow_joint": 0.0635660410566865,
        "distance_shoulder_lift_joint": 0.2937940220675386,
        "distance_shoulder_pan_joint": 0.5746227109206257,
        "distance_wrist_1_joint": 0.329686670416536,
        "distance_wrist_2_joint": 1.0035565360882364,
        "distance_wrist_3_joint": 0.008789983547358826,
        "smoothness": 0.0,
        "time": 0.060350616999999995,
        "traj_len": 1.5079840728923437,
        "weighted_distance": 1.9039010314867924
    },
    "planner": "STRIDE",
    "start": {
        "state": {
            "elbow_joint": 2.0193083361928714,
            "shoulder_lift_joint": -1.1220246554650708,
            "shoulder_pan_joint": -1.0952077554168747,
            "wrist_1_joint": -0.8559753972642168,
            "wrist_2_joint": 0.4759566250798843,
            "wrist_3_joint": -3.1240929996934557
        }
    },
    "waypoints": [
        {
            "positions": [
                -1.0952077554168747,
                -1.1220246554650708,
                2.0193083361928714,
                -0.8559753972642168,
                0.4759566250798843,
                -3.1240929996934557
            ]
        },
        {
            "positions": [
                -1.190978207236979,
                -1.1709903258096606,
                2.008713996016757,
                -0.8010276188614608,
                0.643216047761257,
                -3.1226280024355626
            ]
        },
        {
            "positions": [
                -1.2867486590570831,
                -1.2199559961542503,
                1.9981196558406427,
                -0.7460798404587048,
                0.8104754704426298,
                -3.1211630051776695
            ]
        },
        {
            "positions": [
                -1.3825191108771875,
                -1.26892166649884,
                1.987525315664528,
                -0.6911320620559488,
                0.9777348931240024,
                -3.1196980079197765
            ]
        },
        {
            "positions": [
                -1.4782895626972916,
                -1.3178873368434298,
                1.9769309754884137,
                -0.6361842836531928,
                1.1449943158053753,
                -3.118233010661883
            ]
        },
        {
            "positions": [
                -1.574060014517396,
                -1.3668530071880196,
                1.9663366353122993,
                -0.5812365052504368,
                1.3122537384867479,
                -3.11676801340399
            ]
        },
        {
            "positions": [
                -1.6698304663375003,
                -1.4158186775326094,
                1.955742295136185,
                -0.5262887268476808,
                1.4795131611681207,
                -3.115303016146097
            ]
        }
    ]
}