{
    "goal": {
        "global_pose": {
            "orientation": {
                "w": -0.4816463035849501,
                "x": 0.5182115481033762,
                "y": 0.4908360881923453,
                "z": -0.5084816262002911
            },
            "position": {
                "x": -0.8240239810943604,
                "y": 0.19912469901144506,
                "z": 0.16403168439865112
            }
        },
        "name": "move_to_storage_D"
    },
    "id": "STRIDE_move_to_storage_D_128",
    "joint_names": [
        "shoulder_pan_joint",
        "shoulder_lift_joint",
        "elbow_joint",
        "wrist_1_joint",
        "wrist_2_joint",
        "wrist_3_joint"
    ],
    "metrics": {
        "cart_traj_len": 2.1381832219026276,
        "distance_elbow_joint": 1.0518183638846377,
        "distance_shoulder_lift_joint": 0.7608619699114723,
        "distance_shoulder_pan_joint": 2.0713299697582612,
        "distance_wrist_1_joint": 3.8325040588620736,
        "distance_wrist_2_joint": 3.1445493294796782,
        "distance_wrist_3_joint": 4.177375805547033,
        "smoothness": 0.3609447914459973,
        "time": 0.16789358100000001,
        "traj_len": 3.8779426887775372,
        "weighted_distance": 5.510920476370439
    },
    "planner": "STRIDE",
    "start": {
        "state": {
            "elbow_joint": -2.384821988534728,
            "shoulder_lift_joint": -2.2788054721415256,
            "shoulder_pan_joint": -0.1854694642142757,
            "wrist_1_joint": 1.4845938289331202,
            "wrist_2_joint": 0.17898776772866878,
            "wrist_3_joint": 0.037105688729662994
        }
    },
    "waypoints": [
        {
            "positions": [
                -0.1854694642142757,
                -2.2788054721415256,
                -2.384821988534728,
                1.4845938289331202,
                0.17898776772866878,
                0.037105688729662994
            ]
        },
        {
            "positions": [
                -0.08441382642362727,
                -2.2373436756142806,
                -2.311631415423196,
                1.4142147890113692,
                0.24110153822093086,
                -0.009158648052875543
            ]
        },
        {
            "positions": [
                0.01664181136702117,
                -2.195881879087036,
                -2.238440842311664,
                1.3438357490896182,
                0.3032153087131929,
                -0.05542298483541408
            ]
        },
        {
            "positions": [
                0.11769744915766958,
                -2.154420082559791,
                -2.1652502692001323,
                1.2734567091678675,
                0.365329079205455,
                -0.1016873216179526
            ]
        },
        {
            "positions": [
                0.21875308694831805,
                -2.112958286032546,
                -2.0920596960886004,
                1.2030776692461163,
                0.42744284969771706,
                -0.14795165840049115
            ]
        },
        {
            "positions": [
                0.3198087247389665,
                -2.071496489505301,
                -2.018869122977069,
                1.1326986293243655,
                0.48955662018997914,
                -0.19421599518302968
            ]
        },
        {
            "positions": [
                0.4208643625296149,
                -2.0300346929780564,
                -1.945678549865537,
                1.0623195894026145,
                0.5516703906822411,
                -0.2404803319655682
            ]
        },
        {
            "positions": [
                0.5219200003202633,
                -1.9885728964508114,
                -1.8724879767540052,
                0.9919405494808635,
                0.6137841611745033,
                -0.2867446687481068
            ]
        },
        {
            "positions": [
                0.6229756381109118,
                -1.9471110999235663,
                -1.7992974036424734,
                0.9215615095591125,
                0.6758979316667654,
                -0.3330090055306453
            ]
        },
        {
            "positions": [
                0.7240312759015602,
                -1.9056493033963215,
                -1.7261068305309415,
                0.8511824696373615,
                0.7380117021590273,
                -0.3792733423131839
            ]
        },
        {
            "positions": [
                0.8250869136922087,
                -1.8641875068690767,
                -1.6529162574194096,
                0.7808034297156107,
                0.8001254726512894,
                -0.4255376790957224
            ]
        },
        {
            "positions": [
                0.9261425514828571,
                -1.8227257103418317,
                -1.5797256843078777,
                0.7104243897938597,
                0.8622392431435515,
                -0.47180201587826087
            ]
        },
        {
            "positions": [
                0.8918669102663882,
                -1.8336107892029667,
                -1.588537186438513,
                0.6011981533751878,
                0.7743357483555231,
                -0.3407852979875784
            ]
        },
        {
            "positions": [
                0.8575912690499193,
                -1.8444958680641017,
                -1.5973486885691484,
                0.4919719169565159,
                0.6864322535674946,
                -0.20976858009689592
            ]
        },
        {
            "positions": [
                0.8233156278334504,
                -1.8553809469252365,
                -1.6061601906997836,
                0.38274568053784397,
                0.5985287587794662,
                -0.07875186220621344
            ]
        },
        {
            "positions": [
                0.7890399866169815,
                -1.8662660257863715,
                -1.6149716928304187,
                0.27351944411917206,
                0.5106252639914377,
                0.052264855684469036
            ]
        },
        {
            "positions": [
                0.7547643454005126,
                -1.8771511046475065,
                -1.6237831949610542,
                0.16429320770050015,
                0.4227217692034093,
                0.1832815735751515
            ]
        },
        {
            "positions": [
                0.7204887041840438,
                -1.8880361835086414,
                -1.6325946970916894,
                0.05506697128182825,
                0.3348182744153809,
                0.314298291465834
            ]
        },
        {
            "positions": [
                0.6862130629675749,
                -1.8989212623697762,
                -1.6414061992223246,
                -0.05415926513684366,
                0.24691477962735242,
                0.44531500935651647
            ]
        },
        {
            "positions": [
                0.651937421751106,
                -1.9098063412309112,
                -1.65021770135296,
                -0.16338550155551557,
                0.15901128483932403,
                0.5763317272471989
            ]
        },
        {
            "positions": [
                0.617661780534637,
                -1.9206914200920462,
                -1.6590292034835952,
                -0.2726117379741876,
                0.07110779005129553,
                0.7073484451378814
            ]
        },
        {
            "positions": [
                0.5833861393181682,
                -1.9315764989531812,
                -1.6678407056142304,
                -0.3818379743928594,
                -0.016795704736732864,
                0.8383651630285639
            ]
        },
        {
            "positions": [
                0.5491104981016993,
                -1.9424615778143162,
                -1.6766522077448656,
                -0.4910642108115312,
                -0.10469919952476137,
                0.9693818809192464
            ]
        },
        {
            "positions": [
                0.5148348568852305,
                -1.953346656675451,
                -1.685463709875501,
                -0.6002904472302032,
                -0.19260269431278965,
                1.100398598809929
            ]
        },
        {
            "positions": [
                0.48055921566876153,
                -1.964231735536586,
                -1.6942752120061362,
                -0.7095166836488752,
                -0.28050618910081826,
                1.2314153167006112
            ]
        },
        {
            "positions": [
                0.44628357445229266,
                -1.975116814397721,
                -1.7030867141367714,
                -0.818742920067547,
                -0.36840968388884665,
                1.362432034591294
            ]
        },
        {
            "positions": [
                0.41200793323582374,
                -1.986001893258856,
                -1.7118982162674068,
                -0.9279691564862188,
                -0.45631317867687504,
                1.4934487524819762
            ]
        },
        {
            "positions": [
                0.3777322920193549,
                -1.9968869721199907,
                -1.720709718398042,
                -1.037195392904891,
                -0.5442166734649034,
                1.6244654703726589
            ]
        },
        {
            "positions": [
                0.343456650802886,
                -2.0077720509811257,
                -1.7295212205286772,
                -1.1464216293235627,
                -0.6321201682529318,
                1.7554821882633411
            ]
        },
        {
            "positions": [
                0.30918100958641703,
                -2.0186571298422606,
                -1.7383327226593126,
                -1.255647865742235,
                -0.7200236630409604,
                1.8864989061540238
            ]
        },
        {
            "positions": [
                0.27490536836994817,
                -2.0295422087033956,
                -1.7471442247899478,
                -1.3648741021609068,
                -0.8079271578289888,
                2.0175156240447065
            ]
        },
        {
            "positions": [
                0.2406297271534793,
                -2.0404272875645306,
                -1.755955726920583,
                -1.4741003385795786,
                -0.8958306526170172,
                2.148532341935389
            ]
        },
        {
            "positions": [
                0.20635408593701043,
                -2.0513123664256656,
                -1.7647672290512184,
                -1.5833265749982504,
                -0.9837341474050458,
                2.2795490598260715
            ]
        },
        {
            "positions": [
                0.17207844472054157,
                -2.0621974452868006,
                -1.7735787311818536,
                -1.6925528114169222,
                -1.0716376421930742,
                2.4105657777167537
            ]
        },
        {
            "positions": [
                0.1378028035040727,
                -2.073082524147935,
                -1.7823902333124888,
                -1.8017790478355944,
                -1.1595411369811026,
                2.541582495607436
            ]
        },
        {
            "positions": [
                0.10352716228760384,
                -2.08396760300907,
                -1.7912017354431242,
                -1.9110052842542662,
                -1.2474446317691308,
                2.6725992134981187
            ]
        },
        {
            "positions": [
                0.06925152107113486,
                -2.094852681870205,
                -1.8000132375737594,
                -2.0202315206729384,
                -1.3353481265571594,
                2.8036159313888014
            ]
        },
        {
            "positions": [
                0.03497587985466599,
                -2.10573776073134,
                -1.8088247397043946,
                -2.1294577570916102,
                -1.423251621345188,
                2.9346326492794836
            ]
        },
        {
            "positions": [
                0.000700238638197126,
                -2.116622839592475,
                -1.81763624183503,
                -2.238683993510282,
                -1.5111551161332162,
                3.0656493671701663
            ]
        },
        {
            "positions": [
                -0.033575402578271754,
                -2.12750791845361,
                -1.8264477439656652,
                -2.347910229928954,
                -1.5990586109212448,
                3.1966660850608486
            ]
        }
    ]
}