{
    "goal": {
        "global_pose": {
            "orientation": {
                "w": 0.005598929693374612,
                "x": 0.007748599140229565,
                "y": 0.7110244013736278,
                "z": -0.7031023480610252
            },
            "position": {
                "x": -0.8858502320852131,
                "y": -0.7141253447532654,
                "z": 0.3711530566215515
            }
        },
        "name": "move_to_auspresseinheit_C"
    },
    "id": "STRIDE_move_to_auspresseinheit_C_21",
    "joint_names": [
        "shoulder_pan_joint",
        "shoulder_lift_joint",
        "elbow_joint",
        "wrist_1_joint",
        "wrist_2_joint",
        "wrist_3_joint"
    ],
    "metrics": {
        "cart_traj_len": 0.4932643001378263,
        "distance_elbow_joint": 0.9985314535850214,
        "distance_shoulder_lift_joint": 0.3245638737029619,
        "distance_shoulder_pan_joint": 0.2564533013862924,
        "distance_wrist_1_joint": 0.671250282836274,
        "distance_wrist_2_joint": 1.3207647314910533,
        "distance_wrist_3_joint": 0.05109556300924423,
        "smoothness": 1.6148698667872622e-16,
        "time": 0.061471913,
        "traj_len": 1.9033284545792004,
        "weighted_distance": 2.3909967265466223
    },
    "planner": "STRIDE",
    "start": {
        "state": {
            "elbow_joint": 1.7527959577737207,
            "shoulder_lift_joint": -0.9740617694225068,
            "shoulder_pan_joint": -2.967991417825858,
            "wrist_1_joint": -0.759517768980727,
            "wrist_2_joint": 1.7443932448377408,
            "wrist_3_joint": -3.0840537646736568
        }
    },
    "waypoints": [
        {
            "positions": [
                -2.967991417825858,
                -0.9740617694225068,
                1.7527959577737207,
                -0.759517768980727,
                1.7443932448377408,
                -3.0840537646736568
            ]
        },
        {
            "positions": [
                -2.9423460876872287,
                -0.9416053820522106,
                1.6529428124152186,
                -0.6923927406970996,
                1.6123167716886355,
                -3.0891633209745812
            ]
        },
        {
            "positions": [
                -2.9167007575485995,
                -0.9091489946819143,
                1.5530896670567165,
                -0.6252677124134722,
                1.4802402985395302,
                -3.0942728772755057
            ]
        },
        {
            "positions": [
                -2.8910554274099702,
                -0.8766926073116182,
                1.4532365216982144,
                -0.5581426841298448,
                1.348163825390425,
                -3.09938243357643
            ]
        },
        {
            "positions": [
                -2.865410097271341,
                -0.844236219941322,
                1.353383376339712,
                -0.49101765584621737,
                1.2160873522413196,
                -3.1044919898773546
            ]
        },
        {
            "positions": [
                -2.8397647671327118,
                -0.8117798325710258,
                1.25353023098121,
                -0.42389262756259,
                1.0840108790922143,
                -3.109601546178279
            ]
        },
        {
            "positions": [
                -2.8141194369940825,
                -0.7793234452007296,
                1.1536770856227079,
                -0.3567675992789626,
                0.9519344059431089,
                -3.114711102479203
            ]
        },
        {
            "positions": [
                -2.7884741068554533,
                -0.7468670578304335,
                1.0538239402642058,
                -0.28964257099533525,
                0.8198579327940035,
                -3.1198206587801276
            ]
        },
        {
            "positions": [
                -2.762828776716824,
                -0.7144106704601372,
                0.9539707949057035,
                -0.22251754271170776,
                0.6877814596448981,
                -3.124930215081052
            ]
        },
        {
            "positions": [
                -2.737183446578195,
                -0.6819542830898411,
                0.8541176495472014,
                -0.15539251442808044,
                0.5557049864957928,
                -3.1300397713819765
            ]
        },
        {
            "positions": [
                -2.7115381164395655,
                -0.6494978957195449,
                0.7542645041886993,
                -0.08826748614445298,
                0.42362851334668755,
                -3.135149327682901
            ]
        }
    ]
}