{
    "goal": {
        "global_pose": {
            "orientation": {
                "w": -0.4816463035849501,
                "x": 0.5182115481033762,
                "y": 0.4908360881923453,
                "z": -0.5084816262002911
            },
            "position": {
                "x": -0.8240239810943604,
                "y": -0.300875300988555,
                "z": 0.16403168439865112
            }
        },
        "name": "move_to_storage_C"
    },
    "id": "STRIDE_move_to_storage_C_11",
    "joint_names": [
        "shoulder_pan_joint",
        "shoulder_lift_joint",
        "elbow_joint",
        "wrist_1_joint",
        "wrist_2_joint",
        "wrist_3_joint"
    ],
    "metrics": {
        "cart_traj_len": 0.5765954272680162,
        "distance_elbow_joint": 0.25850369603410517,
        "distance_shoulder_lift_joint": 0.1887029259088151,
        "distance_shoulder_pan_joint": 0.49547575285339907,
        "distance_wrist_1_joint": 0.0853794589683029,
        "distance_wrist_2_joint": 1.0652058574072316,
        "distance_wrist_3_joint": 0.060940689469751064,
        "smoothness": 0.0,
        "time": 0.015978485,
        "traj_len": 1.4677221742011004,
        "weighted_distance": 1.8511280549861056
    },
    "planner": "STRIDE",
    "start": {
        "state": {
            "elbow_joint": 2.010868314990456,
            "shoulder_lift_joint": -1.1634956873337592,
            "shoulder_pan_joint": -2.4736205022346125,
            "wrist_1_joint": -0.8367026794202681,
            "wrist_2_joint": 0.6746043897044499,
            "wrist_3_joint": -3.1496632123970403
        }
    },
    "waypoints": [
        {
            "positions": [
                -2.4736205022346125,
                -1.1634956873337592,
                2.010868314990456,
                -0.8367026794202681,
                0.6746043897044499,
                -3.1496632123970403
            ]
        },
        {
            "positions": [
                -2.5561997943768455,
                -1.13204519968229,
                1.9677843656514382,
                -0.8224727695922176,
                0.8521386992723219,
                -3.1395064308187486
            ]
        },
        {
            "positions": [
                -2.638779086519079,
                -1.1005947120308208,
                1.9247004163124208,
                -0.8082428597641671,
                1.0296730088401937,
                -3.1293496492404564
            ]
        },
        {
            "positions": [
                -2.721358378661312,
                -1.0691442243793516,
                1.8816164669734032,
                -0.7940129499361166,
                1.2072073184080656,
                -3.1191928676621647
            ]
        },
        {
            "positions": [
                -2.803937670803545,
                -1.0376937367278825,
                1.8385325176343856,
                -0.7797830401080662,
                1.3847416279759375,
                -3.109036086083873
            ]
        },
        {
            "positions": [
                -2.8865169629457785,
                -1.0062432490764133,
                1.7954485682953683,
                -0.7655531302800157,
                1.5622759375438098,
                -3.098879304505581
            ]
        },
        {
            "positions": [
                -2.9690962550880116,
                -0.9747927614249441,
                1.7523646189563507,
                -0.7513232204519652,
                1.7398102471116816,
                -3.088722522927289
            ]
        }
    ]
}