{
    "goal": {
        "global_pose": {
            "orientation": {
                "w": 0.005598929693374612,
                "x": 0.007748599140229565,
                "y": 0.7110244013736278,
                "z": -0.7031023480610252
            },
            "position": {
                "x": -0.8858502320852131,
                "y": -0.7141253447532654,
                "z": 0.3711530566215515
            }
        },
        "name": "move_to_auspresseinheit_C"
    },
    "id": "STRIDE_move_to_auspresseinheit_C_122",
    "joint_names": [
        "shoulder_pan_joint",
        "shoulder_lift_joint",
        "elbow_joint",
        "wrist_1_joint",
        "wrist_2_joint",
        "wrist_3_joint"
    ],
    "metrics": {
        "cart_traj_len": 0.4944676084337632,
        "distance_elbow_joint": 1.0175597776162504,
        "distance_shoulder_lift_joint": 0.3330101652921802,
        "distance_shoulder_pan_joint": 0.2558090618408504,
        "distance_wrist_1_joint": 0.7064979873389413,
        "distance_wrist_2_joint": 1.317448329574368,
        "distance_wrist_3_joint": 0.07943891095764233,
        "smoothness": 9.689219200723571e-16,
        "time": 0.27354314999999996,
        "traj_len": 1.9260748252911235,
        "weighted_distance": 2.427465421267381
    },
    "planner": "STRIDE",
    "start": {
        "state": {
            "elbow_joint": 1.7527959577737207,
            "shoulder_lift_joint": -0.9740617694225068,
            "shoulder_pan_joint": -2.967991417825858,
            "wrist_1_joint": -0.759517768980727,
            "wrist_2_joint": 1.7443932448377408,
            "wrist_3_joint": -3.0840537646736568
        }
    },
    "waypoints": [
        {
            "positions": [
                -2.967991417825858,
                -0.9740617694225068,
                1.7527959577737207,
                -0.759517768980727,
                1.7443932448377408,
                -3.0840537646736568
            ]
        },
        {
            "positions": [
                -2.942410511641773,
                -0.9407607528932888,
                1.6510399800120956,
                -0.6888679702468329,
                1.612648411880304,
                -3.091997655769421
            ]
        },
        {
            "positions": [
                -2.916829605457688,
                -0.9074597363640707,
                1.5492840022504706,
                -0.6182181715129387,
                1.4809035789228673,
                -3.0999415468651854
            ]
        },
        {
            "positions": [
                -2.8912486992736026,
                -0.8741587198348527,
                1.4475280244888455,
                -0.5475683727790446,
                1.3491587459654304,
                -3.1078854379609493
            ]
        },
        {
            "positions": [
                -2.865667793089518,
                -0.8408577033056347,
                1.3457720467272205,
                -0.4769185740451504,
                1.2174139130079937,
                -3.1158293290567136
            ]
        },
        {
            "positions": [
                -2.840086886905433,
                -0.8075566867764167,
                1.2440160689655955,
                -0.4062687753112563,
                1.0856690800505568,
                -3.123773220152478
            ]
        },
        {
            "positions": [
                -2.8145059807213477,
                -0.7742556702471987,
                1.1422600912039704,
                -0.3356189765773622,
                0.9539242470931201,
                -3.1317171112482423
            ]
        },
        {
            "positions": [
                -2.7889250745372625,
                -0.7409546537179806,
                1.0405041134423454,
                -0.2649691778434681,
                0.8221794141356833,
                -3.1396610023440066
            ]
        },
        {
            "positions": [
                -2.7633441683531776,
                -0.7076536371887626,
                0.9387481356807204,
                -0.19431937910957386,
                0.6904345811782464,
                -3.1476048934397705
            ]
        },
        {
            "positions": [
                -2.737763262169093,
                -0.6743526206595446,
                0.8369921579190953,
                -0.12366958037567977,
                0.5586897482208095,
                -3.155548784535535
            ]
        },
        {
            "positions": [
                -2.7121823559850076,
                -0.6410516041303266,
                0.7352361801574703,
                -0.053019781641785675,
                0.4269449152633729,
                -3.163492675631299
            ]
        }
    ]
}