{
    "goal": {
        "global_pose": {
            "orientation": {
                "w": 0.7047431493862688,
                "x": -0.7094548369677653,
                "y": 0.0024358444001904,
                "z": -0.0022348060817251984
            },
            "position": {
                "x": -0.39052492380142206,
                "y": 0.3671506643295288,
                "z": 0.19426114857196808
            }
        },
        "name": "move_to_magneteinheit_D"
    },
    "id": "STRIDE_move_to_magneteinheit_D_43",
    "joint_names": [
        "shoulder_pan_joint",
        "shoulder_lift_joint",
        "elbow_joint",
        "wrist_1_joint",
        "wrist_2_joint",
        "wrist_3_joint"
    ],
    "metrics": {
        "cart_traj_len": 5.786052602189484,
        "distance_elbow_joint": 3.7731928391516134,
        "distance_shoulder_lift_joint": 1.1124319435442949,
        "distance_shoulder_pan_joint": 5.047654114231558,
        "distance_wrist_1_joint": 2.2406476965685123,
        "distance_wrist_2_joint": 1.0387751644845757,
        "distance_wrist_3_joint": 6.422500579768215,
        "smoothness": 0.6792875266069217,
        "time": 0.207675313,
        "traj_len": 4.431162639505436,
        "weighted_distance": 5.979935313892475
    },
    "planner": "STRIDE",
    "start": {
        "state": {
            "elbow_joint": 0.749534889911806,
            "shoulder_lift_joint": -0.6476975780787326,
            "shoulder_pan_joint": -2.711696901376241,
            "wrist_1_joint": -0.07506478083263063,
            "wrist_2_joint": 0.43296659715538205,
            "wrist_3_joint": -3.14703540197715
        }
    },
    "waypoints": [
        {
            "positions": [
                -2.711696901376241,
                -0.6476975780787326,
                0.749534889911806,
                -0.07506478083263063,
                0.43296659715538205,
                -3.14703540197715
            ]
        },
        {
            "positions": [
                -2.7397516398031962,
                -0.7035945771433787,
                0.8001601393009232,
                -0.11829421311372773,
                0.44991767957039214,
                -2.9951730697873105
            ]
        },
        {
            "positions": [
                -2.7746204119109494,
                -0.7016293701012687,
                0.735503506225937,
                -0.09823974058895468,
                0.5466706634833951,
                -3.0169881372852094
            ]
        },
        {
            "positions": [
                -2.809489184018703,
                -0.6996641630591587,
                0.6708468731509507,
                -0.07818526806418163,
                0.6434236473963981,
                -3.038803204783109
            ]
        },
        {
            "positions": [
                -2.791859796899609,
                -0.7469099630486954,
                0.7263419812776003,
                -0.12105767584642352,
                0.6143155507801913,
                -2.873313077388125
            ]
        },
        {
            "positions": [
                -2.774230409780515,
                -0.7941557630382321,
                0.78183708940425,
                -0.1639300836286654,
                0.5852074541639846,
                -2.7078229499931403
            ]
        },
        {
            "positions": [
                -2.756601022661421,
                -0.8414015630277689,
                0.8373321975308996,
                -0.20680249141090726,
                0.5560993575477777,
                -2.5423328225981567
            ]
        },
        {
            "positions": [
                -2.738971635542327,
                -0.8886473630173056,
                0.8928273056575493,
                -0.24967489919314914,
                0.5269912609315709,
                -2.3768426952031723
            ]
        },
        {
            "positions": [
                -2.721342248423233,
                -0.9358931630068423,
                0.9483224137841989,
                -0.292547306975391,
                0.4978831643153641,
                -2.2113525678081882
            ]
        },
        {
            "positions": [
                -2.636189739595995,
                -0.981231890755735,
                0.9500176752937408,
                -0.3225957980530764,
                0.4920707581506384,
                -1.9968259865082798
            ]
        },
        {
            "positions": [
                -2.551037230768757,
                -1.0265706185046277,
                0.9517129368032827,
                -0.35264428913076185,
                0.4862583519859127,
                -1.7822994052083712
            ]
        },
        {
            "positions": [
                -2.465884721941519,
                -1.0719093462535203,
                0.9534081983128246,
                -0.3826927802084472,
                0.480445945821187,
                -1.5677728239084627
            ]
        },
        {
            "positions": [
                -2.380732213114281,
                -1.117248074002413,
                0.9551034598223666,
                -0.41274127128613264,
                0.4746335396564613,
                -1.353246242608554
            ]
        },
        {
            "positions": [
                -2.295579704287043,
                -1.1625868017513057,
                0.9567987213319085,
                -0.44278976236381806,
                0.4688211334917356,
                -1.1387196613086457
            ]
        },
        {
            "positions": [
                -2.1533146680179875,
                -1.1849155748064062,
                0.9405545453328684,
                -0.49715537649068964,
                0.4474465444047151,
                -1.0135166965409963
            ]
        },
        {
            "positions": [
                -2.011049631748932,
                -1.207244347861507,
                0.9243103693338283,
                -0.5515209906175612,
                0.4260719553176946,
                -0.8883137317733469
            ]
        },
        {
            "positions": [
                -1.8687845954798767,
                -1.2295731209166074,
                0.9080661933347882,
                -0.6058866047444328,
                0.4046973662306741,
                -0.7631107670056976
            ]
        },
        {
            "positions": [
                -1.7265195592108213,
                -1.2519018939717081,
                0.8918220173357481,
                -0.6602522188713044,
                0.38332277714365354,
                -0.6379078022380482
            ]
        },
        {
            "positions": [
                -1.5842545229417657,
                -1.2742306670268086,
                0.875577841336708,
                -0.714617832998176,
                0.36194818805663304,
                -0.512704837470399
            ]
        },
        {
            "positions": [
                -1.4419894866727103,
                -1.2965594400819094,
                0.8593336653376679,
                -0.7689834471250476,
                0.34057359896961253,
                -0.3875018727027496
            ]
        },
        {
            "positions": [
                -1.2997244504036547,
                -1.3188882131370099,
                0.8430894893386278,
                -0.8233490612519192,
                0.319199009882592,
                -0.26229890793510013
            ]
        },
        {
            "positions": [
                -1.1574594141345995,
                -1.3412169861921106,
                0.8268453133395877,
                -0.8777146753787908,
                0.2978244207955715,
                -0.13709594316745077
            ]
        },
        {
            "positions": [
                -1.015194377865544,
                -1.363545759247211,
                0.8106011373405476,
                -0.9320802895056624,
                0.276449831708551,
                -0.011892978399801413
            ]
        },
        {
            "positions": [
                -0.8729293415964885,
                -1.3858745323023118,
                0.7943569613415075,
                -0.9864459036325339,
                0.2550752426215305,
                0.11330998636784773
            ]
        },
        {
            "positions": [
                -0.7306643053274331,
                -1.4082033053574123,
                0.7781127853424674,
                -1.0408115177594055,
                0.23370065353450997,
                0.2385129511354973
            ]
        },
        {
            "positions": [
                -0.5883992690583777,
                -1.430532078412513,
                0.7618686093434273,
                -1.095177131886277,
                0.21232606444748947,
                0.36371591590314645
            ]
        },
        {
            "positions": [
                -0.4461342327893223,
                -1.4528608514676136,
                0.7456244333443872,
                -1.1495427460131487,
                0.19095147536046897,
                0.4889188806707958
            ]
        },
        {
            "positions": [
                -0.30386919652026667,
                -1.4751896245227143,
                0.7293802573453471,
                -1.2039083601400202,
                0.1695768862734484,
                0.6141218454384454
            ]
        },
        {
            "positions": [
                -0.1616041602512115,
                -1.4975183975778148,
                0.713136081346307,
                -1.2582739742668918,
                0.1482022971864279,
                0.7393248102060945
            ]
        },
        {
            "positions": [
                -0.019339123982156092,
                -1.5198471706329153,
                0.6968919053472669,
                -1.3126395883937634,
                0.1268277080994074,
                0.8645277749737441
            ]
        },
        {
            "positions": [
                0.12292591228689931,
                -1.542175943688016,
                0.6806477293482268,
                -1.367005202520635,
                0.10545311901238691,
                0.9897307397413933
            ]
        },
        {
            "positions": [
                0.26519094855595515,
                -1.5645047167431168,
                0.6644035533491868,
                -1.4213708166475065,
                0.08407852992536641,
                1.1149337045090428
            ]
        },
        {
            "positions": [
                0.40745598482501055,
                -1.5868334897982173,
                0.6481593773501466,
                -1.4757364307743783,
                0.0627039408383459,
                1.240136669276692
            ]
        },
        {
            "positions": [
                0.549721021094066,
                -1.6091622628533178,
                0.6319152013511065,
                -1.5301020449012497,
                0.041329351751325405,
                1.365339634044341
            ]
        },
        {
            "positions": [
                0.6919860573631209,
                -1.6314910359084185,
                0.6156710253520664,
                -1.5844676590281215,
                0.019954762664304904,
                1.4905425988119907
            ]
        },
        {
            "positions": [
                0.8342510936321768,
                -1.6538198089635192,
                0.5994268493530264,
                -1.6388332731549928,
                -0.0014198264227156532,
                1.6157455635796403
            ]
        },
        {
            "positions": [
                0.9765161299012323,
                -1.6761485820186197,
                0.5831826733539862,
                -1.6931988872818646,
                -0.022794415509736175,
                1.7409485283472894
            ]
        },
        {
            "positions": [
                0.9037750975469095,
                -1.6809060889833678,
                0.3998272716381335,
                -1.7270923685331263,
                -0.032925668718325245,
                1.8314020520630507
            ]
        },
        {
            "positions": [
                0.8310340651925869,
                -1.6856635959481157,
                0.21647186992228074,
                -1.760985849784388,
                -0.04305692192691432,
                1.921855575778812
            ]
        },
        {
            "positions": [
                0.7582930328382642,
                -1.6904211029128637,
                0.033116468206427996,
                -1.7948793310356495,
                -0.05318817513550339,
                2.012309099494573
            ]
        },
        {
            "positions": [
                0.6855520004839415,
                -1.6951786098776116,
                -0.15023893350942474,
                -1.8287728122869111,
                -0.06331942834409246,
                2.1027626232103342
            ]
        },
        {
            "positions": [
                0.6128109681296188,
                -1.6999361168423597,
                -0.3335943352252775,
                -1.8626662935381728,
                -0.07345068155268153,
                2.193216146926096
            ]
        },
        {
            "positions": [
                0.540069935775296,
                -1.7046936238071075,
                -0.5169497369411302,
                -1.8965597747894343,
                -0.0835819347612706,
                2.283669670641857
            ]
        },
        {
            "positions": [
                0.46732890342097344,
                -1.7094511307718556,
                -0.700305138656983,
                -1.930453256040696,
                -0.09371318796985967,
                2.374123194357618
            ]
        },
        {
            "positions": [
                0.3945878710666507,
                -1.7142086377366037,
                -0.8836605403728357,
                -1.9643467372919576,
                -0.10384444117844874,
                2.4645767180733795
            ]
        },
        {
            "positions": [
                0.321846838712328,
                -1.7189661447013516,
                -1.0670159420886884,
                -1.9982402185432193,
                -0.11397569438703781,
                2.555030241789141
            ]
        },
        {
            "positions": [
                0.24910580635800528,
                -1.7237236516660996,
                -1.2503713438045412,
                -2.032133699794481,
                -0.12410694759562688,
                2.645483765504902
            ]
        },
        {
            "positions": [
                0.17636477400368267,
                -1.7284811586308475,
                -1.433726745520394,
                -2.0660271810457425,
                -0.13423820080421595,
                2.7359372892206633
            ]
        },
        {
            "positions": [
                0.10362374164935995,
                -1.7332386655955956,
                -1.6170821472362467,
                -2.099920662297004,
                -0.14436945401280504,
                2.826390812936425
            ]
        },
        {
            "positions": [
                0.030882709295037225,
                -1.7379961725603434,
                -1.8004375489520994,
                -2.133814143548266,
                -0.1545007072213941,
                2.916844336652186
            ]
        },
        {
            "positions": [
                -0.041858323059285385,
                -1.7427536795250915,
                -1.9837929506679521,
                -2.1677076247995273,
                -0.16463196042998318,
                3.007297860367947
            ]
        },
        {
            "positions": [
                -0.1145993554136081,
                -1.7475111864898394,
                -2.167148352383805,
                -2.2016011060507887,
                -0.17476321363857225,
                3.0977513840837085
            ]
        },
        {
            "positions": [
                -0.18734038776793077,
                -1.7522686934545875,
                -2.3505037540996576,
                -2.2354945873020506,
                -0.18489446684716132,
                3.1882049077994696
            ]
        }
    ]
}