{
    "goal": {
        "global_pose": {
            "orientation": {
                "w": 0.7031023480610252,
                "x": -0.7110244013736278,
                "y": 0.0077485991402295624,
                "z": 0.005598929693374583
            },
            "position": {
                "x": -0.8841497679147869,
                "y": 0.44412534475326537,
                "z": 0.3711530566215515
            }
        },
        "name": "move_to_auspresseinheit_D"
    },
    "id": "STRIDE_move_to_auspresseinheit_D_138",
    "joint_names": [
        "shoulder_pan_joint",
        "shoulder_lift_joint",
        "elbow_joint",
        "wrist_1_joint",
        "wrist_2_joint",
        "wrist_3_joint"
    ],
    "metrics": {
        "cart_traj_len": 0.34282193078055045,
        "distance_elbow_joint": 0.6372627223216247,
        "distance_shoulder_lift_joint": 0.12010456713767681,
        "distance_shoulder_pan_joint": 0.133056984604415,
        "distance_wrist_1_joint": 0.5308685031051619,
        "distance_wrist_2_joint": 1.4372062628655768,
        "distance_wrist_3_joint": 6.432340001749637e-05,
        "smoothness": 1.9737298371844314e-16,
        "time": 0.021029331999999998,
        "traj_len": 1.6907286486702922,
        "weighted_distance": 2.19699039055824
    },
    "planner": "STRIDE",
    "start": {
        "state": {
            "elbow_joint": -1.8275523626775212,
            "shoulder_lift_joint": -2.126789852344167,
            "shoulder_pan_joint": -0.03513704404078235,
            "wrist_1_joint": -2.347782403156801,
            "wrist_2_joint": -1.6058999987535132,
            "wrist_3_joint": -3.0880379163319196
        }
    },
    "waypoints": [
        {
            "positions": [
                -0.03513704404078235,
                -2.126789852344167,
                -1.8275523626775212,
                -2.347782403156801,
                -1.6058999987535132,
                -3.0880379163319196
            ]
        },
        {
            "positions": [
                -0.051769167116334225,
                -2.1418029232363764,
                -1.7478945223873181,
                -2.414140966044946,
                -1.4262492158953162,
                -3.0880298759069174
            ]
        },
        {
            "positions": [
                -0.0684012901918861,
                -2.156815994128586,
                -1.668236682097115,
                -2.480499528933091,
                -1.246598433037119,
                -3.088021835481915
            ]
        },
        {
            "positions": [
                -0.08503341326743798,
                -2.1718290650207956,
                -1.588578841806912,
                -2.5468580918212367,
                -1.066947650178922,
                -3.088013795056913
            ]
        },
        {
            "positions": [
                -0.10166553634298986,
                -2.1868421359130052,
                -1.508921001516709,
                -2.613216654709382,
                -0.8872968673207248,
                -3.0880057546319106
            ]
        },
        {
            "positions": [
                -0.11829765941854173,
                -2.201855206805215,
                -1.4292631612265057,
                -2.679575217597527,
                -0.7076460844625276,
                -3.087997714206909
            ]
        },
        {
            "positions": [
                -0.1349297824940936,
                -2.2168682776974244,
                -1.3496053209363026,
                -2.7459337804856725,
                -0.5279953016043306,
                -3.0879896737819066
            ]
        },
        {
            "positions": [
                -0.1515619055696455,
                -2.231881348589634,
                -1.2699474806460995,
                -2.8122923433738176,
                -0.34834451874613337,
                -3.0879816333569043
            ]
        },
        {
            "positions": [
                -0.16819402864519736,
                -2.2468944194818437,
                -1.1902896403558965,
                -2.8786509062619627,
                -0.16869373588793635,
                -3.087973592931902
            ]
        }
    ]
}