{
    "goal": {
        "global_pose": {
            "orientation": {
                "w": 0.005598929693374612,
                "x": 0.007748599140229565,
                "y": 0.7110244013736278,
                "z": -0.7031023480610252
            },
            "position": {
                "x": -0.8858502320852131,
                "y": -0.7141253447532654,
                "z": 0.3711530566215515
            }
        },
        "name": "move_to_auspresseinheit_C"
    },
    "id": "STRIDE_move_to_auspresseinheit_C_120",
    "joint_names": [
        "shoulder_pan_joint",
        "shoulder_lift_joint",
        "elbow_joint",
        "wrist_1_joint",
        "wrist_2_joint",
        "wrist_3_joint"
    ],
    "metrics": {
        "cart_traj_len": 0.49445574225283545,
        "distance_elbow_joint": 1.00998522783029,
        "distance_shoulder_lift_joint": 0.3296733140926791,
        "distance_shoulder_pan_joint": 0.25675821661350806,
        "distance_wrist_1_joint": 0.6930992113470861,
        "distance_wrist_2_joint": 1.3201655714484828,
        "distance_wrist_3_joint": 0.06445373740253935,
        "smoothness": 4.844609574787718e-16,
        "time": 0.234698639,
        "traj_len": 1.9168034011694015,
        "weighted_distance": 2.411702207225269
    },
    "planner": "STRIDE",
    "start": {
        "state": {
            "elbow_joint": 1.7527959577737207,
            "shoulder_lift_joint": -0.9740617694225068,
            "shoulder_pan_joint": -2.967991417825858,
            "wrist_1_joint": -0.759517768980727,
            "wrist_2_joint": 1.7443932448377408,
            "wrist_3_joint": -3.0840537646736568
        }
    },
    "waypoints": [
        {
            "positions": [
                -2.967991417825858,
                -0.9740617694225068,
                1.7527959577737207,
                -0.759517768980727,
                1.7443932448377408,
                -3.0840537646736568
            ]
        },
        {
            "positions": [
                -2.9423155961645073,
                -0.9410944380132389,
                1.6517974349906916,
                -0.6902078478460184,
                1.6123766876928927,
                -3.090499138413911
            ]
        },
        {
            "positions": [
                -2.9166397745031563,
                -0.908127106603971,
                1.5507989122076626,
                -0.6208979267113097,
                1.4803601305480443,
                -3.0969445121541646
            ]
        },
        {
            "positions": [
                -2.8909639528418056,
                -0.875159775194703,
                1.4498003894246336,
                -0.5515880055766011,
                1.3483435734031959,
                -3.1033898858944187
            ]
        },
        {
            "positions": [
                -2.8652881311804546,
                -0.8421924437854351,
                1.3488018666416046,
                -0.4822780844418925,
                1.2163270162583477,
                -3.1098352596346723
            ]
        },
        {
            "positions": [
                -2.839612309519104,
                -0.8092251123761672,
                1.2478033438585756,
                -0.41296816330718394,
                1.0843104591134995,
                -3.1162806333749264
            ]
        },
        {
            "positions": [
                -2.8139364878577533,
                -0.7762577809668993,
                1.1468048210755466,
                -0.34365824217247537,
                0.9522939019686512,
                -3.1227260071151806
            ]
        },
        {
            "positions": [
                -2.7882606661964022,
                -0.7432904495576315,
                1.0458062982925176,
                -0.27434832103776674,
                0.820277344823803,
                -3.1291713808554342
            ]
        },
        {
            "positions": [
                -2.7625848445350516,
                -0.7103231181483636,
                0.9448077755094886,
                -0.20503839990305806,
                0.6882607876789546,
                -3.1356167545956883
            ]
        },
        {
            "positions": [
                -2.7369090228737005,
                -0.6773557867390956,
                0.8438092527264596,
                -0.13572847876834948,
                0.5562442305341062,
                -3.142062128335942
            ]
        },
        {
            "positions": [
                -2.71123320121235,
                -0.6443884553298277,
                0.7428107299434304,
                -0.06641855763364089,
                0.42422767338925804,
                -3.148507502076196
            ]
        }
    ]
}