{
    "goal": {
        "global_pose": {
            "orientation": {
                "w": -0.4816463035849501,
                "x": 0.5182115481033762,
                "y": 0.4908360881923453,
                "z": -0.5084816262002911
            },
            "position": {
                "x": -0.8240239810943604,
                "y": 0.19912469901144506,
                "z": 0.16403168439865112
            }
        },
        "name": "move_to_storage_D"
    },
    "id": "STRIDE_move_to_storage_D_140",
    "joint_names": [
        "shoulder_pan_joint",
        "shoulder_lift_joint",
        "elbow_joint",
        "wrist_1_joint",
        "wrist_2_joint",
        "wrist_3_joint"
    ],
    "metrics": {
        "cart_traj_len": 3.8997149680951884,
        "distance_elbow_joint": 4.214420179984052,
        "distance_shoulder_lift_joint": 1.26341624221861,
        "distance_shoulder_pan_joint": 2.81442362428595,
        "distance_wrist_1_joint": 2.42918789799848,
        "distance_wrist_2_joint": 1.0547520956276255,
        "distance_wrist_3_joint": 3.1228456387579864,
        "smoothness": 0.04988697794284534,
        "time": 0.09076740999999999,
        "traj_len": 3.859928196077318,
        "weighted_distance": 4.962728780622087
    },
    "planner": "STRIDE",
    "start": {
        "state": {
            "elbow_joint": -2.384821988534728,
            "shoulder_lift_joint": -2.2788054721415256,
            "shoulder_pan_joint": -0.1854694642142757,
            "wrist_1_joint": 1.4845938289331202,
            "wrist_2_joint": 0.17898776772866878,
            "wrist_3_joint": 0.037105688729662994
        }
    },
    "waypoints": [
        {
            "positions": [
                -0.1854694642142757,
                -2.2788054721415256,
                -2.384821988534728,
                1.4845938289331202,
                0.17898776772866878,
                0.037105688729662994
            ]
        },
        {
            "positions": [
                -0.10925671155979483,
                -2.254246491553942,
                -2.2604730306035576,
                1.4109472789281203,
                0.20930133150704572,
                -0.024953976338397875
            ]
        },
        {
            "positions": [
                -0.03304395890531395,
                -2.229687510966359,
                -2.1361240726723874,
                1.3373007289231205,
                0.23961489528542265,
                -0.08701364140645874
            ]
        },
        {
            "positions": [
                0.043168793749166934,
                -2.2051285303787758,
                -2.011775114741217,
                1.2636541789181206,
                0.2699284590637996,
                -0.1490733064745196
            ]
        },
        {
            "positions": [
                0.11938154640364781,
                -2.1805695497911923,
                -1.8874261568100468,
                1.1900076289131207,
                0.30024202284217655,
                -0.21113297154258048
            ]
        },
        {
            "positions": [
                0.19559429905812872,
                -2.156010569203609,
                -1.7630771988788765,
                1.1163610789081209,
                0.3305555866205535,
                -0.2731926366106413
            ]
        },
        {
            "positions": [
                0.27180705171260955,
                -2.131451588616026,
                -1.638728240947706,
                1.042714528903121,
                0.3608691503989304,
                -0.33525230167870224
            ]
        },
        {
            "positions": [
                0.34801980436709046,
                -2.1068926080284425,
                -1.5143792830165357,
                0.9690679788981211,
                0.3911827141773073,
                -0.39731196674676306
            ]
        },
        {
            "positions": [
                0.42423255702157137,
                -2.082333627440859,
                -1.3900303250853654,
                0.8954214288931213,
                0.4214962779556843,
                -0.459371631814824
            ]
        },
        {
            "positions": [
                0.5004453096760523,
                -2.057774646853276,
                -1.265681367154195,
                0.8217748788881214,
                0.45180984173406125,
                -0.5214312968828848
            ]
        },
        {
            "positions": [
                0.5766580623305332,
                -2.0332156662656926,
                -1.1413324092230248,
                0.7481283288831215,
                0.48212340551243815,
                -0.5834909619509456
            ]
        },
        {
            "positions": [
                0.652870814985014,
                -2.008656685678109,
                -1.0169834512918545,
                0.6744817788781217,
                0.5124369692908151,
                -0.6455506270190066
            ]
        },
        {
            "positions": [
                0.7290835676394949,
                -1.984097705090526,
                -0.892634493360684,
                0.6008352288731218,
                0.5427505330691921,
                -0.7076102920870674
            ]
        },
        {
            "positions": [
                0.8052963202939758,
                -1.9595387245029428,
                -0.7682855354295137,
                0.5271886788681219,
                0.573064096847569,
                -0.7696699571551283
            ]
        },
        {
            "positions": [
                0.8815090729484566,
                -1.9349797439153593,
                -0.6439365774983434,
                0.45354212886312206,
                0.6033776606259459,
                -0.8317296222231891
            ]
        },
        {
            "positions": [
                0.9577218256029375,
                -1.910420763327776,
                -0.5195876195671731,
                0.3798955788581222,
                0.6336912244043228,
                -0.8937892872912501
            ]
        },
        {
            "positions": [
                1.0339345782574183,
                -1.885861782740193,
                -0.39523866163600285,
                0.30624902885312233,
                0.6640047881826998,
                -0.9558489523593109
            ]
        },
        {
            "positions": [
                1.1101473309118992,
                -1.8613028021526095,
                -0.27088970370483256,
                0.23260247884812246,
                0.6943183519610767,
                -1.0179086174273717
            ]
        },
        {
            "positions": [
                1.1863600835663801,
                -1.8367438215650262,
                -0.14654074577366227,
                0.1589559288431226,
                0.7246319157394536,
                -1.0799682824954326
            ]
        },
        {
            "positions": [
                1.262572836220861,
                -1.8121848409774428,
                -0.022191787842491983,
                0.08530937883812273,
                0.7549454795178305,
                -1.1420279475634936
            ]
        },
        {
            "positions": [
                1.338785588875342,
                -1.7876258603898596,
                0.1021571700886783,
                0.011662828833122862,
                0.7852590432962075,
                -1.2040876126315543
            ]
        },
        {
            "positions": [
                1.4149983415298226,
                -1.7630668798022762,
                0.2265061280198486,
                -0.061983721171877004,
                0.8155726070745845,
                -1.2661472776996152
            ]
        },
        {
            "positions": [
                1.4912110941843035,
                -1.738507899214693,
                0.3508550859510189,
                -0.13563027117687687,
                0.8458861708529614,
                -1.3282069427676761
            ]
        },
        {
            "positions": [
                1.5674238468387844,
                -1.7139489186271097,
                0.4752040438821892,
                -0.20927682118187674,
                0.8761997346313383,
                -1.390266607835737
            ]
        },
        {
            "positions": [
                1.6436365994932653,
                -1.6893899380395263,
                0.5995530018133599,
                -0.2829233711868766,
                0.9065132984097153,
                -1.4523262729037978
            ]
        },
        {
            "positions": [
                1.7198493521477463,
                -1.664830957451943,
                0.7239019597445302,
                -0.35656992119187647,
                0.9368268621880922,
                -1.5143859379718587
            ]
        },
        {
            "positions": [
                1.7960621048022272,
                -1.6402719768643599,
                0.8482509176757005,
                -0.43021647119687634,
                0.9671404259664691,
                -1.5764456030399197
            ]
        },
        {
            "positions": [
                1.8722748574567079,
                -1.6157129962767764,
                0.9725998756068708,
                -0.5038630212018762,
                0.9974539897448461,
                -1.6385052681079804
            ]
        },
        {
            "positions": [
                1.9484876101111888,
                -1.591154015689193,
                1.096948833538041,
                -0.5775095712068761,
                1.0277675535232231,
                -1.7005649331760413
            ]
        },
        {
            "positions": [
                2.0247003627656697,
                -1.5665950351016098,
                1.2212977914692114,
                -0.6511561212118759,
                1.0580811173016,
                -1.7626245982441022
            ]
        },
        {
            "positions": [
                2.1009131154201506,
                -1.5420360545140266,
                1.3456467494003816,
                -0.7248026712168758,
                1.088394681079977,
                -1.8246842633121632
            ]
        },
        {
            "positions": [
                2.1771258680746315,
                -1.5174770739264432,
                1.469995707331552,
                -0.7984492212218757,
                1.1187082448583539,
                -1.8867439283802239
            ]
        },
        {
            "positions": [
                2.2533386207291124,
                -1.49291809333886,
                1.594344665262722,
                -0.8720957712268758,
                1.1490218086367308,
                -1.9488035934482848
            ]
        },
        {
            "positions": [
                2.3069979834923355,
                -1.4246996842794393,
                1.627952311860808,
                -0.8617388715356639,
                1.1369192293910788,
                -2.111223072959719
            ]
        },
        {
            "positions": [
                2.3606573462555587,
                -1.3564812752200188,
                1.6615599584588936,
                -0.8513819718444519,
                1.1248166501454269,
                -2.273642552471153
            ]
        },
        {
            "positions": [
                2.414316709018782,
                -1.2882628661605982,
                1.6951676050569795,
                -0.84102507215324,
                1.112714070899775,
                -2.436062031982587
            ]
        },
        {
            "positions": [
                2.467976071782005,
                -1.2200444571011775,
                1.7287752516550654,
                -0.830668172462028,
                1.100611491654123,
                -2.598481511494021
            ]
        },
        {
            "positions": [
                2.521635434545228,
                -1.151826048041757,
                1.7623828982531513,
                -0.8203112727708161,
                1.088508912408471,
                -2.760900991005455
            ]
        },
        {
            "positions": [
                2.5752947973084512,
                -1.0836076389823364,
                1.795990544851237,
                -0.809954373079604,
                1.076406333162819,
                -2.9233204705168894
            ]
        },
        {
            "positions": [
                2.6289541600716744,
                -1.0153892299229157,
                1.829598191449323,
                -0.7995974733883922,
                1.0643037539171671,
                -3.0857399500283234
            ]
        }
    ]
}