{
    "goal": {
        "global_pose": {
            "orientation": {
                "w": -0.4816463035849501,
                "x": 0.5182115481033762,
                "y": 0.4908360881923453,
                "z": -0.5084816262002911
            },
            "position": {
                "x": -0.8240239810943604,
                "y": -0.300875300988555,
                "z": 0.16403168439865112
            }
        },
        "name": "move_to_storage_C"
    },
    "id": "STRIDE_move_to_storage_C_21",
    "joint_names": [
        "shoulder_pan_joint",
        "shoulder_lift_joint",
        "elbow_joint",
        "wrist_1_joint",
        "wrist_2_joint",
        "wrist_3_joint"
    ],
    "metrics": {
        "cart_traj_len": 0.5758781248774081,
        "distance_elbow_joint": 0.2555159076757678,
        "distance_shoulder_lift_joint": 0.18978065158870994,
        "distance_shoulder_pan_joint": 0.4925321510592866,
        "distance_wrist_1_joint": 0.06546139245313787,
        "distance_wrist_2_joint": 1.0765215018150398,
        "distance_wrist_3_joint": 0.07127253540640677,
        "smoothness": 5.075305295617109e-16,
        "time": 0.011936569999999999,
        "traj_len": 1.4666574719403127,
        "weighted_distance": 1.8535404244524425
    },
    "planner": "STRIDE",
    "start": {
        "state": {
            "elbow_joint": 2.010868314990456,
            "shoulder_lift_joint": -1.1634956873337592,
            "shoulder_pan_joint": -2.4736205022346125,
            "wrist_1_joint": -0.8367026794202681,
            "wrist_2_joint": 0.6746043897044499,
            "wrist_3_joint": -3.1496632123970403
        }
    },
    "waypoints": [
        {
            "positions": [
                -2.4736205022346125,
                -1.1634956873337592,
                2.010868314990456,
                -0.8367026794202681,
                0.6746043897044499,
                -3.1496632123970403
            ]
        },
        {
            "positions": [
                -2.555709194077827,
                -1.1318655787356409,
                1.9682823303778278,
                -0.8257924473447451,
                0.8540246400069565,
                -3.1377844564959725
            ]
        },
        {
            "positions": [
                -2.6377978859210414,
                -1.1002354701375225,
                1.9256963457651999,
                -0.8148822152692221,
                1.0334448903094633,
                -3.1259057005949047
            ]
        },
        {
            "positions": [
                -2.719886577764256,
                -1.0686053615394042,
                1.883110361152572,
                -0.8039719831936991,
                1.21286514061197,
                -3.114026944693837
            ]
        },
        {
            "positions": [
                -2.8019752696074702,
                -1.036975252941286,
                1.840524376539944,
                -0.7930617511181762,
                1.3922853909144766,
                -3.102148188792769
            ]
        },
        {
            "positions": [
                -2.8840639614506847,
                -1.0053451443431676,
                1.797938391927316,
                -0.7821515190426532,
                1.5717056412169832,
                -3.0902694328917013
            ]
        },
        {
            "positions": [
                -2.966152653293899,
                -0.9737150357450493,
                1.755352407314688,
                -0.7712412869671302,
                1.7511258915194898,
                -3.0783906769906335
            ]
        }
    ]
}