{
    "goal": {
        "global_pose": {
            "orientation": {
                "w": 0.7031023502349854,
                "x": -0.7110244035720825,
                "y": 0.007748599164187908,
                "z": 0.005598929710686207
            },
            "position": {
                "x": 0.11585023208521307,
                "y": 0.44412534475326537,
                "z": 0.3711530566215515
            }
        },
        "name": "move_to_auspresseinheit_A"
    },
    "id": "STRIDE_move_to_auspresseinheit_A_17",
    "joint_names": [
        "shoulder_pan_joint",
        "shoulder_lift_joint",
        "elbow_joint",
        "wrist_1_joint",
        "wrist_2_joint",
        "wrist_3_joint"
    ],
    "metrics": {
        "cart_traj_len": 2.3540131447438655,
        "distance_elbow_joint": 2.383958372320384,
        "distance_shoulder_lift_joint": 0.6831299617653357,
        "distance_shoulder_pan_joint": 1.7721713125682488,
        "distance_wrist_1_joint": 0.9051244742511866,
        "distance_wrist_2_joint": 0.5448286404860795,
        "distance_wrist_3_joint": 2.5166874464335063,
        "smoothness": 0.6150636909566825,
        "time": 0.6379011,
        "traj_len": 2.9674737080258593,
        "weighted_distance": 3.910144270411134
    },
    "planner": "STRIDE",
    "start": {
        "state": {
            "elbow_joint": 2.4225746658250005,
            "shoulder_lift_joint": -1.3736534386056498,
            "shoulder_pan_joint": -0.3378633547517467,
            "wrist_1_joint": -1.0288598680537169,
            "wrist_2_joint": 1.233022673432363,
            "wrist_3_joint": -3.0940220416140027
        }
    },
    "waypoints": [
        {
            "positions": [
                -0.3378633547517467,
                -1.3736534386056498,
                2.4225746658250005,
                -1.0288598680537169,
                1.233022673432363,
                -3.0940220416140027
            ]
        },
        {
            "positions": [
                -0.2764893204060366,
                -1.403888796040446,
                2.2970501788971815,
                -0.9897866432413637,
                1.1880868249563843,
                -3.0177091190435226
            ]
        },
        {
            "positions": [
                -0.21511528606032637,
                -1.4341241534752422,
                2.171525691969362,
                -0.9507134184290106,
                1.1431509764804053,
                -2.9413961964730424
            ]
        },
        {
            "positions": [
                -0.15374125171461622,
                -1.4643595109100385,
                2.0460012050415433,
                -0.9116401936166574,
                1.0982151280044263,
                -2.8650832739025622
            ]
        },
        {
            "positions": [
                -0.09236721736890605,
                -1.4945948683448345,
                1.920476718113724,
                -0.8725669688043043,
                1.0532792795284476,
                -2.788770351332082
            ]
        },
        {
            "positions": [
                -0.03099318302319587,
                -1.5248302257796307,
                1.794952231185905,
                -0.8334937439919511,
                1.0083434310524688,
                -2.712457428761602
            ]
        },
        {
            "positions": [
                0.03038085132251428,
                -1.555065583214427,
                1.6694277442580858,
                -0.794420519179598,
                0.9634075825764898,
                -2.6361445061911217
            ]
        },
        {
            "positions": [
                0.09175488566822448,
                -1.5853009406492231,
                1.5439032573302667,
                -0.7553472943672448,
                0.918471734100511,
                -2.5598315836206416
            ]
        },
        {
            "positions": [
                0.20400452227020377,
                -1.6237814804658566,
                1.498049416706314,
                -0.689441354809571,
                0.8868961767404564,
                -2.4590255551306885
            ]
        },
        {
            "positions": [
                0.3162541588721831,
                -1.66226202028249,
                1.4521955760823615,
                -0.6235354152518972,
                0.8553206193804019,
                -2.3582195266407355
            ]
        },
        {
            "positions": [
                0.4285037954741624,
                -1.7007425600991235,
                1.406341735458409,
                -0.5576294756942234,
                0.8237450620203474,
                -2.2574134981507825
            ]
        },
        {
            "positions": [
                0.5407534320761417,
                -1.739223099915757,
                1.3604878948344563,
                -0.49172353613654957,
                0.7921695046602928,
                -2.1566074696608295
            ]
        },
        {
            "positions": [
                0.653003068678121,
                -1.7777036397323904,
                1.3146340542105037,
                -0.42581759657887575,
                0.7605939473002383,
                -2.0558014411708765
            ]
        },
        {
            "positions": [
                0.7652527052801004,
                -1.816184179549024,
                1.2687802135865511,
                -0.3599116570212019,
                0.7290183899401838,
                -1.9549954126809235
            ]
        },
        {
            "positions": [
                0.8775023418820797,
                -1.8546647193656574,
                1.2229263729625985,
                -0.2940057174635281,
                0.6974428325801292,
                -1.8541893841909702
            ]
        },
        {
            "positions": [
                0.9257454627443973,
                -1.881558273375536,
                1.4297629197367334,
                -0.3161618976052405,
                0.6975886995227363,
                -1.9076963782993814
            ]
        },
        {
            "positions": [
                0.973988583606715,
                -1.9084518273854147,
                1.6365994665108685,
                -0.33831807774695283,
                0.6977345664653433,
                -1.9612033724077924
            ]
        },
        {
            "positions": [
                1.0222317044690326,
                -1.9353453813952937,
                1.8434360132850034,
                -0.36047425788866516,
                0.6978804334079503,
                -2.0147103665162036
            ]
        },
        {
            "positions": [
                1.0704748253313503,
                -1.9622389354051724,
                2.0502725600591383,
                -0.38263043803037755,
                0.6980263003505573,
                -2.068217360624615
            ]
        },
        {
            "positions": [
                1.0337868934965313,
                -1.9686392168625242,
                2.1667488085328963,
                -0.4078006120016277,
                0.6993176022753878,
                -2.207070910310958
            ]
        },
        {
            "positions": [
                0.9970989616617124,
                -1.9750394983198762,
                2.283225057006654,
                -0.4329707859728779,
                0.7006089042002182,
                -2.3459244599973013
            ]
        },
        {
            "positions": [
                0.9604110298268934,
                -1.981439779777228,
                2.399701305480412,
                -0.45814095994412807,
                0.7019002061250486,
                -2.4847780096836445
            ]
        },
        {
            "positions": [
                0.8758212508333285,
                -1.956325239579309,
                2.397189589833689,
                -0.4601859870042607,
                0.7034973481546907,
                -2.700200064189578
            ]
        },
        {
            "positions": [
                0.7912314718397635,
                -1.9312106993813898,
                2.394677874186966,
                -0.4622310140643934,
                0.7050944901843327,
                -2.9156221186955107
            ]
        },
        {
            "positions": [
                0.7066416928461986,
                -1.9060961591834706,
                2.392166158540243,
                -0.46427604112452603,
                0.7066916322139748,
                -3.131044173201444
            ]
        }
    ]
}