{
    "goal": {
        "global_pose": {
            "orientation": {
                "w": 0.005598929693374612,
                "x": 0.007748599140229565,
                "y": 0.7110244013736278,
                "z": -0.7031023480610252
            },
            "position": {
                "x": -0.8858502320852131,
                "y": -0.7141253447532654,
                "z": 0.3711530566215515
            }
        },
        "name": "move_to_auspresseinheit_C"
    },
    "id": "STRIDE_move_to_auspresseinheit_C_12",
    "joint_names": [
        "shoulder_pan_joint",
        "shoulder_lift_joint",
        "elbow_joint",
        "wrist_1_joint",
        "wrist_2_joint",
        "wrist_3_joint"
    ],
    "metrics": {
        "cart_traj_len": 0.4926655704393346,
        "distance_elbow_joint": 0.9952890243519893,
        "distance_shoulder_lift_joint": 0.3215802875871969,
        "distance_shoulder_pan_joint": 0.2562571042238524,
        "distance_wrist_1_joint": 0.6761795024079974,
        "distance_wrist_2_joint": 1.3016934034260133,
        "distance_wrist_3_joint": 0.04858911957870493,
        "smoothness": 9.689219124001365e-16,
        "time": 4.159948833,
        "traj_len": 1.8972581378335827,
        "weighted_distance": 2.3821502023523147
    },
    "planner": "STRIDE",
    "start": {
        "state": {
            "elbow_joint": 1.7527959577737207,
            "shoulder_lift_joint": -0.9740617694225068,
            "shoulder_pan_joint": -2.967991417825858,
            "wrist_1_joint": -0.759517768980727,
            "wrist_2_joint": 1.7443932448377408,
            "wrist_3_joint": -3.0840537646736568
        }
    },
    "waypoints": [
        {
            "positions": [
                -2.967991417825858,
                -0.9740617694225068,
                1.7527959577737207,
                -0.759517768980727,
                1.7443932448377408,
                -3.0840537646736568
            ]
        },
        {
            "positions": [
                -2.942365707403473,
                -0.9419037406637871,
                1.6532670553385218,
                -0.6918998187399272,
                1.6142239044951394,
                -3.0889126766315274
            ]
        },
        {
            "positions": [
                -2.9167399969810877,
                -0.9097457119050674,
                1.5537381529033227,
                -0.6242818684991275,
                1.4840545641525382,
                -3.093771588589398
            ]
        },
        {
            "positions": [
                -2.891114286558702,
                -0.8775876831463477,
                1.4542092504681239,
                -0.5566639182583277,
                1.3538852238099368,
                -3.098630500547268
            ]
        },
        {
            "positions": [
                -2.865488576136317,
                -0.845429654387628,
                1.3546803480329248,
                -0.48904596801752803,
                1.2237158834673356,
                -3.1034894125051387
            ]
        },
        {
            "positions": [
                -2.8398628657139318,
                -0.8132716256289083,
                1.255151445597726,
                -0.4214280177767283,
                1.0935465431247342,
                -3.1083483244630092
            ]
        },
        {
            "positions": [
                -2.8142371552915466,
                -0.7811135968701887,
                1.155622543162527,
                -0.35381006753592853,
                0.9633772027821329,
                -3.11320723642088
            ]
        },
        {
            "positions": [
                -2.7886114448691615,
                -0.7489555681114689,
                1.0560936407273283,
                -0.28619211729512883,
                0.8332078624395316,
                -3.1180661483787504
            ]
        },
        {
            "positions": [
                -2.762985734446776,
                -0.7167975393527493,
                0.9565647382921292,
                -0.21857416705432908,
                0.7030385220969302,
                -3.1229250603366205
            ]
        },
        {
            "positions": [
                -2.7373600240243907,
                -0.6846395105940295,
                0.8570358358569303,
                -0.15095621681352933,
                0.5728691817543288,
                -3.127783972294491
            ]
        },
        {
            "positions": [
                -2.7117343136020056,
                -0.6524814818353099,
                0.7575069334217314,
                -0.08333826657272957,
                0.4426998414117277,
                -3.1326428842523617
            ]
        }
    ]
}