{
    "goal": {
        "global_pose": {
            "orientation": {
                "w": -0.4816463035849501,
                "x": 0.5182115481033762,
                "y": 0.4908360881923453,
                "z": -0.5084816262002911
            },
            "position": {
                "x": -0.8240239810943604,
                "y": -0.300875300988555,
                "z": 0.16403168439865112
            }
        },
        "name": "move_to_storage_C"
    },
    "id": "STRIDE_move_to_storage_C_136",
    "joint_names": [
        "shoulder_pan_joint",
        "shoulder_lift_joint",
        "elbow_joint",
        "wrist_1_joint",
        "wrist_2_joint",
        "wrist_3_joint"
    ],
    "metrics": {
        "cart_traj_len": 0.5768067853633065,
        "distance_elbow_joint": 0.2561803437764403,
        "distance_shoulder_lift_joint": 0.19005669307332707,
        "distance_shoulder_pan_joint": 0.49442232696865407,
        "distance_wrist_1_joint": 0.06867292179098705,
        "distance_wrist_2_joint": 1.0703391190343714,
        "distance_wrist_3_joint": 0.05740892176518697,
        "smoothness": 2.5376526478085547e-16,
        "time": 0.040205927,
        "traj_len": 1.461875619335984,
        "weighted_distance": 1.8414424266766256
    },
    "planner": "STRIDE",
    "start": {
        "state": {
            "elbow_joint": 2.010868314990456,
            "shoulder_lift_joint": -1.1634956873337592,
            "shoulder_pan_joint": -2.4736205022346125,
            "wrist_1_joint": -0.8367026794202681,
            "wrist_2_joint": 0.6746043897044499,
            "wrist_3_joint": -3.1496632123970403
        }
    },
    "waypoints": [
        {
            "positions": [
                -2.4736205022346125,
                -1.1634956873337592,
                2.010868314990456,
                -0.8367026794202681,
                0.6746043897044499,
                -3.1496632123970403
            ]
        },
        {
            "positions": [
                -2.556024223396055,
                -1.131819571821538,
                1.9681715910277158,
                -0.8252571924551035,
                0.8529942428768451,
                -3.140095058769509
            ]
        },
        {
            "positions": [
                -2.638427944557497,
                -1.1001434563093169,
                1.9254748670649757,
                -0.8138117054899391,
                1.0313840960492404,
                -3.130526905141978
            ]
        },
        {
            "positions": [
                -2.7208316657189395,
                -1.0684673407970957,
                1.8827781431022357,
                -0.8023662185247746,
                1.2097739492216357,
                -3.120958751514447
            ]
        },
        {
            "positions": [
                -2.803235386880382,
                -1.0367912252848746,
                1.8400814191394956,
                -0.7909207315596101,
                1.3881638023940308,
                -3.1113905978869156
            ]
        },
        {
            "positions": [
                -2.885639108041824,
                -1.0051151097726532,
                1.7973846951767556,
                -0.7794752445944455,
                1.5665536555664261,
                -3.1018224442593842
            ]
        },
        {
            "positions": [
                -2.9680428292032666,
                -0.9734389942604321,
                1.7546879712140155,
                -0.768029757629281,
                1.7449435087388214,
                -3.0922542906318533
            ]
        }
    ]
}