{
    "goal": {
        "global_pose": {
            "orientation": {
                "w": 0.5084816217422485,
                "x": -0.49083608388900757,
                "y": 0.5182115435600281,
                "z": -0.4816462993621826
            },
            "position": {
                "x": 0.5540239810943604,
                "y": 0.030875300988554955,
                "z": 0.16403168439865112
            }
        },
        "name": "move_to_storage_A"
    },
    "id": "STRIDE_move_to_storage_A_92",
    "joint_names": [
        "shoulder_pan_joint",
        "shoulder_lift_joint",
        "elbow_joint",
        "wrist_1_joint",
        "wrist_2_joint",
        "wrist_3_joint"
    ],
    "metrics": {
        "cart_traj_len": 0.35387246810724443,
        "distance_elbow_joint": 0.45442134565778924,
        "distance_shoulder_lift_joint": 0.2347418540291395,
        "distance_shoulder_pan_joint": 0.4596443546685819,
        "distance_wrist_1_joint": 0.2580255351621622,
        "distance_wrist_2_joint": 1.114562353913794,
        "distance_wrist_3_joint": 0.09268640279059426,
        "smoothness": 6.661338165333112e-16,
        "time": 0.058366599000000005,
        "traj_len": 1.616812248290463,
        "weighted_distance": 2.0425578427254405
    },
    "planner": "STRIDE",
    "start": {
        "state": {
            "elbow_joint": 1.971548259319323,
            "shoulder_lift_joint": -1.1394851275133948,
            "shoulder_pan_joint": 0.1228115487234821,
            "wrist_1_joint": -0.7804723859257726,
            "wrist_2_joint": 0.12958671773740124,
            "wrist_3_joint": -3.192489227718131
        }
    },
    "waypoints": [
        {
            "positions": [
                0.1228115487234821,
                -1.1394851275133948,
                1.971548259319323,
                -0.7804723859257726,
                0.12958671773740124,
                -3.192489227718131
            ]
        },
        {
            "positions": [
                0.057148069485113265,
                -1.173019678088986,
                2.036465594413293,
                -0.8173331766632244,
                0.2888099111536575,
                -3.1792483130337605
            ]
        },
        {
            "positions": [
                -0.00851540975325557,
                -1.2065542286645776,
                2.101382929507263,
                -0.8541939674006761,
                0.44803310456991385,
                -3.16600739834939
            ]
        },
        {
            "positions": [
                -0.07417888899162442,
                -1.240088779240169,
                2.1663002646012326,
                -0.8910547581381278,
                0.6072562979861701,
                -3.1527664836650193
            ]
        },
        {
            "positions": [
                -0.13984236822999324,
                -1.2736233298157602,
                2.2312175996952024,
                -0.9279155488755796,
                0.7664794914024264,
                -3.1395255689806487
            ]
        },
        {
            "positions": [
                -0.2055058474683621,
                -1.3071578803913515,
                2.2961349347891726,
                -0.9647763396130313,
                0.9257026848186828,
                -3.126284654296278
            ]
        },
        {
            "positions": [
                -0.27116932670673094,
                -1.340692430966943,
                2.3610522698831424,
                -1.001637130350483,
                1.084925878234939,
                -3.1130437396119075
            ]
        },
        {
            "positions": [
                -0.3368328059450998,
                -1.3742269815425343,
                2.4259696049771122,
                -1.0384979210879348,
                1.2441490716511954,
                -3.099802824927537
            ]
        }
    ]
}{
    "goal": {
        "global_pose": {
            "orientation": {
                "w": 0.5084816217422485,
                "x": -0.49083608388900757,
                "y": 0.5182115435600281,
                "z": -0.4816462993621826
            },
            "position": {
                "x": 0.5540239810943604,
                "y": 0.030875300988554955,
                "z": 0.16403168439865112
            }
        },
        "name": "move_to_storage_A"
    },
    "id": "STRIDE_move_to_storage_A_92",
    "joint_names": [
        "shoulder_pan_joint",
        "shoulder_lift_joint",
        "elbow_joint",
        "wrist_1_joint",
        "wrist_2_joint",
        "wrist_3_joint"
    ],
    "metrics": {
        "cart_traj_len": 0.35249268228662073,
        "distance_elbow_joint": 0.4473872119493918,
        "distance_shoulder_lift_joint": 0.23396539330926247,
        "distance_shoulder_pan_joint": 0.4614235155978706,
        "distance_wrist_1_joint": 0.235358932288654,
        "distance_wrist_2_joint": 1.094847442913592,
        "distance_wrist_3_joint": 0.09246521295414878,
        "smoothness": 4.440892098500626e-16,
        "time": 0.065370469,
        "traj_len": 1.6017015043424663,
        "weighted_distance": 2.020045670306358
    },
    "planner": "STRIDE",
    "start": {
        "state": {
            "elbow_joint": 1.97154746011099,
            "shoulder_lift_joint": -1.13948474672311,
            "shoulder_pan_joint": 0.12281154466712228,
            "wrist_1_joint": -0.7804688027058302,
            "wrist_2_joint": 0.12958655903071145,
            "wrist_3_joint": 3.0906928834467795
        }
    },
    "waypoints": [
        {
            "positions": [
                0.12281154466712228,
                -1.13948474672311,
                1.97154746011099,
                -0.7804688027058302,
                0.12958655903071145,
                3.0906928834467795
            ]
        },
        {
            "positions": [
                0.056893899581712204,
                -1.172908374338719,
                2.035459918960903,
                -0.814091507318495,
                0.285993336589796,
                3.1039021995830867
            ]
        },
        {
            "positions": [
                -0.009023745503697875,
                -1.2063320019543278,
                2.099372377810816,
                -0.8477142119311599,
                0.4424001141488806,
                3.1171115157193934
            ]
        },
        {
            "positions": [
                -0.07494139058910797,
                -1.2397556295699368,
                2.163284836660729,
                -0.8813369165438247,
                0.5988068917079651,
                3.1303208318557005
            ]
        },
        {
            "positions": [
                -0.14085903567451802,
                -1.2731792571855456,
                2.2271972955106425,
                -0.9149596211564897,
                0.7552136692670497,
                3.1435301479920073
            ]
        },
        {
            "positions": [
                -0.2067766807599281,
                -1.3066028848011546,
                2.2911097543605554,
                -0.9485823257691545,
                0.9116204468261343,
                3.1567394641283144
            ]
        },
        {
            "positions": [
                -0.2726943258453382,
                -1.3400265124167634,
                2.355022213210469,
                -0.9822050303818193,
                1.0680272243852187,
                3.169948780264621
            ]
        },
        {
            "positions": [
                -0.3386119709307483,
                -1.3734501400323724,
                2.4189346720603817,
                -1.0158277349944842,
                1.2244340019443034,
                3.1831580964009283
            ]
        }
    ]
}{
    "goal": {
        "global_pose": {
            "orientation": {
                "w": 0.5084816217422485,
                "x": -0.49083608388900757,
                "y": 0.5182115435600281,
                "z": -0.4816462993621826
            },
            "position": {
                "x": 0.5540239810943604,
                "y": 0.030875300988554955,
                "z": 0.16403168439865112
            }
        },
        "name": "move_to_storage_A"
    },
    "id": "STRIDE_move_to_storage_A_92",
    "joint_names": [
        "shoulder_pan_joint",
        "shoulder_lift_joint",
        "elbow_joint",
        "wrist_1_joint",
        "wrist_2_joint",
        "wrist_3_joint"
    ],
    "metrics": {
        "cart_traj_len": 0.3527268583900476,
        "distance_elbow_joint": 0.45368024849848076,
        "distance_shoulder_lift_joint": 0.23381849823991963,
        "distance_shoulder_pan_joint": 0.4591499277306104,
        "distance_wrist_1_joint": 0.2596164156948191,
        "distance_wrist_2_joint": 1.1072482312445189,
        "distance_wrist_3_joint": 0.10418605299699912,
        "smoothness": 6.661338165333112e-16,
        "time": 0.025040942,
        "traj_len": 1.6179305839266862,
        "weighted_distance": 2.047666019481371
    },
    "planner": "STRIDE",
    "start": {
        "state": {
            "elbow_joint": 1.9715472970024885,
            "shoulder_lift_joint": -1.1394870060712896,
            "shoulder_pan_joint": 0.12281152778156021,
            "wrist_1_joint": -0.780463741449964,
            "wrist_2_joint": 0.12958659822042276,
            "wrist_3_joint": 3.090690232415272
        }
    },
    "waypoints": [
        {
            "positions": [
                0.12281152778156021,
                -1.1394870060712896,
                1.9715472970024885,
                -0.780463741449964,
                0.12958659822042276,
                3.090690232415272
            ]
        },
        {
            "positions": [
                0.057218680962901586,
                -1.1728896486769924,
                2.0363587610737,
                -0.8175518008349382,
                0.28776491696963974,
                3.105573954271986
            ]
        },
        {
            "positions": [
                -0.008374165855757038,
                -1.2062922912826952,
                2.101170225144912,
                -0.8546398602199123,
                0.44594323571885675,
                3.1204576761287
            ]
        },
        {
            "positions": [
                -0.07396701267441566,
                -1.239694933888398,
                2.165981689216123,
                -0.8917279196048864,
                0.6041215544680737,
                3.1353413979854143
            ]
        },
        {
            "positions": [
                -0.13955985949307428,
                -1.2730975764941008,
                2.2307931532873346,
                -0.9288159789898606,
                0.7622998732172906,
                3.1502251198421285
            ]
        },
        {
            "positions": [
                -0.2051527063117329,
                -1.3065002190998036,
                2.2956046173585465,
                -0.9659040383748347,
                0.9204781919665077,
                3.1651088416988427
            ]
        },
        {
            "positions": [
                -0.2707455531303915,
                -1.3399028617055064,
                2.360416081429758,
                -1.002992097759809,
                1.0786565107157247,
                3.179992563555557
            ]
        },
        {
            "positions": [
                -0.3363383999490502,
                -1.3733055043112092,
                2.4252275455009693,
                -1.040080157144783,
                1.2368348294649416,
                3.194876285412271
            ]
        }
    ]
}