{
    "goal": {
        "global_pose": {
            "orientation": {
                "w": 0.7047431468963623,
                "x": -0.7094548344612122,
                "y": 0.0024358443915843964,
                "z": -0.0022348060738295317
            },
            "position": {
                "x": 0.6094750761985779,
                "y": 0.3671506643295288,
                "z": 0.19426114857196808
            }
        },
        "name": "move_to_magneteinheit_A"
    },
    "id": "STRIDE_move_to_magneteinheit_A_121",
    "joint_names": [
        "shoulder_pan_joint",
        "shoulder_lift_joint",
        "elbow_joint",
        "wrist_1_joint",
        "wrist_2_joint",
        "wrist_3_joint"
    ],
    "metrics": {
        "cart_traj_len": 3.773466081117915,
        "distance_elbow_joint": 3.8756821613570507,
        "distance_shoulder_lift_joint": 0.11488987172742626,
        "distance_shoulder_pan_joint": 3.333191629277986,
        "distance_wrist_1_joint": 1.0954992754990611,
        "distance_wrist_2_joint": 2.0813171841813363,
        "distance_wrist_3_joint": 2.5966352218262005,
        "smoothness": 0.30672340590169944,
        "time": 0.151023039,
        "traj_len": 3.6190075081255446,
        "weighted_distance": 4.633282016799955
    },
    "planner": "STRIDE",
    "start": {
        "state": {
            "elbow_joint": -1.9196185241190666,
            "shoulder_lift_joint": -1.2443396400964142,
            "shoulder_pan_joint": 2.6996025414629847,
            "wrist_1_joint": -1.5485510000780065,
            "wrist_2_joint": -1.5709468930060704,
            "wrist_3_joint": 0.4420197071253992
        }
    },
    "waypoints": [
        {
            "positions": [
                2.6996025414629847,
                -1.2443396400964142,
                -1.9196185241190666,
                -1.5485510000780065,
                -1.5709468930060704,
                0.4420197071253992
            ]
        },
        {
            "positions": [
                2.5940610823271886,
                -1.2428099705486242,
                -1.7968123892916483,
                -1.5140754003261507,
                -1.5034668551554722,
                0.5038006849857397
            ]
        },
        {
            "positions": [
                2.488519623191393,
                -1.2412803010008344,
                -1.6740062544642302,
                -1.479599800574295,
                -1.4359868173048742,
                0.5655816628460804
            ]
        },
        {
            "positions": [
                2.3829781640555967,
                -1.2397506314530444,
                -1.5512001196368121,
                -1.4451242008224392,
                -1.368506779454276,
                0.6273626407064209
            ]
        },
        {
            "positions": [
                2.2774367049198005,
                -1.2382209619052547,
                -1.4283939848093938,
                -1.4106486010705832,
                -1.301026741603678,
                0.6891436185667614
            ]
        },
        {
            "positions": [
                2.1718952457840044,
                -1.2366912923574647,
                -1.3055878499819755,
                -1.3761730013187274,
                -1.2335467037530798,
                0.7509245964271021
            ]
        },
        {
            "positions": [
                2.0663537866482082,
                -1.2351616228096747,
                -1.1827817151545574,
                -1.3416974015668717,
                -1.1660666659024819,
                0.8127055742874425
            ]
        },
        {
            "positions": [
                1.9608123275124125,
                -1.233631953261885,
                -1.0599755803271391,
                -1.307221801815016,
                -1.0985866280518837,
                0.8744865521477831
            ]
        },
        {
            "positions": [
                1.8552708683766164,
                -1.232102283714095,
                -0.9371694454997209,
                -1.2727462020631601,
                -1.0311065902012855,
                0.9362675300081237
            ]
        },
        {
            "positions": [
                1.7497294092408202,
                -1.2305726141663051,
                -0.8143633106723025,
                -1.2382706023113044,
                -0.9636265523506874,
                0.9980485078684643
            ]
        },
        {
            "positions": [
                1.6441879501050243,
                -1.2290429446185152,
                -0.6915571758448844,
                -1.2037950025594486,
                -0.8961465145000893,
                1.0598294857288049
            ]
        },
        {
            "positions": [
                1.5386464909692283,
                -1.2275132750707252,
                -0.5687510410174663,
                -1.1693194028075928,
                -0.8286664766494913,
                1.1216104635891453
            ]
        },
        {
            "positions": [
                1.4331050318334322,
                -1.2259836055229354,
                -0.44594490619004823,
                -1.134843803055737,
                -0.7611864387988933,
                1.183391441449486
            ]
        },
        {
            "positions": [
                1.327563572697636,
                -1.2244539359751454,
                -0.3231387713626297,
                -1.100368203303881,
                -0.693706400948295,
                1.2451724193098266
            ]
        },
        {
            "positions": [
                1.22202211356184,
                -1.2229242664273556,
                -0.2003326365352116,
                -1.0658926035520253,
                -0.626226363097697,
                1.306953397170167
            ]
        },
        {
            "positions": [
                1.1164806544260442,
                -1.2213945968795656,
                -0.07752650170779352,
                -1.0314170038001695,
                -0.558746325247099,
                1.3687343750305077
            ]
        },
        {
            "positions": [
                1.010939195290248,
                -1.2198649273317757,
                0.045279633119624796,
                -0.9969414040483138,
                -0.4912662873965008,
                1.4305153528908483
            ]
        },
        {
            "positions": [
                0.9053977361544521,
                -1.2183352577839859,
                0.16808576794704289,
                -0.962465804296458,
                -0.4237862495459028,
                1.4922963307511887
            ]
        },
        {
            "positions": [
                0.7998562770186557,
                -1.216805588236196,
                0.29089190277446164,
                -0.9279902045446021,
                -0.3563062116953044,
                1.5540773086115296
            ]
        },
        {
            "positions": [
                0.69431481788286,
                -1.215275918688406,
                0.4136980376018795,
                -0.8935146047927464,
                -0.28882617384470644,
                1.61585828647187
            ]
        },
        {
            "positions": [
                0.5887733587470638,
                -1.2137462491406161,
                0.5365041724292978,
                -0.8590390050408906,
                -0.22134613599410824,
                1.6776392643322104
            ]
        },
        {
            "positions": [
                0.48323189961126767,
                -1.2122165795928261,
                0.6593103072567161,
                -0.8245634052890348,
                -0.15386609814351027,
                1.7394202421925513
            ]
        },
        {
            "positions": [
                0.37769044047547196,
                -1.2106869100450364,
                0.782116442084134,
                -0.790087805537179,
                -0.08638606029291229,
                1.8012012200528917
            ]
        },
        {
            "positions": [
                0.2721489813396758,
                -1.2091572404972464,
                0.9049225769115523,
                -0.7556122057853233,
                -0.018906022442314097,
                1.8629821979132322
            ]
        },
        {
            "positions": [
                0.16660752220387964,
                -1.2076275709494564,
                1.0277287117389702,
                -0.7211366060334674,
                0.04857401540828388,
                1.9247631757735726
            ]
        },
        {
            "positions": [
                0.06106606306808349,
                -1.2060979014016666,
                1.150534846566389,
                -0.6866610062816115,
                0.1160540532588823,
                1.9865441536339135
            ]
        },
        {
            "positions": [
                -0.04447539606771267,
                -1.2045682318538766,
                1.2733409813938072,
                -0.6521854065297558,
                0.18353409110948027,
                2.048325131494254
            ]
        },
        {
            "positions": [
                -0.15001685520350838,
                -1.2030385623060869,
                1.3961471162212251,
                -0.6177098067779,
                0.25101412896007846,
                2.1101061093545943
            ]
        },
        {
            "positions": [
                -0.25555831433930465,
                -1.2015088927582969,
                1.5189532510486434,
                -0.5832342070260442,
                0.3184941668106765,
                2.171887087214935
            ]
        },
        {
            "positions": [
                -0.19255318542668853,
                -1.1894990386934121,
                1.5918049820802003,
                -0.604931287433894,
                0.28651481274991153,
                2.316348394171046
            ]
        },
        {
            "positions": [
                -0.12954805651407242,
                -1.1774891846285271,
                1.664656713111757,
                -0.6266283678417439,
                0.25453545868914657,
                2.4608097011271566
            ]
        },
        {
            "positions": [
                -0.06654292760145628,
                -1.1654793305636424,
                1.7375084441433137,
                -0.6483254482495937,
                0.2225561046283816,
                2.6052710080832675
            ]
        },
        {
            "positions": [
                -0.003537798688840188,
                -1.1534694764987576,
                1.8103601751748704,
                -0.6700225286574435,
                0.19057675056761667,
                2.7497323150393784
            ]
        },
        {
            "positions": [
                0.05946733022377598,
                -1.1414596224338727,
                1.8832119062064274,
                -0.6917196090652934,
                0.1585973965068517,
                2.8941936219954894
            ]
        },
        {
            "positions": [
                0.12247245913639211,
                -1.129449768368988,
                1.956063637237984,
                -0.7134166894731432,
                0.12661804244608674,
                3.0386549289516
            ]
        }
    ]
}