{
    "goal": {
        "global_pose": {
            "orientation": {
                "w": 0.005598929693374612,
                "x": 0.007748599140229565,
                "y": 0.7110244013736278,
                "z": -0.7031023480610252
            },
            "position": {
                "x": -0.8858502320852131,
                "y": -0.7141253447532654,
                "z": 0.3711530566215515
            }
        },
        "name": "move_to_auspresseinheit_C"
    },
    "id": "STRIDE_move_to_auspresseinheit_C_64",
    "joint_names": [
        "shoulder_pan_joint",
        "shoulder_lift_joint",
        "elbow_joint",
        "wrist_1_joint",
        "wrist_2_joint",
        "wrist_3_joint"
    ],
    "metrics": {
        "cart_traj_len": 0.49325514386648767,
        "distance_elbow_joint": 1.0020424231918872,
        "distance_shoulder_lift_joint": 0.3260070815475763,
        "distance_shoulder_pan_joint": 0.25654842853498616,
        "distance_wrist_1_joint": 0.6831630010895979,
        "distance_wrist_2_joint": 1.3032166205115063,
        "distance_wrist_3_joint": 0.054112027968716614,
        "smoothness": 6.459479416000911e-16,
        "time": 0.205445494,
        "traj_len": 1.903966801928088,
        "weighted_distance": 2.3915880206220317
    },
    "planner": "STRIDE",
    "start": {
        "state": {
            "elbow_joint": 1.7527959577737207,
            "shoulder_lift_joint": -0.9740617694225068,
            "shoulder_pan_joint": -2.967991417825858,
            "wrist_1_joint": -0.759517768980727,
            "wrist_2_joint": 1.7443932448377408,
            "wrist_3_joint": -3.0840537646736568
        }
    },
    "waypoints": [
        {
            "positions": [
                -2.967991417825858,
                -0.9740617694225068,
                1.7527959577737207,
                -0.759517768980727,
                1.7443932448377408,
                -3.0840537646736568
            ]
        },
        {
            "positions": [
                -2.9423365749723596,
                -0.9414610612677492,
                1.652591715454532,
                -0.6912014688717671,
                1.6140715827865901,
                -3.0894649674705286
            ]
        },
        {
            "positions": [
                -2.9166817321188607,
                -0.9088603531129915,
                1.5523874731353433,
                -0.6228851687628074,
                1.4837499207354394,
                -3.0948761702674
            ]
        },
        {
            "positions": [
                -2.891026889265362,
                -0.8762596449582338,
                1.4521832308161544,
                -0.5545688686538476,
                1.353428258684289,
                -3.1002873730642717
            ]
        },
        {
            "positions": [
                -2.8653720464118635,
                -0.8436589368034763,
                1.3519789884969657,
                -0.4862525685448878,
                1.2231065966331383,
                -3.1056985758611435
            ]
        },
        {
            "positions": [
                -2.839717203558365,
                -0.8110582286487187,
                1.251774746177777,
                -0.417936268435928,
                1.0927849345819878,
                -3.1111097786580153
            ]
        },
        {
            "positions": [
                -2.8140623607048663,
                -0.778457520493961,
                1.1515705038585884,
                -0.34961996832696823,
                0.9624632725308371,
                -3.1165209814548867
            ]
        },
        {
            "positions": [
                -2.7884075178513674,
                -0.7458568123392034,
                1.0513662615393997,
                -0.28130366821800845,
                0.8321416104796865,
                -3.1219321842517584
            ]
        },
        {
            "positions": [
                -2.762752674997869,
                -0.7132561041844457,
                0.9511620192202108,
                -0.2129873681090486,
                0.7018199484285357,
                -3.1273433870486302
            ]
        },
        {
            "positions": [
                -2.7370978321443706,
                -0.6806553960296882,
                0.8509577769010221,
                -0.14467106800008878,
                0.5714982863773852,
                -3.1327545898455016
            ]
        },
        {
            "positions": [
                -2.711442989290872,
                -0.6480546878749305,
                0.7507535345818336,
                -0.07635476789112906,
                0.4411766243262345,
                -3.1381657926423734
            ]
        }
    ]
}