{
    "goal": {
        "global_pose": {
            "orientation": {
                "w": -0.00223480608172531,
                "x": 0.0024358444001904467,
                "y": 0.7094548369677653,
                "z": -0.704743149386269
            },
            "position": {
                "x": -0.37947507619857795,
                "y": -0.6371506643295288,
                "z": 0.19426114857196808
            }
        },
        "name": "move_to_magneteinheit_C"
    },
    "id": "STRIDE_move_to_magneteinheit_C_117",
    "joint_names": [
        "shoulder_pan_joint",
        "shoulder_lift_joint",
        "elbow_joint",
        "wrist_1_joint",
        "wrist_2_joint",
        "wrist_3_joint"
    ],
    "metrics": {
        "cart_traj_len": 2.7919488021185894,
        "distance_elbow_joint": 0.4062193108425092,
        "distance_shoulder_lift_joint": 0.8954970839062226,
        "distance_shoulder_pan_joint": 3.368367580221732,
        "distance_wrist_1_joint": 5.11023301949798,
        "distance_wrist_2_joint": 6.515014042850215,
        "distance_wrist_3_joint": 1.3661641484155482,
        "smoothness": 0.8586861909414923,
        "time": 4.341191094,
        "traj_len": 4.20255817160622,
        "weighted_distance": 5.658539612383527
    },
    "planner": "STRIDE",
    "start": {
        "state": {
            "elbow_joint": 1.9565354010623817,
            "shoulder_lift_joint": -1.4165861575791021,
            "shoulder_pan_joint": -1.6717766225146293,
            "wrist_1_joint": -0.5286633292919765,
            "wrist_2_joint": 1.472756589071564,
            "wrist_3_joint": -3.1238370188695823
        }
    },
    "waypoints": [
        {
            "positions": [
                -1.6717766225146293,
                -1.4165861575791021,
                1.9565354010623817,
                -0.5286633292919765,
                1.472756589071564,
                -3.1238370188695823
            ]
        },
        {
            "positions": [
                -1.5295207855844923,
                -1.4610594745033951,
                1.947339011394861,
                -0.4842584423262155,
                1.4703769168973848,
                -2.9889686049145365
            ]
        },
        {
            "positions": [
                -1.3872649486543551,
                -1.5055327914276881,
                1.9381426217273403,
                -0.4398535553604545,
                1.4679972447232057,
                -2.8541001909594907
            ]
        },
        {
            "positions": [
                -1.245009111724218,
                -1.5500061083519814,
                1.9289462320598194,
                -0.39544866839469356,
                1.4656175725490266,
                -2.719231777004445
            ]
        },
        {
            "positions": [
                -1.102753274794081,
                -1.5944794252762744,
                1.9197498423922987,
                -0.35104378142893256,
                1.4632379003748475,
                -2.584363363049399
            ]
        },
        {
            "positions": [
                -0.9604974378639438,
                -1.6389527422005674,
                1.910553452724778,
                -0.3066388944631716,
                1.4608582282006684,
                -2.4494949490943534
            ]
        },
        {
            "positions": [
                -1.0511435200807155,
                -1.6139924180058904,
                1.9048734036393669,
                -0.21183160550345215,
                1.3023117645031554,
                -2.4646282055802318
            ]
        },
        {
            "positions": [
                -1.1417896022974872,
                -1.5890320938112137,
                1.8991933545539554,
                -0.11702431654373266,
                1.1437653008056425,
                -2.4797614620661097
            ]
        },
        {
            "positions": [
                -1.2324356845142588,
                -1.5640717696165367,
                1.8935133054685442,
                -0.02221702758401317,
                0.9852188371081296,
                -2.494894718551988
            ]
        },
        {
            "positions": [
                -1.3230817667310304,
                -1.5391114454218597,
                1.8878332563831328,
                0.07259026137570629,
                0.8266723734106167,
                -2.510027975037866
            ]
        },
        {
            "positions": [
                -1.413727848947802,
                -1.5141511212271828,
                1.8821532072977216,
                0.16739755033542575,
                0.6681259097131038,
                -2.5251612315237444
            ]
        },
        {
            "positions": [
                -1.5043739311645736,
                -1.489190797032506,
                1.8764731582123104,
                0.26220483929514526,
                0.5095794460155909,
                -2.5402944880096228
            ]
        },
        {
            "positions": [
                -1.5950200133813452,
                -1.464230472837829,
                1.870793109126899,
                0.3570121282548647,
                0.3510329823180778,
                -2.5554277444955007
            ]
        },
        {
            "positions": [
                -1.6856660955981169,
                -1.439270148643152,
                1.8651130600414878,
                0.4518194172145842,
                0.1924865186205651,
                -2.570561000981379
            ]
        },
        {
            "positions": [
                -1.7763121778148885,
                -1.414309824448475,
                1.8594330109560764,
                0.5466267061743038,
                0.033940054923051965,
                -2.5856942574672575
            ]
        },
        {
            "positions": [
                -1.86695826003166,
                -1.3893495002537983,
                1.8537529618706652,
                0.6414339951340231,
                -0.12460640877446072,
                -2.6008275139531354
            ]
        },
        {
            "positions": [
                -1.9576043422484317,
                -1.3643891760591214,
                1.848072912785254,
                0.7362412840937426,
                -0.28315287247197385,
                -2.6159607704390138
            ]
        },
        {
            "positions": [
                -2.0482504244652033,
                -1.3394288518644444,
                1.8423928636998426,
                0.8310485730534621,
                -0.44169933616948653,
                -2.6310940269248917
            ]
        },
        {
            "positions": [
                -2.138896506681975,
                -1.3144685276697676,
                1.8367128146144314,
                0.9258558620131815,
                -0.6002457998669992,
                -2.64622728341077
            ]
        },
        {
            "positions": [
                -2.2295425888987466,
                -1.2895082034750907,
                1.8310327655290202,
                1.0206631509729012,
                -0.7587922635645128,
                -2.6613605398966484
            ]
        },
        {
            "positions": [
                -2.320188671115518,
                -1.2645478792804137,
                1.8253527164436087,
                1.1154704399326207,
                -0.9173387272620255,
                -2.6764937963825264
            ]
        },
        {
            "positions": [
                -2.41083475333229,
                -1.2395875550857367,
                1.8196726673581975,
                1.2102777288923399,
                -1.0758851909595382,
                -2.6916270528684048
            ]
        },
        {
            "positions": [
                -2.5014808355490614,
                -1.2146272308910597,
                1.8139926182727861,
                1.3050850178520594,
                -1.2344316546570508,
                -2.7067603093542827
            ]
        },
        {
            "positions": [
                -2.592126917765833,
                -1.1896669066963828,
                1.808312569187375,
                1.399892306811779,
                -1.3929781183545644,
                -2.721893565840161
            ]
        },
        {
            "positions": [
                -2.6827729999826047,
                -1.164706582501706,
                1.8026325201019637,
                1.4946995957714986,
                -1.551524582052077,
                -2.7370268223260394
            ]
        },
        {
            "positions": [
                -2.7734190821993763,
                -1.139746258307029,
                1.7969524710165523,
                1.5895068847312177,
                -1.7100710457495898,
                -2.7521600788119174
            ]
        },
        {
            "positions": [
                -2.864065164416148,
                -1.1147859341123523,
                1.7912724219311411,
                1.6843141736909373,
                -1.868617509447103,
                -2.7672933352977958
            ]
        },
        {
            "positions": [
                -2.9547112466329195,
                -1.0898256099176753,
                1.7855923728457297,
                1.7791214626506568,
                -2.0271639731446163,
                -2.7824265917836737
            ]
        },
        {
            "positions": [
                -3.045357328849691,
                -1.0648652857229983,
                1.7799123237603185,
                1.8739287516103764,
                -2.185710436842129,
                -2.797559848269552
            ]
        },
        {
            "positions": [
                -3.01356685637273,
                -1.0703676769900643,
                1.792667670068121,
                1.7235042550217305,
                -2.027013380345655,
                -2.8166574693509476
            ]
        },
        {
            "positions": [
                -2.981776383895769,
                -1.0758700682571303,
                1.8054230163759235,
                1.5730797584330845,
                -1.8683163238491818,
                -2.835755090432343
            ]
        },
        {
            "positions": [
                -2.949985911418808,
                -1.0813724595241965,
                1.8181783626837262,
                1.4226552618444386,
                -1.709619267352708,
                -2.8548527115137388
            ]
        },
        {
            "positions": [
                -2.9181954389418467,
                -1.0868748507912624,
                1.8309337089915287,
                1.2722307652557925,
                -1.5509222108562344,
                -2.8739503325951343
            ]
        },
        {
            "positions": [
                -2.8864049664648856,
                -1.0923772420583284,
                1.8436890552993312,
                1.1218062686671466,
                -1.3922251543597606,
                -2.89304795367653
            ]
        },
        {
            "positions": [
                -2.8546144939879246,
                -1.0978796333253944,
                1.8564444016071338,
                0.9713817720785006,
                -1.233528097863287,
                -2.9121455747579255
            ]
        },
        {
            "positions": [
                -2.8228240215109635,
                -1.1033820245924604,
                1.8691997479149365,
                0.8209572754898546,
                -1.0748310413668134,
                -2.931243195839321
            ]
        },
        {
            "positions": [
                -2.791033549034003,
                -1.1088844158595264,
                1.881955094222739,
                0.6705327789012088,
                -0.9161339848703398,
                -2.9503408169207166
            ]
        },
        {
            "positions": [
                -2.7592430765570413,
                -1.1143868071265923,
                1.8947104405305415,
                0.5201082823125627,
                -0.757436928373866,
                -2.969438438002112
            ]
        },
        {
            "positions": [
                -2.7274526040800806,
                -1.1198891983936585,
                1.907465786838344,
                0.3696837857239166,
                -0.5987398718773922,
                -2.988536059083508
            ]
        },
        {
            "positions": [
                -2.695662131603119,
                -1.1253915896607245,
                1.9202211331461467,
                0.2192592891352707,
                -0.4400428153809186,
                -3.0076336801649037
            ]
        },
        {
            "positions": [
                -2.6638716591261584,
                -1.1308939809277905,
                1.9329764794539492,
                0.06883479254662483,
                -0.281345758884445,
                -3.0267313012462993
            ]
        },
        {
            "positions": [
                -2.6320811866491973,
                -1.1363963721948565,
                1.9457318257617517,
                -0.08158970404202126,
                -0.12264870238797121,
                -3.045828922327695
            ]
        },
        {
            "positions": [
                -2.6002907141722362,
                -1.1418987634619224,
                1.9584871720695542,
                -0.23201420063066713,
                0.036048354108502156,
                -3.0649265434090904
            ]
        },
        {
            "positions": [
                -2.568500241695275,
                -1.1474011547289886,
                1.9712425183773568,
                -0.38243869721931345,
                0.19474541060497597,
                -3.084024164490486
            ]
        },
        {
            "positions": [
                -2.536709769218314,
                -1.1529035459960546,
                1.9839978646851595,
                -0.5328631938079589,
                0.35344246710144933,
                -3.1031217855718816
            ]
        },
        {
            "positions": [
                -2.504919296741353,
                -1.1584059372631206,
                1.996753210992962,
                -0.6832876903966052,
                0.5121395235979231,
                -3.122219406653277
            ]
        },
        {
            "positions": [
                -2.473128824264392,
                -1.1639083285301866,
                2.0095085573007645,
                -0.8337121869852508,
                0.670836580094397,
                -3.1413170277346727
            ]
        }
    ]
}