{
    "goal": {
        "global_pose": {
            "orientation": {
                "w": 0.005598929693374612,
                "x": 0.007748599140229565,
                "y": 0.7110244013736278,
                "z": -0.7031023480610252
            },
            "position": {
                "x": 0.1141497679147869,
                "y": -0.7141253447532654,
                "z": 0.3711530566215515
            }
        },
        "name": "move_to_auspresseinheit_B"
    },
    "id": "STRIDE_move_to_auspresseinheit_B_92",
    "joint_names": [
        "shoulder_pan_joint",
        "shoulder_lift_joint",
        "elbow_joint",
        "wrist_1_joint",
        "wrist_2_joint",
        "wrist_3_joint"
    ],
    "metrics": {
        "cart_traj_len": 0.5652211693286744,
        "distance_elbow_joint": 0.0598119863212474,
        "distance_shoulder_lift_joint": 0.29547897464798245,
        "distance_shoulder_pan_joint": 0.5789594983240647,
        "distance_wrist_1_joint": 0.3166274509598207,
        "distance_wrist_2_joint": 0.987894359550449,
        "distance_wrist_3_joint": 0.0027063099393176415,
        "smoothness": 2.5376526478085547e-16,
        "time": 0.301174458,
        "traj_len": 1.4971568320462896,
        "weighted_distance": 1.8845193047914863
    },
    "planner": "STRIDE",
    "start": {
        "state": {
            "elbow_joint": 2.0193083361928714,
            "shoulder_lift_joint": -1.1220246554650708,
            "shoulder_pan_joint": -1.0952077554168747,
            "wrist_1_joint": -0.8559753972642168,
            "wrist_2_joint": 0.4759566250798843,
            "wrist_3_joint": -3.1240929996934557
        }
    },
    "waypoints": [
        {
            "positions": [
                -1.0952077554168747,
                -1.1220246554650708,
                2.0193083361928714,
                -0.8559753972642168,
                0.4759566250798843,
                -3.1240929996934557
            ]
        },
        {
            "positions": [
                -1.191701005137552,
                -1.1712711512397345,
                2.009339671805997,
                -0.80320415543758,
                0.6406056850049591,
                -3.123641948036903
            ]
        },
        {
            "positions": [
                -1.2881942548582295,
                -1.2205176470143984,
                1.9993710074191222,
                -0.7504329136109432,
                0.805254744930034,
                -3.1231908963803496
            ]
        },
        {
            "positions": [
                -1.384687504578907,
                -1.269764142789062,
                1.9894023430322476,
                -0.6976616717843065,
                0.9699038048551087,
                -3.122739844723797
            ]
        },
        {
            "positions": [
                -1.4811807542995843,
                -1.3190106385637257,
                1.9794336786453732,
                -0.6448904299576697,
                1.1345528647801837,
                -3.122288793067244
            ]
        },
        {
            "positions": [
                -1.577674004020262,
                -1.3682571343383896,
                1.9694650142584986,
                -0.5921191881310328,
                1.2992019247052584,
                -3.121837741410691
            ]
        },
        {
            "positions": [
                -1.6741672537409393,
                -1.4175036301130532,
                1.959496349871624,
                -0.5393479463043961,
                1.4638509846303334,
                -3.121386689754138
            ]
        }
    ]
}