{
    "goal": {
        "global_pose": {
            "orientation": {
                "w": -0.00223480608172531,
                "x": 0.0024358444001904467,
                "y": 0.7094548369677653,
                "z": -0.704743149386269
            },
            "position": {
                "x": 0.6205249238014221,
                "y": -0.6371506643295288,
                "z": 0.19426114857196808
            }
        },
        "name": "move_to_magneteinheit_B"
    },
    "id": "STRIDE_move_to_magneteinheit_B_138",
    "joint_names": [
        "shoulder_pan_joint",
        "shoulder_lift_joint",
        "elbow_joint",
        "wrist_1_joint",
        "wrist_2_joint",
        "wrist_3_joint"
    ],
    "metrics": {
        "cart_traj_len": 1.3859403387634561,
        "distance_elbow_joint": 0.9523521113293649,
        "distance_shoulder_lift_joint": 0.7784589440197147,
        "distance_shoulder_pan_joint": 1.6205507136475936,
        "distance_wrist_1_joint": 0.8814077903854587,
        "distance_wrist_2_joint": 1.5211287090220906,
        "distance_wrist_3_joint": 1.445620321051451,
        "smoothness": 0.44718464222807536,
        "time": 1.04707899,
        "traj_len": 2.6831918659416947,
        "weighted_distance": 3.534585651949337
    },
    "planner": "STRIDE",
    "start": {
        "state": {
            "elbow_joint": 2.6216224122426386,
            "shoulder_lift_joint": -1.4174107377796124,
            "shoulder_pan_joint": 0.7066234856936794,
            "wrist_1_joint": 1.9546482284002225,
            "wrist_2_joint": -0.7096286983471962,
            "wrist_3_joint": 0.005740856962016249
        }
    },
    "waypoints": [
        {
            "positions": [
                0.7066234856936794,
                -1.4174107377796124,
                2.6216224122426386,
                1.9546482284002225,
                -0.7096286983471962,
                0.005740856962016249
            ]
        },
        {
            "positions": [
                0.5894478293324313,
                -1.4192778507652655,
                2.6023911197414806,
                1.9060635034270752,
                -0.765643972566725,
                -0.09676237082498225
            ]
        },
        {
            "positions": [
                0.47227217297118324,
                -1.4211449637509188,
                2.583159827240323,
                1.8574787784539277,
                -0.8216592467862538,
                -0.19926559861198073
            ]
        },
        {
            "positions": [
                0.3550965166099352,
                -1.423012076736572,
                2.563928534739165,
                1.8088940534807805,
                -0.8776745210057827,
                -0.30176882639897923
            ]
        },
        {
            "positions": [
                0.23792086024868708,
                -1.424879189722225,
                2.5446972422380076,
                1.7603093285076332,
                -0.9336897952253115,
                -0.4042720541859777
            ]
        },
        {
            "positions": [
                0.12074520388743892,
                -1.4267463027078782,
                2.5254659497368497,
                1.7117246035344857,
                -0.9897050694448404,
                -0.5067752819729763
            ]
        },
        {
            "positions": [
                0.003569547526190986,
                -1.4286134156935315,
                2.506234657235692,
                1.6631398785613385,
                -1.0457203436643692,
                -0.6092785097599748
            ]
        },
        {
            "positions": [
                -0.11360610883505716,
                -1.4304805286791846,
                2.487003364734534,
                1.6145551535881912,
                -1.101735617883898,
                -0.7117817375469733
            ]
        },
        {
            "positions": [
                -0.1751692718442,
                -1.3716044399776353,
                2.424100821363668,
                1.6561947470938394,
                -1.1885834478443125,
                -0.6557742201206301
            ]
        },
        {
            "positions": [
                -0.23673243485334283,
                -1.312728351276086,
                2.361198277992802,
                1.6978343405994878,
                -1.275431277804727,
                -0.5997667026942869
            ]
        },
        {
            "positions": [
                -0.29829559786248566,
                -1.2538522625745363,
                2.2982957346219357,
                1.739473934105136,
                -1.3622791077651415,
                -0.5437591852679438
            ]
        },
        {
            "positions": [
                -0.3598587608716285,
                -1.194976173872987,
                2.2353931912510694,
                1.7811135276107843,
                -1.449126937725556,
                -0.4877516678416006
            ]
        },
        {
            "positions": [
                -0.4214219238807714,
                -1.1361000851714376,
                2.172490647880203,
                1.8227531211164325,
                -1.5359747676859707,
                -0.43174415041525743
            ]
        },
        {
            "positions": [
                -0.4829850868899142,
                -1.077223996469888,
                2.109588104509337,
                1.864392714622081,
                -1.622822597646385,
                -0.37573663298891424
            ]
        },
        {
            "positions": [
                -0.5445482498990569,
                -1.0183479077683386,
                2.046685561138471,
                1.906032308127729,
                -1.7096704276067998,
                -0.3197291155625711
            ]
        },
        {
            "positions": [
                -0.6061114129081998,
                -0.9594718190667892,
                1.9837830177676046,
                1.9476719016333774,
                -1.7965182575672143,
                -0.2637215981362279
            ]
        },
        {
            "positions": [
                -0.6676745759173427,
                -0.9005957303652399,
                1.9208804743967385,
                1.9893114951390256,
                -1.8833660875276288,
                -0.20771408070988473
            ]
        },
        {
            "positions": [
                -0.7292377389264856,
                -0.8417196416636904,
                1.8579779310258722,
                2.0309510886446738,
                -1.9702139174880433,
                -0.1517065632835416
            ]
        },
        {
            "positions": [
                -0.7908009019356284,
                -0.782843552962141,
                1.795075387655006,
                2.072590682150322,
                -2.057061747448458,
                -0.09569904585719846
            ]
        },
        {
            "positions": [
                -0.8523640649447712,
                -0.7239674642605916,
                1.7321728442841398,
                2.1142302756559705,
                -2.1439095774088726,
                -0.039691528430855216
            ]
        },
        {
            "positions": [
                -0.913927227953914,
                -0.6650913755590422,
                1.6692703009132737,
                2.1558698691616187,
                -2.230757407369287,
                0.016315988995487966
            ]
        }
    ]
}