{
    "goal": {
        "global_pose": {
            "orientation": {
                "w": 0.7031023480610252,
                "x": -0.7110244013736278,
                "y": 0.0077485991402295624,
                "z": 0.005598929693374583
            },
            "position": {
                "x": -0.8841497679147869,
                "y": 0.44412534475326537,
                "z": 0.3711530566215515
            }
        },
        "name": "move_to_auspresseinheit_D"
    },
    "id": "STRIDE_move_to_auspresseinheit_D_102",
    "joint_names": [
        "shoulder_pan_joint",
        "shoulder_lift_joint",
        "elbow_joint",
        "wrist_1_joint",
        "wrist_2_joint",
        "wrist_3_joint"
    ],
    "metrics": {
        "cart_traj_len": 0.34313355918781246,
        "distance_elbow_joint": 0.6462048312887572,
        "distance_shoulder_lift_joint": 0.12676055707486533,
        "distance_shoulder_pan_joint": 0.13381173396506543,
        "distance_wrist_1_joint": 0.5470765559840793,
        "distance_wrist_2_joint": 1.4490423191139445,
        "distance_wrist_3_joint": 0.011436010791406659,
        "smoothness": 3.9474596431116675e-16,
        "time": 0.060276814,
        "traj_len": 1.7071414728188519,
        "weighted_distance": 2.221108485621303
    },
    "planner": "STRIDE",
    "start": {
        "state": {
            "elbow_joint": -1.8275523626775212,
            "shoulder_lift_joint": -2.126789852344167,
            "shoulder_pan_joint": -0.03513704404078235,
            "wrist_1_joint": -2.347782403156801,
            "wrist_2_joint": -1.6058999987535132,
            "wrist_3_joint": -3.0880379163319196
        }
    },
    "waypoints": [
        {
            "positions": [
                -0.03513704404078235,
                -2.126789852344167,
                -1.8275523626775212,
                -2.347782403156801,
                -1.6058999987535132,
                -3.0880379163319196
            ]
        },
        {
            "positions": [
                -0.05186351078641553,
                -2.142634921978525,
                -1.7467767587664265,
                -2.416166972654811,
                -1.4247697088642701,
                -3.0866084149829938
            ]
        },
        {
            "positions": [
                -0.06858997753204871,
                -2.158479991612883,
                -1.666001154855332,
                -2.4845515421528206,
                -1.243639418975027,
                -3.085178913634068
            ]
        },
        {
            "positions": [
                -0.0853164442776819,
                -2.1743250612472416,
                -1.5852255509442372,
                -2.5529361116508307,
                -1.062509129085784,
                -3.083749412285142
            ]
        },
        {
            "positions": [
                -0.10204291102331506,
                -2.1901701308815995,
                -1.5044499470331427,
                -2.6213206811488403,
                -0.8813788391965409,
                -3.0823199109362163
            ]
        },
        {
            "positions": [
                -0.11876937776894825,
                -2.2060152005159575,
                -1.423674343122048,
                -2.6897052506468504,
                -0.7002485493072979,
                -3.0808904095872904
            ]
        },
        {
            "positions": [
                -0.13549584451458144,
                -2.221860270150316,
                -1.3428987392109533,
                -2.7580898201448605,
                -0.5191182594180548,
                -3.0794609082383646
            ]
        },
        {
            "positions": [
                -0.1522223112602146,
                -2.2377053397846742,
                -1.2621231352998588,
                -2.82647438964287,
                -0.3379879695288117,
                -3.0780314068894388
            ]
        },
        {
            "positions": [
                -0.1689487780058478,
                -2.253550409419032,
                -1.181347531388764,
                -2.89485895914088,
                -0.1568576796395686,
                -3.076601905540513
            ]
        }
    ]
}