{
    "goal": {
        "global_pose": {
            "orientation": {
                "w": -0.00223480608172531,
                "x": 0.0024358444001904467,
                "y": 0.7094548369677653,
                "z": -0.704743149386269
            },
            "position": {
                "x": -0.37947507619857795,
                "y": -0.6371506643295288,
                "z": 0.19426114857196808
            }
        },
        "name": "move_to_magneteinheit_C"
    },
    "id": "STRIDE_move_to_magneteinheit_C_106",
    "joint_names": [
        "shoulder_pan_joint",
        "shoulder_lift_joint",
        "elbow_joint",
        "wrist_1_joint",
        "wrist_2_joint",
        "wrist_3_joint"
    ],
    "metrics": {
        "cart_traj_len": 1.105197745101714,
        "distance_elbow_joint": 0.41140927454208764,
        "distance_shoulder_lift_joint": 0.48293272022143974,
        "distance_shoulder_pan_joint": 1.860311068982343,
        "distance_wrist_1_joint": 0.962885619874326,
        "distance_wrist_2_joint": 2.9548382175642605,
        "distance_wrist_3_joint": 1.707835624908756,
        "smoothness": 1.2475412263118228,
        "time": 4.206730924,
        "traj_len": 2.8948596729536327,
        "weighted_distance": 3.9640393052225544
    },
    "planner": "STRIDE",
    "start": {
        "state": {
            "elbow_joint": 1.9565354010623817,
            "shoulder_lift_joint": -1.4165861575791021,
            "shoulder_pan_joint": -1.6717766225146293,
            "wrist_1_joint": -0.5286633292919765,
            "wrist_2_joint": 1.472756589071564,
            "wrist_3_joint": -3.1238370188695823
        }
    },
    "waypoints": [
        {
            "positions": [
                -1.6717766225146293,
                -1.4165861575791021,
                1.9565354010623817,
                -0.5286633292919765,
                1.472756589071564,
                -3.1238370188695823
            ]
        },
        {
            "positions": [
                -1.6558947482413,
                -1.4218388289126924,
                1.921552963494113,
                -0.4392330140076355,
                1.416296224093714,
                -3.010397708918637
            ]
        },
        {
            "positions": [
                -1.640012873967971,
                -1.427091500246283,
                1.8865705259258445,
                -0.3498026987232945,
                1.3598358591158641,
                -2.896958398967692
            ]
        },
        {
            "positions": [
                -1.7509610904602808,
                -1.396406666063106,
                1.9059478692853848,
                -0.3376711149341584,
                1.2125240080459208,
                -2.845809462674404
            ]
        },
        {
            "positions": [
                -1.8619093069525905,
                -1.3657218318799293,
                1.9253252126449252,
                -0.3255395311450224,
                1.0652121569759774,
                -2.794660526381117
            ]
        },
        {
            "positions": [
                -1.9728575234449002,
                -1.3350369976967524,
                1.9447025560044655,
                -0.3134079473558863,
                0.917900305906034,
                -2.743511590087829
            ]
        },
        {
            "positions": [
                -2.08380573993721,
                -1.3043521635135757,
                1.964079899364006,
                -0.3012763635667502,
                0.7705884548360906,
                -2.6923626537945418
            ]
        },
        {
            "positions": [
                -2.19475395642952,
                -1.2736673293303988,
                1.9834572427235464,
                -0.28914477977761416,
                0.6232766037661472,
                -2.641213717501254
            ]
        },
        {
            "positions": [
                -2.30570217292183,
                -1.242982495147222,
                2.002834586083087,
                -0.27701319598847807,
                0.47596475269620386,
                -2.5900647812079667
            ]
        },
        {
            "positions": [
                -2.4166503894141393,
                -1.2122976609640452,
                2.0222119294426273,
                -0.264881612199342,
                0.3286529016262605,
                -2.538915844914679
            ]
        },
        {
            "positions": [
                -2.5275986059064492,
                -1.1816128267808683,
                2.0415892728021676,
                -0.25275002841020594,
                0.1813410505563171,
                -2.487766908621391
            ]
        },
        {
            "positions": [
                -2.638546822398759,
                -1.1509279925976916,
                2.060966616161708,
                -0.24061844462106985,
                0.03402919948637373,
                -2.436617972328104
            ]
        },
        {
            "positions": [
                -2.7494950388910686,
                -1.1202431584145147,
                2.0803439595212483,
                -0.22848686083193376,
                -0.11328265158356965,
                -2.385469036034816
            ]
        },
        {
            "positions": [
                -2.8604432553833785,
                -1.089558324231338,
                2.0997213028807886,
                -0.21635527704279772,
                -0.260594502653513,
                -2.3343200997415288
            ]
        },
        {
            "positions": [
                -2.9713914718756884,
                -1.0588734900481611,
                2.119098646240329,
                -0.20422369325366163,
                -0.4079063537234563,
                -2.283171163448241
            ]
        },
        {
            "positions": [
                -2.9161505027059142,
                -1.0704523086432876,
                2.106996837452433,
                -0.2751621359021073,
                -0.28855354541576295,
                -2.379523360057954
            ]
        },
        {
            "positions": [
                -2.86090953353614,
                -1.0820311272384138,
                2.0948950286645367,
                -0.346100578550553,
                -0.16920073710806957,
                -2.4758755566676665
            ]
        },
        {
            "positions": [
                -2.805668564366366,
                -1.0936099458335402,
                2.08279321987664,
                -0.41703902119899866,
                -0.049847928800376196,
                -2.5722277532773794
            ]
        },
        {
            "positions": [
                -2.7504275951965917,
                -1.1051887644286664,
                2.070691411088744,
                -0.48797746384744434,
                0.06950487950731715,
                -2.668579949887092
            ]
        },
        {
            "positions": [
                -2.6951866260268176,
                -1.1167675830237929,
                2.058589602300848,
                -0.5589159064958901,
                0.18885768781501056,
                -2.764932146496805
            ]
        },
        {
            "positions": [
                -2.639945656857044,
                -1.128346401618919,
                2.0464877935129517,
                -0.6298543491443357,
                0.3082104961227039,
                -2.8612843431065174
            ]
        },
        {
            "positions": [
                -2.5847046876872697,
                -1.1399252202140455,
                2.034385984725055,
                -0.7007927917927814,
                0.42756330443039736,
                -2.9576365397162303
            ]
        },
        {
            "positions": [
                -2.5294637185174955,
                -1.1515040388091717,
                2.022284175937159,
                -0.771731234441227,
                0.5469161127380906,
                -3.053988736325943
            ]
        },
        {
            "positions": [
                -2.4742227493477214,
                -1.1630828574042982,
                2.010182367149263,
                -0.8426696770896728,
                0.6662689210457841,
                -3.1503409329356558
            ]
        }
    ]
}