{
    "goal": {
        "global_pose": {
            "orientation": {
                "w": -0.00223480608172531,
                "x": 0.0024358444001904467,
                "y": 0.7094548369677653,
                "z": -0.704743149386269
            },
            "position": {
                "x": -0.37947507619857795,
                "y": -0.6371506643295288,
                "z": 0.19426114857196808
            }
        },
        "name": "move_to_magneteinheit_C"
    },
    "id": "STRIDE_move_to_magneteinheit_C_87",
    "joint_names": [
        "shoulder_pan_joint",
        "shoulder_lift_joint",
        "elbow_joint",
        "wrist_1_joint",
        "wrist_2_joint",
        "wrist_3_joint"
    ],
    "metrics": {
        "cart_traj_len": 1.329624116227199,
        "distance_elbow_joint": 0.8175824110382406,
        "distance_shoulder_lift_joint": 0.40674576349587843,
        "distance_shoulder_pan_joint": 2.142445715270282,
        "distance_wrist_1_joint": 1.1210326911143882,
        "distance_wrist_2_joint": 1.3218827653058196,
        "distance_wrist_3_joint": 1.2331169761023255,
        "smoothness": 1.7659698450637165,
        "time": 0.7738362489999999,
        "traj_len": 2.6538286158542594,
        "weighted_distance": 3.457160067302611
    },
    "planner": "STRIDE",
    "start": {
        "state": {
            "elbow_joint": 1.9565354010623817,
            "shoulder_lift_joint": -1.4165861575791021,
            "shoulder_pan_joint": -1.6717766225146293,
            "wrist_1_joint": -0.5286633292919765,
            "wrist_2_joint": 1.472756589071564,
            "wrist_3_joint": -3.1238370188695823
        }
    },
    "waypoints": [
        {
            "positions": [
                -1.6717766225146293,
                -1.4165861575791021,
                1.9565354010623817,
                -0.5286633292919765,
                1.472756589071564,
                -3.1238370188695823
            ]
        },
        {
            "positions": [
                -1.7556586494229955,
                -1.412282651183078,
                1.9896502419912938,
                -0.5952949711178215,
                1.349486129193233,
                -3.0781768132025125
            ]
        },
        {
            "positions": [
                -1.8395406763313618,
                -1.4079791447870535,
                2.022765082920206,
                -0.6619266129436666,
                1.226215669314902,
                -3.0325166075354426
            ]
        },
        {
            "positions": [
                -1.9234227032397282,
                -1.4036756383910292,
                2.055879923849118,
                -0.7285582547695117,
                1.1029452094365708,
                -2.9868564018683728
            ]
        },
        {
            "positions": [
                -2.0073047301480944,
                -1.399372131995005,
                2.0889947647780303,
                -0.7951898965953568,
                0.97967474955824,
                -2.9411961962013033
            ]
        },
        {
            "positions": [
                -2.0911867570564606,
                -1.3950686255989808,
                2.1221096057069424,
                -0.8618215384212018,
                0.8564042896799089,
                -2.8955359905342335
            ]
        },
        {
            "positions": [
                -2.175068783964827,
                -1.3907651192029564,
                2.1552244466358546,
                -0.9284531802470469,
                0.7331338298015779,
                -2.8498757848671636
            ]
        },
        {
            "positions": [
                -2.313478283440579,
                -1.4016675530089617,
                2.1892593387842276,
                -0.9746569215330806,
                0.7701402135505555,
                -2.9393344504997625
            ]
        },
        {
            "positions": [
                -2.4518877829163306,
                -1.4125699868149668,
                2.223294230932601,
                -1.0208606628191144,
                0.8071465972995331,
                -3.0287931161323614
            ]
        },
        {
            "positions": [
                -2.5902972823920827,
                -1.4234724206209721,
                2.257329123080974,
                -1.067064404105148,
                0.8441529810485107,
                -3.11825178176496
            ]
        },
        {
            "positions": [
                -2.7287067818678343,
                -1.4343748544269772,
                2.2913640152293477,
                -1.1132681453911817,
                0.8811593647974881,
                -3.2077104473975595
            ]
        },
        {
            "positions": [
                -2.8671162813435864,
                -1.4452772882329825,
                2.325398907377721,
                -1.1594718866772153,
                0.9181657485464657,
                -3.2971691130301584
            ]
        },
        {
            "positions": [
                -3.005525780819338,
                -1.4561797220389876,
                2.3594337995260943,
                -1.205675627963249,
                0.9551721322954433,
                -3.386627778662757
            ]
        },
        {
            "positions": [
                -3.14393528029509,
                -1.467082155844993,
                2.3934686916744674,
                -1.2518793692492827,
                0.9921785160444209,
                -3.476086444295356
            ]
        },
        {
            "positions": [
                -3.048179986367973,
                -1.4235667717767506,
                2.3390902458993024,
                -1.1950484190839852,
                0.9460048989311365,
                -3.42852286105654
            ]
        },
        {
            "positions": [
                -2.9524246924408555,
                -1.3800513877085083,
                2.2847118001241373,
                -1.138217468918688,
                0.8998312818178521,
                -3.3809592778177233
            ]
        },
        {
            "positions": [
                -2.856669398513738,
                -1.336536003640266,
                2.2303333543489723,
                -1.0813865187533904,
                0.8536576647045677,
                -3.333395694578907
            ]
        },
        {
            "positions": [
                -2.760914104586621,
                -1.2930206195720237,
                2.1759549085738077,
                -1.024555568588093,
                0.8074840475912834,
                -3.2858321113400906
            ]
        },
        {
            "positions": [
                -2.6651588106595034,
                -1.2495052355037812,
                2.1215764627986426,
                -0.9677246184227956,
                0.7613104304779991,
                -3.2382685281012744
            ]
        },
        {
            "positions": [
                -2.569403516732386,
                -1.205989851435539,
                2.0671980170234776,
                -0.9108936682574982,
                0.7151368133647147,
                -3.190704944862458
            ]
        },
        {
            "positions": [
                -2.4736482228052687,
                -1.1624744673672966,
                2.0128195712483126,
                -0.8540627180922007,
                0.6689631962514303,
                -3.1431413616236417
            ]
        }
    ]
}