{
    "goal": {
        "global_pose": {
            "orientation": {
                "w": 0.005598929693374612,
                "x": 0.007748599140229565,
                "y": 0.7110244013736278,
                "z": -0.7031023480610252
            },
            "position": {
                "x": -0.8858502320852131,
                "y": -0.7141253447532654,
                "z": 0.3711530566215515
            }
        },
        "name": "move_to_auspresseinheit_C"
    },
    "id": "STRIDE_move_to_auspresseinheit_C_1",
    "joint_names": [
        "shoulder_pan_joint",
        "shoulder_lift_joint",
        "elbow_joint",
        "wrist_1_joint",
        "wrist_2_joint",
        "wrist_3_joint"
    ],
    "metrics": {
        "cart_traj_len": 0.49259810667952286,
        "distance_elbow_joint": 0.9943109454950338,
        "distance_shoulder_lift_joint": 0.32325206073567636,
        "distance_shoulder_pan_joint": 0.2559029852791368,
        "distance_wrist_1_joint": 0.6582022525278249,
        "distance_wrist_2_joint": 1.3193807423196224,
        "distance_wrist_3_joint": 0.04370686196914608,
        "smoothness": 6.459479467149049e-16,
        "time": 1.9886568340000002,
        "traj_len": 1.89598413715053,
        "weighted_distance": 2.3790234482056243
    },
    "planner": "STRIDE",
    "start": {
        "state": {
            "elbow_joint": 1.7527959577737207,
            "shoulder_lift_joint": -0.9740617694225068,
            "shoulder_pan_joint": -2.967991417825858,
            "wrist_1_joint": -0.759517768980727,
            "wrist_2_joint": 1.7443932448377408,
            "wrist_3_joint": -3.0840537646736568
        }
    },
    "waypoints": [
        {
            "positions": [
                -2.967991417825858,
                -0.9740617694225068,
                1.7527959577737207,
                -0.759517768980727,
                1.7443932448377408,
                -3.0840537646736568
            ]
        },
        {
            "positions": [
                -2.9424011192979442,
                -0.9417365633489392,
                1.6533648632242173,
                -0.6936975437279445,
                1.6124551706057786,
                -3.0884244508705714
            ]
        },
        {
            "positions": [
                -2.9168108207700305,
                -0.9094113572753715,
                1.5539337686747139,
                -0.627877318475162,
                1.4805170963738163,
                -3.092795137067486
            ]
        },
        {
            "positions": [
                -2.891220522242117,
                -0.8770861512018039,
                1.4545026741252105,
                -0.5620570932223795,
                1.348579022141854,
                -3.0971658232644006
            ]
        },
        {
            "positions": [
                -2.865630223714203,
                -0.8447609451282362,
                1.3550715795757071,
                -0.496236867969597,
                1.2166409479098919,
                -3.101536509461315
            ]
        },
        {
            "positions": [
                -2.8400399251862893,
                -0.8124357390546686,
                1.2556404850262037,
                -0.4304166427168145,
                1.0847028736779296,
                -3.10590719565823
            ]
        },
        {
            "positions": [
                -2.814449626658376,
                -0.780110532981101,
                1.1562093904767003,
                -0.36459641746403204,
                0.9527647994459674,
                -3.1102778818551444
            ]
        },
        {
            "positions": [
                -2.7888593281304623,
                -0.7477853269075333,
                1.056778295927197,
                -0.29877619221124957,
                0.8208267252140052,
                -3.114648568052059
            ]
        },
        {
            "positions": [
                -2.7632690296025486,
                -0.7154601208339657,
                0.9573472013776936,
                -0.232955966958467,
                0.6888886509820429,
                -3.1190192542489736
            ]
        },
        {
            "positions": [
                -2.737678731074635,
                -0.683134914760398,
                0.8579161068281902,
                -0.16713574170568457,
                0.5569505767500806,
                -3.1233899404458882
            ]
        },
        {
            "positions": [
                -2.712088432546721,
                -0.6508097086868304,
                0.7584850122786868,
                -0.10131551645290206,
                0.4250125025181185,
                -3.127760626642803
            ]
        }
    ]
}