{
    "goal": {
        "global_pose": {
            "orientation": {
                "w": 0.005598929693374612,
                "x": 0.007748599140229565,
                "y": 0.7110244013736278,
                "z": -0.7031023480610252
            },
            "position": {
                "x": -0.8858502320852131,
                "y": -0.7141253447532654,
                "z": 0.3711530566215515
            }
        },
        "name": "move_to_auspresseinheit_C"
    },
    "id": "STRIDE_move_to_auspresseinheit_C_88",
    "joint_names": [
        "shoulder_pan_joint",
        "shoulder_lift_joint",
        "elbow_joint",
        "wrist_1_joint",
        "wrist_2_joint",
        "wrist_3_joint"
    ],
    "metrics": {
        "cart_traj_len": 0.4930443431603521,
        "distance_elbow_joint": 0.9912052603790624,
        "distance_shoulder_lift_joint": 0.3205946205262328,
        "distance_shoulder_pan_joint": 0.2574043740595404,
        "distance_wrist_1_joint": 0.6652091703063996,
        "distance_wrist_2_joint": 1.302241455567704,
        "distance_wrist_3_joint": 0.052103092835260156,
        "smoothness": 1.6148698667872622e-16,
        "time": 2.7225243519999998,
        "traj_len": 1.894401745584658,
        "weighted_distance": 2.3791626226928715
    },
    "planner": "STRIDE",
    "start": {
        "state": {
            "elbow_joint": 1.7527959577737207,
            "shoulder_lift_joint": -0.9740617694225068,
            "shoulder_pan_joint": -2.967991417825858,
            "wrist_1_joint": -0.759517768980727,
            "wrist_2_joint": 1.7443932448377408,
            "wrist_3_joint": -3.0840537646736568
        }
    },
    "waypoints": [
        {
            "positions": [
                -2.967991417825858,
                -0.9740617694225068,
                1.7527959577737207,
                -0.759517768980727,
                1.7443932448377408,
                -3.0840537646736568
            ]
        },
        {
            "positions": [
                -2.942250980419904,
                -0.9420023073698836,
                1.6536754317358144,
                -0.692996851950087,
                1.6141690992809705,
                -3.0892640739571826
            ]
        },
        {
            "positions": [
                -2.91651054301395,
                -0.9099428453172602,
                1.5545549056979082,
                -0.6264759349194471,
                1.4839449537242,
                -3.094474383240709
            ]
        },
        {
            "positions": [
                -2.890770105607996,
                -0.8778833832646369,
                1.455434379660002,
                -0.5599550178888071,
                1.3537208081674297,
                -3.0996846925242347
            ]
        },
        {
            "positions": [
                -2.865029668202042,
                -0.8458239212120137,
                1.3563138536220958,
                -0.49343410085816714,
                1.2234966626106591,
                -3.104895001807761
            ]
        },
        {
            "positions": [
                -2.839289230796088,
                -0.8137644591593904,
                1.2571933275841896,
                -0.4269131838275272,
                1.0932725170538888,
                -3.110105311091287
            ]
        },
        {
            "positions": [
                -2.8135487933901335,
                -0.7817049971067671,
                1.1580728015462833,
                -0.36039226679688724,
                0.9630483714971184,
                -3.1153156203748127
            ]
        },
        {
            "positions": [
                -2.7878083559841795,
                -0.7496455350541439,
                1.0589522755083771,
                -0.2938713497662473,
                0.8328242259403481,
                -3.120525929658339
            ]
        },
        {
            "positions": [
                -2.7620679185782255,
                -0.7175860730015206,
                0.9598317494704707,
                -0.2273504327356073,
                0.7026000803835777,
                -3.125736238941865
            ]
        },
        {
            "positions": [
                -2.7363274811722715,
                -0.6855266109488973,
                0.8607112234325645,
                -0.16082951570496729,
                0.5723759348268072,
                -3.130946548225391
            ]
        },
        {
            "positions": [
                -2.7105870437663175,
                -0.653467148896274,
                0.7615906973946582,
                -0.0943085986743274,
                0.44215178927003695,
                -3.136156857508917
            ]
        }
    ]
}