{
    "goal": {
        "global_pose": {
            "orientation": {
                "w": 0.7031023502349854,
                "x": -0.7110244035720825,
                "y": 0.007748599164187908,
                "z": 0.005598929710686207
            },
            "position": {
                "x": 0.11585023208521307,
                "y": 0.44412534475326537,
                "z": 0.3711530566215515
            }
        },
        "name": "move_to_auspresseinheit_A"
    },
    "id": "STRIDE_move_to_auspresseinheit_A_117",
    "joint_names": [
        "shoulder_pan_joint",
        "shoulder_lift_joint",
        "elbow_joint",
        "wrist_1_joint",
        "wrist_2_joint",
        "wrist_3_joint"
    ],
    "metrics": {
        "cart_traj_len": 2.66009530423492,
        "distance_elbow_joint": 2.213480007984317,
        "distance_shoulder_lift_joint": 0.5330874213429713,
        "distance_shoulder_pan_joint": 4.110747558760841,
        "distance_wrist_1_joint": 5.095342256686857,
        "distance_wrist_2_joint": 3.10476991526574,
        "distance_wrist_3_joint": 2.0919026250470316,
        "smoothness": 0.7067929046385,
        "time": 0.176117921,
        "traj_len": 4.1411749280956185,
        "weighted_distance": 5.434450037228644
    },
    "planner": "STRIDE",
    "start": {
        "state": {
            "elbow_joint": 2.4225746658250005,
            "shoulder_lift_joint": -1.3736534386056498,
            "shoulder_pan_joint": -0.3378633547517467,
            "wrist_1_joint": -1.0288598680537169,
            "wrist_2_joint": 1.233022673432363,
            "wrist_3_joint": -3.0940220416140027
        }
    },
    "waypoints": [
        {
            "positions": [
                -0.3378633547517467,
                -1.3736534386056498,
                2.4225746658250005,
                -1.0288598680537169,
                1.233022673432363,
                -3.0940220416140027
            ]
        },
        {
            "positions": [
                -0.4075942209514445,
                -1.3800859207139096,
                2.3715380005208324,
                -0.9000846039294423,
                1.1503110009752486,
                -3.0474068825983602
            ]
        },
        {
            "positions": [
                -0.4773250871511423,
                -1.386518402822169,
                2.3205013352166644,
                -0.7713093398051678,
                1.0675993285181342,
                -3.000791723582718
            ]
        },
        {
            "positions": [
                -0.54705595335084,
                -1.3929508849304288,
                2.2694646699124963,
                -0.6425340756808933,
                0.9848876560610199,
                -2.9541765645670757
            ]
        },
        {
            "positions": [
                -0.6167868195505378,
                -1.3993833670386884,
                2.2184280046083282,
                -0.5137588115566187,
                0.9021759836039054,
                -2.9075614055514336
            ]
        },
        {
            "positions": [
                -0.6865176857502355,
                -1.4058158491469481,
                2.16739133930416,
                -0.3849835474323442,
                0.8194643111467911,
                -2.860946246535791
            ]
        },
        {
            "positions": [
                -0.7562485519499333,
                -1.4122483312552079,
                2.1163546739999926,
                -0.2562082833080698,
                0.7367526386896768,
                -2.814331087520149
            ]
        },
        {
            "positions": [
                -0.8259794181496312,
                -1.4186808133634674,
                2.0653180086958245,
                -0.12743301918379513,
                0.6540409662325622,
                -2.7677159285045065
            ]
        },
        {
            "positions": [
                -0.895710284349329,
                -1.4251132954717272,
                2.0142813433916564,
                0.001342244940479409,
                0.5713292937754478,
                -2.7211007694888645
            ]
        },
        {
            "positions": [
                -0.9654411505490268,
                -1.4315457775799867,
                1.9632446780874884,
                0.13011750906475394,
                0.4886176213183334,
                -2.674485610473222
            ]
        },
        {
            "positions": [
                -1.0351720167487244,
                -1.4379782596882464,
                1.9122080127833203,
                0.2588927731890285,
                0.4059059488612191,
                -2.62787045145758
            ]
        },
        {
            "positions": [
                -1.1049028829484222,
                -1.444410741796506,
                1.8611713474791522,
                0.387668037313303,
                0.3231942764041047,
                -2.5812552924419374
            ]
        },
        {
            "positions": [
                -1.17463374914812,
                -1.4508432239047657,
                1.8101346821749842,
                0.5164433014375773,
                0.2404826039469904,
                -2.5346401334262953
            ]
        },
        {
            "positions": [
                -1.2443646153478178,
                -1.4572757060130255,
                1.7590980168708161,
                0.6452185655618521,
                0.15777093148987587,
                -2.488024974410653
            ]
        },
        {
            "positions": [
                -1.3140954815475157,
                -1.463708188121285,
                1.708061351566648,
                0.7739938296861266,
                0.07505925903276145,
                -2.4414098153950103
            ]
        },
        {
            "positions": [
                -1.3838263477472132,
                -1.4701406702295448,
                1.6570246862624802,
                0.9027690938104009,
                -0.007652413424352744,
                -2.3947946563793683
            ]
        },
        {
            "positions": [
                -1.453557213946911,
                -1.4765731523378043,
                1.6059880209583122,
                1.0315443579346757,
                -0.09036408588146738,
                -2.3481794973637258
            ]
        },
        {
            "positions": [
                -1.5232880801466089,
                -1.483005634446064,
                1.554951355654144,
                1.1603196220589502,
                -0.17307575833858158,
                -2.3015643383480837
            ]
        },
        {
            "positions": [
                -1.5930189463463067,
                -1.4894381165543238,
                1.503914690349976,
                1.2890948861832248,
                -0.2557874307956962,
                -2.254949179332441
            ]
        },
        {
            "positions": [
                -1.6627498125460045,
                -1.4958705986625833,
                1.4528780250458082,
                1.4178701503074993,
                -0.3384991032528104,
                -2.2083340203167987
            ]
        },
        {
            "positions": [
                -1.732480678745702,
                -1.502303080770843,
                1.4018413597416401,
                1.5466454144317738,
                -0.4212107757099248,
                -2.1617188613011566
            ]
        },
        {
            "positions": [
                -1.8022115449454,
                -1.5087355628791026,
                1.350804694437472,
                1.6754206785560484,
                -0.5039224481670392,
                -2.1151037022855146
            ]
        },
        {
            "positions": [
                -1.8719424111450977,
                -1.5151680449873624,
                1.299768029133304,
                1.8041959426803227,
                -0.5866341206241537,
                -2.068488543269872
            ]
        },
        {
            "positions": [
                -1.7548211155829392,
                -1.5329668093037832,
                1.3493440914647867,
                1.7013647405915584,
                -0.5282198878419162,
                -2.116959867210913
            ]
        },
        {
            "positions": [
                -1.6376998200207806,
                -1.550765573620204,
                1.3989201537962694,
                1.598533538502794,
                -0.4698056550596788,
                -2.165431191151954
            ]
        },
        {
            "positions": [
                -1.520578524458622,
                -1.568564337936625,
                1.4484962161277521,
                1.4957023364140296,
                -0.4113914222774414,
                -2.213902515092995
            ]
        },
        {
            "positions": [
                -1.4034572288964635,
                -1.5863631022530458,
                1.498072278459235,
                1.392871134325265,
                -0.35297718949520396,
                -2.2623738390340358
            ]
        },
        {
            "positions": [
                -1.2863359333343047,
                -1.6041618665694666,
                1.5476483407907178,
                1.290039932236501,
                -0.2945629567129665,
                -2.310845162975077
            ]
        },
        {
            "positions": [
                -1.1692146377721464,
                -1.6219606308858874,
                1.5972244031222005,
                1.1872087301477365,
                -0.2361487239307291,
                -2.359316486916118
            ]
        },
        {
            "positions": [
                -1.0520933422099876,
                -1.6397593952023084,
                1.6468004654536832,
                1.084377528058972,
                -0.17773449114849166,
                -2.4077878108571587
            ]
        },
        {
            "positions": [
                -0.9349720466478291,
                -1.6575581595187292,
                1.6963765277851661,
                0.9815463259702077,
                -0.1193202583662542,
                -2.4562591347982
            ]
        },
        {
            "positions": [
                -0.8178507510856705,
                -1.67535692383515,
                1.7459525901166488,
                0.8787151238814433,
                -0.0609060255840167,
                -2.5047304587392407
            ]
        },
        {
            "positions": [
                -0.700729455523512,
                -1.6931556881515708,
                1.7955286524481315,
                0.7758839217926792,
                -0.002491792801779358,
                -2.5532017826802815
            ]
        },
        {
            "positions": [
                -0.5836081599613534,
                -1.7109544524679916,
                1.8451047147796142,
                0.6730527197039147,
                0.055922439980458094,
                -2.6016731066213223
            ]
        },
        {
            "positions": [
                -0.46648686439919484,
                -1.7287532167844126,
                1.894680777111097,
                0.5702215176151504,
                0.11433667276269543,
                -2.6501444305623636
            ]
        },
        {
            "positions": [
                -0.34936556883703607,
                -1.7465519811008334,
                1.9442568394425797,
                0.4673903155263859,
                0.172750905544933,
                -2.6986157545034044
            ]
        },
        {
            "positions": [
                -0.23224427327487773,
                -1.7643507454172542,
                1.9938329017740624,
                0.3645591134376216,
                0.23116513832717034,
                -2.747087078444445
            ]
        },
        {
            "positions": [
                -0.11512297771271918,
                -1.782149509733675,
                2.043408964105545,
                0.2617279113488573,
                0.2895793711094078,
                -2.7955584023854865
            ]
        },
        {
            "positions": [
                0.0019983178494396014,
                -1.799948274050096,
                2.092985026437028,
                0.1588967092600928,
                0.34799360389164524,
                -2.8440297263265273
            ]
        },
        {
            "positions": [
                0.11911961341159794,
                -1.8177470383665169,
                2.1425610887685105,
                0.05606550717132852,
                0.4064078366738827,
                -2.892501050267568
            ]
        },
        {
            "positions": [
                0.2362409089737567,
                -1.8355458026829377,
                2.1921371510999936,
                -0.046765694917435985,
                0.46482206945612026,
                -2.9409723742086094
            ]
        },
        {
            "positions": [
                0.35336220453591505,
                -1.8533445669993585,
                2.2417132134314763,
                -0.14959689700620027,
                0.5232363022383575,
                -2.98944369814965
            ]
        },
        {
            "positions": [
                0.4704835000980738,
                -1.8711433313157793,
                2.291289275762959,
                -0.25242809909496433,
                0.5816505350205949,
                -3.037915022090691
            ]
        },
        {
            "positions": [
                0.5876047956602326,
                -1.8889420956322003,
                2.3408653380944417,
                -0.3552593011837293,
                0.6400647678028324,
                -3.0863863460317322
            ]
        },
        {
            "positions": [
                0.7047260912223912,
                -1.906740859948621,
                2.3904414004259245,
                -0.4580905032724932,
                0.69847900058507,
                -3.134857669972773
            ]
        }
    ]
}