{
    "goal": {
        "global_pose": {
            "orientation": {
                "w": -0.4816463035849501,
                "x": 0.5182115481033762,
                "y": 0.4908360881923453,
                "z": -0.5084816262002911
            },
            "position": {
                "x": -0.8240239810943604,
                "y": 0.19912469901144506,
                "z": 0.16403168439865112
            }
        },
        "name": "move_to_storage_D"
    },
    "id": "STRIDE_move_to_storage_D_23",
    "joint_names": [
        "shoulder_pan_joint",
        "shoulder_lift_joint",
        "elbow_joint",
        "wrist_1_joint",
        "wrist_2_joint",
        "wrist_3_joint"
    ],
    "metrics": {
        "cart_traj_len": 1.4309959610058198,
        "distance_elbow_joint": 0.6831031340187146,
        "distance_shoulder_lift_joint": 0.5121621881774869,
        "distance_shoulder_pan_joint": 1.6066024143106983,
        "distance_wrist_1_joint": 3.829963455885637,
        "distance_wrist_2_joint": 1.7789107088976814,
        "distance_wrist_3_joint": 3.69729419353808,
        "smoothness": 0.21641390237078448,
        "time": 0.075735498,
        "traj_len": 3.4796603418765306,
        "weighted_distance": 5.011137460366436
    },
    "planner": "STRIDE",
    "start": {
        "state": {
            "elbow_joint": -2.384821988534728,
            "shoulder_lift_joint": -2.2788054721415256,
            "shoulder_pan_joint": -0.1854694642142757,
            "wrist_1_joint": 1.4845938289331202,
            "wrist_2_joint": 0.17898776772866878,
            "wrist_3_joint": 0.037105688729662994
        }
    },
    "waypoints": [
        {
            "positions": [
                -0.1854694642142757,
                -2.2788054721415256,
                -2.384821988534728,
                1.4845938289331202,
                0.17898776772866878,
                0.037105688729662994
            ]
        },
        {
            "positions": [
                -0.05985095633952767,
                -2.231344051424246,
                -2.2963370158798697,
                1.436867294684778,
                0.16359403581749699,
                0.07863869586185251
            ]
        },
        {
            "positions": [
                0.06576755153522038,
                -2.183882630706967,
                -2.2078520432250115,
                1.389140760436436,
                0.1482003039063252,
                0.12017170299404205
            ]
        },
        {
            "positions": [
                0.19138605940996842,
                -2.1364212099896878,
                -2.1193670705701533,
                1.341414226188094,
                0.1328065719951534,
                0.16170471012623158
            ]
        },
        {
            "positions": [
                0.3170045672847165,
                -2.0889597892724088,
                -2.030882097915295,
                1.293687691939752,
                0.11741284008398158,
                0.2032377172584211
            ]
        },
        {
            "positions": [
                0.44262307515946464,
                -2.0414983685551293,
                -1.9423971252604366,
                1.2459611576914098,
                0.10201910817280976,
                0.24477072439061065
            ]
        },
        {
            "positions": [
                0.5682415830342126,
                -1.9940369478378501,
                -1.8539121526055786,
                1.1982346234430679,
                0.08662537626163798,
                0.2863037315228002
            ]
        },
        {
            "positions": [
                0.6938600909089607,
                -1.946575527120571,
                -1.7654271799507202,
                1.1505080891947257,
                0.07123164435046617,
                0.32783673865498975
            ]
        },
        {
            "positions": [
                0.6647691765414623,
                -1.9537728168468322,
                -1.7679755129681085,
                1.010672980548836,
                0.004385460929687002,
                0.19157421291047963
            ]
        },
        {
            "positions": [
                0.6356782621739637,
                -1.9609701065730936,
                -1.7705238459854968,
                0.8708378719029463,
                -0.06246072249109216,
                0.055311687165969514
            ]
        },
        {
            "positions": [
                0.6065873478064653,
                -1.9681673962993549,
                -1.773072179002885,
                0.7310027632570566,
                -0.1293069059118713,
                -0.08095083857854063
            ]
        },
        {
            "positions": [
                0.5774964334389668,
                -1.975364686025616,
                -1.7756205120202733,
                0.5911676546111668,
                -0.1961530893326505,
                -0.21721336432305072
            ]
        },
        {
            "positions": [
                0.5484055190714683,
                -1.9825619757518773,
                -1.7781688450376616,
                0.45133254596527717,
                -0.2629992727534296,
                -0.35347589006756086
            ]
        },
        {
            "positions": [
                0.5193146047039698,
                -1.9897592654781386,
                -1.78071717805505,
                0.3114974373193875,
                -0.3298454561742088,
                -0.489738415812071
            ]
        },
        {
            "positions": [
                0.49022369033647134,
                -1.9969565552044,
                -1.783265511072438,
                0.17166232867349773,
                -0.396691639594988,
                -0.6260009415565811
            ]
        },
        {
            "positions": [
                0.4611327759689729,
                -2.004153844930661,
                -1.7858138440898264,
                0.03182722002760796,
                -0.4635378230157672,
                -0.7622634673010912
            ]
        },
        {
            "positions": [
                0.4320418616014744,
                -2.0113511346569224,
                -1.7883621771072147,
                -0.10800788861828159,
                -0.5303840064365463,
                -0.8985259930456012
            ]
        },
        {
            "positions": [
                0.4029509472339759,
                -2.0185484243831837,
                -1.790910510124603,
                -0.24784299726417136,
                -0.5972301898573255,
                -1.0347885187901116
            ]
        },
        {
            "positions": [
                0.37386003286647745,
                -2.025745714109445,
                -1.793458843141991,
                -0.38767810591006113,
                -0.6640763732781046,
                -1.1710510445346216
            ]
        },
        {
            "positions": [
                0.344769118498979,
                -2.0329430038357064,
                -1.7960071761593794,
                -0.5275132145559507,
                -0.7309225566988837,
                -1.3073135702791316
            ]
        },
        {
            "positions": [
                0.31567820413148046,
                -2.0401402935619677,
                -1.7985555091767678,
                -0.6673483232018405,
                -0.7977687401196629,
                -1.4435760960236417
            ]
        },
        {
            "positions": [
                0.28658728976398196,
                -2.047337583288229,
                -1.801103842194156,
                -0.8071834318477302,
                -0.8646149235404421,
                -1.5798386217681522
            ]
        },
        {
            "positions": [
                0.25749637539648357,
                -2.0545348730144903,
                -1.8036521752115442,
                -0.9470185404936196,
                -0.9314611069612211,
                -1.7161011475126622
            ]
        },
        {
            "positions": [
                0.22840546102898507,
                -2.0617321627407517,
                -1.8062005082289325,
                -1.0868536491395098,
                -0.9983072903820005,
                -1.8523636732571722
            ]
        },
        {
            "positions": [
                0.1993145466614865,
                -2.068929452467013,
                -1.8087488412463208,
                -1.2266887577853995,
                -1.0651534738027797,
                -1.9886261990016827
            ]
        },
        {
            "positions": [
                0.17022363229398807,
                -2.0761267421932743,
                -1.8112971742637092,
                -1.3665238664312889,
                -1.1319996572235587,
                -2.1248887247461923
            ]
        },
        {
            "positions": [
                0.14113271792648963,
                -2.0833240319195356,
                -1.8138455072810973,
                -1.5063589750771786,
                -1.1988458406443379,
                -2.2611512504907028
            ]
        },
        {
            "positions": [
                0.11204180355899107,
                -2.0905213216457965,
                -1.8163938402984856,
                -1.6461940837230684,
                -1.265692024065117,
                -2.397413776235213
            ]
        },
        {
            "positions": [
                0.08295088919149263,
                -2.097718611372058,
                -1.818942173315874,
                -1.7860291923689577,
                -1.332538207485896,
                -2.533676301979723
            ]
        },
        {
            "positions": [
                0.05385997482399418,
                -2.104915901098319,
                -1.8214905063332623,
                -1.925864301014848,
                -1.3993843909066754,
                -2.669938827724233
            ]
        },
        {
            "positions": [
                0.02476906045649563,
                -2.1121131908245805,
                -1.8240388393506506,
                -2.0656994096607377,
                -1.4662305743274546,
                -2.8062013534687433
            ]
        },
        {
            "positions": [
                -0.004321853911002704,
                -2.119310480550842,
                -1.8265871723680387,
                -2.205534518306627,
                -1.5330767577482336,
                -2.9424638792132534
            ]
        },
        {
            "positions": [
                -0.033412768278501266,
                -2.126507770277103,
                -1.829135505385427,
                -2.345369626952517,
                -1.5999229411690128,
                -3.0787264049577634
            ]
        }
    ]
}