{
    "goal": {
        "global_pose": {
            "orientation": {
                "w": 0.005598929693374612,
                "x": 0.007748599140229565,
                "y": 0.7110244013736278,
                "z": -0.7031023480610252
            },
            "position": {
                "x": 0.1141497679147869,
                "y": -0.7141253447532654,
                "z": 0.3711530566215515
            }
        },
        "name": "move_to_auspresseinheit_B"
    },
    "id": "STRIDE_move_to_auspresseinheit_B_55",
    "joint_names": [
        "shoulder_pan_joint",
        "shoulder_lift_joint",
        "elbow_joint",
        "wrist_1_joint",
        "wrist_2_joint",
        "wrist_3_joint"
    ],
    "metrics": {
        "cart_traj_len": 0.5652752332317594,
        "distance_elbow_joint": 0.06157173951776973,
        "distance_shoulder_lift_joint": 0.29550029348187645,
        "distance_shoulder_pan_joint": 0.5800144603814079,
        "distance_wrist_1_joint": 0.32655696771870457,
        "distance_wrist_2_joint": 0.984320589297965,
        "distance_wrist_3_joint": 0.009421760757638786,
        "smoothness": 0.0,
        "time": 0.501414414,
        "traj_len": 1.5024599199830133,
        "weighted_distance": 1.8939659156614486
    },
    "planner": "STRIDE",
    "start": {
        "state": {
            "elbow_joint": 2.0193083361928714,
            "shoulder_lift_joint": -1.1220246554650708,
            "shoulder_pan_joint": -1.0952077554168747,
            "wrist_1_joint": -0.8559753972642168,
            "wrist_2_joint": 0.4759566250798843,
            "wrist_3_joint": -3.1240929996934557
        }
    },
    "waypoints": [
        {
            "positions": [
                -1.0952077554168747,
                -1.1220246554650708,
                2.0193083361928714,
                -0.8559753972642168,
                0.4759566250798843,
                -3.1240929996934557
            ]
        },
        {
            "positions": [
                -1.1918768321471094,
                -1.1712747043787168,
                2.0090463796065765,
                -0.8015492359777661,
                0.6400100566295451,
                -3.122522706233849
            ]
        },
        {
            "positions": [
                -1.2885459088773439,
                -1.2205247532923629,
                1.9987844230202816,
                -0.7471230746913152,
                0.8040634881792059,
                -3.1209524127742427
            ]
        },
        {
            "positions": [
                -1.3852149856075786,
                -1.2697748022060091,
                1.9885224664339867,
                -0.6926969134048645,
                0.9681169197288668,
                -3.1193821193146363
            ]
        },
        {
            "positions": [
                -1.4818840623378131,
                -1.3190248511196552,
                1.9782605098476915,
                -0.6382707521184138,
                1.1321703512785275,
                -3.11781182585503
            ]
        },
        {
            "positions": [
                -1.578553139068048,
                -1.3682749000333012,
                1.9679985532613966,
                -0.5838445908319629,
                1.2962237828281884,
                -3.1162415323954233
            ]
        },
        {
            "positions": [
                -1.6752222157982826,
                -1.4175249489469472,
                1.9577365966751017,
                -0.5294184295455122,
                1.4602772143778493,
                -3.114671238935817
            ]
        }
    ]
}