{
    "goal": {
        "global_pose": {
            "orientation": {
                "w": -0.4816463035849501,
                "x": 0.5182115481033762,
                "y": 0.4908360881923453,
                "z": -0.5084816262002911
            },
            "position": {
                "x": -0.8240239810943604,
                "y": -0.300875300988555,
                "z": 0.16403168439865112
            }
        },
        "name": "move_to_storage_C"
    },
    "id": "STRIDE_move_to_storage_C_99",
    "joint_names": [
        "shoulder_pan_joint",
        "shoulder_lift_joint",
        "elbow_joint",
        "wrist_1_joint",
        "wrist_2_joint",
        "wrist_3_joint"
    ],
    "metrics": {
        "cart_traj_len": 0.5759414375293956,
        "distance_elbow_joint": 0.2593700623367712,
        "distance_shoulder_lift_joint": 0.18957588345207244,
        "distance_shoulder_pan_joint": 0.49447725161797695,
        "distance_wrist_1_joint": 0.08644904976754675,
        "distance_wrist_2_joint": 1.0639942306505499,
        "distance_wrist_3_joint": 0.0706624885649747,
        "smoothness": 0.0,
        "time": 0.144128665,
        "traj_len": 1.471233824512573,
        "weighted_distance": 1.8591119449720983
    },
    "planner": "STRIDE",
    "start": {
        "state": {
            "elbow_joint": 2.010868314990456,
            "shoulder_lift_joint": -1.1634956873337592,
            "shoulder_pan_joint": -2.4736205022346125,
            "wrist_1_joint": -0.8367026794202681,
            "wrist_2_joint": 0.6746043897044499,
            "wrist_3_joint": -3.1496632123970403
        }
    },
    "waypoints": [
        {
            "positions": [
                -2.4736205022346125,
                -1.1634956873337592,
                2.010868314990456,
                -0.8367026794202681,
                0.6746043897044499,
                -3.1496632123970403
            ]
        },
        {
            "positions": [
                -2.556033377504275,
                -1.1318997067584138,
                1.9676399712676607,
                -0.8222945044590103,
                0.8519367614795416,
                -3.1378861309695445
            ]
        },
        {
            "positions": [
                -2.6384462527739383,
                -1.1003037261830684,
                1.9244116275448655,
                -0.8078863294977525,
                1.0292691332546333,
                -3.1261090495420487
            ]
        },
        {
            "positions": [
                -2.720859128043601,
                -1.068707745607723,
                1.8811832838220703,
                -0.7934781545364947,
                1.2066015050297247,
                -3.114331968114553
            ]
        },
        {
            "positions": [
                -2.8032720033132636,
                -1.0371117650323776,
                1.837954940099275,
                -0.7790699795752369,
                1.3839338768048166,
                -3.102554886687057
            ]
        },
        {
            "positions": [
                -2.8856848785829268,
                -1.0055157844570322,
                1.7947265963764798,
                -0.7646618046139791,
                1.561266248579908,
                -3.0907778052595614
            ]
        },
        {
            "positions": [
                -2.9680977538525894,
                -0.9739198038816868,
                1.7514982526536846,
                -0.7502536296527214,
                1.738598620355,
                -3.0790007238320656
            ]
        }
    ]
}