{
    "goal": {
        "global_pose": {
            "orientation": {
                "w": 0.7031023480610252,
                "x": -0.7110244013736278,
                "y": 0.0077485991402295624,
                "z": 0.005598929693374583
            },
            "position": {
                "x": -0.8841497679147869,
                "y": 0.44412534475326537,
                "z": 0.3711530566215515
            }
        },
        "name": "move_to_auspresseinheit_D"
    },
    "id": "STRIDE_move_to_auspresseinheit_D_68",
    "joint_names": [
        "shoulder_pan_joint",
        "shoulder_lift_joint",
        "elbow_joint",
        "wrist_1_joint",
        "wrist_2_joint",
        "wrist_3_joint"
    ],
    "metrics": {
        "cart_traj_len": 0.3427090407082299,
        "distance_elbow_joint": 0.6384582707101998,
        "distance_shoulder_lift_joint": 0.12159046400815132,
        "distance_shoulder_pan_joint": 0.1333372425744094,
        "distance_wrist_1_joint": 0.5302333207648822,
        "distance_wrist_2_joint": 1.435709837087257,
        "distance_wrist_3_joint": 0.0034574802542013394,
        "smoothness": 1.9737298371844314e-16,
        "time": 0.107674521,
        "traj_len": 1.6919771320556023,
        "weighted_distance": 2.199009943988349
    },
    "planner": "STRIDE",
    "start": {
        "state": {
            "elbow_joint": -1.8275523626775212,
            "shoulder_lift_joint": -2.126789852344167,
            "shoulder_pan_joint": -0.03513704404078235,
            "wrist_1_joint": -2.347782403156801,
            "wrist_2_joint": -1.6058999987535132,
            "wrist_3_joint": -3.0880379163319196
        }
    },
    "waypoints": [
        {
            "positions": [
                -0.03513704404078235,
                -2.126789852344167,
                -1.8275523626775212,
                -2.347782403156801,
                -1.6058999987535132,
                -3.0880379163319196
            ]
        },
        {
            "positions": [
                -0.05180419936258353,
                -2.1419886603451856,
                -1.7477450788387463,
                -2.414061568252411,
                -1.426436269117606,
                -3.0876057313001444
            ]
        },
        {
            "positions": [
                -0.0684713546843847,
                -2.157187468346205,
                -1.6679377949999712,
                -2.4803407333480214,
                -1.2469725394816988,
                -3.087173546268369
            ]
        },
        {
            "positions": [
                -0.08513851000618589,
                -2.1723862763472237,
                -1.5881305111611963,
                -2.5466198984436317,
                -1.0675088098457919,
                -3.086741361236594
            ]
        },
        {
            "positions": [
                -0.10180566532798704,
                -2.1875850843482425,
                -1.5083232273224212,
                -2.612899063539242,
                -0.8880450802098847,
                -3.0863091762048187
            ]
        },
        {
            "positions": [
                -0.11847282064978823,
                -2.2027838923492613,
                -1.4285159434836463,
                -2.679178228634852,
                -0.7085813505739775,
                -3.085876991173044
            ]
        },
        {
            "positions": [
                -0.13513997597158942,
                -2.21798270035028,
                -1.3487086596448714,
                -2.7454573937304625,
                -0.5291176209380706,
                -3.0854448061412687
            ]
        },
        {
            "positions": [
                -0.15180713129339057,
                -2.2331815083512994,
                -1.2689013758060965,
                -2.8117365588260728,
                -0.3496538913021634,
                -3.0850126211094935
            ]
        },
        {
            "positions": [
                -0.16847428661519176,
                -2.248380316352318,
                -1.1890940919673214,
                -2.878015723921683,
                -0.1701901616662563,
                -3.0845804360777183
            ]
        }
    ]
}