{
    "goal": {
        "global_pose": {
            "orientation": {
                "w": -0.4816463035849501,
                "x": 0.5182115481033762,
                "y": 0.4908360881923453,
                "z": -0.5084816262002911
            },
            "position": {
                "x": -0.8240239810943604,
                "y": 0.19912469901144506,
                "z": 0.16403168439865112
            }
        },
        "name": "move_to_storage_D"
    },
    "id": "STRIDE_move_to_storage_D_17",
    "joint_names": [
        "shoulder_pan_joint",
        "shoulder_lift_joint",
        "elbow_joint",
        "wrist_1_joint",
        "wrist_2_joint",
        "wrist_3_joint"
    ],
    "metrics": {
        "cart_traj_len": 4.2954372948975035,
        "distance_elbow_joint": 4.465848409967965,
        "distance_shoulder_lift_joint": 1.2965269898316945,
        "distance_shoulder_pan_joint": 2.813616601882534,
        "distance_wrist_1_joint": 2.2814049652050206,
        "distance_wrist_2_joint": 1.1593340014198297,
        "distance_wrist_3_joint": 4.280388617257962,
        "smoothness": 0.2355592293749789,
        "time": 0.17825818000000002,
        "traj_len": 4.03696910881976,
        "weighted_distance": 5.319646208791124
    },
    "planner": "STRIDE",
    "start": {
        "state": {
            "elbow_joint": -2.384821988534728,
            "shoulder_lift_joint": -2.2788054721415256,
            "shoulder_pan_joint": -0.1854694642142757,
            "wrist_1_joint": 1.4845938289331202,
            "wrist_2_joint": 0.17898776772866878,
            "wrist_3_joint": 0.037105688729662994
        }
    },
    "waypoints": [
        {
            "positions": [
                -0.1854694642142757,
                -2.2788054721415256,
                -2.384821988534728,
                1.4845938289331202,
                0.17898776772866878,
                0.037105688729662994
            ]
        },
        {
            "positions": [
                -0.11085377015010216,
                -2.286571255526032,
                -2.4483845576373353,
                1.3907522442446318,
                0.22656162636978672,
                -0.045400363949918546
            ]
        },
        {
            "positions": [
                -0.036238076085928606,
                -2.294337038910538,
                -2.5119471267399427,
                1.2969106595561435,
                0.2741354850109047,
                -0.12790641662950009
            ]
        },
        {
            "positions": [
                0.05899190696376298,
                -2.2465445789450764,
                -2.4394728353833783,
                1.162320996473189,
                0.26471230577649635,
                -0.15471172073013717
            ]
        },
        {
            "positions": [
                0.15422189001345457,
                -2.1987521189796153,
                -2.366998544026814,
                1.0277313333902347,
                0.255289126542088,
                -0.18151702483077423
            ]
        },
        {
            "positions": [
                0.24945187306314615,
                -2.1509596590141538,
                -2.29452425267025,
                0.8931416703072802,
                0.24586594730767972,
                -0.20832232893141128
            ]
        },
        {
            "positions": [
                0.34468185611283775,
                -2.103167199048692,
                -2.2220499613136857,
                0.7585520072243258,
                0.23644276807327141,
                -0.23512763303204837
            ]
        },
        {
            "positions": [
                0.4399118391625293,
                -2.0553747390832307,
                -2.1495756699571213,
                0.6239623441413714,
                0.22701958883886308,
                -0.2619329371326854
            ]
        },
        {
            "positions": [
                0.5351418222122208,
                -2.0075822791177695,
                -2.077101378600557,
                0.4893726810584169,
                0.21759640960445475,
                -0.2887382412333225
            ]
        },
        {
            "positions": [
                0.6303718052619125,
                -1.959789819152308,
                -2.0046270872439926,
                0.3547830179754625,
                0.20817323037004645,
                -0.31554354533395956
            ]
        },
        {
            "positions": [
                0.7256017883116042,
                -1.9119973591868464,
                -1.9321527958874283,
                0.22019335489250813,
                0.19875005113563812,
                -0.34234884943459665
            ]
        },
        {
            "positions": [
                0.8208317713612956,
                -1.864204899221385,
                -1.8596785045308641,
                0.08560369180955374,
                0.18932687190122982,
                -0.36915415353523373
            ]
        },
        {
            "positions": [
                0.9160617544109873,
                -1.8164124392559238,
                -1.7872042131743,
                -0.04898597127340065,
                0.1799036926668215,
                -0.39595945763587076
            ]
        },
        {
            "positions": [
                1.0112917374606787,
                -1.7686199792904622,
                -1.7147299218177356,
                -0.18357563435635504,
                0.17048051343241316,
                -0.42276476173650784
            ]
        },
        {
            "positions": [
                1.1065217205103703,
                -1.7208275193250007,
                -1.6422556304611713,
                -0.31816529743930966,
                0.16105733419800483,
                -0.4495700658371449
            ]
        },
        {
            "positions": [
                1.201751703560062,
                -1.6730350593595393,
                -1.569781339104607,
                -0.45275496052226405,
                0.15163415496359653,
                -0.476375369937782
            ]
        },
        {
            "positions": [
                1.2969816866097534,
                -1.625242599394078,
                -1.4973070477480428,
                -0.5873446236052184,
                0.14221097572918823,
                -0.503180674038419
            ]
        },
        {
            "positions": [
                1.392211669659445,
                -1.5774501394286164,
                -1.4248327563914784,
                -0.721934286688173,
                0.1327877964947799,
                -0.5299859781390561
            ]
        },
        {
            "positions": [
                1.4416490883797977,
                -1.554885798485386,
                -1.294768400334907,
                -0.7249293606715221,
                0.16970134031963868,
                -0.38145410012348635
            ]
        },
        {
            "positions": [
                1.4910865071001502,
                -1.5323214575421555,
                -1.1647040442783356,
                -0.7279244346548711,
                0.20661488414449744,
                -0.23292222210791663
            ]
        },
        {
            "positions": [
                1.5405239258205028,
                -1.5097571165989252,
                -1.034639688221764,
                -0.7309195086382202,
                0.2435284279693562,
                -0.08439034409234691
            ]
        },
        {
            "positions": [
                1.5899613445408551,
                -1.4871927756556949,
                -0.9045753321651926,
                -0.7339145826215692,
                0.280441971794215,
                0.06414153392322286
            ]
        },
        {
            "positions": [
                1.6393987632612077,
                -1.4646284347124643,
                -0.7745109761086211,
                -0.7369096566049183,
                0.31735551561907377,
                0.21267341193879263
            ]
        },
        {
            "positions": [
                1.6888361819815603,
                -1.442064093769234,
                -0.6444466200520498,
                -0.7399047305882672,
                0.3542690594439325,
                0.3612052899543623
            ]
        },
        {
            "positions": [
                1.7382736007019128,
                -1.4194997528260034,
                -0.5143822639954782,
                -0.7428998045716163,
                0.39118260326879134,
                0.5097371679699321
            ]
        },
        {
            "positions": [
                1.7877110194222654,
                -1.396935411882773,
                -0.38431790793890674,
                -0.7458948785549653,
                0.42809614709365007,
                0.6582690459855018
            ]
        },
        {
            "positions": [
                1.8371484381426177,
                -1.3743710709395427,
                -0.25425355188233545,
                -0.7488899525383144,
                0.46500969091850886,
                0.8068009240010714
            ]
        },
        {
            "positions": [
                1.8865858568629705,
                -1.3518067299963121,
                -0.12418919582576371,
                -0.7518850265216633,
                0.5019232347433676,
                0.9553328020166414
            ]
        },
        {
            "positions": [
                1.9360232755833229,
                -1.3292423890530818,
                0.005875160230807586,
                -0.7548801005050124,
                0.5388367785682264,
                1.103864680032211
            ]
        },
        {
            "positions": [
                1.9854606943036754,
                -1.3066780481098514,
                0.13593951628737888,
                -0.7578751744883614,
                0.5757503223930851,
                1.2523965580477807
            ]
        },
        {
            "positions": [
                2.034898113024028,
                -1.2841137071666209,
                0.2660038723439506,
                -0.7608702484717105,
                0.612663866217944,
                1.4009284360633505
            ]
        },
        {
            "positions": [
                2.0843355317443804,
                -1.2615493662233905,
                0.39606822840052214,
                -0.7638653224550594,
                0.6495774100428028,
                1.5494603140789203
            ]
        },
        {
            "positions": [
                2.133772950464733,
                -1.2389850252801602,
                0.5261325844570932,
                -0.7668603964384085,
                0.6864909538676615,
                1.69799219209449
            ]
        },
        {
            "positions": [
                2.1832103691850855,
                -1.2164206843369296,
                0.656196940513665,
                -0.7698554704217575,
                0.7234044976925202,
                1.8465240701100598
            ]
        },
        {
            "positions": [
                2.2326477879054383,
                -1.1938563433936993,
                0.7862612965702362,
                -0.7728505444051066,
                0.760318041517379,
                1.9950559481256296
            ]
        },
        {
            "positions": [
                2.2820852066257906,
                -1.171292002450469,
                0.9163256526268075,
                -0.7758456183884556,
                0.7972315853422378,
                2.143587826141199
            ]
        },
        {
            "positions": [
                2.3315226253461434,
                -1.1487276615072384,
                1.0463900086833793,
                -0.7788406923718046,
                0.8341451291670966,
                2.292119704156769
            ]
        },
        {
            "positions": [
                2.3809600440664958,
                -1.126163320564008,
                1.176454364739951,
                -0.7818357663551536,
                0.8710586729919554,
                2.4406515821723387
            ]
        },
        {
            "positions": [
                2.430397462786848,
                -1.1035989796207777,
                1.3065187207965219,
                -0.7848308403385027,
                0.9079722168168141,
                2.5891834601879085
            ]
        },
        {
            "positions": [
                2.479834881507201,
                -1.0810346386775471,
                1.4365830768530936,
                -0.7878259143218518,
                0.9448857606416728,
                2.7377153382034782
            ]
        },
        {
            "positions": [
                2.5292723002275537,
                -1.0584702977343166,
                1.5666474329096653,
                -0.7908209883052008,
                0.9817993044665317,
                2.886247216219048
            ]
        },
        {
            "positions": [
                2.5787097189479056,
                -1.0359059567910864,
                1.6967117889662362,
                -0.7938160622885497,
                1.0187128482913903,
                3.034779094234618
            ]
        },
        {
            "positions": [
                2.6281471376682584,
                -1.0133416158478559,
                1.826776145022808,
                -0.7968111362718988,
                1.0556263921162492,
                3.183310972250187
            ]
        }
    ]
}