{
    "goal": {
        "global_pose": {
            "orientation": {
                "w": 0.5084816262002911,
                "x": -0.4908360881923452,
                "y": 0.5182115481033761,
                "z": -0.48164630358495003
            },
            "position": {
                "x": 0.5540239810943604,
                "y": -0.46912469901144505,
                "z": 0.16403168439865112
            }
        },
        "name": "move_to_storage_B"
    },
    "id": "STRIDE_move_to_storage_B_25",
    "joint_names": [
        "shoulder_pan_joint",
        "shoulder_lift_joint",
        "elbow_joint",
        "wrist_1_joint",
        "wrist_2_joint",
        "wrist_3_joint"
    ],
    "metrics": {
        "cart_traj_len": 1.9219368575484104,
        "distance_elbow_joint": 2.6323932992945007,
        "distance_shoulder_lift_joint": 0.6231011424903965,
        "distance_shoulder_pan_joint": 0.44300812613477836,
        "distance_wrist_1_joint": 2.990464262253817,
        "distance_wrist_2_joint": 2.7163827965823577,
        "distance_wrist_3_joint": 3.26445760091212,
        "smoothness": 0.2557005632911027,
        "time": 0.106071732,
        "traj_len": 3.5594672673966214,
        "weighted_distance": 4.990548014830472
    },
    "planner": "STRIDE",
    "start": {
        "state": {
            "elbow_joint": 1.664937868594044,
            "shoulder_lift_joint": -0.661644460510453,
            "shoulder_pan_joint": -0.9139846352900073,
            "wrist_1_joint": 2.146753192139373,
            "wrist_2_joint": -2.2341966793290973,
            "wrist_3_joint": 0.005466555786416001
        }
    },
    "waypoints": [
        {
            "positions": [
                -0.9139846352900073,
                -0.661644460510453,
                1.664937868594044,
                2.146753192139373,
                -2.2341966793290973,
                0.005466555786416001
            ]
        },
        {
            "positions": [
                -0.8485013019028711,
                -0.656577064000784,
                1.6060485405790712,
                2.0362508095319747,
                -2.1400355851203097,
                -0.02388116384486367
            ]
        },
        {
            "positions": [
                -0.7830179685157349,
                -0.6515096674911148,
                1.5471592125640985,
                1.9257484269245764,
                -2.0458744909115225,
                -0.05322888347614334
            ]
        },
        {
            "positions": [
                -0.7915479153771903,
                -0.6853143240627384,
                1.4832428997405327,
                1.7911782641597673,
                -1.9185392208276868,
                -0.03443366605968013
            ]
        },
        {
            "positions": [
                -0.8000778622386456,
                -0.719118980634362,
                1.419326586916967,
                1.656608101394958,
                -1.791203950743851,
                -0.015638448643216923
            ]
        },
        {
            "positions": [
                -0.8086078091001011,
                -0.7529236372059855,
                1.3554102740934013,
                1.522037938630149,
                -1.6638686806600154,
                0.0031567687732462837
            ]
        },
        {
            "positions": [
                -0.8171377559615565,
                -0.786728293777609,
                1.2914939612698355,
                1.38746777586534,
                -1.5365334105761796,
                0.02195198618970949
            ]
        },
        {
            "positions": [
                -0.8256677028230118,
                -0.8205329503492326,
                1.2275776484462697,
                1.2528976131005307,
                -1.409198140492344,
                0.04074720360617269
            ]
        },
        {
            "positions": [
                -0.8341976496844672,
                -0.8543376069208561,
                1.163661335622704,
                1.1183274503357217,
                -1.281862870408508,
                0.059542421022635905
            ]
        },
        {
            "positions": [
                -0.8427275965459226,
                -0.8881422634924797,
                1.099745022799138,
                0.9837572875709125,
                -1.1545276003246723,
                0.07833763843909912
            ]
        },
        {
            "positions": [
                -0.8512575434073779,
                -0.9219469200641033,
                1.0358287099755725,
                0.8491871248061034,
                -1.0271923302408366,
                0.09713285585556232
            ]
        },
        {
            "positions": [
                -0.8597874902688334,
                -0.9557515766357267,
                0.9719123971520066,
                0.7146169620412943,
                -0.8998570601570008,
                0.11592807327202552
            ]
        },
        {
            "positions": [
                -0.8683174371302887,
                -0.9895562332073503,
                0.9079960843284409,
                0.5800467992764851,
                -0.7725217900731651,
                0.1347232906884887
            ]
        },
        {
            "positions": [
                -0.8768473839917441,
                -1.0233608897789739,
                0.8440797715048751,
                0.445476636511676,
                -0.6451865199893294,
                0.15351850810495193
            ]
        },
        {
            "positions": [
                -0.8853773308531995,
                -1.0571655463505976,
                0.7801634586813093,
                0.310906473746867,
                -0.5178512499054935,
                0.17231372552141516
            ]
        },
        {
            "positions": [
                -0.8939072777146548,
                -1.090970202922221,
                0.7162471458577436,
                0.1763363109820577,
                -0.39051597982165775,
                0.19110894293787833
            ]
        },
        {
            "positions": [
                -0.9024372245761103,
                -1.1247748594938445,
                0.6523308330341778,
                0.041766148217248666,
                -0.26318070973782204,
                0.20990416035434156
            ]
        },
        {
            "positions": [
                -0.9109671714375657,
                -1.1585795160654682,
                0.5884145202106121,
                -0.09280401454756038,
                -0.13584543965398632,
                0.22869937777080473
            ]
        },
        {
            "positions": [
                -0.919497118299021,
                -1.1923841726370916,
                0.5244982073870463,
                -0.22737417731236964,
                -0.008510169570150633,
                0.24749459518726796
            ]
        },
        {
            "positions": [
                -0.9312012722708357,
                -1.1875780496820862,
                0.6239617832595465,
                -0.2684633034991746,
                0.024202916218076582,
                0.4411638407196779
            ]
        },
        {
            "positions": [
                -0.9429054262426504,
                -1.1827719267270806,
                0.7234253591320468,
                -0.30955242968597957,
                0.0569160020063038,
                0.6348330862520879
            ]
        },
        {
            "positions": [
                -0.954609580214465,
                -1.1779658037720753,
                0.8228889350045471,
                -0.3506415558727845,
                0.08962908779453102,
                0.8285023317844977
            ]
        },
        {
            "positions": [
                -0.9663137341862796,
                -1.17315968081707,
                0.9223525108770473,
                -0.3917306820595895,
                0.12234217358275823,
                1.0221715773169078
            ]
        },
        {
            "positions": [
                -0.9780178881580943,
                -1.1683535578620645,
                1.0218160867495474,
                -0.43281980824639443,
                0.15505525937098544,
                1.2158408228493176
            ]
        },
        {
            "positions": [
                -0.989722042129909,
                -1.163547434907059,
                1.1212796626220478,
                -0.47390893443319937,
                0.18776834515921267,
                1.4095100683817277
            ]
        },
        {
            "positions": [
                -1.0014261961017237,
                -1.1587413119520535,
                1.220743238494548,
                -0.5149980606200044,
                0.22048143094743988,
                1.6031793139141377
            ]
        },
        {
            "positions": [
                -1.0131303500735382,
                -1.1539351889970482,
                1.3202068143670482,
                -0.5560871868068094,
                0.25319451673566706,
                1.7968485594465475
            ]
        },
        {
            "positions": [
                -1.024834504045353,
                -1.1491290660420428,
                1.4196703902395484,
                -0.5971763129936143,
                0.28590760252389436,
                1.9905178049789576
            ]
        },
        {
            "positions": [
                -1.0365386580171676,
                -1.1443229430870372,
                1.5191339661120487,
                -0.6382654391804192,
                0.31862068831212154,
                2.184187050511367
            ]
        },
        {
            "positions": [
                -1.0482428119889822,
                -1.1395168201320318,
                1.6185975419845489,
                -0.6793545653672242,
                0.3513337741003487,
                2.3778562960437775
            ]
        },
        {
            "positions": [
                -1.059946965960797,
                -1.1347106971770264,
                1.7180611178570493,
                -0.7204436915540291,
                0.384046859888576,
                2.5715255415761873
            ]
        },
        {
            "positions": [
                -1.0716511199326115,
                -1.129904574222021,
                1.8175246937295495,
                -0.7615328177408341,
                0.4167599456768032,
                2.7651947871085976
            ]
        },
        {
            "positions": [
                -1.0833552739044263,
                -1.1250984512670155,
                1.9169882696020497,
                -0.8026219439276391,
                0.44947303146503037,
                2.9588640326410074
            ]
        },
        {
            "positions": [
                -1.0950594278762409,
                -1.12029232831201,
                2.01645184547455,
                -0.843711070114444,
                0.48218611725325766,
                3.152533278173417
            ]
        }
    ]
}