{
    "goal": {
        "global_pose": {
            "orientation": {
                "w": 0.7047431468963623,
                "x": -0.7094548344612122,
                "y": 0.0024358443915843964,
                "z": -0.0022348060738295317
            },
            "position": {
                "x": 0.6094750761985779,
                "y": 0.3671506643295288,
                "z": 0.19426114857196808
            }
        },
        "name": "move_to_magneteinheit_A"
    },
    "id": "STRIDE_move_to_magneteinheit_A_53",
    "joint_names": [
        "shoulder_pan_joint",
        "shoulder_lift_joint",
        "elbow_joint",
        "wrist_1_joint",
        "wrist_2_joint",
        "wrist_3_joint"
    ],
    "metrics": {
        "cart_traj_len": 3.3353000985515378,
        "distance_elbow_joint": 3.9117727443710795,
        "distance_shoulder_lift_joint": 1.4524561525653015,
        "distance_shoulder_pan_joint": 4.09376255210787,
        "distance_wrist_1_joint": 3.4791573583769586,
        "distance_wrist_2_joint": 2.88593261164915,
        "distance_wrist_3_joint": 1.2564096714667234,
        "smoothness": 0.24221171721112011,
        "time": 0.168164078,
        "traj_len": 4.132734093858095,
        "weighted_distance": 5.094840567034128
    },
    "planner": "STRIDE",
    "start": {
        "state": {
            "elbow_joint": -1.9196185241190666,
            "shoulder_lift_joint": -1.2443396400964142,
            "shoulder_pan_joint": 2.6996025414629847,
            "wrist_1_joint": -1.5485510000780065,
            "wrist_2_joint": -1.5709468930060704,
            "wrist_3_joint": 0.4420197071253992
        }
    },
    "waypoints": [
        {
            "positions": [
                2.6996025414629847,
                -1.2443396400964142,
                -1.9196185241190666,
                -1.5485510000780065,
                -1.5709468930060704,
                0.4420197071253992
            ]
        },
        {
            "positions": [
                2.5805079860739566,
                -1.26193298939757,
                -1.8349844413886143,
                -1.4686148945094428,
                -1.4935168001117767,
                0.45635911979589033
            ]
        },
        {
            "positions": [
                2.461413430684928,
                -1.279526338698726,
                -1.7503503586581621,
                -1.3886787889408791,
                -1.416086707217483,
                0.4706985324663815
            ]
        },
        {
            "positions": [
                2.3423188752959,
                -1.2971196879998816,
                -1.6657162759277098,
                -1.3087426833723157,
                -1.3386566143231893,
                0.48503794513687265
            ]
        },
        {
            "positions": [
                2.2232243199068717,
                -1.3147130373010374,
                -1.5810821931972576,
                -1.228806577803752,
                -1.2612265214288956,
                0.4993773578073638
            ]
        },
        {
            "positions": [
                2.104129764517843,
                -1.3323063866021931,
                -1.4964481104668053,
                -1.1488704722351883,
                -1.1837964285346019,
                0.513716770477855
            ]
        },
        {
            "positions": [
                1.9850352091288153,
                -1.349899735903349,
                -1.411814027736353,
                -1.0689343666666247,
                -1.1063663356403082,
                0.5280561831483461
            ]
        },
        {
            "positions": [
                1.865940653739787,
                -1.3674930852045049,
                -1.3271799450059008,
                -0.988998261098061,
                -1.0289362427460145,
                0.5423955958188373
            ]
        },
        {
            "positions": [
                1.7468460983507588,
                -1.3850864345056606,
                -1.2425458622754484,
                -0.9090621555294974,
                -0.9515061498517208,
                0.5567350084893284
            ]
        },
        {
            "positions": [
                1.6277515429617302,
                -1.4026797838068166,
                -1.157911779544996,
                -0.8291260499609336,
                -0.8740760569574271,
                0.5710744211598197
            ]
        },
        {
            "positions": [
                1.508656987572702,
                -1.4202731331079723,
                -1.0732776968145439,
                -0.7491899443923701,
                -0.7966459640631334,
                0.5854138338303108
            ]
        },
        {
            "positions": [
                1.389562432183674,
                -1.437866482409128,
                -0.9886436140840915,
                -0.6692538388238064,
                -0.7192158711688397,
                0.599753246500802
            ]
        },
        {
            "positions": [
                1.2704678767946458,
                -1.4554598317102838,
                -0.9040095313536394,
                -0.5893177332552428,
                -0.641785778274546,
                0.6140926591712931
            ]
        },
        {
            "positions": [
                1.1513733214056172,
                -1.4730531810114398,
                -0.8193754486231868,
                -0.5093816276866792,
                -0.5643556853802523,
                0.6284320718417843
            ]
        },
        {
            "positions": [
                1.032278766016589,
                -1.4906465303125955,
                -0.7347413658927346,
                -0.4294455221181155,
                -0.48692559248595857,
                0.6427714845122754
            ]
        },
        {
            "positions": [
                0.9131842106275609,
                -1.5082398796137513,
                -0.6501072831622825,
                -0.3495094165495518,
                -0.40949549959166487,
                0.6571108971827666
            ]
        },
        {
            "positions": [
                0.7940896552385326,
                -1.525833228914907,
                -0.5654732004318301,
                -0.26957331098098836,
                -0.33206540669737117,
                0.6714503098532578
            ]
        },
        {
            "positions": [
                0.6749950998495047,
                -1.543426578216063,
                -0.480839117701378,
                -0.18963720541242468,
                -0.25463531380307747,
                0.6857897225237489
            ]
        },
        {
            "positions": [
                0.5559005444604757,
                -1.5610199275172187,
                -0.3962050349709254,
                -0.10970109984386078,
                -0.17720522090878377,
                0.7001291351942401
            ]
        },
        {
            "positions": [
                0.4368059890714475,
                -1.5786132768183747,
                -0.31157095224047304,
                -0.029764994275297108,
                -0.09977512801449007,
                0.7144685478647312
            ]
        },
        {
            "positions": [
                0.3177114336824194,
                -1.5962066261195305,
                -0.2269368695100209,
                0.050171111293266346,
                -0.022345035120196366,
                0.7288079605352225
            ]
        },
        {
            "positions": [
                0.19861687829339125,
                -1.6137999754206862,
                -0.14230278677956854,
                0.13010721686183002,
                0.055085057774097335,
                0.7431473732057136
            ]
        },
        {
            "positions": [
                0.07952232290436312,
                -1.631393324721842,
                -0.05766870404911639,
                0.2100433224303937,
                0.13251515066839104,
                0.7574867858762047
            ]
        },
        {
            "positions": [
                -0.039572232484665015,
                -1.6489866740229977,
                0.02696537868133575,
                0.28997942799895715,
                0.20994524356268474,
                0.7718261985466959
            ]
        },
        {
            "positions": [
                -0.15866678787369315,
                -1.6665800233241537,
                0.11159946141178789,
                0.3699155335675208,
                0.28737533645697844,
                0.7861656112171871
            ]
        },
        {
            "positions": [
                -0.27776134326272217,
                -1.6841733726253094,
                0.19623354414224048,
                0.4498516391360847,
                0.36480542935127214,
                0.8005050238876783
            ]
        },
        {
            "positions": [
                -0.3968558986517503,
                -1.7017667219264654,
                0.28086762687269307,
                0.5297877447046482,
                0.44223552224556584,
                0.8148444365581694
            ]
        },
        {
            "positions": [
                -0.5159504540407784,
                -1.7193600712276211,
                0.3655017096031452,
                0.6097238502732119,
                0.5196656151398595,
                0.8291838492286605
            ]
        },
        {
            "positions": [
                -0.6350450094298065,
                -1.7369534205287769,
                0.45013579233359746,
                0.6896599558417754,
                0.5970957080341531,
                0.8435232618991517
            ]
        },
        {
            "positions": [
                -0.5876003218538639,
                -1.6769632722704682,
                0.5465119440784985,
                0.767219105995349,
                0.552227582371095,
                0.790091629605841
            ]
        },
        {
            "positions": [
                -0.5401556342779213,
                -1.6169731240121596,
                0.6428880958233993,
                0.8447782561489225,
                0.5073594567080371,
                0.7366599973125304
            ]
        },
        {
            "positions": [
                -0.49271094670197874,
                -1.556982975753851,
                0.7392642475683002,
                0.9223374063024962,
                0.46249133104497897,
                0.6832283650192197
            ]
        },
        {
            "positions": [
                -0.4452662591260361,
                -1.4969928274955422,
                0.8356403993132012,
                0.9998965564560698,
                0.4176232053819209,
                0.629796732725909
            ]
        },
        {
            "positions": [
                -0.39782157155009357,
                -1.4370026792372337,
                0.9320165510581022,
                1.0774557066096433,
                0.3727550797188628,
                0.5763651004325983
            ]
        },
        {
            "positions": [
                -0.350376883974151,
                -1.377012530978925,
                1.028392702803003,
                1.155014856763217,
                0.32788695405580476,
                0.5229334681392876
            ]
        },
        {
            "positions": [
                -0.3029321963982084,
                -1.3170223827206162,
                1.124768854547904,
                1.2325740069167905,
                0.2830188283927467,
                0.46950183584597693
            ]
        },
        {
            "positions": [
                -0.25548750882226584,
                -1.2570322344623077,
                1.2211450062928049,
                1.3101331570703643,
                0.23815070272968863,
                0.4160702035526663
            ]
        },
        {
            "positions": [
                -0.20804282124632328,
                -1.197042086203999,
                1.3175211580377058,
                1.3876923072239378,
                0.19328257706663055,
                0.3626385712593556
            ]
        },
        {
            "positions": [
                -0.16059813367038067,
                -1.1370519379456905,
                1.4138973097826069,
                1.4652514573775113,
                0.1484144514035725,
                0.3092069389660449
            ]
        },
        {
            "positions": [
                -0.11315344609443811,
                -1.0770617896873818,
                1.510273461527508,
                1.5428106075310848,
                0.10354632574051448,
                0.2557753066727342
            ]
        },
        {
            "positions": [
                -0.06570875851849556,
                -1.017071641429073,
                1.6066496132724088,
                1.6203697576846585,
                0.05867820007745639,
                0.20234367437942358
            ]
        },
        {
            "positions": [
                -0.018264070942553,
                -0.9570814931707644,
                1.7030257650173097,
                1.6979289078382322,
                0.013810074414398299,
                0.14891204208611286
            ]
        },
        {
            "positions": [
                0.029180616633389667,
                -0.8970913449124558,
                1.7994019167622106,
                1.7754880579918058,
                -0.03105805124865968,
                0.09548040979280215
            ]
        },
        {
            "positions": [
                0.07662530420933222,
                -0.8371011966541471,
                1.8957780685071115,
                1.8530472081453793,
                -0.07592617691171777,
                0.04204877749949154
            ]
        },
        {
            "positions": [
                0.12406999178527474,
                -0.7771110483958384,
                1.9921542202520126,
                1.9306063582989528,
                -0.12079430257477587,
                -0.011382854793819194
            ]
        }
    ]
}