{
    "goal": {
        "global_pose": {
            "orientation": {
                "w": 0.005598929693374612,
                "x": 0.007748599140229565,
                "y": 0.7110244013736278,
                "z": -0.7031023480610252
            },
            "position": {
                "x": 0.1141497679147869,
                "y": -0.7141253447532654,
                "z": 0.3711530566215515
            }
        },
        "name": "move_to_auspresseinheit_B"
    },
    "id": "STRIDE_move_to_auspresseinheit_B_116",
    "joint_names": [
        "shoulder_pan_joint",
        "shoulder_lift_joint",
        "elbow_joint",
        "wrist_1_joint",
        "wrist_2_joint",
        "wrist_3_joint"
    ],
    "metrics": {
        "cart_traj_len": 0.5647220485713847,
        "distance_elbow_joint": 0.06133634039757885,
        "distance_shoulder_lift_joint": 0.29349061724579806,
        "distance_shoulder_pan_joint": 0.5767088811805317,
        "distance_wrist_1_joint": 0.32016361225210643,
        "distance_wrist_2_joint": 0.9968905629588405,
        "distance_wrist_3_joint": 0.004413649524308116,
        "smoothness": 5.075305255429287e-16,
        "time": 0.246840521,
        "traj_len": 1.5010008872612846,
        "weighted_distance": 1.8917941584164826
    },
    "planner": "STRIDE",
    "start": {
        "state": {
            "elbow_joint": 2.0193083361928714,
            "shoulder_lift_joint": -1.1220246554650708,
            "shoulder_pan_joint": -1.0952077554168747,
            "wrist_1_joint": -0.8559753972642168,
            "wrist_2_joint": 0.4759566250798843,
            "wrist_3_joint": -3.1240929996934557
        }
    },
    "waypoints": [
        {
            "positions": [
                -1.0952077554168747,
                -1.1220246554650708,
                2.0193083361928714,
                -0.8559753972642168,
                0.4759566250798843,
                -3.1240929996934557
            ]
        },
        {
            "positions": [
                -1.1913259022802967,
                -1.1709397583393706,
                2.009085612793275,
                -0.802614795222199,
                0.642105052239691,
                -3.1233573914394044
            ]
        },
        {
            "positions": [
                -1.2874440491437185,
                -1.2198548612136701,
                1.9988628893936784,
                -0.7492541931801813,
                0.8082534793994978,
                -3.122621783185353
            ]
        },
        {
            "positions": [
                -1.3835621960071405,
                -1.2687699640879697,
                1.988640165994082,
                -0.6958935911381636,
                0.9744019065593046,
                -3.1218861749313014
            ]
        },
        {
            "positions": [
                -1.4796803428705623,
                -1.3176850669622695,
                1.9784174425944856,
                -0.6425329890961459,
                1.1405503337191112,
                -3.12115056667725
            ]
        },
        {
            "positions": [
                -1.5757984897339843,
                -1.3666001698365693,
                1.968194719194889,
                -0.5891723870541281,
                1.306698760878918,
                -3.120414958423199
            ]
        },
        {
            "positions": [
                -1.6719166365974063,
                -1.4155152727108689,
                1.9579719957952926,
                -0.5358117850121104,
                1.4728471880387248,
                -3.1196793501691475
            ]
        }
    ]
}