{
    "goal": {
        "global_pose": {
            "orientation": {
                "w": 0.7031023480610252,
                "x": -0.7110244013736278,
                "y": 0.0077485991402295624,
                "z": 0.005598929693374583
            },
            "position": {
                "x": -0.8841497679147869,
                "y": 0.44412534475326537,
                "z": 0.3711530566215515
            }
        },
        "name": "move_to_auspresseinheit_D"
    },
    "id": "STRIDE_move_to_auspresseinheit_D_146",
    "joint_names": [
        "shoulder_pan_joint",
        "shoulder_lift_joint",
        "elbow_joint",
        "wrist_1_joint",
        "wrist_2_joint",
        "wrist_3_joint"
    ],
    "metrics": {
        "cart_traj_len": 0.3439745781262375,
        "distance_elbow_joint": 0.646993814906728,
        "distance_shoulder_lift_joint": 0.1257192916585863,
        "distance_shoulder_pan_joint": 0.13412109705281705,
        "distance_wrist_1_joint": 0.5558646097257243,
        "distance_wrist_2_joint": 1.4351965235610669,
        "distance_wrist_3_joint": 0.02645401070982789,
        "smoothness": 0.0,
        "time": 0.07612576,
        "traj_len": 1.7100729071050595,
        "weighted_distance": 2.228972521661314
    },
    "planner": "STRIDE",
    "start": {
        "state": {
            "elbow_joint": -1.8275523626775212,
            "shoulder_lift_joint": -2.126789852344167,
            "shoulder_pan_joint": -0.03513704404078235,
            "wrist_1_joint": -2.347782403156801,
            "wrist_2_joint": -1.6058999987535132,
            "wrist_3_joint": -3.0880379163319196
        }
    },
    "waypoints": [
        {
            "positions": [
                -0.03513704404078235,
                -2.126789852344167,
                -1.8275523626775212,
                -2.347782403156801,
                -1.6058999987535132,
                -3.0880379163319196
            ]
        },
        {
            "positions": [
                -0.05190218117238448,
                -2.1425047638014902,
                -1.74667813581418,
                -2.4172654793725163,
                -1.4265004333083797,
                -3.084731164993191
            ]
        },
        {
            "positions": [
                -0.06866731830398662,
                -2.158219675258813,
                -1.6658039089508392,
                -2.486748555588232,
                -1.2471008678632465,
                -3.081424413654463
            ]
        },
        {
            "positions": [
                -0.08543245543558875,
                -2.1739345867161366,
                -1.5849296820874983,
                -2.5562316318039473,
                -1.0677013024181132,
                -3.078117662315734
            ]
        },
        {
            "positions": [
                -0.10219759256719088,
                -2.18964949817346,
                -1.5040554552241572,
                -2.625714708019663,
                -0.8883017369729798,
                -3.0748109109770057
            ]
        },
        {
            "positions": [
                -0.11896272969879301,
                -2.2053644096307834,
                -1.423181228360816,
                -2.6951977842353787,
                -0.7089021715278464,
                -3.0715041596382773
            ]
        },
        {
            "positions": [
                -0.13572786683039514,
                -2.221079321088107,
                -1.3423070014974752,
                -2.764680860451094,
                -0.529502606082713,
                -3.0681974082995485
            ]
        },
        {
            "positions": [
                -0.15249300396199728,
                -2.2367942325454298,
                -1.2614327746341343,
                -2.8341639366668097,
                -0.3501030406375798,
                -3.06489065696082
            ]
        },
        {
            "positions": [
                -0.1692581410935994,
                -2.252509144002753,
                -1.1805585477707932,
                -2.903647012882525,
                -0.17070347519244625,
                -3.0615839056220917
            ]
        }
    ]
}