{
    "goal": {
        "global_pose": {
            "orientation": {
                "w": 0.5084816217422485,
                "x": -0.49083608388900757,
                "y": 0.5182115435600281,
                "z": -0.4816462993621826
            },
            "position": {
                "x": 0.5540239810943604,
                "y": 0.030875300988554955,
                "z": 0.16403168439865112
            }
        },
        "name": "move_to_storage_A"
    },
    "id": "STRIDE_move_to_storage_A_118",
    "joint_names": [
        "shoulder_pan_joint",
        "shoulder_lift_joint",
        "elbow_joint",
        "wrist_1_joint",
        "wrist_2_joint",
        "wrist_3_joint"
    ],
    "metrics": {
        "cart_traj_len": 0.3530729869585401,
        "distance_elbow_joint": 0.4500193067552185,
        "distance_shoulder_lift_joint": 0.2323631909595627,
        "distance_shoulder_pan_joint": 0.46047281595055833,
        "distance_wrist_1_joint": 0.24981473981437718,
        "distance_wrist_2_joint": 1.1027085320667949,
        "distance_wrist_3_joint": 0.10311541767475596,
        "smoothness": 4.440892098500626e-16,
        "time": 0.098768977,
        "traj_len": 1.611984492239695,
        "weighted_distance": 2.038933081406045
    },
    "planner": "STRIDE",
    "start": {
        "state": {
            "elbow_joint": 1.971548259319323,
            "shoulder_lift_joint": -1.1394851275133948,
            "shoulder_pan_joint": 0.1228115487234821,
            "wrist_1_joint": -0.7804723859257726,
            "wrist_2_joint": 0.12958671773740124,
            "wrist_3_joint": -3.192489227718131
        }
    },
    "waypoints": [
        {
            "positions": [
                0.1228115487234821,
                -1.1394851275133948,
                1.971548259319323,
                -0.7804723859257726,
                0.12958671773740124,
                -3.192489227718131
            ]
        },
        {
            "positions": [
                0.057029717873402344,
                -1.1726798690790465,
                2.0358367317129256,
                -0.8161602058992551,
                0.28711650803265765,
                -3.1777584537645946
            ]
        },
        {
            "positions": [
                -0.008752112976677412,
                -1.2058746106446985,
                2.1001252041065284,
                -0.8518480258727376,
                0.444646298327914,
                -3.163027679811058
            ]
        },
        {
            "positions": [
                -0.07453394382675718,
                -1.2390693522103502,
                2.1644136765001307,
                -0.8875358458462199,
                0.6021760886231704,
                -3.1482969058575216
            ]
        },
        {
            "positions": [
                -0.14031577467683692,
                -1.2722640937760021,
                2.2287021488937335,
                -0.9232236658197024,
                0.7597058789184269,
                -3.1335661319039847
            ]
        },
        {
            "positions": [
                -0.2060976055269167,
                -1.3054588353416539,
                2.2929906212873363,
                -0.9589114857931849,
                0.9172356692136834,
                -3.118835357950448
            ]
        },
        {
            "positions": [
                -0.27187943637699646,
                -1.3386535769073058,
                2.3572790936809387,
                -0.9945993057666673,
                1.0747654595089395,
                -3.1041045839969117
            ]
        },
        {
            "positions": [
                -0.33766126722707623,
                -1.3718483184729575,
                2.4215675660745415,
                -1.0302871257401498,
                1.2322952498041961,
                -3.089373810043375
            ]
        }
    ]
}{
    "goal": {
        "global_pose": {
            "orientation": {
                "w": 0.5084816217422485,
                "x": -0.49083608388900757,
                "y": 0.5182115435600281,
                "z": -0.4816462993621826
            },
            "position": {
                "x": 0.5540239810943604,
                "y": 0.030875300988554955,
                "z": 0.16403168439865112
            }
        },
        "name": "move_to_storage_A"
    },
    "id": "STRIDE_move_to_storage_A_118",
    "joint_names": [
        "shoulder_pan_joint",
        "shoulder_lift_joint",
        "elbow_joint",
        "wrist_1_joint",
        "wrist_2_joint",
        "wrist_3_joint"
    ],
    "metrics": {
        "cart_traj_len": 0.35347044722841126,
        "distance_elbow_joint": 0.4547230907888844,
        "distance_shoulder_lift_joint": 0.23403143987505715,
        "distance_shoulder_pan_joint": 0.4636460242261562,
        "distance_wrist_1_joint": 0.26022628523315716,
        "distance_wrist_2_joint": 1.093987338850592,
        "distance_wrist_3_joint": 0.09643838860403431,
        "smoothness": 6.661338165333112e-16,
        "time": 0.079691833,
        "traj_len": 1.6133978330151189,
        "weighted_distance": 2.037189968773089
    },
    "planner": "STRIDE",
    "start": {
        "state": {
            "elbow_joint": 1.97154746011099,
            "shoulder_lift_joint": -1.13948474672311,
            "shoulder_pan_joint": 0.12281154466712228,
            "wrist_1_joint": -0.7804688027058302,
            "wrist_2_joint": 0.12958655903071145,
            "wrist_3_joint": 3.0906928834467795
        }
    },
    "waypoints": [
        {
            "positions": [
                0.12281154466712228,
                -1.13948474672311,
                1.97154746011099,
                -0.7804688027058302,
                0.12958655903071145,
                3.0906928834467795
            ]
        },
        {
            "positions": [
                0.05657639834909997,
                -1.1729178095624038,
                2.036507901652259,
                -0.8176439863105669,
                0.285870464580796,
                3.1044697961044987
            ]
        },
        {
            "positions": [
                -0.00965874796892234,
                -1.2063508724016978,
                2.1014683431935284,
                -0.8548191699153036,
                0.44215437013088055,
                3.118246708762218
            ]
        },
        {
            "positions": [
                -0.07589389428694464,
                -1.2397839352409916,
                2.1664287847347974,
                -0.8919943535200404,
                0.5984382756809652,
                3.132023621419937
            ]
        },
        {
            "positions": [
                -0.14212904060496695,
                -1.2732169980802854,
                2.231389226276067,
                -0.9291695371247771,
                0.7547221812310497,
                3.1458005340776563
            ]
        },
        {
            "positions": [
                -0.2083641869229893,
                -1.3066500609195795,
                2.296349667817336,
                -0.9663447207295139,
                0.9110060867811344,
                3.1595774467353754
            ]
        },
        {
            "positions": [
                -0.27459933324101155,
                -1.3400831237588733,
                2.3613101093586053,
                -1.0035199043342506,
                1.067289992331219,
                3.1733543593930946
            ]
        },
        {
            "positions": [
                -0.3408344795590339,
                -1.373516186598167,
                2.4262705508998743,
                -1.0406950879389874,
                1.2235738978813036,
                3.187131272050814
            ]
        }
    ]
}{
    "goal": {
        "global_pose": {
            "orientation": {
                "w": 0.5084816217422485,
                "x": -0.49083608388900757,
                "y": 0.5182115435600281,
                "z": -0.4816462993621826
            },
            "position": {
                "x": 0.5540239810943604,
                "y": 0.030875300988554955,
                "z": 0.16403168439865112
            }
        },
        "name": "move_to_storage_A"
    },
    "id": "STRIDE_move_to_storage_A_118",
    "joint_names": [
        "shoulder_pan_joint",
        "shoulder_lift_joint",
        "elbow_joint",
        "wrist_1_joint",
        "wrist_2_joint",
        "wrist_3_joint"
    ],
    "metrics": {
        "cart_traj_len": 0.35320549311296895,
        "distance_elbow_joint": 0.4485231192866772,
        "distance_shoulder_lift_joint": 0.23495378926460675,
        "distance_shoulder_pan_joint": 0.46249653814677916,
        "distance_wrist_1_joint": 0.23982388311198188,
        "distance_wrist_2_joint": 1.0960582012135458,
        "distance_wrist_3_joint": 0.08672182405164364,
        "smoothness": 0.0,
        "time": 0.051359252,
        "traj_len": 1.6026781820051192,
        "weighted_distance": 2.019381857773326
    },
    "planner": "STRIDE",
    "start": {
        "state": {
            "elbow_joint": 1.9715472970024885,
            "shoulder_lift_joint": -1.1394870060712896,
            "shoulder_pan_joint": 0.12281152778156021,
            "wrist_1_joint": -0.780463741449964,
            "wrist_2_joint": 0.12958659822042276,
            "wrist_3_joint": 3.090690232415272
        }
    },
    "waypoints": [
        {
            "positions": [
                0.12281152778156021,
                -1.1394870060712896,
                1.9715472970024885,
                -0.780463741449964,
                0.12958659822042276,
                3.090690232415272
            ]
        },
        {
            "positions": [
                0.05674059376059176,
                -1.1730518331090907,
                2.035622028329157,
                -0.8147242961802471,
                0.2861663412509293,
                3.1030790644226496
            ]
        },
        {
            "positions": [
                -0.009330340260376685,
                -1.2066166601468915,
                2.0996967596558247,
                -0.8489848509105302,
                0.4427460842814358,
                3.1154678964300273
            ]
        },
        {
            "positions": [
                -0.07540127428134513,
                -1.2401814871846926,
                2.163771490982493,
                -0.8832454056408133,
                0.5993258273119424,
                3.127856728437405
            ]
        },
        {
            "positions": [
                -0.14147220830231358,
                -1.2737463142224934,
                2.2278462223091613,
                -0.9175059603710964,
                0.7559055703424489,
                3.1402455604447823
            ]
        },
        {
            "positions": [
                -0.20754314232328205,
                -1.3073111412602945,
                2.2919209536358296,
                -0.9517665151013797,
                0.9124853133729555,
                3.15263439245216
            ]
        },
        {
            "positions": [
                -0.2736140763442505,
                -1.3408759682980953,
                2.3559956849624974,
                -0.9860270698316628,
                1.069065056403462,
                3.1650232244595378
            ]
        },
        {
            "positions": [
                -0.3396850103652189,
                -1.3744407953358964,
                2.4200704162891657,
                -1.0202876245619459,
                1.2256447994339685,
                3.1774120564669155
            ]
        }
    ]
}