{
    "goal": {
        "global_pose": {
            "orientation": {
                "w": 0.005598929693374612,
                "x": 0.007748599140229565,
                "y": 0.7110244013736278,
                "z": -0.7031023480610252
            },
            "position": {
                "x": 0.1141497679147869,
                "y": -0.7141253447532654,
                "z": 0.3711530566215515
            }
        },
        "name": "move_to_auspresseinheit_B"
    },
    "id": "STRIDE_move_to_auspresseinheit_B_112",
    "joint_names": [
        "shoulder_pan_joint",
        "shoulder_lift_joint",
        "elbow_joint",
        "wrist_1_joint",
        "wrist_2_joint",
        "wrist_3_joint"
    ],
    "metrics": {
        "cart_traj_len": 0.5648150808886788,
        "distance_elbow_joint": 0.061093022311619505,
        "distance_shoulder_lift_joint": 0.29475372720486903,
        "distance_shoulder_pan_joint": 0.5752838780226923,
        "distance_wrist_1_joint": 0.3200485143064259,
        "distance_wrist_2_joint": 1.004880052988385,
        "distance_wrist_3_joint": 0.010647862285590115,
        "smoothness": 2.5376526478085547e-16,
        "time": 0.11299703600000001,
        "traj_len": 1.5055587192532818,
        "weighted_distance": 1.9007712510940324
    },
    "planner": "STRIDE",
    "start": {
        "state": {
            "elbow_joint": 2.0193083361928714,
            "shoulder_lift_joint": -1.1220246554650708,
            "shoulder_pan_joint": -1.0952077554168747,
            "wrist_1_joint": -0.8559753972642168,
            "wrist_2_joint": 0.4759566250798843,
            "wrist_3_joint": -3.1240929996934557
        }
    },
    "waypoints": [
        {
            "positions": [
                -1.0952077554168747,
                -1.1220246554650708,
                2.0193083361928714,
                -0.8559753972642168,
                0.4759566250798843,
                -3.1240929996934557
            ]
        },
        {
            "positions": [
                -1.19108840175399,
                -1.1711502766658823,
                2.0091261658076016,
                -0.8026339782131457,
                0.6434366339112818,
                -3.1223183559791905
            ]
        },
        {
            "positions": [
                -1.2869690480911053,
                -1.2202758978666939,
                1.9989439954223316,
                -0.7492925591620748,
                0.8109166427426793,
                -3.1205437122649258
            ]
        },
        {
            "positions": [
                -1.382849694428221,
                -1.2694015190675052,
                1.9887618250370616,
                -0.6959511401110039,
                0.9783966515740767,
                -3.1187690685506606
            ]
        },
        {
            "positions": [
                -1.478730340765336,
                -1.3185271402683167,
                1.9785796546517918,
                -0.6426097210599329,
                1.1458766604054742,
                -3.1169944248363954
            ]
        },
        {
            "positions": [
                -1.5746109871024516,
                -1.3676527614691283,
                1.968397484266522,
                -0.5892683020088618,
                1.3133566692368719,
                -3.1152197811221307
            ]
        },
        {
            "positions": [
                -1.670491633439567,
                -1.4167783826699398,
                1.958215313881252,
                -0.5359268829577909,
                1.4808366780682694,
                -3.1134451374078655
            ]
        }
    ]
}