{
    "goal": {
        "global_pose": {
            "orientation": {
                "w": 0.005598929693374612,
                "x": 0.007748599140229565,
                "y": 0.7110244013736278,
                "z": -0.7031023480610252
            },
            "position": {
                "x": 0.1141497679147869,
                "y": -0.7141253447532654,
                "z": 0.3711530566215515
            }
        },
        "name": "move_to_auspresseinheit_B"
    },
    "id": "STRIDE_move_to_auspresseinheit_B_40",
    "joint_names": [
        "shoulder_pan_joint",
        "shoulder_lift_joint",
        "elbow_joint",
        "wrist_1_joint",
        "wrist_2_joint",
        "wrist_3_joint"
    ],
    "metrics": {
        "cart_traj_len": 0.5651981595723294,
        "distance_elbow_joint": 0.060804423436470634,
        "distance_shoulder_lift_joint": 0.29545832162669483,
        "distance_shoulder_pan_joint": 0.5773922160515073,
        "distance_wrist_1_joint": 0.3186826095313233,
        "distance_wrist_2_joint": 0.994711274395464,
        "distance_wrist_3_joint": 0.008166236928653703,
        "smoothness": 0.0,
        "time": 0.054230192,
        "traj_len": 1.501737354523125,
        "weighted_distance": 1.8933941585824672
    },
    "planner": "STRIDE",
    "start": {
        "state": {
            "elbow_joint": 2.0193083361928714,
            "shoulder_lift_joint": -1.1220246554650708,
            "shoulder_pan_joint": -1.0952077554168747,
            "wrist_1_joint": -0.8559753972642168,
            "wrist_2_joint": 0.4759566250798843,
            "wrist_3_joint": -3.1240929996934557
        }
    },
    "waypoints": [
        {
            "positions": [
                -1.0952077554168747,
                -1.1220246554650708,
                2.0193083361928714,
                -0.8559753972642168,
                0.4759566250798843,
                -3.1240929996934557
            ]
        },
        {
            "positions": [
                -1.1914397914254593,
                -1.1712677090695198,
                2.009174265620126,
                -0.8028616290089963,
                0.6417418374791283,
                -3.1254540391815646
            ]
        },
        {
            "positions": [
                -1.2876718274340437,
                -1.220510762673969,
                1.9990401950473813,
                -0.7497478607537756,
                0.8075270498783722,
                -3.1268150786696736
            ]
        },
        {
            "positions": [
                -1.3839038634426282,
                -1.2697538162784183,
                1.988906124474636,
                -0.6966340924985551,
                0.9733122622776162,
                -3.1281761181577825
            ]
        },
        {
            "positions": [
                -1.4801358994512128,
                -1.3189968698828674,
                1.978772053901891,
                -0.6435203242433346,
                1.1390974746768603,
                -3.1295371576458915
            ]
        },
        {
            "positions": [
                -1.5763679354597975,
                -1.3682399234873164,
                1.9686379833291459,
                -0.590406555988114,
                1.3048826870761043,
                -3.1308981971340004
            ]
        },
        {
            "positions": [
                -1.672599971468382,
                -1.4174829770917656,
                1.9585039127564008,
                -0.5372927877328935,
                1.4706678994753484,
                -3.1322592366221094
            ]
        }
    ]
}