{
    "goal": {
        "global_pose": {
            "orientation": {
                "w": 0.7047431468963623,
                "x": -0.7094548344612122,
                "y": 0.0024358443915843964,
                "z": -0.0022348060738295317
            },
            "position": {
                "x": 0.6094750761985779,
                "y": 0.3671506643295288,
                "z": 0.19426114857196808
            }
        },
        "name": "move_to_magneteinheit_A"
    },
    "id": "STRIDE_move_to_magneteinheit_A_83",
    "joint_names": [
        "shoulder_pan_joint",
        "shoulder_lift_joint",
        "elbow_joint",
        "wrist_1_joint",
        "wrist_2_joint",
        "wrist_3_joint"
    ],
    "metrics": {
        "cart_traj_len": 3.2000292696712362,
        "distance_elbow_joint": 3.9274361987343456,
        "distance_shoulder_lift_joint": 0.4624272874095168,
        "distance_shoulder_pan_joint": 2.847580820300563,
        "distance_wrist_1_joint": 3.5106117675045763,
        "distance_wrist_2_joint": 1.4301414178059653,
        "distance_wrist_3_joint": 1.6773718398944895,
        "smoothness": 0.109194027829736,
        "time": 0.195008483,
        "traj_len": 3.722306990516695,
        "weighted_distance": 4.706491920395591
    },
    "planner": "STRIDE",
    "start": {
        "state": {
            "elbow_joint": -1.9196185241190666,
            "shoulder_lift_joint": -1.2443396400964142,
            "shoulder_pan_joint": 2.6996025414629847,
            "wrist_1_joint": -1.5485510000780065,
            "wrist_2_joint": -1.5709468930060704,
            "wrist_3_joint": 0.4420197071253992
        }
    },
    "waypoints": [
        {
            "positions": [
                2.6996025414629847,
                -1.2443396400964142,
                -1.9196185241190666,
                -1.5485510000780065,
                -1.5709468930060704,
                0.4420197071253992
            ]
        },
        {
            "positions": [
                2.5195927596850027,
                -1.2385255129769648,
                -1.84913687217124,
                -1.5322448286718433,
                -1.5526447308806608,
                0.35206675494937156
            ]
        },
        {
            "positions": [
                2.339582977907021,
                -1.2327113858575154,
                -1.7786552202234136,
                -1.5159386572656801,
                -1.534342568755251,
                0.26211380277334395
            ]
        },
        {
            "positions": [
                2.159573196129039,
                -1.2268972587380658,
                -1.708173568275587,
                -1.499632485859517,
                -1.5160404066298414,
                0.17216085059731634
            ]
        },
        {
            "positions": [
                1.9795634143510574,
                -1.2210831316186164,
                -1.6376919163277606,
                -1.4833263144533537,
                -1.4977382445044318,
                0.08220789842128873
            ]
        },
        {
            "positions": [
                1.7995536325730754,
                -1.215269004499167,
                -1.5672102643799337,
                -1.4670201430471905,
                -1.479436082379022,
                -0.007745053754738884
            ]
        },
        {
            "positions": [
                1.6195438507950937,
                -1.2094548773797174,
                -1.4967286124321073,
                -1.4507139716410276,
                -1.4611339202536124,
                -0.0976980059307665
            ]
        },
        {
            "positions": [
                1.4395340690171117,
                -1.203640750260268,
                -1.4262469604842807,
                -1.4344078002348644,
                -1.4428317581282029,
                -0.1876509581067941
            ]
        },
        {
            "positions": [
                1.2595242872391301,
                -1.1978266231408186,
                -1.3557653085364543,
                -1.4181016288287012,
                -1.424529596002793,
                -0.2776039102828217
            ]
        },
        {
            "positions": [
                1.0795145054611481,
                -1.1920124960213692,
                -1.2852836565886276,
                -1.401795457422538,
                -1.4062274338773835,
                -0.36755686245884933
            ]
        },
        {
            "positions": [
                0.8995047236831661,
                -1.1861983689019198,
                -1.214802004640801,
                -1.3854892860163748,
                -1.3879252717519739,
                -0.45750981463487694
            ]
        },
        {
            "positions": [
                0.7194949419051846,
                -1.1803842417824701,
                -1.1443203526929746,
                -1.3691831146102116,
                -1.369623109626564,
                -0.5474627668109046
            ]
        },
        {
            "positions": [
                0.5394851601272028,
                -1.1745701146630207,
                -1.073838700745148,
                -1.3528769432040484,
                -1.3513209475011545,
                -0.6374157189869322
            ]
        },
        {
            "positions": [
                0.5144260277562571,
                -1.1567402204217156,
                -0.944014762086232,
                -1.2105301407127933,
                -1.2984714233763763,
                -0.6154966022261407
            ]
        },
        {
            "positions": [
                0.4893668953853115,
                -1.1389103261804105,
                -0.8141908234273161,
                -1.0681833382215382,
                -1.2456218992515982,
                -0.5935774854653493
            ]
        },
        {
            "positions": [
                0.4643077630143658,
                -1.1210804319391054,
                -0.6843668847684001,
                -0.9258365357302833,
                -1.19277237512682,
                -0.5716583687045578
            ]
        },
        {
            "positions": [
                0.4392486306434201,
                -1.1032505376978003,
                -0.5545429461094841,
                -0.7834897332390282,
                -1.1399228510020418,
                -0.5497392519437664
            ]
        },
        {
            "positions": [
                0.4141894982724745,
                -1.0854206434564952,
                -0.4247190074505681,
                -0.6411429307477732,
                -1.0870733268772637,
                -0.5278201351829749
            ]
        },
        {
            "positions": [
                0.38913036590152883,
                -1.0675907492151901,
                -0.29489506879165217,
                -0.4987961282565182,
                -1.0342238027524853,
                -0.5059010184221835
            ]
        },
        {
            "positions": [
                0.3640712335305831,
                -1.049760854973885,
                -0.16507113013273622,
                -0.3564493257652631,
                -0.9813742786277072,
                -0.483981901661392
            ]
        },
        {
            "positions": [
                0.3390121011596374,
                -1.03193096073258,
                -0.03524719147382016,
                -0.21410252327400792,
                -0.9285247545029289,
                -0.4620627849006005
            ]
        },
        {
            "positions": [
                0.3139529687886917,
                -1.0141010664912748,
                0.09457674718509579,
                -0.07175572078275283,
                -0.8756752303781508,
                -0.44014366813980904
            ]
        },
        {
            "positions": [
                0.28889383641774613,
                -0.9962711722499697,
                0.22440068584401174,
                0.07059108170850203,
                -0.8228257062533726,
                -0.4182245513790176
            ]
        },
        {
            "positions": [
                0.26383470404680043,
                -0.9784412780086646,
                0.3542246245029277,
                0.21293788419975712,
                -0.7699761821285944,
                -0.39630543461822615
            ]
        },
        {
            "positions": [
                0.23877557167585478,
                -0.9606113837673596,
                0.48404856316184364,
                0.355284686691012,
                -0.7171266580038163,
                -0.3743863178574347
            ]
        },
        {
            "positions": [
                0.21371643930490908,
                -0.9427814895260545,
                0.6138725018207598,
                0.4976314891822673,
                -0.664277133879038,
                -0.3524672010966432
            ]
        },
        {
            "positions": [
                0.18865730693396343,
                -0.9249515952847494,
                0.7436964404796755,
                0.6399782916735222,
                -0.6114276097542599,
                -0.3305480843358518
            ]
        },
        {
            "positions": [
                0.16359817456301778,
                -0.9071217010434443,
                0.8735203791385915,
                0.782325094164777,
                -0.5585780856294817,
                -0.30862896757506036
            ]
        },
        {
            "positions": [
                0.13853904219207208,
                -0.8892918068021392,
                1.0033443177975077,
                0.9246718966560326,
                -0.5057285615047035,
                -0.28670985081426886
            ]
        },
        {
            "positions": [
                0.11347990982112638,
                -0.871461912560834,
                1.1331682564564236,
                1.0670186991472872,
                -0.4528790373799253,
                -0.2647907340534774
            ]
        },
        {
            "positions": [
                0.08842077745018068,
                -0.853632018319529,
                1.2629921951153396,
                1.2093655016385427,
                -0.400029513255147,
                -0.24287161729268592
            ]
        },
        {
            "positions": [
                0.06336164507923503,
                -0.8358021240782239,
                1.3928161337742555,
                1.3517123041297974,
                -0.34717998913036885,
                -0.22095250053189447
            ]
        },
        {
            "positions": [
                0.03830251270828944,
                -0.8179722298369188,
                1.5226400724331715,
                1.4940591066210525,
                -0.2943304650055907,
                -0.19903338377110308
            ]
        },
        {
            "positions": [
                0.013243380337343735,
                -0.8001423355956137,
                1.6524640110920874,
                1.6364059091123075,
                -0.2414809408808125,
                -0.17711426701031158
            ]
        },
        {
            "positions": [
                -0.011815752033601912,
                -0.7823124413543086,
                1.7822879497510034,
                1.7787527116035626,
                -0.18863141675603437,
                -0.15519515024952016
            ]
        },
        {
            "positions": [
                0.056265511368386215,
                -0.7825124856880141,
                1.8950528121831414,
                1.8704067395150663,
                -0.16471844597806978,
                -0.09733722772714758
            ]
        },
        {
            "positions": [
                0.12434677477037434,
                -0.7827125300217197,
                2.0078176746152794,
                1.96206076742657,
                -0.14080547520010522,
                -0.039479305204774995
            ]
        }
    ]
}