{
    "goal": {
        "global_pose": {
            "orientation": {
                "w": -0.4816463035849501,
                "x": 0.5182115481033762,
                "y": 0.4908360881923453,
                "z": -0.5084816262002911
            },
            "position": {
                "x": -0.8240239810943604,
                "y": -0.300875300988555,
                "z": 0.16403168439865112
            }
        },
        "name": "move_to_storage_C"
    },
    "id": "STRIDE_move_to_storage_C_146",
    "joint_names": [
        "shoulder_pan_joint",
        "shoulder_lift_joint",
        "elbow_joint",
        "wrist_1_joint",
        "wrist_2_joint",
        "wrist_3_joint"
    ],
    "metrics": {
        "cart_traj_len": 0.5771489072341522,
        "distance_elbow_joint": 0.2620144361530681,
        "distance_shoulder_lift_joint": 0.18915214185820373,
        "distance_shoulder_pan_joint": 0.49496413295026676,
        "distance_wrist_1_joint": 0.09104360862374694,
        "distance_wrist_2_joint": 1.0673043326591696,
        "distance_wrist_3_joint": 0.07049030452699867,
        "smoothness": 2.5376526478085547e-16,
        "time": 0.07004474,
        "traj_len": 1.4747775956975526,
        "weighted_distance": 1.8639467554381395
    },
    "planner": "STRIDE",
    "start": {
        "state": {
            "elbow_joint": 2.010868314990456,
            "shoulder_lift_joint": -1.1634956873337592,
            "shoulder_pan_joint": -2.4736205022346125,
            "wrist_1_joint": -0.8367026794202681,
            "wrist_2_joint": 0.6746043897044499,
            "wrist_3_joint": -3.1496632123970403
        }
    },
    "waypoints": [
        {
            "positions": [
                -2.4736205022346125,
                -1.1634956873337592,
                2.010868314990456,
                -0.8367026794202681,
                0.6746043897044499,
                -3.1496632123970403
            ]
        },
        {
            "positions": [
                -2.5561145243929904,
                -1.1319703303573918,
                1.9671992422982778,
                -0.8215287446496436,
                0.8524884451476449,
                -3.1379148283092073
            ]
        },
        {
            "positions": [
                -2.6386085465513682,
                -1.1004449733810246,
                1.9235301696060998,
                -0.8063548098790191,
                1.0303725005908397,
                -3.126166444221374
            ]
        },
        {
            "positions": [
                -2.721102568709746,
                -1.0689196164046573,
                1.8798610969139218,
                -0.7911808751083946,
                1.2082565560340348,
                -3.114418060133541
            ]
        },
        {
            "positions": [
                -2.8035965908681235,
                -1.0373942594282901,
                1.8361920242217438,
                -0.7760069403377702,
                1.3861406114772294,
                -3.102669676045708
            ]
        },
        {
            "positions": [
                -2.8860906130265014,
                -1.0058689024519227,
                1.7925229515295658,
                -0.7608330055671456,
                1.5640246669204245,
                -3.0909212919578746
            ]
        },
        {
            "positions": [
                -2.9685846351848793,
                -0.9743435454755555,
                1.7488538788373877,
                -0.7456590707965212,
                1.7419087223636196,
                -3.0791729078700416
            ]
        }
    ]
}