{
    "goal": {
        "global_pose": {
            "orientation": {
                "w": -0.00223480608172531,
                "x": 0.0024358444001904467,
                "y": 0.7094548369677653,
                "z": -0.704743149386269
            },
            "position": {
                "x": 0.6205249238014221,
                "y": -0.6371506643295288,
                "z": 0.19426114857196808
            }
        },
        "name": "move_to_magneteinheit_B"
    },
    "id": "STRIDE_move_to_magneteinheit_B_25",
    "joint_names": [
        "shoulder_pan_joint",
        "shoulder_lift_joint",
        "elbow_joint",
        "wrist_1_joint",
        "wrist_2_joint",
        "wrist_3_joint"
    ],
    "metrics": {
        "cart_traj_len": 1.456110785561231,
        "distance_elbow_joint": 0.9568188834189366,
        "distance_shoulder_lift_joint": 1.0412319391854294,
        "distance_shoulder_pan_joint": 1.6212690959244074,
        "distance_wrist_1_joint": 0.18675827218863805,
        "distance_wrist_2_joint": 1.847291127567287,
        "distance_wrist_3_joint": 0.419942772073404,
        "smoothness": 0.661130979135578,
        "time": 0.13825045200000002,
        "traj_len": 2.4644090752872385,
        "weighted_distance": 2.991194917463728
    },
    "planner": "STRIDE",
    "start": {
        "state": {
            "elbow_joint": 2.6216224122426386,
            "shoulder_lift_joint": -1.4174107377796124,
            "shoulder_pan_joint": 0.7066234856936794,
            "wrist_1_joint": 1.9546482284002225,
            "wrist_2_joint": -0.7096286983471962,
            "wrist_3_joint": 0.005740856962016249
        }
    },
    "waypoints": [
        {
            "positions": [
                0.7066234856936794,
                -1.4174107377796124,
                2.6216224122426386,
                1.9546482284002225,
                -0.7096286983471962,
                0.005740856962016249
            ]
        },
        {
            "positions": [
                0.5633847789553543,
                -1.464802815419101,
                2.619871201455855,
                1.9689596938666651,
                -0.6546196631821897,
                -0.06412003459598416
            ]
        },
        {
            "positions": [
                0.42014607221702926,
                -1.5121948930585898,
                2.6181199906690713,
                1.9832711593331076,
                -0.5996106280171831,
                -0.13398092615398455
            ]
        },
        {
            "positions": [
                0.2769073654787042,
                -1.5595869706980785,
                2.6163687798822877,
                1.9975826247995503,
                -0.5446015928521766,
                -0.20384181771198495
            ]
        },
        {
            "positions": [
                0.18524944427028633,
                -1.4904288394467735,
                2.543171452877781,
                2.0086459998602666,
                -0.6740065176269664,
                -0.18766027175818473
            ]
        },
        {
            "positions": [
                0.09359152306186846,
                -1.4212707081954687,
                2.4699741258732746,
                2.0197093749209825,
                -0.8034114424017562,
                -0.17147872580438453
            ]
        },
        {
            "positions": [
                0.001933601853450595,
                -1.352112576944164,
                2.396776798868768,
                2.0307727499816988,
                -0.9328163671765459,
                -0.15529717985058433
            ]
        },
        {
            "positions": [
                -0.08972431935496727,
                -1.282954445692859,
                2.323579471864261,
                2.041836125042415,
                -1.0622212919513356,
                -0.1391156338967841
            ]
        },
        {
            "positions": [
                -0.18138224056338514,
                -1.213796314441554,
                2.2503821448597545,
                2.052899500103131,
                -1.1916262167261256,
                -0.1229340879429839
            ]
        },
        {
            "positions": [
                -0.273040161771803,
                -1.1446381831902492,
                2.177184817855248,
                2.0639628751638472,
                -1.3210311415009155,
                -0.10675254198918369
            ]
        },
        {
            "positions": [
                -0.3646980829802209,
                -1.0754800519389445,
                2.1039874908507414,
                2.0750262502245636,
                -1.4504360662757052,
                -0.09057099603538349
            ]
        },
        {
            "positions": [
                -0.45635600418863875,
                -1.0063219206876395,
                2.030790163846235,
                2.08608962528528,
                -1.579840991050495,
                -0.07438945008158326
            ]
        },
        {
            "positions": [
                -0.5480139253970566,
                -0.9371637894363347,
                1.9575928368417284,
                2.0971530003459957,
                -1.7092459158252846,
                -0.05820790412778307
            ]
        },
        {
            "positions": [
                -0.6396718466054745,
                -0.8680056581850297,
                1.8843955098372218,
                2.108216375406712,
                -1.8386508406000746,
                -0.04202635817398284
            ]
        },
        {
            "positions": [
                -0.7313297678138924,
                -0.798847526933725,
                1.8111981828327153,
                2.1192797504674283,
                -1.9680557653748643,
                -0.025844812220182645
            ]
        },
        {
            "positions": [
                -0.8229876890223102,
                -0.7296893956824201,
                1.7380008558282085,
                2.130343125528144,
                -2.097460690149654,
                -0.00966326626638242
            ]
        },
        {
            "positions": [
                -0.9146456102307281,
                -0.6605312644311152,
                1.664803528823702,
                2.1414065005888605,
                -2.226865614924444,
                0.006518279687417779
            ]
        }
    ]
}