{
    "goal": {
        "global_pose": {
            "orientation": {
                "w": 0.7047431493862688,
                "x": -0.7094548369677653,
                "y": 0.0024358444001904,
                "z": -0.0022348060817251984
            },
            "position": {
                "x": -0.39052492380142206,
                "y": 0.3671506643295288,
                "z": 0.19426114857196808
            }
        },
        "name": "move_to_magneteinheit_D"
    },
    "id": "STRIDE_move_to_magneteinheit_D_95",
    "joint_names": [
        "shoulder_pan_joint",
        "shoulder_lift_joint",
        "elbow_joint",
        "wrist_1_joint",
        "wrist_2_joint",
        "wrist_3_joint"
    ],
    "metrics": {
        "cart_traj_len": 4.4045851675215975,
        "distance_elbow_joint": 3.6818259079825664,
        "distance_shoulder_lift_joint": 1.627813594453216,
        "distance_shoulder_pan_joint": 4.0812425769165825,
        "distance_wrist_1_joint": 1.5148825281131673,
        "distance_wrist_2_joint": 0.627284795886662,
        "distance_wrist_3_joint": 4.992268193959215,
        "smoothness": 0.3645549685190658,
        "time": 0.193388806,
        "traj_len": 4.065134388591773,
        "weighted_distance": 5.352758289819341
    },
    "planner": "STRIDE",
    "start": {
        "state": {
            "elbow_joint": 0.749534889911806,
            "shoulder_lift_joint": -0.6476975780787326,
            "shoulder_pan_joint": -2.711696901376241,
            "wrist_1_joint": -0.07506478083263063,
            "wrist_2_joint": 0.43296659715538205,
            "wrist_3_joint": -3.14703540197715
        }
    },
    "waypoints": [
        {
            "positions": [
                -2.711696901376241,
                -0.6476975780787326,
                0.749534889911806,
                -0.07506478083263063,
                0.43296659715538205,
                -3.14703540197715
            ]
        },
        {
            "positions": [
                -2.725547400984407,
                -0.6757519571069796,
                0.7738620387050323,
                -0.0740053447365863,
                0.4210397313495946,
                -2.8641144681313437
            ]
        },
        {
            "positions": [
                -2.7393979005925733,
                -0.7038063361352266,
                0.7981891874982587,
                -0.07294590864054198,
                0.40911286554380716,
                -2.5811935342855374
            ]
        },
        {
            "positions": [
                -2.753248400200739,
                -0.7318607151634735,
                0.822516336291485,
                -0.07188647254449766,
                0.3971859997380197,
                -2.2982726004397307
            ]
        },
        {
            "positions": [
                -2.767098899808905,
                -0.7599150941917205,
                0.8468434850847114,
                -0.07082703644845334,
                0.3852591339322322,
                -2.0153516665939244
            ]
        },
        {
            "positions": [
                -2.780949399417071,
                -0.7879694732199675,
                0.8711706338779378,
                -0.06976760035240902,
                0.37333226812644477,
                -1.732430732748118
            ]
        },
        {
            "positions": [
                -2.794799899025237,
                -0.8160238522482144,
                0.8954977826711642,
                -0.0687081642563647,
                0.3614054023206573,
                -1.4495097989023118
            ]
        },
        {
            "positions": [
                -2.8086503986334033,
                -0.8440782312764614,
                0.9198249314643906,
                -0.06764872816032037,
                0.3494785365148699,
                -1.1665888650565055
            ]
        },
        {
            "positions": [
                -2.8225008982415694,
                -0.8721326103047085,
                0.9441520802576169,
                -0.06658929206427605,
                0.33755167070908243,
                -0.8836679312106988
            ]
        },
        {
            "positions": [
                -2.836351397849735,
                -0.9001869893329554,
                0.9684792290508433,
                -0.06552985596823173,
                0.32562480490329493,
                -0.6007469973648925
            ]
        },
        {
            "positions": [
                -2.850201897457901,
                -0.9282413683612023,
                0.9928063778440697,
                -0.0644704198721874,
                0.3136979390975075,
                -0.31782606351908615
            ]
        },
        {
            "positions": [
                -2.864052397066067,
                -0.9562957473894493,
                1.017133526637296,
                -0.06341098377614308,
                0.30177107329172004,
                -0.034905129673279744
            ]
        },
        {
            "positions": [
                -2.736947737198578,
                -0.9940313037761416,
                0.8887187386511235,
                -0.017927079534420215,
                0.2897491426963103,
                0.0036769591722780742
            ]
        },
        {
            "positions": [
                -2.609843077331089,
                -1.0317668601628338,
                0.7603039506649509,
                0.027556824707302655,
                0.27772721210090057,
                0.04225904801783589
            ]
        },
        {
            "positions": [
                -2.4827384174635996,
                -1.069502416549526,
                0.6318891626787783,
                0.07304072894902551,
                0.2657052815054908,
                0.0808411368633937
            ]
        },
        {
            "positions": [
                -2.3556337575961104,
                -1.107237972936218,
                0.5034743746926057,
                0.1185246331907484,
                0.25368335091008104,
                0.11942322570895153
            ]
        },
        {
            "positions": [
                -2.2285290977286216,
                -1.1449735293229104,
                0.375059586706433,
                0.16400853743247124,
                0.2416614203146713,
                0.15800531455450934
            ]
        },
        {
            "positions": [
                -2.1014244378611324,
                -1.1827090857096025,
                0.24664479872026046,
                0.20949244167419412,
                0.22963948971926157,
                0.19658740340006714
            ]
        },
        {
            "positions": [
                -1.9743197779936432,
                -1.2204446420962947,
                0.1182300107340879,
                0.254976345915917,
                0.21761755912385183,
                0.23516949224562494
            ]
        },
        {
            "positions": [
                -1.847215118126154,
                -1.258180198482987,
                -0.010184777252084665,
                0.3004602501576399,
                0.2055956285284421,
                0.2737515810911828
            ]
        },
        {
            "positions": [
                -1.720110458258665,
                -1.2959157548696791,
                -0.13859956523825723,
                0.3459441543993627,
                0.19357369793303236,
                0.31233366993674055
            ]
        },
        {
            "positions": [
                -1.5930057983911758,
                -1.3336513112563715,
                -0.26701435322443,
                0.3914280586410856,
                0.18155176733762257,
                0.3509157587822984
            ]
        },
        {
            "positions": [
                -1.4659011385236866,
                -1.3713868676430636,
                -0.3954291412106026,
                0.4369119628828084,
                0.16952983674221286,
                0.3894978476278562
            ]
        },
        {
            "positions": [
                -1.3387964786561974,
                -1.4091224240297557,
                -0.5238439291967751,
                0.4823958671245313,
                0.1575079061468031,
                0.428079936473414
            ]
        },
        {
            "positions": [
                -1.2116918187887085,
                -1.446857980416448,
                -0.6522587171829477,
                0.5278797713662542,
                0.14548597555139337,
                0.46666202531897183
            ]
        },
        {
            "positions": [
                -1.0845871589212195,
                -1.48459353680314,
                -0.7806735051691203,
                0.5733636756079771,
                0.13346404495598363,
                0.5052441141645296
            ]
        },
        {
            "positions": [
                -0.9574824990537303,
                -1.5223290931898323,
                -0.9090882931552928,
                0.6188475798496998,
                0.1214421143605739,
                0.5438262030100874
            ]
        },
        {
            "positions": [
                -0.8303778391862409,
                -1.5600646495765247,
                -1.0375030811414654,
                0.6643314840914228,
                0.10942018376516413,
                0.5824082918556454
            ]
        },
        {
            "positions": [
                -0.7032731793187521,
                -1.5978002059632168,
                -1.165917869127638,
                0.7098153883331456,
                0.0973982531697544,
                0.620990380701203
            ]
        },
        {
            "positions": [
                -0.5761685194512629,
                -1.635535762349909,
                -1.2943326571138105,
                0.7552992925748685,
                0.08537632257434466,
                0.6595724695467609
            ]
        },
        {
            "positions": [
                -0.4490638595837737,
                -1.6732713187366013,
                -1.422747445099983,
                0.8007831968165914,
                0.07335439197893492,
                0.6981545583923187
            ]
        },
        {
            "positions": [
                -0.3219591997162845,
                -1.7110068751232934,
                -1.551162233086156,
                0.8462671010583143,
                0.06133246138352513,
                0.7367366472378766
            ]
        },
        {
            "positions": [
                -0.1948545398487953,
                -1.7487424315099855,
                -1.6795770210723286,
                0.8917510053000371,
                0.049310530788115425,
                0.7753187360834344
            ]
        },
        {
            "positions": [
                -0.0677498799813061,
                -1.7864779878966779,
                -1.8079918090585012,
                0.9372349095417599,
                0.03728860019270569,
                0.8139008249289922
            ]
        },
        {
            "positions": [
                0.05935477988618265,
                -1.82421354428337,
                -1.9364065970446738,
                0.9827188137834829,
                0.025266669597295954,
                0.8524829137745499
            ]
        },
        {
            "positions": [
                0.1864594397536723,
                -1.8619491006700621,
                -2.0648213850308466,
                1.0282027180252056,
                0.013244739001886163,
                0.8910650026201078
            ]
        },
        {
            "positions": [
                0.31356409962116105,
                -1.8996846570567545,
                -2.193236173017019,
                1.0736866222669286,
                0.0012228084064764277,
                0.9296470914656656
            ]
        },
        {
            "positions": [
                0.44066875948865003,
                -1.9374202134434466,
                -2.3216509610031912,
                1.1191705265086513,
                -0.010799122188933336,
                0.9682291803112233
            ]
        },
        {
            "positions": [
                0.3445290349761739,
                -1.9905915770939764,
                -2.3336901579481184,
                1.1700684908107968,
                0.017861009530688116,
                0.8299834562436516
            ]
        },
        {
            "positions": [
                0.2483893104636977,
                -2.0437629407445064,
                -2.345729354893046,
                1.2209664551129424,
                0.04652114125030957,
                0.6917377321760798
            ]
        },
        {
            "positions": [
                0.1522495859512215,
                -2.096934304395036,
                -2.357768551837973,
                1.2718644194150879,
                0.07518127296993102,
                0.5534920081085081
            ]
        },
        {
            "positions": [
                0.056109861438745356,
                -2.150105668045566,
                -2.3698077487829003,
                1.3227623837172333,
                0.10384140468955247,
                0.41524628404093633
            ]
        },
        {
            "positions": [
                -0.040029863073730854,
                -2.2032770316960955,
                -2.381846945727828,
                1.373660348019379,
                0.13250153640917392,
                0.2770005599733646
            ]
        },
        {
            "positions": [
                -0.136169587586207,
                -2.2564483953466254,
                -2.393886142672755,
                1.4245583123215244,
                0.16116166812879537,
                0.1387548359057929
            ]
        },
        {
            "positions": [
                -0.18349716518338885,
                -2.2755111725319486,
                -2.39709374461978,
                1.4398177472805367,
                0.1727199543534132,
                0.09122556864038309
            ]
        }
    ]
}