{
    "goal": {
        "global_pose": {
            "orientation": {
                "w": -0.4816463035849501,
                "x": 0.5182115481033762,
                "y": 0.4908360881923453,
                "z": -0.5084816262002911
            },
            "position": {
                "x": -0.8240239810943604,
                "y": 0.19912469901144506,
                "z": 0.16403168439865112
            }
        },
        "name": "move_to_storage_D"
    },
    "id": "STRIDE_move_to_storage_D_114",
    "joint_names": [
        "shoulder_pan_joint",
        "shoulder_lift_joint",
        "elbow_joint",
        "wrist_1_joint",
        "wrist_2_joint",
        "wrist_3_joint"
    ],
    "metrics": {
        "cart_traj_len": 3.8912608122092784,
        "distance_elbow_joint": 4.208722177038905,
        "distance_shoulder_lift_joint": 1.2814534416634527,
        "distance_shoulder_pan_joint": 2.812466386823089,
        "distance_wrist_1_joint": 2.2699219561238078,
        "distance_wrist_2_joint": 0.8713840788549335,
        "distance_wrist_3_joint": 3.1530415858991976,
        "smoothness": 0.018661969036115087,
        "time": 0.087679425,
        "traj_len": 3.8206006892114996,
        "weighted_distance": 4.9035067893478566
    },
    "planner": "STRIDE",
    "start": {
        "state": {
            "elbow_joint": -2.384821988534728,
            "shoulder_lift_joint": -2.2788054721415256,
            "shoulder_pan_joint": -0.1854694642142757,
            "wrist_1_joint": 1.4845938289331202,
            "wrist_2_joint": 0.17898776772866878,
            "wrist_3_joint": 0.037105688729662994
        }
    },
    "waypoints": [
        {
            "positions": [
                -0.1854694642142757,
                -2.2788054721415256,
                -2.384821988534728,
                1.4845938289331202,
                0.17898776772866878,
                0.037105688729662994
            ]
        },
        {
            "positions": [
                -0.09560326326228054,
                -2.2867813817679816,
                -2.2826537008186167,
                1.4581591545180763,
                0.24394003719195645,
                0.06411861984331703
            ]
        },
        {
            "positions": [
                -0.0224748398926181,
                -2.2559679554436656,
                -2.1692228485445546,
                1.3753540157525572,
                0.24524039455139485,
                0.1562917863039121
            ]
        },
        {
            "positions": [
                0.05065358347704434,
                -2.225154529119349,
                -2.0557919962704925,
                1.2925488769870381,
                0.24654075191083324,
                0.2484649527645072
            ]
        },
        {
            "positions": [
                0.12378200684670677,
                -2.194341102795033,
                -1.9423611439964303,
                1.209743738221519,
                0.24784110927027161,
                0.3406381192251023
            ]
        },
        {
            "positions": [
                0.19691043021636923,
                -2.163527676470717,
                -1.8289302917223684,
                1.126938599456,
                0.24914146662971,
                0.4328112856856973
            ]
        },
        {
            "positions": [
                0.27003885358603164,
                -2.1327142501464005,
                -1.7154994394483063,
                1.0441334606904806,
                0.2504418239891484,
                0.5249844521462924
            ]
        },
        {
            "positions": [
                0.3431672769556941,
                -2.1019008238220844,
                -1.6020685871742442,
                0.9613283219249615,
                0.2517421813485868,
                0.6171576186068876
            ]
        },
        {
            "positions": [
                0.41629570032535657,
                -2.071087397497768,
                -1.488637734900182,
                0.8785231831594424,
                0.2530425387080252,
                0.7093307850674826
            ]
        },
        {
            "positions": [
                0.489424123695019,
                -2.040273971173452,
                -1.3752068826261201,
                0.7957180443939234,
                0.2543428960674636,
                0.8015039515280776
            ]
        },
        {
            "positions": [
                0.5625525470646814,
                -2.009460544849136,
                -1.261776030352058,
                0.7129129056284043,
                0.255643253426902,
                0.8936771179886728
            ]
        },
        {
            "positions": [
                0.6356809704343438,
                -1.9786471185248196,
                -1.1483451780779959,
                0.630107766862885,
                0.25694361078634037,
                0.9858502844492678
            ]
        },
        {
            "positions": [
                0.7088093938040062,
                -1.9478336922005033,
                -1.0349143258039337,
                0.547302628097366,
                0.25824396814577877,
                1.078023450909863
            ]
        },
        {
            "positions": [
                0.7819378171736687,
                -1.917020265876187,
                -0.9214834735298716,
                0.46449748933184687,
                0.25954432550521717,
                1.170196617370458
            ]
        },
        {
            "positions": [
                0.8550662405433311,
                -1.8862068395518707,
                -0.8080526212558095,
                0.38169235056632767,
                0.26084468286465556,
                1.262369783831053
            ]
        },
        {
            "positions": [
                0.9281946639129937,
                -1.8553934132275547,
                -0.6946217689817473,
                0.29888721180080857,
                0.2621450402240939,
                1.3545429502916482
            ]
        },
        {
            "positions": [
                1.0013230872826562,
                -1.8245799869032384,
                -0.5811909167076852,
                0.21608207303528948,
                0.2634453975835323,
                1.4467161167522433
            ]
        },
        {
            "positions": [
                1.0744515106523185,
                -1.7937665605789221,
                -0.4677600644336233,
                0.1332769342697704,
                0.2647457549429707,
                1.5388892832128382
            ]
        },
        {
            "positions": [
                1.147579934021981,
                -1.762953134254606,
                -0.3543292121595609,
                0.05047179550425107,
                0.2660461123024091,
                1.6310624496734336
            ]
        },
        {
            "positions": [
                1.2207083573916433,
                -1.7321397079302898,
                -0.24089835988549924,
                -0.0323333432612678,
                0.2673464696618475,
                1.7232356161340285
            ]
        },
        {
            "positions": [
                1.2938367807613058,
                -1.7013262816059735,
                -0.12746750761143666,
                -0.11513848202678711,
                0.2686468270212859,
                1.8154087825946237
            ]
        },
        {
            "positions": [
                1.3669652041309681,
                -1.6705128552816575,
                -0.01403665533737497,
                -0.1979436207923062,
                0.2699471843807243,
                1.9075819490552186
            ]
        },
        {
            "positions": [
                1.4400936275006306,
                -1.639699428957341,
                0.0993941969366876,
                -0.2807487595578253,
                0.2712475417401627,
                1.999755115515814
            ]
        },
        {
            "positions": [
                1.513222050870293,
                -1.608886002633025,
                0.2128250492107493,
                -0.3635538983233444,
                0.2725478990996011,
                2.091928281976409
            ]
        },
        {
            "positions": [
                1.5863504742399557,
                -1.5780725763087087,
                0.32625590148481143,
                -0.4463590370888635,
                0.27384825645903943,
                2.1841014484370045
            ]
        },
        {
            "positions": [
                1.659478897609618,
                -1.5472591499843924,
                0.43968675375887356,
                -0.5291641758543826,
                0.2751486138184778,
                2.2762746148975994
            ]
        },
        {
            "positions": [
                1.7326073209792805,
                -1.5164457236600764,
                0.5531176060329357,
                -0.6119693146199019,
                0.2764489711779162,
                2.3684477813581943
            ]
        },
        {
            "positions": [
                1.8057357443489428,
                -1.48563229733576,
                0.6665484583069978,
                -0.694774453385421,
                0.2777493285373546,
                2.4606209478187893
            ]
        },
        {
            "positions": [
                1.8788641677186053,
                -1.4548188710114438,
                0.77997931058106,
                -0.7775795921509401,
                0.279049685896793,
                2.5527941142793846
            ]
        },
        {
            "positions": [
                1.9536774432076263,
                -1.410667368883398,
                0.8843713983733716,
                -0.7783544456549147,
                0.35618190196547395,
                2.616529430314332
            ]
        },
        {
            "positions": [
                2.028490718696647,
                -1.366515866755352,
                0.9887634861656832,
                -0.7791292991588894,
                0.43331411803415487,
                2.68026474634928
            ]
        },
        {
            "positions": [
                2.103303994185668,
                -1.3223643646273062,
                1.0931555739579948,
                -0.779904152662864,
                0.5104463341028358,
                2.7440000623842273
            ]
        },
        {
            "positions": [
                2.1781172696746887,
                -1.2782128624992604,
                1.1975476617503065,
                -0.7806790061668386,
                0.5875785501715167,
                2.8077353784191748
            ]
        },
        {
            "positions": [
                2.25293054516371,
                -1.2340613603712143,
                1.3019397495426182,
                -0.7814538596708133,
                0.6647107662401976,
                2.871470694454122
            ]
        },
        {
            "positions": [
                2.3277438206527306,
                -1.1899098582431686,
                1.4063318373349296,
                -0.7822287131747879,
                0.7418429823088786,
                2.93520601048907
            ]
        },
        {
            "positions": [
                2.4025570961417513,
                -1.1457583561151226,
                1.510723925127241,
                -0.7830035666787626,
                0.8189751983775595,
                2.9989413265240175
            ]
        },
        {
            "positions": [
                2.477370371630772,
                -1.1016068539870767,
                1.615116012919553,
                -0.7837784201827371,
                0.8961074144462404,
                3.062676642558965
            ]
        },
        {
            "positions": [
                2.552183647119793,
                -1.0574553518590308,
                1.7195081007118644,
                -0.7845532736867118,
                0.9732396305149214,
                3.1264119585939127
            ]
        },
        {
            "positions": [
                2.626996922608814,
                -1.013303849730985,
                1.8239001885041761,
                -0.7853281271906865,
                1.0503718465836023,
                3.19014727462886
            ]
        }
    ]
}