{
    "goal": {
        "global_pose": {
            "orientation": {
                "w": 0.005598929693374612,
                "x": 0.007748599140229565,
                "y": 0.7110244013736278,
                "z": -0.7031023480610252
            },
            "position": {
                "x": -0.8858502320852131,
                "y": -0.7141253447532654,
                "z": 0.3711530566215515
            }
        },
        "name": "move_to_auspresseinheit_C"
    },
    "id": "STRIDE_move_to_auspresseinheit_C_142",
    "joint_names": [
        "shoulder_pan_joint",
        "shoulder_lift_joint",
        "elbow_joint",
        "wrist_1_joint",
        "wrist_2_joint",
        "wrist_3_joint"
    ],
    "metrics": {
        "cart_traj_len": 0.4938943813181482,
        "distance_elbow_joint": 1.0048566977806694,
        "distance_shoulder_lift_joint": 0.3271010449658225,
        "distance_shoulder_pan_joint": 0.2563737221616025,
        "distance_wrist_1_joint": 0.682557601450396,
        "distance_wrist_2_joint": 1.3149903650988626,
        "distance_wrist_3_joint": 0.05498043391517804,
        "smoothness": 3.2297397080004555e-16,
        "time": 0.056163025,
        "traj_len": 1.9081037354851886,
        "weighted_distance": 2.397575587912119
    },
    "planner": "STRIDE",
    "start": {
        "state": {
            "elbow_joint": 1.7527959577737207,
            "shoulder_lift_joint": -0.9740617694225068,
            "shoulder_pan_joint": -2.967991417825858,
            "wrist_1_joint": -0.759517768980727,
            "wrist_2_joint": 1.7443932448377408,
            "wrist_3_joint": -3.0840537646736568
        }
    },
    "waypoints": [
        {
            "positions": [
                -2.967991417825858,
                -0.9740617694225068,
                1.7527959577737207,
                -0.759517768980727,
                1.7443932448377408,
                -3.0840537646736568
            ]
        },
        {
            "positions": [
                -2.9423540456096977,
                -0.9413516649259245,
                1.6523102879956537,
                -0.6912620088356873,
                1.6128942083278546,
                -3.0895518080651745
            ]
        },
        {
            "positions": [
                -2.9167166733935375,
                -0.9086415604293423,
                1.5518246182175868,
                -0.6230062486906478,
                1.4813951718179683,
                -3.095049851456692
            ]
        },
        {
            "positions": [
                -2.891079301177377,
                -0.87593145593276,
                1.4513389484395198,
                -0.5547504885456082,
                1.349896135308082,
                -3.1005478948482104
            ]
        },
        {
            "positions": [
                -2.865441928961217,
                -0.8432213514361777,
                1.3508532786614529,
                -0.48649472840056857,
                1.2183970987981958,
                -3.106045938239728
            ]
        },
        {
            "positions": [
                -2.8398045567450567,
                -0.8105112469395955,
                1.250367608883386,
                -0.418238968255529,
                1.0868980622883095,
                -3.111543981631246
            ]
        },
        {
            "positions": [
                -2.8141671845288965,
                -0.7778011424430133,
                1.149881939105319,
                -0.3499832081104894,
                0.9553990257784233,
                -3.1170420250227635
            ]
        },
        {
            "positions": [
                -2.7885298123127362,
                -0.7450910379464311,
                1.049396269327252,
                -0.2817274479654498,
                0.8238999892685371,
                -3.1225400684142812
            ]
        },
        {
            "positions": [
                -2.762892440096576,
                -0.7123809334498488,
                0.9489105995491851,
                -0.21347168782041015,
                0.6924009527586508,
                -3.1280381118057994
            ]
        },
        {
            "positions": [
                -2.7372550678804157,
                -0.6796708289532665,
                0.8484249297711182,
                -0.1452159276753705,
                0.5609019162487645,
                -3.133536155197317
            ]
        },
        {
            "positions": [
                -2.7116176956642555,
                -0.6469607244566843,
                0.7479392599930513,
                -0.07696016753033091,
                0.42940287973887814,
                -3.139034198588835
            ]
        }
    ]
}