{
    "goal": {
        "global_pose": {
            "orientation": {
                "w": 0.5084816217422485,
                "x": -0.49083608388900757,
                "y": 0.5182115435600281,
                "z": -0.4816462993621826
            },
            "position": {
                "x": 0.5540239810943604,
                "y": 0.030875300988554955,
                "z": 0.16403168439865112
            }
        },
        "name": "move_to_storage_A"
    },
    "id": "STRIDE_move_to_storage_A_48",
    "joint_names": [
        "shoulder_pan_joint",
        "shoulder_lift_joint",
        "elbow_joint",
        "wrist_1_joint",
        "wrist_2_joint",
        "wrist_3_joint"
    ],
    "metrics": {
        "cart_traj_len": 0.35249024760832015,
        "distance_elbow_joint": 0.45047659182588773,
        "distance_shoulder_lift_joint": 0.23422024291784216,
        "distance_shoulder_pan_joint": 0.4613444704052348,
        "distance_wrist_1_joint": 0.24116939008213578,
        "distance_wrist_2_joint": 1.0962908112487206,
        "distance_wrist_3_joint": 0.09705661469022786,
        "smoothness": 2.2204460668324854e-16,
        "time": 0.145422996,
        "traj_len": 1.6064115665576022,
        "weighted_distance": 2.0278391336300228
    },
    "planner": "STRIDE",
    "start": {
        "state": {
            "elbow_joint": 1.971548259319323,
            "shoulder_lift_joint": -1.1394851275133948,
            "shoulder_pan_joint": 0.1228115487234821,
            "wrist_1_joint": -0.7804723859257726,
            "wrist_2_joint": 0.12958671773740124,
            "wrist_3_joint": -3.192489227718131
        }
    },
    "waypoints": [
        {
            "positions": [
                0.1228115487234821,
                -1.1394851275133948,
                1.971548259319323,
                -0.7804723859257726,
                0.12958671773740124,
                -3.192489227718131
            ]
        },
        {
            "positions": [
                0.056905195808448564,
                -1.1729451622159437,
                2.0359020581515925,
                -0.8149251559375063,
                0.2861996907729327,
                -3.1786239970480987
            ]
        },
        {
            "positions": [
                -0.009001157106584973,
                -1.2064051969184926,
                2.1002558569838623,
                -0.84937792594924,
                0.4428126638084643,
                -3.164758766378066
            ]
        },
        {
            "positions": [
                -0.07490751002161852,
                -1.2398652316210415,
                2.164609655816132,
                -0.8838306959609736,
                0.5994256368439957,
                -3.1508935357080334
            ]
        },
        {
            "positions": [
                -0.14081386293665205,
                -1.2733252663235903,
                2.228963454648402,
                -0.9182834659727074,
                0.7560386098795273,
                -3.137028305038001
            ]
        },
        {
            "positions": [
                -0.2067202158516856,
                -1.3067853010261392,
                2.293317253480671,
                -0.952736235984441,
                0.9126515829150589,
                -3.1231630743679686
            ]
        },
        {
            "positions": [
                -0.27262656876671915,
                -1.340245335728688,
                2.357671052312941,
                -0.9871890059961748,
                1.0692645559505902,
                -3.1092978436979357
            ]
        },
        {
            "positions": [
                -0.3385329216817527,
                -1.373705370431237,
                2.4220248511452107,
                -1.0216417760079084,
                1.225877528986122,
                -3.0954326130279033
            ]
        }
    ]
}{
    "goal": {
        "global_pose": {
            "orientation": {
                "w": 0.5084816217422485,
                "x": -0.49083608388900757,
                "y": 0.5182115435600281,
                "z": -0.4816462993621826
            },
            "position": {
                "x": 0.5540239810943604,
                "y": 0.030875300988554955,
                "z": 0.16403168439865112
            }
        },
        "name": "move_to_storage_A"
    },
    "id": "STRIDE_move_to_storage_A_48",
    "joint_names": [
        "shoulder_pan_joint",
        "shoulder_lift_joint",
        "elbow_joint",
        "wrist_1_joint",
        "wrist_2_joint",
        "wrist_3_joint"
    ],
    "metrics": {
        "cart_traj_len": 0.3525328746297373,
        "distance_elbow_joint": 0.44986381663738895,
        "distance_shoulder_lift_joint": 0.23494570181916452,
        "distance_shoulder_pan_joint": 0.45858637670838376,
        "distance_wrist_1_joint": 0.24259648524390087,
        "distance_wrist_2_joint": 1.1083165647292939,
        "distance_wrist_3_joint": 0.09038131487862744,
        "smoothness": 0.0,
        "time": 0.14115888499999998,
        "traj_len": 1.6076971916429907,
        "weighted_distance": 2.0288829290393293
    },
    "planner": "STRIDE",
    "start": {
        "state": {
            "elbow_joint": 1.97154746011099,
            "shoulder_lift_joint": -1.13948474672311,
            "shoulder_pan_joint": 0.12281154466712228,
            "wrist_1_joint": -0.7804688027058302,
            "wrist_2_joint": 0.12958655903071145,
            "wrist_3_joint": 3.0906928834467795
        }
    },
    "waypoints": [
        {
            "positions": [
                0.12281154466712228,
                -1.13948474672311,
                1.97154746011099,
                -0.7804688027058302,
                0.12958655903071145,
                3.0906928834467795
            ]
        },
        {
            "positions": [
                0.057299205137353176,
                -1.173048418411562,
                2.035813719630617,
                -0.8151254434549589,
                0.287917496849182,
                3.103604499858012
            ]
        },
        {
            "positions": [
                -0.00821313439241593,
                -1.2066120901000141,
                2.100079979150244,
                -0.8497820842040875,
                0.4462484346676525,
                3.1165161162692443
            ]
        },
        {
            "positions": [
                -0.07372547392218502,
                -1.2401757617884661,
                2.164346238669871,
                -0.8844387249532163,
                0.604579372486123,
                3.129427732680477
            ]
        },
        {
            "positions": [
                -0.13923781345195413,
                -1.2737394334769183,
                2.2286124981894977,
                -0.919095365702345,
                0.7629103103045937,
                3.1423393490917095
            ]
        },
        {
            "positions": [
                -0.20475015298172328,
                -1.3073031051653703,
                2.2928787577091247,
                -0.9537520064514737,
                0.9212412481230643,
                3.155250965502942
            ]
        },
        {
            "positions": [
                -0.2702624925114923,
                -1.3408667768538223,
                2.357145017228752,
                -0.9884086472006024,
                1.0795721859415346,
                3.1681625819141743
            ]
        },
        {
            "positions": [
                -0.33577483204126146,
                -1.3744304485422745,
                2.421411276748379,
                -1.023065287949731,
                1.2379031237600053,
                3.181074198325407
            ]
        }
    ]
}{
    "goal": {
        "global_pose": {
            "orientation": {
                "w": 0.5084816217422485,
                "x": -0.49083608388900757,
                "y": 0.5182115435600281,
                "z": -0.4816462993621826
            },
            "position": {
                "x": 0.5540239810943604,
                "y": 0.030875300988554955,
                "z": 0.16403168439865112
            }
        },
        "name": "move_to_storage_A"
    },
    "id": "STRIDE_move_to_storage_A_48",
    "joint_names": [
        "shoulder_pan_joint",
        "shoulder_lift_joint",
        "elbow_joint",
        "wrist_1_joint",
        "wrist_2_joint",
        "wrist_3_joint"
    ],
    "metrics": {
        "cart_traj_len": 0.35322188871651866,
        "distance_elbow_joint": 0.4513311651334466,
        "distance_shoulder_lift_joint": 0.23352211156698433,
        "distance_shoulder_pan_joint": 0.46326561055374504,
        "distance_wrist_1_joint": 0.2510402179694651,
        "distance_wrist_2_joint": 1.0927173980660991,
        "distance_wrist_3_joint": 0.09280731120008356,
        "smoothness": 2.2204460668324854e-16,
        "time": 0.021437777,
        "traj_len": 1.6076951870581138,
        "weighted_distance": 2.028313598269645
    },
    "planner": "STRIDE",
    "start": {
        "state": {
            "elbow_joint": 1.9715472970024885,
            "shoulder_lift_joint": -1.1394870060712896,
            "shoulder_pan_joint": 0.12281152778156021,
            "wrist_1_joint": -0.780463741449964,
            "wrist_2_joint": 0.12958659822042276,
            "wrist_3_joint": 3.090690232415272
        }
    },
    "waypoints": [
        {
            "positions": [
                0.12281152778156021,
                -1.1394870060712896,
                1.9715472970024885,
                -0.780463741449964,
                0.12958659822042276,
                3.090690232415272
            ]
        },
        {
            "positions": [
                0.056630726273882354,
                -1.172847307723716,
                2.036023177735838,
                -0.8163266297313162,
                0.2856890836584369,
                3.1039484197295697
            ]
        },
        {
            "positions": [
                -0.009550075233795502,
                -1.2062076093761422,
                2.1004990584691874,
                -0.8521895180126683,
                0.4417915690964511,
                3.117206607043867
            ]
        },
        {
            "positions": [
                -0.07573087674147336,
                -1.2395679110285687,
                2.164974939202537,
                -0.8880524062940205,
                0.5978940545344652,
                3.130464794358165
            ]
        },
        {
            "positions": [
                -0.1419116782491512,
                -1.2729282126809949,
                2.2294508199358867,
                -0.9239152945753726,
                0.7539965399724794,
                3.1437229816724623
            ]
        },
        {
            "positions": [
                -0.20809247975682912,
                -1.3062885143334213,
                2.2939267006692363,
                -0.9597781828567248,
                0.9100990254104936,
                3.15698116898676
            ]
        },
        {
            "positions": [
                -0.2742732812645069,
                -1.3396488159858475,
                2.3584025814025855,
                -0.9956410711380769,
                1.0662015108485077,
                3.1702393563010576
            ]
        },
        {
            "positions": [
                -0.3404540827721848,
                -1.373009117638274,
                2.422878462135935,
                -1.031503959419429,
                1.2223039962865219,
                3.1834975436153554
            ]
        }
    ]
}