{
    "goal": {
        "global_pose": {
            "orientation": {
                "w": 0.5084816262002911,
                "x": -0.4908360881923452,
                "y": 0.5182115481033761,
                "z": -0.48164630358495003
            },
            "position": {
                "x": 0.5540239810943604,
                "y": -0.46912469901144505,
                "z": 0.16403168439865112
            }
        },
        "name": "move_to_storage_B"
    },
    "id": "STRIDE_move_to_storage_B_109",
    "joint_names": [
        "shoulder_pan_joint",
        "shoulder_lift_joint",
        "elbow_joint",
        "wrist_1_joint",
        "wrist_2_joint",
        "wrist_3_joint"
    ],
    "metrics": {
        "cart_traj_len": 1.5097505674360092,
        "distance_elbow_joint": 1.3682811143148563,
        "distance_shoulder_lift_joint": 0.4588085470347285,
        "distance_shoulder_pan_joint": 1.162922409047562,
        "distance_wrist_1_joint": 3.0040965664691233,
        "distance_wrist_2_joint": 2.7680877238923585,
        "distance_wrist_3_joint": 3.81841914719216,
        "smoothness": 0.17183150242238715,
        "time": 0.062395934,
        "traj_len": 3.5469163378843303,
        "weighted_distance": 5.098003343731405
    },
    "planner": "STRIDE",
    "start": {
        "state": {
            "elbow_joint": 1.664937868594044,
            "shoulder_lift_joint": -0.661644460510453,
            "shoulder_pan_joint": -0.9139846352900073,
            "wrist_1_joint": 2.146753192139373,
            "wrist_2_joint": -2.2341966793290973,
            "wrist_3_joint": 0.005466555786416001
        }
    },
    "waypoints": [
        {
            "positions": [
                -0.9139846352900073,
                -0.661644460510453,
                1.664937868594044,
                2.146753192139373,
                -2.2341966793290973,
                0.005466555786416001
            ]
        },
        {
            "positions": [
                -0.7912529950372374,
                -0.6840329456478225,
                1.5441355438183906,
                2.103645337512082,
                -2.241722274575596,
                -0.03170169706519805
            ]
        },
        {
            "positions": [
                -0.6685213547844677,
                -0.7064214307851919,
                1.4233332190427372,
                2.060537482884791,
                -2.249247869822094,
                -0.0688699499168121
            ]
        },
        {
            "positions": [
                -0.5457897145316979,
                -0.7288099159225613,
                1.3025308942670841,
                2.0174296282574997,
                -2.2567734650685924,
                -0.10603820276842615
            ]
        },
        {
            "positions": [
                -0.42305807427892805,
                -0.7511984010599307,
                1.1817285694914308,
                1.9743217736302088,
                -2.264299060315091,
                -0.1432064556200402
            ]
        },
        {
            "positions": [
                -0.4503520779611565,
                -0.7944991421144834,
                1.1782428489644423,
                1.8605779381667658,
                -2.1257934340728277,
                -0.1700274901891691
            ]
        },
        {
            "positions": [
                -0.4776460816433849,
                -0.8377998831690359,
                1.1747571284374536,
                1.7468341027033225,
                -1.9872878078305645,
                -0.196848524758298
            ]
        },
        {
            "positions": [
                -0.5049400853256134,
                -0.8811006242235885,
                1.1712714079104651,
                1.6330902672398795,
                -1.8487821815883012,
                -0.22366955932742688
            ]
        },
        {
            "positions": [
                -0.5322340890078417,
                -0.9244013652781411,
                1.1677856873834767,
                1.5193464317764365,
                -1.710276555346038,
                -0.2504905938965558
            ]
        },
        {
            "positions": [
                -0.5595280926900702,
                -0.9677021063326936,
                1.1642999668564882,
                1.4056025963129932,
                -1.5717709291037747,
                -0.2773116284656847
            ]
        },
        {
            "positions": [
                -0.5868220963722987,
                -1.011002847387246,
                1.1608142463294995,
                1.29185876084955,
                -1.4332653028615114,
                -0.30413266303481357
            ]
        },
        {
            "positions": [
                -0.6141161000545271,
                -1.0543035884417988,
                1.157328525802511,
                1.178114925386107,
                -1.2947596766192482,
                -0.3309536976039425
            ]
        },
        {
            "positions": [
                -0.6359769101572945,
                -1.0573103802192254,
                1.196449969962662,
                1.0855940935808408,
                -1.2143757693824062,
                -0.1726810206129515
            ]
        },
        {
            "positions": [
                -0.657837720260062,
                -1.0603171719966518,
                1.2355714141228131,
                0.9930732617755745,
                -1.1339918621455645,
                -0.014408343621960529
            ]
        },
        {
            "positions": [
                -0.6796985303628295,
                -1.0633239637740783,
                1.2746928582829642,
                0.9005524299703083,
                -1.0536079549087227,
                0.14386433336903043
            ]
        },
        {
            "positions": [
                -0.7015593404655969,
                -1.0663307555515047,
                1.3138143024431153,
                0.8080315981650421,
                -0.9732240476718808,
                0.30213701036002144
            ]
        },
        {
            "positions": [
                -0.7234201505683644,
                -1.0693375473289313,
                1.3529357466032663,
                0.715510766359776,
                -0.8928401404350388,
                0.46040968735101245
            ]
        },
        {
            "positions": [
                -0.7452809606711318,
                -1.0723443391063578,
                1.3920571907634174,
                0.6229899345545097,
                -0.812456233198197,
                0.6186823643420034
            ]
        },
        {
            "positions": [
                -0.7671417707738992,
                -1.0753511308837842,
                1.4311786349235684,
                0.5304691027492434,
                -0.7320723259613551,
                0.7769550413329944
            ]
        },
        {
            "positions": [
                -0.7890025808766667,
                -1.0783579226612108,
                1.4703000790837195,
                0.43794827094397715,
                -0.6516884187245132,
                0.9352277183239854
            ]
        },
        {
            "positions": [
                -0.8108633909794342,
                -1.0813647144386371,
                1.5094215232438706,
                0.345427439138711,
                -0.5713045114876714,
                1.0935003953149767
            ]
        },
        {
            "positions": [
                -0.8327242010822016,
                -1.0843715062160637,
                1.5485429674040216,
                0.25290660733344483,
                -0.4909206042508295,
                1.2517730723059675
            ]
        },
        {
            "positions": [
                -0.8545850111849691,
                -1.08737829799349,
                1.5876644115641727,
                0.16038577552817856,
                -0.41053669701398765,
                1.4100457492969585
            ]
        },
        {
            "positions": [
                -0.8764458212877364,
                -1.0903850897709166,
                1.6267858557243238,
                0.06786494372291241,
                -0.3301527897771459,
                1.5683184262879493
            ]
        },
        {
            "positions": [
                -0.8983066313905039,
                -1.0933918815483432,
                1.6659072998844748,
                -0.02465588808235397,
                -0.24976888254030394,
                1.7265911032789407
            ]
        },
        {
            "positions": [
                -0.9201674414932715,
                -1.0963986733257696,
                1.705028744044626,
                -0.11717671988762013,
                -0.16938497530346197,
                1.8848637802699313
            ]
        },
        {
            "positions": [
                -0.9420282515960388,
                -1.0994054651031961,
                1.744150188204777,
                -0.20969755169288629,
                -0.08900106806662023,
                2.043136457260922
            ]
        },
        {
            "positions": [
                -0.9638890616988063,
                -1.1024122568806225,
                1.783271632364928,
                -0.30221838349815267,
                -0.008617160829778259,
                2.201409134251913
            ]
        },
        {
            "positions": [
                -0.9857498718015738,
                -1.105419048658049,
                1.822393076525079,
                -0.3947392153034186,
                0.07176674640706349,
                2.359681811242904
            ]
        },
        {
            "positions": [
                -1.007610681904341,
                -1.1084258404354757,
                1.8615145206852302,
                -0.487260047108685,
                0.15215065364390545,
                2.5179544882338956
            ]
        },
        {
            "positions": [
                -1.0294714920071086,
                -1.111432632212902,
                1.9006359648453812,
                -0.5797808789139511,
                0.2325345608807472,
                2.676227165224886
            ]
        },
        {
            "positions": [
                -1.0513323021098762,
                -1.1144394239903286,
                1.9397574090055323,
                -0.6723017107192173,
                0.31291846811758917,
                2.834499842215877
            ]
        },
        {
            "positions": [
                -1.0731931122126435,
                -1.117446215767755,
                1.9788788531656833,
                -0.7648225425244837,
                0.39330237535443113,
                2.992772519206868
            ]
        },
        {
            "positions": [
                -1.095053922315411,
                -1.1204530075451815,
                2.0180002973258344,
                -0.8573433743297497,
                0.473686282591273,
                3.151045196197859
            ]
        }
    ]
}