{
    "goal": {
        "global_pose": {
            "orientation": {
                "w": 0.005598929693374612,
                "x": 0.007748599140229565,
                "y": 0.7110244013736278,
                "z": -0.7031023480610252
            },
            "position": {
                "x": 0.1141497679147869,
                "y": -0.7141253447532654,
                "z": 0.3711530566215515
            }
        },
        "name": "move_to_auspresseinheit_B"
    },
    "id": "STRIDE_move_to_auspresseinheit_B_85",
    "joint_names": [
        "shoulder_pan_joint",
        "shoulder_lift_joint",
        "elbow_joint",
        "wrist_1_joint",
        "wrist_2_joint",
        "wrist_3_joint"
    ],
    "metrics": {
        "cart_traj_len": 0.5647980640025532,
        "distance_elbow_joint": 0.06627996965090288,
        "distance_shoulder_lift_joint": 0.2934317666128343,
        "distance_shoulder_pan_joint": 0.5749781663022069,
        "distance_wrist_1_joint": 0.339463463195922,
        "distance_wrist_2_joint": 1.005631832129656,
        "distance_wrist_3_joint": 0.004400936954386481,
        "smoothness": 5.075305295617109e-16,
        "time": 0.026126286999999998,
        "traj_len": 1.5113524191418455,
        "weighted_distance": 1.907376025874358
    },
    "planner": "STRIDE",
    "start": {
        "state": {
            "elbow_joint": 2.0193083361928714,
            "shoulder_lift_joint": -1.1220246554650708,
            "shoulder_pan_joint": -1.0952077554168747,
            "wrist_1_joint": -0.8559753972642168,
            "wrist_2_joint": 0.4759566250798843,
            "wrist_3_joint": -3.1240929996934557
        }
    },
    "waypoints": [
        {
            "positions": [
                -1.0952077554168747,
                -1.1220246554650708,
                2.0193083361928714,
                -0.8559753972642168,
                0.4759566250798843,
                -3.1240929996934557
            ]
        },
        {
            "positions": [
                -1.1910374498005758,
                -1.1709299499005432,
                2.0082616745843875,
                -0.7993981533982297,
                0.643561930434827,
                -3.123359510201058
            ]
        },
        {
            "positions": [
                -1.286867144184277,
                -1.2198352443360156,
                1.9972150129759039,
                -0.7428209095322428,
                0.8111672357897697,
                -3.12262602070866
            ]
        },
        {
            "positions": [
                -1.382696838567978,
                -1.268740538771488,
                1.98616835136742,
                -0.6862436656662558,
                0.9787725411447123,
                -3.1218925312162624
            ]
        },
        {
            "positions": [
                -1.4785265329516792,
                -1.3176458332069603,
                1.975121689758936,
                -0.6296664218002688,
                1.146377846499655,
                -3.121159041723865
            ]
        },
        {
            "positions": [
                -1.5743562273353804,
                -1.3665511276424327,
                1.9640750281504524,
                -0.5730891779342817,
                1.3139831518545977,
                -3.120425552231467
            ]
        },
        {
            "positions": [
                -1.6701859217190815,
                -1.4154564220779051,
                1.9530283665419685,
                -0.5165119340682948,
                1.4815884572095404,
                -3.119692062739069
            ]
        }
    ]
}