{
    "goal": {
        "global_pose": {
            "orientation": {
                "w": 0.7031023502349854,
                "x": -0.7110244035720825,
                "y": 0.007748599164187908,
                "z": 0.005598929710686207
            },
            "position": {
                "x": 0.11585023208521307,
                "y": 0.44412534475326537,
                "z": 0.3711530566215515
            }
        },
        "name": "move_to_auspresseinheit_A"
    },
    "id": "STRIDE_move_to_auspresseinheit_A_99",
    "joint_names": [
        "shoulder_pan_joint",
        "shoulder_lift_joint",
        "elbow_joint",
        "wrist_1_joint",
        "wrist_2_joint",
        "wrist_3_joint"
    ],
    "metrics": {
        "cart_traj_len": 0.7042206893523549,
        "distance_elbow_joint": 0.03720417679700727,
        "distance_shoulder_lift_joint": 0.5671181739202233,
        "distance_shoulder_pan_joint": 1.0428532058027264,
        "distance_wrist_1_joint": 0.5442172000996344,
        "distance_wrist_2_joint": 0.5216478418523129,
        "distance_wrist_3_joint": 0.5384378113947523,
        "smoothness": 0.45155591962513153,
        "time": 0.39912024100000004,
        "traj_len": 1.8031856282331715,
        "weighted_distance": 2.3225458175476557
    },
    "planner": "STRIDE",
    "start": {
        "state": {
            "elbow_joint": 2.4225746658250005,
            "shoulder_lift_joint": -1.3736534386056498,
            "shoulder_pan_joint": -0.3378633547517467,
            "wrist_1_joint": -1.0288598680537169,
            "wrist_2_joint": 1.233022673432363,
            "wrist_3_joint": -3.0940220416140027
        }
    },
    "waypoints": [
        {
            "positions": [
                -0.3378633547517467,
                -1.3736534386056498,
                2.4225746658250005,
                -1.0288598680537169,
                1.233022673432363,
                -3.0940220416140027
            ]
        },
        {
            "positions": [
                -0.23206470169330515,
                -1.4657363762273383,
                2.4174446177835764,
                -0.9654106689731528,
                1.1741558527844933,
                -3.051720223003565
            ]
        },
        {
            "positions": [
                -0.12626604863486357,
                -1.557819313849027,
                2.412314569742153,
                -0.9019614698925886,
                1.1152890321366238,
                -3.0094184043931267
            ]
        },
        {
            "positions": [
                -0.020467395576421965,
                -1.6499022514707158,
                2.407184521700729,
                -0.8385122708120245,
                1.056422211488754,
                -2.967116585782689
            ]
        },
        {
            "positions": [
                0.08533125748201958,
                -1.7419851890924043,
                2.402054473659305,
                -0.7750630717314604,
                0.9975553908408843,
                -2.924814767172251
            ]
        },
        {
            "positions": [
                0.1911299105404612,
                -1.8340681267140928,
                2.396924425617881,
                -0.7116138726508963,
                0.9386885701930145,
                -2.882512948561813
            ]
        },
        {
            "positions": [
                0.2969285635989028,
                -1.9261510643357815,
                2.391794377576457,
                -0.6481646735703321,
                0.8798217495451449,
                -2.840211129951375
            ]
        },
        {
            "positions": [
                0.4329489927495951,
                -1.9212775482724176,
                2.3939356737592785,
                -0.5936573383649156,
                0.8236727768901133,
                -2.9350867631954167
            ]
        },
        {
            "positions": [
                0.5689694219002874,
                -1.9164040322090539,
                2.3960769699421,
                -0.539150003159499,
                0.7675238042350817,
                -3.029962396439458
            ]
        },
        {
            "positions": [
                0.7049898510509798,
                -1.91153051614569,
                2.398218266124921,
                -0.4846426679540825,
                0.7113748315800501,
                -3.1248380296834997
            ]
        }
    ]
}