{
    "goal": {
        "global_pose": {
            "orientation": {
                "w": 0.5084816262002911,
                "x": -0.4908360881923452,
                "y": 0.5182115481033761,
                "z": -0.48164630358495003
            },
            "position": {
                "x": 0.5540239810943604,
                "y": -0.46912469901144505,
                "z": 0.16403168439865112
            }
        },
        "name": "move_to_storage_B"
    },
    "id": "STRIDE_move_to_storage_B_4",
    "joint_names": [
        "shoulder_pan_joint",
        "shoulder_lift_joint",
        "elbow_joint",
        "wrist_1_joint",
        "wrist_2_joint",
        "wrist_3_joint"
    ],
    "metrics": {
        "cart_traj_len": 1.7189873238669617,
        "distance_elbow_joint": 0.46712026657714123,
        "distance_shoulder_lift_joint": 2.0698467222967505,
        "distance_shoulder_pan_joint": 1.9174237337011084,
        "distance_wrist_1_joint": 2.987929422189082,
        "distance_wrist_2_joint": 2.716508626434043,
        "distance_wrist_3_joint": 3.148940718492052,
        "smoothness": 0.2738756158838564,
        "time": 0.055214648,
        "traj_len": 3.647981563781563,
        "weighted_distance": 5.030913334107178
    },
    "planner": "STRIDE",
    "start": {
        "state": {
            "elbow_joint": 1.664937868594044,
            "shoulder_lift_joint": -0.661644460510453,
            "shoulder_pan_joint": -0.9139846352900073,
            "wrist_1_joint": 2.146753192139373,
            "wrist_2_joint": -2.2341966793290973,
            "wrist_3_joint": 0.005466555786416001
        }
    },
    "waypoints": [
        {
            "positions": [
                -0.9139846352900073,
                -0.661644460510453,
                1.664937868594044,
                2.146753192139373,
                -2.2341966793290973,
                0.005466555786416001
            ]
        },
        {
            "positions": [
                -0.9502791836186352,
                -0.7016064933435966,
                1.6640381494163223,
                2.014758179116122,
                -2.101726453539466,
                0.009226793405575643
            ]
        },
        {
            "positions": [
                -0.9865737319472629,
                -0.7415685261767402,
                1.6631384302386005,
                1.8827631660928705,
                -1.969256227749835,
                0.012987031024735285
            ]
        },
        {
            "positions": [
                -1.0228682802758908,
                -0.7815305590098838,
                1.662238711060879,
                1.750768153069619,
                -1.8367860019602038,
                0.016747268643894926
            ]
        },
        {
            "positions": [
                -1.0781686188284765,
                -0.8488859416985348,
                1.659013585442117,
                1.6417581191881023,
                -1.727517823980713,
                0.057306652270879936
            ]
        },
        {
            "positions": [
                -1.133468957381062,
                -0.9162413243871859,
                1.6557884598233552,
                1.5327480853065854,
                -1.6182496460012221,
                0.09786603589786494
            ]
        },
        {
            "positions": [
                -1.1887692959336476,
                -0.9835967070758369,
                1.6525633342045933,
                1.4237380514250684,
                -1.5089814680217313,
                0.13842541952484996
            ]
        },
        {
            "positions": [
                -1.244069634486233,
                -1.050952089764488,
                1.6493382085858315,
                1.3147280175435516,
                -1.3997132900422404,
                0.17898480315183496
            ]
        },
        {
            "positions": [
                -1.2993699730388186,
                -1.118307472453139,
                1.6461130829670696,
                1.2057179836620349,
                -1.2904451120627494,
                0.21954418677881996
            ]
        },
        {
            "positions": [
                -1.3546703115914043,
                -1.18566285514179,
                1.6428879573483077,
                1.0967079497805177,
                -1.1811769340832585,
                0.260103570405805
            ]
        },
        {
            "positions": [
                -1.4099706501439897,
                -1.253018237830441,
                1.6396628317295459,
                0.987697915899001,
                -1.071908756103768,
                0.30066295403279
            ]
        },
        {
            "positions": [
                -1.4652709886965753,
                -1.3203736205190921,
                1.636437706110784,
                0.8786878820174842,
                -0.962640578124277,
                0.341222337659775
            ]
        },
        {
            "positions": [
                -1.5205713272491608,
                -1.3877290032077432,
                1.6332125804920223,
                0.7696778481359672,
                -0.8533724001447861,
                0.38178172128675997
            ]
        },
        {
            "positions": [
                -1.5758716658017464,
                -1.4550843858963942,
                1.6299874548732605,
                0.6606678142544504,
                -0.7441042221652951,
                0.422341104913745
            ]
        },
        {
            "positions": [
                -1.6311720043543319,
                -1.5224397685850453,
                1.6267623292544986,
                0.5516577803729334,
                -0.6348360441858043,
                0.46290048854073
            ]
        },
        {
            "positions": [
                -1.6864723429069177,
                -1.5897951512736963,
                1.6235372036357367,
                0.44264774649141647,
                -0.5255678662063135,
                0.503459872167715
            ]
        },
        {
            "positions": [
                -1.7417726814595031,
                -1.6571505339623473,
                1.6203120780169749,
                0.33363771260989994,
                -0.41629968822682284,
                0.5440192557947
            ]
        },
        {
            "positions": [
                -1.7970730200120886,
                -1.7245059166509984,
                1.617086952398213,
                0.22462767872838296,
                -0.307031510247332,
                0.5845786394216851
            ]
        },
        {
            "positions": [
                -1.852373358564674,
                -1.7918612993396494,
                1.6138618267794511,
                0.11561764484686599,
                -0.19776333226784093,
                0.62513802304867
            ]
        },
        {
            "positions": [
                -1.9076736971172599,
                -1.8592166820283005,
                1.6106367011606892,
                0.006607610965349231,
                -0.08849515428835009,
                0.6656974066756551
            ]
        },
        {
            "positions": [
                -1.9629740356698453,
                -1.9265720647169515,
                1.6074115755419274,
                -0.10240242291616775,
                0.020773023691140702,
                0.7062567903026401
            ]
        },
        {
            "positions": [
                -1.9050784134484273,
                -1.8729107901776014,
                1.6347178404435956,
                -0.15165401005840373,
                0.05154228525206117,
                0.8694668225676954
            ]
        },
        {
            "positions": [
                -1.8471827912270093,
                -1.8192495156382513,
                1.662024105345264,
                -0.2009055972006397,
                0.08231154681298164,
                1.0326768548327505
            ]
        },
        {
            "positions": [
                -1.7892871690055911,
                -1.765588241098901,
                1.6893303702469322,
                -0.2501571843428757,
                0.11308080837390211,
                1.1958868870978057
            ]
        },
        {
            "positions": [
                -1.7313915467841732,
                -1.711926966559551,
                1.7166366351486007,
                -0.29940877148511164,
                0.14385006993482258,
                1.359096919362861
            ]
        },
        {
            "positions": [
                -1.6734959245627552,
                -1.6582656920202008,
                1.7439429000502689,
                -0.34866035862734757,
                0.17461933149574302,
                1.522306951627916
            ]
        },
        {
            "positions": [
                -1.615600302341337,
                -1.6046044174808507,
                1.7712491649519373,
                -0.3979119457695836,
                0.20538859305666352,
                1.6855169838929713
            ]
        },
        {
            "positions": [
                -1.557704680119919,
                -1.5509431429415006,
                1.7985554298536055,
                -0.44716353291181954,
                0.23615785461758396,
                1.8487270161580263
            ]
        },
        {
            "positions": [
                -1.499809057898501,
                -1.4972818684021503,
                1.825861694755274,
                -0.4964151200540555,
                0.2669271161785044,
                2.0119370484230816
            ]
        },
        {
            "positions": [
                -1.4419134356770829,
                -1.4436205938628002,
                1.8531679596569421,
                -0.5456667071962915,
                0.29769637773942487,
                2.175147080688137
            ]
        },
        {
            "positions": [
                -1.384017813455665,
                -1.38995931932345,
                1.8804742245586104,
                -0.5949182943385274,
                0.32846563930034534,
                2.338357112953192
            ]
        },
        {
            "positions": [
                -1.326122191234247,
                -1.3362980447841,
                1.9077804894602788,
                -0.6441698814807634,
                0.3592349008612658,
                2.5015671452182473
            ]
        },
        {
            "positions": [
                -1.2682265690128287,
                -1.2826367702447499,
                1.9350867543619472,
                -0.6934214686229995,
                0.39000416242218633,
                2.6647771774833027
            ]
        },
        {
            "positions": [
                -1.210330946791411,
                -1.2289754957053995,
                1.9623930192636154,
                -0.7426730557652353,
                0.42077342398310674,
                2.8279872097483576
            ]
        },
        {
            "positions": [
                -1.1524353245699928,
                -1.1753142211660494,
                1.9896992841652836,
                -0.7919246429074713,
                0.4515426855440272,
                2.9911972420134125
            ]
        },
        {
            "positions": [
                -1.0945397023485748,
                -1.1216529466266993,
                2.017005549066952,
                -0.8411762300497073,
                0.4823119471049477,
                3.154407274278468
            ]
        }
    ]
}