{
    "goal": {
        "global_pose": {
            "orientation": {
                "w": 0.005598929693374612,
                "x": 0.007748599140229565,
                "y": 0.7110244013736278,
                "z": -0.7031023480610252
            },
            "position": {
                "x": 0.1141497679147869,
                "y": -0.7141253447532654,
                "z": 0.3711530566215515
            }
        },
        "name": "move_to_auspresseinheit_B"
    },
    "id": "STRIDE_move_to_auspresseinheit_B_36",
    "joint_names": [
        "shoulder_pan_joint",
        "shoulder_lift_joint",
        "elbow_joint",
        "wrist_1_joint",
        "wrist_2_joint",
        "wrist_3_joint"
    ],
    "metrics": {
        "cart_traj_len": 0.5646543964981254,
        "distance_elbow_joint": 0.06524257641674613,
        "distance_shoulder_lift_joint": 0.2946628913484981,
        "distance_shoulder_pan_joint": 0.5759043318908046,
        "distance_wrist_1_joint": 0.33538470979116186,
        "distance_wrist_2_joint": 0.997525444801256,
        "distance_wrist_3_joint": 0.007701530293065861,
        "smoothness": 2.5376526478085547e-16,
        "time": 0.051979419,
        "traj_len": 1.508781456852361,
        "weighted_distance": 1.9038736039243997
    },
    "planner": "STRIDE",
    "start": {
        "state": {
            "elbow_joint": 2.0193083361928714,
            "shoulder_lift_joint": -1.1220246554650708,
            "shoulder_pan_joint": -1.0952077554168747,
            "wrist_1_joint": -0.8559753972642168,
            "wrist_2_joint": 0.4759566250798843,
            "wrist_3_joint": -3.1240929996934557
        }
    },
    "waypoints": [
        {
            "positions": [
                -1.0952077554168747,
                -1.1220246554650708,
                2.0193083361928714,
                -0.8559753972642168,
                0.4759566250798843,
                -3.1240929996934557
            ]
        },
        {
            "positions": [
                -1.1911918107320087,
                -1.171135137356487,
                2.0084345734567473,
                -0.8000779456323565,
                0.6422108658800936,
                -3.122809411311278
            ]
        },
        {
            "positions": [
                -1.2871758660471428,
                -1.2202456192479034,
                1.9975608107206226,
                -0.7441804940004961,
                0.808465106680303,
                -3.1215258229291005
            ]
        },
        {
            "positions": [
                -1.383159921362277,
                -1.2693561011393197,
                1.9866870479844985,
                -0.6882830423686359,
                0.9747193474805123,
                -3.1202422345469225
            ]
        },
        {
            "positions": [
                -1.479143976677411,
                -1.3184665830307363,
                1.975813285248374,
                -0.6323855907367756,
                1.1409735882807217,
                -3.118958646164745
            ]
        },
        {
            "positions": [
                -1.5751280319925451,
                -1.3675770649221526,
                1.9649395225122497,
                -0.5764881391049153,
                1.307227829080931,
                -3.1176750577825674
            ]
        },
        {
            "positions": [
                -1.6711120873076792,
                -1.416687546813569,
                1.9540657597761253,
                -0.5205906874730549,
                1.4734820698811404,
                -3.11639146940039
            ]
        }
    ]
}