{
    "goal": {
        "global_pose": {
            "orientation": {
                "w": 0.005598929693374612,
                "x": 0.007748599140229565,
                "y": 0.7110244013736278,
                "z": -0.7031023480610252
            },
            "position": {
                "x": 0.1141497679147869,
                "y": -0.7141253447532654,
                "z": 0.3711530566215515
            }
        },
        "name": "move_to_auspresseinheit_B"
    },
    "id": "STRIDE_move_to_auspresseinheit_B_94",
    "joint_names": [
        "shoulder_pan_joint",
        "shoulder_lift_joint",
        "elbow_joint",
        "wrist_1_joint",
        "wrist_2_joint",
        "wrist_3_joint"
    ],
    "metrics": {
        "cart_traj_len": 0.564211354848344,
        "distance_elbow_joint": 0.06387923985832367,
        "distance_shoulder_lift_joint": 0.2955414625539896,
        "distance_shoulder_pan_joint": 0.5782865219046709,
        "distance_wrist_1_joint": 0.3375426160855487,
        "distance_wrist_2_joint": 0.9861037448895138,
        "distance_wrist_3_joint": 0.005826793819714293,
        "smoothness": 5.075305255429287e-16,
        "time": 0.053064590999999994,
        "traj_len": 1.5057159025233682,
        "weighted_distance": 1.898020107302937
    },
    "planner": "STRIDE",
    "start": {
        "state": {
            "elbow_joint": 2.0193083361928714,
            "shoulder_lift_joint": -1.1220246554650708,
            "shoulder_pan_joint": -1.0952077554168747,
            "wrist_1_joint": -0.8559753972642168,
            "wrist_2_joint": 0.4759566250798843,
            "wrist_3_joint": -3.1240929996934557
        }
    },
    "waypoints": [
        {
            "positions": [
                -1.0952077554168747,
                -1.1220246554650708,
                2.0193083361928714,
                -0.8559753972642168,
                0.4759566250798843,
                -3.1240929996934557
            ]
        },
        {
            "positions": [
                -1.1915888424009864,
                -1.1712815658907356,
                2.0086617962164843,
                -0.799718294583292,
                0.6403072492281365,
                -3.1231218673901697
            ]
        },
        {
            "positions": [
                -1.2879699293850984,
                -1.2205384763164007,
                1.9980152562400968,
                -0.7434611919023673,
                0.8046578733763889,
                -3.1221507350868842
            ]
        },
        {
            "positions": [
                -1.38435101636921,
                -1.2697953867420657,
                1.9873687162637097,
                -0.6872040892214424,
                0.9690084975246411,
                -3.1211796027835987
            ]
        },
        {
            "positions": [
                -1.4807321033533218,
                -1.3190522971677305,
                1.9767221762873224,
                -0.6309469865405177,
                1.1333591216728935,
                -3.120208470480313
            ]
        },
        {
            "positions": [
                -1.5771131903374338,
                -1.3683092075933954,
                1.966075636310935,
                -0.5746898838595929,
                1.2977097458211457,
                -3.119237338177027
            ]
        },
        {
            "positions": [
                -1.6734942773215455,
                -1.4175661180190604,
                1.9554290963345478,
                -0.5184327811786681,
                1.4620603699693981,
                -3.1182662058737414
            ]
        }
    ]
}