{
    "goal": {
        "global_pose": {
            "orientation": {
                "w": 0.5084816217422485,
                "x": -0.49083608388900757,
                "y": 0.5182115435600281,
                "z": -0.4816462993621826
            },
            "position": {
                "x": 0.5540239810943604,
                "y": 0.030875300988554955,
                "z": 0.16403168439865112
            }
        },
        "name": "move_to_storage_A"
    },
    "id": "STRIDE_move_to_storage_A_106",
    "joint_names": [
        "shoulder_pan_joint",
        "shoulder_lift_joint",
        "elbow_joint",
        "wrist_1_joint",
        "wrist_2_joint",
        "wrist_3_joint"
    ],
    "metrics": {
        "cart_traj_len": 0.353021967889747,
        "distance_elbow_joint": 0.44933185162208544,
        "distance_shoulder_lift_joint": 0.23558774327188758,
        "distance_shoulder_pan_joint": 0.46297183936902836,
        "distance_wrist_1_joint": 0.2373409169175552,
        "distance_wrist_2_joint": 1.0935178637798402,
        "distance_wrist_3_joint": 0.09923180623521155,
        "smoothness": 0.0,
        "time": 0.045578106,
        "traj_len": 1.6056095481765198,
        "weighted_distance": 2.0266485670592784
    },
    "planner": "STRIDE",
    "start": {
        "state": {
            "elbow_joint": 1.971548259319323,
            "shoulder_lift_joint": -1.1394851275133948,
            "shoulder_pan_joint": 0.1228115487234821,
            "wrist_1_joint": -0.7804723859257726,
            "wrist_2_joint": 0.12958671773740124,
            "wrist_3_joint": -3.192489227718131
        }
    },
    "waypoints": [
        {
            "positions": [
                0.1228115487234821,
                -1.1394851275133948,
                1.971548259319323,
                -0.7804723859257726,
                0.12958671773740124,
                -3.192489227718131
            ]
        },
        {
            "positions": [
                0.05667271452790662,
                -1.1731405194093787,
                2.0357385238367636,
                -0.8143782311997091,
                0.28580355542023556,
                -3.178313255398815
            ]
        },
        {
            "positions": [
                -0.00946611966766886,
                -1.2067959113053628,
                2.0999287883542044,
                -0.8482840764736456,
                0.44202039310306984,
                -3.164137283079499
            ]
        },
        {
            "positions": [
                -0.07560495386324434,
                -1.2404513032013467,
                2.164119052871645,
                -0.8821899217475819,
                0.5982372307859042,
                -3.149961310760183
            ]
        },
        {
            "positions": [
                -0.14174378805881982,
                -1.2741066950973305,
                2.228309317389086,
                -0.9160957670215184,
                0.7544540684687385,
                -3.1357853384408676
            ]
        },
        {
            "positions": [
                -0.2078826222543953,
                -1.3077620869933146,
                2.292499581906527,
                -0.9500016122954549,
                0.9106709061515729,
                -3.1216093661215516
            ]
        },
        {
            "positions": [
                -0.2740214564499708,
                -1.3414174788892985,
                2.3566898464239676,
                -0.9839074575693914,
                1.066887743834407,
                -3.1074333938022356
            ]
        },
        {
            "positions": [
                -0.34016029064554626,
                -1.3750728707852824,
                2.4208801109414084,
                -1.0178133028433278,
                1.2231045815172414,
                -3.0932574214829196
            ]
        }
    ]
}{
    "goal": {
        "global_pose": {
            "orientation": {
                "w": 0.5084816217422485,
                "x": -0.49083608388900757,
                "y": 0.5182115435600281,
                "z": -0.4816462993621826
            },
            "position": {
                "x": 0.5540239810943604,
                "y": 0.030875300988554955,
                "z": 0.16403168439865112
            }
        },
        "name": "move_to_storage_A"
    },
    "id": "STRIDE_move_to_storage_A_106",
    "joint_names": [
        "shoulder_pan_joint",
        "shoulder_lift_joint",
        "elbow_joint",
        "wrist_1_joint",
        "wrist_2_joint",
        "wrist_3_joint"
    ],
    "metrics": {
        "cart_traj_len": 0.35230118044546255,
        "distance_elbow_joint": 0.4497139066031095,
        "distance_shoulder_lift_joint": 0.23543100516203186,
        "distance_shoulder_pan_joint": 0.4613846260346551,
        "distance_wrist_1_joint": 0.23813006197078557,
        "distance_wrist_2_joint": 1.0950147827381054,
        "distance_wrist_3_joint": 0.08907255137651271,
        "smoothness": 2.2204460668324854e-16,
        "time": 0.053117692999999994,
        "traj_len": 1.6027310859545965,
        "weighted_distance": 2.0199101171455913
    },
    "planner": "STRIDE",
    "start": {
        "state": {
            "elbow_joint": 1.97154746011099,
            "shoulder_lift_joint": -1.13948474672311,
            "shoulder_pan_joint": 0.12281154466712228,
            "wrist_1_joint": -0.7804688027058302,
            "wrist_2_joint": 0.12958655903071145,
            "wrist_3_joint": 3.0906928834467795
        }
    },
    "waypoints": [
        {
            "positions": [
                0.12281154466712228,
                -1.13948474672311,
                1.97154746011099,
                -0.7804688027058302,
                0.12958655903071145,
                3.0906928834467795
            ]
        },
        {
            "positions": [
                0.05689945523360013,
                -1.173117747460543,
                2.035792303911434,
                -0.814487382987371,
                0.2860172422790122,
                3.103417533643424
            ]
        },
        {
            "positions": [
                -0.009012634199922029,
                -1.2067507481979762,
                2.100037147711878,
                -0.8485059632689118,
                0.44244792552731294,
                3.116142183840069
            ]
        },
        {
            "positions": [
                -0.07492472363344417,
                -1.2403837489354093,
                2.1642819915123224,
                -0.8825245435504525,
                0.5988786087756137,
                3.1288668340367134
            ]
        },
        {
            "positions": [
                -0.14083681306696633,
                -1.2740167496728425,
                2.228526835312767,
                -0.9165431238319933,
                0.7553092920239145,
                3.1415914842333583
            ]
        },
        {
            "positions": [
                -0.2067489025004885,
                -1.3076497504102755,
                2.292771679113211,
                -0.9505617041135341,
                0.9117399752722153,
                3.154316134430003
            ]
        },
        {
            "positions": [
                -0.2726609919340106,
                -1.3412827511477086,
                2.3570165229136553,
                -0.984580284395075,
                1.068170658520516,
                3.1670407846266477
            ]
        },
        {
            "positions": [
                -0.3385730813675328,
                -1.3749157518851418,
                2.4212613667140994,
                -1.0185988646766158,
                1.2246013417688169,
                3.179765434823292
            ]
        }
    ]
}{
    "goal": {
        "global_pose": {
            "orientation": {
                "w": 0.5084816217422485,
                "x": -0.49083608388900757,
                "y": 0.5182115435600281,
                "z": -0.4816462993621826
            },
            "position": {
                "x": 0.5540239810943604,
                "y": 0.030875300988554955,
                "z": 0.16403168439865112
            }
        },
        "name": "move_to_storage_A"
    },
    "id": "STRIDE_move_to_storage_A_106",
    "joint_names": [
        "shoulder_pan_joint",
        "shoulder_lift_joint",
        "elbow_joint",
        "wrist_1_joint",
        "wrist_2_joint",
        "wrist_3_joint"
    ],
    "metrics": {
        "cart_traj_len": 0.35306989077111683,
        "distance_elbow_joint": 0.4512627990864413,
        "distance_shoulder_lift_joint": 0.23641168281267966,
        "distance_shoulder_pan_joint": 0.46306881268058264,
        "distance_wrist_1_joint": 0.2462482575326832,
        "distance_wrist_2_joint": 1.0938556559203816,
        "distance_wrist_3_joint": 0.10358245159162749,
        "smoothness": 4.440892098500626e-16,
        "time": 0.035374482,
        "traj_len": 1.6107233342894105,
        "weighted_distance": 2.0351163299086164
    },
    "planner": "STRIDE",
    "start": {
        "state": {
            "elbow_joint": 1.9715472970024885,
            "shoulder_lift_joint": -1.1394870060712896,
            "shoulder_pan_joint": 0.12281152778156021,
            "wrist_1_joint": -0.780463741449964,
            "wrist_2_joint": 0.12958659822042276,
            "wrist_3_joint": 3.090690232415272
        }
    },
    "waypoints": [
        {
            "positions": [
                0.12281152778156021,
                -1.1394870060712896,
                1.9715472970024885,
                -0.780463741449964,
                0.12958659822042276,
                3.090690232415272
            ]
        },
        {
            "positions": [
                0.05665884025576269,
                -1.1732601036159582,
                2.0360134111576946,
                -0.815642063954633,
                0.28585169192333437,
                3.10548772549979
            ]
        },
        {
            "positions": [
                -0.009493847270034828,
                -1.2070332011606266,
                2.1004795253129003,
                -0.850820386459302,
                0.442116785626246,
                3.1202852185843084
            ]
        },
        {
            "positions": [
                -0.07564653479583233,
                -1.2408062987052952,
                2.1649456394681064,
                -0.885998708963971,
                0.5983818793291577,
                3.1350827116688267
            ]
        },
        {
            "positions": [
                -0.14179922232162986,
                -1.2745793962499636,
                2.229411753623312,
                -0.92117703146864,
                0.7546469730320693,
                3.1498802047533445
            ]
        },
        {
            "positions": [
                -0.20795190984742742,
                -1.3083524937946323,
                2.293877867778518,
                -0.9563553539733092,
                0.910912066734981,
                3.164677697837863
            ]
        },
        {
            "positions": [
                -0.2741045973732249,
                -1.3421255913393006,
                2.3583439819337237,
                -0.9915336764779782,
                1.0671771604378926,
                3.179475190922381
            ]
        },
        {
            "positions": [
                -0.3402572848990224,
                -1.3758986888839693,
                2.42281009608893,
                -1.0267119989826472,
                1.2234422541408043,
                3.1942726840068993
            ]
        }
    ]
}