{
    "goal": {
        "global_pose": {
            "orientation": {
                "w": 0.005598929693374612,
                "x": 0.007748599140229565,
                "y": 0.7110244013736278,
                "z": -0.7031023480610252
            },
            "position": {
                "x": -0.8858502320852131,
                "y": -0.7141253447532654,
                "z": 0.3711530566215515
            }
        },
        "name": "move_to_auspresseinheit_C"
    },
    "id": "STRIDE_move_to_auspresseinheit_C_121",
    "joint_names": [
        "shoulder_pan_joint",
        "shoulder_lift_joint",
        "elbow_joint",
        "wrist_1_joint",
        "wrist_2_joint",
        "wrist_3_joint"
    ],
    "metrics": {
        "cart_traj_len": 0.4941311196256803,
        "distance_elbow_joint": 1.015366174823109,
        "distance_shoulder_lift_joint": 0.331799416553745,
        "distance_shoulder_pan_joint": 0.25623780212809466,
        "distance_wrist_1_joint": 0.7105258683932654,
        "distance_wrist_2_joint": 1.315423688889609,
        "distance_wrist_3_joint": 0.07325302582080084,
        "smoothness": 4.844609600361787e-16,
        "time": 0.062002867999999996,
        "traj_len": 1.9242156782982056,
        "weighted_distance": 2.423852632800332
    },
    "planner": "STRIDE",
    "start": {
        "state": {
            "elbow_joint": 1.7527959577737207,
            "shoulder_lift_joint": -0.9740617694225068,
            "shoulder_pan_joint": -2.967991417825858,
            "wrist_1_joint": -0.759517768980727,
            "wrist_2_joint": 1.7443932448377408,
            "wrist_3_joint": -3.0840537646736568
        }
    },
    "waypoints": [
        {
            "positions": [
                -2.967991417825858,
                -0.9740617694225068,
                1.7527959577737207,
                -0.759517768980727,
                1.7443932448377408,
                -3.0840537646736568
            ]
        },
        {
            "positions": [
                -2.9423676376130485,
                -0.9408818277671323,
                1.6512593402914097,
                -0.6884651821414004,
                1.6128508759487798,
                -3.091379067255737
            ]
        },
        {
            "positions": [
                -2.916743857400239,
                -0.9077018861117577,
                1.5497227228090988,
                -0.6174125953020739,
                1.481308507059819,
                -3.098704369837817
            ]
        },
        {
            "positions": [
                -2.8911200771874297,
                -0.8745219444563833,
                1.448186105326788,
                -0.5463600084627473,
                1.349766138170858,
                -3.106029672419897
            ]
        },
        {
            "positions": [
                -2.8654962969746203,
                -0.8413420028010088,
                1.346649487844477,
                -0.4753074216234208,
                1.2182237692818974,
                -3.113354975001977
            ]
        },
        {
            "positions": [
                -2.839872516761811,
                -0.8081620611456343,
                1.2451128703621661,
                -0.4042548347840943,
                1.0866814003929364,
                -3.120680277584057
            ]
        },
        {
            "positions": [
                -2.814248736549001,
                -0.7749821194902597,
                1.1435762528798552,
                -0.33320224794476777,
                0.9551390315039755,
                -3.1280055801661373
            ]
        },
        {
            "positions": [
                -2.7886249563361916,
                -0.7418021778348853,
                1.0420396353975443,
                -0.26214966110544125,
                0.8235966626150146,
                -3.1353308827482174
            ]
        },
        {
            "positions": [
                -2.763001176123382,
                -0.7086222361795107,
                0.9405030179152334,
                -0.19109707426611466,
                0.6920542937260536,
                -3.1426561853302974
            ]
        },
        {
            "positions": [
                -2.7373773959105727,
                -0.6754422945241363,
                0.8389664004329225,
                -0.12004448742678808,
                0.5605119248370927,
                -3.1499814879123775
            ]
        },
        {
            "positions": [
                -2.7117536156977633,
                -0.6422623528687618,
                0.7374297829506115,
                -0.048991900587461626,
                0.428969555948132,
                -3.1573067904944576
            ]
        }
    ]
}