{
    "goal": {
        "global_pose": {
            "orientation": {
                "w": -0.00223480608172531,
                "x": 0.0024358444001904467,
                "y": 0.7094548369677653,
                "z": -0.704743149386269
            },
            "position": {
                "x": -0.37947507619857795,
                "y": -0.6371506643295288,
                "z": 0.19426114857196808
            }
        },
        "name": "move_to_magneteinheit_C"
    },
    "id": "STRIDE_move_to_magneteinheit_C_146",
    "joint_names": [
        "shoulder_pan_joint",
        "shoulder_lift_joint",
        "elbow_joint",
        "wrist_1_joint",
        "wrist_2_joint",
        "wrist_3_joint"
    ],
    "metrics": {
        "cart_traj_len": 2.597686464658284,
        "distance_elbow_joint": 2.692296716002812,
        "distance_shoulder_lift_joint": 0.2752400243441495,
        "distance_shoulder_pan_joint": 2.257398257353765,
        "distance_wrist_1_joint": 2.691827253158346,
        "distance_wrist_2_joint": 2.5468204539124533,
        "distance_wrist_3_joint": 1.6980238713481506,
        "smoothness": 0.4180941103385227,
        "time": 3.6564681,
        "traj_len": 3.487349505874006,
        "weighted_distance": 4.56029626514405
    },
    "planner": "STRIDE",
    "start": {
        "state": {
            "elbow_joint": 1.9565354010623817,
            "shoulder_lift_joint": -1.4165861575791021,
            "shoulder_pan_joint": -1.6717766225146293,
            "wrist_1_joint": -0.5286633292919765,
            "wrist_2_joint": 1.472756589071564,
            "wrist_3_joint": -3.1238370188695823
        }
    },
    "waypoints": [
        {
            "positions": [
                -1.6717766225146293,
                -1.4165861575791021,
                1.9565354010623817,
                -0.5286633292919765,
                1.472756589071564,
                -3.1238370188695823
            ]
        },
        {
            "positions": [
                -1.5542095585168423,
                -1.4153512884877286,
                1.8921996266591843,
                -0.45468810295971795,
                1.4231966949877934,
                -3.0441809470907555
            ]
        },
        {
            "positions": [
                -1.436642494519055,
                -1.4141164193963554,
                1.8278638522559871,
                -0.38071287662745945,
                1.3736368009040232,
                -2.9645248753119287
            ]
        },
        {
            "positions": [
                -1.319075430521268,
                -1.4128815503049819,
                1.7635280778527898,
                -0.30673765029520106,
                1.3240769068202527,
                -2.8848688035331023
            ]
        },
        {
            "positions": [
                -1.2015083665234807,
                -1.4116466812136086,
                1.6991923034495926,
                -0.2327624239629425,
                1.2745170127364824,
                -2.8052127317542754
            ]
        },
        {
            "positions": [
                -1.0839413025256937,
                -1.410411812122235,
                1.6348565290463952,
                -0.15878719763068402,
                1.224957118652712,
                -2.7255566599754486
            ]
        },
        {
            "positions": [
                -1.0922684763218484,
                -1.3955814016304058,
                1.4921840910187072,
                -0.11975038339924379,
                1.0578818588920031,
                -2.7099189351670576
            ]
        },
        {
            "positions": [
                -1.1005956501180034,
                -1.3807509911385765,
                1.3495116529910194,
                -0.08071356916780358,
                0.8908065991312946,
                -2.6942812103586666
            ]
        },
        {
            "positions": [
                -1.1089228239141582,
                -1.3659205806467472,
                1.2068392149633316,
                -0.04167675493636336,
                0.7237313393705858,
                -2.6786434855502756
            ]
        },
        {
            "positions": [
                -1.117249997710313,
                -1.3510901701549178,
                1.0641667769356435,
                -0.002639940704923127,
                0.5566560796098771,
                -2.663005760741884
            ]
        },
        {
            "positions": [
                -1.1255771715064677,
                -1.3362597596630885,
                0.9214943389079556,
                0.036396873526517104,
                0.38958081984916826,
                -2.6473680359334932
            ]
        },
        {
            "positions": [
                -1.1339043453026227,
                -1.3214293491712592,
                0.7788219008802677,
                0.07543368775795731,
                0.22250556008845956,
                -2.6317303111251023
            ]
        },
        {
            "positions": [
                -1.1422315190987775,
                -1.3065989386794299,
                0.6361494628525798,
                0.11447050198939754,
                0.05543030032775084,
                -2.6160925863167113
            ]
        },
        {
            "positions": [
                -1.2722611164855941,
                -1.289211593740724,
                0.7030894021860928,
                0.2000385660217967,
                0.05395372078031199,
                -2.564925218343111
            ]
        },
        {
            "positions": [
                -1.4022907138724108,
                -1.271824248802018,
                0.7700293415196059,
                0.28560663005419584,
                0.05247714123287315,
                -2.5137578503695104
            ]
        },
        {
            "positions": [
                -1.5323203112592276,
                -1.2544369038633119,
                0.8369692808531191,
                0.371174694086595,
                0.0510005616854343,
                -2.4625904823959095
            ]
        },
        {
            "positions": [
                -1.662349908646044,
                -1.237049558924606,
                0.9039092201866321,
                0.4567427581189941,
                0.04952398213799545,
                -2.411423114422309
            ]
        },
        {
            "positions": [
                -1.792379506032861,
                -1.2196622139859001,
                0.9708491595201452,
                0.5423108221513934,
                0.04804740259055661,
                -2.3602557464487086
            ]
        },
        {
            "positions": [
                -1.9224091034196775,
                -1.202274869047194,
                1.0377890988536582,
                0.6278788861837925,
                0.04657082304311776,
                -2.309088378475108
            ]
        },
        {
            "positions": [
                -2.0919224661805518,
                -1.1883377974424667,
                1.0761157659914335,
                0.6683461957468089,
                -0.0646122292708236,
                -2.2872527483997365
            ]
        },
        {
            "positions": [
                -2.24218850297079,
                -1.1867382957599162,
                1.1884723549364338,
                0.6400654993369249,
                -0.10937510881146663,
                -2.29687203023778
            ]
        },
        {
            "positions": [
                -2.392454539761028,
                -1.1851387940773654,
                1.3008289438814338,
                0.6117848029270408,
                -0.15413798835210965,
                -2.306491312075823
            ]
        },
        {
            "positions": [
                -2.5427205765512664,
                -1.183539292394815,
                1.413185532826434,
                0.5835041065171569,
                -0.1989008678927527,
                -2.316110593913866
            ]
        },
        {
            "positions": [
                -2.5781515036226246,
                -1.189200376283905,
                1.490554514512461,
                0.5331739062204509,
                -0.17690391446268644,
                -2.336932684945385
            ]
        },
        {
            "positions": [
                -2.613582430693983,
                -1.1948614601729952,
                1.5679234961984878,
                0.4828437059237449,
                -0.15490696103262022,
                -2.3577547759769035
            ]
        },
        {
            "positions": [
                -2.6020175445001703,
                -1.1922374494740289,
                1.6206469114848203,
                0.3425416298467452,
                -0.06611314332578283,
                -2.4414907556685126
            ]
        },
        {
            "positions": [
                -2.590452658306358,
                -1.1896134387750625,
                1.673370326771153,
                0.2022395537697455,
                0.02268067438105456,
                -2.5252267353601217
            ]
        },
        {
            "positions": [
                -2.578887772112545,
                -1.186989428076096,
                1.7260937420574856,
                0.06193747769274588,
                0.11147449208789192,
                -2.6089627150517307
            ]
        },
        {
            "positions": [
                -2.5673228859187325,
                -1.1843654173771296,
                1.7788171573438183,
                -0.07836459838425391,
                0.20026830979472934,
                -2.69269869474334
            ]
        },
        {
            "positions": [
                -2.5557579997249196,
                -1.1817414066781633,
                1.8315405726301508,
                -0.21866667446125354,
                0.2890621275015667,
                -2.776434674434949
            ]
        },
        {
            "positions": [
                -2.539338524079424,
                -1.1781912191007933,
                1.8668445062332384,
                -0.34022764604355304,
                0.3665021278123303,
                -2.8508862094035674
            ]
        },
        {
            "positions": [
                -2.5229190484339292,
                -1.1746410315234233,
                1.9021484398363262,
                -0.46178861762585255,
                0.44394212812309397,
                -2.925337744372186
            ]
        },
        {
            "positions": [
                -2.506499572788434,
                -1.1710908439460532,
                1.9374523734394138,
                -0.5833495892081519,
                0.5213821284338576,
                -2.999789279340804
            ]
        },
        {
            "positions": [
                -2.490080097142939,
                -1.1675406563686832,
                1.9727563070425016,
                -0.7049105607904516,
                0.5988221287446213,
                -3.0742408143094226
            ]
        },
        {
            "positions": [
                -2.4736606214974435,
                -1.1639904687913132,
                2.008060240645589,
                -0.826471532372751,
                0.6762621290553849,
                -3.148692349278041
            ]
        }
    ]
}