{
    "goal": {
        "global_pose": {
            "orientation": {
                "w": 0.7047431468963623,
                "x": -0.7094548344612122,
                "y": 0.0024358443915843964,
                "z": -0.0022348060738295317
            },
            "position": {
                "x": 0.6094750761985779,
                "y": 0.3671506643295288,
                "z": 0.19426114857196808
            }
        },
        "name": "move_to_magneteinheit_A"
    },
    "id": "STRIDE_move_to_magneteinheit_A_149",
    "joint_names": [
        "shoulder_pan_joint",
        "shoulder_lift_joint",
        "elbow_joint",
        "wrist_1_joint",
        "wrist_2_joint",
        "wrist_3_joint"
    ],
    "metrics": {
        "cart_traj_len": 3.5122036203126727,
        "distance_elbow_joint": 3.8781562624360872,
        "distance_shoulder_lift_joint": 0.2036604799441024,
        "distance_shoulder_pan_joint": 3.1340798384318735,
        "distance_wrist_1_joint": 1.344044921310563,
        "distance_wrist_2_joint": 1.725113477230272,
        "distance_wrist_3_joint": 3.6985635806316117,
        "smoothness": 0.23073921625638755,
        "time": 0.29428813600000003,
        "traj_len": 3.7394676840406715,
        "weighted_distance": 4.9446844307588105
    },
    "planner": "STRIDE",
    "start": {
        "state": {
            "elbow_joint": -1.9196185241190666,
            "shoulder_lift_joint": -1.2443396400964142,
            "shoulder_pan_joint": 2.6996025414629847,
            "wrist_1_joint": -1.5485510000780065,
            "wrist_2_joint": -1.5709468930060704,
            "wrist_3_joint": 0.4420197071253992
        }
    },
    "waypoints": [
        {
            "positions": [
                2.6996025414629847,
                -1.2443396400964142,
                -1.9196185241190666,
                -1.5485510000780065,
                -1.5709468930060704,
                0.4420197071253992
            ]
        },
        {
            "positions": [
                2.607495289286801,
                -1.245808319201409,
                -1.8064057602681847,
                -1.5134978715842846,
                -1.5156375213588804,
                0.34426823940901896
            ]
        },
        {
            "positions": [
                2.515388037110617,
                -1.2472769983064043,
                -1.6931929964173025,
                -1.478444743090563,
                -1.4603281497116907,
                0.2465167716926387
            ]
        },
        {
            "positions": [
                2.423280784934433,
                -1.2487456774113992,
                -1.5799802325664205,
                -1.443391614596841,
                -1.4050187780645007,
                0.14876530397625842
            ]
        },
        {
            "positions": [
                2.331173532758249,
                -1.2502143565163941,
                -1.4667674687155383,
                -1.4083384861031194,
                -1.349709406417311,
                0.05101383625987821
            ]
        },
        {
            "positions": [
                2.239066280582065,
                -1.251683035621389,
                -1.3535547048646563,
                -1.3732853576093975,
                -1.294400034770121,
                -0.04673763145650206
            ]
        },
        {
            "positions": [
                2.146959028405881,
                -1.2531517147263842,
                -1.2403419410137744,
                -1.3382322291156756,
                -1.239090663122931,
                -0.14448909917288233
            ]
        },
        {
            "positions": [
                2.054851776229697,
                -1.2546203938313791,
                -1.1271291771628924,
                -1.303179100621954,
                -1.1837812914757413,
                -0.24224056688926254
            ]
        },
        {
            "positions": [
                1.9627445240535133,
                -1.256089072936374,
                -1.0139164133120102,
                -1.268125972128232,
                -1.1284719198285513,
                -0.33999203460564276
            ]
        },
        {
            "positions": [
                1.8706372718773294,
                -1.257557752041369,
                -0.900703649461128,
                -1.2330728436345102,
                -1.0731625481813614,
                -0.4377435023220231
            ]
        },
        {
            "positions": [
                1.7785300197011455,
                -1.2590264311463641,
                -0.787490885610246,
                -1.1980197151407885,
                -1.0178531765341716,
                -0.5354949700384033
            ]
        },
        {
            "positions": [
                1.6864227675249615,
                -1.260495110251359,
                -0.6742781217593639,
                -1.1629665866470666,
                -0.9625438048869817,
                -0.6332464377547836
            ]
        },
        {
            "positions": [
                1.5943155153487776,
                -1.261963789356354,
                -0.5610653579084821,
                -1.127913458153345,
                -0.9072344332397918,
                -0.7309979054711638
            ]
        },
        {
            "positions": [
                1.5022082631725935,
                -1.263432468461349,
                -0.4478525940575999,
                -1.092860329659623,
                -0.851925061592602,
                -0.828749373187544
            ]
        },
        {
            "positions": [
                1.4101010109964098,
                -1.264901147566344,
                -0.33463983020671795,
                -1.0578072011659012,
                -0.7966156899454121,
                -0.9265008409039243
            ]
        },
        {
            "positions": [
                1.3179937588202257,
                -1.266369826671339,
                -0.22142706635583576,
                -1.0227540726721793,
                -0.7413063182982221,
                -1.0242523086203046
            ]
        },
        {
            "positions": [
                1.2258865066440419,
                -1.267838505776334,
                -0.10821430250495379,
                -0.9877009441784578,
                -0.6859969466510324,
                -1.1220037763366846
            ]
        },
        {
            "positions": [
                1.133779254467858,
                -1.2693071848813289,
                0.004998461345928185,
                -0.952647815684736,
                -0.6306875750038425,
                -1.219755244053065
            ]
        },
        {
            "positions": [
                1.041672002291674,
                -1.270775863986324,
                0.1182112251968106,
                -0.9175946871910141,
                -0.5753782033566525,
                -1.3175067117694454
            ]
        },
        {
            "positions": [
                0.94956475011549,
                -1.272244543091319,
                0.23142398904769257,
                -0.8825415586972923,
                -0.5200688317094626,
                -1.4152581794858254
            ]
        },
        {
            "positions": [
                0.8574574979393061,
                -1.2737132221963139,
                0.34463675289857454,
                -0.8474884302035706,
                -0.46475946006227287,
                -1.5130096472022059
            ]
        },
        {
            "positions": [
                0.7653502457631223,
                -1.2751819013013088,
                0.4578495167494565,
                -0.8124353017098488,
                -0.4094500884150829,
                -1.6107611149185859
            ]
        },
        {
            "positions": [
                0.6732429935869382,
                -1.276650580406304,
                0.5710622806003389,
                -0.7773821732161269,
                -0.35414071676789294,
                -1.7085125826349663
            ]
        },
        {
            "positions": [
                0.5811357414107543,
                -1.278119259511299,
                0.6842750444512209,
                -0.7423290447224051,
                -0.2988313451207032,
                -1.8062640503513463
            ]
        },
        {
            "positions": [
                0.48902848923457043,
                -1.2795879386162938,
                0.7974878083021024,
                -0.7072759162286834,
                -0.24352197347351323,
                -1.9040155180677267
            ]
        },
        {
            "positions": [
                0.39692123705838656,
                -1.2810566177212888,
                0.9107005721529844,
                -0.6722227877349616,
                -0.1882126018263235,
                -2.0017669857841067
            ]
        },
        {
            "positions": [
                0.30481398488220224,
                -1.282525296826284,
                1.0239133360038668,
                -0.6371696592412397,
                -0.13290323017913352,
                -2.099518453500487
            ]
        },
        {
            "positions": [
                0.21270673270601836,
                -1.2839939759312788,
                1.1371260998547488,
                -0.6021165307475179,
                -0.07759385853194356,
                -2.1972699212168676
            ]
        },
        {
            "positions": [
                0.12059948052983493,
                -1.2854626550362738,
                1.2503388637056307,
                -0.5670634022537961,
                -0.022284486884753818,
                -2.2950213889332476
            ]
        },
        {
            "positions": [
                0.02849222835365106,
                -1.2869313341412687,
                1.3635516275565127,
                -0.5320102737600743,
                0.033024884762435924,
                -2.3927728566496276
            ]
        },
        {
            "positions": [
                -0.06361502382253326,
                -1.2884000132462639,
                1.4767643914073951,
                -0.4969571452663524,
                0.08833425640962611,
                -2.4905243243660085
            ]
        },
        {
            "positions": [
                -0.15572227599871724,
                -1.2898686923512588,
                1.589977155258277,
                -0.46190401677263077,
                0.14364362805681588,
                -2.5882757920823884
            ]
        },
        {
            "positions": [
                -0.099971271804683,
                -1.2582424068134073,
                1.6636892718700258,
                -0.5133836043736683,
                0.14153903682333874,
                -2.7219294083671532
            ]
        },
        {
            "positions": [
                -0.04422026761064876,
                -1.2266161212755557,
                1.7374013884817745,
                -0.5648631919747057,
                0.1394344455898616,
                -2.855583024651918
            ]
        },
        {
            "positions": [
                0.011530736583385465,
                -1.194989835737704,
                1.8111135050935232,
                -0.6163427795757431,
                0.13732985435638445,
                -2.989236640936683
            ]
        },
        {
            "positions": [
                0.06728174077741972,
                -1.1633635501998525,
                1.884825621705272,
                -0.6678223671767807,
                0.1352252631229073,
                -3.1228902572214476
            ]
        },
        {
            "positions": [
                0.12303274497145394,
                -1.131737264662001,
                1.9585377383170206,
                -0.7193019547778181,
                0.13312067188943016,
                -3.2565438735062124
            ]
        }
    ]
}