{
    "goal": {
        "global_pose": {
            "orientation": {
                "w": 0.005598929693374612,
                "x": 0.007748599140229565,
                "y": 0.7110244013736278,
                "z": -0.7031023480610252
            },
            "position": {
                "x": -0.8858502320852131,
                "y": -0.7141253447532654,
                "z": 0.3711530566215515
            }
        },
        "name": "move_to_auspresseinheit_C"
    },
    "id": "STRIDE_move_to_auspresseinheit_C_47",
    "joint_names": [
        "shoulder_pan_joint",
        "shoulder_lift_joint",
        "elbow_joint",
        "wrist_1_joint",
        "wrist_2_joint",
        "wrist_3_joint"
    ],
    "metrics": {
        "cart_traj_len": 0.49396655170178844,
        "distance_elbow_joint": 1.0098070783076087,
        "distance_shoulder_lift_joint": 0.3295165890208017,
        "distance_shoulder_pan_joint": 0.2561455964685879,
        "distance_wrist_1_joint": 0.6934215480607173,
        "distance_wrist_2_joint": 1.3185678817371835,
        "distance_wrist_3_joint": 0.07226809719578897,
        "smoothness": 0.0,
        "time": 0.8335609359999999,
        "traj_len": 1.9182613979306076,
        "weighted_distance": 2.415833689429007
    },
    "planner": "STRIDE",
    "start": {
        "state": {
            "elbow_joint": 1.7527959577737207,
            "shoulder_lift_joint": -0.9740617694225068,
            "shoulder_pan_joint": -2.967991417825858,
            "wrist_1_joint": -0.759517768980727,
            "wrist_2_joint": 1.7443932448377408,
            "wrist_3_joint": -3.0840537646736568
        }
    },
    "waypoints": [
        {
            "positions": [
                -2.967991417825858,
                -0.9740617694225068,
                1.7527959577737207,
                -0.759517768980727,
                1.7443932448377408,
                -3.0840537646736568
            ]
        },
        {
            "positions": [
                -2.9423768581789993,
                -0.9411101105204266,
                1.6518152499429597,
                -0.6901756141746552,
                1.6125364566640226,
                -3.0912805743932354
            ]
        },
        {
            "positions": [
                -2.91676229853214,
                -0.9081584516183464,
                1.550834542112199,
                -0.6208334593685835,
                1.480679668490304,
                -3.0985073841128146
            ]
        },
        {
            "positions": [
                -2.8911477388852815,
                -0.8752067927162662,
                1.449853834281438,
                -0.5514913045625118,
                1.3488228803165858,
                -3.1057341938323937
            ]
        },
        {
            "positions": [
                -2.865533179238423,
                -0.842255133814186,
                1.3488731264506773,
                -0.48214914975644,
                1.2169660921428673,
                -3.1129610035519724
            ]
        },
        {
            "positions": [
                -2.8399186195915638,
                -0.809303474912106,
                1.2478924186199163,
                -0.4128069949503683,
                1.085109303969149,
                -3.120187813271551
            ]
        },
        {
            "positions": [
                -2.814304059944705,
                -0.7763518160100258,
                1.1469117107891553,
                -0.3434648401442966,
                0.9532525157954307,
                -3.12741462299113
            ]
        },
        {
            "positions": [
                -2.7886895002978465,
                -0.7434001571079456,
                1.0459310029583946,
                -0.27412268533822487,
                0.8213957276217124,
                -3.1346414327107093
            ]
        },
        {
            "positions": [
                -2.763074940650988,
                -0.7104484982058654,
                0.9449502951276336,
                -0.20478053053215306,
                0.689538939447994,
                -3.141868242430288
            ]
        },
        {
            "positions": [
                -2.7374603810041287,
                -0.6774968393037852,
                0.8439695872968728,
                -0.13543837572608142,
                0.5576821512742756,
                -3.1490950521498666
            ]
        },
        {
            "positions": [
                -2.71184582135727,
                -0.644545180401705,
                0.7429888794661118,
                -0.06609622092000961,
                0.42582536310055735,
                -3.1563218618694457
            ]
        }
    ]
}