{
    "goal": {
        "global_pose": {
            "orientation": {
                "w": -0.00223480608172531,
                "x": 0.0024358444001904467,
                "y": 0.7094548369677653,
                "z": -0.704743149386269
            },
            "position": {
                "x": -0.37947507619857795,
                "y": -0.6371506643295288,
                "z": 0.19426114857196808
            }
        },
        "name": "move_to_magneteinheit_C"
    },
    "id": "STRIDE_move_to_magneteinheit_C_77",
    "joint_names": [
        "shoulder_pan_joint",
        "shoulder_lift_joint",
        "elbow_joint",
        "wrist_1_joint",
        "wrist_2_joint",
        "wrist_3_joint"
    ],
    "metrics": {
        "cart_traj_len": 0.7691284006739783,
        "distance_elbow_joint": 0.6538016574510026,
        "distance_shoulder_lift_joint": 0.27792905366717147,
        "distance_shoulder_pan_joint": 1.2969131695737819,
        "distance_wrist_1_joint": 0.7906056386009348,
        "distance_wrist_2_joint": 1.2579225553108655,
        "distance_wrist_3_joint": 2.6375168493598578,
        "smoothness": 1.1580016175296952,
        "time": 1.176795667,
        "traj_len": 2.6295796097406168,
        "weighted_distance": 3.773360679367284
    },
    "planner": "STRIDE",
    "start": {
        "state": {
            "elbow_joint": 1.9565354010623817,
            "shoulder_lift_joint": -1.4165861575791021,
            "shoulder_pan_joint": -1.6717766225146293,
            "wrist_1_joint": -0.5286633292919765,
            "wrist_2_joint": 1.472756589071564,
            "wrist_3_joint": -3.1238370188695823
        }
    },
    "waypoints": [
        {
            "positions": [
                -1.6717766225146293,
                -1.4165861575791021,
                1.9565354010623817,
                -0.5286633292919765,
                1.472756589071564,
                -3.1238370188695823
            ]
        },
        {
            "positions": [
                -1.7672041174467275,
                -1.4176453066770944,
                1.9885558019466756,
                -0.505909889780774,
                1.3790016168446817,
                -3.0056915546435645
            ]
        },
        {
            "positions": [
                -1.8626316123788256,
                -1.4187044557750865,
                2.0205762028309695,
                -0.48315645026957166,
                1.2852466446177995,
                -2.8875460904175467
            ]
        },
        {
            "positions": [
                -1.9580591073109235,
                -1.4197636048730788,
                2.0525966037152634,
                -0.46040301075836926,
                1.1914916723909172,
                -2.769400626191529
            ]
        },
        {
            "positions": [
                -2.0534866022430216,
                -1.4208227539710712,
                2.0846170045995573,
                -0.43764957124716686,
                1.097736700164035,
                -2.651255161965511
            ]
        },
        {
            "positions": [
                -2.14891409717512,
                -1.4218819030690633,
                2.1166374054838513,
                -0.4148961317359644,
                1.0039817279371528,
                -2.533109697739494
            ]
        },
        {
            "positions": [
                -2.244341592107218,
                -1.4229410521670556,
                2.1486578063681456,
                -0.39214269222476206,
                0.9102267557102705,
                -2.414964233513476
            ]
        },
        {
            "positions": [
                -2.3397690870393157,
                -1.4240002012650477,
                2.1806782072524395,
                -0.3693892527135596,
                0.8164717834833882,
                -2.296818769287458
            ]
        },
        {
            "positions": [
                -2.435196581971414,
                -1.42505935036304,
                2.2126986081367335,
                -0.3466358132023572,
                0.7227168112565059,
                -2.1786733050614404
            ]
        },
        {
            "positions": [
                -2.530624076903512,
                -1.4261184994610323,
                2.2447190090210274,
                -0.3238823736911548,
                0.6289618390296237,
                -2.0605278408354226
            ]
        },
        {
            "positions": [
                -2.6260515718356103,
                -1.4271776485590244,
                2.2767394099053213,
                -0.3011289341799524,
                0.5352068668027414,
                -1.942382376609405
            ]
        },
        {
            "positions": [
                -2.7214790667677082,
                -1.4282367976570167,
                2.3087598107896152,
                -0.27837549466875,
                0.44145189457585926,
                -1.8242369123833873
            ]
        },
        {
            "positions": [
                -2.6905777261026205,
                -1.3949519959583596,
                2.271062654824144,
                -0.34591522016596354,
                0.4697791271777544,
                -1.9914765052425951
            ]
        },
        {
            "positions": [
                -2.6596763854375327,
                -1.3616671942597025,
                2.233365498858673,
                -0.4134549456631771,
                0.4981063597796495,
                -2.1587160981018028
            ]
        },
        {
            "positions": [
                -2.6287750447724445,
                -1.3283823925610454,
                2.195668342893202,
                -0.48099467116039063,
                0.5264335923815446,
                -2.3259556909610106
            ]
        },
        {
            "positions": [
                -2.5978737041073567,
                -1.2950975908623883,
                2.157971186927731,
                -0.5485343966576042,
                0.5547608249834397,
                -2.4931952838202185
            ]
        },
        {
            "positions": [
                -2.566972363442269,
                -1.2618127891637312,
                2.1202740309622596,
                -0.6160741221548177,
                0.5830880575853349,
                -2.6604348766794264
            ]
        },
        {
            "positions": [
                -2.5360710227771808,
                -1.228527987465074,
                2.0825768749967883,
                -0.6836138476520313,
                0.61141529018723,
                -2.827674469538634
            ]
        },
        {
            "positions": [
                -2.505169682112093,
                -1.195243185766417,
                2.0448797190313175,
                -0.7511535731492448,
                0.6397425227891251,
                -2.994914062397842
            ]
        },
        {
            "positions": [
                -2.4742683414470052,
                -1.1619583840677599,
                2.007182563065846,
                -0.8186932986464583,
                0.6680697553910202,
                -3.16215365525705
            ]
        }
    ]
}