{
    "goal": {
        "global_pose": {
            "orientation": {
                "w": 0.7047431468963623,
                "x": -0.7094548344612122,
                "y": 0.0024358443915843964,
                "z": -0.0022348060738295317
            },
            "position": {
                "x": 0.6094750761985779,
                "y": 0.3671506643295288,
                "z": 0.19426114857196808
            }
        },
        "name": "move_to_magneteinheit_A"
    },
    "id": "STRIDE_move_to_magneteinheit_A_88",
    "joint_names": [
        "shoulder_pan_joint",
        "shoulder_lift_joint",
        "elbow_joint",
        "wrist_1_joint",
        "wrist_2_joint",
        "wrist_3_joint"
    ],
    "metrics": {
        "cart_traj_len": 3.033141316632487,
        "distance_elbow_joint": 3.9403746360242695,
        "distance_shoulder_lift_joint": 0.9037472840602242,
        "distance_shoulder_pan_joint": 3.2395229834244126,
        "distance_wrist_1_joint": 4.677312552475441,
        "distance_wrist_2_joint": 1.496933443106172,
        "distance_wrist_3_joint": 1.0815795508731876,
        "smoothness": 0.4856039882803952,
        "time": 0.237392057,
        "traj_len": 3.916563602185429,
        "weighted_distance": 4.865888978109929
    },
    "planner": "STRIDE",
    "start": {
        "state": {
            "elbow_joint": -1.9196185241190666,
            "shoulder_lift_joint": -1.2443396400964142,
            "shoulder_pan_joint": 2.6996025414629847,
            "wrist_1_joint": -1.5485510000780065,
            "wrist_2_joint": -1.5709468930060704,
            "wrist_3_joint": 0.4420197071253992
        }
    },
    "waypoints": [
        {
            "positions": [
                2.6996025414629847,
                -1.2443396400964142,
                -1.9196185241190666,
                -1.5485510000780065,
                -1.5709468930060704,
                0.4420197071253992
            ]
        },
        {
            "positions": [
                2.597361013872711,
                -1.2368424917650171,
                -1.8319713380388416,
                -1.4043565855185565,
                -1.5400767107801465,
                0.4230789737490176
            ]
        },
        {
            "positions": [
                2.4951194862824373,
                -1.2293453434336203,
                -1.7443241519586166,
                -1.2601621709591064,
                -1.5092065285542224,
                0.40413824037263607
            ]
        },
        {
            "positions": [
                2.3928779586921634,
                -1.2218481951022233,
                -1.6566769658783913,
                -1.1159677563996564,
                -1.4783363463282986,
                0.3851975069962545
            ]
        },
        {
            "positions": [
                2.2906364311018894,
                -1.2143510467708265,
                -1.5690297797981663,
                -0.9717733418402065,
                -1.4474661641023747,
                0.36625677361987297
            ]
        },
        {
            "positions": [
                2.188394903511616,
                -1.2068538984394295,
                -1.4813825937179412,
                -0.8275789272807563,
                -1.4165959818764506,
                0.3473160402434914
            ]
        },
        {
            "positions": [
                2.086153375921342,
                -1.1993567501080327,
                -1.393735407637716,
                -0.6833845127213064,
                -1.3857257996505268,
                0.3283753068671098
            ]
        },
        {
            "positions": [
                1.983911848331068,
                -1.1918596017766356,
                -1.306088221557491,
                -0.5391900981618563,
                -1.3548556174246027,
                0.3094345734907282
            ]
        },
        {
            "positions": [
                1.8816703207407945,
                -1.1843624534452388,
                -1.218441035477266,
                -0.39499568360240644,
                -1.3239854351986788,
                0.2904938401143467
            ]
        },
        {
            "positions": [
                1.7794287931505206,
                -1.1768653051138418,
                -1.1307938493970409,
                -0.2508012690429564,
                -1.293115252972755,
                0.2715531067379652
            ]
        },
        {
            "positions": [
                1.6771872655602469,
                -1.1693681567824448,
                -1.0431466633168158,
                -0.10660685448350615,
                -1.262245070746831,
                0.2526123733615836
            ]
        },
        {
            "positions": [
                1.5749457379699732,
                -1.161871008451048,
                -0.9554994772365907,
                0.03758756007594366,
                -1.231374888520907,
                0.23367163998520202
            ]
        },
        {
            "positions": [
                1.4727042103796995,
                -1.154373860119651,
                -0.8678522911563655,
                0.1817819746353937,
                -1.2005047062949832,
                0.21473090660882047
            ]
        },
        {
            "positions": [
                1.3704626827894255,
                -1.1468767117882541,
                -0.7802051050761405,
                0.32597638919484373,
                -1.169634524069059,
                0.19579017323243889
            ]
        },
        {
            "positions": [
                1.2682211551991516,
                -1.139379563456857,
                -0.6925579189959152,
                0.470170803754294,
                -1.1387643418431352,
                0.17684943985605733
            ]
        },
        {
            "positions": [
                1.165979627608878,
                -1.1318824151254603,
                -0.6049107329156904,
                0.6143652183137436,
                -1.1078941596172114,
                0.1579087064796758
            ]
        },
        {
            "positions": [
                1.0637381000186041,
                -1.1243852667940633,
                -0.5172635468354652,
                0.7585596328731936,
                -1.0770239773912873,
                0.13896797310329423
            ]
        },
        {
            "positions": [
                0.9614965724283304,
                -1.1168881184626662,
                -0.4296163607552399,
                0.9027540474326441,
                -1.0461537951653632,
                0.12002723972691265
            ]
        },
        {
            "positions": [
                0.8592550448380567,
                -1.1093909701312694,
                -0.3419691746750151,
                1.0469484619920937,
                -1.0152836129394394,
                0.10108650635053112
            ]
        },
        {
            "positions": [
                0.757013517247783,
                -1.1018938217998724,
                -0.2543219885947898,
                1.1911428765515437,
                -0.9844134307135155,
                0.08214577297414954
            ]
        },
        {
            "positions": [
                0.654771989657509,
                -1.0943966734684756,
                -0.1666748025145648,
                1.3353372911109942,
                -0.9535432484875915,
                0.06320503959776796
            ]
        },
        {
            "positions": [
                0.5525304620672356,
                -1.0868995251370785,
                -0.07902761643433975,
                1.4795317056704438,
                -0.9226730662616677,
                0.04426430622138644
            ]
        },
        {
            "positions": [
                0.4502889344769616,
                -1.0794023768056817,
                0.008619569645885283,
                1.6237261202298938,
                -0.8918028840357437,
                0.02532357284500486
            ]
        },
        {
            "positions": [
                0.34804740688668767,
                -1.0719052284742847,
                0.09626675572611054,
                1.7679205347893439,
                -0.8609327018098197,
                0.00638283946862328
            ]
        },
        {
            "positions": [
                0.24580587929641418,
                -1.064408080142888,
                0.18391394180633558,
                1.912114949348794,
                -0.8300625195838959,
                -0.012557893907758244
            ]
        },
        {
            "positions": [
                0.14356435170614035,
                -1.0569109318114909,
                0.2715611278865605,
                2.056309363908244,
                -0.7991923373579719,
                -0.031498627284139824
            ]
        },
        {
            "positions": [
                0.10836437727695294,
                -1.0793334562956245,
                0.435008671684998,
                2.000763967009971,
                -0.7295018500934152,
                -0.06593941189822994
            ]
        },
        {
            "positions": [
                0.07316440284776554,
                -1.1017559807797583,
                0.5984562154834354,
                1.9452185701116977,
                -0.6598113628288583,
                -0.10038019651232007
            ]
        },
        {
            "positions": [
                0.03796442841857814,
                -1.1241785052638922,
                0.7619037592818729,
                1.8896731732134244,
                -0.5901208755643016,
                -0.13482098112641017
            ]
        },
        {
            "positions": [
                0.002764453989390736,
                -1.1466010297480258,
                0.9253513030803104,
                1.8341277763151513,
                -0.5204303882997448,
                -0.1692617657405003
            ]
        },
        {
            "positions": [
                -0.03243552043979667,
                -1.1690235542321594,
                1.0887988468787477,
                1.778582379416878,
                -0.450739901035188,
                -0.20370255035459042
            ]
        },
        {
            "positions": [
                -0.06763549486898407,
                -1.1914460787162933,
                1.2522463906771852,
                1.7230369825186047,
                -0.38104941377063123,
                -0.23814333496868054
            ]
        },
        {
            "positions": [
                -0.10283546929817144,
                -1.213868603200427,
                1.4156939344756228,
                1.6674915856203316,
                -0.3113589265060745,
                -0.2725841195827706
            ]
        },
        {
            "positions": [
                -0.13803544372735888,
                -1.2362911276845607,
                1.5791414782740603,
                1.6119461887220583,
                -0.2416684392415177,
                -0.3070249041968608
            ]
        },
        {
            "positions": [
                -0.1732354181565463,
                -1.2587136521686944,
                1.7425890220724978,
                1.5564007918237852,
                -0.17197795197696086,
                -0.3414656888109509
            ]
        },
        {
            "positions": [
                -0.20843539258573368,
                -1.2811361766528282,
                1.9060365658709353,
                1.500855394925512,
                -0.10228746471240413,
                -0.375906473425041
            ]
        },
        {
            "positions": [
                -0.14213838271059512,
                -1.1827175104660355,
                1.9289804750777888,
                1.6042550388268038,
                -0.10794226767490536,
                -0.32317579936049157
            ]
        },
        {
            "positions": [
                -0.07584137283545656,
                -1.0842988442792427,
                1.9519243842846423,
                1.7076546827280954,
                -0.1135970706374066,
                -0.27044512529594217
            ]
        },
        {
            "positions": [
                -0.00954436296031802,
                -0.98588017809245,
                1.9748682934914958,
                1.8110543266293873,
                -0.11925187359990783,
                -0.21771445123139277
            ]
        },
        {
            "positions": [
                0.05675264691482057,
                -0.8874615119056573,
                1.9978122026983494,
                1.914453970530679,
                -0.12490667656240906,
                -0.16498377716684332
            ]
        },
        {
            "positions": [
                0.1230496567899591,
                -0.7890428457188646,
                2.020756111905203,
                2.0178536144319708,
                -0.1305614795249103,
                -0.11225310310229393
            ]
        }
    ]
}