{
    "goal": {
        "global_pose": {
            "orientation": {
                "w": 0.7047431493862688,
                "x": -0.7094548369677653,
                "y": 0.0024358444001904,
                "z": -0.0022348060817251984
            },
            "position": {
                "x": -0.39052492380142206,
                "y": 0.3671506643295288,
                "z": 0.19426114857196808
            }
        },
        "name": "move_to_magneteinheit_D"
    },
    "id": "STRIDE_move_to_magneteinheit_D_96",
    "joint_names": [
        "shoulder_pan_joint",
        "shoulder_lift_joint",
        "elbow_joint",
        "wrist_1_joint",
        "wrist_2_joint",
        "wrist_3_joint"
    ],
    "metrics": {
        "cart_traj_len": 3.87491918645395,
        "distance_elbow_joint": 4.497632742624901,
        "distance_shoulder_lift_joint": 1.6291283241866032,
        "distance_shoulder_pan_joint": 3.241947674712843,
        "distance_wrist_1_joint": 2.264937791489717,
        "distance_wrist_2_joint": 1.4034006757361324,
        "distance_wrist_3_joint": 3.201811930677041,
        "smoothness": 0.5470413244985172,
        "time": 0.15010012,
        "traj_len": 4.029746783537055,
        "weighted_distance": 5.129407516273899
    },
    "planner": "STRIDE",
    "start": {
        "state": {
            "elbow_joint": 0.749534889911806,
            "shoulder_lift_joint": -0.6476975780787326,
            "shoulder_pan_joint": -2.711696901376241,
            "wrist_1_joint": -0.07506478083263063,
            "wrist_2_joint": 0.43296659715538205,
            "wrist_3_joint": -3.14703540197715
        }
    },
    "waypoints": [
        {
            "positions": [
                -2.711696901376241,
                -0.6476975780787326,
                0.749534889911806,
                -0.07506478083263063,
                0.43296659715538205,
                -3.14703540197715
            ]
        },
        {
            "positions": [
                -2.728321465405236,
                -0.7601249481605492,
                0.8204624192218817,
                -0.16568637618125476,
                0.4267764192137728,
                -3.048667560345529
            ]
        },
        {
            "positions": [
                -2.7449460294342307,
                -0.8725523182423657,
                0.8913899485319573,
                -0.25630797152987883,
                0.4205862412721636,
                -2.950299718713908
            ]
        },
        {
            "positions": [
                -2.761570593463226,
                -0.9849796883241821,
                0.9623174778420329,
                -0.34692956687850296,
                0.41439606333055434,
                -2.8519318770822877
            ]
        },
        {
            "positions": [
                -2.778195157492221,
                -1.0974070584059987,
                1.0332450071521087,
                -0.4375511622271271,
                0.4082058853889451,
                -2.7535640354506667
            ]
        },
        {
            "positions": [
                -2.681097202033012,
                -1.1089555067417993,
                0.9170845723320833,
                -0.399652321841513,
                0.37937168598490423,
                -2.6545613228440543
            ]
        },
        {
            "positions": [
                -2.583999246573803,
                -1.1205039550776,
                0.8009241375120578,
                -0.36175348145589886,
                0.35053748658086337,
                -2.5555586102374424
            ]
        },
        {
            "positions": [
                -2.4869012911145942,
                -1.1320524034134003,
                0.6847637026920325,
                -0.3238546410702847,
                0.3217032871768225,
                -2.45655589763083
            ]
        },
        {
            "positions": [
                -2.389803335655386,
                -1.143600851749201,
                0.568603267872007,
                -0.28595580068467064,
                0.29286908777278164,
                -2.3575531850242175
            ]
        },
        {
            "positions": [
                -2.292705380196177,
                -1.1551493000850015,
                0.45244283305198163,
                -0.2480569602990565,
                0.2640348883687408,
                -2.258550472417605
            ]
        },
        {
            "positions": [
                -2.195607424736968,
                -1.166697748420802,
                0.33628239823195627,
                -0.2101581199134424,
                0.23520068896469992,
                -2.159547759810993
            ]
        },
        {
            "positions": [
                -2.0985094692777593,
                -1.1782461967566027,
                0.2201219634119308,
                -0.17225927952782827,
                0.20636648956065906,
                -2.0605450472043807
            ]
        },
        {
            "positions": [
                -2.0014115138185504,
                -1.1897946450924033,
                0.10396152859190544,
                -0.13436043914221418,
                0.1775322901566182,
                -1.9615423345977685
            ]
        },
        {
            "positions": [
                -1.9043135583593416,
                -1.2013430934282037,
                -0.012198906228120032,
                -0.09646159875659999,
                0.14869809075257734,
                -1.862539621991156
            ]
        },
        {
            "positions": [
                -1.807215602900133,
                -1.2128915417640043,
                -0.1283593410481454,
                -0.0585627583709859,
                0.11986389134853648,
                -1.7635369093845439
            ]
        },
        {
            "positions": [
                -1.710117647440924,
                -1.2244399900998049,
                -0.24451977586817075,
                -0.020663917985371816,
                0.09102969194449562,
                -1.6645341967779315
            ]
        },
        {
            "positions": [
                -1.6130196919817155,
                -1.2359884384356055,
                -0.3606802106881961,
                0.01723492240024227,
                0.062195492540454755,
                -1.5655314841713193
            ]
        },
        {
            "positions": [
                -1.5159217365225066,
                -1.247536886771406,
                -0.4768406455082217,
                0.055133762785856466,
                0.033361293136413894,
                -1.4665287715647068
            ]
        },
        {
            "positions": [
                -1.4188237810632978,
                -1.2590853351072067,
                -0.593001080328247,
                0.09303260317147055,
                0.004527093732373033,
                -1.3675260589580946
            ]
        },
        {
            "positions": [
                -1.321725825604089,
                -1.270633783443007,
                -0.7091615151482724,
                0.13093144355708464,
                -0.024307105671667828,
                -1.2685233463514825
            ]
        },
        {
            "positions": [
                -1.2246278701448803,
                -1.2821822317788076,
                -0.8253219499682978,
                0.16883028394269872,
                -0.05314130507570869,
                -1.1695206337448703
            ]
        },
        {
            "positions": [
                -1.1275299146856714,
                -1.2937306801146082,
                -0.9414823847883231,
                0.2067291243283128,
                -0.0819755044797495,
                -1.0705179211382578
            ]
        },
        {
            "positions": [
                -1.0304319592264626,
                -1.3052791284504088,
                -1.0576428196083487,
                0.24462796471392712,
                -0.11080970388379041,
                -0.9715152085316454
            ]
        },
        {
            "positions": [
                -0.9333340037672537,
                -1.3168275767862094,
                -1.1738032544283743,
                0.2825268050995412,
                -0.13964390328783127,
                -0.872512495925033
            ]
        },
        {
            "positions": [
                -0.8362360483080451,
                -1.3283760251220098,
                -1.2899636892483994,
                0.3204256454851553,
                -0.16847810269187213,
                -0.7735097833184208
            ]
        },
        {
            "positions": [
                -0.7391380928488362,
                -1.3399244734578104,
                -1.406124124068425,
                0.35832448587076937,
                -0.197312302095913,
                -0.6745070707118086
            ]
        },
        {
            "positions": [
                -0.6420401373896274,
                -1.351472921793611,
                -1.5222845588884502,
                0.39622332625638346,
                -0.22614650149995386,
                -0.5755043581051962
            ]
        },
        {
            "positions": [
                -0.5449421819304185,
                -1.3630213701294116,
                -1.6384449937084757,
                0.43412216664199754,
                -0.2549807009039947,
                -0.4765016454985842
            ]
        },
        {
            "positions": [
                -0.44784422647121014,
                -1.3745698184652122,
                -1.7546054285285009,
                0.4720210070276116,
                -0.2838149003080356,
                -0.3774989328919718
            ]
        },
        {
            "positions": [
                -0.35074627101200084,
                -1.3861182668010126,
                -1.870765863348527,
                0.5099198474132259,
                -0.31264909971207644,
                -0.27849622028535936
            ]
        },
        {
            "positions": [
                -0.25364831555279244,
                -1.3976667151368134,
                -1.986926298168552,
                0.54781868779884,
                -0.3414832991161173,
                -0.17949350767874694
            ]
        },
        {
            "positions": [
                -0.15655036009358358,
                -1.4092151634726138,
                -2.1030867329885776,
                0.585717528184454,
                -0.37031749852015816,
                -0.08049079507213497
            ]
        },
        {
            "positions": [
                -0.059452404634374845,
                -1.4207636118084144,
                -2.2192471678086028,
                0.6236163685700681,
                -0.39915169792419897,
                0.018511917534477507
            ]
        },
        {
            "positions": [
                -0.026455437821677176,
                -1.492454538157732,
                -2.3323596291206448,
                0.6855499392612427,
                -0.29767460499472265,
                0.017898054654823182
            ]
        },
        {
            "positions": [
                0.006541528991020493,
                -1.5641454645070496,
                -2.445472090432687,
                0.7474835099524174,
                -0.1961975120652463,
                0.017284191775168857
            ]
        },
        {
            "positions": [
                0.03953849580371817,
                -1.6358363908563673,
                -2.558584551744729,
                0.8094170806435921,
                -0.09472041913577,
                0.01667032889551453
            ]
        },
        {
            "positions": [
                0.07253546261641583,
                -1.707527317205685,
                -2.6716970130567717,
                0.8713506513347667,
                0.006756673793706369,
                0.016056466015860204
            ]
        },
        {
            "positions": [
                0.1055324294291135,
                -1.7792182435550026,
                -2.7848094743688137,
                0.9332842220259414,
                0.10823376672318269,
                0.015442603136205879
            ]
        },
        {
            "positions": [
                0.047188063094007845,
                -1.8787397752970691,
                -2.7056358455960785,
                1.0396074271943718,
                0.12101314992501651,
                0.022081662489634314
            ]
        },
        {
            "positions": [
                -0.011156303241097815,
                -1.978261307039136,
                -2.6264622168233434,
                1.145930632362802,
                0.13379253312685033,
                0.02872072184306275
            ]
        },
        {
            "positions": [
                -0.06950066957620346,
                -2.0777828387812027,
                -2.5472885880506078,
                1.2522538375312324,
                0.14657191632868413,
                0.035359781196491184
            ]
        },
        {
            "positions": [
                -0.12784503591130914,
                -2.1773043705232693,
                -2.4681149592778726,
                1.3585770426996628,
                0.15935129953051796,
                0.04199884054991962
            ]
        },
        {
            "positions": [
                -0.18618940224641478,
                -2.276825902265336,
                -2.3889413305051375,
                1.464900247868093,
                0.17213068273235177,
                0.048637899903348054
            ]
        }
    ]
}