{
    "goal": {
        "global_pose": {
            "orientation": {
                "w": -0.4816463035849501,
                "x": 0.5182115481033762,
                "y": 0.4908360881923453,
                "z": -0.5084816262002911
            },
            "position": {
                "x": -0.8240239810943604,
                "y": 0.19912469901144506,
                "z": 0.16403168439865112
            }
        },
        "name": "move_to_storage_D"
    },
    "id": "STRIDE_move_to_storage_D_90",
    "joint_names": [
        "shoulder_pan_joint",
        "shoulder_lift_joint",
        "elbow_joint",
        "wrist_1_joint",
        "wrist_2_joint",
        "wrist_3_joint"
    ],
    "metrics": {
        "cart_traj_len": 0.8081342180917608,
        "distance_elbow_joint": 0.5538752303050265,
        "distance_shoulder_lift_joint": 0.15293346586509893,
        "distance_shoulder_pan_joint": 0.6535005280702462,
        "distance_wrist_1_joint": 3.8220283178571486,
        "distance_wrist_2_joint": 1.890396591875952,
        "distance_wrist_3_joint": 3.1334392345276196,
        "smoothness": 0.08475515186754652,
        "time": 0.056410728,
        "traj_len": 3.1947102166708476,
        "weighted_distance": 4.710146149249451
    },
    "planner": "STRIDE",
    "start": {
        "state": {
            "elbow_joint": -2.384821988534728,
            "shoulder_lift_joint": -2.2788054721415256,
            "shoulder_pan_joint": -0.1854694642142757,
            "wrist_1_joint": 1.4845938289331202,
            "wrist_2_joint": 0.17898776772866878,
            "wrist_3_joint": 0.037105688729662994
        }
    },
    "waypoints": [
        {
            "positions": [
                -0.1854694642142757,
                -2.2788054721415256,
                -2.384821988534728,
                1.4845938289331202,
                0.17898776772866878,
                0.037105688729662994
            ]
        },
        {
            "positions": [
                -0.08487658936513903,
                -2.248518068792104,
                -2.256267575393812,
                1.4182076559894692,
                0.19224069198612975,
                0.03941768254326973
            ]
        },
        {
            "positions": [
                0.015716285483997644,
                -2.2182306654426815,
                -2.1277131622528955,
                1.351821483045818,
                0.20549361624359075,
                0.041729676356876466
            ]
        },
        {
            "positions": [
                0.11630916033313429,
                -2.1879432620932597,
                -1.9991587491119795,
                1.2854353101021667,
                0.21874654050105172,
                0.04404167017048321
            ]
        },
        {
            "positions": [
                0.21690203518227102,
                -2.157655858743838,
                -1.8706043359710636,
                1.2190491371585157,
                0.23199946475851269,
                0.046353663984089945
            ]
        },
        {
            "positions": [
                0.20598338176167538,
                -2.15627395211482,
                -1.8688800934605696,
                1.0644194142853616,
                0.15211316498259495,
                -0.0894807385930054
            ]
        },
        {
            "positions": [
                0.1950647283410797,
                -2.154892045485802,
                -1.8671558509500756,
                0.9097896914122076,
                0.0722268652066772,
                -0.22531514117010074
            ]
        },
        {
            "positions": [
                0.18414607492048407,
                -2.153510138856784,
                -1.8654316084395814,
                0.7551599685390535,
                -0.007659434569240536,
                -0.36114954374719604
            ]
        },
        {
            "positions": [
                0.1732274214998884,
                -2.1521282322277666,
                -1.8637073659290875,
                0.6005302456658994,
                -0.08754573434515828,
                -0.4969839463242914
            ]
        },
        {
            "positions": [
                0.16230876807929276,
                -2.1507463255987487,
                -1.8619831234185935,
                0.4459005227927454,
                -0.167432034121076,
                -0.6328183489013868
            ]
        },
        {
            "positions": [
                0.15139011465869712,
                -2.1493644189697307,
                -1.8602588809080995,
                0.29127079991959126,
                -0.24731833389699376,
                -0.7686527514784821
            ]
        },
        {
            "positions": [
                0.14047146123810145,
                -2.147982512340713,
                -1.8585346383976056,
                0.13664107704643724,
                -0.32720463367291147,
                -0.9044871540555776
            ]
        },
        {
            "positions": [
                0.1295528078175058,
                -2.146600605711695,
                -1.8568103958871116,
                -0.017988645826716887,
                -0.40709093344882924,
                -1.0403215566326727
            ]
        },
        {
            "positions": [
                0.11863415439691015,
                -2.145218699082677,
                -1.8550861533766174,
                -0.17261836869987102,
                -0.486977233224747,
                -1.1761559592097681
            ]
        },
        {
            "positions": [
                0.1077155009763145,
                -2.143836792453659,
                -1.8533619108661235,
                -0.3272480915730249,
                -0.5668635330006646,
                -1.3119903617868633
            ]
        },
        {
            "positions": [
                0.09679684755571884,
                -2.142454885824641,
                -1.8516376683556295,
                -0.48187781444617905,
                -0.6467498327765824,
                -1.4478247643639588
            ]
        },
        {
            "positions": [
                0.08587819413512318,
                -2.1410729791956236,
                -1.8499134258451355,
                -0.6365075373193332,
                -0.7266361325525001,
                -1.583659166941054
            ]
        },
        {
            "positions": [
                0.07495954071452754,
                -2.1396910725666056,
                -1.8481891833346415,
                -0.7911372601924871,
                -0.8065224323284179,
                -1.7194935695181492
            ]
        },
        {
            "positions": [
                0.06404088729393187,
                -2.1383091659375877,
                -1.8464649408241476,
                -0.9457669830656412,
                -0.8864087321043357,
                -1.855327972095245
            ]
        },
        {
            "positions": [
                0.05312223387333623,
                -2.1369272593085697,
                -1.8447406983136534,
                -1.1003967059387953,
                -0.9662950318802535,
                -1.9911623746723401
            ]
        },
        {
            "positions": [
                0.042203580452740586,
                -2.135545352679552,
                -1.8430164558031594,
                -1.2550264288119495,
                -1.0461813316561712,
                -2.1269967772494356
            ]
        },
        {
            "positions": [
                0.031284927032144944,
                -2.134163446050534,
                -1.8412922132926655,
                -1.4096561516851032,
                -1.1260676314320888,
                -2.262831179826531
            ]
        },
        {
            "positions": [
                0.020366273611549274,
                -2.132781539421516,
                -1.8395679707821715,
                -1.5642858745582577,
                -1.2059539312080068,
                -2.3986655824036265
            ]
        },
        {
            "positions": [
                0.009447620190953632,
                -2.131399632792498,
                -1.8378437282716775,
                -1.7189155974314119,
                -1.2858402309839245,
                -2.5344999849807217
            ]
        },
        {
            "positions": [
                -0.001471033229642038,
                -2.1300177261634805,
                -1.8361194857611836,
                -1.8735453203045656,
                -1.365726530759842,
                -2.670334387557817
            ]
        },
        {
            "positions": [
                -0.01238968665023768,
                -2.1286358195344626,
                -1.8343952432506894,
                -2.0281750431777197,
                -1.4456128305357598,
                -2.806168790134912
            ]
        },
        {
            "positions": [
                -0.02330834007083335,
                -2.1272539129054446,
                -1.8326710007401954,
                -2.182804766050874,
                -1.5254991303116776,
                -2.942003192712008
            ]
        },
        {
            "positions": [
                -0.03422699349142898,
                -2.1258720062764267,
                -1.8309467582297014,
                -2.337434488924028,
                -1.6053854300875954,
                -3.077837595289103
            ]
        }
    ]
}