{
    "goal": {
        "global_pose": {
            "orientation": {
                "w": 0.005598929693374612,
                "x": 0.007748599140229565,
                "y": 0.7110244013736278,
                "z": -0.7031023480610252
            },
            "position": {
                "x": 0.1141497679147869,
                "y": -0.7141253447532654,
                "z": 0.3711530566215515
            }
        },
        "name": "move_to_auspresseinheit_B"
    },
    "id": "STRIDE_move_to_auspresseinheit_B_135",
    "joint_names": [
        "shoulder_pan_joint",
        "shoulder_lift_joint",
        "elbow_joint",
        "wrist_1_joint",
        "wrist_2_joint",
        "wrist_3_joint"
    ],
    "metrics": {
        "cart_traj_len": 0.564957439236531,
        "distance_elbow_joint": 0.06224436984260584,
        "distance_shoulder_lift_joint": 0.29551645489241274,
        "distance_shoulder_pan_joint": 0.5772621535009446,
        "distance_wrist_1_joint": 0.32472519805830313,
        "distance_wrist_2_joint": 0.9931222073882786,
        "distance_wrist_3_joint": 0.009218209878345096,
        "smoothness": 2.5376526478085547e-16,
        "time": 0.83429127,
        "traj_len": 1.5040241333040139,
        "weighted_distance": 1.896937642297227
    },
    "planner": "STRIDE",
    "start": {
        "state": {
            "elbow_joint": 2.0193083361928714,
            "shoulder_lift_joint": -1.1220246554650708,
            "shoulder_pan_joint": -1.0952077554168747,
            "wrist_1_joint": -0.8559753972642168,
            "wrist_2_joint": 0.4759566250798843,
            "wrist_3_joint": -3.1240929996934557
        }
    },
    "waypoints": [
        {
            "positions": [
                -1.0952077554168747,
                -1.1220246554650708,
                2.0193083361928714,
                -0.8559753972642168,
                0.4759566250798843,
                -3.1240929996934557
            ]
        },
        {
            "positions": [
                -1.1914181143336988,
                -1.1712773979471396,
                2.0089342745524372,
                -0.8018545309211662,
                0.6414769929779307,
                -3.122556631380398
            ]
        },
        {
            "positions": [
                -1.2876284732505228,
                -1.2205301404292084,
                1.9985602129120028,
                -0.7477336645781157,
                0.8069973608759771,
                -3.1210202630673405
            ]
        },
        {
            "positions": [
                -1.383838832167347,
                -1.2697828829112772,
                1.9881861512715684,
                -0.6936127982350653,
                0.9725177287740236,
                -3.119483894754283
            ]
        },
        {
            "positions": [
                -1.4800491910841709,
                -1.319035625393346,
                1.9778120896311342,
                -0.6394919318920147,
                1.13803809667207,
                -3.1179475264412257
            ]
        },
        {
            "positions": [
                -1.5762595500009953,
                -1.3682883678754147,
                1.9674380279907,
                -0.5853710655489641,
                1.3035584645701166,
                -3.116411158128168
            ]
        },
        {
            "positions": [
                -1.6724699089178192,
                -1.4175411103574835,
                1.9570639663502656,
                -0.5312501992059137,
                1.469078832468163,
                -3.1148747898151106
            ]
        }
    ]
}