{
    "goal": {
        "global_pose": {
            "orientation": {
                "w": 0.005598929693374612,
                "x": 0.007748599140229565,
                "y": 0.7110244013736278,
                "z": -0.7031023480610252
            },
            "position": {
                "x": 0.1141497679147869,
                "y": -0.7141253447532654,
                "z": 0.3711530566215515
            }
        },
        "name": "move_to_auspresseinheit_B"
    },
    "id": "STRIDE_move_to_auspresseinheit_B_32",
    "joint_names": [
        "shoulder_pan_joint",
        "shoulder_lift_joint",
        "elbow_joint",
        "wrist_1_joint",
        "wrist_2_joint",
        "wrist_3_joint"
    ],
    "metrics": {
        "cart_traj_len": 0.5646644285857657,
        "distance_elbow_joint": 0.06430982386784034,
        "distance_shoulder_lift_joint": 0.29329622877605477,
        "distance_shoulder_pan_joint": 0.5780390308577821,
        "distance_wrist_1_joint": 0.3345529070264981,
        "distance_wrist_2_joint": 0.9903322835877666,
        "distance_wrist_3_joint": 0.004685919078332823,
        "smoothness": 0.0,
        "time": 0.37498170200000003,
        "traj_len": 1.505063517993269,
        "weighted_distance": 1.8972277728214937
    },
    "planner": "STRIDE",
    "start": {
        "state": {
            "elbow_joint": 2.0193083361928714,
            "shoulder_lift_joint": -1.1220246554650708,
            "shoulder_pan_joint": -1.0952077554168747,
            "wrist_1_joint": -0.8559753972642168,
            "wrist_2_joint": 0.4759566250798843,
            "wrist_3_joint": -3.1240929996934557
        }
    },
    "waypoints": [
        {
            "positions": [
                -1.0952077554168747,
                -1.1220246554650708,
                2.0193083361928714,
                -0.8559753972642168,
                0.4759566250798843,
                -3.1240929996934557
            ]
        },
        {
            "positions": [
                -1.1915475938931717,
                -1.17090736026108,
                2.008590032214898,
                -0.8002165794264671,
                0.6410120056778454,
                -3.1233120131804
            ]
        },
        {
            "positions": [
                -1.2878874323694687,
                -1.219790065057089,
                1.9978717282369247,
                -0.7444577615887175,
                0.8060673862758065,
                -3.1225310266673447
            ]
        },
        {
            "positions": [
                -1.3842272708457657,
                -1.2686727698530982,
                1.9871534242589513,
                -0.6886989437509677,
                0.9711227668737676,
                -3.1217500401542893
            ]
        },
        {
            "positions": [
                -1.4805671093220627,
                -1.3175554746491074,
                1.9764351202809778,
                -0.6329401259132181,
                1.1361781474717287,
                -3.120969053641234
            ]
        },
        {
            "positions": [
                -1.5769069477983597,
                -1.3664381794451164,
                1.9657168163030045,
                -0.5771813080754684,
                1.3012335280696898,
                -3.1201880671281783
            ]
        },
        {
            "positions": [
                -1.6732467862746567,
                -1.4153208842411256,
                1.954998512325031,
                -0.5214224902377187,
                1.466288908667651,
                -3.119407080615123
            ]
        }
    ]
}