{
    "goal": {
        "global_pose": {
            "orientation": {
                "w": -0.4816463035849501,
                "x": 0.5182115481033762,
                "y": 0.4908360881923453,
                "z": -0.5084816262002911
            },
            "position": {
                "x": -0.8240239810943604,
                "y": -0.300875300988555,
                "z": 0.16403168439865112
            }
        },
        "name": "move_to_storage_C"
    },
    "id": "STRIDE_move_to_storage_C_55",
    "joint_names": [
        "shoulder_pan_joint",
        "shoulder_lift_joint",
        "elbow_joint",
        "wrist_1_joint",
        "wrist_2_joint",
        "wrist_3_joint"
    ],
    "metrics": {
        "cart_traj_len": 0.5767074504965941,
        "distance_elbow_joint": 0.2602715827768205,
        "distance_shoulder_lift_joint": 0.18899000638706953,
        "distance_shoulder_pan_joint": 0.494043509144082,
        "distance_wrist_1_joint": 0.0844059808383053,
        "distance_wrist_2_joint": 1.0713213507511603,
        "distance_wrist_3_joint": 0.06940728355547554,
        "smoothness": 2.5376526478085547e-16,
        "time": 0.037111705999999994,
        "traj_len": 1.4725622952707003,
        "weighted_distance": 1.8609088134976761
    },
    "planner": "STRIDE",
    "start": {
        "state": {
            "elbow_joint": 2.010868314990456,
            "shoulder_lift_joint": -1.1634956873337592,
            "shoulder_pan_joint": -2.4736205022346125,
            "wrist_1_joint": -0.8367026794202681,
            "wrist_2_joint": 0.6746043897044499,
            "wrist_3_joint": -3.1496632123970403
        }
    },
    "waypoints": [
        {
            "positions": [
                -2.4736205022346125,
                -1.1634956873337592,
                2.010868314990456,
                -0.8367026794202681,
                0.6746043897044499,
                -3.1496632123970403
            ]
        },
        {
            "positions": [
                -2.5559610870919593,
                -1.1319973529359142,
                1.9674897178609858,
                -0.8226350159472172,
                0.8531579481629766,
                -3.138095331804461
            ]
        },
        {
            "positions": [
                -2.6383016719493066,
                -1.1004990185380694,
                1.9241111207315156,
                -0.8085673524741663,
                1.0317115066215035,
                -3.126527451211882
            ]
        },
        {
            "positions": [
                -2.7206422568066535,
                -1.0690006841402244,
                1.8807325236020456,
                -0.7944996890011155,
                1.21026506508003,
                -3.1149595706193027
            ]
        },
        {
            "positions": [
                -2.8029828416640004,
                -1.0375023497423794,
                1.8373539264725756,
                -0.7804320255280646,
                1.388818623538557,
                -3.103391690026723
            ]
        },
        {
            "positions": [
                -2.8853234265213477,
                -1.0060040153445347,
                1.7939753293431053,
                -0.7663643620550137,
                1.5673721819970834,
                -3.091823809434144
            ]
        },
        {
            "positions": [
                -2.9676640113786945,
                -0.9745056809466897,
                1.7505967322136353,
                -0.7522966985819628,
                1.74592574045561,
                -3.0802559288415647
            ]
        }
    ]
}