{
    "goal": {
        "global_pose": {
            "orientation": {
                "w": 0.7031023502349854,
                "x": -0.7110244035720825,
                "y": 0.007748599164187908,
                "z": 0.005598929710686207
            },
            "position": {
                "x": 0.11585023208521307,
                "y": 0.44412534475326537,
                "z": 0.3711530566215515
            }
        },
        "name": "move_to_auspresseinheit_A"
    },
    "id": "STRIDE_move_to_auspresseinheit_A_42",
    "joint_names": [
        "shoulder_pan_joint",
        "shoulder_lift_joint",
        "elbow_joint",
        "wrist_1_joint",
        "wrist_2_joint",
        "wrist_3_joint"
    ],
    "metrics": {
        "cart_traj_len": 0.6580390023846686,
        "distance_elbow_joint": 0.5948304290110302,
        "distance_shoulder_lift_joint": 0.5368978097113615,
        "distance_shoulder_pan_joint": 1.0412265302327668,
        "distance_wrist_1_joint": 0.8539847705795386,
        "distance_wrist_2_joint": 0.5424860984120996,
        "distance_wrist_3_joint": 0.6364206333668165,
        "smoothness": 0.9229604091198835,
        "time": 0.743809226,
        "traj_len": 2.0508160013305954,
        "weighted_distance": 2.6220523272884706
    },
    "planner": "STRIDE",
    "start": {
        "state": {
            "elbow_joint": 2.4225746658250005,
            "shoulder_lift_joint": -1.3736534386056498,
            "shoulder_pan_joint": -0.3378633547517467,
            "wrist_1_joint": -1.0288598680537169,
            "wrist_2_joint": 1.233022673432363,
            "wrist_3_joint": -3.0940220416140027
        }
    },
    "waypoints": [
        {
            "positions": [
                -0.3378633547517467,
                -1.3736534386056498,
                2.4225746658250005,
                -1.0288598680537169,
                1.233022673432363,
                -3.0940220416140027
            ]
        },
        {
            "positions": [
                -0.2552231499923956,
                -1.4623140213742718,
                2.469973195101897,
                -1.0546001940346115,
                1.1435572042650253,
                -3.0434977101363248
            ]
        },
        {
            "positions": [
                -0.17258294523304452,
                -1.550974604142894,
                2.517371724378793,
                -1.0803405200155058,
                1.0540917350976877,
                -2.9929733786586468
            ]
        },
        {
            "positions": [
                -0.08994274047369341,
                -1.6396351869115162,
                2.5647702536556896,
                -1.1060808459964004,
                0.9646262659303501,
                -2.9424490471809692
            ]
        },
        {
            "positions": [
                -0.007302535714342306,
                -1.7282957696801382,
                2.612168782932586,
                -1.131821171977295,
                0.8751607967630124,
                -2.8919247157032912
            ]
        },
        {
            "positions": [
                0.07533766904500883,
                -1.8169563524487602,
                2.6595673122094823,
                -1.1575614979581894,
                0.7856953275956747,
                -2.8414003842256133
            ]
        },
        {
            "positions": [
                0.1579778738043599,
                -1.9056169352173824,
                2.7069658414863786,
                -1.183301823939084,
                0.6962298584283371,
                -2.7908760527479353
            ]
        },
        {
            "positions": [
                0.26705493413969195,
                -1.9066037978373083,
                2.644877990816448,
                -1.0433932610002496,
                0.6973685151099518,
                -2.857530981648085
            ]
        },
        {
            "positions": [
                0.376131994475024,
                -1.907590660457234,
                2.5827901401465176,
                -0.9034846980614154,
                0.6985071717915665,
                -2.924185910548235
            ]
        },
        {
            "positions": [
                0.48520905481035603,
                -1.9085775230771598,
                2.5207022894765876,
                -0.7635761351225812,
                0.6996458284731812,
                -2.9908408394483845
            ]
        },
        {
            "positions": [
                0.5942861151456881,
                -1.9095643856970854,
                2.458614438806657,
                -0.6236675721837468,
                0.700784485154796,
                -3.0574957683485344
            ]
        },
        {
            "positions": [
                0.7033631754810201,
                -1.9105512483170113,
                2.3965265881367266,
                -0.48375900924491255,
                0.7019231418364107,
                -3.1241506972486843
            ]
        }
    ]
}