{
    "goal": {
        "global_pose": {
            "orientation": {
                "w": -0.00223480608172531,
                "x": 0.0024358444001904467,
                "y": 0.7094548369677653,
                "z": -0.704743149386269
            },
            "position": {
                "x": -0.37947507619857795,
                "y": -0.6371506643295288,
                "z": 0.19426114857196808
            }
        },
        "name": "move_to_magneteinheit_C"
    },
    "id": "STRIDE_move_to_magneteinheit_C_39",
    "joint_names": [
        "shoulder_pan_joint",
        "shoulder_lift_joint",
        "elbow_joint",
        "wrist_1_joint",
        "wrist_2_joint",
        "wrist_3_joint"
    ],
    "metrics": {
        "cart_traj_len": 1.4670498660366544,
        "distance_elbow_joint": 0.6092764718531356,
        "distance_shoulder_lift_joint": 1.4502167358591418,
        "distance_shoulder_pan_joint": 1.9645635375061448,
        "distance_wrist_1_joint": 0.5803570910471179,
        "distance_wrist_2_joint": 1.057072405698749,
        "distance_wrist_3_joint": 3.8170298493257078,
        "smoothness": 1.5146812266631298,
        "time": 0.07064627700000001,
        "traj_len": 3.0787198786654812,
        "weighted_distance": 4.330127629376216
    },
    "planner": "STRIDE",
    "start": {
        "state": {
            "elbow_joint": 1.9565354010623817,
            "shoulder_lift_joint": -1.4165861575791021,
            "shoulder_pan_joint": -1.6717766225146293,
            "wrist_1_joint": -0.5286633292919765,
            "wrist_2_joint": 1.472756589071564,
            "wrist_3_joint": -3.1238370188695823
        }
    },
    "waypoints": [
        {
            "positions": [
                -1.6717766225146293,
                -1.4165861575791021,
                1.9565354010623817,
                -0.5286633292919765,
                1.472756589071564,
                -3.1238370188695823
            ]
        },
        {
            "positions": [
                -1.5030162840385368,
                -1.4336150533442582,
                1.925108722149327,
                -0.537159907948223,
                1.5164428447230696,
                -3.0173803688887286
            ]
        },
        {
            "positions": [
                -1.3342559455624445,
                -1.4506439491094145,
                1.8936820432362722,
                -0.5456564866044695,
                1.5601291003745754,
                -2.910923718907875
            ]
        },
        {
            "positions": [
                -1.165495607086352,
                -1.4676728448745706,
                1.8622553643232176,
                -0.5541530652607161,
                1.603815356026081,
                -2.8044670689270212
            ]
        },
        {
            "positions": [
                -1.2617722754936056,
                -1.5174622475592612,
                1.8923205595976318,
                -0.5533069964864346,
                1.5447800056574106,
                -2.661534175980884
            ]
        },
        {
            "positions": [
                -1.358048943900859,
                -1.5672516502439517,
                1.9223857548720462,
                -0.5524609277121532,
                1.4857446552887401,
                -2.518601283034747
            ]
        },
        {
            "positions": [
                -1.4543256123081125,
                -1.617041052928642,
                1.9524509501464604,
                -0.5516148589378717,
                1.4267093049200696,
                -2.37566839008861
            ]
        },
        {
            "positions": [
                -1.550602280715366,
                -1.6668304556133327,
                1.9825161454208746,
                -0.5507687901635901,
                1.3676739545513992,
                -2.232735497142473
            ]
        },
        {
            "positions": [
                -1.6468789491226197,
                -1.7166198582980232,
                2.012581340695289,
                -0.5499227213893086,
                1.3086386041827287,
                -2.0898026041963353
            ]
        },
        {
            "positions": [
                -1.743155617529873,
                -1.7664092609827138,
                2.0426465359697032,
                -0.5490766526150272,
                1.2496032538140582,
                -1.9468697112501985
            ]
        },
        {
            "positions": [
                -1.8394322859371266,
                -1.8161986636674043,
                2.0727117312441172,
                -0.5482305838407457,
                1.1905679034453878,
                -1.8039368183040614
            ]
        },
        {
            "positions": [
                -1.9357089543443802,
                -1.8659880663520947,
                2.1027769265185317,
                -0.5473845150664642,
                1.1315325530767173,
                -1.661003925357924
            ]
        },
        {
            "positions": [
                -2.031985622751634,
                -1.9157774690367853,
                2.132842121792946,
                -0.5465384462921827,
                1.0724972027080466,
                -1.518071032411787
            ]
        },
        {
            "positions": [
                -2.128262291158887,
                -1.9655668717214758,
                2.16290731706736,
                -0.5456923775179013,
                1.0134618523393764,
                -1.3751381394656499
            ]
        },
        {
            "positions": [
                -2.2245389595661407,
                -2.0153562744061664,
                2.1929725123417745,
                -0.5448463087436198,
                0.9544265019707058,
                -1.2322052465195128
            ]
        },
        {
            "positions": [
                -2.2785216200969405,
                -1.9173120132576953,
                2.1658453516320195,
                -0.5225709251842784,
                0.9285085733545551,
                -1.392645507559819
            ]
        },
        {
            "positions": [
                -2.3325042806277403,
                -1.8192677521092242,
                2.1387181909222646,
                -0.500295541624937,
                0.9025906447384043,
                -1.5530857686001251
            ]
        },
        {
            "positions": [
                -2.38648694115854,
                -1.721223490960753,
                2.1115910302125096,
                -0.4780201580655955,
                0.8766727161222536,
                -1.7135260296404313
            ]
        },
        {
            "positions": [
                -2.4404696016893404,
                -1.623179229812282,
                2.0844638695027546,
                -0.4557447745062541,
                0.8507547875061029,
                -1.8739662906807375
            ]
        },
        {
            "positions": [
                -2.49445226222014,
                -1.525134968663811,
                2.0573367087929997,
                -0.43346939094691267,
                0.8248368588899522,
                -2.0344065517210437
            ]
        },
        {
            "positions": [
                -2.54843492275094,
                -1.4270907075153398,
                2.0302095480832447,
                -0.4111940073875712,
                0.7989189302738015,
                -2.19484681276135
            ]
        },
        {
            "positions": [
                -2.5333662814682842,
                -1.3744544970870896,
                2.0259062835158677,
                -0.4935756668286179,
                0.774695487675411,
                -2.3873981149081103
            ]
        },
        {
            "positions": [
                -2.518297640185628,
                -1.3218182866588395,
                2.0216030189484906,
                -0.5759573262696647,
                0.7504720450770206,
                -2.5799494170548702
            ]
        },
        {
            "positions": [
                -2.5032289989029723,
                -1.2691820762305892,
                2.017299754381114,
                -0.6583389857107113,
                0.7262486024786301,
                -2.7725007192016307
            ]
        },
        {
            "positions": [
                -2.488160357620316,
                -1.2165458658023391,
                2.012996489813737,
                -0.7407206451517581,
                0.7020251598802396,
                -2.9650520213483906
            ]
        },
        {
            "positions": [
                -2.4730917163376605,
                -1.1639096553740889,
                2.00869322524636,
                -0.8231023045928046,
                0.6778017172818492,
                -3.157603323495151
            ]
        }
    ]
}