{
    "goal": {
        "global_pose": {
            "orientation": {
                "w": 0.5084816262002911,
                "x": -0.4908360881923452,
                "y": 0.5182115481033761,
                "z": -0.48164630358495003
            },
            "position": {
                "x": 0.5540239810943604,
                "y": -0.46912469901144505,
                "z": 0.16403168439865112
            }
        },
        "name": "move_to_storage_B"
    },
    "id": "STRIDE_move_to_storage_B_143",
    "joint_names": [
        "shoulder_pan_joint",
        "shoulder_lift_joint",
        "elbow_joint",
        "wrist_1_joint",
        "wrist_2_joint",
        "wrist_3_joint"
    ],
    "metrics": {
        "cart_traj_len": 3.761810263147744,
        "distance_elbow_joint": 3.212856115590191,
        "distance_shoulder_lift_joint": 0.8544215344217712,
        "distance_shoulder_pan_joint": 2.8155928295530224,
        "distance_wrist_1_joint": 3.002308092935759,
        "distance_wrist_2_joint": 2.7125475509372388,
        "distance_wrist_3_joint": 3.6467726853091267,
        "smoothness": 0.2097386331719914,
        "time": 0.057348645999999996,
        "traj_len": 4.030446477593657,
        "weighted_distance": 5.408594995305005
    },
    "planner": "STRIDE",
    "start": {
        "state": {
            "elbow_joint": 1.664937868594044,
            "shoulder_lift_joint": -0.661644460510453,
            "shoulder_pan_joint": -0.9139846352900073,
            "wrist_1_joint": 2.146753192139373,
            "wrist_2_joint": -2.2341966793290973,
            "wrist_3_joint": 0.005466555786416001
        }
    },
    "waypoints": [
        {
            "positions": [
                -0.9139846352900073,
                -0.661644460510453,
                1.664937868594044,
                2.146753192139373,
                -2.2341966793290973,
                0.005466555786416001
            ]
        },
        {
            "positions": [
                -0.831659874673965,
                -0.6856616580032487,
                1.5959612822360412,
                2.0377560750340744,
                -2.1534405241698877,
                -0.00998379408070334
            ]
        },
        {
            "positions": [
                -0.7493351140579226,
                -0.7096788554960446,
                1.5269846958780386,
                1.9287589579287756,
                -2.072684369010678,
                -0.02543414394782268
            ]
        },
        {
            "positions": [
                -0.6670103534418803,
                -0.7336960529888403,
                1.4580081095200361,
                1.819761840823477,
                -1.991928213851469,
                -0.040884493814942025
            ]
        },
        {
            "positions": [
                -0.584685592825838,
                -0.7577132504816362,
                1.3890315231620334,
                1.7107647237181782,
                -1.9111720586922594,
                -0.05633484368206136
            ]
        },
        {
            "positions": [
                -0.5023608322097957,
                -0.7817304479744319,
                1.3200549368040306,
                1.6017676066128794,
                -1.83041590353305,
                -0.0717851935491807
            ]
        },
        {
            "positions": [
                -0.42003607159375334,
                -0.8057476454672277,
                1.251078350446028,
                1.4927704895075808,
                -1.7496597483738405,
                -0.08723554341630005
            ]
        },
        {
            "positions": [
                -0.337711310977711,
                -0.8297648429600235,
                1.1821017640880256,
                1.383773372402282,
                -1.668903593214631,
                -0.10268589328341939
            ]
        },
        {
            "positions": [
                -0.2553865503616687,
                -0.8537820404528192,
                1.1131251777300228,
                1.2747762552969832,
                -1.5881474380554215,
                -0.11813624315053872
            ]
        },
        {
            "positions": [
                -0.17306178974562636,
                -0.877799237945615,
                1.04414859137202,
                1.1657791381916844,
                -1.5073912828962122,
                -0.13358659301765807
            ]
        },
        {
            "positions": [
                -0.09073702912958403,
                -0.9018164354384108,
                0.9751720050140176,
                1.0567820210863856,
                -1.4266351277370026,
                -0.1490369428847774
            ]
        },
        {
            "positions": [
                -0.00841226851354171,
                -0.9258336329312066,
                0.9061954186560149,
                0.9477849039810871,
                -1.3458789725777933,
                -0.16448729275189675
            ]
        },
        {
            "positions": [
                0.07391249210250062,
                -0.9498508304240023,
                0.8372188322980123,
                0.8387877868757883,
                -1.2651228174185838,
                -0.1799376426190161
            ]
        },
        {
            "positions": [
                0.15623725271854305,
                -0.9738680279167982,
                0.7682422459400097,
                0.7297906697704895,
                -1.1843666622593743,
                -0.19538799248613542
            ]
        },
        {
            "positions": [
                0.23856201333458527,
                -0.9978852254095939,
                0.699265659582007,
                0.6207935526651909,
                -1.1036105071001647,
                -0.21083834235325477
            ]
        },
        {
            "positions": [
                0.3208867739506275,
                -1.0219024229023896,
                0.6302890732240045,
                0.5117964355598921,
                -1.0228543519409554,
                -0.2262886922203741
            ]
        },
        {
            "positions": [
                0.4032115345666698,
                -1.0459196203951855,
                0.5613124868660017,
                0.4027993184545932,
                -0.9420981967817459,
                -0.24173904208749344
            ]
        },
        {
            "positions": [
                0.3531323246066331,
                -1.068719436694048,
                0.5342055536536935,
                0.29983077843565675,
                -0.8298090351292342,
                -0.16458430971985163
            ]
        },
        {
            "positions": [
                0.3030531146465964,
                -1.0915192529929105,
                0.5070986204413852,
                0.19686223841672024,
                -0.7175198734767225,
                -0.08742957735220983
            ]
        },
        {
            "positions": [
                0.25297390468655967,
                -1.114319069291773,
                0.47999168722907704,
                0.09389369839778372,
                -0.6052307118242107,
                -0.010274844984568016
            ]
        },
        {
            "positions": [
                0.20289469472652297,
                -1.1371188855906356,
                0.45288475401676886,
                -0.00907484162115274,
                -0.49294155017169905,
                0.0668798873830738
            ]
        },
        {
            "positions": [
                0.1528154847664862,
                -1.159918701889498,
                0.4257778208044606,
                -0.11204338164008926,
                -0.38065238851918726,
                0.1440346197507156
            ]
        },
        {
            "positions": [
                0.10273627480644953,
                -1.1827185181883606,
                0.3986708875921524,
                -0.21501192165902577,
                -0.2683632268666756,
                0.2211893521183574
            ]
        },
        {
            "positions": [
                0.052657064846412804,
                -1.2055183344872231,
                0.3715639543798442,
                -0.3179804616779623,
                -0.15607406521416378,
                0.29834408448599925
            ]
        },
        {
            "positions": [
                0.0025778548863761297,
                -1.2283181507860856,
                0.344457021167536,
                -0.4209490016968987,
                -0.04378490356165221,
                0.37549881685364106
            ]
        },
        {
            "positions": [
                -0.0475013550736606,
                -1.2511179670849482,
                0.3173500879552278,
                -0.5239175417158353,
                0.06850425809085947,
                0.45265354922128287
            ]
        },
        {
            "positions": [
                -0.09758056503369739,
                -1.2739177833838107,
                0.29024315474291956,
                -0.6268860817347717,
                0.18079341974337138,
                0.5298082815889247
            ]
        },
        {
            "positions": [
                -0.14765977499373395,
                -1.2967175996826732,
                0.2631362215306114,
                -0.7298546217537081,
                0.29308258139588306,
                0.6069630139565665
            ]
        },
        {
            "positions": [
                -0.19773898495377074,
                -1.3195174159815357,
                0.2360292883183032,
                -0.8328231617726447,
                0.40537174304839463,
                0.6841177463242083
            ]
        },
        {
            "positions": [
                -0.26184228068062104,
                -1.3054782317707723,
                0.3634541122693353,
                -0.8344468574171978,
                0.41058453794551936,
                0.8608113391116023
            ]
        },
        {
            "positions": [
                -0.32594557640747135,
                -1.2914390475600088,
                0.4908789362203675,
                -0.8360705530617508,
                0.41579733284264414,
                1.0375049318989964
            ]
        },
        {
            "positions": [
                -0.3900488721343216,
                -1.2773998633492454,
                0.6183037601713997,
                -0.8376942487063039,
                0.42101012773976887,
                1.2141985246863904
            ]
        },
        {
            "positions": [
                -0.4541521678611719,
                -1.263360679138482,
                0.7457285841224318,
                -0.8393179443508569,
                0.4262229226368936,
                1.3908921174737845
            ]
        },
        {
            "positions": [
                -0.5182554635880222,
                -1.2493214949277185,
                0.8731534080734641,
                -0.84094163999541,
                0.4314357175340184,
                1.5675857102611785
            ]
        },
        {
            "positions": [
                -0.5823587593148725,
                -1.235282310716955,
                1.0005782320244963,
                -0.842565335639963,
                0.4366485124311431,
                1.7442793030485724
            ]
        },
        {
            "positions": [
                -0.6464620550417228,
                -1.2212431265061916,
                1.1280030559755285,
                -0.8441890312845162,
                0.4418613073282679,
                1.9209728958359664
            ]
        },
        {
            "positions": [
                -0.7105653507685731,
                -1.207203942295428,
                1.2554278799265606,
                -0.8458127269290693,
                0.4470741022253926,
                2.0976664886233607
            ]
        },
        {
            "positions": [
                -0.7746686464954234,
                -1.1931647580846645,
                1.382852703877593,
                -0.8474364225736223,
                0.45228689712251735,
                2.2743600814107543
            ]
        },
        {
            "positions": [
                -0.8387719422222737,
                -1.179125573873901,
                1.5102775278286251,
                -0.8490601182181754,
                0.45749969201964213,
                2.451053674198149
            ]
        },
        {
            "positions": [
                -0.902875237949124,
                -1.1650863896631376,
                1.6377023517796572,
                -0.8506838138627284,
                0.46271248691676686,
                2.6277472669855424
            ]
        },
        {
            "positions": [
                -0.9669785336759743,
                -1.1510472054523742,
                1.7651271757306892,
                -0.8523075095072815,
                0.4679252818138916,
                2.8044408597729364
            ]
        },
        {
            "positions": [
                -1.0310818294028246,
                -1.1370080212416107,
                1.8925519996817217,
                -0.8539312051518345,
                0.4731380767110164,
                2.9811344525603305
            ]
        },
        {
            "positions": [
                -1.095185125129675,
                -1.1229688370308473,
                2.0199768236327538,
                -0.8555549007963876,
                0.4783508716081411,
                3.1578280453477245
            ]
        }
    ]
}