{
    "goal": {
        "global_pose": {
            "orientation": {
                "w": 0.7031023480610252,
                "x": -0.7110244013736278,
                "y": 0.0077485991402295624,
                "z": 0.005598929693374583
            },
            "position": {
                "x": -0.8841497679147869,
                "y": 0.44412534475326537,
                "z": 0.3711530566215515
            }
        },
        "name": "move_to_auspresseinheit_D"
    },
    "id": "STRIDE_move_to_auspresseinheit_D_38",
    "joint_names": [
        "shoulder_pan_joint",
        "shoulder_lift_joint",
        "elbow_joint",
        "wrist_1_joint",
        "wrist_2_joint",
        "wrist_3_joint"
    ],
    "metrics": {
        "cart_traj_len": 0.3421048408842325,
        "distance_elbow_joint": 0.6285022557426463,
        "distance_shoulder_lift_joint": 0.11663152928715359,
        "distance_shoulder_pan_joint": 0.1337276645668999,
        "distance_wrist_1_joint": 0.5010274765309797,
        "distance_wrist_2_joint": 1.439682547835577,
        "distance_wrist_3_joint": 0.020610901817136984,
        "smoothness": 0.0,
        "time": 0.080460984,
        "traj_len": 1.685284063824373,
        "weighted_distance": 2.1959312839388265
    },
    "planner": "STRIDE",
    "start": {
        "state": {
            "elbow_joint": -1.8275523626775212,
            "shoulder_lift_joint": -2.126789852344167,
            "shoulder_pan_joint": -0.03513704404078235,
            "wrist_1_joint": -2.347782403156801,
            "wrist_2_joint": -1.6058999987535132,
            "wrist_3_joint": -3.0880379163319196
        }
    },
    "waypoints": [
        {
            "positions": [
                -0.03513704404078235,
                -2.126789852344167,
                -1.8275523626775212,
                -2.347782403156801,
                -1.6058999987535132,
                -3.0880379163319196
            ]
        },
        {
            "positions": [
                -0.05185300211164484,
                -2.141368793505061,
                -1.7489895807096905,
                -2.410410837723173,
                -1.425939680274066,
                -3.0906142790590616
            ]
        },
        {
            "positions": [
                -0.06856896018250733,
                -2.155947734665955,
                -1.6704267987418597,
                -2.4730392722895456,
                -1.2459793617946189,
                -3.0931906417862036
            ]
        },
        {
            "positions": [
                -0.08528491825336981,
                -2.1705266758268493,
                -1.5918640167740288,
                -2.5356677068559184,
                -1.0660190433151717,
                -3.095767004513346
            ]
        },
        {
            "positions": [
                -0.1020008763242323,
                -2.1851056169877436,
                -1.513301234806198,
                -2.5982961414222907,
                -0.8860587248357247,
                -3.098343367240488
            ]
        },
        {
            "positions": [
                -0.11871683439509478,
                -2.199684558148638,
                -1.4347384528383673,
                -2.660924575988663,
                -0.7060984063562775,
                -3.10091972996763
            ]
        },
        {
            "positions": [
                -0.1354327924659573,
                -2.2142634993095323,
                -1.3561756708705364,
                -2.723553010555036,
                -0.5261380878768305,
                -3.1034960926947726
            ]
        },
        {
            "positions": [
                -0.15214875053681978,
                -2.228842440470426,
                -1.2776128889027056,
                -2.786181445121408,
                -0.3461777693973833,
                -3.1060724554219146
            ]
        },
        {
            "positions": [
                -0.16886470860768227,
                -2.2434213816313204,
                -1.199050106934875,
                -2.8488098796877805,
                -0.16621745091793613,
                -3.1086488181490566
            ]
        }
    ]
}