{
    "goal": {
        "global_pose": {
            "orientation": {
                "w": 0.7047431468963623,
                "x": -0.7094548344612122,
                "y": 0.0024358443915843964,
                "z": -0.0022348060738295317
            },
            "position": {
                "x": 0.6094750761985779,
                "y": 0.3671506643295288,
                "z": 0.19426114857196808
            }
        },
        "name": "move_to_magneteinheit_A"
    },
    "id": "STRIDE_move_to_magneteinheit_A_16",
    "joint_names": [
        "shoulder_pan_joint",
        "shoulder_lift_joint",
        "elbow_joint",
        "wrist_1_joint",
        "wrist_2_joint",
        "wrist_3_joint"
    ],
    "metrics": {
        "cart_traj_len": 4.050807182314133,
        "distance_elbow_joint": 3.8815858044134153,
        "distance_shoulder_lift_joint": 0.8272498649929223,
        "distance_shoulder_pan_joint": 4.923310310270519,
        "distance_wrist_1_joint": 0.8107924691968635,
        "distance_wrist_2_joint": 1.6997583850048437,
        "distance_wrist_3_joint": 3.6649831094758363,
        "smoothness": 0.20113575394830605,
        "time": 0.10791211399999999,
        "traj_len": 3.975887315223407,
        "weighted_distance": 5.064404902504121
    },
    "planner": "STRIDE",
    "start": {
        "state": {
            "elbow_joint": -1.9196185241190666,
            "shoulder_lift_joint": -1.2443396400964142,
            "shoulder_pan_joint": 2.6996025414629847,
            "wrist_1_joint": -1.5485510000780065,
            "wrist_2_joint": -1.5709468930060704,
            "wrist_3_joint": 0.4420197071253992
        }
    },
    "waypoints": [
        {
            "positions": [
                2.6996025414629847,
                -1.2443396400964142,
                -1.9196185241190666,
                -1.5485510000780065,
                -1.5709468930060704,
                0.4420197071253992
            ]
        },
        {
            "positions": [
                2.560714888315499,
                -1.2576140060524794,
                -1.7827478771870604,
                -1.5371017358457895,
                -1.5690420151761284,
                0.3563999310666157
            ]
        },
        {
            "positions": [
                2.4218272351680135,
                -1.2708883720085449,
                -1.6458772302550542,
                -1.5256524716135722,
                -1.5671371373461866,
                0.27078015500783226
            ]
        },
        {
            "positions": [
                2.2829395820205276,
                -1.2841627379646101,
                -1.509006583323048,
                -1.5142032073813552,
                -1.5652322595162447,
                0.18516037894904885
            ]
        },
        {
            "positions": [
                2.144051928873042,
                -1.2974371039206753,
                -1.3721359363910417,
                -1.5027539431491381,
                -1.563327381686303,
                0.0995406028902654
            ]
        },
        {
            "positions": [
                2.0051642757255563,
                -1.3107114698767408,
                -1.2352652894590355,
                -1.4913046789169209,
                -1.561422503856361,
                0.013920826831481992
            ]
        },
        {
            "positions": [
                1.8662766225780707,
                -1.323985835832806,
                -1.0983946425270292,
                -1.4798554146847038,
                -1.5595176260264192,
                -0.07169894922730147
            ]
        },
        {
            "positions": [
                1.727388969430585,
                -1.3372602017888713,
                -0.9615239955950232,
                -1.4684061504524868,
                -1.5576127481964772,
                -0.15731872528608493
            ]
        },
        {
            "positions": [
                1.5885013162830994,
                -1.3505345677449367,
                -0.824653348663017,
                -1.4569568862202695,
                -1.5557078703665355,
                -0.24293850134486838
            ]
        },
        {
            "positions": [
                1.4496136631356138,
                -1.363808933701002,
                -0.6877827017310107,
                -1.4455076219880525,
                -1.5538029925365935,
                -0.32855827740365184
            ]
        },
        {
            "positions": [
                1.310726009988128,
                -1.3770832996570672,
                -0.5509120547990045,
                -1.4340583577558355,
                -1.5518981147066517,
                -0.4141780534624352
            ]
        },
        {
            "positions": [
                1.1718383568406423,
                -1.3903576656131327,
                -0.4140414078669983,
                -1.4226090935236182,
                -1.5499932368767098,
                -0.49979782952121865
            ]
        },
        {
            "positions": [
                1.0329507036931567,
                -1.403632031569198,
                -0.27717076093499204,
                -1.4111598292914012,
                -1.548088359046768,
                -0.5854176055800021
            ]
        },
        {
            "positions": [
                0.894063050545671,
                -1.4169063975252632,
                -0.1403001140029858,
                -1.3997105650591841,
                -1.546183481216826,
                -0.6710373816387855
            ]
        },
        {
            "positions": [
                0.7551753973981854,
                -1.4301807634813286,
                -0.003429467070979797,
                -1.3882613008269669,
                -1.5442786033868843,
                -0.756657157697569
            ]
        },
        {
            "positions": [
                0.6162877442506995,
                -1.4434551294373938,
                0.13344117986102688,
                -1.3768120365947498,
                -1.5423737255569423,
                -0.8422769337563526
            ]
        },
        {
            "positions": [
                0.47740009110321413,
                -1.456729495393459,
                0.2703118267930327,
                -1.3653627723625328,
                -1.5404688477270005,
                -0.927896709815136
            ]
        },
        {
            "positions": [
                0.3385124379557283,
                -1.4700038613495245,
                0.40718247372503935,
                -1.3539135081303155,
                -1.5385639698970586,
                -1.0135164858739194
            ]
        },
        {
            "positions": [
                0.19962478480824286,
                -1.4832782273055898,
                0.5440531206570451,
                -1.3424642438980985,
                -1.5366590920671168,
                -1.0991362619327028
            ]
        },
        {
            "positions": [
                0.060737131660757004,
                -1.496552593261655,
                0.6809237675890514,
                -1.3310149796658814,
                -1.5347542142371748,
                -1.1847560379914865
            ]
        },
        {
            "positions": [
                -0.07815052148672885,
                -1.5098269592177203,
                0.8177944145210576,
                -1.3195657154336642,
                -1.532849336407233,
                -1.2703758140502694
            ]
        },
        {
            "positions": [
                -0.2170381746342147,
                -1.5231013251737857,
                0.9546650614530638,
                -1.3081164512014472,
                -1.5309444585772911,
                -1.3559955901090532
            ]
        },
        {
            "positions": [
                -0.3559258277817001,
                -1.536375691129851,
                1.09153570838507,
                -1.2966671869692301,
                -1.5290395807473494,
                -1.4416153661678366
            ]
        },
        {
            "positions": [
                -0.494813480929186,
                -1.5496500570859164,
                1.2284063553170763,
                -1.2852179227370129,
                -1.5271347029174074,
                -1.52723514222662
            ]
        },
        {
            "positions": [
                -0.6337011340766714,
                -1.5629244230419816,
                1.3652770022490825,
                -1.2737686585047958,
                -1.5252298250874656,
                -1.6128549182854033
            ]
        },
        {
            "positions": [
                -0.7725887872241572,
                -1.5761987889980469,
                1.5021476491810888,
                -1.2623193942725788,
                -1.5233249472575237,
                -1.698474694344187
            ]
        },
        {
            "positions": [
                -0.9114764403716427,
                -1.5894731549541121,
                1.639018296113095,
                -1.2508701300403615,
                -1.521420069427582,
                -1.78409447040297
            ]
        },
        {
            "positions": [
                -1.0503640935191285,
                -1.6027475209101776,
                1.7758889430451013,
                -1.2394208658081445,
                -1.51951519159764,
                -1.869714246461754
            ]
        },
        {
            "positions": [
                -0.9665538309985282,
                -1.5692588077545233,
                1.789180252848619,
                -1.2035878418847872,
                -1.4017775713407532,
                -1.9663749004538027
            ]
        },
        {
            "positions": [
                -0.882743568477928,
                -1.5357700945988693,
                1.8024715626521364,
                -1.1677548179614299,
                -1.2840399510838667,
                -2.0630355544458516
            ]
        },
        {
            "positions": [
                -0.7989333059573278,
                -1.502281381443215,
                1.815762872455654,
                -1.1319217940380728,
                -1.16630233082698,
                -2.1596962084379
            ]
        },
        {
            "positions": [
                -0.7151230434367275,
                -1.4687926682875607,
                1.8290541822591715,
                -1.0960887701147155,
                -1.0485647105700933,
                -2.256356862429949
            ]
        },
        {
            "positions": [
                -0.6313127809161272,
                -1.4353039551319065,
                1.8423454920626892,
                -1.0602557461913582,
                -0.9308270903132067,
                -2.353017516421998
            ]
        },
        {
            "positions": [
                -0.547502518395527,
                -1.4018152419762524,
                1.8556368018662066,
                -1.024422722268001,
                -0.81308947005632,
                -2.4496781704140465
            ]
        },
        {
            "positions": [
                -0.4636922558749267,
                -1.3683265288205981,
                1.8689281116697243,
                -0.9885896983446437,
                -0.6953518497994333,
                -2.5463388244060954
            ]
        },
        {
            "positions": [
                -0.3798819933543265,
                -1.3348378156649439,
                1.882219421473242,
                -0.9527566744212865,
                -0.5776142295425467,
                -2.642999478398144
            ]
        },
        {
            "positions": [
                -0.29607173083372607,
                -1.3013491025092896,
                1.8955107312767594,
                -0.9169236504979292,
                -0.4598766092856599,
                -2.739660132390193
            ]
        },
        {
            "positions": [
                -0.21226146831312587,
                -1.2678603893536355,
                1.908802041080277,
                -0.8810906265745719,
                -0.3421389890287734,
                -2.8363207863822417
            ]
        },
        {
            "positions": [
                -0.12845120579252567,
                -1.2343716761979813,
                1.9220933508837945,
                -0.8452576026512147,
                -0.22440136877188666,
                -2.93298144037429
            ]
        },
        {
            "positions": [
                -0.04464094327192547,
                -1.2008829630423272,
                1.9353846606873122,
                -0.8094245787278576,
                -0.10666374851500016,
                -3.0296420943663387
            ]
        },
        {
            "positions": [
                0.03916931924867484,
                -1.167394249886673,
                1.9486759704908296,
                -0.7735915548045003,
                0.011073871741886787,
                -3.1263027483583876
            ]
        },
        {
            "positions": [
                0.12297958176927518,
                -1.1339055367310187,
                1.9619672802943473,
                -0.737758530881143,
                0.12881149199877331,
                -3.2229634023504365
            ]
        }
    ]
}