{
    "goal": {
        "global_pose": {
            "orientation": {
                "w": 0.7047431493862688,
                "x": -0.7094548369677653,
                "y": 0.0024358444001904,
                "z": -0.0022348060817251984
            },
            "position": {
                "x": -0.39052492380142206,
                "y": 0.3671506643295288,
                "z": 0.19426114857196808
            }
        },
        "name": "move_to_magneteinheit_D"
    },
    "id": "STRIDE_move_to_magneteinheit_D_112",
    "joint_names": [
        "shoulder_pan_joint",
        "shoulder_lift_joint",
        "elbow_joint",
        "wrist_1_joint",
        "wrist_2_joint",
        "wrist_3_joint"
    ],
    "metrics": {
        "cart_traj_len": 5.5460408447346525,
        "distance_elbow_joint": 3.1211873238803496,
        "distance_shoulder_lift_joint": 1.6363333535292817,
        "distance_shoulder_pan_joint": 5.343048861352123,
        "distance_wrist_1_joint": 1.8740240502378778,
        "distance_wrist_2_joint": 1.6297290058117864,
        "distance_wrist_3_joint": 3.1232940130248386,
        "smoothness": 0.7785932789390556,
        "time": 0.589250303,
        "traj_len": 4.089940905176536,
        "weighted_distance": 5.145673686694056
    },
    "planner": "STRIDE",
    "start": {
        "state": {
            "elbow_joint": 0.749534889911806,
            "shoulder_lift_joint": -0.6476975780787326,
            "shoulder_pan_joint": -2.711696901376241,
            "wrist_1_joint": -0.07506478083263063,
            "wrist_2_joint": 0.43296659715538205,
            "wrist_3_joint": -3.14703540197715
        }
    },
    "waypoints": [
        {
            "positions": [
                -2.711696901376241,
                -0.6476975780787326,
                0.749534889911806,
                -0.07506478083263063,
                0.43296659715538205,
                -3.14703540197715
            ]
        },
        {
            "positions": [
                -2.7477133702934067,
                -0.6834772205627775,
                0.7303584522089873,
                -0.037284409785904526,
                0.32358091701037317,
                -3.04590539001589
            ]
        },
        {
            "positions": [
                -2.7393295499634496,
                -0.7539871519419318,
                0.7049549854430466,
                -0.10381222288300962,
                0.39036541399567215,
                -3.044290271679805
            ]
        },
        {
            "positions": [
                -2.730945729633492,
                -0.8244970833210861,
                0.6795515186771058,
                -0.1703400359801147,
                0.4571499109809712,
                -3.0426751533437195
            ]
        },
        {
            "positions": [
                -2.6003322766159402,
                -0.8704652575200769,
                0.5915089827669298,
                -0.13219639525734997,
                0.42930780670934543,
                -2.9833006250321596
            ]
        },
        {
            "positions": [
                -2.469718823598388,
                -0.9164334317190678,
                0.5034664468567538,
                -0.09405275453458521,
                0.40146570243771973,
                -2.9239260967205993
            ]
        },
        {
            "positions": [
                -2.3391053705808362,
                -0.9624016059180587,
                0.41542391094657777,
                -0.055909113811820454,
                0.373623598166094,
                -2.8645515684090395
            ]
        },
        {
            "positions": [
                -2.2084919175632844,
                -1.0083697801170495,
                0.32738137503640174,
                -0.01776547308905571,
                0.3457814938944682,
                -2.8051770400974796
            ]
        },
        {
            "positions": [
                -2.0778784645457327,
                -1.0543379543160403,
                0.23933883912622572,
                0.020378167633709032,
                0.3179393896228425,
                -2.7458025117859197
            ]
        },
        {
            "positions": [
                -1.9472650115281804,
                -1.1003061285150313,
                0.1512963032160497,
                0.0585218083564738,
                0.29009728535121676,
                -2.6864279834743594
            ]
        },
        {
            "positions": [
                -1.8166515585106287,
                -1.146274302714022,
                0.06325376730587362,
                0.09666544907923852,
                0.262255181079591,
                -2.6270534551627995
            ]
        },
        {
            "positions": [
                -1.6860381054930766,
                -1.1922424769130129,
                -0.024788768604302347,
                0.1348090898020033,
                0.23441307680796528,
                -2.5676789268512397
            ]
        },
        {
            "positions": [
                -1.5554246524755249,
                -1.2382106511120037,
                -0.11283130451447843,
                0.172952730524768,
                0.20657097253633955,
                -2.5083043985396793
            ]
        },
        {
            "positions": [
                -1.4248111994579729,
                -1.2841788253109945,
                -0.2008738404246544,
                0.21109637124753278,
                0.17872886826471385,
                -2.4489298702281195
            ]
        },
        {
            "positions": [
                -1.294197746440421,
                -1.3301469995099855,
                -0.28891637633483036,
                0.2492400119702975,
                0.1508867639930881,
                -2.3895553419165596
            ]
        },
        {
            "positions": [
                -1.1635842934228688,
                -1.3761151737089765,
                -0.37695891224500644,
                0.2873836526930623,
                0.12304465972146233,
                -2.3301808136049993
            ]
        },
        {
            "positions": [
                -1.032970840405317,
                -1.422083347907967,
                -0.46500144815518263,
                0.32552729341582703,
                0.09520255544983658,
                -2.2708062852934394
            ]
        },
        {
            "positions": [
                -0.902357387387765,
                -1.468051522106958,
                -0.5530439840653586,
                0.36367093413859175,
                0.06736045117821088,
                -2.2114317569818795
            ]
        },
        {
            "positions": [
                -0.7717439343702133,
                -1.514019696305949,
                -0.6410865199755346,
                0.4018145748613565,
                0.03951834690658512,
                -2.1520572286703192
            ]
        },
        {
            "positions": [
                -0.6411304813526613,
                -1.5599878705049397,
                -0.7291290558857105,
                0.4399582155841213,
                0.011676242634959366,
                -2.0926827003587594
            ]
        },
        {
            "positions": [
                -0.5105170283351095,
                -1.6059560447039307,
                -0.8171715917958865,
                0.47810185630688595,
                -0.016165861636666334,
                -2.0333081720471995
            ]
        },
        {
            "positions": [
                -0.3799035753175577,
                -1.6519242189029213,
                -0.9052141277060627,
                0.5162454970296507,
                -0.04400796590829209,
                -1.9739336437356394
            ]
        },
        {
            "positions": [
                -0.2492901223000059,
                -1.6978923931019123,
                -0.9932566636162387,
                0.5543891377524155,
                -0.07185007017991779,
                -1.9145591154240795
            ]
        },
        {
            "positions": [
                -0.11867666928245368,
                -1.743860567300903,
                -1.0812991995264145,
                0.5925327784751803,
                -0.09969217445154349,
                -1.8551845871125194
            ]
        },
        {
            "positions": [
                0.0119367837350981,
                -1.789828741499894,
                -1.1693417354365905,
                0.6306764191979449,
                -0.1275342787231693,
                -1.7958100588009596
            ]
        },
        {
            "positions": [
                0.14255023675264988,
                -1.835796915698885,
                -1.2573842713467664,
                0.6688200599207097,
                -0.155376382994795,
                -1.7364355304893995
            ]
        },
        {
            "positions": [
                0.2731636897702021,
                -1.8817650898978757,
                -1.3454268072569429,
                0.7069637006434746,
                -0.18321848726642082,
                -1.6770610021778394
            ]
        },
        {
            "positions": [
                0.40377714278775434,
                -1.9277332640968667,
                -1.4334693431671188,
                0.7451073413662394,
                -0.21106059153804652,
                -1.6176864738662793
            ]
        },
        {
            "positions": [
                0.5343905958053061,
                -1.9737014382958575,
                -1.5215118790772952,
                0.783250982089004,
                -0.23890269580967233,
                -1.5583119455547194
            ]
        },
        {
            "positions": [
                0.6650040488228579,
                -2.019669612494848,
                -1.6095544149874712,
                0.8213946228117688,
                -0.26674480008129803,
                -1.4989374172431593
            ]
        },
        {
            "positions": [
                0.7956175018404097,
                -2.065637786693839,
                -1.6975969508976472,
                0.8595382635345336,
                -0.29458690435292373,
                -1.4395628889315994
            ]
        },
        {
            "positions": [
                0.9262309548579619,
                -2.11160596089283,
                -1.7856394868078231,
                0.8976819042572982,
                -0.32242900862454943,
                -1.3801883606200394
            ]
        },
        {
            "positions": [
                1.0568444078755137,
                -2.1575741350918207,
                -1.873682022717999,
                0.9358255449800631,
                -0.35027111289617524,
                -1.3208138323084795
            ]
        },
        {
            "positions": [
                1.1874578608930655,
                -2.2035423092908117,
                -1.961724558628175,
                0.9739691857028276,
                -0.378113217167801,
                -1.2614393039969194
            ]
        },
        {
            "positions": [
                1.0627432098704759,
                -2.2108594567741937,
                -1.998990729113663,
                1.0247763521859186,
                -0.3279758350271275,
                -1.1489213117201367
            ]
        },
        {
            "positions": [
                0.938028558847886,
                -2.2181766042575757,
                -2.036256899599151,
                1.0755835186690093,
                -0.27783845288645403,
                -1.0364033194433542
            ]
        },
        {
            "positions": [
                0.8133139078252964,
                -2.225493751740958,
                -2.073523070084639,
                1.1263906851521002,
                -0.22770107074578055,
                -0.9238853271665716
            ]
        },
        {
            "positions": [
                0.6885992568027067,
                -2.23281089922434,
                -2.1107892405701274,
                1.1771978516351909,
                -0.17756368860510705,
                -0.811367334889789
            ]
        },
        {
            "positions": [
                0.5638846057801171,
                -2.240128046707722,
                -2.1480554110556156,
                1.2280050181182818,
                -0.1274263064644336,
                -0.6988493426130064
            ]
        },
        {
            "positions": [
                0.4391699547575274,
                -2.247445194191104,
                -2.1853215815411033,
                1.2788121846013725,
                -0.07728892432376011,
                -0.5863313503362237
            ]
        },
        {
            "positions": [
                0.3144553037349377,
                -2.254762341674486,
                -2.2225877520265915,
                1.3296193510844634,
                -0.027151542183086574,
                -0.473813358059441
            ]
        },
        {
            "positions": [
                0.18974065271234797,
                -2.262079489157868,
                -2.2598539225120797,
                1.380426517567554,
                0.022985839957586907,
                -0.3612953657826584
            ]
        },
        {
            "positions": [
                0.06502600168975814,
                -2.2693966366412504,
                -2.297120092997568,
                1.431233684050645,
                0.07312322209826039,
                -0.2487773735058758
            ]
        },
        {
            "positions": [
                -0.059688649332831245,
                -2.2767137841246323,
                -2.3343862634830557,
                1.482040850533736,
                0.12326060423893381,
                -0.1362593812290933
            ]
        },
        {
            "positions": [
                -0.184403300355421,
                -2.2840309316080143,
                -2.371652433968544,
                1.5328480170168266,
                0.1733979863796073,
                -0.0237413889523107
            ]
        }
    ]
}