{
    "goal": {
        "global_pose": {
            "orientation": {
                "w": 0.7047431493862688,
                "x": -0.7094548369677653,
                "y": 0.0024358444001904,
                "z": -0.0022348060817251984
            },
            "position": {
                "x": -0.39052492380142206,
                "y": 0.3671506643295288,
                "z": 0.19426114857196808
            }
        },
        "name": "move_to_magneteinheit_D"
    },
    "id": "STRIDE_move_to_magneteinheit_D_147",
    "joint_names": [
        "shoulder_pan_joint",
        "shoulder_lift_joint",
        "elbow_joint",
        "wrist_1_joint",
        "wrist_2_joint",
        "wrist_3_joint"
    ],
    "metrics": {
        "cart_traj_len": 5.300038340242399,
        "distance_elbow_joint": 3.1145775773379336,
        "distance_shoulder_lift_joint": 1.0971345022756727,
        "distance_shoulder_pan_joint": 4.294615826585075,
        "distance_wrist_1_joint": 2.0914977172470226,
        "distance_wrist_2_joint": 1.1207690060031195,
        "distance_wrist_3_joint": 6.291852805988555,
        "smoothness": 0.22028241474884488,
        "time": 0.303924872,
        "traj_len": 4.243871750587825,
        "weighted_distance": 5.8143288323472575
    },
    "planner": "STRIDE",
    "start": {
        "state": {
            "elbow_joint": 0.749534889911806,
            "shoulder_lift_joint": -0.6476975780787326,
            "shoulder_pan_joint": -2.711696901376241,
            "wrist_1_joint": -0.07506478083263063,
            "wrist_2_joint": 0.43296659715538205,
            "wrist_3_joint": -3.14703540197715
        }
    },
    "waypoints": [
        {
            "positions": [
                -2.711696901376241,
                -0.6476975780787326,
                0.749534889911806,
                -0.07506478083263063,
                0.43296659715538205,
                -3.14703540197715
            ]
        },
        {
            "positions": [
                -2.707646261454794,
                -0.6953844027840025,
                0.6337151630784119,
                -0.15728333773807981,
                0.438059740758058,
                -3.122328001743513
            ]
        },
        {
            "positions": [
                -2.7035956215333465,
                -0.7430712274892723,
                0.5178954362450179,
                -0.239501894643529,
                0.44315288436073397,
                -3.0976206015098757
            ]
        },
        {
            "positions": [
                -2.611646582670051,
                -0.7677673001384232,
                0.467362543930802,
                -0.2813036380655442,
                0.41975347697267934,
                -2.9414034918726797
            ]
        },
        {
            "positions": [
                -2.5196975438067555,
                -0.7924633727875741,
                0.41682965161658614,
                -0.32310538148755946,
                0.3963540695846247,
                -2.785186382235484
            ]
        },
        {
            "positions": [
                -2.4277485049434597,
                -0.8171594454367248,
                0.36629675930237027,
                -0.36490712490957466,
                0.3729546621965701,
                -2.628969272598288
            ]
        },
        {
            "positions": [
                -2.3357994660801644,
                -0.8418555180858757,
                0.3157638669881544,
                -0.4067088683315899,
                0.34955525480851546,
                -2.472752162961092
            ]
        },
        {
            "positions": [
                -2.2438504272168687,
                -0.8665515907350265,
                0.2652309746739385,
                -0.4485106117536051,
                0.3261558474204608,
                -2.3165350533238964
            ]
        },
        {
            "positions": [
                -2.1519013883535734,
                -0.8912476633841773,
                0.21469808235972265,
                -0.49031235517562033,
                0.3027564400324062,
                -2.1603179436867004
            ]
        },
        {
            "positions": [
                -2.0599523494902776,
                -0.9159437360333282,
                0.16416519004550678,
                -0.5321140985976356,
                0.2793570326443515,
                -2.0041008340495043
            ]
        },
        {
            "positions": [
                -1.968003310626982,
                -0.940639808682479,
                0.11363229773129091,
                -0.5739158420196508,
                0.2559576252562969,
                -1.8478837244123085
            ]
        },
        {
            "positions": [
                -1.8760542717636866,
                -0.9653358813316298,
                0.0630994054170751,
                -0.6157175854416661,
                0.23255821786824227,
                -1.6916666147751125
            ]
        },
        {
            "positions": [
                -1.784105232900391,
                -0.9900319539807807,
                0.012566513102859167,
                -0.6575193288636813,
                0.20915881048018764,
                -1.5354495051379167
            ]
        },
        {
            "positions": [
                -1.6921561940370955,
                -1.0147280266299314,
                -0.037966379211356704,
                -0.6993210722856964,
                0.185759403092133,
                -1.3792323955007209
            ]
        },
        {
            "positions": [
                -1.6002071551738,
                -1.0394240992790822,
                -0.08849927152557258,
                -0.7411228157077117,
                0.16235999570407839,
                -1.2230152858635248
            ]
        },
        {
            "positions": [
                -1.5082581163105044,
                -1.0641201719282332,
                -0.13903216383978845,
                -0.7829245591297269,
                0.13896058831602376,
                -1.066798176226329
            ]
        },
        {
            "positions": [
                -1.416309077447209,
                -1.0888162445773841,
                -0.18956505615400432,
                -0.8247263025517422,
                0.11556118092796913,
                -0.910581066589133
            ]
        },
        {
            "positions": [
                -1.3243600385839132,
                -1.1135123172265349,
                -0.2400979484682202,
                -0.8665280459737573,
                0.09216177353991445,
                -0.7543639569519374
            ]
        },
        {
            "positions": [
                -1.2324109997206176,
                -1.1382083898756856,
                -0.29063084078243606,
                -0.9083297893957726,
                0.06876236615185982,
                -0.5981468473147413
            ]
        },
        {
            "positions": [
                -1.140461960857322,
                -1.1629044625248364,
                -0.34116373309665193,
                -0.9501315328177878,
                0.045362958763805195,
                -0.4419297376775453
            ]
        },
        {
            "positions": [
                -1.0485129219940266,
                -1.1876005351739873,
                -0.3916966254108677,
                -0.9919332762398031,
                0.021963551375750567,
                -0.28571262804034925
            ]
        },
        {
            "positions": [
                -0.9565638831307313,
                -1.212296607823138,
                -0.44222951772508357,
                -1.033735019661818,
                -0.0014358560123040043,
                -0.1294955184031541
            ]
        },
        {
            "positions": [
                -0.8646148442674355,
                -1.236992680472289,
                -0.49276241003929955,
                -1.0755367630838335,
                -0.024835263400358687,
                0.026721591234042386
            ]
        },
        {
            "positions": [
                -0.7726658054041402,
                -1.2616887531214398,
                -0.5432953023535152,
                -1.1173385065058485,
                -0.04823467078841326,
                0.18293870087123798
            ]
        },
        {
            "positions": [
                -0.6807167665408445,
                -1.2863848257705905,
                -0.5938281946677313,
                -1.159140249927864,
                -0.07163407817646794,
                0.339155810508434
            ]
        },
        {
            "positions": [
                -0.5887677276775491,
                -1.3110808984197413,
                -0.6443610869819469,
                -1.200941993349879,
                -0.09503348556452251,
                0.4953729201456296
            ]
        },
        {
            "positions": [
                -0.4968186888142534,
                -1.3357769710688923,
                -0.694893979296163,
                -1.2427437367718943,
                -0.1184328929525772,
                0.6515900297828261
            ]
        },
        {
            "positions": [
                -0.4048696499509581,
                -1.3604730437180432,
                -0.7454268716103787,
                -1.2845454801939096,
                -0.14183230034063177,
                0.8078071394200217
            ]
        },
        {
            "positions": [
                -0.31292061108766234,
                -1.385169116367194,
                -0.7959597639245948,
                -1.3263472236159248,
                -0.16523170772868645,
                0.9640242490572177
            ]
        },
        {
            "positions": [
                -0.22097157222436703,
                -1.4098651890163447,
                -0.8464926562388104,
                -1.36814896703794,
                -0.18863111511674102,
                1.1202413586944138
            ]
        },
        {
            "positions": [
                -0.12902253336107128,
                -1.4345612616654957,
                -0.8970255485530265,
                -1.4099507104599553,
                -0.2120305225047957,
                1.2764584683316098
            ]
        },
        {
            "positions": [
                -0.03707349449777553,
                -1.4592573343146464,
                -0.9475584408672422,
                -1.4517524538819704,
                -0.2354299298928504,
                1.432675577968805
            ]
        },
        {
            "positions": [
                0.054875544365520224,
                -1.4839534069637974,
                -0.9980913331814583,
                -1.4935541973039856,
                -0.25882933728090507,
                1.588892687606001
            ]
        },
        {
            "positions": [
                0.14682458322881553,
                -1.5086494796129482,
                -1.048624225495674,
                -1.535355940726001,
                -0.28222874466895964,
                1.745109797243197
            ]
        },
        {
            "positions": [
                0.23877362209211128,
                -1.533345552262099,
                -1.09915711780989,
                -1.5771576841480162,
                -0.3056281520570143,
                1.901326906880393
            ]
        },
        {
            "positions": [
                0.3307226609554066,
                -1.5580416249112496,
                -1.1496900101241057,
                -1.6189594275700314,
                -0.3290275594450689,
                2.057544016517589
            ]
        },
        {
            "positions": [
                0.42267169981870234,
                -1.5827376975604006,
                -1.2002229024383217,
                -1.6607611709920467,
                -0.3524269668331236,
                2.213761126154785
            ]
        },
        {
            "positions": [
                0.5146207386819976,
                -1.6074337702095514,
                -1.2507557947525374,
                -1.7025629144140617,
                -0.37582637422117815,
                2.3699782357919803
            ]
        },
        {
            "positions": [
                0.6065697775452934,
                -1.6321298428587023,
                -1.3012886870667533,
                -1.7443646578360772,
                -0.39922578160923283,
                2.5261953454291772
            ]
        },
        {
            "positions": [
                0.6985188164085889,
                -1.656825915507853,
                -1.3518215793809691,
                -1.7861664012580922,
                -0.42262518899728735,
                2.6824124550663724
            ]
        },
        {
            "positions": [
                0.5879688028085582,
                -1.6678266861136721,
                -1.478474217886614,
                -1.8337159133607872,
                -0.39202460831731906,
                2.7402130736845014
            ]
        },
        {
            "positions": [
                0.47741878920852754,
                -1.6788274567194912,
                -1.6051268563922587,
                -1.8812654254634824,
                -0.3614240276373508,
                2.7980136923026304
            ]
        },
        {
            "positions": [
                0.36686877560849684,
                -1.6898282273253102,
                -1.7317794948979033,
                -1.9288149375661776,
                -0.3308234469573825,
                2.855814310920759
            ]
        },
        {
            "positions": [
                0.25631876200846615,
                -1.7008289979311293,
                -1.858432133403548,
                -1.9763644496688726,
                -0.30022286627741424,
                2.913614929538888
            ]
        },
        {
            "positions": [
                0.14576874840843546,
                -1.7118297685369481,
                -1.9850847719091929,
                -2.0239139617715676,
                -0.26962228559744594,
                2.971415548157017
            ]
        },
        {
            "positions": [
                0.03521873480840476,
                -1.7228305391427672,
                -2.1117374104148374,
                -2.071463473874263,
                -0.23902170491747768,
                3.0292161667751456
            ]
        },
        {
            "positions": [
                -0.07533127879162593,
                -1.7338313097485862,
                -2.238390048920482,
                -2.119012985976958,
                -0.20842112423750941,
                3.0870167853932746
            ]
        },
        {
            "positions": [
                -0.18588129239165666,
                -1.7448320803544053,
                -2.365042687426127,
                -2.166562498079653,
                -0.17782054355754112,
                3.1448174040114036
            ]
        }
    ]
}