{
    "goal": {
        "global_pose": {
            "orientation": {
                "w": -0.00223480608172531,
                "x": 0.0024358444001904467,
                "y": 0.7094548369677653,
                "z": -0.704743149386269
            },
            "position": {
                "x": -0.37947507619857795,
                "y": -0.6371506643295288,
                "z": 0.19426114857196808
            }
        },
        "name": "move_to_magneteinheit_C"
    },
    "id": "STRIDE_move_to_magneteinheit_C_1",
    "joint_names": [
        "shoulder_pan_joint",
        "shoulder_lift_joint",
        "elbow_joint",
        "wrist_1_joint",
        "wrist_2_joint",
        "wrist_3_joint"
    ],
    "metrics": {
        "cart_traj_len": 1.9566331047695482,
        "distance_elbow_joint": 0.6433290886107068,
        "distance_shoulder_lift_joint": 0.7579506215158898,
        "distance_shoulder_pan_joint": 2.506148639567206,
        "distance_wrist_1_joint": 1.6784922536921871,
        "distance_wrist_2_joint": 0.7925011315723238,
        "distance_wrist_3_joint": 4.50543776666596,
        "smoothness": 0.7648340388532429,
        "time": 0.134713957,
        "traj_len": 3.2990694902690785,
        "weighted_distance": 4.7292418441247746
    },
    "planner": "STRIDE",
    "start": {
        "state": {
            "elbow_joint": 1.9565354010623817,
            "shoulder_lift_joint": -1.4165861575791021,
            "shoulder_pan_joint": -1.6717766225146293,
            "wrist_1_joint": -0.5286633292919765,
            "wrist_2_joint": 1.472756589071564,
            "wrist_3_joint": -3.1238370188695823
        }
    },
    "waypoints": [
        {
            "positions": [
                -1.6717766225146293,
                -1.4165861575791021,
                1.9565354010623817,
                -0.5286633292919765,
                1.472756589071564,
                -3.1238370188695823
            ]
        },
        {
            "positions": [
                -1.5943000620815921,
                -1.4394667285268927,
                1.9299475342633523,
                -0.4864964895186941,
                1.4567666387888176,
                -2.9201237507610487
            ]
        },
        {
            "positions": [
                -1.5168235016485552,
                -1.4623472994746836,
                1.9033596674643227,
                -0.4443296497454118,
                1.440776688506071,
                -2.716410482652515
            ]
        },
        {
            "positions": [
                -1.439346941215518,
                -1.4852278704224742,
                1.8767718006652934,
                -0.40216280997212944,
                1.4247867382233248,
                -2.512697214543982
            ]
        },
        {
            "positions": [
                -1.3618703807824808,
                -1.5081084413702648,
                1.8501839338662638,
                -0.3599959701988471,
                1.4087967879405785,
                -2.3089839464354482
            ]
        },
        {
            "positions": [
                -1.2843938203494438,
                -1.5309890123180554,
                1.8235960670672344,
                -0.3178291304255647,
                1.392806837657832,
                -2.1052706783269146
            ]
        },
        {
            "positions": [
                -1.2069172599164069,
                -1.5538695832658462,
                1.7970082002682048,
                -0.2756622906522824,
                1.3768168873750857,
                -1.9015574102183812
            ]
        },
        {
            "positions": [
                -1.1294406994833697,
                -1.5767501542136368,
                1.7704203334691755,
                -0.23349545087900003,
                1.3608269370923392,
                -1.6978441421098476
            ]
        },
        {
            "positions": [
                -1.0519641390503325,
                -1.5996307251614275,
                1.743832466670146,
                -0.1913286111057177,
                1.3448369868095928,
                -1.494130874001314
            ]
        },
        {
            "positions": [
                -0.9744875786172954,
                -1.6225112961092183,
                1.7172445998711166,
                -0.14916177133243536,
                1.3288470365268465,
                -1.2904176058927803
            ]
        },
        {
            "positions": [
                -0.8970110181842583,
                -1.645391867057009,
                1.6906567330720872,
                -0.10699493155915302,
                1.3128570862441,
                -1.086704337784247
            ]
        },
        {
            "positions": [
                -0.8195344577512212,
                -1.6682724380047995,
                1.6640688662730576,
                -0.06482809178587066,
                1.2968671359613537,
                -0.8829910696757133
            ]
        },
        {
            "positions": [
                -0.9776342311783073,
                -1.6471386686461722,
                1.6977814403775038,
                -0.0422255405296888,
                1.2573464323540824,
                -0.9789147697261987
            ]
        },
        {
            "positions": [
                -1.1357340046053932,
                -1.6260048992875449,
                1.73149401448195,
                -0.019622989273506933,
                1.2178257287468108,
                -1.0748384697766842
            ]
        },
        {
            "positions": [
                -1.2938337780324791,
                -1.6048711299289178,
                1.7652065885863961,
                0.0029795619826749192,
                1.1783050251395395,
                -1.1707621698271697
            ]
        },
        {
            "positions": [
                -1.4519335514595655,
                -1.5837373605702905,
                1.7989191626908423,
                0.0255821132388568,
                1.1387843215322682,
                -1.266685869877655
            ]
        },
        {
            "positions": [
                -1.6100333248866514,
                -1.5626035912116631,
                1.8326317367952885,
                0.04818466449503865,
                1.0992636179249968,
                -1.3626095699281406
            ]
        },
        {
            "positions": [
                -1.7681330983137373,
                -1.5414698218530358,
                1.8663443108997346,
                0.0707872157512205,
                1.0597429143177255,
                -1.4585332699786262
            ]
        },
        {
            "positions": [
                -1.9262328717408232,
                -1.5203360524944087,
                1.9000568850041808,
                0.09338976700740236,
                1.020222210710454,
                -1.5544569700291115
            ]
        },
        {
            "positions": [
                -2.0843326451679096,
                -1.4992022831357814,
                1.933769459108627,
                0.11599231826358426,
                0.9807015071031826,
                -1.650380670079597
            ]
        },
        {
            "positions": [
                -2.2424324185949955,
                -1.478068513777154,
                1.9674820332130731,
                0.13859486951976613,
                0.9411808034959113,
                -1.7463043701300824
            ]
        },
        {
            "positions": [
                -2.4005321920220815,
                -1.4569347444185268,
                2.0011946073175193,
                0.16119742077594798,
                0.9016600998886398,
                -1.842228070180568
            ]
        },
        {
            "positions": [
                -2.4116032105322964,
                -1.4238345128113672,
                2.0046807951446612,
                0.04896848961518099,
                0.8785457544810674,
                -1.9918401495776175
            ]
        },
        {
            "positions": [
                -2.422674229042512,
                -1.3907342812042074,
                2.0081669829718027,
                -0.063260441545586,
                0.8554314090734951,
                -2.141452228974667
            ]
        },
        {
            "positions": [
                -2.433745247552727,
                -1.3576340495970478,
                2.0116531707989447,
                -0.17548937270635298,
                0.8323170636659227,
                -2.291064308371716
            ]
        },
        {
            "positions": [
                -2.4416843845531853,
                -1.3185088590605596,
                2.0109975209398456,
                -0.3058783147347454,
                0.8019047424325862,
                -2.4623680241269335
            ]
        },
        {
            "positions": [
                -2.4496235215536437,
                -1.2793836685240716,
                2.0103418710807466,
                -0.4362672567631378,
                0.7714924211992497,
                -2.633671739882151
            ]
        },
        {
            "positions": [
                -2.457562658554102,
                -1.2402584779875834,
                2.009686221221647,
                -0.5666561987915302,
                0.7410800999659132,
                -2.8049754556373685
            ]
        },
        {
            "positions": [
                -2.4655017955545606,
                -1.2011332874510954,
                2.009030571362548,
                -0.6970451408199227,
                0.7106677787325766,
                -2.9762791713925862
            ]
        },
        {
            "positions": [
                -2.473440932555019,
                -1.1620080969146072,
                2.008374921503449,
                -0.8274340828483151,
                0.6802554574992401,
                -3.1475828871478035
            ]
        }
    ]
}