{
    "goal": {
        "global_pose": {
            "orientation": {
                "w": 0.5084816262002911,
                "x": -0.4908360881923452,
                "y": 0.5182115481033761,
                "z": -0.48164630358495003
            },
            "position": {
                "x": 0.5540239810943604,
                "y": -0.46912469901144505,
                "z": 0.16403168439865112
            }
        },
        "name": "move_to_storage_B"
    },
    "id": "STRIDE_move_to_storage_B_102",
    "joint_names": [
        "shoulder_pan_joint",
        "shoulder_lift_joint",
        "elbow_joint",
        "wrist_1_joint",
        "wrist_2_joint",
        "wrist_3_joint"
    ],
    "metrics": {
        "cart_traj_len": 1.5381247335214339,
        "distance_elbow_joint": 0.3581564335284666,
        "distance_shoulder_lift_joint": 1.806534353478558,
        "distance_shoulder_pan_joint": 1.0091873613913749,
        "distance_wrist_1_joint": 3.0239091267404823,
        "distance_wrist_2_joint": 2.839165614993494,
        "distance_wrist_3_joint": 3.4125992313125573,
        "smoothness": 0.25142338013484683,
        "time": 0.08545989400000001,
        "traj_len": 3.5283922856514884,
        "weighted_distance": 5.013763588942345
    },
    "planner": "STRIDE",
    "start": {
        "state": {
            "elbow_joint": 1.664937868594044,
            "shoulder_lift_joint": -0.661644460510453,
            "shoulder_pan_joint": -0.9139846352900073,
            "wrist_1_joint": 2.146753192139373,
            "wrist_2_joint": -2.2341966793290973,
            "wrist_3_joint": 0.005466555786416001
        }
    },
    "waypoints": [
        {
            "positions": [
                -0.9139846352900073,
                -0.661644460510453,
                1.664937868594044,
                2.146753192139373,
                -2.2341966793290973,
                0.005466555786416001
            ]
        },
        {
            "positions": [
                -0.816401564390387,
                -0.6949915643371991,
                1.700041630078673,
                2.086513353923669,
                -2.265284154878692,
                -0.031410946488258526
            ]
        },
        {
            "positions": [
                -0.7188184934907667,
                -0.7283386681639452,
                1.735145391563302,
                2.0262735157079645,
                -2.2963716304282866,
                -0.06828844876293305
            ]
        },
        {
            "positions": [
                -0.705899728591799,
                -0.7910982900877057,
                1.749874430598913,
                1.8867793846008654,
                -2.140315743993871,
                -0.07139397606236796
            ]
        },
        {
            "positions": [
                -0.6929809636928312,
                -0.8538579120114661,
                1.764603469634524,
                1.7472852534937664,
                -1.9842598575594554,
                -0.07449950336180285
            ]
        },
        {
            "positions": [
                -0.6800621987938635,
                -0.9166175339352266,
                1.779332508670135,
                1.6077911223866672,
                -1.8282039711250397,
                -0.07760503066123775
            ]
        },
        {
            "positions": [
                -0.6671434338948959,
                -0.979377155858987,
                1.794061547705746,
                1.4682969912795683,
                -1.6721480846906243,
                -0.08071055796067264
            ]
        },
        {
            "positions": [
                -0.6542246689959282,
                -1.0421367777827475,
                1.808790586741357,
                1.328802860172469,
                -1.5160921982562086,
                -0.08381608526010755
            ]
        },
        {
            "positions": [
                -0.6413059040969605,
                -1.104896399706508,
                1.8235196257769681,
                1.1893087290653699,
                -1.3600363118217929,
                -0.08692161255954245
            ]
        },
        {
            "positions": [
                -0.6283871391979928,
                -1.1676560216302683,
                1.838248664812579,
                1.049814597958271,
                -1.2039804253873774,
                -0.09002713985897734
            ]
        },
        {
            "positions": [
                -0.6154683742990251,
                -1.2304156435540288,
                1.85297770384819,
                0.9103204668511717,
                -1.0479245389529617,
                -0.09313266715841224
            ]
        },
        {
            "positions": [
                -0.6025496094000575,
                -1.2931752654777893,
                1.8677067428838012,
                0.7708263357440728,
                -0.8918686525185462,
                -0.09623819445784713
            ]
        },
        {
            "positions": [
                -0.5896308445010898,
                -1.3559348874015495,
                1.8824357819194122,
                0.6313322046369736,
                -0.7358127660841305,
                -0.09934372175728204
            ]
        },
        {
            "positions": [
                -0.5767120796021221,
                -1.4186945093253103,
                1.8971648209550231,
                0.4918380735298744,
                -0.5797568796497148,
                -0.10244924905671693
            ]
        },
        {
            "positions": [
                -0.5637933147031544,
                -1.4814541312490705,
                1.9118938599906343,
                0.3523439424227752,
                -0.4237009932152991,
                -0.10555477635615183
            ]
        },
        {
            "positions": [
                -0.5508745498041867,
                -1.5442137531728308,
                1.9266228990262453,
                0.21284981131567648,
                -0.2676451067808836,
                -0.10866030365558674
            ]
        },
        {
            "positions": [
                -0.537955784905219,
                -1.6069733750965915,
                1.9413519380618562,
                0.0733556802085773,
                -0.11158922034646812,
                -0.11176583095502163
            ]
        },
        {
            "positions": [
                -0.5250370200062514,
                -1.6697329970203518,
                1.9560809770974672,
                -0.06613845089852166,
                0.04446666608794736,
                -0.11487135825445652
            ]
        },
        {
            "positions": [
                -0.5121182551072837,
                -1.7324926189441123,
                1.9708100161330784,
                -0.20563258200562107,
                0.20052255252236328,
                -0.11797688555389144
            ]
        },
        {
            "positions": [
                -0.499199490208316,
                -1.7952522408678728,
                1.9855390551686893,
                -0.3451267131127199,
                0.35657843895677876,
                -0.12108241285332633
            ]
        },
        {
            "positions": [
                -0.5416567913732934,
                -1.7471860570735058,
                1.988221572808248,
                -0.3831288003618906,
                0.36543848142172436,
                0.11363546305187477
            ]
        },
        {
            "positions": [
                -0.5841140925382708,
                -1.6991198732791388,
                1.9909040904478066,
                -0.42113088761106127,
                0.37429852388666995,
                0.3483533389570759
            ]
        },
        {
            "positions": [
                -0.6265713937032482,
                -1.6510536894847718,
                1.9935866080873652,
                -0.45913297486023197,
                0.38315856635161555,
                0.583071214862277
            ]
        },
        {
            "positions": [
                -0.6690286948682256,
                -1.6029875056904048,
                1.996269125726924,
                -0.4971350621094026,
                0.39201860881656114,
                0.8177890907674781
            ]
        },
        {
            "positions": [
                -0.7114859960332031,
                -1.5549213218960378,
                1.9989516433664827,
                -0.5351371493585734,
                0.40087865128150674,
                1.0525069666726792
            ]
        },
        {
            "positions": [
                -0.7539432971981804,
                -1.5068551381016708,
                2.001634161006041,
                -0.573139236607744,
                0.40973869374645233,
                1.2872248425778803
            ]
        },
        {
            "positions": [
                -0.7964005983631579,
                -1.4587889543073036,
                2.0043166786456,
                -0.6111413238569148,
                0.41859873621139787,
                1.5219427184830814
            ]
        },
        {
            "positions": [
                -0.8388578995281353,
                -1.4107227705129368,
                2.0069991962851588,
                -0.6491434111060854,
                0.42745877867634346,
                1.7566605943882825
            ]
        },
        {
            "positions": [
                -0.8813152006931126,
                -1.3626565867185696,
                2.009681713924717,
                -0.6871454983552561,
                0.43631882114128906,
                1.9913784702934836
            ]
        },
        {
            "positions": [
                -0.92377250185809,
                -1.3145904029242026,
                2.012364231564276,
                -0.7251475856044267,
                0.44517886360623465,
                2.226096346198685
            ]
        },
        {
            "positions": [
                -0.9662298030230675,
                -1.2665242191298356,
                2.0150467492038344,
                -0.7631496728535975,
                0.45403890607118025,
                2.4608142221038856
            ]
        },
        {
            "positions": [
                -1.008687104188045,
                -1.2184580353354688,
                2.0177292668433933,
                -0.8011517601027681,
                0.46289894853612584,
                2.695532098009087
            ]
        },
        {
            "positions": [
                -1.0511444053530223,
                -1.1703918515411016,
                2.0204117844829517,
                -0.8391538473519389,
                0.47175899100107144,
                2.9302499739142878
            ]
        },
        {
            "positions": [
                -1.0936017065179997,
                -1.1223256677467346,
                2.0230943021225105,
                -0.8771559346011095,
                0.48061903346601703,
                3.164967849819489
            ]
        }
    ]
}