{
    "goal": {
        "global_pose": {
            "orientation": {
                "w": 0.5084816217422485,
                "x": -0.49083608388900757,
                "y": 0.5182115435600281,
                "z": -0.4816462993621826
            },
            "position": {
                "x": 0.5540239810943604,
                "y": 0.030875300988554955,
                "z": 0.16403168439865112
            }
        },
        "name": "move_to_storage_A"
    },
    "id": "STRIDE_move_to_storage_A_110",
    "joint_names": [
        "shoulder_pan_joint",
        "shoulder_lift_joint",
        "elbow_joint",
        "wrist_1_joint",
        "wrist_2_joint",
        "wrist_3_joint"
    ],
    "metrics": {
        "cart_traj_len": 0.35273982106479174,
        "distance_elbow_joint": 0.44943939929969257,
        "distance_shoulder_lift_joint": 0.23493685780366702,
        "distance_shoulder_pan_joint": 0.4612257353301314,
        "distance_wrist_1_joint": 0.23947245769203918,
        "distance_wrist_2_joint": 1.098563956015036,
        "distance_wrist_3_joint": 0.09568682435324005,
        "smoothness": 4.440892098500626e-16,
        "time": 0.146709171,
        "traj_len": 1.6060277801127247,
        "weighted_distance": 2.027001552270585
    },
    "planner": "STRIDE",
    "start": {
        "state": {
            "elbow_joint": 1.971548259319323,
            "shoulder_lift_joint": -1.1394851275133948,
            "shoulder_pan_joint": 0.1228115487234821,
            "wrist_1_joint": -0.7804723859257726,
            "wrist_2_joint": 0.12958671773740124,
            "wrist_3_joint": -3.192489227718131
        }
    },
    "waypoints": [
        {
            "positions": [
                0.1228115487234821,
                -1.1394851275133948,
                1.971548259319323,
                -0.7804723859257726,
                0.12958671773740124,
                -3.192489227718131
            ]
        },
        {
            "positions": [
                0.05692215796203476,
                -1.1730475357710615,
                2.0357538877907078,
                -0.8146827370246353,
                0.2865244257395492,
                -3.178819681381954
            ]
        },
        {
            "positions": [
                -0.008967232799412583,
                -1.2066099440287283,
                2.0999595162620923,
                -0.8488930881234981,
                0.4434621337416972,
                -3.165150135045777
            ]
        },
        {
            "positions": [
                -0.07485662356085993,
                -1.240172352286395,
                2.164165144733477,
                -0.8831034392223608,
                0.6003998417438452,
                -3.1514805887095996
            ]
        },
        {
            "positions": [
                -0.14074601432230727,
                -1.2737347605440617,
                2.2283707732048614,
                -0.9173137903212236,
                0.7573375497459932,
                -3.1378110423734227
            ]
        },
        {
            "positions": [
                -0.2066354050837546,
                -1.3072971688017283,
                2.2925764016762464,
                -0.9515241414200863,
                0.9142752577481412,
                -3.1241414960372453
            ]
        },
        {
            "positions": [
                -0.27252479584520195,
                -1.3408595770593952,
                2.356782030147631,
                -0.9857344925189491,
                1.0712129657502891,
                -3.1104719497010684
            ]
        },
        {
            "positions": [
                -0.3384141866066493,
                -1.3744219853170618,
                2.4209876586190155,
                -1.0199448436178118,
                1.2281506737524372,
                -3.096802403364891
            ]
        }
    ]
}{
    "goal": {
        "global_pose": {
            "orientation": {
                "w": 0.5084816217422485,
                "x": -0.49083608388900757,
                "y": 0.5182115435600281,
                "z": -0.4816462993621826
            },
            "position": {
                "x": 0.5540239810943604,
                "y": 0.030875300988554955,
                "z": 0.16403168439865112
            }
        },
        "name": "move_to_storage_A"
    },
    "id": "STRIDE_move_to_storage_A_110",
    "joint_names": [
        "shoulder_pan_joint",
        "shoulder_lift_joint",
        "elbow_joint",
        "wrist_1_joint",
        "wrist_2_joint",
        "wrist_3_joint"
    ],
    "metrics": {
        "cart_traj_len": 0.3530654436844714,
        "distance_elbow_joint": 0.447205981052766,
        "distance_shoulder_lift_joint": 0.23576713059937693,
        "distance_shoulder_pan_joint": 0.4619714516980792,
        "distance_wrist_1_joint": 0.2325903362760775,
        "distance_wrist_2_joint": 1.097587816967016,
        "distance_wrist_3_joint": 0.10055211010341703,
        "smoothness": 2.2204460668324854e-16,
        "time": 0.038589882,
        "traj_len": 1.604890908036036,
        "weighted_distance": 2.0265629030816337
    },
    "planner": "STRIDE",
    "start": {
        "state": {
            "elbow_joint": 1.97154746011099,
            "shoulder_lift_joint": -1.13948474672311,
            "shoulder_pan_joint": 0.12281154466712228,
            "wrist_1_joint": -0.7804688027058302,
            "wrist_2_joint": 0.12958655903071145,
            "wrist_3_joint": 3.0906928834467795
        }
    },
    "waypoints": [
        {
            "positions": [
                0.12281154466712228,
                -1.13948474672311,
                1.97154746011099,
                -0.7804688027058302,
                0.12958655903071145,
                3.0906928834467795
            ]
        },
        {
            "positions": [
                0.056815622995968124,
                -1.1731657653801637,
                2.0354340288328134,
                -0.8136959936024127,
                0.28638481859742804,
                3.1050574706044105
            ]
        },
        {
            "positions": [
                -0.009180298675186035,
                -1.2068467840372177,
                2.0993205975546374,
                -0.8469231844989952,
                0.4431830781641446,
                3.1194220577620415
            ]
        },
        {
            "positions": [
                -0.07517622034634021,
                -1.2405278026942714,
                2.163207166276461,
                -0.8801503753955777,
                0.5999813377308612,
                3.1337866449196725
            ]
        },
        {
            "positions": [
                -0.14117214201749434,
                -1.2742088213513254,
                2.227093734998285,
                -0.9133775662921602,
                0.7567795972975777,
                3.1481512320773035
            ]
        },
        {
            "positions": [
                -0.20716806368864854,
                -1.3078898400083792,
                2.2909803037201084,
                -0.9466047571887427,
                0.9135778568642943,
                3.1625158192349345
            ]
        },
        {
            "positions": [
                -0.2731639853598027,
                -1.341570858665433,
                2.3548668724419324,
                -0.9798319480853251,
                1.0703761164310108,
                3.1768804063925655
            ]
        },
        {
            "positions": [
                -0.3391599070309569,
                -1.3752518773224869,
                2.418753441163756,
                -1.0130591389819077,
                1.2271743759977274,
                3.1912449935501965
            ]
        }
    ]
}{
    "goal": {
        "global_pose": {
            "orientation": {
                "w": 0.5084816217422485,
                "x": -0.49083608388900757,
                "y": 0.5182115435600281,
                "z": -0.4816462993621826
            },
            "position": {
                "x": 0.5540239810943604,
                "y": 0.030875300988554955,
                "z": 0.16403168439865112
            }
        },
        "name": "move_to_storage_A"
    },
    "id": "STRIDE_move_to_storage_A_110",
    "joint_names": [
        "shoulder_pan_joint",
        "shoulder_lift_joint",
        "elbow_joint",
        "wrist_1_joint",
        "wrist_2_joint",
        "wrist_3_joint"
    ],
    "metrics": {
        "cart_traj_len": 0.35343147512454365,
        "distance_elbow_joint": 0.45162743023340246,
        "distance_shoulder_lift_joint": 0.2337458256389493,
        "distance_shoulder_pan_joint": 0.46377229818049936,
        "distance_wrist_1_joint": 0.2539644213418759,
        "distance_wrist_2_joint": 1.0920378362661947,
        "distance_wrist_3_joint": 0.09196531218406134,
        "smoothness": 6.661338165333112e-16,
        "time": 0.054606118,
        "traj_len": 1.6084505350942513,
        "weighted_distance": 2.029050518301892
    },
    "planner": "STRIDE",
    "start": {
        "state": {
            "elbow_joint": 1.9715472970024885,
            "shoulder_lift_joint": -1.1394870060712896,
            "shoulder_pan_joint": 0.12281152778156021,
            "wrist_1_joint": -0.780463741449964,
            "wrist_2_joint": 0.12958659822042276,
            "wrist_3_joint": 3.090690232415272
        }
    },
    "waypoints": [
        {
            "positions": [
                0.12281152778156021,
                -1.1394870060712896,
                1.9715472970024885,
                -0.780463741449964,
                0.12958659822042276,
                3.090690232415272
            ]
        },
        {
            "positions": [
                0.056558342327203165,
                -1.1728792668768537,
                2.036065501321546,
                -0.816744373070232,
                0.2855920034013077,
                3.1038281341558522
            ]
        },
        {
            "positions": [
                -0.00969484312715388,
                -1.206271527682418,
                2.1005837056406036,
                -0.8530250046904999,
                0.44159740858219265,
                3.116966035896432
            ]
        },
        {
            "positions": [
                -0.07594802858151092,
                -1.2396637884879822,
                2.165101909959661,
                -0.889305636310768,
                0.5976028137630776,
                3.1301039376370126
            ]
        },
        {
            "positions": [
                -0.14220121403586797,
                -1.2730560492935463,
                2.2296201142787186,
                -0.9255862679310359,
                0.7536082189439625,
                3.1432418393775925
            ]
        },
        {
            "positions": [
                -0.20845439949022507,
                -1.3064483100991104,
                2.294138318597776,
                -0.961866899551304,
                0.9096136241248475,
                3.156379741118173
            ]
        },
        {
            "positions": [
                -0.27470758494458203,
                -1.3398405709046748,
                2.3586565229168333,
                -0.998147531171572,
                1.0656190293057324,
                3.169517642858753
            ]
        },
        {
            "positions": [
                -0.34096077039893913,
                -1.373232831710239,
                2.423174727235891,
                -1.03442816279184,
                1.2216244344866174,
                3.182655544599333
            ]
        }
    ]
}