{
    "goal": {
        "global_pose": {
            "orientation": {
                "w": -0.00223480608172531,
                "x": 0.0024358444001904467,
                "y": 0.7094548369677653,
                "z": -0.704743149386269
            },
            "position": {
                "x": -0.37947507619857795,
                "y": -0.6371506643295288,
                "z": 0.19426114857196808
            }
        },
        "name": "move_to_magneteinheit_C"
    },
    "id": "STRIDE_move_to_magneteinheit_C_45",
    "joint_names": [
        "shoulder_pan_joint",
        "shoulder_lift_joint",
        "elbow_joint",
        "wrist_1_joint",
        "wrist_2_joint",
        "wrist_3_joint"
    ],
    "metrics": {
        "cart_traj_len": 1.121841190461031,
        "distance_elbow_joint": 0.2592080153951528,
        "distance_shoulder_lift_joint": 0.9946064972717346,
        "distance_shoulder_pan_joint": 1.511110910078392,
        "distance_wrist_1_joint": 1.6713869014170943,
        "distance_wrist_2_joint": 0.8024037440618353,
        "distance_wrist_3_joint": 2.5384483199721646,
        "smoothness": 0.832185823134522,
        "time": 0.145553269,
        "traj_len": 2.7887567818288446,
        "weighted_distance": 3.91508003412697
    },
    "planner": "STRIDE",
    "start": {
        "state": {
            "elbow_joint": 1.9565354010623817,
            "shoulder_lift_joint": -1.4165861575791021,
            "shoulder_pan_joint": -1.6717766225146293,
            "wrist_1_joint": -0.5286633292919765,
            "wrist_2_joint": 1.472756589071564,
            "wrist_3_joint": -3.1238370188695823
        }
    },
    "waypoints": [
        {
            "positions": [
                -1.6717766225146293,
                -1.4165861575791021,
                1.9565354010623817,
                -0.5286633292919765,
                1.472756589071564,
                -3.1238370188695823
            ]
        },
        {
            "positions": [
                -1.6857333272439468,
                -1.4635863325181424,
                1.9555647620186802,
                -0.4302903259982379,
                1.4296852904423134,
                -2.9442824616563694
            ]
        },
        {
            "positions": [
                -1.6996900319732642,
                -1.510586507457183,
                1.954594122974979,
                -0.33191732270449936,
                1.386613991813063,
                -2.7647279044431565
            ]
        },
        {
            "positions": [
                -1.7136467367025816,
                -1.5575866823962232,
                1.9536234839312776,
                -0.23354431941076076,
                1.3435426931838126,
                -2.585173347229944
            ]
        },
        {
            "positions": [
                -1.727603441431899,
                -1.6045868573352637,
                1.9526528448875764,
                -0.1351713161170222,
                1.3004713945545623,
                -2.405618790016731
            ]
        },
        {
            "positions": [
                -1.7415601461612165,
                -1.651587032274304,
                1.951682205843875,
                -0.03679831282328361,
                1.2574000959253118,
                -2.2260642328035183
            ]
        },
        {
            "positions": [
                -1.7555168508905339,
                -1.6985872072133446,
                1.9507115668001738,
                0.06157469047045494,
                1.2143287972960615,
                -2.046509675590306
            ]
        },
        {
            "positions": [
                -1.7694735556198513,
                -1.7455873821523848,
                1.9497409277564723,
                0.15994769376419354,
                1.171257498666811,
                -1.8669551183770927
            ]
        },
        {
            "positions": [
                -1.9207859250944863,
                -1.751578549460546,
                1.971899802832208,
                0.13212605472243014,
                1.1142489922893501,
                -1.9689714130041518
            ]
        },
        {
            "positions": [
                -2.0720982945691215,
                -1.7575697167687072,
                1.9940586779079432,
                0.1043044156806667,
                1.0572404859118896,
                -2.0709877076312107
            ]
        },
        {
            "positions": [
                -2.2234106640437568,
                -1.7635608840768684,
                2.016217552983679,
                0.0764827766389033,
                1.0002319795344288,
                -2.1730040022582697
            ]
        },
        {
            "positions": [
                -2.374723033518392,
                -1.7695520513850296,
                2.038376428059414,
                0.04866113759713987,
                0.943223473156968,
                -2.275020296885329
            ]
        },
        {
            "positions": [
                -2.5260354029930268,
                -1.7755432186931908,
                2.0605353031351497,
                0.02083949855537645,
                0.8862149667795073,
                -2.377036591512388
            ]
        },
        {
            "positions": [
                -2.677347772467662,
                -1.781534386001352,
                2.082694178210885,
                -0.006982140486386956,
                0.8292064604020466,
                -2.4790528861394465
            ]
        },
        {
            "positions": [
                -2.828660141942297,
                -1.7875255533095131,
                2.1048530532866208,
                -0.03480377952815039,
                0.7721979540245858,
                -2.5810691807665056
            ]
        },
        {
            "positions": [
                -2.778056228992194,
                -1.698430253089324,
                2.0909528509210356,
                -0.14737869453794764,
                0.7576486527367491,
                -2.6621338032079715
            ]
        },
        {
            "positions": [
                -2.7274523160420903,
                -1.609334952869135,
                2.077052648555451,
                -0.2599536095477449,
                0.7430993514489123,
                -2.7431984256494375
            ]
        },
        {
            "positions": [
                -2.676848403091987,
                -1.520239652648946,
                2.0631524461898656,
                -0.3725285245575421,
                0.7285500501610755,
                -2.8242630480909034
            ]
        },
        {
            "positions": [
                -2.6262444901418833,
                -1.4311443524287568,
                2.049252243824281,
                -0.48510343956733937,
                0.7140007488732388,
                -2.90532767053237
            ]
        },
        {
            "positions": [
                -2.57564057719178,
                -1.3420490522085677,
                2.0353520414586956,
                -0.5976783545771367,
                0.6994514475854021,
                -2.986392292973836
            ]
        },
        {
            "positions": [
                -2.525036664241677,
                -1.2529537519883787,
                2.021451839093111,
                -0.7102532695869338,
                0.6849021462975653,
                -3.0674569154153017
            ]
        },
        {
            "positions": [
                -2.474432751291573,
                -1.1638584517681896,
                2.0075516367275257,
                -0.8228281845967311,
                0.6703528450097286,
                -3.1485215378567677
            ]
        }
    ]
}