{
    "goal": {
        "global_pose": {
            "orientation": {
                "w": 0.005598929693374612,
                "x": 0.007748599140229565,
                "y": 0.7110244013736278,
                "z": -0.7031023480610252
            },
            "position": {
                "x": -0.8858502320852131,
                "y": -0.7141253447532654,
                "z": 0.3711530566215515
            }
        },
        "name": "move_to_auspresseinheit_C"
    },
    "id": "STRIDE_move_to_auspresseinheit_C_63",
    "joint_names": [
        "shoulder_pan_joint",
        "shoulder_lift_joint",
        "elbow_joint",
        "wrist_1_joint",
        "wrist_2_joint",
        "wrist_3_joint"
    ],
    "metrics": {
        "cart_traj_len": 0.4942627424627319,
        "distance_elbow_joint": 1.0114742895042812,
        "distance_shoulder_lift_joint": 0.3301385802124266,
        "distance_shoulder_pan_joint": 0.25753093012933137,
        "distance_wrist_1_joint": 0.7087611458526273,
        "distance_wrist_2_joint": 1.30102431904165,
        "distance_wrist_3_joint": 0.0714741080685588,
        "smoothness": 3.2297397335745243e-16,
        "time": 0.060656829,
        "traj_len": 1.9184377427503023,
        "weighted_distance": 2.4151888236409738
    },
    "planner": "STRIDE",
    "start": {
        "state": {
            "elbow_joint": 1.7527959577737207,
            "shoulder_lift_joint": -0.9740617694225068,
            "shoulder_pan_joint": -2.967991417825858,
            "wrist_1_joint": -0.759517768980727,
            "wrist_2_joint": 1.7443932448377408,
            "wrist_3_joint": -3.0840537646736568
        }
    },
    "waypoints": [
        {
            "positions": [
                -2.967991417825858,
                -0.9740617694225068,
                1.7527959577737207,
                -0.759517768980727,
                1.7443932448377408,
                -3.0840537646736568
            ]
        },
        {
            "positions": [
                -2.9422383248129247,
                -0.9410479114012641,
                1.6516485288232925,
                -0.6886416543954643,
                1.6142908129335758,
                -3.0912011754805127
            ]
        },
        {
            "positions": [
                -2.916485231799992,
                -0.9080340533800214,
                1.5505010998728643,
                -0.6177655398102015,
                1.4841883810294108,
                -3.0983485862873685
            ]
        },
        {
            "positions": [
                -2.8907321387870586,
                -0.8750201953587788,
                1.4493536709224364,
                -0.5468894252249388,
                1.354085949125246,
                -3.1054959970942244
            ]
        },
        {
            "positions": [
                -2.8649790457741253,
                -0.8420063373375362,
                1.3482062419720082,
                -0.4760133106396761,
                1.2239835172210807,
                -3.1126434079010803
            ]
        },
        {
            "positions": [
                -2.8392259527611925,
                -0.8089924793162935,
                1.24705881302158,
                -0.4051371960544134,
                1.0938810853169159,
                -3.119790818707936
            ]
        },
        {
            "positions": [
                -2.8134728597482592,
                -0.7759786212950508,
                1.1459113840711521,
                -0.3342610814691507,
                0.9637786534127509,
                -3.126938229514792
            ]
        },
        {
            "positions": [
                -2.787719766735326,
                -0.7429647632738081,
                1.044763955120724,
                -0.263384966883888,
                0.8336762215085859,
                -3.134085640321648
            ]
        },
        {
            "positions": [
                -2.7619666737223927,
                -0.7099509052525654,
                0.9436165261702957,
                -0.19250885229862524,
                0.7035737896044207,
                -3.141233051128504
            ]
        },
        {
            "positions": [
                -2.73621358070946,
                -0.6769370472313228,
                0.8424690972198675,
                -0.12163273771336247,
                0.5734713577002559,
                -3.1483804619353597
            ]
        },
        {
            "positions": [
                -2.7104604876965266,
                -0.6439231892100802,
                0.7413216682694396,
                -0.05075662312809976,
                0.44336892579609083,
                -3.1555278727422156
            ]
        }
    ]
}