{
    "goal": {
        "global_pose": {
            "orientation": {
                "w": 0.5084816217422485,
                "x": -0.49083608388900757,
                "y": 0.5182115435600281,
                "z": -0.4816462993621826
            },
            "position": {
                "x": 0.5540239810943604,
                "y": 0.030875300988554955,
                "z": 0.16403168439865112
            }
        },
        "name": "move_to_storage_A"
    },
    "id": "STRIDE_move_to_storage_A_42",
    "joint_names": [
        "shoulder_pan_joint",
        "shoulder_lift_joint",
        "elbow_joint",
        "wrist_1_joint",
        "wrist_2_joint",
        "wrist_3_joint"
    ],
    "metrics": {
        "cart_traj_len": 0.35363950617600115,
        "distance_elbow_joint": 0.45034641138250353,
        "distance_shoulder_lift_joint": 0.2353167823044946,
        "distance_shoulder_pan_joint": 0.4642026165523811,
        "distance_wrist_1_joint": 0.24052430215639065,
        "distance_wrist_2_joint": 1.092972894805604,
        "distance_wrist_3_joint": 0.10427832533451342,
        "smoothness": 6.661338165333112e-16,
        "time": 0.06516087000000001,
        "traj_len": 1.6086147247044231,
        "weighted_distance": 2.0321651458892087
    },
    "planner": "STRIDE",
    "start": {
        "state": {
            "elbow_joint": 1.971548259319323,
            "shoulder_lift_joint": -1.1394851275133948,
            "shoulder_pan_joint": 0.1228115487234821,
            "wrist_1_joint": -0.7804723859257726,
            "wrist_2_joint": 0.12958671773740124,
            "wrist_3_joint": -3.192489227718131
        }
    },
    "waypoints": [
        {
            "positions": [
                0.1228115487234821,
                -1.1394851275133948,
                1.971548259319323,
                -0.7804723859257726,
                0.12958671773740124,
                -3.192489227718131
            ]
        },
        {
            "positions": [
                0.05649688921599909,
                -1.1731018106997513,
                2.035883460945395,
                -0.8148330005195427,
                0.2857257027096304,
                -3.177592324098915
            ]
        },
        {
            "positions": [
                -0.009817770291483924,
                -1.2067184938861075,
                2.100218662571467,
                -0.8491936151133128,
                0.4418646876818595,
                -3.162695420479699
            ]
        },
        {
            "positions": [
                -0.07613242979896692,
                -1.240335177072464,
                2.1645538641975386,
                -0.8835542297070829,
                0.5980036726540886,
                -3.1477985168604827
            ]
        },
        {
            "positions": [
                -0.14244708930644995,
                -1.2739518602588202,
                2.2288890658236107,
                -0.917914844300853,
                0.7541426576263177,
                -3.132901613241266
            ]
        },
        {
            "positions": [
                -0.208761748813933,
                -1.3075685434451767,
                2.2932242674496828,
                -0.9522754588946231,
                0.9102816425985469,
                -3.11800470962205
            ]
        },
        {
            "positions": [
                -0.27507640832141594,
                -1.341185226631533,
                2.3575594690757544,
                -0.9866360734883932,
                1.066420627570776,
                -3.103107806002834
            ]
        },
        {
            "positions": [
                -0.341391067828899,
                -1.3748019098178894,
                2.4218946707018265,
                -1.0209966880821633,
                1.2225596125430052,
                -3.0882109023836177
            ]
        }
    ]
}{
    "goal": {
        "global_pose": {
            "orientation": {
                "w": 0.5084816217422485,
                "x": -0.49083608388900757,
                "y": 0.5182115435600281,
                "z": -0.4816462993621826
            },
            "position": {
                "x": 0.5540239810943604,
                "y": 0.030875300988554955,
                "z": 0.16403168439865112
            }
        },
        "name": "move_to_storage_A"
    },
    "id": "STRIDE_move_to_storage_A_42",
    "joint_names": [
        "shoulder_pan_joint",
        "shoulder_lift_joint",
        "elbow_joint",
        "wrist_1_joint",
        "wrist_2_joint",
        "wrist_3_joint"
    ],
    "metrics": {
        "cart_traj_len": 0.3538553461895445,
        "distance_elbow_joint": 0.4504703489078645,
        "distance_shoulder_lift_joint": 0.2349425825165108,
        "distance_shoulder_pan_joint": 0.46241309881279447,
        "distance_wrist_1_joint": 0.24270617422226626,
        "distance_wrist_2_joint": 1.10204847443908,
        "distance_wrist_3_joint": 0.09777260121708498,
        "smoothness": 6.661338200497456e-16,
        "time": 0.029688661999999998,
        "traj_len": 1.6094574489919269,
        "weighted_distance": 2.032400829366864
    },
    "planner": "STRIDE",
    "start": {
        "state": {
            "elbow_joint": 1.97154746011099,
            "shoulder_lift_joint": -1.13948474672311,
            "shoulder_pan_joint": 0.12281154466712228,
            "wrist_1_joint": -0.7804688027058302,
            "wrist_2_joint": 0.12958655903071145,
            "wrist_3_joint": 3.0906928834467795
        }
    },
    "waypoints": [
        {
            "positions": [
                0.12281154466712228,
                -1.13948474672311,
                1.97154746011099,
                -0.7804688027058302,
                0.12958655903071145,
                3.0906928834467795
            ]
        },
        {
            "positions": [
                0.05675253055100879,
                -1.1730479727968972,
                2.0359003670978275,
                -0.8151411133090111,
                0.28702205537915143,
                3.104660397906363
            ]
        },
        {
            "positions": [
                -0.009306483565104703,
                -1.2066111988706845,
                2.1002532740846656,
                -0.849813423912192,
                0.4444575517275914,
                3.118627912365947
            ]
        },
        {
            "positions": [
                -0.07536549768121818,
                -1.2401744249444717,
                2.164606181071503,
                -0.8844857345153728,
                0.6018930480760314,
                3.1325954268255303
            ]
        },
        {
            "positions": [
                -0.14142451179733168,
                -1.273737651018259,
                2.228959088058341,
                -0.9191580451185537,
                0.7593285444244714,
                3.1465629412851137
            ]
        },
        {
            "positions": [
                -0.2074835259134452,
                -1.3073008770920462,
                2.293311995045179,
                -0.9538303557217347,
                0.9167640407729114,
                3.160530455744697
            ]
        },
        {
            "positions": [
                -0.27354254002955863,
                -1.3408641031658335,
                2.357664902032017,
                -0.9885026663249156,
                1.0741995371213513,
                3.174497970204281
            ]
        },
        {
            "positions": [
                -0.33960155414567217,
                -1.3744273292396207,
                2.4220178090188544,
                -1.0231749769280964,
                1.2316350334697914,
                3.1884654846638645
            ]
        }
    ]
}{
    "goal": {
        "global_pose": {
            "orientation": {
                "w": 0.5084816217422485,
                "x": -0.49083608388900757,
                "y": 0.5182115435600281,
                "z": -0.4816462993621826
            },
            "position": {
                "x": 0.5540239810943604,
                "y": 0.030875300988554955,
                "z": 0.16403168439865112
            }
        },
        "name": "move_to_storage_A"
    },
    "id": "STRIDE_move_to_storage_A_42",
    "joint_names": [
        "shoulder_pan_joint",
        "shoulder_lift_joint",
        "elbow_joint",
        "wrist_1_joint",
        "wrist_2_joint",
        "wrist_3_joint"
    ],
    "metrics": {
        "cart_traj_len": 0.35369359400010825,
        "distance_elbow_joint": 0.4517024069762199,
        "distance_shoulder_lift_joint": 0.23395411046406922,
        "distance_shoulder_pan_joint": 0.4630953914560613,
        "distance_wrist_1_joint": 0.24712780333969397,
        "distance_wrist_2_joint": 1.097749511153776,
        "distance_wrist_3_joint": 0.09610787875946336,
        "smoothness": 8.881784232165597e-16,
        "time": 0.060459682,
        "traj_len": 1.6092660134823216,
        "weighted_distance": 2.0314601089269955
    },
    "planner": "STRIDE",
    "start": {
        "state": {
            "elbow_joint": 1.9715472970024885,
            "shoulder_lift_joint": -1.1394870060712896,
            "shoulder_pan_joint": 0.12281152778156021,
            "wrist_1_joint": -0.780463741449964,
            "wrist_2_joint": 0.12958659822042276,
            "wrist_3_joint": 3.090690232415272
        }
    },
    "waypoints": [
        {
            "positions": [
                0.12281152778156021,
                -1.1394870060712896,
                1.9715472970024885,
                -0.780463741449964,
                0.12958659822042276,
                3.090690232415272
            ]
        },
        {
            "positions": [
                0.05665504328783717,
                -1.172909021851871,
                2.0360762122848057,
                -0.8157677133556346,
                0.2864079569566765,
                3.1044199293809096
            ]
        },
        {
            "positions": [
                -0.009501441205885863,
                -1.2063310376324523,
                2.100605127567123,
                -0.8510716852613052,
                0.4432293156929302,
                3.118149626346547
            ]
        },
        {
            "positions": [
                -0.07565792569960889,
                -1.2397530534130337,
                2.16513404284944,
                -0.8863756571669756,
                0.6000506744291839,
                3.1318793233121847
            ]
        },
        {
            "positions": [
                -0.14181441019333194,
                -1.2731750691936148,
                2.229662958131757,
                -0.9216796290726462,
                0.7568720331654376,
                3.1456090202778224
            ]
        },
        {
            "positions": [
                -0.207970894687055,
                -1.3065970849741961,
                2.294191873414074,
                -0.9569836009783168,
                0.9136933919016914,
                3.15933871724346
            ]
        },
        {
            "positions": [
                -0.274127379180778,
                -1.3400191007547775,
                2.3587207886963912,
                -0.9922875728839874,
                1.070514750637945,
                3.1730684142090975
            ]
        },
        {
            "positions": [
                -0.3402838636745011,
                -1.3734411165353588,
                2.4232497039787084,
                -1.027591544789658,
                1.2273361093741988,
                3.186798111174735
            ]
        }
    ]
}