{
    "goal": {
        "global_pose": {
            "orientation": {
                "w": 0.7031023502349854,
                "x": -0.7110244035720825,
                "y": 0.007748599164187908,
                "z": 0.005598929710686207
            },
            "position": {
                "x": 0.11585023208521307,
                "y": 0.44412534475326537,
                "z": 0.3711530566215515
            }
        },
        "name": "move_to_auspresseinheit_A"
    },
    "id": "STRIDE_move_to_auspresseinheit_A_41",
    "joint_names": [
        "shoulder_pan_joint",
        "shoulder_lift_joint",
        "elbow_joint",
        "wrist_1_joint",
        "wrist_2_joint",
        "wrist_3_joint"
    ],
    "metrics": {
        "cart_traj_len": 2.7479515168344446,
        "distance_elbow_joint": 2.5891381054308167,
        "distance_shoulder_lift_joint": 0.9809866951961499,
        "distance_shoulder_pan_joint": 2.907793969371956,
        "distance_wrist_1_joint": 3.565404187066933,
        "distance_wrist_2_joint": 1.0189794489813755,
        "distance_wrist_3_joint": 5.692187853645041,
        "smoothness": 1.4501607679597723,
        "time": 1.35400607,
        "traj_len": 4.093224921708099,
        "weighted_distance": 5.720423900641514
    },
    "planner": "STRIDE",
    "start": {
        "state": {
            "elbow_joint": 2.4225746658250005,
            "shoulder_lift_joint": -1.3736534386056498,
            "shoulder_pan_joint": -0.3378633547517467,
            "wrist_1_joint": -1.0288598680537169,
            "wrist_2_joint": 1.233022673432363,
            "wrist_3_joint": -3.0940220416140027
        }
    },
    "waypoints": [
        {
            "positions": [
                -0.3378633547517467,
                -1.3736534386056498,
                2.4225746658250005,
                -1.0288598680537169,
                1.233022673432363,
                -3.0940220416140027
            ]
        },
        {
            "positions": [
                -0.283064283930465,
                -1.3898056708531885,
                2.32882645130367,
                -0.9811023135955848,
                1.2184335880755557,
                -2.941118442658886
            ]
        },
        {
            "positions": [
                -0.22826521310918332,
                -1.4059579031007272,
                2.235078236782339,
                -0.9333447591374525,
                1.203844502718748,
                -2.788214843703769
            ]
        },
        {
            "positions": [
                -0.17346614228790164,
                -1.422110135348266,
                2.1413300222610085,
                -0.8855872046793203,
                1.1892554173619407,
                -2.635311244748652
            ]
        },
        {
            "positions": [
                -0.11866707146661992,
                -1.4382623675958044,
                2.047581807739678,
                -0.8378296502211882,
                1.1746663320051334,
                -2.4824076457935353
            ]
        },
        {
            "positions": [
                -0.06386800064533821,
                -1.454414599843343,
                1.953833593218347,
                -0.790072095763056,
                1.160077246648326,
                -2.3295040468384185
            ]
        },
        {
            "positions": [
                -0.009068929824056549,
                -1.4705668320908818,
                1.8600853786970162,
                -0.7423145413049238,
                1.1454881612915186,
                -2.1766004478833016
            ]
        },
        {
            "positions": [
                0.045730140997225166,
                -1.4867190643384205,
                1.7663371641756855,
                -0.6945569868467916,
                1.130899075934711,
                -2.023696848928185
            ]
        },
        {
            "positions": [
                0.1005292118185069,
                -1.5028712965859592,
                1.672588949654355,
                -0.6467994323886594,
                1.1163099905779037,
                -1.870793249973068
            ]
        },
        {
            "positions": [
                0.1720993741561223,
                -1.5095675341470436,
                1.6159676159443555,
                -0.5799828890976033,
                1.0814113653494635,
                -1.7556762593066586
            ]
        },
        {
            "positions": [
                0.24366953649373774,
                -1.5162637717081282,
                1.5593462822343562,
                -0.5131663458065471,
                1.0465127401210232,
                -1.6405592686402493
            ]
        },
        {
            "positions": [
                0.3152396988313532,
                -1.5229600092692126,
                1.5027249485243568,
                -0.4463498025154909,
                1.0116141148925828,
                -1.52544227797384
            ]
        },
        {
            "positions": [
                0.3868098611689686,
                -1.529656246830297,
                1.4461036148143573,
                -0.3795332592244347,
                0.9767154896641427,
                -1.4103252873074306
            ]
        },
        {
            "positions": [
                0.4583800235065841,
                -1.5363524843913816,
                1.3894822811043581,
                -0.3127167159333785,
                0.9418168644357023,
                -1.2952082966410212
            ]
        },
        {
            "positions": [
                0.5299501858441995,
                -1.543048721952466,
                1.3328609473943587,
                -0.2459001726423223,
                0.9069182392072621,
                -1.1800913059746119
            ]
        },
        {
            "positions": [
                0.6275012290237696,
                -1.5656429350105323,
                1.3200380925779216,
                -0.1461056549257652,
                0.8431233362921494,
                -1.1048111525405084
            ]
        },
        {
            "positions": [
                0.7250522722033397,
                -1.5882371480685986,
                1.3072152377614843,
                -0.04631113720920807,
                0.7793284333770367,
                -1.0295309991064048
            ]
        },
        {
            "positions": [
                0.8226033153829098,
                -1.610831361126665,
                1.2943923829450472,
                0.05348338050734905,
                0.715533530461924,
                -0.9542508456723013
            ]
        },
        {
            "positions": [
                0.92015435856248,
                -1.633425574184731,
                1.28156952812861,
                0.15327789822390617,
                0.6517386275468113,
                -0.8789706922381977
            ]
        },
        {
            "positions": [
                1.0177054017420502,
                -1.6560197872427973,
                1.2687466733121728,
                0.25307241594046326,
                0.5879437246316987,
                -0.8036905388040942
            ]
        },
        {
            "positions": [
                1.11525644492162,
                -1.6786140003008636,
                1.2559238184957355,
                0.3528669336570204,
                0.5241488217165859,
                -0.7284103853699907
            ]
        },
        {
            "positions": [
                1.2128074881011903,
                -1.70120821335893,
                1.2431009636792985,
                0.4526614513735775,
                0.4603539188014733,
                -0.6531302319358872
            ]
        },
        {
            "positions": [
                1.1878901228997996,
                -1.7319253119629159,
                1.320841445070239,
                0.3836969298879409,
                0.4690443116934643,
                -0.822743889743096
            ]
        },
        {
            "positions": [
                1.1629727576984086,
                -1.7626424105669019,
                1.3985819264611796,
                0.3147324084023043,
                0.4777347045854553,
                -0.9923575475503048
            ]
        },
        {
            "positions": [
                1.1380553924970176,
                -1.7933595091708878,
                1.4763224078521202,
                0.2457678869166677,
                0.48642509747744633,
                -1.1619712053575135
            ]
        },
        {
            "positions": [
                1.1131380272956268,
                -1.8240766077748736,
                1.5540628892430608,
                0.1768033654310311,
                0.4951154903694373,
                -1.3315848631647225
            ]
        },
        {
            "positions": [
                1.088220662094236,
                -1.8547937063788595,
                1.6318033706340014,
                0.10783884394539445,
                0.5038058832614283,
                -1.5011985209719314
            ]
        },
        {
            "positions": [
                1.063303296892845,
                -1.8855108049828455,
                1.709543852024942,
                0.038874322459757915,
                0.5124962761534193,
                -1.6708121787791401
            ]
        },
        {
            "positions": [
                1.038385931691454,
                -1.9162279035868315,
                1.7872843334158826,
                -0.030090199025878728,
                0.5211866690454103,
                -1.840425836586349
            ]
        },
        {
            "positions": [
                1.0134685664900633,
                -1.9469450021908175,
                1.8650248148068234,
                -0.09905472051151532,
                0.5298770619374014,
                -2.010039494393558
            ]
        },
        {
            "positions": [
                0.9885512012886725,
                -1.9776621007948034,
                1.942765296197764,
                -0.168019241997152,
                0.5385674548293923,
                -2.1796531522007667
            ]
        },
        {
            "positions": [
                0.9636338360872816,
                -2.008379199398789,
                2.0205057775887045,
                -0.2369837634827886,
                0.5472578477213833,
                -2.3492668100079754
            ]
        },
        {
            "positions": [
                0.9387164708858907,
                -2.039096298002775,
                2.098246258979645,
                -0.3059482849684251,
                0.5559482406133743,
                -2.518880467815184
            ]
        },
        {
            "positions": [
                0.9137991056844998,
                -2.069813396606761,
                2.1759867403705857,
                -0.37491280645406166,
                0.5646386335053653,
                -2.688494125622393
            ]
        },
        {
            "positions": [
                0.888881740483109,
                -2.100530495210747,
                2.253727221761526,
                -0.44387732793969836,
                0.5733290263973563,
                -2.8581077834296025
            ]
        },
        {
            "positions": [
                0.8639643752817181,
                -2.131247593814733,
                2.331467703152467,
                -0.512841849425335,
                0.5820194192893473,
                -3.027721441236811
            ]
        },
        {
            "positions": [
                0.9488897502581549,
                -2.105480024635046,
                2.3696643866681195,
                -0.3960499242748535,
                0.602529579690161,
                -2.950391615367613
            ]
        },
        {
            "positions": [
                1.0338151252345917,
                -2.079712455455359,
                2.407861070183772,
                -0.27925799912437205,
                0.6230397400909745,
                -2.8730617894984154
            ]
        },
        {
            "positions": [
                1.1187405002110284,
                -2.0539448862756724,
                2.446057753699425,
                -0.16246607397389062,
                0.6435499004917882,
                -2.7957319636292173
            ]
        },
        {
            "positions": [
                1.2036658751874654,
                -2.0281773170959854,
                2.4842544372150774,
                -0.045674148823409144,
                0.6640600608926017,
                -2.7184021377600196
            ]
        },
        {
            "positions": [
                1.288591250163902,
                -2.0024097479162983,
                2.52245112073073,
                0.07111777632707228,
                0.6845702212934154,
                -2.6410723118908215
            ]
        },
        {
            "positions": [
                1.171860622400429,
                -1.983498809098572,
                2.4963882714839936,
                -0.035766211890591315,
                0.6889890996651241,
                -2.739083452954824
            ]
        },
        {
            "positions": [
                1.0551299946369561,
                -1.9645878702808455,
                2.470325422237257,
                -0.1426502001082549,
                0.6934079780368329,
                -2.837094594018826
            ]
        },
        {
            "positions": [
                0.9383993668734831,
                -1.9456769314631193,
                2.44426257299052,
                -0.24953418832591845,
                0.6978268564085416,
                -2.9351057350828285
            ]
        },
        {
            "positions": [
                0.8216687391100101,
                -1.9267659926453928,
                2.4181997237437836,
                -0.3564181765435821,
                0.7022457347802503,
                -3.033116876146831
            ]
        },
        {
            "positions": [
                0.7049381113465372,
                -1.9078550538276664,
                2.392136874497047,
                -0.4633021647612456,
                0.706664613151959,
                -3.131128017210833
            ]
        }
    ]
}