{
    "goal": {
        "global_pose": {
            "orientation": {
                "w": 0.7047431468963623,
                "x": -0.7094548344612122,
                "y": 0.0024358443915843964,
                "z": -0.0022348060738295317
            },
            "position": {
                "x": 0.6094750761985779,
                "y": 0.3671506643295288,
                "z": 0.19426114857196808
            }
        },
        "name": "move_to_magneteinheit_A"
    },
    "id": "STRIDE_move_to_magneteinheit_A_45",
    "joint_names": [
        "shoulder_pan_joint",
        "shoulder_lift_joint",
        "elbow_joint",
        "wrist_1_joint",
        "wrist_2_joint",
        "wrist_3_joint"
    ],
    "metrics": {
        "cart_traj_len": 3.8979100429001416,
        "distance_elbow_joint": 3.875536775629755,
        "distance_shoulder_lift_joint": 0.26117382813793344,
        "distance_shoulder_pan_joint": 3.978543363287316,
        "distance_wrist_1_joint": 0.8333728702891213,
        "distance_wrist_2_joint": 2.6312340358730877,
        "distance_wrist_3_joint": 2.59529226752253,
        "smoothness": 0.1767630252661144,
        "time": 0.066759072,
        "traj_len": 3.764990456925453,
        "weighted_distance": 4.7781109846828596
    },
    "planner": "STRIDE",
    "start": {
        "state": {
            "elbow_joint": -1.9196185241190666,
            "shoulder_lift_joint": -1.2443396400964142,
            "shoulder_pan_joint": 2.6996025414629847,
            "wrist_1_joint": -1.5485510000780065,
            "wrist_2_joint": -1.5709468930060704,
            "wrist_3_joint": 0.4420197071253992
        }
    },
    "waypoints": [
        {
            "positions": [
                2.6996025414629847,
                -1.2443396400964142,
                -1.9196185241190666,
                -1.5485510000780065,
                -1.5709468930060704,
                0.4420197071253992
            ]
        },
        {
            "positions": [
                2.5435421050264875,
                -1.235399923470406,
                -1.8425659088223618,
                -1.5280907001865127,
                -1.467980541883418,
                0.4567538300148222
            ]
        },
        {
            "positions": [
                2.38748166858999,
                -1.2264602068443977,
                -1.7655132935256572,
                -1.507630400295019,
                -1.3650141907607654,
                0.4714879529042452
            ]
        },
        {
            "positions": [
                2.2314212321534925,
                -1.2175204902183896,
                -1.6884606782289526,
                -1.4871701004035252,
                -1.2620478396381127,
                0.4862220757936683
            ]
        },
        {
            "positions": [
                2.0753607957169953,
                -1.2085807735923813,
                -1.6114080629322478,
                -1.4667098005120314,
                -1.1590814885154603,
                0.5009561986830913
            ]
        },
        {
            "positions": [
                1.9193003592804978,
                -1.1996410569663731,
                -1.534355447635543,
                -1.4462495006205376,
                -1.056115137392808,
                0.5156903215725143
            ]
        },
        {
            "positions": [
                1.7632399228440003,
                -1.1907013403403648,
                -1.4573028323388384,
                -1.4257892007290438,
                -0.9531487862701553,
                0.5304244444619374
            ]
        },
        {
            "positions": [
                1.607179486407503,
                -1.1817616237143567,
                -1.3802502170421338,
                -1.40532890083755,
                -0.8501824351475028,
                0.5451585673513604
            ]
        },
        {
            "positions": [
                1.4511190499710056,
                -1.1728219070883483,
                -1.303197601745429,
                -1.3848686009460562,
                -0.7472160840248503,
                0.5598926902407834
            ]
        },
        {
            "positions": [
                1.2950586135345081,
                -1.1638821904623402,
                -1.2261449864487242,
                -1.3644083010545625,
                -0.6442497329021978,
                0.5746268131302064
            ]
        },
        {
            "positions": [
                1.1389981770980109,
                -1.1549424738363319,
                -1.1490923711520196,
                -1.3439480011630687,
                -0.5412833817795453,
                0.5893609360196295
            ]
        },
        {
            "positions": [
                0.9829377406615132,
                -1.1460027572103237,
                -1.0720397558553147,
                -1.323487701271575,
                -0.43831703065689265,
                0.6040950589090525
            ]
        },
        {
            "positions": [
                0.8268773042250159,
                -1.1370630405843154,
                -0.9949871405586102,
                -1.303027401380081,
                -0.33535067953424025,
                0.6188291817984755
            ]
        },
        {
            "positions": [
                0.6708168677885187,
                -1.1281233239583073,
                -0.9179345252619053,
                -1.2825671014885873,
                -0.23238432841158763,
                0.6335633046878986
            ]
        },
        {
            "positions": [
                0.5147564313520214,
                -1.119183607332299,
                -0.8408819099652007,
                -1.2621068015970935,
                -0.12941797728893523,
                0.6482974275773216
            ]
        },
        {
            "positions": [
                0.35869599491552373,
                -1.1102438907062908,
                -0.7638292946684959,
                -1.2416465017055998,
                -0.026451626166282605,
                0.6630315504667446
            ]
        },
        {
            "positions": [
                0.20263555847902648,
                -1.1013041740802825,
                -0.6867766793717913,
                -1.221186201814106,
                0.0765147249563698,
                0.6777656733561677
            ]
        },
        {
            "positions": [
                0.04657512204252878,
                -1.0923644574542744,
                -0.6097240640750865,
                -1.2007259019226122,
                0.17948107607902242,
                0.6924997962455907
            ]
        },
        {
            "positions": [
                -0.10948531439396847,
                -1.0834247408282662,
                -0.5326714487783819,
                -1.1802656020311184,
                0.2824474272016748,
                0.7072339191350137
            ]
        },
        {
            "positions": [
                -0.2655457508304657,
                -1.0744850242022579,
                -0.4556188334816771,
                -1.1598053021396246,
                0.38541377832432744,
                0.7219680420244368
            ]
        },
        {
            "positions": [
                -0.421606187266963,
                -1.0655453075762495,
                -0.3785662181849725,
                -1.1393450022481308,
                0.48838012944697984,
                0.7367021649138596
            ]
        },
        {
            "positions": [
                -0.5776666237034608,
                -1.0566055909502414,
                -0.3015136028882676,
                -1.118884702356637,
                0.5913464805696325,
                0.7514362878032828
            ]
        },
        {
            "positions": [
                -0.5338369863209064,
                -1.0611955771372266,
                -0.16042411198833292,
                -1.0936530415711525,
                0.5620376891760459,
                0.8943035182310732
            ]
        },
        {
            "positions": [
                -0.490007348938352,
                -1.0657855633242115,
                -0.01933462108839823,
                -1.0684213807856682,
                0.5327288977824594,
                1.0371707486588635
            ]
        },
        {
            "positions": [
                -0.44617771155579766,
                -1.0703755495111966,
                0.12175486981153644,
                -1.0431897200001836,
                0.5034201063888728,
                1.180037979086654
            ]
        },
        {
            "positions": [
                -0.40234807417324325,
                -1.0749655356981815,
                0.26284436071147116,
                -1.017958059214699,
                0.47411131499528636,
                1.3229052095144445
            ]
        },
        {
            "positions": [
                -0.35851843679068884,
                -1.0795555218851667,
                0.4039338516114059,
                -0.9927263984292146,
                0.4448025236016998,
                1.465772439942235
            ]
        },
        {
            "positions": [
                -0.3146887994081345,
                -1.0841455080721516,
                0.5450233425113404,
                -0.9674947376437302,
                0.41549373220811325,
                1.6086396703700254
            ]
        },
        {
            "positions": [
                -0.27085916202558014,
                -1.0887354942591367,
                0.6861128334112752,
                -0.9422630768582456,
                0.3861849408145267,
                1.7515069007978157
            ]
        },
        {
            "positions": [
                -0.22702952464302573,
                -1.0933254804461217,
                0.8272023243112099,
                -0.9170314160727611,
                0.3568761494209402,
                1.8943741312256062
            ]
        },
        {
            "positions": [
                -0.18319988726047132,
                -1.0979154666331068,
                0.9682918152111446,
                -0.8917997552872766,
                0.32756735802735365,
                2.037241361653397
            ]
        },
        {
            "positions": [
                -0.13937024987791696,
                -1.102505452820092,
                1.1093813061110793,
                -0.8665680945017922,
                0.29825856663376715,
                2.1801085920811873
            ]
        },
        {
            "positions": [
                -0.09554061249536261,
                -1.1070954390070769,
                1.250470797011014,
                -0.8413364337163076,
                0.2689497752401806,
                2.3229758225089774
            ]
        },
        {
            "positions": [
                -0.0517109751128082,
                -1.111685425194062,
                1.3915602879109485,
                -0.8161047729308232,
                0.23964098384659405,
                2.465843052936768
            ]
        },
        {
            "positions": [
                -0.00788133773025379,
                -1.116275411381047,
                1.5326497788108833,
                -0.7908731121453387,
                0.21033219245300755,
                2.6087102833645583
            ]
        },
        {
            "positions": [
                0.03594829965230051,
                -1.120865397568032,
                1.673739269710818,
                -0.7656414513598542,
                0.181023401059421,
                2.7515775137923484
            ]
        },
        {
            "positions": [
                0.07977793703485492,
                -1.125455383755017,
                1.814828760610753,
                -0.7404097905743696,
                0.1517146096658345,
                2.894444744220139
            ]
        },
        {
            "positions": [
                0.12360757441740937,
                -1.130045369942002,
                1.9559182515106874,
                -0.7151781297888852,
                0.12240581827224797,
                3.0373119746479293
            ]
        }
    ]
}