{
    "goal": {
        "global_pose": {
            "orientation": {
                "w": 0.7031023480610252,
                "x": -0.7110244013736278,
                "y": 0.0077485991402295624,
                "z": 0.005598929693374583
            },
            "position": {
                "x": -0.8841497679147869,
                "y": 0.44412534475326537,
                "z": 0.3711530566215515
            }
        },
        "name": "move_to_auspresseinheit_D"
    },
    "id": "STRIDE_move_to_auspresseinheit_D_98",
    "joint_names": [
        "shoulder_pan_joint",
        "shoulder_lift_joint",
        "elbow_joint",
        "wrist_1_joint",
        "wrist_2_joint",
        "wrist_3_joint"
    ],
    "metrics": {
        "cart_traj_len": 0.3436507061743473,
        "distance_elbow_joint": 0.6597924433632256,
        "distance_shoulder_lift_joint": 0.13367511639341867,
        "distance_shoulder_pan_joint": 0.13372936303174143,
        "distance_wrist_1_joint": 0.6056099520646372,
        "distance_wrist_2_joint": 1.4304159238918968,
        "distance_wrist_3_joint": 0.061827288340488895,
        "smoothness": 0.0,
        "time": 0.33676861,
        "traj_len": 1.7392671120576644,
        "weighted_distance": 2.277000338103383
    },
    "planner": "STRIDE",
    "start": {
        "state": {
            "elbow_joint": -1.8275523626775212,
            "shoulder_lift_joint": -2.126789852344167,
            "shoulder_pan_joint": -0.03513704404078235,
            "wrist_1_joint": -2.347782403156801,
            "wrist_2_joint": -1.6058999987535132,
            "wrist_3_joint": -3.0880379163319196
        }
    },
    "waypoints": [
        {
            "positions": [
                -0.03513704404078235,
                -2.126789852344167,
                -1.8275523626775212,
                -2.347782403156801,
                -1.6058999987535132,
                -3.0880379163319196
            ]
        },
        {
            "positions": [
                -0.05185321441975003,
                -2.1434992418933443,
                -1.7450783072571179,
                -2.4234836471648804,
                -1.4270980082670262,
                -3.0803095052893585
            ]
        },
        {
            "positions": [
                -0.06856938479871771,
                -2.1602086314425213,
                -1.6626042518367148,
                -2.49918489117296,
                -1.2482960177805391,
                -3.0725810942467975
            ]
        },
        {
            "positions": [
                -0.08528555517768538,
                -2.1769180209916987,
                -1.5801301964163117,
                -2.57488613518104,
                -1.0694940272940519,
                -3.0648526832042364
            ]
        },
        {
            "positions": [
                -0.10200172555665307,
                -2.193627410540876,
                -1.4976561409959084,
                -2.6505873791891195,
                -0.8906920368075648,
                -3.0571242721616754
            ]
        },
        {
            "positions": [
                -0.11871789593562074,
                -2.2103368000900536,
                -1.415182085575505,
                -2.726288623197199,
                -0.7118900463210778,
                -3.049395861119114
            ]
        },
        {
            "positions": [
                -0.13543406631458843,
                -2.227046189639231,
                -1.332708030155102,
                -2.801989867205279,
                -0.5330880558345905,
                -3.041667450076553
            ]
        },
        {
            "positions": [
                -0.1521502366935561,
                -2.243755579188408,
                -1.2502339747346989,
                -2.8776911112133585,
                -0.3542860653481035,
                -3.0339390390339918
            ]
        },
        {
            "positions": [
                -0.1688664070725238,
                -2.2604649687375855,
                -1.1677599193142956,
                -2.953392355221438,
                -0.17548407486161643,
                -3.0262106279914307
            ]
        }
    ]
}