{
    "goal": {
        "global_pose": {
            "orientation": {
                "w": -0.4816463035849501,
                "x": 0.5182115481033762,
                "y": 0.4908360881923453,
                "z": -0.5084816262002911
            },
            "position": {
                "x": -0.8240239810943604,
                "y": 0.19912469901144506,
                "z": 0.16403168439865112
            }
        },
        "name": "move_to_storage_D"
    },
    "id": "STRIDE_move_to_storage_D_93",
    "joint_names": [
        "shoulder_pan_joint",
        "shoulder_lift_joint",
        "elbow_joint",
        "wrist_1_joint",
        "wrist_2_joint",
        "wrist_3_joint"
    ],
    "metrics": {
        "cart_traj_len": 0.7010021668445791,
        "distance_elbow_joint": 0.7754543869165851,
        "distance_shoulder_lift_joint": 0.15301501355808167,
        "distance_shoulder_pan_joint": 0.3917543039212439,
        "distance_wrist_1_joint": 3.8456228931014764,
        "distance_wrist_2_joint": 2.1025782095951033,
        "distance_wrist_3_joint": 3.2358248907177587,
        "smoothness": 0.8270751469011384,
        "time": 0.048490361999999995,
        "traj_len": 3.2410260254756125,
        "weighted_distance": 4.787911922951627
    },
    "planner": "STRIDE",
    "start": {
        "state": {
            "elbow_joint": -2.384821988534728,
            "shoulder_lift_joint": -2.2788054721415256,
            "shoulder_pan_joint": -0.1854694642142757,
            "wrist_1_joint": 1.4845938289331202,
            "wrist_2_joint": 0.17898776772866878,
            "wrist_3_joint": 0.037105688729662994
        }
    },
    "waypoints": [
        {
            "positions": [
                -0.1854694642142757,
                -2.2788054721415256,
                -2.384821988534728,
                1.4845938289331202,
                0.17898776772866878,
                0.037105688729662994
            ]
        },
        {
            "positions": [
                -0.24541167395746033,
                -2.2772328194352296,
                -2.4401270051894026,
                1.4602552393271466,
                0.2607233412637361,
                0.0433605964044341
            ]
        },
        {
            "positions": [
                -0.3053538837006449,
                -2.275660166728933,
                -2.4954320218440773,
                1.435916649721173,
                0.34245891479880336,
                0.0496155040792052
            ]
        },
        {
            "positions": [
                -0.2008345858056896,
                -2.2426657351622508,
                -2.4098918313656683,
                1.440962751215173,
                0.32129808040392327,
                0.03015316123026899
            ]
        },
        {
            "positions": [
                -0.09631528791073429,
                -2.2096713035955684,
                -2.3243516408872593,
                1.446008852709173,
                0.30013724600904323,
                0.010690818381332776
            ]
        },
        {
            "positions": [
                -0.09369731755052745,
                -2.20617626838673,
                -2.3037781420268253,
                1.2882232897549426,
                0.22110452127007624,
                0.14337375128426377
            ]
        },
        {
            "positions": [
                -0.0910793471903206,
                -2.2026812331778913,
                -2.2832046431663913,
                1.1304377268007122,
                0.1420717965311092,
                0.27605668418719476
            ]
        },
        {
            "positions": [
                -0.08846137683011376,
                -2.199186197969053,
                -2.2626311443059572,
                0.9726521638464818,
                0.06303907179214219,
                0.4087396170901258
            ]
        },
        {
            "positions": [
                -0.08584340646990692,
                -2.1956911627602143,
                -2.242057645445523,
                0.8148666008922515,
                -0.01599365294682481,
                0.5414225499930567
            ]
        },
        {
            "positions": [
                -0.08322543610970007,
                -2.1921961275513757,
                -2.2214841465850887,
                0.6570810379380211,
                -0.09502637768579186,
                0.6741054828959878
            ]
        },
        {
            "positions": [
                -0.08060746574949322,
                -2.188701092342537,
                -2.2009106477246547,
                0.4992954749837907,
                -0.17405910242475886,
                0.8067884157989188
            ]
        },
        {
            "positions": [
                -0.07798949538928637,
                -2.1852060571336986,
                -2.1803371488642207,
                0.34150991202956016,
                -0.2530918271637259,
                0.9394713487018499
            ]
        },
        {
            "positions": [
                -0.07537152502907954,
                -2.18171102192486,
                -2.1597636500037867,
                0.18372434907532997,
                -0.33212455190269285,
                1.0721542816047807
            ]
        },
        {
            "positions": [
                -0.07275355466887268,
                -2.1782159867160216,
                -2.1391901511433526,
                0.025938786121099566,
                -0.4111572766416599,
                1.2048372145077118
            ]
        },
        {
            "positions": [
                -0.07013558430866584,
                -2.174720951507183,
                -2.1186166522829186,
                -0.13184677683313084,
                -0.49019000138062696,
                1.3375201474106428
            ]
        },
        {
            "positions": [
                -0.067517613948459,
                -2.1712259162983445,
                -2.0980431534224846,
                -0.28963233978736125,
                -0.5692227261195939,
                1.4702030803135737
            ]
        },
        {
            "positions": [
                -0.06489964358825215,
                -2.167730881089506,
                -2.0774696545620506,
                -0.44741790274159166,
                -0.648255450858561,
                1.6028860132165048
            ]
        },
        {
            "positions": [
                -0.06228167322804531,
                -2.164235845880668,
                -2.0568961557016165,
                -0.6052034656958218,
                -0.727288175597528,
                1.7355689461194357
            ]
        },
        {
            "positions": [
                -0.05966370286783845,
                -2.1607408106718293,
                -2.0363226568411825,
                -0.7629890286500527,
                -0.8063209003364951,
                1.868251879022367
            ]
        },
        {
            "positions": [
                -0.05704573250763161,
                -2.157245775462991,
                -2.015749157980748,
                -0.9207745916042827,
                -0.8853536250754619,
                2.0009348119252977
            ]
        },
        {
            "positions": [
                -0.05442776214742477,
                -2.1537507402541523,
                -1.9951756591203142,
                -1.078560154558513,
                -0.964386349814429,
                2.1336177448282285
            ]
        },
        {
            "positions": [
                -0.05180979178721792,
                -2.1502557050453137,
                -1.97460216025988,
                -1.236345717512744,
                -1.043419074553396,
                2.26630067773116
            ]
        },
        {
            "positions": [
                -0.049191821427011076,
                -2.146760669836475,
                -1.954028661399446,
                -1.3941312804669739,
                -1.122451799292363,
                2.3989836106340907
            ]
        },
        {
            "positions": [
                -0.046573851066804235,
                -2.1432656346276366,
                -1.933455162539012,
                -1.5519168434212043,
                -1.20148452403133,
                2.5316665435370216
            ]
        },
        {
            "positions": [
                -0.04395588070659738,
                -2.139770599418798,
                -1.912881663678578,
                -1.7097024063754347,
                -1.2805172487702972,
                2.664349476439953
            ]
        },
        {
            "positions": [
                -0.04133791034639054,
                -2.1362755642099596,
                -1.892308164818144,
                -1.867487969329665,
                -1.3595499735092642,
                2.7970324093428838
            ]
        },
        {
            "positions": [
                -0.0387199399861837,
                -2.132780529001121,
                -1.8717346659577099,
                -2.0252735322838955,
                -1.438582698248231,
                2.9297153422458146
            ]
        },
        {
            "positions": [
                -0.036101969625976844,
                -2.1292854937922825,
                -1.8511611670972756,
                -2.183059095238126,
                -1.517615422987198,
                3.062398275148746
            ]
        },
        {
            "positions": [
                -0.033483999265770004,
                -2.125790458583444,
                -1.8305876682368416,
                -2.3408446581923563,
                -1.5966481477261651,
                3.195081208051677
            ]
        }
    ]
}