{
    "goal": {
        "global_pose": {
            "orientation": {
                "w": 0.7031023502349854,
                "x": -0.7110244035720825,
                "y": 0.007748599164187908,
                "z": 0.005598929710686207
            },
            "position": {
                "x": 0.11585023208521307,
                "y": 0.44412534475326537,
                "z": 0.3711530566215515
            }
        },
        "name": "move_to_auspresseinheit_A"
    },
    "id": "STRIDE_move_to_auspresseinheit_A_138",
    "joint_names": [
        "shoulder_pan_joint",
        "shoulder_lift_joint",
        "elbow_joint",
        "wrist_1_joint",
        "wrist_2_joint",
        "wrist_3_joint"
    ],
    "metrics": {
        "cart_traj_len": 0.686176175406398,
        "distance_elbow_joint": 0.030677377326159494,
        "distance_shoulder_lift_joint": 0.7160853251620178,
        "distance_shoulder_pan_joint": 1.0454023809506352,
        "distance_wrist_1_joint": 0.7729670356032854,
        "distance_wrist_2_joint": 0.6740884202312963,
        "distance_wrist_3_joint": 1.5016420594858824,
        "smoothness": 0.9529634940851914,
        "time": 0.224986686,
        "traj_len": 2.1773521990618048,
        "weighted_distance": 3.031699551994825
    },
    "planner": "STRIDE",
    "start": {
        "state": {
            "elbow_joint": 2.4225746658250005,
            "shoulder_lift_joint": -1.3736534386056498,
            "shoulder_pan_joint": -0.3378633547517467,
            "wrist_1_joint": -1.0288598680537169,
            "wrist_2_joint": 1.233022673432363,
            "wrist_3_joint": -3.0940220416140027
        }
    },
    "waypoints": [
        {
            "positions": [
                -0.3378633547517467,
                -1.3736534386056498,
                2.4225746658250005,
                -1.0288598680537169,
                1.233022673432363,
                -3.0940220416140027
            ]
        },
        {
            "positions": [
                -0.2642593712748649,
                -1.4431668491722616,
                2.420057544240122,
                -0.9543812364939651,
                1.1664772101877816,
                -3.0127163975316273
            ]
        },
        {
            "positions": [
                -0.190655387797983,
                -1.5126802597388733,
                2.417540422655244,
                -0.8799026049342134,
                1.0999317469432,
                -2.931410753449252
            ]
        },
        {
            "positions": [
                -0.11705140432110112,
                -1.5821936703054853,
                2.4150233010703657,
                -0.8054239733744615,
                1.0333862836986185,
                -2.850105109366876
            ]
        },
        {
            "positions": [
                -0.043447420844219264,
                -1.651707080872097,
                2.4125061794854874,
                -0.7309453418147097,
                0.9668408204540371,
                -2.7687994652845007
            ]
        },
        {
            "positions": [
                0.030156562632662642,
                -1.7212204914387088,
                2.4099890579006087,
                -0.6564667102549578,
                0.9002953572094555,
                -2.6874938212021253
            ]
        },
        {
            "positions": [
                0.1037605461095445,
                -1.7907339020053206,
                2.4074719363157304,
                -0.5819880786952061,
                0.8337498939648741,
                -2.60618817711975
            ]
        },
        {
            "positions": [
                0.1773645295864264,
                -1.8602473125719325,
                2.404954814730852,
                -0.5075094471354543,
                0.7672044307202925,
                -2.524882533037374
            ]
        },
        {
            "positions": [
                0.2509685130633082,
                -1.929760723138544,
                2.402437693145974,
                -0.43303081557570255,
                0.7006589674757111,
                -2.4435768889549987
            ]
        },
        {
            "positions": [
                0.32457249654019016,
                -1.999274133705156,
                2.3999205715610956,
                -0.3585521840159507,
                0.6341135042311296,
                -2.3622712448726233
            ]
        },
        {
            "positions": [
                0.41342519011339757,
                -1.9783933076352314,
                2.398241650814032,
                -0.38321275121150683,
                0.6517493301908147,
                -2.5403986653600468
            ]
        },
        {
            "positions": [
                0.502277883686605,
                -1.9575124815653067,
                2.396562730066968,
                -0.407873318407063,
                0.6693851561505,
                -2.71852608584747
            ]
        },
        {
            "positions": [
                0.5911305772598123,
                -1.936631655495382,
                2.3948838093199045,
                -0.4325338856026192,
                0.6870209821101851,
                -2.896653506334893
            ]
        },
        {
            "positions": [
                0.6799832708330198,
                -1.9157508294254573,
                2.393204888572841,
                -0.45719445279817533,
                0.7046568080698703,
                -3.0747809268223163
            ]
        },
        {
            "positions": [
                0.7075390261988882,
                -1.9088095036426445,
                2.391897288498841,
                -0.46121153558146966,
                0.7092927552611924,
                -3.1321625076171262
            ]
        }
    ]
}