{
    "goal": {
        "global_pose": {
            "orientation": {
                "w": 0.7031023502349854,
                "x": -0.7110244035720825,
                "y": 0.007748599164187908,
                "z": 0.005598929710686207
            },
            "position": {
                "x": 0.11585023208521307,
                "y": 0.44412534475326537,
                "z": 0.3711530566215515
            }
        },
        "name": "move_to_auspresseinheit_A"
    },
    "id": "STRIDE_move_to_auspresseinheit_A_129",
    "joint_names": [
        "shoulder_pan_joint",
        "shoulder_lift_joint",
        "elbow_joint",
        "wrist_1_joint",
        "wrist_2_joint",
        "wrist_3_joint"
    ],
    "metrics": {
        "cart_traj_len": 0.7150893582711559,
        "distance_elbow_joint": 0.1162208012370538,
        "distance_shoulder_lift_joint": 0.6847817830367176,
        "distance_shoulder_pan_joint": 1.0446910413951036,
        "distance_wrist_1_joint": 0.6524209755495248,
        "distance_wrist_2_joint": 0.5139294923921861,
        "distance_wrist_3_joint": 1.3632737757935804,
        "smoothness": 0.8777219055127906,
        "time": 1.350988501,
        "traj_len": 2.0917260502762227,
        "weighted_distance": 2.8754505540754893
    },
    "planner": "STRIDE",
    "start": {
        "state": {
            "elbow_joint": 2.4225746658250005,
            "shoulder_lift_joint": -1.3736534386056498,
            "shoulder_pan_joint": -0.3378633547517467,
            "wrist_1_joint": -1.0288598680537169,
            "wrist_2_joint": 1.233022673432363,
            "wrist_3_joint": -3.0940220416140027
        }
    },
    "waypoints": [
        {
            "positions": [
                -0.3378633547517467,
                -1.3736534386056498,
                2.4225746658250005,
                -1.0288598680537169,
                1.233022673432363,
                -3.0940220416140027
            ]
        },
        {
            "positions": [
                -0.2618077507139686,
                -1.449924509551147,
                2.4134748037400175,
                -0.9528846236423474,
                1.1826000144643118,
                -3.011511677305219
            ]
        },
        {
            "positions": [
                -0.1857521466761905,
                -1.526195580496644,
                2.404374941655035,
                -0.8769093792309779,
                1.1321773554962604,
                -2.9290013129964354
            ]
        },
        {
            "positions": [
                -0.10969654263841239,
                -1.6024666514421413,
                2.395275079570052,
                -0.8009341348196084,
                1.0817546965282092,
                -2.8464909486876517
            ]
        },
        {
            "positions": [
                -0.033640938600634274,
                -1.6787377223876385,
                2.3861752174850697,
                -0.7249588904082389,
                1.031332037560158,
                -2.763980584378868
            ]
        },
        {
            "positions": [
                0.04241466543714384,
                -1.7550087933331358,
                2.3770753554000867,
                -0.6489836459968694,
                0.9809093785921068,
                -2.681470220070084
            ]
        },
        {
            "positions": [
                0.11847026947492195,
                -1.831279864278633,
                2.367975493315104,
                -0.5730084015854998,
                0.9304867196240555,
                -2.5989598557613003
            ]
        },
        {
            "positions": [
                0.19452587351270006,
                -1.90755093522413,
                2.3588756312301213,
                -0.4970331571741303,
                0.8800640606560042,
                -2.5164494914525166
            ]
        },
        {
            "positions": [
                0.2705814775504782,
                -1.9838220061696272,
                2.3497757691451384,
                -0.42105791276276083,
                0.829641401687953,
                -2.433939127143733
            ]
        },
        {
            "positions": [
                0.3796430298236978,
                -1.9651687023014421,
                2.3606312452844365,
                -0.432212667827403,
                0.8020043465260089,
                -2.6097368424745606
            ]
        },
        {
            "positions": [
                0.4887045820969175,
                -1.9465153984332573,
                2.371486721423734,
                -0.44336742289204517,
                0.7743672913640649,
                -2.7855345578053883
            ]
        },
        {
            "positions": [
                0.597766134370137,
                -1.9278620945650722,
                2.382342197563032,
                -0.45452217795668737,
                0.746730236202121,
                -2.961332273136216
            ]
        },
        {
            "positions": [
                0.7068276866433567,
                -1.909208790696887,
                2.39319767370233,
                -0.4656769330213295,
                0.7190931810401769,
                -3.1371299884670436
            ]
        }
    ]
}