{
    "goal": {
        "global_pose": {
            "orientation": {
                "w": 0.7031023480610252,
                "x": -0.7110244013736278,
                "y": 0.0077485991402295624,
                "z": 0.005598929693374583
            },
            "position": {
                "x": -0.8841497679147869,
                "y": 0.44412534475326537,
                "z": 0.3711530566215515
            }
        },
        "name": "move_to_auspresseinheit_D"
    },
    "id": "STRIDE_move_to_auspresseinheit_D_42",
    "joint_names": [
        "shoulder_pan_joint",
        "shoulder_lift_joint",
        "elbow_joint",
        "wrist_1_joint",
        "wrist_2_joint",
        "wrist_3_joint"
    ],
    "metrics": {
        "cart_traj_len": 0.34403731328687764,
        "distance_elbow_joint": 0.65411065841425,
        "distance_shoulder_lift_joint": 0.12950951614172457,
        "distance_shoulder_pan_joint": 0.13340881515300732,
        "distance_wrist_1_joint": 0.5781790635662611,
        "distance_wrist_2_joint": 1.4385660649359697,
        "distance_wrist_3_joint": 0.0463495289193987,
        "smoothness": 3.9474596431116675e-16,
        "time": 0.06614899,
        "traj_len": 1.7263034632215193,
        "weighted_distance": 2.2560070552796683
    },
    "planner": "STRIDE",
    "start": {
        "state": {
            "elbow_joint": -1.8275523626775212,
            "shoulder_lift_joint": -2.126789852344167,
            "shoulder_pan_joint": -0.03513704404078235,
            "wrist_1_joint": -2.347782403156801,
            "wrist_2_joint": -1.6058999987535132,
            "wrist_3_joint": -3.0880379163319196
        }
    },
    "waypoints": [
        {
            "positions": [
                -0.03513704404078235,
                -2.126789852344167,
                -1.8275523626775212,
                -2.347782403156801,
                -1.6058999987535132,
                -3.0880379163319196
            ]
        },
        {
            "positions": [
                -0.05181314593490827,
                -2.1429785418618823,
                -1.7457885303757399,
                -2.4200547861025834,
                -1.426079240636517,
                -3.0822442252169946
            ]
        },
        {
            "positions": [
                -0.06848924782903418,
                -2.159167231379598,
                -1.6640246980739586,
                -2.492327169048366,
                -1.2462584825195209,
                -3.07645053410207
            ]
        },
        {
            "positions": [
                -0.08516534972316009,
                -2.1753559208973137,
                -1.5822608657721775,
                -2.564599551994149,
                -1.0664377244025245,
                -3.070656842987145
            ]
        },
        {
            "positions": [
                -0.101841451617286,
                -2.191544610415029,
                -1.5004970334703962,
                -2.6368719349399314,
                -0.8866169662855283,
                -3.0648631518722205
            ]
        },
        {
            "positions": [
                -0.11851755351141191,
                -2.2077332999327446,
                -1.418733201168615,
                -2.709144317885714,
                -0.7067962081685322,
                -3.0590694607572955
            ]
        },
        {
            "positions": [
                -0.13519365540553785,
                -2.22392198945046,
                -1.3369693688668338,
                -2.781416700831497,
                -0.5269754500515358,
                -3.0532757696423705
            ]
        },
        {
            "positions": [
                -0.15186975729966376,
                -2.240110678968176,
                -1.2552055365650525,
                -2.8536890837772795,
                -0.3471546919345396,
                -3.047482078527446
            ]
        },
        {
            "positions": [
                -0.16854585919378967,
                -2.2562993684858914,
                -1.1734417042632712,
                -2.925961466723062,
                -0.16733393381754355,
                -3.041688387412521
            ]
        }
    ]
}