{
    "goal": {
        "global_pose": {
            "orientation": {
                "w": -0.4816463035849501,
                "x": 0.5182115481033762,
                "y": 0.4908360881923453,
                "z": -0.5084816262002911
            },
            "position": {
                "x": -0.8240239810943604,
                "y": -0.300875300988555,
                "z": 0.16403168439865112
            }
        },
        "name": "move_to_storage_C"
    },
    "id": "STRIDE_move_to_storage_C_47",
    "joint_names": [
        "shoulder_pan_joint",
        "shoulder_lift_joint",
        "elbow_joint",
        "wrist_1_joint",
        "wrist_2_joint",
        "wrist_3_joint"
    ],
    "metrics": {
        "cart_traj_len": 0.5764775649406749,
        "distance_elbow_joint": 0.25482901999608165,
        "distance_shoulder_lift_joint": 0.1876227946997776,
        "distance_shoulder_pan_joint": 0.4955222080566508,
        "distance_wrist_1_joint": 0.06893936130642353,
        "distance_wrist_2_joint": 1.063431956869465,
        "distance_wrist_3_joint": 0.07107667669409512,
        "smoothness": 0.0,
        "time": 0.288106145,
        "traj_len": 1.4633598387349893,
        "weighted_distance": 1.8482279862578028
    },
    "planner": "STRIDE",
    "start": {
        "state": {
            "elbow_joint": 2.010868314990456,
            "shoulder_lift_joint": -1.1634956873337592,
            "shoulder_pan_joint": -2.4736205022346125,
            "wrist_1_joint": -0.8367026794202681,
            "wrist_2_joint": 0.6746043897044499,
            "wrist_3_joint": -3.1496632123970403
        }
    },
    "waypoints": [
        {
            "positions": [
                -2.4736205022346125,
                -1.1634956873337592,
                2.010868314990456,
                -0.8367026794202681,
                0.6746043897044499,
                -3.1496632123970403
            ]
        },
        {
            "positions": [
                -2.556207536910721,
                -1.132225221550463,
                1.9683968116577755,
                -0.8252127858691976,
                0.851843049182694,
                -3.1378170996146912
            ]
        },
        {
            "positions": [
                -2.6387945715868293,
                -1.1009547557671666,
                1.9259253083250953,
                -0.8137228923181269,
                1.0290817086609383,
                -3.1259709868323418
            ]
        },
        {
            "positions": [
                -2.7213816062629377,
                -1.0696842899838703,
                1.883453804992415,
                -0.8022329987670563,
                1.2063203681391825,
                -3.1141248740499927
            ]
        },
        {
            "positions": [
                -2.8039686409390465,
                -1.038413824200574,
                1.8409823016597346,
                -0.7907431052159858,
                1.3835590276174266,
                -3.1022787612676437
            ]
        },
        {
            "positions": [
                -2.886555675615155,
                -1.0071433584172778,
                1.7985107983270545,
                -0.7792532116649151,
                1.5607976870956708,
                -3.090432648485294
            ]
        },
        {
            "positions": [
                -2.9691427102912633,
                -0.9758728926339816,
                1.7560392949943742,
                -0.7677633181138446,
                1.738036346573915,
                -3.078586535702945
            ]
        }
    ]
}