{
    "goal": {
        "global_pose": {
            "orientation": {
                "w": -0.00223480608172531,
                "x": 0.0024358444001904467,
                "y": 0.7094548369677653,
                "z": -0.704743149386269
            },
            "position": {
                "x": 0.6205249238014221,
                "y": -0.6371506643295288,
                "z": 0.19426114857196808
            }
        },
        "name": "move_to_magneteinheit_B"
    },
    "id": "STRIDE_move_to_magneteinheit_B_133",
    "joint_names": [
        "shoulder_pan_joint",
        "shoulder_lift_joint",
        "elbow_joint",
        "wrist_1_joint",
        "wrist_2_joint",
        "wrist_3_joint"
    ],
    "metrics": {
        "cart_traj_len": 1.5217851692160216,
        "distance_elbow_joint": 0.9522213202758665,
        "distance_shoulder_lift_joint": 1.082890968875589,
        "distance_shoulder_pan_joint": 1.620864363995175,
        "distance_wrist_1_joint": 0.5399287694289598,
        "distance_wrist_2_joint": 1.5158295877283063,
        "distance_wrist_3_joint": 3.6284556750857484,
        "smoothness": 0.7162434190609827,
        "time": 0.41430832900000003,
        "traj_len": 3.056172554910741,
        "weighted_distance": 4.3188957376531345
    },
    "planner": "STRIDE",
    "start": {
        "state": {
            "elbow_joint": 2.6216224122426386,
            "shoulder_lift_joint": -1.4174107377796124,
            "shoulder_pan_joint": 0.7066234856936794,
            "wrist_1_joint": 1.9546482284002225,
            "wrist_2_joint": -0.7096286983471962,
            "wrist_3_joint": 0.005740856962016249
        }
    },
    "waypoints": [
        {
            "positions": [
                0.7066234856936794,
                -1.4174107377796124,
                2.6216224122426386,
                1.9546482284002225,
                -0.7096286983471962,
                0.005740856962016249
            ]
        },
        {
            "positions": [
                0.6286543573412099,
                -1.4495689660126714,
                2.5837249648334355,
                1.9575060506151356,
                -0.7186990854690025,
                -0.02930976158836942
            ]
        },
        {
            "positions": [
                0.5257892587305102,
                -1.4616133824025421,
                2.5485343429049987,
                1.9418132369181773,
                -0.7508802556755831,
                0.1357620011750953
            ]
        },
        {
            "positions": [
                0.42292416011981054,
                -1.4736577987924129,
                2.513343720976562,
                1.9261204232212192,
                -0.7830614258821638,
                0.30083376393856004
            ]
        },
        {
            "positions": [
                0.3200590615091109,
                -1.4857022151822838,
                2.478153099048125,
                1.910427609524261,
                -0.8152425960887444,
                0.4659055267020247
            ]
        },
        {
            "positions": [
                0.2171939628984112,
                -1.4977466315721546,
                2.4429624771196883,
                1.8947347958273026,
                -0.8474237662953251,
                0.6309772894654895
            ]
        },
        {
            "positions": [
                0.1143288642877116,
                -1.5097910479620253,
                2.4077718551912515,
                1.8790419821303446,
                -0.8796049365019057,
                0.7960490522289541
            ]
        },
        {
            "positions": [
                0.011463765677011906,
                -1.521835464351896,
                2.372581233262815,
                1.8633491684333863,
                -0.9117861067084864,
                0.9611208149924187
            ]
        },
        {
            "positions": [
                -0.0914013329336878,
                -1.5338798807417668,
                2.3373906113343783,
                1.8476563547364282,
                -0.943967276915067,
                1.1261925777558834
            ]
        },
        {
            "positions": [
                -0.1942664315443875,
                -1.5459242971316376,
                2.3021999894059415,
                1.83196354103947,
                -0.9761484471216477,
                1.2912643405193482
            ]
        },
        {
            "positions": [
                -0.2971315301550872,
                -1.5579687135215086,
                2.2670093674775047,
                1.8162707273425116,
                -1.0083296173282283,
                1.4563361032828128
            ]
        },
        {
            "positions": [
                -0.3999966287657867,
                -1.5700131299113793,
                2.231818745549068,
                1.8005779136455535,
                -1.040510787534809,
                1.6214078660462774
            ]
        },
        {
            "positions": [
                -0.5028617273764864,
                -1.58205754630125,
                2.196628123620631,
                1.7848850999485952,
                -1.0726919577413896,
                1.7864796288097422
            ]
        },
        {
            "positions": [
                -0.536239172435984,
                -1.5131692955183198,
                2.1575431039779076,
                1.810218353577498,
                -1.1597152082975561,
                1.6591790469940642
            ]
        },
        {
            "positions": [
                -0.5696166174954815,
                -1.4442810447353895,
                2.1184580843351846,
                1.8355516072064009,
                -1.2467384588537227,
                1.5318784651783863
            ]
        },
        {
            "positions": [
                -0.6029940625549792,
                -1.3753927939524593,
                2.079373064692461,
                1.8608848608353037,
                -1.3337617094098893,
                1.404577883362708
            ]
        },
        {
            "positions": [
                -0.6363715076144768,
                -1.3065045431695292,
                2.0402880450497376,
                1.8862181144642065,
                -1.4207849599660558,
                1.2772773015470302
            ]
        },
        {
            "positions": [
                -0.6697489526739744,
                -1.2376162923865988,
                2.0012030254070146,
                1.9115513680931093,
                -1.5078082105222224,
                1.149976719731352
            ]
        },
        {
            "positions": [
                -0.7031263977334721,
                -1.1687280416036687,
                1.962118005764291,
                1.9368846217220121,
                -1.594831461078389,
                1.0226761379156741
            ]
        },
        {
            "positions": [
                -0.7365038427929697,
                -1.0998397908207385,
                1.9230329861215678,
                1.962217875350915,
                -1.6818547116345555,
                0.8953755560999961
            ]
        },
        {
            "positions": [
                -0.7698812878524672,
                -1.0309515400378082,
                1.8839479664788445,
                1.9875511289798178,
                -1.768877962190722,
                0.7680749742843183
            ]
        },
        {
            "positions": [
                -0.8032587329119648,
                -0.9620632892548779,
                1.8448629468361213,
                2.0128843826087204,
                -1.8559012127468886,
                0.64077439246864
            ]
        },
        {
            "positions": [
                -0.8366361779714624,
                -0.8931750384719476,
                1.805777927193398,
                2.0382176362376234,
                -1.9429244633030551,
                0.5134738106529619
            ]
        },
        {
            "positions": [
                -0.8700136230309601,
                -0.8242867876890174,
                1.7666929075506745,
                2.0635508898665265,
                -2.0299477138592215,
                0.3861732288372841
            ]
        },
        {
            "positions": [
                -0.9033910680904577,
                -0.7553985369060872,
                1.7276078879079513,
                2.088884143495429,
                -2.1169709644153882,
                0.25887264702160595
            ]
        },
        {
            "positions": [
                -0.9088159731959768,
                -0.709605961426693,
                1.6985044899373616,
                2.1191096199957653,
                -2.1712146252454456,
                0.13386830484704873
            ]
        },
        {
            "positions": [
                -0.9142408783014959,
                -0.6638133859472989,
                1.669401091966772,
                2.1493350964961015,
                -2.2254582860755026,
                0.008863962672491494
            ]
        }
    ]
}