{
    "goal": {
        "global_pose": {
            "orientation": {
                "w": 0.5084816262002911,
                "x": -0.4908360881923452,
                "y": 0.5182115481033761,
                "z": -0.48164630358495003
            },
            "position": {
                "x": 0.5540239810943604,
                "y": -0.46912469901144505,
                "z": 0.16403168439865112
            }
        },
        "name": "move_to_storage_B"
    },
    "id": "STRIDE_move_to_storage_B_98",
    "joint_names": [
        "shoulder_pan_joint",
        "shoulder_lift_joint",
        "elbow_joint",
        "wrist_1_joint",
        "wrist_2_joint",
        "wrist_3_joint"
    ],
    "metrics": {
        "cart_traj_len": 1.1726042063519266,
        "distance_elbow_joint": 0.8164228334517523,
        "distance_shoulder_lift_joint": 0.46119989896690927,
        "distance_shoulder_pan_joint": 1.084768199653429,
        "distance_wrist_1_joint": 2.9965929301151686,
        "distance_wrist_2_joint": 2.7061336186629865,
        "distance_wrist_3_joint": 3.3457616489368416,
        "smoothness": 0.19448076506460588,
        "time": 0.061874265,
        "traj_len": 3.3779992791276747,
        "weighted_distance": 4.879050007577185
    },
    "planner": "STRIDE",
    "start": {
        "state": {
            "elbow_joint": 1.664937868594044,
            "shoulder_lift_joint": -0.661644460510453,
            "shoulder_pan_joint": -0.9139846352900073,
            "wrist_1_joint": 2.146753192139373,
            "wrist_2_joint": -2.2341966793290973,
            "wrist_3_joint": 0.005466555786416001
        }
    },
    "waypoints": [
        {
            "positions": [
                -0.9139846352900073,
                -0.661644460510453,
                1.664937868594044,
                2.146753192139373,
                -2.2341966793290973,
                0.005466555786416001
            ]
        },
        {
            "positions": [
                -0.8387006285407324,
                -0.6970742929398417,
                1.6263860233387983,
                2.063385498896942,
                -2.133099681648543,
                -0.010950962688126342
            ]
        },
        {
            "positions": [
                -0.7634166217914574,
                -0.7325041253692305,
                1.5878341780835528,
                1.98001780565451,
                -2.0320026839679888,
                -0.027368481162668684
            ]
        },
        {
            "positions": [
                -0.6881326150421825,
                -0.7679339577986192,
                1.5492823328283074,
                1.8966501124120783,
                -1.9309056862874345,
                -0.043785999637211026
            ]
        },
        {
            "positions": [
                -0.6128486082929075,
                -0.8033637902280079,
                1.5107304875730618,
                1.8132824191696466,
                -1.8298086886068803,
                -0.06020351811175337
            ]
        },
        {
            "positions": [
                -0.5375646015436326,
                -0.8387936226573967,
                1.4721786423178163,
                1.729914725927215,
                -1.728711690926326,
                -0.07662103658629571
            ]
        },
        {
            "positions": [
                -0.4622805947943576,
                -0.8742234550867853,
                1.4336267970625707,
                1.6465470326847833,
                -1.6276146932457718,
                -0.09303855506083805
            ]
        },
        {
            "positions": [
                -0.48865826809259844,
                -0.8845826594363927,
                1.458006453809249,
                1.5425309172405925,
                -1.5401333752216193,
                0.04226380069289476
            ]
        },
        {
            "positions": [
                -0.5150359413908392,
                -0.894941863786,
                1.4823861105559273,
                1.4385148017964018,
                -1.4526520571974666,
                0.17756615644662757
            ]
        },
        {
            "positions": [
                -0.54141361468908,
                -0.9053010681356075,
                1.5067657673026056,
                1.334498686352211,
                -1.365170739173314,
                0.3128685122003604
            ]
        },
        {
            "positions": [
                -0.5677912879873208,
                -0.9156602724852149,
                1.5311454240492839,
                1.2304825709080203,
                -1.2776894211491614,
                0.4481708679540932
            ]
        },
        {
            "positions": [
                -0.5941689612855616,
                -0.9260194768348222,
                1.5555250807959622,
                1.1264664554638293,
                -1.190208103125009,
                0.5834732237078261
            ]
        },
        {
            "positions": [
                -0.6205466345838024,
                -0.9363786811844296,
                1.5799047375426405,
                1.0224503400196385,
                -1.1027267851008564,
                0.7187755794615589
            ]
        },
        {
            "positions": [
                -0.6469243078820432,
                -0.9467378855340369,
                1.6042843942893188,
                0.9184342245754477,
                -1.0152454670767037,
                0.8540779352152917
            ]
        },
        {
            "positions": [
                -0.6733019811802841,
                -0.9570970898836443,
                1.628664051035997,
                0.814418109131257,
                -0.9277641490525512,
                0.9893802909690245
            ]
        },
        {
            "positions": [
                -0.6996796544785249,
                -0.9674562942332516,
                1.6530437077826754,
                0.7104019936870661,
                -0.8402828310283985,
                1.1246826467227573
            ]
        },
        {
            "positions": [
                -0.7260573277767657,
                -0.9778154985828591,
                1.6774233645293537,
                0.6063858782428753,
                -0.7528015130042459,
                1.25998500247649
            ]
        },
        {
            "positions": [
                -0.7524350010750065,
                -0.9881747029324665,
                1.701803021276032,
                0.5023697627986845,
                -0.6653201949800934,
                1.3952873582302228
            ]
        },
        {
            "positions": [
                -0.7788126743732473,
                -0.9985339072820738,
                1.72618267802271,
                0.39835364735449375,
                -0.5778388769559408,
                1.5305897139839557
            ]
        },
        {
            "positions": [
                -0.8051903476714881,
                -1.0088931116316813,
                1.7505623347693884,
                0.294337531910303,
                -0.49035755893178834,
                1.6658920697376884
            ]
        },
        {
            "positions": [
                -0.8315680209697289,
                -1.0192523159812885,
                1.7749419915160667,
                0.190321416466112,
                -0.40287624090763563,
                1.8011944254914214
            ]
        },
        {
            "positions": [
                -0.8579456942679697,
                -1.029611520330896,
                1.7993216482627452,
                0.08630530102192147,
                -0.31539492288348314,
                1.9364967812451543
            ]
        },
        {
            "positions": [
                -0.8843233675662105,
                -1.0399707246805032,
                1.8237013050094233,
                -0.017710814422269294,
                -0.22791360485933065,
                2.071799136998887
            ]
        },
        {
            "positions": [
                -0.9107010408644514,
                -1.0503299290301107,
                1.8480809617561018,
                -0.12172692986646028,
                -0.14043228683517794,
                2.20710149275262
            ]
        },
        {
            "positions": [
                -0.9370787141626922,
                -1.060689133379718,
                1.87246061850278,
                -0.22574304531065104,
                -0.052950968811025234,
                2.3424038485063527
            ]
        },
        {
            "positions": [
                -0.963456387460933,
                -1.0710483377293254,
                1.8968402752494582,
                -0.3297591607548418,
                0.034530349213127254,
                2.4777062042600853
            ]
        },
        {
            "positions": [
                -0.9898340607591738,
                -1.0814075420789329,
                1.9212199319961365,
                -0.4337752761990328,
                0.12201166723727996,
                2.613008560013818
            ]
        },
        {
            "positions": [
                -1.0162117340574146,
                -1.09176674642854,
                1.9455995887428148,
                -0.5377913916432235,
                0.20949298526143245,
                2.748310915767551
            ]
        },
        {
            "positions": [
                -1.0425894073556554,
                -1.1021259507781476,
                1.969979245489493,
                -0.6418075070874143,
                0.29697430328558494,
                2.8836132715212837
            ]
        },
        {
            "positions": [
                -1.0689670806538962,
                -1.112485155127755,
                1.9943589022361714,
                -0.7458236225316051,
                0.3844556213097374,
                3.018915627275017
            ]
        },
        {
            "positions": [
                -1.095344753952137,
                -1.1228443594773623,
                2.0187385589828497,
                -0.8498397379757959,
                0.47193693933389014,
                3.1542179830287496
            ]
        }
    ]
}