{
    "goal": {
        "global_pose": {
            "orientation": {
                "w": -0.4816463035849501,
                "x": 0.5182115481033762,
                "y": 0.4908360881923453,
                "z": -0.5084816262002911
            },
            "position": {
                "x": -0.8240239810943604,
                "y": 0.19912469901144506,
                "z": 0.16403168439865112
            }
        },
        "name": "move_to_storage_D"
    },
    "id": "STRIDE_move_to_storage_D_61",
    "joint_names": [
        "shoulder_pan_joint",
        "shoulder_lift_joint",
        "elbow_joint",
        "wrist_1_joint",
        "wrist_2_joint",
        "wrist_3_joint"
    ],
    "metrics": {
        "cart_traj_len": 0.5301982084790635,
        "distance_elbow_joint": 0.5544614964170695,
        "distance_shoulder_lift_joint": 0.22670494226464566,
        "distance_shoulder_pan_joint": 0.27829010959904427,
        "distance_wrist_1_joint": 3.819250289441168,
        "distance_wrist_2_joint": 1.9036841606099413,
        "distance_wrist_3_joint": 3.3641917603540152,
        "smoothness": 0.3555868654542801,
        "time": 0.121121241,
        "traj_len": 3.1853701132970222,
        "weighted_distance": 4.753724932034354
    },
    "planner": "STRIDE",
    "start": {
        "state": {
            "elbow_joint": -2.384821988534728,
            "shoulder_lift_joint": -2.2788054721415256,
            "shoulder_pan_joint": -0.1854694642142757,
            "wrist_1_joint": 1.4845938289331202,
            "wrist_2_joint": 0.17898776772866878,
            "wrist_3_joint": 0.037105688729662994
        }
    },
    "waypoints": [
        {
            "positions": [
                -0.1854694642142757,
                -2.2788054721415256,
                -2.384821988534728,
                1.4845938289331202,
                0.17898776772866878,
                0.037105688729662994
            ]
        },
        {
            "positions": [
                -0.0782255884870205,
                -2.297513441921411,
                -2.374737623057241,
                1.4421486763027307,
                0.20762198658596498,
                -0.01491468457093547
            ]
        },
        {
            "positions": [
                0.029018287240234697,
                -2.3162214117012967,
                -2.3646532575797545,
                1.399703523672341,
                0.2362562054432612,
                -0.06693505787153393
            ]
        },
        {
            "positions": [
                0.026466192914453332,
                -2.3086498515931018,
                -2.3432815469612707,
                1.2503291243051255,
                0.16239957652744724,
                0.0634709826785788
            ]
        },
        {
            "positions": [
                0.023914098588671967,
                -2.301078291484907,
                -2.321909836342787,
                1.10095472493791,
                0.08854294761163328,
                0.19387702322869155
            ]
        },
        {
            "positions": [
                0.021362004262890602,
                -2.293506731376712,
                -2.300538125724303,
                0.9515803255706944,
                0.01468631869581935,
                0.3242830637788042
            ]
        },
        {
            "positions": [
                0.018809909937109237,
                -2.285935171268517,
                -2.279166415105819,
                0.8022059262034789,
                -0.05917031021999464,
                0.454689104328917
            ]
        },
        {
            "positions": [
                0.016257815611327872,
                -2.2783636111603216,
                -2.257794704487335,
                0.6528315268362632,
                -0.1330269391358086,
                0.5850951448790297
            ]
        },
        {
            "positions": [
                0.01370572128554651,
                -2.2707920510521267,
                -2.2364229938688513,
                0.5034571274690478,
                -0.2068835680516225,
                0.7155011854291423
            ]
        },
        {
            "positions": [
                0.011153626959765146,
                -2.2632204909439317,
                -2.2150512832503675,
                0.35408272810183217,
                -0.2807401969674366,
                0.8459072259792552
            ]
        },
        {
            "positions": [
                0.00860153263398378,
                -2.255648930835737,
                -2.1936795726318836,
                0.20470832873461675,
                -0.3545968258832505,
                0.9763132665293679
            ]
        },
        {
            "positions": [
                0.006049438308202419,
                -2.248077370727542,
                -2.1723078620133998,
                0.055333929367401335,
                -0.4284534547990644,
                1.1067193070794805
            ]
        },
        {
            "positions": [
                0.0034973439824210507,
                -2.240505810619347,
                -2.150936151394916,
                -0.09404046999981452,
                -0.5023100837148784,
                1.2371253476295934
            ]
        },
        {
            "positions": [
                0.0009452496566396892,
                -2.232934250511152,
                -2.129564440776432,
                -0.24341486936702994,
                -0.5761667126306923,
                1.367531388179706
            ]
        },
        {
            "positions": [
                -0.0016068446691416757,
                -2.225362690402957,
                -2.108192730157948,
                -0.39278926873424536,
                -0.6500233415465062,
                1.4979374287298186
            ]
        },
        {
            "positions": [
                -0.004158938994923041,
                -2.2177911302947617,
                -2.0868210195394647,
                -0.542163668101461,
                -0.7238799704623202,
                1.6283434692799315
            ]
        },
        {
            "positions": [
                -0.006711033320704406,
                -2.210219570186567,
                -2.0654493089209804,
                -0.6915380674686766,
                -0.7977365993781343,
                1.7587495098300443
            ]
        },
        {
            "positions": [
                -0.00926312764648577,
                -2.202648010078372,
                -2.044077598302497,
                -0.8409124668358918,
                -0.8715932282939481,
                1.8891555503801567
            ]
        },
        {
            "positions": [
                -0.011815221972267136,
                -2.195076449970177,
                -2.022705887684013,
                -0.9902868662031075,
                -0.9454498572097622,
                2.01956159093027
            ]
        },
        {
            "positions": [
                -0.0143673162980485,
                -2.187504889861982,
                -2.0013341770655293,
                -1.139661265570323,
                -1.019306486125576,
                2.149967631480383
            ]
        },
        {
            "positions": [
                -0.01691941062382986,
                -2.179933329753787,
                -1.9799624664470454,
                -1.2890356649375383,
                -1.0931631150413899,
                2.2803736720304952
            ]
        },
        {
            "positions": [
                -0.01947150494961123,
                -2.172361769645592,
                -1.9585907558285616,
                -1.4384100643047544,
                -1.167019743957204,
                2.410779712580608
            ]
        },
        {
            "positions": [
                -0.022023599275392595,
                -2.164790209537397,
                -1.9372190452100777,
                -1.58778446367197,
                -1.2408763728730179,
                2.541185753130721
            ]
        },
        {
            "positions": [
                -0.024575693601173954,
                -2.1572186494292023,
                -1.9158473345915938,
                -1.7371588630391852,
                -1.3147330017888317,
                2.6715917936808333
            ]
        },
        {
            "positions": [
                -0.02712778792695532,
                -2.149647089321007,
                -1.89447562397311,
                -1.8865332624064008,
                -1.388589630704646,
                2.801997834230946
            ]
        },
        {
            "positions": [
                -0.02967988225273669,
                -2.142075529212812,
                -1.8731039133546261,
                -2.0359076617736163,
                -1.4624462596204597,
                2.932403874781059
            ]
        },
        {
            "positions": [
                -0.03223197657851805,
                -2.134503969104617,
                -1.8517322027361423,
                -2.185282061140832,
                -1.5363028885362735,
                3.0628099153311714
            ]
        },
        {
            "positions": [
                -0.03478407090429941,
                -2.126932408996422,
                -1.8303604921176584,
                -2.3346564605080475,
                -1.6101595174520875,
                3.1932159558812843
            ]
        }
    ]
}