{
    "goal": {
        "global_pose": {
            "orientation": {
                "w": -0.00223480608172531,
                "x": 0.0024358444001904467,
                "y": 0.7094548369677653,
                "z": -0.704743149386269
            },
            "position": {
                "x": 0.6205249238014221,
                "y": -0.6371506643295288,
                "z": 0.19426114857196808
            }
        },
        "name": "move_to_magneteinheit_B"
    },
    "id": "STRIDE_move_to_magneteinheit_B_11",
    "joint_names": [
        "shoulder_pan_joint",
        "shoulder_lift_joint",
        "elbow_joint",
        "wrist_1_joint",
        "wrist_2_joint",
        "wrist_3_joint"
    ],
    "metrics": {
        "cart_traj_len": 2.250084145654095,
        "distance_elbow_joint": 0.9579790099027139,
        "distance_shoulder_lift_joint": 2.288048557074245,
        "distance_shoulder_pan_joint": 1.863323360674905,
        "distance_wrist_1_joint": 2.500051097621542,
        "distance_wrist_2_joint": 2.907918258507423,
        "distance_wrist_3_joint": 1.278374454492491,
        "smoothness": 1.1177589346457932,
        "time": 0.6845761459999999,
        "traj_len": 3.4344860952220087,
        "weighted_distance": 4.4452686086880355
    },
    "planner": "STRIDE",
    "start": {
        "state": {
            "elbow_joint": 2.6216224122426386,
            "shoulder_lift_joint": -1.4174107377796124,
            "shoulder_pan_joint": 0.7066234856936794,
            "wrist_1_joint": 1.9546482284002225,
            "wrist_2_joint": -0.7096286983471962,
            "wrist_3_joint": 0.005740856962016249
        }
    },
    "waypoints": [
        {
            "positions": [
                0.7066234856936794,
                -1.4174107377796124,
                2.6216224122426386,
                1.9546482284002225,
                -0.7096286983471962,
                0.005740856962016249
            ]
        },
        {
            "positions": [
                0.7471638816319935,
                -1.3958224312104786,
                2.604565372229469,
                1.806191760430954,
                -0.8072001404781861,
                0.0280216433013493
            ]
        },
        {
            "positions": [
                0.7877042775703078,
                -1.374234124641345,
                2.5875083322163,
                1.6577352924616857,
                -0.904771582609176,
                0.05030242964068235
            ]
        },
        {
            "positions": [
                0.828244673508622,
                -1.3526458180722112,
                2.5704512922031304,
                1.5092788244924173,
                -1.002343024740166,
                0.07258321598001541
            ]
        },
        {
            "positions": [
                0.813373528467071,
                -1.4291915217346405,
                2.4923614201974122,
                1.4379539850267966,
                -0.9331643901253714,
                0.008756543013196408
            ]
        },
        {
            "positions": [
                0.7985023834255199,
                -1.5057372253970698,
                2.414271548191694,
                1.366629145561176,
                -0.8639857555105771,
                -0.05507012995362259
            ]
        },
        {
            "positions": [
                0.783631238383969,
                -1.582282929059499,
                2.336181676185976,
                1.2953043060955554,
                -0.7948071208957826,
                -0.11889680292044158
            ]
        },
        {
            "positions": [
                0.768760093342418,
                -1.6588286327219284,
                2.258091804180258,
                1.2239794666299346,
                -0.7256284862809883,
                -0.1827234758872606
            ]
        },
        {
            "positions": [
                0.7538889483008671,
                -1.7353743363843577,
                2.1800019321745396,
                1.152654627164314,
                -0.6564498516661939,
                -0.24655014885407958
            ]
        },
        {
            "positions": [
                0.739017803259316,
                -1.811920040046787,
                2.1019120601688215,
                1.0813297876986936,
                -0.5872712170513994,
                -0.31037682182089854
            ]
        },
        {
            "positions": [
                0.724146658217765,
                -1.8884657437092163,
                2.0238221881631033,
                1.0100049482330729,
                -0.518092582436605,
                -0.37420349478771753
            ]
        },
        {
            "positions": [
                0.7092755131762141,
                -1.9650114473716456,
                1.9457323161573852,
                0.9386801087674521,
                -0.4489139478218106,
                -0.4380301677545366
            ]
        },
        {
            "positions": [
                0.694404368134663,
                -2.041557151034075,
                1.867642444151667,
                0.8673552693018315,
                -0.37973531320701615,
                -0.5018568407213556
            ]
        },
        {
            "positions": [
                0.679533223093112,
                -2.118102854696504,
                1.7895525721459489,
                0.7960304298362109,
                -0.3105566785922218,
                -0.5656835136881746
            ]
        },
        {
            "positions": [
                0.5910337385128647,
                -2.0371124879885847,
                1.7825576182678364,
                0.8705545020060736,
                -0.41741321114591673,
                -0.5338354378100467
            ]
        },
        {
            "positions": [
                0.5025342539326173,
                -1.9561221212806652,
                1.775562664389724,
                0.9450785741759363,
                -0.5242697436996117,
                -0.5019873619319188
            ]
        },
        {
            "positions": [
                0.41403476935236994,
                -1.8751317545727457,
                1.7685677105116115,
                1.019602646345799,
                -0.6311262762533066,
                -0.4701392860537909
            ]
        },
        {
            "positions": [
                0.32553528477212257,
                -1.7941413878648262,
                1.761572756633499,
                1.0941267185156618,
                -0.7379828088070015,
                -0.438291210175663
            ]
        },
        {
            "positions": [
                0.2370358001918752,
                -1.7131510211569068,
                1.7545778027553867,
                1.1686507906855246,
                -0.8448393413606966,
                -0.4064431342975351
            ]
        },
        {
            "positions": [
                0.14853631561162783,
                -1.6321606544489873,
                1.7475828488772742,
                1.2431748628553874,
                -0.9516958739143915,
                -0.3745950584194072
            ]
        },
        {
            "positions": [
                0.060036831031380467,
                -1.5511702877410678,
                1.7405878949991618,
                1.3176989350252502,
                -1.0585524064680865,
                -0.34274698254127933
            ]
        },
        {
            "positions": [
                -0.0284626535488669,
                -1.4701799210331483,
                1.7335929411210493,
                1.392223007195113,
                -1.1654089390217814,
                -0.31089890666315145
            ]
        },
        {
            "positions": [
                -0.11696213812911427,
                -1.3891895543252288,
                1.7265979872429367,
                1.4667470793649757,
                -1.2722654715754764,
                -0.2790508307850235
            ]
        },
        {
            "positions": [
                -0.20546162270936164,
                -1.3081991876173094,
                1.7196030333648242,
                1.5412711515348385,
                -1.3791220041291714,
                -0.24720275490689558
            ]
        },
        {
            "positions": [
                -0.2939611072896091,
                -1.2272088209093899,
                1.7126080794867118,
                1.6157952237047013,
                -1.4859785366828664,
                -0.2153546790287677
            ]
        },
        {
            "positions": [
                -0.38246059186985637,
                -1.1462184542014704,
                1.7056131256085993,
                1.6903192958745639,
                -1.5928350692365612,
                -0.18350660315063982
            ]
        },
        {
            "positions": [
                -0.47096007645010374,
                -1.065228087493551,
                1.698618171730487,
                1.7648433680444267,
                -1.6996916017902561,
                -0.15165852727251194
            ]
        },
        {
            "positions": [
                -0.5594595610303511,
                -0.9842377207856314,
                1.6916232178523745,
                1.8393674402142894,
                -1.8065481343439511,
                -0.11981045139438401
            ]
        },
        {
            "positions": [
                -0.6479590456105985,
                -0.903247354077712,
                1.684628263974262,
                1.9138915123841522,
                -1.913404666897646,
                -0.08796237551625613
            ]
        },
        {
            "positions": [
                -0.7364585301908458,
                -0.8222569873697925,
                1.6776333100961496,
                1.9884155845540148,
                -2.020261199451341,
                -0.05611429963812831
            ]
        },
        {
            "positions": [
                -0.8249580147710932,
                -0.741266620661873,
                1.6706383562180371,
                2.0629396567238776,
                -2.127117732005036,
                -0.024266223760000316
            ]
        },
        {
            "positions": [
                -0.9134574993513407,
                -0.6602762539539536,
                1.6636434023399247,
                2.1374637288937404,
                -2.233974264558731,
                0.007581852118127514
            ]
        }
    ]
}