{
    "goal": {
        "global_pose": {
            "orientation": {
                "w": 0.005598929693374612,
                "x": 0.007748599140229565,
                "y": 0.7110244013736278,
                "z": -0.7031023480610252
            },
            "position": {
                "x": 0.1141497679147869,
                "y": -0.7141253447532654,
                "z": 0.3711530566215515
            }
        },
        "name": "move_to_auspresseinheit_B"
    },
    "id": "STRIDE_move_to_auspresseinheit_B_141",
    "joint_names": [
        "shoulder_pan_joint",
        "shoulder_lift_joint",
        "elbow_joint",
        "wrist_1_joint",
        "wrist_2_joint",
        "wrist_3_joint"
    ],
    "metrics": {
        "cart_traj_len": 0.5639216869466358,
        "distance_elbow_joint": 0.0630624442527814,
        "distance_shoulder_lift_joint": 0.2946862407423143,
        "distance_shoulder_pan_joint": 0.5765033217892128,
        "distance_wrist_1_joint": 0.3337736950778555,
        "distance_wrist_2_joint": 0.9950856993077628,
        "distance_wrist_3_joint": 0.008891290974298638,
        "smoothness": 0.0,
        "time": 0.136250239,
        "traj_len": 1.5073163875392006,
        "weighted_distance": 1.9022735524835646
    },
    "planner": "STRIDE",
    "start": {
        "state": {
            "elbow_joint": 2.0193083361928714,
            "shoulder_lift_joint": -1.1220246554650708,
            "shoulder_pan_joint": -1.0952077554168747,
            "wrist_1_joint": -0.8559753972642168,
            "wrist_2_joint": 0.4759566250798843,
            "wrist_3_joint": -3.1240929996934557
        }
    },
    "waypoints": [
        {
            "positions": [
                -1.0952077554168747,
                -1.1220246554650708,
                2.0193083361928714,
                -0.8559753972642168,
                0.4759566250798843,
                -3.1240929996934557
            ]
        },
        {
            "positions": [
                -1.1912916423817435,
                -1.171139028922123,
                2.008797928817408,
                -0.8003464480845742,
                0.6418042416311781,
                -3.122611117864406
            ]
        },
        {
            "positions": [
                -1.2873755293466123,
                -1.2202534023791756,
                1.9982875214419442,
                -0.7447174989049317,
                0.8076518581824719,
                -3.121129236035356
            ]
        },
        {
            "positions": [
                -1.383459416311481,
                -1.269367775836228,
                1.9877771140664806,
                -0.689088549725289,
                0.9734994747337657,
                -3.1196473542063066
            ]
        },
        {
            "positions": [
                -1.4795433032763499,
                -1.3184821492932803,
                1.9772667066910172,
                -0.6334596005456465,
                1.1393470912850594,
                -3.1181654723772567
            ]
        },
        {
            "positions": [
                -1.5756271902412187,
                -1.3675965227503326,
                1.9667562993155536,
                -0.5778306513660039,
                1.3051947078363533,
                -3.116683590548207
            ]
        },
        {
            "positions": [
                -1.6717110772060875,
                -1.416710896207385,
                1.95624589194009,
                -0.5222017021863613,
                1.4710423243876471,
                -3.115201708719157
            ]
        }
    ]
}