{
    "goal": {
        "global_pose": {
            "orientation": {
                "w": -0.00223480608172531,
                "x": 0.0024358444001904467,
                "y": 0.7094548369677653,
                "z": -0.704743149386269
            },
            "position": {
                "x": -0.37947507619857795,
                "y": -0.6371506643295288,
                "z": 0.19426114857196808
            }
        },
        "name": "move_to_magneteinheit_C"
    },
    "id": "STRIDE_move_to_magneteinheit_C_95",
    "joint_names": [
        "shoulder_pan_joint",
        "shoulder_lift_joint",
        "elbow_joint",
        "wrist_1_joint",
        "wrist_2_joint",
        "wrist_3_joint"
    ],
    "metrics": {
        "cart_traj_len": 2.5988033216187403,
        "distance_elbow_joint": 1.2121857695975748,
        "distance_shoulder_lift_joint": 0.7452423931478367,
        "distance_shoulder_pan_joint": 3.0664153206528066,
        "distance_wrist_1_joint": 0.9071360873702802,
        "distance_wrist_2_joint": 1.7143704092127945,
        "distance_wrist_3_joint": 6.4306761250210425,
        "smoothness": 0.7285085622460794,
        "time": 2.239902494,
        "traj_len": 3.7518030472030817,
        "weighted_distance": 5.436808333170068
    },
    "planner": "STRIDE",
    "start": {
        "state": {
            "elbow_joint": 1.9565354010623817,
            "shoulder_lift_joint": -1.4165861575791021,
            "shoulder_pan_joint": -1.6717766225146293,
            "wrist_1_joint": -0.5286633292919765,
            "wrist_2_joint": 1.472756589071564,
            "wrist_3_joint": -3.1238370188695823
        }
    },
    "waypoints": [
        {
            "positions": [
                -1.6717766225146293,
                -1.4165861575791021,
                1.9565354010623817,
                -0.5286633292919765,
                1.472756589071564,
                -3.1238370188695823
            ]
        },
        {
            "positions": [
                -1.512745825388252,
                -1.4167062327519975,
                1.8920243103237715,
                -0.4729805704420753,
                1.4482725453114662,
                -3.0874628553418133
            ]
        },
        {
            "positions": [
                -1.3537150282618748,
                -1.4168263079248928,
                1.8275132195851613,
                -0.41729781159217416,
                1.4237885015513685,
                -3.0510886918140447
            ]
        },
        {
            "positions": [
                -1.1946842311354975,
                -1.4169463830977882,
                1.7630021288465512,
                -0.36161505274227296,
                1.3993044577912708,
                -3.0147145282862757
            ]
        },
        {
            "positions": [
                -1.0982733112649292,
                -1.4317316873681716,
                1.7144661971506279,
                -0.38338822586820165,
                1.3569126482763187,
                -2.9019369901425813
            ]
        },
        {
            "positions": [
                -1.0018623913943612,
                -1.4465169916385552,
                1.6659302654547048,
                -0.4051613989941304,
                1.314520838761367,
                -2.789159451998887
            ]
        },
        {
            "positions": [
                -0.905451471523793,
                -1.4613022959089386,
                1.6173943337587815,
                -0.42693457212005914,
                1.272129029246415,
                -2.6763819138551925
            ]
        },
        {
            "positions": [
                -0.8090405516532249,
                -1.476087600179322,
                1.5688584020628582,
                -0.44870774524598783,
                1.2297372197314629,
                -2.563604375711498
            ]
        },
        {
            "positions": [
                -0.800590294060992,
                -1.485792119966998,
                1.5569923852335248,
                -0.4453925713124827,
                1.1416829541992548,
                -2.323645015496238
            ]
        },
        {
            "positions": [
                -0.7921400364687591,
                -1.495496639754674,
                1.5451263684041916,
                -0.44207739737897767,
                1.0536286886670467,
                -2.0836856552809775
            ]
        },
        {
            "positions": [
                -0.7836897788765262,
                -1.50520115954235,
                1.5332603515748582,
                -0.43876222344547255,
                0.9655744231348387,
                -1.8437262950657174
            ]
        },
        {
            "positions": [
                -0.7752395212842934,
                -1.514905679330026,
                1.5213943347455248,
                -0.43544704951196744,
                0.8775201576026306,
                -1.6037669348504568
            ]
        },
        {
            "positions": [
                -0.7667892636920606,
                -1.524610199117702,
                1.5095283179161916,
                -0.4321318755784624,
                0.7894658920704225,
                -1.3638075746351968
            ]
        },
        {
            "positions": [
                -0.7583390060998276,
                -1.534314718905378,
                1.4976623010868582,
                -0.4288167016449573,
                0.7014116265382144,
                -1.1238482144199364
            ]
        },
        {
            "positions": [
                -0.7498887485075948,
                -1.544019238693054,
                1.485796284257525,
                -0.4255015277114522,
                0.6133573610060062,
                -0.8838888542046761
            ]
        },
        {
            "positions": [
                -0.741438490915362,
                -1.55372375848073,
                1.4739302674281916,
                -0.4221863537779471,
                0.5253030954737982,
                -0.6439294939894156
            ]
        },
        {
            "positions": [
                -0.732988233323129,
                -1.5634282782684061,
                1.4620642505988581,
                -0.418871179844442,
                0.4372488299415901,
                -0.40397013377415547
            ]
        },
        {
            "positions": [
                -0.7245379757308962,
                -1.573132798056082,
                1.450198233769525,
                -0.41555600591093694,
                0.349194564409382,
                -0.16401077355889537
            ]
        },
        {
            "positions": [
                -0.7160877181386633,
                -1.582837317843758,
                1.4383322169401915,
                -0.41224083197743183,
                0.26114029887717394,
                0.07594858665636528
            ]
        },
        {
            "positions": [
                -0.8450498888087263,
                -1.5880847590162241,
                1.4803934409592199,
                -0.4052670476169159,
                0.2915914028641105,
                -0.09360218588619629
            ]
        },
        {
            "positions": [
                -0.9740120594787893,
                -1.59333220018869,
                1.5224546649782484,
                -0.39829326325639997,
                0.3220425068510471,
                -0.26315295842875785
            ]
        },
        {
            "positions": [
                -1.1029742301488523,
                -1.5985796413611562,
                1.5645158889972768,
                -0.39131947889588403,
                0.35249361083798364,
                -0.4327037309713194
            ]
        },
        {
            "positions": [
                -1.2319364008189153,
                -1.603827082533622,
                1.6065771130163051,
                -0.38434569453536815,
                0.3829447148249202,
                -0.602254503513881
            ]
        },
        {
            "positions": [
                -1.3608985714889783,
                -1.6090745237060882,
                1.6486383370353337,
                -0.3773719101748522,
                0.4133958188118568,
                -0.7718052760564426
            ]
        },
        {
            "positions": [
                -1.4898607421590415,
                -1.614321964878554,
                1.690699561054362,
                -0.3703981258143363,
                0.44384692279879334,
                -0.9413560485990041
            ]
        },
        {
            "positions": [
                -1.6188229128291045,
                -1.6195694060510202,
                1.7327607850733904,
                -0.36342434145382035,
                0.47429802678572996,
                -1.1109068211415658
            ]
        },
        {
            "positions": [
                -1.7477850834991673,
                -1.624816847223486,
                1.774822009092419,
                -0.3564505570933044,
                0.5047491307726665,
                -1.2804575936841274
            ]
        },
        {
            "positions": [
                -1.8767472541692303,
                -1.6300642883959522,
                1.8168832331114473,
                -0.3494767727327885,
                0.535200234759603,
                -1.450008366226689
            ]
        },
        {
            "positions": [
                -2.005709424839293,
                -1.635311729568418,
                1.8589444571304756,
                -0.34250298837227255,
                0.5656513387465396,
                -1.6195591387692505
            ]
        },
        {
            "positions": [
                -2.1346715955093565,
                -1.6405591707408842,
                1.901005681149504,
                -0.3355292040117567,
                0.5961024427334762,
                -1.7891099113118116
            ]
        },
        {
            "positions": [
                -2.2636337661794195,
                -1.64580661191335,
                1.9430669051685325,
                -0.3285554196512407,
                0.6265535467204129,
                -1.9586606838543736
            ]
        },
        {
            "positions": [
                -2.3925959368494825,
                -1.6510540530858162,
                1.985128129187561,
                -0.3215816352907248,
                0.6570046507073494,
                -2.128211456396935
            ]
        },
        {
            "positions": [
                -2.5215581075195455,
                -1.6563014942582823,
                2.027189353206589,
                -0.3146078509302089,
                0.6874557546942859,
                -2.2977622289394968
            ]
        },
        {
            "positions": [
                -2.6505202781896084,
                -1.6615489354307482,
                2.069250577225618,
                -0.30763406656969294,
                0.7179068586812225,
                -2.4673130014820583
            ]
        },
        {
            "positions": [
                -2.621137968818626,
                -1.57816899954805,
                2.0587398730272914,
                -0.3929543065097874,
                0.7102422654788301,
                -2.5819178233748366
            ]
        },
        {
            "positions": [
                -2.591755659447643,
                -1.4947890636653514,
                2.048229168828965,
                -0.4782745464498819,
                0.7025776722764375,
                -2.696522645267615
            ]
        },
        {
            "positions": [
                -2.5623733500766606,
                -1.4114091277826528,
                2.0377184646306388,
                -0.5635947863899764,
                0.694913079074045,
                -2.8111274671603934
            ]
        },
        {
            "positions": [
                -2.532991040705678,
                -1.3280291918999545,
                2.027207760432312,
                -0.6489150263300709,
                0.6872484858716525,
                -2.9257322890531716
            ]
        },
        {
            "positions": [
                -2.5036087313346953,
                -1.2446492560172562,
                2.0166970562339857,
                -0.7342352662701654,
                0.6795838926692601,
                -3.0403371109459503
            ]
        },
        {
            "positions": [
                -2.4742264219637127,
                -1.1612693201345576,
                2.0061863520356593,
                -0.8195555062102599,
                0.6719192994668676,
                -3.1549419328387285
            ]
        }
    ]
}