{
    "goal": {
        "global_pose": {
            "orientation": {
                "w": 0.7031023502349854,
                "x": -0.7110244035720825,
                "y": 0.007748599164187908,
                "z": 0.005598929710686207
            },
            "position": {
                "x": 0.11585023208521307,
                "y": 0.44412534475326537,
                "z": 0.3711530566215515
            }
        },
        "name": "move_to_auspresseinheit_A"
    },
    "id": "STRIDE_move_to_auspresseinheit_A_81",
    "joint_names": [
        "shoulder_pan_joint",
        "shoulder_lift_joint",
        "elbow_joint",
        "wrist_1_joint",
        "wrist_2_joint",
        "wrist_3_joint"
    ],
    "metrics": {
        "cart_traj_len": 1.6389369837119716,
        "distance_elbow_joint": 2.0698453407121544,
        "distance_shoulder_lift_joint": 0.7185748041696518,
        "distance_shoulder_pan_joint": 1.1706150906745436,
        "distance_wrist_1_joint": 3.587026133009756,
        "distance_wrist_2_joint": 1.8919009702046952,
        "distance_wrist_3_joint": 7.021522173111407,
        "smoothness": 0.4726606366465344,
        "time": 0.281775098,
        "traj_len": 4.057029025269871,
        "weighted_distance": 5.998454464386594
    },
    "planner": "STRIDE",
    "start": {
        "state": {
            "elbow_joint": 2.4225746658250005,
            "shoulder_lift_joint": -1.3736534386056498,
            "shoulder_pan_joint": -0.3378633547517467,
            "wrist_1_joint": -1.0288598680537169,
            "wrist_2_joint": 1.233022673432363,
            "wrist_3_joint": -3.0940220416140027
        }
    },
    "waypoints": [
        {
            "positions": [
                -0.3378633547517467,
                -1.3736534386056498,
                2.4225746658250005,
                -1.0288598680537169,
                1.233022673432363,
                -3.0940220416140027
            ]
        },
        {
            "positions": [
                -0.3136862229759032,
                -1.39491946732491,
                2.376943137874107,
                -0.9386457478543668,
                1.1806972981812356,
                -2.9421641808715977
            ]
        },
        {
            "positions": [
                -0.2895090912000597,
                -1.4161854960441702,
                2.331311609923214,
                -0.8484316276550169,
                1.128371922930108,
                -2.7903063201291927
            ]
        },
        {
            "positions": [
                -0.26533195942421617,
                -1.4374515247634303,
                2.2856800819723206,
                -0.758217507455667,
                1.0760465476789804,
                -2.638448459386787
            ]
        },
        {
            "positions": [
                -0.24115482764837265,
                -1.4587175534826906,
                2.240048554021427,
                -0.6680033872563169,
                1.023721172427853,
                -2.486590598644382
            ]
        },
        {
            "positions": [
                -0.21697769587252913,
                -1.4799835822019507,
                2.194417026070534,
                -0.5777892670569669,
                0.9713957971767253,
                -2.334732737901977
            ]
        },
        {
            "positions": [
                -0.1928005640966856,
                -1.5012496109212108,
                2.148785498119641,
                -0.48757514685761694,
                0.9190704219255978,
                -2.182874877159572
            ]
        },
        {
            "positions": [
                -0.16862343232084206,
                -1.522515639640471,
                2.1031539701687474,
                -0.3973610266582669,
                0.8667450466744703,
                -2.0310170164171666
            ]
        },
        {
            "positions": [
                -0.14444630054499855,
                -1.5437816683597312,
                2.057522442217854,
                -0.30714690645891696,
                0.8144196714233427,
                -1.8791591556747618
            ]
        },
        {
            "positions": [
                -0.12026916876915503,
                -1.5650476970789913,
                2.011890914266961,
                -0.2169327862595669,
                0.7620942961722152,
                -1.7273012949323565
            ]
        },
        {
            "positions": [
                -0.09609203699331151,
                -1.5863137257982516,
                1.9662593863160676,
                -0.12671866606021698,
                0.7097689209210877,
                -1.5754434341899515
            ]
        },
        {
            "positions": [
                -0.07191490521746796,
                -1.6075797545175117,
                1.9206278583651741,
                -0.03650454586086693,
                0.6574435456699601,
                -1.4235855734475462
            ]
        },
        {
            "positions": [
                -0.0477377734416245,
                -1.628845783236772,
                1.874996330414281,
                0.053709574338483,
                0.6051181704188326,
                -1.2717277127051412
            ]
        },
        {
            "positions": [
                -0.02356064166578098,
                -1.650111811956032,
                1.8293648024633877,
                0.14392369453783282,
                0.5527927951677051,
                -1.1198698519627361
            ]
        },
        {
            "positions": [
                0.0006164901100625952,
                -1.6713778406752922,
                1.7837332745124943,
                0.2341378147371831,
                0.5004674199165775,
                -0.9680119912203309
            ]
        },
        {
            "positions": [
                0.024793621885906114,
                -1.6926438693945525,
                1.7381017465616009,
                0.3243519349365329,
                0.44814204466544993,
                -0.8161541304779258
            ]
        },
        {
            "positions": [
                0.04897075366174963,
                -1.7139098981138126,
                1.6924702186107077,
                0.41456605513588296,
                0.3958166694143225,
                -0.6642962697355208
            ]
        },
        {
            "positions": [
                0.0731478854375931,
                -1.7351759268330729,
                1.6468386906598145,
                0.5047801753352328,
                0.343491294163195,
                -0.5124384089931158
            ]
        },
        {
            "positions": [
                0.09732501721343667,
                -1.756441955552333,
                1.601207162708921,
                0.594994295534583,
                0.29116591891206733,
                -0.3605805482507103
            ]
        },
        {
            "positions": [
                0.12150214898928019,
                -1.777707984271593,
                1.5555756347580276,
                0.6852084157339329,
                0.23884054366093987,
                -0.20872268750830525
            ]
        },
        {
            "positions": [
                0.1456792807651237,
                -1.7989740129908534,
                1.5099441068071346,
                0.7754225359332829,
                0.1865151684098123,
                -0.05686482676590021
            ]
        },
        {
            "positions": [
                0.16985641254096723,
                -1.8202400417101134,
                1.4643125788562412,
                0.8656366561326327,
                0.13418979315868484,
                0.09499303397650483
            ]
        },
        {
            "positions": [
                0.1940335443168108,
                -1.8415060704293738,
                1.4186810509053478,
                0.955850776331983,
                0.08186441790755716,
                0.2468508947189103
            ]
        },
        {
            "positions": [
                0.21821067609265424,
                -1.8627720991486338,
                1.3730495229544546,
                1.0460648965313328,
                0.02953904265642967,
                0.39870875546131546
            ]
        },
        {
            "positions": [
                0.2950270797296186,
                -1.8867318980867334,
                1.4451471455354414,
                0.993459035406024,
                0.0748078670748074,
                0.3305920726907776
            ]
        },
        {
            "positions": [
                0.37184348336658296,
                -1.9106916970248329,
                1.5172447681164283,
                0.940853174280715,
                0.12007669149318512,
                0.2624753899202398
            ]
        },
        {
            "positions": [
                0.4486598870035473,
                -1.9346514959629326,
                1.5893423906974151,
                0.8882473131554062,
                0.16534551591156285,
                0.19435870714970196
            ]
        },
        {
            "positions": [
                0.5254762906405117,
                -1.9586112949010321,
                1.661440013278402,
                0.8356414520300972,
                0.21061434032994059,
                0.12624202437916415
            ]
        },
        {
            "positions": [
                0.602292694277476,
                -1.9825710938391317,
                1.7335376358593888,
                0.7830355909047884,
                0.2558831647483183,
                0.05812534160862631
            ]
        },
        {
            "positions": [
                0.6382853260363115,
                -1.9916499675980235,
                1.77831444170881,
                0.7369531022839585,
                0.285708262584075,
                -0.025205710557416786
            ]
        },
        {
            "positions": [
                0.6742779577951471,
                -2.0007288413569153,
                1.823091247558231,
                0.6908706136631286,
                0.31553336041983165,
                -0.10853676272345988
            ]
        },
        {
            "positions": [
                0.6902917325548701,
                -2.000022979812924,
                1.8676039976826107,
                0.6184008185831693,
                0.34607628710804544,
                -0.28290711593186846
            ]
        },
        {
            "positions": [
                0.7063055073145932,
                -1.9993171182689327,
                1.91211674780699,
                0.54593102350321,
                0.37661921379625923,
                -0.4572774691402771
            ]
        },
        {
            "positions": [
                0.7223192820743163,
                -1.9986112567249412,
                1.9566294979313696,
                0.47346122842325056,
                0.40716214048447297,
                -0.6316478223486858
            ]
        },
        {
            "positions": [
                0.7383330568340393,
                -1.99790539518095,
                2.001142248055749,
                0.40099143334329124,
                0.43770506717268676,
                -0.8060181755570943
            ]
        },
        {
            "positions": [
                0.7543468315937623,
                -1.9971995336369588,
                2.0456549981801286,
                0.3285216382633318,
                0.46824799386090055,
                -0.9803885287655031
            ]
        },
        {
            "positions": [
                0.7703606063534854,
                -1.9964936720929674,
                2.0901677483045082,
                0.2560518431833725,
                0.49879092054911434,
                -1.1547588819739116
            ]
        },
        {
            "positions": [
                0.763428258623562,
                -1.9867976462980297,
                2.1238568563591254,
                0.1758198081748453,
                0.5231426384975674,
                -1.3742392973740074
            ]
        },
        {
            "positions": [
                0.7564959108936387,
                -1.9771016205030922,
                2.1575459644137425,
                0.09558777316631811,
                0.5474943564460205,
                -1.593719712774103
            ]
        },
        {
            "positions": [
                0.7495635631637153,
                -1.9674055947081546,
                2.19123507246836,
                0.015355738157790899,
                0.5718460743944735,
                -1.8132001281741985
            ]
        },
        {
            "positions": [
                0.742631215433792,
                -1.957709568913217,
                2.224924180522977,
                -0.06487629685073626,
                0.5961977923429266,
                -2.032680543574294
            ]
        },
        {
            "positions": [
                0.7356988677038685,
                -1.9480135431182795,
                2.2586132885775942,
                -0.14510833185926353,
                0.6205495102913797,
                -2.25216095897439
            ]
        },
        {
            "positions": [
                0.7287665199739451,
                -1.9383175173233418,
                2.2923023966322114,
                -0.2253403668677907,
                0.6449012282398328,
                -2.4716413743744856
            ]
        },
        {
            "positions": [
                0.7218341722440218,
                -1.9286214915284041,
                2.325991504686829,
                -0.30557240187631785,
                0.6692529461882858,
                -2.6911217897745816
            ]
        },
        {
            "positions": [
                0.7149018245140984,
                -1.9189254657334667,
                2.359680612741446,
                -0.385804436884845,
                0.6936046641367388,
                -2.910602205174677
            ]
        },
        {
            "positions": [
                0.7079694767841751,
                -1.909229439938529,
                2.393369720796063,
                -0.4660364718933722,
                0.717956382085192,
                -3.1300826205747727
            ]
        }
    ]
}